{"depmap_hotspot":{"corr":{"top":[["ABCG4",0.15944307552003834,-4.452851671289357,29.0,638.0],["C14orf2",0.1794274218204716,-5.50668915723682,8.0,659.0],["CABLES1",0.20899655427262295,-7.292373366857021,24.0,643.0],["DOCK9",0.21299498407133594,-7.555127068093732,64.0,603.0],["FBXW9",0.1514014585458743,-4.062665874148733,23.0,644.0],["GGT5",0.1880796057147525,-6.000843114255034,30.0,637.0],["GMNN",0.158792852550988,-4.42058704571203,8.0,659.0],["GPR89A",0.26512800705936873,-11.466212169578426,18.0,649.0],["HIST1H3E",0.17531841909069734,-5.280092000471045,16.0,651.0],["IL24",0.1539420496485776,-4.183862212176221,8.0,659.0],["MARCH2",0.15898567034737565,-4.430141657919627,17.0,650.0],["MS4A6A",0.16042897574544915,-4.5020139932028505,19.0,648.0],["NOP16",0.15630499974798262,-4.298302265910138,10.0,657.0],["RCOR2",0.17973525336311946,-5.523873693464029,19.0,648.0],["SKOR2",0.1634183363863696,-4.652859813576814,34.0,633.0],["SLC35C1",0.18294232830935625,-5.704643643061216,17.0,650.0],["TIGD4",0.18220045920204034,-5.662545326881078,12.0,655.0],["TMEM119",0.19368860646452843,-6.333628892205217,16.0,651.0],["TMEM82",0.17256446918878526,-5.131112469592604,15.0,652.0],["TRIM8",0.19917727779326316,-6.6688381259342995,20.0,647.0],["VAMP1",0.17316965051746205,-5.163652438350447,9.0,658.0],["WTIP",0.18822666130243926,-6.009442596704877,16.0,651.0]],"bottom":[]},"para":{"top":[],"bottom":[]}}}
{"depmap_damaging":{"corr":{"top":[["ANO3",0.17352380056238323,-5.175806880287243,10.0,656.0],["C15orf52",0.16603096593690983,-4.780526027830792,8.0,658.0],["CDH23",0.13387192212953158,-3.273828375213615,18.0,648.0],["COPB1",0.18624708621749184,-5.8862760217442265,17.0,649.0],["LAIR1",0.14785007128285835,-3.891353015297998,15.0,651.0],["MBD5",0.2392655006032081,-9.398372734124845,8.0,658.0],["MS4A6A",0.1966067166607894,-6.50179786764683,12.0,654.0],["OBSL1",0.1454016537041007,-3.779076909725292,9.0,657.0],["PHF7",0.12566334408963942,-2.937454217980267,8.0,658.0],["SLC26A5",0.17387688534741252,-5.194854018918908,10.0,656.0],["ZBED4",0.17010786196165553,-4.99349149460141,10.0,656.0]],"bottom":[]},"para":{"top":[["FBXL13",0.20171729265572333,-7.002536362896424,9.0,657.0]],"bottom":[]}}}
{"prism_primary_logfold":{"corr":{"top":[],"bottom":[["monostearin_BRD-A31454688-001-01-6::2.5::HTS",-0.23461413809276957,-5.409605679000886,379],["benperidol_BRD-K79425933-001-09-3::2.5::HTS",-0.20890202266893426,-4.422412810385404,383]]},"para":{"top":[],"bottom":[]}}}
{"prism_secondary_logfold":{"corr":{"top":[],"bottom":[["tiagabine_BRD-K60160658-003-11-2::10::HTS002",-0.2257303143909339,-3.54205986647404,254],["MK-3207_BRD-K66911501-003-01-2::2.5::HTS002",-0.2503430875029135,-5.411790148080604,332]]},"para":{"top":[],"bottom":[["LB42708_BRD-K18834913-001-01-1::0.625::HTS002",-0.21021552225439832,-3.922970349734268,330],["nilotinib_BRD-K81528515-001-13-8::2.5::HTS002",-0.22950229255104151,-4.579742182636998,329]]}}}
{"ccle_proteomics":{"corr":{"top":[["TOPORS_Q9NS56",0.2953904765343912,-4.077923534391174,172],["RNPC3_H0YEB8",0.40998642506650235,-4.7270823440999195,102]],"bottom":[["ARMCX3_Q9UH62",-0.3340432576057637,-7.363080017637735,256],["FBXO21_O94952",-0.25830679051905875,-3.237428445783069,174]]},"para":{"top":[["PPP1R14A_Q96A00",0.3137977679383116,-2.8307202877348026,100]],"bottom":[]}}}
{"depmap_gene_tpm":{"corr":{"top":[],"bottom":[]},"para":{"top":[["SIGLEC8_27181",0.23010913162837882,-8.690061350050865,663]],"bottom":[]}}}
{"avana":{"corr":{"top":[["ARSE_415",0.24471158808585525,-5.49783427784063,354],["DDX4_54514",0.21308618044731004,-4.551269684396166,380],["GAS1_2619",0.23054605368588066,-5.251238231100337,380],["SLC35F1_222553",0.23446628764329275,-5.416155275487053,380],["WDR31_114987",0.23125065787918714,-5.280667867947767,380]],"bottom":[["HGF_3082",-0.21822018799249737,-4.751291074796532,380],["PHB_5245",-0.22141359713898293,-4.832355724960137,376],["RSL24D1_51187",-0.2428491431464017,-5.778510266598775,380],["SIPA1L2_57568",-0.22953338378741447,-5.209103508700433,380],["SLC6A3_6531",-0.22036445888171113,-4.8362547898071195,380],["THPO_7066",-0.23838128533485337,-5.583730746736195,380],["TMOD3_29766",-0.21135792140631454,-4.485012373612523,380],["ZNF146_7705",-0.21059885524087435,-4.456082147961429,380]]},"para":{"top":[["DDX4_54514",0.1843643578151535,-3.519195326840843,380],["KIR3DL1_3811",0.19061338691259846,-3.7313759495843852,380]],"bottom":[["ARVCF_421",-0.19543018521351013,-3.8995765181328705,380],["CNGB1_1258",-0.2170218425194149,-4.704174275265103,380]]}}}
{"drive":{"corr":{"top":[],"bottom":[["WDR6_11180",-0.3068463227315413,-6.3905632431134265,262],["SETD1B_23067",-0.28083371493031584,-5.410124250376691,262],["BCAS3_54828",-0.3097889171639072,-6.507628816711202,262],["SMARCAD1_56916",-0.2775026741795878,-5.291483986017397,262],["RAP2B_5912",-0.27413935516647536,-5.261888994006636,267],["BCL11B_64919",-0.2879308345147309,-5.570192000210212,257],["CA12_771",-0.3195739286782353,-6.761030485116993,256],["JADE3_9767",-0.30078516389937304,-6.153428906490983,262]]},"para":{"top":[],"bottom":[["C1QTNF2_114898",-0.24643602973197784,-4.185778725844257,257]]}}}
{"achilles":{"corr":{"top":[["IER3_8870",0.2782095859521234,-3.7328038780011616,176]],"bottom":[]},"para":{"top":[["NAXD_55739",0.28485750991102515,-3.895531788055122,176],["IER3_8870",0.26786506017591083,-3.487625775395547,176]],"bottom":[["TIMM10B_26515",-0.29799816823477665,-4.229322685396129,176]]}}}
{"ccle_gene_tpm":{"corr":{"top":[],"bottom":[]},"para":{"top":[["AP005273.1_ENSG00000232500.1",0.26164757049302995,-11.066208967432702,660],["AF064858.7_ENSG00000232837.1",0.27310553751401634,-12.027013993389643,660],["RN7SL357P_ENSG00000265894.1",0.26178139305735776,-11.077166483436688,660]],"bottom":[]}}}
{"ccle_rrbs_tss_clusters":{"corr":{"top":[["NFKB2_2",0.9999999999999998,-323.0051853474518,667]],"bottom":[]},"para":{"top":[["NFKB2_2",1.0,-323.0051853474518,667]],"bottom":[]}}}
{"ccle_rrbs_cgi_clusters":{"corr":{"top":[["17_7746743_7750420-1",0.4160554464676658,-28.49590223046845,665]],"bottom":[["20_62380957_62383642-2",-0.2700627972820175,-6.7931824867351125,365]]},"para":{"top":[],"bottom":[["20_62380957_62383642-2",-0.23663182722387494,-5.3126750747917395,365]]}}}
