{"depmap_hotspot":{"corr":{"top":[["TPBG",0.18465929523199004,-7.137451455632814,25.0,813.0]],"bottom":[]},"para":{"top":[["CREM",0.16021082516717525,-5.747588049562588,21.0,817.0],["TPBG",0.17235015010955224,-6.510780527878852,25.0,813.0]],"bottom":[["AKR7A2",-0.09548766708345949,-2.541741354398031,14.0,824.0],["NRTN",-0.09411169018334341,-2.488928440448573,9.0,829.0],["SFTA3",-0.09222697868554551,-2.417809739660659,8.0,830.0]]}}}
{"depmap_damaging":{"corr":{"top":[["ADSS",0.1328175715586052,-3.9345717558872826,8.0,829.0]],"bottom":[]},"para":{"top":[["ADSS",0.11920099667212157,-3.5456389049923067,8.0,829.0],["SEC24A",0.1296373596771243,-4.04936489539836,10.0,827.0]],"bottom":[]}}}
{"ccle_rrbs_tss_clusters":{"corr":{"top":[["CFAP46_1",0.8899798785399718,-286.2730665028341,837],["CFAP46_2",0.8654058566477578,-252.0801361360701,837]],"bottom":[]},"para":{"top":[["CFAP46_1",0.8486448311425557,-232.42777751606292,837],["CFAP46_2",0.8503583786043964,-234.32513669395755,837]],"bottom":[]}}}
{"ccle_rrbs_cgi_clusters":{"corr":{"top":[["10_134753663_134756257-1",0.8294179610997998,-212.3770999663812,836]],"bottom":[]},"para":{"top":[["10_134753663_134756257-1",0.7881097969544093,-177.21906625385438,836]],"bottom":[]}}}
