{"depmap_hotspot":{"corr":{"top":[],"bottom":[]},"para":{"top":[],"bottom":[["DSCR8",-0.0936068933256629,-2.4781902225832795,8.0,834.0],["FAM19A3",-0.1078691296958961,-3.0547984423776167,9.0,833.0],["NECAB3",-0.11516198453231362,-3.3766769056591524,19.0,823.0],["SERPINB9",-0.09539436724761127,-2.5468893106701773,13.0,829.0],["TSPAN19",-0.09868128193627079,-2.675581640231326,11.0,831.0]]}}}
{"depmap_damaging":{"corr":{"top":[["PROM2",0.18928329631120136,-7.497326428369836,8.0,833.0]],"bottom":[]},"para":{"top":[],"bottom":[["LRRN4",-0.10227746037421044,-2.817994169725933,8.0,833.0],["RFX7",-0.10435512823686875,-2.9039528424697245,14.0,827.0]]}}}
{"achilles":{"corr":{"top":[],"bottom":[["C1QTNF3-AMACR_100534612",-0.21889432757689442,-2.976785652184998,221]]},"para":{"top":[],"bottom":[]}}}
{"ccle_rrbs_tss1kb":{"corr":{"top":[["MRPL18_6_160209898_160210898",0.5967668912713484,-80.58756478750222,831],["GTPBP4_10_1033348_1034348",0.8796190299587787,-269.0087454795048,831],["SIRT1_10_69643938_69644938",0.5696941299648441,-72.03364472521889,832]],"bottom":[]},"para":{"top":[["DNPEP_2_220252084_220253084",0.5367620471345852,-62.46427179290416,831],["GTPBP4_10_1033348_1034348",0.8400537008954418,-221.66244745370778,831]],"bottom":[]}}}
{"ccle_rrbs_tss_clusters":{"corr":{"top":[["KDELR2_2",0.6211284425546385,-90.15826465549212,841],["GTPBP4_2",0.9999999999999997,-323.0051853474518,842],["ZBTB4_2",0.6131395601889676,-87.35370972873027,842],["EIF4A1_2",0.6979650646004695,-123.21061333518048,842],["LOC100507373_2",0.6226504204562215,-90.5081520866938,839]],"bottom":[]},"para":{"top":[["GTPBP4_2",1.0,-323.0051853474518,842]],"bottom":[]}}}
{"ccle_rrbs_cgi_clusters":{"corr":{"top":[["15_75745765_75750449-1",0.6317995432548987,-94.28620641977602,842],["2_48131739_48136052-1",0.5753006671598544,-74.63434517778856,842],["6_160207941_160210978-1",0.597220279674188,-81.69973465228435,841],["7_6521064_6525897-3",0.6211284425546385,-90.15826465549212,841],["19_55985544_55990171-2",0.6014388680385746,-83.04268625969405,840],["17_7476623_7479330-1",0.6310258583350241,-93.76824679144241,840]],"bottom":[]},"para":{"top":[],"bottom":[["14_105184698_105187222-3",-0.16939551383560478,-5.6688794810486565,774]]}}}
