{"depmap_hotspot":{"corr":{"top":[["ARIH2",0.23217185322074968,-10.575044871388394,30.0,774.0],["BTN3A3",0.23777473551145548,-11.070331125343456,36.0,768.0],["CCDC28B",0.22938126951716992,-10.333088122092583,12.0,792.0],["CCPG1",0.24074120628332885,-11.337723502580038,40.0,764.0],["CD2BP2",0.20843755911138895,-8.61596452090754,18.0,786.0],["CLASP1",0.2107626700081921,-8.798084286156326,66.0,738.0],["ECE1",0.2436638096835515,-11.604677633680849,33.0,771.0],["EPOR",0.21040813966878408,-8.770178829322568,20.0,784.0],["GNPAT",0.22653787161564384,-10.089765761839825,28.0,776.0],["GRAMD4",0.2177012088995272,-9.354123035432135,27.0,777.0],["MCCC2",0.24037966193555826,-11.3049424960386,16.0,788.0],["MEF2B",0.24722837493516506,-11.935017334650436,28.0,776.0],["MFN2",0.22136969024983597,-9.655760812836274,40.0,764.0],["PLOD1",0.2107220024921976,-8.79488081488133,29.0,775.0],["PRIMA1",0.21955501199635316,-9.505885763221386,9.0,795.0],["PRMT3",0.23098203731383724,-10.471499262086697,23.0,781.0],["SHC1",0.20874005108208865,-8.639538878703727,41.0,763.0],["SIPA1",0.20731760766526638,-8.52899183086741,54.0,750.0],["SLC25A47",0.21038557513486386,-8.76840440952194,31.0,773.0],["SPAG4",0.23387063475644915,-10.723873036508378,22.0,782.0],["TACSTD2",0.27513545031725173,-14.705106377322789,10.0,794.0],["TCAIM",0.2144828888391988,-9.093867257562245,23.0,781.0],["THRA",0.2510215228031152,-12.29230343796051,27.0,777.0],["TLN2",0.20732171154685214,-8.529309639475075,117.0,687.0],["TMEM184A",0.21151761383259776,-8.857670054665231,30.0,774.0],["TRIM54",0.22419334459034293,-9.891563912031431,20.0,784.0],["TRMT61A",0.2471766591718367,-11.930187235412314,15.0,789.0],["ZDHHC1",0.20870488074599547,-8.636796092386021,26.0,778.0],["ZDHHC14",0.2237846372969959,-9.857236722506835,26.0,778.0]],"bottom":[]},"para":{"top":[["C11orf87",0.15822738452793578,-5.434543492145005,18.0,786.0],["C5orf20",0.11283115656928806,-3.157726938739799,8.0,796.0],["C9orf152",0.12489673034231598,-3.6965338467151003,13.0,791.0],["CCDC84",0.1475920478965411,-4.839966801142491,23.0,781.0],["HHLA3",0.09817520230037781,-2.567389325517327,8.0,796.0],["NEUROG1",0.17093987590877258,-6.195093727238961,17.0,787.0],["PRIMA1",0.11684813139801242,-3.331792782886152,9.0,795.0],["SRPRB",0.10580819892888385,-2.866223847855258,9.0,795.0],["ZDHHC16",0.1446171828717921,-4.68036122966043,22.0,782.0],["ZFAND2B",0.10363250580933862,-2.77908087848331,8.0,796.0]],"bottom":[]}}}
{"depmap_damaging":{"corr":{"top":[["C9orf131",0.2616999835412614,-13.314699441239005,11.0,792.0],["CCDC88B",0.205136430707503,-8.35141013499735,10.0,793.0],["COL4A2",0.23581035142102358,-10.88255144201598,15.0,788.0],["KIF7",0.25541353164963865,-12.69855860915174,13.0,790.0],["MASTL",0.25753411658335373,-12.904543450959677,8.0,795.0],["PDE11A",0.1964829759737237,-7.703801776594855,8.0,795.0],["PEX1",0.240011066348399,-11.258432790369675,13.0,790.0],["R3HDM2",0.2561462125683358,-12.769515276751111,13.0,790.0],["SCN8A",0.21563407873158977,-9.17589523178476,10.0,793.0],["TMEM55A",0.27600293549347066,-14.779068226616474,8.0,795.0],["VWA3B",0.24330271796153274,-11.557994108568328,14.0,789.0],["ZC3H4",0.31873194291458196,-19.691537282761626,8.0,795.0],["ZCCHC8",0.24226444125089439,-11.463026094410958,11.0,792.0],["ZSWIM8",0.2183650328922441,-9.397443523881533,14.0,789.0]],"bottom":[]},"para":{"top":[["MYO1D",0.13226698456415847,-4.045122568580703,16.0,787.0],["PDE11A",0.12116184721050907,-3.521026763643347,8.0,795.0],["TRPC6",0.14128034928220756,-4.499712318875513,8.0,795.0]],"bottom":[]}}}
{"ccle_proteomics":{"corr":{"top":[],"bottom":[]},"para":{"top":[["GPR161_Q8N6U8-4",0.30364044370101473,-3.171324166195076,122]],"bottom":[]}}}
{"ccle_rrbs_tss1kb":{"corr":{"top":[["SPAG1_8_101169562_101170562",0.5604133333687604,-66.1287257914584,794],["SPAG1_8_101169262_101170262",0.5284884921973995,-57.529829977979404,793],["COMMD5_8_146078452_146079452",0.5010106562558306,-50.8308356223602,792],["MCMBP_10_121632395_121633395",0.9801431115038158,-323.0051853474518,794],["CDKL1_14_50862642_50863642",0.4898566097280884,-48.368142997795346,793],["CFDP1_16_75467387_75468387",0.5367258181918066,-59.714597241072696,794],["ZNF343_20_2505168_2506168",0.5580609697686167,-65.3872075787311,793]],"bottom":[]},"para":{"top":[["MCMBP_10_121632395_121633395",0.8841444139952036,-263.2378939548335,794]],"bottom":[]}}}
{"ccle_rrbs_tss_clusters":{"corr":{"top":[["PRDM2_7",0.5225383240031224,-48.60022543756443,686],["LINC01800_3",0.5002383849249196,-51.344065020380754,803],["CNNM4_1",0.5124945969145895,-54.25806359376536,803],["SPAG1_2",0.5516245551348008,-64.4793382159636,804],["MCMBP_2",1.0,-323.0051853474518,804],["CFDP1_3",0.5130451309095384,-53.925560334990365,796],["CCDC42_3",0.4970572252127578,-50.668772753985586,804],["KMT2B_2",0.5154784316287641,-54.98562307348867,803],["ZNF343_1",0.5459797559939303,-62.853704901882786,803]],"bottom":[]},"para":{"top":[["MCMBP_2",0.9999999999999999,-323.0051853474518,804]],"bottom":[["LINC00467_1",-0.1381611239696088,-3.8940400170832006,764],["ANKLE2_3",-0.19750570197718734,-7.752154170428058,800],["MIR8075_2",-0.19121687158202136,-4.946572028753619,520]]}}}
{"ccle_rrbs_cgi_clusters":{"corr":{"top":[["17_8647003_8651513-3",0.4970572252127578,-50.668772753985586,804],["2_97424335_97428554-1",0.5124945969145895,-54.25806359376536,803],["2_65090220_65094640-2",0.5002383849249196,-51.344065020380754,803],["16_75464850_75469527-3",0.5130451309095384,-53.925560334990365,796],["20_2503159_2507979-1",0.5459797559939303,-62.853704901882786,803],["8_101168161_101172827-2",0.5516245551348008,-64.4793382159636,804],["20_2503159_2507979-2",0.5078185263568731,-52.67705973201751,796],["1_14073267_14075863-2",0.5225383240031224,-48.60022543756443,686]],"bottom":[]},"para":{"top":[],"bottom":[["12_133338880_133343114-3",-0.1975057019771873,-7.752154170428053,800],["7_789984_794238-1",-0.16635515923211347,-5.625239835659611,796]]}}}
