{"depmap_hotspot":{"corr":{"top":[["APC2",0.1841454830524078,-6.6903180473133546,85.0,700.0],["GPR113",0.22438587568842427,-9.689634375078455,49.0,736.0]],"bottom":[]},"para":{"top":[["AKIP1",0.12003948240457854,-3.409758321047078,8.0,777.0],["C17orf100",0.10645540256267627,-2.841214083502272,8.0,777.0],["C20orf166",0.09649187292657026,-2.4613375142362512,8.0,777.0],["C9orf62",0.10580987810737927,-2.81565462271551,8.0,777.0],["DNASE1",0.11692767551864151,-3.2743962660691968,9.0,776.0],["IGFLR1",0.14048218421000555,-4.377285766583069,19.0,766.0],["IL24",0.12169539296381869,-3.483088437331373,8.0,777.0],["IRG1",0.12892229440676306,-3.81349363263867,9.0,776.0],["KCNE1",0.11158520005434183,-3.0491877576759587,11.0,774.0],["MIXL1",0.12278448834692243,-3.531979960965574,11.0,774.0],["MPV17L",0.12924522246272718,-3.8285716073494576,8.0,777.0],["OAS1",0.1443313058324738,-4.574508960508447,20.0,765.0],["PPP1R14B",0.11627860079545685,-3.2464690654966426,8.0,777.0],["PTGDR2",0.165867657894122,-5.766889060063767,19.0,766.0],["RGS11",0.13854750982341207,-4.279642593987355,10.0,775.0],["RPP25L",0.1310570965564714,-3.914350598915654,10.0,775.0],["SBK2",0.14645983185407477,-4.68557514419192,18.0,767.0],["SYF2",0.12788016818894726,-3.764986493257318,12.0,773.0],["TIMM22",0.14204136030698503,-4.456239565985974,10.0,775.0],["hsa-mir-1199",0.11848988857471034,-3.342000063285215,9.0,776.0]],"bottom":[["PALM2-AKAP2",-0.10846865970585275,-2.9223410209102614,33.0,752.0]]}}}
{"depmap_damaging":{"corr":{"top":[["MEIS1",0.16501917609502886,-5.4685193027246095,8.0,776.0],["ZNF559",0.13740518073975616,-3.9445957437301833,8.0,776.0]],"bottom":[]},"para":{"top":[["AGAP3",0.11593372339848713,-3.228562017225132,8.0,776.0],["ALG13",0.13220903233304948,-3.9653061209579707,10.0,774.0],["DNAH12",0.10547353782869878,-2.7997385840087836,8.0,776.0],["ERCC6",0.14511862425505806,-4.610295814691465,11.0,773.0],["GPR113",0.11379669623906802,-3.138130662354315,8.0,776.0],["MEIS1",0.1482140810170812,-4.772746075582802,8.0,776.0],["MLK4",0.11151907518758188,-3.0433481230871333,8.0,776.0],["NRCAM",0.12494563962346932,-3.626014765102831,9.0,775.0],["PHF7",0.10465192108589946,-2.7675846817355874,9.0,775.0],["PKN1",0.1420719908867369,-4.453327485845832,13.0,771.0],["SPG20",0.15383122250299822,-5.076158137271839,12.0,772.0],["TRPM8",0.13668259751949774,-4.182800067092196,12.0,772.0],["ZNF559",0.11776144399535876,-3.307058454909969,8.0,776.0]],"bottom":[["PLD3",-0.09913415186261251,-2.5567320261929845,9.0,775.0]]}}}
{"ccle_proteomics":{"corr":{"top":[],"bottom":[]},"para":{"top":[["ITSN2_Q9NZM3-4",0.3571359736819859,-4.049286337083919,115]],"bottom":[]}}}
{"avana":{"corr":{"top":[],"bottom":[]},"para":{"top":[["B4GALT5_9334",0.20709324000456666,-4.944037173655553,442],["ZNF691_51058",0.2090756393174831,-5.03021579297854,442]],"bottom":[]}}}
{"achilles":{"corr":{"top":[["LAMB4_22798",0.2819132627114936,-4.317766568748515,202],["NAA20_51126",0.3258484240853274,-9.499145464771269,355]],"bottom":[]},"para":{"top":[["NAA20_51126",0.3113462465386993,-8.691954109479353,355]],"bottom":[["CAT_847",-0.23200455557515498,-4.998219515548912,355]]}}}
{"ccle_rrbs_tss1kb":{"corr":{"top":[["FGFR2_10_123356159_123357159",0.7174262859725755,-122.75578118206613,775]],"bottom":[]},"para":{"top":[["FGFR2_10_123356159_123357159",0.7735011202998601,-154.52473294401582,775]],"bottom":[]}}}
{"ccle_rrbs_tss_clusters":{"corr":{"top":[["FGFR2_2",0.49446591868054734,-48.6055485246755,780],["FGFR2_3",0.9999999999999999,-323.0051853474518,785],["FGFR2_4",0.4719465117045128,-43.29285737493541,771],["FGFR2_5",0.9732653535732727,-323.0051853474518,785]],"bottom":[]},"para":{"top":[["FGFR2_2",0.48593178558189876,-46.73741362903298,780],["FGFR2_3",1.0,-323.0051853474518,785],["FGFR2_4",0.49388874631135027,-47.928568154174464,771],["FGFR2_5",0.9519883443293938,-323.0051853474518,785]],"bottom":[]}}}
{"ccle_rrbs_cgi_clusters":{"corr":{"top":[["10_123354616_123357450-1",0.49446591868054734,-48.6055485246755,780]],"bottom":[]},"para":{"top":[["10_123354616_123357450-1",0.48593178558189876,-46.73741362903298,780]],"bottom":[]}}}
