{"depmap_hotspot":{"corr":{"top":[["ACTL6B",0.2637162543505783,-8.094987914096821,13.0,451.0],["ADAD1",0.25264348900073047,-7.46283414533599,17.0,447.0],["ADARB2",0.23652465417611687,-6.59457151286451,34.0,430.0],["ALG1",0.2851967490155061,-9.406689542971488,14.0,450.0],["ANKRD32",0.26375678212271014,-8.097355948395686,24.0,440.0],["ASMTL",0.25255470196779245,-7.457883832904162,23.0,441.0],["BAX",0.27319936470139583,-8.660008679400212,16.0,448.0],["BMP1",0.24538145834532238,-7.064108794113505,23.0,441.0],["C16orf70",0.24578092342073574,-7.085718275253492,11.0,453.0],["C1QL1",0.3010169093360402,-10.446981591330962,10.0,454.0],["CCDC135",0.26193635909213475,-7.991381359912674,24.0,440.0],["CHM",0.2669181571853016,-8.28330493427052,11.0,453.0],["CLINT1",0.2389234511616496,-6.719938675547388,9.0,455.0],["CNGA4",0.24095146367695577,-6.8269701840086086,18.0,446.0],["CNP",0.25047052525378644,-7.342218625452076,13.0,451.0],["CREM",0.2818362060921443,-9.193911270996415,9.0,455.0],["CYP2R1",0.24443251450219314,-7.01292489691398,12.0,452.0],["DDX39B",0.26419378838991514,-8.122915506097373,22.0,442.0],["DNAJC7",0.33564216343552367,-12.954282489598755,8.0,456.0],["DOK4",0.3102713530382911,-11.085613669677489,8.0,456.0],["EDNRB",0.30555171709412476,-10.757107807007703,13.0,451.0],["ETNPPL",0.27264220687790197,-8.626202255850236,10.0,454.0],["EXOSC7",0.3102713530382912,-11.085613669677516,8.0,456.0],["FGF10",0.31113066538404616,-11.146059622751848,9.0,455.0],["FOXO4",0.365184231690727,-15.358209921106326,9.0,455.0],["GPATCH1",0.26823844647810224,-8.361684091190092,18.0,446.0],["HTR6",0.24053483484984528,-6.8049038177119,15.0,449.0],["HTRA2",0.3134507677165729,-11.310242120340781,10.0,454.0],["INTS8",0.2396028886866653,-6.755690463774325,19.0,445.0],["ITCH",0.3006401776571316,-10.421459260088092,18.0,446.0],["KCNK1",0.24602097970902503,-7.098722410122163,14.0,450.0],["KLF5",0.23471779417083544,-6.50101976758531,11.0,453.0],["KLHL21",0.24691326029232252,-7.147177134085881,14.0,450.0],["LBX1",0.2537438405198041,-7.524339834328868,11.0,453.0],["MED24",0.23315883458852113,-6.420908486823026,19.0,445.0],["MOGS",0.23414844874465457,-6.471697540400508,18.0,446.0],["NVL",0.23936763949865553,-6.74329958163517,14.0,450.0],["OMD",0.23504724607360747,-6.518021226972524,9.0,455.0],["OSBPL10",0.24292631434271994,-6.932117252644969,16.0,448.0],["PA2G4",0.2354849223308571,-6.540646378914241,11.0,453.0],["PCDHGA8",0.24775070922753445,-7.192824810378995,35.0,429.0],["PCDHGC5",0.2432723902428815,-6.9506372271628845,15.0,449.0],["PTPN21",0.2778056597022581,-8.942445365724232,25.0,439.0],["RANBP17",0.26126080465666945,-7.952258449159066,21.0,443.0],["RBBP6",0.3353715776702543,-12.933419024054258,34.0,430.0],["RBM12B",0.2569105979024602,-7.702962202148344,24.0,440.0],["RRAS",0.23946176976022954,-6.74825600127085,12.0,452.0],["SFMBT2",0.2347444460267859,-6.502394213348607,25.0,439.0],["SMARCE1",0.24256537051139782,-6.91283147413672,9.0,455.0],["SMURF1",0.2665601205507941,-8.26212338773915,16.0,448.0],["SNX16",0.28853433044590593,-9.620835791970379,9.0,455.0],["TBC1D5",0.23955012017909252,-6.752909958050359,22.0,442.0],["TLX1",0.31633248706426553,-11.516170067850876,8.0,456.0],["TM9SF2",0.34690936920174714,-13.841391839515857,13.0,451.0],["TRAIP",0.2810814985860333,-9.146515905629531,11.0,453.0],["TRIM2",0.3035094172169619,-10.616773220252066,16.0,448.0],["USP14",0.2344667181980121,-6.488079730236371,12.0,452.0],["WLS",0.2572947782862315,-7.724795257522599,21.0,443.0],["WNT1",0.30597838591886417,-10.786564187040351,13.0,451.0],["WNT8B",0.26733955530418935,-8.308275033767341,8.0,456.0],["ZC2HC1A",0.2381897982648457,-6.681454495610666,8.0,456.0],["ZFAND4",0.2505693125166879,-7.347677740493733,20.0,444.0],["ZMYND8",0.26033183455063125,-7.898639613528145,32.0,432.0]],"bottom":[]},"para":{"top":[["FGF10",0.18164051070870776,-4.329300843276184,9.0,455.0],["GPR107",0.19418863341240514,-4.8291950680878335,8.0,456.0],["OR5AN1",0.19481856514091478,-4.855535507489838,10.0,454.0]],"bottom":[]}}}
{"depmap_damaging":{"corr":{"top":[["ATR",0.1558177119272773,-3.12074552023998,11.0,453.0],["BAX",0.27460824431414,-8.745836661417808,10.0,454.0],["CARD10",0.2121076567349806,-5.393302827989718,8.0,456.0],["CNOT1",0.1984219421310997,-4.778289496356694,8.0,456.0],["CTC1",0.23658930321642221,-6.597932754886507,8.0,456.0],["DIP2C",0.22443739636728052,-5.983006339717635,8.0,456.0],["DMXL2",0.19408726804161924,-4.59203377644418,8.0,456.0],["ERBB4",0.2285292070261464,-6.186292659669535,9.0,455.0],["FHOD3",0.20531870872347982,-5.083071173193335,10.0,454.0],["FOXN3",0.24341732606895777,-6.958401677593288,10.0,454.0],["INTS2",0.15964266859007065,-3.254084430806578,13.0,451.0],["KIAA0195",0.3032486275069051,-10.598932002012496,10.0,454.0],["MROH2B",0.16434840941478498,-3.4222426773950705,14.0,450.0],["MTERFD3",0.20623917489076093,-5.124537009593514,8.0,456.0],["NEK1",0.24004965187809393,-6.779257498477426,11.0,453.0],["NUP98",0.20748400437286824,-5.180911830912096,8.0,456.0],["PLXNA1",0.17887461771608892,-3.97030927043305,9.0,455.0],["PPRC1",0.27305518246547555,-8.651252851514192,11.0,453.0],["PTPRS",0.24669613305924484,-7.135368930008481,8.0,456.0],["SLC27A3",0.24394204551984572,-6.986552893983253,10.0,454.0],["TIE1",0.2317182905085952,-6.347379337356811,9.0,455.0],["UGGT2",0.19034412848629942,-4.434462956342986,9.0,455.0],["USP35",0.19408726804161924,-4.59203377644418,8.0,456.0],["WDR78",0.20509288009904708,-5.072926350535573,10.0,454.0],["ZFAND4",0.34174775565728754,-13.43052815476784,8.0,456.0],["ZFC3H1",0.2789603526731423,-9.014072015112319,12.0,452.0]],"bottom":[]},"para":{"top":[],"bottom":[]}}}
{"prism_primary_logfold":{"corr":{"top":[],"bottom":[["testosterone_BRD-A55393291-001-09-9::2.5::HTS",-0.24740302728254493,-4.331266079419867,265],["estradiol_BRD-K18910433-001-36-6::2.58::HTS",-0.2522725959635121,-4.231219039685004,248],["deoxycorticosterone-acetate_BRD-K24556098-001-19-1::2.5::HTS",-0.2542143182665396,-4.5348966655544585,264],["satraplatin_BRD-K42497885-001-01-1::2.5::HTS",-0.19105977326688187,-2.7051527739340693,260],["milrinone_BRD-K67080878-001-15-4::2.5::HTS",-0.21502595601805052,-3.373403185788726,265]]},"para":{"top":[],"bottom":[["adenosine_BRD-K01577834-001-15-1::2.5::HTS",-0.20790589439757745,-3.0358656243698876,251],["satraplatin_BRD-K42497885-001-01-1::2.5::HTS",-0.18579470051741667,-2.579581176514636,260]]}}}
{"prism_secondary_logfold":{"corr":{"top":[],"bottom":[["NVP-BEZ235_BRD-K12184916-001-15-4::10::HTS002",-0.25546524701489437,-2.9377412915604864,159],["belinostat_BRD-K17743125-001-08-4::0.15625::HTS002",-0.22301549543711977,-3.0629072088192335,220],["enoximone_BRD-K21152241-001-07-3::0.624999996::MTS006",-0.2446422188022671,-3.66177527777998,224],["fluoromethylcholine_BRD-K51199656-003-01-4::0.0390625::HTS002",-0.250711185545372,-2.9347140261413287,165],["palbociclib_BRD-K51313569-001-07-8::0.0391::MTS010::PROS003_PR500",-0.24593677226207641,-3.5664448736881176,215],["doxercalciferol_BRD-K82928892-001-02-5::9.83805::HTS002",-0.2500872832428157,-3.374842931681411,195]]},"para":{"top":[],"bottom":[["SID-7969543_BRD-A43885598-001-08-1::0.00976562::HTS002",-0.21798031409911012,-2.909518874686237,217],["bendroflumethiazide_BRD-A80017228-001-25-7::0.625::HTS002",-0.26909614640556256,-4.088700622978027,209],["foretinib_BRD-K03449891-001-08-6::0.00976562::HTS002",-0.20917610938661235,-2.7841864451087917,224],["berberine_BRD-K14796088-003-26-8::0.15625::HTS002",-0.2959102017224317,-5.17863677788488,224],["masitinib_BRD-K71035033-001-07-1::0.00061034::HTS002",-0.22883003963570223,-3.2036904258096133,220],["chromocarb_BRD-K94720315-001-10-4::0.0390625::HTS002",-0.25836768848292824,-3.8951100777422756,215]]}}}
{"ccle_proteomics":{"corr":{"top":[["TSPAN10_Q9H1Z9",0.27705404612029416,-2.58411643491763,116]],"bottom":[["FCGRT_P55899",-0.3415219682374138,-4.835780609257184,154],["MRP63_Q9BQC6",-0.3727217552530383,-5.7138454260931955,154]]},"para":{"top":[["PATL1_Q86TB9",0.31083757015367125,-4.478523472488573,172]],"bottom":[["HTRA2_O43464",-0.2511662294646485,-3.0510170710024402,172],["STK16_O75716",-0.3489382742153656,-3.487822393172266,102],["FAHD1_Q6P587-3",-0.2872632641809184,-3.876083806621578,172]]}}}
{"depmap_gene_tpm":{"corr":{"top":[["KRTAP12-3_386683",0.2556540370425125,-7.616676142213408,463]],"bottom":[]},"para":{"top":[["OR52B4_143496",0.19439808878899584,-4.596459958107265,463]],"bottom":[]}}}
{"avana":{"corr":{"top":[["IFNAR1_3454",0.35850685323868925,-8.668723391198167,263],["IFNAR2_3455",0.3669206620219026,-9.076616385619474,263],["IRF1_3659",0.2552312288215263,-4.5218265892839815,261],["IRF9_10379",0.38184543647609026,-9.829744620516815,263],["JAK1_3716",0.36123283216743474,-8.799581121886748,263],["MCTS1_28985",0.2834683382053902,-5.163251726565055,244],["PLPPR1_54886",0.24451255510072034,-4.211961830781613,263],["RASAL2_9462",0.23191522020811176,-3.8307629570325075,263],["SEPHS1_22929",0.25373891320490094,-4.504267322077256,263],["STAT2_6773",0.4388649615276515,-13.08088623581436,263],["TYK2_7297",0.3230567310175714,-7.076187836528708,263],["VEZF1_7716",0.28396643650105124,-5.542139167364324,263],["ZNF215_7762",0.23292542330178032,-3.8605791766470463,263],["ZNF347_84671",0.2567181309664871,-4.601057809228595,263]],"bottom":[["DLEU7_220107",-0.20341372152653617,-3.042342977045786,263],["GPR83_10888",-0.22220562672073382,-3.5507894840079954,263],["IKBKG_8517",-0.2466811030442844,-4.005815098661643,244],["LHX6_26468",-0.20441125576005878,-3.0682430873265965,263],["NXPE4_54827",-0.20704458272541226,-3.137197079637943,263],["RAPGEF5_9771",-0.22540561869451867,-3.641744174433379,263],["SENP7_57337",-0.20350611988297473,-3.0447369401073625,263],["TNFAIP3_7128",-0.2462184797872383,-4.265165425039987,263],["TXNDC9_10190",-0.21650405366131817,-3.3919093907085673,263],["TYROBP_7305",-0.23418390822132526,-3.8979059428711293,263]]},"para":{"top":[["FCMR_9214",0.23102977635302907,-3.804736098977273,263],["MCTS1_28985",0.2444178773212932,-3.940080825232059,244]],"bottom":[["LDHAL6A_160287",-0.24221482267314015,-4.140901294496786,263],["SERAC1_84947",-0.20714587468602175,-3.139866317405336,263],["TIMM8A_1678",-0.2098839907231508,-3.012280152660354,244],["TRIM69_140691",-0.20497398390178606,-3.082907211332897,263]]}}}
{"drive":{"corr":{"top":[],"bottom":[["NOMO2&NOMO3_283820&408050",-0.20919885409510733,-2.3163765618543377,180],["PMS2P4_5382",-0.30650756228850395,-4.544429164709249,180]]},"para":{"top":[["UBE2G2_7327",0.26241315581291824,-3.378879036265505,177],["TAS1R2_80834",0.24550600277219276,-3.004836451197176,177]],"bottom":[["AGR2_10551",-0.23920846396704426,-2.871874314896456,177]]}}}
{"achilles":{"corr":{"top":[["ATXN2L_11273",0.2966473725198191,-3.063919263855321,123],["EXOC8_149371",0.3004576370080381,-3.134347123384007,123],["IFNAR1_3454",0.2575363690989268,-3.8251436545620416,212],["BUB1B_701",0.2709172453632632,-4.191490568130594,212],["XG_7499",0.2593481378747096,-2.4234983994764314,123],["JAGN1_84522",0.3219220340912948,-3.5492279048062807,123]],"bottom":[["LOC100288966&POTED_100288966&317754",-0.2806299325019118,-2.7781603929528913,123],["LOC105369166_105369166",-0.29025401328665146,-2.947877139420659,123],["NXNL2_158046",-0.3114801892304713,-3.343508950441627,123],["F13A1_2162",-0.27456366503764956,-4.294706329259683,212],["HEPACAM2_253012",-0.27320067454896996,-2.6511612395419437,123],["CXXC1_30827",-0.2876551847896975,-2.901463669114707,123],["NRARP_441478",-0.2583365523969528,-2.407332285341876,123],["SH3BGR_6450",-0.2844276651400873,-2.8444254807129936,123]]},"para":{"top":[["CLEC16A_23274",0.31438922987921897,-3.400072613888252,123],["BICD2_23299",0.29453665026502035,-4.886400007516148,212],["ANKRD1_27063",0.30921014347550213,-3.2997677227440385,123],["ITPR2_3709",0.266768023516734,-4.075815258216371,212],["TBX15_6913",0.24941227530528018,-3.6120844005662387,212]],"bottom":[["HEPACAM2_253012",-0.2874327765369572,-2.8975117695338093,123],["RTTN_25914",-0.2510078280007102,-2.292050296906575,123],["SPDL1_54908",-0.34995047801174767,-4.139286858490241,123],["NPLOC4_55666",-0.26114706211444233,-2.452400030848632,123],["SMCO4_56935",-0.268014582675635,-2.5645480010281467,123]]}}}
{"ccle_rrbs_tss1kb":{"corr":{"top":[],"bottom":[["EXOSC2_9_133568146_133569146",-0.21840954850389824,-2.712010885984183,199],["MARS_12_57880735_57881735",-0.18796729565690143,-4.303016879642082,460]]},"para":{"top":[["FLII_17_18162230_18163230",0.23265245038505933,-4.185241814801679,289]],"bottom":[]}}}
{"ccle_gene_tpm":{"corr":{"top":[["OR52S1P_ENSG00000237354.1",0.35065214152909985,-14.057256051041758,461],["AC004062.2_ENSG00000251312.2",0.34692614152855,-13.757826732016646,461],["RP11-128P17.3_ENSG00000267564.1",0.32793858911484774,-12.29278536934416,461],["RP11-383H17.4_ENSG00000270725.1",0.32793858911484774,-12.29278536934416,461]],"bottom":[]},"para":{"top":[["OR52B4_ENSG00000221996.2",0.19408804622028458,-4.56576422329112,461],["RBMY2YP_ENSG00000227633.1",0.1779060274533775,-3.910169058669148,461],["AC005077.5_ENSG00000228829.1",0.1977704102734179,-4.722749565529042,461],["RP11-15K3.1_ENSG00000236373.1",0.2183154066100804,-5.652815005192844,461],["RN7SL201P_ENSG00000242118.2",0.1874934745015499,-4.291887894583481,461],["RP11-441M10.1_ENSG00000244249.1",0.202291925954318,-4.919514364390193,461],["RP11-485C11.1_ENSG00000248637.1",0.1852567268371575,-4.20109728701137,461],["RP11-190J23.1_ENSG00000257284.1",0.17617469230174623,-3.843296138682252,461],["RP11-488I20.2_ENSG00000260291.1",0.19435000137709674,-4.576835469328969,461],["CTD-2382H12.1_ENSG00000265101.1",0.1925763183913458,-4.50216024284064,461]],"bottom":[]}}}
{"ccle_rrbs_tss_clusters":{"corr":{"top":[["MFSD14B",0.3419542633360204,-13.391901418614859,462],["LOC389906",0.35320828892532674,-5.032779695431739,150],["XRRA1_3",1.0,-323.0051853474518,464]],"bottom":[["EFCAB2_1",-0.27658602484029454,-3.3059832238006495,155],["DNAJC27_3",-0.26777632530165596,-2.311831949153469,109],["MIR4775_3",-0.2332240201465265,-5.43961206539458,386],["LOC643387_3",-0.2378956839285535,-4.569857104208363,305],["ACER2_1",-0.3498698182475786,-4.585882814571526,138],["LOC101927880_2",-0.2795498250818724,-8.6882211200425,444],["ST3GAL4_2",-0.24559591887979232,-7.075705600237964,464],["PRKCH_1",-0.22669783511878655,-4.442880053679119,326],["MIR6069_2",-0.26432179509850195,-4.35747720151585,233]]},"para":{"top":[["XRRA1_3",0.9999999999999998,-323.0051853474518,464]],"bottom":[["EFCAB2_1",-0.22153262951825406,-2.251696484276164,155],["TBC1D2_5",-0.19442102747213152,-2.8324488247265336,265],["SYNPO2L_2",-0.1793932473100954,-3.7418757331039414,431],["PLEKHB1_1",-0.1920999015584062,-3.8088803245111693,383]]}}}
{"ccle_rrbs_cgi_clusters":{"corr":{"top":[["23_3758663_3761437-1",0.46048005582763474,-8.409762454048995,148],["9_97134589_97137123-1",0.3419542633360204,-13.391901418614859,462]],"bottom":[["9_19406498_19411285-1",-0.3498698182475786,-4.585882814571526,138],["1_245131028_245133870-1",-0.27658602484029454,-3.3059832238006495,155],["19_56174635_56178918-2",-0.3373818246678694,-6.910633960795791,234],["4_39769679_39773944-2",-0.2895442222526093,-5.648513366208833,258],["2_239138096_239142659-3",-0.2378956839285535,-4.569857104208363,305],["14_61785880_61788674-1",-0.22669783511878655,-4.442880053679119,326],["17_6937137_6942090-2",-0.24744554753673728,-4.086247029201529,248],["6_160390361_160392890-3",-0.26960721629620554,-3.5282389601711213,176],["2_25194677_25197214-3",-0.26777632530165596,-2.311831949153469,109]]},"para":{"top":[],"bottom":[["1_245131028_245133870-1",-0.22153262951825403,-2.251696484276164,155]]}}}
