{"depmap_hotspot":{"corr":{"top":[["RAB25",0.1894570290557598,-6.056928573346518,11.0,653.0]],"bottom":[]},"para":{"top":[["ARHGDIG",0.12659469936191403,-3.2521848235263073,10.0,654.0],["RAB25",0.1616897221879969,-4.802918617610014,11.0,653.0]],"bottom":[["IGFBP4",-0.09447184830175187,-2.124129749307512,12.0,652.0],["IGLON5",-0.08888018581529947,-1.9556243609187638,13.0,651.0],["OR4F6",-0.10383188793533846,-2.4245791340367977,12.0,652.0],["STX12",-0.08447883869856677,-1.8285482716606698,10.0,654.0],["TMED4",-0.08398460395482256,-1.8146053260735573,10.0,654.0]]}}}
{"depmap_damaging":{"corr":{"top":[],"bottom":[]},"para":{"top":[],"bottom":[["NOTCH2",-0.10033222588239553,-2.30693161874753,9.0,654.0]]}}}
{"prism_primary_logfold":{"corr":{"top":[],"bottom":[]},"para":{"top":[],"bottom":[["DU-728_BRD-K08859203-001-01-9::2.5::HTS",-0.22078518638834685,-4.784733762919342,374]]}}}
{"prism_secondary_logfold":{"corr":{"top":[],"bottom":[["VTP-27999_BRD-K81694556-003-01-9::0.625::HTS002",-0.2620383365803649,-4.517165973563223,247],["kynurenic-acid_BRD-K85872723-001-15-9::0.0390625::HTS002",-0.21912554586233163,-4.190920231817126,327]]},"para":{"top":[],"bottom":[["ribavirin_BRD-K60369935-001-18-3::2.5::HTS002",-0.25830364721094357,-5.859339684116141,340]]}}}
{"ccle_proteomics":{"corr":{"top":[["CARD16_Q5EG05",0.3400479625116374,-4.178587839749979,132]],"bottom":[]},"para":{"top":[],"bottom":[["CCNL2_Q96S94",-0.29009575860515135,-4.650709917332855,207]]}}}
{"avana":{"corr":{"top":[["TMEM104_54868",0.23818040058768325,-5.5089752756493375,375]],"bottom":[["ZNF468_90333",-0.23154583890257716,-5.230529887622533,375]]},"para":{"top":[["DEFB123_245936",0.20382729368861158,-4.153898597765231,375],["MBOAT1_154141",0.22135256247344112,-4.818497498155368,375]],"bottom":[["MMP10_4319",-0.23083177726440596,-5.201046462455674,375]]}}}
{"drive":{"corr":{"top":[],"bottom":[]},"para":{"top":[["PPP1R10_5514",0.27239897558577697,-5.007569661095256,256]],"bottom":[["VDR_7421",-0.25129406056262804,-4.3212067159175165,256]]}}}
{"achilles":{"corr":{"top":[],"bottom":[]},"para":{"top":[["MICU2_221154",0.29016240951191363,-6.64241549400041,307]],"bottom":[["RALGAPB_57148",-0.27750468498084174,-3.660212452812735,173]]}}}
{"ccle_rrbs_tss1kb":{"corr":{"top":[],"bottom":[]},"para":{"top":[["P4HA3_11_74022721_74023721",0.5171724001665328,-41.279170554404416,595]],"bottom":[["SGK2_20_42193736_42194736",-0.21533916756268676,-7.562864141117171,653]]}}}
{"ccle_rrbs_tss_clusters":{"corr":{"top":[["P4HA3-AS1_1",1.0,-323.0051853474518,664],["P4HA3-AS1_2",0.9334625886781555,-296.26689243290133,664]],"bottom":[]},"para":{"top":[["P4HA3-AS1_1",1.0,-323.0051853474518,664],["P4HA3-AS1_2",0.8352184940734407,-173.35337915117296,664],["P4HA3-AS1_3",0.5201873432085967,-42.24588170228805,601]],"bottom":[]}}}
{"ccle_rrbs_cgi_clusters":{"corr":{"top":[["11_74020428_74024703-2",0.9334625886781555,-296.26689243290133,664]],"bottom":[]},"para":{"top":[["11_74020428_74024703-3",0.5201873432085966,-42.24588170228801,601],["3_127345682_127348270-2",0.5659043548705771,-18.025880791457915,205],["11_74020428_74024703-2",0.8352184940734407,-173.35337915117296,664]],"bottom":[]}}}
