{"depmap_hotspot":{"corr":{"top":[],"bottom":[["AP000322.54",-0.13119210358392527,-3.810557545524217,8.0,819.0],["C16orf52",-0.10192944350567865,-2.476085338122303,8.0,819.0],["CLDN8",-0.1461487008192468,-4.610539511677675,38.0,789.0],["DUSP23",-0.12107270840562624,-3.3149598870138774,8.0,819.0],["JKAMP",-0.10191407323355141,-2.4754629010826235,9.0,818.0],["KRT3",-0.18388083311548256,-6.996949999555609,64.0,763.0],["KRT6C",-0.2579323753610812,-13.308432935584685,44.0,783.0],["METTL14",-0.1029068263759338,-2.5158323612351485,11.0,816.0],["MLLT11",-0.13230590054005117,-3.867342330790798,13.0,814.0],["SFT2D1",-0.13114884656997355,-3.808361160076228,12.0,815.0],["SLC25A4",-0.11917732455961995,-3.226178721282319,14.0,813.0]]},"para":{"top":[["FAM26D",0.11452080575298991,-3.3013231739100735,11.0,816.0],["PTH",0.1285174108266288,-3.955428204065724,12.0,815.0]],"bottom":[["C1orf115",-0.12495901290118452,-3.7831492991970355,24.0,803.0],["HIST1H2AL",-0.09393940075433724,-2.459043541083918,12.0,815.0],["PALM2",-0.08166946563233106,-2.023620609000911,17.0,810.0],["SFT2D1",-0.08946609595651164,-2.294549886073402,12.0,815.0],["TMEM53",-0.1013946182999282,-2.748052518145084,20.0,807.0]]}}}
{"depmap_damaging":{"corr":{"top":[],"bottom":[["KRT3",-0.34514703009783837,-23.79357799265935,17.0,809.0],["SNX9",-0.12316659810878482,-3.4109653991190454,9.0,817.0]]},"para":{"top":[["NBPF10",0.11921055652552034,-3.509894523455984,14.0,812.0]],"bottom":[["FST",-0.09312168498914022,-2.4262618087874714,9.0,817.0],["KRT3",-0.19496269143869577,-7.968306674229518,17.0,809.0],["ZNF326",-0.09354163615824851,-2.4421371646275962,16.0,810.0]]}}}
{"ccle_rppa":{"corr":{"top":[],"bottom":[["NRG1_Heregulin",-0.35015954709793945,-23.448317835814134,789]]},"para":{"top":[],"bottom":[]}}}
{"ccle_rrbs_enhancer_clusters":{"corr":{"top":[["1-38492689-38497688-0_enh",0.6854260699447248,-114.92654389934853,826]],"bottom":[["2-175194043-175196579-1_enh",-0.17607485747710708,-6.395314838981813,818],["13-95356263-95359140-2_enh",-0.2751047383263328,-13.642755950043293,743]]},"para":{"top":[["1-38492689-38497688-0_enh",0.44557755894214757,-40.80771012017126,826]],"bottom":[["13-95356263-95359140-2_enh",-0.22582327788398396,-9.319370040787678,743]]}}}
{"ccle_mirna":{"corr":{"top":[],"bottom":[["hsa-miR-1266_miR00083.1",-0.4399072796001243,-39.49690835925666,822],["hsa-miR-944_miR00682.1",-0.3421222854051743,-23.25890112804369,822]]},"para":{"top":[],"bottom":[]}}}
{"prism_secondary_logfold":{"corr":{"top":[["AV-412_BRD-K23190681-001-01-1::2.5::HTS002",0.41471094394201413,-17.539065191164116,405]],"bottom":[]},"para":{"top":[],"bottom":[]}}}
{"ccle_proteomics":{"corr":{"top":[["PEPD_P12955",0.3393648384542268,-9.339318131456006,320],["CPPED1_Q9BRF8",0.35170561267094325,-10.022883899640556,320],["SLFN14_P0C7P3",0.38396208406200494,-5.115111688809619,128]],"bottom":[["JAG2_Q9Y219",-0.41530555125596397,-11.913999407462311,269],["TP63_Q9H3D4",-0.5911216511918285,-23.1851357178496,239],["PAX9_P55771",-0.3964509354698948,-6.445780170685461,154],["GBP6_Q6ZN66",-0.5283718394416709,-9.18200550424979,119],["SUV420H1_Q4FZB7",-0.3937799073801298,-5.904760522747201,142]]},"para":{"top":[["CPPED1_Q9BRF8",0.27722925382833663,-6.329620826641327,320]],"bottom":[["ZNF114_Q8NC26",-0.33183460900345557,-5.139379972958528,175]]}}}
{"depmap_copy_number":{"corr":{"top":[],"bottom":[["LINC01014_100874330",-0.3287023449604413,-21.53594883299709,826],["PEX5L-AS2_101928790",-0.32299989153715286,-20.784558858188017,826],["KCNMB2_10242",-0.3287023449604413,-21.53594883299709,826],["KCNMB2-AS1_104797538",-0.3287023449604413,-21.53594883299709,826],["MCF2L2_23101",-0.3260924510845165,-21.190068829379722,826],["LAMP3_27074",-0.32514350253337787,-21.0651396351058,826],["NDUFB5_4711",-0.328986844475625,-21.573855867483886,826],["ZNF639_51193",-0.32522949400505435,-21.07644219470492,826],["PEX5L_51555",-0.32299989153715286,-20.784558858188017,826],["MFN1_55669",-0.32522949400505435,-21.07644219470492,826],["MRPL47_57129",-0.328986844475625,-21.573855867483886,826],["GNB4_59345",-0.32652065299320565,-21.24658664948379,826],["ZMAT3_64393",-0.325074705500249,-21.05609969459347,826],["B3GNT5_84002",-0.32268151427174635,-20.743077718460917,826],["ACTL6A_86",-0.3297204042143934,-21.67178105927493,826],["USP13_8975",-0.328986844475625,-21.573855867483886,826]]},"para":{"top":[],"bottom":[]}}}
{"depmap_gene_tpm":{"corr":{"top":[["CYB561D2_11068",0.30467221019244933,-18.41205428213101,823]],"bottom":[["TP63_8626",-0.5679319751991945,-70.73479057704357,823],["SOX15_6665",-0.5316231654801494,-60.49801656694907,823],["DUOX1_53905",-0.5433843711676205,-63.67751213328997,823],["DUOXA1_90527",-0.5623372766899113,-69.07415226046987,823],["CERS3_204219",-0.5537175910378087,-66.57678739810414,823],["CALML3_810",-0.532792844401404,-60.808637410765236,823],["GBP6_163351",-0.5681256477458843,-70.79284802037883,823],["KRT5_3852",-0.5662652595980086,-70.23674498041164,823],["SERPINB13_5275",-0.613413247988475,-85.49953084275681,823],["KRT6A_3853",-0.6033820563432816,-82.03732357888131,823],["CAPNS2_84290",-0.5221422158276451,-58.02457492791009,823]]},"para":{"top":[],"bottom":[["DLL1_28514",-0.3354279281780238,-22.36430731917164,823]]}}}
{"avana":{"corr":{"top":[["CCDC51_79714",0.32657837585541405,-12.26650548863689,464],["CHCHD4_131474",0.3000204657986748,-10.379556144567456,464],["RAPGEFL1_51195",0.2657655665391131,-8.21522896934437,464],["RARG_5916",0.2648894343305592,-8.163698004088419,464],["TP63_8626",0.5301962439003305,-34.268118895637194,464]],"bottom":[]},"para":{"top":[["C11orf86_254439",0.22567760711844181,-6.0442194431555905,464],["CHCHD4_131474",0.2945503863362698,-10.013999782245973,464],["SOX15_6665",0.21535635848863408,-5.54537465758032,464],["TRIAP1_51499",0.25296837576504794,-7.480964160278851,464]],"bottom":[]}}}
{"drive":{"corr":{"top":[["ADRB2_154",0.43858500119498267,-15.466916929067805,314],["SULT1C4_27233",0.25340986842252466,-5.264189350392182,314],["TP63_8626",0.5148805980999299,-22.064660889356016,316]],"bottom":[]},"para":{"top":[["ADRB2_154",0.3010722637403776,-7.274616194298196,314],["CBX6_23466",0.26951595870616196,-5.935438200674846,316],["TMEM189_387521",0.22704988458753048,-4.382692960953101,320]],"bottom":[]}}}
{"achilles":{"corr":{"top":[["KRT1_3848",0.3197958394328481,-9.517037324892355,370]],"bottom":[["CT45A7&CT45A10&CT45A3&CT45A5&CT45A6_101060211&102723631&441519&441521&541465",-0.3109601547834217,-5.4993607852290864,216]]},"para":{"top":[],"bottom":[]}}}
{"ccle_rrbs_tss1kb":{"corr":{"top":[["S100A2_1_153536363_153537363",0.6165850998976642,-81.9342166972741,778],["LTB4R2_14_24778356_24779356",0.5514532821067749,-63.24694184987832,789],["CORO2B_15_68932841_68933841",0.60860345215784,-36.21918185233727,351],["MRTFB_16_14163918_14164918",0.46749838988387465,-43.90055204961092,799],["ALOX12_17_6898383_6899383",0.5730067163366918,-71.57534793776681,815]],"bottom":[]},"para":{"top":[["CORO2B_15_68932841_68933841",0.5082773950795391,-23.72922358574061,351]],"bottom":[]}}}
{"ccle_gene_tpm":{"corr":{"top":[["CYB561D2_ENSG00000114395.6",0.30698927961048017,-18.62874283195768,820]],"bottom":[["TP63_ENSG00000073282.8",-0.5676117647119489,-70.38476326669539,820],["SOX15_ENSG00000129194.3",-0.5316317308709694,-60.283109895412665,820],["DUOX1_ENSG00000137857.13",-0.5428451937867051,-63.30077632896596,820],["DUOXA1_ENSG00000140254.8",-0.5619939098971435,-68.72521125534881,820],["CERS3_ENSG00000154227.9",-0.5542526979616239,-66.489829069308,820],["CALML3_ENSG00000178363.3",-0.5519968591917611,-65.84940045132319,820],["GBP6_ENSG00000183347.13",-0.5685994458272159,-70.67984016136973,820],["KRT5_ENSG00000186081.7",-0.5663002627345772,-69.99448126439299,820],["SERPINB13_ENSG00000197641.7",-0.6146287369556895,-85.6176805327803,820],["KRT6A_ENSG00000205420.6",-0.6034187808603081,-81.75405235373438,820],["RP11-486L19.2_ENSG00000250685.3",-0.5445517710927263,-63.77008764235903,820],["CAPNS2_ENSG00000256812.1",-0.5221536447618992,-57.81934047296459,820]]},"para":{"top":[],"bottom":[["OR9K1P_ENSG00000196534.3",-0.32801566482003036,-21.294751157943338,820],["DLL1_ENSG00000198719.7",-0.3338629814707298,-22.074273174842023,820],["RP11-646E18.2_ENSG00000238837.3",-0.3429156915137165,-23.314677759123555,820]]}}}
{"ccle_rrbs_tss_clusters":{"corr":{"top":[["TP73_9",0.5788583023974085,-72.29370557494921,803],["S100A2_1",0.6223856999761579,-80.59631116595534,747],["S100A2_4",0.6163453987339271,-85.39092351553825,812],["SNORA36C_1",0.5705405338267282,-55.47305448686368,636],["MIR2467_1",0.6078564930556546,-83.26511381521198,820],["TGM1_3",0.5658482813973663,-68.68339541447327,806],["CORO2B_1",0.6046406459372208,-36.33584191540742,358],["PAK6_1",0.6538228770005663,-100.0715921400873,817],["TYRO3P_2",0.5803260834638936,-68.98364128407937,761],["TYRO3P_3",0.6253034601671856,-83.07423198635567,761],["ALOX12_1",0.5587199635247685,-68.180239659546,825],["ZNF57_6",0.6059274177615058,-81.50956184797485,809],["DIP2A_1",0.5580919354061074,-62.95638484115734,763],["TPST2_6",0.6038093399588654,-56.39863223257282,562],["SH3BP1_1",0.5698019272279499,-71.5534788871908,826]],"bottom":[["PLCD1_4",-0.2828176743988997,-5.68898868161401,273]]},"para":{"top":[["CORO2B_1",0.5030602658120028,-23.635358982676735,358],["PRKAR1A_7",0.41190372076210163,-33.465741597265335,802]],"bottom":[]}}}
{"ccle_rrbs_cgi_clusters":{"corr":{"top":[["12_132217327_132221539-1",0.6324050878537563,-90.51725566553088,806],["7_548450_552681-2",0.6151404999222396,-76.68774434158146,732],["17_40822754_40825573-2",0.7342537669878632,-139.185218491533,821],["12_132217327_132221539-2",0.6782334380939938,-109.22887820371666,808],["4_1222451_1226728-3",0.6772486563426982,-109.33028141700079,812],["7_1050387_1054736-3",0.6558731453171083,-101.63929958251587,823],["19_1973219_1977570-3",0.6109089532561798,-82.58943763583025,803],["7_4799841_4804219-2",0.6125426070446648,-85.19409512803146,823],["22_20128396_20133298-3",0.6744962954395426,-108.65198884388943,816],["7_4798616_4802919-2",0.6134046249928772,-85.59926421377237,824],["16_2224079_2228351-2",0.695418407598951,-109.44228392315725,755],["15_40529244_40533589-1",0.6538228770005663,-100.0715921400873,817],["14_105849751_105853987-2",0.6453906633942488,-47.41918425699094,397],["19_8552998_8557251-3",0.6827603411856188,-112.60573740898472,818],["16_89943514_89948323-2",0.6090252979307348,-58.83135954574348,574]],"bottom":[["13_95355589_95359883-2",-0.2751047383263328,-13.642755950043293,743],["15_93424151_93428751-1",-0.24935158408199032,-12.304658833064705,816]]},"para":{"top":[["19_8552998_8557251-2",0.4211316103005236,-23.47119038600269,530],["12_132217327_132221539-2",0.42415425694240066,-35.894435799752834,808],["17_40822754_40825573-2",0.4718088862197893,-46.01232043920524,821],["19_50903477_50908069-2",0.41711651909422875,-34.085179209104,795],["19_8552998_8557251-3",0.47654215091746915,-46.877881251608486,818]],"bottom":[["13_95355589_95359883-2",-0.22582327788398396,-9.319370040787678,743]]}}}
