{"depmap_hotspot":{"corr":{"top":[],"bottom":[["FGF4",-0.10398080144137536,-2.3783851231275968,12.0,745.0],["MARVELD3",-0.14218862120714656,-4.062955782830293,30.0,727.0]]},"para":{"top":[],"bottom":[["MARVELD3",-0.12711316040752607,-3.6245223913620763,30.0,727.0],["NRIP3",-0.0911101071099014,-2.2123477797453783,12.0,745.0],["OR4X1",-0.10330977590876286,-2.646555978029075,13.0,744.0],["RND2",-0.09223193647785262,-2.2503652996638457,11.0,746.0],["TSPO2",-0.09850438673865591,-2.4700580764397055,10.0,747.0]]}}}
{"depmap_damaging":{"corr":{"top":[],"bottom":[["PKP4",-0.10111091869610017,-2.2682406906447077,8.0,748.0]]},"para":{"top":[],"bottom":[["FAM193B",-0.1035239348704902,-2.6518843865265005,10.0,746.0],["NSRP1",-0.10840512505004082,-2.838243932075172,9.0,747.0]]}}}
{"ccle_proteomics":{"corr":{"top":[["ZBTB3_Q9H5J0",0.3232308068643612,-4.084573561600757,143]],"bottom":[]},"para":{"top":[["ZBTB3_Q9H5J0",0.3024523103181718,-3.6176302566736807,143],["ZNF48_Q96MX3",0.31293379018056205,-6.23996108891791,245]],"bottom":[]}}}
{"depmap_copy_number":{"corr":{"top":[],"bottom":[]},"para":{"top":[],"bottom":[["GIMAP1-GIMAP5_100527949",-0.2161531912748811,-8.716928663019695,756],["CDK5_1020",-0.2207082266654141,-9.0676722863659,756],["FASTK_10922",-0.21922786205387884,-8.952838837677422,756],["LOC114483834_114483834",-0.21522782770900556,-8.646612323337784,756],["AGAP3_116988",-0.21609351120909806,-8.712384174359515,756],["ASB10_136371",-0.22051632701943336,-9.052740506883643,756],["GIMAP1_170575",-0.2161531912748811,-8.716928663019695,756],["GIMAP2_26157",-0.2161531912748811,-8.716928663019695,756],["GBX1_2636",-0.2204376449560448,-9.046622184108905,756],["GIMAP6_474344",-0.2162489369149577,-8.72422220250125,756],["CHPF2_54480",-0.21522782770900556,-8.646612323337784,756],["SLC4A2_6522",-0.2207082266654141,-9.0676722863659,756],["SMARCD3_6604",-0.21522782770900556,-8.646612323337784,756],["MIR671_768213",-0.21522782770900556,-8.646612323337784,756],["TMUB1_83590",-0.2182643194251895,-8.878532653479164,756],["ASIC3_9311",-0.21713501116707404,-8.791880650539715,756]]}}}
{"drive":{"corr":{"top":[],"bottom":[["WDR31_114987",-0.26044089026553774,-5.043414160571942,283],["E2F7_144455",-0.2593446120845218,-4.9727867173907105,281],["RAB3IL1_5866",-0.2875647105003525,-6.063868699522651,283]]},"para":{"top":[],"bottom":[["RFWD3_55159",-0.28610056935155515,-6.005967376934594,283]]}}}
{"achilles":{"corr":{"top":[["CXCR6_10663",0.2688248106506187,-6.228425060107082,335]],"bottom":[]},"para":{"top":[["CXCR6_10663",0.26360151941377635,-6.004075871293567,335]],"bottom":[]}}}
{"ccle_rrbs_cgi_clusters":{"corr":{"top":[["13_113199706_113203927-1",0.4428313541634431,-24.79691758644128,502],["13_113199706_113203927-2",0.49026055667907187,-34.77448945212384,565]],"bottom":[]},"para":{"top":[["8_144375930_144378602-2",0.3348924718549862,-15.180158590176218,551]],"bottom":[]}}}
