{"depmap_hotspot":{"corr":{"top":[["CACNA1A",0.19929849826460028,-6.3117029462896355,87.0,540.0],["EXOC3L4",0.1527853242217785,-3.9111709084903112,21.0,606.0],["F2RL1",0.16343770859654902,-4.406420736376003,16.0,611.0],["HTR5A",0.16006549736000636,-4.246202561601039,24.0,603.0],["MFSD9",0.15332636186592014,-3.93556126144235,19.0,608.0],["PCDHB7",0.1616005321482154,-4.318737516742196,64.0,563.0],["RBM43",0.15149918517467872,-3.8535169677660384,16.0,611.0],["SCN3B",0.17472478849112952,-4.9660989576305345,16.0,611.0],["TENM4",0.17478708753696273,-4.969288868759274,100.0,527.0],["TNFRSF8",0.1625860218916986,-4.365653978956823,23.0,604.0]],"bottom":[]},"para":{"top":[["AQP7",0.1426084922979572,-3.7438379203557592,12.0,615.0],["AREL1",0.16780255013405468,-4.870418048168158,20.0,607.0],["ASCL5",0.1407549970668311,-3.667155074990656,8.0,619.0],["CBX5",0.1478317741772855,-3.963863174139074,12.0,615.0],["CERS5",0.14822433545631955,-3.980736259008304,13.0,614.0],["CTSS",0.10651091220996782,-2.4132072164610516,8.0,619.0],["DFFA",0.11320228511303303,-2.63494205815089,8.0,619.0],["F2RL1",0.1639942993179513,-4.689493115196386,16.0,611.0],["FRG2B",0.14301586686048984,-3.760797468643196,13.0,614.0],["GHRHR",0.1640883228616011,-4.693869206470638,15.0,612.0],["HAUS4",0.11626071648542002,-2.7401733282353278,10.0,617.0],["HYI",0.1403156092342672,-3.649409335081731,11.0,616.0],["LACRT",0.12207896588284425,-2.9465380752557735,9.0,618.0],["LRRC2",0.12877893133295537,-3.1949398742935196,10.0,617.0],["MESP2",0.15408681544018482,-4.2365988089352005,12.0,615.0],["MNDA",0.17485494228053844,-5.215239008444419,22.0,605.0],["ORMDL3",0.1489633578129739,-4.012394794863268,11.0,616.0],["OTOR",0.11997238005025197,-2.870730270853344,8.0,619.0],["PMP2",0.11741391394025645,-2.7802665325552063,8.0,619.0],["POMK",0.1449215578761815,-3.840547890933878,15.0,612.0],["RBBP9",0.14175555968194978,-3.7084505496341595,10.0,617.0],["RBM43",0.15760709394649705,-4.394728142065619,16.0,611.0],["RSAD2",0.1439949189696308,-3.801555743212467,12.0,615.0],["SCN3B",0.17472368377964845,-5.208504523262599,16.0,611.0],["SGTB",0.11944203050782691,-2.851921037639726,9.0,618.0],["SHMT1",0.13272534958315285,-3.3463958671093845,8.0,619.0],["SPNS2",0.16644504635768925,-4.805540664375023,20.0,607.0],["ZNF280C",0.16137680136990865,-4.567521979894722,19.0,608.0],["ZNF736",0.13921157484327235,-3.604602742833978,14.0,613.0]],"bottom":[["BTN3A2",-0.09855128481945001,-2.1643026355280806,15.0,612.0],["HS3ST5",-0.11499306633316696,-2.696514207737342,14.0,613.0]]}}}
{"depmap_damaging":{"corr":{"top":[["STAT2",0.12885836404121873,-2.9128782518570846,9.0,618.0]],"bottom":[]},"para":{"top":[["CCDC88A",0.11999854965116293,-2.8718103987269514,10.0,617.0],["CTNNA1",0.14642617367918784,-3.9040160790538634,13.0,614.0],["EHBP1",0.11661939545851263,-2.752586872733792,9.0,618.0],["FBXW7",0.14169521114760178,-3.7060291928299063,11.0,616.0],["GREB1L",0.1459686121962233,-3.8845146992832564,11.0,616.0],["KIF27",0.13432611800076613,-3.4092503235013565,11.0,616.0],["KLHL1",0.11881065161521717,-2.8295270044435195,9.0,618.0],["LOXL3",0.14373154790587375,-3.7903490178204486,9.0,618.0],["MMS22L",0.14042609370338727,-3.6537829550858834,9.0,618.0],["MYH15",0.14390657688110373,-3.797737076382483,10.0,617.0],["NPAS3",0.14288049198898123,-3.754826932196894,8.0,619.0],["PMFBP1",0.12319316392862623,-2.9870458738857786,9.0,618.0],["SCN7A",0.1266205365823855,-3.113755032715711,11.0,616.0],["SIDT1",0.10749493763688917,-2.445112838524396,8.0,619.0],["SMC2",0.13777088847695965,-3.5461874635457087,10.0,617.0],["SRRM2",0.11831921733302408,-2.8120879149811,8.0,619.0],["STAT2",0.13047259116106838,-3.2594496767936385,9.0,618.0],["TENM4",0.1299181216435266,-3.2383601478570863,11.0,616.0],["WDR90",0.13184677553502744,-3.312458372382347,10.0,617.0]],"bottom":[["PDIA3",-0.11457425646107433,-2.681988596079829,11.0,616.0]]}}}
{"ccle_rrbs_enhancer_clusters":{"corr":{"top":[],"bottom":[]},"para":{"top":[],"bottom":[["17-35055889-35060730-1_enh",-0.18849798202143075,-3.74240499252096,390]]}}}
{"prism_primary_logfold":{"corr":{"top":[],"bottom":[]},"para":{"top":[["adrenalone_BRD-K82343404-003-02-4::2.5::HTS",0.2125591336858314,-4.2029266639813025,349]],"bottom":[]}}}
{"prism_secondary_logfold":{"corr":{"top":[["AM-404_BRD-K55462201-001-07-3::10::HTS002",0.24912983043434064,-2.902507995598881,165]],"bottom":[]},"para":{"top":[],"bottom":[]}}}
{"ccle_proteomics":{"corr":{"top":[],"bottom":[["DPF3_Q92784-2",-0.36281217490169804,-4.912222112666862,138]]},"para":{"top":[],"bottom":[["NECAP2_Q9NVZ3-2",-0.353388880565735,-7.5321993726873835,233],["DPF3_Q92784-2",-0.3859017475063632,-5.530564989755184,138],["STK4_Q13043",-0.3530308893589534,-7.517292259684338,233],["CD33_P20138",-0.4022773762199595,-5.199747257101605,118]]}}}
{"avana":{"corr":{"top":[["SEM1_7979",0.23855272745606845,-5.272621235797082,356]],"bottom":[["FAM32A_26017",-0.22406844196462325,-4.703513487624812,356],["ZNF574_64763",-0.23038229563620555,-4.947094609950399,356],["ZNF682_91120",-0.2294779448983689,-4.911781371471888,356]]},"para":{"top":[["GALP_85569",0.21562323908377576,-4.388437416582339,356],["ORC5_5001",0.24677377337959736,-5.612071273213933,356],["SEM1_7979",0.22896683965581788,-4.89188658995654,356]],"bottom":[["COPS4_51138",-0.23859929355391873,-5.274510172772103,356],["SERPINB6_5269",-0.21787614413582881,-4.471296904283962,356],["ZNF682_91120",-0.22675996086727823,-4.8065045769937385,356]]}}}
{"drive":{"corr":{"top":[["MSANTD3-TMEFF1_100526694",0.3568818065986286,-8.226577757941122,251],["RHOA_387",0.2605550205429881,-4.454598726236889,246]],"bottom":[["FOXH1_8928",-0.2688865026931194,-4.649859854360037,242],["TTC37_9652",-0.3201314011384273,-6.443396686116787,242]]},"para":{"top":[["HBB_3043",0.250679108467458,-4.168149307208411,247]],"bottom":[["GNAS_2778",-0.318926980829598,-6.614324064928175,251],["SLAMF7_57823",-0.2643306213844653,-4.622629705934661,249],["FOXH1_8928",-0.25058152848540294,-4.090769866898412,242],["TTC37_9652",-0.3281860464886074,-6.757563987276458,242]]}}}
{"achilles":{"corr":{"top":[["ICA1L_130026",0.2945298506577892,-3.784575984309026,159],["RSPH3_83861",0.28597888035252544,-3.588444835615936,159]],"bottom":[["FRMD6_122786",-0.267577776631669,-3.187013045434403,159],["GNAS_2778",-0.2771346801557614,-5.550026239855047,277],["PPP2R2D_55844",-0.26414632333122173,-5.0778568517427995,277],["CARD18_59082",-0.3146148110388352,-4.269984738783081,159],["CXCL6_6372",-0.2743483727344785,-5.446674766342943,277],["HIST1H2BF_8343",-0.28358468141725446,-5.7936455757113405,277]]},"para":{"top":[["FBXW2_26190",0.26571434477223577,-5.133568948436052,277],["RSPH3_83861",0.28531801371568105,-3.5735430544654565,159]],"bottom":[["PMCH_5367",-0.3052879418408453,-4.040201695841885,159],["CARD18_59082",-0.3168321044305431,-4.325745361557014,159],["CXCL6_6372",-0.2679474197858081,-5.213518713710805,277],["HIST1H2BF_8343",-0.27895410203728127,-5.618126475640341,277]]}}}
{"ccle_rrbs_tss1kb":{"corr":{"top":[["MCF2L_13_113655027_113656027",0.5571155399364731,-51.11033203002204,620]],"bottom":[]},"para":{"top":[["MCF2L_13_113655027_113656027",0.5539642991401368,-50.428286251577,620]],"bottom":[]}}}
{"ccle_rrbs_tss_clusters":{"corr":{"top":[["MCF2L_7",0.9999999999999999,-323.0051853474518,627]],"bottom":[]},"para":{"top":[["MCF2L_7",0.9999999999999999,-323.0051853474518,627]],"bottom":[]}}}
{"ccle_rrbs_cgi_clusters":{"corr":{"top":[],"bottom":[["1_6531175_6533814-2",-0.3597644044340058,-19.776826055692016,624]]},"para":{"top":[["13_113654116_113658379-1",0.6395495974887135,-72.68739495117754,627]],"bottom":[["7_100609264_100611793-2",-0.3920834216131137,-21.98983192995144,579]]}}}
