{"depmap_hotspot":{"corr":{"top":[],"bottom":[["DUSP23",-0.12310485398597001,-2.9801659220279433,8.0,698.0],["KRT3",-0.21769667518713876,-8.293610421577375,56.0,650.0],["KRT6C",-0.29155193176420685,-14.573300957339313,37.0,669.0],["SLC25A17",-0.1251317075815824,-3.0644414645343256,19.0,687.0],["SYS1",-0.11556737271774452,-2.6775740112249777,15.0,691.0]]},"para":{"top":[["ATP6V1E2",0.12545388400722557,-3.362719456942082,11.0,695.0],["GATA5",0.1086253611104674,-2.7063423828510844,13.0,693.0],["LCN1",0.09543560787220344,-2.2478044951828506,9.0,697.0],["MAB21L3",0.12607692716099442,-3.388855285209661,19.0,687.0],["MXD1",0.09685910443150941,-2.294856639777657,8.0,698.0],["NOB1",0.12832814069698972,-3.4832734759045603,21.0,685.0],["PLA2G12A",0.11258103971739303,-2.85325463614509,10.0,696.0],["RP13-996F3.5",0.10428948237119222,-2.550006734033415,8.0,698.0],["ST6GALNAC4",0.14329055978843702,-4.147593314382311,16.0,690.0]],"bottom":[["ATF1",-0.09037195423872582,-2.0848836634022883,11.0,695.0],["LILRB4",-0.11076381531306013,-2.7855039276484814,22.0,684.0]]}}}
{"depmap_damaging":{"corr":{"top":[],"bottom":[["KRT3",-0.3635560477847677,-22.758049662618717,17.0,689.0],["KRT79",-0.165901648590994,-5.027904640944333,15.0,691.0],["ZADH2",-0.11989666393738589,-2.849295602595028,9.0,697.0]]},"para":{"top":[["PNMA2",0.1005124469153183,-2.4184871880129233,10.0,696.0],["SCN11A",0.12864487476653724,-3.496439087307423,13.0,693.0],["SUPT20H",0.08767845968825691,-2.0009253879925843,8.0,698.0]],"bottom":[["KRT3",-0.22279530398753916,-8.780104741578665,17.0,689.0]]}}}
{"ccle_rrbs_enhancer_clusters":{"corr":{"top":[["1-38492689-38497688-0_enh",0.6864375769908128,-98.75970182249365,706],["1-243893796-243898468-1_enh",0.3444273092411041,-13.391942795074401,455]],"bottom":[]},"para":{"top":[],"bottom":[]}}}
{"ccle_mirna":{"corr":{"top":[],"bottom":[["hsa-miR-1266_miR00083.1",-0.41983984082019465,-30.621151410207375,702],["hsa-miR-654-3p_miR00610.1",-0.24498271929415685,-10.327026129639895,702],["hsa-miR-944_miR00682.1",-0.38745891943231864,-25.838050547689644,702]]},"para":{"top":[],"bottom":[["hsa-miR-944_miR00682.1",-0.29126747527753793,-14.46699009954213,702]]}}}
{"prism_primary_logfold":{"corr":{"top":[["BMS-599626_BRD-K07106112-003-03-8::2.5::HTS",0.38552685134326947,-15.038762823400107,404],["erlotinib_BRD-K70401845-003-09-6::2.5::HTS",0.3047760830574243,-9.426241314262375,405],["XL-647_BRD-K03765900-001-01-9::2.499986292::MTS004",0.3751228456017585,-13.81801741910102,392],["poziotinib_BRD-K50010139-001-02-3::2.5::MTS004",0.38353287483043186,-14.528671952131646,394]],"bottom":[]},"para":{"top":[],"bottom":[]}}}
{"prism_secondary_logfold":{"corr":{"top":[["XL-647_BRD-K03765900-001-01-9::0.624999998::MTS006",0.40039597767321555,-14.143297663462175,349],["XL-647_BRD-K03765900-001-01-9::2.5::MTS006",0.3990634547741846,-14.084636434591582,350],["pelitinib_BRD-K08799216-001-05-3::0.15625::MTS010::PROS002_PR500",0.3844698040407205,-12.128811085119665,324],["saracatinib_BRD-K19540840-001-09-4::10::MTS010::PROS004_PR500",0.39469770897622214,-13.544886208878145,344],["canertinib_BRD-K50168500-001-07-9::10::MTS010::PROS001_PR500",0.4161591447689318,-14.904369586577944,339],["dacomitinib_BRD-K57169635-001-04-5::0.0391::MTS010::PROS002_PR500",0.4214110126606666,-14.653568127337012,324],["gefitinib_BRD-K64052750-001-22-5::2.5::MTS010::PROS002_PR500",0.3947839389931212,-12.802466796317525,324],["ibrutinib_BRD-K70301465-001-02-6::10::HTS002",0.38049365096810006,-12.670905435868512,347],["ibrutinib_BRD-K70301465-001-05-9::10::MTS010::PROS003_PR500",0.45314569683374273,-17.79225562111117,338]],"bottom":[["naftidrofuryl_BRD-A67862938-034-14-9::0.00976562::HTS002",-0.23465742557032257,-3.689834820042478,246],["CHIR-98014_BRD-K42973005-001-04-0::2.5::HTS002",-0.301774011646317,-8.011968315182363,347],["sobetirome_BRD-K85406984-001-01-0::2.5::HTS002",-0.25429492813723636,-5.100889400920784,301]]},"para":{"top":[],"bottom":[["naftidrofuryl_BRD-A67862938-034-14-9::2.5::HTS002",-0.24209240338399596,-3.9010157878353593,246],["etoposide_BRD-K37798499-001-27-2::0.00976562::HTS002",-0.23958235690563823,-5.193795679940194,347],["chloramphenicol-palmitate_BRD-K96424892-001-02-9::0.00976562::HTS002",-0.2498056419411239,-3.5476258754404015,207]]}}}
{"ccle_proteomics":{"corr":{"top":[["SSB_P05455",0.3340868241995897,-7.788669954870236,272],["PAPSS1_O43252",0.3403443976789129,-8.075455739356675,272],["SLFN14_P0C7P3",0.39973916225761696,-4.740067031503498,108],["DXO_O77932",0.30890397949750487,-5.635469238007166,225],["PSMG4_Q5JS54-2",0.3114154280707493,-6.664599143321965,266]],"bottom":[["KRT3_J3QST3",-0.6001377043104102,-17.775398996967343,175],["TP63_Q9H3D4",-0.6231720939365696,-22.18065006062683,200],["PVRL1_Q15223",-0.40593689630877716,-11.28815022021521,267],["AQP3_Q92482",-0.5424017642596065,-10.34694281210689,127],["S100A2_P29034",-0.47407699367743356,-13.394587509050584,227],["SPRR1B_P22528",-0.4403739262602026,-8.970021689427046,175]]},"para":{"top":[],"bottom":[["DGKB_Q9Y6T7",-0.37903487347208975,-4.281727527451659,108],["AQP3_Q92482",-0.4701575763587491,-7.61153549839206,127]]}}}
{"depmap_copy_number":{"corr":{"top":[],"bottom":[["LINC02584_100009613",-0.38995295729124796,-26.33245120701192,706],["MIR548K_100313770",-0.40430877136324805,-28.41750429411758,706],["MIR3664_100500844",-0.39130213224691757,-26.524073695388076,706],["SHANK2-AS1_100874198",-0.3879975720499342,-26.05630227882194,706],["LOC101928443_101928443",-0.38995295729124796,-26.33245120701192,706],["CTTN_2017",-0.3963720997769272,-27.252138839418272,706],["SHANK2-AS3_220070",-0.39130213224691757,-26.524073695388076,706],["FGF3_2248",-0.35445858794015256,-21.60092319659046,706],["FGF4_2249",-0.3469446441419007,-20.673135901103667,706],["SHANK2_22941",-0.4051052162671693,-28.536196700646546,706],["PIK3CA_5290",-0.34618521382524337,-20.58075219416925,706],["ANO1_55107",-0.38995295729124796,-26.33245120701192,706],["MFN1_55669",-0.34623305593520987,-20.58656465432225,706],["GNB4_59345",-0.34712928518351527,-20.69563551757888,706],["PPFIA1_8500",-0.40430877136324805,-28.41750429411758,706],["FADD_8772",-0.4005444152305359,-27.860841221840516,706]]},"para":{"top":[],"bottom":[]}}}
{"depmap_gene_tpm":{"corr":{"top":[["CHCHD3_54927",0.386273376591264,-25.708164663830647,703],["ACAA2_10449",0.410627967366332,-29.246911169941907,703]],"bottom":[["TP63_8626",-0.621841168987485,-75.73298789268863,703],["PKP1_5317",-0.5663991249887534,-60.16209471864018,703],["FAT2_2196",-0.6004368715900981,-69.35933458326663,703],["KRT17_3872",-0.5607688508292213,-58.74207615556195,703],["SOX15_6665",-0.5673816365865016,-60.41270440742381,703],["DSG3_1830",-0.6027712787356276,-70.0310783999039,703],["DSC3_1825",-0.5646724345887878,-59.72370063903292,703],["DUOX1_53905",-0.553081325075892,-56.846597124953405,703],["DUOXA1_90527",-0.5715151434149044,-61.47632212082816,703],["CERS3_204219",-0.5755359078236978,-62.52550827836111,703],["HCAR2_338442",-0.6462190065586585,-83.62196181618542,703],["GBP6_163351",-0.5711363335362905,-61.37821975832772,703],["KRT5_3852",-0.5969606922246694,-68.36923671839885,703],["SERPINB13_5275",-0.6611811353581576,-88.83239309472037,703],["KRT6A_3853",-0.6168746560730101,-74.21022967532411,703],["HCAR3_8843",-0.5951865886375473,-67.868579083322,703]]},"para":{"top":[],"bottom":[]}}}
{"avana":{"corr":{"top":[["ANKRD49_54851",0.31042394612119234,-9.657071798163201,400],["CNIH2_254263",0.294968111842678,-8.745681408894066,400],["EDF1_8721",0.3660677496867846,-13.275993837153838,396],["ERBB2_2064",0.4021938411118865,-16.25784574399966,400],["NPAS4_266743",0.297590521325518,-8.896551894071685,400],["OST4_100128731",0.3609571479258085,-13.027186769445668,400],["SIPA1_6494",0.3174656477002285,-10.090272834982231,400],["SNAI2_6591",0.31554842103964087,-9.87799396875509,396],["TP63_8626",0.5688284186166412,-34.940606887522314,400],["UGCG_7357",0.2948795263043813,-8.74061156871894,400]],"bottom":[["EXOC5_10640",-0.23619498701602787,-5.749473413550081,400],["PHLDA3_23612",-0.25822208926092577,-6.788117246010807,400],["RASA1_5921",-0.27476119321798514,-7.633575639672338,400],["SPPL3_121665",-0.30049432033927387,-9.065394863982576,400],["U2SURP_23350",-0.2977548930944446,-8.906059232937372,400]]},"para":{"top":[["C11orf86_254439",0.24542470487362886,-6.172746879565261,400],["LTBP3_4054",0.22078565301146114,-5.080351871453954,400]],"bottom":[["U2SURP_23350",-0.24902374245182515,-6.342438584490587,400]]}}}
{"drive":{"corr":{"top":[["GPR146_115330",0.2678238779112732,-5.0062084870521835,265],["ADRB2_154",0.396387232120638,-10.676955274203433,265]],"bottom":[["CYP2A6_1548",-0.3042497395320963,-6.6379487384477365,278]]},"para":{"top":[["UBL4B_164153",0.3606778216159675,-8.834943195288432,265]],"bottom":[["CD300LD_100131439",-0.29146536806998685,-5.859323194419746,265],["CYP2A6_1548",-0.3145802142301373,-7.075224841706639,278],["LIMK1_3984",-0.27962281601098093,-5.422157733400605,265],["PPM1D_8493",-0.33561155953154304,-7.938082027439905,275]]}}}
{"achilles":{"corr":{"top":[["ARL14EP_120534",0.3267818581172379,-5.1726593348529235,182],["SP7_121340",0.3609173823157948,-10.552843074248221,320],["COL12A1_1303",0.3273399677554038,-5.1893160398435185,182],["COL6A5_256076",0.33792110563207955,-5.511369157732035,182],["ZNF517_340385",0.3117446030958972,-7.914993818972146,320],["TNIP3_79931",0.31621300991233176,-4.863378453546465,182],["TRAPPC13_80006",0.3351605101737015,-5.426192132671629,182]],"bottom":[["NRSN1_140767",-0.3229389996611713,-5.058857917649042,182],["TOR1AIP2_163590",-0.3265368474619137,-5.165357387370934,182],["FCHO1_23149",-0.365593393836278,-6.41157518240258,182],["WSCD1_23302",-0.3314154304803961,-5.311945726210382,182],["PALM_5064",-0.49299605915240263,-11.809984380022867,182],["RPL26L1_51121",-0.35203191424890734,-5.959724586541124,182],["FAM96B_51647",-0.3236116521820976,-5.07866600150721,182],["SALL2_6297",-0.3458711214880179,-5.761280904191663,182],["FAM185BP_641808",-0.33227645138207046,-5.3380792199806955,182],["ST6GAL1_6480",-0.31598884415081385,-8.1246176328481,320],["NETO2_81831",-0.408600219775421,-7.988587111742452,182]]},"para":{"top":[["CDY1B&CDY1_253175&9085",0.30757559753199837,-4.619160694941657,182],["ARFGAP1_55738",0.26154592580253183,-5.67698694529423,320],["ZMYM6_9204",0.288050054303984,-4.0946230936773835,182]],"bottom":[["TOR1AIP2_163590",-0.3184442616367522,-4.927706905352009,182],["PRRC2C_23215",-0.3349682881929902,-5.4202917223558185,182],["WSCD1_23302",-0.34033108852930233,-5.586400974540216,182],["C1orf43_25912",-0.3523733155569158,-5.970844753404624,182],["PALM_5064",-0.41235248487116144,-8.137129111017002,182],["FAM96B_51647",-0.2881518239894091,-4.097260017038326,182],["FBRS_64319",-0.28879966937711726,-4.114069669888269,182]]}}}
{"ccle_rrbs_tss1kb":{"corr":{"top":[["S100A2_1_153536363_153537363",0.6158649296495822,-71.93047599266335,684],["LOC102723313_8_10585800_10586800",0.4474066359750654,-32.5865706202949,650],["SHOC1_9_114557288_114558288",0.5100379314202317,-46.633095830476556,696],["CAMKK2_12_121736111_121737111",0.47951772427956857,-40.23491535886865,690],["LTB4R2_14_24778356_24779356",0.5163349240022237,-47.08123166469883,683],["CORO2B_15_68932841_68933841",0.6238284503857953,-35.615368595900364,324],["MRTFB_16_14163918_14164918",0.4871306207241146,-41.85363424785719,693],["ALOX12_17_6898383_6899383",0.6160510605506102,-73.02482515659342,694],["SNORD152_19_38652735_38653735",0.5489766752927312,-54.99449995957282,692],["COL18A1-AS2_21_46829980_46830980",0.5536873027836846,-55.956705299740634,690],["LOC100506679_22_43433590_43434590",0.5402620426462945,-52.815018869034695,690]],"bottom":[["PLEKHG5_1_6546014_6547014",-0.22490112460297554,-8.53034988186319,681],["CXXC5_5_139029573_139030573",-0.2428716024716369,-10.06246915813848,695],["SLC46A3_13_29293150_29294150",-0.2722756528245482,-12.535121247740125,694],["SNHG22_18_47339392_47340392",-0.28642282517552936,-8.360083654877089,405]]},"para":{"top":[["SHOC1_9_114557288_114558288",0.38639874558995524,-25.477702127938485,696]],"bottom":[]}}}
{"ccle_gene_tpm":{"corr":{"top":[["CHCHD3_ENSG00000106554.7",0.39192392185382846,-26.39357641243847,700],["ACAA2_ENSG00000167315.13",0.41227085992588236,-29.374072193773294,700]],"bottom":[["TP63_ENSG00000073282.8",-0.6221805411765395,-75.51819174094746,700],["PKP1_ENSG00000081277.7",-0.5662787486559888,-59.87864264752526,700],["FAT2_ENSG00000086570.8",-0.6003883355765877,-69.05329599052443,700],["KRT17_ENSG00000128422.11",-0.5592551528876442,-58.11965934484467,700],["SOX15_ENSG00000129194.3",-0.5669248410733123,-60.04257667117057,700],["DSG3_ENSG00000134757.4",-0.6030425407025342,-69.81410391150845,700],["DSC3_ENSG00000134762.12",-0.5638753764820353,-59.27199770667604,700],["DUOXA1_ENSG00000140254.8",-0.5718139647754248,-61.29492468467581,700],["CERS3_ENSG00000154227.9",-0.5762599291963817,-62.452148529208685,700],["HCAR2_ENSG00000182782.7",-0.6465007228741079,-83.36386288302519,700],["GBP6_ENSG00000183347.13",-0.5720800793299106,-61.36369416128667,700],["KRT5_ENSG00000186081.7",-0.596410397010008,-67.92630850111257,700],["SERPINB13_ENSG00000197641.7",-0.6623588464924566,-88.87815287679378,700],["KRT6A_ENSG00000205420.6",-0.6162651609916587,-73.71311734349867,700],["MIR205HG_ENSG00000230937.5",-0.5888837939990013,-65.83653417161786,700],["HCAR3_ENSG00000255398.2",-0.5957266854578458,-67.73419036123032,700]]},"para":{"top":[],"bottom":[["RP5-866L20.1_ENSG00000235741.1",-0.34605850088103024,-20.397350454569192,700],["RP11-646E18.2_ENSG00000238837.3",-0.3436794837534738,-20.11214036615796,700],["CASP1P2_ENSG00000254750.1",-0.3447503778878964,-20.24022160329039,700]]}}}
{"ccle_rrbs_tss_clusters":{"corr":{"top":[["TP73_9",0.5785280729837149,-62.960577413618395,699],["GBP6_2",0.5849617135114404,-52.536325968334985,566],["S100A2_1",0.6196894095678336,-71.27076754334855,667],["S100A2_2",0.5634786908530923,-57.59031986945551,681],["S100A2_4",0.6262108852189259,-77.09561528557087,703],["SYNPO_4",0.6568231462228024,-87.52980790173275,705],["TGM1_3",0.595443043454787,-67.55924525135744,699],["CORO2B_1",0.6178331523367423,-35.49974025095586,331],["PAK6_1",0.6877969832337574,-99.02271503576388,704],["TYRO3P_3",0.5754165880556694,-59.33924181253785,667],["MIR5572_1",0.6045854909369849,-59.15719418971791,588],["MRTFB_1",0.6098459364635755,-71.99986521175691,702],["ALOX12_1",0.5882013657948038,-66.0198136926184,704],["SOX15_1",0.5799663930173795,-63.966583706815605,706],["ZNF57_6",0.6814351472195456,-95.70412293055624,698],["TPST2_6",0.6057648176393688,-50.971928595940916,503]],"bottom":[["DDAH2_3",-0.2720983550993328,-9.774646435251896,533],["SYT8_2",-0.3694136762281009,-23.52304134629606,706],["DCP1B_1",-0.3566073725840737,-12.62230880452525,397]]},"para":{"top":[["LSAMP-AS1",0.4973247797281891,-12.161325402531917,184]],"bottom":[["DCP1B_1",-0.2594133823310854,-6.800181615087619,397]]}}}
{"ccle_rrbs_cgi_clusters":{"corr":{"top":[["20_57034303_57038605-2",0.6469307826979694,-83.86319754671398,703],["13_40744369_40748696-2",0.7199209879774434,-111.44895449448371,696],["7_5466338_5471256-3",0.6029868314804345,-64.57998850999631,647],["17_40822754_40825573-2",0.6513184230060681,-85.36463209849306,703],["4_1222451_1226728-3",0.6361962295190077,-79.95344042487572,700],["7_1050387_1054736-3",0.6077495152544035,-71.7835487064915,706],["7_149411604_149414351-2",0.6282681639275352,-42.835701815332435,384],["10_523719_528041-1",0.6438720870788263,-82.94766303283828,704],["7_5645104_5649340-3",0.6533826787038345,-86.32207145184624,705],["1_155096434_155099442-2",0.6285570856663556,-77.07000364268555,696],["16_14162849_14167656-1",0.6098459364635755,-71.99986521175691,702],["22_20128396_20133298-3",0.6039057614077589,-70.35954340312536,703],["13_40744369_40748696-1",0.6130328719233924,-63.810478102723835,613],["17_6896820_6899624-1",0.6015632816929257,-69.78063189608574,704],["16_2224079_2228351-2",0.6641520096328446,-85.59689996034231,669],["15_40529244_40533589-1",0.6877969832337574,-99.02271503576388,704]],"bottom":[["12_2111343_2115881-1",-0.3566073725840737,-12.62230880452525,397],["14_69281046_69285605-1",-0.30649789317423354,-16.029915847317987,703],["1_2396825_2401055-3",-0.2867051621883496,-14.098712939869557,706],["12_54770687_54775028-3",-0.5241717338097718,-50.352665472583524,706],["19_46010419_46013060-3",-0.28687853891191445,-13.869164058350863,693]]},"para":{"top":[["7_5466338_5471256-3",0.4391576818341577,-31.157291176354732,647],["13_40744369_40748696-2",0.6584424092243415,-86.99020067245581,696],["13_40744369_40748696-1",0.5538210906962799,-49.83819453707362,613],["8_49780687_49785270-3",0.4223406459215565,-31.098766355100597,704]],"bottom":[["1_24859702_24863920-3",-0.21402214518290483,-7.529030356475332,658],["12_2111343_2115881-1",-0.2594133823310854,-6.800181615087619,397],["12_54770687_54775028-3",-0.2559403334287579,-11.295488137928281,706],["1_24859702_24863920-2",-0.2365043436727917,-9.666502151736514,703]]}}}
