{"depmap_hotspot":{"corr":{"top":[],"bottom":[]},"para":{"top":[["HLA-DQB2",0.14385531830538015,-4.815375359681915,40.0,801.0]],"bottom":[["C12orf79",-0.12342631732304975,-3.7591746166003395,8.0,833.0],["DTD2",-0.1066509064028591,-3.000167446060468,9.0,832.0],["DUSP23",-0.12299722787632339,-3.7385551592103208,8.0,833.0]]}}}
{"depmap_damaging":{"corr":{"top":[],"bottom":[]},"para":{"top":[],"bottom":[["KRT14",-0.17850108827452235,-6.931421478126301,20.0,820.0],["OGDHL",-0.12427708490381328,-3.796883558472434,12.0,828.0]]}}}
{"ccle_metabolomics":{"corr":{"top":[],"bottom":[["hexanoylcarnitine",-0.24240437826591457,-11.757359859982927,824]]},"para":{"top":[],"bottom":[["hexanoylcarnitine",-0.22533037242491777,-10.218839535920122,824]]}}}
{"ccle_rrbs_enhancer_clusters":{"corr":{"top":[],"bottom":[]},"para":{"top":[],"bottom":[["1-10755664-10760631-0_enh",-0.26242479347859776,-12.425035130540754,742],["3-71275312-71278134-0_enh",-0.3280464538121671,-18.773701474337763,719],["3-71275312-71278134-1_enh",-0.2503741600550371,-11.213406064584316,733],["9-133354372-133357097-1_enh",-0.3216558512993755,-20.969355489645572,841]]}}}
{"ccle_proteomics":{"corr":{"top":[],"bottom":[]},"para":{"top":[["C19orf12_Q9NSK7",0.38061004280168137,-6.409235607805511,167],["MAPKBP1_O60336",0.4263672517634934,-7.228903427277163,149]],"bottom":[]}}}
{"depmap_gene_tpm":{"corr":{"top":[],"bottom":[]},"para":{"top":[],"bottom":[["FOXA1_3169",-0.6211016251963253,-89.72399747857386,837]]}}}
{"avana":{"corr":{"top":[],"bottom":[["NDRG3_57446",-0.26433130856316955,-8.292665593325118,474]]},"para":{"top":[],"bottom":[]}}}
{"drive":{"corr":{"top":[],"bottom":[["DGKB_1607",-0.3548935384727718,-10.234243398562093,321],["ITGA10_8515",-0.33141344604996714,-8.940458958995357,321]]},"para":{"top":[["S1PR3_1903",0.35441858356272316,-10.206993862183598,321],["KCNJ2_3759",0.36770742747439666,-10.986710056814065,321]],"bottom":[["CYBA_1535",-0.32557845185907464,-8.88516792011953,331],["MBD1_4152",-0.37717785686889854,-11.63262915711491,323]]}}}
{"achilles":{"corr":{"top":[["LOC100506127_100506127",0.3266129258677746,-6.137042747065838,220],["RASSF6_166824",0.3506048291146764,-7.034634035309822,220]],"bottom":[["RPLP0_6175",-0.32634228480955063,-6.127345395024315,220],["RPS26_6231",-0.35045543613256463,-7.0288084386670056,220]]},"para":{"top":[["WDR54_84058",0.3028855940120995,-8.820160500448727,382]],"bottom":[["SH3D21_79729",-0.32003548259944614,-5.9040078395402675,220]]}}}
{"ccle_rrbs_tss1kb":{"corr":{"top":[["TTC6_14_38063403_38064403",0.7858663512583952,-171.77589522609594,818],["FOXA1_14_38064325_38065325",0.9166898382473099,-323.0051853474518,830]],"bottom":[]},"para":{"top":[["FOXA1_14_38064325_38065325",0.9188865610410022,-323.0051853474518,830]],"bottom":[]}}}
{"ccle_gene_tpm":{"corr":{"top":[],"bottom":[]},"para":{"top":[],"bottom":[["FOXA1_ENSG00000129514.4",-0.619274158649834,-88.73894823084478,834]]}}}
{"ccle_rrbs_tss_clusters":{"corr":{"top":[["TTC6_2",0.9174691685061852,-323.0051853474518,841]],"bottom":[]},"para":{"top":[["TTC6_2",0.9218532990213345,-323.0051853474518,841]],"bottom":[["UHRF2_2",-0.40715361383286863,-24.358076789787095,593]]}}}
{"ccle_rrbs_cgi_clusters":{"corr":{"top":[["14_38061663_38064664-1",0.8043107547469649,-190.4518714958272,838]],"bottom":[]},"para":{"top":[],"bottom":[]}}}
