{"depmap_hotspot":{"corr":{"top":[],"bottom":[]},"para":{"top":[["BNIPL",0.12352635096652653,-3.7573059428942193,18.0,821.0],["CDR2",0.13221623310485014,-4.1879882526821115,21.0,818.0]],"bottom":[["CYSTM1",-0.11413097331896924,-3.320677163373261,10.0,829.0]]}}}
{"depmap_damaging":{"corr":{"top":[],"bottom":[]},"para":{"top":[],"bottom":[["COL21A1",-0.11159904320335531,-3.205549933406904,17.0,821.0]]}}}
{"ccle_rrbs_enhancer_clusters":{"corr":{"top":[],"bottom":[]},"para":{"top":[["10-77162564-77165102-0_enh",0.5175522955677365,-57.87439787845941,838]],"bottom":[]}}}
{"ccle_proteomics":{"corr":{"top":[["ATF3_P18847",0.3731936254411001,-7.783251678467507,215]],"bottom":[["STEAP2_Q8NFT2",-0.3603258555731315,-7.295652620008847,216]]},"para":{"top":[],"bottom":[]}}}
{"depmap_gene_tpm":{"corr":{"top":[],"bottom":[]},"para":{"top":[],"bottom":[["BMP4_652",-0.44339756168996186,-40.80361474249033,835]]}}}
{"ccle_rrbs_tss1kb":{"corr":{"top":[["BMP4_14_54421768_54422768",0.6928889057865111,-118.29441231348646,825],["BMP4_14_54420193_54421193",0.9967348428069737,-323.0051853474518,827],["BMP4_14_54421218_54422218",0.8001209811306722,-185.02590226890072,829],["SULF2_20_46414808_46415808",0.7147259380414117,-129.3545115209387,826]],"bottom":[]},"para":{"top":[["ZNF503-AS2_10_77162922_77163922",0.5176943142975052,-57.23091329246182,828],["ZNF503-AS2_10_77162634_77163634",0.5148437108063797,-56.44162181397414,827],["BMP4_14_54421768_54422768",0.6589135722520281,-103.14420974891947,825],["BMP4_14_54420193_54421193",0.9571286111763603,-323.0051853474518,827],["BMP4_14_54421218_54422218",0.7899001166154264,-177.08705105585128,829]],"bottom":[]}}}
{"ccle_gene_tpm":{"corr":{"top":[],"bottom":[]},"para":{"top":[],"bottom":[["BMP4_ENSG00000125378.11",-0.4427882294093997,-40.53854847402775,832]]}}}
{"ccle_rrbs_tss_clusters":{"corr":{"top":[["BMP4_1",0.7801642223262798,-171.55840249540628,837],["BMP4_5",0.9510108517636461,-323.0051853474518,839],["BMP4_9",0.9024713442345568,-307.66862700012604,839]],"bottom":[]},"para":{"top":[["ZNF503_1",0.5499568216317181,-66.68696739213723,838],["ZNF503-AS2_1",0.5557408584674389,-68.36353974130922,838],["ZNF503-AS2_4",0.5557947952785074,-68.37932917099671,838],["ZNF503-AS2_7",0.5569357362559281,-68.71400585504526,838],["BMP4_1",0.7430080923502675,-147.04657620198583,837],["BMP4_3",0.5645701690019449,-52.41837306754275,616],["BMP4_5",0.8839095612285214,-277.7761585295617,839],["BMP4_9",0.7700073143480386,-164.79151958804172,839]],"bottom":[]}}}
{"ccle_rrbs_cgi_clusters":{"corr":{"top":[["14_54416677_54420881-3",0.7132620616839189,-130.13668769741676,836],["20_46414624_46417507-2",0.7145681053825943,-130.8262438055827,836],["14_54421571_54424958-1",0.7901921610245282,-179.43670607291065,839]],"bottom":[]},"para":{"top":[["14_54421571_54424958-3",0.5645701690019449,-52.41837306754275,616],["10_77162364_77166982-1",0.5175522955677366,-57.87439787845941,838],["14_54421571_54424958-1",0.7671428209986003,-162.8345930567645,839]],"bottom":[]}}}
