{"depmap_hotspot":{"corr":{"top":[],"bottom":[]},"para":{"top":[["AC018816.3",0.1143238803131382,-3.141832742649432,8.0,770.0],["CCL13",0.11267770725996984,-3.0733787101278223,8.0,770.0]],"bottom":[["SPANXD",-0.13039910358516815,-3.8555498783445983,10.0,768.0]]}}}
{"ccle_proteomics":{"corr":{"top":[["LAMP3_Q9UQV4",0.3837011185375066,-4.963629796859329,124]],"bottom":[]},"para":{"top":[["SPIN1_Q9Y657",0.32254009180720156,-7.890581988071493,297]],"bottom":[]}}}
{"drive":{"corr":{"top":[],"bottom":[]},"para":{"top":[],"bottom":[["DLAT_1737",-0.276521758029599,-5.725095185599907,288],["PGK1_5230",-0.2948154768005312,-6.662203539392206,298],["RAP1B_5908",-0.26794361248346643,-5.39919794561275,288]]}}}
{"achilles":{"corr":{"top":[],"bottom":[["UTP6_55813",-0.34342938889657065,-6.137040385415757,198]]},"para":{"top":[],"bottom":[["UTP6_55813",-0.34982586139941985,-6.35898639505405,198]]}}}
{"ccle_rrbs_tss1kb":{"corr":{"top":[["TBPL2_14_55907263_55908263",0.8752106069867904,-243.06838324413806,768]],"bottom":[]},"para":{"top":[["TBPL2_14_55907263_55908263",0.929145345211275,-323.0051853474518,768]],"bottom":[]}}}
{"ccle_rrbs_tss_clusters":{"corr":{"top":[["TBPL2_2",0.5428476231254658,-60.03004956277918,777],["TBPL2_3",1.0,-323.0051853474518,778]],"bottom":[]},"para":{"top":[["TBPL2_3",1.0,-323.0051853474518,778]],"bottom":[]}}}
{"ccle_rrbs_cgi_clusters":{"corr":{"top":[],"bottom":[]},"para":{"top":[],"bottom":[]}}}
