{"depmap_hotspot":{"corr":{"top":[],"bottom":[]},"para":{"top":[["C7orf65",0.1114510014109064,-3.1843296520308466,13.0,820.0],["GEMIN8",0.15088298313387113,-5.170023192576729,11.0,822.0],["KRTAP29-1",0.12206214664540126,-3.6662966465416433,11.0,822.0]],"bottom":[["IL34",-0.09415972831513754,-2.4801356403430543,11.0,822.0],["PHLDA3",-0.10111254263735399,-2.7513122757864434,14.0,819.0]]}}}
{"depmap_damaging":{"corr":{"top":[],"bottom":[]},"para":{"top":[],"bottom":[["CNKSR1",-0.10786006812731286,-3.0269165108574527,9.0,823.0]]}}}
{"depmap_copy_number":{"corr":{"top":[["ENPP7P13_104644205",0.15435425044478637,-5.111544210459571,832],["LOC390705_390705",0.15296471145553453,-5.029116701700186,832]],"bottom":[]},"para":{"top":[["ENPP7P13_104644205",0.1629222753361854,-5.635764991485141,832]],"bottom":[]}}}
{"achilles":{"corr":{"top":[["LAMP5_24141",0.29550105000657173,-5.040781519642437,218],["TSPAN4_7106",0.33195900177057486,-6.277949779680274,218],["MLLT10_8028",0.25404742811963044,-6.2233708400464005,376]],"bottom":[["SIT1_27240",-0.30912399202220103,-5.483948152940671,218]]},"para":{"top":[["LAMP5_24141",0.299300997597603,-5.162156589165072,218],["MLLT10_8028",0.2413807388218907,-5.659791211098286,376],["SLC25A46_91137",0.27361869724557036,-4.374753708739708,218]],"bottom":[["LRRC6_23639",-0.29528782975115475,-5.034021869813253,218],["SIT1_27240",-0.3168947787653782,-5.746843441857057,218],["GPATCH4_54865",-0.3025282312247649,-5.266593506636683,218]]}}}
{"ccle_rrbs_cgi_clusters":{"corr":{"top":[["14_75445511_75449779-2",0.5541808447902339,-67.02888276304789,827]],"bottom":[]},"para":{"top":[],"bottom":[]}}}
