{"depmap_hotspot":{"corr":{"top":[],"bottom":[["AL355390.1",-0.12114917812910077,-3.035396396976408,8.0,737.0],["KCNIP3",-0.1293832083488163,-3.398519388147636,14.0,731.0],["OR4A16",-0.11694423749097434,-2.8582722451851055,36.0,709.0],["OR5H14",-0.12865469982046415,-3.3655176880447333,20.0,725.0],["SLFN14",-0.11560228855456428,-2.8029206374503066,13.0,732.0]]},"para":{"top":[["LIN28B",0.11596058265718526,-3.1062894774677057,9.0,736.0],["SPATA9",0.12653356790854914,-3.553550583498139,13.0,732.0],["ZNF595",0.14721808380399434,-4.52713844674972,28.0,717.0]],"bottom":[["AL355390.1",-0.11485702373468905,-3.061508798209547,8.0,737.0],["KCNIP3",-0.11225580331909593,-2.9578626429464148,14.0,731.0],["SLFN14",-0.10658102571990676,-2.738132738477472,13.0,732.0],["U82695.9",-0.12611143484824439,-3.5348429217833957,9.0,736.0]]}}}
{"depmap_damaging":{"corr":{"top":[],"bottom":[["T",-0.08968234135300313,-1.8415173669626794,8.0,736.0],["ZFPM2",-0.10831634990934144,-2.5094443863486333,8.0,736.0]]},"para":{"top":[["CNKSR2",0.09764029049736651,-2.4089930614721182,8.0,736.0]],"bottom":[["T",-0.08052430694792176,-1.8503503786967082,8.0,736.0],["ZFPM2",-0.09313287845943444,-2.2535392284944424,8.0,736.0]]}}}
{"prism_secondary_logfold":{"corr":{"top":[["benzydamine_BRD-K28542495-003-13-5::2.5::HTS002",0.21733483647239357,-4.606072776011196,370]],"bottom":[]},"para":{"top":[],"bottom":[]}}}
{"ccle_proteomics":{"corr":{"top":[],"bottom":[["PKD1_P98161",-0.30338384790228407,-3.4139661482261725,133]]},"para":{"top":[["TLR2_O60603",0.29199497145457537,-2.727360206676997,111]],"bottom":[["FBXO9_Q9UK97",-0.3040066804423522,-3.3589767743932395,130],["PKD1_P98161",-0.33135032687128896,-4.0094972161792155,133]]}}}
{"depmap_gene_tpm":{"corr":{"top":[],"bottom":[]},"para":{"top":[],"bottom":[["GABRB3_2562",-0.3919920036973344,-27.90071811336416,741]]}}}
{"avana":{"corr":{"top":[["ADPRM_56985",0.2303847355821513,-5.726098323102592,419]],"bottom":[]},"para":{"top":[],"bottom":[]}}}
{"achilles":{"corr":{"top":[["NT5C1B_93034",0.28806100807395957,-3.3139648055984474,143]],"bottom":[]},"para":{"top":[],"bottom":[]}}}
{"ccle_rrbs_tss1kb":{"corr":{"top":[["GABRB3_15_26874325_26875325",0.985462174042781,-323.0051853474518,736]],"bottom":[]},"para":{"top":[["GABRB3_15_26874325_26875325",0.950570462060747,-323.0051853474518,736]],"bottom":[]}}}
{"ccle_rrbs_tss_clusters":{"corr":{"top":[["GABRB3_4",0.8273158732234243,-187.54860422916462,745],["GABRB3_5",1.0,-323.0051853474518,745],["GABRB3_6",0.5795071899963324,-53.67551427139265,592]],"bottom":[]},"para":{"top":[["GABRB3_4",0.791855138872696,-160.55781121637054,745],["GABRB3_5",1.0,-323.0051853474518,745],["GABRB3_6",0.5780141568244587,-53.341469467105995,592]],"bottom":[]}}}
{"ccle_rrbs_cgi_clusters":{"corr":{"top":[["15_26872097_26876528-1",0.8273158732234243,-187.54860422916462,745],["15_26872097_26876528-3",0.5795071899963324,-53.67551427139265,592]],"bottom":[]},"para":{"top":[["15_26872097_26876528-1",0.7918551388726959,-160.5578112163704,745],["15_26872097_26876528-3",0.5780141568244587,-53.341469467105995,592]],"bottom":[]}}}
