{"depmap_hotspot":{"corr":{"top":[["NALCN",0.19914138839598228,-4.504950927410927,47.0,384.0],["OTOL1",0.14657887925619248,-2.641496228955688,25.0,406.0],["XDH",0.16084746367397512,-3.0947683423938113,57.0,374.0]],"bottom":[["GLT8D2",-0.16686934221148983,-3.2976277245864436,13.0,418.0],["WNT5B",-0.13946537930533373,-2.429707884941646,13.0,418.0]]},"para":{"top":[["ARSB",0.1490713692692463,-2.999564467304595,12.0,419.0],["ASB13",0.12863988949029398,-2.4159823305522097,9.0,422.0],["CLEC6A",0.12113940574705445,-2.219758837939981,8.0,423.0],["CTSB",0.13575929723315677,-2.611152340952368,10.0,421.0],["ERV3-1",0.16507094214639875,-3.507481322965994,20.0,411.0],["JMY",0.14849753506726512,-2.982384370405787,15.0,416.0],["SLC35C1",0.12863988949029395,-2.4159823305522097,9.0,422.0],["TMEM91",0.12113940574705447,-2.219758837939981,8.0,423.0],["TRIP13",0.13575929723315674,-2.611152340952368,10.0,421.0]],"bottom":[["GLT8D2",-0.14694372132984945,-2.935516942613224,13.0,418.0],["SERPINB5",-0.1287855811098017,-2.419774298141611,8.0,423.0],["UBXN1",-0.12190694913231677,-2.2398450709047144,14.0,417.0]]}}}
{"depmap_damaging":{"corr":{"top":[],"bottom":[]},"para":{"top":[["DOCK8",0.13575929723315674,-2.611152340952368,10.0,421.0],["ITGAL",0.12113940574705447,-2.219758837939981,8.0,423.0],["LOXHD1",0.10309588503155015,-1.7871614131247078,9.0,422.0]],"bottom":[["VARS2",-0.1265800774612587,-2.361341029834655,11.0,420.0]]}}}
{"prism_primary_logfold":{"corr":{"top":[["perchlozone_BRD-K86435560-001-01-0::2.5::HTS",0.22489323107565753,-3.5188900712961297,254]],"bottom":[["abiraterone-acetate_BRD-K24048528-001-02-5::2.5::HTS",-0.191388142089763,-2.4471396877284595,230]]},"para":{"top":[["iopamidol_BRD-K75868704-001-05-3::2.5::HTS",0.1955103557023722,-2.7586585382134268,254]],"bottom":[]}}}
{"prism_secondary_logfold":{"corr":{"top":[["sulfanilamide_BRD-K02594908-001-16-4::0.0390625::HTS002",0.22028888145709394,-2.7052044094659293,195],["nafcillin_BRD-K18574842-236-17-7::0.15625::HTS002",0.2609130098741863,-3.6391017202388016,195],["SB-366791_BRD-K61536336-001-01-7::0.0390625::HTS002",0.22395449127686468,-3.037199195906816,216],["AZD2461_BRD-K85014146-001-02-5::0.00976562::HTS002",0.24467105197370875,-3.447975936976533,209],["oltipraz_BRD-K86972824-001-01-4::0.0391::MTS010::PROS005_PR500",0.23699233101778577,-3.2458682916241317,208],["GSK923295_BRD-K89015388-001-01-7::0.0390625::HTS002",0.23489261112538817,-3.129264385133295,203],["OLDA_BRD-K95523387-001-09-6::0.625::HTS002",0.22999355207928399,-2.760507720273281,183]],"bottom":[["SIB-1757_BRD-K98157055-001-10-9::0.00061034::HTS002",-0.23993795961278347,-2.8731491528037516,176]]},"para":{"top":[["methotrexate_BRD-A55424491-001-19-9::0.0390625::HTS002",0.23205076755013337,-2.303032202438639,145],["benfotiamine_BRD-K07359318-001-03-9::0.00956752::HTS002",0.2320588608875013,-3.10247464208423,206],["nafcillin_BRD-K18574842-236-17-7::0.15625::HTS002",0.22376798336144668,-2.779119585267052,195],["clofibrate_BRD-K45252063-001-13-6::0.15625::HTS002",0.2507287719851559,-3.0569221775727695,173],["7-hydroxystaurosporine_BRD-K45293975-001-02-0::0.00244141::HTS002",0.23187579496502422,-2.7996288952159625,183],["SB-366791_BRD-K61536336-001-01-7::0.0390625::HTS002",0.22027792609919938,-2.951148297387501,216],["PHA-793887_BRD-K64800655-001-07-4::0.00061034::HTS002",0.2174956233048059,-2.943904110342586,221],["ispinesib_BRD-K64881305-001-03-7::0.00061::MTS010::PROS001_PR500",0.22870247999264018,-3.0875574522603766,211],["GSK923295_BRD-K89015388-001-01-7::0.0390625::HTS002",0.28978449881122803,-4.5614251113520545,203],["PHA-665752_BRD-K95435023-001-08-5::0.15625::HTS002",0.2635516392973701,-3.9377287153217657,209]],"bottom":[["BGT226_BRD-K29415052-050-04-8::10::HTS002",-0.21887361866484745,-2.687074858123783,196],["iodipamide_BRD-K67261995-001-11-7::2.5::HTS002",-0.20981221792074803,-2.521440651417844,198],["torin-2_BRD-K68174511-001-06-6::10::HTS002",-0.2669545363184162,-4.097959368412966,213]]}}}
{"ccle_proteomics":{"corr":{"top":[["ARL13B_Q3SXY8",0.31801706010258296,-3.0987854157246497,108]],"bottom":[]},"para":{"top":[["EXOSC7_Q15024",0.30901796303496093,-4.0389431024601095,155],["RIF1_Q5UIP0",0.3047893535317721,-3.9384007542628314,155],["BCORL1_Q5H9F3-3",0.2767031468371319,-3.1412311011945904,146],["EXOSC5_Q9NQT4",0.27256443971387906,-3.221075657469014,155],["LRP2_P98164",0.2973070093740986,-3.0760435719584107,123],["MEST_Q5EB52",0.30226296999489954,-2.7857429444229136,106],["SUDS3_Q9H7L9",0.2811009207074565,-3.4028478101008965,155],["RANBP2_P49792",0.27641891459121604,-3.3024293472230464,155]],"bottom":[["DMXL1_F5H269",-0.31483242669577644,-4.011847491163011,148],["EVI5L_Q96CN4-2",-0.2989513806378648,-2.8206292492014233,110]]}}}
{"depmap_copy_number":{"corr":{"top":[["LINC01087_101927994",0.19404501409148767,-4.291797111968847,430],["POTEKP_440915",0.19404501409148767,-4.291797111968847,430],["POTEI_653269",0.18629282552836826,-3.991561147436023,430],["CFC1B_653275",0.18629282552836826,-3.991561147436023,430]],"bottom":[]},"para":{"top":[],"bottom":[]}}}
{"avana":{"corr":{"top":[["ADAM12_8038",0.22317133834391806,-3.3646701229995135,245],["FUT3_2525",0.21743649386266822,-3.2146382191403475,245],["MAGI3_260425",0.21895997968682165,-3.254122765908088,245],["PRG3_10394",0.2284304996208058,-3.505629221624859,245],["URGCP_55665",0.22930371971781824,-3.5293482462035572,245],["ZNF562_54811",0.22748274924006004,-3.4799873623147826,245]],"bottom":[["ABHD12_26090",-0.22754842974982825,-3.481760973854779,245],["PDYN_5173",-0.209822638677779,-3.0213111866453746,245]]},"para":{"top":[["FUT3_2525",0.22832123792265008,-3.502667701118691,245],["GPR6_2830",0.23190039436683513,-3.6004128492836855,245],["PHKG2_5261",0.23863962358919993,-3.7885858081725337,245],["ZNF562_54811",0.22346669940760347,-3.3725007605969672,245]],"bottom":[["ABHD12_26090",-0.24529670188321565,-3.9798129439391703,245],["ADAMTS16_170690",-0.20781232023527219,-2.971372290335623,245],["CLVS1_157807",-0.2058881437427983,-2.924003175177349,245],["CST4_1472",-0.20940911322669448,-3.011001109648203,245],["EBAG9_9166",-0.20902480819925137,-3.001437019327056,245],["FBXW10_10517",-0.2193889843424617,-3.2652898492115208,245],["PDYN_5173",-0.21118039352066195,-3.0553000420986227,245],["SPINT1_6692",-0.24128525039196957,-3.8639424016380124,245]]}}}
{"drive":{"corr":{"top":[["MBD6_114785",0.31487947808014205,-4.276617546012194,159],["TBC1D21_161514",0.31460631117960924,-4.29365431759619,160],["ARNT_405",0.29191111830624467,-3.723853754226996,159],["PIM1_5292",0.2917612146854949,-3.7614919947331775,161],["PRR5-ARHGAP8_553158",0.2909900237584284,-3.743516096477586,161],["BCL2L2_599",0.31771256024244743,-4.34800904513611,159],["SFPQ_6421",0.2939543763837248,-3.771182076089511,159],["USP13_8975",0.2877441973287703,-3.648426736708174,160]],"bottom":[["KCNE4_23704",-0.27732089345019084,-3.377493667153351,158],["PDE7B_27115",-0.2685124571833347,-3.1892690352184423,158],["ILF2_3608",-0.28270634129340166,-3.5150097643545335,159],["CRSP8P_441089",-0.2723124384013723,-3.30559789682,160],["LSR_51599",-0.29849010889409566,-3.856007620828891,158],["SAT1_6303",-0.312742076000957,-4.246829735110372,160],["SGCA_6442",-0.2709484244490507,-3.258472398981229,159],["STK17B_9262",-0.3046669426714325,-4.0027695018655,158]]},"para":{"top":[["LOC105375262_105375262",0.2963641106467417,-3.848655246622532,160],["TBC1D21_161514",0.24839244148436548,-2.812564467950529,160],["FLT4_2324",0.28005443924538176,-3.4371898478966765,158],["FABP9_646480",0.2948840774236708,-3.7718376701541785,158],["CD8A_925",0.25726561362703865,-2.9901240238139124,160]],"bottom":[["ALDH1A3_220",-0.28884181809649123,-3.6735712530912425,160],["KCNE4_23704",-0.2632292176226303,-3.0793686554419857,158],["NME7_29922",-0.2608999539654138,-3.03162162522732,158],["IDH3A_3419",-0.2934798156352597,-3.7393588582481336,158],["ARHGAP5_394",-0.29580319738705213,-3.7931862405093426,158],["ALOXE3_59344",-0.27086108711897655,-3.274368833439981,160],["SBK2_646643",-0.28070699287842305,-3.4896288923981533,160],["NAA15_80155",-0.29704131332048583,-3.8433601346323583,159],["STK17B_9262",-0.2902774187493886,-3.6659140653328315,158]]}}}
{"achilles":{"corr":{"top":[["OCSTAMP_128506",0.34630951688806855,-3.676619187297701,110],["CMTM8_152189",0.33418975788858923,-3.444256626948049,110],["FGL1_2267",0.3230179995534571,-3.2383240648129537,110],["SLC25A45_283130",0.34285037022161435,-3.6093342209301,110],["CCDC150_284992",0.34285263492200574,-3.6093780182754633,110],["SEC61A2_55176",0.3523915194968823,-3.7968200603038618,110],["GSDMB_55876",0.3359019107811663,-3.476511298463746,110],["SDHAF3_57001",0.3163075313609887,-3.1183459333037686,110],["RSRP1_57035",0.2994181720020712,-2.8284027034111845,110],["ACTA2_59",0.314268513424767,-3.082434148524917,110],["CEP63_80254",0.3503026596794103,-3.755262680868151,110],["PDCD2L_84306",0.3864586995835437,-4.5165058766177655,110],["SCAMP1_9522",0.3005021502891525,-2.846503366520509,110]],"bottom":[["TMEM65_157378",-0.3205378160427257,-3.1936585906804735,110],["PPP6R1_22870",-0.32353537306949054,-3.2476892235741226,110],["KIFAP3_22920",-0.2592042319378289,-2.204161527888129,110],["RGS9BP_388531",-0.2856355760036555,-2.604198008131161,110],["MAGEA12_4111",-0.3034553411634049,-2.8961671097377337,110],["TUG1_55000",-0.31420789262201015,-3.081370334497386,110],["ANKRD10_55608",-0.2927286675271496,-2.7182147367539375,110],["KCTD16_57528",-0.2860022873313068,-2.610022209340176,110],["CLSPN_63967",-0.31089021272581957,-3.0234877707879786,110]]},"para":{"top":[["OCSTAMP_128506",0.33609520561240075,-3.480164422267617,110],["ZNF778_197320",0.316120624284212,-3.115043564372232,110],["FGL1_2267",0.34083294739125863,-3.570450655393689,110],["CCDC150_284992",0.373561481881653,-4.234566685734998,110],["JMJD8_339123",0.29798237811394795,-2.804533162182328,110],["SEC61A2_55176",0.29655517018677646,-2.7809255809103943,110],["ACTA2_59",0.3589060099741692,-3.9282878371477734,110],["GOLGA8J&GOLGA8T&GOLGA8K&GOLGA8M&GOLGA8H_653073&653075&653125&653720&728498",0.3078011762933203,-2.970188689878716,110],["PDCD2L_84306",0.3513497677832966,-3.7760586097633992,110],["VPS9D1_9605",0.31014552470977386,-3.0105864448848396,110]],"bottom":[["MUC15_143662",-0.3100740541402664,-3.0093500046831525,110],["SLC35G3_146861",-0.27374805220286147,-2.4195013032855406,110],["TMEM65_157378",-0.3248786264734274,-3.272081231118264,110],["PPP6R1_22870",-0.2972585230993547,-2.792544976535633,110],["ANKRD28_23243",-0.2798731626929719,-2.5136772466823025,110],["MAGEA12_4111",-0.25089432550647867,-2.086248252099085,110],["TUG1_55000",-0.3072711165245446,-2.961100210534477,110],["CLSPN_63967",-0.3467485494903681,-3.685214666784134,110],["SLC7A6_9057",-0.2844312595477113,-2.5851244608435517,110]]}}}
{"ccle_rrbs_tss1kb":{"corr":{"top":[],"bottom":[["LOC102723582_3_122134052_122135052",-0.17164624577056012,-3.4148768648752785,424],["XPC_3_14220172_14221172",-0.18848659970224604,-4.025425582397721,424],["AIMP1_4_107236663_107237663",-0.1846468817873661,-3.83341882452581,418],["NMT2_10_15210695_15211695",-0.20161706700323834,-4.5397788762821065,424],["NMT2_10_15210709_15211709",-0.19945902929446138,-4.452904469917994,424],["CFL1P1_10_89577069_89578069",-0.18382317652138688,-3.8350238042059197,422],["BRMS1_11_66112582_66113582",-0.18433630381913507,-3.86987562778531,424],["CHAF1A_19_4401659_4402659",-0.20096867912174862,-4.069610555608441,377]]},"para":{"top":[],"bottom":[["TLK1_2_172017410_172018410",-0.18171322608052298,-3.7732875251922855,424],["PLSCR1_3_146262628_146263628",-0.19048265789346952,-4.101431458402844,424],["ASCC3_6_101329248_101330248",-0.1791269737588009,-3.6642730548255327,422],["RXRB_6_33168630_33169630",-0.17597824192085468,-3.5594409796670847,423],["PI4K2A_10_99399442_99400442",-0.18089464835792413,-2.851892154488428,309],["PDCD7_15_65426174_65427174",-0.2042611933948695,-4.482030027111442,407],["IQCH-AS1_15_67813311_67814311",-0.17609305932340155,-3.5708029071782406,424],["GDPGP1_15_90776486_90777486",-0.18214720881910318,-3.7891760048359764,424],["CHAF1A_19_4401659_4402659",-0.17640970287541424,-3.2367447124323125,377]]}}}
{"ccle_gene_tpm":{"corr":{"top":[],"bottom":[["RP1-142L7.5_ENSG00000237234.2",-0.29369218603805464,-9.195200079377255,426]]},"para":{"top":[],"bottom":[]}}}
{"ccle_rrbs_tss_clusters":{"corr":{"top":[],"bottom":[["TBCK_3",-0.18384078472139007,-3.8594536478513826,425],["ERAP1",-0.17547775429712612,-3.592474682624548,430],["CNPY3_5",-0.190771840940155,-4.172082441360738,431],["PLEKHM1",-0.18255435897691996,-3.8275713567866587,427]]},"para":{"top":[],"bottom":[["TXLNGY",-0.22698055742210738,-1.9103637773711888,121],["IQCH-AS1_3",-0.17491169736327555,-3.579412000585976,431],["RRN3",-0.17188604681165692,-3.4580123212040013,429]]}}}
{"ccle_rrbs_cgi_clusters":{"corr":{"top":[["15_42369634_42373842-3",0.49728371978220265,-19.231796043662765,297],["15_42369634_42373842-2",0.6714282488550153,-57.07325780082102,431]],"bottom":[["17_60140247_60142881-1",-0.18752173763906785,-4.0465910644767975,431],["5_96141102_96145885-1",-0.17547775429712612,-3.592474682624548,430],["17_43565613_43570371-1",-0.18255435897691996,-3.8275713567866587,427],["13_52023691_52026819-2",-0.2259600110420105,-5.667705907175347,431],["3_136468433_136471178-1",-0.17940770717426283,-3.734849612750326,430],["24_2803624_2806283-1",-0.23648072642954682,-2.239906888907266,135]]},"para":{"top":[["15_42369634_42373842-3",0.44473731971170327,-15.104796601593515,297],["15_42369634_42373842-2",0.5666048164637171,-37.23948867226308,431]],"bottom":[["13_52023691_52026819-2",-0.18036349562762605,-3.777565265744219,431],["24_21727143_21731556-1",-0.2269805574221074,-1.9103637773711901,121],["2_73610655_73613158-1",-0.21043907618010735,-4.925210833583054,426],["18_48556812_48559333-1",-0.18405830545934793,-3.819839457872671,419]]}}}
