{"depmap_hotspot":{"corr":{"top":[],"bottom":[["CMTM1",-0.08706419482123288,-1.9135677305038676,9.0,819.0],["IFNA4",-0.10294286900633418,-2.5198406906891897,12.0,816.0]]},"para":{"top":[["IL17A",0.1149121563411443,-3.3219192870710343,14.0,814.0],["PATE1",0.11339894900955767,-3.254782896198436,11.0,817.0]],"bottom":[["IFNA4",-0.10555071381549172,-2.919530769027827,12.0,816.0]]}}}
{"depmap_damaging":{"corr":{"top":[],"bottom":[]},"para":{"top":[["DEPDC5",0.12426912571104337,-3.7498029386816905,10.0,817.0]],"bottom":[["SMC5",-0.0956319753403686,-2.522879454410781,9.0,818.0]]}}}
{"depmap_copy_number":{"corr":{"top":[["COX17_10063",0.19589971401453204,-7.871186214556553,827],["LOC101926968_101926968",0.1961094407910207,-7.886942240945638,827],["LINC02024_105374057",0.19840010380968268,-8.06015776266914,827],["LOC105374060_105374060",0.1961094407910207,-7.886942240945638,827],["ADPRH_141",0.19541702337662023,-7.834989006365535,827],["IGSF11_152404",0.19612116904823518,-7.887823853298793,827],["TEX55_152405",0.19612150019110475,-7.887848746071758,827],["TIMMDC1_51300",0.19541702337662023,-7.834989006365535,827],["PLA1A_51365",0.19589971401453204,-7.871186214556553,827],["TMEM39A_55254",0.1957360498981716,-7.8589027122674615,827],["EAF2_55840",0.1965044282446666,-7.916663164074223,827],["POGLUT1_56983",0.19541702337662023,-7.834989006365535,827],["POPDC2_64091",0.19589971401453204,-7.871186214556553,827],["SLC15A2_6565",0.1965044282446666,-7.916663164074223,827],["MAATS1_89876",0.19589971401453204,-7.871186214556553,827],["IQCB1_9657",0.19656301531517192,-7.921076783725843,827]],"bottom":[]},"para":{"top":[["COX17_10063",0.20496970049502608,-8.568433146754666,827],["B4GALT4-AS1_100874201",0.20546943948741797,-8.607797703938953,827],["LOC101926968_101926968",0.20587616998800284,-8.639909367401591,827],["LINC02024_105374057",0.2085585656211785,-8.853339138695894,827],["LOC105374060_105374060",0.20587616998800284,-8.639909367401591,827],["ADPRH_141",0.20491745079730112,-8.564323165533848,827],["IGSF11_152404",0.20587616998800284,-8.639909367401591,827],["TEX55_152405",0.2095102451885592,-8.929752459272699,827],["TIMMDC1_51300",0.20491745079730112,-8.564323165533848,827],["PLA1A_51365",0.20496970049502608,-8.568433146754666,827],["POGLUT1_56983",0.20491745079730112,-8.564323165533848,827],["POPDC2_64091",0.20496970049502608,-8.568433146754666,827],["UPK1B_7348",0.20546943948741797,-8.607797703938953,827],["B4GALT4_8702",0.20546943948741797,-8.607797703938953,827],["MAATS1_89876",0.20496970049502608,-8.568433146754666,827],["CD80_941",0.20491745079730112,-8.564323165533848,827]],"bottom":[]}}}
{"depmap_gene_tpm":{"corr":{"top":[],"bottom":[]},"para":{"top":[["FOXB1_27023",0.3501915885970929,-24.456347316511362,824]],"bottom":[]}}}
{"drive":{"corr":{"top":[],"bottom":[]},"para":{"top":[],"bottom":[["MXRA8_54587",-0.25965600646572046,-5.680031624621322,325]]}}}
{"ccle_gene_tpm":{"corr":{"top":[],"bottom":[]},"para":{"top":[["FOXB1_ENSG00000171956.5",0.35485388637893334,-25.04353264567516,821]],"bottom":[]}}}
{"ccle_rrbs_tss_clusters":{"corr":{"top":[["FOXB1_2",0.7144044684640322,-128.7203541286805,823]],"bottom":[]},"para":{"top":[["FOXB1_2",0.7316297018345566,-138.0388324767289,823]],"bottom":[]}}}
{"ccle_rrbs_cgi_clusters":{"corr":{"top":[["15_60289879_60294167-1",0.6513865517521756,-100.29140386389217,827],["15_60287325_60291533-2",0.6022632459746416,-81.95306716121195,826]],"bottom":[]},"para":{"top":[["15_60287325_60291533-1",0.6159264949878939,-86.69812853787978,826],["15_60289879_60294167-1",0.6458980790158618,-98.08568436287749,827]],"bottom":[]}}}
