{"depmap_hotspot":{"corr":{"top":[["HCN1",0.16346178746945156,-4.673606792631506,72.0,598.0]],"bottom":[]},"para":{"top":[["C1orf228",0.10916471544076048,-2.623267217507792,11.0,659.0],["CCDC104",0.10754392927264438,-2.5668366352832686,11.0,659.0],["CCDC3",0.11274084894690029,-2.7502168232446533,10.0,660.0],["CCL1",0.12523060326154936,-3.2208625845161722,10.0,660.0],["CTD-2144E22.5",0.11184032983813752,-2.717773271984786,8.0,662.0],["GZMA",0.142330948270882,-3.9344114099563976,15.0,655.0],["HELT",0.1067867229450278,-2.5406008596159095,9.0,661.0],["OR2C1",0.1250084721636489,-3.212392166810863,16.0,654.0],["PSMG1",0.1187142806984146,-2.969975795378945,9.0,661.0],["RHBDD1",0.11540532986735878,-2.8470812517425323,10.0,660.0],["TRIM49",0.10794617678799195,-2.5808220610701653,12.0,658.0]],"bottom":[["GOLGA8N",-0.13709675205951666,-3.7072379394816513,9.0,661.0],["MXD4",-0.08071986571761859,-1.733994749142532,8.0,662.0]]}}}
{"depmap_damaging":{"corr":{"top":[],"bottom":[]},"para":{"top":[["CNGB1",0.11181802179155191,-2.713986040635114,8.0,661.0],["DCC",0.09213804995623873,-2.0631484429303204,8.0,661.0],["RASA1",0.13450093139014152,-3.593645137091171,15.0,654.0]],"bottom":[]}}}
{"ccle_mirna":{"corr":{"top":[],"bottom":[["hsa-miR-886-3p_miR00652.1",-0.20885235554017123,-7.2730010467846204,666]]},"para":{"top":[],"bottom":[["hsa-miR-886-3p_miR00652.1",-0.2018586173197306,-6.826717795136331,666]]}}}
{"prism_secondary_logfold":{"corr":{"top":[],"bottom":[]},"para":{"top":[["pterostilbene_BRD-K53097745-001-01-5::0.00976562::HTS002",0.20874782405715844,-3.7305260577267148,316]],"bottom":[]}}}
{"ccle_proteomics":{"corr":{"top":[["TCTN2_Q96GX1",0.4604522614502212,-7.076508837903422,123],["TMEM56_Q96MV1",0.42409737111679663,-8.481412659412245,179],["PTPRF_P10586",0.44960614252193387,-13.316156343712999,254]],"bottom":[["RGS14_O43566",-0.5408517654482273,-11.048788727627146,137]]},"para":{"top":[["AHNAK_Q09666-2",0.3606334506405955,-4.347388744275602,122],["APP_P05067",0.3666244603426228,-8.772684473737622,254],["TMEM56_Q96MV1",0.3712744080369584,-6.507083336540274,179],["PTPRF_P10586",0.4129080895158658,-11.151680124740317,254],["EFNA5_P52803",0.3777351509308011,-7.179471954867922,192]],"bottom":[["DENND4B_O75064",-0.5133772499244917,-8.557309821589133,118],["CORO7_P57737",-0.38717883729984154,-5.050611760679326,124]]}}}
{"depmap_gene_tpm":{"corr":{"top":[],"bottom":[]},"para":{"top":[],"bottom":[["RASSF1_11186",-0.35836018198414044,-20.886270965921025,666],["TMIGD3_57413",-0.3549806565940542,-20.483986273835267,666]]}}}
{"avana":{"corr":{"top":[["PSMA1_5682",0.27816466626186503,-7.328136803019603,373],["RPL27_6155",0.27026754154617644,-6.939109716165158,373],["SP100_6672",0.2852318341484742,-7.629861535495041,370]],"bottom":[["CCDC66_285331",-0.250758161799058,-6.03014965597369,373],["CHMP7_91782",-0.2541247201252966,-6.181781833472868,373],["HIGD1B_51751",-0.24249064421796537,-5.666859097086399,373]]},"para":{"top":[["SORCS1_114815",0.2252636660401187,-4.950662082159212,373],["SP100_6672",0.26350619967107874,-6.567235529349035,370]],"bottom":[["CCDC66_285331",-0.22100091654453993,-4.78180578021351,373],["CHMP7_91782",-0.22388869202490702,-4.895837791745392,373],["LNPEP_4012",-0.22417894885905312,-4.907382696236212,373],["TMEM59L_25789",-0.224151007482058,-4.906270670888651,373],["ZACN_353174",-0.2221172805465151,-4.825710230935867,373]]}}}
{"drive":{"corr":{"top":[["ITIH5_80760",0.28373760761768424,-5.2866162634331415,250]],"bottom":[]},"para":{"top":[["ANKHD1_54882",0.26056006986597907,-4.519036115250273,250]],"bottom":[["RHOD_29984",-0.25645892605951526,-4.514895760616922,258],["NAT8L_339983",-0.26165678142057336,-4.553787659281398,250]]}}}
{"achilles":{"corr":{"top":[["BSDC1_55108",0.2982216512094254,-4.085499841782562,169]],"bottom":[["CALCOCO2_10241",-0.280198627778434,-3.648812767697133,169],["SIGMAR1_10280",-0.2557770154468196,-5.109607006126202,298],["MFSD8_256471",-0.3367548783809798,-5.120466365563672,169]]},"para":{"top":[["CRYGB_1419",0.25945279368296364,-3.181567251379502,169],["TIGD1_200765",0.26914896249796744,-3.395322983662491,169],["SHPRH_257218",0.2764448473897812,-5.901690955264188,298],["HOXA3_3200",0.2616228893976544,-5.326967994769265,298],["ANKRD10_55608",0.28096971453345915,-3.666901415393935,169],["CBFB_865",0.2651500010111186,-5.460643216789808,298]],"bottom":[["CALCOCO2_10241",-0.2696968977436335,-3.4076430358422267,169],["RRP1B_23076",-0.25065337963943696,-2.9944705219887364,169],["MFSD8_256471",-0.2972571666769296,-4.061387539957953,169]]}}}
{"ccle_gene_tpm":{"corr":{"top":[],"bottom":[["RRN3P2_ENSG00000103472.5",-0.6468863716878306,-79.126991518793,663],["AC009093.1_ENSG00000196927.4",-0.4997946822258919,-42.4620344823943,663]]},"para":{"top":[],"bottom":[["RRN3P2_ENSG00000103472.5",-0.5422721594447838,-51.226162023735945,663],["AC009093.1_ENSG00000196927.4",-0.5061513474678337,-43.69613462248415,663],["RP11-426C22.5_ENSG00000260517.1",-0.3620737413653569,-21.24141193501638,663]]}}}
{"ccle_rrbs_tss_clusters":{"corr":{"top":[["RRN3P2_1",0.7656729725385321,-129.02248771069048,668],["RRN3P2_2",1.0,-323.0051853474518,670],["RRN3P2_3",0.8291478244653827,-169.8902946186836,669]],"bottom":[]},"para":{"top":[["RRN3P2_1",0.717485635287307,-105.95047908288198,668],["RRN3P2_2",0.9999999999999999,-323.0051853474518,670],["RRN3P2_3",0.7575338281546521,-124.93362641426695,669]],"bottom":[["EPHB2_2",-0.42916529266523573,-11.492641998878222,241]]}}}
{"ccle_rrbs_cgi_clusters":{"corr":{"top":[["16_29084220_29088434-1",0.7656729725385321,-129.02248771069048,668],["16_29084220_29088434-3",0.8291478244653827,-169.8902946186836,669]],"bottom":[]},"para":{"top":[["16_29084220_29088434-3",0.757533828154652,-124.93362641426688,669],["16_29084220_29088434-1",0.717485635287307,-105.95047908288198,668]],"bottom":[]}}}
