{"depmap_hotspot":{"corr":{"top":[["CDH12",0.18125821315063323,-3.787514987764303,34.0,394.0],["CPXM1",0.18166158075039562,-3.802378267979167,24.0,404.0],["CTSZ",0.15805003639757415,-2.985075825711948,10.0,418.0],["DUSP11",0.14068586422795595,-2.4510714066902484,9.0,419.0],["INHBA",0.16669397898392999,-3.271924601310943,18.0,410.0],["MUC3A",0.16190940931211503,-3.111403249883104,30.0,398.0],["TNFRSF8",0.1737134093632735,-3.5153220313826155,17.0,411.0],["TRIM50",0.13521693186942227,-2.2943673460515592,14.0,414.0],["UGT2B28",0.15727642615485896,-2.960090704321511,26.0,402.0],["ZNF70",0.16006892830080818,-3.0508094013052074,18.0,410.0],["ZSWIM1",0.1526069629237158,-2.8116615347024014,8.0,420.0]],"bottom":[["ADAM2",-0.1177507596169209,-1.8299436068043293,24.0,404.0],["BCHE",-0.12339151896154801,-1.9739865480651957,32.0,396.0],["BRD4",-0.1266610809136576,-2.0600620054481156,38.0,390.0],["CTPS2",-0.12618656973558082,-2.0474516984133477,30.0,398.0],["ERCC8",-0.11749799422954299,-1.8236203853678785,14.0,414.0],["FAM169A",-0.1156662304186692,-1.7781320178333684,16.0,412.0],["FAM178A",-0.1306320824460427,-2.1671722851196087,25.0,403.0],["FOXO1",-0.12093795254976505,-1.9106408095266925,19.0,409.0],["GRIA4",-0.12887339480151028,-2.119386362929795,33.0,395.0],["GUF1",-0.11718490086481471,-1.815803562415624,31.0,397.0],["IRF2BP1",-0.12246780548339131,-1.9500130259162107,22.0,406.0],["KANK1",-0.1507327117600525,-2.753228159242009,37.0,391.0],["KARS",-0.13883200940243692,-2.3973419795854287,24.0,404.0],["MACF1",-0.11725397289884731,-1.8175265632175404,114.0,314.0],["METTL18",-0.117497994229543,-1.8236203853678785,14.0,414.0],["NDNF",-0.12182739210998848,-1.9334809386289045,18.0,410.0],["NETO2",-0.1155683242249327,-1.7757172749330041,19.0,409.0],["RAB11FIP2",-0.11941252107306706,-1.8717945333855688,20.0,408.0],["RANBP2",-0.11113811049295633,-1.6682041187899341,62.0,366.0],["SETBP1",-0.12113851756906027,-1.915778940358808,49.0,379.0],["TOP2B",-0.11032147056571073,-1.648758987762698,33.0,395.0],["VAV3",-0.12362252751255116,-1.980005688998992,29.0,399.0],["ZNF92",-0.12552519363045156,-2.029942412277835,20.0,408.0]]},"para":{"top":[["DDT",0.12006011352779647,-2.1816659993398613,8.0,420.0],["DKKL1",0.12230350482438543,-2.238541566966809,8.0,420.0],["IRF5",0.11619219749919475,-2.0855983818718227,8.0,420.0],["MARS2",0.12581536524241937,-2.3293993954835313,9.0,419.0],["OR2J2",0.12472004865586316,-2.3008719634182535,9.0,419.0],["TM6SF2",0.14696688431917043,-2.92055225746902,10.0,418.0],["TNFRSF8",0.16216960056326796,-3.3934947062768033,17.0,411.0],["ZSWIM1",0.12377331291525405,-2.276266329259916,8.0,420.0]],"bottom":[["ALKBH1",-0.11387144788203367,-2.029165728324566,8.0,420.0],["ANKMY2",-0.11387144788203368,-2.029165728324566,8.0,420.0],["C11orf48",-0.11387144788203367,-2.029165728324566,8.0,420.0],["C1orf167",-0.13400555740461007,-2.5493663209645114,11.0,417.0],["C5orf54",-0.13505682560621776,-2.5786088383893735,14.0,414.0],["C9orf152",-0.11387144788203367,-2.029165728324566,8.0,420.0],["CLPTM1",-0.14013236518190025,-2.721352423473585,12.0,416.0],["CYP2C18",-0.11387144788203367,-2.029165728324566,8.0,420.0],["ERCC8",-0.1517254176893227,-3.0644396162841567,14.0,414.0],["ERLEC1",-0.12783731023855457,-2.382912788838169,13.0,415.0],["FAM169A",-0.1418283634131546,-2.770315736048068,16.0,412.0],["FUZ",-0.13400555740461007,-2.5493663209645114,11.0,417.0],["HCK",-0.1340055574046101,-2.5493663209645114,11.0,417.0],["KPNA2",-0.11387144788203368,-2.029165728324566,8.0,420.0],["METTL18",-0.15172541768932277,-3.0644396162841567,14.0,414.0],["OR5K1",-0.12092295115580193,-2.2035502315236704,9.0,419.0],["PAQR7",-0.11387144788203368,-2.029165728324566,8.0,420.0],["PDCD7",-0.12092295115580194,-2.2035502315236704,9.0,419.0],["PET112",-0.1340055574046101,-2.5493663209645114,11.0,417.0],["PPP2R1B",-0.14013236518190025,-2.721352423473585,12.0,416.0],["PRKRA",-0.11778452896383469,-2.1251183413560417,11.0,417.0],["RARS",-0.14013236518190025,-2.721352423473585,12.0,416.0],["RBM4",-0.12092295115580191,-2.2035502315236704,9.0,419.0],["RIMKLA",-0.11387144788203368,-2.029165728324566,8.0,420.0],["RPA1",-0.12363127145577067,-2.272962647971183,12.0,416.0],["RPL10A",-0.11387144788203368,-2.029165728324566,8.0,420.0],["SEC61A1",-0.12761636014500888,-2.3768457610121696,10.0,418.0],["SH3D19",-0.12761636014500893,-2.3768457610121696,10.0,418.0],["SLC10A5",-0.13400555740461012,-2.5493663209645114,11.0,417.0],["SMARCD1",-0.11387144788203367,-2.029165728324566,8.0,420.0],["SNAPC3",-0.12092295115580193,-2.2035502315236704,9.0,419.0],["STRADB",-0.12092295115580191,-2.2035502315236704,9.0,419.0],["TDP1",-0.13400555740461012,-2.5493663209645114,11.0,417.0],["TGDS",-0.12092295115580193,-2.2035502315236704,9.0,419.0],["TGFBR1",-0.1347034278942085,-2.5688251443201517,14.0,414.0],["TNFSF11",-0.11387144788203366,-2.029165728324566,8.0,420.0],["WBP1L",-0.11387144788203368,-2.029165728324566,8.0,420.0],["ZNF131",-0.14993848282313407,-3.0102237042337823,17.0,411.0],["ZNF195",-0.12783731023855452,-2.382912788838169,13.0,415.0],["ZNF829",-0.14013236518190025,-2.721352423473585,12.0,416.0]]}}}
{"depmap_damaging":{"corr":{"top":[],"bottom":[["ZNF326",-0.09995742674091504,-1.4119767861228665,12.0,416.0]]},"para":{"top":[],"bottom":[["KIF1A",-0.1138714478820337,-2.029165728324566,8.0,420.0],["MPDZ",-0.12092295115580189,-2.2035502315236704,9.0,419.0],["TPTE",-0.12092295115580191,-2.2035502315236704,9.0,419.0],["YLPM1",-0.12761636014500882,-2.3768457610121696,10.0,418.0],["ZNF326",-0.11899827206343432,-2.155389065009812,12.0,416.0]]}}}
{"ccle_metabolomics":{"corr":{"top":[],"bottom":[["2-deoxyadenosine",-0.20163283812143803,-4.502484326600533,420]]},"para":{"top":[],"bottom":[["2-deoxyadenosine",-0.19682580366622168,-4.311959622106702,420]]}}}
{"prism_primary_logfold":{"corr":{"top":[["actinoquinol_BRD-K08837089-236-01-6::2.5::HTS",0.18255631929565186,-2.382566010833259,245],["NXY-059_BRD-K46133855-304-03-8::2.5::HTS",0.20685374851138028,-2.8654562390140534,237]],"bottom":[["amoxicillin_BRD-K55044200-001-15-3::2.5::HTS",-0.23699560215224388,-3.7421815783234686,245],["denotivir_BRD-K01773083-001-01-4::2.303758671::MTS004",-0.21995319301090246,-3.1874787204596258,237],["pemetrexed_BRD-K32842773-434-01-8::2.5::MTS004",-0.22511983544015424,-3.2834147127015787,234],["medronic-acid_BRD-K94072573-001-09-9::2.5::MTS004",-0.21595795587273578,-3.0536989483673214,234]]},"para":{"top":[["edoxaban_BRD-K29322660-001-01-9::2.5::HTS",0.21029445089477236,-3.0330982804747917,245],["NXY-059_BRD-K46133855-304-03-8::2.5::HTS",0.2260340779129083,-3.343471637375022,237]],"bottom":[]}}}
{"prism_secondary_logfold":{"corr":{"top":[["LY364947_BRD-K06234293-001-04-2::0.625::HTS002",0.23158627554148642,-3.0785463303519784,205],["zolantidine_BRD-K08996725-332-01-7::0.0390625::HTS002",0.3344385015165574,-3.393819190776989,108],["sodium-glucoheptonate_BRD-K35952844-236-01-6::10::HTS002",0.274445226825287,-3.841408094127242,187],["mycophenolic-acid_BRD-K63750851-001-20-7::0.00061034::HTS002",0.25387799151161056,-2.591130933836356,139],["PQ-401_BRD-K67537649-001-04-5::2.5::HTS002",0.24402578096956623,-3.374818894716188,205],["vidarabine_BRD-K72093121-001-16-3::0.00976562::HTS002",0.2463802972040668,-3.476254580157773,208]],"bottom":[["bendroflumethiazide_BRD-A80017228-001-25-7::0.0390625::HTS002",-0.2484950565491208,-3.411045817147522,200],["raclopride_BRD-K04111260-001-10-0::2.5::HTS002",-0.2492993673221083,-3.5645929807830146,209],["bisindolylmaleimide-ix_BRD-K06543683-066-02-1::0.0390625::HTS002",-0.2555348182028797,-3.7875877196554124,213],["CEP-32496_BRD-K20722021-001-02-1::0.15625::HTS002",-0.2918622148999977,-4.438795334035387,194],["CEP-32496_BRD-K20722021-001-02-1::0.625::HTS002",-0.2797955717367155,-4.127823455108594,195],["lacitol_BRD-K40787673-001-02-1::0.625::HTS002",-0.31136943253889193,-3.5308449057109605,131],["bromosporine_BRD-K44665581-001-01-8::0.0024414::HTS002",-0.25160360520156555,-3.593199833448458,207],["gefitinib_BRD-K64052750-001-22-5::0.00977::MTS010::PROS002_PR500",-0.24757175700521541,-3.3297909670964283,196],["vandetanib_BRD-K77625799-001-07-7::0.0390625::HTS002",-0.2860668126182848,-4.239438375363598,192],["daclatasvir_BRD-K82861010-001-02-5::0.0390625::HTS002",-0.28492145378089995,-4.033515980695486,183],["OLDA_BRD-K95523387-001-09-6::0.625::HTS002",-0.28790308507861806,-4.070936385193279,181]]},"para":{"top":[["AZ-628_BRD-K05804044-001-18-5::0.00061::MTS010::PROS005_PR500",0.22259332234300405,-2.897764650252204,207],["zolantidine_BRD-K08996725-332-01-7::0.0390625::HTS002",0.23916299486737896,-1.8971126834470844,108],["vidarabine_BRD-K72093121-001-16-3::0.00976562::HTS002",0.225807792291666,-2.98297518308666,208]],"bottom":[["erastin_BRD-A25004090-001-08-4::2.5::HTS002",-0.27749714787891433,-3.8081111681408903,181],["LGX818_BRD-A56085258-001-01-8::0.0390625::HTS002",-0.2529991177060039,-3.306361419854258,186],["BTS-54505_BRD-A68304895-003-02-2::0.00976562::HTS002",-0.25316372268838144,-2.735519105229454,149],["9-aminoacridine_BRD-K00535541-001-06-3::0.0390625::HTS002",-0.29028501696584474,-4.596038166828932,204],["CEP-32496_BRD-K20722021-001-02-1::0.15625::HTS002",-0.2930836601338974,-4.473008643768073,194],["ribitol_BRD-K49313711-001-05-4::0.15625::HTS002",-0.258191045984372,-3.842618533601333,212],["TAK-285_BRD-K80343549-001-02-6::0.0390625::HTS002",-0.2502354229568916,-3.52851494735087,205],["NMS-1286937_BRD-K83699324-001-01-1::0.0024414::HTS002",-0.2547381624267333,-3.0648070179204536,168],["OLDA_BRD-K95523387-001-09-6::0.625::HTS002",-0.24448564484584806,-3.0408711189310913,181],["AZD5363_BRD-K99023089-001-03-7::0.00976562::HTS002",-0.2470943023080495,-3.2450664702509444,191]]}}}
{"ccle_proteomics":{"corr":{"top":[],"bottom":[["STRN_O43815",-0.25808904330451793,-2.9260029481691814,155],["STRN3_Q13033-2",-0.2765334952706251,-3.304865854734929,155],["C14orf166_Q9Y224",-0.25799017965442517,-2.9240437176217964,155],["EAPP_Q56P03",-0.25766528701210456,-2.9176104598681283,155],["KPNA3_O00505",-0.30118557901633103,-3.853913334063438,155]]},"para":{"top":[["ITGA2B_P08514",0.3032684906799556,-3.389205527704617,132]],"bottom":[["EAPP_Q56P03",-0.2593560597940045,-2.951178779530456,155],["KPNA3_O00505",-0.3057873371650732,-3.9619921590690863,155]]}}}
{"depmap_gene_tpm":{"corr":{"top":[["ATP10A_57194",0.3152598130707671,-10.557539339055705,426]],"bottom":[]},"para":{"top":[],"bottom":[]}}}
{"avana":{"corr":{"top":[["CGNL1_84952",0.2490616443268455,-4.03146814595993,241],["CHCHD10_400916",0.24158154907767032,-3.816972942222002,241],["CLCN2_1181",0.28122367645959195,-5.03154900483786,241],["CNTNAP1_8506",0.23842500603723069,-3.7284527688227667,241],["ESPL1_9700",0.25252833668518515,-4.087750116034526,238],["HAUS8_93323",0.25320548947128435,-4.1531832495984675,241],["MRPL54_116541",0.28070964312872054,-5.014547142976934,241],["NDUFAF1_51103",0.2553587042193981,-4.217248584159736,241],["PLAGL2_5326",0.2402307055838764,-3.7789465405441782,241],["SNRPE_6635",0.24471226818843456,-3.8632467980001945,238],["UBR5_51366",0.2675736126613577,-4.540526896086033,238],["URB1_9875",0.25581711243381194,-4.230960470454197,241],["ZCCHC14_23174",0.2545896131929797,-4.194300953240054,241]],"bottom":[["CENPE_1062",-0.2438098602946422,-3.8801730947185384,241],["CHRNG_1146",-0.23622071175923828,-3.6673336121704234,241],["COMMD10_51397",-0.25607433540790175,-4.238665712483312,241],["ERLIN1_10613",-0.23454205788676222,-3.621171731434529,241],["HELLS_3070",-0.24491305728056353,-3.8689237159957175,238],["HNRNPCL1_343069",-0.2769777682511322,-4.892123367420487,241],["MXD3_83463",-0.2966550687829049,-5.5578325994542,241],["NUP58_9818",-0.2279514183169487,-3.4431130811088972,241],["PXMP2_5827",-0.2401969523800442,-3.7779991491138625,241],["SUMO2_6613",-0.235719462098318,-3.6535149825796243,241],["TK2_7084",-0.24794365461365073,-3.998984133126689,241],["TRIM54_57159",-0.24314474506292597,-3.8612470983218445,241],["ZBED8_63920",-0.28065253934206325,-5.012660494873083,241]]},"para":{"top":[["DDX28_55794",0.2796708328150603,-4.980291023397479,241],["FAM126B_285172",0.24714175550658976,-3.9757767011030474,241],["KCTD19_146212",0.2298192079730566,-3.4930622907714253,241],["MRPL48_51642",0.23179609951082347,-3.546370150149753,241],["NDUFAF1_51103",0.26379497238674077,-4.47370875869949,241],["NFASC_23114",0.23736759061850193,-3.699062159951822,241],["NRN1L_123904",0.24441355164252582,-3.8973968415413025,241],["PPP1R1C_151242",0.2632817231829268,-4.457856330537549,241],["RALBP1_10928",0.23836189064257027,-3.7266947960463073,241],["RNF170_81790",0.23395811297119296,-3.6051909902147,241],["TANGO6_79613",0.24981362300650695,-4.053401914732194,241],["TBXA2R_6915",0.23588686019951374,-3.6581265948102315,241],["UBR5_51366",0.24384592426760485,-3.838806992785157,238]],"bottom":[["ARHGAP11B_89839",-0.22305932636968373,-3.3141955696371688,241],["BASP1_10409",-0.22930362158741105,-3.4416182809872473,238],["FFAR4_338557",-0.23987393211055003,-3.768939365670814,241],["MXD3_83463",-0.24212636035914978,-3.8323706221785727,241],["NCAPD3_23310",-0.2221533649288448,-3.2552397085659477,238],["NCAPG2_54892",-0.22159068594443285,-3.2408190266393606,238],["OR6B2_389090",-0.22367106512403992,-3.330165656735173,241],["OR8H1_219469",-0.24821354493244838,-4.0068122575783,241],["PLEKHM2_23207",-0.22224636472485595,-3.2930387324872346,241],["PXMP2_5827",-0.23734278585564805,-3.6983742972851315,241],["RPL39_6170",-0.26927406773993845,-4.300807723189452,221],["SLC52A2_79581",-0.23036669033063945,-3.5077799510650642,241],["SPCS3_60559",-0.23486054885484833,-3.629904645657361,241],["SRD5A1_6715",-0.22023637134771695,-3.2410544314457566,241],["TYW1_55253",-0.23127069619197596,-3.5321580526410767,241]]}}}
{"drive":{"corr":{"top":[["POLD3_10714",0.3047967568047789,-4.117933001224516,163],["COL15A1_1306",0.2847463964513377,-3.6389935271866416,163],["UNC5B_219699",0.29925047259080356,-3.9819170138795954,163],["RACGAP1_29127",0.3151191899073772,-4.3784300011496144,163],["PLK1_5347",0.31946895479180865,-4.663175679564622,170],["ARFGAP1_55738",0.2961252517047881,-3.9064744642288605,163],["NAT14_57106",0.31586960122902075,-4.397744845584533,163],["AGXT2_64902",0.28856876352658634,-3.7275940188572183,163],["ZNF24_7572",0.3085721094043757,-4.2120909769613695,163],["STK16_8576",0.3020801767894502,-4.050970360852252,163]],"bottom":[["KBTBD3_143879",-0.2577617191971816,-3.048583562093394,163],["ARL13B_200894",-0.2858423476040046,-3.664268587854518,163],["ADNP_23394",-0.32565290784816775,-4.654311594842584,163],["COL24A1_255631",-0.3027248320688313,-4.022610479635368,161],["DEK_7913",-0.2836660813441709,-3.61417984896635,163],["ADTRP_84830",-0.2756348723579794,-3.561134876989739,170]]},"para":{"top":[["SF3B4_10262",0.2768560544277259,-3.4230119240333288,161],["POLD3_10714",0.279547989886821,-3.520505400464294,163],["UNC5B_219699",0.28290908519859653,-3.596851959530955,163],["EDC4_23644",0.27100477677424023,-3.3307460909896567,163],["RNF144B_255488",0.29887471428943635,-3.9297217332726624,161],["RACGAP1_29127",0.31340069231934503,-4.334391529234469,163],["MIF_4282",0.2691040021641927,-3.289357779456315,163],["PPARD_5467",0.3007928835069374,-4.019468485956744,163],["MUC5B_727897",0.291901957492931,-3.8058859326154386,163],["STK16_8576",0.3087526528954489,-4.216625885909042,163],["SUCLA2_8803",0.2950977252529976,-3.881857674059245,163],["LRP5L_91355",0.2917347116175485,-3.9044695027636602,168]],"bottom":[["APPBP2_10513",-0.2464480973322793,-2.8188243339732146,163],["LRRC3B_116135",-0.26170126149394163,-3.0978295851937885,161],["DSG1_1828",-0.24003038884271466,-2.693025755748358,163],["ZBTB7C_201501",-0.2625745851702026,-3.1160597182580827,161],["NT5E_4907",-0.24086698596640577,-2.709240553342504,163],["SLC39A4_55630",-0.29900725869716477,-4.083688272555487,168]]}}}
{"achilles":{"corr":{"top":[["CORO2B_10391",0.335888853496692,-3.392855226458851,107],["CFAP53_220136",0.2872566965020062,-2.568672145656463,107],["MYOF_26509",0.30381810735766307,-2.8339101127500688,107],["MT1DP_326343",0.28329457685440984,-2.50748890167768,107],["IFIT1_3434",0.34752512490328596,-3.6111355016861406,107],["FAM74A1_401507",0.293270275484687,-2.6631972108196402,107],["RSF1_51773",0.3318278987747006,-3.318660098084997,107],["PRM2_5620",0.28208597809277886,-2.488997520716884,107],["EFCC1_79825",0.33201530164240284,-3.3220617168902593,107],["ZBP1_81030",0.2942168955807099,-2.6782608622721695,107]],"bottom":[["ERVK13-1_100507321",-0.3484802985411694,-3.6294323690045696,107],["LHFPL6_10186",-0.4229448765466781,-5.246678852744877,107],["PRELID3A_10650",-0.3275340312056609,-3.2413077462257753,107],["CFHR4_10877",-0.3802416424234876,-4.271826614847888,107],["NRN1L_123904",-0.31562792099060005,-3.03263538564358,107],["STXBP5_134957",-0.3161543508393275,-3.0416835335021033,107],["KRT33A_3883",-0.3203753550623542,-3.1148263326005963,107],["COLCA1_399948",-0.38043849566619936,-4.276019714101441,107],["JKAMP_51528",-0.3126847292215541,-2.9823490489206788,107],["STAB2_55576",-0.3125117440480595,-2.9794093053240926,107],["GMCL1P1_64396",-0.3453070972719316,-3.5688715543765572,107],["C11orf49_79096",-0.3813258491293223,-4.294954196665483,107],["FSD1L_83856",-0.34305625776075205,-3.526300491617708,107],["ZC3HAV1L_92092",-0.3373484161160439,-3.4197705484201038,107]]},"para":{"top":[["KHDC3L_154288",0.293349611629543,-2.664457762909259,107],["GIMAP1_170575",0.2856173889622222,-4.09056211048893,185],["PDZD9_255762",0.3176805998249502,-3.068008879917567,107],["MYOF_26509",0.3126361010323368,-2.981522474967869,107],["IFIT1_3434",0.33021526186504724,-3.2894773037953935,107],["GOLGA2P7_388152",0.309238767211747,-2.924117105771621,107],["LAD1_3898",0.28029402757437505,-3.953122881996347,185],["LGALS1_3956",0.28528766626258467,-4.0819689105432415,185],["FAM74A1_401507",0.2856297463358018,-2.5434439564215703,107],["RSF1_51773",0.2953429416181034,-2.696245335607463,107],["ZDHHC4_55146",0.28257341741404757,-2.4964456350437896,107],["SLC12A5_57468",0.2933982499053729,-4.296454586619063,185]],"bottom":[["LHFPL6_10186",-0.40234034026179255,-4.759609805779519,107],["CFHR4_10877",-0.355124342577344,-3.758319419169454,107],["NRN1L_123904",-0.33201562039900234,-3.322067504591842,107],["DZIP1L_199221",-0.3078205021006995,-2.9003511818528502,107],["SAMM50_25813",-0.2977035380882605,-2.7341793357922795,107],["PELP1_27043",-0.356373156452063,-3.782862967633976,107],["GPC1_2817",-0.3142546171921136,-3.0091082451894313,107],["KRT33A_3883",-0.35154192135824475,-3.688472054494721,107],["COLCA1_399948",-0.31362677316559506,-2.9983891068692254,107],["JKAMP_51528",-0.30866814296668005,-2.9145410988678098,107],["ERRFI1_54206",-0.33686788712231935,-3.4108946967057747,107],["C11orf49_79096",-0.35593935710254043,-3.7743258219507263,107],["MORC4_79710",-0.2934406310229934,-2.6659043821481685,107]]}}}
{"ccle_rrbs_tss1kb":{"corr":{"top":[["CLUHP3_16_31710933_31711933",1.0,-323.0051853474518,422]],"bottom":[]},"para":{"top":[["CLUHP3_16_31710933_31711933",1.0,-323.0051853474518,422]],"bottom":[]}}}
{"ccle_gene_tpm":{"corr":{"top":[["ATP10A_ENSG00000206190.7",0.31492325297028095,-10.465894294431,423]],"bottom":[]},"para":{"top":[],"bottom":[]}}}
{"ccle_rrbs_tss_clusters":{"corr":{"top":[],"bottom":[]},"para":{"top":[["CLUHP3_2",0.5489113094608161,-34.32139562163397,428]],"bottom":[["RGL4_2",-0.23337973777568632,-4.401242874778406,304]]}}}
{"ccle_rrbs_cgi_clusters":{"corr":{"top":[],"bottom":[]},"para":{"top":[],"bottom":[["9_95858417_95861132-3",-0.23420107713925206,-2.808502039414005,180]]}}}
