{"depmap_hotspot":{"corr":{"top":[["CTAGE9",0.16453314908281697,-5.780816374059501,17.0,822.0],["HIST4H4",0.1812636228268923,-6.904004105353015,10.0,829.0],["OR1D2",0.19120136657783138,-7.622742504524835,18.0,821.0]],"bottom":[]},"para":{"top":[],"bottom":[["AC096677.1",-0.11503336694520368,-3.3611440939352826,8.0,831.0],["BLACE",-0.08976121557708322,-2.3286308298801477,9.0,830.0],["FAM3A",-0.09689410468827192,-2.5983076192345465,10.0,829.0],["MFNG",-0.11628666875599206,-3.418238876304619,13.0,826.0],["OR8A1",-0.10299594619804933,-2.8427368506128916,17.0,822.0],["PDCD2",-0.09854983256419206,-2.66341278436985,12.0,827.0],["PDCL2",-0.07959729095149096,-1.973658244920904,9.0,830.0],["TMCO1",-0.0847843258486006,-2.150494018672875,8.0,831.0],["TMEM187",-0.11510319879385329,-3.3647168589706986,20.0,819.0]]}}}
{"depmap_damaging":{"corr":{"top":[["FAM131B",0.30278377844578985,-18.50117007373432,8.0,830.0],["KIAA0232",0.2190536211214022,-9.836377200680813,12.0,826.0]],"bottom":[]},"para":{"top":[],"bottom":[["ATP7B",-0.10438486229632445,-2.897166381427804,8.0,830.0],["CP",-0.099001556529569,-2.6787832459443592,8.0,830.0],["MYH7",-0.09078404748575722,-2.364247965944565,9.0,829.0],["VPS13D",-0.13915804730482334,-4.546290888239488,21.0,817.0]]}}}
{"ccle_proteomics":{"corr":{"top":[["CTAG1A_P78358",0.3519563789665079,-4.30496982776718,127]],"bottom":[]},"para":{"top":[],"bottom":[]}}}
{"ccle_rrbs_tss_clusters":{"corr":{"top":[["SNW1",0.6197349777400432,-89.22315021709957,837],["VPS4A",1.0,-323.0051853474518,839]],"bottom":[]},"para":{"top":[["VPS4A",1.0,-323.0051853474518,839]],"bottom":[]}}}
{"ccle_rrbs_cgi_clusters":{"corr":{"top":[["14_78225054_78229575-1",0.6197349777400432,-89.22315021709957,837]],"bottom":[]},"para":{"top":[],"bottom":[]}}}
