{"depmap_hotspot":{"corr":{"top":[],"bottom":[["CDK5R2",-0.10866805727521754,-2.5739266297593213,17.0,745.0]]},"para":{"top":[["FAM101B",0.09968757032099172,-2.524861577225098,10.0,752.0],["KRTAP4-1",0.10663413805985904,-2.786029040814002,8.0,754.0]],"bottom":[["AZU1",-0.09311448265626111,-2.29131244298307,15.0,747.0]]}}}
{"depmap_damaging":{"corr":{"top":[],"bottom":[]},"para":{"top":[["PALLD",0.12187028992753399,-3.407830492468899,13.0,748.0],["SRGAP1",0.10487418095816324,-2.7158077125935116,8.0,753.0]],"bottom":[]}}}
{"prism_secondary_logfold":{"corr":{"top":[],"bottom":[["halobetasol-propionate_BRD-K65877271-001-01-8::0.625::HTS002",-0.26678888570389603,-6.821381561537698,376]]},"para":{"top":[],"bottom":[]}}}
{"ccle_proteomics":{"corr":{"top":[],"bottom":[["TLL2_Q9Y6L7",-0.31806902882436766,-3.744058630071007,134]]},"para":{"top":[],"bottom":[]}}}
{"depmap_copy_number":{"corr":{"top":[],"bottom":[["POGLUT3_143888",-0.17901332092190345,-6.175099229404041,761]]},"para":{"top":[],"bottom":[]}}}
{"achilles":{"corr":{"top":[],"bottom":[]},"para":{"top":[["STON2_85439",0.21767729405754088,-4.386222998427531,349]],"bottom":[]}}}
{"ccle_rrbs_cgi_clusters":{"corr":{"top":[],"bottom":[]},"para":{"top":[],"bottom":[]}}}
