{"depmap_hotspot":{"corr":{"top":[["ZBTB8A",0.14617134279033311,-4.690652922509292,15.0,828.0]],"bottom":[]},"para":{"top":[["ATAT1",0.12459271122187592,-3.822817099521289,10.0,833.0],["CLDN2",0.1107311489145531,-3.181867892336251,14.0,829.0],["KCNAB3",0.12098150802156206,-3.6495588758751554,13.0,830.0],["NDUFAF7",0.1455829252244016,-4.920643264819086,19.0,824.0]],"bottom":[]}}}
{"depmap_damaging":{"corr":{"top":[["NFIB",0.12860462223475733,-3.738167467619168,8.0,834.0]],"bottom":[]},"para":{"top":[["IL22RA2",0.10951111938030823,-3.125558132604007,9.0,833.0],["NFIB",0.10527108136180927,-2.9445225510005577,8.0,834.0]],"bottom":[["PHIP",-0.11355542189846186,-3.3041959217155688,17.0,825.0]]}}}
{"ccle_proteomics":{"corr":{"top":[],"bottom":[]},"para":{"top":[["ABCB5_Q2M3G0-4",0.24975730108899463,-1.9290683415735805,101]],"bottom":[]}}}
{"drive":{"corr":{"top":[["GCAT_23464",0.3273640043837915,-8.753375198998965,322]],"bottom":[]},"para":{"top":[],"bottom":[]}}}
{"ccle_rrbs_tss1kb":{"corr":{"top":[["HYOU1_11_118927957_118928957",0.5207263678982933,-57.93765067975681,827],["MAPK7_17_19280773_19281773",0.9999999999999999,-323.0051853474518,833]],"bottom":[]},"para":{"top":[["MAPK7_17_19280773_19281773",0.9999999999999999,-323.0051853474518,833]],"bottom":[]}}}
{"ccle_rrbs_tss_clusters":{"corr":{"top":[["SMC3",0.5450887872054422,-65.22428496070269,837],["THOC1_3",0.544728178052908,-65.58282514172649,843]],"bottom":[]},"para":{"top":[],"bottom":[["ZNF134_2",-0.16552483082647867,-5.398256651606476,768]]}}}
{"ccle_rrbs_cgi_clusters":{"corr":{"top":[["10_112325072_112329870-1",0.5450887872054422,-65.22428496070269,837],["18_265710_270382-3",0.544728178052908,-65.58282514172649,843]],"bottom":[]},"para":{"top":[],"bottom":[["19_58123530_58127902-2",-0.16552483082647867,-5.398256651606476,768]]}}}
