{"depmap_hotspot":{"corr":{"top":[],"bottom":[["AL355390.1",-0.1228489542562697,-3.1085861598545232,8.0,737.0],["RP11-231C14.4",-0.1698928596368591,-5.507048878864588,8.0,737.0],["TMEM127",-0.11791806321886314,-2.898795245129491,13.0,732.0]]},"para":{"top":[["CCBL2",0.13152635362456247,-3.776605810461263,17.0,728.0],["CKLF",0.11064747910599887,-2.894392125854011,9.0,736.0]],"bottom":[["RP11-231C14.4",-0.12045109819912231,-3.2919440957487947,8.0,737.0]]}}}
{"depmap_damaging":{"corr":{"top":[],"bottom":[]},"para":{"top":[["MYO5B",0.11093764840170495,-2.9027557126731782,8.0,736.0],["SLC8A1",0.10525480549266686,-2.68528254503581,8.0,736.0]],"bottom":[]}}}
{"prism_primary_logfold":{"corr":{"top":[["menadione_BRD-K78126613-001-28-5::2.5::HTS",0.2825009265620475,-8.531716221370665,426]],"bottom":[]},"para":{"top":[],"bottom":[]}}}
{"ccle_proteomics":{"corr":{"top":[["PITPNM3_Q9BZ71",0.4897463461804117,-8.16900887129983,125]],"bottom":[["FANCE_Q9HB96",-0.3044556432927269,-3.3905228187224856,131]]},"para":{"top":[],"bottom":[]}}}
{"avana":{"corr":{"top":[],"bottom":[["WBP4_11193",-0.23453051036099515,-5.879457243900158,416]]},"para":{"top":[],"bottom":[]}}}
{"drive":{"corr":{"top":[],"bottom":[]},"para":{"top":[],"bottom":[["FRAS1_80144",-0.2501133804173199,-4.594776425568196,277]]}}}
{"achilles":{"corr":{"top":[],"bottom":[["TTC31_64427",-0.2732364743977973,-3.918263215580029,193]]},"para":{"top":[["RAB26_25837",0.26769055070025594,-6.246306596917445,339]],"bottom":[]}}}
{"ccle_rrbs_tss_clusters":{"corr":{"top":[],"bottom":[["CSNK1G1_1",-0.27405419916643725,-5.188000036256455,263]]},"para":{"top":[],"bottom":[]}}}
{"ccle_rrbs_cgi_clusters":{"corr":{"top":[],"bottom":[["15_64645914_64650523-1",-0.27405419916643725,-5.188000036256455,263]]},"para":{"top":[],"bottom":[]}}}
