{"depmap_hotspot":{"corr":{"top":[],"bottom":[]},"para":{"top":[],"bottom":[["C1orf74",-0.10153720996339578,-2.763220812413347,8.0,823.0],["C9orf24",-0.11512638619204385,-3.3407191062061137,12.0,819.0],["CHGA",-0.12266685378887134,-3.688185035808198,20.0,811.0],["CHIC1",-0.09124210915868736,-2.36704287899196,9.0,822.0],["CHMP6",-0.13999502712380085,-4.559547579180209,16.0,815.0],["COQ7",-0.12948570497367862,-4.018584188667558,11.0,820.0],["FABP4",-0.10884383765079758,-3.0659590948496427,9.0,822.0],["LIX1",-0.10483239400273375,-2.897567418334463,9.0,822.0],["PINX1",-0.10866324276685854,-3.0585174062385625,16.0,815.0],["TMEM72",-0.09316678000528747,-2.4384921163263606,10.0,821.0],["TSGA13",-0.1391263554111881,-4.5134896750921385,19.0,812.0],["WDR86",-0.11561581733471346,-3.3629002481736427,21.0,810.0]]}}}
{"depmap_damaging":{"corr":{"top":[],"bottom":[]},"para":{"top":[["RAB3C",0.1676871065966346,-6.160738921592878,25.0,805.0]],"bottom":[["AASS",-0.12377873775997765,-3.737147408276899,10.0,820.0],["C6orf89",-0.12037564889997018,-3.5771633988714284,16.0,814.0],["CHL1",-0.11690061615468085,-3.4175921668401097,15.0,815.0],["KRIT1",-0.10037906615133284,-2.714626797082635,11.0,819.0],["KRT83",-0.11848534032485013,-3.489593151577492,9.0,821.0],["LMO7",-0.13129527869926766,-4.105236008509679,17.0,813.0],["LRRC9",-0.10798253139052467,-3.026792292151945,14.0,816.0],["MROH6",-0.11366909235401149,-3.2725904235631917,8.0,822.0],["OR14C36",-0.11520161566267623,-3.34088916222683,10.0,820.0],["RASA1",-0.13802141111056682,-4.450866943174494,22.0,808.0],["TNS1",-0.10588673402814737,-2.9388427105190686,14.0,816.0]]}}}
{"ccle_rppa":{"corr":{"top":[["BRAF_B-Raf_Caution",0.41632623295944743,-33.86390433373649,793],["MSH6_MSH6_Caution",0.34786988696973414,-23.247623028420666,793]],"bottom":[["ERBB2_HER2",-0.4627872354060956,-42.61263318405226,793]]},"para":{"top":[["EIF4EBP1_4E-BP1",0.29862495108450393,-17.071667281758067,793],["BCL2_Bcl-2",0.46998952852033626,-44.094001983199604,793]],"bottom":[["ERBB2_HER2",-0.5345239078879503,-59.07061531940966,793],["ERBB2_HER2_pY1248_Caution",-0.5720459787302403,-69.38627349087714,793]]}}}
{"ccle_metabolomics":{"corr":{"top":[["alpha-hydroxybutyrate",0.4231746989729397,-35.97508237425102,814],["C34:1 PC",0.32020615595868784,-20.137246079231364,814]],"bottom":[["allantoin",-0.4187316847342987,-35.16895284940818,814],["xanthosine",-0.3721068700045377,-27.40578797858125,814]]},"para":{"top":[["C32:0 PC",0.2851516461875163,-15.967550897124132,814]],"bottom":[]}}}
{"ccle_rrbs_enhancer_clusters":{"corr":{"top":[],"bottom":[["9-98255859-98258632-0_enh",-0.38294670823713983,-29.552212025651013,827],["9-98255859-98258632-1_enh",-0.3514277203515167,-23.334273382977884,779]]},"para":{"top":[],"bottom":[]}}}
{"prism_secondary_logfold":{"corr":{"top":[],"bottom":[["fenbendazole_BRD-K51318897-001-15-3::0.00061034::HTS002",-0.31459731169204075,-4.078226023885939,151]]},"para":{"top":[],"bottom":[]}}}
{"ccle_proteomics":{"corr":{"top":[["SERGEF_Q9UGK8",0.5305408806462466,-16.645151454068724,220],["GTF3A_Q92664",0.5504737907530838,-16.593270165559627,201],["MEF2A_Q02078",0.5910389328564328,-10.305625021082093,103]],"bottom":[["EPHB4_P54760",-0.49483645883883703,-20.62704319874527,323],["ERBB2_P04626",-0.48227432013555865,-19.49223307581652,323],["YAP1_P46937-8",-0.5357127735331432,-24.66183622315487,323],["ZDHHC7_Q9NXF8",-0.5506788668636255,-10.302562509752509,122]]},"para":{"top":[["GPATCH11_Q8N954",0.4792412653518205,-18.70917146961773,314],["CBFA2T3_O75081",0.45675978164299896,-8.947626838518753,161],["CORO7_P57737",0.47706321793206297,-9.974922670823794,164],["RGS14_O43566",0.4862664685436031,-11.16664132587726,177],["GFI1_Q99684",0.45605792590664596,-5.836546167186241,102],["MEF2A_Q02078",0.4886041074071894,-6.785214614960538,103],["MEF2C_Q06413",0.5270117539752547,-10.21532908784603,134],["UNKL_Q9H9P5-6",0.47255177344811683,-6.445458055886642,105],["DNAJC24_Q6P3W2",0.5272315123378377,-12.245235529686257,162],["STAP1_Q9ULZ2",0.5623975816567305,-9.029742056674145,101]],"bottom":[["ERBB4_Q15303",-0.47507856428627365,-18.019604000960147,308],["ERBB2_P04626",-0.5842197265311337,-30.222757115406758,323],["MPP5_Q8N3R9",-0.5085438125342081,-21.919893138335812,323]]}}}
{"depmap_gene_tpm":{"corr":{"top":[["ATP1A3_478",0.5158749695174658,-56.701770106254195,827],["JAKMIP1_152789",0.5411972883055972,-63.37879526585667,827],["RAB39B_116442",0.5433230730893249,-63.96552999202571,827]],"bottom":[["CCND1_595",-0.5981895022781015,-80.67875423228165,827],["TMBIM1_64114",-0.5761568656081002,-73.58611607233284,827]]},"para":{"top":[["HIRIP3_8479",0.4693193813873251,-45.80058509330724,827],["ELMO1_9844",0.529038385920536,-60.10213797353018,827],["BCL2_596",0.4966403191437678,-51.99325503459549,827],["NT5M_56953",0.4490475803926735,-41.55461025280624,827]],"bottom":[["TEAD3_7005",-0.5263987025754857,-59.40823318119472,827],["YAP1_10413",-0.5100707635451155,-55.24913407862248,827],["ERBB2_2064",-0.6457167924715633,-98.01360360430195,827],["TLCD2_727910",-0.5124143140126705,-55.832290145770735,827]]}}}
{"avana":{"corr":{"top":[["ACTG1_71",0.2624260572232524,-8.067625030040123,467],["TUBA1C_84790",0.2712955413256233,-8.595947031147809,467]],"bottom":[["SNRNP200_23020",-0.3263584629894867,-12.32482306263632,467]]},"para":{"top":[["POMZP3_22932",0.21891711045993095,-5.7480599409196325,467],["SLC9B2_133308",0.24166340314974954,-6.905292688124961,467],["SLMAP_7871",0.24509315170460813,-7.090215633813349,467],["USE1_55850",0.24787739682633075,-7.24237816504792,467],["YAP1_10413",0.31876999315609517,-11.668373537631668,463]],"bottom":[["BCL2_596",-0.2574415368829602,-7.779147010043138,467],["GINS2_51659",-0.26225373431570564,-8.057551183095676,467],["MED17_9440",-0.23914122135418148,-6.718157013592352,463]]}}}
{"drive":{"corr":{"top":[["COL4A1_1282",0.30128982681749106,-7.327313055377573,316]],"bottom":[]},"para":{"top":[["TBC1D25_4943",0.27552182742650533,-6.185423936916776,316]],"bottom":[]}}}
{"achilles":{"corr":{"top":[["RPL17-C18orf32&RPL17_100526842&6139",0.36108349451335897,-7.356997150028835,217],["KHDRBS1_10657",0.33853413501418234,-10.7813078672084,375],["COPG1_22820",0.4244342537231815,-10.174507643587964,217],["SLC6A3_6531",0.38199578043203136,-13.74839141309228,375],["TP73_7161",0.33609114531974965,-10.627668328752033,375],["PMPCB_9512",0.3493701231461915,-11.479217465904382,375]],"bottom":[["TRUB1_142940",-0.33149672829809534,-6.235003615411242,217],["ASIC1_41",-0.4260051467054794,-10.25217529963896,217],["ORC1_4998",-0.3244692100098987,-5.9852130234992345,217],["C11orf63_79864",-0.3496613159289707,-6.910106867033247,217]]},"para":{"top":[["RPL17-C18orf32&RPL17_100526842&6139",0.3069669063643722,-5.38986097461135,217]],"bottom":[["LOC101929141_101929141",-0.325694911437153,-6.028330740235375,217],["LRRC8B_23507",-0.2994194259768188,-5.144642366592576,217],["PCDHGB7_56099",-0.2874605351690132,-7.840567744647629,375],["TNRC6C_57690",-0.3373922716531576,-10.70932795290188,375],["CDADC1_81602",-0.30148668740355394,-8.592785105995214,375]]}}}
{"ccle_rrbs_tss1kb":{"corr":{"top":[["AHNAK_11_62314332_62315332",0.6399945832971231,-95.07525161770512,821],["TAGLN_11_117069009_117070009",0.5772042315432352,-72.85208145148884,815],["ERBB2_17_37855230_37856230",0.826930460353273,-205.24485435527538,817]],"bottom":[]},"para":{"top":[["LOC100287837_11_73020406_73021406",0.5506430112679459,-65.30996258824848,818],["ERBB2_17_37855230_37856230",0.609444999244505,-83.50857679825084,817],["TLCD2_17_1613662_1614662",0.59791091601333,-79.52603079245193,816],["CDC42EP1_22_37955470_37956470",0.5536892184259566,-66.32939932306641,820]],"bottom":[]}}}
{"ccle_gene_tpm":{"corr":{"top":[["ATP1A3_ENSG00000105409.11",0.5197442791029124,-57.47993085367167,824],["JAKMIP1_ENSG00000152969.12",0.5433952575253991,-63.75676759229251,824],["RAB39B_ENSG00000155961.4",0.5478450834860505,-64.99444409764247,824],["TRAF3IP2-AS1_ENSG00000231889.3",0.5220186968886461,-58.06221146006538,824]],"bottom":[["CCND1_ENSG00000110092.3",-0.6025458365990747,-81.85246084110454,824]]},"para":{"top":[["HIRIP3_ENSG00000149929.11",0.4678234785158231,-45.31572999950807,824],["ELMO1_ENSG00000155849.11",0.5323273448731952,-60.75748905460715,824],["BCL2_ENSG00000171791.10",0.4976510335251296,-52.04710447573661,824],["AC018737.1_ENSG00000236859.2",0.4886478934705775,-49.944841285007136,824]],"bottom":[["TEAD3_ENSG00000007866.14",-0.5244990507988161,-58.70226794082814,824],["YAP1_ENSG00000137693.9",-0.5103286889390195,-55.11577162330241,824],["ERBB2_ENSG00000141736.9",-0.6462615254751699,-97.87732481181764,824]]}}}
{"ccle_rrbs_tss_clusters":{"corr":{"top":[["AHNAK_2",0.6632529324371523,-105.34677016612386,828],["ERBB2_1",0.7510146542617177,-148.7094937708807,819],["ERBB2_2",0.8818927743138164,-271.89803546862305,830],["ERBB2_3",0.9999999999999998,-323.0051853474518,831]],"bottom":[]},"para":{"top":[["RHBDF1_3",0.5927075060308897,-79.14544017904856,830],["ERBB2_2",0.7020280609804445,-123.47527512570431,830],["ERBB2_3",0.9999999999999999,-323.0051853474518,831],["LOC100131496_3",0.5700699044196103,-71.9770442812184,830]],"bottom":[]}}}
{"ccle_rrbs_cgi_clusters":{"corr":{"top":[["11_62312761_62317054-2",0.6632529324371523,-105.34677016612386,828],["17_37854448_37858891-2",0.8818927743138164,-271.89803546862305,830],["10_114710115_114714544-2",0.6462362054190829,-98.22025692868867,827],["17_37854448_37858891-1",0.7510146542617177,-148.7094937708807,819]],"bottom":[]},"para":{"top":[["16_120017_124873-3",0.5927075060308897,-79.14544017904856,830],["17_37854448_37858891-2",0.7020280609804443,-123.47527512570429,830],["10_114710115_114714544-2",0.552339820066005,-66.50151700189409,827],["22_37954102_37957014-3",0.5661443999875247,-70.7899538193645,830],["14_23447886_23451030-1",0.5651626673898427,-70.32792207267217,828]],"bottom":[["1_961795_966507-1",-0.43146520737666105,-36.386863368882345,789]]}}}
