{"depmap_hotspot":{"corr":{"top":[["IGF2R",0.21277680996556247,-8.34819117761401,86.0,659.0],["RBM20",0.15110094832602103,-4.461421988079142,53.0,692.0],["TMEM104",0.15266743584140413,-4.54407316776788,29.0,716.0]],"bottom":[]},"para":{"top":[["AC007431.1",0.12904774047991258,-3.6646457272137862,9.0,736.0],["DNAJC25",0.10938691928722898,-2.845474921614849,11.0,734.0],["GOLGA8H",0.13044552123638467,-3.7276113857164765,14.0,731.0],["HDHD3",0.12889455378080159,-3.657978007781209,12.0,733.0],["HIST1H2AI",0.1216382911249105,-3.342206531876773,10.0,735.0],["MACROD1",0.1406762407501896,-4.2049565548657695,18.0,727.0],["NLK",0.15370059803913164,-4.859170870094675,25.0,720.0],["OR2A7",0.1133048768478227,-2.9994655411926257,12.0,733.0],["PINK1",0.15768748394998014,-5.069815976577484,23.0,722.0],["SLC25A44",0.13103073676897256,-3.7539145458043497,11.0,734.0],["WFDC3",0.11302017402037537,-2.988079813397725,11.0,734.0]],"bottom":[["EDN2",-0.09472155568351061,-2.3098338281474318,8.0,737.0],["HLA-DPA1",-0.09414983908014936,-2.2903115865048767,9.0,736.0]]}}}
{"depmap_damaging":{"corr":{"top":[],"bottom":[]},"para":{"top":[["ARHGEF26",0.11837026435723419,-3.2019626108906345,10.0,734.0],["CTNNA3",0.12766262661359865,-3.5994594375442324,12.0,732.0],["IGF2R",0.141775384040737,-4.253534270531538,19.0,725.0],["MTERFD1",0.09841401113235662,-2.436282416341536,8.0,736.0],["NAA35",0.1198374693380397,-3.262836978548028,8.0,736.0],["NRP2",0.12336763735914505,-3.412362398768139,9.0,735.0],["ROR2",0.12668316572240948,-3.556233607596435,10.0,734.0],["SYNJ1",0.0931190086781111,-2.253070957664831,8.0,736.0],["WIZ",0.12242410846798721,-3.3719741967320562,8.0,736.0]],"bottom":[["CD2AP",-0.09561435466229574,-2.338380092295953,8.0,736.0],["CDK1",-0.08314467716827648,-1.9303821922350548,9.0,735.0]]}}}
{"prism_secondary_logfold":{"corr":{"top":[],"bottom":[["norethindrone_BRD-K92073408-001-16-5::0.0024414::HTS002",-0.29596181931764326,-4.0291373356793665,169]]},"para":{"top":[],"bottom":[["norethindrone_BRD-K92073408-001-16-5::0.0024414::HTS002",-0.2763780577150935,-3.5599594342281233,169]]}}}
{"ccle_proteomics":{"corr":{"top":[["WASF1_Q92558",0.3740868876085656,-9.701611714218247,271]],"bottom":[["CABLES1_Q8TDN4",-0.35410121432892805,-7.201869923584847,221],["SLC2A10_O95528",-0.3414978695568875,-3.841124470782111,119]]},"para":{"top":[["WASF1_Q92558",0.36747716707700206,-9.362292034077583,271],["FRA10AC1_Q70Z53",0.3085794702006848,-6.053682892839649,244]],"bottom":[["CABLES1_Q8TDN4",-0.3679631837584743,-7.764901203663021,221],["SLC2A10_O95528",-0.3405631794144752,-3.821739758034391,119],["MTCH2_Q9Y6C9",-0.3201558549858072,-7.584570990243202,289]]}}}
{"depmap_gene_tpm":{"corr":{"top":[],"bottom":[["CABLES1_91768",-0.5123928436725568,-50.11579715540739,741]]},"para":{"top":[],"bottom":[["CABLES1_91768",-0.5222815115659779,-52.36601774345414,741]]}}}
{"avana":{"corr":{"top":[],"bottom":[["ORC5_5001",-0.23864659276146005,-6.071939341789096,416]]},"para":{"top":[],"bottom":[["ORC5_5001",-0.23806796020783635,-6.0446686838220405,416]]}}}
{"drive":{"corr":{"top":[["LOC107987423_107987423",0.25407697365761805,-4.80444816573462,282]],"bottom":[]},"para":{"top":[["LOC107987423_107987423",0.21621163441665608,-3.594917268649179,282]],"bottom":[]}}}
{"achilles":{"corr":{"top":[["TSPAN2_10100",0.3316125600361851,-5.529035350572974,190],["SFT2D2_375035",0.29411104606215704,-4.419162667972418,190]],"bottom":[["TSPAN9_10867",-0.27748576031449235,-3.973981649703637,190]]},"para":{"top":[["TSPAN2_10100",0.3445108806581346,-5.94629833649674,190]],"bottom":[["TSPAN9_10867",-0.29363265033248276,-4.405961040014014,190],["TSPAN7_7102",-0.30810484800736826,-4.8158140396475275,190]]}}}
{"ccle_rrbs_tss1kb":{"corr":{"top":[],"bottom":[]},"para":{"top":[["CYP27A1_2_219645471_219646471",0.41240458776757394,-28.823276094485333,686],["SLC2A11_22_24198186_24199186",0.3954311918934212,-28.12103148877025,733],["SLC2A11_22_24199039_24200039",0.42327541825128606,-32.45521507210138,732]],"bottom":[]}}}
{"ccle_gene_tpm":{"corr":{"top":[],"bottom":[["CABLES1_ENSG00000134508.8",-0.5145945281895925,-50.409143451313994,738]]},"para":{"top":[],"bottom":[["CABLES1_ENSG00000134508.8",-0.5246950935801848,-52.71593844033195,738]]}}}
{"ccle_rrbs_tss_clusters":{"corr":{"top":[["CABLES1_1",0.46454359584463545,-35.379276040530556,650],["CABLES1_4",0.7183535782589142,-118.00750324596557,742],["CABLES1_6",1.0,-323.0051853474518,745]],"bottom":[]},"para":{"top":[["CABLES1_1",0.4786465136508777,-37.79933662155417,650],["CABLES1_3",0.6066772911016056,-75.06603899981825,742],["CABLES1_4",0.7713042670239988,-146.62649064011183,742],["CABLES1_5",0.5325203941184274,-55.066239024489796,745],["CABLES1_6",1.0,-323.0051853474518,745],["SLC2A11_1",0.3980964103524183,-28.899922099711613,743]],"bottom":[]}}}
{"ccle_rrbs_cgi_clusters":{"corr":{"top":[["18_20712968_20716020-1",0.46454359584463545,-35.379276040530556,650],["18_20716020_20719071-2",0.7135803192075566,-115.75111860403322,742]],"bottom":[]},"para":{"top":[["18_20712968_20716020-1",0.4786465136508777,-37.79933662155417,650],["18_20716020_20719071-1",0.5334566659063783,-54.85385682955288,739],["18_20712968_20716020-2",0.4629179623202362,-40.00668455978327,743],["18_20716020_20719071-2",0.7681558721254599,-144.71351769445423,742]],"bottom":[]}}}
