{"depmap_hotspot":{"corr":{"top":[],"bottom":[]},"para":{"top":[["ARRDC3",0.13119145389929593,-4.115999497414018,21.0,813.0],["BCL2L15",0.129537800244021,-4.032928597801569,14.0,820.0],["ICAM2",0.12074170592959262,-3.6078420844005756,18.0,816.0],["TMEM256-PLSCR3",0.15715242194996834,-5.541039011795389,20.0,814.0],["TMEM52B",0.1282245634122462,-3.967899571822522,19.0,815.0]],"bottom":[["TMEM186",-0.10344482286971331,-2.8481584141157903,8.0,826.0]]}}}
{"depmap_damaging":{"corr":{"top":[],"bottom":[]},"para":{"top":[["GXYLT1",0.11138686256432152,-3.181294129902924,8.0,825.0]],"bottom":[["C2orf78",-0.10227939331606208,-2.798198154466784,9.0,824.0],["PHKB",-0.10771208063809086,-3.0233939463903083,9.0,824.0],["ZNF827",-0.10304308563510077,-2.8291966953397374,8.0,825.0]]}}}
{"depmap_copy_number":{"corr":{"top":[],"bottom":[]},"para":{"top":[],"bottom":[["AACS_65985",-0.1732989580569594,-6.314639849611921,833]]}}}
{"ccle_rrbs_tss_clusters":{"corr":{"top":[["FANCE_2",0.43856495055204747,-38.955544872070796,816],["ZNF862_1",0.43697811980283,-18.331761124611834,378]],"bottom":[]},"para":{"top":[["FANCE_2",0.4538068698416254,-41.97225437293511,816],["ZNF862_1",0.43907728594295925,-18.51958515290062,378]],"bottom":[]}}}
{"ccle_rrbs_cgi_clusters":{"corr":{"top":[],"bottom":[]},"para":{"top":[],"bottom":[]}}}
