{"depmap_hotspot":{"corr":{"top":[],"bottom":[["ANXA13",-0.1612372018963296,-5.560294234038865,31.0,806.0],["GRTP1",-0.14460031018117322,-4.572210008035257,22.0,815.0],["METTL7A",-0.16945560562339113,-6.086945963537135,8.0,829.0],["ZMYM6NB",-0.13290169338324603,-3.9389438242462336,10.0,827.0],["ZNF10",-0.1728378318247348,-6.311186214778508,22.0,815.0]]},"para":{"top":[],"bottom":[["ZCCHC13",-0.08635168921745628,-2.2020423921993046,8.0,829.0]]}}}
{"depmap_damaging":{"corr":{"top":[],"bottom":[["APOB",-0.18266968275770445,-6.980500671407815,34.0,802.0],["IL20RA",-0.14059547009040968,-4.3451847378290465,9.0,827.0],["TRIM33",-0.16445132174143912,-5.75700360459468,8.0,828.0]]},"para":{"top":[["BBX",0.10725899248516445,-3.012398605047783,9.0,827.0]],"bottom":[["STON1",-0.10896501402447199,-3.0853781258317152,15.0,821.0]]}}}
{"depmap_gene_tpm":{"corr":{"top":[],"bottom":[["TKTL1_8277",-0.34186756803029633,-23.523167779955532,833]]},"para":{"top":[],"bottom":[]}}}
{"ccle_rrbs_tss1kb":{"corr":{"top":[["MYL2_12_111358404_111359404",0.5511247239398821,-31.24282567029088,385]],"bottom":[]},"para":{"top":[],"bottom":[]}}}
{"ccle_gene_tpm":{"corr":{"top":[],"bottom":[["TKTL1_ENSG00000007350.12",-0.33994356373481327,-23.17215256112114,830],["CT64_ENSG00000241369.1",-0.36361549525293546,-26.61884667116935,830]]},"para":{"top":[],"bottom":[]}}}
{"ccle_rrbs_tss_clusters":{"corr":{"top":[["HAPLN4_1",0.5621615761781703,-69.10525510479776,824]],"bottom":[]},"para":{"top":[["HAPLN4_1",0.5630568549815197,-69.36902922554563,824]],"bottom":[]}}}
{"ccle_rrbs_cgi_clusters":{"corr":{"top":[["19_19369675_19374393-1",0.5797852599676385,-74.44943123267404,824],["16_66434577_66439079-2",0.5985737874447129,-81.00056024917025,829]],"bottom":[["4_2046833_2051144-2",-0.3950522911685967,-11.281072369677341,283]]},"para":{"top":[["19_19369675_19374393-1",0.5928659314292729,-78.63180061411671,824]],"bottom":[]}}}
