{"depmap_hotspot":{"corr":{"top":[],"bottom":[["ANO10",-0.1335159566564359,-3.9792254445314494,18.0,821.0],["MEGT1",-0.12484209663119021,-3.539012762743297,8.0,831.0],["OR2B6",-0.1045492986311308,-2.6146758504598027,18.0,821.0],["PDRG1",-0.10452097911844072,-2.613487757339328,9.0,830.0],["PRDX3",-0.10802988840923822,-2.7628406292207384,9.0,830.0],["USP41",-0.13419455663324364,-4.01482151522674,10.0,829.0]]},"para":{"top":[["AKR1C3",0.12214697841775915,-3.6913440455153332,18.0,821.0],["BTBD8",0.11898137115953318,-3.5423605633588053,15.0,824.0],["EREG",0.09555261355052616,-2.546204286254638,8.0,831.0]],"bottom":[]}}}
{"depmap_damaging":{"corr":{"top":[],"bottom":[["ABCC3",-0.16612948319923762,-5.877019024492472,9.0,829.0],["AP2B1",-0.16476489642866132,-5.789422043339097,9.0,829.0],["INADL",-0.14426829448987205,-4.55834614147854,13.0,825.0],["PTPN3",-0.13022164185201965,-3.8048656484931898,8.0,830.0],["SLC6A9",-0.11885635801329542,-3.2477767047483086,8.0,830.0],["SOBP",-0.10666450807720934,-2.7015035974554467,8.0,830.0]]},"para":{"top":[["TTC39B",0.12827599651541696,-3.9854075419905586,11.0,827.0]],"bottom":[["SLC6A9",-0.0951915336148994,-2.530124768277897,8.0,830.0]]}}}
{"prism_secondary_logfold":{"corr":{"top":[],"bottom":[]},"para":{"top":[],"bottom":[["CUDC-101_BRD-K41278234-001-03-0::0.0024414::HTS002",-0.23806792077810138,-3.448245843465686,221]]}}}
{"ccle_proteomics":{"corr":{"top":[],"bottom":[]},"para":{"top":[],"bottom":[["SIKE1_Q9BRV8",-0.2976653654767539,-2.9085236053083396,115]]}}}
{"ccle_rrbs_cgi_clusters":{"corr":{"top":[["7_157190920_157195155-1",0.3738093575730694,-28.392585682038156,836]],"bottom":[]},"para":{"top":[],"bottom":[]}}}
