{"depmap_hotspot":{"corr":{"top":[],"bottom":[["DACT3",-0.11996678849619391,-3.144579780009638,33.0,759.0],["RP11-507M3.1",-0.10688285223273249,-2.5855659288324295,8.0,784.0],["ZNF428",-0.12440103735791225,-3.3470923793908938,11.0,781.0]]},"para":{"top":[],"bottom":[["DACT3",-0.1209554137745455,-3.4747547686203153,33.0,759.0],["RP11-507M3.1",-0.1020168483833021,-2.685561698421184,8.0,784.0],["TNFAIP8L3",-0.10426623844492162,-2.773482017166247,14.0,778.0],["ZNF428",-0.11173749218599595,-3.076115144229164,11.0,781.0]]}}}
{"depmap_damaging":{"corr":{"top":[],"bottom":[]},"para":{"top":[["ERI2",0.10601227480254365,-2.8397568879381456,9.0,782.0],["TOX",0.10547757888804715,-2.818438911149758,8.0,783.0],["UBL3",0.08191045778155204,-1.9713192652613793,8.0,783.0]],"bottom":[]}}}
{"ccle_proteomics":{"corr":{"top":[],"bottom":[["ITGA7_Q13683-7",-0.44167521025989526,-10.086356199441358,197]]},"para":{"top":[],"bottom":[]}}}
{"avana":{"corr":{"top":[["SIRPB2_284759",0.20188288751536576,-4.7119693921623895,441]],"bottom":[["FBXL12_54850",-0.2439227463573243,-6.668739022229108,441]]},"para":{"top":[["SIRPB2_284759",0.1959920648172428,-4.467649707787716,441]],"bottom":[]}}}
{"drive":{"corr":{"top":[],"bottom":[]},"para":{"top":[["CAMK2G_818",0.2793654142629554,-6.073966709224052,301]],"bottom":[]}}}
{"achilles":{"corr":{"top":[],"bottom":[["LINC01879_400661",-0.31526486172496226,-5.383078339056259,205]]},"para":{"top":[["MAGI2_9863",0.2801667901264592,-4.3252310846463615,205]],"bottom":[["CYB561D2_11068",-0.2479011210992063,-5.688240132267258,358]]}}}
{"ccle_rrbs_cgi_clusters":{"corr":{"top":[],"bottom":[]},"para":{"top":[],"bottom":[]}}}
