{"depmap_hotspot":{"corr":{"top":[],"bottom":[["BCL2",-0.3544245402699168,-25.304555887993708,27.0,805.0],["BTG2",-0.18140905698118887,-6.861665877252748,10.0,822.0],["C11orf70",-0.13333445256567972,-3.9408300486833854,15.0,817.0],["C5orf60",-0.11331514072725171,-2.9747675514047764,8.0,824.0],["CCND3",-0.18757675498972476,-7.299929855720589,20.0,812.0],["CD70",-0.1034357804093291,-2.5502724819437272,15.0,817.0],["EZH2",-0.21076393893968687,-9.081554138328874,49.0,783.0],["GNA13",-0.1887239628720702,-7.383082804986676,35.0,797.0],["HIST1H1D",-0.121394403626325,-3.347428965910226,26.0,806.0],["HIST1H1E",-0.18485875884446873,-7.104971423273402,37.0,795.0],["HIST1H2AJ",-0.18284971416815232,-6.96271306607148,12.0,820.0],["HLA-DQB2",-0.2161185135585017,-9.523573632275859,39.0,793.0],["HP",-0.09195758320809105,-2.0995219535311693,8.0,824.0],["HRH1",-0.15361112670925317,-5.067372570216977,19.0,813.0],["ITGB3BP",-0.11472363746396522,-3.038073813548113,8.0,824.0],["MS4A1",-0.29827268785505534,-17.83079875884905,44.0,788.0],["MYC",-0.24978819776878722,-12.57439120763741,51.0,781.0],["SAT1",-0.15807614184833085,-5.335879085822004,8.0,824.0],["SEPT1",-0.15298801048116023,-5.030492871008194,19.0,813.0]]},"para":{"top":[["ADCYAP1",0.1128198066922093,-3.2414850372677786,17.0,815.0],["ARMC1",0.11053819738247436,-3.141730661073345,12.0,820.0],["ASB12",0.12047683628011142,-3.588290474704374,8.0,824.0],["EBI3",0.12122099565223564,-3.6230906518164017,8.0,824.0],["LCE2B",0.12986357259333525,-4.041505554713087,18.0,814.0],["THEM6",0.13000787417775342,-4.048512500961725,12.0,820.0],["ZNF121",0.11954580709118004,-3.545385416661459,17.0,815.0]],"bottom":[["PDF",-0.07816727459790515,-1.9159376310469756,16.0,816.0],["SLC50A1",-0.09542716127081287,-2.5260669895573686,9.0,823.0]]}}}
{"depmap_damaging":{"corr":{"top":[],"bottom":[["AAAS",-0.11444997143359513,-3.0226280733283333,8.0,823.0],["C10orf12",-0.11953354613074359,-3.2561895300209907,9.0,822.0],["DDX3X",-0.15759102542058304,-5.300642898018639,10.0,821.0],["GNA13",-0.23947619863065994,-11.576443232843085,11.0,820.0],["HECW2",-0.11757632054076449,-3.1651842033658038,12.0,819.0],["HLA-DQB2",-0.22119296402194127,-9.94209556434165,21.0,810.0],["MNS1",-0.11108332194262811,-2.8729633747279126,15.0,816.0],["MS4A1",-0.4964662269562805,-52.19884617986763,19.0,812.0],["ZNF598",-0.18804027080626767,-7.325400961084771,8.0,823.0]]},"para":{"top":[["KIAA0319",0.09189855264559871,-2.3913063142007314,10.0,821.0],["NPAP1",0.08418914727235251,-2.1157718569231285,8.0,823.0],["NSUN6",0.10102858733839526,-2.742969262788164,11.0,820.0],["USP6NL",0.11298432617284454,-3.2456586628694453,14.0,817.0]],"bottom":[["AAAS",-0.0873253536745592,-2.2254614898705087,8.0,823.0],["DOT1L",-0.07705550060804191,-1.8784527367911206,15.0,816.0]]}}}
{"ccle_chromatin":{"corr":{"top":[["H3K27me2K36me1",0.25677054574056307,-12.679413573225998,793]],"bottom":[]},"para":{"top":[],"bottom":[]}}}
{"ccle_rppa":{"corr":{"top":[],"bottom":[["MS4A1_CD20 _Caution",-0.5801937674567994,-71.89555030273044,794]]},"para":{"top":[],"bottom":[]}}}
{"ccle_rrbs_enhancer_clusters":{"corr":{"top":[["10-11722037-11724768-2_enh",0.5357919052181535,-57.18563906798687,763],["18-53090352-53093079-1_enh",0.4134563944651571,-32.752131711016915,778],["22-38429878-38432515-2_enh",0.6621212600231832,-96.95603411795906,765]],"bottom":[["1-10923202-10927728-2_enh",-0.33046072975197704,-21.872354861352324,830]]},"para":{"top":[],"bottom":[]}}}
{"ccle_proteomics":{"corr":{"top":[["DDOST_P39656",0.475850008647669,-18.92970172262596,323],["PIGT_Q969N2",0.5184451239055873,-22.890733593771188,323],["SHB_Q15464",0.48678243931870735,-17.457337344842145,282],["RPN1_P04843",0.4796419404426922,-19.260301115420493,323],["NAPEPLD_Q6IQ20",0.47693293465624154,-7.899574640066735,128],["KITLG_P21583",0.4803491035435812,-10.354264031247533,168]],"bottom":[["TFEB_P19484",-0.5501151636954589,-16.965128874637113,206],["BACH2_Q9BYV9",-0.6049925134678665,-17.82328423488857,172],["CD22_P20273",-0.5535849864998416,-12.289430009153028,145],["GRAP_Q13588",-0.7046874041045678,-19.77909498387253,128],["IGHM_P01871",-0.65922703840538,-40.91688126225836,323],["CD79B_P40259-3",-0.6646291702477274,-17.950482827529388,136]]},"para":{"top":[],"bottom":[]}}}
{"depmap_gene_tpm":{"corr":{"top":[],"bottom":[["TCL1A_8115",-0.7255124971758661,-135.4607939873267,828],["CD79A_973",-0.6987841929768396,-121.57797677566496,828],["VPREB3_29802",-0.7287444208074194,-137.25150702358516,828],["FCRLA_84824",-0.6333120651274726,-93.30700730647594,828],["BLK_640",-0.6479706248831022,-99.03174129827669,828],["MS4A1_931",-0.7211612103188696,-133.09002930764868,828],["TLR10_81793",-0.6787398126680423,-112.13895334456527,828],["CD19_930",-0.734286604118355,-140.383320250551,828],["CLEC17A_388512",-0.6360209765548095,-94.34158437327717,828],["PAX5_5079",-0.6843254092539421,-114.69263384706728,828],["SPIB_6689",-0.7199270308758632,-132.42581317260422,828]]},"para":{"top":[],"bottom":[]}}}
{"avana":{"corr":{"top":[["BCL6_604",0.3016026522230334,-10.592529064891306,469],["CCNT1_904",0.2956381434023063,-10.106387647222098,465],["CD19_930",0.32842902285628817,-12.531271961466063,469],["CD79A_973",0.36124212589591975,-15.176785369236633,469],["CD81_975",0.2811121833468214,-9.240050312378568,469],["EBF1_1879",0.5884233258954088,-44.30450031531997,469],["FOXO1_2308",0.28547035345738897,-9.518666720464104,469],["ITSN2_50618",0.33881977601041263,-13.335488061802783,469],["MEF2B_100271849",0.36550540797661324,-15.543721255272745,469],["PAX5_5079",0.5166626526740251,-32.63862739519661,469],["PIK3CD_5293",0.2863880455314654,-9.577951307898145,469],["SYK_6850",0.3200173477208643,-11.902304013772827,469]],"bottom":[["TMEM64_169200",-0.19828376808822107,-4.817976389356148,469]]},"para":{"top":[],"bottom":[["CPVL_54504",-0.19009970204225332,-4.46636447380966,469]]}}}
{"drive":{"corr":{"top":[["VASN_114990",0.4708548607123101,-18.114748877091266,316],["EBF1_1879",0.5067381904288473,-21.4206824444224,318],["ESPNP_284729",0.4330731841783168,-15.15132218061636,316],["ACADL_33",0.4250448175080247,-14.567715317416358,316],["PINK1_65018",0.4310659952416994,-15.456973640969618,326],["DPY30_84661",0.4300224804644065,-14.927729930461243,316],["CCND3_896",0.6707016693001444,-42.179258234881125,318]],"bottom":[["LRRC3B_116135",-0.39044250325239915,-12.223429833358734,316],["KDM1B_221656",-0.3495852660604884,-9.845381777392141,318],["MED13L_23389",-0.38356093607954167,-11.78885276014209,316],["GABRE_2564",-0.3731067239063447,-11.1478527628442,316],["GLRA1_2741",-0.3763517462084378,-11.344373245007855,316],["HPGD_3248",-0.3399819995901552,-9.263479562281548,316],["OR2T5_401993",-0.3494768908815408,-9.781439026794393,316],["ASAP1_50807",-0.4562554254837341,-16.92585722954875,316],["UBA6_55236",-0.3669986224388414,-10.783838962714006,316],["RBP5_83758",-0.33670050224202847,-9.088497608236588,316],["ATG5_9474",-0.3941143323455855,-12.832626723894265,326]]},"para":{"top":[],"bottom":[]}}}
{"achilles":{"corr":{"top":[["RETREG3_162427",0.38160381049507386,-8.134753430783018,215],["KIAA0930_23313",0.3839015804950747,-8.232534143624633,215],["NEGR1_257194",0.3594554489658167,-7.230220224970057,215],["MBNL1_4154",0.3690064411235213,-12.781678904988258,374],["TMEM9B_56674",0.46613581811774984,-12.269337803011199,215],["UBE2G2_7327",0.344883638342567,-11.15892308064091,374],["CAVIN2_8436",0.3782557666586533,-7.993625836266786,215]],"bottom":[["STARD6_147323",-0.3529713683230344,-6.978105088920521,215],["LCE2B_26239",-0.35277706825318317,-6.970636926178983,215],["BPIFA1_51297",-0.3851772243517801,-8.28714547473908,215],["ZDHHC11B&ZDHHC11_653082&79844",-0.4077453038029801,-9.292779117871932,215],["IFT140_9742",-0.3163736188428364,-5.657455961997465,215]]},"para":{"top":[],"bottom":[]}}}
{"ccle_rrbs_tss1kb":{"corr":{"top":[["LCT_2_136594750_136595750",0.5898515619032522,-75.78867818946144,804],["PPP1R18_6_30655672_30656672",0.6937925026813057,-117.2979360268577,815],["LOC285847_6_35704724_35705724",0.6829631385858813,-112.28779957795545,815],["LIMK1_7_73506485_73507485",0.634110665172121,-92.15560369698518,815],["GPER1_7_1125442_1126442",0.6381861772127874,-76.95732741788889,668],["GIGYF1_7_100287071_100288071",0.5774339537658686,-72.12739132297723,806],["MIR6751_11_64897450_64898450",0.7240841398224641,-131.60718427173515,809],["SIPA1_11_65406591_65407591",0.6881711420105103,-112.01729558724496,796]],"bottom":[["TMEM41A_3_185216845_185217845",-0.5510057962656916,-65.41190824914513,818],["WDFY3_4_85887544_85888544",-0.6003777345690491,-80.44022209528602,817],["WDFY3-AS2_4_85886884_85887884",-0.5996260359423766,-80.57833449747808,821],["WDFY3-AS2_4_85887636_85888636",-0.5929607678268356,-78.00242249450095,817],["ARL4A_7_12725910_12726910",-0.5950127299768074,-78.76567316582538,818],["DOCK5_8_25041237_25042237",-0.5550688286558628,-66.72273588601018,820],["PLEKHA5_12_19281625_19282625",-0.5807301362500983,-70.44465380407908,776],["CRY1_12_107487635_107488635",-0.6067714560846362,-82.59355379581736,817],["UACA_15_71055932_71056932",-0.5628767733065563,-68.40290631126706,813]]},"para":{"top":[],"bottom":[]}}}
{"ccle_gene_tpm":{"corr":{"top":[],"bottom":[["TCL1A_ENSG00000100721.6",-0.7255784454102022,-135.00931868935112,825],["CD79A_ENSG00000105369.5",-0.6982714382079095,-120.89038564263998,825],["VPREB3_ENSG00000128218.7",-0.7284758487325984,-136.60813355856385,825],["BLK_ENSG00000136573.8",-0.6472917944329832,-98.40513929638784,825],["MS4A1_ENSG00000156738.13",-0.7211564684577227,-132.60845394837384,825],["TLR10_ENSG00000174123.6",-0.680416911961352,-112.49393277850817,825],["CD19_ENSG00000177455.7",-0.7340851855001609,-139.76305400050452,825],["PAX5_ENSG00000196092.8",-0.6835258771920483,-113.91262758133665,825],["IGHV5-78_ENSG00000211978.2",-0.7130884541760383,-128.34584731394366,825],["LA16c-329F2.1_ENSG00000261399.1",-0.6967802914672645,-120.16542397500476,825],["RP11-147L13.8_ENSG00000267731.1",-0.6622042564797691,-104.52473655505148,825],["SPIB_ENSG00000269404.2",-0.7195587875267623,-131.75242445728392,825],["U62631.5_ENSG00000269553.1",-0.6448832968551379,-97.44881173933197,825]]},"para":{"top":[],"bottom":[]}}}
{"ccle_rrbs_tss_clusters":{"corr":{"top":[["AMPD2_5",0.6621794930040705,-105.26776191208866,831],["HMCES_1",0.7204498591228016,-104.52055615188559,651],["LOC100130357_2",0.6695585477871482,-105.34483042100672,807],["NRM_2",0.745919455857939,-145.27617338688975,817],["PPP1R18_3",0.718631169530402,-130.62600930704292,821],["ARMC12_2",0.6827704409112632,-113.56627529820682,825],["MIR6751_3",0.6881385263216634,-111.44422010194378,792],["MIR6775_1",0.670109166120207,-108.82174352575488,832],["SNORA119_2",0.7094221264533707,-126.15286826586448,823],["PRKD2_3",0.6836418068746236,-114.10292055587476,826],["MIR6800_3",0.6943981787114406,-116.86883114935542,810],["EPN1_4",0.6783739257395576,-111.70536984567876,826],["MIR645_1",0.6635464824813733,-95.87333273398743,752]],"bottom":[["RND3_3",-0.6491164047328802,-55.6494472598439,460],["POMGNT2_3",-0.5658574694677154,-70.45160177190512,827],["WDFY3",-0.6017462788655339,-82.36532804950595,832],["CXCL3_2",-0.5949910047135651,-77.14091201285659,801],["ARL4A_3",-0.5758952706720862,-73.85616472531879,831],["DOCK5_2",-0.5663190060869666,-70.92665251003244,831],["NDRG1_1",-0.6598893861016804,-20.76224584211085,161],["PLEKHA5_2",-0.6039384898257247,-73.63029245467595,736],["PLEKHA5_3",-0.6365322157459014,-94.76413169826472,830],["CRY1",-0.6445297814777179,-98.12704424932777,832],["UACA",-0.5774281216953061,-74.42244421079003,832]]},"para":{"top":[],"bottom":[]}}}
{"ccle_rrbs_cgi_clusters":{"corr":{"top":[["17_72830055_72834650-2",0.7306600306922069,-135.83503758107298,813],["3_128995382_128999600-1",0.7204498591228016,-104.52055615188559,651],["17_78816440_78820696-2",0.7242601090755115,-131.53948328083086,808],["19_1644117_1648713-2",0.7631673244398094,-158.6457421117577,831],["11_64619207_64621727-1",0.7354519571214285,-140.8825936855446,827],["7_150102704_150107530-3",0.7157895778384967,-130.84984011742412,832],["2_9612194_9614714-1",0.7330207813794752,-132.45307002121157,785],["14_104163051_104167278-3",0.7587227762507184,-77.04424528535277,409],["7_1037874_1042096-2",0.7193980488478964,-132.45927585068276,830],["12_122252907_122257494-2",0.767817403245814,-156.51582102704958,804],["19_18277514_18282178-1",0.7876750364806627,-175.8385812141758,831],["19_1617170_1621447-1",0.9058204692171555,-311.0889045920976,832],["11_67201319_67205662-2",0.721830483523812,-133.93206234299444,831],["6_30652392_30656934-3",0.718631169530402,-130.62600930704292,821],["16_87734652_87738907-1",0.7560015948929701,-154.19320710222314,832],["11_658454_662681-3",0.761588232719749,-157.60986567585914,831]],"bottom":[["15_71052898_71055564-1",-0.5768795837626078,-74.07465443984881,830],["12_19280641_19283271-2",-0.6287096697450515,-91.79172540766527,830],["12_107487212_107489811-1",-0.6404063010761528,-95.92368165130117,827],["4_74901953_74906589-2",-0.5949910047135651,-77.14091201285659,801],["12_107484612_107487212-1",-0.6498390043782739,-100.14246658357828,831],["7_12724156_12726702-3",-0.5799768628066125,-74.68793324543537,826],["8_134306328_134309236-2",-0.6598893861016804,-20.76224584211085,161],["12_19283271_19285901-1",-0.6189864009746642,-88.00334411335882,828],["2_151342466_151345191-2",-0.5800725873566054,-56.30654192246494,620],["7_12726702_12729248-1",-0.575918820006158,-73.68794949032453,829],["4_85884808_85889777-1",-0.6017462788655339,-82.36532804950595,832]]},"para":{"top":[["19_1617170_1621447-1",0.682648327923855,-114.46585102091946,832]],"bottom":[]}}}
