{"depmap_hotspot":{"corr":{"top":[],"bottom":[["CPN1",-0.1253710893156781,-3.528361632258006,27.0,802.0],["DCXR",-0.13103997722330185,-3.8108285092840015,11.0,818.0],["DNM2",-0.13797405167187615,-4.172070457000342,45.0,784.0],["GOLGA8N",-0.16791470501442643,-5.934611047119181,13.0,816.0],["GUCD1",-0.145934219723863,-4.608319966627985,13.0,816.0],["HIST1H3G",-0.1253889859920657,-3.5292352795966906,13.0,816.0],["HSPA5",-0.13158333536907482,-3.838508626162833,23.0,806.0],["ID3",-0.18293585314156635,-6.945867473941213,21.0,808.0],["MATN4",-0.10359168878599771,-2.5490112831070633,48.0,781.0],["PACS1",-0.11812417285670464,-3.1839592112187622,51.0,778.0],["PCBP1",-0.17092288216278342,-6.130230460969431,24.0,805.0],["PRIM1",-0.11884334286220688,-3.2173046799959684,12.0,817.0],["PSAP",-0.12009462581918755,-3.2757584496560432,23.0,806.0],["RDH5",-0.1263924397872959,-3.578403080112493,18.0,811.0],["RHBDF1",-0.11504636012492778,-3.0433130429631854,46.0,783.0],["TRIM8",-0.1122629083508429,-2.918986760321028,25.0,804.0],["TRNAU1AP",-0.11872380530958694,-3.211749462417018,11.0,818.0],["ZFP1",-0.11986043431294613,-3.2647760174785048,19.0,810.0],["ZNF207",-0.10310725432571406,-2.529111157432826,27.0,802.0]]},"para":{"top":[["BRI3",0.10909729310233246,-3.07116276160613,9.0,820.0],["FSHB",0.09755701662083949,-2.6013909825099377,10.0,819.0],["MS4A5",0.11382698604162643,-3.2767828186588224,13.0,816.0],["PRAMEF26",0.09726036308352944,-2.5899397950730982,11.0,818.0]],"bottom":[["ASGR2",-0.09875963395050423,-2.6484661860894456,16.0,813.0],["C5orf24",-0.09499337342838854,-2.50303979280067,10.0,819.0],["DCXR",-0.09994857429698449,-2.6951487963453284,11.0,818.0],["DUSP2",-0.11109644796463855,-3.1573855515649965,18.0,811.0],["GOLGA8N",-0.13318711167609096,-4.196641903911115,13.0,816.0],["GPR151",-0.09689036643093633,-2.5757900714127757,16.0,813.0],["GUCD1",-0.12145739195206529,-3.6241394357937917,13.0,816.0],["HIST1H3G",-0.08537531293940497,-2.1534832926178806,13.0,816.0],["ID3",-0.13499326865817116,-4.289183132854724,21.0,808.0],["MRGBP",-0.10119701218680353,-2.74497474465413,16.0,813.0],["PDHX",-0.11182866632460008,-3.18912182331212,15.0,814.0],["PRIM1",-0.08017331870333531,-1.9769643930613625,12.0,817.0],["RGPD1",-0.08968167314344277,-2.30613215506654,9.0,820.0],["STMN2",-0.0987812243522457,-2.6490770476525323,9.0,820.0],["TNFRSF13C",-0.08616610378351953,-2.180893464810913,8.0,821.0],["TRNAU1AP",-0.0735732560797247,-1.7656374191044069,11.0,818.0],["TSPAN31",-0.13892064517815952,-4.493524369389484,12.0,817.0],["WASF2",-0.09817319708162016,-2.6255409390692783,16.0,813.0],["YWHAQ",-0.0856428349063805,-2.1626575884110246,9.0,820.0]]}}}
{"depmap_damaging":{"corr":{"top":[],"bottom":[["FCHO1",-0.09699305976607311,-2.2826141235234214,8.0,820.0],["GOLGA2",-0.10362364328510923,-2.547759477176927,10.0,818.0],["KIAA1377",-0.11183600951838216,-2.8971987647925532,10.0,818.0],["NPIPB11",-0.10310506214981503,-2.5264777894396104,9.0,819.0],["TECPR1",-0.10061100269639914,-2.4254192848342786,10.0,818.0]]},"para":{"top":[["MUC17",0.10248234577952989,-2.794049041084762,12.0,816.0],["RBM15B",0.12480605062693197,-3.7790561720225875,10.0,818.0]],"bottom":[]}}}
{"ccle_rppa":{"corr":{"top":[],"bottom":[]},"para":{"top":[["EGFR_EGFR",0.5114244987040829,-53.27166030964696,792]],"bottom":[["VAV1_VAV1_Caution",-0.43038552893522086,-36.324769963717806,792]]}}}
{"ccle_metabolomics":{"corr":{"top":[["phosphocreatine",0.4554426656774685,-42.10221137549511,812]],"bottom":[["alpha-hydroxybutyrate",-0.3992135105256732,-31.691738772142767,812],["C36:4 PC-B",-0.38645346727571406,-29.592642814880612,812],["C38:5 PC",-0.4042474977211853,-32.54541894391701,812],["C40:6 PC",-0.3783914854364272,-28.31325946671543,812]]},"para":{"top":[],"bottom":[["acetylglycine",-0.3012939706054378,-17.775315412284016,812]]}}}
{"ccle_rrbs_enhancer_clusters":{"corr":{"top":[],"bottom":[["2-85999236-86003005-0_enh",-0.4186827054227119,-35.49704299781786,822],["6-10408738-10412045-2_enh",-0.45760642271201574,-42.69708912964112,815]]},"para":{"top":[],"bottom":[]}}}
{"ccle_mirna":{"corr":{"top":[["hsa-miR-24_miR00261.1",0.5648612639166357,-69.90311341617544,824],["hsa-miR-27a_miR00265.1",0.5199830067458019,-57.54084115881385,824]],"bottom":[["hsa-miR-140-3p_miR00149.1",-0.30220661789287834,-18.13585466644299,824],["hsa-miR-150_miR00169.1",-0.5424766621063177,-63.503571982016695,824]]},"para":{"top":[],"bottom":[]}}}
{"ccle_proteomics":{"corr":{"top":[["TTC17_G3XAB3",0.5754330118597778,-11.651860303434166,125],["EFNA5_P52803",0.45900351001623324,-13.49580152556688,246]],"bottom":[]},"para":{"top":[["FAT4_Q6V0I7",0.4059835771687295,-8.368719635029468,194],["DYNC1LI2_O43237",0.3407555465429331,-9.41486212250997,320],["PDE6C_P51160",0.4195330862216857,-6.1706579732712346,130]],"bottom":[["LIPE_Q05469",-0.4374738203359484,-7.995818403687607,157],["UNNAMED_S4R362",-0.44182995260734537,-9.369642905113983,182],["DOK3_Q7L591",-0.44998183290759547,-9.8324336476173,184]]}}}
{"depmap_gene_tpm":{"corr":{"top":[["RASAL2_9462",0.6203209218144231,-88.16855971136982,825],["RAB13_5872",0.6318258944421237,-92.41109235427884,825],["SNX7_51375",0.6208009179725348,-88.34203416456792,825]],"bottom":[["CD38_952",-0.6947102391551588,-119.16639270003313,825],["TMC8_147138",-0.7006182017379633,-122.04046073992808,825],["NLRC3_197358",-0.6962259264996874,-119.89704334916733,825],["RHOH_399",-0.7032337499388001,-123.33560184839675,825],["TBC1D10C_374403",-0.699723343630861,-121.60059326564678,825]]},"para":{"top":[["HAS3_3038",0.4469699141182551,-41.038054854503734,825],["MPP3_4356",0.4552012663135285,-42.7120949446223,825]],"bottom":[["ADA2_51816",-0.4188450789637265,-35.653016818661065,825],["IL16_3603",-0.46357245397881874,-44.46215161364748,825]]}}}
{"avana":{"corr":{"top":[["ETF1_2107",0.29261504178701153,-9.886510395164725,464],["GINS2_51659",0.3613151880693103,-15.028868075722277,464],["LRR1_122769",0.3362711350182967,-13.002858478029319,464],["NUDT21_11051",0.305092456564403,-10.63877730891062,460],["ZNF559_84527",0.295335963873676,-10.06602365949457,464]],"bottom":[["C19orf53_28974",-0.3302123141183757,-12.539521465325757,464],["TENT5C_54855",-0.3129751247457493,-11.276466226490468,464],["VEZT_55591",-0.2790107510238955,-9.01720584122267,464]]},"para":{"top":[["ANKLE2_23141",0.23319523947515874,-6.422772867472805,464],["ETF1_2107",0.2561844059293456,-7.661789148668341,464],["UBL5_59286",0.2620649391430859,-7.9988402225384325,464],["ZNF559_84527",0.2541048643040948,-7.544582600001971,464],["ZNF586_54807",0.24071056145108555,-6.814206085268539,464]],"bottom":[]}}}
{"drive":{"corr":{"top":[["AQP4_361",0.3871177087181524,-12.263606778158,323]],"bottom":[["TRIL_9865",-0.27500353071178724,-6.11044001047654,313]]},"para":{"top":[["NCAM1_4684",0.26754562973337875,-5.804406829482171,313],["VAV2_7410",0.26110769098761416,-5.579482255935781,315]],"bottom":[]}}}
{"achilles":{"corr":{"top":[["CLIP3_25999",0.38143016891361026,-8.092283377530569,214],["SPATA41_388182",0.3120399687760459,-9.117486353321475,372]],"bottom":[["UFL1_23376",-0.3609374949551489,-7.257365285460833,214],["ITLN1_55600",-0.3083868141282872,-5.3688377821179865,214],["ESAM_90952",-0.3368165052665498,-6.346980969013355,214]]},"para":{"top":[["SPATA41_388182",0.2841116914182113,-7.610460248811941,372],["ARHGEF35_445328",0.33366218114210405,-6.233497086121977,214],["OGDH_4967",0.29939512453321465,-8.415180271273437,372]],"bottom":[["CLEC4E_26253",-0.27794792060200857,-7.2992825836297754,372],["HS6ST3_266722",-0.30306091737114144,-8.615334744574346,372],["IL6ST_3572",-0.2852676069929913,-7.669664078287473,372],["GNG12_55970",-0.2842678179816541,-4.615047349062519,214]]}}}
{"ccle_rrbs_tss1kb":{"corr":{"top":[["LAX1_1_203733283_203734283",0.6976133869053806,-116.79817283265726,799],["ZNF101_19_19777961_19778961",0.9617564225946552,-323.0051853474518,816],["ZNF101_19_19778596_19779596",0.9044232110589083,-303.75344767384917,819]],"bottom":[]},"para":{"top":[["LAX1_1_203733283_203734283",0.4846998248130249,-47.582120091961016,799],["TBC1D10C_11_67170383_67171383",0.5193904797558945,-55.74490241184838,800],["ZNF101_19_19777961_19778961",0.8654790213667982,-245.86172244635105,816],["ZNF101_19_19778596_19779596",0.7749232650900519,-164.2270026433149,819],["RBM38_20_55965453_55966453",0.4729888806290035,-46.158113396525124,819]],"bottom":[["TMEM51_1_15479228_15480228",-0.3699555345773665,-27.23800653446567,819],["LYPD1_2_133427943_133428943",-0.37227048053714606,-27.594184720821527,819],["OSMR-AS1_5_38845931_38846931",-0.40896264824231,-33.59844782725622,818]]}}}
{"ccle_gene_tpm":{"corr":{"top":[["RASAL2_ENSG00000075391.12",0.6207527208204979,-88.00677108709537,822],["RAB13_ENSG00000143545.4",0.6318051242836445,-92.0706006858094,822],["SNX7_ENSG00000162627.12",0.6196467569521649,-87.60904101891583,822]],"bottom":[["TMC8_ENSG00000167895.10",-0.7003610550459748,-121.4738108147566,822],["NLRC3_ENSG00000167984.12",-0.6957102631006398,-119.2161182226189,822],["RHOH_ENSG00000168421.8",-0.7023506853062549,-122.45308838284014,822]]},"para":{"top":[["HAS3_ENSG00000103044.6",0.44741442734985437,-40.98099524844057,822],["MPP3_ENSG00000161647.14",0.45713351581986833,-42.958245115100056,822]],"bottom":[["CECR1_ENSG00000093072.11",-0.4246498358259975,-36.59294631055962,822],["IL16_ENSG00000172349.12",-0.4675341959972659,-45.14600116253403,822],["NRROS_ENSG00000174004.5",-0.4398808168430969,-39.49174234676988,822],["SEPT1_ENSG00000270466.1",-0.5160106114371933,-56.39858860695059,822]]}}}
{"ccle_rrbs_tss_clusters":{"corr":{"top":[["LAX1_3",0.7112728031987284,-125.71990866225342,814],["MIR4724_3",0.6924918242096687,-85.41834107876282,595],["ZNF101_1",0.9789652463715597,-323.0051853474518,829],["ZNF101_5",1.0,-323.0051853474518,829]],"bottom":[["UEVLD_3",-0.6025968838296218,-77.54707361651407,780]]},"para":{"top":[["ZNF101_1",0.9722337213561478,-323.0051853474518,829],["ZNF101_2",0.5983935089287226,-79.49223090288781,814],["ZNF101_5",1.0,-323.0051853474518,829],["ZNF101_6",0.5609335370581874,-69.07396610083718,828]],"bottom":[["C5orf66-AS2_3",-0.39754957283711045,-30.8860583879426,798]]}}}
{"ccle_rrbs_cgi_clusters":{"corr":{"top":[],"bottom":[]},"para":{"top":[["19_19777475_19782146-3",0.5609335370581873,-69.07396610083718,828],["20_4801013_4803579-1",0.5350176197052081,-61.18235492770428,820],["20_55962272_55966656-1",0.5129955553347386,-56.11077862787347,829]],"bottom":[["5_107003130_107006660-3",-0.4119400063481302,-34.569441733905336,829]]}}}
