{"depmap_hotspot":{"corr":{"top":[],"bottom":[["MTHFD2",-0.13001295205573024,-3.7548628256760224,12.0,816.0]]},"para":{"top":[["ADAT2",0.13187008400871827,-4.126048955294524,14.0,814.0],["ATP5S",0.12074759141210106,-3.5875608300519435,12.0,816.0],["MORN3",0.10871193245268912,-3.0521655242449173,14.0,814.0],["ZAR1L",0.13424258390385077,-4.246436209838098,17.0,811.0]],"bottom":[["ANXA7",-0.08617776282562643,-2.1797749814487664,18.0,810.0]]}}}
{"depmap_damaging":{"corr":{"top":[],"bottom":[["AGAP2",-0.14315991189037594,-4.444176082971426,13.0,814.0],["CCDC150",-0.13776511447849465,-4.152134987089524,9.0,818.0]]},"para":{"top":[["CSPP1",0.12327282865891488,-3.7023604546940474,8.0,819.0],["TMX4",0.10913684188218566,-3.0672239006628033,9.0,818.0]],"bottom":[]}}}
{"ccle_proteomics":{"corr":{"top":[["IPO9_Q96P70",0.33131828822494047,-8.961330732359576,322],["MAPK9_P45984",0.33662146982026103,-9.030754432170252,314],["C15orf41_Q9Y2V0",0.3906690435062963,-4.799940362723317,115],["PRPSAP1_Q14558-2",0.3038728905760856,-7.578235050122863,322]],"bottom":[["KDM2A_Q9Y2K7",-0.3686233270075535,-11.074154088411294,322],["PAK6_Q9NQU5",-0.33458429974997284,-5.058348149574747,169]]},"para":{"top":[["IPO9_Q96P70",0.30559921772017606,-7.661146451448287,322]],"bottom":[]}}}
{"depmap_gene_tpm":{"corr":{"top":[["HSPA9_3313",0.2935731252578696,-17.11604469745054,824],["MRPL24_79590",0.26722880992849896,-14.213686711497916,824],["PHB_5245",0.29229034554935907,-16.967457076069177,824],["MRPS23_51649",0.27239441036994144,-14.758363539479932,824]],"bottom":[]},"para":{"top":[["HSPA9_3313",0.28156179112938895,-15.754113791019257,824],["CCT4_10575",0.2618725435640673,-13.661247850130039,824],["MRPL24_79590",0.2641724090859246,-13.896921177796418,824],["GEMIN6_79833",0.2738717646802992,-14.91630481983064,824],["BOLA3_388962",0.26928187693114936,-14.42876287413978,824],["PHB_5245",0.2872088547243848,-16.38625250533511,824],["MRPS23_51649",0.2665039951682415,-14.138197554087299,824]],"bottom":[]}}}
{"avana":{"corr":{"top":[["GJD3_125111",0.2292493370173806,-6.222464418932269,464]],"bottom":[]},"para":{"top":[],"bottom":[]}}}
{"drive":{"corr":{"top":[],"bottom":[]},"para":{"top":[["LOC107984026_107984026",0.2826742752655476,-6.547192535087551,319]],"bottom":[]}}}
{"achilles":{"corr":{"top":[["GOLGB1_2804",0.2847000995571827,-4.647253423166976,215]],"bottom":[["TMEM147_10430",-0.3108175517260992,-5.471612881465879,215]]},"para":{"top":[["KIFC1_3833",0.29702559330697653,-8.26667079141378,371],["C1orf27_54953",0.27837155884864195,-4.459404852226478,215],["VDAC2_7417",0.2861335027767793,-4.690434890936549,215]],"bottom":[["RPL26L1_51121",-0.35400564466460216,-7.017943253437444,215]]}}}
{"ccle_gene_tpm":{"corr":{"top":[["HSPA9_ENSG00000113013.8",0.2953345905201995,-17.26108545459957,821],["MRPL24_ENSG00000143314.8",0.2685579648658977,-14.303180709290155,821],["PHB_ENSG00000167085.7",0.29506825209443205,-17.230068918301598,821]],"bottom":[]},"para":{"top":[["HSPA9_ENSG00000113013.8",0.28365084549707154,-15.930871158333852,821],["CCT4_ENSG00000115484.10",0.2616708954079744,-13.593718920699823,821],["MRPL24_ENSG00000143314.8",0.26517214282136947,-13.951817653126016,821],["GEMIN6_ENSG00000152147.6",0.27475159396347076,-14.95892228629989,821],["BOLA3_ENSG00000163170.7",0.27143260001040315,-14.605430533234745,821],["PHB_ENSG00000167085.7",0.28970103505564077,-16.611949246160762,821],["MRPS23_ENSG00000181610.8",0.2608232907876507,-13.507825884777741,821]],"bottom":[]}}}
{"ccle_rrbs_tss_clusters":{"corr":{"top":[["UFSP1_2",0.47998723502542984,-47.40954422904631,814],["HEXIM1_2",0.5325189196295915,-57.53764261746345,779]],"bottom":[]},"para":{"top":[],"bottom":[]}}}
{"ccle_rrbs_cgi_clusters":{"corr":{"top":[["7_156734145_156736750-2",0.4873933334488002,-49.420209555641385,820],["19_39282515_39285662-1",0.8426750890266574,-223.3057108163778,827],["19_39282515_39285662-3",0.5045181733226934,-51.89977551161466,796],["18_12036413_12041359-1",0.5602134188954162,-68.45199755034136,823]],"bottom":[]},"para":{"top":[["19_39282515_39285662-1",0.7918793467002857,-178.16051226540745,827],["19_39282515_39285662-3",0.5453215973504144,-62.13692897184359,796]],"bottom":[]}}}
