{"depmap_hotspot":{"corr":{"top":[],"bottom":[]},"para":{"top":[["DCAKD",0.12192415249556313,-3.684067235578866,13.0,827.0]],"bottom":[]}}}
{"depmap_damaging":{"corr":{"top":[],"bottom":[]},"para":{"top":[["FRY",0.14649565274778628,-4.952338681625345,20.0,819.0],["TRANK1",0.11325742180073073,-3.281795526287298,14.0,825.0]],"bottom":[]}}}
{"achilles":{"corr":{"top":[],"bottom":[]},"para":{"top":[],"bottom":[["VPS51_738",-0.31965642000902283,-5.890744980957368,220]]}}}
{"ccle_rrbs_tss_clusters":{"corr":{"top":[["PTGER1_2",0.4942135193786282,-51.603455526475905,830]],"bottom":[]},"para":{"top":[["EVA1B_2",0.4727718049722824,-47.1044870202329,837],["EVA1B_5",0.47138226227364693,-46.468177665341344,831]],"bottom":[]}}}
{"ccle_rrbs_cgi_clusters":{"corr":{"top":[["19_3669902_3674121-2",0.7570752915292758,-156.1744032133384,839]],"bottom":[]},"para":{"top":[["19_3669902_3674121-2",0.7172834090838985,-132.7438469889518,839]],"bottom":[]}}}
