{"depmap_hotspot":{"corr":{"top":[],"bottom":[["BRI3BP",-0.1388309341477315,-4.213457194715611,13.0,815.0],["FCAR",-0.1658314935509293,-5.794850984097084,19.0,809.0],["MT-ND4",-0.12894077277202182,-3.7010121231562074,299.0,529.0],["TLR6",-0.14152304486407027,-4.3590786845005445,26.0,802.0],["TRIM29",-0.14337512557807502,-4.460795482363385,44.0,784.0]]},"para":{"top":[["BIRC8",0.11105575681301678,-3.152755853914966,20.0,808.0],["MRPL35",0.10752549191279462,-3.0018694440806217,10.0,818.0]],"bottom":[]}}}
{"depmap_damaging":{"corr":{"top":[],"bottom":[["HERC5",-0.1251853397368639,-3.5119750760849437,13.0,814.0],["PHTF2",-0.1286794694172509,-3.6840904709726208,11.0,816.0],["PVRIG",-0.125120747530874,-3.50883434625548,11.0,816.0]]},"para":{"top":[["ELMOD2",0.10659264128514576,-2.9600286078294005,9.0,818.0],["TAS2R46",0.11436858932290933,-3.2946517356770624,13.0,814.0]],"bottom":[]}}}
{"ccle_proteomics":{"corr":{"top":[],"bottom":[]},"para":{"top":[],"bottom":[["TRIB3_J3KR25",-0.3147030736611433,-4.224379440577644,157]]}}}
{"ccle_rrbs_tss_clusters":{"corr":{"top":[["LINC00665_1",0.4532258050974277,-40.04723958361232,780],["LINC00665_2",1.0,-323.0051853474518,828]],"bottom":[["CHMP7_1",-0.1812667376295676,-6.596547817798555,798]]},"para":{"top":[["LINC00665_1",0.5299199109005163,-56.958338836670414,780],["LINC00665_2",1.0,-323.0051853474518,828]],"bottom":[]}}}
{"ccle_rrbs_cgi_clusters":{"corr":{"top":[["19_36820395_36824690-1",0.4532258050974277,-40.04723958361232,780]],"bottom":[["8_23101775_23106601-1",-0.1812667376295676,-6.596547817798555,798]]},"para":{"top":[["19_36820395_36824690-1",0.5299199109005162,-56.958338836670386,780]],"bottom":[]}}}
