{"depmap_hotspot":{"corr":{"top":[],"bottom":[["ANXA2R",-0.12467997370813842,-3.5237799004890813,8.0,829.0],["BLVRB",-0.14500974130363536,-4.59528655987323,11.0,826.0],["CYSTM1",-0.14031183415988072,-4.3342253339198304,10.0,827.0],["ENTPD3",-0.12470320431968514,-3.52491851591099,23.0,814.0],["GYPC",-0.15413512934490012,-5.125802789445976,8.0,829.0],["ITIH2",-0.14395162923149385,-4.535775842138975,63.0,774.0],["KLHL22",-0.1288128271690949,-3.7294109453547133,41.0,796.0],["MEI1",-0.14106456583231206,-4.375506298742774,57.0,780.0],["NDRG2",-0.14093880575515275,-4.368594896822285,25.0,812.0],["NSG2",-0.16748723150418451,-5.9584626027757075,11.0,826.0],["OR10G3",-0.17711908615695043,-6.601349283046113,22.0,815.0],["PSMG4",-0.15177935651435398,-4.985870346213811,15.0,822.0],["RAB20",-0.16007617495255416,-5.487962950170333,11.0,826.0],["RILPL2",-0.13856158028857143,-4.239044882127024,9.0,828.0],["RNF183",-0.14725723962203188,-4.723068551684425,14.0,823.0],["RPL7",-0.13273456440036513,-3.9302601477641343,17.0,820.0],["TMEM8C",-0.14642707126556218,-4.675650764364008,19.0,818.0],["TNFRSF10D",-0.14335745441941053,-4.502539739734565,13.0,824.0],["U2AF1",-0.15852010857666568,-5.391820501166337,28.0,809.0],["UBE2C",-0.1370570401674834,-4.158126055606044,13.0,824.0],["ZSWIM6",-0.1344114089901025,-4.0178471147090535,55.0,782.0]]},"para":{"top":[["HLA-DPA1",0.12305076415488597,-3.727181387526073,10.0,827.0],["SLFN14",0.1326658580285717,-4.202754061217453,16.0,821.0]],"bottom":[["AC104057.1",-0.1114112346202208,-3.194040872733729,8.0,829.0],["AGPAT1",-0.11785124449956605,-3.483404173936789,11.0,826.0],["AP5S1",-0.0956502240919692,-2.5457983986277646,14.0,823.0],["CRIPT",-0.10088346916766554,-2.7516548065538897,9.0,828.0],["DUSP28",-0.09855218244918253,-2.658678256066283,8.0,829.0],["EXOSC4",-0.10127166644890738,-2.767354072342419,10.0,827.0],["FAM46C",-0.1313772911443341,-4.137396306855965,26.0,811.0],["HENMT1",-0.0950322212922993,-2.5219790125016424,11.0,826.0],["NUDC",-0.11920471659761281,-3.545935025146608,10.0,827.0],["PPP1R14B",-0.08866646842836459,-2.284871729181451,8.0,829.0]]}}}
{"depmap_damaging":{"corr":{"top":[],"bottom":[["ACTR6",-0.11706614109919557,-3.157809116184137,8.0,828.0],["HAX1",-0.12553515296793843,-3.56214329221913,9.0,827.0],["PPP1R12C",-0.16823989842010664,-6.000939940506757,10.0,826.0],["PTCH1",-0.1537188703177117,-5.095494003473423,22.0,814.0],["SIPA1L3",-0.1286546622019975,-3.717571427709074,11.0,825.0],["SORBS1",-0.1296490625524584,-3.7678562969824845,8.0,828.0],["ZNF148",-0.13434807204839666,-4.01033110220167,9.0,827.0]]},"para":{"top":[],"bottom":[["GPR113",-0.1174419634300519,-3.4612110199094386,8.0,828.0],["NR4A2",-0.09457279604390371,-2.5022658543558753,11.0,825.0],["PCDHB11",-0.08511766755099054,-2.1568779089833345,9.0,827.0],["PKP2",-0.08391257564826599,-2.114943799479611,8.0,828.0],["TMEM198",-0.1165084100705009,-3.4186567476535252,9.0,827.0]]}}}
{"ccle_proteomics":{"corr":{"top":[["LOXL1_Q08397",0.4849880163590283,-8.780317336593585,138]],"bottom":[]},"para":{"top":[],"bottom":[]}}}
{"drive":{"corr":{"top":[["MARCH5_54708",0.2874259821408256,-6.776283870984794,320]],"bottom":[]},"para":{"top":[["COL5A1_1289",0.30340874773501997,-7.46957156761453,318],["KLHL26_55295",0.30575701790339727,-7.5809168093597386,318],["PPDPF_79144",0.2652325371049983,-5.793753592836284,318]],"bottom":[]}}}
{"ccle_rrbs_tss1kb":{"corr":{"top":[["KHNYN_14_24897491_24898491",0.4388271183043657,-39.42653815764452,825]],"bottom":[["AMZ2_17_66201269_66202269",-0.3168186746236316,-20.011255248208958,827]]},"para":{"top":[],"bottom":[]}}}
{"ccle_rrbs_tss_clusters":{"corr":{"top":[["DMPK_4",0.5657721568537504,-71.1824318916918,836]],"bottom":[["RFXAP",-0.28636463425226905,-16.460353679132506,833],["AMZ2_4",-0.29059355577685575,-17.024444272966306,837]]},"para":{"top":[],"bottom":[]}}}
{"ccle_rrbs_cgi_clusters":{"corr":{"top":[["11_615414_618068-1",0.43539768308842625,-38.85262647141528,827],["19_46278554_46283042-1",0.9774556207804926,-323.0051853474518,837]],"bottom":[["17_66201681_66204196-1",-0.32006489636937624,-20.617560788578796,835],["15_56283260_56285778-3",-0.3242931744461136,-21.173039947832777,835],["13_37391213_37396092-1",-0.28636463425226905,-16.460353679132506,833]]},"para":{"top":[["19_46278554_46283042-1",0.9691776725107196,-323.0051853474518,837]],"bottom":[]}}}
