{"depmap_hotspot":{"corr":{"top":[],"bottom":[["C8orf87",-0.14386064652605696,-4.492447775333795,8.0,821.0],["FCER2",-0.15749655646048616,-5.283516473225852,11.0,818.0],["POTEM",-0.1657225560884574,-5.794216107117692,11.0,818.0],["SCAMP5",-0.10678479535447845,-2.6822119680537098,14.0,815.0],["SMCO2",-0.14163122324704872,-4.3696237115039755,13.0,816.0],["U82695.9",-0.17765614540919786,-6.5805785551828535,10.0,819.0]]},"para":{"top":[["KLHL20",0.16581962957287572,-6.038044512698502,35.0,794.0]],"bottom":[]}}}
{"depmap_damaging":{"corr":{"top":[],"bottom":[["ADAMTS7",-0.13753962977220505,-4.144543162768476,8.0,820.0],["DGKB",-0.13551950058658435,-4.037946138432415,12.0,816.0],["GPR123",-0.14968287036223224,-4.816647766224788,8.0,820.0],["PIK3R4",-0.14087179632556368,-4.323609388784254,8.0,820.0],["SHROOM2",-0.14431601803735375,-4.512949800033193,8.0,820.0],["ZNF750",-0.14536579794265966,-4.571522395116218,8.0,820.0]]},"para":{"top":[["AFF3",0.11800079695953974,-3.4609077661142313,9.0,819.0]],"bottom":[]}}}
{"ccle_proteomics":{"corr":{"top":[["SLC43A1_O75387",0.36417534535670776,-4.395666197605962,121]],"bottom":[["PIPOX_Q9P0Z9",-0.424036236408806,-5.183437921099801,105]]},"para":{"top":[],"bottom":[]}}}
{"achilles":{"corr":{"top":[],"bottom":[["CTAGE4_100128553",-0.29124570746598405,-4.846364507484271,215]]},"para":{"top":[],"bottom":[]}}}
{"ccle_gene_tpm":{"corr":{"top":[],"bottom":[["RP11-760D2.5_ENSG00000233288.1",-0.37558219081239935,-28.20861546335478,822]]},"para":{"top":[],"bottom":[]}}}
{"ccle_rrbs_tss_clusters":{"corr":{"top":[["LIG1_3",0.9999999999999999,-323.0051853474518,829],["MIS18A_1",0.4422986326538953,-39.72795929675675,817]],"bottom":[]},"para":{"top":[["LIG1_3",0.9999999999999999,-323.0051853474518,829]],"bottom":[]}}}
{"ccle_rrbs_cgi_clusters":{"corr":{"top":[["19_2148990_2153963-1",0.4404492269257727,-11.510943244796124,228],["1_9668617_9672868-1",0.4448439834445978,-40.75751990123804,828],["21_33648908_33653513-1",0.4422986326538953,-39.72795929675675,817]],"bottom":[]},"para":{"top":[],"bottom":[]}}}
