{"depmap_hotspot":{"corr":{"top":[["MUC12",0.1289464036445876,-3.709043701485486,96.0,734.0]],"bottom":[]},"para":{"top":[["CSNK2B",0.12534572136919045,-3.812242894096187,10.0,820.0],["LY6D",0.11225931130901963,-3.2106401383565077,9.0,821.0],["METTL21B",0.12349902014141106,-3.7238846705367,11.0,819.0],["NSUN4",0.1250994635290973,-3.8005872067779163,15.0,815.0],["PAGR1",0.11658635694054947,-3.4032694166592856,12.0,818.0],["PPP1R1C",0.12108103006223028,-3.609703029876939,8.0,822.0],["RPE",0.12957342962026128,-4.018879322971708,8.0,822.0]],"bottom":[]}}}
{"depmap_damaging":{"corr":{"top":[],"bottom":[]},"para":{"top":[["AKR1B15",0.12669283931540096,-3.8739194389375875,14.0,815.0],["GRIN2B",0.10003489554432997,-2.698476379276147,9.0,820.0],["HMGN5",0.12632825650871862,-3.8559245180012343,8.0,821.0],["MASP2",0.10946730145633046,-3.086901407342288,8.0,821.0],["MYO3B",0.15647002965206278,-5.472658674216014,15.0,814.0],["MYOCD",0.11854366177560519,-3.4889901320408776,9.0,820.0],["NLRP11",0.10167784986341648,-2.764056009608138,10.0,819.0],["ROBO3",0.11920402443843084,-3.5194737083221015,12.0,817.0],["SMG1",0.11449832476596315,-3.3065188724917056,12.0,817.0],["ZNF536",0.1098770322625083,-3.104652610440002,12.0,817.0]],"bottom":[]}}}
{"ccle_rrbs_tss1kb":{"corr":{"top":[["DMTN_8_21914374_21915374",0.5213557076345953,-51.875507728339244,737],["MIR3154_9_131007309_131008309",0.5324980240734196,-59.13138861979847,801],["BATF2_11_64757749_64758749",0.503579009921648,-51.93526862088468,800],["NFAM1_22_42828401_42829401",0.5417152423977135,-55.79902297098486,725]],"bottom":[]},"para":{"top":[["LOC101926963_7_641481_642481",0.5288392033581861,-59.33458874355174,817],["MIR3154_9_131007309_131008309",0.5056355057746593,-52.48390701538688,801],["BATF2_11_64757749_64758749",0.5185256293399675,-55.53130671570975,800],["NFAM1_22_42828401_42829401",0.5187797151323008,-50.46667899611132,725]],"bottom":[]}}}
{"ccle_rrbs_cgi_clusters":{"corr":{"top":[["19_46377883_46382207-2",0.6366848607044823,-94.37044080442361,826],["22_50743415_50748125-3",0.5203830459154117,-57.09229951952555,816],["19_46377883_46382207-1",0.7045198586799383,-124.27606808659495,827]],"bottom":[]},"para":{"top":[["19_46377883_46382207-2",0.676238719994662,-110.74783707890755,826],["19_46377883_46382207-1",0.6902754517052212,-117.33610717769419,827],["6_41470816_41475291-1",0.5315193594716512,-60.615219158638915,825]],"bottom":[]}}}
