{"depmap_hotspot":{"corr":{"top":[],"bottom":[["FAM19A3",-0.11724603581494585,-3.1693648006341406,9.0,828.0]]},"para":{"top":[["APOOL",0.13286257662041545,-4.212624832441499,11.0,826.0],["ELOVL3",0.11714298360830754,-3.4507370243927675,8.0,829.0],["MRO",0.10412880289834378,-2.8841024212321202,10.0,827.0],["SPPL2A",0.12571303727042615,-3.855889905695593,18.0,819.0],["TAS2R3",0.11600565931559384,-3.39924542244963,16.0,821.0],["UFD1L",0.12601951714401835,-3.8705527721812283,10.0,827.0]],"bottom":[]}}}
{"depmap_damaging":{"corr":{"top":[],"bottom":[]},"para":{"top":[["GABRG2",0.10977261633688383,-3.119931007760343,9.0,827.0],["GPBP1",0.1166367658447014,-3.4246439713336634,12.0,824.0]],"bottom":[]}}}
{"ccle_proteomics":{"corr":{"top":[],"bottom":[["FYB_O15117-3",-0.4671365691796886,-9.2681517995577,159]]},"para":{"top":[],"bottom":[["HLA-DRB1_P20039",-0.36938123161652714,-4.347477118863161,116],["FYB_O15117-3",-0.4311349983400375,-7.853406392254124,159]]}}}
{"depmap_gene_tpm":{"corr":{"top":[],"bottom":[]},"para":{"top":[["TBX15_6913",0.34494409539315624,-23.95924853400206,833]],"bottom":[]}}}
{"drive":{"corr":{"top":[["CHRM2_1129",0.2717861878145367,-6.063840518280617,318]],"bottom":[]},"para":{"top":[["PHF12_57649",0.29261117714776563,-7.010308781687507,320]],"bottom":[["PANK3_79646",-0.2599761356860891,-5.582255138838756,318]]}}}
{"ccle_rrbs_tss1kb":{"corr":{"top":[["TBX15_1_119532179_119533179",0.5844542381378247,-76.10250761783071,826]],"bottom":[]},"para":{"top":[["TBX15_1_119532179_119533179",0.6019156591930755,-81.8353381861566,826]],"bottom":[]}}}
{"ccle_gene_tpm":{"corr":{"top":[],"bottom":[]},"para":{"top":[["TBX15_ENSG00000092607.9",0.3465392594137276,-24.10316405053352,830]],"bottom":[]}}}
{"ccle_rrbs_tss_clusters":{"corr":{"top":[["TBX15_2",0.6255990862087639,-91.38986283151534,837],["LOC105378933_1",0.6085648200481055,-85.11991710220121,836]],"bottom":[]},"para":{"top":[["TBX15_2",0.6455655001436974,-99.12683646617535,837],["LOC105378933_1",0.550358790256985,-66.64520562620064,836],["MIR199B_1",0.5144979159349987,-56.622713379625075,831]],"bottom":[]}}}
{"ccle_rrbs_cgi_clusters":{"corr":{"top":[["1_119529991_119534196-2",0.613773288062819,-87.06697920276031,837],["1_119541821_119546339-1",0.6085648200481055,-85.11991710220121,836],["1_119533666_119537987-2",0.5883133683433671,-77.43204441910471,827],["1_119541056_119545454-1",0.6005051721713,-82.33284889761926,836],["1_119524782_119529192-3",0.6070273547428793,-84.381942998875,834]],"bottom":[]},"para":{"top":[["1_119524782_119529192-1",0.5294290602820825,-57.767906641508034,793],["1_119524782_119529192-2",0.5653496517224962,-71.13874140224301,837],["1_119529991_119534196-2",0.6257837606212797,-91.45885068574243,837],["1_119541821_119546339-1",0.550358790256985,-66.64520562620064,836],["1_119541056_119545454-1",0.5441671611080263,-64.88826441043051,836],["1_119524782_119529192-3",0.5935861864361744,-79.81357668479026,834]],"bottom":[]}}}
