{"depmap_hotspot":{"corr":{"top":[],"bottom":[]},"para":{"top":[["DGUOK",0.09608437419842118,-2.278158800136695,8.0,702.0],["GLYATL3",0.12143293108487851,-3.2125639021942503,16.0,694.0],["GYPB",0.10302699578500929,-2.515859577708965,9.0,701.0],["MRPL37",0.1209642590235706,-3.193625116091393,16.0,694.0],["PREB",0.1277606066923029,-3.474364064845516,13.0,697.0],["RFC5",0.13959397346055988,-3.995421319023792,16.0,694.0],["TTPA",0.15349545096178172,-4.65956136624601,14.0,696.0]],"bottom":[["TK2",-0.10630674515169343,-2.632973641804076,11.0,699.0]]}}}
{"depmap_damaging":{"corr":{"top":[],"bottom":[]},"para":{"top":[["SULT1A1",0.13341077421618996,-3.713578534040165,8.0,701.0],["TMTC3",0.10850365649166964,-2.710363596120229,14.0,695.0],["UBA5",0.13112113059441446,-3.6140088207918004,10.0,699.0],["ZKSCAN2",0.12591467378374566,-3.392761461571144,8.0,701.0]],"bottom":[]}}}
{"prism_primary_logfold":{"corr":{"top":[["nanchangmycin_BRD-A73871920-236-03-6::2.5::HTS",0.24129367743840602,-6.102947306657616,409]],"bottom":[]},"para":{"top":[["nanchangmycin_BRD-A73871920-236-03-6::2.5::HTS",0.23390274711822379,-5.761445723760218,409]],"bottom":[]}}}
{"ccle_proteomics":{"corr":{"top":[],"bottom":[["FAM115C_A6NFQ2",-0.33900991800228136,-4.2109302058831695,134]]},"para":{"top":[],"bottom":[["IFNAR2_P48551",-0.33416106675368557,-3.2232562368536635,102]]}}}
{"achilles":{"corr":{"top":[["C21orf59-TCP10L_110091775",0.31484281079126847,-4.728987694269712,178]],"bottom":[]},"para":{"top":[["C21orf59-TCP10L_110091775",0.31270468378528576,-4.669422324078601,178],["FAM168B_130074",0.33038978678693104,-5.176017409330114,178]],"bottom":[["ETFB_2109",-0.2530809731967099,-5.341670697410019,320]]}}}
{"ccle_rrbs_cgi_clusters":{"corr":{"top":[],"bottom":[]},"para":{"top":[],"bottom":[]}}}
