{"depmap_hotspot":{"corr":{"top":[],"bottom":[["APOA1BP",-0.13241193058699569,-3.3485989603786197,18.0,681.0],["CCNB1",-0.12142920453412721,-2.8869701105712644,10.0,689.0],["CNOT7",-0.12338753930094495,-2.9666423611206842,16.0,683.0],["DYNC2LI1",-0.14831232909201167,-4.0815958027949275,18.0,681.0],["FAM107B",-0.1075094628988686,-2.3532753564599234,14.0,685.0],["FECH",-0.12258728571791802,-2.9339472953906394,17.0,682.0],["GPLD1",-0.12364175693817035,-2.9770685533947963,45.0,654.0],["IZUMO3",-0.15010766303079484,-4.16923264141638,11.0,688.0],["KCNK17",-0.1334360006364875,-3.393489616691778,17.0,682.0],["LRIT2",-0.12654980658471854,-3.0977077252143506,27.0,672.0],["MAPT",-0.1127651763212987,-2.548102332620674,54.0,645.0],["PKHD1L1",-0.1392680599655026,-3.6551991047023757,160.0,539.0],["SPATA8",-0.1612023332369511,-4.733042616961669,12.0,687.0]]},"para":{"top":[["CIAO1",0.09879546988711738,-2.3433479983592678,10.0,689.0],["EXOSC4",0.11567293159232915,-2.9489473536509965,8.0,691.0],["KRTAP10-10",0.10897697469946438,-2.699153488150849,9.0,690.0],["MARC2",0.11382606725049443,-2.87884195228664,9.0,690.0]],"bottom":[["AC096582.1",-0.1082953715462517,-2.6746164945713433,13.0,686.0],["APOA1BP",-0.1269982382073494,-3.4008580987489294,18.0,681.0],["BDH2",-0.08471211810983051,-1.898444537323178,10.0,689.0],["C19orf40",-0.0831372056530156,-1.852070905513451,10.0,689.0],["C7orf13",-0.11656704567803831,-2.9835037241927784,12.0,687.0],["C9orf135",-0.10028236593282454,-2.3936407282275796,13.0,686.0],["CCNB1",-0.1144234473432033,-2.9014976139167774,10.0,689.0],["CLEC17A",-0.10682213842408261,-2.6216758352972365,15.0,684.0],["CNOT7",-0.10624733703126878,-2.6011871656531684,16.0,683.0],["DYNC2LI1",-0.147979173680904,-4.333984002771392,18.0,681.0],["EEF1E1",-0.10364135436962454,-2.509113702364407,10.0,689.0],["FAM107B",-0.10800053176178423,-2.6639941302379,14.0,685.0],["FECH",-0.11440423921444051,-2.901032545774075,17.0,682.0],["IZUMO3",-0.1373535656368178,-3.8453596616042134,11.0,688.0],["KCNK17",-0.11638880254775222,-2.9768104923305625,17.0,682.0],["MRPL55",-0.09707599725272638,-2.285980952561292,8.0,691.0],["OR4X1",-0.10635012409723163,-2.604719418351604,12.0,687.0],["PSENEN",-0.10617158877518666,-2.5981429045036397,8.0,691.0],["SMAP2",-0.09944287980503942,-2.3649974449705056,8.0,691.0],["SPATA33",-0.10856517484645802,-2.6843508989685554,12.0,687.0],["SPATA8",-0.14503044780559737,-4.194972058991403,12.0,687.0],["VCX3B",-0.09588452151966365,-2.2469527374629377,11.0,688.0]]}}}
{"depmap_damaging":{"corr":{"top":[],"bottom":[["ABCA8",-0.14901878470149446,-4.1108041359002225,21.0,677.0],["CACNA1C",-0.12944681111966636,-3.2164620984300645,15.0,683.0],["HPS3",-0.10713680428243982,-2.336998509058605,14.0,684.0],["MYLK",-0.11839703270039977,-2.762522277797384,10.0,688.0],["PAPPA",-0.09516397100447135,-1.9248364416361836,8.0,690.0],["PRRG1",-0.13211798854197027,-3.3316740098078172,16.0,682.0],["STRBP",-0.12768898922639285,-3.1418132591258754,8.0,690.0]]},"para":{"top":[],"bottom":[["ABCA8",-0.15412024922524897,-4.625705416029862,21.0,677.0],["ACACA",-0.10521670730838707,-2.5619415616260435,15.0,683.0],["ADI1",-0.10203320704384462,-2.4507382463405363,8.0,690.0],["ATG4C",-0.10589630422185797,-2.5856608545013438,8.0,690.0],["CACNA1C",-0.11461905136573228,-2.9060067711999205,15.0,683.0],["COBLL1",-0.10847170234053356,-2.677923540067205,8.0,690.0],["COL20A1",-0.10371727081936331,-2.50916773545722,10.0,688.0],["MAN2A1",-0.11282907921717564,-2.8385258845592056,13.0,685.0],["MYLK",-0.10562952954386431,-2.5763347573923574,10.0,688.0],["NSRP1",-0.09759403397086434,-2.300819615127377,8.0,690.0],["PRRG1",-0.12540127955783567,-3.3312485270782095,16.0,682.0],["RAPGEF6",-0.11253484852302026,-2.8275665810300277,14.0,684.0]]}}}
{"ccle_proteomics":{"corr":{"top":[],"bottom":[["CT45A1_Q5HYN5",-0.32755531967468693,-5.530141442135535,195]]},"para":{"top":[["CST7_O76096",0.32185315364170747,-5.076682756065875,184]],"bottom":[]}}}
{"depmap_gene_tpm":{"corr":{"top":[],"bottom":[]},"para":{"top":[],"bottom":[["CT45A3_441519",-0.27605056174697984,-12.894718013054991,695]]}}}
{"avana":{"corr":{"top":[],"bottom":[]},"para":{"top":[],"bottom":[["C1QTNF6_114904",-0.20355367265682875,-4.318611111178899,393]]}}}
{"achilles":{"corr":{"top":[],"bottom":[["CATSPERD_257062",-0.2853440332160079,-3.8488860394638884,173]]},"para":{"top":[],"bottom":[["SEMA3C_10512",-0.23420272648414447,-4.532482312048323,312],["CATSPERD_257062",-0.26335272280953104,-3.3335393313735406,173]]}}}
{"ccle_rrbs_tss1kb":{"corr":{"top":[["LOC100287497_1_224179431_224180431",0.7829357725493493,-143.02764079714433,689],["KLHDC4_16_87799598_87800598",0.3619140560305131,-21.992171763292344,688]],"bottom":[]},"para":{"top":[["LOC100287497_1_224179431_224180431",0.8045736371937152,-156.90521508977855,689],["KLHDC4_16_87799598_87800598",0.35658728942549456,-21.331255226367425,688]],"bottom":[]}}}
{"ccle_rrbs_tss_clusters":{"corr":{"top":[["LOC100288069_1",0.5125926652644377,-46.37025619298327,684],["LOC100287497_1",1.0,-323.0051853474518,699],["LOC100287497_2",0.5891132265774233,-60.976627022852306,647],["CGGBP1_1",0.3888780899051473,-23.48607414616915,631],["KLHDC4_2",0.40963919251670955,-27.730650228120417,669],["PRAME_2",0.4181267691595603,-11.954241279336626,266]],"bottom":[]},"para":{"top":[["LOC100288069_1",0.47988998806061106,-39.96164563739965,684],["LOC100287497_1",1.0,-323.0051853474518,699],["LOC100287497_2",0.5275532010593448,-46.90936306949215,647],["CGGBP1_1",0.3796676509201392,-22.341498843771838,631],["KLHDC4_2",0.4024304339897688,-26.707795471682335,669],["PRAME_2",0.41397113694841,-11.710349356416705,266]],"bottom":[["LOC440910_2",-0.2337901061251347,-2.7601877641796935,177]]}}}
{"ccle_rrbs_cgi_clusters":{"corr":{"top":[["1_224178262_224182824-2",0.5891132265774233,-60.976627022852306,647],["16_87797123_87801747-2",0.40963919251670955,-27.730650228120417,669],["22_22899386_22903698-2",0.4181267691595603,-11.954241279336626,266],["1_711984_716547-1",0.5125926652644377,-46.37025619298327,684]],"bottom":[]},"para":{"top":[["1_224178262_224182824-2",0.5275532010593447,-46.90936306949215,647],["16_87797123_87801747-2",0.4024304339897688,-26.707795471682335,669],["22_22899386_22903698-2",0.41397113694841,-11.710349356416705,266],["1_711984_716547-1",0.47988998806061106,-39.96164563739965,684]],"bottom":[]}}}
