{"depmap_hotspot":{"corr":{"top":[],"bottom":[["C2CD2",-0.11727237967474097,-2.5903789015334002,28.0,631.0],["DNAJC13",-0.11518506510739566,-2.5135983841169067,55.0,604.0],["ILVBL",-0.12663715792762362,-2.9497836105499102,28.0,631.0],["USP5",-0.10999418620743437,-2.3278677483540315,29.0,630.0],["YY1AP1",-0.10662537169041958,-2.2112864603503666,29.0,630.0]]},"para":{"top":[["KRTAP10-9",0.09166653498867172,-2.0280601788456525,9.0,650.0],["MAP1LC3B2",0.10848347463373673,-2.5683751599113904,11.0,648.0],["OR5D14",0.1158480014368325,-2.828640776606106,21.0,638.0],["SYF2",0.11650156945292983,-2.8518992101019833,8.0,651.0]],"bottom":[["ACTR10",-0.09334747203770662,-2.0787968761412783,10.0,649.0],["C9orf96",-0.12726822820206846,-3.260203768766798,18.0,641.0],["CBWD2",-0.10977335077432065,-2.6129565621300963,13.0,646.0],["CUTA",-0.0919088451246727,-2.03525862542696,8.0,651.0],["CXorf27",-0.11561534515281247,-2.8197047534709863,8.0,651.0],["FAM57A",-0.09180589878188897,-2.0322344577394906,9.0,650.0],["FAM73A",-0.12945415581862263,-3.3468652516291164,21.0,638.0],["HCK",-0.12361328740233878,-3.1183270316825964,20.0,639.0],["INHBC",-0.14470868910383336,-3.986849630490578,18.0,641.0],["LRSAM1",-0.13409339065784073,-3.5349290354494878,23.0,636.0],["NMNAT2",-0.11964524647333,-2.96818162966317,16.0,643.0],["PDCL3",-0.1300752230847723,-3.3714119814890062,12.0,647.0],["RAB27A",-0.10051613585796952,-2.303125114909001,9.0,650.0],["RNF170",-0.10866891776118091,-2.5746325045855887,9.0,650.0],["RP11-697E2.6",-0.08703268886419682,-1.8921174475171718,9.0,650.0],["SDHD",-0.09098569481205046,-2.007677475839806,8.0,651.0],["SORD",-0.10494623124358231,-2.44868610058209,13.0,646.0],["TIMM17B",-0.13095662969315494,-3.406781623482118,11.0,648.0],["TST",-0.11225753543652607,-2.699685843110272,9.0,650.0],["UBXN6",-0.12686626864976877,-3.24446894470141,20.0,639.0]]}}}
{"depmap_damaging":{"corr":{"top":[],"bottom":[["PXDN",-0.08336214397270006,-1.489684007213529,10.0,649.0]]},"para":{"top":[["C8orf37",0.14107385637832834,-3.828738919453262,22.0,637.0]],"bottom":[["C10orf12",-0.09593378048770579,-2.1580900376207386,8.0,651.0],["CATSPERD",-0.09159685309206303,-2.0259749216048446,9.0,650.0],["CKAP2",-0.12377967411945365,-3.124345526069653,10.0,649.0],["CNKSR1",-0.10675266560444319,-2.5092472822113745,9.0,650.0],["KIAA1377",-0.11110778414248348,-2.6592499693479286,9.0,650.0],["LTBP4",-0.1058119600002265,-2.4775026701046943,9.0,650.0],["MTMR3",-0.11170294347651857,-2.680252931562559,11.0,648.0],["NBPF10",-0.13055911138269288,-3.390833159153689,12.0,647.0],["PDCD11",-0.1092251426890529,-2.593853668010043,10.0,649.0],["PHF14",-0.1351325612118259,-3.577724009397008,18.0,641.0],["PIK3R3",-0.10178248457123432,-2.344211822612315,10.0,649.0],["PMS2",-0.087462236895573,-1.904581222702829,11.0,648.0],["SEL1L2",-0.13449710180911237,-3.5511090286804285,10.0,649.0],["SLX4",-0.12045969588937593,-2.9986357518375955,16.0,643.0],["TEX10",-0.11610294848231592,-2.8376353128941747,12.0,647.0],["TTC32",-0.07518136145995728,-1.56936995656958,8.0,651.0],["VAV3",-0.11924792228771523,-2.9531358386003594,10.0,649.0]]}}}
{"prism_primary_logfold":{"corr":{"top":[],"bottom":[]},"para":{"top":[["oritavancin_BRD-A33352494-316-01-6::2.499995956::MTS004",0.18927170893736361,-3.5755019679672335,367]],"bottom":[]}}}
{"prism_secondary_logfold":{"corr":{"top":[],"bottom":[]},"para":{"top":[["bentazepam_BRD-K89490285-001-08-1::0.625000003::MTS006",0.21032812250227173,-3.8850161495423174,326]],"bottom":[]}}}
{"ccle_proteomics":{"corr":{"top":[["KCTD18_Q6PI47",0.2949425659067047,-5.539097766452627,243],["MSANTD3_Q96H12",0.3506792879493939,-3.6414256124966804,106]],"bottom":[]},"para":{"top":[["TNS1_E9PGF5",0.3153858599409601,-4.433226859030382,165],["NFE2L2_Q16236",0.29962039400607804,-2.8982052446165603,113],["MSANTD3_Q96H12",0.41953876087248615,-5.1199753942183275,106]],"bottom":[["SUV420H2_Q86Y97",-0.3827823770275066,-4.253550736030914,105]]}}}
{"depmap_copy_number":{"corr":{"top":[["MIR4648_100616116",0.22990419246433386,-8.626984655311409,659],["BRAT1_221927",0.22990419246433386,-8.626984655311409,659]],"bottom":[]},"para":{"top":[],"bottom":[]}}}
{"avana":{"corr":{"top":[["MCM3_4172",0.2539166636303919,-6.142309365104821,371]],"bottom":[["SLC26A10_65012",-0.207638383878073,-4.253373950651433,371],["TOGARAM2_165186",-0.218434668019937,-4.659426091972549,371]]},"para":{"top":[["MCM3_4172",0.27296366883849404,-7.035807973292785,371]],"bottom":[["TOGARAM2_165186",-0.2269321355934692,-4.993609577240407,371]]}}}
{"drive":{"corr":{"top":[["SERPINA7_6906",0.2678942368218427,-4.771338514042408,251]],"bottom":[]},"para":{"top":[["MEF2C_4208",0.26293276172707986,-4.627116980117135,252],["PFKFB2_5208",0.30070030378949386,-5.91502074217086,251],["PINK1_65018",0.24181890667343287,-4.087208446191311,260],["SERPINA7_6906",0.2712772711444627,-4.8826577567469895,251],["RRP36_88745",0.24024402623158067,-3.9163906472654157,251]],"bottom":[["LOC105370109&LOC105377167_105370109&105377167",-0.24678496585418602,-4.109939797943449,251],["SIX2_10736",-0.27556952185469086,-5.043999391971207,252],["HPD_3242",-0.2528872802916263,-4.431480361055972,260]]}}}
{"achilles":{"corr":{"top":[],"bottom":[["SSR2_6746",-0.24822129144619098,-4.807374016105253,296]]},"para":{"top":[["SNAI3_333929",0.25844257414531097,-5.1766933637172405,296],["MSANTD4_84437",0.3297041328792353,-4.789389676713749,164]],"bottom":[["SSR2_6746",-0.23694454121415714,-4.417911822175186,296]]}}}
{"ccle_rrbs_tss_clusters":{"corr":{"top":[],"bottom":[]},"para":{"top":[["TCAF2",0.34188529609695417,-3.6482390441066865,112]],"bottom":[]}}}
{"ccle_rrbs_cgi_clusters":{"corr":{"top":[],"bottom":[]},"para":{"top":[["7_143315293_143320004-1",0.3418852960969542,-3.6482390441066865,112]],"bottom":[]}}}
