{"depmap_hotspot":{"corr":{"top":[],"bottom":[["APLF",-0.15337052604041432,-3.7839151689895085,22.0,577.0],["C11orf53",-0.16878507870225556,-4.482270080194001,9.0,590.0],["C9orf69",-0.1711198141493497,-4.59362456275076,12.0,587.0],["CCDC136",-0.11519513416876966,-2.322409215501889,36.0,563.0],["CGREF1",-0.13217542105285857,-2.926185883714832,16.0,583.0],["CLRN2",-0.13184156912591777,-2.913607866134916,16.0,583.0],["CTAGE15",-0.12995681052199146,-2.8431348506736063,9.0,590.0],["CYP4F11",-0.11185961680664203,-2.2123377531044213,20.0,579.0],["FAM49A",-0.15400562760893347,-3.8114350547599867,16.0,583.0],["FARSA",-0.1337044228652807,-2.984157558093239,19.0,580.0],["GAMT",-0.14345267581541668,-3.3679636430364273,9.0,590.0],["GIN1",-0.11543153190297659,-2.3303156481607306,30.0,569.0],["IDI2",-0.11901566672167899,-2.4519038524470713,14.0,585.0],["LILRB2",-0.17589185779034752,-4.8258420608467505,41.0,558.0],["MAT2A",-0.12998139315458418,-2.844048164026169,9.0,590.0],["MED16",-0.1329091358233366,-2.9539294809596646,32.0,567.0],["MTFR1",-0.18171598586663867,-5.11770970049102,8.0,591.0],["MTMR8",-0.19541961978510308,-5.841542900392211,30.0,569.0],["NPIPB6",-0.11178821787094317,-2.2100118894428147,10.0,589.0],["OR2L13",-0.1337727088151623,-2.9867606246458216,29.0,570.0],["OR52W1",-0.13311161711036693,-2.9616101615874117,11.0,588.0],["PDIA6",-0.15542636636710735,-3.873385228993206,18.0,581.0],["REXO2",-0.126105183707183,-2.701942458768791,13.0,586.0],["RFWD3",-0.1112990599279449,-2.194111340712378,29.0,570.0],["SCN2A",-0.1318941580217307,-2.9155872776419303,82.0,517.0],["SPRED3",-0.1274109599903515,-2.7493855220285517,12.0,587.0],["SRR",-0.1375332546094112,-3.131969271958401,10.0,589.0],["TBX2",-0.11005822465527959,-2.154043238976137,25.0,574.0],["TM7SF3",-0.12136007302016238,-2.533182198910255,12.0,587.0],["TMEM165",-0.13259435491293317,-2.942009886096895,14.0,585.0],["TMEM234",-0.1489708390305284,-3.596199615080073,15.0,584.0],["TTC30A",-0.11715593250882428,-2.3884121135354732,26.0,573.0],["WDPCP",-0.15292394197465942,-3.7646280287827247,24.0,575.0]]},"para":{"top":[],"bottom":[]}}}
{"depmap_damaging":{"corr":{"top":[],"bottom":[["CNTN3",-0.15833267614147795,-3.9959445704903986,10.0,588.0],["FLG2",-0.1368812735946313,-3.1021072343666938,11.0,587.0],["GIN1",-0.267038096806797,-10.49585090820078,9.0,589.0],["HEPHL1",-0.14232950608132966,-3.3177199259584214,9.0,589.0],["ITM2A",-0.16209005423502934,-4.1650170553969055,22.0,576.0],["KIF21B",-0.11544555458634718,-2.3275668677224473,9.0,589.0],["LTB4R2",-0.14696382236555852,-3.5071995326328262,9.0,589.0],["ZNF668",-0.10344151193347124,-1.944172954211317,8.0,590.0]]},"para":{"top":[],"bottom":[["ABCA10",-0.1212308164924653,-2.814363586055882,13.0,585.0],["COL4A3",-0.11913360859961808,-2.742214143692087,8.0,590.0],["EIF3J",-0.13876457706045037,-3.4551477853029473,8.0,590.0],["GIN1",-0.15001642415280358,-3.906190286234065,9.0,589.0]]}}}
{"prism_primary_logfold":{"corr":{"top":[["methoxsalen_BRD-K63430059-001-17-2::2.5::HTS",0.2190305471114973,-4.300375687960412,337]],"bottom":[]},"para":{"top":[],"bottom":[]}}}
{"prism_secondary_logfold":{"corr":{"top":[["naftidrofuryl_BRD-A67862938-034-14-9::0.00061034::HTS002",0.3035383078704871,-5.321453657433293,219],["minocycline_BRD-A69651145-003-07-2::0.0024414::HTS002",0.4399693105982243,-6.692080991336355,128],["bafetinib_BRD-A75975749-001-01-4::0.009765624::MTS006",0.2421200217765692,-4.6632659871851265,301],["eprinomectin_BRD-A91366704-001-01-9::0.00061034::HTS002",0.2617783476805739,-4.281580907159835,233],["NSC-697923_BRD-K20605374-001-05-4::0.15625::HTS002",0.2615591768071602,-5.356697823042039,300],["odanacatib_BRD-K22822991-001-02-3::10::HTS002",0.3046622308734623,-4.805135802112319,194],["AST-1306_BRD-K26838195-075-04-9::0.15625::HTS002",0.3081405101746089,-6.329628229566958,257],["anastrozole_BRD-K52172416-001-11-4::0.00976562::HTS002",0.2988695746253251,-5.974076010458795,257],["AVN-944_BRD-K62196610-001-01-6::0.00061034::HTS002",0.24266906100176466,-4.071261584235783,257],["SB-200646_BRD-K77677632-003-02-6::0.15625::HTS002",0.2631530859768577,-5.3521997786966224,296],["pentagastrin_BRD-K78789465-001-01-6::0.625::HTS002",0.24832879749563921,-4.404355804844327,268],["CX-4945_BRD-K81458380-001-04-9::0.00061034::HTS002",0.2552698965356849,-4.461470138615192,257],["CX-4945_BRD-K81458380-001-04-9::0.0024414::HTS002",0.25984084612832603,-4.608093826153635,257],["CX-4945_BRD-K81458380-001-04-9::0.0390625::HTS002",0.29167500120938034,-5.646246193163808,254],["SIB-1757_BRD-K98157055-001-10-9::0.625::HTS002",0.26457706087096117,-4.69673426822671,253]],"bottom":[["methotrexate_BRD-A55424491-001-19-9::0.00061034::HTS002",-0.27515228305535927,-4.437639992935882,219]]},"para":{"top":[["eprinomectin_BRD-A91366704-001-01-9::0.00061034::HTS002",0.19981676119466463,-2.6616675301916426,233],["SB-200646_BRD-K77677632-003-02-6::0.15625::HTS002",0.2523906369725925,-4.956132057828126,296]],"bottom":[["dichloroacetate_BRD-M97302542-001-04-4::0.15625::MTS010::PROS001_PR500",-0.2357299426132145,-4.350899933859791,294]]}}}
{"ccle_proteomics":{"corr":{"top":[["FGD1_P98174",0.3033229962142196,-4.4796357297433955,181]],"bottom":[["NSUN7_Q8NE18",-0.32547293567332836,-3.776181363175573,129]]},"para":{"top":[["ZNF593_O00488",0.26519241075773664,-4.216573631177325,223],["KIAA1009_Q5TB80",0.23893193005885288,-2.0090575372494985,116],["ZNF444_Q8N0Y2",0.30188122899980574,-4.549628917211621,186]],"bottom":[]}}}
{"depmap_gene_tpm":{"corr":{"top":[],"bottom":[["IL17F_112744",-0.2893021861227677,-12.209005686871762,595],["MTNR1B_4544",-0.31459717945460625,-14.408944231935546,595],["PDHA2_5161",-0.322314591289304,-15.12352650748459,595],["KRT25_147183",-0.24402133812128066,-8.78851875511512,595]]},"para":{"top":[],"bottom":[]}}}
{"avana":{"corr":{"top":[["ACOT2_10965",0.22021408127497627,-4.3536028186746965,338]],"bottom":[]},"para":{"top":[["CDH3_1001",0.2345594187909812,-4.8804631195061825,338]],"bottom":[["NKX2-4_644524",-0.21438871122614586,-4.1492357807912095,338]]}}}
{"achilles":{"corr":{"top":[["SMDT1_91689",0.28209879907596086,-3.501474870445809,159],["GOLGA5_9950",0.3004361182446712,-3.9236800243429366,159]],"bottom":[["ZNF718_255403",-0.3202142346121531,-4.411647567738047,159],["RPF1_80135",-0.2676037718203222,-3.1875606415313125,159]]},"para":{"top":[],"bottom":[["ZNF718_255403",-0.2981695215695529,-3.8699431880524964,159],["WDR72_256764",-0.2766035353900733,-3.380439160468457,159]]}}}
{"ccle_rrbs_tss1kb":{"corr":{"top":[],"bottom":[["FMNL3_12_50101197_50102197",-0.22565265037598722,-7.510306661278479,589],["SIN3B_19_16939197_16940197",-0.23728116880474165,-4.614633422614107,310],["ZNF146_19_36704503_36705503",-0.2365586210712199,-8.182762243446184,587]]},"para":{"top":[],"bottom":[["TMEM53_1_45140280_45141280",-0.17855147911740132,-4.898998541075394,591],["ADAR_1_154600473_154601473",-0.14850784623334828,-3.535401552711731,591],["ADAR_1_154600447_154601447",-0.14497368899818708,-3.390590524560512,591],["KIF5C_2_149631791_149632791",-0.1495394191376753,-3.557322672017201,587],["NIF3L1_2_201753107_201754107",-0.16126332068029328,-4.079073387301863,590],["TIGD6_5_149380730_149381730",-0.215341115339791,-3.745128294081606,298],["MRPS28_8_80942506_80943506",-0.18003019330988704,-4.325808982600904,505],["PSMB7_9_127177752_127178752",-0.1455520284490457,-3.379226856990862,584]]}}}
{"ccle_gene_tpm":{"corr":{"top":[],"bottom":[["MTNR1B_ENSG00000134640.2",-0.31490284819386466,-14.390788295688159,593],["PDHA2_ENSG00000163114.4",-0.32511287934025246,-15.338535372618239,593],["TMPRSS11GP_ENSG00000229009.3",-0.33852750403292886,-16.639515553428563,593],["AC026202.5_ENSG00000230944.1",-0.3388837415721922,-16.67494244782461,593],["RP11-284A20.3_ENSG00000248443.1",-0.3230797547255569,-15.146916997635437,593],["RP11-142J21.1_ENSG00000259360.1",-0.3125987694858681,-14.181893814364141,593],["RP11-812E19.5_ENSG00000261607.1",-0.30857783753021695,-13.821688869805397,593],["SS18L2P2_ENSG00000266201.1",-0.3784365033096693,-20.90255206848097,593]]},"para":{"top":[],"bottom":[["C1QC_ENSG00000159189.7",-0.1704016136912179,-4.5188251991628965,593],["ARL2BPP3_ENSG00000215486.4",-0.1508379920372571,-3.643300133604375,593],["C4BPAP2_ENSG00000232621.1",-0.15217992707361325,-3.7001286311482118,593],["RP11-289K10.1_ENSG00000240052.1",-0.16122205112751584,-4.095380830371272,593],["RP11-337L12.1_ENSG00000256085.1",-0.1742719616356281,-4.704131743518669,593],["RN7SL29P_ENSG00000264467.1",-0.16541252180797641,-4.285892499051535,593]]}}}
{"ccle_rrbs_tss_clusters":{"corr":{"top":[],"bottom":[["TARBP1",-0.2307672853202402,-7.955699227440752,599],["FABP6_2",-0.21850247945353396,-6.697997451205588,555],["PDK2_1",-0.2460132431756557,-8.981210860590394,599],["ZNF565_1",-0.2237578250705512,-7.4615483470050314,595],["RALGAPB_2",-0.22933364799092737,-7.862853236576759,599]]},"para":{"top":[],"bottom":[["AIFM1_1",-0.25748910463843333,-5.266121828274916,304]]}}}
{"ccle_rrbs_cgi_clusters":{"corr":{"top":[["4_1386614_1391430-1",0.391132007111996,-12.92821687280675,334],["1_33610976_33615321-3",0.41621045474676405,-25.56144305729688,594],["1_33623259_33627527-3",0.4329709202442283,-27.810534383369628,594],["1_33623259_33627527-1",0.38199202617781064,-20.86215474354109,580]],"bottom":[["1_234611936_234614454-2",-0.23881033789201717,-8.474878752707172,598],["14_95623650_95626220-2",-0.28702388928595185,-6.565131302474657,310],["20_37099171_37103742-2",-0.22933364799092737,-7.862853236576759,599],["17_48170460_48174994-1",-0.2460132431756557,-8.981210860590394,599]]},"para":{"top":[],"bottom":[["23_129297432_129302105-1",-0.2574891046384333,-5.266121828274913,304]]}}}
