{"depmap_hotspot":{"corr":{"top":[["AANAT",0.20844997956414543,-8.864437102295279,10.0,819.0],["CACNG5",0.19966059982565101,-8.174521780041484,21.0,808.0],["CMTM3",0.16749067473003731,-5.907312512378614,10.0,819.0],["FZD3",0.2341549865785691,-11.061422549969425,22.0,807.0],["OGFOD2",0.19532912308611036,-7.84579889439252,20.0,809.0],["PARP16",0.17783421247113065,-6.592723809524977,12.0,817.0]],"bottom":[]},"para":{"top":[],"bottom":[["CYP4A22",-0.1310663908504353,-4.089978985148272,29.0,800.0],["FAM173B",-0.12154489574070765,-3.628439287839158,22.0,807.0],["GTSF1L",-0.09031517280942186,-2.3290517327283724,8.0,821.0],["MAGIX",-0.13389740039320874,-4.232997244792328,20.0,809.0],["NAT9",-0.12334196890591642,-3.7127532140344255,9.0,820.0],["OCEL1",-0.1345304747769812,-4.265285836616065,16.0,813.0],["SLC51B",-0.0974875627305878,-2.59868111059496,10.0,819.0],["SRRM5",-0.1221544190801101,-3.657038207545598,21.0,808.0],["VIMP",-0.10577812445251111,-2.9315542589678154,11.0,818.0]]}}}
{"depmap_damaging":{"corr":{"top":[["MAP2K7",0.1892091769040414,-7.38575211739969,11.0,817.0],["SCYL1",0.1730181022562814,-6.261667792092013,8.0,820.0]],"bottom":[]},"para":{"top":[["EHMT1",0.10661655147266927,-2.9637003743099304,9.0,819.0],["UGT2B28",0.10966579248609196,-3.0927015909306137,11.0,817.0]],"bottom":[["DVL1",-0.08776411483970006,-2.235527837867336,11.0,817.0],["PAN2",-0.08451998863645671,-2.1219849060899647,10.0,818.0],["RTN4",-0.08335159834507477,-2.0819041343511966,9.0,819.0],["SULT1A1",-0.08474805672529004,-2.129757184293319,8.0,820.0],["TBC1D1",-0.08612271011645649,-2.177630510540922,10.0,818.0],["TM9SF3",-0.09934457067942476,-2.668920611962574,11.0,817.0]]}}}
{"achilles":{"corr":{"top":[],"bottom":[]},"para":{"top":[["ONECUT1_3175",0.22749519444703253,-5.04036949975897,373]],"bottom":[]}}}
{"ccle_rrbs_tss1kb":{"corr":{"top":[["PKIG_20_43159421_43160421",0.9333794862644198,-323.0051853474518,795]],"bottom":[]},"para":{"top":[["PKIG_20_43159421_43160421",0.846165469795158,-218.23235940958438,795]],"bottom":[]}}}
{"ccle_rrbs_tss_clusters":{"corr":{"top":[["PKIG_1",1.0,-323.0051853474518,829]],"bottom":[]},"para":{"top":[["PKIG_1",1.0,-323.0051853474518,829]],"bottom":[]}}}
{"ccle_rrbs_cgi_clusters":{"corr":{"top":[],"bottom":[]},"para":{"top":[],"bottom":[]}}}
