{"depmap_hotspot":{"corr":{"top":[],"bottom":[["FAM171A2",-0.10238568937718315,-2.5046406728320054,52.0,779.0],["KCNJ16",-0.11014303457131079,-2.8318731549175515,28.0,803.0]]},"para":{"top":[["NRSN2",0.09125169942697313,-2.3674822644692233,11.0,820.0]],"bottom":[["C11orf58",-0.09546723923462395,-2.5255556974721753,13.0,818.0],["C7orf33",-0.09709215949616821,-2.587968472346146,11.0,820.0],["CERS2",-0.1206488424112898,-3.593321165301087,18.0,813.0],["COX16",-0.08768651352346014,-2.2383006870717437,8.0,823.0],["FAIM",-0.11531615144140106,-3.349182814535106,11.0,820.0],["GHITM",-0.10273342627085838,-2.8117415464920943,12.0,819.0],["IFT43",-0.09355714419112907,-2.4531659545757845,11.0,820.0],["KCNJ16",-0.13548150990748528,-4.322883082456752,28.0,803.0],["MRPL17",-0.09431245864427733,-2.4815804715315473,10.0,821.0],["N6AMT1",-0.1098230041027299,-3.108143864229007,16.0,815.0],["PHB",-0.12006408172728719,-3.5660795407142425,17.0,814.0],["SH3BGRL3",-0.08326620862133964,-2.0841056208886175,8.0,823.0],["SNAI2",-0.1163393395390477,-3.3954496255013873,18.0,813.0],["TEX30",-0.10838207525182841,-3.0465797504881036,17.0,814.0],["TMEM70",-0.11431771608762326,-3.3046942035011817,14.0,817.0],["TREH",-0.09113649005157108,-2.363207649831326,10.0,821.0],["UCHL3",-0.08180134013633457,-2.0344165890005903,8.0,823.0]]}}}
{"depmap_damaging":{"corr":{"top":[],"bottom":[]},"para":{"top":[],"bottom":[["ATP8B1",-0.10089127440817627,-2.7351425658982587,14.0,816.0],["CCDC77",-0.12571694348140908,-3.8300947595110726,9.0,821.0],["DEK",-0.08686734644023185,-2.2073910914725574,8.0,822.0],["DPYSL2",-0.08830912812388715,-2.2586284090841326,8.0,822.0],["MIPEP",-0.1030358981783663,-2.821320385669887,8.0,822.0],["PPP1R9A",-0.08605040761188862,-2.178793194450494,11.0,819.0],["REXO1",-0.0931947280019642,-2.4373919606857193,9.0,821.0],["SAP130",-0.11384926080578105,-3.2805676332302887,8.0,822.0],["SARDH",-0.08811844492862289,-2.2518648889574013,9.0,821.0],["ZNF429",-0.09985587848862365,-2.6938248957155917,10.0,820.0]]}}}
{"prism_primary_logfold":{"corr":{"top":[],"bottom":[["benzethonium_BRD-K72723676-003-17-8::2.5::HTS",-0.2657034635695897,-8.32595825801149,471]]},"para":{"top":[],"bottom":[]}}}
{"prism_secondary_logfold":{"corr":{"top":[],"bottom":[["cobimetinib_BRD-K03390685-001-01-7::10::MTS010::PROS001_PR500",-0.27413061965246277,-7.600286120976576,400]]},"para":{"top":[],"bottom":[["tosedostat_BRD-K92241597-001-06-0::0.0390625::MTS006",-0.20988277952642037,-4.747740614526656,411]]}}}
{"ccle_proteomics":{"corr":{"top":[["IFI16_Q16666",0.4135890120398852,-14.09259771152968,324]],"bottom":[]},"para":{"top":[["IL1RAP_Q9NPH3",0.3442589656886489,-8.17364314208171,269],["IFI16_Q16666",0.3921717228325322,-12.62962145167161,324]],"bottom":[["PLCB4_Q15147-4",-0.36390631350740804,-10.19262963191464,303]]}}}
{"depmap_copy_number":{"corr":{"top":[["SERHL2_253190",0.219915673336377,-9.822066396073756,830],["RRP7A_27341",0.2243328336950141,-10.201457004122377,830],["RRP7BP_91695",0.21281180979685232,-9.228605388571305,830]],"bottom":[]},"para":{"top":[],"bottom":[]}}}
{"depmap_gene_tpm":{"corr":{"top":[],"bottom":[]},"para":{"top":[],"bottom":[["PLCB4_5332",-0.4149222395520629,-35.02408250674898,827]]}}}
{"avana":{"corr":{"top":[],"bottom":[["CA3_761",-0.20877428496038367,-5.239705874891653,464],["DUSP10_11221",-0.25364208745820654,-7.518640106019444,464]]},"para":{"top":[["PLEKHG2_64857",0.2186262701420959,-5.700820629090349,464],["SDHAF1_644096",0.18918528101246312,-4.38629116170808,464]],"bottom":[["CRTC3_64784",-0.2111452468168669,-5.348703354271221,464]]}}}
{"achilles":{"corr":{"top":[["NPC1L1_29881",0.33180009297271373,-6.272196980915487,218],["FEZF1_389549",0.3553755403478649,-7.161741020007892,218],["PDE1A_5136",0.3284765202283537,-10.1827464098882,376]],"bottom":[["F8_2157",-0.28830925738492585,-4.815743785100386,218],["FAM155B_27112",-0.34698945292371103,-6.836899402089613,218],["DNAH7_56171",-0.40423890750220315,-9.250673562467671,218]]},"para":{"top":[],"bottom":[["FAM155B_27112",-0.27947770206753453,-4.5476566003687715,218]]}}}
{"ccle_rrbs_tss1kb":{"corr":{"top":[],"bottom":[]},"para":{"top":[["PLCB4_20_9048700_9049700",0.5375040155321801,-61.77493512848165,819]],"bottom":[["MGAT1_5_180230853_180231853",-0.39159913420509845,-28.971310704885546,772]]}}}
{"ccle_gene_tpm":{"corr":{"top":[],"bottom":[]},"para":{"top":[],"bottom":[["PLCB4_ENSG00000101333.12",-0.41744273103124435,-35.35574320914727,824]]}}}
{"ccle_rrbs_tss_clusters":{"corr":{"top":[["PLCB4_1",1.0,-323.0051853474518,831]],"bottom":[["STK10_1",-0.3932156004274842,-22.749001217479325,596],["STK10_2",-0.3366633479062188,-18.095574420242635,655],["MAD1L1_5",-0.39213671790217014,-31.027466572848866,826],["MAD1L1_6",-0.372398473313051,-27.94074294183399,829]]},"para":{"top":[["PLCB4_1",1.0,-323.0051853474518,831],["PLCB4_2",0.5182702332493175,-57.514015856317336,830],["PLCB4_3",0.6076148039336395,-38.08691772911122,371]],"bottom":[["STK10_1",-0.3468459579848852,-17.563384052977106,596],["STK10_2",-0.31417965265682635,-15.745261200162732,655],["SLC43A3_2",-0.31436953235296844,-19.517551056888617,819]]}}}
{"ccle_rrbs_cgi_clusters":{"corr":{"top":[],"bottom":[["7_1975286_1979912-2",-0.39213671790217014,-31.027466572848866,826],["5_171612430_171615184-1",-0.3932156004274842,-22.749001217479325,596],["7_1975286_1979912-3",-0.3649665695885716,-26.07323593712739,806],["7_1976698_1980934-2",-0.372398473313051,-27.94074294183399,829]]},"para":{"top":[["20_9046958_9049488-2",0.5288406446572584,-60.1214407691175,828],["20_9046958_9049488-3",0.60071213648341,-35.95379913413644,360]],"bottom":[["5_171612430_171615184-2",-0.31417965265682635,-15.745261200162732,655],["5_171612430_171615184-1",-0.3468459579848852,-17.563384052977106,596],["11_57192340_57196650-2",-0.31436953235296844,-19.517551056888617,819]]}}}
