{"depmap_hotspot":{"corr":{"top":[["CLEC10A",0.1406375320218396,-4.361208217725873,10.0,829.0]],"bottom":[]},"para":{"top":[["CLEC10A",0.09414468060294126,-2.492368522661129,10.0,829.0]],"bottom":[["ACP2",-0.09615166692933068,-2.569677804922659,18.0,821.0],["C10orf55",-0.07361648201148582,-1.7806238936316767,8.0,831.0],["ENO1",-0.11180031249248912,-3.2173574669650864,18.0,821.0],["NEK7",-0.11334270290945571,-3.2858058927149347,25.0,814.0],["PCMT1",-0.0944541972652652,-2.5043258533863053,15.0,824.0],["SAR1A",-0.07461249506098162,-1.8120378135109447,10.0,829.0],["TRMT5",-0.09323205081558582,-2.457891467486371,14.0,825.0]]}}}
{"depmap_damaging":{"corr":{"top":[],"bottom":[]},"para":{"top":[["KLHL14",0.09514088720478335,-2.5281810391002724,8.0,830.0]],"bottom":[["ERGIC2",-0.09604846423317484,-2.56328090916263,11.0,827.0],["FGD6",-0.10719795589484829,-3.0153020004248936,10.0,828.0],["METTL16",-0.12321715985420703,-3.7389368135027787,18.0,820.0]]}}}
{"ccle_metabolomics":{"corr":{"top":[],"bottom":[["inositol",-0.17237262160877834,-6.17816373641491,822]]},"para":{"top":[],"bottom":[]}}}
{"ccle_rrbs_enhancer_clusters":{"corr":{"top":[],"bottom":[["9-84010191-84012866-0_enh",-0.2798904998605987,-12.725965886873636,666]]},"para":{"top":[],"bottom":[]}}}
{"prism_primary_logfold":{"corr":{"top":[["R406_BRD-K20285085-074-04-5::2.5::HTS",0.22910770667320868,-6.045196561271606,450]],"bottom":[]},"para":{"top":[],"bottom":[]}}}
{"ccle_proteomics":{"corr":{"top":[["ITPKB_P27987",0.45328352216955115,-15.779255360812257,298],["PRKD3_O94806",0.5264045936580599,-12.56145595229223,167]],"bottom":[]},"para":{"top":[["LIPE_Q05469",0.34351220955693057,-5.0318458590082,159]],"bottom":[["ADAM28_Q9UKQ2",-0.39791936511844184,-4.816394721179324,111]]}}}
{"depmap_gene_tpm":{"corr":{"top":[["SLC16A6_9120",0.3618829295596442,-26.510248591707448,835]],"bottom":[]},"para":{"top":[],"bottom":[]}}}
{"avana":{"corr":{"top":[],"bottom":[["CRTC3_64784",-0.28110899427709257,-9.294802099982682,472]]},"para":{"top":[],"bottom":[["FAM98A_25940",-0.21117272362471884,-5.432664681007565,472]]}}}
{"achilles":{"corr":{"top":[["KCNK2_3776",0.255479661047815,-6.380193696702102,382]],"bottom":[["MUC17_140453",-0.29066672012872635,-4.9290125242674385,220]]},"para":{"top":[["ARL2BP_23568",0.2789533901555598,-4.569029952434111,220]],"bottom":[["MUC17_140453",-0.27293418812484516,-4.390246033502882,220],["HSPA4_3308",-0.2838086947206813,-7.782816568069457,382]]}}}
{"ccle_rrbs_tss1kb":{"corr":{"top":[["RIPK4_21_43187249_43188249",0.544323635254393,-52.83110985565576,678]],"bottom":[]},"para":{"top":[["MECOM_3_168864093_168865093",0.48491811384841016,-48.858221730442914,820],["MECOM_3_168864327_168865327",0.478385817092345,-47.680477026327694,825],["PCED1B_12_47472385_47473385",0.4844717117985052,-48.87405855393937,822],["RIPK4_21_43187249_43188249",0.6029115680719245,-67.6112441250513,678]],"bottom":[]}}}
{"ccle_rrbs_tss_clusters":{"corr":{"top":[["FRAS1_2",0.5792149563316944,-75.42850036633244,837],["RIPK4_2",0.9758878936569526,-323.0051853474518,839]],"bottom":[]},"para":{"top":[["PSD3_1",0.5070174449052164,-55.27355434155273,839],["RIPK4_2",0.8878532370835145,-283.67957700984533,839]],"bottom":[]}}}
{"ccle_rrbs_cgi_clusters":{"corr":{"top":[["9_124411512_124416193-1",0.5524685384902961,-67.17297929725758,835],["4_78976365_78981256-2",0.5792149563316944,-75.42850036633244,837],["21_43186858_43189436-3",0.6896535956498986,-116.76143274371879,825],["3_159478946_159481984-2",0.5325602392469944,-57.76615684934363,782]],"bottom":[]},"para":{"top":[["21_43186858_43189436-3",0.5863393730832506,-76.61296080425718,825],["8_18869072_18874046-1",0.5070174449052164,-55.27355434155273,839]],"bottom":[]}}}
