{"depmap_hotspot":{"corr":{"top":[["LCA5",0.15033151053532695,-3.431181130978693,33.0,524.0]],"bottom":[["DGCR6",-0.12747778559323225,-2.588857452147391,8.0,549.0],["TMEM106A",-0.10257358119622219,-1.811215566091829,14.0,543.0]]},"para":{"top":[["ACTA1",0.15950174864356986,-4.071293640487353,20.0,537.0],["AQP7",0.1594435828464611,-4.068495635072236,11.0,546.0],["C3orf38",0.12961226653574656,-2.9492139074232786,13.0,544.0],["CCNE1",0.10385663436058483,-2.1435402333240163,9.0,548.0],["CLDN3",0.10783429963846622,-2.2582477673591383,8.0,549.0],["ECHDC1",0.14376939826428453,-3.455258454307224,13.0,544.0],["GPR75-ASB3",0.14512269397550784,-3.505731235050736,9.0,548.0],["IFITM10",0.14638918360960024,-3.5539748961955513,15.0,542.0],["KIAA2013",0.18376979747645134,-5.132652621428563,26.0,531.0],["LCE1E",0.13462416795998672,-3.123006546177693,10.0,547.0],["LRR1",0.1278152680113907,-2.888257902899154,14.0,543.0],["LRRC18",0.1072471430424596,-2.2411628742910565,9.0,548.0],["LRRC47",0.1585948016270219,-4.034259596160894,20.0,537.0],["MIOX",0.1371378997177589,-3.2125764826974064,13.0,544.0],["MTERFD3",0.1508956943023736,-3.727392050979266,18.0,539.0],["PAK1IP1",0.12301717550528679,-2.7287208195671893,10.0,547.0],["PLSCR2",0.12106855633405977,-2.6654883764561146,10.0,547.0],["RAP1GDS1",0.15323612464033468,-3.8192560879615907,19.0,538.0],["RUNDC3A",0.11043442523255462,-2.3351632820076667,8.0,549.0],["SPATA13",0.1142867669135257,-2.452079610212836,11.0,546.0],["THEGL",0.1286162701295386,-2.9150648006746365,9.0,548.0],["TRUB1",0.12276300778730062,-2.720424980939172,10.0,547.0],["TXNDC16",0.16653950852635258,-4.365166342639632,23.0,534.0],["ZKSCAN4",0.12664523345135323,-2.848835534331011,12.0,545.0],["ZNF385A",0.13071306750225328,-2.986888967588204,12.0,545.0]],"bottom":[["ATXN7L2",-0.1191869916732478,-2.6056846690485367,23.0,534.0],["B4GALT3",-0.12098383376139776,-2.6627583813866127,10.0,547.0],["CRELD1",-0.0950710929610342,-1.9024459448570574,12.0,545.0],["DGCR6",-0.11974760236047116,-2.622948888845151,8.0,549.0],["GCNT3",-0.12182304242469941,-2.69011741173548,15.0,542.0],["KHDC3L",-0.105691409395899,-2.196119837377093,10.0,547.0],["LDHA",-0.09543997810379173,-1.9121414345322139,10.0,547.0],["OR5A2",-0.10244169344141285,-2.1036641699472955,11.0,546.0],["PRSS35",-0.13109574088442308,-3.0002422167639007,16.0,541.0],["SRR",-0.08998231593870261,-1.7702276389692984,9.0,548.0],["ZCCHC16",-0.09995680112544061,-2.03457416064591,13.0,544.0]]}}}
{"depmap_damaging":{"corr":{"top":[["SLITRK3",0.1331975926785392,-2.78370564063051,10.0,546.0],["ZNF793",0.13926339993830306,-3.0029690446123234,17.0,539.0]],"bottom":[]},"para":{"top":[["C21orf33",0.11716707181070453,-2.5379708520159814,8.0,548.0],["COL5A2",0.14147206540778332,-3.365182565278167,10.0,546.0],["GPR75",0.12527207556460038,-2.799049217678788,8.0,548.0],["NRXN1",0.1321795469265253,-3.0334404376537907,12.0,544.0],["NYNRIN",0.11839446683019729,-2.576652122389507,9.0,547.0],["SLITRK3",0.14665357005496119,-3.5587103836349283,10.0,546.0],["ZNF43",0.16039375849814894,-4.1012630945017605,8.0,548.0],["ZNF793",0.13622115789543543,-3.175605591105138,17.0,539.0]],"bottom":[]}}}
{"ccle_rrbs_enhancer_clusters":{"corr":{"top":[],"bottom":[]},"para":{"top":[["16-72981722-72984545-2_enh",0.3493402481386654,-8.992118200601414,289]],"bottom":[]}}}
{"prism_secondary_logfold":{"corr":{"top":[["PF-05212384_BRD-K07955840-001-02-3::0.0024414::HTS002",0.24044600659173418,-4.100346416646668,264],["oxaliplatin_BRD-K78960041-001-05-7::0.00250743::HTS002",0.23340264017313775,-4.0036822745572405,273]],"bottom":[["CUDC-101_BRD-K41278234-001-03-0::0.15625::HTS002",-0.29880451242124745,-3.4740840246143465,140]]},"para":{"top":[["ixazomib_BRD-K78659596-001-03-9::0.625::HTS002",0.2990493452532359,-5.7058223968504365,244]],"bottom":[["CUDC-101_BRD-K41278234-001-03-0::0.15625::HTS002",-0.297782978043577,-3.4527312957154783,140],["cyt387_BRD-K87737963-001-06-0::0.0390625::HTS002",-0.24485174576565008,-3.5242083910898576,214]]}}}
{"avana":{"corr":{"top":[["CERS2_29956",0.23530622194518874,-4.714210582563748,323],["EMC2_9694",0.2567522963911361,-5.531972593926675,323],["HIST1H3H_8357",0.2526515936195699,-5.369826265776569,323],["IRAK4_51135",0.22054364129412343,-4.1939375058929365,323]],"bottom":[["LRPAP1_4043",-0.20345230880663834,-3.633708578452422,323]]},"para":{"top":[["CERS2_29956",0.21207963709744443,-3.9109248218000086,323],["DIMT1_27292",0.20728348260742238,-3.7554206585970293,323],["EMC2_9694",0.25253124411162003,-5.365109236423191,323],["HIST1H3H_8357",0.2656682068487952,-5.89412624834943,323]],"bottom":[["CYP2C18_1562",-0.20828534794076178,-3.7876149616992136,323],["FRA10AC1_118924",-0.21234317510676465,-3.9195709807592953,323],["UBR1_197131",-0.23689591885117428,-4.772285357364354,323],["UQCC2_84300",-0.23979791592218072,-4.87934030270929,323]]}}}
{"drive":{"corr":{"top":[["KIAA2026_158358",0.32437634613821936,-5.554918148257196,200],["DDX51_317781",0.25419785702122344,-3.489338259962248,196]],"bottom":[["ACTC1_70",-0.3095864804787524,-5.019448463852503,197],["PRPF4B_8899",-0.3551574794627299,-6.608393654579733,200]]},"para":{"top":[["TSFM_10102",0.2932587754206621,-4.539574317849687,197],["KIAA2026_158358",0.3306582892752832,-5.7607771500353735,200],["TSPAN11_441631",0.25848587897154096,-3.594873375370493,196]],"bottom":[["FABP5_2171",-0.2772004254633998,-4.095266200611926,197],["LRRIQ4_344657",-0.2928817530585009,-4.590278557910095,200],["ACTC1_70",-0.2908287167615639,-4.470600691279852,197],["PRPF4B_8899",-0.3390298635724292,-6.042307113252887,200]]}}}
{"achilles":{"corr":{"top":[["EXOSC6_118460",0.3013356019618493,-3.5493946235894644,141],["HORMAD2_150280",0.331818565470587,-4.234247686950965,141],["RBM46_166863",0.3876526776460485,-5.689889510878612,141],["HLA-DRA_3122",0.2862240298990189,-5.3731601721559645,250],["PCDH15_65217",0.3161555774444553,-6.481265906777498,250],["CD101_9398",0.31022197134842194,-3.74150364299482,141]],"bottom":[["SFR1_119392",-0.2698612589165452,-2.9166746037550233,141]]},"para":{"top":[["SMR3B_10879",0.31226248929359357,-3.786479476135167,141],["TMIGD2_126259",0.3547282391142186,-4.798673095573237,141],["HORMAD2_150280",0.3403574935252134,-4.439481353608171,141],["RBM46_166863",0.36061569748502176,-4.950940563781276,141],["PCDH15_65217",0.2961421971392007,-5.726668034271451,250]],"bottom":[["PRKRIP1_79706",-0.282890197056449,-3.169740666353682,141]]}}}
{"ccle_rrbs_tss1kb":{"corr":{"top":[["CYP2D7_22_42540576_42541576",0.8464979545893987,-151.1465604801603,549]],"bottom":[]},"para":{"top":[["CYP2D7_22_42540576_42541576",0.8745211915666656,-173.31475287854957,549]],"bottom":[]}}}
{"ccle_rrbs_tss_clusters":{"corr":{"top":[["DGKZ_5",0.4514609639157999,-28.497177371265394,555],["CYP2D7_2",0.9999999999999999,-323.0051853474518,557],["CYP2D7_3",0.5795179708767592,-35.90547352136901,393]],"bottom":[]},"para":{"top":[["CYP2D7_2",0.9999999999999998,-323.0051853474518,557],["CYP2D7_3",0.5628532377246404,-33.49353463163879,393]],"bottom":[["TPPP_2",-0.2892722192151041,-5.282368047772197,240]]}}}
{"ccle_rrbs_cgi_clusters":{"corr":{"top":[["22_42539026_42541579-3",0.5795179708767592,-35.90547352136901,393]],"bottom":[]},"para":{"top":[["22_42539026_42541579-3",0.5628532377246404,-33.49353463163879,393]],"bottom":[]}}}
