{"depmap_hotspot":{"corr":{"top":[["FLG",0.1721136888650956,-4.187425539498481,171.0,362.0],["VWDE",0.1569812504306543,-3.5614899531317596,44.0,489.0]],"bottom":[["OR56A4",-0.12786509905972057,-2.5080295608837866,18.0,515.0],["STX5",-0.152095604214131,-3.3709949689116776,12.0,521.0],["WBP11",-0.11005540748909039,-1.9584706200110091,21.0,512.0],["WDR26",-0.12827750350329323,-2.521594967912199,18.0,515.0]]},"para":{"top":[["ADAL",0.1421894212710988,-3.2827303701118247,12.0,521.0],["ADRB1",0.15801991324588935,-3.8722177265964843,21.0,512.0],["AQP9",0.11324176488042446,-2.345143799011775,8.0,525.0],["CLDN11",0.12588080974556634,-2.732293474147659,8.0,525.0],["DCLRE1B",0.15770290856121313,-3.8597516823222033,17.0,516.0],["DIO2",0.12856263781892324,-2.818997423732796,10.0,523.0],["FSTL3",0.12990695710180106,-2.862781010139485,8.0,525.0],["GIMAP7",0.12766379923318916,-2.790000832613131,13.0,520.0],["GPR97",0.14144697577791812,-3.2565905073560084,15.0,518.0],["HIST1H1D",0.12678060446867057,-2.7615474707399956,14.0,519.0],["LRTM1",0.15003910954561406,-3.568082803928025,13.0,520.0],["PEMT",0.11538224828500494,-2.408321259343812,8.0,525.0],["PEX2",0.13166274266031253,-2.921181085237694,14.0,519.0],["PRKRIP1",0.14083992451590974,-3.235086312293807,13.0,520.0],["PTPRCAP",0.12356876011385445,-2.659160960208515,11.0,522.0],["RRP1",0.1017691119907507,-2.023065223140368,9.0,524.0],["TMEM52B",0.13015440828053265,-2.871269362491772,13.0,520.0],["TMEM79",0.12457062348084318,-2.6909211226353524,13.0,520.0],["XYLB",0.13676100155726573,-3.093434869648141,16.0,517.0],["ZBTB22",0.14071929926564117,-3.23097740101323,16.0,517.0]],"bottom":[["ASCL1",-0.10306736182355247,-2.0583886821442223,14.0,519.0],["B3GAT3",-0.09477902375561782,-1.8404393297361343,12.0,521.0],["GATSL3",-0.09609086677478312,-1.8738708848424221,10.0,523.0],["NOG",-0.09599952564667022,-1.8715246535289576,10.0,523.0],["NPTN",-0.08717665164300327,-1.6531112942308093,12.0,521.0],["RAB5B",-0.08901192934603248,-1.6971506177656193,10.0,523.0],["RB1",-0.21992613100013558,-6.706325939248555,63.0,470.0],["STX5",-0.1407691979094015,-3.232540898618844,12.0,521.0],["TBC1D19",-0.11640198160951641,-2.439373913014345,23.0,510.0],["WBP11",-0.09632175320612167,-1.8801650094741338,21.0,512.0],["WDR26",-0.11502199771557604,-2.3981146093614547,18.0,515.0]]}}}
{"depmap_damaging":{"corr":{"top":[],"bottom":[["ECD",-0.14779280372563233,-3.2078558764788654,22.0,511.0],["TRO",-0.2408079717350179,-7.742914299664601,22.0,511.0],["XPOT",-0.11426577479543684,-2.0820421696195512,8.0,525.0]]},"para":{"top":[["COL6A2",0.13224785773921818,-2.9405555351286847,12.0,521.0],["COL6A6",0.10355862566922705,-2.0714191670739694,8.0,525.0],["FNDC1",0.13346374564004404,-2.981048055069179,9.0,524.0],["SEL1L2",0.10070464779645306,-1.9944970499546733,8.0,525.0],["ZNF570",0.10431814929486684,-2.09225595893595,9.0,524.0]],"bottom":[["ECD",-0.17248048030383142,-4.458268015534311,22.0,511.0],["TNPO2",-0.10614081064919566,-2.1427402916136993,12.0,521.0],["TRO",-0.18911486290853538,-5.189338409261973,22.0,511.0]]}}}
{"ccle_rrbs_enhancer_clusters":{"corr":{"top":[],"bottom":[["1-164620601-164623164-0_enh",-0.2196836595184481,-6.520908884216183,533]]},"para":{"top":[],"bottom":[["1-164620601-164623164-0_enh",-0.2035166394530351,-5.664119351784127,533]]}}}
{"prism_primary_logfold":{"corr":{"top":[["tianeptine_BRD-A53077924-001-01-2::2.499990763::MTS004",0.20966232203116644,-3.603598566926958,301],["cibenzoline_BRD-K34251960-036-01-6::2.459743274::MTS004",0.24029330473356075,-4.599528736909762,301]],"bottom":[]},"para":{"top":[["rilmenidine_BRD-K01638814-011-01-4::2.587084236::MTS004",0.2233038793482773,-4.0303433862191875,301]],"bottom":[]}}}
{"prism_secondary_logfold":{"corr":{"top":[["AVN-944_BRD-K62196610-001-01-6::0.0024414::HTS002",0.2479175455470945,-3.808260033558803,228],["vinflunine_BRD-K64120610-001-01-4::0.002441406::MTS006",0.24674175982721056,-4.367875296174049,269],["idronoxil_BRD-K74671368-001-01-8::0.039062501::MTS006",0.2268968077217321,-3.733426175138132,267],["WYE-354_BRD-K77008974-001-03-2::0.625::HTS002",0.22140588407880987,-3.6330330248873497,272]],"bottom":[["adarotene_BRD-K00152668-001-01-5::0.625::HTS002",-0.23156534255176953,-3.7695947425352987,259]]},"para":{"top":[["monensin_BRD-A06627858-236-03-0::0.0024414::HTS002",0.24531213819779238,-2.6348715724709004,152],["evodiamine_BRD-A68631409-001-05-4::0.0390625::HTS002",0.22411328268173722,-3.664475976441842,268],["ramatroban_BRD-K08586861-001-01-1::0.0024414::HTS002",0.2314513759827231,-3.7027038098731184,254],["NSC-3852_BRD-K13169950-001-14-4::0.0390625::HTS002",0.22332415386340373,-3.53501881247922,259],["ouabain_BRD-K33277808-331-01-3::2.5::HTS002",0.2775328583586104,-4.654554654510049,227],["R547_BRD-K52233191-001-02-4::0.00976562::HTS002",0.2710455226073934,-4.300051496313903,218],["monobenzone_BRD-K54262262-001-09-0::0.625::HTS002",0.2790362191393385,-4.051600432922239,192],["quinidine_BRD-K59632282-052-03-1::0.625::HTS002",0.22990677785507746,-3.7844050415685713,264],["vinflunine_BRD-K64120610-001-01-4::0.002441406::MTS006",0.25552706925228424,-4.654696732543442,269]],"bottom":[["triciribine_BRD-K80431395-001-07-3::2.48737::HTS002",-0.3065692066245275,-6.490637656575373,267]]}}}
{"ccle_proteomics":{"corr":{"top":[["POLD4_Q9HCU8",0.3255986711097705,-5.31544297612044,189]],"bottom":[["INA_Q16352",-0.3763895264305728,-7.5740321296302495,205],["TRIM37_O94972",-0.3791884182790216,-4.2138442905698525,106],["CNTLN_Q9NXG0-2",-0.30132545013464174,-3.703377943657215,148],["HS2ST1_Q7LGA3",-0.3163522411754517,-5.418081006669025,205],["COL11A1_P12107",-0.43385362021375184,-6.177105910946802,121]]},"para":{"top":[["ERBB3_P21860",0.36952274542520064,-6.24907418123519,173],["STEAP4_Q687X5",0.3587920672588404,-3.6397037788122724,101]],"bottom":[["FAAP100_Q0VG06",-0.353144259309784,-5.965952004743168,181]]}}}
{"depmap_gene_tpm":{"corr":{"top":[],"bottom":[["GPRASP1_9737",-0.5518640743572784,-42.92499312871216,531]]},"para":{"top":[["ACY1_95",0.3286441195021839,-14.112621973895696,531]],"bottom":[]}}}
{"avana":{"corr":{"top":[["PRMT2_3275",0.26872327471370133,-5.581068962303591,297],["SEC23IP_11196",0.24655973665426525,-4.8202577786337235,301],["WDR25_79446",0.2530241768143375,-5.054162516866016,301],["ZNF664_144348",0.24900272344508434,-4.90790895417196,301]],"bottom":[["AP3D1_8943",-0.24200264081460357,-4.6591553877806176,301],["MED12_9968",-0.3242403487838789,-7.474570368748402,277],["TADA2B_93624",-0.2580563694814395,-5.178096900838167,297]]},"para":{"top":[["DMRT2_10655",0.2441089121045408,-4.733228987600181,301],["GIPC1_10755",0.22872874009052024,-4.207492698324035,301],["TIMM10_26519",0.22297397767901228,-4.019708113208328,301],["TIMM22_29928",0.24630309470492529,-4.8111020663611805,301],["UBTD1_80019",0.21425103251506306,-3.7441804060397703,301],["ZNF143_7702",0.2288444814705688,-4.211318912016468,301]],"bottom":[["EVI2B_2124",-0.21552873332157335,-3.783857347261653,301],["RGS21_431704",-0.2123164297537297,-3.6845467674471224,301],["TSHZ2_128553",-0.21941420263583122,-3.905948022487355,301]]}}}
{"drive":{"corr":{"top":[["COPA_1314",0.31686626370472853,-5.434675222837207,205],["F2RL2_2151",0.2778948184745466,-4.371887776808648,211],["SIX6_4990",0.26600026289408574,-3.9364449861868778,205],["EXOC2_55770",0.2752144185307788,-4.18688847663353,205],["SIM1_6492",0.2760924899559716,-4.211225301560894,205]],"bottom":[["POC1B_282809",-0.31542141262441303,-5.38810923648447,205],["P2RY8_286530",-0.2838056696959293,-4.409356471781724,204],["ARHGAP22_58504",-0.24906084351513416,-3.499143235032137,205],["IGSF21_84966",-0.2972643603802655,-4.802272155808877,204]]},"para":{"top":[["DCN_1634",0.29526223093052,-4.763349237494095,205],["STON1-GTF2A1L_286749",0.25560289872538494,-3.664525944143271,205],["HNRNPC_3183",0.30498752790215067,-5.147688633990995,209],["OR2AK2_391191",0.28221422592329376,-4.383196782271023,205]],"bottom":[["STON1_11037",-0.30346017732061836,-5.0118509737845045,205],["POC1B_282809",-0.3283380003172764,-5.813090754429456,205],["ARHGEF4_50649",-0.271875009719763,-4.095083461409021,205],["LRRC20_55222",-0.276639100515558,-4.208158057048357,204],["BAD_572",-0.3048561978218154,-5.054922318313438,205]]}}}
{"achilles":{"corr":{"top":[["MTPN&LUZP6_136319&767558",0.3345657903099405,-4.136275977388371,135],["OR5L2_26338",0.3360499025175016,-4.17038241520889,135],["CHST15_51363",0.2896063254324544,-3.1824706664544458,135],["LYZL6_57151",0.30950364062277014,-3.5860002350176425,135],["NHSL1_57224",0.32062732198429783,-3.8243229206548537,135],["LOC727896_727896",0.307927572549703,-3.552981513347647,135],["COLEC11_78989",0.29371103305218227,-3.263372247782766,135],["HECTD3_79654",0.3489072318014621,-4.473195230548407,135],["LINC00597_81698",0.34991071257298106,-4.497389305182166,135]],"bottom":[["SLC35D2_11046",-0.2912834330627606,-5.391212163489323,242],["SRFBP1_153443",-0.27316943196422544,-2.8704073049475607,135],["KIAA0556_23247",-0.28152395833928917,-3.02666317863469,135],["ITIH6_347365",-0.36489302496100967,-4.868492120560237,135],["CA13_377677",-0.37606886857593963,-5.157642566375431,135],["SEMA4G_57715",-0.2774750698738419,-4.92656429526693,242],["NUP37_79023",-0.33861770485007,-4.229803862682243,135],["FNDC1_84624",-0.276187268758275,-2.926292837790014,135],["PMPCB_9512",-0.2719565783786166,-4.747701303370269,242]]},"para":{"top":[["SPDYE2B&SPDYE2&SPDYE6_100310812&441273&729597",0.27120932000653813,-2.834444510901398,135],["DCUN1D3_123879",0.3355827277026535,-4.159627545458053,135],["OR4D2_124538",0.2908654429144245,-3.2071593470006965,135],["OR56B4_196335",0.2920951382778092,-3.231380201166611,135],["YBEY_54059",0.30980749458758067,-3.592387175938857,135],["SVOP_55530",0.29248682774752766,-3.239117845232195,135],["LYZL6_57151",0.3169578191762046,-3.7446751196733756,135],["BTC_685",0.2769103868010098,-2.9397771739134457,135],["TPD52_7163",0.2815290058617342,-3.02675904917451,135],["C3orf52_79669",0.27074351733265883,-2.825936974970417,135],["FAM110D_79927",0.30977038170069376,-3.5916067039426336,135],["DNAJC22_79962",0.2872049485207804,-3.135696861540561,135]],"bottom":[["CXorf38_159013",-0.2851989988228303,-3.0969379084044433,135],["KIAA0556_23247",-0.28200694952814204,-3.035844981898812,135],["CCDC84_338657",-0.3424418303639981,-4.31926869956512,135],["GMNN_51053",-0.2872681333229922,-3.136922335436154,135],["TTC22_55001",-0.2878547843643063,-3.148313964921812,135],["PSMC2_5701",-0.26007293699470646,-4.375514982856732,242],["SGSH_6448",-0.29173563810651204,-5.406847347363976,242],["SNAI1_6615",-0.2620907663966614,-4.437474496025365,242],["NUP37_79023",-0.3137907326268759,-3.6767499146330747,135]]}}}
{"ccle_rrbs_tss1kb":{"corr":{"top":[["GPRASP1_23_101905328_101906328",0.9159441042809703,-208.80185550614462,525]],"bottom":[["SAAL1_11_18127638_18128638",-0.28370383013948103,-10.374607457568903,521]]},"para":{"top":[["GPRASP1_23_101905328_101906328",0.7864997691596362,-110.81728212589093,525]],"bottom":[["SET_9_131444933_131445933",-0.27566871570091933,-9.883389961730336,525]]}}}
{"ccle_gene_tpm":{"corr":{"top":[],"bottom":[["GPRASP1_ENSG00000198932.8",-0.5575707377192156,-43.736166929090885,528],["TSPY26P_ENSG00000235217.5",-0.44025979762366385,-25.715434597285117,528]]},"para":{"top":[["ACY1_ENSG00000243989.3",0.3157038177122552,-12.957384219042916,528]],"bottom":[]}}}
{"ccle_rrbs_tss_clusters":{"corr":{"top":[["GPRASP1_1",0.922289038679975,-220.6489139144532,533],["GPRASP1_2",0.730806482710029,-89.22194020352005,532]],"bottom":[["MIR7977_2",-0.3253785036941477,-12.746250894007108,487],["SAAL1_2",-0.3025765325351082,-11.91455645563372,528],["LOC101929427_4",-0.3480782789595962,-14.676199828382865,490],["FURIN_1",-0.3432808473525247,-15.045311595776084,518],["HKR1_6",-0.3382608155194694,-6.125694752995712,204]]},"para":{"top":[["GPRASP1_1",0.8034736153169686,-120.96583981963221,533],["GPRASP1_2",0.6700046676730614,-69.86272431448323,532]],"bottom":[["HKR1_6",-0.32011987516288476,-5.515956390110655,204]]}}}
{"ccle_rrbs_cgi_clusters":{"corr":{"top":[["23_101904001_101906509-3",0.7839268849362615,-108.99684248938598,522],["23_101906509_101909017-2",0.6401255452826791,-61.37091105230466,527],["23_101904001_101906509-1",0.68389177355857,-72.08118167736654,519],["23_101906509_101909017-1",0.7098858027661308,-81.38476235470712,528]],"bottom":[["15_91412311_91414869-1",-0.3432808473525247,-15.045311595776084,518],["11_18125296_18129711-2",-0.3025765325351082,-11.91455645563372,528],["19_37801516_37805822-1",-0.3382608155194694,-6.125694752995712,204],["3_44594535_44599018-3",-0.3283197746916713,-13.98410110813762,527]]},"para":{"top":[["23_101904001_101906509-3",0.7012928125516502,-77.7365929093106,522],["23_101904001_101906509-1",0.5530655537103438,-42.18908089322991,519],["23_101906509_101909017-2",0.6161998967373791,-55.6918615451701,527],["23_101906509_101909017-1",0.6478151611133864,-63.423723847748725,528]],"bottom":[["15_90189478_90192048-1",-0.3045644012099329,-11.896818601649061,520],["11_394685_399462-2",-0.2913330984664324,-11.022937473446486,526],["19_37801516_37805822-1",-0.32011987516288476,-5.515956390110655,204]]}}}
