{"depmap_hotspot":{"corr":{"top":[["RASSF9",0.13799714198442656,-3.9479355985248903,19.0,759.0]],"bottom":[["KRT33A",-0.09687323992911472,-2.164334540894398,37.0,741.0]]},"para":{"top":[["B9D2",0.1345248730438085,-4.052063196456168,12.0,766.0],["C1GALT1",0.11938293840208736,-3.357781487144113,12.0,766.0],["C2orf80",0.09902054515605374,-2.53826018806987,8.0,770.0],["DAOA",0.12405621329701359,-3.564381298307465,15.0,763.0],["DSCC1",0.09271223138277962,-2.310715778927391,8.0,770.0],["HUS1",0.11296782332040767,-3.0854975295972995,10.0,768.0],["MRPL34",0.10156099730909174,-2.6333850395909097,8.0,770.0],["NUDT4",0.09870304725958225,-2.526623061794966,10.0,768.0],["OR11A1",0.13046424862261893,-3.8588192651690973,15.0,763.0],["PLA2G2E",0.11160862829638804,-3.0293731249996627,8.0,770.0],["RASSF9",0.13594475311610063,-4.1211489705206255,19.0,759.0],["SH2D4A",0.15932701349601333,-5.348291322711747,17.0,761.0],["STPG1",0.1554929446911319,-5.135097504800632,22.0,756.0],["TGIF2",0.12516722124799526,-3.6141488554499666,8.0,770.0],["TMEM42",0.12446776343450225,-3.5826286140367896,9.0,769.0]],"bottom":[]}}}
{"depmap_damaging":{"corr":{"top":[["PCDH7",0.13411794345688663,-3.7514514261515055,16.0,761.0],["SH2D4A",0.1166678628692936,-2.949975345734156,8.0,769.0]],"bottom":[]},"para":{"top":[["CACNA2D3",0.12406975341156681,-3.561193102218686,10.0,767.0],["COG1",0.11437234309744318,-3.1408394338271965,9.0,768.0],["DDX50",0.10724936631571995,-2.851012698358999,9.0,768.0],["HEATR5A",0.11156481599527196,-3.0246344579631796,8.0,769.0],["PCDH7",0.1434791518902823,-4.492548364382508,16.0,761.0],["PRDM15",0.11189724209464065,-3.0384270668403293,11.0,766.0],["SH2D4A",0.11333795585472002,-3.097694251119601,8.0,769.0],["TFEC",0.11636945303377637,-3.2248964272015948,8.0,769.0],["TM4SF4",0.11785288857033066,-3.2882675556242873,9.0,768.0],["TMEM132C",0.11339515391470222,-3.100067489903753,8.0,769.0],["ZMYM2",0.13928085244983762,-4.280824510951505,13.0,764.0]],"bottom":[["KIF3A",-0.0925717171897447,-2.303754767412155,9.0,768.0]]}}}
{"ccle_metabolomics":{"corr":{"top":[],"bottom":[]},"para":{"top":[["creatine",0.2699991547237603,-13.468758816470768,762]],"bottom":[]}}}
{"ccle_proteomics":{"corr":{"top":[],"bottom":[]},"para":{"top":[["GPD2_P43304",0.320483292753674,-7.817703057409823,298],["PAM_P19021-5",0.33171228282555987,-8.358581808805063,298],["ENTPD6_O75354",0.3513025558661788,-8.53447357814084,270]],"bottom":[["AKNA_Q7Z591",-0.40233366415762567,-8.769375401002605,208],["FAM117A_Q9C073",-0.36132025289167613,-5.445576280268342,156],["RANGRF_Q9HD47",-0.34650226920771576,-6.300660038199956,200]]}}}
{"depmap_gene_tpm":{"corr":{"top":[],"bottom":[]},"para":{"top":[["SEMA3B_7869",0.41326918833984905,-32.556703692858896,774],["FAT1_2195",0.3802013773016293,-27.298760009306847,774],["EPS8_2059",0.3820299681463306,-27.574168632892384,774]],"bottom":[["RASGRP2_10235",-0.3784767359803443,-27.040605616043536,774],["FMNL1_752",-0.40970290908365603,-31.96069664455117,774]]}}}
{"avana":{"corr":{"top":[["RFC2_5982",0.20094046907778831,-4.615977109368442,435]],"bottom":[["FKBPL_63943",-0.2563884784175043,-7.231873944813016,435]]},"para":{"top":[["STK17B_9262",0.2477174334179339,-6.778980529206375,435]],"bottom":[["FKBPL_63943",-0.2601619996398529,-7.434213615368654,435],["SLC26A10_65012",-0.1958253639241867,-4.407180339882383,435]]}}}
{"drive":{"corr":{"top":[],"bottom":[["GPR4_2828",-0.2689119751161358,-5.554387814592474,295],["PRKG2_5593",-0.22817650711229157,-4.115625546481371,295]]},"para":{"top":[["SIK3_23387",0.28634086783668944,-6.266105835397068,296],["PTPN18_26469",0.25807653194943747,-5.147548019739365,295],["TDP2_51567",0.2564237505605619,-5.087055038491277,295],["CFAP44_55779",0.3215510201652024,-7.81939582099725,296],["ABCG8_64241",0.25257006614148253,-4.947599411009,295],["CACNA1H_8912",0.27081003639816903,-5.782453859246537,304]],"bottom":[["GPR4_2828",-0.23769161204495196,-4.429835814161038,295]]}}}
{"achilles":{"corr":{"top":[["UBE4B_10277",0.2711471840107267,-6.587395591245194,350],["PTGDR2_11251",0.26152074053525887,-6.155693146436785,350]],"bottom":[["SPHK2_56848",-0.2485567815097476,-5.600757212381236,350],["ABHD13_84945",-0.25391462581502017,-5.826464781741164,350]]},"para":{"top":[["PTGDR2_11251",0.279444396521691,-6.97317238551974,350],["KIAA1549L_25758",0.27286497594349685,-4.015492480889252,199],["FBXO8_26269",0.24851828952618082,-5.599154089226921,350]],"bottom":[["RABAC1_10567",-0.3108341283029873,-5.10347848898744,199],["SPHK2_56848",-0.25951478294199587,-6.067855666558084,350],["MRPL17_63875",-0.26387758936607236,-3.78014483817615,199],["FNDC4_64838",-0.27110380408282353,-3.9687224939515566,199]]}}}
{"ccle_rrbs_tss1kb":{"corr":{"top":[["P2RY8_23_1656037_1657037",0.9646158161246959,-323.0051853474518,771]],"bottom":[]},"para":{"top":[["P2RY8_23_1656037_1657037",0.9571117221388213,-323.0051853474518,771]],"bottom":[["FASTK_7_150777970_150778970",-0.34861595281820473,-22.725071612322637,771],["MIRLET7BHG_22_46480876_46481876",-0.3588314574439926,-24.116802547603484,771]]}}}
{"ccle_gene_tpm":{"corr":{"top":[],"bottom":[]},"para":{"top":[["SEMA3B_ENSG00000012171.13",0.4152804048813144,-32.771858426159945,771],["FAT1_ENSG00000083857.9",0.37971714767345244,-27.123858659779135,771],["EPS8_ENSG00000151491.8",0.3814000544473466,-27.375859824323037,771],["RP1-102K2.8_ENSG00000268812.2",0.39845039858415165,-30.013306520167223,771]],"bottom":[["FMNL1_ENSG00000184922.9",-0.41108016470843317,-32.06859248277112,771],["RP11-13P5.1_ENSG00000224478.1",-0.3901878922704342,-28.715880141852402,771],["CTD-2020K17.1_ENSG00000267121.1",-0.3999049866645968,-30.245537995745742,771]]}}}
{"ccle_rrbs_tss_clusters":{"corr":{"top":[["P2RY8_1",0.888030163144783,-263.34903814178756,778]],"bottom":[]},"para":{"top":[["P2RY8_1",0.8607356860665537,-229.0306775941591,778]],"bottom":[["TMUB1_1",-0.336236240923606,-21.290097842366823,778],["TMUB1_4",-0.3479561213072301,-22.83501732499152,778],["FASTK_2",-0.34516150442675614,-22.46063755636818,778],["MIRLET7BHG_1",-0.33071748444233245,-19.567884175283545,738],["MIRLET7BHG_3",-0.3639871451079928,-25.056643951080996,778]]}}}
{"ccle_rrbs_cgi_clusters":{"corr":{"top":[["23_1653879_1658123-1",0.6537101143729513,-90.44091487106182,738],["23_1653879_1658123-2",0.8699045549648957,-239.68314770161413,778]],"bottom":[]},"para":{"top":[["23_1653879_1658123-2",0.8339100109952822,-201.78056075509332,778],["23_1653879_1658123-1",0.6544226035577667,-90.70171046890277,738]],"bottom":[["22_46479815_46484024-2",-0.3620303342066855,-24.778618997612277,778],["7_150775607_150779243-2",-0.3606006463095978,-24.576703088690465,778]]}}}
