{"depmap_hotspot":{"corr":{"top":[["ADAMTS2",0.1854842417833364,-6.449861829176304,93.0,650.0],["FLNB",0.21032037351422136,-8.147671927369704,104.0,639.0],["IFT140",0.2005186812998693,-7.451582459250368,74.0,669.0],["KCNMA1",0.205046010216237,-7.768840800598562,64.0,679.0],["PPFIA2",0.17144208108953113,-5.58506865472703,81.0,662.0]],"bottom":[]},"para":{"top":[["ACP5",0.11266562531240673,-2.967870804931994,9.0,734.0],["BCKDK",0.15436506179753734,-4.882765761006677,14.0,729.0],["CCNDBP1",0.12049676095763923,-3.2871906386393093,10.0,733.0],["CD80",0.1475842269184475,-4.535189010662356,13.0,730.0],["CSAD",0.17041729871373001,-5.762319614436336,22.0,721.0],["CST6",0.13172096749495493,-3.7771185926176036,10.0,733.0],["DMAP1",0.12528687474623373,-3.4916553961548358,11.0,732.0],["ENHO",0.12084823806101021,-3.3018198919352257,8.0,735.0],["GADD45GIP1",0.12710037048106199,-3.5707395770380184,9.0,734.0],["GNAT1",0.14348998571094354,-4.332195192615997,13.0,730.0],["GPR146",0.14664405837969213,-4.488200889664193,15.0,728.0],["HPS6",0.1756517311977405,-6.066294075430052,21.0,722.0],["JAGN1",0.12466497357950647,-3.4646700130009584,10.0,733.0],["LEFTY1",0.1422812456186736,-4.273017836584996,9.0,734.0],["LGI3",0.18486803081280306,-6.622354376176027,25.0,718.0],["LMLN",0.18638262904999248,-6.716254072901812,25.0,718.0],["LY96",0.1138996094918345,-3.016952694246694,9.0,734.0],["MICU1",0.14007371072773842,-4.166790752113299,14.0,729.0],["MXI1",0.14657709762244112,-4.484858854392683,15.0,728.0],["NFIL3",0.14775122210697716,-4.543694390977064,16.0,727.0],["RPL6",0.13467898708894663,-3.91276265113046,13.0,730.0],["SLC35D1",0.13178515663141174,-3.780087179341911,11.0,732.0],["WNT9B",0.13475081588206078,-3.9160860056849223,13.0,730.0],["ZNRF1",0.1448137976814981,-4.397347430872105,15.0,728.0]],"bottom":[]}}}
{"depmap_damaging":{"corr":{"top":[],"bottom":[]},"para":{"top":[["AGAP3",0.12169992461165412,-3.3377464780668635,8.0,735.0],["AMHR2",0.11519060597458987,-3.068722654240012,8.0,735.0],["ARHGEF17",0.13308452498579224,-3.8393517475352104,12.0,731.0],["CECR2",0.14950105068906822,-4.6320780095760945,15.0,728.0],["CEP250",0.1249193751871896,-3.4756096378945567,9.0,734.0],["CSTF2T",0.10652165358410716,-2.730222179097625,8.0,735.0],["HDAC5",0.13892366075837012,-4.111632441688602,9.0,734.0],["IL3RA",0.1473858188516455,-4.525067686624472,10.0,733.0],["KCNH2",0.1269568839485704,-3.564436672350189,9.0,734.0],["MAP1S",0.14331434865261314,-4.3233696431490145,9.0,734.0],["MTMR9",0.12531959245189078,-3.4928834300101412,8.0,735.0],["NFRKB",0.14128871527646425,-4.22486851447105,8.0,735.0],["OR6C75",0.13009610002353644,-3.7039311028227537,12.0,731.0],["PHKA2",0.11412599778628499,-3.0259381297503203,8.0,735.0],["PLXND1",0.1299126163500062,-3.6954580724641466,8.0,735.0],["PRR14",0.12813347351500157,-3.616305050037995,9.0,734.0],["RCBTB2",0.12569420246264432,-3.509240545124728,9.0,734.0],["SPECC1",0.1552237732478374,-4.92769169734641,12.0,731.0],["SYNJ2",0.14272219548906726,-4.294653830824567,12.0,731.0],["THBS3",0.13275373986123118,-3.8240550582388053,9.0,734.0],["TNXB",0.13973094553797205,-4.150347453708935,13.0,730.0],["UBAP2L",0.14904514636268568,-4.608540376340431,8.0,735.0],["ZKSCAN2",0.12158648974766988,-3.333083006345965,10.0,733.0]],"bottom":[]}}}
{"drive":{"corr":{"top":[],"bottom":[]},"para":{"top":[],"bottom":[["KIF12_113220",-0.2923676495928031,-5.974115977383602,269],["DNA2_1763",-0.24391205515912265,-4.277704098557028,269],["RNF111_54778",-0.2486312246317508,-4.428682601781927,269],["BARX1_56033",-0.24047436506267925,-4.196930371292982,271]]}}}
{"achilles":{"corr":{"top":[["TMEM87A_25963",0.27150133386332054,-3.820489129071522,190],["NUFIP2_57532",0.25147154210272427,-3.332035897181434,190]],"bottom":[]},"para":{"top":[["NUFIP2_57532",0.24352515139286954,-3.148804997504706,190]],"bottom":[]}}}
{"ccle_rrbs_tss_clusters":{"corr":{"top":[["GPC4_1",0.8803154402107427,-241.46231860176357,743],["GPC4_2",0.6498583753086741,-89.64043391783571,743]],"bottom":[]},"para":{"top":[["GPC4_1",0.8820578159364035,-243.67384137779752,743],["GPC4_2",0.6738851117444066,-98.7682321409597,743]],"bottom":[]}}}
{"ccle_rrbs_cgi_clusters":{"corr":{"top":[["23_132545567_132548925-2",0.7199208161021484,-118.44081755456727,740]],"bottom":[]},"para":{"top":[["23_132545567_132548925-2",0.7425122613128123,-129.84036108662485,740]],"bottom":[]}}}
