{"depmap_hotspot":{"corr":{"top":[],"bottom":[]},"para":{"top":[["CXorf38",0.10337702674732761,-2.7079330518277795,12.0,768.0],["RAB8A",0.10206411482701282,-2.657522637925294,9.0,771.0]],"bottom":[]}}}
{"depmap_damaging":{"corr":{"top":[],"bottom":[]},"para":{"top":[],"bottom":[["GABBR1",-0.1171109581349079,-3.26319281097423,14.0,765.0]]}}}
{"ccle_proteomics":{"corr":{"top":[["BBS2_Q9BXC9",0.4068054526980112,-5.56038407575802,124]],"bottom":[]},"para":{"top":[["BBS2_Q9BXC9",0.4232798439285614,-6.01397475746578,124],["REV3L_O60673",0.3719047969280522,-4.0966879583326525,107]],"bottom":[["ELF4_Q99607",-0.3923111708471125,-8.112105377230279,202]]}}}
{"drive":{"corr":{"top":[],"bottom":[["LOC105378669&DNAJC18&RIPOR2_105378669&202052&9750",-0.25509157412646605,-4.378843866364655,252],["NR1I3_9970",-0.31826848316329015,-7.641938004987188,295]]},"para":{"top":[["SIK2_23235",0.31349984179760304,-7.677520519003995,306]],"bottom":[["LOC105378669&DNAJC18&RIPOR2_105378669&202052&9750",-0.28081462481377295,-5.223212294671632,252],["NR1I3_9970",-0.3079606316703488,-7.173146901467083,295]]}}}
{"achilles":{"corr":{"top":[],"bottom":[["RFNG_5986",-0.2768699038150829,-4.141351295203845,200]]},"para":{"top":[],"bottom":[]}}}
{"ccle_rrbs_tss_clusters":{"corr":{"top":[["MIR4254_3",0.559818808789749,-64.81445646006594,780],["LIMS2_5",0.9295245780801954,-323.0051853474518,780]],"bottom":[]},"para":{"top":[["LIMS2_5",0.9228796472234718,-323.0051853474518,780]],"bottom":[["MIR3130-1_2",-0.18147005910801833,-6.2711576539898015,753]]}}}
{"ccle_rrbs_cgi_clusters":{"corr":{"top":[["2_128431010_128435490-2",0.9295245780801954,-323.0051853474518,780]],"bottom":[]},"para":{"top":[["2_128431010_128435490-2",0.9228796472234718,-323.0051853474518,780]],"bottom":[]}}}
