{"depmap_hotspot":{"corr":{"top":[],"bottom":[]},"para":{"top":[["CCL21",0.12447324094206613,-3.788179804552011,8.0,827.0],["CD247",0.11975988440674068,-3.5652592640524836,14.0,821.0],["NIF3L1",0.11560959607794803,-3.3750403356584355,16.0,819.0],["TSPAN13",0.11110581964928556,-3.1751603711300147,15.0,820.0]],"bottom":[]}}}
{"depmap_damaging":{"corr":{"top":[["MAP2K7",0.16097521986926894,-5.526101975870736,11.0,823.0]],"bottom":[]},"para":{"top":[["MAP2K7",0.13326950816207914,-4.221198268499695,11.0,823.0],["MYL6B",0.09820878111086714,-2.638262342256244,9.0,825.0],["MYRFL",0.1183863532437462,-3.4981488584859743,9.0,825.0],["RTL1",0.11367164794438464,-3.284838500716346,8.0,826.0],["SLC18A1",0.10438449777472188,-2.886809123615497,8.0,826.0]],"bottom":[]}}}
{"ccle_proteomics":{"corr":{"top":[],"bottom":[]},"para":{"top":[],"bottom":[["KIF5C_O60282",-0.3286136171487386,-7.798647976200558,282]]}}}
{"depmap_gene_tpm":{"corr":{"top":[],"bottom":[]},"para":{"top":[],"bottom":[["KIF5C_3800",-0.49017551039005497,-50.716668198295885,831]]}}}
{"ccle_rrbs_tss1kb":{"corr":{"top":[["KIF5C_2_149631791_149632791",0.8170651423872606,-195.18983870140687,812],["CNR1_6_88875715_88876715",0.6717001706076439,-107.69480709276253,818]],"bottom":[]},"para":{"top":[["KIF5C_2_149631791_149632791",0.5853790562495383,-75.11823093216933,812]],"bottom":[]}}}
{"ccle_gene_tpm":{"corr":{"top":[],"bottom":[]},"para":{"top":[],"bottom":[["KIF5C_ENSG00000168280.12",-0.49440389255218165,-51.52615279189713,828]]}}}
{"ccle_rrbs_tss_clusters":{"corr":{"top":[["KIF5C_2",0.990544760618818,-323.0051853474518,835],["KIF5C_3",0.7891551981577916,-176.52581064481174,829],["CNR1_1",0.6826684010904125,-114.20210381579317,830],["CNR1_6",0.6825157109703053,-85.74811680351785,622],["CCDC184_1",0.67176213361881,-109.94160027643382,835]],"bottom":[]},"para":{"top":[["KIF5C_2",0.9843939233529045,-323.0051853474518,835]],"bottom":[]}}}
{"ccle_rrbs_cgi_clusters":{"corr":{"top":[["2_149633282_149635882-2",0.7300860327150737,-136.18068906090718,817],["12_48575361_48577967-1",0.67176213361881,-109.94160027643382,835],["2_149630682_149633282-2",0.8171195741685046,-186.6150015330931,776]],"bottom":[]},"para":{"top":[["2_149630682_149633282-2",0.7151209904043135,-121.77181592216051,776]],"bottom":[]}}}
