{"depmap_hotspot":{"corr":{"top":[],"bottom":[]},"para":{"top":[["LYZL2",0.10396517569306617,-2.7487350018223973,13.0,774.0]],"bottom":[["BTLA",-0.11064566891029125,-3.0163731004235492,13.0,774.0],["C10orf111",-0.0880694059510564,-2.168274070705391,8.0,779.0],["FTL",-0.12410210594379106,-3.5984833822967377,9.0,778.0],["IHH",-0.12278434136018096,-3.5393637616976674,25.0,762.0],["PBDC1",-0.0995540124103103,-2.579642057529333,10.0,777.0],["PIN1",-0.0990990240077043,-2.562453013087709,8.0,779.0],["UBE2L6",-0.10049873363947422,-2.6152635061377465,9.0,778.0],["ZC3HC1",-0.12558072690890915,-3.666400899956138,20.0,767.0]]}}}
{"depmap_damaging":{"corr":{"top":[],"bottom":[]},"para":{"top":[["GABRG3",0.10766613494374601,-2.892426550421577,11.0,775.0],["VWA3B",0.12933473019721137,-3.8369751197624806,14.0,772.0]],"bottom":[["HLCS",-0.09621113069789838,-2.453325881465851,8.0,778.0],["LRRC37A2",-0.1332440133606661,-4.023288644566576,11.0,775.0],["TLR10",-0.11480598684808659,-3.187080089842474,12.0,774.0]]}}}
{"prism_secondary_logfold":{"corr":{"top":[["PI3K-IN-2_BRD-K62374002-001-01-5::2.5::MTS006",0.24814338869280117,-6.186169549324586,392]],"bottom":[]},"para":{"top":[],"bottom":[]}}}
{"ccle_proteomics":{"corr":{"top":[["PDGFRB_P09619",0.45341646972710437,-7.733331514847156,140],["GBP1_P32455",0.3165957153379762,-7.635541912247012,298],["CD70_P32970",0.3256607624008398,-4.935460684028809,174]],"bottom":[["NDUFA8_P51970",-0.31102696579478323,-7.561319460837326,306],["MRPL52_Q86TS9",-0.30580782329975364,-7.121514073313352,297],["MRPL46_Q9H2W6",-0.30558798707722473,-7.309470378379192,306],["FIP1L1_Q6UN15-3",-0.3072357498204296,-6.227394756841031,254],["ERP29_P30040",-0.3280208932253323,-8.381600408010097,306],["MRPS31_Q92665",-0.33128650965736045,-8.54513031084529,306],["MRPL50_Q8N5N7",-0.3629354291486983,-10.23245684709333,306],["SLIRP_Q9GZT3",-0.3412579895068706,-9.056502853567318,306],["TXN2_Q99757",-0.3128912228610278,-7.487430314102571,299],["COX5A_P20674",-0.3118795123595451,-7.601260572759993,306],["ZNF552_Q9H707",-0.36483658459762525,-5.54779304872861,156]]},"para":{"top":[["MYH11_P35749-2",0.3207923132510573,-8.026434587273428,306],["PDGFRB_P09619",0.4123877487844481,-6.384019917091566,140],["HLA-A_P30456",0.34145303459108045,-3.8116014527506117,118],["GBP1_P32455",0.32996737197697257,-8.273083763040924,298],["MLTK_Q9NYL2-2",0.348631633223763,-6.812492943702182,215],["ANXA6_A6NN80",0.3161764367138127,-5.864985055271355,224]],"bottom":[["MRPL46_Q9H2W6",-0.3173502401276415,-7.860579526661968,306],["FIP1L1_Q6UN15-3",-0.3320442624599296,-7.225678752188869,254],["ATP5H_O75947",-0.3180576398749424,-7.8944945318875845,306],["PYURF_Q96I23",-0.3337351589273474,-7.3234819213324505,255],["ERP29_P30040",-0.32007583095832215,-7.991738478457612,306],["MRPS31_Q92665",-0.33987957095703253,-8.984722821607816,306],["MRPL50_Q8N5N7",-0.3800850642135829,-11.22760049647642,306],["SLIRP_Q9GZT3",-0.364559274680306,-10.32418379661796,306],["TXN2_Q99757",-0.3388981985466164,-8.743567145323027,299],["COX5A_P20674",-0.3280498498279796,-8.383041982666208,306],["NDUFS8_O00217",-0.32250293014505615,-8.10964075307431,306],["NDUFA5_Q16718",-0.32948316493068835,-8.454587128991157,306],["ZNF552_Q9H707",-0.34248988174057216,-4.918437466935338,156]]}}}
{"depmap_gene_tpm":{"corr":{"top":[["COL6A3_1293",0.412948611358256,-32.87070684723948,783]],"bottom":[]},"para":{"top":[["COL6A3_1293",0.3695102650416249,-26.01257730503835,783],["MYBL1_4603",0.3358244930626683,-21.368299258497316,783]],"bottom":[]}}}
{"drive":{"corr":{"top":[["CYP2B7P_1556",0.27677982194590345,-5.951050651181842,300],["GRK6_2870",0.26282599606220614,-5.437216927224891,302],["OXTR_5021",0.28603195589342306,-6.330256374297631,300]],"bottom":[]},"para":{"top":[["CYP2B7P_1556",0.25086700133505013,-4.960621505098491,300],["GRK6_2870",0.3081972568446171,-7.340249591130408,302],["OXTR_5021",0.27554939469802653,-5.901650490015021,300],["RNF40_9810",0.25004523989970584,-4.960272774646132,302]],"bottom":[["LMNA_4000",-0.24374595553990797,-4.706452069336467,300]]}}}
{"ccle_rrbs_tss1kb":{"corr":{"top":[],"bottom":[["LOC100126784_11_19736218_19737218",-0.3095875931465553,-7.381379346298166,301]]},"para":{"top":[],"bottom":[]}}}
{"ccle_gene_tpm":{"corr":{"top":[["COL6A3_ENSG00000163359.11",0.4142675842661919,-32.97181817464012,780],["MYBL1_ENSG00000185697.12",0.33196937351066536,-20.79512407984375,780]],"bottom":[]},"para":{"top":[["COL6A3_ENSG00000163359.11",0.3699889859200643,-25.98595091621906,780],["MYBL1_ENSG00000185697.12",0.3370402956185198,-21.446909003231607,780],["AC112721.2_ENSG00000222032.1",0.3657367954519226,-25.369782628646718,780],["RP11-893F2.5_ENSG00000249406.1",0.34534070493407154,-22.540231577763407,780]],"bottom":[]}}}
{"ccle_rrbs_cgi_clusters":{"corr":{"top":[["2_238278475_238282769-2",0.618332260742952,-81.7887075764285,771],["2_238278475_238282769-1",0.5858879098767324,-72.98876573535384,787]],"bottom":[]},"para":{"top":[["2_238278475_238282769-2",0.6198935113320838,-82.31325179045808,771],["2_238278475_238282769-1",0.6382426420324919,-90.52914536295775,787]],"bottom":[]}}}
