{"depmap_hotspot":{"corr":{"top":[],"bottom":[]},"para":{"top":[["HDDC3",0.13398376791812272,-4.191694329951962,12.0,806.0]],"bottom":[["KRT18",-0.10292163689888321,-2.7866685468838854,15.0,803.0],["MRPS5",-0.12248220484190056,-3.6340369329665814,18.0,800.0],["NRSN2",-0.11552631912599234,-3.317947822205014,11.0,807.0]]}}}
{"depmap_damaging":{"corr":{"top":[],"bottom":[["CNTNAP5",-0.13989244366086634,-4.220721151846595,22.0,795.0]]},"para":{"top":[],"bottom":[["BBS10",-0.07732910996438326,-1.865985996202605,8.0,809.0],["CNTNAP5",-0.12460068205725933,-3.7299232916321747,22.0,795.0],["IL1B",-0.06997322122245932,-1.64103981462738,8.0,809.0],["KIAA1549L",-0.10324609431316904,-2.7968672389171494,8.0,809.0],["PLCZ1",-0.13976188609655496,-4.484016404442896,8.0,809.0]]}}}
{"ccle_proteomics":{"corr":{"top":[["ADD2_P35612",0.32358050897710605,-8.211708005323382,308],["ZBED4_O75132",0.28251480333701257,-3.64560504045441,166],["CDKN3_Q16667",0.43582259950045965,-5.376968850671162,103]],"bottom":[]},"para":{"top":[["ADD2_P35612",0.3487444877873585,-9.510224835694137,308],["ZBED4_O75132",0.3012375848573258,-4.095921797829254,166],["CDKN3_Q16667",0.3750769012775809,-4.0234479117964606,103]],"bottom":[]}}}
{"depmap_gene_tpm":{"corr":{"top":[],"bottom":[["RAMP1_10267",-0.5217822428207098,-57.30872215738637,814]]},"para":{"top":[],"bottom":[["RAMP1_10267",-0.45444151543947664,-42.00021982459124,814]]}}}
{"avana":{"corr":{"top":[],"bottom":[]},"para":{"top":[["ATP6V0E2_155066",0.20870053138897862,-5.155480825145054,456],["SRRD_402055",0.24523160486934575,-6.9447000374495005,456],["TMTC4_84899",0.21149823278137156,-5.282039596619459,456]],"bottom":[]}}}
{"drive":{"corr":{"top":[],"bottom":[["GPI_2821",-0.26226471726207334,-5.528696653220196,309]]},"para":{"top":[],"bottom":[]}}}
{"ccle_gene_tpm":{"corr":{"top":[],"bottom":[["RAMP1_ENSG00000132329.6",-0.5221478456883875,-57.193348027847215,811]]},"para":{"top":[],"bottom":[["RAMP1_ENSG00000132329.6",-0.45548220658435584,-42.05948605834931,811],["RP5-881L22.5_ENSG00000226812.2",-0.35485421136217826,-24.748709543536442,811]]}}}
{"ccle_rrbs_tss_clusters":{"corr":{"top":[["RAMP1_3",1.0,-323.0051853474518,818]],"bottom":[]},"para":{"top":[["RAMP1_3",1.0,-323.0051853474518,818]],"bottom":[]}}}
{"ccle_rrbs_cgi_clusters":{"corr":{"top":[],"bottom":[]},"para":{"top":[["23_153030468_153035354-1",0.4749203405805983,-46.411474692730856,816]],"bottom":[]}}}
