{"depmap_hotspot":{"corr":{"top":[],"bottom":[]},"para":{"top":[["PGA5",0.12738939410586284,-3.911486385969056,11.0,819.0],["TLCD1",0.11059175912193474,-3.138245831052399,11.0,819.0]],"bottom":[]}}}
{"depmap_damaging":{"corr":{"top":[],"bottom":[]},"para":{"top":[["VPS13D",0.13380483876956648,-4.228289241513268,20.0,809.0]],"bottom":[]}}}
{"ccle_proteomics":{"corr":{"top":[],"bottom":[]},"para":{"top":[["DVL3_Q92997",0.2787479091201539,-6.121755679941447,305]],"bottom":[]}}}
{"avana":{"corr":{"top":[],"bottom":[]},"para":{"top":[["TRIP11_9321",0.24299846073106013,-6.922317234425333,463]],"bottom":[]}}}
{"achilles":{"corr":{"top":[],"bottom":[]},"para":{"top":[["ALDH1L2_160428",0.32307170663699164,-5.911402217656769,216]],"bottom":[]}}}
{"ccle_rrbs_tss1kb":{"corr":{"top":[["MIR4540_9_36864305_36865305",0.6260468452161878,-87.87537670491888,803],["COX4I2_20_30224690_30225690",0.6018463096179935,-80.44086464911936,812]],"bottom":[]},"para":{"top":[],"bottom":[]}}}
{"ccle_rrbs_tss_clusters":{"corr":{"top":[["ECE2_3",1.0,-323.0051853474518,830]],"bottom":[]},"para":{"top":[["ECE2_3",0.9999999999999999,-323.0051853474518,830]],"bottom":[]}}}
{"ccle_rrbs_cgi_clusters":{"corr":{"top":[["5_176105068_176109521-1",0.6490028269110572,-99.32781348448478,827]],"bottom":[]},"para":{"top":[],"bottom":[]}}}
