{"depmap_hotspot":{"corr":{"top":[],"bottom":[["SNCG",-0.09346627119209343,-2.143460407588522,8.0,818.0]]},"para":{"top":[["ELP5",0.1407565690172536,-4.577509326290756,16.0,810.0],["FAM89A",0.1077417550734834,-3.0053682305975173,8.0,818.0],["RELL1",0.1194456758501394,-3.520662037092344,13.0,813.0],["RPP30",0.11081167783515018,-3.1362191930668954,12.0,814.0],["RPS7",0.12091451357584912,-3.5882996082458187,8.0,818.0],["TPSG1",0.12678918969889347,-3.8672573126101026,10.0,816.0],["ZNF705A",0.12248500149141,-3.6619167485582658,12.0,814.0]],"bottom":[["SNCG",-0.09306502020667434,-2.424100659471315,8.0,818.0]]}}}
{"depmap_damaging":{"corr":{"top":[],"bottom":[["C3orf67",-0.10996752293174127,-2.807027508858706,8.0,817.0]]},"para":{"top":[["AMER3",0.13043541435462927,-4.04213643030821,8.0,817.0]],"bottom":[["C3orf67",-0.10027498494500481,-2.698317638775527,8.0,817.0]]}}}
{"prism_secondary_logfold":{"corr":{"top":[],"bottom":[["PHA-848125_BRD-K60997853-001-02-3::10::HTS002",-0.2921751175009988,-8.467273515197503,394]]},"para":{"top":[],"bottom":[["PHA-848125_BRD-K60997853-001-02-3::10::HTS002",-0.28874245808871196,-8.277033233616518,394]]}}}
{"ccle_proteomics":{"corr":{"top":[["CPSF2_Q9P2I0",0.28843000466483104,-6.860234096672682,322],["PTBP3_O95758-4",0.3439794380556815,-9.647423757562532,322]],"bottom":[]},"para":{"top":[["LRR1_Q96L50",0.32845434186793143,-3.417191628333348,113],["PTBP3_O95758-4",0.34330023276052024,-9.60982587367621,322]],"bottom":[]}}}
{"avana":{"corr":{"top":[["KLF14_136259",0.270010551468796,-8.450670377768704,463],["MSL3_10943",0.2616752873308813,-7.468625568763502,432]],"bottom":[]},"para":{"top":[["KLF14_136259",0.259676814681147,-7.845352652734334,463],["MSL3_10943",0.2516008724792757,-6.935727172714537,432]],"bottom":[]}}}
{"drive":{"corr":{"top":[["WASL_8976",0.272421315358412,-6.2120459744495165,325]],"bottom":[]},"para":{"top":[["WASL_8976",0.29684254212117916,-7.308115743446982,325]],"bottom":[["ARL5C_390790",-0.3179826427636828,-8.033802663445568,312]]}}}
{"achilles":{"corr":{"top":[["ERVK13-1_100507321",0.34845792226565625,-6.747770379999076,213],["CCDC196_440184",0.36260251046210407,-7.291470178374467,213],["ATRX_546",0.28804133371255464,-7.774098508324536,370],["C11orf49_79096",0.29533893983177734,-4.931878507322198,213],["CARD6_84674",0.34132351034374003,-6.483471865860933,213]],"bottom":[["HRASLS5_117245",-0.3038868114536744,-5.201039609097837,213],["SEMA3D_223117",-0.31649089207398295,-9.325774931525357,370],["AADACL2_344752",-0.298293975789613,-5.02396444943674,213],["MYO1E_4643",-0.2828922520061012,-4.555033281382087,213]]},"para":{"top":[["ERVK13-1_100507321",0.31119186484313766,-5.437883935671363,213],["TEKT5_146279",0.3346499555281062,-6.242147839284172,213],["CIZ1_25792",0.32567039863494446,-5.926282281524876,213],["CCDC196_440184",0.33809137846231646,-6.365887263524848,213],["MEAF6_64769",0.2934428414684698,-4.873324327728476,213],["CARD6_84674",0.31110546127352723,-5.435045428537084,213],["SECISBP2L_9728",0.3009902912402626,-8.459572134092884,370]],"bottom":[["LOC107987397_107987397",-0.2801643336421533,-4.474791848526152,213],["SEMA3D_223117",-0.3036647139120371,-8.605435018374964,370],["MYO1E_4643",-0.29274959061382505,-4.852019338763683,213]]}}}
{"ccle_rrbs_tss1kb":{"corr":{"top":[["NUPR1_16_28550495_28551495",0.4122190655688226,-33.23547575170549,795]],"bottom":[]},"para":{"top":[["NUPR1_16_28550495_28551495",0.4231475090174652,-35.151020550579645,795]],"bottom":[]}}}
{"ccle_rrbs_tss_clusters":{"corr":{"top":[["PLXNB3_3",0.4620921804159165,-43.93946044800193,821],["RDH5_3",0.5350501122116176,-60.38252149167907,809]],"bottom":[]},"para":{"top":[["RDH5_3",0.4972372346814827,-51.02003608495581,809]],"bottom":[]}}}
{"ccle_rrbs_cgi_clusters":{"corr":{"top":[["3_193985425_193989758-1",0.4263619923450588,-36.736162262839834,818],["21_45620218_45624500-3",0.4692740325011578,-45.35656034443451,819]],"bottom":[]},"para":{"top":[["21_44484140_44488465-2",0.43973113790159046,-39.3217601641346,819],["21_45620218_45624500-3",0.45413194595473044,-42.18952802939367,819]],"bottom":[]}}}
