{"depmap_hotspot":{"corr":{"top":[["ATP5C1",0.19627489252258878,-8.02227507782066,15.0,826.0],["AZIN1",0.19069867401426838,-7.602028831666564,21.0,820.0],["BDKRB2",0.21666290153679915,-9.665368348871588,28.0,813.0],["BDNF",0.22344327320622367,-10.249492041391795,19.0,822.0],["C1QL3",0.2420043416976544,-11.946997221809887,20.0,821.0],["CCDC159",0.2027848005417697,-8.528621351287368,17.0,824.0],["CCDC85A",0.18688013247783233,-7.321367850216602,42.0,799.0],["CHCHD6",0.19201517943637794,-7.700130312077006,9.0,832.0],["CTD-2545M3.6",0.19680026145196575,-8.062508174294669,11.0,830.0],["DPH6",0.28262603137568054,-16.183784660002228,8.0,833.0],["ELANE",0.18905057204603037,-7.48018662447612,16.0,825.0],["FST",0.235511719643368,-11.336645853126097,22.0,819.0],["GGNBP1",0.19753737301609287,-8.11914282180365,11.0,830.0],["HCAR3",0.196516104016636,-8.040733506981374,23.0,818.0],["ITM2C",0.18937247946267682,-7.503900318888705,13.0,828.0],["KIAA1328",0.20889691505439265,-9.019589682259626,26.0,815.0],["KRT8",0.19077061061979306,-7.60737153641733,27.0,814.0],["LCE2C",0.18504666518756316,-7.188654635918463,8.0,833.0],["MAML3",0.24590487198640373,-12.322348692444981,70.0,771.0],["MYO1D",0.20068788763417308,-8.363662342004634,70.0,771.0],["N4BP2L1",0.21587297732520036,-9.598552324562716,17.0,824.0],["NPC2",0.23722734675614016,-11.496181127707626,9.0,832.0],["ORMDL1",0.2011066115760905,-8.39646081042788,8.0,833.0],["PAK1IP1",0.2237878243013438,-10.279684015237752,18.0,823.0],["RFC5",0.21625069418030388,-9.630469593957708,19.0,822.0],["SETDB1",0.2614027024073812,-13.878969877736369,55.0,786.0],["SPATA4",0.19847025684274178,-8.191131263831785,22.0,819.0],["UNCX",0.2381329604756155,-11.58089822358587,21.0,820.0],["VPS28",0.1898543320540899,-7.539473225990196,15.0,826.0],["WDR46",0.23038897225280822,-10.867699453658108,31.0,810.0],["ZNF783",0.19623356263999805,-8.019114690859286,33.0,808.0]],"bottom":[]},"para":{"top":[["LAMTOR4",0.1116803961468774,-3.217639752681004,9.0,832.0],["NPC2",0.10548519601925033,-2.950991346749168,9.0,832.0],["PIK3IP1",0.12535031608804073,-3.852738659766628,15.0,826.0]],"bottom":[]}}}
{"depmap_damaging":{"corr":{"top":[["AMBRA1",0.19236448272814233,-7.717842118315444,9.0,831.0],["CCDC65",0.18930995654851634,-7.491121799423741,8.0,832.0],["COL1A1",0.18063006537711457,-6.8669422442064185,12.0,828.0],["CTPS1",0.21424975987817768,-9.451606219974662,9.0,831.0],["EML2",0.21966014371921833,-9.910244949429318,8.0,832.0],["FLJ00104",0.18575500437191078,-7.231901006988681,13.0,827.0],["GABRG1",0.2527280691426642,-12.980172921968927,10.0,830.0],["HAUS3",0.23193029691783795,-10.995374547925506,9.0,831.0],["KCNQ1",0.2229273504706758,-10.193058590692067,12.0,828.0],["KRT75",0.16715599527730782,-5.956172523556457,8.0,832.0],["SLC44A4",0.28072657085926,-15.951108830951343,11.0,829.0],["SPTBN2",0.19685398740862217,-8.057801180270355,8.0,832.0],["SYCP2",0.21275771948582953,-9.327240779713827,25.0,815.0],["ZNF292",0.16800652812754074,-6.011592037899017,67.0,773.0]],"bottom":[]},"para":{"top":[["FRMPD1",0.13152642898259856,-4.156354497448394,8.0,832.0],["PPP3CA",0.11641139945366244,-3.4270259830132144,11.0,829.0]],"bottom":[]}}}
{"prism_primary_logfold":{"corr":{"top":[],"bottom":[["inosine_BRD-K79612754-001-19-1::2.62::HTS",-0.23846113912089043,-6.5377644424239,452]]},"para":{"top":[],"bottom":[]}}}
{"drive":{"corr":{"top":[],"bottom":[]},"para":{"top":[["EDC4_23644",0.299158298549797,-7.375535044337113,323]],"bottom":[]}}}
{"achilles":{"corr":{"top":[],"bottom":[]},"para":{"top":[["RBSN_64145",0.26454020620708124,-4.164488064781935,221]],"bottom":[]}}}
{"ccle_rrbs_tss1kb":{"corr":{"top":[["MIR5787_3_50263867_50264867",0.8618018819471993,-244.09723449591553,825],["GNAI2_3_50263119_50264119",0.9156841605484981,-323.0051853474518,828],["ARHGAP19-SLIT1_10_99052430_99053430",0.4533307501243116,-24.724526963286475,475],["BCL6B_17_6925368_6926368",0.49737112369106246,-52.290660430118706,829]],"bottom":[]},"para":{"top":[["MIR5787_3_50263867_50264867",0.7267018808661615,-135.62679418114547,825],["GNAI2_3_50263119_50264119",0.8361359405404806,-216.90471624110495,828]],"bottom":[]}}}
{"ccle_gene_tpm":{"corr":{"top":[["RNU1-49P_ENSG00000200338.1",0.25720575834473847,-13.341242282591864,834],["RP11-344A7.1_ENSG00000227443.2",0.2694942296286075,-14.617391385484884,834],["AC106017.1_ENSG00000230493.2",0.24001210207762577,-11.665861193715301,834],["LINC01052_ENSG00000234767.1",0.37457866759492564,-28.44853662102965,834],["RP11-475C16.2_ENSG00000237312.1",0.24816579065462097,-12.44454310015308,834],["CYCSP26_ENSG00000254601.1",0.34242772355768986,-23.62954326066227,834],["HMBOX1-IT1_ENSG00000259196.1",0.27935913859821376,-15.690437855561271,834]],"bottom":[]},"para":{"top":[],"bottom":[]}}}
{"ccle_rrbs_tss_clusters":{"corr":{"top":[["MIR5787_1",0.9999999999999999,-323.0051853474518,841],["MIR5787_2",0.5005839735438676,-52.17948548447488,815],["GNAI2_11",0.90283051850646,-309.0386613374877,841],["ZNF839_2",0.46009404519992314,-44.45579635341598,839],["TBX6_3",0.5163975882224838,-57.645252851301144,839],["MIR497HG_2",0.5123817285683628,-56.75358850150775,841],["BCL6B_2",0.5244668100374192,-59.74557312326539,839]],"bottom":[]},"para":{"top":[["MIR5787_1",1.0,-323.0051853474518,841],["GNAI2_11",0.8252447821230159,-209.65323794980114,841],["ACSL1_4",0.45458620846208064,-43.34331209904402,840]],"bottom":[]}}}
{"ccle_rrbs_cgi_clusters":{"corr":{"top":[["3_50261685_50265908-2",0.5005839735438676,-52.17948548447488,815],["17_6923400_6926464-2",0.5244668100374192,-59.74557312326539,839],["16_30100816_30105695-3",0.5163975882224838,-57.645252851301144,839]],"bottom":[]},"para":{"top":[["6_33127291_33131718-1",0.48386839625388683,-49.8430967791701,841],["20_62670017_62672730-1",0.4774701919211373,-48.26716386608555,839]],"bottom":[]}}}
