{"depmap_hotspot":{"corr":{"top":[],"bottom":[]},"para":{"top":[["C10orf35",0.11061245909657609,-3.0985860149253774,8.0,808.0],["CABP1",0.13667071282958193,-4.3199816507216635,16.0,800.0],["DPH3",0.12830304841897855,-3.9027624826850222,8.0,808.0],["FAM207A",0.11234422056627885,-3.17295793778429,13.0,803.0],["GOLGA6B",0.11891506141479649,-3.463245856247967,12.0,804.0],["ING2",0.1176992721584652,-3.408231013418402,8.0,808.0],["KCNK12",0.14205392013454216,-4.600668340524691,18.0,798.0],["LCN15",0.14792683231052786,-4.917937203666517,16.0,800.0],["NOVA2",0.14900023845642094,-4.9773662365110924,23.0,793.0],["PSMD10",0.12977167026796138,-3.974354518961587,10.0,806.0],["PTGER2",0.17992668730327943,-6.853047596458731,18.0,798.0],["STX16",0.12871192734011605,-3.922771107504894,11.0,805.0],["TANK",0.12909600716542444,-3.9414421269600104,11.0,805.0]],"bottom":[["ZDHHC11B",-0.1073744743329317,-2.962933428601928,15.0,801.0]]}}}
{"depmap_damaging":{"corr":{"top":[],"bottom":[]},"para":{"top":[["CPNE8",0.1016912655914029,-2.7299749321141196,9.0,806.0]],"bottom":[]}}}
{"ccle_proteomics":{"corr":{"top":[],"bottom":[]},"para":{"top":[],"bottom":[["ADPRH_P54922",-0.3394270919519227,-5.807242029330035,191],["LMOD1_P29536",-0.33636685231342806,-4.34281680788644,141]]}}}
{"ccle_rrbs_tss1kb":{"corr":{"top":[["PLA2G12A_4_110651242_110652242",0.6443866660678127,-95.03396781916614,806]],"bottom":[]},"para":{"top":[["NCKAP1_2_183903586_183904586",0.42104161091111847,-26.88049859119898,610],["PLA2G12A_4_110651242_110652242",0.8465918924058856,-221.68657653020097,806]],"bottom":[]}}}
{"ccle_rrbs_tss_clusters":{"corr":{"top":[["PLA2G12A_2",0.6043751898115798,-81.68182338865672,816],["PLA2G12A_3",1.0,-323.0051853474518,816]],"bottom":[]},"para":{"top":[["PLA2G12A_2",0.5547572735663726,-66.31320925876462,816],["PLA2G12A_3",1.0,-323.0051853474518,816]],"bottom":[]}}}
{"ccle_rrbs_cgi_clusters":{"corr":{"top":[["4_110648701_110653385-2",0.6043751898115798,-81.68182338865672,816]],"bottom":[]},"para":{"top":[["4_110648701_110653385-2",0.5547572735663726,-66.31320925876462,816],["2_183903014_183905625-3",0.4227200145518637,-27.411327029097023,617]],"bottom":[]}}}
