{"depmap_hotspot":{"corr":{"top":[["ADTRP",0.2209806103752099,-10.035133335134336,11.0,830.0],["CD300A",0.16823379002711406,-6.032922634044884,15.0,826.0],["CSF2RB",0.15934875644504076,-5.466203986815223,57.0,784.0],["DHRS7C",0.1558426899978523,-5.250844499182465,23.0,818.0],["LST3",0.19098022666648773,-7.622951346615281,21.0,820.0],["PRR5L",0.15912873077299847,-5.452551890222505,23.0,818.0],["SRSF6",0.20149938361110195,-8.427290628347917,27.0,814.0],["TMEM110",0.22645908960885308,-10.515438218670964,9.0,832.0],["ZNF639",0.21255405806107683,-9.32062201756771,22.0,819.0]],"bottom":[]},"para":{"top":[["TXNDC2",0.14298109589517854,-4.767150885815438,31.0,810.0]],"bottom":[["BTNL8",-0.10235212177659368,-2.8214240297267916,20.0,821.0]]}}}
{"depmap_damaging":{"corr":{"top":[["RNF103",0.20367689026798902,-8.58989092728712,12.0,828.0],["TBC1D1",0.18628667029294077,-7.270352398114006,10.0,830.0]],"bottom":[]},"para":{"top":[],"bottom":[]}}}
{"prism_secondary_logfold":{"corr":{"top":[],"bottom":[]},"para":{"top":[],"bottom":[["golvatinib_BRD-K69001009-001-02-8::10::MTS010::PROS001_PR500",-0.2636351634098221,-7.1392967831157055,405]]}}}
{"ccle_proteomics":{"corr":{"top":[],"bottom":[["CCDC109B_Q9NWR8",-0.390483353330263,-12.445558109171948,322]]},"para":{"top":[["ARL5A_Q9Y689",0.3444894570408245,-3.816217949786798,116]],"bottom":[]}}}
{"depmap_gene_tpm":{"corr":{"top":[],"bottom":[["MCUB_55013",-0.3609918999119344,-26.4363323417376,837]]},"para":{"top":[],"bottom":[["MCUB_55013",-0.22775365134526435,-10.58350108275812,837]]}}}
{"drive":{"corr":{"top":[],"bottom":[]},"para":{"top":[["STK11IP_114790",0.25577763568595563,-5.447219821568991,320]],"bottom":[["KIF13B_23303",-0.2866795201547495,-6.742978441196462,320]]}}}
{"achilles":{"corr":{"top":[],"bottom":[["SMCR8_140775",-0.2754702813274203,-4.483106646961339,221]]},"para":{"top":[["NOL4L_140688",0.27583359685087905,-4.493932889340662,221],["USP53_54532",0.27981151488292927,-7.556829756018746,381]],"bottom":[]}}}
{"ccle_rrbs_tss1kb":{"corr":{"top":[["MCUB_4_110480354_110481354",0.8345106683892956,-215.55158822577295,829]],"bottom":[]},"para":{"top":[["MCUB_4_110480354_110481354",0.6672193074113336,-107.17548562032239,829]],"bottom":[]}}}
{"ccle_gene_tpm":{"corr":{"top":[],"bottom":[["CCDC109B_ENSG00000005059.11",-0.35147858913087643,-24.930638942014923,834]]},"para":{"top":[],"bottom":[["CCDC109B_ENSG00000005059.11",-0.2244366516706036,-10.256366190485451,834]]}}}
{"ccle_rrbs_tss_clusters":{"corr":{"top":[["MCUB_2",0.5724910447919485,-72.7172151456827,830],["MCUB_3",0.9491004452219268,-323.0051853474518,841]],"bottom":[["TMEM94_1",-0.37780994887408387,-13.95267685883118,390]]},"para":{"top":[["MCUB_2",0.5868245316208089,-77.22804342415374,830],["MCUB_3",0.9130052929504712,-323.0051853474518,841]],"bottom":[]}}}
{"ccle_rrbs_cgi_clusters":{"corr":{"top":[["4_110478827_110481443-2",0.6220663865348092,-89.33343216184834,830],["4_110481443_110484060-1",0.5847181041459633,-77.55324523837245,841]],"bottom":[]},"para":{"top":[["4_110478827_110481443-2",0.6008211456423577,-81.85559214793102,830],["4_110478827_110481443-1",0.482682378545218,-47.197274264826,800],["4_110481443_110484060-1",0.4082922230670729,-34.397961127884784,841]],"bottom":[]}}}
