{"depmap_hotspot":{"corr":{"top":[],"bottom":[]},"para":{"top":[["ARL4A",0.12924692179633235,-4.041367853701219,9.0,831.0],["IMPDH2",0.12320307766230426,-3.744914137124542,8.0,832.0],["MSGN1",0.10541790572003708,-2.9457290347549625,14.0,826.0],["PDAP1",0.109830872740029,-3.133875224310517,10.0,830.0],["SNIP1",0.13727907043104723,-4.455188015069774,19.0,821.0]],"bottom":[]}}}
{"depmap_damaging":{"corr":{"top":[],"bottom":[]},"para":{"top":[["C21orf33",0.10109269049485804,-2.765009733587917,10.0,829.0],["PEX1",0.12809691840263746,-3.980404031711326,13.0,826.0],["RARS2",0.10759573017302643,-3.034891227531128,9.0,830.0],["RNF103",0.11019965597344754,-3.1471342224829866,12.0,827.0]],"bottom":[["ZNF630",-0.12455483194128211,-3.8070213243904263,24.0,815.0]]}}}
{"ccle_proteomics":{"corr":{"top":[],"bottom":[]},"para":{"top":[["HECW1_Q76N89",0.3722877467676506,-4.616953957114464,122]],"bottom":[]}}}
{"ccle_rrbs_tss_clusters":{"corr":{"top":[["ANKAR_1",0.46415846399402305,-44.74533627969865,828]],"bottom":[]},"para":{"top":[["HNRNPH1_3",0.4711983929693116,-39.13940304829168,698]],"bottom":[]}}}
{"ccle_rrbs_cgi_clusters":{"corr":{"top":[["8_124170800_124175541-1",0.51735106667017,-57.483101401579546,833],["4_184317564_184322198-1",0.6823426929972569,-111.59835781532733,812],["14_70191467_70195955-3",0.4949375931105683,-51.897110030629044,832],["3_107147820_107150365-1",0.5103409271881965,-56.03965559168254,838],["10_79468962_79473425-3",0.49247703094743067,-51.25535941758092,831]],"bottom":[]},"para":{"top":[["4_184317564_184322198-1",0.7417322761089874,-141.93724821903544,812],["14_70191467_70195955-3",0.4863435759811109,-49.88768908029958,832]],"bottom":[]}}}
