{"depmap_hotspot":{"corr":{"top":[],"bottom":[["EPHX3",-0.11126148403930022,-2.783920168373061,22.0,776.0]]},"para":{"top":[],"bottom":[["EPHX3",-0.11129090786317429,-3.0753611943360233,22.0,776.0],["IL36B",-0.12241095737706809,-3.5605638277637595,9.0,789.0]]}}}
{"depmap_damaging":{"corr":{"top":[],"bottom":[]},"para":{"top":[["MTUS1",0.09814863338085796,-2.552621530624956,10.0,788.0],["PHF11",0.10667163219727675,-2.8849724889779815,8.0,790.0]],"bottom":[["DIP2B",-0.10717774415409456,-2.905609100348937,11.0,787.0],["DSG1",-0.1005800127401723,-2.6449837194364987,8.0,790.0],["GFRAL",-0.10691748230989527,-2.8949083715777513,8.0,790.0],["GTF2E1",-0.11695210327639934,-3.3174496691712596,16.0,782.0]]}}}
{"prism_secondary_logfold":{"corr":{"top":[],"bottom":[]},"para":{"top":[],"bottom":[["exatecan-mesylate_BRD-K92150287-066-01-2::0.625::HTS002",-0.2634277025451078,-5.7856265798713,322]]}}}
{"ccle_proteomics":{"corr":{"top":[],"bottom":[]},"para":{"top":[["SON_P18583-3",0.345765845033277,-3.871754042377484,117],["SIMC1_Q8NDZ2",0.46212384490259395,-5.995070143081757,102]],"bottom":[]}}}
{"achilles":{"corr":{"top":[["SMIM20_389203",0.3295300963199646,-5.853309202508955,205],["SPOUT1_51490",0.2878118173092597,-4.543995051387803,205],["DCAF16_54876",0.3273519256964596,-5.779951311154606,205]],"bottom":[["C5orf24_134553",-0.26305810650143263,-3.8583594131880776,205],["RNF20_56254",-0.23904049647685646,-5.279083348046227,355]]},"para":{"top":[["GPR149_344758",0.26990740758941917,-4.041545712542451,205],["SMIM20_389203",0.3263316716442704,-5.745785203698604,205],["TMEM41B_440026",0.2838623687533584,-4.430187678977158,205],["DCAF16_54876",0.31226523861382355,-5.287231202842252,205]],"bottom":[]}}}
{"ccle_rrbs_tss1kb":{"corr":{"top":[["POLN_4_2243891_2244891",0.6593126544087791,-98.71801304480648,788]],"bottom":[]},"para":{"top":[["POLN_4_2243891_2244891",0.8033273183806757,-178.37239397548097,788]],"bottom":[]}}}
{"ccle_rrbs_tss_clusters":{"corr":{"top":[["POLN_3",1.0,-323.0051853474518,798]],"bottom":[]},"para":{"top":[["POLN_3",0.9999999999999999,-323.0051853474518,798]],"bottom":[]}}}
{"ccle_rrbs_cgi_clusters":{"corr":{"top":[],"bottom":[]},"para":{"top":[],"bottom":[]}}}
