{"depmap_hotspot":{"corr":{"top":[],"bottom":[["CSHL1",-0.1643856884787968,-5.777584348153311,20.0,820.0],["CTAG1B",-0.2191444814143257,-9.866012205077979,11.0,829.0],["MED17",-0.13356358416007214,-3.9858598488296573,25.0,815.0],["UFSP1",-0.1027835591462221,-2.543660542063681,8.0,832.0]]},"para":{"top":[["ANKRD33",0.11693421800744114,-3.4508459353193848,9.0,831.0],["C4orf22",0.12860373972672434,-4.009571131701649,18.0,822.0],["GSTZ1",0.12641308528691364,-3.900940703140919,11.0,829.0],["LYPLAL1",0.09188378508640543,-2.409228478382909,11.0,829.0],["OR2B2",0.1329582925501663,-4.229785190038615,12.0,828.0],["WNT8A",0.12071131741562477,-3.6266011695613476,12.0,828.0]],"bottom":[["CFL2",-0.07756896184021318,-1.9084516293996074,10.0,830.0],["RP1-170O19.20",-0.07211208220223415,-1.7352398321714368,8.0,832.0]]}}}
{"depmap_damaging":{"corr":{"top":[],"bottom":[]},"para":{"top":[["C8A",0.10756459872058692,-3.0335038634943694,8.0,831.0],["MCTP2",0.11253384607557713,-3.249450467328962,9.0,830.0],["METTL8",0.09875280955986088,-2.671274735392475,8.0,831.0],["PSIP1",0.08923202586896146,-2.3092610929528314,8.0,831.0],["ZNF43",0.13962005630084662,-4.575160077425597,11.0,828.0]],"bottom":[["UBTD2",-0.10855491827047542,-3.0760153898360807,11.0,828.0]]}}}
{"ccle_proteomics":{"corr":{"top":[["LIPT1_Q9Y234",0.2884724429114643,-2.711160515409292,113]],"bottom":[]},"para":{"top":[],"bottom":[]}}}
{"drive":{"corr":{"top":[],"bottom":[["DRG2_1819",-0.30174756541193504,-7.455526247850716,321],["ANK1_286",-0.2875742338148884,-6.84105738676763,323]]},"para":{"top":[],"bottom":[]}}}
{"ccle_rrbs_tss1kb":{"corr":{"top":[["PRSS41_16_2838525_2839525",0.568951842373547,-64.30945896699004,744]],"bottom":[]},"para":{"top":[],"bottom":[]}}}
{"ccle_rrbs_tss_clusters":{"corr":{"top":[["NKD2_1",0.5916392450680092,-79.35722780918265,836],["MIR4635_3",0.7247885948902795,-107.83178531514373,660],["PRSS33_3",0.5768458567159904,-67.36629303257384,754]],"bottom":[]},"para":{"top":[],"bottom":[]}}}
{"ccle_rrbs_cgi_clusters":{"corr":{"top":[["5_1054321_1058685-2",0.8408345862366305,-224.33528840889593,838],["5_1075844_1080056-1",0.8599754511147942,-245.72659845941573,838],["5_1082477_1086712-3",0.8775654716904825,-268.7156537705065,839],["5_1081878_1086169-2",0.8885448470509754,-284.7376798779823,839],["5_1058584_1062809-1",0.8889865343443946,-285.07763497806536,838],["5_1078029_1082491-1",0.8889766863604806,-285.74135081375846,840],["5_1085533_1089909-1",0.9044515839237158,-311.5790652997479,840],["5_1085062_1089362-1",0.8648019787164486,-251.92576411764244,839],["5_1059039_1063722-2",0.8507344695974639,-233.34671131633323,832],["5_1085062_1089362-2",0.9053466875262508,-313.20672286470153,840],["5_1086821_1091276-1",0.9258543694542196,-323.0051853474518,840],["5_1083140_1087847-2",0.8920559961400366,-290.56481526243374,840]],"bottom":[]},"para":{"top":[["5_1085533_1089909-1",0.7678789044074681,-163.528437841792,840],["5_1086821_1091276-1",0.7630530940670773,-160.27875090328155,840],["5_1085062_1089362-2",0.7644801308129587,-161.2315729336099,840]],"bottom":[]}}}
