{"depmap_hotspot":{"corr":{"top":[],"bottom":[]},"para":{"top":[["C10orf35",0.10980675506718571,-3.1299337074144886,9.0,830.0],["DCTN5",0.10712330913670438,-3.0148950082524455,11.0,828.0],["KRTAP5-9",0.10578833581467995,-2.9583721574374042,8.0,831.0],["MAB21L3",0.13084529313767052,-4.118338739749482,22.0,817.0],["TMEM232",0.12474005074509768,-3.8159276836259712,20.0,819.0]],"bottom":[]}}}
{"depmap_damaging":{"corr":{"top":[],"bottom":[]},"para":{"top":[["NRXN3",0.10426003639477317,-2.8921560755615676,11.0,827.0]],"bottom":[]}}}
{"ccle_rrbs_tss1kb":{"corr":{"top":[["PCDHGB6_5_140786769_140787769",0.5732592389686442,-71.8252019061317,817]],"bottom":[]},"para":{"top":[["PCDHGB6_5_140786769_140787769",0.5596225923016404,-67.78867185693987,817]],"bottom":[]}}}
{"ccle_gene_tpm":{"corr":{"top":[],"bottom":[["PCDHGA12_ENSG00000253159.1",-0.4837025850337513,-49.28157715046365,832]]},"para":{"top":[],"bottom":[]}}}
{"ccle_rrbs_tss_clusters":{"corr":{"top":[["PCDHGA12_2",0.8275557866907822,-211.0962742922545,838],["PCDHGA12_3",0.9970144605755539,-323.0051853474518,839],["PCDHGB6_3",0.574608054818501,-71.36195275089118,807]],"bottom":[]},"para":{"top":[["PCDHGA11_1",0.5448617460141726,-64.31609926031774,826],["PCDHGA12_2",0.7338372208535802,-141.808276298979,838],["PCDHGA12_3",0.9913183919142983,-323.0051853474518,839]],"bottom":[]}}}
{"ccle_rrbs_cgi_clusters":{"corr":{"top":[["5_140800399_140804832-3",0.6336714514998217,-30.09565193909239,262],["5_140808494_140811556-3",0.839985290839965,-223.18676854826683,837],["5_140808494_140811556-1",0.6586643490668777,-81.61866050382154,652]],"bottom":[]},"para":{"top":[["5_140795162_140799701-3",0.5738308658012036,-73.04247758589983,829],["5_140808494_140811556-3",0.7252384869974137,-136.77137743275512,837],["5_140798760_140803072-1",0.5494955568410238,-65.61488814357261,826],["5_140808494_140811556-1",0.5580027564281024,-53.906751554463106,652]],"bottom":[]}}}
