{"depmap_hotspot":{"corr":{"top":[["COX15",0.13465450046005126,-3.9295803489525234,17.0,796.0],["KLRB1",0.1679295865142432,-5.832242224487109,8.0,805.0],["MYOT",0.16292542722493017,-5.520310865413947,22.0,791.0],["OR6K2",0.1488028029906652,-4.68955457530029,32.0,781.0],["RGR",0.1457961201121557,-4.522043935577717,24.0,789.0],["ZFP57",0.18857814348630772,-7.218353168044589,13.0,800.0]],"bottom":[]},"para":{"top":[["APOL4",0.11346296547725465,-3.212258396319224,12.0,801.0],["MYOT",0.1287711221230118,-3.914445771008966,22.0,791.0],["PRELID2",0.11613176861051902,-3.3289441966382407,10.0,803.0],["RNPS1",0.12110255977060179,-3.5530037471466014,18.0,795.0],["ZFP57",0.14492329951893676,-4.739672302716859,13.0,800.0]],"bottom":[["CHMP1A",-0.08935480755339274,-2.2632439862367106,12.0,801.0],["IL1F10",-0.12723505219125392,-3.840126121292131,10.0,803.0],["ULBP3",-0.11173867202522325,-3.1381289140604984,14.0,799.0]]}}}
{"depmap_damaging":{"corr":{"top":[["ADAM7",0.1525277011831728,-4.8962554304536035,12.0,800.0],["DLX6",0.16630344713642176,-5.723522975294467,21.0,791.0]],"bottom":[]},"para":{"top":[["ADAM7",0.133566514079177,-4.145997657950035,12.0,800.0],["DENND1C",0.11879810116083327,-3.4445397024382904,8.0,804.0],["USP8",0.11987521719842843,-3.493357385557137,10.0,802.0]],"bottom":[["CHGB",-0.10204057522759526,-2.736344407710277,9.0,803.0],["ZNF114",-0.07588471931902453,-1.8131823951693586,8.0,804.0]]}}}
{"ccle_proteomics":{"corr":{"top":[],"bottom":[]},"para":{"top":[["AADAT_Q8N5Z0",0.3141455242612879,-3.6843217207686494,135]],"bottom":[]}}}
{"depmap_copy_number":{"corr":{"top":[["ZNF587B_100293516",0.17062427758704674,-5.997394545820899,812],["FKBP1AP1_2282",0.17062427758704674,-5.997394545820899,812],["ZNF776_284309",0.16870989543110151,-5.875198913064956,812],["ZNF552_79818",0.16870989543110151,-5.875198913064956,812],["ZNF671_79891",0.16870989543110151,-5.875198913064956,812]],"bottom":[]},"para":{"top":[],"bottom":[]}}}
{"drive":{"corr":{"top":[],"bottom":[]},"para":{"top":[["KCTD6_200845",0.21012906855987304,-3.7117548481854317,310]],"bottom":[["MME_4311",-0.25371623049238445,-5.3664285168752635,320]]}}}
{"achilles":{"corr":{"top":[],"bottom":[]},"para":{"top":[["HPSE_10855",0.32312792896329934,-5.7639380288424595,210]],"bottom":[]}}}
{"ccle_rrbs_tss_clusters":{"corr":{"top":[["MAPK9_1",0.555844393831444,-66.3810639806723,813],["MAPK9_2",0.7108377920555192,-121.36542300493454,787],["MAPK9_4",0.910754286457757,-311.098613708484,808]],"bottom":[]},"para":{"top":[["MAPK9_1",0.6021876078196549,-80.6525453475328,813],["MAPK9_2",0.6830807965555302,-108.51222691492576,787],["MAPK9_4",0.8697113460029167,-248.65840238221264,808]],"bottom":[["UPK1B_2",-0.17984757651835245,-5.366326431360486,645]]}}}
{"ccle_rrbs_cgi_clusters":{"corr":{"top":[["5_179719148_179721767-3",0.6045022704298811,-78.85288430567522,787]],"bottom":[]},"para":{"top":[["5_179719148_179721767-3",0.5666180913316385,-67.30527097866226,787]],"bottom":[]}}}
