{"depmap_hotspot":{"corr":{"top":[],"bottom":[]},"para":{"top":[["CCL17",0.10192819117731709,-2.6971319237607925,9.0,789.0],["CCNB1IP1",0.1342003833469669,-4.119780480182742,18.0,780.0],["CCNYL1",0.10949374495196298,-3.0003616241590407,11.0,787.0],["CYSTM1",0.09889119322832356,-2.580554660204481,8.0,790.0],["DHRS4",0.12298498020718246,-3.586832400255486,11.0,787.0],["OR13D1",0.1511478652029447,-5.003373113351548,23.0,775.0],["PRPF18",0.15245878119204448,-5.075527048889331,17.0,781.0],["REEP3",0.11831429775466004,-3.376931649407079,8.0,790.0],["RFFL",0.12559908891422492,-3.7074381500486515,14.0,784.0],["RPA1",0.20481003208255977,-8.431831024110148,26.0,772.0]],"bottom":[]}}}
{"depmap_damaging":{"corr":{"top":[],"bottom":[]},"para":{"top":[["BTBD11",0.1353992457201811,-4.174634233494888,10.0,787.0],["CTNND2",0.11851653120847991,-3.3827525379374737,11.0,786.0],["HLA-A",0.13137942741856817,-3.9776203568237016,10.0,787.0]],"bottom":[]}}}
{"ccle_rrbs_cgi_clusters":{"corr":{"top":[["5_3588644_3591322-2",0.8519631170701041,-219.5288832006127,778],["5_3600858_3605054-3",0.7134548702324233,-124.04891455404967,796],["5_3590391_3594644-1",0.8569931559730664,-230.66331080976644,798]],"bottom":[]},"para":{"top":[["5_3588644_3591322-2",0.8269919685899491,-195.5373633671654,778],["5_3588644_3591322-3",0.6604917126555495,-69.74036655331903,552],["5_3600858_3605054-3",0.6831490753883469,-109.77315170343347,796],["5_3600858_3605054-2",0.676983089852241,-107.3458027188656,798],["5_3590391_3594644-1",0.8475568835211797,-220.49419121248275,798]],"bottom":[]}}}
