{"depmap_hotspot":{"corr":{"top":[["AK1",0.16574111551801451,-5.820563872735188,8.0,825.0],["BVES",0.17613173139327756,-6.5054546120918335,20.0,813.0],["GMCL1",0.19862805723823138,-8.131444130254588,21.0,812.0],["GSTT2",0.2266995223082496,-10.443153454504156,15.0,818.0],["GTF3C6",0.14502562550861373,-4.576770220812961,10.0,823.0],["METRN",0.21046183426935808,-9.067048503067753,12.0,821.0],["SLC25A31",0.14766344039698998,-4.726262482131958,25.0,808.0]],"bottom":[]},"para":{"top":[["KLHDC2",0.11014671066139517,-3.127624752699077,12.0,821.0],["RUFY3",0.13774773228731593,-4.449625791410959,28.0,805.0],["WDR77",0.11890658315493917,-3.519142363144093,19.0,814.0]],"bottom":[["GDF7",-0.10221076275253041,-2.795755602516185,24.0,809.0]]}}}
{"depmap_damaging":{"corr":{"top":[["PNLIPRP1",0.16003543077509846,-5.456059149247148,8.0,824.0]],"bottom":[]},"para":{"top":[["KCNT2",0.11825807552836182,-3.4858476535594534,13.0,819.0]],"bottom":[]}}}
{"ccle_proteomics":{"corr":{"top":[["PIAS4_Q8N2W9",0.29789086835085643,-5.517213815527117,237]],"bottom":[["IQSEC2_Q5JU85-2",-0.3032248380986972,-5.9438067605247795,248],["SAMD11_Q96NU1-2",-0.4533271774788719,-6.181411086684332,110]]},"para":{"top":[],"bottom":[]}}}
{"avana":{"corr":{"top":[],"bottom":[]},"para":{"top":[["BPIFB2_80341",0.20914904844079527,-5.287285624229344,467]],"bottom":[]}}}
{"drive":{"corr":{"top":[],"bottom":[["CFL2_1073",-0.23795742471016137,-4.678430426551069,313]]},"para":{"top":[],"bottom":[]}}}
{"ccle_rrbs_tss1kb":{"corr":{"top":[["XRCC4_5_82372227_82373227",0.6885930687794818,-115.00477266000662,816],["TMEM167A_5_82373272_82374272",0.6165333084062432,-84.93622012347943,807],["LOC101928902_8_145596648_145597648",0.46994024566664766,-45.28177759394912,815],["LOC102723385_16_19078805_19079805",0.4615852320757699,-43.885426237245916,822]],"bottom":[["HUS1B_6_656964_657964",-0.293346752271051,-16.99077985788715,819]]},"para":{"top":[["XRCC4_5_82372227_82373227",0.7431096137971798,-143.43846114443548,816],["TMEM167A_5_82373272_82374272",0.630720848911907,-90.00863978406976,807]],"bottom":[]}}}
{"ccle_gene_tpm":{"corr":{"top":[["RP11-342D14.1_ENSG00000229491.1",0.22378119151585193,-10.108007361166015,826],["RP11-567B20.2_ENSG00000229747.1",0.2587929003446558,-13.379878898365694,826],["RP11-251P6.1_ENSG00000230768.3",0.3791486778090789,-28.90737870957437,826],["CHIAP3_ENSG00000234020.1",0.33488135703580296,-22.36829681119313,826],["RP11-96A1.4_ENSG00000250183.2",0.4145819828847085,-34.921450012529576,826],["RP11-752L20.5_ENSG00000251688.1",0.3748254098656575,-28.222609831471452,826],["CTD-3051L14.13_ENSG00000254411.1",0.2256498335356594,-10.269723879728776,826],["RP3-521E19.2_ENSG00000257494.1",0.3402139138905065,-23.101998155426294,826],["RN7SL54P_ENSG00000265077.1",0.25672844762075625,-13.172535785313489,826]],"bottom":[]},"para":{"top":[],"bottom":[]}}}
{"ccle_rrbs_tss_clusters":{"corr":{"top":[["XRCC4",0.9999999999999998,-323.0051853474518,833]],"bottom":[["FAAHP1_1",-0.19635769962974964,-6.5661872156431125,675],["CEPT1",-0.24910419762248998,-11.57218653307689,766],["MIR3130-1_3",-0.2195217550229088,-9.700805289611301,822],["EEF1AKMT4-ECE2_1",-0.24180574916586212,-6.696447613270836,451],["NDST1_1",-0.26234343697002216,-11.376021933361285,676],["HUS1B",-0.32447756339149164,-21.14863738127551,833],["PCOLCE_2",-0.22318540107116092,-8.692695988105456,706],["MIR8055_2",-0.22177271808616073,-9.363986469759803,775],["DBH-AS1_2",-0.25334054354669094,-5.171225906247076,308],["TP53BP1_2",-0.19694762943812358,-7.224194371796075,745]]},"para":{"top":[["XRCC4",1.0,-323.0051853474518,833]],"bottom":[]}}}
{"ccle_rrbs_cgi_clusters":{"corr":{"top":[["16_19077070_19081388-3",0.4603717330415679,-44.15114290719536,832]],"bottom":[["7_1088177_1092517-2",-0.26299544413104153,-13.870941995088295,830],["6_654409_659155-1",-0.32447756339149164,-21.14863738127551,833],["6_170684006_170689003-1",-0.26776306210675743,-11.952067562494735,683],["4_2926053_2930271-3",-0.2154524727776011,-6.386492125328382,542],["1_249142179_249144796-1",-0.20724806497336226,-8.464859237831849,798]]},"para":{"top":[],"bottom":[]}}}
