{"depmap_hotspot":{"corr":{"top":[],"bottom":[["SNX14",-0.11106235880377505,-2.8808068950467436,40.0,794.0]]},"para":{"top":[["GALNT4",0.12544077738703122,-3.831650280853704,16.0,818.0],["H2BFWT",0.11699424853691318,-3.4346946499050235,17.0,817.0]],"bottom":[]}}}
{"depmap_damaging":{"corr":{"top":[],"bottom":[]},"para":{"top":[["TTC17",0.10633612768615822,-2.965419363430668,9.0,824.0]],"bottom":[["PTK2B",-0.08820296876419981,-2.2605910805830316,9.0,824.0]]}}}
{"ccle_rrbs_enhancer_clusters":{"corr":{"top":[],"bottom":[]},"para":{"top":[["15-70392094-70394613-1_enh",0.4239901658006139,-36.687171910692555,827]],"bottom":[]}}}
{"ccle_proteomics":{"corr":{"top":[["SEMA5A_Q13591",0.349354049921712,-4.929163563226785,150]],"bottom":[]},"para":{"top":[["TRPV4_Q9HBA0",0.3271943147167879,-3.1823857733408283,105]],"bottom":[]}}}
{"depmap_copy_number":{"corr":{"top":[["LOC101928475_101928475",0.22003247195748324,-9.865075139078726,833],["TVP23C_201158",0.22179988155360703,-10.0165385964337,833],["CDRT1_374286",0.22033706028426622,-9.891086311914632,833],["PMP22_5376",0.22241189227674404,-10.069285846267258,833],["CDRT7_94150",0.22003247195748324,-9.865075139078726,833],["CDRT8_94151",0.2221293324411759,-10.044913772195043,833]],"bottom":[]},"para":{"top":[],"bottom":[]}}}
{"avana":{"corr":{"top":[],"bottom":[]},"para":{"top":[["MAPK13_5603",0.2465970262525944,-7.186238900239091,468]],"bottom":[]}}}
{"drive":{"corr":{"top":[["FZR1_51343",0.3065639682871392,-7.61940633034765,318]],"bottom":[]},"para":{"top":[["GPR1_2825",0.27390624023014803,-6.117587374704399,316],["FZR1_51343",0.3237126824718792,-8.465236559680175,318],["PI4K2B_55300",0.27459672147467984,-6.323122428127336,326],["RAB2B_84932",0.3014273366770562,-7.333714750308622,316]],"bottom":[]}}}
{"achilles":{"corr":{"top":[],"bottom":[]},"para":{"top":[["ABRAXAS2_23172",0.2997003666400676,-5.132279071420581,216]],"bottom":[]}}}
{"ccle_rrbs_tss1kb":{"corr":{"top":[["PAX6_11_31833890_31834890",0.5851290813250659,-75.95253293994246,822],["PAX6_11_31833731_31834731",0.5848522488989231,-75.68231708176206,820]],"bottom":[]},"para":{"top":[["F2R_5_76010867_76011867",0.5431545341450265,-63.61416715477983,823],["FOXC1_6_1609149_1610149",0.6449854230642164,-97.25506903958966,823],["PAX6_11_31833890_31834890",0.5849871256581207,-75.90745887054815,822],["PAX6_11_31833731_31834731",0.5842976657202342,-75.50694782706431,820]],"bottom":[]}}}
{"ccle_rrbs_tss_clusters":{"corr":{"top":[["F2R_2",0.5792953226899135,-74.20739929559733,823],["FOXC1_1",0.9939692801432002,-323.0051853474518,834],["FOXC1_2",0.830671611421894,-211.55283427502374,828],["FOXCUT_1",0.627802095333208,-91.34328791391387,829],["PAX6_11",0.5758983490032512,-74.12040495833925,834],["PAX6_13",0.5402771124546312,-63.577395850994115,833],["PAX6_16",0.5375757266394068,-61.719902407425344,818]],"bottom":[]},"para":{"top":[["F2R_2",0.5795921659902475,-74.2999491106526,823],["FOXC1_1",0.9918440610246315,-323.0051853474518,834],["FOXC1_2",0.8552488377459663,-237.3019602218124,828],["FOXCUT_1",0.6113623636281467,-85.39292334606809,829],["TUBB2B_2",0.5805418560791639,-75.5813370517249,834],["PAX6_11",0.5765518342537742,-74.32458984229382,834],["PAX6_13",0.5446159512712356,-64.78440329679182,833],["PAX6_16",0.5422249665075275,-62.97915159162159,818]],"bottom":[]}}}
{"ccle_rrbs_cgi_clusters":{"corr":{"top":[["5_76009120_76011706-2",0.5795675505776062,-73.93568489858156,819],["11_31833426_31837232-1",0.5627091945696486,-69.93000011885283,832],["6_1606421_1610236-1",0.8395760587887969,-220.90689586179977,830],["1_17443651_17448088-1",0.5303284337074242,-60.803348255218594,832],["11_1593809_1598143-3",0.526925133715247,-59.26257727565058,823],["6_1602606_1606421-1",0.5889092771767912,-77.81026629257984,829]],"bottom":[]},"para":{"top":[["5_76009120_76011706-2",0.5782733318461587,-73.5348600500747,819],["6_1606421_1610236-3",0.6352917516922968,-94.5120258259059,832],["6_3229595_3234289-2",0.5487377657000697,-65.9474999275972,833],["11_31833426_31837232-1",0.5606047143129148,-69.30597049117017,832],["6_1606421_1610236-1",0.860947525093793,-244.54644545806275,830],["6_3228357_3231688-2",0.5399856784982462,-62.89601744456736,825],["6_1602606_1606421-1",0.5419794184576469,-63.74574083450145,829]],"bottom":[]}}}
