{"ccle_rrbs_enhancer_clusters":{"corr":{"top":[["16-78641215-78644023-0_enh",0.5621391923707981,-36.13219220847997,426]],"bottom":[]},"para":{"top":[["21-39228414-39231223-0_enh",0.548418406505686,-61.02343403006798,771]],"bottom":[]}}}
{"depmap_copy_number":{"corr":{"top":[],"bottom":[["SNORD32B_692092",-0.2267883527845072,-10.544703842988204,841]]},"para":{"top":[],"bottom":[]}}}
{"ccle_rrbs_tss1kb":{"corr":{"top":[["C3orf56_3_126910973_126911973",0.7118626200686007,-127.24991845438124,822],["C5orf47_5_173415161_173416161",0.7049376977939036,-124.33647373425038,826],["LOC285804_6_170585850_170586850",0.7133237768809483,-127.54019003477593,819],["UNQ6494_9_92253697_92254697",0.6472618715415384,-98.15689359140168,823]],"bottom":[]},"para":{"top":[["LOC285804_6_170585850_170586850",0.6770524362064412,-110.17782005273652,819],["UNQ6494_9_92253697_92254697",0.6217576046705333,-88.47591935849503,823]],"bottom":[]}}}
{"ccle_gene_tpm":{"corr":{"top":[],"bottom":[]},"para":{"top":[["GRK7_ENSG00000114124.2",0.3021547479983631,-18.361124256889823,835]],"bottom":[]}}}
{"ccle_rrbs_tss_clusters":{"corr":{"top":[["C3orf56_2",0.735762526103147,-140.55259236678063,824],["MIR7159_1",0.6756611415146526,-107.7040710531085,805],["LOC285804_2",0.7181397368040576,-131.47024700340558,828],["LINC01624_3",0.7277848595419404,-136.88120844300875,829],["LOC154449_3",0.6758838190425004,-106.20720874820759,793],["UNQ6494_2",0.6711894060299978,-110.20896408020943,839],["LOC574538_2",0.6921938540309842,-119.24044548752282,834],["CACNG1_1",0.696744238928231,-116.10041539198478,797],["LINC01639_2",0.6998017304103705,-122.95628417479092,834]],"bottom":[]},"para":{"top":[["LOC285804_2",0.6721741671130246,-109.2089031581573,828],["LINC01624_3",0.694201271933508,-119.4943103610908,829],["CACNG1_1",0.630370634266316,-88.77780601768556,797],["LINC01639_1",0.6568033934585453,-102.26807358906701,825]],"bottom":[]}}}
{"ccle_rrbs_cgi_clusters":{"corr":{"top":[["6_170338946_170341677-1",0.7322782304966173,-141.24467450678083,840],["6_170423782_170428113-3",0.7732559606623578,-162.29099913936403,815],["6_170562873_170567152-1",0.7772092301770241,-169.03409933002177,835],["6_170489356_170491902-1",0.8032669223192145,-187.5629754927642,829],["6_170472406_170474980-1",0.7546443994418682,-152.04916652585536,825],["6_170338946_170341677-2",0.7587727066141835,-155.59633183636333,830],["6_170449497_170452212-2",0.8516656311917784,-235.78868094453813,837],["6_170527588_170530130-1",0.7644837036338299,-159.13361668578517,829],["6_170388204_170392430-1",0.8151068905143207,-199.43943543083572,837],["6_170544535_170549104-3",0.7580216427830067,-155.67134983684448,833],["6_170388204_170392430-3",0.8215368290985766,-204.97525380356066,836],["6_170452212_170454927-3",0.9969554361679062,-323.0051853474518,841]],"bottom":[]},"para":{"top":[["6_170423782_170428113-3",0.7242292637616699,-132.65488972657212,815],["6_170489356_170491902-1",0.7247854610755833,-135.22355617793028,829],["6_170562873_170567152-1",0.7473846027379852,-149.35314067822483,835],["6_170451924_170454430-1",0.719223050364342,-132.99903072473285,834],["6_170449497_170452212-3",0.7161025905587507,-131.17216718357474,833],["6_170527588_170530130-1",0.7089703330764526,-126.83430541398722,829],["6_170388204_170392430-1",0.7169490897782792,-132.2503367236931,837],["6_170486069_170490425-1",0.7190946774658988,-131.66320829544,826],["6_170544535_170549104-3",0.7349334474844306,-141.59869699842807,833],["6_170388204_170392430-3",0.7974170600180925,-184.41878466241334,836],["6_170449497_170452212-2",0.811470063362758,-196.26928034023817,837],["6_170452212_170454927-3",0.9958107205870885,-323.0051853474518,841],["6_170472406_170474980-1",0.7133957440213821,-128.50548747292646,825]],"bottom":[]}}}
