{"depmap_hotspot":{"corr":{"top":[["ACTA1",0.262737745612886,-7.125570005321574,14.0,393.0],["AMPD2",0.2868331802242626,-8.421408979133071,18.0,389.0],["ATP1B2",0.27277563914223046,-7.650146235059698,9.0,398.0],["C19orf60",0.2613079610959654,-7.052594894023603,10.0,397.0],["CCNK",0.2860090896250715,-8.374999058288706,13.0,394.0],["CDC7",0.27148333320680934,-7.581400607488239,17.0,390.0],["CHMP6",0.28423281169146436,-8.275475709040474,8.0,399.0],["CNOT2",0.3281219848823997,-10.944526048715797,10.0,397.0],["CPNE3",0.2576963159745949,-6.870179215392262,15.0,392.0],["DDX3X",0.2810773120363252,-8.100389214518685,28.0,379.0],["DNAJB6",0.27336891118575474,-7.681826567941344,12.0,395.0],["EAF2",0.26271785550564414,-7.124551863444972,17.0,390.0],["EPB41L5",0.3079338345383877,-9.661652050263042,17.0,390.0],["ERLEC1",0.314258389705312,-10.053233679574065,9.0,398.0],["FAM184A",0.28098934076402504,-8.095539344020574,24.0,383.0],["G3BP2",0.29361978052341553,-8.809349641072245,17.0,390.0],["HDAC1",0.2783205691309015,-7.949213957660117,13.0,394.0],["HECA",0.3273754800079127,-10.895364949307789,16.0,391.0],["HIST1H2BD",0.272539494452118,-7.6375573909207715,9.0,398.0],["HM13",0.3474437039773566,-12.264349216063453,15.0,392.0],["IGSF21",0.3187366685094301,-10.336159335544727,21.0,386.0],["IQGAP3",0.2756286260807563,-7.803190538942552,32.0,375.0],["KIAA1147",0.3421706920765999,-11.895008006545869,9.0,398.0],["KIAA1199",0.2641956324872954,-7.200425100120127,22.0,385.0],["LSM11",0.25813773436303705,-6.892327065598495,10.0,397.0],["MAP7D1",0.2825416939219206,-8.181370048387064,30.0,377.0],["MCM7",0.2667258985653078,-7.3314131952315575,24.0,383.0],["MFSD10",0.27193792308205994,-7.605542002216265,23.0,384.0],["MORF4L1",0.26100278093229196,-7.03707467344424,11.0,396.0],["MYNN",0.2594181476999974,-6.956802448554112,11.0,396.0],["NCAPD3",0.27098772626551115,-7.555131623792572,36.0,371.0],["NCOA6",0.325050660397944,-10.743122324226661,44.0,363.0],["NKD2",0.27016077280522866,-7.511417582440782,14.0,393.0],["NUDT12",0.2577537601276127,-6.873059120021407,12.0,395.0],["OGDH",0.26069460346839385,-7.021421969086044,25.0,382.0],["PHKB",0.30170480864401994,-9.285019292820607,31.0,376.0],["PNPLA8",0.2665735717344886,-7.323488901069551,24.0,383.0],["PRMT1",0.2926383416779187,-8.752611688412886,11.0,396.0],["PRPS1",0.3433184274785105,-11.974807898047336,8.0,399.0],["PURA",0.26288623467524014,-7.1331735631280635,8.0,399.0],["R3HCC1L",0.34406284194514336,-12.026741224954101,10.0,397.0],["RANBP9",0.3032273681112698,-9.376257887148597,22.0,385.0],["RFTN2",0.28651926010677325,-8.403712363207884,9.0,398.0],["RGL3",0.2701975945677116,-7.5133609140844815,13.0,394.0],["SIAH1",0.2780289627461242,-7.9333197541079254,8.0,399.0],["SLC25A46",0.2893925652534991,-8.566504848941046,13.0,394.0],["SMAD5",0.26280335106432806,-7.128928834252812,10.0,397.0],["SMARCA1",0.27705949409033415,-7.880611295174637,18.0,389.0],["SOCS7",0.26606545225185857,-7.297091450217753,21.0,386.0],["STX4",0.31211077166755546,-9.919221194992776,11.0,396.0],["TAF3",0.25993792019030837,-6.983074072615169,26.0,381.0],["TFEB",0.3557238754933181,-12.858482076901948,11.0,396.0],["THG1L",0.28625698082354367,-8.388943624115209,11.0,396.0],["THRB",0.2822097416709077,-8.162971727324209,12.0,395.0],["TMEM30B",0.25813773436303705,-6.892327065598495,10.0,397.0],["TOE1",0.3397983092893662,-11.731098351383045,12.0,395.0],["TOP1MT",0.26742417657720674,-7.3678021312269815,14.0,393.0],["WHSC1L1",0.2792852498269652,-8.001926644865161,37.0,370.0],["YBX3",0.2966071358541929,-8.983384089796806,13.0,394.0],["ZBTB39",0.2782887744431645,-7.947480066731546,21.0,386.0],["ZCCHC10",0.32202292381549885,-10.546788476945038,8.0,399.0],["ZDHHC9",0.2884241606070135,-8.511433246106748,9.0,398.0],["ZNF181",0.28360796366981694,-8.240631466092568,14.0,393.0],["ZNF639",0.28040409099195396,-8.063317566401745,10.0,397.0]],"bottom":[]},"para":{"top":[["DHPS",0.2291161622794231,-5.704081261182236,8.0,399.0],["ERLEC1",0.2707393809485804,-7.605370406161181,9.0,398.0],["FAM20B",0.23291666734093017,-5.865402768379427,8.0,399.0],["HECA",0.33100143151115424,-10.885846651825645,16.0,391.0],["HTR4",0.2264553726832642,-5.593411419302229,11.0,396.0],["LUZP4",0.23173221665031438,-5.815459802740216,10.0,397.0],["OSGEPL1",0.23793876331506444,-6.082342443386289,8.0,399.0],["OXCT1",0.24743256116076115,-6.5048086912409895,10.0,397.0],["PHF10",0.26208820812061506,-7.186709192018631,12.0,395.0],["PNPLA2",0.23028966067636208,-5.754458551559796,11.0,396.0],["PRPS1",0.29263888973604063,-8.72414714105508,8.0,399.0],["R3HCC1L",0.30341828577165636,-9.306055021728222,10.0,397.0],["SSX2IP",0.2294763268596442,-5.720088518874481,11.0,396.0],["VPS53",0.2800918818312809,-8.074327574772932,13.0,394.0],["WFIKKN2",0.2807791873627132,-8.10982622218831,16.0,391.0]],"bottom":[]}}}
{"depmap_damaging":{"corr":{"top":[["ARHGAP35",0.22281454763150157,-5.246691008998418,11.0,396.0],["ARMC3",0.23486885234144553,-5.779817582061545,8.0,399.0],["CCDC78",0.2604180367077392,-7.007391866872716,8.0,399.0],["CLSPN",0.2172238648286406,-5.009211096643115,10.0,397.0],["CYB5R4",0.20457705263776393,-4.494490189095367,9.0,398.0],["DISP1",0.19752419789307307,-4.220803901878916,9.0,398.0],["FCGBP",0.14761471878762886,-2.547647510777008,8.0,399.0],["FILIP1",0.18061852809630688,-3.602981298623873,8.0,399.0],["FRY",0.23767583767491204,-5.908145377040179,11.0,396.0],["GOLGB1",0.2246808372560012,-5.327338761001418,9.0,398.0],["IL17RB",0.17389769173885503,-3.3721033239206757,8.0,399.0],["MDGA2",0.21819183904752035,-5.049888991346869,8.0,399.0],["MLH1",0.2728257345984195,-7.652818363708943,8.0,399.0],["MYO3A",0.19831283920116152,-4.250936827567712,8.0,399.0],["PCSK5",0.21819183904752035,-5.049888991346869,8.0,399.0],["POLQ",0.15314640468430968,-2.710937538225973,10.0,397.0],["PRDM9",0.23528817564645874,-5.798886807773305,10.0,397.0],["PXK",0.16292401101887993,-3.012826483425401,16.0,391.0],["RAPH1",0.17623247360000463,-3.4513692428273792,8.0,399.0],["REV3L",0.17606496351450177,-3.4456490310160603,21.0,386.0],["SLC15A2",0.23313444295887728,-5.701319499886484,8.0,399.0],["STAG2",0.20695393933349118,-4.5888690823176335,11.0,396.0],["ZNF493",0.18093539134889147,-3.6140715275149677,8.0,399.0]],"bottom":[]},"para":{"top":[["BICC1",0.184509475021994,-3.993631793669223,10.0,397.0],["CCDC78",0.1821527783050864,-3.9120527816577844,8.0,399.0]],"bottom":[]}}}
{"ccle_mirna":{"corr":{"top":[["hsa-miR-571_miR00522.1",0.15023300513615923,-2.613434341282402,405]],"bottom":[]},"para":{"top":[["hsa-miR-298_miR00272.1",0.13864237257469875,-2.284848825378694,405],["ebv-miR-BART18-5p_miR00732.1",0.16072671622605877,-2.9311992665871345,405]],"bottom":[]}}}
{"prism_primary_logfold":{"corr":{"top":[["aceclidine_BRD-A32673558-003-03-9::2.5::HTS",0.2455375904639961,-3.469641590090865,209],["SB-203580_BRD-A37704979-001-10-7::2.5::HTS",0.22212050448512236,-2.9109229703950414,209],["lidocaine_BRD-K52662033-003-21-2::2.5::HTS",0.21089643952070303,-2.3263187162086267,178],["BMS-806_BRD-K55773932-001-02-0::2.5::HTS",0.21999978964015057,-2.8747061306681485,210],["propiverine_BRD-K91244729-003-01-3::2.316613157::MTS004",0.25626526007248807,-3.712915678272751,207]],"bottom":[["tetramisole_BRD-A46393198-003-16-6::2.5::HTS",-0.24082073320277742,-3.3665366221537583,210],["betaxolol_BRD-K17498618-344-02-6::2.5::HTS",-0.23166266995329093,-3.157720521315052,211],["diosmetin_BRD-K26862302-001-05-2::2.5::HTS",-0.241922165657981,-3.3657320775006756,208],["vonoprazan_BRD-K32768103-051-02-6::2.5::HTS",-0.25745181765969005,-3.791245374443839,210],["dextromethorphan_BRD-K33211335-004-01-7::2.5::HTS",-0.21788348877706107,-2.8156732460583687,209],["dabigatran_BRD-K38168441-001-03-7::2.422985058::MTS004",-0.2251813271541206,-2.9197222626005446,204]]},"para":{"top":[["tariquidar_BRD-K09353376-001-03-9::2.5::HTS",0.21180183031816702,-2.551353053134112,197],["paracetamol_BRD-K41524689-001-23-5::2.5::HTS",0.19588347230319958,-2.320896739515328,206],["GSK2190915_BRD-K15691453-236-01-6::2.499981005::MTS004",0.22702099480953442,-2.9612258266545735,204],["AGN-194310_BRD-K70262971-001-01-9::2.499966077::MTS004",0.22648672693468686,-2.9862248984699975,207],["chloroprocaine_BRD-K86864073-001-01-1::2.5::MTS004",0.23348473382349175,-3.1096593982801317,204]],"bottom":[["magnolol_BRD-K26168087-001-09-7::2.5::HTS",-0.22629015894524085,-3.006386038147385,209],["epiandrosterone_BRD-K42756753-001-01-9::2.5::HTS",-0.2214597969394217,-2.777468505593135,199],["clobazam_BRD-K52408781-001-02-8::2.5::HTS",-0.23809343371042088,-3.2996193180432227,210]]}}}
{"prism_secondary_logfold":{"corr":{"top":[["BI-D1870_BRD-A81370665-001-03-6::0.0024414::HTS002",0.2578480527137352,-3.3234730449607346,180],["picolinic-acid_BRD-K01029106-001-01-4::2.51807::HTS002",0.29505354262485256,-3.985662680829466,168],["irinotecan_BRD-K08547377-394-03-5::0.00061034::HTS002",0.2366402544842241,-2.4908873023414078,153],["ETP-46464_BRD-K24556407-001-02-3::0.0024414::HTS002",0.25004656855962293,-3.087720334450881,176],["chlorogenic-acid_BRD-K47114202-001-14-6::0.010076::HTS002",0.2533214106254731,-3.159125628837198,176],["CNX-774_BRD-K48443249-001-01-0::0.00061034::HTS002",0.24575317427715684,-2.9662755351704395,174],["semaxanib_BRD-K63504947-001-14-7::0.0391::MTS010::PROS002_PR500",0.239434018416459,-2.7791827546743444,170],["arcyriaflavin-a_BRD-K72726508-001-02-1::0.00061034::HTS002",0.24402204531154006,-3.016404750593421,180],["SNX-5422_BRD-K73197500-001-02-2::0.00061034::HTS002",0.232861492050599,-2.42345619998518,153],["nimorazole_BRD-K79145628-001-05-5::2.5::HTS002",0.23825916777006817,-2.879642660744868,179],["AZD2461_BRD-K85014146-001-02-5::0.15625::HTS002",0.2858929566456867,-3.881958849867418,174]],"bottom":[["thioproperazine_BRD-K08619574-334-05-4::0.15625::HTS002",-0.35004538392139184,-4.410976941127498,132],["acivicin_BRD-K13050541-001-01-9::0.174997::HTS002",-0.29749735096503727,-3.2959202408545636,133],["estradiol_BRD-K18910433-001-36-6::0.161301::HTS002",-0.28674726236261555,-3.7248740623736465,165],["phlorizin_BRD-K24601397-001-01-1::0.00976562::HTS002",-0.27449164338963555,-3.643565656368088,176],["imiquimod_BRD-K26657438-001-15-2::0.15625::MTS010::PROS003_PR500",-0.30424114235455196,-4.393652729976316,176],["exemestane_BRD-K33425534-001-12-5::0.0024414::HTS002",-0.2776441737983253,-2.8969366027316057,132],["cimetidine_BRD-K34157611-001-16-0::0.00976562::HTS002",-0.30575203666900164,-4.4115373735103605,175],["dacarbazine_BRD-K35520305-001-17-7::0.0390625::HTS002",-0.40132386755963856,-5.732608146178214,132],["SC-12267_BRD-K40797222-001-01-8::0.0390625::HTS002",-0.30647689839256026,-4.385727182669851,173],["serdemetan_BRD-K65924316-001-03-1::2.5::HTS002",-0.2725537850596384,-2.419833966154818,111],["batimastat_BRD-K82818427-001-02-2::0.00233583::HTS002",-0.28902842319123684,-4.0398412100496195,178],["tepoxalin_BRD-K89714990-001-01-5::0.039062502::MTS006",-0.28137760538148365,-3.8669035652655905,179],["bexarotene_BRD-K92441787-001-04-1::0.00977::MTS010::PROS003_PR500",-0.2787696274515476,-3.746355573071253,176],["cladribine_BRD-K93034159-001-25-8::0.0390625::HTS002",-0.34288950210884556,-3.667969831943709,112],["caffeic-acid-phenethyl-ester_BRD-K96188950-001-16-9::0.625::HTS002",-0.27607044144383897,-3.6629745390277475,175]]},"para":{"top":[["XL-647_BRD-K03765900-001-01-9::0.00977::MTS010::PROS002_PR500",0.24955499820001514,-2.986661333852704,170],["AZ-628_BRD-K05804044-001-18-5::0.0391::MTS010::PROS002_PR500",0.2670935311239154,-3.366554592697106,170],["DU-728_BRD-K08859203-001-01-9::10::HTS002",0.26872264688221487,-3.298550495824923,164],["filgotinib_BRD-K16803204-001-01-6::0.00976562::HTS002",0.25637636044486817,-2.844154950539752,152],["AV-412_BRD-K23190681-001-01-1::0.0390625::HTS002",0.2579202159443371,-3.2288755984511393,174],["barasertib_BRD-K31928526-001-02-1::0.00061::MTS010::PROS001_PR500",0.23476384972808131,-2.7399126541252765,174],["hyodeoxycholic-acid_BRD-K44009692-001-02-3::0.0390625::HTS002",0.2416711823396477,-2.739102988177915,164],["Y-27632_BRD-K44084986-300-08-4::0.00061034::HTS002",0.2364240057276188,-2.487000382793789,153],["brigatinib_BRD-K56981171-001-01-0::0.156249998::MTS006",0.2346697369587996,-2.791516256371115,178],["CYC116_BRD-K64866502-001-03-9::0.0390625::HTS002",0.27239277817533536,-3.432836517230981,167],["arcyriaflavin-a_BRD-K72726508-001-02-1::0.00061034::HTS002",0.25846550680444186,-3.337584780985751,180],["parthenolide_BRD-K98548675-001-05-9::0.0024414::HTS002",0.2576245446861975,-2.884501506383449,153]],"bottom":[["golgicide-a_BRD-A57886255-001-01-1::0.00061034::HTS002",-0.24641567513862278,-2.994945836243881,175],["LE-135_BRD-K06593056-001-04-8::0.0024414::HTS002",-0.24445896813155654,-2.9390880424550465,174],["sparfloxacin_BRD-K07612980-001-05-3::2.58642::HTS002",-0.25009813355980387,-3.073718194778343,175],["irinotecan_BRD-K08547377-001-04-4::0.00977::MTS010::PROS001_PR500",-0.29635129316435,-4.144403945303946,174],["cimetidine_BRD-K34157611-001-16-0::0.00976562::HTS002",-0.24887944186172925,-3.04751988243366,175],["SC-12267_BRD-K40797222-001-01-8::0.0390625::HTS002",-0.27479908841412126,-3.5963822624139343,173],["4-hydroxy-phenazone_BRD-K49759007-001-11-9::0.625::HTS002",-0.25033053795238885,-3.0635766527675194,174],["etofylline-clofibrate_BRD-K49840922-001-05-1::0.15625::HTS002",-0.2648184467684642,-2.667390591127815,132],["gefitinib_BRD-K64052750-001-17-5::0.15625::HTS002",-0.24896950895165718,-2.5208349772714818,140],["trichostatin-a_BRD-K68202742-001-16-5::0.00257315::HTS002",-0.2497111638213353,-2.9445844919770066,167],["cinacalcet_BRD-K73838513-003-05-5::2.5::HTS002",-0.271048668883395,-3.046640775128224,147],["SB-590885_BRD-K78809024-001-05-7::0.00976562::HTS002",-0.26040153106388747,-3.3003570497366357,175],["kynurenic-acid_BRD-K85872723-001-15-9::0.00976562::HTS002",-0.26798225642975737,-3.3171536243775224,166],["LY456236_BRD-K87696786-003-04-4::0.15625::HTS002",-0.27121462031328025,-3.530540317690237,174]]}}}
{"ccle_proteomics":{"corr":{"top":[["RBMY1B_A6NDE4",0.35178843243965685,-3.662706769879736,106],["OSBPL11_Q9BXB4",0.33549751195259825,-4.212462292116573,137],["ABHD10_Q9NUJ1",0.30997539216083786,-3.642681287934546,137],["PALM3_A6NDB9",0.3573864250525666,-3.6766039134173325,103]],"bottom":[["RECQL_P46063",-0.3339534707929392,-4.176541329403176,137],["HERC1_Q15751",-0.30429792275423967,-3.2516317799727084,125],["RBCK1_Q9BYM8",-0.33048776942749236,-4.096605244797838,137],["MAN2C1_Q9NTJ4-4",-0.3022014590507528,-3.323221082114885,130]]},"para":{"top":[["RBMY1B_A6NDE4",0.3371323023747746,-3.387736296728313,106],["OSBPL11_Q9BXB4",0.31717332734510656,-3.798274308391649,137],["WDR24_Q96S15",0.27681487584706566,-2.8817607534317995,132],["DENND6A_Q8IWF6",0.29687244063922597,-2.6989665750694023,106]],"bottom":[["ZFAND5_O76080",-0.25556942146287154,-2.58892175151296,137],["MAN2C1_Q9NTJ4-4",-0.29156284752515305,-3.117122179780174,130],["CRTC3_Q6UUV7",-0.31292767880531636,-3.443427627403685,126]]}}}
{"depmap_copy_number":{"corr":{"top":[["LOC101927051_101927051",0.2350757513475495,-5.776379637102457,406],["LOC102724378_102724378",0.2394777126299006,-5.978038454679912,406],["LOC105373031_105373031",0.228562433584369,-5.485139334877331,406],["TRIOBP_11078",0.2394777126299006,-5.978038454679912,406],["ANKRD54_129138",0.2341409525597484,-5.734058204601018,406],["GCAT_23464",0.2341409525597484,-5.734058204601018,406],["GGA1_26088",0.23552540747416703,-5.796799652562194,406],["H1F0_3005",0.2341409525597484,-5.734058204601018,406],["LGALS1_3956",0.2394777126299006,-5.978038454679912,406],["EIF3L_51386",0.23327947097048723,-5.695211484469812,406],["PDXP_57026",0.2350757513475495,-5.776379637102457,406],["FAM227A_646851",0.228562433584369,-5.485139334877331,406],["MIR658_724028",0.23327947097048723,-5.695211484469812,406],["MIR659_724029",0.23327947097048723,-5.695211484469812,406],["NOL12_79159",0.2394777126299006,-5.978038454679912,406],["GALR3_8484",0.2341409525597484,-5.734058204601018,406]],"bottom":[]},"para":{"top":[],"bottom":[]}}}
{"depmap_gene_tpm":{"corr":{"top":[["OPN5_221391",0.2818100683700224,-8.085415092469832,404],["PXDNL_137902",0.2646422825204286,-7.174626889096399,404],["TAS2R1_50834",0.31884627639908636,-10.271753246694798,404],["GSTA3_2940",0.2925542044938771,-8.687933421466395,404],["FAM9B_171483",0.2529556291195524,-6.590299038796778,404],["ADH1B_125",0.28233974375234006,-8.114525376715518,404],["SPATA31A1_647060",0.3357890714035841,-11.377768901051066,404],["PRB1_5542",0.26372446830442164,-7.127702476997325,404],["SPATA31A7_26165",0.33853651404922785,-11.563635527717564,404],["SPATA31A5_727905",0.368909445019156,-13.744192161780425,404]],"bottom":[]},"para":{"top":[["OPRPN_58503",0.18085051622071655,-3.5880010180885455,404],["MGAT4D_152586",0.19737547877495298,-4.187790096586467,404]],"bottom":[]}}}
{"avana":{"corr":{"top":[["ACLY_47",0.24780198695550726,-3.9073502028052296,235],["GOT1_2805",0.255846301344631,-4.107550127897583,233],["NYAP1_222950",0.19393645892827396,-2.5480851110017073,235]],"bottom":[["EIF2AK4_440275",-0.2577948064634624,-4.195814215245417,235],["ELF2_1998",-0.24225481494526754,-3.7522671557363108,235],["EVI2B_2124",-0.24374057343634623,-3.7934544160087955,235],["HEMGN_55363",-0.2158403413650406,-3.0619842996552555,235],["LEAP2_116842",-0.23000607824956007,-3.422375873591436,235],["MSANTD3_91283",-0.23142793487218014,-3.4597928521250605,235],["NREP_9315",-0.21941550039157623,-3.1508310934131343,235],["RANBP17_64901",-0.25261714968399945,-4.044880791788823,235],["SLCO6A1_133482",-0.2080502749035592,-2.8732605526623853,235],["SMIM15_643155",-0.22589940395836133,-3.315587739588479,235],["SPN_6693",-0.2691186949517909,-4.537077590745807,235],["TUBA3C_7278",-0.23828323728862044,-3.6434204684081535,235]]},"para":{"top":[["C5orf47_133491",0.21910915164504802,-3.1431625543889283,235],["CKAP5_9793",0.1994770754774252,-2.673189120638639,235],["KDM4E_390245",0.21086444604822557,-2.9192946736881624,233],["LRRC45_201255",0.19751373241710546,-2.6284833236051166,235],["MBLAC1_255374",0.23192932989499604,-3.473041972805986,235],["MUC17_140453",0.20791800733695578,-2.8701134439807126,235],["OR10G7_390265",0.2332301292565757,-3.5075480103405474,235]],"bottom":[["C3orf70_285382",-0.21200011122854384,-2.9681196589897985,235],["GGN_199720",-0.21995904549596626,-3.1644627739309596,235],["LSM14A_26065",-0.2365265116241292,-3.5958531448478532,235],["PAK4_10298",-0.22072728541581377,-3.1837855858739132,235],["RNASEH2C_84153",-0.21869092943942595,-3.132710392048206,235],["SGTB_54557",-0.2671977928565637,-4.478099219147417,235],["TASP1_55617",-0.2214365387712646,-3.201683027286962,235],["VSIG10_54621",-0.20762093308455648,-2.863051939981731,235],["ZNF234_10780",-0.2032399554702447,-2.760026276187721,235]]}}}
{"drive":{"corr":{"top":[["TBC1D21_161514",0.2648237572400637,-2.719104027754569,135],["HM13_81502",0.28077153997925036,-3.050881468644822,137]],"bottom":[["HSF1_3297",-0.24030626813250977,-2.3728386285483842,140],["OR2T33_391195",-0.26266452813619373,-2.748350458823397,139]]},"para":{"top":[["KCTD18_130535",0.23565092430129986,-2.2266641666943316,135],["WDR36_134430",0.23024631727348102,-2.2072716009349405,140],["WDFY3_23001",0.2725413342558516,-2.9496061804141362,140],["COL6A5_256076",0.23214919272525542,-2.198013869434188,137],["GUCY2C_2984",0.25585227361030793,-2.593865121030451,137],["ACP5_54",0.2549297884017476,-2.5458179574664768,135],["ERCC6L_54821",0.24184772053995313,-2.3988023141531647,140],["MMRN2_79812",0.2343963142475439,-2.2339652346253023,137]],"bottom":[["KLHL7_55975",-0.27399889929443993,-2.885705212108785,135],["PSG6_5675",-0.29716593268646685,-3.4183964093381105,139],["SRGAP3_9901",-0.21593063546667746,-1.9480793029429215,137]]}}}
{"achilles":{"corr":{"top":[["COQ7_10229",0.32384369297081567,-3.046145608424382,102],["OTOP1_133060",0.25674176684578376,-2.0365838969339762,102],["RPL13AP20_387841",0.2948684083271768,-2.580822723464763,102],["UBE2Q2P1_388165",0.30284372270794035,-2.704294262419506,102],["MPI_4351",0.26236591973635437,-3.37779883410865,177],["EIF4ENIF1_56478",0.3353484103602345,-3.244035522672828,102],["BNIP3_664",0.2662583100375392,-3.467480807629758,177],["PGBD5_79605",0.2812155222380209,-2.3773208059139375,102],["ADM2_79924",0.3023306080820603,-2.6962467513910786,102],["SHCBP1L_81626",0.2678778833066439,-2.1878707813413865,102],["MARVELD1_83742",0.33772310658011595,-3.2858428375168116,102],["ZNF845_91664",0.2607000848548822,-3.339831570202651,177],["EPSTI1_94240",0.27962966713513887,-2.3543161263296204,102]],"bottom":[["CT45A8_102723737",-0.31238354387875744,-2.8565429210354987,102],["NTAN1_123803",-0.27965908005579393,-3.786735078504385,177],["COL9A3_1299",-0.3212592007156855,-3.002738089973025,102],["ETF1_2107",-0.3182649981199338,-2.952923571802819,102],["KHNYN_23351",-0.31360084282631995,-2.8763322169153445,102],["UPF2_26019",-0.3245139976207065,-3.0574658690060854,102],["PENK_5179",-0.3003257849112517,-2.6649409625608325,102],["SHQ1_55164",-0.3611250945738157,-3.7159637221184307,102],["HJURP_55355",-0.30004144101679936,-2.660518514299689,102],["TRAPPC11_60684",-0.34951194473394154,-3.498357369188531,102],["POTEI&POTEJ_653269&653781",-0.28367959984421737,-2.4133244762070394,102],["SNAP23_8773",-0.3433678441356606,-3.3865605120903988,102]]},"para":{"top":[["COQ7_10229",0.3260644248542075,-3.083748440638014,102],["LOC107984923&EIF1AX_107984923&1964",0.2767680077749366,-3.7164699717123013,177],["NACC1_112939",0.32094266287505685,-2.9974478433057645,102],["LRRC28_123355",0.28963621190532784,-4.035185434069367,177],["HUS1B_135458",0.3079131948918063,-2.784575426176899,102],["SEPT10_151011",0.3229131182079836,-3.0304724013160915,102],["GJA8_2703",0.2820721892335776,-3.845975249420265,177],["KANSL3_55683",0.2672502972233249,-2.1791797159469084,102],["NIPAL3_57185",0.2836224927877302,-2.412486478600732,102],["RPLP0_6175",0.32529988654533065,-3.0707708954311705,102],["MTMR7_9108",0.31781970319251657,-2.9455584862082014,102]],"bottom":[["TSPAN1_10103",-0.29548803518479877,-2.5902928925924784,102],["SUGP2_10147",-0.32134006653444314,-3.0040905000684566,102],["C6orf223_221416",-0.28191303495552156,-2.387480381069697,102],["DENND5A_23258",-0.277911776800235,-2.329543011653242,102],["PLGLA&PLGLB2&PLGLB1_285189&5342&5343",-0.27188061206860786,-2.243771230330887,102],["PENK_5179",-0.36031045467356,-3.7004266875809506,102],["PRIM1_5557",-0.319390039276858,-2.9715813722298967,102],["NCAPD2_9918",-0.28580563617962973,-3.938695928726721,177]]}}}
{"ccle_rrbs_tss1kb":{"corr":{"top":[["ARL8B_3_5162929_5163929",0.466187498317726,-7.2044222123411235,122],["C6orf62_6_24719403_24720403",0.6586893184090411,-50.63645484770246,402],["ATAD5_17_29157987_29158987",0.33649848799276266,-10.279888667127777,361]],"bottom":[["PARVB_22_44394090_44395090",-0.2721557124211532,-3.996618773227685,199]]},"para":{"top":[["KLHL7_7_23144352_23145352",0.248730165455945,-4.752644379614767,291]],"bottom":[]}}}
{"ccle_gene_tpm":{"corr":{"top":[["TAS2R1_ENSG00000169777.5",0.3202230590302188,-10.335069746462098,403],["SPATA31A2_ENSG00000204848.4",0.3574229633136271,-12.861757555981777,403],["RP13-60P5.2_ENSG00000232446.1",0.3192313703410519,-10.272276099223246,403],["SPATA31A5_ENSG00000233788.4",0.35481279895145523,-12.67329899554926,403],["SPATA31A4_ENSG00000234214.3",0.34430888225987594,-11.932252900578215,403],["SPATA31A7_ENSG00000234734.5",0.35254660193314136,-12.511076728082996,403],["RP11-59J16.1_ENSG00000239921.2",0.33819158993226095,-11.513303965322628,403],["RP11-88I21.2_ENSG00000244215.1",0.35581289896236923,-12.745303317658806,403],["SERF1AP1_ENSG00000250813.1",0.3690252480171996,-13.720646362410085,403],["RP11-677O4.2_ENSG00000260759.1",0.36902524801719966,-13.720646362410085,403]],"bottom":[["None_ENSG00000261740.1",-0.21074485116138472,-4.700218007312488,403]]},"para":{"top":[["USP9YP22_ENSG00000224408.1",0.20500965155961287,-4.472331321710242,403],["SETP15_ENSG00000226536.1",0.21184456783247543,-4.744633676041283,403],["AC002542.2_ENSG00000227532.1",0.24583862978729362,-6.234262741599426,403],["RP11-449H15.2_ENSG00000231838.1",0.21657506058517487,-4.938343851371746,403],["LINC00690_ENSG00000233570.1",0.22200928846250095,-5.166219133670545,403],["AC016903.1_ENSG00000236634.1",0.24043919373294187,-5.98230658480903,403],["ACA64_ENSG00000239005.1",0.2513278330840493,-6.496485696196837,403],["VN1R104P_ENSG00000249654.1",0.21127835680241908,-4.721736402508676,403],["IGKV1-13_ENSG00000253497.1",0.24667865675409595,-6.273992814790505,403],["RP11-326A13.3_ENSG00000258971.1",0.20342456718079363,-4.410452856359568,403],["MED28P6_ENSG00000259183.1",0.24302206327610001,-6.1020959086697975,403],["RP11-124N19.3_ENSG00000262198.1",0.2076207700603644,-4.575305235437503,403],["CTD-3187F8.2_ENSG00000268595.1",0.20232917176575577,-4.367969070087545,403],["RP13-122B23.9_ENSG00000270259.1",0.20481799582856194,-4.464824133358687,403],["CH17-132F21.1_ENSG00000270999.1",0.22764594804350546,-5.408677170627659,403]],"bottom":[]}}}
{"ccle_rrbs_tss_clusters":{"corr":{"top":[["C6orf62_1",0.5713671499126975,-35.91761308835343,407],["C6orf62_2",1.0,-323.0051853474518,407],["MAZ_3",0.3458494311621568,-12.151946078101398,407],["MAZ_4",0.35470944770779506,-12.78475418079428,407]],"bottom":[["MIR3130-1_3",-0.1982219791080049,-4.201498959076765,402],["MIR6513_1",-0.2112207434638395,-4.281313971799449,361],["TPT1_2",-0.29988114702703483,-7.936639315935035,348],["ZNF213-AS1_1",-0.22389275005912623,-5.176521759887414,397],["WWP2_9",-0.20195447903230357,-3.2966142774826626,293],["MIR5010_1",-0.3022164753269827,-5.993019228072192,252],["PIGU_3",-0.27602884992301124,-7.292736280490613,377],["PARVB_9",-0.27314236472166864,-4.076356678176107,202]]},"para":{"top":[["C6orf62_1",0.42413382512992914,-18.475139378271624,407],["C6orf62_2",1.0,-323.0051853474518,407],["FAM91A1_2",0.2864149523078567,-6.307710236891143,298],["VPS35_2",0.2720941368838159,-5.18943808226674,267]],"bottom":[["LOC100131289",-0.16701357573489484,-2.2123810935010693,268],["GTPBP2_3",-0.2776342612472463,-3.681833943311117,174]]}}}
{"ccle_rrbs_cgi_clusters":{"corr":{"top":[["16_29816759_29819272-1",0.3546272883785072,-12.778794440286257,407],["22_50621164_50624195-3",0.4179448360892077,-12.96228101716502,290],["6_24718387_24721153-1",0.5713671499126975,-35.91761308835343,407]],"bottom":[["11_67230298_67234558-1",-0.2051969786446054,-2.8362125640116163,238],["20_33262666_33267193-3",-0.27602884992301124,-7.292736280490613,377],["7_128764335_128767159-1",-0.21205958596258867,-3.889067329002243,321],["14_104203070_104207329-3",-0.3694824066165634,-7.696962896215984,217]]},"para":{"top":[["16_46720564_46723336-2",0.2720941368838159,-5.18943808226674,267],["8_124778286_124783265-2",0.2864149523078567,-6.307710236891143,298],["6_24718387_24721153-1",0.4241338251299291,-18.475139378271617,407]],"bottom":[["17_44341682_44345910-1",-0.2361785178734862,-2.944191571178744,187],["16_977422_981663-2",-0.1807115219339195,-2.619373414621457,280],["14_104203070_104207329-3",-0.23988550867168013,-3.4399441803301003,217],["15_28751439_28755940-1",-0.2731150301646842,-2.5577203758887914,118]]}}}
