{"depmap_hotspot":{"corr":{"top":[],"bottom":[]},"para":{"top":[],"bottom":[["AES",-0.1134705717716325,-3.288033295398932,9.0,829.0],["ANKRD10",-0.12152130116896157,-3.65820076273374,19.0,819.0],["ATOH7",-0.1065649981985817,-2.988485174823467,10.0,828.0],["CETN1",-0.12033703056337325,-3.6023858584630495,18.0,820.0],["COPS8",-0.11749525229059389,-3.470463557897129,18.0,820.0],["FGF21",-0.13462076283947938,-4.307608641046292,24.0,814.0],["FH",-0.1323734462762711,-4.192038058101943,26.0,812.0],["JOSD2",-0.11657880988749192,-3.4283706086702446,13.0,825.0],["LCN10",-0.10883971249232717,-3.085432543576869,11.0,827.0],["LIN52",-0.10691661516215326,-3.003233468991422,8.0,830.0],["LRRC57",-0.10012538527573764,-2.723698480373059,11.0,827.0],["OR2J1",-0.12450800354705834,-3.8010013186807545,17.0,821.0],["POLR2E",-0.11650058969008975,-3.4249816826993253,20.0,818.0],["SRSF12",-0.09232510393380422,-2.4215530934418714,10.0,828.0]]}}}
{"depmap_damaging":{"corr":{"top":[],"bottom":[]},"para":{"top":[],"bottom":[["DVL2",-0.11346512808675212,-3.28476898591533,9.0,828.0],["ERC2",-0.10710036478428532,-3.008465384694008,11.0,826.0],["GBA2",-0.1069114081164013,-3.000308032170107,8.0,829.0],["TTC8",-0.10021516977422504,-2.7248012900158844,9.0,828.0],["WDR63",-0.10869611147520049,-3.076609878807413,15.0,822.0],["ZBTB24",-0.10691140811640122,-3.000308032170107,8.0,829.0]]}}}
{"avana":{"corr":{"top":[],"bottom":[["EZH2_2146",-0.31379683094716354,-11.403736638811868,467]]},"para":{"top":[],"bottom":[]}}}
{"achilles":{"corr":{"top":[["DIS3L2_129563",0.3074369391939344,-5.472823093962218,220]],"bottom":[]},"para":{"top":[],"bottom":[]}}}
{"ccle_rrbs_tss1kb":{"corr":{"top":[["TBC1D8-AS1_2_101767121_101768121",0.7962234285866256,-181.7264857407995,828]],"bottom":[]},"para":{"top":[["CTDSPL_3_37902668_37903668",0.46885942976996303,-45.430215643668596,822]],"bottom":[]}}}
{"ccle_rrbs_tss_clusters":{"corr":{"top":[["TNFRSF21_2",0.8647305004890801,-248.54374845345833,828],["TNFRSF21_3",0.9464944907946903,-323.0051853474518,838]],"bottom":[]},"para":{"top":[["TNFRSF21_2",0.5582338447087646,-68.28289325302993,828],["TNFRSF21_3",0.7036854949904239,-125.49370136039089,838]],"bottom":[]}}}
{"ccle_rrbs_cgi_clusters":{"corr":{"top":[["2_101765042_101767650-3",0.7959270410807036,-183.24102541364377,836],["6_47277139_47279823-1",0.9209397642383138,-323.0051853474518,838],["2_101767650_101770259-1",0.7555016218214471,-153.32354291779907,829],["6_47274455_47277139-2",0.8393142919742748,-219.04952976336793,824]],"bottom":[["10_74055609_74060037-1",-0.5118217618593316,-35.865386180581154,528]]},"para":{"top":[["6_47277139_47279823-1",0.5256558265594771,-59.98938187067249,838],["6_47274455_47277139-2",0.4798282090838932,-47.94527996990448,824]],"bottom":[]}}}
