{"depmap_hotspot":{"corr":{"top":[],"bottom":[]},"para":{"top":[["AKIP1",0.11577546318830044,-3.4010250836363145,8.0,833.0]],"bottom":[]}}}
{"depmap_damaging":{"corr":{"top":[],"bottom":[]},"para":{"top":[],"bottom":[["TCF24",-0.12423296842953442,-3.7946563636655646,10.0,830.0]]}}}
{"ccle_mirna":{"corr":{"top":[],"bottom":[]},"para":{"top":[],"bottom":[["hsa-miR-99b_miR00687.1",-0.4276622133188814,-37.77228687408658,836]]}}}
{"ccle_proteomics":{"corr":{"top":[],"bottom":[]},"para":{"top":[],"bottom":[["GLUD2_P49448",-0.49865749103966067,-17.6529198741972,270]]}}}
{"depmap_copy_number":{"corr":{"top":[],"bottom":[["MIR3678_100500841",-0.19634679538812042,-8.018992452658049,840],["TMEM94_9772",-0.196423906563064,-8.024886132461498,840]]},"para":{"top":[],"bottom":[["MIR548AA2_100500895",-0.21164929834098128,-9.235440568705462,840],["TOB1_10140",-0.20674918985472387,-8.835610007584357,840],["LOC101928021_101928021",-0.21670591914927811,-9.658321996550736,840],["PITPNC1_26207",-0.21181699867542456,-9.249297398045737,840],["CACNG4_27092",-0.21259910576954363,-9.314073492052415,840],["TOB1-AS1_400604",-0.20674918985472387,-8.835610007584357,840],["NME1_4830",-0.20743503405262165,-8.890984882901584,840],["NME2_4831",-0.20796644371552414,-8.934021989975374,840],["MBTD1_54799",-0.20796644371552414,-8.934021989975374,840],["PSMD12_5718",-0.21765839338963366,-9.739151710437001,840],["SMURF2_64750",-0.20792312343376476,-8.930509331774463,840],["NME1-NME2_654364",-0.20743503405262165,-8.890984882901584,840],["MIR548D2_693131",-0.21164929834098128,-9.235440568705462,840],["CACNG1_786",-0.21418413891082191,-9.44611737218379,840],["SPAG9_9043",-0.20870288594844658,-8.993853615115375,840],["HELZ_9931",-0.21418413891082191,-9.44611737218379,840]]}}}
{"drive":{"corr":{"top":[],"bottom":[]},"para":{"top":[["CRTC3_64784",0.3272718285103692,-8.723315510843772,321]],"bottom":[]}}}
{"achilles":{"corr":{"top":[],"bottom":[]},"para":{"top":[],"bottom":[["NRIP3_56675",-0.295515831637208,-8.389943507329564,381]]}}}
{"ccle_rrbs_tss1kb":{"corr":{"top":[],"bottom":[]},"para":{"top":[["HTR1E_6_87646023_87647023",0.6819078215441292,-110.72247521529931,807]],"bottom":[]}}}
{"ccle_rrbs_tss_clusters":{"corr":{"top":[["HTR1E_1",0.85752827355377,-243.68590610935567,841],["HTR1E_2",1.0,-323.0051853474518,841],["HTR1E_3",0.8334082227379209,-62.76228786010893,241],["LUZP2_1",0.7402749835254719,-144.2025226851617,830]],"bottom":[]},"para":{"top":[["HTR1E_1",0.8750881345711627,-265.94443310653344,841],["HTR1E_2",1.0,-323.0051853474518,841],["HTR1E_3",0.7794368709377897,-49.7196984823133,241]],"bottom":[]}}}
{"ccle_rrbs_cgi_clusters":{"corr":{"top":[["6_87645253_87649707-1",0.85752827355377,-243.68590610935567,841],["6_87645253_87649707-3",0.8334082227379209,-62.76228786010893,241],["11_24516224_24520738-1",0.7402749835254719,-144.2025226851617,830]],"bottom":[]},"para":{"top":[["3_74661506_74666121-2",0.71605656273253,-131.1477257303201,833],["6_87645253_87649707-3",0.7794368709377897,-49.7196984823133,241],["6_87645253_87649707-1",0.8750881345711629,-265.94443310653344,841]],"bottom":[]}}}
