{"depmap_hotspot":{"corr":{"top":[],"bottom":[]},"para":{"top":[["PSMB2",0.10710529223466252,-3.0086566585501013,10.0,827.0]],"bottom":[["CCDC79",-0.12164469295253034,-3.6607334798232043,26.0,811.0],["CD300E",-0.10989229791579774,-3.128269066785424,19.0,818.0],["DNAJB11",-0.12815053314615302,-3.975778269498446,28.0,809.0],["DYNAP",-0.0879836850820342,-2.260253607379214,8.0,829.0],["FABP1",-0.09748399102985496,-2.6167673947317236,9.0,828.0],["LYZL4",-0.13048300647085542,-4.091747093544909,9.0,828.0],["OR13A1",-0.1380139498188871,-4.481019068844946,19.0,818.0],["OR5M3",-0.15778344547919296,-5.59574207487118,34.0,803.0],["ROPN1B",-0.08444289540797491,-2.135122160525559,9.0,828.0],["SMIM8",-0.09480649399464566,-2.5132017792321526,8.0,829.0]]}}}
{"depmap_damaging":{"corr":{"top":[],"bottom":[]},"para":{"top":[],"bottom":[["DHRS9",-0.08573872740767718,-2.178691875527674,10.0,826.0],["MRE11A",-0.10961815658881761,-3.113259602165033,9.0,827.0]]}}}
{"ccle_rppa":{"corr":{"top":[["RAD51_RAD51",0.3413487013029787,-22.5265493245792,799]],"bottom":[]},"para":{"top":[],"bottom":[]}}}
{"ccle_proteomics":{"corr":{"top":[["HNRNPM_M0R019",0.5426630781654957,-9.970796490965165,122]],"bottom":[["ARHGEF12_Q9NZN5",-0.44585127138823355,-16.64935523264571,327]]},"para":{"top":[],"bottom":[]}}}
{"depmap_gene_tpm":{"corr":{"top":[],"bottom":[]},"para":{"top":[],"bottom":[["CADPS2_93664",-0.5630572595735506,-70.1167023008876,833],["TMED2_10959",-0.3896205234098952,-30.86135179334743,833],["RNF133_168433",-0.4082095666818773,-34.06440545192552,833],["RNF148_378925",-0.4597519789018827,-44.072015693805945,833]]}}}
{"achilles":{"corr":{"top":[["NDUFB2_4708",0.35779165119261763,-12.191972107452203,380],["SPRR2D_6703",0.3124356553156558,-5.641542385153875,220]],"bottom":[]},"para":{"top":[],"bottom":[]}}}
{"ccle_rrbs_tss1kb":{"corr":{"top":[["PLSCR4_3_145968966_145969966",0.786872119638377,-163.90477453138425,777],["PLSCR4_3_145968651_145969651",0.8050760436888196,-187.68041110547549,823],["CADPS2_7_122526514_122527514",0.9519932759423351,-323.0051853474518,824],["CADPS2_7_122526813_122527813",0.9446960728167425,-323.0051853474518,814]],"bottom":[]},"para":{"top":[["CADPS2_7_122526514_122527514",0.63046239249694,-91.78864719964281,824],["CADPS2_7_122526813_122527813",0.5701716686143794,-70.63775500818105,814]],"bottom":[]}}}
{"ccle_gene_tpm":{"corr":{"top":[],"bottom":[]},"para":{"top":[],"bottom":[["CADPS2_ENSG00000081803.11",-0.5645675118800005,-70.31756667352273,830],["TMED2_ENSG00000086598.6",-0.39276134816338765,-31.278407056054277,830],["RNF133_ENSG00000188050.2",-0.4096162811973438,-34.19473543812274,830],["FEZF1-AS1_ENSG00000230316.2",-0.3836951620033806,-29.77806867783408,830],["RNF148_ENSG00000235631.1",-0.463988384401867,-44.81490164848847,830]]}}}
{"ccle_rrbs_tss_clusters":{"corr":{"top":[["CADPS2_1",0.9004526451500564,-292.1969251576545,806],["CADPS2_2",0.9826312719141578,-323.0051853474518,837]],"bottom":[]},"para":{"top":[["CADPS2_1",0.648230692167719,-96.52636455442388,806],["CADPS2_2",0.8892925248053792,-285.20942127412843,837]],"bottom":[]}}}
{"ccle_rrbs_cgi_clusters":{"corr":{"top":[["7_122523748_122526354-1",0.9004526451500564,-292.1969251576545,806],["7_122523748_122526354-3",0.9142826409128708,-323.0051853474518,831],["7_122526354_122528959-1",0.9549313880405196,-323.0051853474518,834],["3_145966334_145971008-1",0.7941785045835098,-181.43822111398364,834]],"bottom":[]},"para":{"top":[["7_122523748_122526354-3",0.6420251728492826,-97.01897448755281,831],["7_122523748_122526354-1",0.6482306921677189,-96.52636455442388,806],["7_122526354_122528959-1",0.6565605897265275,-103.27231027599292,834]],"bottom":[]}}}
