{"depmap_hotspot":{"corr":{"top":[["ACTB",0.22097903974073424,-5.825459666814585,10.0,455.0],["BPGM",0.20780510508617053,-5.2055269377432385,9.0,456.0],["BTN1A1",0.20193385391471916,-4.941658647323007,23.0,442.0],["C1QB",0.20830825816343002,-5.228493659308714,10.0,455.0],["CLVS2",0.19369906116100477,-4.584283119084605,17.0,448.0],["COL6A6",0.2176637342497452,-5.665789284678172,58.0,407.0],["DHPS",0.19010304001220157,-4.432836642433777,10.0,455.0],["DRAP1",0.21060038129522943,-5.333828997225264,12.0,453.0],["DYSF",0.23445661357900185,-6.5002758963932665,74.0,391.0],["FAM151A",0.19066953984144605,-4.456509723677099,13.0,452.0],["FLRT3",0.2061291394980474,-5.129430251147045,19.0,446.0],["IWS1",0.19343801392932225,-4.57319509898465,15.0,450.0],["KIAA0232",0.2062804230403088,-5.136273759279446,27.0,438.0],["LZTS2",0.19561901781487148,-4.666287047478429,21.0,444.0],["MAPK8IP2",0.24702044386759325,-7.16712406316554,17.0,448.0],["MDH1B",0.1974460362326275,-4.745064374659481,14.0,451.0],["NTRK2",0.20301199137481576,-4.989544304694947,20.0,445.0],["OR52D1",0.19195622819529762,-4.510535174823046,10.0,455.0],["OSBPL3",0.19716426845498855,-4.732867784294713,21.0,444.0],["PANK4",0.28998604135434103,-9.734386124774979,19.0,446.0],["PCDHB16",0.19739920240388942,-4.743035929851819,34.0,431.0],["PER1",0.2395954513953807,-6.76857680216897,29.0,436.0],["PLEKHG3",0.19132601819260103,-4.484029326000887,47.0,418.0],["PTPN6",0.22666674724402408,-6.105181884205856,18.0,447.0],["RAC3",0.23329408007631883,-6.4404277233898615,11.0,454.0],["RASGRF2",0.20342036525292387,-5.007748923758966,29.0,436.0],["RNF149",0.2370523365843544,-6.635033758566581,15.0,450.0],["SMARCC1",0.2609602404139502,-7.950647715211597,27.0,438.0],["SMS",0.22771486505122732,-6.157531558477569,9.0,456.0],["SPACA1",0.19051765160570786,-4.450155788482905,10.0,455.0],["STARD3",0.20943938246159227,-5.280329226897122,14.0,451.0],["SUN3",0.19538486170043404,-4.656243133173485,13.0,452.0],["TBC1D16",0.21154827751764524,-5.3777309226996275,16.0,449.0],["TNFAIP3",0.21146174148597002,-5.373714705787698,25.0,440.0],["TOP3A",0.2006315967820415,-4.884158394388026,22.0,443.0],["WDFY1",0.2038363821695479,-5.026331934245897,9.0,456.0],["ZNF304",0.25182259726164835,-7.431806262851596,17.0,448.0],["ZNF507",0.21726453215087835,-5.6467299834653275,25.0,440.0]],"bottom":[["TRH",-0.08158094091756307,-1.1031957782762034,9.0,456.0]]},"para":{"top":[["AAGAB",0.14863220802927588,-3.1635639546593564,10.0,455.0],["ACTB",0.18461745008101357,-4.454587632435678,10.0,455.0],["ANKMY2",0.1384286008888353,-2.8420369005611477,9.0,456.0],["ATG4B",0.13479391940784713,-2.732146442929296,8.0,457.0],["B3GNT4",0.161530070200387,-3.598058994048914,11.0,454.0],["BTBD10",0.14385008656333273,-3.0103864522165007,9.0,456.0],["C1QB",0.15349507857680797,-3.323651120401178,10.0,455.0],["CAPZB",0.14553677099539863,-3.063887238105082,9.0,456.0],["CD200R1",0.18068019232541138,-4.301479476011704,12.0,453.0],["COL4A3BP",0.13013484927679939,-2.595030360602049,8.0,457.0],["CORO6",0.15885410883766607,-3.505418341005047,12.0,453.0],["CPA4",0.16723925172129187,-3.8005770937618872,13.0,452.0],["CSAD",0.15563242057846619,-3.3955145642339617,11.0,454.0],["CXCR4",0.14144053737466722,-2.934883864026548,9.0,456.0],["DDX52",0.1794763555862791,-4.255200797548334,12.0,453.0],["DRAP1",0.18502447273184505,-4.470796432366569,12.0,453.0],["FGF3",0.1526643253899481,-3.2957665057309953,8.0,457.0],["G3BP1",0.1428356020997926,-2.9783525588249695,8.0,457.0],["GCSH",0.13543214819292212,-2.7512446642308106,8.0,457.0],["GNA15",0.16021948139551573,-3.5524789555817073,11.0,454.0],["GPRC5A",0.1620194045954231,-3.615069768781289,10.0,455.0],["HDAC2",0.2092584640601529,-5.482390550719276,18.0,447.0],["HS3ST6",0.16057836232487852,-3.5646078422149494,8.0,457.0],["KBTBD6",0.16430781426485,-3.6956507563948864,10.0,455.0],["KCTD18",0.15463928341152142,-3.3619679435668526,10.0,455.0],["KLF11",0.1565272213887986,-3.4257322994498165,10.0,455.0],["LPAR1",0.14258507323928335,-2.9706116875443986,9.0,456.0],["MAPK8IP2",0.19668932596503808,-4.943717864412581,17.0,448.0],["METTL3",0.18596660583203553,-4.507993804582646,12.0,453.0],["OR52D1",0.157156534047891,-3.447137068439736,10.0,455.0],["PAFAH1B1",0.15936572763323595,-3.5226443963505467,8.0,457.0],["PALM3",0.14071767261806756,-2.9124455392576367,9.0,456.0],["PANK4",0.22272812817727752,-6.093626604895496,19.0,446.0],["PM20D2",0.16653901369254118,-3.775176301791675,10.0,455.0],["PYCR1",0.17157351496528034,-3.9581032187540965,10.0,455.0],["PYCRL",0.13485774228635464,-2.7340528430305953,8.0,457.0],["RAC3",0.18938008230390205,-4.64410244316419,11.0,454.0],["RNASEH2A",0.15089801794017943,-3.237500079539498,9.0,456.0],["RNASEH2B",0.15017523312815545,-3.2136607929854653,8.0,457.0],["RNF182",0.1655565468484638,-3.7398061103553673,8.0,457.0],["RP11-1084J3.4",0.16882742336196807,-3.857725794121216,10.0,455.0],["RTCB",0.1524652942255659,-3.2893776167004964,10.0,455.0],["SARS",0.15547616139864395,-3.3900476890094837,9.0,456.0],["SCN3B",0.1733253694442287,-4.022987188979286,11.0,454.0],["SLC25A48",0.15579624417907514,-3.4010517845132955,11.0,454.0],["SLC2A1",0.17177590773031962,-3.9658767867043174,14.0,451.0],["SYNGR2",0.1848089383109159,-4.462389261698585,13.0,452.0],["TIMM50",0.14634379835984898,-3.0897719915288095,10.0,455.0],["TMEM66",0.1737887352325021,-4.040012030345521,9.0,456.0],["TMPRSS11D",0.1307092551833669,-2.6117166193483787,8.0,457.0],["TRA2A",0.14023576278033445,-2.8975410844484357,9.0,456.0],["TUBB",0.1527919711469631,-3.300008598927508,8.0,457.0],["VPS37D",0.16316830620647613,-3.6554928480751965,11.0,454.0],["ZNF101",0.1713594862369217,-3.950323856569674,11.0,454.0],["ZNF304",0.20823067355426356,-5.437147058623118,17.0,448.0]],"bottom":[["GRB2",-0.12164640643530156,-2.355581295055053,8.0,457.0],["IER5",-0.09196265872414479,-1.622283942680744,12.0,453.0],["PPIE",-0.08635235462065216,-1.501220993077092,8.0,457.0],["SLC25A42",-0.10409511484573808,-1.9025277799068694,8.0,457.0],["TH",-0.0986063472940928,-1.7723518892639132,8.0,457.0],["TRH",-0.08740639681884245,-1.5235685593913368,9.0,456.0]]}}}
{"depmap_damaging":{"corr":{"top":[["ANO3",0.17588635631484034,-3.85395772826692,9.0,455.0],["ARAP2",0.1687664035854587,-3.584277755061402,9.0,455.0],["FLG2",0.1674545122227145,-3.535740456002033,9.0,455.0],["KMT2D",0.29401880056884916,-9.978886202465917,47.0,417.0],["MYCBP2",0.18692126961173416,-4.293009468049783,19.0,445.0],["UMODL1",0.18889482535963886,-4.374262446000642,9.0,455.0],["UTRN",0.2082677944218926,-5.216582844230979,15.0,449.0],["XPO4",0.18669096995475798,-4.28358210713818,19.0,445.0]],"bottom":[]},"para":{"top":[["ANO3",0.15985611296849703,-3.5337430364451454,9.0,455.0],["ARAP2",0.16221226882857687,-3.615588886354956,9.0,455.0],["COL28A1",0.14704829137011405,-3.107186244304959,9.0,455.0],["CYB5R4",0.13079685736084506,-2.610263301913207,9.0,455.0],["DDX59",0.16621347953973029,-3.757345415821308,13.0,451.0],["DMXL2",0.13774670337886535,-2.816624653434416,8.0,456.0],["EPHB6",0.15625095837864394,-3.410735784955974,11.0,453.0],["FBN3",0.13562999758664998,-2.7528967707383076,9.0,455.0],["FLG2",0.16988487893704216,-3.8894130816354466,9.0,455.0],["KMT2D",0.2800465249791134,-9.073636716613729,47.0,417.0],["MYCBP2",0.17423255387968575,-4.0502299469083285,19.0,445.0],["ROCK2",0.15084434078064973,-3.2304863618008275,10.0,454.0],["SHROOM4",0.14614207757777561,-3.078175688695252,9.0,455.0],["SKIL",0.13813075552583243,-2.828296484119345,8.0,456.0],["SLC4A7",0.15483702391890117,-3.362776680766018,8.0,456.0],["UMODL1",0.11992229185278398,-2.305165289752638,9.0,455.0],["UTRN",0.18113146755035092,-4.3115600114180666,15.0,449.0],["ZC3H13",0.1663935291988909,-3.763533896588239,10.0,454.0],["ZFP36L2",0.170289302584676,-3.9044459155378237,12.0,452.0],["ZNF608",0.135207097816892,-2.7402427977869417,9.0,455.0]],"bottom":[]}}}
{"ccle_rppa":{"corr":{"top":[],"bottom":[]},"para":{"top":[["BCL2L11_Bim(CST2933)",0.37728206165012795,-15.74093657264059,444],["BCL2L11_Bim(EP1036)",0.371718464361656,-15.269470816479485,444],["CDKN1B_p27",0.30228072508362813,-10.107504935479287,444]],"bottom":[]}}}
{"prism_primary_logfold":{"corr":{"top":[["OAC1_BRD-K10878147-001-02-2::2.5::HTS",0.2092813690645665,-3.206886602604757,264],["dazmegrel_BRD-K20738689-001-01-2::2.5::HTS",0.2268109118332556,-3.694304092587915,264],["cytisine_BRD-K74186897-001-13-2::2.5::HTS",0.2161910666623124,-3.416679864584804,266],["azodicarbonamide_BRD-K87036601-001-01-6::2.5::HTS",0.22159733480682695,-3.5102954783169795,261],["pranlukast_BRD-K97045029-001-04-3::2.5::HTS",0.20101644599932736,-2.9902718889287345,264]],"bottom":[["atenolol-(+\/-)_BRD-A20239487-001-24-9::2.5::HTS",-0.20457845967996402,-2.9924373069343293,255],["hydrastinine_BRD-A57900429-003-05-8::2.5::HTS",-0.23945487057827303,-4.042879738529929,262],["INH1_BRD-K70177501-003-01-4::2.5::HTS",-0.20203767670228764,-2.9970384693088423,262],["nexturastat-a_BRD-K70402238-001-02-8::2.5::HTS",-0.22451976885893746,-3.6284072466822592,264]]},"para":{"top":[["cytisine_BRD-K74186897-001-13-2::2.5::HTS",0.2121481307382321,-3.3054332534447566,266]],"bottom":[["ebastine_BRD-K13314656-001-01-0::2.5::HTS",-0.28301924408775664,-5.375337337734989,256]]}}}
{"prism_secondary_logfold":{"corr":{"top":[["acetylsalicylsalicylic-acid_BRD-K46585355-001-14-3::0.625::HTS002",0.22540250139491372,-3.1446541527243665,222],["pitavastatin_BRD-K75958547-238-01-0::10::HTS002",0.33311999634214207,-4.6685278732057744,156],["pitavastatin_BRD-K75958547-238-01-0::2.5::HTS002",0.33003542457863355,-4.824680790862348,165],["RN-1734_BRD-K95581532-001-01-5::2.5::HTS002",0.2400442957002761,-3.512833310091048,222]],"bottom":[["ajmaline_BRD-A48300215-001-04-8::0.15625::HTS002",-0.2953763145411073,-4.662686509824394,200],["panobinostat_BRD-K02130563-001-11-4::0.0390625::HTS002",-0.2418954312100545,-3.4351439085247293,213],["I-BET-762_BRD-K08109215-001-06-4::0.15625::MTS010::PROS002_PR500",-0.24229541784978062,-3.403037020392975,210],["gambogic-acid_BRD-K08542803-001-02-3::0.00061::MTS010::PROS005_PR500",-0.23957215848821511,-3.4594534351834327,219],["salvianolic-acid-B_BRD-K18898553-001-01-1::0.039062501::MTS006",-0.2265287149712338,-3.2213507065642912,226],["AZD1480_BRD-K65928735-001-04-3::0.625::HTS002",-0.22481127029683765,-3.202956860351284,228]]},"para":{"top":[["acetylsalicylsalicylic-acid_BRD-K46585355-001-14-3::0.625::HTS002",0.24482468562573817,-3.6380464222983413,222],["tozasertib_BRD-K59369769-001-20-3::10::HTS002",0.2416797966228553,-3.6390038486661567,228],["PF-3845_BRD-K68997413-001-05-1::0.625::HTS002",0.22403863247734684,-3.099473861598732,221],["pitavastatin_BRD-K75958547-238-01-0::10::HTS002",0.3276438941938324,-4.52618416885144,156],["pitavastatin_BRD-K75958547-238-01-0::2.5::HTS002",0.3376985255201333,-5.037597830637411,165]],"bottom":[["ketoconazole_BRD-A38350138-001-04-9::0.00976562::HTS002",-0.2678990326896875,-2.7215241303441657,132],["arcyriaflavin-a_BRD-K72726508-001-02-1::0.625::HTS002",-0.2730022937531969,-4.533916141125791,228],["AVL-292_BRD-K87782578-001-01-4::0.0390625::HTS002",-0.2735697241831149,-2.528096307085455,116]]}}}
{"ccle_proteomics":{"corr":{"top":[["CAMKMT_Q7Z624",0.37758765799423105,-4.707944160334553,121],["CEBPA_P49715",0.3737795250891402,-4.170200131134392,108],["TOMM40L_Q969M1",0.293320760917418,-2.834022059053594,115]],"bottom":[["TTC30A_Q86WT1",-0.5314462260165141,-7.893461798518243,100],["RPL22_P35268",-0.3419023808454387,-5.128601128232116,164],["CDC42EP3_Q9UKI2",-0.36853754483092055,-5.326199233982638,146],["SPIRE1_Q08AE8-2",-0.34727780447488577,-4.4634724493392675,136],["RHOBTB3_O94955",-0.3974404488372787,-4.64843725466538,107],["CEP41_Q9BYV8",-0.4061935055014812,-7.167836564074025,164]]},"para":{"top":[["CEBPA_P49715",0.42580181334193634,-5.362124485340997,108],["TOMM40L_Q969M1",0.31301699510143416,-3.1810892927970094,115],["ZC3H3_Q8IXZ2",0.3117079156887174,-3.3954552915533394,125]],"bottom":[["TGFB1I1_O43294",-0.37990940115011734,-5.964684474542058,155],["CDC42EP3_Q9UKI2",-0.38548340052631086,-5.809929528441633,146]]}}}
{"depmap_copy_number":{"corr":{"top":[["IZUMO3_100129669",0.19976932191112723,-4.846289445707311,465],["LOC101929563_101929563",0.1969022993406924,-4.721543694386782,465],["ELAVL2_1993",0.19947251498571894,-4.833292019714558,465],["LINC01239_441389",0.20019800992348072,-4.865096030543662,465],["DMRTA1_63951",0.18355241222509378,-4.164098033490835,465]],"bottom":[]},"para":{"top":[],"bottom":[]}}}
{"depmap_gene_tpm":{"corr":{"top":[],"bottom":[]},"para":{"top":[],"bottom":[["ATOX1_475",-0.40743139916829146,-19.17618043275471,462]]}}}
{"avana":{"corr":{"top":[["FAM198A_729085",0.22429050469365963,-3.7173374806116617,272],["GLIPR1L2_144321",0.24428078308667794,-4.3316741517562685,272],["KRBOX1_100506243",0.2391617716657678,-4.169292249485456,272],["RCL1_10171",0.22201300496801896,-3.650686566503452,272],["TMEM169_92691",0.22860966327146665,-3.8455969700940678,272]],"bottom":[["ASB2_51676",-0.27396663298277046,-5.344207520286658,272],["GJB1_2705",-0.24217236757265578,-4.014610781945806,254],["SERPINA1_5265",-0.24251766805034897,-4.275347766849608,272]]},"para":{"top":[["GLIPR1L2_144321",0.2497303562541462,-4.508433096166765,272],["PCSK7_9159",0.2412448559373846,-4.234945390778789,272],["RCL1_10171",0.22571316890133875,-3.759314656605382,272],["TAF1A_9015",0.26284700227123503,-4.917996288150174,270],["TMEM169_92691",0.27448226995015823,-5.362886726094325,272]],"bottom":[["C10orf71_118461",-0.22956022749591715,-3.8741528033237502,272],["FBXO11_80204",-0.28980791676548084,-5.895985652883632,270],["MYO9B_4650",-0.22865668190261407,-3.847006661418653,272],["OR8I2_120586",-0.22561566998282606,-3.756429414552587,272],["SPC25_57405",-0.24155484466068664,-4.24476517207321,272]]}}}
{"drive":{"corr":{"top":[["CNBD1_168975",0.2412088986893143,-2.7442205222219895,165],["NCF1_653361",0.23956419684189809,-2.7119827645850245,165],["HIST1H2BI&HIST2H2BE_8346&8349",0.2686873603860358,-3.4197933448487947,171]],"bottom":[["CD300LD_100131439",-0.33355166394507013,-5.028960218614859,169],["TREX2_11219",-0.34696516467796157,-5.30272991836493,165],["TXNRD3_114112",-0.3506391882958936,-5.529034119785811,169],["AAMP_14",-0.34457545995864236,-5.405476368941406,171],["EGR3_1960",-0.32359154421896735,-4.801293241276984,171],["ANKRD20A9P_284232",-0.3289825728574852,-4.926255535975255,170],["TM7SF3_51768",-0.3177690571305563,-4.592795430260403,169],["SPTLC3_55304",-0.32973795074390677,-4.8165296719621775,165],["RAB1A_5861",-0.32525359414234767,-4.694676692734879,165],["EIPR1_7260",-0.38412239815241284,-6.669206116848081,171]]},"para":{"top":[["GAS6-AS2&LINC00501&MARVELD2&PLPP4&STOX1&KIAA1328_100506394&100820709&153562&196051&219736&57536",0.26172021671457957,-3.197720764760473,167],["CSH2_1443",0.2753136845388805,-3.5719651242330723,171],["ILDR1_286676",0.24920986973645556,-2.994490798773498,171],["HIST1H2BL&HIST1H2BH&HIST1H2BC_8340&8345&8347",0.3010504578423034,-4.113088244892817,167],["HIST1H2BI&HIST2H2BE_8346&8349",0.27277925749897636,-3.5133070543990215,171]],"bottom":[["TXNRD3_114112",-0.3207410811855158,-4.673084851188333,169],["MBOAT1_154141",-0.3297058356897703,-4.815650190128231,165],["MECOM_2122",-0.33824399314823234,-5.273630449028669,173],["LMTK2_22853",-0.3276449974550718,-4.862883579301022,169],["ACACB_32",-0.3233489645869488,-4.844867642440347,173],["DCAF8_50717",-0.35698254906360793,-5.783879578024965,171],["SCARA3_51435",-0.360035034453291,-5.816758958813854,169],["PLCG2_5336",-0.3092518717723571,-4.45934755614311,173],["MUS81_80198",-0.33414370195019905,-4.938121994415158,165],["WDR54_84058",-0.36645284220800356,-6.083667573707476,171],["SLA2_84174",-0.3080172396577967,-4.243891127934029,165],["NRP1_8829",-0.3296265708978824,-4.970545268786473,171]]}}}
{"achilles":{"corr":{"top":[["LINC00161_118421",0.38925253698180157,-5.140262878047619,125],["CMPK2_129607",0.3289928228602404,-3.745744233499803,125],["FAM69B_138311",0.37806664100054527,-4.859908828362029,125],["ZZEF1_23140",0.37267372663803344,-7.828711010192111,217],["PRND_23627",0.35498751010756474,-4.313106601685057,125],["KRTAP19-3_337970",0.3241043856530903,-3.644544451205673,125],["C3P1_388503",0.33886601901743146,-3.9553755799996084,125],["FAM53C_51307",0.3634210782681886,-4.508086714458738,125]],"bottom":[["PDCD7_10081",-0.34667731876774205,-4.12628137785599,125],["TPPP_11076",-0.3207548699504404,-3.576181016218304,125],["HSPB6_126393",-0.3193620704323864,-3.5479863897532917,125],["TMEM270_135886",-0.3177704620085019,-3.515933526745417,125],["PPP1R32_220004",-0.32433977269037545,-3.6493784834963328,125],["MMACHC_25974",-0.333025895782828,-3.830523558082923,125],["ZBTB11_27107",-0.39437555376491074,-5.272120693694569,125],["CIDEB_27141",-0.37331900655931327,-4.74399189015386,125],["DNAJA1_3301",-0.3492621813063511,-4.183835431005059,125],["PRAMEF5&PRAMEF6_343068&440561",-0.3321781460035188,-3.812605779552548,125],["RPL13AP17_399670",-0.4054507384700212,-5.564789253190381,125],["NUTM2A_728118",-0.36727309844538164,-4.598978114077686,125],["C11orf63_79864",-0.36545478357763467,-4.555928955117167,125],["VAPB_9217",-0.33538304430794547,-3.8806168373925396,125]]},"para":{"top":[["IGF2BP2_10644",0.33340746220148065,-3.8386051726690753,125],["AXDND1_126859",0.3561080476433044,-4.338698193188002,125],["CTBP1_1487",0.3368168639893133,-6.428292101828773,217],["SLC9B1_150159",0.3309466614032438,-3.786669817042742,125],["ZZEF1_23140",0.34961939046144463,-6.908498818525619,217],["TTC33_23548",0.33016296208827317,-3.7702213511220455,125],["PRND_23627",0.3967694127962559,-5.33449206212128,125],["FAM53C_51307",0.3956805657498367,-5.306062274322569,125],["EFCAB7_84455",0.3445559998970852,-6.716006100080458,217],["USO1_8615",0.32456107604308254,-5.988438137745587,217]],"bottom":[["PDCD7_10081",-0.33115530443971386,-3.7910563083989843,125],["KDELR2_11014",-0.3115056582474585,-5.540635278311327,217],["TPPP_11076",-0.3568901832013039,-4.356617974377211,125],["C1QTNF2_114898",-0.32922279364617885,-3.7505470428206147,125],["CNP_1267",-0.31526437821835657,-5.667400451511149,217],["DPAGT1_1798",-0.3233743392532291,-5.94685725902452,217],["STOX1_219736",-0.38086412635532896,-4.9290628412562105,125],["DNAJA1_3301",-0.3389124732174162,-3.9563786661869718,125],["KRTAP13-3_337960",-0.3206993681055003,-3.575054880944355,125],["NOSIP_51070",-0.31250584651711,-5.574198230540561,217],["RAD21_5885",-0.36722355401005896,-4.597801696449826,125]]}}}
{"ccle_rrbs_tss1kb":{"corr":{"top":[["ETV1_7_14031050_14032050",0.7485929549190057,-82.5047391412768,457]],"bottom":[]},"para":{"top":[["ETV1_7_14030865_14031865",0.8158197566019679,-109.55753484688155,457],["ETV1_7_14031050_14032050",0.9032697377692113,-168.58156994917923,457]],"bottom":[]}}}
{"ccle_rrbs_tss_clusters":{"corr":{"top":[["ETV1_2",1.0,-323.0051853474518,465]],"bottom":[]},"para":{"top":[["PAM_2",0.4376552229485997,-21.240616753024337,439],["ETV1_2",1.0,-323.0051853474518,465]],"bottom":[]}}}
{"ccle_rrbs_cgi_clusters":{"corr":{"top":[],"bottom":[]},"para":{"top":[["5_102199583_102203912-2",0.4376552229485997,-21.240616753024337,439]],"bottom":[]}}}
