{"depmap_hotspot":{"corr":{"top":[],"bottom":[]},"para":{"top":[["TMEM105",0.09664042628015268,-2.5860876645327675,8.0,830.0]],"bottom":[]}}}
{"depmap_damaging":{"corr":{"top":[],"bottom":[]},"para":{"top":[["TRANK1",0.1161720512479391,-3.4067448198203834,14.0,823.0]],"bottom":[]}}}
{"ccle_proteomics":{"corr":{"top":[["LSM11_P83369",0.4019184388529957,-4.589212302656726,103]],"bottom":[]},"para":{"top":[],"bottom":[["CHGB_P05060",-0.3608509431927348,-4.096392904973685,114]]}}}
{"ccle_rrbs_tss1kb":{"corr":{"top":[],"bottom":[]},"para":{"top":[["PTGS1_9_125136600_125137600",0.4976673763141709,-49.38214969509785,781]],"bottom":[]}}}
{"ccle_rrbs_tss_clusters":{"corr":{"top":[["KCNH2_1",0.8529891031299928,-232.7624060517387,821],["SSTR3_3",0.5123127904053405,-54.147588109258464,802]],"bottom":[]},"para":{"top":[["KCNH2_1",0.876954220932897,-262.1363660342916,821],["KCNH2_2",0.6156133867269223,-87.10531686153469,831]],"bottom":[]}}}
{"ccle_rrbs_cgi_clusters":{"corr":{"top":[["7_150673206_150677866-1",0.8529891031299928,-232.7624060517387,821],["7_150669806_150674370-1",0.7704041307290206,-164.673374160548,837]],"bottom":[]},"para":{"top":[["7_150673206_150677866-1",0.8769542209328971,-262.1363660342917,821],["7_150672737_150677026-2",0.6156133867269223,-87.10531686153469,831],["7_150669806_150674370-1",0.7181398398511313,-132.88973350163425,837]],"bottom":[]}}}
