{"depmap_hotspot":{"corr":{"top":[],"bottom":[]},"para":{"top":[["FBL",0.1299554656306321,-4.0343841229680315,18.0,811.0],["KHDC1",0.11961140392206496,-3.538113005868174,9.0,820.0],["SYCE1L",0.104901901911341,-2.895156049619982,8.0,821.0]],"bottom":[]}}}
{"depmap_damaging":{"corr":{"top":[],"bottom":[]},"para":{"top":[["CRY1",0.09158477216412175,-2.373504070288164,8.0,820.0],["SYT4",0.15123942297683943,-5.1645183336578455,14.0,814.0]],"bottom":[]}}}
{"depmap_copy_number":{"corr":{"top":[],"bottom":[["LOC100506885_100506885",-0.24050122450877626,-11.63263331404165,828],["LOC101928519_101928519",-0.25652552527794603,-13.182326670563503,828],["CAP2_10486",-0.2428104223702552,-11.849222697640073,828],["MIR548A1HG_105374956",-0.25566101875777225,-13.095916029692026,828],["LOC105374960_105374960",-0.2400665524333651,-11.592114786701917,828],["RBM24_221662",-0.2489803781909156,-12.439000839472014,828],["RNF144B_255488",-0.24664783849721067,-12.214135651875559,828],["ID4_3400",-0.2404590901493227,-11.628702225502796,828],["STMND1_401236",-0.24469580235878446,-12.02773021502086,828],["FAM8A1_51439",-0.2451783752355328,-12.073662037689868,828],["MCUR1_63933",-0.2407177291529651,-11.6528447376249,828],["MIR548A1_693125",-0.257798585131536,-13.310161840321348,828],["NUP153_9972",-0.2451783752355328,-12.073662037689868,828]]},"para":{"top":[],"bottom":[]}}}
{"achilles":{"corr":{"top":[["FH_2271",0.304110888261302,-8.673179502121116,372]],"bottom":[]},"para":{"top":[["FH_2271",0.3190141410150608,-9.519325645775469,372]],"bottom":[]}}}
{"ccle_rrbs_tss1kb":{"corr":{"top":[["MIR153-2_7_157367114_157368114",0.7202620880769115,-127.67386067473122,797]],"bottom":[]},"para":{"top":[["MIR153-2_7_157367114_157368114",0.6735924451293946,-105.75699210504092,797]],"bottom":[]}}}
{"ccle_gene_tpm":{"corr":{"top":[],"bottom":[]},"para":{"top":[["AC005481.5_ENSG00000222012.1",0.5028636833185505,-53.166113959609184,822]],"bottom":[]}}}
{"ccle_rrbs_tss_clusters":{"corr":{"top":[["LOC101927914_1",0.7460488044164891,-147.12186393074987,827],["MIR153-2_1",0.7986811361103995,-183.4381460758434,827],["LOC100506585_3",0.746149155400097,-145.7669607293252,819]],"bottom":[]},"para":{"top":[["MIR153-2_1",0.7601745332084295,-155.93916406686296,827],["MIR153-2_2",0.6781276226127082,-108.51222424611744,803]],"bottom":[]}}}
{"ccle_rrbs_cgi_clusters":{"corr":{"top":[["7_157403009_157405809-1",0.8539574392057924,-235.83310278307917,828],["7_157446240_157450566-1",0.8260852638593221,-195.98647911106397,783],["7_157411901_157416146-3",0.8152435647820201,-197.65998784411258,829],["7_157453789_157458044-3",0.8326896712932638,-213.50677044692623,828],["7_157385053_157389322-2",0.8636190866616185,-246.5870298793736,826],["7_157407846_157412241-1",0.8770923895481472,-264.87300689108827,829],["7_157451774_157456208-1",0.9601278702179621,-323.0051853474518,829],["7_157438024_157441372-3",0.8276845990333013,-207.20081433438403,822],["7_157411901_157416146-1",0.8998055665624446,-299.4161537337468,829],["7_157367120_157371394-2",0.8177909791678968,-198.22133740321692,822],["7_157451774_157456208-2",0.8741300430554342,-260.2504114485535,827],["7_157405809_157408608-3",0.823302538397489,-204.63171332724033,828],["7_157453789_157458044-1",0.854844688923483,-235.69997115665916,824],["7_157385053_157389322-3",0.8484498360691147,-228.89440384925493,825]],"bottom":[]},"para":{"top":[["7_157403009_157405809-1",0.8329834575386711,-213.7934007311542,828],["7_157446240_157450566-1",0.8277890426952356,-197.49883346979513,783],["7_157411901_157416146-3",0.8469071815156913,-228.3311321216398,829],["7_157453789_157458044-3",0.8622728795697907,-245.5495762281806,828],["7_157385053_157389322-2",0.8631661126004397,-246.03698975484394,826],["7_157407846_157412241-1",0.8479725365631184,-229.48216827507346,829],["7_157451774_157456208-1",0.9453775857343522,-323.0051853474518,829],["7_157438024_157441372-3",0.8248043116762711,-204.52841615272746,822],["7_157438024_157441372-1",0.8384677657612508,-218.45728730148616,825],["7_157411901_157416146-1",0.8843406901387463,-275.10011000981166,829],["7_157385053_157389322-1",0.8370081204938916,-217.7772158416392,828],["7_157451774_157456208-2",0.8958810428199917,-292.1806792601403,827],["7_157407846_157412241-2",0.8250079395127161,-205.4600996589516,825],["7_157453789_157458044-1",0.8129274329740983,-194.47544342206547,824]],"bottom":[]}}}
