{"depmap_hotspot":{"corr":{"top":[],"bottom":[["AC104057.1",-0.13300580088966987,-3.9690086883867863,8.0,835.0],["FCGR1A",-0.13323755450170832,-3.981158052472271,9.0,834.0],["NCOA3",-0.13953754541205024,-4.319005475840374,51.0,792.0],["NEIL1",-0.12395289369381424,-3.5097913659488076,20.0,823.0],["NOX5",-0.13207291336450588,-3.920302761002152,55.0,788.0],["PRRX2",-0.1278550728718369,-3.7040673624392397,18.0,825.0],["RAB3D",-0.12202656397037753,-3.415923161635825,15.0,828.0],["RPL9",-0.13533340986637651,-4.091927134505469,10.0,833.0],["SLC22A13",-0.1258110919339191,-3.6016142656686454,33.0,810.0],["SPATA2L",-0.11239494154111011,-2.966630407722348,24.0,819.0],["TMEM219",-0.13446861725690998,-4.046025721600414,15.0,828.0],["UCN3",-0.11674653548559911,-3.1654991007820086,12.0,831.0],["ULK3",-0.13438618563797372,-4.041664791371726,28.0,815.0]]},"para":{"top":[["C8orf22",0.11345183597896812,-3.3022689592962635,8.0,835.0],["MAGEA11",0.12176015020435425,-3.6867752208107176,19.0,824.0],["TRAPPC6B",0.11747994830462453,-3.4856904227797227,11.0,832.0]],"bottom":[["ABT1",-0.12073501878285506,-3.6381143726428875,20.0,823.0],["AC104057.1",-0.11614169781139656,-3.4240214231127997,8.0,835.0],["ATP6V0E2",-0.11420600284787326,-3.3361546040881094,8.0,835.0],["CA5B",-0.11044747670493515,-3.169414269582273,12.0,831.0],["EFNA2",-0.08977741058786218,-2.337125238500127,10.0,833.0],["FCGR1A",-0.11983383119872483,-3.595257312175205,9.0,834.0],["LCNL1",-0.07476307560413273,-1.822371872565992,8.0,835.0],["NEIL1",-0.11546617395203405,-3.393626347100151,20.0,823.0],["PRRX2",-0.11421322418105416,-3.3368530711451436,18.0,825.0],["PSRC1",-0.11316787137632649,-3.2899307289345314,18.0,825.0],["QTRTD1",-0.0983391928977226,-2.6644510198481686,15.0,828.0],["RAB3D",-0.10071747484069339,-2.7597218470182656,15.0,828.0],["RPL9",-0.12005590036736935,-3.605758963320165,10.0,833.0],["SPATA2L",-0.11737217380638934,-3.4810295056514033,24.0,819.0],["TMEM219",-0.11655425149970046,-3.4432222849330687,15.0,828.0]]}}}
{"depmap_damaging":{"corr":{"top":[],"bottom":[["ARHGEF15",-0.1080123804309455,-2.7703969620019753,8.0,834.0],["CDK12",-0.1324137577562543,-3.9339883109015257,10.0,832.0],["EIF3M",-0.13655283300666696,-4.152799491600233,9.0,833.0],["NTAN1",-0.15002204562988833,-4.9087412795727525,8.0,834.0],["TBX4",-0.11914223695612283,-3.274548190316447,10.0,832.0],["ZC3H6",-0.13319184709726595,-3.974641548406711,11.0,831.0]]},"para":{"top":[],"bottom":[["ARHGEF15",-0.10212045739881255,-2.814064166707719,8.0,834.0],["CDK12",-0.11963923756594615,-3.582839568615692,10.0,832.0],["EIF3M",-0.1220675579044903,-3.6976312588803815,9.0,833.0],["NTAN1",-0.12735466166850676,-3.9546527028607086,8.0,834.0],["SAMD9L",-0.10691904645010013,-3.014473866632913,15.0,827.0],["STRA6",-0.10185475553231872,-2.803361218454876,11.0,831.0],["TBX4",-0.08901339692229775,-2.307195487316601,10.0,832.0],["TSC1",-0.1115007748273816,-3.2128232314605083,13.0,829.0],["ZC3H6",-0.11581836692658888,-3.4062834598648335,11.0,831.0],["ZNFX1",-0.09341565544578746,-2.470983039279166,9.0,833.0]]}}}
{"ccle_rrbs_enhancer_clusters":{"corr":{"top":[],"bottom":[]},"para":{"top":[["17-41638235-41642900-1_enh",0.47660278754891994,-30.119759626332982,520],["17-41638235-41642900-2_enh",0.47934297102449824,-30.275679902988532,516],["2-172945779-172948513-1_enh",0.5040481676402846,-54.474153495176495,838]],"bottom":[]}}}
{"ccle_proteomics":{"corr":{"top":[["ADAT1_Q9BUB4",0.293182291752502,-4.926672221713982,216]],"bottom":[]},"para":{"top":[],"bottom":[["XRCC6BP1_Q9Y6H3",-0.322238756363426,-6.253305775114152,231]]}}}
{"achilles":{"corr":{"top":[["IRF2BP2_359948",0.2933821079803357,-8.313909637826658,383]],"bottom":[["SPRY1_10252",-0.2651140070064017,-6.855523242688332,383]]},"para":{"top":[["IRF2BP2_359948",0.2813253274283991,-7.671808029193521,383],["NKX6-2_84504",0.27183485711182304,-7.187473822933127,383]],"bottom":[]}}}
{"ccle_rrbs_tss1kb":{"corr":{"top":[["HOXA10_7_27213955_27214955",0.6657194282602111,-106.52857061673335,829],["HOXA10-AS_7_27207517_27208517",0.5219914564981173,-56.87641233426576,807],["HOXA11_7_27224835_27225835",0.9903535269392276,-323.0051853474518,832],["HOXA9_7_27205149_27206149",0.6078597344097425,-83.96915428117475,827]],"bottom":[]},"para":{"top":[["HOXA10_7_27213955_27214955",0.5953652906210868,-79.92940312096506,829],["HOXA11_7_27224835_27225835",0.9558414139626783,-323.0051853474518,832],["HOXA9_7_27205149_27206149",0.531861913038273,-60.8511809812722,827]],"bottom":[]}}}
{"ccle_gene_tpm":{"corr":{"top":[["RP4-792G4.2_ENSG00000230798.1",0.34073824782084566,-23.44547930184034,836]],"bottom":[["None_ENSG00000272801.1",-0.3607243018938565,-26.36522849921459,836]]},"para":{"top":[["RP11-360O19.4_ENSG00000237685.1",0.3341030117604477,-22.521988977664975,836]],"bottom":[]}}}
{"ccle_rrbs_tss_clusters":{"corr":{"top":[["HOTTIP_1",0.6712645675733395,-109.85144974086779,836],["HOXA10_3",0.6860000134846276,-117.54496986291001,843],["HOXA10-AS_1",0.6199963631672373,-89.42435882801078,838],["HOXA7_3",0.6096262992176038,-86.09990361570087,842],["HOXA10_6",0.6054991984637879,-82.06173464900893,816],["HOXA11_1",0.789741238290507,-179.51701244377873,841],["HOXA11_3",0.9877600978941967,-323.0051853474518,843],["HOXA9_1",0.5772876380410282,-74.73160987974218,836],["HOXA9_2",0.5507998167020915,-66.77175908434899,836],["HOXA9_3",0.6220908321779292,-90.19459808562868,838],["HOXA11-AS_1",0.7043559536417762,-125.98299822613778,839],["HOXA11-AS_2",0.9906491949972374,-323.0051853474518,842]],"bottom":[]},"para":{"top":[["HOTTIP_1",0.6446819632304223,-98.65528655025784,836],["HOXA10_3",0.6092368989231255,-86.06289250112508,843],["HOXA10-AS_1",0.5659824805791603,-71.41422997550825,838],["HOXA7_3",0.5561810096378419,-68.81497229986866,842],["HOXA10_6",0.6089331123716596,-83.23183648524987,816],["HOXA11_1",0.8019067709635587,-189.14796297527909,841],["HOXA11_3",0.9722276269575013,-323.0051853474518,843],["HOXA9_3",0.561756344410745,-70.14247071495474,838],["HOXA11-AS_1",0.6957301442098887,-121.6728856997835,839],["HOXA11-AS_2",0.958501620219419,-323.0051853474518,842]],"bottom":[]}}}
{"ccle_rrbs_cgi_clusters":{"corr":{"top":[["7_27232451_27235097-1",0.630144371809023,-93.43180507740257,840],["7_27228282_27231043-3",0.6266030228014674,-90.78865152649678,828],["7_27236690_27239500-1",0.6488482665442716,-99.74132878386888,831],["7_27188274_27193115-1",0.6285189478854953,-92.48608349957124,837],["7_27192583_27196827-1",0.6535476591313574,-102.50609190044496,838],["7_27232451_27235097-3",0.676547054893625,-111.01875800978532,827],["7_27196182_27200514-3",0.6269306792877302,-92.54041345983059,843],["7_27225520_27228282-2",0.6855942635257475,-115.6951893990659,831],["7_27223050_27227629-1",0.6788856382087892,-111.66721211378815,824],["7_27213406_27216396-3",0.6860000134846276,-117.54496986291001,843],["7_27205189_27208462-2",0.6175145211900769,-88.5191844619204,838],["7_27225520_27228282-3",0.7666193438671767,-162.09470386210677,837],["7_27222267_27226596-3",0.9906491949972374,-323.0051853474518,842],["7_27225520_27228282-1",0.9525015046874873,-323.0051853474518,835],["7_27222267_27226596-1",0.7043559536417762,-125.98299822613778,839],["7_27228282_27231043-1",0.7664696819386525,-156.2175576348008,807]],"bottom":[]},"para":{"top":[["7_27232451_27235097-1",0.5922286727156385,-79.9283823609771,840],["7_27228282_27231043-3",0.5947566196020339,-79.63250210422838,828],["7_27236690_27239500-1",0.6188484888973725,-88.26894461772422,831],["7_27188274_27193115-1",0.5816850730756976,-76.21446957717396,837],["7_27192583_27196827-1",0.6283399400143089,-92.52785378161651,838],["7_27225520_27228282-2",0.7452046632809185,-147.318476521868,831],["7_27196182_27200514-3",0.5650848217860005,-71.56149425169137,843],["7_27223050_27227629-1",0.6583807297642131,-102.79865725518194,824],["7_27213406_27216396-3",0.6092368989231255,-86.06289250112508,843],["7_27205189_27208462-2",0.5658538464442194,-71.3752489847749,838],["7_27225520_27228282-3",0.7690226044384619,-163.72638502747236,837],["7_27222267_27226596-3",0.9585016202194191,-323.0051853474518,842],["7_27225520_27228282-1",0.9046248773333766,-310.0397365615191,835],["7_27222267_27226596-1",0.6957301442098887,-121.6728856997835,839],["7_27228282_27231043-1",0.6824084922116437,-110.94611845685918,807],["2_200327288_200331681-1",0.5588106762404319,-69.42991212100696,840]],"bottom":[]}}}
