{"depmap_hotspot":{"corr":{"top":[],"bottom":[]},"para":{"top":[],"bottom":[["ATP5G1",-0.09163001837971162,-2.405726732088284,8.0,835.0],["C14orf119",-0.10575799478186977,-2.967695133298371,8.0,835.0],["ICAM4",-0.11418312027417972,-3.335472230487654,17.0,826.0],["IGFBP6",-0.11479287948963032,-3.3631021460062245,22.0,821.0],["JMJD7-PLA2G4B",-0.10362203577819923,-2.8787384986590476,18.0,825.0]]}}}
{"depmap_damaging":{"corr":{"top":[],"bottom":[]},"para":{"top":[],"bottom":[["GCN1L1",-0.12576252685537648,-3.876342728748739,10.0,832.0],["HGS",-0.08601912021845533,-2.1994958387305137,11.0,831.0],["PLK4",-0.10293401485028028,-2.847439210936117,8.0,834.0],["TIMELESS",-0.07617066554351698,-1.8659952511553415,8.0,834.0],["ZNF595",-0.09076358522745807,-2.3715051551021915,9.0,833.0]]}}}
{"prism_primary_logfold":{"corr":{"top":[],"bottom":[["tropisetron_BRD-K50866992-003-09-5::2.5::HTS",-0.1884244904643159,-4.470603284406371,478]]},"para":{"top":[],"bottom":[]}}}
{"prism_secondary_logfold":{"corr":{"top":[],"bottom":[]},"para":{"top":[],"bottom":[["GDC-0152_BRD-K68938568-001-01-7::0.15625::HTS002",-0.18817811486707656,-3.8310821737678795,402]]}}}
{"ccle_rrbs_tss1kb":{"corr":{"top":[["REV1_2_100106518_100107518",0.5671028169094946,-71.24735160684088,832],["MIR4651_7_75543514_75544514",0.7353603767560939,-140.1530246047442,823],["POR_7_75543419_75544419",0.5561415504518223,-66.86861608397894,818],["CAPN15_16_576855_577855",0.6215003569320215,-89.23298028539537,831]],"bottom":[]},"para":{"top":[["MIR4651_7_75543514_75544514",0.7046906316664105,-123.76458654592656,823],["POR_7_75543419_75544419",0.5729825484528066,-71.82809129640206,818]],"bottom":[]}}}
{"ccle_rrbs_tss_clusters":{"corr":{"top":[["REV1",0.603132632852854,-83.82340441961937,842],["MIR4651_1",0.9999999999999997,-323.0051853474518,843],["LOC100130987_2",0.6177916540279416,-89.14309052113511,843]],"bottom":[]},"para":{"top":[["MIR4651_1",1.0,-323.0051853474518,843]],"bottom":[]}}}
{"ccle_rrbs_cgi_clusters":{"corr":{"top":[["9_33023082_33027797-2",0.5791620361634143,-75.767684110144,841],["19_54691034_54694266-3",0.5918663413356277,-79.99571866529814,842],["1_93295498_93300122-3",0.5750669647345175,-74.64833453539839,843],["1_228293368_228297569-3",0.5791598423616309,-75.9449568935601,843]],"bottom":[]},"para":{"top":[],"bottom":[["22_20760333_20762923-1",-0.17865212161473581,-5.822976683557219,716]]}}}
