{"depmap_hotspot":{"corr":{"top":[["GNB1",0.2209798827706271,-8.30770435978856,27.0,659.0]],"bottom":[]},"para":{"top":[["ARHGDIG",0.12155360656112087,-3.133776577638624,11.0,675.0],["C15orf40",0.13235826594901254,-3.573984227255195,12.0,674.0],["C2orf48",0.14879211167324768,-4.305971802736955,8.0,678.0],["CSN1S1",0.12338627245343706,-3.206190613839059,12.0,674.0],["FAM3C",0.1095092863970017,-2.6813189639542796,10.0,676.0],["GPR21",0.12893229499128783,-3.4306262980859232,8.0,678.0],["MEF2B",0.18324252337825733,-6.090584942615218,26.0,660.0],["MUC7",0.12220614678381121,-3.1593138688046416,9.0,677.0],["RELL2",0.17995438278418388,-5.905587815319408,22.0,664.0],["SCO1",0.1093095260303102,-2.6740939118361835,9.0,677.0],["SPDL1",0.16532260654559955,-5.120308503609066,21.0,665.0],["TMEM220",0.10646392095180253,-2.57314396087247,8.0,678.0],["TMEM42",0.11738508108864211,-2.972462263564599,8.0,678.0]],"bottom":[["OR1J4",-0.12124471049246352,-3.12202321819532,23.0,663.0]]}}}
{"depmap_damaging":{"corr":{"top":[["MED12L",0.14406668110839596,-3.810601951206324,17.0,668.0]],"bottom":[]},"para":{"top":[["EML6",0.1460503574495174,-4.174058048994374,16.0,669.0],["FER",0.13427876252492385,-3.6511736655501656,8.0,677.0],["HDAC5",0.1299910450299691,-3.4705480983850103,8.0,677.0],["ITGA11",0.12322830361516247,-3.196093348146721,8.0,677.0],["KIF14",0.1460322400443107,-4.172851385554952,9.0,676.0],["LRRC56",0.13080410330095124,-3.504486294724307,9.0,676.0],["NAT10",0.12451810481283178,-3.2474544885467163,8.0,677.0],["NPHP1",0.12549385236264934,-3.2868212900533877,11.0,674.0],["PAPLN",0.135705739262139,-3.7125854523129687,10.0,675.0],["POF1B",0.12502664059033694,-3.2679779953325263,10.0,675.0],["PTPN3",0.11608210779023792,-2.919892765581718,8.0,677.0],["TRIOBP",0.13951894896177533,-3.8793296298611106,15.0,670.0],["ZNF184",0.11929255284700789,-3.042301012901486,9.0,676.0]],"bottom":[]}}}
{"prism_primary_logfold":{"corr":{"top":[],"bottom":[["glyburide_BRD-K36927236-001-32-6::2.5::HTS",-0.21113880888024655,-4.570425288980044,389]]},"para":{"top":[],"bottom":[]}}}
{"drive":{"corr":{"top":[["PHOX2B_8929",0.24726110643044077,-4.268958440652281,261]],"bottom":[]},"para":{"top":[],"bottom":[]}}}
{"ccle_rrbs_cgi_clusters":{"corr":{"top":[],"bottom":[]},"para":{"top":[["8_11870118_11874779-2",0.5623934230135377,-57.49151739501088,683]],"bottom":[]}}}
