{"depmap_hotspot":{"corr":{"top":[["PCDH18",0.16082841587681868,-5.065317045368356,63.0,695.0]],"bottom":[]},"para":{"top":[["CALB2",0.11648355552435145,-3.1693183605758404,12.0,746.0],["GORASP1",0.1423382042011072,-4.345964259861211,14.0,744.0],["KLK12",0.12470802219644908,-3.5212427111768596,16.0,742.0],["MRPL34",0.117952205020731,-3.2303821533646224,8.0,750.0],["PFKFB1",0.13081516268580196,-3.79597446979202,15.0,743.0],["PRKX",0.13948874771725783,-4.206096141994087,14.0,744.0]],"bottom":[]}}}
{"depmap_damaging":{"corr":{"top":[],"bottom":[]},"para":{"top":[["NEK10",0.1243232841124112,-3.5006494400495174,14.0,743.0],["POLN",0.10944157675668459,-2.881803295304535,12.0,745.0],["WAPAL",0.12760583766150926,-3.6461395815872826,10.0,747.0]],"bottom":[]}}}
{"prism_primary_logfold":{"corr":{"top":[],"bottom":[]},"para":{"top":[["forskolin_BRD-K09602097-001-13-6::2.5::HTS",0.22107925826831998,-5.263286118059278,415]],"bottom":[]}}}
{"prism_secondary_logfold":{"corr":{"top":[],"bottom":[["primaquine_BRD-A55913614-316-09-6::10::HTS002",-0.3107428698111465,-8.953441265357172,368]]},"para":{"top":[["methacycline_BRD-A49035384-003-28-9::0.0372766::HTS002",0.23948945974261457,-5.551515167252147,374]],"bottom":[["primaquine_BRD-A55913614-316-09-6::10::HTS002",-0.2716862810399819,-6.922067412769172,368],["trametinib_BRD-K12343256-001-08-9::10::HTS002",-0.26894846473236156,-6.841616810517897,371]]}}}
{"ccle_proteomics":{"corr":{"top":[],"bottom":[["ALPL_P05186",-0.4388214728139614,-7.376540979211833,143]]},"para":{"top":[["GEN1_Q17RS7",0.3358341814860818,-4.055479179023193,131]],"bottom":[]}}}
{"depmap_copy_number":{"corr":{"top":[],"bottom":[["LOC102725121_102725121",-0.20554994836720014,-7.939690584417063,757]]},"para":{"top":[],"bottom":[]}}}
{"depmap_gene_tpm":{"corr":{"top":[],"bottom":[["ADAMTS5_11096",-0.4022892546101418,-29.972205550057623,754]]},"para":{"top":[],"bottom":[]}}}
{"drive":{"corr":{"top":[],"bottom":[]},"para":{"top":[],"bottom":[["PLK2_10769",-0.2810247723058047,-5.863497876326428,286]]}}}
{"achilles":{"corr":{"top":[],"bottom":[["RNASEK-C17orf49&C17orf49_100529209&124944",-0.30341699127763194,-4.7247087635531475,192]]},"para":{"top":[],"bottom":[["RNASEK-C17orf49&C17orf49_100529209&124944",-0.2812335544024113,-4.109770025294042,192],["CFAP126_257177",-0.24722868057069505,-3.2628795873178005,192]]}}}
{"ccle_gene_tpm":{"corr":{"top":[],"bottom":[["SGIP1_ENSG00000118473.17",-0.46771637119046294,-41.359394494799,751],["ADAMTS5_ENSG00000154736.5",-0.39967421941356196,-29.447115351375885,751]]},"para":{"top":[],"bottom":[]}}}
{"ccle_rrbs_tss_clusters":{"corr":{"top":[["LHX6_7",0.5904189402500141,-71.39377647210512,755]],"bottom":[]},"para":{"top":[],"bottom":[]}}}
{"ccle_rrbs_cgi_clusters":{"corr":{"top":[["8_54789845_54793493-1",0.918545666799403,-306.2116370427174,758],["8_54787581_54790123-1",0.7994310722331792,-53.86013632120503,240],["9_124979535_124982185-1",0.5902141294684631,-71.51950161791453,757]],"bottom":[]},"para":{"top":[["8_54789845_54793493-1",0.8419305419721834,-204.02515705559523,758],["8_54787581_54790123-1",0.708253215905599,-37.12933233416478,240]],"bottom":[]}}}
