{"depmap_hotspot":{"corr":{"top":[["AHR",0.22537567822106858,-6.123317002037995,22.0,450.0],["ATAD2B",0.214352066683749,-5.583272293662688,37.0,435.0],["ATP13A4",0.2212402828290934,-5.9174597621524425,30.0,442.0],["CCDC8",0.21345960956480822,-5.5407648152566855,19.0,453.0],["CCZ1",0.2230238895463942,-6.005763475036565,19.0,453.0],["CDK17",0.20228603244767585,-5.023770600489815,16.0,456.0],["COMP",0.1929796317445618,-4.61441782039067,26.0,446.0],["CRYBG3",0.19989169723222258,-4.916621021491166,49.0,423.0],["ERBB2",0.2033166309245282,-5.070284037204175,39.0,433.0],["FAM13C",0.1918717024993912,-4.566956212815495,19.0,453.0],["FAT4",0.21843655291948702,-5.78012682068009,98.0,374.0],["GREB1L",0.21803143124955096,-5.760431795961426,34.0,438.0],["GRID1",0.19276782353339927,-4.605323533981837,38.0,434.0],["GRIK2",0.19554893679308155,-4.72551989203697,31.0,441.0],["GUCA1A",0.2116668390670925,-5.455921110837575,8.0,464.0],["HSPB1",0.1954157144302652,-4.71972336456518,11.0,461.0],["IQCJ-SCHIP1",0.23479851738974372,-6.6071870709416105,17.0,455.0],["KDM8",0.23650607561233905,-6.697092936600012,19.0,453.0],["MDGA1",0.22580094154046962,-6.144710011460259,32.0,440.0],["MINPP1",0.19784378613070067,-4.8259839393106745,12.0,460.0],["NALCN",0.21730263544788034,-5.7250956778701445,47.0,425.0],["NASP",0.20818988607016314,-5.293441912495961,16.0,456.0],["NPR3",0.20117239659906266,-4.973775414326143,21.0,451.0],["OR56A3",0.21479473543053737,-5.60442355632213,16.0,456.0],["RXFP3",0.19853789309087927,-4.856599861726343,25.0,447.0],["SCGN",0.20226995383267604,-5.023046808432303,10.0,462.0],["SIRT1",0.21857750482568647,-5.786988003655536,21.0,451.0],["SP2",0.1955719627881974,-4.72652215344309,16.0,456.0],["STT3B",0.20127706652490884,-4.978462681436082,22.0,450.0],["STXBP5",0.23036496150835112,-6.376943886815884,30.0,442.0],["ZBTB33",0.21851582691860033,-5.783985120063612,13.0,459.0]],"bottom":[["C4A",-0.10871133388886661,-1.7411400878167436,15.0,457.0]]},"para":{"top":[["ARL15",0.15779396807323406,-3.5096408436025164,11.0,461.0],["BFSP2",0.17211740419093793,-4.026223664071635,12.0,460.0],["CDK17",0.19892772510353351,-5.100433397488703,16.0,456.0],["CDK2",0.15102027224732273,-3.2788501392172265,8.0,464.0],["DECR1",0.17590174385325114,-4.168880691597177,8.0,464.0],["DNAJA4",0.18491685107827346,-4.521509225542402,13.0,459.0],["FAM84A",0.15968332781586506,-3.575410639905716,10.0,462.0],["FBXO36",0.14053962368812228,-2.9396918089176425,9.0,463.0],["FGF14",0.16181013959742982,-3.6503715557003122,10.0,462.0],["FOXE3",0.16819966159745556,-3.880716728253256,9.0,463.0],["GFOD1",0.17107148555366616,-3.987079528000628,11.0,461.0],["GLIPR1L2",0.1412054014058524,-2.9606205278635285,9.0,463.0],["GMCL1",0.17490451767157328,-4.131343258665784,12.0,460.0],["GUCA1A",0.1816090917216213,-4.389944752984305,8.0,464.0],["HIST1H1E",0.23088396416858553,-6.564956442769229,21.0,451.0],["HIST1H3A",0.17891263032820393,-4.284851964264234,9.0,463.0],["HSD17B3",0.14871053204208293,-3.2023951104377173,9.0,463.0],["HSPB1",0.15543473976059533,-3.4283649951339736,11.0,461.0],["IQCJ-SCHIP1",0.20372869933484264,-5.307643413665191,17.0,455.0],["IRX5",0.16964199084150147,-3.9341978961129525,13.0,459.0],["KIAA1715",0.1336417186256563,-2.727708068262978,8.0,464.0],["KLHDC10",0.18405466381554622,-4.48706953761515,12.0,460.0],["LACRT",0.17146701471372403,-4.001727623168881,10.0,462.0],["LGI3",0.15258414785433086,-3.33139855734936,9.0,463.0],["LHFPL5",0.14162907813531703,-2.973982770554702,9.0,463.0],["MINPP1",0.16564919743399162,-3.7880692206539686,12.0,460.0],["MSL3",0.18776691458956196,-4.636317781741022,16.0,456.0],["NASP",0.2158976460079738,-5.852944781080105,16.0,456.0],["NR1I2",0.16745034442263926,-3.8534890484129503,11.0,461.0],["NYX",0.1707547290044451,-3.9754517983076907,13.0,459.0],["OPRL1",0.18189780903069583,-4.401899563288961,14.0,458.0],["OR56A3",0.18758395048277557,-4.628912252109414,16.0,456.0],["OR5H1",0.16628024199564487,-3.810947280987506,12.0,460.0],["PARP2",0.14520006771223312,-3.0879676496920903,9.0,463.0],["RDM1",0.14249131419683697,-3.0011679500617063,8.0,464.0],["REXO2",0.13684809383260588,-2.825068532126818,8.0,464.0],["RP11-407N17.3",0.15405015066469344,-3.381075249556922,10.0,462.0],["RPP25",0.16480768563720574,-3.7572648181129766,8.0,464.0],["SCGN",0.1709496821182083,-3.9824473366662265,10.0,462.0],["SIGLEC15",0.14999423218109892,-3.244708150448968,8.0,464.0],["SIX6",0.1510710166776715,-3.2806641804893264,9.0,463.0],["SPANXN3",0.1574990346347985,-3.4993311996707677,10.0,462.0],["SPARC",0.16690168667551394,-3.833469548438892,11.0,461.0],["SQLE",0.1438079870297065,-3.0432434541748132,9.0,463.0],["SYPL2",0.1524025721131317,-3.3252872363008152,9.0,463.0],["TAAR1",0.14659214839475979,-3.133062063942898,9.0,463.0],["ZBTB33",0.1937175983670098,-4.880538306404508,13.0,459.0],["ZCCHC10",0.15815247058443735,-3.521888435432659,9.0,463.0],["ZUFSP",0.14927919450604804,-3.221253807255477,10.0,462.0]],"bottom":[["AIM1L",-0.10300666790713835,-1.8950678142958504,10.0,462.0]]}}}
{"depmap_damaging":{"corr":{"top":[["DNAJC13",0.188827881519742,-4.4296440318230275,11.0,460.0],["GPR112",0.19210300876159758,-4.568256371883367,10.0,461.0],["ITPR2",0.21568099852232242,-5.6361316904787975,18.0,453.0],["KDM6A",0.1413986560987022,-2.6782334475311917,10.0,461.0],["LRP1B",0.20156938498929658,-4.98213460073345,26.0,445.0],["RNF43",0.264174419290845,-8.23484347750689,13.0,458.0],["SMARCC1",0.16135523527430204,-3.357731232219431,8.0,463.0],["SPTBN5",0.19353747048431721,-4.629704950985475,11.0,460.0]],"bottom":[]},"para":{"top":[["CNTN6",0.18025751192162642,-4.329689177758307,9.0,462.0],["CYFIP1",0.13407031778951947,-2.7364245234362174,9.0,462.0],["DNAJC13",0.16483358945594503,-3.7522226089335886,11.0,460.0],["EML6",0.16544692774617004,-3.7744715036103655,13.0,458.0],["GPR112",0.1667543363751134,-3.821559095446083,10.0,461.0],["HCFC1",0.13002439080350134,-2.616148658786411,8.0,463.0],["ITPR2",0.1967658222427803,-4.999904655012591,18.0,453.0],["MAP3K4",0.17327784395159718,-4.062575486435766,9.0,462.0],["NID2",0.14738669818082348,-3.1537319532545975,8.0,463.0],["NRXN1",0.12636233664000884,-2.5101465024673235,9.0,462.0],["PEX1",0.16831063332711066,-3.8783380630125968,10.0,461.0],["PRKAA2",0.16186262355787395,-3.646228178266078,11.0,460.0],["RNF43",0.23173728168983768,-6.5942129302861625,13.0,458.0],["SMARCC1",0.12179337100980796,-2.3811924268453954,8.0,463.0],["SPTBN5",0.17094057491309117,-3.97544820895174,11.0,460.0],["TENM4",0.12018574995635219,-2.3367853226346034,8.0,463.0],["THBS2",0.17169392850907453,-4.003138281306437,8.0,463.0],["XDH",0.12393462604173779,-2.4411929644311408,9.0,462.0]],"bottom":[]}}}
{"prism_primary_logfold":{"corr":{"top":[],"bottom":[]},"para":{"top":[],"bottom":[["adrenosterone_BRD-K17368287-001-18-3::2.5::HTS",-0.23656732272102263,-3.942641918211337,261],["clopidol_BRD-K80036624-001-04-0::2.5::HTS",-0.2393762770450293,-3.9726362620925815,257]]}}}
{"prism_secondary_logfold":{"corr":{"top":[["doxycycline_BRD-A08545410-003-07-8::0.000580005::HTS002",0.2349338481430966,-3.4081105334979567,224],["ER-27319_BRD-K11927976-050-02-9::0.00061034::HTS002",0.22748767961939606,-3.1956905123272032,222],["digoxigenin_BRD-K18619710-001-14-4::0.00976562::HTS002",0.23291353657259486,-3.3695874706600626,225],["defactinib_BRD-K43578482-001-01-4::0.00061034::HTS002",0.2546132795194722,-3.2031973413698553,177],["ulipristal_BRD-K64381438-001-03-8::0.0390625::HTS002",0.2678029079841479,-2.965274064714596,146],["cetylpyridinium_BRD-K87700323-003-05-1::0.0024414::HTS002",0.24751004758254222,-3.7094800963255348,222]],"bottom":[["bardoxolone_BRD-K20545304-001-01-6::0.0024414::HTS002",-0.2274400925035398,-1.9167583569794338,121],["erythritol_BRD-K79315489-001-07-8::0.0024414::HTS002",-0.25599438446994577,-3.940404444773039,222],["batimastat_BRD-K82818427-001-02-2::0.149493::HTS002",-0.23807488717198433,-3.4755137726684007,223]]},"para":{"top":[["doxycycline_BRD-A08545410-003-07-8::0.000580005::HTS002",0.2354089400146311,-3.4202845016122883,224],["dabrafenib_BRD-K09951645-001-06-8::0.00061034::HTS002",0.25290049110975293,-3.2886883342698554,185],["ER-27319_BRD-K11927976-050-02-9::0.00061034::HTS002",0.2513187841215238,-3.8121582037016655,222],["idasanutlin_BRD-K62627508-001-01-5::0.00977::MTS010::PROS003_PR500",0.2580041298255829,-3.916999871805844,217],["idasanutlin_BRD-K62627508-001-01-5::0.15625::MTS010::PROS003_PR500",0.2731838564575594,-4.344320382596564,217],["ulipristal_BRD-K64381438-001-03-8::0.0390625::HTS002",0.25488256402098325,-2.720212845390664,146],["dimethisoquin_BRD-K73391359-003-10-2::0.15625::HTS002",0.2892954478224994,-2.827866876167204,118]],"bottom":[["FLI-06_BRD-A44500574-001-01-8::0.0024414::HTS002",-0.2454549855219961,-3.6403670631031457,221],["valnemulin_BRD-K33813875-003-01-8::0.625::HTS002",-0.2579319124530772,-3.99426341563518,222],["GW-843682X_BRD-K90382497-001-10-7::0.625::HTS002",-0.24628918354828538,-3.676905625389588,222]]}}}
{"ccle_proteomics":{"corr":{"top":[["TMEM102_Q8N9M5",0.4085856023823208,-5.318711432940937,117]],"bottom":[["SH3PXD2A_Q5TCZ1",-0.39925751680767035,-6.926274373866586,164],["ANKRD50_Q9ULJ7",-0.3886978482491923,-6.495266324604143,162],["CAMK4_Q16566",-0.42512768625637426,-5.706337464151895,116],["ROGDI_Q9GZN7",-0.3679218833279246,-4.148355326276685,111]]},"para":{"top":[["TMEM102_Q8N9M5",0.4227838982617311,-5.6886806107556875,117],["SLC27A2_O14975",0.4036509861215719,-7.238126141105483,168],["EPS8L3_Q8TE67-3",0.39249429542937253,-4.843204335723564,115],["LYN_P07948",0.394247975282914,-7.096395200228913,173]],"bottom":[["SH3PXD2A_Q5TCZ1",-0.41608268328669856,-7.521876920866314,164],["ANKRD50_Q9ULJ7",-0.4076997814942414,-7.1395325698126815,162],["CAMK4_Q16566",-0.4258121034296659,-5.724583474324229,116],["ROBO1_Q9Y6N7-2",-0.43159503436224533,-8.51475100903044,173],["ARMCX2_Q7L311",-0.45606760556680376,-6.519908977058003,115],["ARMCX1_Q9P291",-0.454439673063928,-6.992219837006156,125],["FAP_Q12884",-0.44111698660918347,-6.6302164621855875,126],["CCSER2_Q9H7U1-3",-0.3953974417314028,-4.796432071346167,112],["C1orf21_Q9H246",-0.4146006825768141,-5.5160926585729895,118]]}}}
{"depmap_copy_number":{"corr":{"top":[],"bottom":[]},"para":{"top":[["CHORDC1_26973",0.1779951179478212,-3.9877396318305918,471],["TRIM49C_642612",0.17310328662411484,-3.796444010739779,471]],"bottom":[]}}}
{"depmap_gene_tpm":{"corr":{"top":[],"bottom":[]},"para":{"top":[["AMN_81693",0.40370256409265964,-19.084313923546716,469]],"bottom":[["MMP16_4325",-0.5804488925966207,-42.863014489878594,469]]}}}
{"avana":{"corr":{"top":[["ADRM1_11047",0.2387388643525619,-4.088654983058153,267],["ANKRD1_27063",0.23752220113433498,-4.051317006228077,267],["GJB3_2707",0.2897338042746604,-5.85356230071265,268],["SLC4A9_83697",0.22492710036745037,-3.6881010334750255,268],["TUBA1B_10376",0.2619717089328283,-4.855596143989411,268]],"bottom":[["HIC1_3090",-0.2503829218806306,-4.470685512181055,268]]},"para":{"top":[["DOCK10_55619",0.24602912550630684,-4.330767934952985,268],["GJB3_2707",0.27534148971090405,-5.322622569117801,268],["JMY_133746",0.2319162595477804,-3.8817741256193687,267],["POC5_134359",0.24175328483908232,-4.195817944961729,268],["PRMT3_10196",0.23502305762296316,-3.9752285765789845,267],["SLC4A9_83697",0.23134891389089118,-3.8775214363896318,268],["TUBA1B_10376",0.288200506641688,-5.795582911444116,268]],"bottom":[]}}}
{"drive":{"corr":{"top":[["PPP1CC_5501",0.2798113184361418,-3.7339853618681276,174],["NTN4_59277",0.27821466213409746,-3.695695459192421,174],["IGSF8_93185",0.2811105960437813,-3.7653146310946384,174]],"bottom":[["LOC100288778_100288778",-0.3446350911780103,-5.607616505663996,178],["EME2_197342",-0.3329020894129852,-5.197283183009369,176],["PPWD1_23398",-0.34741669071286674,-5.694409300836188,178],["SFTA3_253970",-0.36374392995852056,-6.0929495402798315,174],["FXYD5_53827",-0.3813565639573726,-6.822420030215056,178],["SHC1_6464",-0.35727812525615277,-5.885609677542377,174],["BMPR1B_658",-0.3344926903864324,-5.405709892842028,182]]},"para":{"top":[["PAK4_10298",0.375623691800027,-6.725228621091076,181],["CCNO_10309",0.32130884427381373,-4.8126926921157,174],["CBLC_23624",0.3189333910747498,-4.746475328035613,174],["MDS2_259283",0.3945540603962212,-7.221123639385983,176],["CYP26C1_340665",0.32616069565251493,-4.949685073501558,174],["MBD1_4152",0.31765298530429276,-4.807972365858336,178],["KLHL9_55958",0.3101145414309857,-4.597874850495688,178],["NTN4_59277",0.30475949108673933,-4.362849962836578,174],["PIGZ_80235",0.34205225966634045,-5.471430281701802,176]],"bottom":[["FXYD5_53827",-0.3666707310725718,-6.318388928893501,178],["ARID4A_5926",-0.34494421809972214,-5.617220950859724,178],["BMPR1B_658",-0.3321606198527836,-5.334558932096064,182],["CAPZB_832",-0.3427639475277464,-5.436516555983734,174]]}}}
{"achilles":{"corr":{"top":[["CDKN3_1033",0.29148058646721076,-4.813163588448764,213],["SPATA45_149643",0.302606580842614,-3.219327097116662,125],["DGKG_1608",0.29406314384091703,-4.8924344340548815,213],["C20orf203_284805",0.3788147273863622,-4.8783394348606715,125],["BPESC1_60467",0.35090872270298884,-4.220758558733439,125],["C22orf23_84645",0.33174647291434894,-3.8035019945777466,125]],"bottom":[["B3GALT6_126792",-0.3337566487437386,-6.210272797701945,213],["DMWD_1762",-0.329368682735108,-3.753595817436134,125],["PCNP_57092",-0.31657087642660053,-3.491892317108859,125],["XDH_7498",-0.2784978954969636,-4.4261849534721645,213]]},"para":{"top":[["LOC107984148&DEFB104A&DEFB104B_107984148&140596&503618",0.38743602078755784,-5.094035010617239,125],["TTC39C_125488",0.3346998815959523,-3.8660570505119676,125],["DENND5B_160518",0.3074013248697833,-3.3114110399240833,125],["C20orf203_284805",0.38156943141482835,-4.946598395770237,125],["QRICH1_54870",0.3045889196159384,-3.25720933426625,125],["BPESC1_60467",0.379748179906374,-4.901400460720221,125],["SPRR2D_6703",0.31213961284983127,-3.4039501590557606,125],["TMEM128_85013",0.34086384589475777,-3.998657754247664,125]],"bottom":[["B3GALT6_126792",-0.3354619158858818,-6.271207557904609,213],["TMEM199_147007",-0.3235133263626029,-3.6324234304276533,125],["CCDC59_29080",-0.3089033231505697,-3.3405787430695835,125],["TBC1D19_55296",-0.31164591895152605,-3.394236383208756,125],["DNAI2_64446",-0.30108421469658064,-5.111848341775301,213],["XDH_7498",-0.30653746739639004,-5.286247048556439,213],["PRR15L_79170",-0.295395241679512,-4.933623541320355,213],["RHNO1_83695",-0.30790559156544234,-3.321186356079729,125]]}}}
{"ccle_rrbs_tss1kb":{"corr":{"top":[["MMP16_8_89339717_89340717",0.7642137104485996,-89.69124911606663,466]],"bottom":[]},"para":{"top":[],"bottom":[]}}}
{"ccle_gene_tpm":{"corr":{"top":[],"bottom":[]},"para":{"top":[["AMN_ENSG00000166126.6",0.40139291828806134,-18.74103667762689,466]],"bottom":[["MMP16_ENSG00000156103.11",-0.5776824950330688,-42.10626731038289,466]]}}}
{"ccle_rrbs_tss_clusters":{"corr":{"top":[["MMP16_1",1.0,-323.0051853474518,472],["MMP16_2",0.7764327504541261,-95.57016333239513,472]],"bottom":[]},"para":{"top":[["MMP16_1",1.0,-323.0051853474518,472],["MMP16_2",0.6847922475761183,-65.86227181318287,472]],"bottom":[]}}}
{"ccle_rrbs_cgi_clusters":{"corr":{"top":[["8_89337965_89342481-2",0.7764327504541261,-95.57016333239513,472]],"bottom":[]},"para":{"top":[["8_89337965_89342481-2",0.6847922475761183,-65.86227181318287,472]],"bottom":[]}}}
