{"depmap_hotspot":{"corr":{"top":[],"bottom":[]},"para":{"top":[["CASP3",0.11542799306308484,-3.3823251659643887,12.0,828.0],["CD59",0.1266991744582165,-3.9148220193001624,8.0,832.0],["COMT",0.14272526516123418,-4.748155727744322,15.0,825.0],["MAP3K7CL",0.11590401134487792,-3.4038532901648315,10.0,830.0],["OTUD1",0.1477922874953427,-5.03016232544317,17.0,823.0],["PATL2",0.12255813736233431,-3.714156789050231,10.0,830.0]],"bottom":[]}}}
{"depmap_damaging":{"corr":{"top":[],"bottom":[]},"para":{"top":[["CDH16",0.13980357707918029,-4.5848849564125835,9.0,830.0],["HIVEP2",0.1491284317975955,-5.100872803020265,15.0,824.0],["PAPPA",0.13495476003713797,-4.328675987691394,9.0,830.0],["ZNF595",0.1064590027408007,-2.9866746030107185,9.0,830.0]],"bottom":[]}}}
{"ccle_rrbs_tss1kb":{"corr":{"top":[["HHIPL1_14_100110446_100111446",0.6046948491763141,-76.43765495843688,762]],"bottom":[]},"para":{"top":[["HHIPL1_14_100110446_100111446",0.6079369908969195,-77.46597479154994,762]],"bottom":[]}}}
{"ccle_rrbs_tss_clusters":{"corr":{"top":[["RIPPLY3_2",0.5994089213461012,-82.05679813870094,837]],"bottom":[]},"para":{"top":[["SYT15_3",0.6875512350256878,-117.72545919517428,839]],"bottom":[]}}}
{"ccle_rrbs_cgi_clusters":{"corr":{"top":[["4_779627_782592-2",0.6178743684662344,-88.02182109524428,832],["11_62691373_62694073-3",0.6222059656664592,-89.91737248245295,835]],"bottom":[]},"para":{"top":[["17_59529623_59532266-1",0.6291060514446793,-92.26927943840137,833],["10_46967991_46970774-3",0.6637637500587125,-106.57545215788886,836],["17_59529723_59533489-1",0.6241925729116862,-91.08087330158337,839],["20_3660310_3665187-1",0.6423686014186574,-97.15434235718679,831],["14_103684558_103689376-3",0.6461160499543167,-96.64356939530082,814]],"bottom":[]}}}
