{"depmap_hotspot":{"corr":{"top":[["AGMO",0.14390678332417706,-1.7865984161556299,14.0,264.0],["ALX1",0.15155061650626334,-1.9429794630124935,10.0,268.0],["ASXL2",0.13693254521240056,-1.6498499213445639,12.0,266.0],["B3GAT3",0.1379522852562911,-1.6694940204462487,8.0,270.0],["BMP10",0.1473192776065113,-1.8555673353576934,13.0,265.0],["CHRNA1",0.1493471758174846,-1.8971977487605562,14.0,264.0],["COX7B2",0.1638839498196199,-2.209864168192161,8.0,270.0],["CYSLTR2",0.13109416009389294,-1.5396749370063312,8.0,270.0],["DIAPH2",0.15847384593540514,-2.0905609552952362,19.0,259.0],["GBP7",0.16760169849708798,-2.2938886167701553,11.0,267.0],["IDH3A",0.13441444740798078,-1.6018532614121905,9.0,269.0],["ITGA2B",0.13585026900541528,-1.629131879282736,16.0,262.0],["KCNG4",0.14123336096301564,-1.7335136597609897,16.0,262.0],["KIAA1024",0.1734188582135432,-2.4287255918718595,12.0,266.0],["MOGAT3",0.1271994746686015,-1.4683376756347377,10.0,268.0],["NOTCH4",0.15646473522063742,-2.0471470651745634,27.0,251.0],["OR14I1",0.16589674998697712,-2.2551480007030147,12.0,266.0],["OR2A25",0.16825376614525747,-2.30879824316035,11.0,267.0],["OR51L1",0.13152062196504102,-1.5475908489993198,11.0,267.0],["OR7E24",0.1549815487292685,-2.015405630166732,10.0,268.0],["PLCH2",0.15648109328413037,-2.0474985984790774,31.0,247.0],["PRDM13",0.14538985794329898,-1.8164054505456293,31.0,247.0],["RNF20",0.1582325007835796,-2.085320428760889,9.0,269.0],["SP100",0.16534500320187484,-2.24268621809114,23.0,255.0],["SYNRG",0.14189141329871832,-1.7465033135329981,12.0,266.0],["TPH2",0.15516127062122628,-2.019237925054366,11.0,267.0],["TRIM36",0.15192770443796821,-1.9508716656609169,12.0,266.0],["VSTM2A",0.1533787626695928,-1.9813979415207321,9.0,269.0],["WNK3",0.14175973547676038,-1.7439000366818707,25.0,253.0]],"bottom":[["ACSBG2",-0.18178265061731222,-2.6298572268199734,9.0,269.0],["ADAMTS20",-0.2221784070059953,-3.7257174509944,50.0,228.0],["ANKRD6",-0.18811185827951998,-2.7878238956229335,11.0,267.0],["ANO6",-0.20282968388169975,-3.1746704571593254,21.0,257.0],["ARAP2",-0.23808908567607387,-4.216054929035484,27.0,251.0],["ASIC5",-0.1885265977542606,-2.798349899583104,10.0,268.0],["BEND5",-0.22680972916435177,-3.8649334654939747,11.0,267.0],["BPIFB6",-0.18221341628562052,-2.6404502134361993,11.0,267.0],["C17orf53",-0.17662651576798,-2.504844718652175,18.0,260.0],["C2CD2",-0.20157151163626227,-3.140521688488732,19.0,259.0],["CD99L2",-0.18264021780624995,-2.650968439477382,8.0,270.0],["CDYL",-0.2085577282902104,-3.332717118053787,13.0,265.0],["CEP164",-0.20228003231563124,-3.159727046544844,23.0,255.0],["CHD4",-0.21821273829961807,-3.60877683673716,26.0,252.0],["DHX34",-0.2174941334769,-3.587808978022644,22.0,256.0],["ENPEP",-0.1867927853439608,-2.7544894095672463,16.0,262.0],["EPC2",-0.19823090821055192,-3.050836613050128,9.0,269.0],["EPO",-0.20131026237184338,-3.1334564464802632,9.0,269.0],["ERAL1",-0.176724114776847,-2.5071805915679954,11.0,267.0],["FAHD2A",-0.18046829213383417,-2.597677973623951,9.0,269.0],["FAM133B",-0.20194236137926047,-3.1505660081718814,8.0,270.0],["FASLG",-0.23593480783636447,-4.147660600417302,8.0,270.0],["FNBP4",-0.17621699218731882,-2.4950562108252274,17.0,261.0],["GIT2",-0.18361073231136998,-2.674970367075466,16.0,262.0],["GPBP1L1",-0.18321669789236456,-2.6652113236795674,8.0,270.0],["IDE",-0.18026766546698555,-2.5927848849725175,14.0,264.0],["KHNYN",-0.1853842550453468,-2.719134566974315,11.0,267.0],["KIAA0020",-0.17810441612494982,-2.5403414216317315,10.0,268.0],["KMT2E",-0.1756155676875032,-2.48071821601005,21.0,257.0],["MACC1",-0.2041923460406869,-3.2118847975516354,19.0,259.0],["MCM5",-0.1855397269476738,-2.7230248232300287,18.0,260.0],["NPIPB11",-0.1887764445741413,-2.8047013781995704,10.0,268.0],["OR1L6",-0.19470654236733892,-2.9577609217906002,8.0,270.0],["OR5AK2",-0.17546317831478206,-2.477092299288131,10.0,268.0],["PBRM1",-0.1783821448591762,-2.5470420446965876,29.0,249.0],["PCM1",-0.19351145809099654,-2.9265577329956436,19.0,259.0],["PGLYRP3",-0.21514300081386317,-3.5196815095091165,12.0,266.0],["PPP1R37",-0.18102369904271065,-2.6112498031738864,12.0,266.0],["PPP2R5C",-0.18313456220031826,-2.6631795029734358,9.0,269.0],["PRKAA1",-0.20941435106797832,-3.3567178976149132,15.0,263.0],["PRMT6",-0.176141333968744,-2.493250070673122,10.0,268.0],["RAD50",-0.20427267307904487,-3.2140859928873784,16.0,262.0],["RANBP3",-0.18555331638783848,-2.723365004963515,12.0,266.0],["RIC8B",-0.22042948138224686,-3.6738879628511167,8.0,270.0],["SCUBE2",-0.18007803551555368,-2.5881645747686233,19.0,259.0],["SERPINB7",-0.17408602928035505,-2.444453947479118,13.0,265.0],["SLC2A12",-0.25209595635471266,-4.676325459093171,13.0,265.0],["SLC30A10",-0.18458350755664846,-2.699145836397346,14.0,264.0],["SPATA7",-0.19498336131125735,-2.9650143751127915,16.0,262.0],["TRIP11",-0.24449476665588146,-4.423179680103112,24.0,254.0],["UAP1",-0.19295722348533592,-2.9121482450406235,8.0,270.0],["VCPIP1",-0.20381605560351612,-3.201584408230926,16.0,262.0],["VPS33A",-0.17759353830773972,-2.5280405627565132,11.0,267.0],["ZNF318",-0.19096419375892118,-2.8606523166351887,28.0,250.0],["ZNF549",-0.21163736474202813,-3.419447414354074,9.0,269.0],["ZNF669",-0.23066246873262136,-3.9829339582358267,11.0,267.0]]},"para":{"top":[["AGMO",0.16612577075533858,-2.543318941618055,14.0,264.0],["ALX1",0.17426940169712085,-2.7269401770599058,10.0,268.0],["ASXL2",0.16894576095135536,-2.6060371773268374,12.0,266.0],["ATF6",0.15991718341949282,-2.407687460939739,11.0,267.0],["B3GAT3",0.15376465482338206,-2.277355073012541,8.0,270.0],["BMP10",0.16177459796663737,-2.447925530317714,13.0,265.0],["COX7B2",0.1753480109058272,-2.751548659165749,8.0,270.0],["GBP7",0.19682114882399115,-3.275333415027055,11.0,267.0],["HIST1H4E",0.1584566887543484,-2.3760590741301506,8.0,270.0],["IDH3A",0.15840901383359784,-2.3752021989971177,9.0,269.0],["KIAA1024",0.18670050475890637,-3.0223443306925226,12.0,266.0],["LONRF3",0.14104544925377513,-2.0223902874441393,12.0,266.0],["LRRC30",0.1440473290293484,-2.0811696601505316,13.0,265.0],["MFSD4",0.13687333267190332,-1.9419865086195596,8.0,270.0],["OR14I1",0.1783193834584475,-2.8214407518872133,12.0,266.0],["OR2A25",0.15830766467910978,-2.373293125515317,11.0,267.0],["OR51L1",0.1507199334744465,-2.214989879325269,11.0,267.0],["OR52J3",0.1468588707541025,-2.137111609338942,14.0,264.0],["RNF20",0.17993541859116113,-2.859179894103037,9.0,269.0],["SOX5",0.1521880133076359,-2.2453821396753098,14.0,264.0],["SYNRG",0.14170711672486397,-2.035244075182678,12.0,266.0],["TPH2",0.14750089599368033,-2.1497399044059926,11.0,267.0],["TRIM36",0.16078519547459277,-2.4264560021755766,12.0,266.0],["USP53",0.1547374311664416,-2.298409965302853,16.0,262.0],["VSTM2A",0.1837341959013193,-2.949945713099753,9.0,269.0],["ZNF76",0.15255813181256217,-2.252365391750154,8.0,270.0]],"bottom":[["ANGPT4",-0.15368924445250223,-2.2760731697071086,10.0,268.0],["ATP2A2",-0.17610502495187094,-2.769768062660385,13.0,265.0],["CCDC177",-0.14971763515968112,-2.1944420769078636,10.0,268.0],["CDYL",-0.17005440022477228,-2.6310967553531075,13.0,265.0],["CLVS2",-0.15934577889985355,-2.3953289731098546,10.0,268.0],["DDX1",-0.16188797459307425,-2.4502930099498426,12.0,266.0],["ELF1",-0.15093808512362003,-2.219214207005351,9.0,269.0],["EPC2",-0.20095531970736996,-3.381739327145026,9.0,269.0],["ERI2",-0.16049201154105827,-2.420040432750928,11.0,267.0],["FASLG",-0.16006538610210824,-2.4104588435292937,8.0,270.0],["GLDN",-0.15202189936330884,-2.241310173199179,8.0,270.0],["GLYAT",-0.15497366157403047,-2.3029559199234124,11.0,267.0],["HHAT",-0.17026909589353315,-2.635854267935355,12.0,266.0],["JUNB",-0.14959728336292896,-2.19199540810817,10.0,268.0],["KLHL24",-0.13941512728280675,-1.9906081318657316,9.0,269.0],["KRI1",-0.15878889156461368,-2.3832979256725086,9.0,269.0],["LRRC41",-0.16221031589912144,-2.4567696446415415,8.0,270.0],["LSP1",-0.14867044655547576,-2.172929451900582,8.0,270.0],["MRGPRF",-0.15267434908776886,-2.255159988320991,11.0,267.0],["MS4A4E",-0.158724804978975,-2.381772544096069,8.0,270.0],["NGFR",-0.18534176699831909,-2.988995065635723,10.0,268.0],["OR1L6",-0.18298932330768658,-2.9318423111647007,8.0,270.0],["OR52D1",-0.1375436232334699,-1.9547027205519103,8.0,270.0],["OR5AK2",-0.15152291211096344,-2.2313325950818848,10.0,268.0],["PIWIL2",-0.16006788968036648,-2.4108069229651083,10.0,268.0],["PPP4C",-0.1622103158991214,-2.4567696446415415,8.0,270.0],["PRKAA1",-0.19462358792478207,-3.2197950755284386,15.0,263.0],["RAD50",-0.19371047819530282,-3.196785577445691,16.0,262.0],["RANBP3",-0.17059992962907758,-2.64333894570497,12.0,266.0],["RGS7BP",-0.14572116808458263,-2.113771462067001,8.0,270.0],["RHBDD3",-0.13606898399802334,-1.9267913113704633,8.0,270.0],["RIC8B",-0.19478643719125907,-3.2230382394482358,8.0,270.0],["RPS6KB2",-0.14800015599390914,-2.1594009375513488,8.0,270.0],["SAMM50",-0.19049657759723268,-3.115339623133221,8.0,270.0],["SLC2A12",-0.2137887403574853,-3.725853695482727,13.0,265.0],["STAM2",-0.15148566691405554,-2.2302865095113926,8.0,270.0],["TMPRSS3",-0.1820880590669174,-2.9104155839118597,9.0,269.0],["VCPIP1",-0.18177798972226875,-2.903729693237176,16.0,262.0],["ZBTB7B",-0.14042813456551562,-2.010125165865157,9.0,269.0],["ZNF549",-0.14549317097905992,-2.109385467971701,9.0,269.0]]}}}
{"depmap_damaging":{"corr":{"top":[["ASH1L",0.1613963494188089,-2.154572077871927,9.0,269.0],["SPATA6",0.16412326540669048,-2.215222690657563,10.0,268.0]],"bottom":[["ADAMTSL3",-0.20444706796031023,-3.2188677840016573,8.0,270.0],["CHD9",-0.1364306791865243,-1.640225961296165,12.0,266.0],["KIAA1009",-0.14967030047264163,-1.9038756969215165,17.0,261.0],["KIAA1109",-0.14840909071673092,-1.8778800037607124,27.0,251.0],["MUC19",-0.17222356944046127,-2.4006831610445416,11.0,267.0],["PARD3B",-0.15469087294151995,-2.0092155203961006,8.0,270.0],["SMARCA4",-0.17787921875726082,-2.5349151797581606,21.0,257.0],["VPS13B",-0.16429010537806077,-2.218962490208512,16.0,262.0]]},"para":{"top":[["ASH1L",0.18955898777689525,-3.0922607205380706,9.0,269.0],["LSM1",0.12480810256370416,-1.7213893410210044,8.0,270.0],["NHLRC2",0.14663280417210736,-2.1321045825539895,9.0,269.0],["SPATA6",0.17258447654259065,-2.688261883434122,10.0,268.0]],"bottom":[["CHD9",-0.13244377212962002,-1.8596137997496252,12.0,266.0],["SMARCA4",-0.18946410169253985,-3.0909469009373436,21.0,257.0]]}}}
{"ccle_rrbs_enhancer_clusters":{"corr":{"top":[["2-177501157-177505671-2_enh",0.2204804907568952,-2.90901452232501,212],["2-60442005-60444515-1_enh",0.22552349473320313,-3.000949876109818,210],["3-193661647-193664478-0_enh",0.25394697991360127,-3.683930214123797,209],["20-21486551-21489286-2_enh",0.2327229783795458,-3.2350461922071383,215]],"bottom":[]},"para":{"top":[["2-177501157-177505671-2_enh",0.2113077503827324,-2.703755916310021,212],["16-55072360-55077075-0_enh",0.2179604537773393,-2.8632539707064315,213],["15-48014524-48018252-1_enh",0.21773715768725485,-2.663202281584226,196]],"bottom":[]}}}
{"prism_primary_logfold":{"corr":{"top":[["PNU-282987_BRD-K28863208-001-02-0::2.5::HTS",0.20713601188525066,-2.246454143994675,177],["telotristat_BRD-K63178091-001-01-1::2.5::HTS",0.2369576758784119,-2.852405433366462,179],["tacrolimus_BRD-K69608737-001-10-2::2.5::HTS",0.2664122276432241,-3.4710550811128464,177]],"bottom":[["phenylbutazone_BRD-K10843433-001-22-7::2.5::HTS",-0.23694361208922388,-2.7430770954324215,171],["amidopyrine_BRD-K12568846-001-14-6::2.5::HTS",-0.27127869957490036,-3.6028678690461082,178],["mexeneone_BRD-K18613660-001-05-5::2.5::HTS",-0.25191717537087066,-3.143720237997655,177],["acetophenazine_BRD-K42938903-332-01-1::2.5::HTS",-0.31449790036812125,-4.552988300087355,171],["BIIB021_BRD-K51967704-001-03-6::2.5::HTS",-0.2567637780623197,-3.28288791350617,179],["doramapimod_BRD-K74065929-001-07-2::2.5::HTS",-0.253047235074508,-3.18402710162953,178],["ethyl-vanillin_BRD-K82104468-001-05-0::2.5::HTS",-0.28642747305635313,-3.9739673227432206,178],["amfenac_BRD-K82122102-323-01-1::2.5::HTS",-0.24579051774912614,-2.9670621230470986,174],["taltirelin_BRD-K93869735-001-01-1::2.5::HTS",-0.3211604721190771,-4.684483001593436,169]]},"para":{"top":[["esmolol_BRD-A07395371-003-10-0::2.5::HTS",0.22039342911020177,-2.518370785373912,179],["JNJ-38877605_BRD-K02123250-001-06-7::2.5::HTS",0.23481535426365868,-2.7945119478806366,178],["dihomo-gamma-linolenic-acid_BRD-K20152659-001-04-6::2.5::HTS",0.23419402578036866,-2.7817423450314194,178],["glasdegib_BRD-K34341643-001-01-4::2.5::HTS",0.20022725290254173,-2.132649426171329,178],["DMH1_BRD-K39381259-001-01-0::2.5::HTS",0.21053544308534786,-2.3196151046241194,178],["QX-314_BRD-K56596464-004-10-7::2.5::HTS",0.24820463826072894,-3.0777485779644773,178],["guanethidine_BRD-K62676709-065-05-5::2.5::HTS",0.22670512442723378,-2.6429132672560987,179],["telotristat_BRD-K63178091-001-01-1::2.5::HTS",0.23645003248530697,-2.8418211738002803,179],["tacrolimus_BRD-K69608737-001-10-2::2.5::HTS",0.23597740240496243,-2.8049734256520984,177],["1-deoxymannojirimycin_BRD-K89665618-003-02-5::2.5::HTS",0.20759360075663172,-2.26538116542877,178],["bremelanotide_BRD-K06328344-015-01-7::2.500004254::MTS004",0.21802953552998366,-2.426084393568771,175]],"bottom":[["omeprazole_BRD-A55962179-001-22-1::2.5::HTS",-0.23598698288087822,-2.8051704816284984,177],["masoprocol_BRD-A87130939-001-07-9::2.5::HTS",-0.2416241602823989,-2.8233633457503444,170],["methoxyflurane_BRD-K06152156-001-01-8::2.5::HTS",-0.23662609870242496,-2.490632757831211,153],["desonide_BRD-K21528677-001-02-8::2.44::HTS",-0.22201461963916055,-2.4174995583634358,168],["CB-03-01_BRD-K41779183-001-01-2::2.5::HTS",-0.21296862370722297,-2.3538854430941245,177],["acetophenazine_BRD-K42938903-332-01-1::2.5::HTS",-0.3012214241533301,-4.204688008504856,171],["dichlorisone-acetate_BRD-K54187111-001-09-2::2.5::HTS",-0.2229560951303173,-2.544290565586251,177],["etizolam_BRD-K68232413-001-01-2::2.5::HTS",-0.22615968923943094,-2.607109104383356,177],["PD-407824_BRD-K82823804-001-04-1::2.5::HTS",-0.244557397023622,-2.9990585225480926,178],["taltirelin_BRD-K93869735-001-01-1::2.5::HTS",-0.2742812177826471,-3.5117377346680234,169],["trapidil_BRD-K95763993-001-19-3::2.5::HTS",-0.2230484141520358,-2.5582228432386005,178]]}}}
{"prism_secondary_logfold":{"corr":{"top":[["metoprolol_BRD-A03623303-045-09-5::0.00976562::HTS002",0.24582292754042606,-2.7033723204911473,156],["flumethasone-pivalate_BRD-A50064262-001-04-7::0.00061034::HTS002",0.2784897240887724,-3.2714324980821363,151],["clofoctol_BRD-K02900412-001-11-3::0.000610352::MTS006",0.2480333419507471,-2.745560471721056,156],["merimepodib_BRD-K09372874-001-01-0::0.00061034::HTS002",0.2706392228622527,-3.1097712529320902,151],["NVP-BEZ235_BRD-K12184916-001-15-4::0.00061034::HTS002",0.2913826279953575,-2.988992166020159,124],["GSK650394_BRD-K14991967-001-02-6::2.5::HTS002",0.23918592991580523,-2.5929067480612527,157],["gidazepam_BRD-K22588750-001-07-0::0.156250001::MTS006",0.26919260429280045,-3.1684506381988107,156],["ethacridine-lactate-monohydrate_BRD-K24715592-406-02-1::0.00246962::HTS002",0.2868666238016691,-3.4691811446973397,152],["narlaprevir_BRD-K38287497-001-01-2::0.15625::HTS002",0.2630591896694654,-2.991839373965746,153],["SC-12267_BRD-K40797222-001-01-8::2.5::HTS002",0.2722194832283078,-3.1958829023419586,154],["buparlisib_BRD-K42191735-001-05-3::0.625::HTS002",0.2740124302279985,-3.160417551640071,150],["GSK1292263_BRD-K60341624-001-02-2::0.625::HTS002",0.29728496468474513,-3.742332267765857,154]],"bottom":[["salinomycin_BRD-A28301258-001-03-0::10::HTS002",-0.27657061782049164,-3.2129066874165186,150],["AZ-628_BRD-K05804044-001-06-0::10::HTS002",-0.2735103861562638,-3.1683420538266045,151],["AZ-628_BRD-K05804044-001-18-5::2.5::MTS010::PROS002_PR500",-0.30173833223216295,-3.5800843044827637,142],["abiraterone-acetate_BRD-K24048528-001-02-5::0.15625::HTS002",-0.27441916383166337,-3.003809029299353,141],["bumetanide_BRD-K38197229-001-29-9::0.00976562::HTS002",-0.3165402294562981,-3.3440985908616523,119],["halofuginone_BRD-K54247840-004-01-3::0.625::HTS002",-0.2958849828976451,-3.4770909134799943,143],["MK-1775_BRD-K54256913-001-08-7::0.15625::MTS010::PROS004_PR500",-0.26014990880445704,-2.9670158664441786,155],["INH1_BRD-K70177501-003-01-4::0.0024414::HTS002",-0.2779158941872595,-3.371745743796956,157],["letrozole_BRD-K88789588-001-14-9::0.0390625::HTS002",-0.2665661347855754,-3.114057632869221,156],["U-0126_BRD-K91701654-001-03-1::10.6695::HTS002",-0.2675858418795347,-3.1003598462700657,154],["chromocarb_BRD-K94720315-001-10-4::10::HTS002",-0.2682752621462905,-3.044527030976404,150]]},"para":{"top":[["clofoctol_BRD-K02900412-001-11-3::0.000610352::MTS006",0.27404607540666714,-3.2704058110459604,156],["gambogic-acid_BRD-K08542803-001-03-1::0.000776589::HTS002",0.25651953331267996,-2.942988766307499,158],["merimepodib_BRD-K09372874-001-01-0::0.00061034::HTS002",0.2582719362883916,-2.8646808058011834,151],["NVP-BEZ235_BRD-K12184916-001-15-4::0.00061034::HTS002",0.27648412101999476,-2.725667842723213,124],["artemisinin_BRD-K13112821-001-17-4::0.15625::HTS002",0.26414647022117627,-3.064429225844537,156],["GSK650394_BRD-K14991967-001-02-6::2.5::HTS002",0.30626250097827085,-4.018568955627649,157],["gidazepam_BRD-K22588750-001-07-0::0.156250001::MTS006",0.24725345067610913,-2.7306330512135286,156],["ethacridine-lactate-monohydrate_BRD-K24715592-406-02-1::0.00246962::HTS002",0.27086643771883473,-3.1322015682416198,152],["DMH1_BRD-K39381259-001-01-0::2.5::HTS002",0.24518625848921732,-2.705958712160588,157],["buparlisib_BRD-K42191735-001-05-3::0.625::HTS002",0.2531390591077507,-2.750704283284079,150],["carbachol_BRD-K75037734-003-13-9::0.00976562::HTS002",0.2872539155420693,-2.7929031467029417,118],["RS-16566_BRD-K80725821-300-02-9::0.00976562::HTS002",0.2371810862729732,-2.4868268550854107,152],["harringtonine_BRD-K96358241-001-01-9::0.00022963::HTS002",0.23958934020217598,-2.5582929009754873,154],["dichloroacetate_BRD-M97302542-001-03-6::0.00061034::HTS002",0.24734712386180494,-2.702566899870482,154]],"bottom":[["fluorometholone_BRD-A13133631-001-04-0::10::HTS002",-0.2821344961674389,-3.212831165227703,144],["9-aminoacridine_BRD-K00535541-001-06-3::2.5::HTS002",-0.25437805853172213,-2.821452956761812,153],["ouabain_BRD-K33277808-331-01-3::10::HTS002",-0.2667212133219106,-2.770514290566351,136],["triptolide_BRD-K39484304-001-16-5::2.5::HTS002",-0.2604284643967605,-3.0220089394955725,158],["tioxolone_BRD-K41876534-001-13-7::10::HTS002",-0.2465625684130808,-2.717447889580426,156],["daunorubicin_BRD-K43389675-001-02-1::0.00244::MTS010::PROS001_PR500",-0.25625165317887166,-2.8737312119818714,154],["thioguanine_BRD-K49350383-001-13-7::10::HTS002",-0.2551250169564423,-2.692861773742336,144],["halofuginone_BRD-K54247840-004-01-3::0.625::HTS002",-0.2780549063388838,-3.112047261320196,143],["CB-10-277_BRD-K59929863-001-01-9::0.00244141::HTS002",-0.2438527941326248,-2.695109193343175,158],["homoharringtonine_BRD-K76674262-001-03-3::10::HTS002",-0.32218437256815274,-4.236333921570804,150]]}}}
{"ccle_proteomics":{"corr":{"top":[["CSNK1A1_P48729-2",0.3138650501094629,-3.7502256845041964,138],["ESRRA_P11474",0.34972704466387505,-3.804091683657866,112],["MOCOS_Q96EN8",0.3169032968319593,-3.572144521973946,128],["RPL11_P62913",0.32474325704866225,-3.991839553145065,138],["RPLP0_P05388",0.3123811418637534,-3.717975366316391,138],["RPS7_P62081",0.37185844816751124,-5.148860954609582,138],["RPS19_P39019",0.3254418299772978,-4.007670867602214,138],["RPL12_P30050",0.3747522240368193,-5.226072807917028,138],["STX3_Q13277",0.36454031569185485,-4.956878516271366,138],["RPL9_P32969",0.3111707119669181,-3.691793336964722,138],["RPS17L_P0CW22",0.32145123518146046,-3.9177499076403612,138],["CLUH_O75153",0.3338921163320218,-4.202236236196053,138],["RPL21_P46778",0.31836727277449667,-3.8491100452856117,138],["LGALS3_P17931",0.3468020540395548,-4.510594774000401,138],["RNASEL_Q05823",0.31780100359796026,-3.5905625360979885,128]],"bottom":[["MIER1_Q8N108-12",-0.34522830956372624,-4.47227522654081,138],["HMGN4_O00479",-0.379504660733279,-5.354493095412853,138],["MAN1A1_P33908",-0.3123356416129158,-3.598282145538972,133],["CMC4_P56277",-0.29788006508702236,-3.411594070074228,138],["YAF2_Q8IY57",-0.364581886931766,-3.716483392373965,100],["RING1_Q06587",-0.3027217899477074,-3.512134694113266,138],["SUMO2_P61956",-0.3123938778003715,-3.7182514440807615,138]]},"para":{"top":[["TRMT10C_Q7L0Y3",0.3282810063541193,-4.072409406108922,138],["ESRRA_P11474",0.33212319494832876,-3.4598657406189273,112],["MOCOS_Q96EN8",0.30802993432805637,-3.3931681778664653,128],["RPL11_P62913",0.2924558888186478,-3.3010195486626097,138],["STUB1_Q9UNE7",0.30409593057051204,-3.540988153262612,138],["RPS7_P62081",0.3017921908176372,-3.4926956345326476,138],["RPS19_P39019",0.3204523453120334,-3.8954365775832356,138],["RPL12_P30050",0.37719799948792543,-5.291910546898578,138],["STX3_Q13277",0.29909608365042284,-3.436681286251774,138],["CLUH_O75153",0.2917879139099862,-3.2875519875852675,138],["ATP11A_E9PEJ6",0.292984607373115,-3.1861442591751956,132],["RNASEL_Q05823",0.31533664570486164,-3.5401396805185654,128]],"bottom":[["HMGN4_O00479",-0.2792293782603226,-3.040369390205978,138],["SCRN1_Q12765-2",-0.2872482639337792,-3.1968861801139212,138],["YAF2_Q8IY57",-0.3790767311156893,-3.997703064749188,100],["RING1_Q06587",-0.2836178199170605,-3.125453307065588,138]]}}}
{"depmap_copy_number":{"corr":{"top":[],"bottom":[]},"para":{"top":[["MIR8053_102467004",0.18718295426762263,-2.7811652672287805,280],["FGFBP2_83888",0.19326540731086453,-2.9380474543515023,280],["PROM1_8842",0.19326540731086453,-2.9380474543515023,280],["FGFBP1_9982",0.19326540731086453,-2.9380474543515023,280]],"bottom":[]}}}
{"depmap_gene_tpm":{"corr":{"top":[["MRRF_92399",0.21585749172750854,-3.5403080264781734,278]],"bottom":[["ROS1_6098",-0.2371600820895932,-4.1864831504410205,278],["GZMK_3003",-0.22596100560087462,-3.839206767153403,278],["HHIPL2_79802",-0.2442127012628587,-4.41394031303949,278],["CCKAR_886",-0.23295725888186775,-4.054168535057083,278],["C11orf16_56673",-0.24258596462742604,-4.360869084499078,278],["LY6H_4062",-0.26055256703320906,-4.967482359394853,278],["TMEM119_338773",-0.2296248618934683,-3.9509580477660484,278],["RNF212B_100507650",-0.2235625892934028,-3.7670258373915217,278],["C10orf142_100130539",-0.2701405403255108,-5.309918151087334,278]]},"para":{"top":[["MUC7_4589",0.21482181192885744,-3.510431001507761,278]],"bottom":[["PEX2_5828",-0.21929037454784367,-3.6403484742157755,278],["FAM170B_170370",-0.21324544256232097,-3.465226339117176,278],["CCL19_6363",-0.21961615125844897,-3.6499230055021123,278],["SDR42E2_100288072",-0.21545739863841634,-3.5287495455571385,278],["MYL4_4635",-0.2789340998172078,-5.635694431050145,278],["C10orf142_100130539",-0.2636227371697994,-5.075697898331343,278]]}}}
{"avana":{"corr":{"top":[["ACAP1_9744",0.24640011247330976,-3.49128355567292,209],["CDCA5_113130",0.25745957052350943,-3.7122615205052454,205],["CPN1_1369",0.2608607474543432,-3.865640352105551,209],["GUCA1A_2978",0.24265590936577053,-3.397890368862099,209],["MUL1_79594",0.2813167037659037,-4.433192648450415,209],["PPIP5K2_23262",0.24673660542155526,-3.4997474523929424,209],["PSORS1C1_170679",0.2427981347622866,-3.4014116738493496,209],["SCIMP_388325",0.2567500270769182,-3.7569948324121385,209],["SLC2A4_6517",0.25696457365238184,-3.762621202527754,209],["SLCO1B3_28234",0.2444977711660575,-3.443652738541786,209],["SNAPC5_10302",0.25838565691102655,-3.800010659101436,209],["SNX19_399979",0.2524961034370011,-3.646434382606208,209],["TAF1C_9013",0.2451102791283523,-3.4013807661618722,205],["XK_7504",0.2453228215871214,-3.2042298672957727,191]],"bottom":[["ASCC2_84164",-0.2578378488897574,-3.7855723496718503,209],["BRINP3_339479",-0.24081977574534977,-3.3526159363475347,209],["CXCL8_3576",-0.26025349847593615,-3.849478527085546,209],["DIS3L2_129563",-0.26606092343761256,-4.005646583122773,209],["FAM120C_54954",-0.2709620558786297,-3.8244209634625412,191],["GPR55_9290",-0.2539492773576588,-3.683989762652093,209],["IL10RA_3587",-0.24756246514292068,-3.520570040004385,209],["LMLN_89782",-0.2440260560560547,-3.4318994974387675,209],["LONRF3_79836",-0.2635773640031256,-3.639302072477576,191],["OR4D10_390197",-0.2425748500705743,-3.395884378630543,209],["SLC16A14_151473",-0.2523173792622147,-3.6418307069480536,209],["STARD9_57519",-0.3088728696874827,-5.27108225674028,209],["TMEM206_55248",-0.33536228738543455,-6.160122304687525,209],["WDR54_84058",-0.29106841483146567,-4.719886741447279,209],["WLS_79971",-0.24782027230802406,-3.5270846146299024,209]]},"para":{"top":[["ANKRD66_100287718",0.23037278756097074,-3.101529751126984,209],["CLDN7_1366",0.24086474649129883,-3.353720688661246,209],["FAF2_23197",0.286676630472536,-4.589459612362033,209],["HP_3240",0.2579623998668194,-3.788852301635339,209],["MT1A_4489",0.2414873134136103,-3.3690358865535086,209],["OR4C46_119749",0.2756239773736767,-4.270692168220431,209],["PPIP5K2_23262",0.25320151231625215,-3.6646372168275945,209],["SLC25A33_84275",0.23101713724768677,-3.116698084278318,209],["SNAPC5_10302",0.21952202979448993,-2.85229927424751,209],["SURF1_6834",0.2647325779876372,-3.9696090185078163,209],["SURF4_6836",0.22953498200322933,-3.0818694844778225,209],["UBE2G2_7327",0.24010628918294483,-3.335115998836466,209],["VPS13C_54832",0.24709581462304459,-3.50879562444858,209]],"bottom":[["AHI1_54806",-0.22568354747528604,-2.9923908100008783,209],["ASCC2_84164",-0.24375029576100943,-3.4250392383933157,209],["ATRIP_84126",-0.26490294955187,-3.974220602384,209],["CNOT9_9125",-0.22579642334517921,-2.994992221012033,209],["DIS3L2_129563",-0.30607387339685066,-5.182012898480623,209],["DNAL4_10126",-0.2293279509663177,-3.077022024943099,209],["FAM229B_619208",-0.2316830993411596,-3.132418895670674,209],["IL10RA_3587",-0.23974433335541553,-3.3262580116808627,209],["MARCKS_4082",-0.22853958992258597,-3.058602379724889,209],["OR4D10_390197",-0.24944586244572683,-3.568320279827361,209],["STARD9_57519",-0.26859418039250293,-4.074896835401486,209],["TMEM206_55248",-0.2783100883587565,-4.346925168401722,209],["VEGFC_7424",-0.23286168580651584,-3.16034986498412,209],["WDR54_84058",-0.22905890611017984,-3.070728959349557,209],["WLS_79971",-0.23635531328175668,-3.2439658591974716,209]]}}}
{"drive":{"corr":{"top":[["RRH_10692",0.380075373744856,-4.660678324357845,118],["CS_1431",0.3932319974592674,-4.937218244904463,117],["SPTY2D1_144108",0.38413882485582634,-4.756453175291146,118],["GNAI3_2773",0.39114178712611025,-5.113235870486364,123],["GP2_2813",0.42636992786193256,-5.966011058359021,121],["GPR149_344758",0.4146253099133775,-5.474031106113335,117],["PDE1C_5137",0.3765966611624649,-4.684396559480161,121],["SIRT7_51547",0.38417686608874063,-4.7573558125918325,118],["CCNL1_57018",0.3510893439606889,-4.013357235436263,118],["STYX_6815",0.3895592911657882,-5.073334287798324,123],["CACNA1C_775",0.36229026203158177,-4.256176632467862,118]],"bottom":[["RAB42_115273",-0.3551871481508782,-4.07016158074855,117],["ARHGEF19_128272",-0.3607805080077928,-4.222918389548232,118],["EPHA5_2044",-0.3708437934996198,-4.447765812349863,118],["EPHB1_2047",-0.3759100623787671,-4.598598081978143,119],["ALCAM_214",-0.3656543578913648,-4.33088408231437,118],["ARHGAP26_23092",-0.3763159036331713,-4.538318202703917,117],["CFAP65_255101",-0.3804320445774536,-4.633366127527704,117],["GRM7_2917",-0.3865176354364559,-4.776252087737676,117],["LOC729603_729603",-0.37368935887265525,-4.512708717610371,118],["PARP9_83666",-0.34730298845453444,-3.9333036066552634,118],["MAP3K14_9020",-0.3628032204022878,-4.235162093581886,117],["BMS1_9790",-0.345106559237032,-3.8873285045538326,118]]},"para":{"top":[["CELF3_11189",0.3366950983513714,-3.7143711460417452,118],["CHRDL2_25884",0.3124803699048824,-3.2432499079044166,118],["SIRT7_51547",0.329314189012512,-3.566607937403867,118],["CCNL1_57018",0.3258477439494558,-3.498483032522552,118],["CD8A_925",0.30303672190659303,-3.0699465797032874,118]],"bottom":[["EPHA5_2044",-0.3440760076902307,-3.8658738309467378,118],["ALCAM_214",-0.31967079905246354,-3.379078256634209,118],["PTGR1_22949",-0.32028924642316103,-3.390919315202078,118],["PDCD1_5133",-0.3334593310707037,-3.649135746271246,118],["RAD21_5885",-0.3317357359562936,-3.6955801013604703,121],["PARP9_83666",-0.31417620325814694,-3.2749800916586183,118],["WDR83_84292",-0.3137483337624555,-3.2669567226439034,118],["CD14_929",-0.34010554575146285,-3.78390624078958,118],["BMS1_9790",-0.36058287533749095,-4.2185770531917015,118]]}}}
{"achilles":{"corr":{"top":[["KPNA7_402569",0.6023182872633531,-28.8005556682365,285],["OR4D2_124538",0.6018490636037408,-28.745756924498636,285],["MYO6_4646",0.6094675980122883,-29.64681666302647,285],["PPP1R3B_79660",0.6217667722871402,-31.153996792559433,285],["OR10AG1_282770",0.628707503787013,-32.03444988626533,285]],"bottom":[["RBM4B_83759",-0.29249478097773846,-6.30152927874999,285],["CRSP8P_441089",-0.2909702375223399,-6.239670740322047,285],["DNAJC5_80331",-0.3366329156635654,-8.253797550911335,285],["GABRG1_2565",-0.2950225942811786,-6.404892251045347,285],["UHRF1BP1L_23074",-0.33738531205120975,-8.289871506694944,285],["MEPE_56955",-0.30137385253456955,-6.66901356535167,285],["THBS3_7059",-0.36559877179724104,-9.713985578600518,285],["NUCKS1_64710",-0.3299337667562381,-7.93684799146706,285],["CFAP52_146845",-0.29324671452337486,-6.332172037993135,285]]},"para":{"top":[["PPP1R3B_79660",0.527808200661807,-21.11717418678196,285],["OR10AG1_282770",0.5190019632649119,-20.329763967874264,285],["DCLK2_166614",0.48389357611832673,-17.407840488153276,285],["MYO6_4646",0.5031665037851074,-18.970092661725573,285],["SRRM5_100170229",0.48807415543271826,-17.73839139221804,285],["TMEM233_387890",0.49654676549912874,-18.422341723977592,285]],"bottom":[["SLC25A43_203427",-0.2897322975638286,-6.189706185331614,285],["COX7B_1349",-0.30904036169954885,-6.996343022230093,285],["RBM19_9904",-0.2806360920251924,-5.829801130828971,285],["INTS8_55656",-0.28360008413478804,-5.945685282733143,285],["MYL12B_103910",-0.2890284616345571,-6.161404293545065,285],["UHRF1BP1L_23074",-0.3271518796564847,-7.8074568482202436,285],["MEPE_56955",-0.3098990688618758,-7.033592268917622,285],["SLC6A13_6540",-0.2939486911258869,-6.360858390395258,285],["CFAP52_146845",-0.2824785187224177,-5.901677730418936,285]]}}}
{"ccle_rrbs_tss1kb":{"corr":{"top":[["OTOA_16_21674288_21675288",0.25986853046441066,-3.8714910110932697,211],["LOC441179_6_168195208_168196208",0.24035970210021226,-3.2304126313291417,201],["CHEK1_11_125494030_125495030",0.2523613877969442,-3.688618179256059,212]],"bottom":[["PYGO2_1_154934258_154935258",-0.25152975731391,-3.682055505470126,213],["CACTIN_19_3626813_3627813",-0.26492192556610733,-3.991477421432084,210],["XPA_9_100459691_100460691",-0.27372069995088766,-4.324240744742216,215],["YY1AP1_1_155658823_155659823",-0.27055331938522914,-4.146377839832347,210],["LTO1_11_69490165_69491165",-0.2730004861498915,-4.036913511723754,200],["RPS19_19_42362987_42363987",-0.25456631908229554,-3.8083006373724713,216],["RPL36AL_14_50087403_50088403",-0.2592538466586412,-3.9832419445700493,219],["AP3D1_19_2151625_2152625",-0.27066070484971977,-4.288944147280199,218],["MYH9_22_36784112_36785112",-0.2618044816542291,-2.0873756789451776,101]]},"para":{"top":[["RGL2_6_33267165_33268165",0.23629818835200853,-3.121835563783906,200],["PPP2R3A_3_135683514_135684514",0.23569476821672308,-2.933713422641427,187]],"bottom":[["RIC8A_11_206510_207510",-0.27235494184578735,-4.302667529426663,216],["MTUS1_8_17658733_17659733",-0.24589092054493614,-3.579710384462304,216],["ACSS2_20_33463327_33464327",-0.2381766548841774,-3.4103358392561915,218],["RASAL2_1_178061863_178062863",-0.23737518577702788,-3.349638113339793,215],["RASGEF1B_4_82393082_82394082",-0.24237141380587354,-3.4330545428258725,212],["SERPINB6_6_2971282_2972282",-0.23366050251437392,-3.3102809043917487,219],["SRSF4_1_29508637_29509637",-0.2741896997645928,-4.230309233482947,209],["ATAD3A_1_1446522_1447522",-0.24284007384573716,-3.543515143580148,219],["GPATCH4_1_156571279_156572279",-0.24783902869607216,-3.659669245443665,218],["ZNF555_19_2840432_2841432",-0.24091166954952942,-3.47989904087009,218],["MTUS1_8_17658426_17659426",-0.23329999465133838,-3.2882677297992915,218]]}}}
{"ccle_gene_tpm":{"corr":{"top":[["RP11-366H4.1_ENSG00000248370.1",0.22660682175644067,-3.724954922642373,267],["MRRF_ENSG00000148187.13",0.2328960897690522,-3.911112655464912,267],["RP3-510D11.2_ENSG00000234546.2",0.25800471918785384,-4.706072550638216,267],["RP11-27G22.1_ENSG00000254626.1",0.22134722103402438,-3.573176585278061,267],["MTUS1_ENSG00000129422.9",0.25111223628167767,-4.479484570209661,267],["AC012512.1_ENSG00000226539.1",0.27331871216811626,-5.232747806724609,267]],"bottom":[["ATP5G1P8_ENSG00000224948.1",-0.2945873411731246,-6.01887045491975,267],["RP11-475J5.8_ENSG00000270388.1",-0.3171382820160742,-6.924592141709646,267],["TMEM119_ENSG00000183160.8",-0.266128488387534,-4.981434954636822,267],["RPL32P31_ENSG00000213128.3",-0.25877096894444424,-4.731660024507876,267],["OR7E11P_ENSG00000254447.1",-0.29200385704347487,-5.919913632917598,267],["RP11-505O17.1_ENSG00000226570.2",-0.2957103824975575,-6.0621904854033675,267],["RP11-956J14.2_ENSG00000253564.1",-0.2581184725449775,-4.709866084117898,267],["RP5-919F19.5_ENSG00000223537.2",-0.2600671537006353,-4.775125666996483,267],["C11orf16_ENSG00000176029.9",-0.25153459989072424,-4.493185455366126,267],["AP001055.1_ENSG00000267913.1",-0.24904969522870316,-4.412922132564572,267],["HNRNPA1P1_ENSG00000218347.2",-0.26683416749654937,-5.005782513833031,267],["LY6H_ENSG00000176956.8",-0.2652341787539535,-4.950677930435375,267],["ANKRD62P1_ENSG00000259271.1",-0.25304102758870006,-4.542247085345359,267],["RP11-744H18.1_ENSG00000203825.4",-0.24656692509192313,-4.333552104840675,267]]},"para":{"top":[["MRRF_ENSG00000148187.13",0.21790479571481491,-3.4757447110979887,267],["NARG2P1_ENSG00000248880.1",0.20435378683786276,-3.106683068872529,267],["SPATA31A1_ENSG00000204849.5",0.19670707668162535,-2.9084718968251226,267],["RP11-115D19.1_ENSG00000251095.2",0.21262984112666272,-3.3293507555116784,267],["RN7SL506P_ENSG00000266343.1",0.20988564963097936,-3.254572986399797,267],["AC012512.1_ENSG00000226539.1",0.2453153426223194,-4.293852303229578,267],["RP11-67L3.4_ENSG00000233203.2",0.2424880967803264,-4.204937745367924,267]],"bottom":[["LINC00671_ENSG00000213373.3",-0.24102222661031414,-4.159253296172241,267],["DPEP3_ENSG00000141096.4",-0.2312183795560555,-3.860953767522049,267],["SDR42E2_ENSG00000183921.5",-0.25399574622021764,-4.573498699907749,267],["CA3_ENSG00000164879.6",-0.2222331537392556,-3.598494930861522,267],["RP11-662I13.2_ENSG00000255921.1",-0.22543616261551308,-3.6908666087351856,267],["CTC-345K18.2_ENSG00000250309.2",-0.2312364701832319,-3.8614926819799718,267],["AC091633.3_ENSG00000223711.1",-0.2256457615485896,-3.696956984613435,267],["NCR3_ENSG00000204475.5",-0.2429918862425939,-4.2207040483147225,267],["RP11-326A19.4_ENSG00000260123.1",-0.2439212891984612,-4.249878177825262,267],["None_ENSG00000270024.1",-0.24516821796950863,-4.289199225334355,267],["RP11-420K14.1_ENSG00000268278.1",-0.2624074610335198,-4.854185363914699,267],["MYL4_ENSG00000198336.5",-0.28483178942430587,-5.650261117090423,267]]}}}
{"ccle_rrbs_tss_clusters":{"corr":{"top":[["HCG15_5",0.2880489122237399,-2.765611025220586,116],["UBXN2B_1",0.3013431402830202,-3.2619416338407,128],["MIR6071_2",0.41868081252935074,-6.189184489037225,131],["SMAD9_3",0.2939824420951956,-4.889945684227273,213],["COL22A1_3",0.3519137033773384,-5.657240084787541,172],["RIBC1_3",0.2964850557289914,-2.7797688676043553,110],["CYB5R2_1",0.31647483767242435,-5.1348228693804305,193],["CENPP_3",0.29895789937603606,-4.661096381071031,195],["TMSB4X_2",0.32906838885297673,-3.135064495984087,102],["LOC643387_3",0.2998673490396137,-3.36506875130863,134],["SNORA80E_2",0.314823686620667,-5.226909202170285,199],["TRAF5_1",0.28754763427655333,-2.8792488895734296,122]],"bottom":[["MGAT2_1",-0.27077540448869575,-4.344574344472532,221],["SNORD83A_1",-0.29939752020524435,-3.3337544977961806,133],["ATAD3B_3",-0.28127764202820815,-3.0991993817224857,139],["NR6A1_1",-0.262030541219921,-3.880494705879428,208],["USP19_1",-0.27277527341663615,-4.403274915017142,221],["EDC4_2",-0.30122461960055336,-5.288985741033846,221],["CFAP36_1",-0.2936375856837976,-2.77562767489493,112],["PDSS1_2",-0.33385719300402045,-3.602424880011049,116]]},"para":{"top":[["HCG15_5",0.2521644104539771,-2.1993589411911136,116],["HLA-G_1",0.2644983283155746,-2.850229119911094,143],["P2RX3_2",0.2537238533104232,-3.152418652463667,175],["COL22A1_3",0.31758698721479095,-4.660695421008952,172],["RAB3D_1",0.2699277571620368,-2.3618167719421774,110],["CYB5R2_1",0.2856647740963786,-4.248079175967718,193],["LOC101927296_2",0.2620779645720467,-3.6517650657786427,194]],"bottom":[["PNPO_3",-0.2590257454716153,-4.008883529217831,221],["NAT10_3",-0.2791910043021403,-3.1535661062611777,144],["ATAD3B_3",-0.28265655108443954,-3.1261723936486963,139],["CFAP36_1",-0.3217491855636261,-3.2663966062641845,112]]}}}
{"ccle_rrbs_cgi_clusters":{"corr":{"top":[["8_59321806_59326180-1",0.3013431402830202,-3.2619416338407,128],["7_1948279_1952482-2",0.3099986422823477,-5.467418660294932,216],["1_211498151_211502636-1",0.28754763427655333,-2.8792488895734296,122],["23_53446968_53451772-3",0.2964850557289914,-2.7797688676043553,110],["23_12991107_12993853-2",0.32906838885297673,-3.135064495984087,102],["11_7692711_7697685-1",0.31647483767242435,-5.1348228693804305,193],["13_30086558_30090772-1",0.32711331380530384,-4.486672136182669,155],["7_27148030_27152418-2",0.2962560464553555,-5.023008046580894,216],["2_239138096_239142659-3",0.2998673490396137,-3.36506875130863,134],["8_1954926_1959177-3",0.3006689802032236,-2.982944789707556,116],["13_37491896_37496752-3",0.2939824420951956,-4.889945684227273,213]],"bottom":[["14_50087608_50090261-1",-0.2853366448301423,-4.7825616327427545,221],["2_55744675_55748999-1",-0.2936375856837976,-2.77562767489493,112],["10_26984142_26989088-2",-0.33385719300402045,-3.602424880011049,116],["1_161951616_161956039-3",-0.28040266335555036,-4.463048240672897,212],["7_6644884_6647420-2",-0.29593846681678027,-2.5971900499771725,102],["19_39892558_39896768-1",-0.30453325813151355,-5.376227198238594,220],["3_49059155_49061986-2",-0.2751997389466111,-4.222611802881138,207],["1_1412034_1416532-2",-0.28127764202820815,-3.0991993817224857,139],["16_67904809_67909311-1",-0.30122461960055336,-5.288985741033846,221],["10_71905945_71908675-1",-0.30227312301801756,-5.23655646845079,217],["12_53400384_53402896-1",-0.3110807194443951,-5.526412749385842,217],["1_997678_1001911-3",-0.27708531137896086,-4.458318839541056,217]]},"para":{"top":[["6_29793553_29796073-1",0.2644983283155746,-2.850229119911094,143],["16_11680642_11683275-3",0.2661641071265792,-4.059135260590673,212],["19_11448016_11452414-1",0.2699277571620368,-2.3618167719421774,110],["13_42612178_42614914-1",0.24268068685174576,-2.383864171773076,138],["11_7692711_7697685-1",0.2856647740963786,-4.248079175967718,193],["19_51414002_51418249-3",0.26165376666221196,-2.595598662810257,131],["19_34397275_34400079-3",0.3168368201661581,-3.1771498530665077,112],["11_107726949_107731586-2",0.2820091507745616,-4.282481929512874,200],["2_197986_200535-3",0.28418192640401774,-3.508966341234142,157]],"bottom":[["2_55744675_55748999-1",-0.3217491855636261,-3.2663966062641845,112],["19_58980329_58982921-1",-0.26014118432293976,-3.6685149543227684,198],["2_113188115_113190695-3",-0.28125389915379695,-2.5547959829358313,111],["11_34124828_34129573-3",-0.2791910043021403,-3.1535661062611777,144],["16_79634078_79637537-2",-0.27814473971857134,-2.313575437589673,101],["1_1412034_1416532-2",-0.28265655108443954,-3.1261723936486963,139],["8_144813203_144815861-3",-0.2639591670532291,-4.147931123422745,221],["8_17658744_17661321-2",-0.28351680524522826,-4.554385698537655,212],["14_105264444_105267141-3",-0.2582601596929207,-3.955780691417033,219]]}}}
