{"depmap_hotspot":{"corr":{"top":[["AKR1D1",0.13936138549114951,-1.6968357864689552,10.0,268.0],["APPBP2",0.16562759992180484,-2.2490643705775417,9.0,269.0],["ARMCX4",0.15294920859098107,-1.972335384001583,19.0,259.0],["BMP7",0.1547119342893711,-2.0096636974208004,11.0,267.0],["C12orf55",0.14536184334211072,-1.8158400336993727,45.0,233.0],["CEP63",0.14636415686376147,-1.8361266541855703,11.0,267.0],["CLDN18",0.14913605876679706,-1.8928412621483475,8.0,270.0],["CPQ",0.16080061059731388,-2.141440776030453,8.0,270.0],["DDX23",0.15379656088404015,-1.9902334139740832,10.0,268.0],["FAM161A",0.13806645805866205,-1.6717008758864442,12.0,266.0],["FCRL4",0.14191777452285986,-1.7470247177148799,22.0,256.0],["IL16",0.14936574227544627,-1.897581125624905,19.0,259.0],["ING4",0.14500055522682995,-1.8085563815957917,9.0,269.0],["IZUMO2",0.14767120947596704,-1.8627575246731871,11.0,267.0],["KIAA0754",0.1451828800536347,-1.8122301897742132,9.0,269.0],["MAGEA1",0.21360215095303675,-3.4754269707045475,18.0,260.0],["MAGEB3",0.14465470919391255,-1.8015983009589962,9.0,269.0],["MLTK",0.13833784162824525,-1.6769524972858265,10.0,268.0],["MOGAT3",0.13444677148623863,-1.6024647760638473,10.0,268.0],["NPC1L1",0.1501491577594395,-1.9137947066496117,20.0,258.0],["NUFIP2",0.1324352174281145,-1.5646372480754764,14.0,264.0],["PLD2",0.14046539364518304,-1.718417748308162,16.0,262.0],["PRRT4",0.14082900665966908,-1.7255567704275918,13.0,265.0],["RBL1",0.13945037684869419,-1.6985702375713705,20.0,258.0],["RIC3",0.15080209378643136,-1.9273630331269624,10.0,268.0],["SERPING1",0.14520370926117895,-1.8126501407813038,12.0,266.0],["SLCO1B7",0.13703431185553402,-1.6518049641002381,12.0,266.0],["SPAM1",0.14343873366018398,-1.7772446527186385,17.0,261.0],["STEAP4",0.14235641941653496,-1.7557125958756987,8.0,270.0],["STK39",0.17911615984058693,-2.5647970788379735,10.0,268.0],["SUCNR1",0.17892132698627303,-2.5600777968826587,12.0,266.0],["SUGT1",0.14155863968179502,-1.7399282418141413,8.0,270.0],["TBC1D1",0.1799441866408252,-2.5849060419598304,18.0,260.0],["TTC23L",0.17092245008527976,-2.3703561447578645,11.0,267.0],["ZNF121",0.13252997641031586,-1.5664088339640105,9.0,269.0],["ZNF502",0.13288606752818102,-1.5730753643958066,10.0,268.0],["ZNF785",0.13653592158050326,-1.6422417288618463,17.0,261.0]],"bottom":[["AFP",-0.1764651287550598,-2.5009847545140595,14.0,264.0],["ATP9B",-0.16849097115322015,-2.3142347611357375,24.0,254.0],["BAZ1B",-0.18765731861651386,-2.776312543525221,24.0,254.0],["C1S",-0.1711412014520679,-2.375440454713288,10.0,268.0],["C1orf110",-0.19331124640742156,-2.9213479676448633,11.0,267.0],["C4orf29",-0.1960683105112927,-2.993536919171179,11.0,267.0],["C9orf41",-0.1776604186561665,-2.5296490704645813,8.0,270.0],["CACNG6",-0.17519504165146046,-2.47071923978491,12.0,266.0],["CEP70",-0.17901500127127912,-2.5623462097854435,9.0,269.0],["CITED2",-0.18806308066854177,-2.7865873475582226,10.0,268.0],["COL18A1",-0.1752098666157753,-2.4710713683908354,44.0,234.0],["COPB1",-0.1753381522003983,-2.4741195864875016,23.0,255.0],["CUX1",-0.16861297493909042,-2.317033632932107,34.0,244.0],["DCLK1",-0.1732785264663437,-2.4254242474313905,17.0,261.0],["DDX24",-0.20296459654205068,-3.1783442704780493,10.0,268.0],["DIDO1",-0.18090585104299464,-2.6083668957057244,53.0,225.0],["DNMT3B",-0.169069204386288,-2.3275159398311573,14.0,264.0],["EIF4A2",-0.169468292424807,-2.33670609665414,8.0,270.0],["ELFN2",-0.1721417555356848,-2.3987701241028767,15.0,263.0],["ENPP5",-0.20215427423687476,-3.156313509425673,11.0,267.0],["GMEB2",-0.16961210336236643,-2.340022503350357,13.0,265.0],["GPR4",-0.18604076625202823,-2.735582490918851,11.0,267.0],["HCN3",-0.21977679969310585,-3.654649608655778,14.0,264.0],["HOXA10",-0.21392159350786605,-3.484576067225014,10.0,268.0],["KIF20B",-0.17206950788106332,-2.3970814521582815,28.0,250.0],["KRT14",-0.1831264754722766,-2.6629795039850817,22.0,256.0],["L3MBTL4",-0.18283520205868695,-2.65578122142994,22.0,256.0],["LIN9",-0.1767720337150772,-2.5083278820263946,12.0,266.0],["LMBRD1",-0.189038746233259,-2.811377909471725,23.0,255.0],["LRRN1",-0.1700804791493943,-2.350841092436123,18.0,260.0],["MAP3K7",-0.1710428480943962,-2.3731537637191993,11.0,267.0],["MIPOL1",-0.18133649521598025,-2.6189100610462677,12.0,266.0],["MON1B",-0.19208987235997896,-2.88967599841051,14.0,264.0],["MRGPRE",-0.23703624082511027,-4.1825499692069315,11.0,267.0],["NARS2",-0.1876738484157319,-2.7767307118881006,12.0,266.0],["NCOA4",-0.18674824103264392,-2.753367526349033,10.0,268.0],["NPAS2",-0.18034742013140584,-2.5947294268140824,14.0,264.0],["NSFL1C",-0.19643315737511097,-3.0031620813946542,10.0,268.0],["PANX3",-0.1909920730281841,-2.8613692061515885,10.0,268.0],["PIGT",-0.17764851149594646,-2.5293626566459344,8.0,270.0],["POT1",-0.18578571059863733,-2.729186051886603,9.0,269.0],["PQLC2",-0.18337884715004152,-2.6692249325628925,9.0,269.0],["PRKCQ",-0.1824733211204136,-2.6468526930556897,18.0,260.0],["QSER1",-0.18137176817885184,-2.6197746432785087,27.0,251.0],["RAPGEF1",-0.17873146366016182,-2.5554833972713933,19.0,259.0],["RNF10",-0.1739811636347255,-2.441978162098625,11.0,267.0],["RXRA",-0.1886424550656622,-2.801294190979722,9.0,269.0],["SFI1",-0.19607168039091288,-2.993625743812974,15.0,263.0],["SLC26A8",-0.16975563728199053,-2.343335028662699,16.0,262.0],["SOWAHC",-0.169927404699011,-2.34730242909776,9.0,269.0],["SOX2",-0.16876807625556933,-2.320594398607232,10.0,268.0],["TBCC",-0.19426616704756444,-2.9462418414921148,11.0,267.0],["TBR1",-0.19871668057067915,-3.063789495172269,18.0,260.0],["TOPORS",-0.16980982775905384,-2.344586306581212,11.0,267.0],["TOX4",-0.1725308693599274,-2.4078759898687165,10.0,268.0],["TRIP4",-0.17640569136439024,-2.4995639713646285,9.0,269.0],["VTN",-0.16896074663930616,-2.3250217297911187,16.0,262.0],["ZBTB7A",-0.24827846009140817,-4.548184374905759,10.0,268.0],["ZDHHC8",-0.17969112006947302,-2.5787512255465694,13.0,265.0]]},"para":{"top":[["APPBP2",0.1751233650111028,-2.7465188843411164,9.0,269.0],["CEP63",0.16244617763918287,-2.462308127340549,11.0,267.0],["CPQ",0.16422093534261906,-2.5006424149797306,8.0,270.0],["CYTIP",0.15572373404992612,-2.318858523215732,13.0,265.0],["DDX23",0.1633171373396943,-2.481164978350857,10.0,268.0],["GABRD",0.1449864446404286,-2.09932919338223,9.0,269.0],["IGJ",0.1602335597987063,-2.4145825872070636,12.0,266.0],["IL16",0.16413250305371693,-2.4996952705977376,19.0,259.0],["IZUMO2",0.15083466741868926,-2.2173364924922936,11.0,267.0],["MAGEA1",0.19981726255814083,-3.3530946654020832,18.0,260.0],["MAGEB3",0.16284067057431542,-2.4706380632645013,9.0,269.0],["MLTK",0.13503450854468463,-1.9076085024884941,10.0,268.0],["MOGAT3",0.15308725032873335,-2.263588678172246,10.0,268.0],["NUTM2D",0.13311950105732304,-1.8716707181151409,8.0,270.0],["RIC3",0.17402843079822988,-2.721389198758714,10.0,268.0],["SPAM1",0.16041268874672474,-2.4187946844170938,17.0,261.0],["STEAP4",0.15617746095849078,-2.3278094114565024,8.0,270.0],["STK39",0.17763897915503962,-2.805239603487145,10.0,268.0],["SUCNR1",0.17831910956263464,-2.821434318712081,12.0,266.0],["TBC1D1",0.18123808226558807,-2.890970229882975,18.0,260.0],["TBC1D19",0.14404710777488056,-2.081165300733982,13.0,265.0],["WDR93",0.14810018881551654,-2.162119571343798,15.0,263.0]],"bottom":[["AGPAT5",-0.15108326051520946,-2.2220347124238335,8.0,270.0],["AKR1C4",-0.17727672039605094,-2.796886927095936,11.0,267.0],["ALOX12B",-0.17313252231453954,-2.701133385408822,13.0,265.0],["C1S",-0.15717920513311767,-2.349235100918612,10.0,268.0],["C1orf110",-0.1714134825619403,-2.661689705061925,11.0,267.0],["C2orf42",-0.17578272148598614,-2.7621827016024163,12.0,266.0],["C4orf29",-0.19095760867564243,-3.1272904231437457,11.0,267.0],["C9orf41",-0.1801738262044734,-2.864652600175479,8.0,270.0],["CACNG6",-0.1981691032059706,-3.310034964136238,12.0,266.0],["CEP70",-0.16828557635557173,-2.5908688321835966,9.0,269.0],["CITED2",-0.1545314696714572,-2.293606547860479,10.0,268.0],["DDX24",-0.1654834663537801,-2.528722733253067,10.0,268.0],["EARS2",-0.16115080832560844,-2.4341264455327516,10.0,268.0],["EIF4A2",-0.14679340751034103,-2.135168940185253,8.0,270.0],["ENPP5",-0.16095162681872327,-2.42994375087558,11.0,267.0],["FUCA2",-0.1719577221150236,-2.6738120783760384,9.0,269.0],["GGT1",-0.1472657075256056,-2.1447830918429314,9.0,269.0],["GMEB2",-0.1744063360899991,-2.7304250106218864,13.0,265.0],["GPR3",-0.14967159612662587,-2.19337839582682,9.0,269.0],["GPR4",-0.18750864524381264,-3.0420172880007152,11.0,267.0],["HCN3",-0.18672466958831513,-3.023125489281315,14.0,264.0],["HIC1",-0.15621639223796843,-2.328917257711076,10.0,268.0],["HOXA10",-0.18907238228493714,-3.0803808961946686,10.0,268.0],["HOXB3",-0.17543727323240838,-2.7540596832910826,11.0,267.0],["HS3ST1",-0.13968833847102774,-1.9957179599927106,8.0,270.0],["IRF3",-0.14438036519510256,-2.0871911966911405,8.0,270.0],["LIN9",-0.17975272021465333,-2.855242108228843,12.0,266.0],["MON1B",-0.19994502215521562,-3.35611114077465,14.0,264.0],["MRGPRE",-0.2225731068007488,-3.9715614860348203,11.0,267.0],["NARS2",-0.1950813264170072,-3.2311212353962007,12.0,266.0],["NCOA4",-0.18461937264487177,-2.9714795935807943,10.0,268.0],["NSFL1C",-0.19641383061045029,-3.264786723241822,10.0,268.0],["OPN5",-0.16815895063972852,-2.588035437240708,9.0,269.0],["PANX3",-0.15453146967145723,-2.293606547860479,10.0,268.0],["PIGT",-0.18298904223891835,-2.9318355643392584,8.0,270.0],["POT1",-0.16170103913172693,-2.4458888591799495,9.0,269.0],["PPOX",-0.17266658344595368,-2.6898259020741877,8.0,270.0],["PQLC2",-0.18424041655181103,-2.9621630523647253,9.0,269.0],["RNF10",-0.1719883098005786,-2.674775061543827,11.0,267.0],["RNF31",-0.1592271451028084,-2.3929068113364793,11.0,267.0],["RXRA",-0.21311107976405355,-3.7066826185276778,9.0,269.0],["SMOC2",-0.16676803556425962,-2.5568641303462485,8.0,270.0],["SOWAHC",-0.1748701135794165,-2.7406612592296034,9.0,269.0],["SOX2",-0.16909401471058988,-2.6091415241383755,10.0,268.0],["SPATS2L",-0.18424041655181098,-2.9621630523647253,9.0,269.0],["TBCC",-0.17647196226195733,-2.7781035630424094,11.0,267.0],["TMEM255B",-0.15055797613752803,-2.2114416924993785,9.0,269.0],["TPRX1",-0.15309412911124154,-2.2634473136583404,8.0,270.0],["TRIM2",-0.16343748895158794,-2.4837934472467023,10.0,268.0],["TRIP4",-0.1622075419950996,-2.456870778592609,9.0,269.0],["ZBTB7A",-0.2361298625353575,-4.3682420846859085,10.0,268.0],["ZDHHC8",-0.17610475445727844,-2.7697617759586635,13.0,265.0]]}}}
{"depmap_damaging":{"corr":{"top":[],"bottom":[["ADAMTS20",-0.13168792695747866,-1.5507019891732512,14.0,264.0],["CARD11",-0.16712258186146706,-2.2829663759577903,8.0,270.0],["COPB1",-0.20010317401014388,-3.1009254349549606,9.0,269.0],["FRMPD2",-0.16890392538208476,-2.323715577771287,9.0,269.0],["GOLGA3",-0.1673630828939651,-2.2884455121012013,9.0,269.0],["LMBRD1",-0.228283842799303,-3.9098465615725213,12.0,266.0],["PDE4DIP",-0.14809232711712825,-1.8713802874080296,12.0,266.0],["TAF1L",-0.17241882730919852,-2.405252136813457,11.0,267.0],["USH2A",-0.15052049750061838,-1.9215051728445052,18.0,260.0]]},"para":{"top":[],"bottom":[["ADAMTS20",-0.12882157501235572,-1.7936014520180958,14.0,264.0],["BCORL1",-0.14384681319784007,-2.076814898466696,9.0,269.0],["CARD11",-0.15832238746092492,-2.3732001411218717,8.0,270.0],["CEP128",-0.14384413356949405,-2.076615765642905,8.0,270.0],["COPB1",-0.15828214480396133,-2.3725019909247522,9.0,269.0],["DMXL1",-0.14600611861412754,-2.119826153288158,11.0,267.0],["LMBRD1",-0.24106714502406884,-4.518298581350896,12.0,266.0],["PDE4DIP",-0.15130106265920512,-2.2269865020603032,12.0,266.0],["TAF1L",-0.19429160665974457,-3.210992523196946,11.0,267.0],["WHSC1L1",-0.15209928734369352,-2.243296934874208,11.0,267.0]]}}}
{"ccle_rrbs_enhancer_clusters":{"corr":{"top":[],"bottom":[["1-113541038-113544020-0_enh",-0.22182463055159135,-2.70190377933919,192]]},"para":{"top":[["1-10755664-10760631-2_enh",0.2488688280519481,-3.3755568928962143,197]],"bottom":[]}}}
{"ccle_mirna":{"corr":{"top":[["hsa-miR-217_miR00246.1",0.22639127472452183,-3.4383703949543762,244]],"bottom":[["hsa-miR-651_miR00607.1",-0.20733593006903628,-2.9492866870229064,244]]},"para":{"top":[],"bottom":[["hsa-miR-651_miR00607.1",-0.21823449284784835,-3.2239039253208803,244]]}}}
{"prism_primary_logfold":{"corr":{"top":[["isoprenaline_BRD-A04322457-003-17-9::2.5::HTS",0.20523097785891986,-2.2223334963820047,178],["pranoprofen_BRD-A64610707-001-04-4::2.5::HTS",0.2533648374442938,-3.1910694879146813,178],["LXR-623_BRD-K54520417-001-01-2::2.5::HTS",0.21378914554921594,-2.3804199054078623,178],["gliquidone_BRD-K80396088-001-12-0::2.5::HTS",0.21471065682029755,-2.318651566929674,171],["salicylic-acid_BRD-K93632104-001-17-2::2.5::HTS",0.2725116786356911,-3.6322789042162897,178]],"bottom":[["proxyphylline_BRD-A28887267-001-19-3::2.5::HTS",-0.22324464950569858,-2.549913829958194,177],["mercaptosuccinic-acid_BRD-A43435802-001-02-0::2.5::HTS",-0.2213003262220288,-2.5360602101652,179],["ethylnorepinephrine_BRD-A68509429-003-03-9::2.5::HTS",-0.23546710277144395,-2.794488589694349,177],["7-nitroindazole_BRD-K04430056-001-17-7::2.5::HTS",-0.23510953179269659,-2.8139784838224036,179],["metacetamol_BRD-K16474819-001-09-6::2.5::HTS",-0.22231994208806055,-2.5319177706250233,177],["oridonin_BRD-K23925186-001-01-0::2.5::HTS",-0.2970810798416409,-4.226687788768864,177],["oxonic-acid_BRD-K31468676-237-01-8::2.5::HTS",-0.24569853145569057,-2.906604510080109,170],["fipexide_BRD-K37688416-003-13-1::2.5::HTS",-0.22958054585939622,-2.6879511052167615,178],["CG-400549_BRD-K48888725-001-01-9::2.5::HTS",-0.25841343907413183,-3.239790302170565,174],["pasireotide_BRD-K59715032-362-01-4::2.5::HTS",-0.22167808467113986,-2.5434488355064016,179],["pentagastrin_BRD-K78789465-001-02-4::2.5::HTS",-0.2314470350793309,-2.7126613411103864,177]]},"para":{"top":[["L-ergothioneine_BRD-K26341917-001-01-3::2.5::HTS",0.20637530607547042,-2.2431271007467415,178],["hydroflumethiazide_BRD-K36862742-001-25-6::2.5::HTS",0.23452656620155615,-2.788572657616352,178],["potassium-canrenoate_BRD-K46556543-237-10-5::2.55::HTS",0.22612785213642805,-2.494148946753552,168],["salicylic-acid_BRD-K93632104-001-17-2::2.5::HTS",0.22071004563687674,-2.5126498762311984,178]],"bottom":[["indoprofen_BRD-A44090213-001-25-6::2.5::HTS",-0.2559826685785247,-3.0911507572592845,168],["ethylnorepinephrine_BRD-A68509429-003-03-9::2.5::HTS",-0.2339779640708686,-2.764018316566801,177],["hydroxytacrine-maleate-(r,s)_BRD-A98299281-050-09-6::2.5::HTS",-0.2264229749197282,-2.6123097936568813,177],["metacetamol_BRD-K16474819-001-09-6::2.5::HTS",-0.23472336889360323,-2.7792470668015867,177],["oridonin_BRD-K23925186-001-01-0::2.5::HTS",-0.2377230645379092,-2.8410078783916513,177],["mifepristone_BRD-K37270826-001-31-8::2.5::HTS",-0.23876066641526178,-2.876365776190283,178],["CG-400549_BRD-K48888725-001-01-9::2.5::HTS",-0.2543896616299603,-3.151363339252893,174],["procodazole_BRD-K54824716-001-04-0::2.5::HTS",-0.226163160922451,-2.607177643026977,177],["BVT-948_BRD-K68567222-001-01-2::2.5::HTS",-0.23121820228453302,-2.721037911932884,178],["tiquizium_BRD-K77552740-004-01-0::2.5::HTS",-0.2662709617571666,-3.484840543452246,178],["torcitabine_BRD-K91822704-003-07-2::2.5::HTS",-0.22531685218022432,-2.553359598876289,174],["sodium-gluconate_BRD-M54096567-001-01-9::2.5::HTS",-0.22965525706733175,-2.560944389160843,168],["INCB-3284_BRD-K67628093-001-01-9::2.500004949::MTS004",-0.22048551439435388,-2.472668578945692,175]]}}}
{"prism_secondary_logfold":{"corr":{"top":[["omeprazole_BRD-A55962179-001-22-1::0.15625::HTS002",0.3015110067233912,-3.1539860363784658,123],["estramustine-phosphate_BRD-K00077635-304-01-2::2.5::HTS002",0.2513164943718723,-2.7627244354769847,153],["PF-477736_BRD-K03063480-001-06-6::0.000590687::HTS002",0.2410138538221088,-2.570233415763415,153],["AZ-628_BRD-K05804044-001-18-5::0.00061::MTS010::PROS001_PR500",0.2707979400558746,-3.166398603630149,154],["BMS-345541_BRD-K13566078-001-02-3::0.15625::HTS002",0.2393218010037127,-2.52533574948011,152],["4-chlorophenylguanidine_BRD-K39160765-003-02-9::0.00976562::HTS002",0.2573380788376833,-2.927245560720557,156],["CGS-15943_BRD-K49049886-001-08-7::0.0390625::HTS002",0.2480457430705197,-2.670698359333302,151],["ranitidine_BRD-K70505054-003-12-4::0.625::HTS002",0.24293325942499613,-2.0951109073047762,118],["ZM-447439_BRD-K72703948-001-10-1::0.0390625::HTS002",0.24051678797968135,-2.6177463571541346,157],["carbachol_BRD-K75037734-003-13-9::0.00976562::HTS002",0.24820266756826034,-2.1721105577631,118],["IEM1754_BRD-K80060353-303-03-9::2.4619::HTS002",0.25044714808149926,-2.7155547334742782,151],["dichloroacetate_BRD-M97302542-001-04-4::0.00977::MTS010::PROS001_PR500",0.25408376536408195,-2.8315068838466786,154]],"bottom":[["eprinomectin_BRD-A91366704-001-01-9::0.00976562::HTS002",-0.27762613540105496,-2.7453500748656765,124],["eprinomectin_BRD-A91366704-001-01-9::0.0390625::HTS002",-0.30723820499566995,-3.007069941090743,112],["picolinic-acid_BRD-K01029106-001-01-4::0.0393449::HTS002",-0.2881562091418951,-3.5173291320073887,153],["phenylbutazone_BRD-K10843433-001-22-7::10::HTS002",-0.2927273833611898,-3.3690462373537966,141],["rutin_BRD-K20482099-001-09-4::0.00244141::HTS002",-0.26335188832627426,-3.0482323729118677,156],["K-Ras(G12C)-inhibitor-6_BRD-K26305185-001-02-1::0.156491::HTS002",-0.28553890530024245,-3.539107412698403,157],["imiquimod_BRD-K26657438-001-15-2::0.0390625::HTS002",-0.30516245297616,-3.9697096649581356,156],["rociletinib_BRD-K33610132-001-02-9::0.0024414::HTS002",-0.28346051935306266,-3.395751321692489,152],["lacitol_BRD-K40787673-001-02-1::0.15625::HTS002",-0.26632675690829377,-2.6066434875077915,127],["sunitinib_BRD-K42828737-044-09-0::0.625::HTS002",-0.26867148020424053,-3.0524498909095334,150],["SB-431542_BRD-K67298865-001-09-0::2.5::HTS002",-0.2681475000065482,-2.388829072258793,113],["KD-023_BRD-K71164191-001-01-0::0.00244141::HTS002",-0.3081296918085805,-4.0176963371775285,155],["pitavastatin_BRD-K75958547-238-01-0::0.625::HTS002",-0.3207261688017798,-3.171690915162402,109],["inosine_BRD-K79612754-001-19-1::0.000639845::HTS002",-0.2677344703094642,-3.085992682667068,153],["PFK-015_BRD-K95573441-001-01-2::0.0024414::HTS002",-0.261376913770849,-2.456106990453188,123]]},"para":{"top":[["omeprazole_BRD-A55962179-001-22-1::0.15625::HTS002",0.3131348308101484,-3.375611530698371,123],["camylofine-chlorhydrate_BRD-A91733352-300-04-5::0.00061034::HTS002",0.25925448845562865,-2.965494464540732,156],["estramustine-phosphate_BRD-K00077635-304-01-2::2.5::HTS002",0.24826394996860107,-2.704868894412024,153],["AZ-628_BRD-K05804044-001-18-5::0.00061::MTS010::PROS001_PR500",0.2613271472855393,-2.9739919670516226,154],["CGS-15943_BRD-K49049886-001-08-7::0.0390625::HTS002",0.23654594711959884,-2.4617319192494933,151],["OTS167_BRD-K53417444-003-03-1::2.5::HTS002",0.24982278181035206,-2.7799860273617,156],["ruxolitinib_BRD-K53972329-001-07-0::0.0390625::HTS002",0.23189159001222096,-2.2605038011384218,142],["tozasertib_BRD-K59369769-001-20-3::0.00976562::HTS002",0.24383811210910453,-2.680320622663122,157],["cinromide_BRD-K66241279-001-01-8::0.00061034::HTS002",0.24666492519936944,-2.6896999427833777,154],["IEM1754_BRD-K80060353-303-03-9::2.4619::HTS002",0.25145935376354767,-2.734589414919616,151],["dichloroacetate_BRD-M97302542-001-04-4::0.00977::MTS010::PROS001_PR500",0.2906543668265756,-3.592821006750402,154]],"bottom":[["picolinic-acid_BRD-K01029106-001-01-4::0.0393449::HTS002",-0.2870408995800651,-3.4929149754833655,153],["phenylbutazone_BRD-K10843433-001-22-7::10::HTS002",-0.3075790251030547,-3.683730822630414,141],["busulfan_BRD-K23204545-001-16-4::10::HTS002",-0.2594855560489751,-2.409040379658333,122],["K-Ras(G12C)-inhibitor-6_BRD-K26305185-001-02-1::0.156491::HTS002",-0.26479225489274516,-3.094643523156597,157],["resminostat_BRD-K28822270-001-03-7::0.00255::MTS010::PROS002_PR500",-0.24964138909589934,-2.563130307261885,142],["rociletinib_BRD-K33610132-001-02-9::0.0024414::HTS002",-0.292848203187511,-3.600385237165561,152],["LY2183240_BRD-K37865504-001-04-1::0.0024414::HTS002",-0.25942180327799214,-2.9851991771242856,157],["lacitol_BRD-K40787673-001-02-1::0.15625::HTS002",-0.28403158998634925,-2.916653522769292,127],["BIBU-1361_BRD-K49294207-300-03-8::0.0024414::HTS002",-0.2724479709746885,-3.254612018974783,157],["fluticasone-propionate_BRD-K62310379-001-10-5::0.15625::HTS002",-0.27792080159983057,-2.655356509430404,119],["inosine_BRD-K79612754-001-19-1::0.000639845::HTS002",-0.2670618745822172,-3.07234365199525,153]]}}}
{"ccle_proteomics":{"corr":{"top":[],"bottom":[["MTHFSD_Q2M296",-0.27008553541508834,-2.7424367772724616,131]]},"para":{"top":[["GINM1_Q9NU53",0.29306399847385034,-2.744899534089518,111],["FXR1_B4DXZ6",0.27346742239944105,-2.6740722080611676,124]],"bottom":[["MTHFSD_Q2M296",-0.29331699850156706,-3.171583306263967,131]]}}}
{"depmap_copy_number":{"corr":{"top":[["LOC100507006_100507006",0.202892570851344,-3.19601326841375,280],["MIR4433A_100616265",0.20307812044999915,-3.2011024784526114,280],["MIR4433B_102465833",0.20307812044999915,-3.2011024784526114,280],["LGALSL_29094",0.20307812044999915,-3.2011024784526114,280]],"bottom":[]},"para":{"top":[["LOC101927050_101927050",0.17956435017492198,-2.5912399828232244,280]],"bottom":[]}}}
{"depmap_gene_tpm":{"corr":{"top":[["ABCG5_64240",0.2288652545908003,-3.927641152215863,278],["SLC24A2_25769",0.18311192454233086,-2.662619654410065,278],["GSX2_170825",0.18765567248475032,-2.7762709018071003,278],["PABPC1L2B_645974",0.19729617810679917,-3.025997149990411,278],["BPIFB4_149954",0.1936908544599422,-2.9312301656950095,278],["SH2D1B_117157",0.1828098086712005,-2.6551541707215307,278],["NMS_129521",0.1804431135015129,-2.5970636179414193,278]],"bottom":[["MKNK1_8569",-0.22945833550465256,-3.9458397115612005,278],["HIPK3_10114",-0.20791079500415702,-3.3146545374095546,278],["ATG14_22863",-0.2430027029010146,-4.374430123141931,278],["PZP_5858",-0.20281009068699768,-3.1741371084895342,278],["KYAT3_56267",-0.24581047242902912,-4.4664224901734855,278],["NRBF2_29982",-0.217434994853454,-3.5860864301762905,278],["TMBIM4_51643",-0.23437397424660145,-4.098501871266524,278],["SIM2_6493",-0.22650075791930838,-3.85555669737671,278],["EFCAB14_9813",-0.24477579977978245,-4.432396172457798,278],["SMIM1_388588",-0.2103519734715647,-3.3830974683549377,278]]},"para":{"top":[["CPXCR1_53336",0.176760171068176,-2.5080438364503554,278],["LHX8_431707",0.1925935631880294,-2.90271458063117,278],["DEFB119_245932",0.1667756738751804,-2.275075391765719,278],["PAGE3_139793",0.17490172374293514,-2.4637577776389317,278],["SLCO6A1_133482",0.2014390338487497,-3.136937856760228,278]],"bottom":[["MKNK1_8569",-0.2318199044221357,-4.018773972466467,278],["KYAT3_56267",-0.22084713805372486,-3.686228360119766,278],["SIM2_6493",-0.2006836468364889,-3.1165458742043493,278],["SLC20A2_6575",-0.20067156528961358,-3.1162203219219435,278],["OR10Z1_128368",-0.20928093606997905,-3.3529736204500784,278]]}}}
{"avana":{"corr":{"top":[["BEX2_84707",0.2327807132838443,-2.9234524841448613,191],["CA7_766",0.2339589462577282,-3.1864790165563157,209],["EGR2_1959",0.2484825783086706,-3.543852039340407,209],["JMJD1C_221037",0.22265348724913095,-2.8751951463930245,205],["KPNA1_3836",0.21807631495618932,-2.8199698059294187,209],["LUC7L_55692",0.2538528215727727,-3.6814901547425745,209],["MAP1LC3A_84557",0.23516752539816174,-3.21539936507723,209],["MSC_9242",0.21925492205547498,-2.7998611143522143,205],["P2RX1_5023",0.23091463887495378,-3.1142824375333977,209],["RBM3_5935",0.21919532029311256,-2.635538986952682,191],["RHOBTB1_9886",0.23956489924873267,-3.3218717443229906,209],["SLC4A10_57282",0.22558566079134265,-2.99013587300304,209],["ZMYND15_84225",0.22427676804851285,-2.960075220808843,209]],"bottom":[["ATP6V1H_51606",-0.23337756705362242,-3.1726194976995346,209],["CEP128_145508",-0.21495775578324136,-2.7509275271160663,209],["ECI2_10455",-0.24248331141823476,-3.3936198621393103,209],["EXOC3L2_90332",-0.2889795959521838,-4.657583634271295,209],["HIST1H4I_8294",-0.21128541907822476,-2.670838154047709,209],["ITPR2_3709",-0.2098659576026595,-2.640231214197911,209],["KCTD8_386617",-0.23102073209654309,-3.116782825554929,209],["SLC35F1_222553",-0.23764849895693352,-3.2752294887511035,209],["SNX31_169166",-0.21027128031118636,-2.6489510865706145,209]]},"para":{"top":[["ARL11_115761",0.23999714758196133,-3.332443618991544,209],["BEX2_84707",0.2109151344103406,-2.468158601638369,191],["COX4I2_84701",0.21546754894548667,-2.762149066412403,209],["GMIP_51291",0.230760636102613,-3.1106549308866622,209],["HAND1_9421",0.2158518214729807,-2.7706243837105866,209],["IFT27_11020",0.2212136517834774,-2.8903881859564082,209],["MAP1LC3A_84557",0.24846172956673418,-3.5433235256623727,209],["MSC_9242",0.22150393173534508,-2.84958896750849,205],["OTUD6A_139562",0.232344982142705,-2.913958364928403,191],["P2RX1_5023",0.22857736250479802,-3.0594835019703672,209],["RCOR1_23186",0.23417323032121493,-3.138895979042546,205],["RHOBTB1_9886",0.21531459916126994,-2.7587796869865775,209],["SLCO2A1_6578",0.21248098112740907,-2.69676840721754,209],["UBE3A_7337",0.20937268836744788,-2.629640684123317,209]],"bottom":[["ARL6IP1_23204",-0.22272161449520922,-2.9245791827671788,209],["ATP6V1H_51606",-0.27326525609438546,-4.204399565444368,209],["AVL9_23080",-0.21359929675251302,-2.7211486312803554,209],["ECI2_10455",-0.2254787330532813,-2.9876737507090017,209],["EXOC3L2_90332",-0.24474660642885088,-3.4498619175907965,209],["FSD2_123722",-0.2402745814946858,-3.3392390879720053,209],["KCTD8_386617",-0.2547773233323673,-3.7054882355886853,209],["LRRC24_441381",-0.2460246833088621,-3.4818540600430974,209],["MSL1_339287",-0.22678606936069323,-2.9683050089624596,205],["NAV2_89797",-0.22108673191756814,-2.8875206702764196,209],["SLC35F1_222553",-0.2521764477010636,-3.638202862003788,209],["SND1_27044",-0.2162353032128219,-2.733858387239057,205],["SREK1_140890",-0.22558697503316116,-2.9901661418419847,209]]}}}
{"drive":{"corr":{"top":[["ARAP2_116984",0.3370336819893949,-3.721238674931832,118],["MSH6_2956",0.3598168531330235,-4.201776923234887,118],["AQP4_361",0.352674288206446,-4.138706009350552,121],["KCND1_3750",0.377000062770817,-4.589034362400687,118],["KCP_375616",0.363507852825505,-4.2506391947070705,117],["MAGEB1_4112",0.3358802503599459,-3.7255361794419057,119],["MTNR1A_4543",0.3785706473734255,-4.590225189641368,117],["MTRR_4552",0.3399876556934961,-3.923086848250688,123],["OGG1_4968",0.4022603372319101,-5.1993184984104435,118],["RXFP3_51289",0.32615670640342226,-3.4784288058497927,117],["PLK1_5347",0.34670363843772256,-4.068029902211851,123],["IFT80_57560",0.34567521478323193,-3.8991989703721255,118],["WNT7A_7476",0.3535876495658731,-4.0360358889233465,117],["CBX2_84733",0.3968436365385205,-5.064205608818406,118]],"bottom":[["KBTBD3_143879",-0.30358426478778805,-3.0798388068831546,118],["ATF6_22926",-0.2766519160220843,-2.615420949877868,118],["GABPA_2551",-0.28128874684136346,-2.6922044153005174,118],["OR2L2_26246",-0.3491118693427756,-3.97142164797486,118],["HOXD4_3233",-0.31031299424984293,-3.2029684360311226,118],["FIGN_55137",-0.32637036118728485,-3.5087022267981904,118]]},"para":{"top":[["TBC1D21_161514",0.32799888977349917,-3.540663721830667,118],["RND1_27289",0.3340935692809379,-3.6618660798170493,118],["KCND1_3750",0.33396636068816943,-3.659310569550716,118],["MAGEB1_4112",0.36379141823056205,-4.321929975196957,119],["MAP3K11_4296",0.3174261783654135,-3.4597380416364563,123],["MTNR1A_4543",0.3486796383131114,-3.9324510783078015,117],["OGG1_4968",0.3952698507767933,-5.025391292686107,118],["IFT80_57560",0.3526028237734553,-4.04564073293175,118],["PYROXD1_79912",0.3328956955068849,-3.63784553380397,118],["NR4A3_8013",0.30821314966040386,-3.1642313977726224,118],["CBX2_84733",0.4194311195196507,-5.643553036169437,118],["ATAD1_84896",0.3130747430775186,-3.2543497509804027,118]],"bottom":[["ATF6_22926",-0.3047942516462211,-3.101766807682579,118],["GABPA_2551",-0.31988941499622664,-3.3832610864570496,118],["OR2L2_26246",-0.31050917032481423,-3.206601931883482,118],["FIGN_55137",-0.2859923635551672,-2.7714255175763225,118],["ZNF350_59348",-0.26848076371801965,-2.4832445314641873,118],["MAFK_7975",-0.2839216488298987,-2.7363832041509832,118],["PIAS1_8554",-0.2582175190936459,-2.306240402110819,117],["MAP3K14_9020",-0.3444879456006595,-3.84532067416636,117]]}}}
{"achilles":{"corr":{"top":[],"bottom":[["TEFM_79736",-0.3411210489616495,-8.470420422394975,285],["ARMC7_79637",-0.26966490716739955,-5.412402481979698,285],["LATS1_9113",-0.26617153972177704,-5.283270597368739,285],["PENK_5179",-0.24333403702147416,-4.482949538461436,285],["ZNF85_7639",-0.2530892316120153,-4.815598037366836,285],["RBSN_64145",-0.2509691368248595,-4.74214576911467,285],["CEP78_84131",-0.2507776817900772,-4.73554446473836,285],["KCNK9_51305",-0.24920130645988853,-4.681391339140041,285]]},"para":{"top":[],"bottom":[["EIPR1_7260",-0.2598594682427005,-5.054506821878904,285],["TEFM_79736",-0.29154827488296725,-6.263082227928096,285],["ARMC7_79637",-0.27825721269115977,-5.7377584806347866,285],["PENK_5179",-0.2384818861057073,-4.322524620543225,285],["SIX6_4990",-0.2355357157901182,-4.2267303981897,285],["CHEK1_1111",-0.24148579407284593,-4.421450353926524,285],["RPS4Y2_140032",-0.24709056092443507,-4.6094375783707955,285],["C20orf24_55969",-0.2503932279136669,-4.722304508543332,285],["SPINK6_404203",-0.2343453730530548,-4.188370655173325,285],["KCNK9_51305",-0.23874309656307205,-4.33107652636148,285]]}}}
{"ccle_rrbs_tss1kb":{"corr":{"top":[["SLC12A4_16_67997968_67998968",0.2555086837611703,-2.8592199779494503,154],["GTDC1_2_145089838_145090838",0.24958064501564586,-3.6759439416755773,216],["CSNK2B_6_31632656_31633656",0.2442651230104503,-3.5805312808678136,219],["RGL2_6_33267165_33268165",0.25662685203206,-3.6120136563692498,200],["ARRB1_11_75062875_75063875",0.2197876542505751,-2.9630343624692306,218],["RAB11FIP4_17_29717641_29718641",0.2429273201489407,-3.545775115632665,219],["WNT16_7_120968089_120969089",0.2186681238035635,-2.844722670240792,210],["CUTALP_9_123604352_123605352",0.22985840229797247,-3.1909560315910133,217],["EXOC7_17_74099652_74100652",0.2396649998289103,-3.4206137034047845,216]],"bottom":[["ARMCX3_23_100877350_100878350",-0.2242832171787832,-2.4719213953338848,169],["MEA1_6_42984624_42985624",-0.25717754420491473,-2.859664819167832,152]]},"para":{"top":[["NGFR_17_47571654_47572654",0.22847477176159078,-3.1448951968329797,216],["RBM27_5_145582162_145583162",0.22966510913518742,-3.198910315438958,218],["HNRNPF_10_43904332_43905332",0.2319686230854406,-3.242480953328778,217],["RGL2_6_33267165_33268165",0.24467602672465627,-3.31892436651869,200],["ITGB5_3_124606531_124607531",0.23155771492659466,-3.1680928723498156,212],["SFRP5_10_99531756_99532756",0.23206094632813581,-3.2060040842060435,214],["SUZ12_17_30263028_30264028",0.22620191488735672,-3.102771451094733,217],["ERI1_8_8859635_8860635",0.22574872808004062,-3.055199525276464,214],["ARRB1_11_75062875_75063875",0.23876293137782026,-3.425180418047518,218],["WDR12_2_203776949_203777949",0.242140758301046,-3.413239759585305,211],["LRP4_11_46940173_46941173",0.23084763311459428,-3.151113205491636,212],["FAR2_12_29300935_29301935",0.2480594234627969,-3.6213952385036667,215],["RAB11FIP4_17_29717641_29718641",0.2514914781467625,-3.7716202267789156,219],["EXOC7_17_74099652_74100652",0.22646884218991442,-3.0968444965196698,216]],"bottom":[["TRPC4AP_20_33680618_33681618",-0.18710601303927427,-2.2615782102884503,219],["SLC12A5-AS1_20_44650712_44651712",-0.19574729723432852,-2.3837273646430517,213],["FDPS_1_155277538_155278538",-0.2142389459433971,-2.4898665892778857,187]]}}}
{"ccle_gene_tpm":{"corr":{"top":[["AC104782.3_ENSG00000232084.1",0.21507184468660206,-3.3966874355845147,267],["RP11-690J15.1_ENSG00000258312.1",0.23743167883451835,-4.048546732781143,267],["IPO7P1_ENSG00000232951.1",0.22150061091910664,-3.577553037445943,267],["RP5-1177M21.1_ENSG00000234104.1",0.21706213086808893,-3.4521232050268797,267],["PABPC1L2B_ENSG00000184388.4",0.21294331008050782,-3.337952588972473,267],["MAPKAPK5P1_ENSG00000224498.1",0.22038258664838808,-3.5457226344796413,267],["ABCG5_ENSG00000138075.7",0.22654511165206942,-3.7231536017419393,267],["RP3-453P22.2_ENSG00000237728.1",0.2330577596027795,-3.915965422740515,267],["RP11-477G18.1_ENSG00000240459.2",0.2339536008469097,-3.942917011601607,267],["RP11-552E10.1_ENSG00000259588.1",0.2556001410693812,-4.626293764223289,267],["RP11-58O9.1_ENSG00000240125.1",0.2720179464801221,-5.1867503679708395,267],["RP5-1010E17.1_ENSG00000235166.3",0.23504241745717666,-3.975814869205855,267],["RP11-291J9.2_ENSG00000229080.1",0.2231305073495121,-3.624241614011063,267],["RP11-404L6.2_ENSG00000253787.1",0.2163938777081856,-3.433454546373659,267]],"bottom":[["TMBIM4_ENSG00000155957.12",-0.22722939882334836,-3.7431553359850778,267],["ATG14_ENSG00000126775.8",-0.2505666240289422,-4.46182110212885,267],["PFN1P6_ENSG00000237533.1",-0.2402878671577556,-4.136473155138941,267],["RP11-454L9.2_ENSG00000259318.1",-0.23277316074253301,-3.907425023948811,267],["EFCAB14_ENSG00000159658.6",-0.2656045932441689,-4.96340381686196,267],["CD164_ENSG00000135535.10",-0.22085315616306667,-3.5591004892225615,267],["CPT1A_ENSG00000110090.8",-0.23739831327156874,-4.047525909798297,267],["SIM2_ENSG00000159263.11",-0.22463890367684888,-3.6677518389981296,267],["HIPK3_ENSG00000110422.7",-0.21593472003299394,-3.4206599347120634,267],["CCBL2_ENSG00000137944.12",-0.2433921852577723,-4.2332554959716555,267],["NRBF2_ENSG00000148572.10",-0.2191643165348389,-3.511218943139297,267],["MKNK1_ENSG00000079277.15",-0.246276034847861,-4.3243065818892585,267]]},"para":{"top":[["PPP1R2P1_ENSG00000234515.1",0.23034203610762918,-3.8348984608199292,267],["RP11-423O2.7_ENSG00000231182.2",0.2320654584790731,-3.8862334726018517,267],["RP11-477G18.1_ENSG00000240459.2",0.22709819567216022,-3.7393156024660206,267],["RP11-119H12.4_ENSG00000234841.3",0.23314287032114248,-3.918521514916632,267],["AC011247.3_ENSG00000235586.1",0.20754520251246023,-3.191539313837317,267],["AC006028.11_ENSG00000231357.1",0.20606998141744665,-3.1521579725755235,267],["RP11-798K3.3_ENSG00000259289.1",0.215965942570072,-3.421529120973174,267],["RP11-460C6.1_ENSG00000230097.2",0.20903840226422774,-3.231675900398642,267],["SLC25A5P8_ENSG00000225347.1",0.22543636611563503,-3.6908725191658323,267],["SNRPGP3_ENSG00000239919.1",0.21576501760713424,-3.4159378348767135,267],["RP11-517O13.3_ENSG00000258658.1",0.22987957155135097,-3.821188558057484,267],["RP11-58O9.1_ENSG00000240125.1",0.28736600801381357,-5.744695144826865,267],["RP11-90H3.2_ENSG00000237897.2",0.21662329166560862,-3.439857218532801,267],["RP11-245P10.6_ENSG00000270104.1",0.21642171646599143,-3.43423113922818,267],["WI2-80269A6.1_ENSG00000270052.1",0.2066633997453859,-3.167966944245544,267]],"bottom":[["SLC20A2_ENSG00000168575.5",-0.2020246614205776,-3.0455488291243316,267],["PFN1P6_ENSG00000237533.1",-0.19591102886780123,-2.888248840478765,267],["RP11-454L9.2_ENSG00000259318.1",-0.2001869179615495,-2.997783526576026,267],["SLC25A6P3_ENSG00000232846.1",-0.1992034324161653,-2.972391742297729,267],["EFCAB14_ENSG00000159658.6",-0.22507097047596078,-3.680268563690624,267],["None_ENSG00000257977.1",-0.2041775754853979,-3.1020345212938336,267],["CCBL2_ENSG00000137944.12",-0.21692999354306228,-3.4484272791792394,267],["MKNK1_ENSG00000079277.15",-0.24329772278233805,-4.230291697505267,267]]}}}
{"ccle_rrbs_tss_clusters":{"corr":{"top":[["ANKH_3",0.24890131689960618,-3.643322638799079,215],["FABP5_2",0.2486660115432774,-3.6224158673385465,214],["KCNMA1-AS2_2",0.28675786758089233,-2.905722510988705,124],["OR2AE1_3",0.2815638747825125,-2.774880809642945,122],["NFATC1_3",0.30369673369807293,-3.6893918903513594,145],["RPL32_2",0.2739485297310425,-2.2729701067875814,102],["TEX35_3",0.2876424734659927,-2.9621189731193933,126],["LOC101928386_2",0.24955960305839192,-2.7597257029108873,155],["FBXW11_3",0.2556169045259551,-2.5576414497934223,135],["SIX3-AS1_2",0.2557337386243515,-3.886452888354296,219],["MND1_1",0.25363823494600274,-3.072779657011405,170],["SLC12A4_6",0.27786614076759864,-2.9576551320251463,135],["RFX1_2",0.24862417086048044,-3.636095934573457,215]],"bottom":[["PEF1_2",-0.24475354905119115,-2.988770070708765,177],["UFL1_2",-0.25791023853271694,-2.7765508070472813,146],["LINC00934_3",-0.22691493129135976,-2.153912212217996,140],["CD177_2",-0.26104128881195404,-3.100609510833564,162],["PBX1_2",-0.304057319951958,-5.030247552512194,205],["DAB2_2",-0.245610368791302,-3.225356025841733,192]]},"para":{"top":[["KCTD14_1",0.25137523916396076,-3.1013095940209836,175],["STX17-AS1_3",0.2561507272427156,-2.8557802628978233,153],["FAM118A_1",0.2656528971312609,-4.129115933436581,217],["DGCR5_2",0.28386473561423325,-4.449468660666127,206],["TRAF3_2",0.2962295382209684,-2.8837748686505433,115],["KCNMA1-AS2_2",0.31023914987351486,-3.343106590982732,124],["OR2AE1_3",0.2724890018848238,-2.6208815128572485,122],["SLC8B1_2",0.2682137016868021,-3.634104950677665,184],["PILRA_1",0.29133371742879394,-2.883906561189041,119],["HGFAC_2",0.24756664815210946,-3.196986968243376,187]],"bottom":[["AKT2_3",-0.2736967081310151,-2.511590283600125,115],["CD177_2",-0.2223814308232631,-2.351468793234151,162],["UNC13B_1",-0.2853923662311241,-2.861404320736026,123],["ZNF440_2",-0.23259743721461842,-1.7569899551703116,104]]}}}
{"ccle_rrbs_cgi_clusters":{"corr":{"top":[["11_68604682_68609330-3",0.26344270498649613,-4.050627184243305,216],["3_12880534_12885073-2",0.2739485297310425,-2.2729701067875814,102],["19_1454077_1458347-1",0.2487199098858848,-3.7271723202573983,221],["9_37023492_37027795-1",0.2525285465932595,-3.43343845664388,195],["1_205036784_205041153-2",0.2489838600988275,-2.414230336388685,133],["5_14869391_14873611-3",0.24890131689960618,-3.643322638799079,215],["6_99270394_99275014-3",0.24603498435600096,-3.0307981962894934,178],["2_144692666_144697180-2",0.24955960305839192,-2.7597257029108873,155],["10_81442163_81446474-3",0.3349858058829017,-3.569637439060365,114],["4_154263607_154268394-1",0.25363823494600274,-3.072779657011405,170],["6_169975218_169979894-3",0.25319670344775497,-2.892348269185775,159],["9_100746375_100749768-3",0.2505617012516642,-3.0077636540711676,170]],"bottom":[["6_96967511_96972100-2",-0.25791023853271694,-2.7765508070472813,146],["6_43547295_43551650-1",-0.24019453100311625,-2.026798963431405,116],["5_39422892_39427320-2",-0.245610368791302,-3.225356025841733,192],["1_32108210_32112961-2",-0.24475354905119115,-2.988770070708765,177],["2_233272080_233276525-3",-0.2785490096343848,-2.646679097542394,118],["3_45428016_45432237-2",-0.27518831048933934,-3.129281672284858,147]]},"para":{"top":[["19_3609794_3612726-2",0.25221066781559254,-2.6243139967656095,143],["9_37023492_37027795-1",0.2747120927518364,-3.9927202123232766,195],["1_11777566_11782016-3",0.2626771576947817,-4.111534591337155,221],["10_81442163_81446474-3",0.266247348620164,-2.3775058035129497,114],["1_11777566_11782016-2",0.2600799663416932,-3.9255608724405655,214],["9_102666916_102671473-3",0.2561507272427156,-2.8557802628978233,153],["22_18955995_18960721-2",0.28386473561423325,-4.449468660666127,206],["10_22726127_22728764-2",0.295963197974979,-2.900763637460438,116],["22_45703511_45706063-1",0.2823660914410636,-4.577443599612914,215]],"bottom":[["4_77659449_77662267-3",-0.2605032422807105,-3.6126257467078804,194],["9_35159874_35164409-1",-0.2853923662311241,-2.861404320736026,123],["14_102480211_102484413-2",-0.2884036708619702,-2.586545664953745,107],["23_51150286_51152911-3",-0.26075199662538,-3.7002208026051093,199],["2_233272080_233276525-3",-0.27130181870651165,-2.5284291052149497,118],["19_11923086_11927546-2",-0.23259743721461842,-1.7569899551703116,104]]}}}
