{"depmap_hotspot":{"corr":{"top":[["ACCS",0.14422440678846865,-2.8784887264788432,16.0,477.0],["ASPHD1",0.1232456857464245,-2.2115610311515725,17.0,476.0],["ATP4B",0.1231641720141223,-2.2091486801951796,10.0,483.0],["CHIA",0.13628974584473122,-2.6153711886546533,23.0,470.0],["CHRNA7",0.1259371247808144,-2.291983234423936,12.0,481.0],["DHH",0.10707073686424301,-1.7594704306935454,10.0,483.0],["DHODH",0.11008495212898442,-1.8396948302013758,12.0,481.0],["EGFL6",0.13423476546919239,-2.549395336958472,10.0,483.0],["HIAT1",0.13407622159958188,-2.5443421035239076,21.0,472.0],["ICOS",0.12117615943678424,-2.1507383389612214,10.0,483.0],["LIMK2",0.12621730926858227,-2.300441473527214,14.0,479.0],["MC1R",0.11263307642999612,-1.9089426275917334,12.0,481.0],["PRSS53",0.12110489614014444,-2.148659628354133,11.0,482.0],["REXO2",0.11354579384306118,-1.934066216200852,9.0,484.0],["RPS11",0.14699171661525798,-2.973403251513663,8.0,485.0],["RUNDC1",0.14094560915133936,-2.768143937790824,16.0,477.0]],"bottom":[["ACBD3",-0.1435957275741108,-2.8571538588399563,14.0,479.0],["ADAM33",-0.14361886919107505,-2.8579377000441752,22.0,471.0],["ALDH3B1",-0.1314328846150257,-2.4608677681822755,11.0,482.0],["ASTN2",-0.13780815912160652,-2.6646915692589688,63.0,430.0],["ATP7A",-0.16109622119494774,-3.4827944637529065,28.0,465.0],["C2orf70",-0.13353274723847394,-2.5270600937157757,8.0,485.0],["CCDC11",-0.15216163521041395,-3.1551227195068625,8.0,485.0],["DBN1",-0.13227288108686971,-2.4872355625729172,30.0,463.0],["DECR1",-0.12585141993404855,-2.2893992154919243,10.0,483.0],["FGL1",-0.13811642610734876,-2.6747639522630138,8.0,485.0],["GLB1L",-0.15491103773355744,-3.254109519750757,15.0,478.0],["HEMGN",-0.1416754185453949,-2.792507234363982,12.0,481.0],["HIST1H2BK",-0.12708408457539788,-2.3267108218557575,8.0,485.0],["HSDL2",-0.13410799850006005,-2.545354498846766,8.0,485.0],["HSPA9",-0.12691231920790544,-2.3214927509980896,10.0,483.0],["MTG1",-0.14364372654492547,-2.858779782912112,8.0,485.0],["NICN1",-0.14722311622342882,-2.981414107502703,8.0,485.0],["NRD1",-0.1374954442870563,-2.6544943539534427,27.0,466.0],["OR2A5",-0.13112519724813193,-2.4512462599002323,16.0,477.0],["PHKA2",-0.1650846691873416,-3.6346936949872135,31.0,462.0],["PRPF39",-0.12930393499844264,-2.3946992852766935,11.0,482.0],["RAB11FIP1",-0.18806438871209252,-4.578739418731879,27.0,466.0],["RAB13",-0.15365693932436988,-3.208755362956574,8.0,485.0],["RRP1",-0.14723860713090553,-2.981950799039583,13.0,480.0],["SELRC1",-0.13647796386456107,-2.621458409204819,8.0,485.0],["SMARCD1",-0.12962557781987114,-2.4046354394452094,8.0,485.0],["TMEM209",-0.13490073520057874,-2.570679291516868,11.0,482.0],["TPI1",-0.14285514734434998,-2.832129518659778,10.0,483.0],["UGT1A5",-0.13904346228307624,-2.705175111369833,8.0,485.0],["USP29",-0.14628270132793608,-2.948929125271936,34.0,459.0],["ZBTB42",-0.1364573936864746,-2.620792779136524,9.0,484.0],["ZNF783",-0.14930727413094133,-3.054083272010055,19.0,474.0]]},"para":{"top":[["ACCS",0.15692164379407533,-3.6005069569465573,16.0,477.0],["ACTR1A",0.10550534919434847,-2.0147238783705914,9.0,484.0],["ARRDC1",0.11465826949191656,-2.2590881620981356,13.0,480.0],["ASPHD1",0.12783001293750174,-2.639296477257516,17.0,476.0],["ATP4B",0.13022280863132163,-2.7116512086099087,10.0,483.0],["CC2D1B",0.11932846896937734,-2.3900284032291714,15.0,478.0],["CER1",0.11588645291565254,-2.2930386512769485,12.0,481.0],["CHIA",0.14367962091842593,-3.1422285515609674,23.0,470.0],["CHRNA7",0.1358636866185902,-2.8876631061800424,12.0,481.0],["CLDN23",0.12239703554761612,-2.47824743891471,13.0,480.0],["DHH",0.1287567909875684,-2.666974331674098,10.0,483.0],["EGFL6",0.1327504252584824,-2.789678984501955,10.0,483.0],["FARSA",0.11274188835130121,-2.2065767085181043,12.0,481.0],["FGF20",0.1081237288376564,-2.0828175254842716,8.0,485.0],["HIAT1",0.13709611280536663,-2.9272805374844317,21.0,472.0],["HMCN2",0.15540796608508956,-3.546567828006701,24.0,469.0],["ICOS",0.11854521981383896,-2.3675275558185715,10.0,483.0],["LDHD",0.11618535398484836,-2.3013016501658385,11.0,482.0],["LIMK2",0.13192530599604055,-2.7643051947387525,14.0,479.0],["MC1R",0.10612905404685655,-2.0310245830019173,12.0,481.0],["MYL6B",0.11334305510625073,-2.2229571883818653,12.0,481.0],["PRSS53",0.11985233359566583,-2.404780043488147,11.0,482.0],["RPS11",0.153471396018395,-3.477083640115567,8.0,485.0],["RUNDC1",0.15233705450844628,-3.437786891699556,16.0,477.0]],"bottom":[["ALKBH4",-0.11359657678140242,-2.2296950383831007,9.0,484.0],["C2orf70",-0.12651096702288123,-2.599181352928453,8.0,485.0],["DECR1",-0.11798914415586362,-2.3518089534033932,10.0,483.0],["DFNB59",-0.10353577405802614,-1.9643130590248172,9.0,484.0],["EIF2B5",-0.11819863274238139,-2.3578452050962118,12.0,481.0],["FGL1",-0.13085396499914598,-2.7308367202973503,8.0,485.0],["GLB1L",-0.1574173196348462,-3.618307303407633,15.0,478.0],["HEMGN",-0.13498505828443325,-2.859852903622763,12.0,481.0],["HIST1H2BK",-0.11754295821475012,-2.3390758260384716,8.0,485.0],["HSD3B7",-0.10811370545596453,-2.082637372019129,9.0,484.0],["HSDL2",-0.1076161056975735,-2.0694967726693005,8.0,485.0],["HSPA9",-0.12516757537700016,-2.5593843918174115,10.0,483.0],["MITD1",-0.13224490193305022,-2.7739722034857257,10.0,483.0],["MOK",-0.11869687681146861,-2.3718249534057914,10.0,483.0],["MTG1",-0.11212831138719925,-2.189655628374214,8.0,485.0],["NICN1",-0.12476248731815127,-2.547228193815606,8.0,485.0],["PRPF4",-0.12795649392096356,-2.6429478403302538,13.0,480.0],["RAB13",-0.14788754147748304,-3.2833458402520628,8.0,485.0],["RIMS4",-0.11661960157033993,-2.3134183759629052,11.0,482.0],["SELRC1",-0.12228077418885712,-2.4745215745310705,8.0,485.0],["SMARCD1",-0.11427160908977145,-2.248117373258841,8.0,485.0],["TMEM115",-0.10891218186258171,-2.103690475613636,9.0,484.0],["TMEM209",-0.12202357152312357,-2.467292029478826,11.0,482.0],["TPI1",-0.1362890885365074,-2.901045842883071,10.0,483.0],["ZNF844",-0.12688907791328088,-2.6108528877834214,13.0,480.0]]}}}
{"depmap_damaging":{"corr":{"top":[["ATP10A",0.11573361076936858,-1.9949769412413396,11.0,482.0],["DLX6",0.13764812651747904,-2.6594705401411316,11.0,482.0],["MAN2A1",0.11275078601347571,-1.9121732355137304,9.0,484.0],["PAX6",0.12810182693282599,-2.3577545542355267,8.0,485.0]],"bottom":[["C8orf58",-0.1324424758792615,-2.492577113843225,8.0,485.0],["DBN1",-0.11555682126173614,-1.990018818040348,16.0,477.0],["JAG2",-0.13352657466704432,-2.5268641671469614,9.0,484.0],["MTIF2",-0.11693704948690592,-2.0288970166066362,10.0,483.0]]},"para":{"top":[["ATP10A",0.1288267836958244,-2.6691675726596333,11.0,482.0],["DLX6",0.14696868282302664,-3.252340925964284,11.0,482.0],["MAN2A1",0.12307183013992613,-2.4976582046116915,9.0,484.0],["PAX6",0.1461954643438735,-3.225871551414891,8.0,485.0]],"bottom":[["ADCY5",-0.10400634114587291,-1.976208258906132,8.0,485.0],["C8orf58",-0.1193478404906004,-2.3901554130425673,8.0,485.0],["CNTN3",-0.1302682114379063,-2.713173617161561,12.0,481.0],["CSMD2",-0.12095617172851908,-2.4367097183541775,17.0,476.0],["DBN1",-0.11734939943390876,-2.3340904659560247,16.0,477.0],["JAG2",-0.1177486540958117,-2.344954294261209,9.0,484.0]]}}}
{"ccle_rrbs_enhancer_clusters":{"corr":{"top":[],"bottom":[["15-37345604-37348780-0_enh",-0.3501121774734316,-3.691062431991741,108]]},"para":{"top":[],"bottom":[["15-37345604-37348780-0_enh",-0.3884356715595805,-4.486039377830307,108]]}}}
{"prism_secondary_logfold":{"corr":{"top":[["ETP-46464_BRD-K24556407-001-02-3::0.15625::HTS002",0.24440049232661482,-4.12367316262687,257],["temoporfin_BRD-K63712959-001-01-8::0.0390625::HTS002",0.22260893538206175,-3.5504050924464203,262]],"bottom":[["TG-100572_BRD-K18424115-003-01-3::0.0390625::HTS002",-0.24006143194033833,-3.8426673050035323,246],["2-methoxyestradiol_BRD-K44408410-001-17-6::0.00976562::HTS002",-0.2557684965671227,-4.554626423710903,262],["resiquimod_BRD-K76210423-001-01-6::0.0390625::HTS002",-0.21691026144722955,-3.4142937109286513,264],["skepinone-l_BRD-K83607951-001-02-2::2.5::HTS002",-0.27793175698666284,-5.17901514684825,255]]},"para":{"top":[["ETP-46464_BRD-K24556407-001-02-3::0.15625::HTS002",0.25052150852626837,-4.312030113597464,257]],"bottom":[["SB-228357_BRD-K15424032-001-03-6::0.00976562::HTS002",-0.21316680726034135,-3.2899568976876274,262],["TG-100572_BRD-K18424115-003-01-3::0.0390625::HTS002",-0.25287780215685557,-4.219295695058692,246],["2-methoxyestradiol_BRD-K44408410-001-17-6::0.00976562::HTS002",-0.24070934012773748,-4.081001825435073,262],["resiquimod_BRD-K76210423-001-01-6::0.0390625::HTS002",-0.22428065163851532,-3.621568154797161,264],["skepinone-l_BRD-K83607951-001-02-2::2.5::HTS002",-0.26044670275962123,-4.595667341947051,255]]}}}
{"ccle_proteomics":{"corr":{"top":[["ZNF777_Q9ULD5-2",0.28590056821693005,-2.9705934548032507,128]],"bottom":[["ATP6V1C2_Q8NEY4",-0.29395647910434786,-2.8661332128519583,116]]},"para":{"top":[["HIST1H1E_P10412",0.23360669184689936,-3.608585406342423,242],["ZNF777_Q9ULD5-2",0.31162778055187274,-3.4650666899510383,128]],"bottom":[["ATP6V1C2_Q8NEY4",-0.3199483334268269,-3.3341477762716583,116]]}}}
{"depmap_gene_tpm":{"corr":{"top":[],"bottom":[["OR10H5_284433",-0.1810120738444288,-4.261139998333625,491]]},"para":{"top":[],"bottom":[]}}}
{"avana":{"corr":{"top":[["SPRR4_163778",0.2597202431014559,-6.124051891114717,353]],"bottom":[["ARHGAP9_64333",-0.19901771834686838,-3.776125025236992,353],["PTH2_113091",-0.21417008586421427,-4.303187218514184,353]]},"para":{"top":[["SPRR4_163778",0.23370489030456582,-5.0397734823004505,353]],"bottom":[]}}}
{"drive":{"corr":{"top":[],"bottom":[]},"para":{"top":[],"bottom":[["IRX6_79190",-0.27561941615311664,-4.4152838741347935,217]]}}}
{"achilles":{"corr":{"top":[["FBXL22_283807",0.30070189363492505,-6.64076914985234,285]],"bottom":[["LINC01558_26238",-0.2342068901023507,-4.183920757358917,285],["LRRC37A11P_342666",-0.23029975787702056,-4.059470458800593,285]]},"para":{"top":[["ARHGDIG_398",0.27591935544205576,-9.478323974773213,501],["CRTC1_23373",0.3402799098165451,-8.429558677963218,285],["FBXL22_283807",0.2858720230412887,-6.035419845171936,285]],"bottom":[["LINC01558_26238",-0.21610633951709596,-3.6250424443736398,285],["LRRC37A11P_342666",-0.21525453052744414,-3.599841947690402,285],["SRGN_5552",-0.24105411734843096,-7.329128140351462,501]]}}}
{"ccle_rrbs_tss1kb":{"corr":{"top":[],"bottom":[["C7orf25_7_42951442_42952442",-0.20000550102127573,-4.025585846865294,376],["MRPL37_1_54664839_54665839",-0.23863737233579582,-5.4355245566612425,368],["RWDD1_6_116891529_116892529",-0.20336024575671985,-4.0981369289710905,371],["COL4A3BP_5_74807454_74808454",-0.19749379355575908,-3.9362527845041853,376],["SLC2A1-AS1_1_43423719_43424719",-0.22220106224692926,-4.875126830105925,377],["FRYL_4_48782316_48783316",-0.2834363390832379,-7.6884096537069695,378]]},"para":{"top":[],"bottom":[["VPS26A_10_70882908_70883908",-0.1952887206363838,-3.8676969818319384,377],["C7orf25_7_42951442_42952442",-0.1897198251692682,-3.666720349883483,376],["ZNF271P_18_32869235_32870235",-0.21099608532999362,-4.398298320941829,373]]}}}
{"ccle_gene_tpm":{"corr":{"top":[["RP11-373E16.1_ENSG00000213174.3",0.18540039922045162,-4.343165081270004,478]],"bottom":[]},"para":{"top":[],"bottom":[["RN7SL176P_ENSG00000266610.1",-0.17875527505675318,-4.0701830067135525,478]]}}}
{"ccle_rrbs_tss_clusters":{"corr":{"top":[],"bottom":[["NDUFS2_4",-0.21272520175104645,-4.484477115563755,375],["ARL2_1",-0.21122906971273434,-4.500959072528673,382],["KCTD7_2",-0.2151713351275319,-4.664377100204065,383],["TTC7A_3",-0.20468410801607798,-4.234203381899349,380],["C18orf21",-0.21996422596376827,-4.842919625577896,382]]},"para":{"top":[["EMBP1_2",0.23007469190123503,-4.935067267707354,356]],"bottom":[["CHMP2B_2",-0.31488227301390087,-3.0443189940986053,108],["LINC01354_2",-0.21913680744564787,-4.540526539387478,358]]}}}
{"ccle_rrbs_cgi_clusters":{"corr":{"top":[],"bottom":[["1_25069352_25071969-3",-0.23008215469725715,-5.256590514192648,382],["18_33550151_33554952-1",-0.21996422596376827,-4.842919625577896,382],["19_3004273_3008721-1",-0.23592957434296244,-4.658573914444593,317]]},"para":{"top":[["1_121258857_121263525-2",0.23007469190123503,-4.935067267707354,356]],"bottom":[["19_3004273_3008721-1",-0.21405575684051897,-3.9112274971851075,317],["18_9476452_9480920-3",-0.2509571462841027,-4.8306535948952805,291],["3_87273872_87278842-2",-0.31488227301390087,-3.0443189940986053,108]]}}}
