{"depmap_hotspot":{"corr":{"top":[["ADARB2",0.17051867322569483,-2.3609867060832324,25.0,253.0],["AKAP17A",0.15559404007092642,-2.028481797738187,17.0,261.0],["C10orf112",0.16814084845745728,-2.3062126725911343,26.0,252.0],["CCDC142",0.14541702654039532,-1.8169538799974199,11.0,267.0],["CHST2",0.15761195184810867,-2.0718778217417975,9.0,269.0],["CNGA2",0.1892756210029981,-2.8174146588584352,16.0,262.0],["COL9A2",0.1491341895932704,-1.892802714363658,16.0,262.0],["DCDC1",0.16020050624418855,-2.1282562253152215,53.0,225.0],["DNM1",0.14749992265187545,-1.859256215766228,8.0,270.0],["DNTT",0.1605392187548024,-2.135692585250414,16.0,262.0],["EBF1",0.13747788754677998,-1.6603404211075645,19.0,259.0],["FAM129A",0.16187622927716278,-2.165180551923377,15.0,263.0],["FAM184B",0.15487691931040637,-2.01317633187431,11.0,267.0],["FAM21A",0.13966189943586485,-1.7026965052636602,20.0,258.0],["FBRSL1",0.22243264236545404,-3.7332855348790845,34.0,244.0],["FIBP",0.14753367372931386,-1.8599458566386409,10.0,268.0],["FRRS1",0.1775129564469877,-2.5261032584321437,12.0,266.0],["FTCD",0.1487276005090098,-1.8844274146215654,16.0,262.0],["GCC1",0.1693443269441738,-2.3338493608572155,8.0,270.0],["GLI1",0.14029711981358534,-1.715119108628482,23.0,255.0],["GMIP",0.16800105923568356,-2.3030139439211457,17.0,261.0],["HAPLN3",0.1429989159945474,-1.7684783054572506,9.0,269.0],["ITGA10",0.17378186039151816,-2.437276500015733,21.0,257.0],["ITGBL1",0.1490766921470113,-1.8916171504834338,16.0,262.0],["KBTBD8",0.1740928209154833,-2.4446143384311925,13.0,265.0],["KIAA1919",0.16235686511712744,-2.1758334355810858,9.0,269.0],["MEX3B",0.15492598514427577,-2.0142215968457626,11.0,267.0],["MLLT6",0.13926045102656573,-1.6948696694016439,15.0,263.0],["MSH6",0.15384799892960588,-1.9913226385389913,25.0,253.0],["MSX1",0.14441482405432293,-1.7967802346688033,9.0,269.0],["NAP1L3",0.1525450655557654,-1.9638288489511557,11.0,267.0],["NPY4R",0.1777268482258184,-2.5312472822926684,16.0,262.0],["OR2F2",0.15691038967503798,-2.056735515509754,17.0,261.0],["OR6C74",0.1620866536553382,-2.1698410162587924,9.0,269.0],["OTUD4",0.15122873942127948,-1.936256050501941,16.0,262.0],["PFKFB2",0.18803776244557535,-2.785945629724765,9.0,269.0],["POU5F2",0.14210819724251983,-1.750793522232905,13.0,265.0],["PRLHR",0.16458410055046188,-2.2255606979451596,8.0,270.0],["RBBP8",0.14755596993011877,-1.8604015114444605,12.0,266.0],["RSF1",0.1672735908066771,-2.2864058697120284,26.0,252.0],["SENP1",0.1765443915471122,-2.502880117272194,11.0,267.0],["SHMT2",0.13883709314093115,-1.6866358266199035,15.0,263.0],["SHROOM3",0.1554602162370608,-2.025620972245558,35.0,243.0],["SMAD9",0.14456614247292493,-1.7998186676669206,9.0,269.0],["TAF6L",0.1392844760135478,-1.6953375489663571,14.0,264.0],["TCTN2",0.1983108507006933,-3.052966170708792,14.0,264.0],["TDRD1",0.18513951034363985,-2.713016617660372,29.0,249.0],["TMEM133",0.143823701225032,-1.7849361973085942,12.0,266.0],["ZBTB44",0.1870109588907763,-2.7599878665865667,9.0,269.0],["ZNF101",0.18678323325190704,-2.7542488117701205,8.0,270.0],["ZSCAN23",0.14890033432002409,-1.887983175551798,9.0,269.0]],"bottom":[["ABCG1",-0.15151550395851862,-1.9422454338554003,15.0,263.0],["ACSS3",-0.16640749290888374,-2.266716445780764,33.0,245.0],["ADCY6",-0.16616368680147367,-2.2611902483227477,15.0,263.0],["AIM1L",-0.1811158984409607,-2.6135064705292543,8.0,270.0],["ALDH3A1",-0.15853486055708732,-2.09188691650202,8.0,270.0],["ANKRD12",-0.1625273710405373,-2.1796192191906902,34.0,244.0],["AOX1",-0.206566678062939,-3.2772998006798693,31.0,247.0],["ARNTL",-0.15515851399925493,-2.0191791153675385,14.0,264.0],["ASCC2",-0.17095441049091592,-2.371098618039373,17.0,261.0],["BCMO1",-0.20694182285191007,-3.2877020211433634,11.0,267.0],["BCR",-0.19778774872754362,-3.0390462367675823,22.0,256.0],["BTAF1",-0.1559829024215517,-2.036806788311778,22.0,256.0],["C3orf67",-0.18104462321546777,-2.6117618496586785,19.0,259.0],["CAPRIN1",-0.18944572556740572,-2.8217541195357643,13.0,265.0],["CARD8",-0.16666341921590355,-2.2725250960937142,9.0,269.0],["CCDC155",-0.15323805817612784,-1.9784270125963785,10.0,268.0],["CCNL2",-0.171713898409474,-2.388778941365583,10.0,268.0],["CDH17",-0.16367213544212766,-2.2051271786135715,17.0,261.0],["CDHR2",-0.16498804974100595,-2.2346436247444066,30.0,248.0],["DIAPH1",-0.1761388083034664,-2.493189789220183,13.0,265.0],["EXD2",-0.19486532969998233,-2.961920418608943,17.0,261.0],["FAM110B",-0.17044489341995295,-2.3592768281176495,15.0,263.0],["FCGBP",-0.17955358928744924,-2.5754096689648533,70.0,208.0],["GABRA5",-0.18114962304086182,-2.6143321751108717,16.0,262.0],["HIC2",-0.16486549368261272,-2.2318858332464004,11.0,267.0],["INPP4A",-0.1613201935043042,-2.1528910746237955,14.0,264.0],["INPP4B",-0.15375296953235723,-1.9893105919507312,13.0,265.0],["KANK1",-0.1534181892274749,-1.9822308402310589,18.0,260.0],["KIAA2013",-0.17999078086408068,-2.5860401205838555,13.0,265.0],["KIF15",-0.18809981604636727,-2.7875185884821496,33.0,245.0],["KPRP",-0.15261659349799445,-1.9653329872174117,20.0,258.0],["LCP2",-0.19326827152287293,-2.9202303669655296,20.0,258.0],["LDLR",-0.16249634911716446,-2.178930172179759,15.0,263.0],["LLGL1",-0.18915764458496873,-2.81440715088194,14.0,264.0],["MS4A1",-0.1636284997039775,-2.204151985411156,14.0,264.0],["NAGS",-0.16055740188032153,-2.1360921802305444,12.0,266.0],["NEO1",-0.24304731797663204,-4.375883356475025,17.0,261.0],["NPRL2",-0.15685276132661696,-2.0554942864487233,8.0,270.0],["OR14I1",-0.22077729857841072,-3.684163220822094,12.0,266.0],["OR1C1",-0.2087336644808744,-3.3376387052864565,24.0,254.0],["PHF12",-0.21491886040608194,-3.513224651313823,12.0,266.0],["PIK3C3",-0.1548558240891545,-2.0127270214571613,17.0,261.0],["PLK2",-0.16685969099721984,-2.2769851608695033,14.0,264.0],["POLR3B",-0.16429055040561194,-2.218972470202983,16.0,262.0],["RBBP5",-0.16724430121553444,-2.285738532045257,8.0,270.0],["RETSAT",-0.17912902204903142,-2.565108794895676,15.0,263.0],["RRM2B",-0.1799830561020725,-2.585852085412922,8.0,270.0],["SCP2",-0.15701725232279393,-2.0590382240710348,8.0,270.0],["SLC35G2",-0.15226484741609173,-1.9579420509382393,15.0,263.0],["SRPK1",-0.1890546476777332,-2.8117829368272087,15.0,263.0],["TAS1R2",-0.18012206983021775,-2.5892370687339827,22.0,256.0],["TMC2",-0.16131389393083082,-2.152752054137086,29.0,249.0],["TTC22",-0.18634149196782412,-2.743134714264075,17.0,261.0],["UNC119",-0.18415397562252442,-2.6884565506300415,8.0,270.0],["UNC93A",-0.15335202913645676,-1.9808332916332592,13.0,265.0],["WFIKKN1",-0.2001374694580847,-3.1018471216798273,13.0,265.0],["ZFYVE26",-0.15987894870562097,-2.12120920111719,43.0,235.0],["ZNF157",-0.16691473095143863,-2.2782367213374255,12.0,266.0],["ZNF273",-0.17914378523114066,-2.565466606302855,10.0,268.0],["ZNF845",-0.18465830348381818,-2.701009550470464,12.0,266.0]]},"para":{"top":[["AKAP17A",0.1732269968273669,-2.703588998708741,17.0,261.0],["CCDC142",0.15267411458233177,-2.2551551469134017,11.0,267.0],["CHST2",0.16727257062882636,-2.5682514947496458,9.0,269.0],["CLUL1",0.13781152778139782,-1.9597988171613194,8.0,270.0],["CNGA2",0.2036218292471227,-3.452387765012159,16.0,262.0],["DNM1",0.15778615583531638,-2.361804935376819,8.0,270.0],["DNTT",0.18947607834952013,-3.090960674228559,16.0,262.0],["FAM184B",0.17141348256194028,-2.661689705061925,11.0,267.0],["FIBP",0.16704803730839773,-2.563393337864551,10.0,268.0],["FRRS1",0.1823993860337648,-2.918260150043565,12.0,266.0],["GCC1",0.15805427164812066,-2.3674985761829164,8.0,270.0],["HAPLN3",0.14726570752560564,-2.1447830918429314,9.0,269.0],["HOXD9",0.1519508590118029,-2.240000895672692,9.0,269.0],["KBTBD8",0.16697575573315188,-2.5621014204833514,13.0,265.0],["KRT74",0.15585533740228752,-2.3213243803034724,10.0,268.0],["LRRC1",0.14612607608301711,-2.1219852132787227,9.0,269.0],["LY75",0.14526439555564558,-2.104966352678822,10.0,268.0],["MEX3B",0.14934011659822966,-2.186882017569331,11.0,267.0],["NPY4R",0.18302869528734753,-2.9336971392544267,16.0,262.0],["OR2F2",0.1739752775912,-2.720782901414173,17.0,261.0],["OR6C74",0.15929515053070673,-2.394111757360799,9.0,269.0],["OTUD4",0.17176983232803117,-2.6702239798245557,16.0,262.0],["PAM",0.1434591213772407,-2.069311329118958,10.0,268.0],["PARP6",0.15121731842161162,-2.2247817496810014,8.0,270.0],["PFKFB2",0.15245736187517558,-2.250438832626825,9.0,269.0],["PRLHR",0.19304338521907868,-3.1790284304072114,8.0,270.0],["RAB3GAP2",0.14545634230866733,-2.1089784770008198,12.0,266.0],["RBBP8",0.166850224346485,-2.559218744935259,12.0,266.0],["RBMS3",0.14953661877979751,-2.190967411274406,12.0,266.0],["SENP1",0.17164341345739562,-2.666919436883376,11.0,267.0],["SMAD9",0.15423012189697993,-2.287193463011129,9.0,269.0],["SYT4",0.15152446010505521,-2.2314749861057703,11.0,267.0],["TCTN2",0.18815943653356013,-3.0583124740250573,14.0,264.0],["ZBTB44",0.19247108808161703,-3.1648397037271767,9.0,269.0],["ZIC3",0.16376244755752162,-2.4911189688673754,12.0,266.0],["ZNF101",0.2057788863272818,-3.5084805483515593,8.0,270.0],["ZSCAN23",0.15169760758011658,-2.2347924847221807,9.0,269.0]],"bottom":[["ALDH3A1",-0.15845644536732711,-2.3760538956175314,8.0,270.0],["BCMO1",-0.18268009643925098,-2.924877479500104,11.0,267.0],["C3orf67",-0.1920208179665238,-3.154501869646194,19.0,259.0],["CAPRIN1",-0.1914966709107476,-3.1409593292794393,13.0,265.0],["CARD8",-0.16879207921894435,-2.6022202113589534,9.0,269.0],["CCNL2",-0.1441812310486026,-2.083530686589644,10.0,268.0],["CD209",-0.14220067889187882,-2.0445441814186425,9.0,269.0],["CHIA",-0.1584691159192987,-2.376830182010949,12.0,266.0],["DIAPH1",-0.1650650350699626,-2.5198091535189495,13.0,265.0],["DMRT2",-0.15336224492404588,-2.2690025333612325,8.0,270.0],["DUSP16",-0.15705885352122403,-2.3466897871685353,10.0,268.0],["FAM110B",-0.17180812259107475,-2.6710284968624527,15.0,263.0],["FANCC",-0.1518837342097967,-2.238748787810914,10.0,268.0],["GPR108",-0.16207600884018483,-2.4538549298742116,8.0,270.0],["HAP1",-0.15380936000009526,-2.278568962561322,10.0,268.0],["INPP4B",-0.1592267219324398,-2.3930862341537824,13.0,265.0],["KIAA2013",-0.15890826848857495,-2.386282369047061,13.0,265.0],["KLHL31",-0.14042791887007447,-2.010121002072593,9.0,269.0],["LLGL1",-0.1885693699464873,-3.0684083456725895,14.0,264.0],["LMBR1",-0.17898077601741247,-2.837009380761687,12.0,266.0],["NEO1",-0.2088638682049191,-3.5921360998494447,17.0,261.0],["OR14I1",-0.2093071551947313,-3.603638610097776,12.0,266.0],["PHF12",-0.21559298651512102,-3.775541223434738,12.0,266.0],["PLK2",-0.1602839644545142,-2.415833679258888,14.0,264.0],["POLR3B",-0.17850590418403242,-2.826156816451465,16.0,262.0],["RBBP5",-0.17105788856912807,-2.6531801350509054,8.0,270.0],["RETSAT",-0.20632846131029764,-3.5240391358499887,15.0,263.0],["RRM2B",-0.1643549932490212,-2.503583536175887,8.0,270.0],["SCP2",-0.16784049881547675,-2.580751593788128,8.0,270.0],["SLC1A7",-0.16509038293691908,-2.520173375493795,11.0,267.0],["SNTB1",-0.1280185987174439,-1.7786928906543582,9.0,269.0],["SRP72",-0.14786587076155822,-2.156696565213169,8.0,270.0],["SRPK1",-0.1820253492809597,-2.909571688779845,15.0,263.0],["TTC22",-0.17556537421434534,-2.7575270798185336,17.0,261.0],["UNC119",-0.17950353667246277,-2.8487873052804806,8.0,270.0],["WFIKKN1",-0.19064746172710798,-3.119786898513415,13.0,265.0],["ZNF157",-0.15813828269190972,-2.3697898366784664,12.0,266.0],["ZNF169",-0.16005490482576568,-2.410393377347786,9.0,269.0],["ZNF845",-0.19971299160045222,-3.3498951767593685,12.0,266.0]]}}}
{"depmap_damaging":{"corr":{"top":[["BAZ2B",0.14197030175741945,-1.7480639051587261,22.0,256.0],["CENPF",0.16780416850168864,-2.298512607353704,21.0,257.0],["DCDC1",0.14413903792520957,-1.7912493821275444,12.0,266.0]],"bottom":[["KIF15",-0.1719266460196738,-2.3937441630171152,15.0,263.0]]},"para":{"top":[["BAZ2B",0.15873616112945294,-2.383103261295538,22.0,256.0],["CENPF",0.16987287949384974,-2.627481043367039,21.0,257.0],["DCDC1",0.15240384008383495,-2.249671802536323,12.0,266.0],["LAMA1",0.15872456118013134,-2.3817673496116085,8.0,270.0]],"bottom":[]}}}
{"ccle_rrbs_enhancer_clusters":{"corr":{"top":[["5-77145580-77148090-2_enh",0.2569665163687225,-3.7784422521298726,210],["5-77148090-77150599-1_enh",0.29592149658681466,-3.817082700950898,159],["6-44519780-44523377-2_enh",0.21177893597765324,-2.5508834704532743,197],["15-74868847-74871821-1_enh",0.3334230763052906,-3.8661058769864116,126]],"bottom":[]},"para":{"top":[["1-10923202-10927728-2_enh",0.20780765963157075,-2.7112552537320456,220],["1-87793192-87795964-0_enh",0.2118404903865928,-2.813022463966439,221],["2-172953879-172956465-2_enh",0.2371162633087015,-3.410479337137315,220],["5-77145580-77148090-2_enh",0.2799446299325868,-4.412373444932593,210],["5-77148090-77150599-1_enh",0.30414212121940454,-4.012499140996814,159],["6-44519780-44523377-2_enh",0.23895984182825455,-3.142502894950243,197],["23-25017911-25020756-2_enh",0.21982009047427886,-2.87064986239224,210],["23-25019701-25022532-0_enh",0.2171261125556169,-2.9125511334477703,219]],"bottom":[]}}}
{"ccle_mirna":{"corr":{"top":[["hsa-miR-601_miR00555.1",0.20711690621931653,-2.943906236796861,244]],"bottom":[]},"para":{"top":[["hsa-miR-548o_miR00498.1",0.20175683524394783,-2.8139166574398007,244]],"bottom":[]}}}
{"prism_primary_logfold":{"corr":{"top":[["CHIR-99021_BRD-K16189898-003-03-3::2.5::HTS",0.2787402855262123,-3.7829913440564216,178],["liothyronine-(isomer)_BRD-K46428823-001-02-5::2.5::HTS",0.250508639151954,-3.128056735019479,178],["ACPC_BRD-K66465025-001-05-1::2.5::HTS",0.20168521141197215,-2.158573522511704,178],["AMG-319_BRD-K21077415-001-01-5::2.656085278::MTS004",0.22620487345549,-2.5830611232499163,175]],"bottom":[["MDL-72832_BRD-A17453586-003-02-3::2.5::HTS",-0.2865010527978399,-3.99552781491104,179],["doxylamine_BRD-A44008656-036-25-8::2.5::HTS",-0.2561661500483721,-3.253570973744422,178],["paroxypropione_BRD-K07441213-001-18-9::2.5::HTS",-0.23649967595775137,-2.815727178939024,177],["IDO5L_BRD-K22356203-001-01-8::2.5::HTS",-0.2498609584457446,-3.128942480129861,179],["nifekalant_BRD-K32311154-001-01-0::2.5::HTS",-0.2515176118384536,-3.165503418208301,179],["fexinidazole_BRD-K37069697-001-01-3::2.5::HTS",-0.2853169500179568,-3.9460358182001225,178],["roxithromycin_BRD-K38684403-001-05-4::2.5::HTS",-0.2642250823524772,-3.454080977828851,179],["tirasemtiv_BRD-K51087630-001-01-6::2.5::HTS",-0.28292031891269265,-3.751438663313129,171],["2-methyl-5-hydroxytryptamine_BRD-K64137799-003-02-5::2.5::HTS",-0.2531345522837916,-3.201422129143918,179],["oseltamivir-phosphate_BRD-K76011241-001-01-8::2.5::HTS",-0.2415035231671929,-2.9199361921959914,177],["aminosalicylate_BRD-K80267133-001-17-7::2.5::HTS",-0.27948389941345175,-3.6697200410255606,171],["adrenalone_BRD-K82343404-003-02-4::2.5::HTS",-0.2620713676274426,-3.321400215933781,174],["3-bromopyruvate_BRD-K92980438-001-03-3::2.5::HTS",-0.30512272248957323,-4.238121986634399,168],["trepibutone_BRD-K37543758-001-01-3::2.588829083::MTS004",-0.2527072509554879,-3.130237358537047,175],["zilpaterol_BRD-K42816473-001-01-0::2.38330586::MTS004",-0.2576214633439308,-3.2382935148415695,175]]},"para":{"top":[["CHIR-99021_BRD-K16189898-003-03-3::2.5::HTS",0.23841238565602701,-2.8690863164989424,178],["liothyronine-(isomer)_BRD-K46428823-001-02-5::2.5::HTS",0.23471090558706548,-2.7923630089639677,178],["homatropine_BRD-A74975734-004-09-9::2.5::MTS004",0.20759798364892587,-2.233650645315343,175],["AMG-319_BRD-K21077415-001-01-5::2.656085278::MTS004",0.23377485593898192,-2.7333223947727365,175]],"bottom":[["MDL-72832_BRD-A17453586-003-02-3::2.5::HTS",-0.26495033511833066,-3.470989370048071,179],["adenosine-triphosphate_BRD-A31990649-304-02-3::2.5::HTS",-0.2559309476039769,-3.090053352291406,168],["doxylamine_BRD-A44008656-036-25-8::2.5::HTS",-0.23860946352102555,-2.873204186662974,178],["paroxypropione_BRD-K07441213-001-18-9::2.5::HTS",-0.25762600725203977,-3.270416050921194,177],["FGIN-1-27_BRD-K09778810-001-10-6::2.5::HTS",-0.22930288808638916,-2.6951474474127997,179],["levomepromazine_BRD-K35559145-050-08-5::2.5::HTS",-0.23105222274269116,-2.7306444407850226,179],["fexinidazole_BRD-K37069697-001-01-3::2.5::HTS",-0.2410937042849163,-2.925397796776193,178],["roxithromycin_BRD-K38684403-001-05-4::2.5::HTS",-0.26901736819285654,-3.5666945383916326,179],["tasisulam_BRD-K42495768-001-01-7::2.5::HTS",-0.25235557190641833,-3.107194861952403,174],["valsartan_BRD-K45158365-001-11-4::2.5::HTS",-0.22757844213725448,-2.597350868634981,174],["tiapride_BRD-K57432881-003-21-8::2.5::HTS",-0.2302561994107073,-2.714459513764979,179],["2-methyl-5-hydroxytryptamine_BRD-K64137799-003-02-5::2.5::HTS",-0.2753978890149301,-3.719897510847863,179],["amtolmetin-guacil_BRD-K70924353-001-01-2::2.5::HTS",-0.23388573682353442,-2.7621373667399336,177],["aminosalicylate_BRD-K80267133-001-17-7::2.5::HTS",-0.23300403497986708,-2.66496264673432,171],["adrenalone_BRD-K82343404-003-02-4::2.5::HTS",-0.23267357462824648,-2.6980001037340595,174],["3-bromopyruvate_BRD-K92980438-001-03-3::2.5::HTS",-0.29591162695960754,-4.006816925014584,168]]}}}
{"prism_secondary_logfold":{"corr":{"top":[["clobutinol_BRD-A43809092-003-02-1::0.00061034::HTS002",0.25617462069665325,-2.3892350651697964,124],["AZ-628_BRD-K05804044-001-18-5::0.0391::MTS010::PROS005_PR500",0.2381978835762336,-2.5189854026770004,153],["pelitinib_BRD-K08799216-001-05-3::10::MTS010::PROS002_PR500",0.28104070162500244,-2.707531646278642,119],["bitopertin_BRD-K13756951-001-01-4::0.0390625::HTS002",0.2593277887498073,-2.9015300619260542,152],["carfilzomib_BRD-K15179879-001-03-2::0.625::MTS010::PROS003_PR500",0.2862107594682609,-3.295976060141773,144],["odanacatib_BRD-K22822991-001-02-3::0.15625::MTS010::PROS001_PR500",0.2544539682903621,-2.8386920811706067,154],["SU3327_BRD-K32730239-001-01-0::0.00061034::HTS002",0.3006973098401083,-3.886240522269881,157],["streptozotocin_BRD-K34411947-001-12-5::10::HTS002",0.2944845230114413,-3.1093317231871382,127],["osimertinib_BRD-K42805893-001-04-9::0.00977::MTS010::PROS003_PR500",0.25798396379873945,-2.8428908629129563,150],["eprosartan_BRD-K67977190-066-02-3::0.0390625::HTS002",0.275337026259811,-3.2978412949777876,156],["LY2090314_BRD-K78055238-001-01-8::0.15625::HTS002",0.2721923736051616,-3.267140068051868,158]],"bottom":[["palomid-529_BRD-A50998626-001-02-1::2.5::HTS002",-0.2850077523704986,-3.546929103930345,158],["oxymatrine_BRD-A57833392-001-01-7::0.625::HTS002",-0.2872761181020863,-3.5978629172776273,158],["oxyphencyclimine_BRD-A58193911-003-18-7::0.625::HTS002",-0.28335300633366256,-3.432343202723634,154],["PSI-7976_BRD-K05674516-001-01-7::0.0024414::HTS002",-0.32326010844067987,-4.4141785360440355,156],["gidazepam_BRD-K22588750-001-07-0::10::MTS006",-0.30192787032303126,-3.893252812508366,156],["UNBS-5162_BRD-K30933884-001-01-0::0.00061034::HTS002",-0.2779307902318874,-3.390759772497593,158],["GSK1070916_BRD-K36740062-001-06-6::0.00061034::HTS002",-0.2877771036470634,-3.46890614973326,151],["LY2183240_BRD-K37865504-001-04-1::2.5::HTS002",-0.28069161204489934,-3.393998722316878,155],["dexamethasone-acetate_BRD-K47635719-001-21-1::10::HTS002",-0.2842477164581778,-2.4216703832619646,102],["rigosertib_BRD-K55187425-236-05-2::0.0390625::HTS002",-0.3074478865249148,-3.473882122214608,132],["GSK1292263_BRD-K60341624-001-02-2::2.5::HTS002",-0.2810783932279274,-3.3832294766613025,154],["AVN-944_BRD-K62196610-001-01-6::0.00977::MTS010::PROS004_PR500",-0.3966464023223066,-6.490556535408934,155],["BIBX-1382_BRD-K70914287-300-02-8::0.0024414::HTS002",-0.2879328620436132,-3.532498426560837,154],["indibulin_BRD-K74057757-001-01-9::0.15625::HTS002",-0.34944985922012534,-5.050173702630772,154],["radezolid_BRD-K84683831-001-01-0::10::HTS002",-0.30451926508622496,-3.5273483036224014,137],["GW-843682X_BRD-K90382497-001-10-7::0.00061034::HTS002",-0.3168645127532848,-4.253835138323291,156]]},"para":{"top":[["clobutinol_BRD-A43809092-003-02-1::0.00061034::HTS002",0.2631573978215953,-2.5020317694071244,124],["pelitinib_BRD-K08799216-001-05-3::10::MTS010::PROS002_PR500",0.27412520430000314,-2.5926781049608483,119],["bitopertin_BRD-K13756951-001-01-4::0.0390625::HTS002",0.2775623041519649,-3.2707728765936968,152],["carfilzomib_BRD-K15179879-001-03-2::0.625::MTS010::PROS003_PR500",0.3180054377583238,-3.9884395620190842,144],["belinostat_BRD-K17743125-001-08-4::10::MTS010::PROS003_PR500",0.26103591210654087,-2.901857762224665,150],["odanacatib_BRD-K22822991-001-02-3::0.15625::MTS010::PROS001_PR500",0.2818108933553779,-3.3990003328841194,154],["CYT-997_BRD-K23363278-001-02-1::0.000610352::HTS002",0.26190933409205946,-3.018953618988366,156],["SU3327_BRD-K32730239-001-01-0::0.00061034::HTS002",0.2638546809964612,-3.075372925319481,157],["dienogest_BRD-K50853363-001-02-3::0.625::HTS002",0.2229276994388637,-2.3001213166047276,157],["novobiocin_BRD-K85307935-236-09-5::0.00061034::HTS002",0.22725286315851273,-2.3379919436343175,154]],"bottom":[["palomid-529_BRD-A50998626-001-02-1::2.5::HTS002",-0.2853863495997874,-3.555400357704643,158],["oxyphencyclimine_BRD-A58193911-003-18-7::0.625::HTS002",-0.3040471050564991,-3.898566348010283,154],["PSI-7976_BRD-K05674516-001-01-7::0.0024414::HTS002",-0.3058174590945427,-3.9853009841472082,156],["tipiracil_BRD-K11973162-003-01-8::0.0390625::HTS002",-0.29598504715071616,-3.733917141528684,155],["salvinorin-a_BRD-K19284129-001-02-6::0.00976562::HTS002",-0.29194042550023613,-3.72453009549171,159],["phlorizin_BRD-K24601397-001-01-1::0.0024414::HTS002",-0.2980616650970678,-3.803031234086459,156],["apatinib_BRD-K25244359-066-03-4::0.167591::HTS002",-0.2802325979395584,-3.441101821922611,158],["dexamethasone-acetate_BRD-K47635719-001-21-1::10::HTS002",-0.33639527618406584,-3.262425018832341,102],["chlorhexidine_BRD-K52256627-300-06-6::0.15625::HTS002",-0.2875190634381091,-3.363082890712604,146],["rigosertib_BRD-K55187425-236-05-2::0.0390625::HTS002",-0.33343638429427375,-4.029184881545933,132],["naproxen_BRD-K59197931-001-04-5::10::HTS002",-0.32077234693255546,-3.601680665294967,126],["GSK1292263_BRD-K60341624-001-02-2::2.5::HTS002",-0.3207544844982659,-4.301201056638201,154],["AVN-944_BRD-K62196610-001-01-6::0.00977::MTS010::PROS004_PR500",-0.4051368193776063,-6.768600046165187,155],["indibulin_BRD-K74057757-001-01-9::0.15625::HTS002",-0.3953943223367829,-6.411954656764478,154],["radezolid_BRD-K84683831-001-01-0::10::HTS002",-0.3090963823097886,-3.623949456914396,137],["GW-843682X_BRD-K90382497-001-10-7::0.00061034::HTS002",-0.297992829218696,-3.801436320419412,156]]}}}
{"ccle_proteomics":{"corr":{"top":[["FAM21C_Q9Y4E1-4",0.2369981012454826,-2.234266411872187,134],["TRAF3IP1_Q8TDR0",0.29960988574873465,-3.2064867923234015,127],["BCKDHB_P21953",0.28169048408483927,-3.087916132443135,138]],"bottom":[["SYNJ1_J3KQV8",-0.2813359765439597,-2.965061423231224,132],["PPAP2B_O14495",-0.2392240884840389,-2.241472672737645,132],["CSDE1_O75534",-0.2834480535845215,-2.7481970965332216,119],["VPS37C_A5D8V6",-0.27918830272347944,-2.695690232377131,120]]},"para":{"top":[],"bottom":[["PPAP2B_O14495",-0.2633881634738487,-2.6424699345402987,132],["VPS37C_A5D8V6",-0.2594681876286016,-2.375417339914709,120]]}}}
{"depmap_copy_number":{"corr":{"top":[],"bottom":[["OR7E12P_10821",-0.23129548851204965,-4.027802328654889,280],["MRGPRE_116534",-0.21701719287642718,-3.5962750448982757,280],["MRGPRG-AS1_283303",-0.21701719287642718,-3.5962750448982757,280],["MRGPRG_386746",-0.21701719287642718,-3.5962750448982757,280],["TSSC2_650368",-0.23129548851204965,-4.027802328654889,280],["UPP1_7378",-0.1973591894129326,-3.046288289793764,280],["ZNF195_7748",-0.23129548851204965,-4.027802328654889,280]]},"para":{"top":[],"bottom":[["MIR5691_100847015",-0.21427635271193843,-3.5165552530407895,280],["OR7E12P_10821",-0.23937211560468455,-4.284135728362689,280],["MRGPRE_116534",-0.2256156535531314,-3.852859588311006,280],["SWAP70_23075",-0.22040838138800545,-3.6962909578845684,280],["MRGPRG-AS1_283303",-0.2256156535531314,-3.852859588311006,280],["MRGPRG_386746",-0.2256156535531314,-3.852859588311006,280],["TMEM41B_440026",-0.21427635271193843,-3.5165552530407895,280],["TMEM9B_56674",-0.21412055402842725,-3.512053553103445,280],["ASCL3_56676",-0.21412055402842725,-3.512053553103445,280],["LOC644656_644656",-0.22040838138800545,-3.6962909578845684,280],["TSSC2_650368",-0.23937211560468455,-4.284135728362689,280],["SNORA23_677808",-0.21983383926209613,-3.6792383071968766,280],["WEE1_7465",-0.22040838138800545,-3.6962909578845684,280],["ZNF143_7702",-0.22040838138800545,-3.6962909578845684,280],["ZNF195_7748",-0.23937211560468455,-4.284135728362689,280],["OR52N1_79473",-0.22142528171077044,-3.7265810120646985,280]]}}}
{"depmap_gene_tpm":{"corr":{"top":[["TNMD_64102",0.20854334512174535,-3.3323149452096454,278],["NR2C1_7181",0.2229042203816982,-3.7473462342630484,278],["RGPD2_729857",0.2132384358292003,-3.465026137443917,278],["RGPD1_400966",0.21038960743766713,-3.3841586706751507,278],["FAM236B_100132304",0.19974497429155857,-3.091307846363251,278]],"bottom":[["ZP4_57829",-0.21187820559334636,-3.4262821896389366,278],["VCY_9084",-0.197546440911403,-3.032636704707744,278],["TNFRSF11B_4982",-0.25112638735069986,-4.643587182223728,278],["OR14A2_388761",-0.19488954416770576,-2.962555007125462,278],["CT45A7_101060211",-0.2277628115674364,-3.8939385432022386,278]]},"para":{"top":[["MAT2B_27430",0.23899736758960002,-4.245081127281211,278],["MOB1A_55233",0.22172844943228506,-3.7123441539596147,278],["PRAMEF1_65121",0.186789002663711,-2.754394130169626,278]],"bottom":[["TLR10_81793",-0.18259481811321782,-2.649848520241979,278],["OR5H8_79289",-0.22132148159035495,-3.700271718466385,278],["OR9A4_130075",-0.18854944229713966,-2.7989303165078687,278]]}}}
{"avana":{"corr":{"top":[["ACSM5_54988",0.2351616797555757,-3.2152591288458106,209],["ADCY4_196883",0.2436860760362404,-3.423442724468579,209],["DEFB125_245938",0.2157548684585327,-2.7684846806339456,209],["DUOX1_53905",0.22054916623323428,-2.875392953577576,209],["FZD10_11211",0.2204510791051539,-2.8731831303400477,209],["GIMAP8_155038",0.2425994060371002,-3.396491998934737,209],["HBS1L_10767",0.2316633900835209,-3.13195299714796,209],["IL25_64806",0.24138945150604735,-3.3666258545096497,209],["KXD1_79036",0.28063090019089654,-4.413427634210905,209],["LRRC31_79782",0.22610036910994982,-3.0020034403890743,209],["NLN_57486",0.22272960616669632,-2.9247609802530388,209],["P2RY14_9934",0.25016337627682517,-3.5866082441271185,209],["RBP2_5948",0.21226608741395855,-2.648424312490196,205],["TYRO3_7301",0.21400210110889337,-2.729959834891253,209],["VIPAS39_63894",0.2737444775388887,-4.217819263206651,209]],"bottom":[["CCNJ_54619",-0.23101857920818547,-3.1167320754193373,209],["EIF3A_8661",-0.23869965168432555,-3.3007667399704075,209],["GAREM2_150946",-0.22963153492367513,-3.084131654998165,209],["KRT20_54474",-0.2290491615603223,-3.070501166091115,209],["LARP1B_55132",-0.23669503134748374,-3.252162369888373,209],["OR52E8_390079",-0.2200565629176177,-2.8643045496884105,209],["PBX2_5089",-0.21992694120216488,-2.861390751749163,209],["RPL3L_6123",-0.22774553712126017,-3.04011240581011,209],["RPL41_6171",-0.21989329065250626,-2.8606345826409934,209],["RPS2_6187",-0.26264252395295107,-3.913287675356637,209],["RTL3_203430",-0.22951709147112612,-2.852762631492298,191],["SPRYD7_57213",-0.2562053836317992,-3.7427335734571114,209],["TRIM71_131405",-0.23032328494132934,-3.1003661523165835,209],["VAMP3_9341",-0.22510374203579525,-2.9790481527952015,209]]},"para":{"top":[["CASP5_838",0.2051354094884746,-2.5396295094365975,209],["CETN3_1070",0.2592264094585513,-3.8222315237348123,209],["DEFB125_245938",0.23654604444851748,-3.2485662668079147,209],["GIMAP8_155038",0.23540936651679426,-3.221204126963812,209],["GTF3C5_9328",0.2251647765015932,-2.931578559540536,205],["ITGA2_3673",0.21508956533473722,-2.7538264865913393,209],["KRTAP21-2_337978",0.21762315270560637,-2.8098781987324823,209],["LRRC31_79782",0.2309067708524439,-3.114097050149685,209],["MLN_4295",0.25202347926044666,-3.6342675072854895,209],["PCDHB11_56125",0.2105170798460038,-2.654246794014211,209],["TSSK4_283629",0.2247229891866016,-2.970304279871134,209],["VIPAS39_63894",0.27688126636961446,-4.306276373305084,209],["ZNF710_374655",0.2497808925126333,-3.576852866649188,209]],"bottom":[["AVPI1_60370",-0.23726113864793838,-3.265847021091131,209],["CCNJ_54619",-0.21754825624230617,-2.8082122408210495,209],["CDKL4_344387",-0.2157934690096934,-2.769336465144632,209],["CDKN2D_1032",-0.21201164233978254,-2.6865725374389173,209],["KDM5B_10765",-0.22419191337054728,-2.9096633240224916,205],["KRT20_54474",-0.24633326235197564,-3.489603446607157,209],["MAPK8_5599",-0.22368179120948833,-2.8982087242314685,205],["RPL3L_6123",-0.25937001627688494,-3.8260344747319786,209],["RPL41_6171",-0.22896674152843777,-3.068574855123401,209],["RPS2_6187",-0.2496648044783869,-3.573895004507941,209],["SPRYD7_57213",-0.21878865393290622,-2.835873728537823,209],["TBC1D5_9779",-0.23797055042517054,-3.2830416587896067,209],["TMEM50A_23585",-0.22296961350034117,-2.9302236928269063,209],["ZNF649_65251",-0.21674032146974273,-2.79027581345343,209]]}}}
{"drive":{"corr":{"top":[["DENND3_22898",0.28526217515581404,-2.759038770678937,118],["PMS2CL_441194",0.30527586670953066,-3.224778873030558,123],["BRDT_676",0.28613087692367417,-2.773778908456636,118],["XPA_7507",0.37589077215046945,-4.737139581770162,123],["GALR3_8484",0.3902902248889858,-4.90387498193522,118]],"bottom":[["GPC6_10082",-0.35809146960956756,-4.321398115881575,123],["TBC1D3G_101060321",-0.3012291964343759,-3.059710060625484,119],["LOC105370978&LOC107987005_105370978&107987005",-0.3069739749955984,-3.1183647297274435,117],["IGF2BP1_10642",-0.29648745187383646,-2.931479019542758,117],["RAD54L2_23132",-0.305830470934496,-3.120619929249022,118],["ALPI_248",-0.29364683675459546,-2.9032488324697723,118],["BIN1_274",-0.3018589659110221,-3.0263448137160864,117],["HK2_3099",-0.3280847113751905,-3.5159507648726285,117],["LOC440434_440434",-0.3181246922353446,-3.3495861330817696,118],["PGR_5241",-0.3954302907632861,-5.029339178211646,118],["ING5_84289",-0.2991194067962479,-2.999728383372806,118],["CCKBR_887",-0.35423938595648863,-4.049918912653238,117]]},"para":{"top":[["OR2Y1_134083",0.33212695451223345,-3.5954247948184097,117],["ZNF131_7690",0.29057190491558854,-2.8290766295090095,117],["GALR3_8484",0.39560728515760535,-5.033696792591531,118]],"bottom":[["GPC6_10082",-0.3198182656575476,-3.5071790806301313,123],["LOC105370978&LOC107987005_105370978&107987005",-0.286422380284752,-2.7585267256728674,117],["IRAK3_11213",-0.29228780698180146,-2.8585581118176013,117],["ACSL3_2181",-0.3237291342364375,-3.4315352110347788,117],["HK2_3099",-0.3345671843119597,-3.6439334635894998,117],["LOC440434_440434",-0.2906894360507009,-2.8518882125207377,118],["PGR_5241",-0.3663078510327763,-4.345492930383604,118],["CXCL12_6387",-0.31654602692510364,-3.3196350745435024,118],["PDCD1LG2_80380",-0.3422063203665625,-3.798406468734498,117],["CAPN2_824",-0.29946332671747944,-3.0058543465952683,118],["ING5_84289",-0.33436808391198014,-3.667384602446104,118],["CCKBR_887",-0.42817831178223936,-5.833718535936335,117],["MYOZ3_91977",-0.2941302144681559,-2.9116952335684916,118]]}}}
{"achilles":{"corr":{"top":[["SH3GL1_6455",0.2678747176107754,-5.346002520620158,285],["MFN1_55669",0.24826513777278472,-4.649399522533884,285],["NUP214_8021",0.27696851089022584,-5.688253906375697,285]],"bottom":[["WFDC3_140686",-0.2706421841306576,-5.448851572921718,285],["CHST14_113189",-0.265953049778796,-5.27525414010103,285],["HERC5_51191",-0.23547824209602788,-4.224873721228065,285],["RPS6KB1_6198",-0.236133015976833,-4.246053376743048,285],["REEP6_92840",-0.2522388582101732,-4.786058565564917,285],["SLC6A1_6529",-0.27654577142288406,-5.6720692247430184,285],["ALDH2_217",-0.2412407265331141,-4.413332101869374,285]]},"para":{"top":[["UBXN2A_165324",0.2531100542958419,-4.816322662483093,285],["SH3GL1_6455",0.24343545233514607,-4.486338052975509,285],["RNASE6_6039",0.2479877567694714,-4.639944593378519,285],["KDM8_79831",0.2707708030727206,-5.453659204515442,285],["NUP214_8021",0.2975406169119038,-6.508847367503537,285],["AP4S1_11154",0.24835493469052097,-4.6524627335598145,285],["KRT23_25984",0.24862034899546442,-4.661523454023158,285]],"bottom":[["HSDL2_84263",-0.2526647735153544,-4.800840596451679,285],["WFDC3_140686",-0.2538497018046898,-4.842102787656915,285],["CHST14_113189",-0.24741438891198742,-4.620435339286833,285],["FAM120B_84498",-0.2562738376802978,-4.92714899738689,285],["ROPN1_54763",-0.23542588663687322,-4.223182789215614,285],["FBXL13_222235",-0.24485877873480855,-4.53404835681577,285],["RPS6KB1_6198",-0.23873818532627603,-4.330915646460826,285],["REEP6_92840",-0.24829651973981434,-4.650469913737647,285],["SLC6A1_6529",-0.262019936072831,-5.132149244661077,285]]}}}
{"ccle_rrbs_tss1kb":{"corr":{"top":[["LOC100129291_23_70886718_70887718",0.2540519789566761,-3.7483160002685896,213],["CARMIL2_16_67677842_67678842",0.24168413305357134,-3.4996903807434028,218],["TRIM4_7_99517223_99518223",0.24313491002107504,-3.5370331038347853,218],["SNORD88B_19_51302382_51303382",0.254717241612896,-2.8753976311867597,156],["FLJ45513_17_47922271_47923271",0.26736919476488075,-2.288016774151258,108],["ZNRD1ASP_6_29802830_29803830",0.25198466572168127,-3.7848688773549597,219],["TMEM59L_19_18722681_18723681",0.2517401438152124,-3.672419660025522,212],["SCAMP2_15_75165720_75166720",0.26853237919198547,-2.8034095743813414,136],["LOC101059915_23_70886551_70887551",0.2570532838994812,-3.8280467125785664,213],["CASR_3_121901529_121902529",0.289743658727257,-3.3894409721932903,145],["CLEC18B_16_74455368_74456368",0.2579227737208243,-3.883059621588378,215]],"bottom":[["RTCA-AS1_1_100731730_100732730",-0.21088982905497045,-2.7268814170703743,215],["CMC1_3_28282123_28283123",-0.22574781494074966,-3.1163902790604667,219],["HAX1_1_154244038_154245038",-0.21583313225494075,-2.8264732355997153,214],["PSMB4_1_151371040_151372040",-0.2116277751468244,-2.427654428614772,186],["MANEA_6_96024372_96025372",-0.22064298375733424,-2.4518604657404737,173],["SRD5A3_4_56211387_56212387",-0.25473148368476767,-3.2527682221016323,180]]},"para":{"top":[["MIR1470_19_15559358_15560358",0.24410930613890375,-3.562240334410549,218],["CASR_3_121901529_121902529",0.2824336965792641,-3.238283259329802,145],["MYT1L_2_2335085_2336085",0.2668892043546075,-3.8751222045304394,200],["CARMIL2_16_67677842_67678842",0.2510706404065743,-3.745300825464614,218],["CAMK4_5_110558647_110559647",0.2614892823967019,-3.8824098445663564,209],["TPRKB_2_73964533_73965533",0.24536095736459154,-3.59476948615644,218],["TPRKB_2_73964388_73965388",0.25970723072276686,-3.979742001687158,218],["CLEC18B_16_74455368_74456368",0.25229258378853453,-3.7324161851767155,215],["TDRD5_1_179559747_179560747",0.24141433527386852,-3.50669959601851,219],["SLFN13_17_33775856_33776856",0.2504978724333794,-3.7150688930445948,217]],"bottom":[["CMC1_3_28282123_28283123",-0.1955295202981005,-2.435183070157889,219],["LINC01134_1_3815967_3816967",-0.18144718445273905,-2.1245316620217194,216],["SRD5A3_4_56211387_56212387",-0.2536515485520185,-3.2284712255451984,180]]}}}
{"ccle_gene_tpm":{"corr":{"top":[["RN7SL297P_ENSG00000240183.2",0.22887431690818705,-3.7914827162517923,267],["RPSAP63_ENSG00000233260.1",0.2355588693188507,-3.9914731195336755,267],["RP4-633I8.4_ENSG00000228423.2",0.22535521970251735,-3.688516134251508,267],["RP11-106M7.4_ENSG00000226428.1",0.2358771016784214,-4.001138896752317,267],["RP11-62L18.3_ENSG00000223432.1",0.22076599407890293,-3.5566204288082672,267],["TNMD_ENSG00000000005.5",0.2176875227328587,-3.4696455477682484,267],["RP11-416A17.6_ENSG00000257246.1",0.23784616900165298,-4.061240255312352,267],["AC012065.5_ENSG00000233416.1",0.22709847788866208,-3.7393238593153244,267],["AC010524.4_ENSG00000268157.1",0.24052293660856675,-4.143757383886387,267],["AC013472.3_ENSG00000205500.4",0.24303745795902917,-4.222131888798231,267]],"bottom":[["CABP4_ENSG00000175544.9",-0.20817611177991494,-3.2084640613599897,267],["None_ENSG00000255902.1",-0.20175241046710232,-3.0384464871092645,267],["RP11-598D14.1_ENSG00000249945.1",-0.24528032276152112,-4.2927444774820795,267],["GABRB1_ENSG00000163288.9",-0.2053938994897764,-3.1341999707169874,267],["TNFRSF11B_ENSG00000164761.4",-0.2555541659908249,-4.624776041896308,267],["RP11-202I11.2_ENSG00000229454.1",-0.20810225590982886,-3.206480249620593,267],["RP1-297M16.2_ENSG00000231883.1",-0.19968834530137514,-2.9848964833792646,267],["NECAP1P1_ENSG00000178503.6",-0.23690093033453993,-4.032325695956906,267],["RP11-298D21.1_ENSG00000260788.1",-0.2054409767192272,-3.135448596900379,267],["VCY_ENSG00000129864.6",-0.20116812884033694,-3.0232348218858744,267],["ZP4_ENSG00000116996.5",-0.21322976095192706,-3.345823797880835,267]]},"para":{"top":[["RN7SL297P_ENSG00000240183.2",0.21763135693870486,-3.468069864400763,267],["TNKS2-AS1_ENSG00000228701.1",0.22480704202442597,-3.6726198693832317,267],["RPSAP63_ENSG00000233260.1",0.21423934259560384,-3.3736475766691747,267],["MOB1A_ENSG00000114978.13",0.24116718052018882,-4.1637582204248105,267],["MAT2B_ENSG00000038274.12",0.24488622162414875,-4.280288621362298,267],["RPS12P27_ENSG00000240435.2",0.20731146536929282,-3.1852816455398507,267],["RP11-143H17.1_ENSG00000235991.4",0.21930777412456146,-3.5152721523074737,267],["TGFA-IT1_ENSG00000224606.1",0.20871261422693094,-3.222895195736999,267],["AC012065.5_ENSG00000233416.1",0.2097301180903222,-3.2503630000023658,267]],"bottom":[["RP11-69H14.6_ENSG00000259176.1",-0.1904685690280466,-2.7520488079656005,267],["OR5H8P_ENSG00000232535.1",-0.2132790031438239,-3.3471779306954454,267],["QTRT1P1_ENSG00000270524.1",-0.19289349955991317,-2.8122903691407353,267],["None_ENSG00000178863.6",-0.2590806881515399,-4.742025188389218,267],["RP11-66N5.2_ENSG00000225271.1",-0.20929156701157617,-3.238508373980437,267],["RP11-124A7.1_ENSG00000239627.3",-0.2044648840599048,-3.109615843279798,267]]}}}
{"ccle_rrbs_tss_clusters":{"corr":{"top":[["MIR335_2",0.2982954263777474,-2.6776181951387024,104],["CLEC18B_3",0.2686157697038114,-3.98939583280727,204],["OBP2B_3",0.2847424961562927,-4.55201743116769,210],["PPP1R35_2",0.27667906234493717,-4.409935709743402,215],["AHSP_2",0.27009641632711845,-4.2379595280819435,216],["TC2N_5",0.2869402859706911,-3.907783879222981,174],["MIR6838_1",0.2899200744000642,-2.9625083568113095,124],["NPLOC4_5",0.3271329232370621,-3.0489457342530164,100],["C2orf49_1",0.29230419284158976,-3.0266919864611657,125],["CDH24_1",0.28916251262076464,-2.577674964024714,106],["CES3_4",0.29049874621085153,-4.239246111941429,186],["GPRASP1_3",0.2924512221589447,-4.516583632747639,197]],"bottom":[["UBOX5_2",-0.2756410507923385,-2.7672077654191276,127],["CASP8_6",-0.25502890867591427,-2.834028922928853,153],["INAFM2_3",-0.2693275698454673,-2.4967582896409675,118],["CST9_2",-0.2434858216780371,-3.2620249790030553,198],["PILRA_1",-0.27681646024729023,-2.637030088293102,119]]},"para":{"top":[["ELAC1_2",0.3059491725311301,-3.3291306769228943,127],["OXCT2_3",0.2864161220401794,-3.340051598725195,146],["CELF6_3",0.28167878384330314,-2.7378168347353826,120],["CHRAC1_4",0.29840657833677686,-3.0963173690731955,123],["ZNF311_1",0.294591060038751,-3.890673855229858,164],["PPP1R35_2",0.3062913777139936,-5.322975848245815,215],["CDK16_1",0.3057398597536312,-3.847831654090881,150],["MIR6838_1",0.27956723849150594,-2.778994110868162,124],["IQCF6_3",0.30695435214787276,-4.080695100921963,159],["LOC644554_2",0.2986995006709027,-4.972941973194161,210],["EFCAB12_1",0.2967677637357589,-3.8581875505450034,160],["CHRAC1_1",0.2933009409003829,-3.6728673905887277,155],["PLEKHM2_2",0.27927318402739787,-4.374450674948655,209],["OSGEPL1-AS1_3",0.2818739782842208,-2.544895387760343,110]],"bottom":[["GBAP1_1",-0.2734068206191931,-3.5637912554092224,173],["RPS6KA2-IT1_3",-0.2452164083392827,-2.1582877217817433,120],["RPE_3",-0.2282461906250987,-3.151903037036829,217],["HPN-AS1_3",-0.2795749180741766,-2.7599140889565663,123],["SMILR_1",-0.2711158610714314,-3.757861721645881,187]]}}}
{"ccle_rrbs_cgi_clusters":{"corr":{"top":[["2_197986_200535-1",0.3052875358240199,-3.5207734973679017,136],["5_177409342_177413939-1",0.33702877719104185,-4.6068120338088745,150],["18_77311826_77316082-3",0.31098673760110107,-4.15634695617787,158],["16_2160000_2164139-3",0.31581862591567433,-5.257969315491844,199],["4_3765072_3768430-2",0.3250705891012676,-3.3015933848510577,111],["12_94578656_94582874-2",0.2902172043702745,-3.8271017525688906,166],["16_2046194_2050754-2",0.2974224827173001,-2.8607409472536838,113],["3_42920219_42924872-1",0.2950839613667483,-4.8202930059364135,208],["8_613143_617352-2",0.2985264440811075,-4.414093605781942,184],["19_46182799_46187136-2",0.2953185450939819,-2.587700420073254,102],["12_49418031_49422292-1",0.32849532966083717,-3.4709975905258186,115],["2_132150149_132154440-2",0.2902818872415637,-4.3544655333088205,192],["19_19609938_19614307-2",0.29062285811573646,-2.788334040812164,115],["2_105951744_105956249-1",0.29230419284158976,-3.0266919864611657,125],["14_92300201_92305078-2",0.2869402859706911,-3.907783879222981,174]],"bottom":[["23_25034188_25036712-1",-0.3290128974824805,-3.1876450656717648,104],["20_3138295_3142570-2",-0.2756410507923385,-2.7672077654191276,127],["19_46085866_46090345-1",-0.24445336179285726,-3.4282344016047834,208],["15_40616006_40618913-3",-0.2693275698454673,-2.4967582896409675,118],["13_114196214_114198719-1",-0.25618419299869505,-2.1608827492956166,110],["6_42417510_42421743-3",-0.30941500356487717,-3.2568042856017696,121]]},"para":{"top":[["5_72674120_72677270-3",0.2993801735838866,-3.725286298978258,151],["19_38305878_38310526-2",0.2986995006709027,-4.972941973194161,210],["5_177409342_177413939-1",0.3065998230229092,-3.867590489816942,150],["18_48492276_48496627-2",0.3059491725311301,-3.3291306769228943,127],["2_197986_200535-1",0.315035719436369,-3.7275132227049212,136],["5_140172573_140176888-3",0.3138354359178263,-3.8691860625463663,143],["3_129145229_129149617-1",0.2967677637357589,-3.8581875505450034,160],["4_3765072_3768430-2",0.35510191296013455,-3.8822411068473675,111],["12_94578656_94582874-2",0.3285635836473471,-4.810456815863607,166],["17_7906686_7909445-2",0.30090640578722855,-4.9983839786648945,208],["5_132113034_132115621-2",0.3574555756347627,-3.89877120660962,110],["3_42920219_42924872-1",0.3153657425678203,-5.4575092892155785,208],["2_132150149_132154440-2",0.3117979388190719,-4.970446594724019,192],["19_19609938_19614307-2",0.30869456901884207,-3.1028599207711727,115],["13_113490486_113494836-2",0.337264481806398,-3.221433639354062,100]],"bottom":[["2_210865172_210869705-3",-0.2282461906250987,-3.151903037036829,217],["23_25034188_25036712-1",-0.31299447433500927,-2.9149736258818457,104],["14_90989767_90993982-2",-0.29799955487231794,-2.738958464259305,107],["13_114196214_114198719-1",-0.2706668636953206,-2.372914140936683,110],["1_155195116_155199534-1",-0.2734068206191931,-3.5637912554092224,173]]}}}
