{"depmap_hotspot":{"corr":{"top":[["AGAP9",0.12540018405242762,-2.2758194446937585,11.0,482.0],["BTLA",0.14099004610022284,-2.7696241488047346,8.0,485.0],["C10orf120",0.11288660469130084,-1.9159043459979854,11.0,482.0],["C3orf70",0.10543074964741411,-1.7165876302454768,11.0,482.0],["C6orf106",0.11662299279598842,-2.020016554384461,9.0,484.0],["CPPED1",0.11461025942494804,-1.963580345316885,16.0,477.0],["HIST1H2AJ",0.14102578632289214,-2.770814972669992,9.0,484.0],["LGALS9C",0.10808414950984964,-1.786238946004877,10.0,483.0],["MRPL24",0.11622035808358387,-2.0086608288284373,10.0,483.0],["NDC80",0.12054642821676813,-2.132405554741693,13.0,480.0],["PARK2",0.13719352318129924,-2.644668686279552,28.0,465.0],["POLR2J3",0.1152878320215518,-1.982487125714493,8.0,485.0],["THOC3",0.11619191257887528,-2.0078598146136155,13.0,480.0],["TULP2",0.13807476420624218,-2.6734015094017347,14.0,479.0]],"bottom":[["AIFM1",-0.13168508861184672,-2.4687690437811147,8.0,485.0],["ATP6V1B2",-0.11822040030888345,-2.065395113928348,10.0,483.0],["CCNB1IP1",-0.1234701934050215,-2.218212287970589,9.0,484.0],["DCBLD2",-0.1292250719177399,-2.392266345367462,22.0,471.0],["DGAT2L6",-0.1337024030270357,-2.5324483477797988,10.0,483.0],["FAP",-0.13141134123105674,-2.460193453825015,26.0,467.0],["FLJ30594",-0.15556355619459217,-3.2778424796299626,10.0,483.0],["GNPDA1",-0.13462665615381778,-2.561908625395486,8.0,485.0],["OAZ1",-0.14408223831133105,-2.87365672349997,9.0,484.0],["OR4N5",-0.1452043487443298,-2.911912147066423,14.0,479.0],["PITPNB",-0.14218203806677682,-2.809486274910612,12.0,481.0],["POLG2",-0.13102895373345733,-2.448240747015125,9.0,484.0],["RABEPK",-0.13031299494046794,-2.425943337703659,11.0,482.0],["SCML2",-0.11684494084758942,-2.0262904101932944,12.0,481.0],["SEMA3D",-0.14745663728244382,-2.989510035165705,38.0,455.0],["UBE2Q2",-0.12176918782550762,-2.168077138665215,12.0,481.0]]},"para":{"top":[["AGAP9",0.12443607991774865,-2.5378365740973385,11.0,482.0],["BTLA",0.14123206283749565,-3.0605839522511755,8.0,485.0],["HIST1H2AJ",0.1273303932910336,-2.623831936937427,9.0,484.0],["METAP1D",0.10758140670617843,-2.0686710736862426,9.0,484.0],["NDC80",0.12737833257435302,-2.6255358326139677,13.0,480.0],["NEXN",0.11038862480780172,-2.143178953306753,13.0,480.0],["OSGEP",0.11833422419981923,-2.361480438101572,9.0,484.0],["PRKRA",0.1157014988072599,-2.2878998231919287,12.0,481.0],["THOC3",0.12092935973102856,-2.43578166541038,13.0,480.0],["TULP2",0.13595816844627084,-2.8907688672331644,14.0,479.0]],"bottom":[["AIFM1",-0.13440735053584354,-2.841331431881056,8.0,485.0],["ATP6V1B2",-0.11576486181281283,-2.2895398811968057,10.0,483.0],["C22orf24",-0.11082854466217885,-2.1547229256349794,9.0,484.0],["C2orf53",-0.13956466746449714,-3.006548257947623,13.0,480.0],["CORO1A",-0.13793168556477137,-2.9538320119883856,14.0,479.0],["CXorf66",-0.13658479725413342,-2.910658543107115,13.0,480.0],["DGAT2L6",-0.13861452012695755,-2.9755852084931824,10.0,483.0],["FLJ30594",-0.1192529733696181,-2.3876212100510674,10.0,483.0],["FMR1",-0.15037225643641325,-3.3691961911674375,13.0,480.0],["GNPDA1",-0.12498811950794346,-2.553898629644985,8.0,485.0],["LIPN",-0.11136086235988384,-2.169025010554953,9.0,484.0],["NPNT",-0.13078146464753973,-2.7291057516409327,16.0,477.0],["OAZ1",-0.13089692186565693,-2.732255064098768,9.0,484.0],["OR4N5",-0.15410594542726558,-3.499973900208889,14.0,479.0],["PGM2",-0.15127437738767774,-3.400579076609006,14.0,479.0],["POLG2",-0.13467637751936237,-2.849898833371396,9.0,484.0],["RABEPK",-0.12197534316869657,-2.465893440228839,11.0,482.0],["RAD51AP1",-0.12289208823206892,-2.492556632700298,11.0,482.0],["SCML2",-0.11426794706344494,-2.2482959478510516,12.0,481.0],["TBL2",-0.13255095555913005,-2.783796626612841,16.0,477.0],["UBE2Q2",-0.11736626857427085,-2.3343950019334456,12.0,481.0],["VSIG1",-0.11034715578592129,-2.141969708439099,11.0,482.0],["ZNF713",-0.12101951334076705,-2.4383270522035705,12.0,481.0],["ZWINT",-0.11594412564651024,-2.294586618485246,11.0,482.0]]}}}
{"depmap_damaging":{"corr":{"top":[["A2M",0.11246021880063357,-1.9042035359113358,10.0,483.0],["CNTN1",0.11408030665409963,-1.9488577390994433,10.0,483.0],["SYNJ1",0.11462398388666623,-1.9639623823147596,8.0,485.0],["VPS13D",0.1511150183188525,-3.117870501726302,12.0,481.0]],"bottom":[["ABCB1",-0.11180079286486352,-1.8861801604112596,8.0,485.0],["ABCC9",-0.13804323526444587,-2.6723706819994155,8.0,485.0],["MLH1",-0.14548587516704933,-2.9215522309950384,15.0,478.0]]},"para":{"top":[["A2M",0.12971730804003395,-2.6961980840122353,10.0,483.0],["SOGA2",0.11812129712073724,-2.3554633789261854,9.0,484.0],["SYNJ1",0.11697895300517813,-2.3232447547979453,8.0,485.0],["USP53",0.10825627846034988,-2.0865713883374033,12.0,481.0]],"bottom":[["ABCB1",-0.11799419946327519,-2.351786526108731,8.0,485.0],["ABCB5",-0.11888735979733715,-2.377294284266902,11.0,482.0],["ABCC9",-0.13812992088219928,-2.9597748228267644,8.0,485.0],["MLH1",-0.13061407724304994,-2.7239251337063806,15.0,478.0]]}}}
{"ccle_mirna":{"corr":{"top":[],"bottom":[["hsa-miR-605_miR00559.1",-0.19501760847896019,-4.24146483608764,420]]},"para":{"top":[],"bottom":[["hsa-miR-605_miR00559.1",-0.1903754539616308,-4.063401644077163,420]]}}}
{"prism_primary_logfold":{"corr":{"top":[],"bottom":[["raltitrexed_BRD-K89839824-001-05-3::2.5::HTS",-0.21440562628418916,-3.7380999859016693,300]]},"para":{"top":[],"bottom":[]}}}
{"prism_secondary_logfold":{"corr":{"top":[["TC1_BRD-A13964793-001-02-6::2.5::HTS002",0.21351481416873508,-3.223224542992387,255],["fenaclon_BRD-K08791496-001-01-0::0.15625::HTS002",0.2122126237587619,-3.1028476606275937,247]],"bottom":[["metoxibutropate_BRD-A71725768-001-01-3::2.5::HTS002",-0.22233436788126332,-3.4956538442386575,258],["RU-58841_BRD-K62762455-001-01-3::0.0390625::HTS002",-0.2340819333040419,-3.1104001759615563,203]]},"para":{"top":[],"bottom":[["nadifloxacin_BRD-A24397426-001-10-4::0.0024414::HTS002",-0.28236304906397236,-2.788689136930764,122],["metoxibutropate_BRD-A71725768-001-01-3::2.5::HTS002",-0.2254536103833443,-3.5827409817925346,258],["pacritinib_BRD-K19034817-001-01-4::0.00061034::HTS002",-0.21725039976273997,-3.4012412061605533,262],["clofibrate_BRD-K45252063-001-13-6::0.15625::HTS002",-0.2521738510708739,-3.6533360613413914,210],["latrepirdine_BRD-K55703048-001-07-7::0.000610352::HTS002",-0.2400634915170729,-3.251106594879464,203],["RU-58841_BRD-K62762455-001-01-3::0.0390625::HTS002",-0.2616313848352633,-3.7880996405668323,203],["AVL-292_BRD-K87782578-001-01-4::0.625::HTS002",-0.29243559758949755,-3.2381051935628697,135],["mycophenolate-mofetil_BRD-K92428153-001-04-4::0.0024414::HTS002",-0.26280542056386985,-3.6864752515483787,195]]}}}
{"ccle_proteomics":{"corr":{"top":[["ZNF598_H3BQQ2",0.28987101375666907,-2.8170863264738357,117],["DOS_Q8N350",0.3310601865333481,-3.8158404846671963,126],["FER1L4_A9Z1Z3",0.2838802997283294,-3.7744563264926407,171],["FAM178A_Q8IX21-2",0.3109202480250861,-3.4508556296238564,128],["IGF2_P01344-3",0.3281927513357524,-3.3592581628071465,111]],"bottom":[["HLA-DQB1_Q5SU54",-0.2714070330597766,-3.0178821761755286,145],["CASP5_P51878-5",-0.31717272978291766,-4.310067604735553,158],["WDR19_Q8NEZ3",-0.2413961895335298,-2.87531283095165,174],["EVI2B_B7Z4A7",-0.34837252068025415,-4.163969917692717,125]]},"para":{"top":[["SLC2A8_Q9NY64",0.2674691605707995,-3.5472896985994242,180],["FER1L4_A9Z1Z3",0.23903237458002496,-2.78500922461125,171],["IGF2_P01344-3",0.3213408213408213,-3.233506465523999,111]],"bottom":[["EVI2B_B7Z4A7",-0.3428018433179723,-4.040924539693248,125]]}}}
{"avana":{"corr":{"top":[],"bottom":[["CFAP221_200373",-0.19580426510077656,-3.6692165722933727,353],["CSN2_1447",-0.23006176318803098,-4.897441853417972,353]]},"para":{"top":[],"bottom":[["CSN2_1447",-0.2057347964084776,-4.005073158626193,353],["FLNB_2317",-0.19910936833532009,-3.779198915407377,353],["PSORS1C2_170680",-0.20696210154805256,-4.047710751904482,353],["UGT1A6_54578",-0.21737715673931163,-4.41965767800288,353]]}}}
{"drive":{"corr":{"top":[["KCNJ8_3764",0.34114449534204627,-6.560399365165483,216],["RRN3P1_730092",0.25182708316135377,-3.70497453779228,214]],"bottom":[]},"para":{"top":[["KCNJ8_3764",0.3039477511146545,-5.268964289454826,216]],"bottom":[["MYLK3_91807",-0.2689695884647231,-4.205888349563894,216]]}}}
{"achilles":{"corr":{"top":[],"bottom":[["DAP3_7818",-0.2621044071521012,-5.135198820455609,285]]},"para":{"top":[],"bottom":[["GPX8_493869",-0.26967476120907885,-5.412769295161598,285]]}}}
{"ccle_rrbs_tss1kb":{"corr":{"top":[],"bottom":[["POU5F2_5_93077309_93078309",-0.2849691668379589,-3.3296954260565865,147],["NCAM1_11_112830968_112831968",-0.20336813271312112,-4.049891637793646,366]]},"para":{"top":[["TRMT1L_1_185126230_185127230",0.18010946710565795,-3.332562372767301,374]],"bottom":[["NCAM1_11_112830968_112831968",-0.19687028698004283,-3.8231378741148654,366],["TOMM20L_14_58861643_58862643",-0.20590105919873902,-3.2588879569961287,278],["SNRNP48_6_7589431_7590431",-0.19878189522656525,-4.019023808704996,380],["SRXN1_20_634014_635014",-0.2082557959245662,-3.98079263445295,342]]}}}
{"ccle_gene_tpm":{"corr":{"top":[["LARP4P_ENSG00000261315.2",0.1984888024800392,-4.909323541216518,478]],"bottom":[["PRYP5_ENSG00000233546.1",-0.16920353856622106,-3.694607073793826,478]]},"para":{"top":[["LARP4P_ENSG00000261315.2",0.1781846096843883,-4.047189506222899,478],["BMS1P13_ENSG00000231701.1",0.1808463308051503,-4.155042855274187,478]],"bottom":[]}}}
{"ccle_rrbs_tss_clusters":{"corr":{"top":[["TRIM41_1",0.23219398043422387,-2.3984006985678556,152]],"bottom":[["C2orf88_3",-0.27709142215126464,-3.0929966986677915,143],["COX6B2_2",-0.24196927763143147,-2.9722547436637012,180],["ZFP37_3",-0.2609983483275019,-3.08320142491773,161]]},"para":{"top":[["RPAP2_2",0.2257512220629751,-3.651644547145383,263],["CGNL1_3",0.2584962807335117,-2.6567247021956146,138]],"bottom":[["BHMT_3",-0.25304508166102097,-2.4030205243222187,128],["COX6B2_2",-0.26906375210070727,-3.5852016419322,180]]}}}
{"ccle_rrbs_cgi_clusters":{"corr":{"top":[],"bottom":[["19_55863016_55867434-2",-0.2655294454313336,-3.450584066015631,177],["2_191042979_191047829-3",-0.27709142215126464,-3.0929966986677915,143],["19_55863824_55868324-1",-0.24196927763143147,-2.9722547436637012,180],["9_115816836_115821343-3",-0.2609983483275019,-3.08320142491773,161]]},"para":{"top":[["15_57666337_57671028-3",0.2584962807335117,-2.6567247021956146,138],["1_92762173_92766926-2",0.2257512220629751,-3.651644547145383,263]],"bottom":[["19_55863016_55867434-2",-0.29150727938736953,-4.082819058340519,177],["19_55863824_55868324-1",-0.26906375210070727,-3.5852016419322,180],["4_14862508_14866801-1",-0.24964502506548003,-2.867563228261529,162],["20_53089733_53092363-1",-0.29838972522545226,-3.270211247537358,131],["1_4724576_4728867-3",-0.24779578709597383,-2.935101879068738,169]]}}}
