{"depmap_hotspot":{"corr":{"top":[["AGO4",0.16110048946117547,-3.482955155630679,17.0,476.0],["CCDC115",0.1286587505983338,-2.374833267701531,10.0,483.0],["COQ6",0.13720594635974506,-2.645072604704246,9.0,484.0],["EN1",0.13703644019427658,-2.6395642089344324,10.0,483.0],["GPATCH2L",0.1363007157396502,-2.6157257648430963,12.0,481.0],["HECW1",0.14937400191947942,-3.0564253027139356,59.0,434.0],["HIST1H3D",0.13010261997734326,-2.4194118730278062,8.0,485.0],["IGF2BP3",0.1420141642370431,-2.803854045535451,20.0,473.0],["KCTD7",0.1525948255195202,-3.1706104171420497,12.0,481.0],["KIAA1211",0.14215839410325273,-2.808692648755295,68.0,425.0],["KIAA1598",0.12763746944330695,-2.3435637825233844,16.0,477.0],["MEI4",0.1379030967572322,-2.667791444103828,12.0,481.0],["MIXL1",0.12840099580217998,-2.3669208981037104,11.0,482.0],["MRGPRD",0.1670677204353786,-3.711519829274129,23.0,470.0],["MYZAP",0.1259011620707116,-2.2908987659870776,8.0,485.0],["OR2L8",0.1504681967620706,-3.0949662431360063,13.0,480.0],["PCOLCE2",0.1459367734901476,-2.937027262941499,19.0,474.0],["PISD",0.12690322067193419,-2.321216516722218,11.0,482.0],["POC1B",0.13808610911154084,-2.673772478359434,10.0,483.0],["PSMB7",0.1272656423753374,-2.332233033872747,11.0,482.0],["RAD9A",0.13307132527175422,-2.5124358946622114,12.0,481.0],["RAP1GAP",0.19024467824158994,-4.674495829854639,23.0,470.0],["RP11-166B2.1",0.13918558664911443,-2.709853524921405,8.0,485.0],["SLC17A9",0.15728997869673833,-3.341080550179557,20.0,473.0],["SLC1A5",0.1315265429667101,-2.4638004300669976,18.0,475.0],["SLC45A3",0.13097190826712038,-2.446460232258019,17.0,476.0],["SNX29",0.15606650761083604,-3.296198529321478,27.0,466.0],["TNFAIP8",0.13586477910399702,-2.6016546370133966,10.0,483.0],["TTBK1",0.15054102082830612,-3.0975404765985055,34.0,459.0],["VPS37C",0.14932259475874696,-3.054620915083814,8.0,485.0],["ZCCHC18",0.12548473013215874,-2.2783606175718356,9.0,484.0],["ZNF528",0.14087135383758959,-2.765671401016991,20.0,473.0]],"bottom":[["AKR1C2",-0.1660166179618526,-3.6706906993145987,9.0,484.0],["C1QTNF4",-0.12240548555079009,-2.1867614953552725,11.0,482.0],["CCP110",-0.13923564673167063,-2.7115024075893723,14.0,479.0],["CNPPD1",-0.12609934204652937,-2.2968782840905595,9.0,484.0],["CTDSPL",-0.11837320601950761,-2.0697632851123324,8.0,485.0],["DARS",-0.1538872163791078,-3.217057753389301,12.0,481.0],["ELL2",-0.1410953408622552,-2.773133228358846,22.0,471.0],["NFAT5",-0.14644527305163435,-2.954531347422023,35.0,458.0],["PDZD9",-0.12556856999094054,-2.280882024846235,9.0,484.0],["POMGNT1",-0.12325422834546199,-2.211813923666719,11.0,482.0],["RP11-503N18.3",-0.15035447974640406,-3.0909487819577075,8.0,485.0],["TAS2R7",-0.1388130912347241,-2.6976008911320797,11.0,482.0],["UHMK1",-0.15424741498024538,-3.2300673411586005,11.0,482.0],["ZNF154",-0.18478243122529264,-4.43664064103128,10.0,483.0]]},"para":{"top":[["ACMSD",0.12755620653082844,-2.630885688636838,13.0,480.0],["AGO4",0.1767670667841028,-4.353876966014621,17.0,476.0],["BCL6B",0.15030547663547586,-3.367141718166434,19.0,474.0],["BRIX1",0.13350870356131098,-2.81333392789696,10.0,483.0],["CCDC115",0.11829245222774241,-2.3603750658159695,10.0,483.0],["CD19",0.1321907103961283,-2.7725724511852246,15.0,478.0],["COQ6",0.11806803874631537,-2.353959749984262,9.0,484.0],["CXCL12",0.12904907626128762,-2.675670043476078,8.0,485.0],["DFNA5",0.1456004474085584,-3.2063812133618295,17.0,476.0],["EN1",0.1280996042500424,-2.6470844442428416,10.0,483.0],["ERI3",0.12030377257289121,-2.4175584213646286,9.0,484.0],["ERP44",0.11032342358700989,-2.141117732901361,8.0,485.0],["GPATCH2L",0.12564384549295401,-2.5736428641483577,12.0,481.0],["HIST1H3D",0.1425856926523318,-3.1051735776271068,8.0,485.0],["IFNA21",0.10774107773784594,-2.0728547156071047,9.0,484.0],["KCTD7",0.12004837059245811,-2.410443560878519,12.0,481.0],["LMBR1L",0.15479235128427649,-3.524311072070362,14.0,479.0],["LNX1",0.14029129398547233,-3.030249927872173,14.0,479.0],["LRG1",0.11317071703095871,-2.218063575156771,9.0,484.0],["MIXL1",0.12347105729206789,-2.509480843463198,11.0,482.0],["MRGPRD",0.16760368863360461,-3.996328237377507,23.0,470.0],["NEUROD1",0.11951704221926068,-2.3949766617458472,8.0,485.0],["OLR1",0.12999195248805331,-2.7045057589313575,9.0,484.0],["OSER1",0.12142669668847748,-2.4499487129361768,10.0,483.0],["PCOLCE2",0.1611156242161554,-3.7531880516535834,19.0,474.0],["POC1B",0.14437745451385997,-3.164953808610237,10.0,483.0],["PPP2R3C",0.11065905039595221,-2.150252345530899,10.0,483.0],["PRDM6",0.14220258289017199,-3.093089002937588,17.0,476.0],["PRPSAP1",0.12961617415039808,-2.6931124933115878,10.0,483.0],["PSMB7",0.11879083354946117,-2.3745549231004675,11.0,482.0],["RAD9A",0.1305919100743843,-2.7230987959187214,12.0,481.0],["RAP1GAP",0.1798360546185572,-4.477721927349845,23.0,470.0],["REM2",0.13254603549564073,-2.7831406051983962,8.0,485.0],["RP11-166B2.1",0.11393318795795498,-2.2388269235691274,8.0,485.0],["RTN4RL2",0.11705384329447312,-2.325571789129383,11.0,482.0],["SLC17A9",0.1575993375509181,-3.62506684518247,20.0,473.0],["SLC45A3",0.14294464525625636,-3.1176341321849925,17.0,476.0],["SNAI2",0.13032390677056407,-2.714747837918165,10.0,483.0],["SNX29",0.17799899837852456,-4.403584967922001,27.0,466.0],["SRD5A3",0.10930817735768159,-2.1140932780180552,8.0,485.0],["TEX37",0.107390490035617,-2.0635923104083043,8.0,485.0],["TMEM86B",0.10902616451620148,-2.1066219706614966,8.0,485.0],["TNFAIP8",0.13790675627234242,-2.952784669243618,10.0,483.0],["TP53I13",0.1368362323096149,-2.9185607570040446,11.0,482.0],["VPS37C",0.149805221394222,-3.3491765058363976,8.0,485.0],["WNT16",0.12092699888261864,-2.435662800017055,12.0,481.0],["ZFAND2A",0.10848530020544239,-2.0924903253188556,10.0,483.0]],"bottom":[["CCP110",-0.1375884341930916,-2.942807874950111,14.0,479.0],["DARS",-0.1304069356975085,-2.717424612556096,12.0,481.0],["IL37",-0.12009084554178877,-2.4114592028454873,9.0,484.0],["PDZD9",-0.12248627464169147,-2.480588372931468,9.0,484.0],["RP11-503N18.3",-0.1326588406322328,-2.78664771033829,8.0,485.0],["SDF4",-0.13395609970304115,-2.827160745318921,8.0,485.0],["TAS2R7",-0.1312875134395142,-2.7444355420273174,11.0,482.0],["UHMK1",-0.14431494035192466,-3.1629410015354744,11.0,482.0],["ZNF154",-0.1414454193731724,-3.067779987859944,10.0,483.0]]}}}
{"depmap_damaging":{"corr":{"top":[["CEP128",0.14146610573241983,-2.785508160822327,13.0,480.0],["HFM1",0.12111438179759297,-2.1489362594784915,8.0,485.0],["ITPR3",0.12170028130091425,-2.1660587553573025,10.0,483.0],["STAT6",0.16602161345045424,-3.6708841682866256,12.0,481.0],["TRPM1",0.17021629282490566,-3.8352845724893774,11.0,482.0]],"bottom":[["ABCC9",-0.12485861772586389,-2.2595768476025313,8.0,485.0],["AKAP6",-0.1098854247751976,-1.8343278260813651,14.0,479.0],["ATP13A3",-0.1284343690141471,-2.36794458594334,8.0,485.0],["BICC1",-0.1257081505307252,-2.285083010202909,12.0,481.0],["CPS1",-0.12177188732570976,-2.168156231264642,11.0,482.0],["CYLC2",-0.11652849328015352,-2.0173483647690165,8.0,485.0],["ITGAE",-0.13960036536835652,-2.723531543272017,8.0,485.0],["PHACTR2",-0.13966940057509572,-2.725811628905923,13.0,480.0]]},"para":{"top":[["COL1A2",0.1052924168801676,-2.009237840339865,9.0,484.0],["GANAB",0.11641785425527126,-2.307645452499201,9.0,484.0],["HFM1",0.11805057544356426,-2.3533773418396393,8.0,485.0],["ITPR3",0.13639018637198677,-2.9042640727356583,10.0,483.0],["MSH6",0.11177120165621304,-2.1801597660833747,10.0,483.0],["OAS2",0.11585087528001958,-2.2917672681473458,8.0,485.0],["STAT6",0.14626848851461668,-3.22868361338366,12.0,481.0],["TRPM1",0.14214370253318953,-3.0908428239858994,11.0,482.0],["ZP4",0.11783748125763574,-2.347532398737943,10.0,483.0]],"bottom":[["AKAP6",-0.11480718737159755,-2.263238361463341,14.0,479.0],["BICC1",-0.12458024282591763,-2.5421475134319036,12.0,481.0],["CPS1",-0.12892327670355822,-2.672096514448859,11.0,482.0],["ITGAE",-0.11680971894105188,-2.3185066524245217,8.0,485.0],["LMBRD1",-0.1375026291203176,-2.940055752282577,14.0,479.0],["PHACTR2",-0.15784413423218627,-3.6336060424702787,13.0,480.0]]}}}
{"ccle_rppa":{"corr":{"top":[],"bottom":[]},"para":{"top":[],"bottom":[["CCND1_Cyclin_D1",-0.20899174592508254,-4.711389606378882,411]]}}}
{"ccle_rrbs_enhancer_clusters":{"corr":{"top":[],"bottom":[]},"para":{"top":[["17-46680250-46684768-2_enh",0.3146974891423676,-2.8942308956847707,102]],"bottom":[]}}}
{"prism_primary_logfold":{"corr":{"top":[["genipin_BRD-K28824103-001-04-4::2.5::HTS",0.24491065172622514,-4.761599402599687,301],["apocynin_BRD-K64990520-001-08-4::2.5::HTS",0.21712410780427158,-3.8114493723410647,299]],"bottom":[]},"para":{"top":[["RI-1_BRD-K79555887-001-01-0::2.5::HTS",0.21306827088777747,-3.7076588729759687,301],["org-26576_BRD-K40002998-001-01-5::2.5::MTS004",0.24870176730243712,-4.86799764236614,299]],"bottom":[]}}}
{"prism_secondary_logfold":{"corr":{"top":[["KF-38789_BRD-A54927599-001-16-9::0.0024414::HTS002",0.2533331233196862,-4.460848989251928,261],["ambazone_BRD-K11244467-001-08-5::0.15625::HTS002",0.2411373823915037,-3.901123802265757,248],["cefpiramide_BRD-K92872987-001-02-9::0.0390625::HTS002",0.22514346376781047,-3.2112428049745643,228]],"bottom":[]},"para":{"top":[["KF-38789_BRD-A54927599-001-16-9::0.0024414::HTS002",0.2852365464846048,-5.5501078658082905,261],["ambazone_BRD-K11244467-001-08-5::0.15625::HTS002",0.23544663061404975,-3.738287247194471,248],["nomegestrol-acetate_BRD-K27351809-001-09-5::2.5::HTS002",0.25996195106475245,-3.6154268060337564,195],["aurora-a-inhibitor-i_BRD-K53561341-001-07-5::0.15625::HTS002",0.24176637259409572,-4.099448260808141,261],["daclatasvir_BRD-K82861010-001-02-5::0.0390625::HTS002",0.24849417364957832,-3.926953204606883,235],["cefpiramide_BRD-K92872987-001-02-9::0.0390625::HTS002",0.23914716820855417,-3.571528593967959,228]],"bottom":[["alogliptin_BRD-K83003151-057-02-4::0.586869::HTS002",-0.2441518004279461,-3.6913505872916397,227]]}}}
{"ccle_proteomics":{"corr":{"top":[["UBQLN3_Q9H347",0.3659032006131168,-6.325088910329498,179],["N4BP2_Q86UW6",0.3649118436215547,-6.998412676696644,201],["BUB1B_O60566-3",0.33338395733970677,-7.202967259879195,251],["SEPT6_Q14141",0.30552672762360605,-6.0956385037924194,251],["KIF11_P52732",0.3058051687029641,-6.106157761603319,251],["ZBTB34_Q8NCN2",0.38581941720169377,-4.280959375299701,104],["NRGN_Q92686",0.3199013323990277,-3.783571762645106,134]],"bottom":[["TOM1L2_Q6ZVM7",-0.3276386057076941,-6.965364962702177,251],["RETSAT_Q6NUM9",-0.32692660189209866,-6.936258700352525,251],["SUCLG2_Q96I99",-0.30352120965744245,-6.0201922531878855,251],["TEAD1_P28347",-0.33370024375105983,-6.686360972791304,231],["TNFRSF10B_O14763",-0.32083125473784924,-6.6901164808710085,251],["BRI3_O95415",-0.3096585580950128,-4.331813826690878,167],["ACVR1_Q04771",-0.30672976503897365,-5.829078077488528,237]]},"para":{"top":[["UBQLN3_Q9H347",0.35673862110492877,-6.022103725942972,179],["N4BP2_Q86UW6",0.3766036475571056,-7.445604966595579,201],["IGHMBP2_P38935",0.28554525780888135,-4.711478179871613,217],["AGAP2_Q99490-2",0.31077155122879524,-3.2114655342993217,118],["ARRB2_P32121-3",0.31041116327919804,-6.281749693945908,251],["BUB1B_O60566-3",0.3588557222520133,-8.316451300310476,251],["SEPT6_Q14141",0.3039675992924297,-6.036936507111465,251],["ZBTB34_Q8NCN2",0.38845620399018466,-4.336803856468894,104],["CASP9_P55211",0.3000354721932177,-5.014396323229423,210],["ANKRD49_Q8WVL7",0.2889874277465696,-3.333038217316947,143]],"bottom":[["FAM73A_Q8NAN2",-0.3005216867368593,-5.1370516262877075,215],["PML_P29590-2",-0.3075125321772117,-3.2209544557267393,121],["NAPEPLD_Q6IQ20",-0.3103010741735695,-3.3914010355137703,126],["SLC2A6_Q9UGQ3",-0.2922545308230677,-3.711155731106917,158]]}}}
{"depmap_copy_number":{"corr":{"top":[],"bottom":[["MIR4773-1_100616392",-0.2056655242577464,-5.392807746880837,494],["MIR4773-2_100616418",-0.2056655242577464,-5.392807746880837,494],["LOC101929319_101929319",-0.2056655242577464,-5.392807746880837,494],["STAM2_10254",-0.19078726997763779,-4.7069497033938905,494],["FMNL2_114793",-0.18987723548273513,-4.666658554938,494],["ARL5A_26225",-0.20816207865385555,-5.5129520109572585,494],["RBM43_375287",-0.20022836527875257,-5.136204373402209,494],["NEB_4703",-0.20978653549294599,-5.591915778626873,494],["RIF1_55183",-0.2056655242577464,-5.392807746880837,494],["TNFAIP6_7130",-0.2056655242577464,-5.392807746880837,494],["CACNB4_785",-0.20816207865385555,-5.5129520109572585,494],["NMI_9111",-0.20022836527875257,-5.136204373402209,494]]},"para":{"top":[],"bottom":[]}}}
{"avana":{"corr":{"top":[["C19orf71_100128569",0.20491884987625525,-3.9768646851732403,353],["DDX50_79009",0.2205043551440803,-4.534900761076367,353],["GSDMA_284110",0.1974126242967862,-3.7225140817213287,353],["NQO1_1728",0.2054616645729895,-3.9956183105311966,353],["RPS27L_51065",0.24177650174955578,-5.363353045331278,353],["TNFAIP8L1_126282",0.20946551433188398,-4.135457405112513,353]],"bottom":[["NXPH2_11249",-0.20540374389190974,-3.9936148919273244,353],["PTPRU_10076",-0.20181272506958114,-3.8704882619020573,353],["RAB39A_54734",-0.21912377199621494,-4.48381943898831,353]]},"para":{"top":[["DDX50_79009",0.21285191892295321,-4.255817408123843,353],["DNAAF4_161582",0.20484156538582396,-3.9741985615651703,353],["GSDMA_284110",0.21031956053521597,-4.165631275921064,353],["KCNT2_343450",0.1923528503065236,-3.556266634749609,353],["NQO1_1728",0.19535242942429232,-3.65431966846048,353],["PHF23_79142",0.22607576705209984,-4.696496569311724,349],["RPS27L_51065",0.20426831014945018,-3.954453523752913,353]],"bottom":[["PLAT_5327",-0.2050796064082889,-3.9824135544516945,353],["SF3B5_83443",-0.2556841615046874,-5.947909706247551,353],["SLC8B1_80024",-0.20989562815711713,-4.1506383238784945,353],["SLIRP_81892",-0.2230640710626422,-4.630466882040563,353],["TOPORS_10210",-0.19341861295284646,-3.590937809953027,353]]}}}
{"drive":{"corr":{"top":[["TRIM53AP_642569",0.31550880141354115,-5.67570384699369,217]],"bottom":[]},"para":{"top":[["TRIM53AP_642569",0.319546498016728,-5.813937697173716,217]],"bottom":[["DCAF7_10238",-0.29076214288319735,-4.871708017288031,217],["GP2_2813",-0.33325201073249544,-6.483827760102506,224],["RAB17_64284",-0.33050893151234867,-6.3818507515117435,224]]}}}
{"achilles":{"corr":{"top":[["MUM1_84939",0.24868682074957263,-4.66379424479092,285]],"bottom":[["CSTF1_1477",-0.30295294826345764,-6.735669093501329,285],["MBLAC2_153364",-0.2652563592183982,-5.249739404645476,285],["C10orf71_118461",-0.2812814291825843,-5.854918235391723,285],["DPY19L3_147991",-0.3113197124967555,-7.095478308811356,285],["FRG2B_441581",-0.28137723463139575,-5.858652464642326,285],["OPRM1_4988",-0.2681936243541299,-5.678831876503166,304],["TLDC1_57707",-0.2664752742431129,-5.294426412567572,285]]},"para":{"top":[["ZC3H14_79882",0.26625847205155834,-5.2864621288719,285],["MORN3_283385",0.2570237098117411,-4.953629148014831,285]],"bottom":[["C10orf71_118461",-0.28365163055511994,-5.947712455008191,285],["FRG2B_441581",-0.3006898283846548,-6.640262664273825,285],["TTC5_91875",-0.27240544978346215,-5.514975322636225,285],["CCDC186_55088",-0.26779601270822306,-5.343094181114464,285],["OPRM1_4988",-0.2941690478614279,-6.756531603081695,304],["UXT_8409",-0.25326370520564717,-4.821671614202213,285]]}}}
{"ccle_rrbs_tss1kb":{"corr":{"top":[["NXNL2_9_91149015_91150015",0.34868689079144527,-4.852353933369081,148]],"bottom":[["XAGE3_23_52896332_52897332",-0.2927888566268265,-3.9301510273043045,168],["CORO1B_11_67211292_67212292",-0.23641234010845402,-5.433973928129268,375]]},"para":{"top":[["PTOV1-AS2_19_50362546_50363546",0.21430236966632277,-4.576752172903459,378],["SIX1_14_61116155_61117155",0.22340984636362657,-4.771881191376903,364]],"bottom":[["XAGE3_23_52896332_52897332",-0.3150818952556279,-4.497035600226785,168]]}}}
{"ccle_gene_tpm":{"corr":{"top":[["HIST1H2AH_ENSG00000184825.4",0.2626808220909335,-8.258128458896538,478]],"bottom":[]},"para":{"top":[],"bottom":[["AC097711.1_ENSG00000236530.2",-0.2323904954507868,-6.556476227670515,478]]}}}
{"ccle_rrbs_tss_clusters":{"corr":{"top":[["GSN_11",0.272015940694694,-3.4779152053643685,170]],"bottom":[["ROR1-AS1_1",-0.26817826753435253,-4.439897194263305,231],["XAGE3_2",-0.28117405569236953,-3.6907451043176462,170],["XAGE3_1",-0.2700605757513543,-3.4334265653636487,170]]},"para":{"top":[["HOXB6_3",0.31469748914236767,-2.8942308956847715,102],["GSN_11",0.2529898589377338,-3.0590115052010782,170]],"bottom":[["CST11_3",-0.2486214801566746,-2.862166016158633,163],["ZRANB1_2",-0.2623060522598889,-2.7418320639900085,139],["XAGE3_2",-0.26141285969517064,-3.240641432222562,170],["XAGE3_1",-0.2777567648050368,-3.6104641645431936,170],["MIR1228",-0.29589526243960523,-2.726759798795325,108]]}}}
{"ccle_rrbs_cgi_clusters":{"corr":{"top":[["11_129149207_129151917-2",0.2984685255336686,-3.141102116344877,125]],"bottom":[["19_17410036_17414417-2",-0.2592987460755569,-4.79690939535592,270],["20_50137690_50142540-3",-0.2872574900017594,-3.2372578594789427,140],["10_131692674_131696933-3",-0.25033397500090426,-2.7898653010099808,156],["3_193774091_193778308-1",-0.2893408436236471,-7.782712073025379,367]]},"para":{"top":[["11_129149207_129151917-2",0.27268248985637195,-2.6790392751821708,125],["1_234038298_234040878-3",0.26541759954450944,-3.3801011510030876,173]],"bottom":[["19_17410036_17414417-2",-0.2616003274094048,-4.875254121436876,270],["17_45727447_45730222-2",-0.23212065375895796,-2.7262774680770514,177],["14_106143948_106148803-2",-0.23481770251345319,-5.379680349035643,376],["13_20716755_20719372-3",-0.3199142568071618,-3.1320344357588654,108],["3_193774091_193778308-1",-0.2632806056758648,-6.508221992356292,367]]}}}
