{"depmap_hotspot":{"corr":{"top":[["ACOT4",0.1266970341870183,-2.314961237357973,10.0,483.0],["ASIC1",0.12892175936478822,-2.382921168100907,16.0,477.0],["C14orf132",0.1314088149780125,-2.460114387703315,8.0,485.0],["CA3",0.12891583515106664,-2.3827388314697373,16.0,477.0],["CCR8",0.11938933549695482,-2.0989323489843885,9.0,484.0],["CCRN4L",0.13331083032559468,-2.520021140923578,9.0,484.0],["CUL1",0.15354315554400674,-3.2046572466700556,19.0,474.0],["DHRS7C",0.1184555426671554,-2.0721189767486057,16.0,477.0],["DNAH17",0.17261341021269117,-3.930984951804858,98.0,395.0],["EMC10",0.11784212162619684,-2.054602012192717,10.0,483.0],["FAM72D",0.1365467973353079,-2.623686438638178,18.0,475.0],["GGTLC1",0.11903357252357813,-2.0886957486455477,8.0,485.0],["HESX1",0.13069189128316516,-2.4377301388548225,8.0,485.0],["MAGEA3",0.12081330562808709,-2.1401649653959085,11.0,482.0],["MAGEC2",0.15598905560197032,-3.2933682123334456,12.0,481.0],["OR1Q1",0.14137871892682513,-2.7825888435452506,11.0,482.0],["P2RY11",0.13482368675854572,-2.568212108173511,16.0,477.0],["SFRP5",0.1302906852106856,-2.4252502549078256,9.0,484.0],["SMTNL2",0.14190859699949693,-2.8003152926688206,10.0,483.0],["STRN4",0.16900857164117675,-3.787551786370327,15.0,478.0],["WBP1L",0.14566182777226233,-2.927585833497726,8.0,485.0],["YY2",0.11369216936201157,-1.938111087148075,12.0,481.0]],"bottom":[["ANKRD30A",-0.1487348398282384,-3.0340311166522564,67.0,426.0],["C22orf34",-0.14068217121653145,-2.759377326150681,11.0,482.0],["CTIF",-0.1511375718654763,-3.118670759715937,10.0,483.0],["CUEDC2",-0.15877245224887537,-3.3959002519504975,9.0,484.0],["DLGAP2",-0.14473027693384935,-2.8957171303413336,58.0,435.0],["DYRK4",-0.14102731672579907,-2.7708659700178973,15.0,478.0],["EXD3",-0.14710481535711822,-2.977317200117878,34.0,459.0],["FAM213A",-0.14321569069986811,-2.844297758157742,8.0,485.0],["GRTP1",-0.14992713128420465,-3.0758760475828497,13.0,480.0],["HS2ST1",-0.18223869599964557,-4.328185718113589,9.0,484.0],["KLRC1",-0.1484396613405477,-3.023718625553383,10.0,483.0],["LRRC61",-0.2072244740069338,-5.45771950830083,8.0,485.0],["MAPK8",-0.1423044073107487,-2.813595583117337,12.0,481.0],["MRPS22",-0.151882279442211,-3.145156497463228,9.0,484.0],["NANOG",-0.1897635046355194,-4.653269745129926,8.0,485.0],["OR4X2",-0.13367349490284697,-2.531529801449364,10.0,483.0],["PELI1",-0.1734273820220693,-3.9637719755642653,10.0,483.0],["PEX2",-0.19373108250825039,-4.829876270822459,10.0,483.0],["PIGV",-0.1526256717498355,-3.1717147968556407,11.0,482.0],["PMP22",-0.13398545512626633,-2.5414514985939385,9.0,484.0],["PZP",-0.13799487586577255,-2.6707899968108744,42.0,451.0],["SFXN1",-0.13739992185855218,-2.651383609109275,9.0,484.0],["SHH",-0.13354960119937057,-2.527595104111693,15.0,478.0],["TM7SF3",-0.13657692484652706,-2.62466193210031,9.0,484.0],["TREX2",-0.17236425717160841,-3.9209784899292357,8.0,485.0]]},"para":{"top":[["ACOT4",0.11718031270286365,-2.329053705546528,10.0,483.0],["BST1",0.12284217423121596,-2.4910334964142318,10.0,483.0],["C17orf80",0.13626609760828334,-2.9006800686443226,17.0,476.0],["CA3",0.14622427611631422,-3.2273925888327106,16.0,477.0],["CCRN4L",0.12115549283078975,-2.4420445776746114,9.0,484.0],["CXCR6",0.11439142121803625,-2.251739954522,13.0,480.0],["DHFRL1",0.11872741815343814,-2.372525034045902,8.0,485.0],["FAM58A",0.14500332270257968,-3.18582889838718,9.0,484.0],["GGTLC1",0.12386005238239912,-2.5206494292431256,8.0,485.0],["HESX1",0.13367410024876408,-2.8183255929780535,8.0,485.0],["IL11RA",0.12929710238510816,-2.683522025952541,12.0,481.0],["KLF9",0.12137833912883558,-2.4483831339572673,8.0,485.0],["MAGEC2",0.1246264989012398,-2.5435126121046068,12.0,481.0],["MARCH5",0.11182176518495876,-2.1815252093798354,10.0,483.0],["OR1Q1",0.1392969824545051,-2.9977397564748127,11.0,482.0],["P2RY11",0.1369746656909148,-2.9232398871372225,16.0,477.0],["P2RY4",0.11483564055125892,-2.2636509763571615,8.0,485.0],["PDCD1",0.12532651930495942,-2.5639216464913868,8.0,485.0],["PSME2",0.12025028764994306,-2.4159346699158277,8.0,485.0],["RANBP3L",0.11021062948779958,-2.1381054316505663,8.0,485.0],["SFRP5",0.12403000803855017,-2.5257359730279934,9.0,484.0],["SLC4A5",0.15507057990271525,-3.534501410431115,22.0,471.0],["SMTNL2",0.15529677334909284,-3.5419837209794123,10.0,483.0],["STRN4",0.16696028622295378,-3.9715556994285914,15.0,478.0],["WBP1L",0.1160200946040961,-2.2964732557038734,8.0,485.0],["YY2",0.12758608922765144,-2.6317318585093106,12.0,481.0],["ZMYND11",0.1373771142356362,-2.93607783287879,15.0,478.0]],"bottom":[["ANXA6",-0.11407785567769556,-2.2431662185604555,14.0,479.0],["FAM213A",-0.12414206525212224,-2.528938132249522,8.0,485.0],["HS2ST1",-0.11870683172788274,-2.3720312269358117,9.0,484.0],["NANOG",-0.1454622382031909,-3.2011442364505873,8.0,485.0],["OR5H1",-0.1339182726807828,-2.8264821921379677,16.0,477.0],["PEX2",-0.1465512193811914,-3.2381059339891194,10.0,483.0],["PIGV",-0.11555811325893305,-2.2838649002605753,11.0,482.0],["PRMT3",-0.11237225191818856,-2.196350356881576,9.0,484.0],["TCEB3C",-0.10949773671042817,-2.1192081101475666,9.0,484.0],["TREX2",-0.1303463483860311,-2.7152562236552362,8.0,485.0],["TRIM64B",-0.12777106362305218,-2.6373029221859476,12.0,481.0],["TSG101",-0.12323153159195001,-2.502325443117766,9.0,484.0]]}}}
{"depmap_damaging":{"corr":{"top":[["RASAL2",0.12196700270216546,-2.173876883025132,10.0,483.0],["TRERF1",0.14272489367355817,-2.8277402950639443,8.0,485.0]],"bottom":[["ANKRD30A",-0.17615877386364234,-4.074873647425943,14.0,479.0],["C7orf63",-0.12494917130488346,-2.2622884966694468,8.0,485.0],["COL5A3",-0.15021840992007476,-3.0861452856422056,10.0,483.0],["FLG2",-0.12349462743340021,-2.2189367970786575,10.0,483.0],["KCND2",-0.11793503043167501,-2.057250189644634,8.0,485.0],["KIAA1549",-0.12595762574866814,-2.2926015683568606,17.0,476.0],["KRT14",-0.1559867750313367,-3.293284893527507,11.0,482.0],["NWD1",-0.1301274810831186,-2.4201832492841118,8.0,485.0],["PZP",-0.1347621492210995,-2.566242498538559,9.0,484.0],["SLCO5A1",-0.11208865622193072,-1.8940371958106568,9.0,484.0],["TDRD5",-0.20380477730821067,-5.294593290534089,11.0,482.0],["ZSWIM6",-0.11857405191378778,-2.0755120188258074,9.0,484.0]]},"para":{"top":[["DIP2B",0.1173173538048225,-2.3327358676560603,8.0,485.0],["KRT17",0.12679805972009725,-2.607864374581154,9.0,484.0],["MAP3K15",0.14156471995896017,-3.0717760634891302,11.0,482.0],["MPDZ",0.11913268583273613,-2.384123043331381,9.0,484.0],["RASAL2",0.12698746570733108,-2.613619607750877,10.0,483.0],["TRERF1",0.13311007450931783,-2.8007017689462534,8.0,485.0],["UBBP4",0.12226482630402356,-2.474295111188932,11.0,482.0]],"bottom":[["KRT14",-0.14161296969309753,-3.073362444601615,11.0,482.0],["LPHN2",-0.11455475420556217,-2.255994850032404,9.0,484.0],["TDRD5",-0.13027428217082224,-2.7132981164040397,11.0,482.0]]}}}
{"prism_primary_logfold":{"corr":{"top":[],"bottom":[]},"para":{"top":[],"bottom":[["piretanide_BRD-K87990216-001-10-2::2.5::HTS",-0.19587746383349988,-3.217343342604171,303]]}}}
{"prism_secondary_logfold":{"corr":{"top":[],"bottom":[["loxistatin-acid_BRD-K21937671-001-09-2::0.00247486::HTS002",-0.23728762824276192,-3.790536075551252,248],["cyclovirobuxin-d_BRD-K27799744-001-02-8::0.630136::HTS002",-0.24736121788310822,-4.28655172713657,262]]},"para":{"top":[["prednisolone-tebutate_BRD-A53151380-001-01-2::0.0024414::HTS002",0.2585790220026801,-3.6292236831675027,198],["bucladesine_BRD-A94624445-236-17-0::10::HTS002",0.28782223462578477,-3.30905934104142,143]],"bottom":[["thiocolchicoside_BRD-K26619122-001-02-1::2.5::HTS002",-0.22925385662579933,-3.740367014443575,262],["cyclovirobuxin-d_BRD-K27799744-001-02-8::0.630136::HTS002",-0.2338867340627716,-3.8761099285590928,262],["JQ1-(+)_BRD-K54606188-001-13-1::0.00061034::HTS002",-0.21964629563307664,-3.47896924637488,263]]}}}
{"ccle_proteomics":{"corr":{"top":[["KAT2B_Q92831",0.36145921188340346,-4.012798876461112,111]],"bottom":[["ITPKA_P23677",-0.29319732193756853,-3.48313877273603,146],["PPWD1_Q96BP3",-0.2795018798937655,-5.159550231928848,251],["MSH2_P43246",-0.25499692667316315,-4.360505499911496,251]]},"para":{"top":[["KAT2B_Q92831",0.41286068107479357,-5.17409581044124,111]],"bottom":[["ITPKA_P23677",-0.31476772097596717,-3.9623232526449024,146],["CMTR2_Q8IYT2",-0.28411856080429776,-4.649007056011579,216],["WDR53_Q7Z5U6",-0.2663381680413915,-3.1265697362942557,157],["TMEM5_Q9Y2B1",-0.2738450146833821,-3.356898984167133,161]]}}}
{"depmap_gene_tpm":{"corr":{"top":[],"bottom":[["PRSS50_29122",-0.17838231537154892,-4.151706963238198,491]]},"para":{"top":[],"bottom":[]}}}
{"avana":{"corr":{"top":[["CCDC70_83446",0.20726709475895067,-4.058345252504947,353],["CFAP299_255119",0.23232862730893317,-4.985734725030531,353],["CNTD2_79935",0.23395311807914881,-5.049555107937612,353],["ENTPD1_953",0.20981226472112685,-4.147693590346479,353],["KIAA0825_285600",0.2094589508055538,-4.135225983690307,353],["MAP3K20_51776",0.2144818543342482,-4.314433645073592,353],["MMACHC_25974",0.199695090702461,-3.798876252365051,353],["PRMT8_56341",0.2118670224250412,-4.17847398913414,349],["TBX15_6913",0.19627053817980114,-3.684624376751293,353]],"bottom":[["DMRT3_58524",-0.19410271601689527,-3.6132901166007625,353],["TLL1_7092",-0.24475150545273808,-5.485502826962192,353]]},"para":{"top":[["CNTD2_79935",0.1992234719674872,-3.7830278129196806,353],["PRMT8_56341",0.20988605773491048,-4.108923134234624,349]],"bottom":[["DMRT3_58524",-0.19921352796823977,-3.782694044027624,353]]}}}
{"drive":{"corr":{"top":[["SEC13_6396",0.3620845473926571,-7.397006661951473,217]],"bottom":[["MXD1_4084",-0.32011619039679834,-5.833604242970788,217]]},"para":{"top":[["SEC13_6396",0.3846867290309323,-8.33760084691497,217],["RBX1_9978",0.37626305293951484,-8.217248932988754,224]],"bottom":[["EPHA8_2046",-0.2793958200279456,-4.563776520633391,219],["TNFAIP1_7126",-0.3025324345138095,-5.397288793285522,224]]}}}
{"achilles":{"corr":{"top":[["LCN12_286256",0.514931774056141,-34.54557013398094,501],["RARRES3_5920",0.4932327866335746,-31.348497074412602,501],["SETDB2-PHF11_107303344",0.4937053227044538,-31.415706501873757,501],["APOM_55937",0.5031642071940133,-32.78334248167015,501],["ADORA1_134",0.4739304489994727,-28.690706290789144,501],["ASPH_444",0.4800822384738817,-29.51947616099678,501],["ITPR3_3710",0.49510745183374205,-31.61575098478836,501]],"bottom":[["ELOVL5_60481",-0.2992980312504765,-6.581990852039748,285],["ALG9_79796",-0.2790743826123334,-9.688596206326988,501],["BTNL8_79908",-0.28661032584217727,-6.064750801757776,285],["SLC46A3_283537",-0.276908891722092,-5.685969741160056,285],["ASB8_140461",-0.28873021348495204,-6.14943453272735,285],["VPS13C_54832",-0.2800631237371116,-5.807553677649141,285],["TREML4_285852",-0.33018658134453327,-13.481236242019266,501],["CCDC196_440184",-0.2728108716381799,-5.530244565483867,285],["TPI1P2_286016",-0.36535821837409854,-16.540573236075716,501],["PLEKHJ1_55111",-0.3190971737151619,-7.440086041712178,285]]},"para":{"top":[["LCN12_286256",0.46670959279738494,-27.739111652892593,501],["DNAJC16_23341",0.44291569194201746,-24.759241730488032,501],["ITPR3_3710",0.48100911022498494,-29.645807441780182,501],["RARRES3_5920",0.4799329665096453,-29.49916666387131,501],["KALRN_8997",0.43055233821573285,-23.301170724876396,501],["APOM_55937",0.4809989155706468,-29.644415825077704,501],["ADORA1_134",0.44640093941913694,-25.181201282343245,501],["SETDB2-PHF11_107303344",0.4618893587679244,-27.116377327442724,501],["PRKN_5071",0.4634393019628212,-27.315537951569457,501]],"bottom":[["ELOVL5_60481",-0.2808508311078613,-5.838151946912324,285],["ISY1-RAB43_100534599",-0.27328017315756725,-9.304483003519481,501],["BTNL8_79908",-0.2963877337530183,-6.461127984679695,285],["TMTC1_83857",-0.29166405314075433,-6.267777671611252,285],["STAU1_6780",-0.26972011991811545,-5.4144579430263855,285],["SLC46A3_283537",-0.29094668327920203,-6.238717852045955,285],["VPS13C_54832",-0.2841278588000347,-5.966460337869668,285],["TREML4_285852",-0.35103842317599077,-15.248418194744819,501],["TPI1P2_286016",-0.34736691506735945,-14.927555757256163,501],["PLEKHJ1_55111",-0.3330443335965145,-8.083068954794436,285]]}}}
{"ccle_rrbs_tss1kb":{"corr":{"top":[["WDR13_23_48455196_48456196",0.21673776601375594,-4.506321279620254,363]],"bottom":[]},"para":{"top":[["RPAP1_15_41836475_41837475",0.24316775051316897,-2.493881247861604,145],["WDR6_3_49043823_49044823",0.22991998205566772,-5.089533317475334,369],["WDR6_3_49044037_49045037",0.21685027083476988,-4.6095394028541214,372]],"bottom":[["KLHL11_17_40021684_40022684",-0.19768897583736786,-3.8329270593323135,364],["SASH3_23_128912891_128913891",-0.22519777579066774,-4.509028221859629,336]]}}}
{"ccle_gene_tpm":{"corr":{"top":[["PCDHGA11_ENSG00000253873.1",0.2565006189573311,-7.892733249600249,478],["DISC1FP1_ENSG00000261645.1",0.20313243628941438,-5.1193868890609835,478]],"bottom":[["RP11-336N8.1_ENSG00000233457.1",-0.2027898649143365,-5.10372399943064,478],["None_ENSG00000269151.1",-0.21174631216812148,-5.521981146601981,478]]},"para":{"top":[["RP11-731F5.2_ENSG00000253364.1",0.17521101069677464,-3.928520373065789,478]],"bottom":[]}}}
{"ccle_rrbs_tss_clusters":{"corr":{"top":[["ARHGEF9_6",0.25149348074146877,-2.904656240924321,162],["SMS_3",0.2921413605613155,-3.584730464673888,152],["INTS4_1",0.26192879831977667,-3.1358161258093036,163],["FAM156A_2",0.2630168705004828,-2.8899463201141256,147],["MAOA_3",0.3277909592595421,-3.139756899717309,103],["SMYD2_1",0.2828421837551999,-3.0322248298997923,134]],"bottom":[]},"para":{"top":[["SMS_3",0.3016403946936175,-3.7985143705553757,152],["LUCAT1_2",0.2519580836543832,-4.146443763214527,243],["RPAP1",0.24416991611411545,-2.555384640558598,148],["STAG2_2",0.2933678438658424,-2.8136117766461997,114]],"bottom":[["DCT_4",-0.28165504810844183,-3.241699744719072,146]]}}}
{"ccle_rrbs_cgi_clusters":{"corr":{"top":[["23_62972713_62977218-3",0.25149348074146877,-2.904656240924321,162],["23_21959156_21961701-3",0.2921413605613155,-3.584730464673888,152],["23_53022599_53026966-2",0.2630168705004828,-2.8899463201141256,147],["11_77703600_77708035-1",0.26192879831977667,-3.1358161258093036,163],["23_43512030_43516793-3",0.3277909592595421,-3.139756899717309,103],["1_214452096_214457047-1",0.2828421837551999,-3.0322248298997923,134]],"bottom":[["12_54379399_54382102-3",-0.2360779721565103,-2.4671129176471807,152],["17_206071_208667-3",-0.2351687668707977,-5.188038165150863,360],["4_7938563_7941208-1",-0.23143046640779022,-3.5747433256476326,244]]},"para":{"top":[["23_123091923_123096582-2",0.2933678438658424,-2.8136117766461997,114],["23_21959156_21961701-3",0.3016403946936175,-3.7985143705553757,152],["15_41834145_41838612-1",0.24416991611411545,-2.555384640558598,148]],"bottom":[["1_17023923_17026933-2",-0.228750881138156,-5.176676224608388,380],["17_206071_208667-3",-0.2560518314285259,-6.070901480068478,360],["6_107387962_107390606-2",-0.2306652510133976,-2.593235911153634,169],["1_17732435_17736645-3",-0.2338112010029671,-2.720765889317785,174],["11_76751235_76753778-3",-0.23296573726940065,-5.213487457763226,369]]}}}
