{"depmap_hotspot":{"corr":{"top":[["ACAT2",0.13624384546778368,-2.6138878412310262,11.0,482.0],["AFTPH",0.12989692516454693,-2.4130346357661625,14.0,479.0],["CCNK",0.12250684069440457,-2.1897454014685445,10.0,483.0],["CLN8",0.12859622760213343,-2.3729127125643448,8.0,485.0],["CRX",0.14847591782579436,-3.024984291195623,12.0,481.0],["DLGAP1",0.15692997332607642,-3.3278402675425602,32.0,461.0],["FMNL1",0.150477879539572,-3.095308450571073,19.0,474.0],["GPATCH4",0.12364826133918876,-2.2234951171459687,9.0,484.0],["GPR68",0.14857189618722605,-3.0283361301199325,14.0,479.0],["GRM1",0.15429663182430808,-3.2318471274888543,55.0,438.0],["KLC4",0.15785394662856198,-3.3618788561737403,17.0,476.0],["MYOC",0.1256143982471115,-2.282260882914142,17.0,476.0],["N4BP2",0.13910325402867765,-2.7071428000780564,34.0,459.0],["NDE1",0.1403902809712193,-2.749681073527345,11.0,482.0],["NKX2-6",0.12713797737090352,-2.3283492962751824,13.0,480.0],["NRSN1",0.13598466852039146,-2.6055204295061647,10.0,483.0],["PITX1",0.1502627547590787,-3.0877102961633356,16.0,477.0],["PPARA",0.13242367403535077,-2.4919846349605947,12.0,481.0],["PRICKLE4",0.13233279202350268,-2.4891218275443947,9.0,484.0],["RAVER2",0.1469045999193726,-2.970390317484931,21.0,472.0],["SIL1",0.12391282537944663,-2.231356152338006,14.0,479.0],["SIX5",0.14102986076078605,-2.770950745549692,26.0,467.0],["SUFU",0.124304732086671,-2.2430275003790316,12.0,481.0],["TMEM115",0.12521372711824205,-2.2702204002524184,9.0,484.0],["TRAPPC5",0.13366730612816644,-2.5313331779064367,13.0,480.0],["VN1R1",0.12935404536895026,-2.3962458720319013,10.0,483.0],["ZMYM2",0.14801454923472893,-3.0088995708455792,27.0,466.0]],"bottom":[["ACTG1",-0.1387239641694229,-2.694673550915679,19.0,474.0],["ADORA1",-0.11923933944839833,-2.094613253580542,9.0,484.0],["AK2",-0.17006222917020114,-3.829177518448498,8.0,485.0],["ALLC",-0.1220201226363884,-2.1754356804758403,14.0,479.0],["DAZL",-0.17256659651851636,-3.929103770131226,8.0,485.0],["FAHD1",-0.1279080859637921,-2.351828380103155,9.0,484.0],["HAS2",-0.19080739530534538,-4.6993862259558306,12.0,481.0],["LRTM1",-0.11970512480987043,-2.1080404871537377,12.0,481.0],["MYF6",-0.1554988935048461,-3.275486489744641,10.0,483.0],["OR2D2",-0.13068373280560366,-2.437476027301521,8.0,485.0],["PAICS",-0.12368812139380529,-2.224678561250235,8.0,485.0],["ZSCAN9",-0.151773486247094,-3.1412797762687634,8.0,485.0]]},"para":{"top":[["ACAT2",0.1464861818382366,-3.2359815133706724,11.0,482.0],["AFTPH",0.13643006912644465,-2.905777870098138,14.0,479.0],["ALG6",0.1137427453744544,-2.2337688415069814,10.0,483.0],["ASCL4",0.13093636033082168,-2.7337374112912936,13.0,480.0],["CCNK",0.13052611935859604,-2.7209476628018794,10.0,483.0],["CENPBD1",0.12051675776564412,-2.423745120828273,10.0,483.0],["CIB3",0.11328777439295656,-2.2213303639003885,10.0,483.0],["CLN8",0.1282594435163772,-2.6517373004726,8.0,485.0],["CRX",0.16680064852403204,-3.9653147084214084,12.0,481.0],["CTDSPL",0.1099850109309303,-2.1320874297403645,8.0,485.0],["DKC1",0.1193478375024864,-2.390155327988741,8.0,485.0],["EVI2A",0.10795451842143619,-2.078371659523587,8.0,485.0],["GPATCH4",0.12440262103628409,-2.5367035415937234,9.0,484.0],["GPR68",0.14891470752763813,-3.318978650907408,14.0,479.0],["GPRC5B",0.10028376894112515,-1.8826350386922104,8.0,485.0],["GSX1",0.1177869318766572,-2.3461080191556056,10.0,483.0],["HOXB1",0.1288904797006526,-2.6712153607968587,13.0,480.0],["HSPBAP1",0.13099801834348235,-2.7355183877680074,11.0,482.0],["MCAT",0.11657755244735224,-2.312104295744969,9.0,484.0],["MRGPRX4",0.12540104960394496,-2.5663740562365116,11.0,482.0],["MTIF3",0.11460797736034216,-2.2574609532200354,9.0,484.0],["NDE1",0.14812667267568722,-3.291793285444098,11.0,482.0],["NRSN1",0.12400486862379405,-2.5250757543593365,10.0,483.0],["OR6C3",0.12295760196380925,-2.4942304440623593,8.0,485.0],["OTUD5",0.12103991459373149,-2.438622115217831,8.0,485.0],["PITX1",0.14200161721273985,-3.086422364431761,16.0,477.0],["PPARA",0.1418753506159496,-3.0820633522637673,12.0,481.0],["PPP1R7",0.1116206854524672,-2.175940312474751,8.0,485.0],["PRICKLE4",0.12839500296941253,-2.655933115468642,9.0,484.0],["RABL3",0.11900942208423738,-2.3805293190033394,8.0,485.0],["SFTPA1",0.11806804170238688,-2.353959833389203,9.0,484.0],["SIL1",0.1411493482471707,-3.0583137947163435,14.0,479.0],["SOWAHD",0.11907944512544609,-2.3826093695739115,9.0,484.0],["SPATS1",0.11394495469956453,-2.239309999934338,10.0,483.0],["SUFU",0.1344763753556654,-2.843822218411943,12.0,481.0],["THAP2",0.11359477539225311,-2.229559029408318,8.0,485.0],["TMEM115",0.1368056209085366,-2.9174243135184863,9.0,484.0],["TMEM41B",0.11604523485626844,-2.2972611322798735,9.0,484.0],["TMEM68",0.13760823142379805,-2.9432714913299476,11.0,482.0],["TRAPPC5",0.1318258736482865,-2.7611792318193142,13.0,480.0],["UBE2Q1",0.11593877133805167,-2.2942991418589944,9.0,484.0],["VN1R1",0.12516757224317734,-2.5593842990247024,10.0,483.0]],"bottom":[["AK2",-0.13717104953026793,-2.9290024129608003,8.0,485.0],["ALLC",-0.1314533747809517,-2.749716989742688,14.0,479.0],["CDC14B",-0.1213684107671064,-2.4481880092593586,9.0,484.0],["DAZL",-0.14134483968867245,-3.0642849504217464,8.0,485.0],["HAS2",-0.16009532719439948,-3.7154082544310776,12.0,481.0],["MYF6",-0.1330537359224729,-2.799127261511288,10.0,483.0],["OR1J1",-0.11093498598186394,-2.1575783418464343,9.0,484.0],["OR2D2",-0.12025027861781716,-2.4159344112270014,8.0,485.0],["RNH1",-0.1204102391031556,-2.4206114512672525,9.0,484.0],["SIRT5",-0.11618929359882894,-2.3011842698533687,8.0,485.0],["WIPF2",-0.12862362570541316,-2.6631213155570124,13.0,480.0],["ZFP82",-0.14879806958004455,-3.315066339304226,16.0,477.0],["ZSCAN9",-0.1401603857248009,-3.0255412816723193,8.0,485.0]]}}}
{"depmap_damaging":{"corr":{"top":[["DSCAM",0.10915096325326187,-1.8146409620344295,11.0,482.0],["LTBP1",0.1032963281788072,-1.6615814538953526,8.0,485.0],["RASA2",0.12232437406569781,-2.1843750886397,8.0,485.0],["RBM6",0.11237593639653283,-1.901895030657485,9.0,484.0],["RPRD2",0.15253503395814214,-3.1684703003874763,13.0,480.0],["SIN3B",0.11441249890951015,-1.9580796917287133,9.0,484.0],["SOX9",0.12587894614620887,-2.2902289706607712,8.0,485.0],["TRPM2",0.11999165083247772,-2.1163222901554635,10.0,483.0],["ZNF347",0.1173734550287727,-2.041270507418074,10.0,483.0]],"bottom":[["AHI1",-0.12388069299635883,-2.230400626693852,11.0,482.0]]},"para":{"top":[["HPS3",0.11203420233469424,-2.1874317859585557,13.0,480.0],["LTBP1",0.11968625292073543,-2.3998037769387985,8.0,485.0],["RASA2",0.124875289333887,-2.5505617425076945,8.0,485.0],["RBM6",0.11828096873882041,-2.359974671922354,9.0,484.0],["RPRD2",0.15922288382620303,-3.683624387996337,13.0,480.0],["SCN9A",0.11608148792915919,-2.2985140271885096,13.0,480.0],["SOX9",0.1199118631995681,-2.4062485464263745,8.0,485.0],["TRPM2",0.12284216500441074,-2.491033227430278,10.0,483.0]],"bottom":[["AHI1",-0.10518441251889192,-2.0065866909852366,11.0,482.0],["ANO4",-0.1259550857530187,-2.582954093674585,13.0,480.0],["KDR",-0.1143280087984594,-2.249667847413875,8.0,485.0]]}}}
{"ccle_rrbs_enhancer_clusters":{"corr":{"top":[],"bottom":[]},"para":{"top":[["1-10923202-10927728-2_enh",0.18569832961733784,-3.555789214252236,379],["3-55522543-55525401-0_enh",0.23826330210810182,-5.419864438255356,368]],"bottom":[]}}}
{"prism_primary_logfold":{"corr":{"top":[],"bottom":[["CFTRinh-172_BRD-K72004355-001-01-9::2.5::HTS",-0.2674600227498263,-5.649972770317298,304],["pibenzimol_BRD-K79132813-001-09-0::2.5::HTS",-0.23519976593511258,-4.411409239393791,300]]},"para":{"top":[],"bottom":[["CFTRinh-172_BRD-K72004355-001-01-9::2.5::HTS",-0.25665333504474774,-5.234652425357091,304],["pibenzimol_BRD-K79132813-001-09-0::2.5::HTS",-0.24020809166344442,-4.582999132765692,300]]}}}
{"prism_secondary_logfold":{"corr":{"top":[],"bottom":[["mocetinostat_BRD-K16485616-001-08-9::2.5::HTS002",-0.24482368475535995,-2.493601692805398,143],["AZD1480_BRD-K65928735-001-04-3::2.5::HTS002",-0.22834223279709276,-3.751085642542823,265]]},"para":{"top":[],"bottom":[["pomalidomide_BRD-A12994259-001-02-1::0.15625::HTS002",-0.22289121056922975,-3.51111260448261,258],["combretastatin-A-4_BRD-K61195623-001-01-4::0.00244141::HTS002",-0.25221468793168433,-4.47023075516391,264],["AZD1480_BRD-K65928735-001-04-3::2.5::HTS002",-0.24018011630630984,-4.105847567943995,265],["NVP-BHG712_BRD-K79259477-001-04-9::2.5::HTS002",-0.2716058038655957,-4.910986487382304,252]]}}}
{"ccle_proteomics":{"corr":{"top":[],"bottom":[["BMP1_P13497",-0.2905203943908771,-3.076710212642062,129]]},"para":{"top":[["MNX1_P50219",0.34318879544770386,-3.4415712240605356,104]],"bottom":[["BMP1_P13497",-0.28361669566925046,-2.948569052804067,129]]}}}
{"depmap_gene_tpm":{"corr":{"top":[],"bottom":[["CNTN5_53942",-0.2232769626974171,-6.237360406120141,491],["TTC14_151613",-0.20931834315212647,-5.538677519459208,491],["YTHDF3_253943",-0.20888638848454041,-5.517790869948636,491],["WWP2_11060",-0.19900209704795827,-5.051740955658352,491]]},"para":{"top":[],"bottom":[["ADAM28_10863",-0.22933586372611384,-6.555117767347528,491],["TTC14_151613",-0.20511552256132806,-5.337309542479226,491],["FAM71F2_346653",-0.19778438141641008,-4.995892330752813,491]]}}}
{"avana":{"corr":{"top":[["KCNK16_83795",0.18773143822424568,-3.408050638104117,353]],"bottom":[["WDR63_126820",-0.2056227117455831,-4.0011916926632445,353]]},"para":{"top":[["GFRA3_2676",0.20605408919500404,-4.01614160876836,353]],"bottom":[]}}}
{"achilles":{"corr":{"top":[["CCDC167_154467",0.24185722633603948,-4.4337707936298205,285],["PPP4R3B_57223",0.29405700371879107,-6.365291434691222,285],["CEP120_153241",0.27576841911758443,-5.6423783413425825,285],["EME2_197342",0.24875401654323087,-4.94254417912522,304],["C7orf71_285941",0.2509485850789377,-4.7414368998782725,285]],"bottom":[["EML4_27436",-0.25165765039597326,-4.765928977053486,285],["LY86_9450",-0.2607494584645319,-5.086408449556866,285]]},"para":{"top":[["CCDC167_154467",0.2615480755972149,-5.115133356956849,285],["C20orf196_149840",0.2889002069653212,-6.156255294547455,285],["CEP120_153241",0.25037978194130833,-4.721841835120732,285],["EME2_197342",0.25646056812326606,-5.2274095101216655,304],["C7orf71_285941",0.24040170217090318,-4.3856022007318645,285]],"bottom":[["EML4_27436",-0.2299233256284073,-4.047592055489909,285],["MARVELD1_83742",-0.24560998804343961,-4.5593449977776155,285],["LY86_9450",-0.25442973209329506,-4.862374736665566,285]]}}}
{"ccle_rrbs_tss1kb":{"corr":{"top":[["GDF6_8_97173020_97174020",0.24129831645027988,-5.588382903234444,371],["ANO5_11_22213721_22214721",0.26341211015523247,-6.659816487450687,376],["NCAM2_21_22369613_22370613",0.24451375130936176,-5.754571892309703,373],["BEND5_1_49242641_49243641",0.2832186784814442,-3.4100057964024217,153],["DYDC2_10_82115523_82116523",0.23661040149029003,-5.298729163495463,364],["PDGFD_11_104035027_104036027",0.24747238456907947,-5.312344092232577,333],["RAET1G_6_150244288_150245288",0.24842732723533295,-3.881033043424336,232]],"bottom":[]},"para":{"top":[["RAMP2_17_40912211_40913211",0.238333651233192,-5.409559776368865,367],["RAET1G_6_150244288_150245288",0.269088518209921,-4.4846203514861545,232],["BEND5_1_49242641_49243641",0.275180470304789,-3.239447796872072,153],["DNAJB5_9_34988637_34989637",0.2396309020488672,-5.5709405923237085,375],["PDGFD_11_104035027_104036027",0.24748729063965635,-5.31293302092893,333],["COL9A3_20_61447401_61448401",0.23991062911842673,-5.623164794506881,378],["ANO5_11_22213721_22214721",0.2512050267684371,-6.094245669956913,376],["LOC401478_8_139095788_139096788",0.30991888274334356,-4.523309254498028,175]],"bottom":[]}}}
{"ccle_gene_tpm":{"corr":{"top":[],"bottom":[["RP11-1094M14.7_ENSG00000267312.1",-0.20984593151632486,-5.431708268953083,478],["ADAM28_ENSG00000042980.8",-0.22637790014710935,-6.2449118455851025,478],["YTHDF3_ENSG00000185728.12",-0.2144461257385665,-5.65165214952941,478],["TTC14_ENSG00000163728.6",-0.2254719894200158,-6.198705855234614,478],["CNTN5_ENSG00000149972.6",-0.22888067250341795,-6.373567102116868,478],["AP000797.4_ENSG00000257067.1",-0.21266649279604113,-5.565989151619511,478],["ZNF550_ENSG00000251369.4",-0.21572293021362948,-5.713560158961924,478]]},"para":{"top":[["RN7SL540P_ENSG00000264995.1",0.1834549171444342,-4.262243905745359,478]],"bottom":[["RP11-274B21.8_ENSG00000270810.1",-0.2227673708378964,-6.061899069251717,478],["CCDC39_ENSG00000145075.7",-0.2321384473362132,-6.543244070702182,478],["IMPAD1_ENSG00000104331.4",-0.21745413184544,-5.798100740182506,478],["ADAM28_ENSG00000042980.8",-0.23753290638246305,-6.82973977393783,478],["ZNF75A_ENSG00000162086.10",-0.21952202162609644,-5.899991158141126,478],["TTC14_ENSG00000163728.6",-0.21657177882728845,-5.75492593374938,478],["RP11-15A1.3_ENSG00000267058.1",-0.22805967202294988,-6.331201203810656,478]]}}}
{"ccle_rrbs_tss_clusters":{"corr":{"top":[["MIR381_3",0.26983401635259036,-2.7915379131312106,134],["COX17_1",0.27040829606844374,-3.370730315712345,166],["MIR378C_2",0.28746054067255916,-4.5140981017600526,204],["MIR4536-2_3",0.2602010933557806,-6.002967805523284,344],["ANO5_1",0.25632217851823147,-6.40430815017362,381]],"bottom":[["FAIM_3",-0.2452420354400533,-2.677664338464665,155]]},"para":{"top":[["BIN1_9",0.29271571162444915,-5.6840605290310595,254],["AARD_2",0.304180490876329,-3.6776202947411663,144],["ARHGEF7_4",0.2862597585611399,-4.459979755954218,203],["SEMA6D_3",0.2950653818460372,-2.67024167048382,106],["MIR4536-2_2",0.27010303291820287,-6.420471295733329,343],["MIR378C_2",0.27172410970063526,-4.073340111537925,204],["SELENOV_3",0.29807076501173047,-3.8247060500448207,157],["MIR4536-2_3",0.2622057863664343,-6.08953038127221,344],["LINC02011_3",0.28055433797514356,-2.4852266728892856,108]],"bottom":[]}}}
{"ccle_rrbs_cgi_clusters":{"corr":{"top":[["15_21965418_21970306-1",0.27243749958986413,-3.020020128481866,144],["5_77941868_77944544-2",0.3448480178889797,-3.9694057258442332,121],["22_29876581_29879242-3",0.2921375427513283,-3.8731652646288843,166],["7_71801763_71804768-3",0.32545692920372354,-3.1519969360583677,105],["3_119393989_119398387-1",0.27040829606844374,-3.370730315712345,166]],"bottom":[["11_9635517_9638065-3",-0.2994275774700938,-3.769741507177465,153],["3_138325500_138330185-3",-0.2452420354400533,-2.677664338464665,155]]},"para":{"top":[["15_21965418_21970306-1",0.29210959539841536,-3.418521624670653,144],["6_150241902_150246210-3",0.3250156221208306,-3.7148954736290216,127],["7_71801763_71804768-3",0.3384399644358059,-3.383452298273806,105],["19_40003648_40007869-3",0.29807076501173047,-3.8247060500448207,157],["15_47476934_47479499-3",0.2950653818460372,-2.67024167048382,106],["8_117948472_117952717-2",0.304180490876329,-3.6776202947411663,144],["4_190282977_190287534-3",0.2857762784166993,-3.3663791824275524,148],["3_14852461_14855094-3",0.28055433797514356,-2.4852266728892856,108],["20_34894553_34897214-1",0.28118602111228025,-7.590855981667805,379]],"bottom":[]}}}
