{"depmap_hotspot":{"corr":{"top":[["ACOT8",0.11799315559539353,-2.058907826966028,11.0,482.0],["ADAM20",0.16150044114599926,-3.4980302448377354,20.0,473.0],["C5AR1",0.14922598684831354,-3.051231520933788,12.0,481.0],["C8orf58",0.1364453493186212,-2.620403077003451,14.0,479.0],["CD14",0.16380707143914733,-3.58565646477018,11.0,482.0],["FAM92B",0.1060328791732245,-1.7322697001228926,8.0,485.0],["FBXO43",0.1575817001550368,-3.3518301652045817,16.0,477.0],["GPR27",0.13039632837344056,-2.4285331250384603,13.0,480.0],["HIST2H2BF",0.1389396393336434,-2.701760194683237,8.0,485.0],["IQCD",0.12113895395824228,-2.14965294570804,12.0,481.0],["KCTD18",0.13381026585025513,-2.5358772014219677,12.0,481.0],["PRSS33",0.14055091993207147,-2.7550150768915627,10.0,483.0],["RFPL2",0.12977547055150246,-2.4092732724537407,9.0,484.0],["RGS11",0.12540154261716038,-2.275860266918582,8.0,485.0],["SNRNP35",0.15408915427935255,-3.2243478506347807,9.0,484.0],["ZWINT",0.13721440937683896,-2.6453477838879373,11.0,482.0]],"bottom":[["ACSM3",-0.1820517405005552,-4.320272403506995,13.0,480.0],["ADPGK",-0.14800388704857467,-3.008528394277396,10.0,483.0],["ALDH7A1",-0.14595364390143126,-2.937607106391006,9.0,484.0],["ASB14",-0.15287184046862867,-3.1805356783402265,12.0,481.0],["BMP8A",-0.15123842658741532,-3.122250686522637,9.0,484.0],["CA8",-0.1788697152010448,-4.186794750225681,9.0,484.0],["CACNB2",-0.1546722267459599,-3.245446722222621,29.0,464.0],["CDC25A",-0.14524434769830152,-2.913280767494912,12.0,481.0],["CETN1",-0.14335999179542247,-2.849175634543596,8.0,485.0],["CFLAR",-0.17857586025791247,-4.174583259203432,14.0,479.0],["COL11A2",-0.15828004128698012,-3.3776385212999727,64.0,429.0],["DUSP13",-0.15695034115036188,-3.3285886034986256,14.0,479.0],["DYRK3",-0.16125587450325785,-3.48880781285085,16.0,477.0],["EIF3A",-0.14649378744571048,-2.9562042491169342,29.0,464.0],["FAIM2",-0.14713219123941876,-2.9782649946738267,11.0,482.0],["FTSJ3",-0.14685350032604044,-2.968623792372898,9.0,484.0],["GAN",-0.15218245192617713,-3.155866045407342,26.0,467.0],["GAS6",-0.16250323934901423,-3.535982023717814,24.0,469.0],["ITGB5",-0.15677156560984754,-3.322023274659927,25.0,468.0],["KCNK3",-0.14793732132037096,-3.006211631051727,17.0,476.0],["MX1",-0.1553132250515104,-3.26872668736581,21.0,472.0],["NUP85",-0.17226709777717955,-3.9170801277620018,13.0,480.0],["OR2AK2",-0.15698989152404508,-3.330041984758923,16.0,477.0],["OR5L1",-0.17233395343055857,-3.9197623763266245,20.0,473.0],["OVCA2",-0.16145616854074551,-3.496359786206046,8.0,485.0],["PINK1",-0.14805652146541043,-3.0103609629456356,13.0,480.0],["PRDM4",-0.1926871800159178,-4.783059669212971,18.0,475.0],["PTAR1",-0.1485618783906096,-3.0279861875834437,9.0,484.0],["RASL10B",-0.1564275883258409,-3.3094106408713193,11.0,482.0],["SGSM3",-0.14660266728244087,-2.9599605408460135,11.0,482.0],["SLC7A1",-0.14931038838497543,-3.0541925556863854,21.0,472.0],["SLITRK3",-0.14615973860029932,-2.9446955845524743,55.0,438.0],["SNX5",-0.15356266810029773,-3.205359825600296,20.0,473.0],["SOAT1",-0.15157579036592422,-3.1342416445889008,8.0,485.0],["TAAR1",-0.1590883822501395,-3.4076447839135597,10.0,483.0],["TJAP1",-0.14659771110214226,-2.959789500364089,20.0,473.0],["TMEM68",-0.15071618330013753,-3.1037369126509846,11.0,482.0],["TOMM40L",-0.1587405137523149,-3.3947141664898792,9.0,484.0],["TRIM45",-0.144624041744728,-2.892094553272304,13.0,480.0],["TSTD2",-0.16091903137773295,-3.4761271307955908,12.0,481.0],["UBE2Q1",-0.1667578447433949,-3.6994576480199575,9.0,484.0],["UBQLN4",-0.18361646821209343,-4.386746714632929,10.0,483.0],["UBXN7",-0.1562336211419027,-3.302309771115562,16.0,477.0],["VASP",-0.15112197913246747,-3.1181174776468157,8.0,485.0],["VPRBP",-0.15916667936818218,-3.4105588043651465,22.0,471.0],["ZFAND1",-0.16149973441915738,-3.4980035758138444,8.0,485.0],["ZSCAN21",-0.14816139859192906,-3.014014233955656,12.0,481.0]]},"para":{"top":[["ABHD3",0.1250632795718737,-2.556364170549903,11.0,482.0],["ACOT8",0.12168579902788021,-2.457506464630405,11.0,482.0],["ADAM20",0.160778030268661,-3.740808985959731,20.0,473.0],["C15orf32",0.11404603937451278,-2.2420830192329944,10.0,483.0],["C5AR1",0.1366960439765243,-2.914150221438128,12.0,481.0],["C8orf58",0.13891839195247807,-2.9856524497644954,14.0,479.0],["CASP7",0.13285782623293446,-2.7931566760046174,12.0,481.0],["DGCR2",0.15397553133521935,-3.49577019038459,27.0,466.0],["FAM92B",0.11861458330799446,-2.369326738468125,8.0,485.0],["FBXO43",0.15873131829776577,-3.6659021068335718,16.0,477.0],["HIST2H2BF",0.14512378642485485,-3.1897665674849907,8.0,485.0],["IQCD",0.11412917338770702,-2.2444834109481917,12.0,481.0],["PABPC1",0.12169343859022112,-2.4579231350377704,15.0,478.0],["PRSS33",0.14255754921814096,-3.1044362609904113,10.0,483.0],["SNRNP35",0.14585499439454547,-3.2144831184640195,9.0,484.0],["SNX17",0.14308694340603587,-3.1218831520309593,9.0,484.0],["TARM1",0.11348195036409171,-2.226474120765738,8.0,485.0],["ZWINT",0.13480972342739786,-2.8542583295355364,11.0,482.0]],"bottom":[["ACSM3",-0.18172753890865714,-4.554437959838112,13.0,480.0],["ADAP2",-0.11764216701165892,-2.341956192482703,9.0,484.0],["ALDH7A1",-0.11136082053773322,-2.1690238852703367,9.0,484.0],["AQP2",-0.12734130017038905,-2.624240196084807,10.0,483.0],["B3GAT3",-0.1416994466380278,-3.0763310138326725,13.0,480.0],["BMP8A",-0.12317826898867813,-2.500768298686582,9.0,484.0],["BRMS1",-0.1264142717894711,-2.5965359792280784,11.0,482.0],["C11orf65",-0.11434179852535897,-2.250134228012461,9.0,484.0],["CA8",-0.1510717058728904,-3.3931673663173743,9.0,484.0],["CDC25A",-0.1345225953747325,-2.8452766795358295,12.0,481.0],["CDR2",-0.12354987598905552,-2.511722465663049,10.0,483.0],["CETN1",-0.11630207835524708,-2.3043276465847446,8.0,485.0],["CFLAR",-0.14543957650367517,-3.200835949127339,14.0,479.0],["DAP3",-0.10987218653541282,-2.129081731458702,8.0,485.0],["FAIM2",-0.1328797345451158,-2.793776520312405,11.0,482.0],["FTSJ3",-0.14095767341487447,-3.0516937574918463,9.0,484.0],["GBP2",-0.13831115413504738,-2.965800096297025,10.0,483.0],["H2AFJ",-0.12506327957187366,-2.556364170549903,11.0,482.0],["HSPA4",-0.15611835063083424,-3.5714744853413714,12.0,481.0],["IGFBP7",-0.12339119598779426,-2.506996612625403,9.0,484.0],["KCNMB1",-0.1061496175870878,-2.0312941409792007,8.0,485.0],["KLF9",-0.11709171419277059,-2.3264048761963614,8.0,485.0],["MCOLN2",-0.16488431847500365,-3.8931921108951486,16.0,477.0],["METTL15",-0.12779627107214905,-2.6379327752162927,10.0,483.0],["MFAP4",-0.1199843640019363,-2.4084124120254984,9.0,484.0],["MFSD2A",-0.12966670700160693,-2.6946539960819647,10.0,483.0],["N4BP3",-0.1267037701218134,-2.605191034117251,11.0,482.0],["NAA10",-0.12961308247350034,-2.692839773391633,8.0,485.0],["NUP85",-0.13836377228214203,-2.9676918764112186,13.0,480.0],["OR5L1",-0.17389023538830237,-4.239841679751819,20.0,473.0],["OVCA2",-0.15059483472769625,-3.3764969039739805,8.0,485.0],["PAQR5",-0.12602827401301472,-2.5850216128315586,11.0,482.0],["PCBP3",-0.12764973597011667,-2.633437585890158,9.0,484.0],["PGLYRP4",-0.15063563226211021,-3.3781946907568807,11.0,482.0],["PINK1",-0.13418306042276518,-2.834657530552052,13.0,480.0],["POU5F1",-0.12273197017508129,-2.487650160873526,8.0,485.0],["PRDM4",-0.1701436359954173,-4.093624400966579,18.0,475.0],["PTAR1",-0.14404511490205832,-3.1537636862417107,9.0,484.0],["RASL10B",-0.14938113948862689,-3.3348357655475134,11.0,482.0],["RP11-1407O15.2",-0.12419843673048209,-2.530596836199788,8.0,485.0],["SGSM3",-0.1313357434392902,-2.745922756048334,11.0,482.0],["SLC39A14",-0.12975950588569932,-2.697617677394838,12.0,481.0],["SOAT1",-0.13107954902890118,-2.7377770348906805,8.0,485.0],["TAAR1",-0.14852272326343904,-3.3052693574178593,10.0,483.0],["TEX101",-0.11415878108196899,-2.2450175006166413,8.0,485.0],["TMEM68",-0.1405031906301297,-3.036992003129955,11.0,482.0],["TOMM40L",-0.13850901292503903,-2.972093532479396,9.0,484.0],["TRIM45",-0.1337827795000589,-2.8221023002805743,13.0,480.0],["TRMT10C",-0.11689692251475246,-2.3210361979553804,9.0,484.0],["TSTD2",-0.1344763517874603,-2.8438214771260752,12.0,481.0],["UBE2Q1",-0.14851658188349692,-3.304967124041677,9.0,484.0],["UBQLN4",-0.1364912705280073,-2.9074838983375364,10.0,483.0],["XK",-0.11184627612922161,-2.182029258613329,8.0,485.0],["ZBTB26",-0.12641427178947112,-2.5965359792280784,11.0,482.0],["ZFAND1",-0.13649419477191943,-2.907390668361942,8.0,485.0]]}}}
{"depmap_damaging":{"corr":{"top":[["C10orf76",0.12851287243374016,-2.370353508314936,8.0,485.0],["CD93",0.13735122516287177,-2.6497985130308934,9.0,484.0],["PRKAA2",0.1626467189128544,-3.5414301572744,14.0,479.0],["SDK1",0.12383317099433372,-2.2289878482887024,8.0,485.0],["SH3RF2",0.1384442444849101,-2.6854971829686987,9.0,484.0],["TLR10",0.11521801853838998,-1.9805347565425857,8.0,485.0]],"bottom":[["AEBP1",-0.1280955971468698,-2.357563875329086,8.0,485.0],["ARHGAP31",-0.12266476030312146,-2.1943987882153144,10.0,483.0],["COL2A1",-0.1263565284229736,-2.3046502857236444,11.0,482.0],["CYLC2",-0.1254743834624234,-2.27804955177631,8.0,485.0],["EGFR",-0.1338553693219034,-2.5373117203134714,8.0,485.0],["MYO5C",-0.11640519286740612,-2.013869721049812,8.0,485.0],["PRRG1",-0.126807325653904,-2.3183061596266445,12.0,481.0],["RNF123",-0.16372522470802953,-3.5825272232420606,8.0,485.0]]},"para":{"top":[["C10orf76",0.12329599577331235,-2.5041180600948647,8.0,485.0],["CD93",0.13095010445641675,-2.7338908575190035,9.0,484.0],["DLG5",0.11680970139365504,-2.318506161671526,8.0,485.0],["PRKAA2",0.17092367928927504,-4.12362641985882,14.0,479.0],["SH3RF2",0.1250946119807233,-2.5571442614239017,9.0,484.0],["TLR10",0.12171672409826538,-2.4581654917872733,8.0,485.0],["ZNF226",0.1236573547366894,-2.5147945441527084,9.0,484.0]],"bottom":[["ARHGAP31",-0.13355923582777604,-2.8149143644362407,10.0,483.0],["CYLC2",-0.1203630626625108,-2.419167418726293,8.0,485.0],["EGFR",-0.12374721625189723,-2.5173374209863515,8.0,485.0],["ITGAE",-0.1256649032858829,-2.57396675320443,8.0,485.0],["RNF123",-0.13468931285758,-2.850206444904024,8.0,485.0],["TAOK1",-0.10840571998001206,-2.09023893595572,8.0,485.0]]}}}
{"ccle_rrbs_enhancer_clusters":{"corr":{"top":[],"bottom":[["17-41638235-41642900-0_enh",-0.30550532389762347,-5.763126413506138,236],["17-41638235-41642900-2_enh",-0.27942299805804216,-4.842648122905317,234]]},"para":{"top":[],"bottom":[["17-41638235-41642900-0_enh",-0.28778644673756454,-5.15349864372378,236],["17-41638235-41642900-2_enh",-0.26683635288250684,-4.450163001300257,234],["7-42183602-42186555-1_enh",-0.2528696331256027,-6.005797778124003,365]]}}}
{"prism_primary_logfold":{"corr":{"top":[["T-0901317_BRD-K23383398-001-09-9::2.5::HTS",0.20296018556238357,-3.4036090246922988,301]],"bottom":[]},"para":{"top":[],"bottom":[]}}}
{"prism_secondary_logfold":{"corr":{"top":[["papaverine_BRD-K15567136-003-27-2::0.0390625::HTS002",0.21625305249349744,-3.0833804644466563,236],["dasatinib_BRD-K49328571-001-15-0::10::HTS002",0.2627337745368486,-3.932208975554801,210],["Y-39983_BRD-K56751279-300-01-4::0.15625::HTS002",0.2312137421677346,-3.683250709545534,253],["brigatinib_BRD-K56981171-001-01-0::0.156249998::MTS006",0.3009077487425667,-6.072592905532418,258]],"bottom":[["ornithine_BRD-A13561534-003-02-0::2.5::HTS002",-0.22919259223611582,-3.6762415156404895,257],["methiazole_BRD-K02764365-001-13-6::0.0024414::HTS002",-0.2446385159307283,-4.187564965580396,261],["cobimetinib_BRD-K03390685-001-01-7::0.00244::MTS010::PROS001_PR500",-0.21813017040885269,-3.3348060522968517,254],["indirubin_BRD-K17894950-001-14-3::0.00976562::HTS002",-0.22283241078809116,-3.5449012547709033,261],["epiandrosterone_BRD-K42756753-001-01-9::0.00061034::HTS002",-0.2246435743000628,-3.584000774851333,260],["chicago-sky-blue-6b_BRD-K56483981-342-06-4::0.00976562::HTS002",-0.23379912733621047,-3.860561060608234,261],["brefeldin-a_BRD-K77841042-001-14-1::0.00976562::HTS002",-0.22064993967168314,-3.4838787909152553,261]]},"para":{"top":[["dasatinib_BRD-K49328571-001-15-0::10::HTS002",0.24299923127322293,-3.42053610486542,210],["brigatinib_BRD-K56981171-001-01-0::0.156249998::MTS006",0.28116678717448595,-5.347428046461085,258],["metaraminol_BRD-K96253961-046-03-1::0.15625::HTS002",0.22941707119226423,-3.695134326502262,258]],"bottom":[["foscarnet_BRD-K85146014-314-05-4::0.15625::HTS002",-0.24261650654851036,-4.069676685032075,257]]}}}
{"ccle_proteomics":{"corr":{"top":[["TMEM45B_Q96B21",0.2905275573623653,-2.994184284386815,125]],"bottom":[["SOX15_O60248",-0.3464037926832001,-3.3821128088241625,100],["GNAS_P63092-2",-0.35907986732589586,-5.130575875127297,148],["KLHL5_Q96PQ7",-0.37550270183514495,-4.2762494848571055,110],["C1S_P09871",-0.3164424522476264,-3.219312814797283,114]]},"para":{"top":[["TMEM45B_Q96B21",0.2870603487873567,-2.931340114339315,125]],"bottom":[["GNAS_P63092-2",-0.341833056468193,-4.67417739039919,148],["KLHL5_Q96PQ7",-0.3473676143110129,-3.6973562609356976,110],["TRAF1_Q13077",-0.2866657406764358,-2.8233248994997475,120],["C1S_P09871",-0.3180466902141888,-3.2487489328129104,114]]}}}
{"depmap_gene_tpm":{"corr":{"top":[["CCDC141_285025",0.2166897501493676,-5.90188472086342,491]],"bottom":[["ANKRD2_26287",-0.27716988217693217,-9.383570647581653,491]]},"para":{"top":[["CYSLTR1_10800",0.22098946823052687,-6.119688079816244,491]],"bottom":[]}}}
{"avana":{"corr":{"top":[["AKTIP_64400",0.24476259119308813,-5.4859609189188365,353],["PCBP4_57060",0.196497223253983,-3.692127908281075,353],["PRKG1_5592",0.21301262448652664,-4.261576934429748,353],["THAP7_80764",0.22153591553616775,-4.573279575460128,353]],"bottom":[["TUFT1_7286",-0.21792600339379856,-4.439763905763913,353]]},"para":{"top":[["AKTIP_64400",0.2358832840274012,-5.125980624345731,353],["IPP_3652",0.19802142938840225,-3.7427988341323246,353],["PRKG1_5592",0.22072803868022647,-4.543207465366312,353],["SLC22A15_55356",0.20944009819024542,-4.134561304885345,353],["THAP7_80764",0.22060490984128703,-4.538633905300096,353]],"bottom":[["TUFT1_7286",-0.2055488982205556,-3.9986366842276064,353]]}}}
{"drive":{"corr":{"top":[["CNPY3-GNMT_107080644",0.26013518225641874,-4.007689901480455,219]],"bottom":[["IPO11-LRRC70_101180901",-0.2910115163040899,-4.819003700210338,214],["DKK4_27121",-0.3328726814465824,-6.469666566848982,224],["HSD17B2_3294",-0.3457702817589683,-6.961948236822174,224],["ANKHD1-EIF4EBP3_404734",-0.2990450941310002,-5.175195702087602,219],["INPP5K_51763",-0.2982997216588311,-5.045325298869223,214],["HSD17B6_8630",-0.33131211957396,-6.202167400391614,216]]},"para":{"top":[],"bottom":[["IPO11-LRRC70_101180901",-0.3278633975213709,-6.028147845117726,214],["CEBPA_1050",-0.27173814433172466,-4.302514300284196,217],["DKK4_27121",-0.33914140416554495,-6.7061455582386245,224],["INPP5K_51763",-0.29156063468285964,-4.8358410896179995,214],["HERC3_8916",-0.3043536597288882,-5.304182227701337,217]]}}}
{"achilles":{"corr":{"top":[["EPB41L3_23136",0.3774693480489502,-17.685229542304576,501],["TPRX1_284355",0.4215755669959923,-22.2794888865995,501],["ACRV1_56",0.4853172674900075,-17.519901839517704,285],["LOC100506127_100506127",0.420112770093967,-12.887752394916278,285]],"bottom":[["TBC1D2_55357",-0.3200172546908307,-7.481507652235125,285],["CD1C_911",-0.2697552291173512,-9.075196374546161,501],["RAD51AP1_10635",-0.2680878097642149,-8.967885483653802,501],["RSC1A1_6248",-0.27589303095074624,-9.476580789074124,501],["PSPC1_55269",-0.297352179239667,-6.501033422755798,285],["SCAF8_22828",-0.33968977585215376,-8.400963270431516,285],["THUMPD1_55623",-0.2768609270622069,-5.684132479299976,285]]},"para":{"top":[["EPB41L3_23136",0.3747851884947268,-17.42736881872904,501],["TPRX1_284355",0.42261563582989065,-22.39629996933637,501],["ACRV1_56",0.49901312523993163,-18.625032276069863,285]],"bottom":[["TBC1D2_55357",-0.28399602554446474,-5.961266932448275,285],["SEPT4_5414",-0.27199726914904054,-5.499626986595817,285],["RSC1A1_6248",-0.27540514607684324,-9.444307102974419,501],["PSPC1_55269",-0.3073710288005704,-6.9242693646574685,285],["C1orf228_339541",-0.29841291152702115,-6.545091489820149,285],["SCAF8_22828",-0.2964330059344636,-6.462997930030821,285],["LRRCC1_85444",-0.3256107383420792,-7.7363328097279584,285],["HGF_3082",-0.2706175809751203,-9.130984343544556,501],["THUMPD1_55623",-0.2764860345810225,-5.669784356384407,285]]}}}
{"ccle_rrbs_tss1kb":{"corr":{"top":[],"bottom":[["DMPK_19_46283861_46284861",-0.26296401219298654,-6.606332774014703,374]]},"para":{"top":[["ZNF205_16_3161562_3162562",0.23557344408176972,-5.282114770246258,366]],"bottom":[["EML2_19_46146985_46147985",-0.23302300331683723,-3.4631767643214846,232],["DMPK_19_46283861_46284861",-0.2621943110513193,-6.570074290996402,374],["TNF_6_31542343_31543343",-0.25936020814722727,-4.941659120007886,279]]}}}
{"ccle_gene_tpm":{"corr":{"top":[],"bottom":[["ANKRD2_ENSG00000165887.7",-0.27611981450624146,-9.085739090652654,478]]},"para":{"top":[["CYSLTR1_ENSG00000173198.4",0.23325040447788004,-6.601733479657415,478]],"bottom":[]}}}
{"ccle_rrbs_tss_clusters":{"corr":{"top":[["ATP7B_2",0.2633606304130865,-6.4149123241002854,361]],"bottom":[["EML2_2",-0.28560931422949637,-4.207547952699258,191],["POP5_2",-0.2755978277256079,-3.174441915777787,149],["OR8S1_2",-0.367225526363984,-3.9004155025713225,104]]},"para":{"top":[["CHP1_2",0.26009809362947256,-5.42854061729023,308],["FER_2",0.2783691204799678,-4.588329487844809,222],["LOC102723968_1",0.2728850853795576,-2.901590772998369,137]],"bottom":[["EML2_2",-0.2784645673257101,-4.017987623525395,191],["POP5_2",-0.27615012870038314,-3.185726664869235,149],["TYROBP_3",-0.3342787829656076,-4.968830549256694,166],["MPP2_4",-0.28407193086049093,-2.838179500403102,123]]}}}
{"ccle_rrbs_cgi_clusters":{"corr":{"top":[["1_234038298_234040878-3",0.2740399418787188,-3.5785902699764436,173],["13_100609862_100614278-3",0.2938026750690815,-3.0331210194926106,124],["11_8983452_8985980-2",0.29026269447446845,-2.6990800780485498,111]],"bottom":[["1_21056006_21058686-2",-0.2948864797829297,-8.254055632232996,376],["19_46142872_46147631-3",-0.28560931422949637,-4.207547952699258,191],["19_8272241_8277045-2",-0.30613738455319217,-5.429463608665384,220],["1_15373063_15377413-2",-0.3083792276739178,-3.260556149916627,122],["2_47745991_47748526-1",-0.3021972149724607,-4.031826502012147,162],["14_61121613_61126613-1",-0.3122870853722642,-6.46957418157065,256]]},"para":{"top":[["15_41520828_41525732-2",0.26009809362947256,-5.42854061729023,308],["5_108084595_108087203-2",0.2783691204799678,-4.588329487844809,222],["13_100609862_100614278-3",0.30566094053737963,-3.2549453417243592,124]],"bottom":[["1_21056006_21058686-2",-0.2885166794949584,-7.9152208990613735,376],["12_121020419_121024704-1",-0.27615012870038314,-3.185726664869235,149],["12_106631422_106635642-2",-0.37785047790302817,-4.291728824823785,109],["17_41975922_41980130-1",-0.28407193086049093,-2.838179500403102,123],["23_48682837_48685451-3",-0.2819487230063107,-3.4596925416854005,157],["8_144629767_144633971-1",-0.3138384190328161,-4.9606906729974085,189],["19_46142872_46147631-3",-0.2784645673257101,-4.017987623525395,191],["19_8272241_8277045-2",-0.2878606067916431,-4.841305962783653,220],["1_15373063_15377413-2",-0.30818831460526797,-3.2569324259437975,122],["11_44325240_44329932-1",-0.2756786903873933,-7.1866256858985125,372],["2_47745991_47748526-1",-0.30944819089786363,-4.211040971898407,162]]}}}
