{"depmap_hotspot":{"corr":{"top":[["ADC",0.16525056427864185,-2.240556899153571,8.0,270.0],["ADCK2",0.15852053480888886,-2.0915755514497745,8.0,270.0],["AKAP8",0.20046358552885823,-3.1106189796093284,18.0,260.0],["AZU1",0.14672682236767806,-1.8434958426485286,9.0,269.0],["C1orf177",0.16997760878715887,-2.348462696424901,8.0,270.0],["C2CD5",0.21299511869788113,-3.4580778808087884,14.0,264.0],["CABS1",0.18490888976586498,-2.7072585722077296,10.0,268.0],["CAPN3",0.19816779667970227,-3.0491559847131042,11.0,267.0],["CAPRIN2",0.16150621694184797,-2.15699842875629,17.0,261.0],["CAT",0.15627260924489972,-2.0430206762996184,10.0,268.0],["CCDC112",0.15311441784040422,-1.97581832007114,13.0,265.0],["CCDC36",0.20931580508944203,-3.353951992312245,11.0,267.0],["CEBPZ",0.15323140272680041,-1.9782865429692917,12.0,266.0],["CELF4",0.16140819932050182,-2.1548337054051276,14.0,264.0],["CLEC4F",0.16244255926134107,-2.1777356866085698,17.0,261.0],["CNTNAP3",0.16124483359645478,-2.1512283261741088,19.0,259.0],["CYFIP1",0.1563173696551471,-2.043981626711815,22.0,256.0],["DBF4",0.15961725488188533,-2.115483233875919,10.0,268.0],["DNTTIP1",0.14754035621196232,-1.8600824166364456,9.0,269.0],["DOPEY2",0.15124750325571357,-1.9366476568668183,43.0,235.0],["DUSP13",0.17420062913777404,-2.447161089263081,10.0,268.0],["DYRK4",0.14521370028389907,-1.8128515941509096,10.0,268.0],["FZR1",0.17441472978056383,-2.4522230049923834,13.0,265.0],["GPR139",0.14482706743036727,-1.8050642359934388,16.0,262.0],["HIVEP3",0.20098569118428175,-3.124690911262656,35.0,243.0],["IGSF9B",0.1570831175144891,-2.060458184029296,31.0,247.0],["IQCH",0.14559925290788864,-1.8206345552866172,19.0,259.0],["KATNAL2",0.16362814646004067,-2.2041440918748214,8.0,270.0],["KCNQ5",0.15883792725420037,-2.0984797030246254,18.0,260.0],["KDM5C",0.1517014100977149,-1.9461334615497718,20.0,258.0],["LRFN1",0.17048090158563375,-2.3601112496807786,19.0,259.0],["MAB21L3",0.16852264795944003,-2.314961280716495,13.0,265.0],["MCM3",0.19391327907392927,-2.9370289385598616,8.0,270.0],["MMD2",0.16214593758872606,-2.171154992199376,8.0,270.0],["MMP19",0.15020814721975934,-1.9150184748254708,8.0,270.0],["OR4K15",0.15306481859640442,-1.974772331506069,9.0,269.0],["PARD3B",0.15764114147962807,-2.0725091119772228,19.0,259.0],["PODXL",0.16853604466635225,-2.315268575912429,14.0,264.0],["POLK",0.16920204037060824,-2.3305727242990826,15.0,263.0],["PPM1E",0.16275684800190302,-2.184719863846833,8.0,270.0],["PSMG1",0.17224098179335556,-2.401090415823039,8.0,270.0],["RABGEF1",0.15032150679591091,-1.917371329532769,9.0,269.0],["RAD23A",0.2029358104705856,-3.1775601991661966,10.0,268.0],["RBKS",0.14596894284708936,-1.828113595854047,10.0,268.0],["SLC30A5",0.14540098331279291,-1.8166300185426951,8.0,270.0],["SLC37A1",0.1441197270264099,-1.7908624364562145,12.0,266.0],["SSBP3",0.14570143105697833,-1.8227000827606386,8.0,270.0],["SUPT5H",0.1483260537605184,-1.876175019196467,18.0,260.0],["TACR3",0.15863553142789938,-2.094075652820943,16.0,262.0],["TFE3",0.16917641480266446,-2.3299828690470896,8.0,270.0],["TNNT1",0.14979176382753978,-1.9063891269414746,9.0,269.0],["TPP1",0.1852603840413897,-2.7160371958068126,8.0,270.0],["WDR62",0.15706782037411146,-2.0601283533834205,30.0,248.0],["XDH",0.14668834598275796,-1.8427132919330615,31.0,247.0],["ZDHHC21",0.16082204658983174,-2.1419125316338152,10.0,268.0],["ZNF136",0.1522011172561892,-1.9566045073005995,8.0,270.0],["ZNF256",0.15688758102865097,-2.0562442038852264,12.0,266.0],["ZNF486",0.1707187132228162,-2.365626051639144,8.0,270.0],["ZNF596",0.14769521156295287,-1.8632484306955448,10.0,268.0]],"bottom":[["AKR1B10",-0.14210607144083306,-1.7507514256214836,9.0,269.0],["APCDD1L",-0.2151994284576106,-3.5213080711611737,13.0,265.0],["ATAD3C",-0.14145400417942203,-1.73786346475879,8.0,270.0],["CD5",-0.14774223955382051,-1.8642104728436488,12.0,266.0],["CLEC14A",-0.16159920895125512,-2.159053226248331,14.0,264.0],["CNNM4",-0.12784187585117388,-1.4799859377524025,19.0,259.0],["DCAF17",-0.1423968014786697,-1.756513532258237,11.0,267.0],["DDX10",-0.15892360221142246,-2.100345427997169,20.0,258.0],["DKK2",-0.1390268115101809,-1.6903230821317923,10.0,268.0],["DKKL1",-0.14333133313098054,-1.775101894650845,8.0,270.0],["DNAAF2",-0.15219095357367915,-1.9563912402377328,19.0,259.0],["EFCC1",-0.1822387574709325,-2.641074097555385,12.0,266.0],["HAS2",-0.15649391750710293,-2.0477742121189193,8.0,270.0],["IBA57",-0.14441367462132892,-1.796757164570491,10.0,268.0],["NAGLU",-0.16038220384963808,-2.1322436496703374,9.0,269.0],["NR1D2",-0.14805385521517891,-1.8705916781241507,9.0,269.0],["OR8B2",-0.1453887590097676,-1.8163832691174462,12.0,266.0],["PCDH11Y",-0.16273012992457556,-2.184125668676086,9.0,269.0],["PHKG2",-0.14103713293436476,-1.729649917832989,8.0,270.0],["PPAPDC1A",-0.17666707027911938,-2.505815182368063,9.0,269.0],["PUM2",-0.1533678831673848,-1.9811681409050184,13.0,265.0],["RBPJ",-0.1343319731137419,-1.6002935346702158,10.0,268.0],["RIN2",-0.14853223077105734,-1.880409907517481,15.0,263.0],["RNF4",-0.14731384250461588,-1.8554564065054324,12.0,266.0],["SCP2",-0.1443558286420127,-1.7955963452554111,8.0,270.0],["SMTNL1",-0.14218462424067288,-1.7523073312959825,8.0,270.0],["ST6GALNAC4",-0.14167683625635952,-1.7422621461977226,8.0,270.0],["TLE4",-0.13433952405710387,-1.6004363032623412,17.0,261.0],["TRMT44",-0.1472292866834639,-1.8537310920383165,16.0,262.0],["TTLL13",-0.17952453278030028,-2.5747039882797327,11.0,267.0],["TTN",-0.15116438860094317,-1.934913346373225,220.0,58.0],["WFIKKN1",-0.1708519470420836,-2.368718726187884,13.0,265.0],["ZNF695",-0.15028905786572197,-1.9166976755937384,11.0,267.0]]},"para":{"top":[["ACSBG2",0.15650940663632587,-2.334957545710091,9.0,269.0],["ADC",0.18285500986544972,-2.9286168757183244,8.0,270.0],["ADCK2",0.16596371130016627,-2.539032751188235,8.0,270.0],["AKAP8",0.19098307114575258,-3.1285203540854347,18.0,260.0],["AZU1",0.14536634208616675,-2.106865848917952,9.0,269.0],["BAIAP2",0.15030474569362365,-2.2062723931140247,9.0,269.0],["BORA",0.15296692007635404,-2.2610979744657316,10.0,268.0],["C1orf177",0.16019922051995047,-2.4133335791335933,8.0,270.0],["C2CD5",0.2380688628001523,-4.427259810657802,14.0,264.0],["C9orf96",0.14941836555895188,-2.1882336869444314,9.0,269.0],["CABS1",0.18847065054254158,-3.0655350950041935,10.0,268.0],["CAPN3",0.20337390542831624,-3.4453656810333446,11.0,267.0],["CAT",0.17438950998476546,-2.7297093998426365,10.0,268.0],["CCDC36",0.2054432837763715,-3.5000707130708464,11.0,267.0],["CEBPZ",0.15527108306912807,-2.3092790814226243,12.0,266.0],["CLDN18",0.13874995250054287,-1.9777109701135571,8.0,270.0],["CLEC4F",0.19380474489467583,-3.199232435740061,17.0,261.0],["CPZ",0.15980199465537567,-2.4052164618470937,11.0,267.0],["DBF4",0.1524855135615582,-2.2511492959299613,10.0,268.0],["DNTTIP1",0.14713910235551025,-2.1422433963881833,9.0,269.0],["DUSP13",0.18582291471116488,-3.0006936399845134,10.0,268.0],["FZR1",0.19967033718421892,-3.3488971887153185,13.0,265.0],["IFNLR1",0.1563530307419503,-2.331907927126615,11.0,267.0],["KATNAL2",0.17548182398377837,-2.7546498445442773,8.0,270.0],["KLHDC8A",0.14625719630733552,-2.124452678287087,8.0,270.0],["KPNA3",0.14935637121538578,-2.1871026004878344,10.0,268.0],["MAB21L3",0.18194309300039938,-2.907438402940793,13.0,265.0],["MCM3",0.1538984980392495,-2.2801371111011073,8.0,270.0],["MIEF2",0.15536977503460506,-2.311004285777768,9.0,269.0],["MMD2",0.1884854427205442,-3.065561849022341,8.0,270.0],["MMP19",0.14330792195466696,-2.066072074710771,8.0,270.0],["NEIL2",0.13566662022275305,-1.9192164259080944,8.0,270.0],["NOP14",0.1572499461672819,-2.350441884314184,8.0,270.0],["OR4K15",0.14650597368788756,-2.1295691459671775,9.0,269.0],["POLK",0.1769663588345048,-2.790002639421592,15.0,263.0],["PPM1E",0.14934052858512536,-2.186502913478216,8.0,270.0],["PPP2R5E",0.13298546172032708,-1.8691880937696763,8.0,270.0],["PSMG1",0.18003979343790247,-2.8614761186129796,8.0,270.0],["RABGEF1",0.1623341903784545,-2.459621181686189,9.0,269.0],["RAD23A",0.21217992139623298,-3.6813701538983126,10.0,268.0],["RASSF2",0.14791215167099847,-2.157904406177949,10.0,268.0],["TFE3",0.1606013942953143,-2.421984076633634,8.0,270.0],["TNNT1",0.15752241250452215,-2.356369382367598,9.0,269.0],["TPP1",0.17601805568426354,-2.7670972980502957,8.0,270.0],["UBE3D",0.15738400409240322,-2.353279793560985,8.0,270.0],["ZBED5",0.15320762333375187,-2.266081857221848,10.0,268.0],["ZNF136",0.16475718997407457,-2.5124193442572813,8.0,270.0],["ZNF486",0.18084414098863028,-2.880568724620675,8.0,270.0]],"bottom":[["AKR1B10",-0.14422671048444596,-2.084304321634465,9.0,269.0],["APCDD1L",-0.21145311625250615,-3.6619336522752097,13.0,265.0],["ATAD3C",-0.1584564674933736,-2.37605436639015,8.0,270.0],["CLEC14A",-0.16540815521284793,-2.5274549726789672,14.0,264.0],["DKKL1",-0.16060139429531434,-2.421984076633634,8.0,270.0],["EFCC1",-0.1691660805596893,-2.610987875807876,12.0,266.0],["GIN1",-0.13343608701253196,-1.8779835633421624,12.0,266.0],["HAS2",-0.14692748593294203,-2.1378534275243504,8.0,270.0],["NAGLU",-0.13283039446723782,-1.866455899820655,9.0,269.0],["NR1D2",-0.16195431317788095,-2.4513767641756363,9.0,269.0],["OR8B2",-0.15174219481755702,-2.2360450451583995,12.0,266.0],["PCDH11Y",-0.16018155290853744,-2.4131136549107746,9.0,269.0],["PHKA1",-0.16506279209675784,-2.519912947498197,15.0,263.0],["PHKG2",-0.135666620222753,-1.9192164259080944,8.0,270.0],["PPAPDC1A",-0.18069492173951218,-2.877197906708498,9.0,269.0],["PUM2",-0.14680705812109238,-2.136000781985121,13.0,265.0],["RBPJ",-0.14983777773018153,-2.196886078252222,10.0,268.0],["RIN2",-0.1404620875054141,-2.011311370029967,15.0,263.0],["RNF4",-0.17048941365402848,-2.640837317501248,12.0,266.0],["SCP2",-0.15228980293779393,-2.246829457071844,8.0,270.0],["SLC2A9",-0.13037083592747917,-1.8214967687465315,11.0,267.0],["SMTNL1",-0.14076082137736232,-2.016415316930178,8.0,270.0],["ST6GALNAC4",-0.14813400725903367,-2.1620985411894624,8.0,270.0],["TTLL13",-0.17957605442568114,-2.850952693306368,11.0,267.0],["WFIKKN1",-0.15805908137549282,-2.3681938774644067,13.0,265.0],["ZNF695",-0.14439662250874238,-2.087889457789488,11.0,267.0]]}}}
{"depmap_damaging":{"corr":{"top":[["BRCA2",0.19151207622247896,-2.8747585594615934,13.0,265.0],["DOPEY2",0.14617816000757933,-1.8323532507372717,9.0,269.0]],"bottom":[["HEATR5B",-0.13398204394932028,-1.5936844441219185,12.0,266.0],["KIF15",-0.16966900232064824,-2.341335337481319,15.0,263.0],["RNF4",-0.13884044830471803,-1.6867009995639024,11.0,267.0],["SI",-0.14416712754450764,-1.7918123105140304,11.0,267.0],["VWF",-0.1510123750965732,-1.931743464845691,9.0,269.0]]},"para":{"top":[["BRCA2",0.1687803488160064,-2.6024164290909444,13.0,265.0],["CHD8",0.14424632743051607,-2.0845447964746473,8.0,270.0],["ITM2A",0.14249632837954615,-2.0504409689088177,10.0,268.0],["SACS",0.13883969714775019,-1.9798843508122739,12.0,266.0]],"bottom":[["DMD",-0.13906992975454438,-1.9844458106462795,14.0,264.0],["KIF15",-0.16714591627586356,-2.5660422239338048,15.0,263.0],["RNF4",-0.15968702919159483,-2.402751709685341,11.0,267.0],["VWF",-0.146126096487314,-2.1219856198357316,9.0,269.0]]}}}
{"ccle_rppa":{"corr":{"top":[["CDKN2A_p14 Arf(BetA300-340A)_Caution",0.25898938580477626,-4.247007601883702,236]],"bottom":[]},"para":{"top":[["CDKN2A_p14 Arf(BetA300-340A)_Caution",0.28071965329311954,-4.921542592587834,236]],"bottom":[]}}}
{"ccle_rrbs_enhancer_clusters":{"corr":{"top":[],"bottom":[["9-84007516-84010191-0_enh",-0.28284315759120476,-3.556717405478264,161],["10-124903783-124906638-1_enh",-0.21806774467631007,-2.957329326449972,221],["16-54250374-54253153-0_enh",-0.20042906441617855,-2.4416662090197736,209]]},"para":{"top":[],"bottom":[["9-84007516-84010191-0_enh",-0.24022611046444123,-2.6686721735876406,161],["16-54540874-54543446-1_enh",-0.18869347349757062,-2.2589000658345344,215]]}}}
{"ccle_mirna":{"corr":{"top":[],"bottom":[["hsa-miR-1231_miR00048.1",-0.1711627000026127,-2.132630014760518,244],["hsa-miR-1321_miR00135.1",-0.21734170620009208,-3.2008970524348443,244],["hsa-miR-1322_miR00136.1",-0.19614444113481577,-2.681252886355099,244],["hsa-miR-198_miR00220.1",-0.1969821275377939,-2.7008313686290273,244],["hsa-miR-518c_miR00441.2",-0.19290733061256532,-2.6063247458440015,244],["hsa-miR-523_miR00463.1",-0.20452840843852987,-2.8807280896254612,244],["hsa-miR-559_miR00512.1",-0.20989814330739076,-3.0126320891791982,244],["hsa-miR-649_miR00605.1",-0.20168650432190544,-2.8122324633329288,244],["hsa-miR-657_miR00614.1",-0.17930048763915904,-2.3039274098523306,244]]},"para":{"top":[],"bottom":[["hsa-miR-371-5p_miR00339.1",-0.1683659592499685,-2.075388134252629,244],["hsa-miR-519e_miR00450.2",-0.1659867665787814,-2.0273431389197634,244],["hsa-miR-649_miR00605.1",-0.1738967372810572,-2.189391259436512,244]]}}}
{"prism_primary_logfold":{"corr":{"top":[["adaprev_BRD-A73427433-240-01-3::2.5::HTS",0.24678897834027433,-2.943879907330629,171],["orteronel_BRD-K00674894-001-01-4::2.5::HTS",0.23977867638422842,-2.8000783661318396,171],["DU-728_BRD-K08859203-001-01-9::2.5::HTS",0.289918740719418,-3.799716838631289,165],["L-655,708_BRD-K13474508-001-01-2::2.5::HTS",0.22372160981585976,-2.571427340935086,178],["tranilast_BRD-K17849083-001-32-9::2.43::HTS",0.261202536767512,-3.25251105362816,171],["bindarit_BRD-K36467523-001-02-8::2.5::HTS",0.22716793864170143,-2.6396195629796058,178],["diazooxonorleucine_BRD-K38458514-001-01-8::2.5::HTS",0.29300545839414427,-3.9974154757791203,171],["lincomycin_BRD-K81447180-003-21-4::2.58::HTS",0.23243776612817685,-2.6538386956562254,171],["repaglinide_BRD-K82846253-001-15-4::2.5::HTS",0.22882677163715193,-2.545167518545508,168],["allopurinol_BRD-K86307448-001-17-5::2.5::HTS",0.24179659949002413,-2.841053977188555,171],["tozadenant_BRD-K93045741-001-01-0::2.5::HTS",0.23805958004281705,-2.861722894491416,178],["MK-3697_BRD-K95828359-001-01-0::2.5::HTS",0.2534232609203908,-3.192365916052614,178],["ceritinib_BRD-K22149900-001-03-9::2.371298578::MTS004",0.2347884429875545,-2.7538037095565766,175],["RTA-408_BRD-K56211775-001-03-8::2.5::MTS004",0.2464339387879501,-2.995333648074002,175]],"bottom":[["efaroxan_BRD-A10739734-003-10-6::2.5::HTS",-0.21503491663650667,-2.3926072043910165,177],["droxinostat_BRD-K11558771-001-13-9::2.5::HTS",-0.24261080740820493,-2.9432858357211096,177],["BIX-02188_BRD-K20290250-001-01-3::2.5::HTS",-0.23637870395372074,-2.8403357649153884,179],["balapiravir_BRD-K47976015-001-01-2::2.5::HTS",-0.22718567715289403,-2.5140767200239273,168],["resiquimod_BRD-K76210423-001-01-6::2.5::HTS",-0.24254645606268369,-2.8991715204374273,174],["examorelin_BRD-K35304636-001-01-0::2.5::MTS004",-0.209471048015065,-2.2675606217341,175]]},"para":{"top":[["estramustine_BRD-A70858459-001-01-7::2.5::HTS",0.21580375102980398,-2.4071039025729206,177],["adaprev_BRD-A73427433-240-01-3::2.5::HTS",0.24196960642501172,-2.844582699773143,171],["orteronel_BRD-K00674894-001-01-4::2.5::HTS",0.2727296727146183,-3.51216508333497,171],["DU-728_BRD-K08859203-001-01-9::2.5::HTS",0.23160374964290062,-2.558973585238738,165],["tranilast_BRD-K17849083-001-32-9::2.43::HTS",0.24559346674487062,-2.919067500901999,171],["diazooxonorleucine_BRD-K38458514-001-01-8::2.5::HTS",0.2747235208847332,-3.5582554602497884,171],["oncrasin-1_BRD-K43449605-001-01-0::2.5::HTS",0.2089272198355682,-2.279153757324943,177],["1,5-dicaffeoylquinic-acid_BRD-K53083666-001-01-0::2.5::HTS",0.23848512302992567,-2.7739884108624886,171],["repaglinide_BRD-K82846253-001-15-4::2.5::HTS",0.22982681810659336,-2.5642182409962317,168],["allopurinol_BRD-K86307448-001-17-5::2.5::HTS",0.2930627105242847,-3.9988382935214366,171],["MK-3697_BRD-K95828359-001-01-0::2.5::HTS",0.23666569141168278,-2.8327353028875533,178],["ceritinib_BRD-K22149900-001-03-9::2.371298578::MTS004",0.2588858772119109,-3.2664368666776196,175],["RTA-408_BRD-K56211775-001-03-8::2.5::MTS004",0.2722608663531954,-3.5727888485182713,175],["LY3023414_BRD-K82967180-001-01-6::2.500024493::MTS004",0.2511547037067908,-3.09653495006187,175]],"bottom":[["methacycline_BRD-A49035384-003-30-5::2.5::HTS",-0.19776826595888083,-2.0505540574775862,174],["BMS-649_BRD-K25991633-001-01-9::2.5::HTS",-0.21399900992537702,-2.373151086522333,177],["balapiravir_BRD-K47976015-001-01-2::2.5::HTS",-0.22293009347852638,-2.4344442928967545,168],["vidarabine_BRD-K72093121-001-16-3::2.5::HTS",-0.25285062183143114,-3.179671939961485,178],["resiquimod_BRD-K76210423-001-01-6::2.5::HTS",-0.25671933168601513,-3.2023892524392763,174]]}}}
{"prism_secondary_logfold":{"corr":{"top":[["ornithine_BRD-A13561534-003-02-0::0.00976562::HTS002",0.2393606620101591,-2.554107843049005,154],["fenoprofen_BRD-A81129465-001-03-8::0.15625::HTS002",0.23948907907730765,-2.4438878893811578,146],["posaconazole_BRD-K06222852-001-03-2::0.00061034::HTS002",0.2765384873423124,-3.3234951727992232,156],["3-amino-benzamide_BRD-K08703257-001-12-1::0.0390625::HTS002",0.26777652571508964,-2.5782929553901837,124],["BMS-345541_BRD-K13566078-001-02-3::0.15625::HTS002",0.26664112860672085,-3.0465485244201402,152],["SR-33805_BRD-K43002771-034-01-6::0.0024414::HTS002",0.3173490645314414,-3.679537634305643,132],["famciclovir_BRD-K45033733-001-12-2::0.15625::HTS002",0.27216435959230567,-2.5606382528943032,119],["etofylline-clofibrate_BRD-K49840922-001-05-1::0.00976562::HTS002",0.2732035416015286,-2.559155230416409,118],["PRT062607_BRD-K53734668-003-02-0::10.6299::HTS002",0.24500711173168757,-2.6878951774521553,156],["paricalcitol_BRD-K60585088-001-01-5::0.0390625::HTS002",0.260197164329144,-2.370062647559316,119],["GS-9973_BRD-K76719364-001-02-5::0.156249999::MTS006",0.24578012865725887,-2.71729641073789,157],["GS-9973_BRD-K76719364-001-02-5::10::MTS006",0.24001814412979058,-2.6084238474542354,157],["oxiperomide_BRD-K78096648-001-05-7::0.625::HTS002",0.2502264295186128,-2.772525304127808,155],["alogliptin_BRD-K83003151-057-02-4::0.00916982::HTS002",0.23762178233520131,-2.341938067168907,141],["indiplon_BRD-K90948141-001-01-4::2.5::HTS002",0.23647277687994323,-2.556363999726175,158],["trapidil_BRD-K95763993-001-19-3::0.0390625::HTS002",0.2505996012320715,-2.79500665181895,156]],"bottom":[["methylphenidate_BRD-A19585813-003-03-3::10::HTS002",-0.27649055581112947,-3.266896787221387,153],["fendiline_BRD-A71033472-003-23-9::0.00061034::HTS002",-0.2682125603187191,-3.0607624436701864,151],["carfilzomib_BRD-K15179879-001-03-2::0.0024414::HTS002",-0.2505378412429706,-2.7479002152415255,153],["rimexolone_BRD-K31627533-001-09-5::0.00061034::HTS002",-0.24330867696505323,-2.684738216414646,158],["ribociclib_BRD-K36788280-001-01-2::0.00977::MTS010::PROS001_PR500",-0.2998480901968487,-3.8011019403680946,154],["PF-03758309_BRD-K37764012-001-04-1::0.00976562::HTS002",-0.3188204098973877,-4.2042024480675995,152],["vismodegib_BRD-K44827188-001-06-0::10::HTS002",-0.24853266308101635,-2.6646609861920383,150],["SNS-314_BRD-K71512533-066-02-8::0.0390625::HTS002",-0.25786153879212764,-2.8891353485338525,153],["ZM-447439_BRD-K72703948-001-10-1::10::HTS002",-0.24521584258255888,-2.7065228722464205,157],["4-methylgenistein_BRD-K73303757-001-21-6::0.00976562::HTS002",-0.27396486587581875,-3.286864892664223,157],["RS-17053_BRD-K76840893-003-02-5::0.15625::HTS002",-0.2876454982669357,-3.566195606263773,156],["CP-724714_BRD-K76908866-001-07-6::0.15625::HTS002",-0.2726528920177145,-3.22292931048136,155],["daclatasvir_BRD-K82861010-001-02-5::0.15625::HTS002",-0.27966734652520286,-3.1250433976640406,142]]},"para":{"top":[["SID-7969543_BRD-A43885598-001-08-1::0.0024414::HTS002",0.24787748623328215,-2.682586225726829,152],["echinomycin_BRD-A68969091-001-12-7::0.160802::HTS002",0.24408922107157552,-2.612296394657735,152],["fenoprofen_BRD-A81129465-001-03-8::0.15625::HTS002",0.2567931940328477,-2.7556882397531868,146],["posaconazole_BRD-K06222852-001-03-2::0.00061034::HTS002",0.23938448505338839,-2.582590878394596,156],["tiludronate_BRD-K10845183-304-01-6::0.0024414::HTS002",0.22604553296602156,-2.1527926922026173,141],["BMS-345541_BRD-K13566078-001-02-3::0.15625::HTS002",0.24492756347381503,-2.6277604267720114,152],["licochalcone-a_BRD-K26011976-001-01-0::0.00061034::HTS002",0.2497848673787227,-2.794455372788546,157],["1-phenylbiguanide_BRD-K31491153-003-05-9::0.0024414::HTS002",0.26170803928986064,-2.613367935504847,132],["SR-33805_BRD-K43002771-034-01-6::0.0024414::HTS002",0.2830569429789953,-2.9971357699843875,132],["TU-2100_BRD-K44590731-001-01-7::0.00244141::HTS002",0.24487743410013835,-2.3319445460180024,132],["FPH1-(BRD-6125)_BRD-K61250484-001-02-3::0.0024414::HTS002",0.2622033860721683,-2.621928747368671,132],["temoporfin_BRD-K63712959-001-01-8::0.00977::MTS010::PROS005_PR500",0.24688432420116568,-2.6789487566311037,153],["GS-9973_BRD-K76719364-001-02-5::10::MTS006",0.24476784390854195,-2.697986803863268,157],["oxiperomide_BRD-K78096648-001-05-7::0.625::HTS002",0.2942424279045616,-3.6942133205755368,155],["erteberel_BRD-K80608265-001-01-6::0.000610352::HTS002",0.2415900023965855,-2.652128393395722,158]],"bottom":[["methylphenidate_BRD-A19585813-003-03-3::10::HTS002",-0.33162897762111704,-4.549703150870777,153],["fosbretabulin_BRD-K06814349-304-02-7::10::MTS010::PROS002_PR500",-0.2608696137879878,-2.7158016450346483,139],["carfilzomib_BRD-K15179879-001-03-2::0.00061034::HTS002",-0.2452764282127751,-2.6489185001338353,153],["saracatinib_BRD-K19540840-001-09-4::0.00244::MTS010::PROS004_PR500",-0.2450575434950664,-2.6741891051425286,155],["sorafenib_BRD-K23984367-001-07-5::0.00244::MTS010::PROS001_PR500",-0.251094370062687,-2.7738669439172075,154],["ribociclib_BRD-K36788280-001-01-2::0.00977::MTS010::PROS001_PR500",-0.3227109633245906,-4.3499278902853336,154],["PF-03758309_BRD-K37764012-001-04-1::0.00976562::HTS002",-0.2781996124891931,-3.2841447157604438,152],["niridazole_BRD-K53123955-001-10-5::0.0024414::HTS002",-0.24152748948351957,-2.579643879269566,153],["daclatasvir_BRD-K82861010-001-02-5::0.15625::HTS002",-0.2549948657772945,-2.6586440493781716,142],["GW-843682X_BRD-K90382497-001-10-7::0.00061034::HTS002",-0.24253267510298676,-2.641259248512195,156],["doxorubicin_BRD-K92093830-003-30-8::0.0024414::HTS002",-0.23577823246300306,-2.5435188230613153,158]]}}}
{"ccle_proteomics":{"corr":{"top":[["CLEC11A_Q9Y240",0.3237711066153397,-3.0967773075567937,104],["URI1_O94763",0.27840377936769245,-3.024516119383924,138],["WDR92_Q96MX6",0.31709153475424035,-3.8209316605815866,138],["TYW3_Q6IPR3",0.25940904276077587,-2.324406887822143,117],["PDRG1_Q9NUG6",0.34838969318363,-4.431158537824496,134]],"bottom":[["STBD1_O95210",-0.3081319820876675,-3.626556081106904,138],["GHITM_Q9H3K2",-0.29000506024739975,-3.251766048739398,138],["STIM1_Q13586",-0.2967151635667261,-3.387664128852138,138],["SLC25A1_P53007",-0.2883138525569354,-3.2180335735526544,138],["ACBD5_Q5T8D3",-0.35208869093013934,-4.640826549306012,138],["PLA2G12A_Q9BZM1",-0.30003781607096364,-3.3246071225538985,132],["ARFRP1_Q13795",-0.28992023078447277,-3.2500691030785442,138],["ELOVL5_Q9NYP7-2",-0.29598550656056494,-3.3087205228411043,135],["SLC9A7_Q96T83",-0.33672652679489334,-3.6036723712818306,114],["DPM1_O60762",-0.29351062246147075,-3.3223513695751756,138],["MYO6_Q9UM54-6",-0.34388640273807825,-4.439762149662612,138]]},"para":{"top":[["RNF219_Q5W0B1",0.2857113502099524,-3.1665297183386145,138],["URI1_O94763",0.29506287843579465,-3.3538939890143187,138],["WDR92_Q96MX6",0.3192690210699025,-3.8691038263094684,138],["ZNHIT3_Q15649",0.280332212707064,-3.0040774592204222,135],["PDRG1_Q9NUG6",0.3532621435743191,-4.54834801695686,134]],"bottom":[["LRRC8E_Q6NSJ5",-0.33602676330535686,-3.8667568354949085,124],["TBC1D10A_Q9BXI6",-0.3251561406575152,-4.001191831669757,138],["RAB11A_P62491",-0.3203466761654787,-3.8930806727925718,138],["FAM134A_Q8NC44",-0.3270367551544769,-3.7834185379451637,128],["SLC25A1_P53007",-0.3316483556635766,-4.150019820342936,138],["ACBD5_Q5T8D3",-0.3732549444906681,-5.186029867278126,138],["CERS2_Q96G23",-0.31096285743069435,-3.68730861561759,138],["SLC35E1_Q96K37",-0.3241659819351437,-3.697155205209248,127],["LMF2_Q9BU23",-0.30763505267876473,-3.615954358331469,138],["DPM1_O60762",-0.346665144553438,-4.50725299380443,138],["TMEM63B_Q5T3F8",-0.32461759249624594,-3.963372532630618,137],["YIPF6_Q96EC8",-0.32078667017036977,-3.777693995903442,133],["TMEM205_Q6UW68",-0.3124332173492348,-3.7191042884669208,138],["GPR89B_P0CG08",-0.3066708524788664,-3.5954369317190227,138],["MYO6_Q9UM54-6",-0.3414481006880275,-4.381063085642738,138],["PIEZO1_Q92508",-0.3218539341878292,-3.9267674589371024,138]]}}}
{"depmap_copy_number":{"corr":{"top":[["MIR4287_100422828",0.2697828567453153,-5.331171430789335,280],["MIR3622A_100500858",0.2697828567453153,-5.331171430789335,280],["MIR3622B_100500871",0.2697828567453153,-5.331171430789335,280],["MIR6842_102465507",0.2697828567453153,-5.331171430789335,280],["MIR6843_102465508",0.2697828567453153,-5.331171430789335,280],["CHRNA2_1135",0.2697828567453153,-5.331171430789335,280],["CLU_1191",0.2697828567453153,-5.331171430789335,280],["ESCO2_157570",0.2697828567453153,-5.331171430789335,280],["EPHX2_2053",0.2697828567453153,-5.331171430789335,280],["SCARA5_286133",0.2697828567453153,-5.331171430789335,280],["NUGGC_389643",0.2695174292921054,-5.32145988327773,280],["SCARA3_51435",0.2697828567453153,-5.331171430789335,280],["ELP3_55140",0.2695174292921054,-5.32145988327773,280],["CCDC25_55246",0.2697828567453153,-5.331171430789335,280],["PBK_55872",0.2697828567453153,-5.331171430789335,280],["TEX15_56154",0.26799996918951785,-5.26613575430174,280]],"bottom":[["MIR4312_100422971",-0.21166642512722195,-3.4415654009050165,280],["IQCH-AS1_100506686",-0.19399846160146647,-2.957272224303028,280],["PCAT29_104472713",-0.19441057775763065,-2.9681103113676954,280],["LOC145694_145694",-0.19441057775763065,-2.9681103113676954,280],["DRAIC_145837",-0.19441057775763065,-2.9681103113676954,280],["SPESP1_246777",-0.21166642512722195,-3.4415654009050165,280],["GLCE_26035",-0.19447889178551697,-2.969908971111722,280],["EWSAT1_283673",-0.19447889178551697,-2.969908971111722,280],["PAQR5_54852",-0.19447889178551697,-2.969908971111722,280],["MAP2K5_5607",-0.19384312368654205,-2.953192675683124,280],["RPLP1_6176",-0.19441057775763065,-2.9681103113676954,280],["IQCH_64799",-0.19399846160146647,-2.957272224303028,280],["NOX5_79400",-0.21166642512722195,-3.4415654009050165,280],["ANP32A-IT1_80035",-0.21166642512722195,-3.4415654009050165,280],["ANP32A_8125",-0.2116669218513028,-3.4415795877153132,280],["KIF23_9493",-0.19441057775763065,-2.9681103113676954,280]]},"para":{"top":[["MIR3674_100500912",0.26627555097543665,-5.203672849168137,280],["DLGAP2-AS1_100507435",0.2656458007722457,-5.180969220989383,280],["LOC101927752_101927752",0.26624189511247537,-5.202458040836034,280],["LOC101927815_101927815",0.2687396186362525,-5.293060264087486,280],["LOC101928058_101928058",0.2657414296331099,-5.184413113103822,280],["MIR7160_102465695",0.26969431426586943,-5.327930666408916,280],["KBTBD11-OT1_104266957",0.2657414296331099,-5.184413113103822,280],["CLU_1191",0.25685351890710295,-4.869959910931606,280],["CLN8_2055",0.26624189511247537,-5.202458040836034,280],["LOC286083_286083",0.2642080820373944,-5.129352010383295,280],["PNOC_5368",0.25677206687428655,-4.867130473459459,280],["DEFB134_613211",0.2630520589993361,-5.0880648624693325,280],["MIR596_693181",0.26627555097543665,-5.203672849168137,280],["MYOM2_9172",0.26969431426586943,-5.327930666408916,280],["ARHGEF10_9639",0.2663091340572727,-5.20488519417847,280],["KBTBD11_9920",0.2657414296331099,-5.184413113103822,280]],"bottom":[["MIR4513_100616183",-0.2334460412064904,-4.095183808721575,280],["SCAMP2_10066",-0.24667445296159396,-4.523640388005692,280],["MIR6882_102465531",-0.2408150285005625,-4.330874473465108,280],["CSK_1445",-0.2334460412064904,-4.095183808721575,280],["CYP1A1_1543",-0.2334460412064904,-4.095183808721575,280],["CYP1A2_1544",-0.2334460412064904,-4.095183808721575,280],["SCAMP5_192683",-0.24263862477558948,-4.390356461921596,280],["ULK3_25989",-0.24082292217910545,-4.331130956567441,280],["MPI_4351",-0.24273575667806221,-4.3935376413523,280],["RPP25_54913",-0.24263862477558948,-4.390356461921596,280],["FAM219B_57184",-0.24273575667806221,-4.3935376413523,280],["CPLX3_594855",-0.24082292217910545,-4.331130956567441,280],["PPCDC_60490",-0.23708809926298693,-4.210739063340024,280],["LMAN1L_79748",-0.2334460412064904,-4.095183808721575,280],["EDC3_80153",-0.2334460412064904,-4.095183808721575,280],["COX5A_9377",-0.24546681055982408,-4.483519759160518,280]]}}}
{"depmap_gene_tpm":{"corr":{"top":[["ZNF684_127396",0.2648216466005914,-5.118322412479506,278],["NPY_4852",0.2499467025928721,-4.603931538319554,278],["ELP3_55140",0.29127652893335637,-6.112228768256339,278],["NXPH2_11249",0.2636221434955057,-5.075676842613778,278],["DAB1_1600",0.25714523371739073,-4.848953689861267,278],["CD248_57124",0.2776539177173925,-5.5875626799302625,278],["MAK16_84549",0.28990064077263733,-6.057976636155677,278],["HIBCH_26275",0.26005830712066447,-4.950186606770837,278],["ANKRD20A1_84210",0.24913676790182276,-4.5768177345773395,278]],"bottom":[["OTUB2_78990",-0.22552532802416017,-3.826037845828773,278]]},"para":{"top":[["OMD_4958",0.24918173350996894,-4.578320628164746,278],["ELP3_55140",0.2980206725735646,-6.382307835752636,278],["AGPAT5_55326",0.2746660262092282,-5.476162174082596,278],["MAK16_84549",0.2693877568126188,-5.282553354619772,278]],"bottom":[["APBB1IP_54518",-0.22919096525237065,-3.9376296560423496,278],["EGF_1950",-0.2342041417089461,-4.0931729333923,278],["MAP2K1_5604",-0.2494326218235755,-4.58671128845053,278]]}}}
{"avana":{"corr":{"top":[["CCL23_6368",0.22024991984679593,-2.8686541337042,209],["DCTN6_10671",0.23310006104768535,-3.166016015315637,209],["IMPACT_55364",0.30483414110797247,-5.142853231727681,209],["IWS1_55677",0.25637291584882743,-3.6842802349462813,205],["MEIOC_284071",0.24269029816555593,-3.3987415983898908,209],["MSL1_339287",0.2370782686559427,-3.207453868749825,205],["POLR3D_661",0.3327095472468452,-5.961410090484016,205],["PTBP1_5725",0.23206288383242596,-3.1414040659649873,209],["RMC1_29919",0.2417939098820573,-3.376592729870539,209],["RPL13A_23521",0.2270248030695545,-3.023384065402391,209],["VAT1_10493",0.2418026073899221,-3.3768072419813855,209],["WDR73_84942",0.23611714029280628,-3.2382263289748106,209]],"bottom":[["ACCS_84680",-0.24011410508043338,-3.3353074210641567,209],["ACTRT2_140625",-0.2805779143020233,-4.411902725605384,209],["BHLHA9_727857",-0.27794482140363047,-4.336512358338434,209],["CAPSL_133690",-0.24762536659588202,-3.5221588745552315,209],["CNTNAP4_85445",-0.2401163081105123,-3.335361377466875,209],["CRISP2_7180",-0.2646577392468022,-3.9675842776977603,209],["MRPL47_57129",-0.24894724413286337,-3.555642950457236,209],["MSANTD3_91283",-0.23522834031990064,-3.216858512034559,209],["PKD2L1_9033",-0.24834814743967273,-3.5404450191665737,209],["PNP_4860",-0.24314177625240455,-3.4099283120676915,209],["PRKCZ_5590",-0.23526934988577905,-3.217842675139488,209],["RPS6KL1_83694",-0.2948162126891159,-4.832904032116085,209],["SCAF11_9169",-0.2653462779936946,-3.9862350568026588,209],["TRIM22_10346",-0.2481246691617172,-3.475833433668525,205],["UQCRC1_7384",-0.24840082195344626,-3.5417797809220044,209],["VDAC2_7417",-0.2411510390265253,-3.3607585953946995,209]]},"para":{"top":[["DCTN6_10671",0.24219348966483775,-3.3864558000693257,209],["IMPACT_55364",0.2552111728151054,-3.716780882761132,209],["IWS1_55677",0.24657354404786694,-3.437407390036659,205],["POLR3D_661",0.29668719749332323,-4.806003409173299,205],["RMC1_29919",0.24072117569653048,-3.3501944474014578,209],["VAT1_10493",0.23121564890200969,-3.121379532649944,209],["WDR73_84942",0.22387028718106247,-2.9507743083607547,209],["WRN_7486",0.22548469007998845,-2.9878108876109204,209]],"bottom":[["BATF2_116071",-0.2465887573750602,-3.4960271532545426,209],["BHLHA9_727857",-0.2534191250170607,-3.670263119964598,209],["CDC42BPG_55561",-0.2357366530103212,-3.2290691872256234,209],["CELSR2_1952",-0.23424077407135674,-3.1932097689476553,209],["CNTF_1270",-0.23652149338015788,-3.24797389223878,209],["GBP3_2635",-0.2560412826599132,-3.7384427663136264,209],["LTB_4050",-0.24365541285044137,-3.4226805813314862,209],["MAP3K12_7786",-0.28000578068928794,-4.320691887537477,205],["MRPL43_84545",-0.2341729389539351,-3.1915889655667247,209],["PKD2L1_9033",-0.2636836520455079,-3.9412851164412794,209],["PLCZ1_89869",-0.23798680920024634,-3.2834363353700775,209],["RPS6KL1_83694",-0.27508718289814643,-4.255552169037213,209],["SLC38A1_81539",-0.24259019549283256,-3.3962640831936386,209],["ZCCHC14_23174",-0.2348788971004542,-3.2084793273014047,209],["ZNF19_7567",-0.24207787701016256,-3.3836003845965257,209]]}}}
{"drive":{"corr":{"top":[["RBM7_10179",0.30032612302720463,-2.999089567339318,117],["DCAF4_26094",0.2833343170359348,-2.825254163417037,123],["COPS7A_50813",0.3546164138018006,-4.08884532502783,118],["RNFT1_51136",0.3608704520457506,-4.320818922521965,121],["GPR173_54328",0.28276465086192437,-2.7169174446991287,118],["SFRP2_6423",0.3193191705835786,-3.347341030342436,117],["VEGFA_7422",0.33295779114329893,-3.611895662247084,117],["RIOX1_79697",0.306774200189128,-3.1378500021581055,118]],"bottom":[["GJC1_10052",-0.34534464399478504,-3.863028965245715,117],["MFSD4A_148808",-0.3615757216306819,-4.4008631544182935,123],["GLI3_2737",-0.343563829980041,-3.8552386051753422,118],["HSD17B2_3294",-0.389418898974694,-4.995047511606436,121],["PTAR1_375743",-0.3396440403353717,-3.774449732927434,118],["LRP1_4035",-0.3583690025024707,-4.138589221976677,117],["MXD1_4084",-0.39469074597080295,-5.011158540327015,118],["TTC12_54970",-0.38606917975148636,-4.802397876610917,118],["DPP10_57628",-0.4377589764822865,-6.3850726917533995,123],["SALL1_6299",-0.3406547751027853,-3.795179470595026,118],["MAPK12_6300",-0.35063804626147443,-4.154476511805514,123],["ZNF24_7572",-0.3390676071157989,-3.7626589656893876,118],["BIRC7_79444",-0.39154213421581635,-4.934240456779545,118],["TSC22D4_81628",-0.3578392575385248,-4.158601824213431,118]]},"para":{"top":[["LOC105370892&LOC105374686&LOC107985088&RNF219&KIAA0753_105370892&105374686&107985088&79596&9851",0.2658614921671199,-2.371607350555097,114],["LOC105378260&BAGE2_105378260&85319",0.2689815863091542,-2.4912317925721625,118],["GPR173_54328",0.2530617909312757,-2.2445080824887627,118],["RANGAP1_5905",0.3104924001902981,-3.277212710571654,121]],"bottom":[["GJC1_10052",-0.3617549374246509,-4.21220340082572,117],["ARL4C_10123",-0.33642189779888787,-3.847459087822224,123],["CNGA3_1261",-0.345324831317106,-4.038004337451611,123],["CNST_163882",-0.3399090723474627,-3.7515335816823514,117],["NRBF2_29982",-0.367151963801451,-4.364409756593734,118],["HOXC6_3223",-0.3357619582391676,-3.6954848707759314,118],["MXD1_4084",-0.33162173414457774,-3.612406327579461,118],["MATN2_4147",-0.34273768290024564,-3.809300083889854,117],["TTC12_54970",-0.3340430504933934,-3.6608510690778027,118],["DPP10_57628",-0.3345398497079809,-3.8079096235633108,123],["TSC22D4_81628",-0.3644464571357616,-4.303964266837229,118],["UCK1_83549",-0.3742011116873251,-4.524452703847433,118],["MIXL1_83881",-0.35114930355199436,-4.01463311107656,118],["PSTPIP2_9050",-0.329297041710612,-3.6459843219870707,121],["PPIG_9360",-0.3394295198299048,-3.7417945366861245,117]]}}}
{"achilles":{"corr":{"top":[["INPP4A_3631",0.25899899425384515,-5.023773089335388,285],["PEA15_8682",0.2724300706372942,-5.515901907497819,285],["MRPS36_92259",0.2569264611407059,-4.950190413144302,285],["HCAR2_338442",0.25697396554291935,-4.951870008011275,285],["RFX3_5991",0.2700251341436365,-5.425821184360864,285],["PPP2R5E_5529",0.2513133215900386,-4.75402637465831,285],["KCNMA1_3778",0.2896536183566139,-6.186538622360673,285],["COL4A3BP_10087",0.2919054581888781,-6.277574661549873,285],["TRIM16_10626",0.26516537080529445,-5.246412441103029,285],["ZNF185_7739",0.2505932575073208,-4.729190551543803,285],["TBPL1_9519",0.28152221523076,-5.864306057950305,285],["FRS3_10817",0.2578397388895534,-4.982538228017756,285]],"bottom":[["PPIB_5479",-0.23894170960478364,-4.337585433540742,285],["ZNF366_167465",-0.24573639228131863,-4.563609485754919,285],["SERPINF1_5176",-0.2636406942070479,-5.190844454230517,285],["DEFA6_1671",-0.2609482989269268,-5.093551684234276,285],["DEFB4B&DEFB4A_100289462&1673",-0.2922806176264383,-6.292817789838299,285],["MTMR1_8776",-0.26215194217111776,-5.136915389910267,285],["STC1_6781",-0.23326851119175707,-4.153837992246143,285],["SVOP_55530",-0.2717775009919296,-5.491373606070343,285],["GTF2A1L_11036",-0.2369756733656445,-4.273398588755817,285],["SKAP1_8631",-0.24544386804077845,-4.553744076295514,285]]},"para":{"top":[["INPP4A_3631",0.24614859052313584,-4.577531564220739,285],["UFC1_51506",0.25777517720708,-4.9802475072607555,285],["PEA15_8682",0.2585841390125322,-5.0089941637813284,285],["TBPL1_9519",0.27302098570383315,-5.538167676644278,285],["HCAR2_338442",0.25924333330236954,-5.032489226200974,285],["RFX3_5991",0.2701328350266,-5.429836863451941,285],["KCNMA1_3778",0.27284221297833544,-5.531425985158065,285],["SERPINI1_5274",0.2797047480786765,-5.793663828004293,285],["COL4A3BP_10087",0.2966318263811742,-6.471213913744171,285],["DMXL1_1657",0.3422298666817802,-8.524472308651761,285],["FRS3_10817",0.2872332663538004,-6.0895638231756175,285],["UPF1_5976",0.2418021123197572,-4.431941426672878,285]],"bottom":[["ZNF366_167465",-0.25480141685160806,-4.875390593877139,285],["MTMR1_8776",-0.2762915157247592,-5.662347948179111,285],["EDEM2_55741",-0.24763913757062078,-4.628076984726844,285],["DEFA6_1671",-0.26526242997294486,-5.24996142335325,285],["DEFB4B&DEFB4A_100289462&1673",-0.27811180546019554,-5.732160215049145,285],["BMP6_654",-0.2352331920472412,-4.216962598594395,285],["BTNL9_153579",-0.2725481231043625,-5.520345969943342,285],["ACADSB_36",-0.25222027813214776,-4.785414310260438,285],["SVOP_55530",-0.2694987050714751,-5.406217842647074,285],["AAGAB_79719",-0.2657551108322284,-5.267997787365175,285],["GTF2A1L_11036",-0.24350315134060097,-4.488600840016734,285],["ARHGEF25_115557",-0.2500080673767592,-4.709061467228597,285]]}}}
{"ccle_rrbs_tss1kb":{"corr":{"top":[["ASAH1_8_17940705_17941705",0.2877952621718177,-3.988641034609948,177],["PTGES2-AS1_9_130889807_130890807",0.25657259549203737,-3.909393924799557,219],["MAP1S_19_17829964_17830964",0.27021161038471514,-4.293375100511406,219],["GGNBP2_17_34899736_34900736",0.3042521289272996,-5.300870008266443,217],["TUBGCP4_15_43662256_43663256",0.25935024054108397,-3.937832622061485,216],["UFSP1_7_100487339_100488339",0.28588795269890915,-4.760776462993114,219],["GPR137C_14_53018865_53019865",0.2581940764563763,-3.9539583114782517,219],["CGGBP1_3_88199016_88200016",0.2758247884101738,-4.439397155503311,218],["SPG11_15_44955876_44956876",0.26654993553166906,-4.086721100349756,213],["LOC391322_22_24372100_24373100",0.2807182714336049,-3.1458862588320757,142],["MIR3188_19_18391886_18392886",0.2744729661247676,-4.381796835464758,217],["LOC101927318_12_50356707_50357707",0.2645383029120162,-3.2757747580942866,168],["MMD_17_53499341_53500341",0.26849105943149154,-3.36316558801554,168]],"bottom":[["TTC9B_19_40724306_40725306",-0.2547735518479396,-3.844816453654545,218],["FOPNL_16_15982506_15983506",-0.22314797054645535,-2.7658658473970203,195],["EZH1_17_40897114_40898114",-0.24158109595271182,-3.4412185878069597,214],["MYOM3_1_24438665_24439665",-0.23690473703091708,-3.2976053293471046,212],["ACSF3_16_89201955_89202955",-0.25382488098728573,-3.8345381589562186,219],["LIG1_19_48673860_48674860",-0.2269338899806683,-2.5093254268694802,168]]},"para":{"top":[["ATE1-AS1_10_123686826_123687826",0.2358112208335174,-3.3641216664620246,219],["ASAH1_8_17940705_17941705",0.24748332098352957,-3.047289630802182,177],["TCEANC_23_13670309_13671309",0.2305460886394504,-3.1821962637665684,215],["ELAC1_18_48493386_48494386",0.26460030881421454,-3.8824527991874156,204],["UBC_12_125399587_125400587",0.27403574530800884,-3.740990882989257,182],["GGNBP2_17_34899736_34900736",0.23266511378660076,-3.2595889952090342,217],["DUSP10_1_221915518_221916518",0.22615277726556435,-3.1261541637021417,219],["SLC25A12_2_172750816_172751816",0.25446261222498845,-3.027622432586545,166],["TCEANC_23_13670224_13671224",0.246249442223365,-3.487497490015873,209],["WASHC2A_10_51826647_51827647",0.2431781847179868,-3.3541416544811002,205],["BCAR3_1_94312706_94313706",0.23546757964965115,-3.355486100651228,219],["ZMYM5_13_20437776_20438776",0.22179120487558043,-2.9508755859976183,213],["STX18_4_4543793_4544793",0.23853238416335232,-3.3921113579304176,216]],"bottom":[["SLC25A25_9_130852742_130853742",-0.2839261347645491,-4.643214963784444,216],["TTC9B_19_40724306_40725306",-0.2773532761752875,-4.484510446777531,218],["FOPNL_16_15982506_15983506",-0.23033960214413968,-2.9217781820050592,195],["MAP7D2_23_20135114_20136114",-0.27023710421861885,-3.8934295548742797,196],["NACAD_7_45128493_45129493",-0.23607677050243683,-3.2907197940909314,213],["MYOM3_1_24438665_24439665",-0.2637456650607684,-3.9927351514275724,212],["MTPAP_10_30638267_30639267",-0.21975004604045972,-2.90400479842718,213],["LIMS2_2_128422167_128423167",-0.22819042016801272,-3.05046402150443,209],["LINC02158_3_42811103_42812103",-0.21290353568369255,-2.7059661976289355,209]]}}}
{"ccle_gene_tpm":{"corr":{"top":[["RP1-104O17.1_ENSG00000224849.2",0.2688039956738076,-5.074110584150921,267],["CTD-2014B16.3_ENSG00000258847.1",0.27637585719297614,-5.341787148990693,267],["RP11-645C24.5_ENSG00000260306.1",0.2907470499609498,-5.872124052656478,267],["CD248_ENSG00000174807.3",0.2865693244831913,-5.7149085364674,267],["CLCN5_ENSG00000171365.11",0.27318698446349476,-5.228078911949153,267],["NXPH2_ENSG00000144227.4",0.28227663550385024,-5.555977509995091,267],["MAK16_ENSG00000198042.6",0.28611776867471894,-5.698066134969561,267],["ELP3_ENSG00000134014.12",0.2702647470684074,-5.125127590344889,267],["MEIS1-AS3_ENSG00000226819.1",0.2656069963467746,-4.963486439121584,267],["RRN3P1_ENSG00000248124.3",0.31064235496903114,-6.655876771883476,267],["MEIS1_ENSG00000143995.15",0.2624953283150727,-4.857168273424957,267],["DAB1_ENSG00000173406.11",0.26204587372972543,-4.841921368509177,267],["HIBCH_ENSG00000198130.10",0.2644744322022223,-4.924635362660851,267],["SLC39A12-AS1_ENSG00000226083.1",0.27589460405630917,-5.324535225309612,267]],"bottom":[["C14orf182_ENSG00000214900.4",-0.26044370265355815,-4.787795623412269,267]]},"para":{"top":[["RN7SL75P_ENSG00000239908.2",0.24306646504273213,-4.223040873778595,267],["RP4-760C5.3_ENSG00000231081.1",0.24667859931221067,-4.337104498171661,267],["OTC_ENSG00000036473.6",0.26834238166689356,-5.058050217043969,267],["RP11-645C24.5_ENSG00000260306.1",0.27788346272097003,-5.396042832822042,267],["CLCN5_ENSG00000171365.11",0.2662636436107508,-4.986092798391444,267],["TAS2R63P_ENSG00000256019.1",0.27113438498777515,-5.155640749777413,267],["ELP3_ENSG00000134014.12",0.2724569906568994,-5.202249336086923,267],["OMD_ENSG00000127083.7",0.2594166344073967,-4.753282845077734,267],["AGPAT5_ENSG00000155189.7",0.2655271282225737,-4.960740880105316,267],["RRN3P1_ENSG00000248124.3",0.30465415677928187,-6.413807242241917,267],["CTC-260E6.11_ENSG00000270716.1",0.24435763010038275,-4.263614446634951,267]],"bottom":[["RN7SKP26_ENSG00000222179.1",-0.24693506419803113,-4.345269013422805,267],["C14orf182_ENSG00000214900.4",-0.2987369343170719,-6.179856052223074,267],["RP11-483L5.1_ENSG00000255462.1",-0.30523688066726007,-6.43712775686566,267],["MAP2K1_ENSG00000169032.5",-0.25668320577732845,-4.662130510110512,267],["RP3-439F8.1_ENSG00000234869.1",-0.2839782338935844,-5.618661745336599,267]]}}}
{"ccle_rrbs_tss_clusters":{"corr":{"top":[["CNDP2_2",0.377617215601794,-4.708647670124376,121],["PHLDB1_3",0.2723297191983707,-4.3901571886863096,221],["SLC12A3_1",0.3074463700466385,-2.9641032789861437,110],["RFX7",0.30054340311858424,-5.245174596243566,220],["PHF19_2",0.3671774126508008,-3.999471166684908,107],["IQSEC2_4",0.2842349608107425,-2.4214828115360976,102],["EZH1_1",0.30153603705391274,-5.277598484359681,220],["NTN4_3",0.28157354659065525,-4.667006720615616,221],["PGM1_3",0.30251246584727665,-4.347774391207781,176],["SLC5A11",0.32251750456730915,-3.7897540213377674,132],["PHLDB1_2",0.28617703230801755,-4.808595198304336,221],["GGNBP2_3",0.30676985336268414,-5.450539991778853,220],["C6orf226_1",0.28763969699427405,-4.834440789142657,220]],"bottom":[["ALKBH3_1",-0.25906872662851194,-2.2189620116734936,111],["AK1_5",-0.2713947579817082,-3.9940301937413794,200],["MYOM3_1",-0.3503416431463499,-6.7304262915010655,210],["ACTBL2_1",-0.26409270030686044,-3.8857146352898515,205],["LOC340512_3",-0.2555711755080855,-2.4764439803543388,130],["MIR548AX_2",-0.2808701667865827,-2.509643072834588,109],["CD34_3",-0.3030754315997772,-4.560951503862727,185],["SDK1_4",-0.2634271232212752,-3.801762388680867,201],["LRRC43_2",-0.3291507022725619,-3.430372879235452,113]]},"para":{"top":[["HSP90AA1_3",0.25051129144677303,-2.762703078820103,154],["PGK1_3",0.2788120043219042,-2.4972115249143236,110],["MIR5188_3",0.3300675829912834,-3.5013148196648323,115],["RAD17_2",0.29944019668240884,-3.0274675415455374,119],["ITPR3_2",0.28135548829055945,-3.427518840948373,156],["CNDP2_2",0.37680225381755295,-4.6892754658622575,121],["GGNBP2_3",0.2447083996032088,-3.6063874175577486,220]],"bottom":[["MAP7D2_3",-0.26429716717840496,-3.957837479208797,209],["ARMCX5-GPRASP2_2",-0.2899698636791573,-3.1280257537675675,132],["CYP4X1_1",-0.2550676799086211,-3.432534100443071,191],["LINC01002_1",-0.2600163580623284,-2.700406885165299,139],["MYOM3_1",-0.3632379882880129,-7.221411484876321,210],["PLXNC1_6",-0.2552996396891756,-2.934413838089108,159],["TBC1D2_3",-0.252421659793007,-2.1235949596203176,111],["KCNH7_2",-0.2909565569262299,-2.7522008893446896,113],["ADD2_4",-0.2608282489360201,-2.210654487459423,109],["BAMBI_1",-0.25704556667288975,-2.9696024846191733,159],["KIF25-AS1_3",-0.25011213221166734,-2.355693209313886,128],["TBC1D27P_1",-0.24996802312280778,-2.995308836375675,170]]}}}
{"ccle_rrbs_cgi_clusters":{"corr":{"top":[["19_38397584_38400165-1",0.2901936912527395,-4.934177193002537,221],["21_46951436_46954286-2",0.30182513754774776,-2.7109322147734045,103],["7_100487411_100490093-1",0.2853293113279804,-4.782334821584491,221],["6_42856169_42860960-1",0.28763969699427405,-4.834440789142657,220],["17_34898150_34900800-3",0.3050896254341898,-5.3725173959308075,219],["9_123636820_123639378-2",0.3671774126508008,-3.999471166684908,107],["3_156877769_156880364-1",0.28268509989806706,-4.700966733904741,221],["18_72163487_72166039-2",0.377617215601794,-4.708647670124376,121],["17_40894658_40899234-1",0.30153603705391274,-5.277598484359681,220],["1_64056937_64061913-3",0.30251246584727665,-4.347774391207781,176],["12_96181873_96184536-3",0.2952586834747368,-5.0952743126387885,221],["11_118476235_118480065-1",0.2723297191983707,-4.3901571886863096,221]],"bottom":[["20_21502946_21505931-3",-0.27732209507918587,-2.928669161707204,134],["12_57941662_57945926-2",-0.27652348138365584,-3.636988129736023,173],["6_138610989_138615218-3",-0.3039669459635694,-4.696399493431368,190],["13_45963248_45967559-2",-0.28510886052617207,-3.0952029192652866,135],["4_1386614_1391430-1",-0.3294532108759368,-3.087932063009637,100],["1_208082098_208086513-3",-0.3030754315997772,-4.560951503862727,185],["18_77132250_77136551-1",-0.28542977122771274,-2.5605607153312366,108],["19_41281880_41286276-3",-0.2986874196255387,-2.882266843135082,113],["16_21292980_21297414-1",-0.28249592182748934,-4.238809906786104,197],["3_180317823_180322393-2",-0.3419434840456149,-3.5053719749621197,107],["8_8578551_8583214-2",-0.27809585689098093,-4.469728290454205,216],["22_17088455_17093224-2",-0.3198289820272601,-4.40181068477948,159],["11_1713761_1718002-2",-0.28139105123459573,-4.58614008960844,217]]},"para":{"top":[["22_17627977_17630723-3",0.2548601144179615,-3.1459365929077783,173],["3_101392976_101395536-2",0.2747276974196886,-2.862252647233414,133],["14_102553395_102556068-3",0.25051129144677303,-2.762703078820103,154],["3_12915391_12920016-1",0.28178867026326826,-3.263724965141492,147],["5_68663087_68667866-1",0.29944019668240884,-3.0274675415455374,119],["12_125399228_125401899-3",0.3300675829912834,-3.5013148196648323,115],["19_39995590_40000291-3",0.24729191482050575,-3.469821426574724,206],["23_77357303_77361979-3",0.2788120043219042,-2.4972115249143236,110],["19_59023308_59027705-3",0.25790057034344394,-2.8737031783632077,152],["18_72163487_72166039-2",0.37680225381755295,-4.6892754658622575,121],["8_1319232_1323638-3",0.2982052762338393,-3.3749988698869164,136],["7_1153303_1156374-3",0.2820510134260455,-2.606747935863095,113],["14_60191831_60196302-2",0.3185261381735661,-3.0826524353742073,107]],"bottom":[["20_21502946_21505931-3",-0.27380127655071135,-2.8637149771161767,134],["12_57941662_57945926-2",-0.265173085309857,-3.3745679948785945,173],["23_25034188_25036712-1",-0.3278906459477549,-3.168054767189757,104],["11_44331152_44333761-3",-0.26142503357134883,-2.4568834545941995,123],["14_24641637_24644220-1",-0.25902856554108783,-3.301983075759615,177],["17_79378359_79382723-3",-0.25295950867251665,-3.2438072354072656,182],["11_1313467_1316291-1",-0.29664190508118804,-2.934181692613214,117],["23_47037345_47041571-3",-0.257317504603646,-3.391065346271528,185],["9_101017982_101020581-2",-0.2849029896020191,-2.592585755883848,110],["23_101964967_101967469-3",-0.2899698636791573,-3.1280257537675675,132],["16_89777904_89780789-2",-0.2564576864011848,-3.8435296417760774,215],["23_20134777_20137350-2",-0.26429716717840496,-3.957837479208797,209]]}}}
