{"depmap_hotspot":{"corr":{"top":[["ALOX15B",0.11297151009697254,-1.9182387033332358,13.0,480.0],["ANKRD13B",0.1308325566121403,-2.4421136174745164,22.0,471.0],["CABP2",0.12633309550156835,-2.303941590787525,9.0,484.0],["CPNE9",0.12516498539506443,-2.268757939555526,9.0,484.0],["CXorf40B",0.11652712083832019,-2.0173096273508437,8.0,485.0],["DERA",0.1154993865927384,-1.988409412153842,9.0,484.0],["ETFB",0.11587136231893842,-1.9988446427921829,8.0,485.0],["LETMD1",0.12191650045787517,-2.172395439794941,8.0,485.0],["MT-ND4L",0.14285382224170237,-2.8320848478331575,36.0,457.0],["OPHN1",0.15144726457927318,-3.129670544820032,21.0,472.0],["SLC35D3",0.1213839604852851,-2.156805738967452,12.0,481.0],["STX10",0.142353583849999,-2.815247887888737,8.0,485.0],["TRMT61B",0.11638815214547107,-2.013389199212185,8.0,485.0],["WDR13",0.12585599529041783,-2.289537124996114,13.0,480.0],["ZNF645",0.13797218558909322,-2.670048508011128,9.0,484.0],["ZNF830",0.12818300843442748,-2.3602400641589707,11.0,482.0]],"bottom":[["ACTR6",-0.11519569205723838,-1.9799105945403979,10.0,483.0],["ADPRHL1",-0.13847034408360023,-2.686352696059479,14.0,479.0],["ALKBH1",-0.11296143242168188,-1.9179615551046016,9.0,484.0],["B3GNT2",-0.1139769072417169,-1.9459918527664297,10.0,483.0],["CD8B",-0.12763156582443638,-2.3433836562439487,11.0,482.0],["CHP2",-0.1227561381305163,-2.1970937476440895,9.0,484.0],["DPEP2",-0.12613347766533087,-2.297909050937495,11.0,482.0],["DUOXA1",-0.11604094713146314,-2.0036114466971773,12.0,481.0],["EPHX2",-0.15522397409946248,-3.2654799067651568,14.0,479.0],["GPR15",-0.10628372340817366,-1.738824185307444,10.0,483.0],["GTF2A1L",-0.11087868697849543,-1.8611246899037641,9.0,484.0],["HAGH",-0.13007117150800024,-2.418436292446043,9.0,484.0],["HEXA",-0.14298756341854107,-2.836595310279107,13.0,480.0],["HSD11B2",-0.11960736413289647,-2.1052186451539323,9.0,484.0],["LGI3",-0.1267595312087078,-2.316856338766676,15.0,478.0],["MNS1",-0.13195394239058644,-2.4772065831728423,18.0,475.0],["MYOZ2",-0.1279153293555132,-2.3520498015447613,10.0,483.0],["ODF2",-0.14024099722865616,-2.744729022706979,20.0,473.0],["OR2D2",-0.12189321421677816,-2.171712533189346,8.0,485.0],["PDGFA",-0.1249622944953123,-2.2626816144942032,16.0,477.0],["PPIL2",-0.11515238992207615,-1.9787003235120577,10.0,483.0],["REL",-0.121685565436244,-2.165627830497637,12.0,481.0],["SLC39A2",-0.14070559695454582,-2.760156284862843,13.0,480.0],["SNTA1",-0.12501263643371868,-2.264189986182386,13.0,480.0],["SOD3",-0.11947825722638811,-2.1014950024694787,9.0,484.0],["TEAD1",-0.13891161431515284,-2.7008387940082192,13.0,480.0],["TMEM182",-0.15928724472444494,-3.4150485569795754,9.0,484.0],["TNFSF9",-0.1564672088001516,-3.3108620967806783,11.0,482.0],["ZNF726",-0.11791584511647615,-2.056703206524033,16.0,477.0]]},"para":{"top":[["ALOX15B",0.11234553480860406,-2.1958633575781494,13.0,480.0],["ARC",0.11787409459509328,-2.3486293118766772,11.0,482.0],["CABP2",0.12908701906977552,-2.676919517996947,9.0,484.0],["CPNE9",0.11945207042992835,-2.393215048931219,9.0,484.0],["CXorf40B",0.11951704820396136,-2.39497683229312,8.0,485.0],["CYP4A11",0.11536988016370503,-2.2787517156011874,13.0,480.0],["DLST",0.11551292015728368,-2.2824733934290244,9.0,484.0],["ETFB",0.13514056040429046,-2.8644426982241207,8.0,485.0],["FAM182B",0.1147144437506665,-2.260395370444115,9.0,484.0],["HIBADH",0.11319387061812886,-2.2188309504629062,11.0,482.0],["HRH1",0.12107283644099977,-2.4397392599581607,10.0,483.0],["IGFBP4",0.12983226371595155,-2.699625997171235,9.0,484.0],["LETMD1",0.13141799071034924,-2.748208418946363,8.0,485.0],["MFAP5",0.1136205166854582,-2.230541149554372,12.0,481.0],["MLNR",0.12675565091232047,-2.6068568265645933,13.0,480.0],["NT5C2",0.12370155773324694,-2.5161695507307527,10.0,483.0],["OPHN1",0.14891778533813313,-3.3193458677820478,21.0,472.0],["SLC1A4",0.13502775526204977,-2.8608800575852937,8.0,485.0],["STX10",0.14202167408096963,-3.086549930553628,8.0,485.0],["TRAPPC13",0.11759936078587044,-2.3406624124052757,8.0,485.0],["VSNL1",0.11268114923882606,-2.204808515486258,10.0,483.0],["WDR13",0.1379635189929888,-2.954805000800172,13.0,480.0],["ZNF830",0.14421844811491355,-3.1597168818351937,11.0,482.0]],"bottom":[["ACTR6",-0.11485489953818429,-2.264343934978931,10.0,483.0],["ADPRHL1",-0.14526799548051808,-3.1950653933571904,14.0,479.0],["ATL3",-0.10028863667111627,-1.8828342318746139,9.0,484.0],["CASQ1",-0.14705463697995808,-3.255328281806195,12.0,481.0],["CHP2",-0.13504897623918366,-2.8616501911152703,9.0,484.0],["COX4I1",-0.11391596734404927,-2.2384417062410606,9.0,484.0],["EPHX2",-0.1257902429854929,-2.5780948112899953,14.0,479.0],["FAM9A",-0.12952831389335304,-2.6905648650239034,12.0,481.0],["GUK1",-0.12008107391516455,-2.411088757903658,8.0,485.0],["HAGH",-0.11040267115493373,-2.14332037592328,9.0,484.0],["HEXA",-0.14770369006309345,-3.2774799633966456,13.0,480.0],["LGI3",-0.12609152197424822,-2.5871077374801734,15.0,478.0],["MYOZ2",-0.12334769140544438,-2.5058017474956547,10.0,483.0],["ODF2",-0.1575632236581288,-3.623763573500094,20.0,473.0],["OR2D2",-0.1293310955788973,-2.6842475418772085,8.0,485.0],["PDGFA",-0.1425244248093806,-3.103682688889806,16.0,477.0],["PELI2",-0.12400487172850619,-2.5250758455793205,10.0,483.0],["PPARG",-0.1259162730554555,-2.5819598148537395,17.0,476.0],["PPIL2",-0.10762591598450455,-2.0699069812810857,10.0,483.0],["REL",-0.12582882617058674,-2.5791432539176387,12.0,481.0],["TBX21",-0.14870567316499278,-3.3116203934234476,11.0,482.0],["TDRD10",-0.11884604309386548,-2.376178452094907,12.0,481.0],["TMEM182",-0.13212122941492066,-2.7700543157498836,9.0,484.0],["TNFSF9",-0.1187908394977976,-2.374555091786198,11.0,482.0]]}}}
{"depmap_damaging":{"corr":{"top":[["CHD4",0.11548919841360333,-1.9881239941578746,8.0,485.0],["DLG5",0.12787912593543282,-2.3509432171268614,8.0,485.0],["OBSCN",0.15246320717291673,-3.1659004282533263,20.0,473.0]],"bottom":[["C12orf60",-0.1376053620520318,-2.658076273951578,8.0,485.0]]},"para":{"top":[["CHD4",0.1206450996263678,-2.4272630597542175,8.0,485.0],["DLG5",0.14529302320594836,-3.1954529043577216,8.0,485.0],["GRM7",0.1275940873390744,-2.6318429092725086,10.0,483.0],["OBSCN",0.14856889933651626,-3.307346384974555,20.0,473.0]],"bottom":[["BAI2",-0.10818013140877672,-2.084300689439623,8.0,485.0],["DGCR8",-0.1345166586347722,-2.844869913060361,9.0,484.0]]}}}
{"ccle_mirna":{"corr":{"top":[],"bottom":[]},"para":{"top":[["hsa-miR-1977_miR00693.1",0.20053209917951842,-4.458456047238757,420]],"bottom":[]}}}
{"prism_secondary_logfold":{"corr":{"top":[["prednisolone-tebutate_BRD-A53151380-001-01-2::0.00976562::HTS002",0.2238084902542878,-2.3647633423410843,161],["UNBS-5162_BRD-K30933884-001-01-0::0.15625::HTS002",0.2180439813380996,-3.423106761457382,262],["cytochlor_BRD-K48988407-001-01-2::0.0390625::HTS002",0.2501777560827077,-4.3605295791172365,261],["alpelisib_BRD-K54997624-001-06-0::0.00244::MTS010::PROS002_PR500",0.2559232472737527,-4.171985903708842,237]],"bottom":[]},"para":{"top":[["cytochlor_BRD-K48988407-001-01-2::0.0390625::HTS002",0.24753738926314445,-4.2775850602095495,261]],"bottom":[["monensin_BRD-A06627858-236-03-0::0.00061035::MTS006",-0.22750967626079355,-3.653097523258939,259],["enoximone_BRD-K21152241-001-07-3::0.002441408::MTS006",-0.2260521004278827,-3.599587759798654,258]]}}}
{"ccle_proteomics":{"corr":{"top":[["CHRNE_Q04844",0.29363263070164264,-3.4715235172037735,145],["TRIM72_Q6ZMU5",0.35103713056716257,-4.524645235165513,135],["BAG1_Q99933",0.33150793368795783,-7.1248460779063105,251],["SCYL3_Q8IZE3-2",0.28888733964415836,-5.3088126160431495,242]],"bottom":[["PPFIBP1_Q86W92-2",-0.34729974299206773,-7.798952255079274,251],["RXRG_P48443",-0.32454037226962823,-3.9360170933280973,136],["HEG1_Q9ULI3",-0.29627086903575767,-5.377916337199329,233],["MINK1_Q8N4C8",-0.3079167254605824,-6.1862846503323095,251]]},"para":{"top":[["VAV1_P15498",0.3660699318447503,-5.8765836739543715,165],["ATP2A1_O14983",0.3498551527823261,-3.6256634996386445,106],["BAG1_Q99933",0.3285511829846952,-7.002779481038138,251],["FIZ1_Q96SL8",0.31190057718820047,-5.089809943859432,197],["SCYL3_Q8IZE3-2",0.31593994591534497,-6.283493980361178,242],["LCP2_Q13094",0.33375606164816185,-5.27608203276957,178],["MIIP_Q5JXC2",0.3192618702052664,-3.0450863893084867,105],["LAMTOR5_O43504",0.28126614789406035,-5.107855668649784,245],["LSM5_Q9Y4Y9",0.417516410300298,-4.984643123607577,104]],"bottom":[["PPFIBP1_Q86W92-2",-0.31325260975545377,-6.39156841767132,251],["SEPT10_Q9P0V9-2",-0.3549781398009358,-8.140482944137618,251],["TRIO_O75962",-0.352377112860102,-8.023765769856732,251],["MINK1_Q8N4C8",-0.3067887562025821,-6.143403866840217,251]]}}}
{"depmap_gene_tpm":{"corr":{"top":[["SLC10A5_347051",0.24553926528171097,-7.4488454066903405,491]],"bottom":[]},"para":{"top":[],"bottom":[["ACTB_60",-0.258102434888518,-8.186687246457955,491]]}}}
{"avana":{"corr":{"top":[["ATP5MC2_517",0.24476594860882914,-5.4860996604638235,353],["CIDEA_1149",0.20818572925775536,-4.0904696043941104,353],["HIST1H2AK_8330",0.20746596013222698,-4.065287612133055,353],["MYL4_4635",0.2097874908458578,-4.146818700427737,353],["PTGDR2_11251",0.21528181385999592,-4.34336538008789,353],["RAD54B_25788",0.23083566714448125,-4.927485008386447,353],["SMCO4_56935",0.24086119525228195,-5.3260857639263905,353],["TRIM5_85363",0.2187792400558684,-4.471122207535038,353],["WWP1_11059",0.20931629368293284,-4.130197853343872,353]],"bottom":[]},"para":{"top":[["ATP5MC2_517",0.23576472401628074,-5.121267501490387,353],["EYA3_2140",0.23815556270566243,-5.163775543272381,349],["MYL4_4635",0.1928874833074815,-3.5736361651300594,353],["RAD54B_25788",0.22596119679257487,-4.739978704639876,353],["SMCO4_56935",0.2300018251027938,-4.895119356645328,353],["WWP1_11059",0.19835637171949053,-3.7539846257950797,353]],"bottom":[["EMILIN3_90187",-0.18733384976403375,-3.3954602975616623,353],["PLPP6_403313",-0.2186297992243835,-4.46562103115629,353]]}}}
{"drive":{"corr":{"top":[["GTF2E1_2960",0.2931878631832395,-4.9472923717154025,217],["NBR1_4077",0.2889000671278567,-4.814153417055033,217],["GMCL1P1_64396",0.25657716822723037,-3.8310414193143956,214],["KLF10_7071",0.3359612040674318,-6.396959141906628,217]],"bottom":[["EEF1E1-BLOC1S5&EEF1E1_100526837&9521",-0.3139075711371319,-5.597976252400707,216],["DUSP3_1845",-0.3052996625913404,-5.268547084102681,214],["C8orf44_56260",-0.30428118063630605,-5.27978546411977,216]]},"para":{"top":[["LOC101926969_101926969",0.3253935436777883,-5.99246577495762,216],["ADH6_130",0.32817171932473516,-6.090349532630812,216],["NFASC_23114",0.30271601042525426,-5.22910437313985,216],["HADHA_3030",0.2825068321012039,-4.7903010487495505,226],["ASNSP1_389652",0.2568128456921646,-3.8845424396369013,217],["NBR1_4077",0.29012403311077783,-4.851939213194685,217],["GMCL1P1_64396",0.2544981897651395,-3.7755677514778454,214]],"bottom":[["C8orf44_56260",-0.31025989250883246,-5.476086488018748,216],["RGL3_57139",-0.28644769195774505,-4.738969172057612,217],["TYK2_7297",-0.3307280529986021,-6.129064589884353,214],["WDR24_84219",-0.313174943467896,-5.596719191879765,217]]}}}
{"achilles":{"corr":{"top":[["PFDN6_10471",0.2841804958943617,-10.034600546545414,501],["PPP3R2_5535",0.3143463488739071,-12.226065561107694,501],["FAM74A4&FAM74A3_401508&728495",0.3248171310137454,-7.699862115665768,285]],"bottom":[["ADAM33_80332",-0.26196249148321027,-8.579969957128927,501],["KRTAP4-2_85291",-0.2607806838089639,-8.506258889066878,501],["CLPP_8192",-0.26752839779674986,-8.932047966794963,501],["CLYBL_171425",-0.2758029514509185,-9.470617206656534,501],["IRGQ_126298",-0.29416392342012926,-6.369669264486679,285],["CIRBP_1153",-0.2961261784553283,-10.871945750679833,501],["C6orf118_168090",-0.2559584442628912,-8.209258923309196,501]]},"para":{"top":[["PPP3R2_5535",0.3073952111608115,-11.698320481039518,501],["FAM74A4&FAM74A3_401508&728495",0.3353738720415654,-8.193648364545115,285],["PCSK1_5122",0.2466764687407917,-3.6000767474288486,216]],"bottom":[["KRTAP4-2_85291",-0.2414093327497353,-7.349446902450986,501],["HELB_92797",-0.24175453188581367,-4.430362462358056,285],["TMCC2_9911",-0.2496902642943898,-4.698150394444149,285],["CIRBP_1153",-0.2694760894169813,-9.057180315378943,501],["C6orf118_168090",-0.23382645424163337,-6.922581836013632,501],["PIGS_94005",-0.24138579909723218,-4.418136838154937,285]]}}}
{"ccle_rrbs_tss1kb":{"corr":{"top":[],"bottom":[["ZNF548_19_57900217_57901217",-0.25794615201698895,-3.0524145271189322,163],["FANCE_6_35419137_35420137",-0.29973568907155507,-4.404014228612313,182]]},"para":{"top":[["RPS19_19_42363336_42364336",0.19973106455664805,-4.025133050021825,377],["SAP30_4_174291092_174292092",0.1981305137523828,-3.8942395293204184,369],["RPS19_19_42362987_42363987",0.2190679744815212,-4.728742401788256,375]],"bottom":[["SIPA1_11_65406591_65407591",-0.21689928605480235,-4.5564095931731,367]]}}}
{"ccle_gene_tpm":{"corr":{"top":[["RP1-8B1.4_ENSG00000231769.2",0.27197737682583156,-8.825763527338927,478]],"bottom":[]},"para":{"top":[["None_ENSG00000269094.1",0.2825179413843438,-9.495917654762405,478]],"bottom":[]}}}
{"ccle_rrbs_tss_clusters":{"corr":{"top":[["MAPK8IP3_3",0.25090633802174006,-5.7138062354842045,351],["ENPP2_5",0.28467113612086736,-3.480609128800792,155]],"bottom":[["ADIPOQ_2",-0.26451003743567714,-4.0970110312412285,217],["TSKS_2",-0.271818611383266,-5.770671675321906,301],["PTPRS_3",-0.31258404668960327,-3.3170534178038538,121],["LOC100287010_2",-0.25591636762326586,-2.7393752206155813,146],["DBH-AS1_2",-0.30837693103646974,-3.5855238766190327,136],["TAGLN3_3",-0.2683915825024374,-2.677180836543847,129],["IFT74_3",-0.36062176900610976,-5.992262606688823,174]]},"para":{"top":[["PTGIS_3",0.28906916302262986,-3.9605896339638758,174]],"bottom":[["ADIPOQ_2",-0.2610430819251925,-4.000503525385207,217],["SNORA11_3",-0.26943560407325096,-2.6060069061249043,124],["BMS1P22_2",-0.2524616835024842,-3.0786677584585203,172],["STK17A_2",-0.24260524741830086,-5.534587253384457,363],["S100A14_3",-0.23396419448683672,-4.434048132036623,305]]}}}
{"ccle_rrbs_cgi_clusters":{"corr":{"top":[["1_180881954_180884592-3",0.27180833258285164,-6.341438570425032,334]],"bottom":[["23_41133116_41137669-3",-0.28127469358293994,-6.8750697366879745,340],["2_112937287_112941563-3",-0.27949827410720224,-3.462770799464721,160],["7_80324_84592-1",-0.27869933412640496,-7.499756815216056,381],["5_176294541_176298933-2",-0.30524981994784717,-2.9265962107341266,110],["7_291900_296232-2",-0.26686328428747963,-6.924469659987718,382],["19_5340350_5343061-3",-0.31258404668960327,-3.3170534178038538,121],["9_26944847_26949578-2",-0.36062176900610976,-5.992262606688823,174]]},"para":{"top":[["20_48182193_48186833-3",0.28906916302262986,-3.9605896339638758,174],["1_180881954_180884592-3",0.279778512751426,-6.69618057339219,334]],"bottom":[["7_398462_402670-1",-0.2405506921508589,-5.596954059879883,374],["9_129485364_129487887-3",-0.24719881040906777,-2.8931320079621385,167],["14_19683063_19686196-2",-0.2565463200499098,-3.1667877657128423,172],["16_88887857_88892281-2",-0.2316765954905855,-2.638927125489653,171],["6_41559221_41563473-2",-0.2596958446056634,-2.3789820427689152,120]]}}}
