{"depmap_hotspot":{"corr":{"top":[["CEP57L1",0.11498633627294788,-1.97406275050504,12.0,481.0],["KITLG",0.1241092724348065,-2.237202564401915,10.0,483.0],["LAMP5",0.12797442791351976,-2.3538567780624238,13.0,480.0],["MAGEB10",0.12106638303588245,-2.147536656985901,9.0,484.0],["MAT2B",0.1085319020711896,-1.7981316889306969,9.0,484.0],["TADA2A",0.1278724107292615,-2.350737991808005,11.0,482.0]],"bottom":[["C1GALT1C1",-0.124613415479139,-2.2522427171840707,13.0,480.0],["CCT7",-0.13653716194702706,-2.623374496433233,12.0,481.0],["DERA",-0.1279848682641301,-2.3541760739538486,9.0,484.0],["FAM53A",-0.13514327676559676,-2.578453908000017,10.0,483.0],["HCN2",-0.14897218554730352,-3.0423367046437693,19.0,474.0],["HPS5",-0.15568806037798127,-3.282381353903262,23.0,470.0],["KIAA0586",-0.14749889357519166,-2.9909762645776077,34.0,459.0],["KSR1",-0.1622446929503972,-3.5261760253767385,32.0,461.0],["LRRC3DN",-0.13854357811235865,-2.688753987108838,10.0,483.0],["MIER1",-0.14613686178220658,-2.943908304774267,9.0,484.0],["MYEOV",-0.1343520361366296,-2.5531364737005378,19.0,474.0],["SIPA1L3",-0.1550409056022148,-3.25882562685033,61.0,432.0],["SLC25A47",-0.1337178625538256,-2.532939641193395,18.0,475.0],["SSTR4",-0.1283814983389563,-2.366322941315152,24.0,469.0],["SZT2",-0.16760959390488206,-3.7326636832997493,76.0,417.0],["TG",-0.146118358583821,-2.9432716200371143,102.0,391.0],["TNFRSF4",-0.12933400907634646,-2.3956274170295635,11.0,482.0],["UGCG",-0.12865981995127707,-2.374866122710049,14.0,479.0],["VAPA",-0.13944076404887548,-2.718264114526872,10.0,483.0],["ZNF580",-0.11936114504047755,-2.0981202607064815,12.0,481.0]]},"para":{"top":[["CCDC71L",0.137874550399178,-2.9519448277330653,13.0,480.0],["COL10A1",0.13631150822746615,-2.902190031191835,19.0,474.0],["KITLG",0.1151581991173547,-2.272724042703607,10.0,483.0],["LAMP5",0.14032071177722788,-3.031158322433439,13.0,480.0],["TADA2A",0.12009356722034886,-2.411679717869407,11.0,482.0],["TVP23A",0.11156427170981327,-2.1744191889741513,8.0,485.0]],"bottom":[["ANGPTL1",-0.11754294350012678,-2.3390754124005717,8.0,485.0],["C1GALT1C1",-0.12835675885549286,-2.6550409496918297,13.0,480.0],["C21orf67",-0.12208386780878472,-2.4689744115317143,10.0,483.0],["CCT7",-0.12448774628707499,-2.5394190400023167,12.0,481.0],["CD68",-0.12081429221558135,-2.432127083741727,8.0,485.0],["DERA",-0.12615925645225534,-2.5887769928633064,9.0,484.0],["DNAJC18",-0.12284478452172559,-2.490939006422233,8.0,485.0],["DUSP18",-0.128934942453941,-2.6725653443136217,13.0,480.0],["EXOSC6",-0.11427159478467218,-2.248116980272701,8.0,485.0],["FAM213A",-0.10947737683960944,-2.1185832476147466,8.0,485.0],["FAM53A",-0.1400804959412598,-3.0231287245871523,10.0,483.0],["GOLGA8K",-0.12137831785617699,-2.4483825199789506,8.0,485.0],["GPR37L1",-0.13396768238991688,-2.8278425751232885,12.0,481.0],["HCN2",-0.15526628612330076,-3.541379695747679,19.0,474.0],["HPS5",-0.17132069305377354,-4.139394347265749,23.0,470.0],["LDHAL6B",-0.1520837177101287,-3.4289590236776806,17.0,476.0],["LETMD1",-0.12194234349677259,-2.4647004074820678,8.0,485.0],["LRRC3DN",-0.14463020530059337,-3.1734108983535734,10.0,483.0],["MIER1",-0.14761165322451647,-3.2740437716800024,9.0,484.0],["MYEOV",-0.1512309916103204,-3.399273392834839,19.0,474.0],["NIPAL3",-0.11897296969231677,-2.379583857651561,9.0,484.0],["NME7",-0.11908032298104507,-2.3827759434888343,11.0,482.0],["ORC4",-0.14035275968295782,-3.032343049898685,16.0,477.0],["STAC2",-0.14052316803313894,-3.0379448794037036,17.0,476.0],["TMEM59L",-0.1409398854869117,-3.051198951595964,10.0,483.0],["TNFRSF4",-0.11657133724562593,-2.3120698460548184,11.0,482.0],["UGCG",-0.12917952735843138,-2.680046292282843,14.0,479.0],["UGDH",-0.1401654531037017,-3.0259721737807492,11.0,482.0],["VAPA",-0.13194157142067414,-2.7645719288880573,10.0,483.0],["WFIKKN1",-0.14898018018023576,-3.3213963160992424,18.0,475.0],["ZNF154",-0.12890843184778508,-2.6715758874983995,10.0,483.0],["ZNF395",-0.12009083652164056,-2.4114589447693353,9.0,484.0],["ZNF580",-0.12781728482075602,-2.638696068432904,12.0,481.0],["ZNF79",-0.12914023466378544,-2.6785372771886484,9.0,484.0]]}}}
{"depmap_damaging":{"corr":{"top":[["OXNAD1",0.1249329774019129,-2.2618034417796293,13.0,480.0],["PGM2L1",0.11628649270443192,-2.0105237911253404,9.0,484.0]],"bottom":[["FASN",-0.12030184317753004,-2.1253071318273795,8.0,485.0],["FXR1",-0.12774618721449976,-2.346882182451939,8.0,485.0],["MAP9",-0.13235659635448535,-2.4898715031689127,11.0,482.0],["MYEOV",-0.11525347167105651,-1.981526097301415,11.0,482.0],["NRK",-0.1331747163444608,-2.515708867606341,11.0,482.0],["REPIN1",-0.11653222425003597,-2.0174536740078026,13.0,480.0],["TDRD1",-0.1532011166236968,-3.1923549934467137,16.0,477.0]]},"para":{"top":[],"bottom":[["BAG6",-0.13669349008486703,-2.9139312771336865,10.0,483.0],["CAMTA1",-0.1209211643058439,-2.435370792864511,10.0,483.0],["FASN",-0.11641489221893551,-2.3074743202145114,8.0,485.0],["FHDC1",-0.12850401323806654,-2.65931386679595,10.0,483.0],["FXR1",-0.1351405434867101,-2.8644421639624347,8.0,485.0],["GEN1",-0.11697891785953116,-2.323243770706995,8.0,485.0],["MAP9",-0.13823546407645626,-2.9634357251041195,11.0,482.0],["MYEOV",-0.126848528815708,-2.6095250454607766,11.0,482.0],["NRK",-0.13186650028654623,-2.7623195278665276,11.0,482.0],["OBSCN",-0.14174186433638522,-3.0780017251356853,20.0,473.0],["REPIN1",-0.11883896731180764,-2.3760278117900513,13.0,480.0],["SLC26A7",-0.11348997235226572,-2.226853287120817,10.0,483.0],["SMC6",-0.11861459221725845,-2.3693269907821546,8.0,485.0],["ZBED4",-0.11359476401595746,-2.229558718382395,8.0,485.0]]}}}
{"prism_secondary_logfold":{"corr":{"top":[["tenovin-6_BRD-K13949769-001-01-7::0.15625::HTS002",0.23617992496608695,-3.878208481922158,257],["odanacatib_BRD-K22822991-001-02-3::0.0024414::HTS002",0.28372389775662565,-2.989935334351173,131],["serdemetan_BRD-K65924316-001-03-1::0.00061034::HTS002",0.26845748691017135,-2.7137208052264654,131]],"bottom":[["LY2801653_BRD-K18961567-001-01-1::0.00061034::HTS002",-0.22196381638266152,-3.5673829784643862,265]]},"para":{"top":[["odanacatib_BRD-K22822991-001-02-3::0.0024414::HTS002",0.2603190363519058,-2.57278020819081,131]],"bottom":[["voxtalisib_BRD-K56291712-001-01-0::0.15625::HTS002",-0.23967758722129795,-4.090418601951353,265]]}}}
{"ccle_proteomics":{"corr":{"top":[],"bottom":[["RNF130_E5RI87",-0.2675218494390639,-3.1337869097262936,156]]},"para":{"top":[],"bottom":[]}}}
{"avana":{"corr":{"top":[["PALMD_54873",0.22895943897714952,-4.854827812358141,353],["RORB_6096",0.2284862551852365,-4.836599551794034,353],["TEDC1_283643",0.2524539018472885,-5.809055400670742,353]],"bottom":[["ACRBP_84519",-0.19837884460300514,-3.754735791565331,353],["LOXL2_4017",-0.19698583001570694,-3.671735315838224,349],["LRRC23_10233",-0.1976442402359506,-3.7302241391190627,353],["RPS4X_6191",-0.21402535411626428,-3.921038936334007,318]]},"para":{"top":[["DEUP1_159989",0.20673410722377658,-4.039771138171762,353],["MECR_51102",0.24175237633280405,-5.362368871101185,353],["PALMD_54873",0.20223015721725582,-3.8846916053950484,353],["SNED1_25992",0.20419661957557084,-3.951988057556647,353],["ZYG11B_79699",0.19115799668217354,-3.5176148799702087,353]],"bottom":[["ACRBP_84519",-0.1954332463886472,-3.6569817389787898,353],["BEST1_7439",-0.1953652914860333,-3.6547432671488895,353],["OR13C2_392376",-0.24107469864333614,-5.33476550411108,353]]}}}
{"drive":{"corr":{"top":[],"bottom":[["E2F3_1871",-0.316111053594152,-5.696194599739071,217],["LOC728554_728554",-0.29666149255904606,-5.203172167332864,224]]},"para":{"top":[],"bottom":[]}}}
{"achilles":{"corr":{"top":[],"bottom":[["MRPS10_55173",-0.2330232759534744,-4.145996372782765,285],["RASA4_10156",-0.27797968701746123,-9.615334810653883,501],["WDCP_80304",-0.26706576899754614,-5.316153608570449,285]]},"para":{"top":[],"bottom":[["MRPS10_55173",-0.22014018440291075,-3.745714694915765,285]]}}}
{"ccle_rrbs_tss1kb":{"corr":{"top":[["CTNNAL1_9_111775874_111776874",0.2063915029307866,-4.19781438103085,370]],"bottom":[["FOXD4_9_118417_119417",-0.24137146996757025,-2.6764364808357213,160]]},"para":{"top":[],"bottom":[["NEK6_9_127019195_127020195",-0.21540986424262915,-4.565286717045119,373],["SINHCAF_12_31479121_31480121",-0.24177638849026872,-5.71778362244047,379],["SINHCAF_12_31479159_31480159",-0.22795341292966245,-5.119511314050852,378],["LYRM2_6_90348216_90349216",-0.2135497262837664,-4.505156555359006,374]]}}}
{"ccle_gene_tpm":{"corr":{"top":[],"bottom":[["GS1-421I3.4_ENSG00000228139.1",-0.19488050754574818,-4.74943731601292,478],["PTGES3P4_ENSG00000236937.2",-0.19161717402188694,-4.607338293615507,478],["AP000295.10_ENSG00000272659.1",-0.20828580232462315,-5.358214777687162,478]]},"para":{"top":[],"bottom":[["GS1-421I3.4_ENSG00000228139.1",-0.20923783739260007,-5.402996560217254,478],["GNRHR2P1_ENSG00000259169.1",-0.170009172051156,-3.7255250811307725,478],["AP000295.10_ENSG00000272659.1",-0.19165737916916886,-4.60907458579353,478]]}}}
{"ccle_rrbs_tss_clusters":{"corr":{"top":[["PRDX4_3",0.2548205522836793,-2.956344925700962,161],["LOC729603_2",0.250170295767003,-3.029856254171614,172]],"bottom":[["MYBL2_1",-0.2918985861890973,-3.414092310326161,144],["MTERF2_1",-0.314338350606608,-3.664385600064709,134],["ACSS2_2",-0.26026316536978794,-2.303820234977176,115],["PRAME_2",-0.2714793502001366,-2.8393832054006944,135],["RAPGEF1_3",-0.24113140720735332,-4.7653132683575405,311]]},"para":{"top":[["FASTKD1_2",0.2367797541337751,-4.04189278599767,268],["LOC101927446_2",0.25466679037483586,-3.516342987665291,197],["SRSF4_2",0.2579575679330066,-2.8586014627793888,151]],"bottom":[["PDE5A_2",-0.2530127865140643,-5.847884864760006,354],["MYBL2_1",-0.2879384197277166,-3.331593781735098,144],["CDK8_1",-0.2680390938211142,-3.335757542457855,167],["MTERF2_1",-0.2707952356691166,-2.8089274237042106,134],["HIST1H4J_2",-0.27139590902622934,-2.8198260697922857,134],["DENND2D_2",-0.3082629129071668,-3.606241850982492,137],["ZNF615_3",-0.26226292229886217,-5.318774960288332,296],["LOC257396_1",-0.2890026597557865,-2.699261059819173,112],["PRAME_2",-0.2523769802068839,-2.5021641450735492,135]]}}}
{"ccle_rrbs_cgi_clusters":{"corr":{"top":[["23_23683406_23688046-3",0.2548205522836793,-2.956344925700962,161]],"bottom":[["20_33462156_33466645-2",-0.26026316536978794,-2.303820234977176,115],["20_42293399_42298320-1",-0.2918985861890973,-3.414092310326161,144],["17_18904909_18907576-3",-0.2512132787240858,-6.124008601252014,378],["12_107378558_107383076-1",-0.314338350606608,-3.664385600064709,134],["4_8345476_8349889-3",-0.33010461108381434,-3.7689984311561613,125],["6_150241902_150246210-2",-0.3037406413070673,-3.2860898687962745,127],["22_22899386_22903698-2",-0.2714793502001366,-2.8393832054006944,135]]},"para":{"top":[["1_161573534_161576221-1",0.26928843883809866,-3.39845658192317,169],["18_44541037_44543933-2",0.2777691834780327,-3.3498937816775802,156],["4_57456635_57461028-1",0.23824227838153916,-2.394297426475379,144]],"bottom":[["13_26825936_26828520-1",-0.2680390938211142,-3.335757542457855,167],["19_52509228_52513582-3",-0.26226292229886217,-5.318774960288332,296],["20_42293399_42298320-1",-0.2879384197277166,-3.331593781735098,144],["12_107378558_107383076-1",-0.2707952356691166,-2.8089274237042106,134],["4_120546203_120549227-2",-0.2530127865140643,-5.847884864760006,354],["5_52403269_52407767-1",-0.2890026597557865,-2.699261059819173,112],["22_22899386_22903698-2",-0.2523769802068839,-2.5021641450735492,135],["6_27789780_27794217-2",-0.27139590902622934,-2.8198260697922857,134],["1_111744337_111749303-2",-0.3082629129071668,-3.606241850982492,137]]}}}
