{"depmap_hotspot":{"corr":{"top":[["AATF",0.1173866666472843,-2.04164570535168,12.0,481.0],["B3GALNT2",0.10357502598763788,-1.6687121926138204,11.0,482.0],["C19orf44",0.12006987763388144,-2.1185862984779185,14.0,479.0],["DDB2",0.1509432277305921,-3.111778525870382,10.0,483.0],["ELK4",0.11864257177012584,-2.0774751241335916,8.0,485.0],["HEY1",0.11198575184891772,-1.8912265653818179,8.0,485.0],["LGALS8",0.15617823280599327,-3.300283580879981,8.0,485.0],["OR1A2",0.1377613552996303,-2.6631640453519916,14.0,479.0],["OR4B1",0.13183551904425364,-2.473488196035592,16.0,477.0],["OR52E8",0.1194004676811123,-2.099253080949992,13.0,480.0],["OR6C65",0.1276340135099913,-2.343458337099096,13.0,480.0],["POC1A",0.11544469347304,-1.9868774527570985,10.0,483.0],["PSG5",0.13202839357582885,-2.479545785499213,13.0,480.0],["RASSF5",0.12013342828778859,-2.120426479830062,10.0,483.0],["SLC43A2",0.10448565696350542,-1.6921194767946905,11.0,482.0],["SPEF1",0.11525903962572392,-1.9816818117268202,9.0,484.0],["TDP1",0.11605626757931152,-2.0040423726988017,10.0,483.0]],"bottom":[["ABI3BP",-0.16604742512868043,-3.671883909670028,37.0,456.0],["ACTR2",-0.1381505759133552,-2.675881005226884,10.0,483.0],["AGPAT4",-0.1350047508183164,-2.5740119750058437,16.0,477.0],["AURKA",-0.1349375587980597,-2.571858867763109,13.0,480.0],["CACNG2",-0.12025061108563302,-2.123821813374454,13.0,480.0],["CIDEA",-0.1185056363483947,-2.0735528599605297,9.0,484.0],["EPN2",-0.13892597082790556,-2.701310783671217,18.0,475.0],["HDGFRP2",-0.17261205367068444,-3.93093043307135,17.0,476.0],["INS-IGF2",-0.14348456132314594,-2.853390081737716,8.0,485.0],["KIAA0895",-0.16738888949227607,-3.7240439884762284,8.0,485.0],["KIF15",-0.15553793915426775,-3.2769090123642255,49.0,444.0],["MRPS5",-0.120039736977599,-2.1177138311952453,8.0,485.0],["MS4A6E",-0.12493497210018059,-2.2618631859145113,8.0,485.0],["NAP1L1",-0.11749057566665522,-2.0445978695283817,15.0,478.0],["NOTO",-0.13854178526068678,-2.688695187259078,10.0,483.0],["OVCA2",-0.12120369055076363,-2.1515416856826497,8.0,485.0],["PPP1R3G",-0.13440670075538982,-2.5548813560656263,12.0,481.0],["PTRH1",-0.1253068044799028,-2.273014485745919,12.0,481.0],["RASSF9",-0.11565649409131452,-1.9928133947045512,8.0,485.0],["SLC22A5",-0.12719657809360807,-2.3301315874219353,8.0,485.0],["SNAI2",-0.130055678701059,-2.417955757232005,10.0,483.0]]},"para":{"top":[["AL450307.1",0.11253196129483485,-2.2006835165573766,9.0,484.0],["B3GALNT2",0.11271139305461839,-2.205693120229445,11.0,482.0],["B3GNT2",0.11475381498475332,-2.261554975900055,10.0,483.0],["C19orf44",0.1170381456362975,-2.3252816746429334,14.0,479.0],["DDB2",0.13962556695501702,-3.0083289705032943,10.0,483.0],["ELK4",0.12261921110571711,-2.4843654257651857,8.0,485.0],["IST1",0.11305716529469462,-2.2152067178286146,13.0,480.0],["LGALS8",0.15493789002180533,-3.5290034976031626,8.0,485.0],["MRPL55",0.11788139430126442,-2.3486052613816057,8.0,485.0],["OR1A2",0.16054132733541984,-3.731871212039409,14.0,479.0],["OR4B1",0.11919934231713035,-2.3863892317398974,16.0,477.0],["OR52E8",0.11456933823726723,-2.25663771688397,13.0,480.0],["OR6C65",0.11955061381280059,-2.396274056689434,13.0,480.0],["PSG5",0.14774819162430194,-3.278997739944611,13.0,480.0],["TDP1",0.11303503537705216,-2.214438137203394,10.0,483.0],["ZNF397",0.11497913084296044,-2.267837859606878,11.0,482.0]],"bottom":[["ACTR2",-0.12971730804003395,-2.6961980840122353,10.0,483.0],["ASB1",-0.12299384663343828,-2.4954591995567452,10.0,483.0],["C14orf132",-0.12160396464762012,-2.4549032351282754,8.0,485.0],["CA12",-0.1077411020154899,-2.0728553517818074,9.0,484.0],["CACNG2",-0.13204827842641553,-2.7680649888575086,13.0,480.0],["CAST",-0.12712366915314047,-2.617834221477176,12.0,481.0],["CIDEA",-0.10859281033181788,-2.0952549105616254,9.0,484.0],["CXXC5",-0.12508895054901603,-2.5571835417790574,12.0,481.0],["CXorf40B",-0.114497239440941,-2.2543238584412406,8.0,485.0],["DHRS7",-0.13333570149674118,-2.8077442494461424,8.0,485.0],["EVI2B",-0.12304439897484125,-2.4969352893071974,10.0,483.0],["FLVCR2",-0.1265332947535036,-2.600205190413805,13.0,480.0],["HDGFRP2",-0.14157772016825726,-3.07250571293906,17.0,476.0],["HS3ST2",-0.1328324654768831,-2.792554637657088,16.0,477.0],["INS-IGF2",-0.11551248589903802,-2.282373432701948,8.0,485.0],["KIAA0895",-0.14580067189893228,-3.212544207425325,8.0,485.0],["LCORL",-0.11708880694643573,-2.3266081896738946,12.0,481.0],["MALSU1",-0.10755972197727809,-2.0680202618974186,8.0,485.0],["MRPS5",-0.1271314175861483,-2.6177618852291986,8.0,485.0],["NUBP2",-0.11872743301634522,-2.3725254552979913,8.0,485.0],["PDIA5",-0.1253075860397546,-2.5634542794609794,9.0,484.0],["PPP1R3G",-0.14816450926397312,-3.293155494377344,12.0,481.0],["PRMT3",-0.11817452889050771,-2.3569668117936056,9.0,484.0],["RASSF9",-0.11398961621189249,-2.2403744596197566,8.0,485.0],["SLC22A5",-0.11979908205544763,-2.4030255996127843,8.0,485.0]]}}}
{"depmap_damaging":{"corr":{"top":[["CLIP1",0.12339691694279117,-2.2160402589260406,8.0,485.0],["XPO7",0.11729182128192557,-2.038952973853865,9.0,484.0]],"bottom":[["ARFGAP3",-0.11041501961469027,-1.8485908044375494,8.0,485.0],["ERCC6L",-0.1561511196762154,-3.2992919839285655,15.0,478.0],["FLG2",-0.1192214907212658,-2.09409961120716,10.0,483.0],["HIF1A",-0.15184908511882922,-3.143973384983022,13.0,480.0],["KIF15",-0.16168395748383207,-3.504959113334291,25.0,468.0]]},"para":{"top":[["CCDC160",0.11201552587670385,-2.1866039967996342,8.0,485.0],["CLIP1",0.13040276728446085,-2.7169853947383236,8.0,485.0],["DMBT1",0.13059193950107995,-2.7230996988163687,12.0,481.0]],"bottom":[["ARFGAP3",-0.10812374778733198,-2.0828180234222344,8.0,485.0],["ARHGEF17",-0.12178234420798661,-2.460301175627693,11.0,482.0],["CEP170B",-0.10550536768512894,-2.014724354911005,9.0,484.0],["ERCC6L",-0.17144134916400328,-4.143785845589823,15.0,478.0],["HIF1A",-0.1352950026854685,-2.8697016233100863,13.0,480.0],["HIVEP1",-0.11105668199961222,-2.1607605124723386,8.0,485.0],["KIF15",-0.15022203708505735,-3.364410486054345,25.0,468.0],["SENP5",-0.12530758603975456,-2.5634542794609794,9.0,484.0],["YTHDC2",-0.12149115948560932,-2.451642154665114,8.0,485.0],["ZBTB20",-0.13115346193306254,-2.740512566721532,15.0,478.0],["ZFP37",-0.1174881173321899,-2.3377629767365486,11.0,482.0]]}}}
{"prism_primary_logfold":{"corr":{"top":[],"bottom":[]},"para":{"top":[],"bottom":[["arbutin_BRD-K08037784-001-12-6::2.5::HTS",-0.21732120047954126,-3.717072938375813,290]]}}}
{"prism_secondary_logfold":{"corr":{"top":[["belinostat_BRD-K17743125-001-08-4::10::MTS010::PROS003_PR500",0.2564846398664043,-4.406809800911316,251]],"bottom":[["cyproheptadine_BRD-K28143534-001-02-2::0.00244141::HTS002",-0.23173836574944223,-3.7746105584756795,259],["GDC-0068_BRD-K71480163-001-01-4::0.15625::HTS002",-0.257625510546424,-4.5994229093260826,261]]},"para":{"top":[],"bottom":[["CHIR-99021_BRD-K16189898-003-03-3::0.00976562::HTS002",-0.23711131400600416,-3.9055911994027803,257],["cyproheptadine_BRD-K28143534-001-02-2::0.00244141::HTS002",-0.2488975134285348,-4.290898687588357,259],["imatinib_BRD-K92723993-001-17-4::2.5::MTS010::PROS005_PR500",-0.2400398547077378,-3.978747140584284,256]]}}}
{"ccle_proteomics":{"corr":{"top":[["SPATS2_Q86XZ4",0.30600676057101167,-6.113780505843085,251],["RBM45_Q8IUH3-3",0.3148704284443814,-3.7239481842703404,136],["KLHL13_Q9P2N7-4",0.2732605003802465,-3.847352800505774,189]],"bottom":[["NCKIPSD_Q9NZQ3",-0.2572899724106087,-2.9262890875442986,156],["DPH7_Q9BTV6",-0.25099207858109096,-2.879258705845717,161]]},"para":{"top":[["SPATS2_Q86XZ4",0.28619264484224405,-5.391426710529862,251],["FAM63B_Q8NBR6",0.2496426076343424,-2.9733935322667726,169]],"bottom":[["DPH7_Q9BTV6",-0.2591316700190793,-3.0445477190067245,161]]}}}
{"depmap_copy_number":{"corr":{"top":[],"bottom":[["SH2D3A_10045",-0.2273757730078111,-6.487176332457201,494],["TGFBR3L_100507588",-0.23406569761288207,-6.84730195829805,494],["MIR4747_100616337",-0.233278126036348,-6.804337421947808,494],["TUBB4A_10382",-0.2283313232019726,-6.537946017219615,494],["TIMM44_10469",-0.23632527030039285,-6.971415409414996,494],["ZNRF4_148066",-0.23056144573795212,-6.657300648809353,494],["ELAVL1_1994",-0.2339863628040681,-6.8429670923959005,494],["KDM4B_23030",-0.233278126036348,-6.804337421947808,494],["CTXN1_404217",-0.23406569761288207,-6.84730195829805,494],["PCSK4_54760",-0.2266434773247301,-6.448418662674543,494],["MAP2K7_5609",-0.22736901159748313,-6.486817880496878,494],["PTPRS_5802",-0.22754593334778944,-6.496200935206706,494],["CCL25_6370",-0.23172134697080124,-6.719857762729942,494],["SNAPC2_6618",-0.23406569761288207,-6.84730195829805,494],["FBN3_84467",-0.23040828501143606,-6.649064787751944,494],["TNFSF9_8744",-0.22798610652392118,-6.519578561782304,494]]},"para":{"top":[],"bottom":[["TIMM44_10469",-0.23310829777887607,-6.795092705827226,494],["CERS4_79603",-0.22897607906465128,-6.572328319914803,494]]}}}
{"depmap_gene_tpm":{"corr":{"top":[],"bottom":[["CLIC2_1193",-0.2067747861866696,-5.416315867356259,491]]},"para":{"top":[["USP17L2_377630",0.20549051451490163,-5.355108719727335,491]],"bottom":[]}}}
{"avana":{"corr":{"top":[["CMPK2_129607",0.20225508714336307,-3.88554076736181,353],["COL4A3BP_10087",0.25942446380339085,-6.111043169741952,353],["MTA2_9219",0.40883637814634793,-14.767488903111536,349]],"bottom":[["RPP38_10557",-0.21108653378188932,-4.192832617199513,353]]},"para":{"top":[["COL4A3BP_10087",0.23787839261337984,-5.205660323158297,353],["MTA2_9219",0.34115160171462716,-10.23377535142112,349],["PXK_54899",0.22161751397339344,-4.576323137462214,353],["YBX2_51087",0.18811962383966654,-3.3868736831161828,349]],"bottom":[["PSMB9_5698",-0.21259378634136988,-4.24657525957434,353]]}}}
{"drive":{"corr":{"top":[["MTA2_9219",0.3878012847625151,-8.472932433261544,217]],"bottom":[]},"para":{"top":[["SULT1A2_6799",0.30440650371682737,-5.34999551188408,219],["MTA2_9219",0.37158392615449654,-7.783559847342227,217]],"bottom":[["GPIHBP1_338328",-0.2622511212388176,-3.9848145476758527,214]]}}}
{"achilles":{"corr":{"top":[["NDUFAF6_137682",0.24919640032465099,-4.681223354477853,285],["VAMP5_10791",0.2581589120177048,-4.99387175104823,285],["SDC1_6382",0.23071104209718268,-6.7513680179788,501],["CTNNA3_29119",0.28333834152244425,-5.935397959491464,285]],"bottom":[["ASCC1_51008",-0.29725816102096764,-6.497136853788446,285],["MAPK1IP1L_93487",-0.2725424307952743,-5.520131636270626,285],["PDZRN3_23024",-0.32728737350436843,-7.813728895223742,285],["UPB1_51733",-0.2907198483281854,-6.229545630649653,285]]},"para":{"top":[["CLDN20_49861",0.24016610102196553,-4.377833374350303,285],["RMI2_116028",0.23121502196916593,-4.088433609004302,285],["GBP6_163351",0.24269682666589165,-4.461692204821597,285],["DOCK6_57572",0.2462551545286197,-4.581134716927095,285],["VPS50_55610",0.23770667077279467,-4.297200799027506,285]],"bottom":[["ASCC1_51008",-0.28616890963360364,-6.047204362441725,285],["MAPK1IP1L_93487",-0.2550068549951328,-4.882593305619202,285],["PDZRN3_23024",-0.27180375810964924,-5.492359311431206,285]]}}}
{"ccle_rrbs_tss1kb":{"corr":{"top":[["LINC00494_20_46987653_46988653",0.23003786750028482,-5.230069966066778,380],["LINC02395_12_50304735_50305735",0.2233396984498168,-4.418716485414315,334],["RGMA_15_93616939_93617939",0.26552325328916676,-6.645583784471117,369]],"bottom":[]},"para":{"top":[["TMEM229B_14_67955449_67956449",0.22681138160669742,-4.940724404709817,367],["LINC00494_20_46987653_46988653",0.25255677197389986,-6.214864348247195,380],["RGMA_15_93616939_93617939",0.24736834417120274,-5.82260558267274,369]],"bottom":[["NTF4_19_49567124_49568124",-0.20252427115608013,-3.7691530219173104,340]]}}}
{"ccle_gene_tpm":{"corr":{"top":[],"bottom":[["SSX6_ENSG00000171483.9",-0.2555284917549287,-7.836118559730261,478],["RP11-598F7.3_ENSG00000256948.1",-0.2634308681804497,-8.3031204106896,478],["IGHG2_ENSG00000211893.3",-0.23054879174948648,-6.460135828374372,478]]},"para":{"top":[["USP17L2_ENSG00000223443.2",0.21059104151865915,-5.4670044454900575,478]],"bottom":[["ZNF385D-AS1_ENSG00000225542.1",-0.19147223634780297,-4.601082019489849,478],["CTD-2037K23.2_ENSG00000245556.2",-0.19646705389323532,-4.819379619613068,478]]}}}
{"ccle_rrbs_tss_clusters":{"corr":{"top":[["RGMA_10",0.2617979535333122,-6.27984882538052,357],["CLEC4F_3",0.2968328259706131,-3.045721645361986,122],["MBL1P_2",0.25064360351685255,-4.271240501537894,254],["CDH6_1",0.2709444117967787,-3.0267085046201503,146],["RGMA_3",0.2529355870298545,-6.157778492989078,375],["SLC25A51P1_1",0.2868894248544001,-2.664859292107476,112],["UBE2Q1_2",0.32160892289191256,-3.136402058731288,107],["LOC100506885_2",0.28649328729621415,-3.5802368547416195,158]],"bottom":[]},"para":{"top":[["RGMA_10",0.2475818233449547,-5.660390901728299,357],["MBL1P_2",0.24382316860432443,-4.063910614466893,254],["RGMA_3",0.23973816966096062,-5.575538651560718,375],["LINC01615_3",0.24064733831672225,-5.330923916058446,354]],"bottom":[["PEX7_3",-0.2950661020341276,-3.7550301238306667,157],["SPATA1_2",-0.2430972026082022,-2.7814988363101634,165]]}}}
{"ccle_rrbs_cgi_clusters":{"corr":{"top":[["3_184241085_184245328-3",0.2934146719378265,-3.6546224464051504,154],["15_93616404_93619185-3",0.2617979535333122,-6.27984882538052,357],["6_66495675_66500033-1",0.2868894248544001,-2.664859292107476,112],["18_44541037_44543933-2",0.3296995779560403,-4.57930089984914,156]],"bottom":[["5_179057337_179061700-2",-0.2595761528495364,-2.8571448551066116,149],["17_1080376_1083104-2",-0.25370498951767806,-2.80848128916069,153],["16_88103640_88107908-3",-0.23337037381173498,-4.195647797039134,288]]},"para":{"top":[["15_93616404_93619185-3",0.2475818233449547,-5.660390901728299,357]],"bottom":[["5_179057337_179061700-2",-0.26621835827379986,-2.986343834557254,149],["8_649163_653453-3",-0.31130979483208693,-3.7889700023413324,142],["6_137141635_137146445-3",-0.2950661020341276,-3.7550301238306667,157],["1_84971918_84974491-2",-0.2430972026082022,-2.7814988363101634,165]]}}}
