{"depmap_hotspot":{"corr":{"top":[["ACSM5",0.15478344031540875,-3.2494794237094764,23.0,470.0],["ANO7",0.14401278438880977,-2.871297699727677,21.0,472.0],["BARHL1",0.14376119535923942,-2.8627610090380355,13.0,480.0],["BUD13",0.12858975527650524,-2.372713944835482,18.0,475.0],["C1orf122",0.13143023348803684,-2.4607847818815927,8.0,485.0],["CHRNB3",0.1493251123429049,-3.054709268879497,14.0,479.0],["CLDN10",0.15934750725315022,-3.417293871793569,22.0,471.0],["COMMD7",0.13311774907338889,-2.51390522072503,8.0,485.0],["CPT1B",0.13163162345843332,-2.4670929283837144,26.0,467.0],["CXCL12",0.12893129925885696,-2.3832148042160997,8.0,485.0],["DMTF1",0.14462938845572101,-2.892276816409254,16.0,477.0],["DNAJB1",0.15559677464053848,-3.279053148896968,12.0,481.0],["EFEMP2",0.13091091495673962,-2.4445572483350113,10.0,483.0],["EGR1",0.1502176073622213,-3.0861169658058043,22.0,471.0],["FDPS",0.14233342652092135,-2.814570550495324,8.0,485.0],["FOLH1",0.14398785744150555,-2.870451299071321,34.0,459.0],["FOXR2",0.1634033521333459,-3.570235358144394,11.0,482.0],["FPR2",0.1540975076251523,-3.2246496022936144,12.0,481.0],["FZD7",0.13678800696865545,-2.631501887973992,23.0,470.0],["GGPS1",0.12716103353386776,-2.3290504448180354,11.0,482.0],["GPBAR1",0.15539299436944493,-3.2716300061831554,9.0,484.0],["HEPACAM",0.1468613593364405,-2.9688954438546675,10.0,483.0],["INO80",0.16331452149351358,-3.566847045504986,47.0,446.0],["KCNMB1",0.13245920640593442,-2.4931043841272795,8.0,485.0],["KIAA1199",0.17073347785016976,-3.8558242030084133,29.0,464.0],["KIAA1715",0.13876675750433348,-2.6960788700316263,11.0,482.0],["LILRA5",0.15243423737063813,-3.1648642404223772,16.0,477.0],["LINGO2",0.1409067101614152,-2.7668485420752957,29.0,464.0],["OIT3",0.13849154263339686,-2.6870476646750765,19.0,474.0],["PCBP4",0.1363691577820327,-2.6179385660987524,11.0,482.0],["PRPF31",0.13300839568560457,-2.510444876943983,21.0,472.0],["PRSS58",0.12894170260545718,-2.3835350388279095,10.0,483.0],["RACGAP1",0.13202067497722725,-2.4793032188490702,19.0,474.0],["RASSF4",0.14316876703389705,-2.8427125310833956,12.0,481.0],["SCLT1",0.1345417638518162,-2.5591952302946384,20.0,473.0],["SLC25A42",0.13037677190084687,-2.427925230399067,9.0,484.0],["SLC25A45",0.1298936070161312,-2.412931834203602,14.0,479.0],["SLC7A2",0.1467336836813114,-2.964483894576072,15.0,478.0],["SMPDL3A",0.14706701376686623,-2.976008715594527,13.0,480.0],["SNTG1",0.15879319498239242,-3.3966706845637367,36.0,457.0],["TBC1D10B",0.13914277182282211,-2.708443707675518,30.0,463.0],["TREM2",0.13933703377883333,-2.7148435260269532,9.0,484.0],["TRIM64B",0.127288267270174,-2.33292166588203,12.0,481.0],["ZNF671",0.1412537165726507,-2.7784157275807733,21.0,472.0]],"bottom":[["AC092850.1",-0.13153625640822525,-2.4641046855548105,10.0,483.0],["AFTPH",-0.1491901583031905,-3.049975021255308,14.0,479.0],["CDKN2C",-0.1186533965775922,-2.0777853445523604,9.0,484.0],["EGFL6",-0.11297278493438288,-1.9182737643665764,10.0,483.0],["FOXRED1",-0.11782168214723668,-2.0540196629598637,11.0,482.0],["PTER",-0.14105557998681545,-2.7718078710469976,10.0,483.0],["REEP5",-0.12865137664582446,-2.3746067154224955,9.0,484.0],["SLC16A2",-0.1317198082001197,-2.469857811785444,13.0,480.0],["SRR",-0.11451683329626236,-1.9609807332204712,8.0,485.0],["ZNF138",-0.11038874267859654,-1.8478817837115176,10.0,483.0],["ZNF485",-0.11921673624233507,-2.0939628000293107,13.0,480.0],["ZNF79",-0.1676832688603975,-3.735543482774607,9.0,484.0],["ZXDC",-0.11330584542027775,-1.9274449985810465,16.0,477.0]]},"para":{"top":[["ACSM5",0.16456252563173476,-3.8813565279044298,23.0,470.0],["ANKRD55",0.12342283228388053,-2.5080686308880376,11.0,482.0],["C6orf163",0.12448778057190259,-2.539420050652497,12.0,481.0],["CDC42EP2",0.11212832823135463,-2.189656084081053,8.0,485.0],["CHRNB3",0.15354820848416822,-3.4802685750232665,14.0,479.0],["COMMD7",0.1309103872359025,-2.732571661014021,8.0,485.0],["CXCL12",0.1403860206075663,-3.0329002671944125,8.0,485.0],["DMTF1",0.1399104256203033,-3.017927568865621,16.0,477.0],["DNAJB1",0.14922810843444637,-3.3296371898865607,12.0,481.0],["EFEMP2",0.11252950914561806,-2.2006896865599472,10.0,483.0],["ERI3",0.13307942109433438,-2.7998446456231063,9.0,484.0],["FAM180A",0.12945966084056848,-2.6882596255435387,9.0,484.0],["FBXO15",0.11060852022040088,-2.1488992204946737,10.0,483.0],["FDPS",0.13220764656654696,-2.772635240548127,8.0,485.0],["FOXR2",0.15652215321693064,-3.5858714930653366,11.0,482.0],["FPR2",0.13877705404765217,-2.9809745506874243,12.0,481.0],["GKAP1",0.11498061982550488,-2.2677413657527086,9.0,484.0],["GPBAR1",0.14947480577315636,-3.3378905829205427,9.0,484.0],["HEPACAM",0.13861451665646218,-2.9755850964879373,10.0,483.0],["HSD17B2",0.12458026777886537,-2.542148249450772,12.0,481.0],["KCNMB1",0.13175642592980105,-2.7586622828366862,8.0,485.0],["KIAA1199",0.17805751205688639,-4.405980585578748,29.0,464.0],["KIAA1715",0.1258353192323536,-2.579276755978004,11.0,482.0],["KRTAP10-4",0.1365418707108331,-2.9090964240658335,10.0,483.0],["LILRA5",0.15205556748214052,-3.4279338071934706,16.0,477.0],["MEIOB",0.11535324220456904,-2.278048315036644,9.0,484.0],["METTL15",0.11915186570360368,-2.384744680505717,10.0,483.0],["PCBP4",0.13278328164395595,-2.790773269627469,11.0,482.0],["PELO",0.12410599503705856,-2.528049181384595,10.0,483.0],["PFKM",0.13090451187559693,-2.7328495724696644,15.0,478.0],["POMC",0.13542161890559468,-2.873430505016613,9.0,484.0],["PRSS58",0.11945517974442746,-2.393380022783939,10.0,483.0],["RASSF4",0.11842986851584046,-2.3643838764378975,12.0,481.0],["RSPO2",0.10942100441087926,-2.117086700940646,8.0,485.0],["SLC25A42",0.13382466585246264,-2.823140258422894,9.0,484.0],["SLC7A2",0.1395761578286872,-3.007018362601873,15.0,478.0],["SMPDL3A",0.14205530169562142,-3.088051763750504,13.0,480.0],["TREM2",0.12030379666927828,-2.4175591117945037,9.0,484.0],["TRIM64B",0.13919324647898465,-2.9944425333972546,12.0,481.0]],"bottom":[["AC092850.1",-0.1181913712409951,-2.3575183073486907,10.0,483.0],["AFTPH",-0.13505721159769818,-2.862236418419979,14.0,479.0],["AOAH",-0.12405544269692133,-2.5265625356958106,10.0,483.0],["APOBEC3G",-0.12443607680223923,-2.53783648229258,11.0,482.0],["CBX5",-0.12019389711318756,-2.4143191440568894,8.0,485.0],["CDKN2C",-0.11657757287863695,-2.312104866253569,9.0,484.0],["COG4",-0.11133869211704939,-2.1683429096127553,8.0,485.0],["DDRGK1",-0.11584022672088262,-2.29175366064715,12.0,481.0],["EGFL6",-0.11935407506415292,-2.390499572474919,10.0,483.0],["FAM46D",-0.12762671268758677,-2.6330978667524234,15.0,478.0],["KDM5C",-0.16112705632635413,-3.7538566060129877,29.0,464.0],["PTER",-0.14033329622113017,-3.031370651743444,10.0,483.0],["RP11-503N18.3",-0.1199682867948146,-2.4078618989039833,8.0,485.0],["SLC16A2",-0.1426334854533055,-3.1071492135554832,13.0,480.0],["SLC25A25",-0.1445754469976977,-3.1719236155789403,16.0,477.0],["SRR",-0.12013749453359432,-2.412703897107999,8.0,485.0],["VN1R2",-0.11662636798006626,-2.313663534080156,12.0,481.0],["ZNF485",-0.11577017855782792,-2.289856377966276,13.0,480.0],["ZNF79",-0.16262305257727663,-3.808290002466937,9.0,484.0]]}}}
{"depmap_damaging":{"corr":{"top":[["AOX1",0.1105953845096027,-1.8534612830349417,9.0,484.0],["CEP250",0.1439053051497858,-2.867649161195553,8.0,485.0],["LPIN2",0.11697561392709437,-2.029988875887538,8.0,485.0],["PRPF8",0.11529789808381752,-1.9827687100111826,8.0,485.0],["PSME4",0.10881217153199982,-1.805596430749792,10.0,483.0],["PTPRZ1",0.13369872940944724,-2.5323316100430504,10.0,483.0],["SKIV2L",0.12916649306866212,-2.390460015894012,8.0,485.0],["ZDHHC11",0.10954294078992442,-1.825134197413654,10.0,483.0]],"bottom":[["SCN7A",-0.12004737280926903,-2.1179348443681802,14.0,479.0],["VEPH1",-0.14539544983317648,-2.9184540230669245,9.0,484.0]]},"para":{"top":[["AOX1",0.11460799744644078,-2.2574615063657704,9.0,484.0],["CEP250",0.14642109662404262,-3.2335024174191074,8.0,485.0],["LPIN2",0.1171481578151527,-2.327987636031564,8.0,485.0],["MAGI3",0.12189813877694473,-2.4637136542344087,12.0,481.0],["PRPF8",0.12470610348064641,-2.5455628658572866,8.0,485.0],["PTPRZ1",0.12390378567650939,-2.52210561589396,10.0,483.0],["ZDHHC11",0.11576485891440493,-2.2895398007205294,10.0,483.0]],"bottom":[["CABIN1",-0.11195576402844586,-2.185262678068526,12.0,481.0],["SCN7A",-0.11497882054696033,-2.2679770059269155,14.0,479.0],["SLC26A8",-0.10581123931691218,-2.022538281940276,8.0,485.0],["VEPH1",-0.1430337617921906,-3.120119050300509,9.0,484.0]]}}}
{"prism_secondary_logfold":{"corr":{"top":[["SB-366791_BRD-K61536336-001-01-7::0.00061034::HTS002",0.212709408050464,-3.2452419928888663,259]],"bottom":[["ETP-46464_BRD-K24556407-001-02-3::0.625::HTS002",-0.2573984760248293,-4.529409951183108,257],["nintedanib_BRD-K49075727-001-08-5::0.625::HTS002",-0.27349501628991046,-5.097812305086642,259]]},"para":{"top":[["IDRA-21_BRD-A14344385-001-03-2::2.5::HTS002",0.2471216580070939,-3.7718755740878525,227],["baicalin_BRD-K49962337-001-02-9::10.238::HTS002",0.23528293357462934,-3.6941834325290115,245]],"bottom":[["ETP-46464_BRD-K24556407-001-02-3::0.625::HTS002",-0.25184646593760457,-4.353435551321078,257],["nintedanib_BRD-K49075727-001-08-5::0.625::HTS002",-0.26209863462560135,-4.713985153350588,259]]}}}
{"ccle_proteomics":{"corr":{"top":[["KIAA1211L_Q6NV74",0.2851846997502204,-3.1363414504651748,137],["MARVELD3_Q96A59-2",0.35540496790926546,-4.012739575442828,115],["C1orf172_Q8NAX2",0.3213162273336466,-4.589259231806633,165],["DCDC1_M0R2J8",0.2746665116734908,-3.1921064512604036,151],["CHTF8_P0CG13",0.28720585309120633,-3.6759561607557516,162]],"bottom":[["CHPF2_Q9P2E5",-0.3043997998009619,-6.053175031277178,251],["KIAA0556_O60303",-0.30535886281863106,-2.9514468132302314,111],["RTTN_Q86VV8",-0.2676572304870385,-2.5939615993668705,125]]},"para":{"top":[["KIAA1211L_Q6NV74",0.31923880196570287,-3.8436531528185913,137],["DCDC1_M0R2J8",0.2821753318906988,-3.3489843360102927,151],["CHTF8_P0CG13",0.28391022053994247,-3.600324543752265,162]],"bottom":[["CHPF2_Q9P2E5",-0.31291453297615873,-6.378442006198049,251],["PMEL_P40967-2",-0.3310766389080208,-3.9766746097171857,132],["RTTN_Q86VV8",-0.31115821812596,-3.3846569928733077,125]]}}}
{"avana":{"corr":{"top":[["FMR1_2332",0.21093097882190098,-3.820895776915455,318],["MCRIP1_348262",0.22616999860462442,-4.747926947080386,353]],"bottom":[["GPR12_2835",-0.21582342385446412,-4.363014677067237,353],["HTRA2_27429",-0.192972700235783,-3.5764090375111666,353],["STAMBP_10617",-0.1917437256723142,-3.536533451421682,353]]},"para":{"top":[["C17orf58_284018",0.1933452747359004,-3.5885460783368495,353],["CASC1_55259",0.19742971460257583,-3.7230826859955073,353],["FGD4_121512",0.19561116040650595,-3.6628458890416913,353],["FMR1_2332",0.21524372546830253,-3.9608646529245988,318],["MCRIP1_348262",0.21855967199441703,-4.463040829674805,353]],"bottom":[["GPR12_2835",-0.23713095967621484,-5.175728249722786,353],["STAMBP_10617",-0.2059545094467004,-4.0126878115807685,353]]}}}
{"achilles":{"corr":{"top":[["MSH4_4438",0.2458779130945386,-4.568386655657588,285],["NIPAL2_79815",0.2547831255810669,-4.8747495932405664,285],["DNAH1_25981",0.29663886528909506,-6.471504900557207,285],["SLC22A20_440044",0.2674461190906028,-5.330175855541954,285]],"bottom":[["ZBTB12_221527",-0.29359498573612797,-6.346394585212518,285],["FBXO38_81545",-0.24587428921627563,-4.568264292663939,285],["RNF220_55182",-0.2359537204992899,-4.240247838292241,285]]},"para":{"top":[["PIEZO2_63895",0.2914593502061838,-6.259477256329306,285],["CXorf65_158830",0.24662152135966217,-4.593534678998234,285],["NIPAL2_79815",0.2379121862487081,-4.303906127794306,285],["SLC46A3_283537",0.2812804794443417,-5.854881224227866,285],["DNAH1_25981",0.3132146593221797,-7.178533737101893,285],["RTL10_79680",0.24630076857132507,-4.58267751734972,285],["SLC22A20_440044",0.2759654153875502,-5.649893989667933,285]],"bottom":[["ZBTB12_221527",-0.2748348164344817,-5.60683958815479,285],["FBXO38_81545",-0.24763619629232644,-4.627976932233784,285],["IBSP_3381",-0.28151830510680853,-5.86415353870912,285],["DAAM2_23500",-0.2889560486557347,-6.158496840911589,285],["RNF220_55182",-0.22611417628306396,-3.928493199510122,285]]}}}
{"ccle_rrbs_tss1kb":{"corr":{"top":[["LOC401127_4_39480874_39481874",0.2369092380273092,-3.6863632350819286,241],["GSN_9_124047358_124048358",0.2849340607839555,-3.5452816112470242,158]],"bottom":[["INKA1_3_49839693_49840693",-0.1933798447289761,-3.8098992009667185,378]]},"para":{"top":[["GSN_9_124047358_124048358",0.2876440992253147,-3.6061659655778078,158]],"bottom":[["ZBTB12_6_31869769_31870769",-0.20679737498824008,-4.302745536516919,379],["FTH1_11_61735132_61736132",-0.20743014008923857,-4.326362417037863,379],["BCAP31_23_152989556_152990556",-0.24028343226410526,-5.57203586882743,373],["DTNB_2_25873091_25874091",-0.20188363359028513,-4.131333130575107,380]]}}}
{"ccle_gene_tpm":{"corr":{"top":[],"bottom":[["RP11-84A19.3_ENSG00000254545.1",-0.23582572247753994,-6.738323491113266,478]]},"para":{"top":[],"bottom":[]}}}
{"ccle_rrbs_tss_clusters":{"corr":{"top":[],"bottom":[["PDIA6_9",-0.2681841662359942,-6.737955108039781,367],["TRAPPC3_4",-0.2389402023713429,-2.82474385728817,174],["VGLL4_6",-0.31296743825849127,-3.0355011547769206,109],["KCNE5_3",-0.25660662646989935,-3.326925432754759,182]]},"para":{"top":[["TRPM1_3",0.27942269468969905,-3.5553658236896335,165],["RPS9_1",0.2681112131927987,-2.6899856696802553,130],["GSN_10",0.28719151132243914,-3.63580429560971,160],["GMPPB_1",0.27032215447923064,-5.419711690198854,284],["NUP210_1",0.262330527876615,-5.966291498738537,336]],"bottom":[["AMMECR1_3",-0.27622552235601755,-2.5140952942510153,113],["TRAPPC3_4",-0.2776227244205119,-3.68155872220722,174],["B4GALT3_2",-0.23683109916137463,-3.857433316680005,254],["SORT1_2",-0.23239844783446933,-5.3413928363567225,381]]}}}
{"ccle_rrbs_cgi_clusters":{"corr":{"top":[["15_63335148_63338063-3",0.24058642190234833,-3.637384105080977,230],["8_8176237_8178775-1",0.24112525234686072,-2.911983597766063,177]],"bottom":[["3_11761358_11764078-3",-0.31296743825849127,-3.0355011547769206,109],["23_108865762_108870486-3",-0.25660662646989935,-3.326925432754759,182],["1_36619451_36624310-3",-0.2389402023713429,-2.82474385728817,174]]},"para":{"top":[["19_54702584_54707204-1",0.2681112131927987,-2.6899856696802553,130],["3_13458970_13461558-1",0.262330527876615,-5.966291498738537,336],["19_2460064_2464442-1",0.2666810673135774,-6.733345016974313,371]],"bottom":[["1_109938074_109942894-2",-0.23239844783446933,-5.3413928363567225,381],["1_161145061_161149451-2",-0.23683109916137463,-3.857433316680005,254],["23_146993645_146996200-2",-0.3070416551482796,-2.7238886111774754,100],["1_36619451_36624310-3",-0.2776227244205119,-3.68155872220722,174],["23_109558703_109563534-3",-0.27622552235601755,-2.5140952942510153,113]]}}}
