{"depmap_hotspot":{"corr":{"top":[["ABI3",0.16081964347391656,-2.1418596419850457,8.0,270.0],["ANKRD54",0.14528496146059144,-1.8142888021296548,8.0,270.0],["BRD3",0.1543813949740367,-2.0026360154011935,18.0,260.0],["C5orf42",0.1504320664859989,-1.9196675270671268,45.0,233.0],["CCDC160",0.17728120166915803,-2.5205359969135044,10.0,268.0],["CDX2",0.15363888198257322,-1.986896441008599,9.0,269.0],["CEACAM1",0.16030481103043892,-2.130544751246605,20.0,258.0],["CHIT1",0.14225852637533346,-1.7537717741594971,11.0,267.0],["CNTN6",0.14257135485719416,-1.759977794950606,31.0,247.0],["COL2A1",0.19805534461497007,-3.046162701662069,24.0,254.0],["CTR9",0.13917920386445107,-1.6932878983553854,16.0,262.0],["CXorf36",0.15139020535206343,-1.9396272464353217,10.0,268.0],["DIP2C",0.21750145553411906,-3.588022281778234,28.0,250.0],["DTHD1",0.1432167597511293,-1.7728175085152766,20.0,258.0],["EEPD1",0.16953776973382742,-2.3383079906302666,21.0,257.0],["FBXO31",0.14907997804247564,-1.8916848932785102,10.0,268.0],["GALNT18",0.13849432712427448,-1.6799845504539228,14.0,264.0],["GAREML",0.1418404492509958,-1.7454955134099444,14.0,264.0],["GPC5",0.14490693523071682,-1.8066714636537875,19.0,259.0],["HNRNPUL2",0.15108625820317492,-1.9332837819824114,12.0,266.0],["IKZF1",0.16578365894923303,-2.2525907250354154,13.0,265.0],["IQGAP2",0.2028488041449577,-3.1751909796817257,34.0,244.0],["KAT6B",0.13895276888901573,-1.6888835389616228,39.0,239.0],["KCNMA1",0.1437118078060923,-1.782698821085937,25.0,253.0],["LCTL",0.14737712406594533,-1.856748179047389,13.0,265.0],["MEFV",0.1495056174398553,-1.9004706950731607,22.0,256.0],["MT-CYB",0.1662705000393642,-2.2636104313864953,119.0,159.0],["MTMR6",0.14296068735545006,-1.7677174025819782,8.0,270.0],["OGFRL1",0.14385045362717505,-1.7854713434347764,15.0,263.0],["OR2AK2",0.15461781959031454,-2.007661381902006,14.0,264.0],["OR2M2",0.18487248008544094,-2.7063501157534726,22.0,256.0],["OR2T2",0.15055724791743305,-1.9222691377099321,15.0,263.0],["PCM1",0.15763873628937497,-2.0724570905897517,19.0,259.0],["PDIA3",0.148215847216752,-1.8739134143493463,10.0,268.0],["POLE",0.1409028593686474,-1.7270086321525349,39.0,239.0],["PPWD1",0.1590008323520959,-2.102028003080434,20.0,258.0],["PRIM2",0.15906413727263358,-2.103407727402483,9.0,269.0],["RAPGEF2",0.16304185232703713,-2.1910635402820384,14.0,264.0],["RAPGEFL1",0.16177709625119802,-2.162986801855655,9.0,269.0],["ROBO1",0.1745711049805345,-2.4559236855108906,42.0,236.0],["ROCK1",0.15664132186938295,-2.0509435784974377,26.0,252.0],["SLC17A3",0.13723911833139332,-1.6557431183692786,10.0,268.0],["SLC5A12",0.1426742497250357,-1.762021548480579,12.0,266.0],["SP140L",0.16155510860280892,-2.158078633821002,11.0,267.0],["SPATA2",0.15195043680162354,-1.9513479751364027,11.0,267.0],["SPIC",0.16540103607387904,-2.2439501027499573,9.0,269.0],["STC2",0.17082065926725098,-2.3679922680883134,12.0,266.0],["SV2A",0.14096762418488268,-1.7282823556382172,15.0,263.0],["TARBP1",0.19737334702739676,-3.0280436162177082,23.0,255.0],["TEX26",0.14191115096508136,-1.7468937013966654,8.0,270.0],["TMPRSS4",0.1404196306670039,-1.7175203412278386,8.0,270.0],["TNK1",0.15757578703671377,-2.0710958186202424,9.0,269.0],["TRPV2",0.13838759940034062,-1.67791629475579,9.0,269.0],["WAS",0.1499061487623018,-1.9087576694336439,8.0,270.0],["ZBTB37",0.15328096390805646,-1.9793327048510105,10.0,268.0]],"bottom":[["ABCA3",-0.1351901395902409,-1.616560999988763,32.0,246.0],["AKT1S1",-0.16048441682462822,-2.1344884895743945,8.0,270.0],["ALCAM",-0.1448486020098496,-1.8054975160501705,11.0,267.0],["APOL5",-0.1503852464755479,-1.918694953753228,11.0,267.0],["ARHGAP25",-0.1764726747623084,-2.501165164302813,13.0,265.0],["C2CD3",-0.16155455524058804,-2.1580664063147528,44.0,234.0],["CALCRL",-0.1426527362189826,-1.761594133949974,13.0,265.0],["CATSPERB",-0.18493357731928942,-2.7078746444101425,16.0,262.0],["COIL",-0.14723250980946054,-1.8537968427900133,9.0,269.0],["CRYBG3",-0.15085867686772123,-1.9285412198022531,44.0,234.0],["CSF3R",-0.17830621258080684,-2.5452091194004858,17.0,261.0],["DOCK6",-0.15594862564308648,-2.036072249404579,27.0,251.0],["ELP4",-0.15772868223815212,-2.074402982893658,8.0,270.0],["ERI1",-0.15202077577288486,-1.9528221684204847,8.0,270.0],["FAM110A",-0.23186692260486585,-4.020233715496689,8.0,270.0],["FARSB",-0.16140828373946794,-2.154835569305952,9.0,269.0],["FBLN7",-0.15330125308206444,-1.9797610625452438,10.0,268.0],["FOXK2",-0.15639404784862132,-2.0456283657178016,10.0,268.0],["HECA",-0.1402023461251158,-1.7132627195367447,13.0,265.0],["HHIPL2",-0.14831891810460066,-1.8760285416367763,21.0,257.0],["IGHMBP2",-0.14026133584670353,-1.7144180645724705,24.0,254.0],["ITGA3",-0.15970992198380515,-2.1175098914074124,18.0,260.0],["KDM6B",-0.18930077455745198,-2.8180561107507947,25.0,253.0],["KIAA1407",-0.2051507382866292,-3.238201787325353,13.0,265.0],["OR4E2",-0.13741086795198487,-1.6590493524656182,13.0,265.0],["OR5H15",-0.16964422584737482,-2.3407636195905126,11.0,267.0],["PARM1",-0.18206219289676506,-2.6367288457378475,11.0,267.0],["SEMA5A",-0.160690915032687,-2.1390274969491654,32.0,246.0],["SERPINI2",-0.14663163691661196,-1.8415602319774476,10.0,268.0],["SLITRK1",-0.1321876424195651,-1.5600134906948664,26.0,252.0],["STEAP2",-0.1953548424575737,-2.974763526469052,8.0,270.0],["TLX3",-0.14653297946160607,-1.8395551354675401,12.0,266.0],["XDH",-0.1707258600303395,-2.365791891199946,31.0,247.0],["ZNF77",-0.15010704426025565,-1.912921289795091,12.0,266.0]]},"para":{"top":[["ABI3",0.16636572246239612,-2.547936131438529,8.0,270.0],["AVPR1A",0.14635089234325313,-2.1267041667084934,11.0,267.0],["CCDC160",0.1857023815688355,-2.9977605768580657,10.0,268.0],["CCP110",0.14599932804766017,-2.119458439267821,9.0,269.0],["CHIT1",0.14382165461226212,-2.076549079456021,11.0,267.0],["DIP2C",0.2224360360127039,-3.9688097974985745,28.0,250.0],["FBXO31",0.14177408003116543,-2.0363514587215366,10.0,268.0],["GAREML",0.166637792744285,-2.554672857215444,14.0,264.0],["GSC",0.14290560849711062,-2.0581818395999796,8.0,270.0],["HPS4",0.14261654060860018,-2.05279156650202,10.0,268.0],["IKZF1",0.16347263089183856,-2.484871546295207,13.0,265.0],["LCTL",0.15561745252430867,-2.3166275622756825,13.0,265.0],["METTL11B",0.15255776967139953,-2.2523579215979903,8.0,270.0],["OR1I1",0.15242371187731218,-2.2495911698715525,8.0,270.0],["OR2AK2",0.17668115294658507,-2.7832702815727353,14.0,264.0],["PDIA3",0.16668684282102217,-2.5553652425454616,10.0,268.0],["PRIM2",0.1753764695108494,-2.7523802565538773,9.0,269.0],["RXFP1",0.14543116953198368,-2.108385169932147,11.0,267.0],["SHC4",0.1363757817062706,-1.9327191901836067,9.0,269.0],["SLC17A3",0.15116149789400998,-2.223918558865553,10.0,268.0],["SLC5A12",0.14854399464617302,-2.1708540393136655,12.0,266.0],["SMC1A",0.151265259104461,-2.226336846510719,13.0,265.0],["SPATA2",0.18038063636022325,-2.8700108787930154,11.0,267.0],["SPIC",0.154863120730519,-2.3004011030512532,9.0,269.0],["STC2",0.16034370320381258,-2.4169506335544106,12.0,266.0],["TEX26",0.14290560849711062,-2.0581818395999796,8.0,270.0],["TNK1",0.15549624877929463,-2.313655516275321,9.0,269.0],["TRPV2",0.14498632316961918,-2.0993267881856053,9.0,269.0],["WAS",0.15818819702306805,-2.370345552107847,8.0,270.0],["WNT5B",0.14586603140727714,-2.116927950989858,10.0,268.0]],"bottom":[["AKT1S1",-0.15363023202409828,-2.274562979611698,8.0,270.0],["ALCAM",-0.14773047656015734,-2.154355954874597,11.0,267.0],["AMZ2",-0.15934540064623348,-2.3953208866937143,10.0,268.0],["APOBEC3B",-0.14102879937988774,-2.02160642849193,8.0,270.0],["ARHGAP25",-0.1937256827127307,-3.1969188739562022,13.0,265.0],["CATSPERB",-0.17706231187053606,-2.792313203713697,16.0,262.0],["ENO3",-0.1523650130046311,-2.2486630324998904,10.0,268.0],["ERI1",-0.14344183967345994,-2.0687024058800065,8.0,270.0],["ETNPPL",-0.14987661378965259,-2.197397482606392,8.0,270.0],["FAM110A",-0.1707896296672785,-2.647097251852888,8.0,270.0],["FARSB",-0.14118755487696538,-2.0248296399070234,9.0,269.0],["FBLN7",-0.13792283167717792,-1.9621794319055244,10.0,268.0],["FBXL14",-0.15460986951100875,-2.295111682387239,9.0,269.0],["HS3ST4",-0.147656123097758,-2.153037608432749,13.0,265.0],["ITGA3",-0.17231264540706567,-2.6827199685104572,18.0,260.0],["KDM6B",-0.2003177380125565,-3.366411481571614,25.0,253.0],["KIAA1407",-0.1969102144833509,-3.2778375704010148,13.0,265.0],["KLF11",-0.15536962316953945,-2.311001105931399,9.0,269.0],["MASP2",-0.14531864879068285,-2.105771258757561,8.0,270.0],["MSN",-0.1462525792671704,-2.124508859954687,9.0,269.0],["NUP107",-0.1665847941911813,-2.5532192258597006,11.0,267.0],["OLFM1",-0.14556649809424524,-2.1111680468625513,12.0,266.0],["OR2J3",-0.14634743745152562,-2.126527631270798,10.0,268.0],["OR5H15",-0.1491100607770615,-2.1822159018675866,11.0,267.0],["PARM1",-0.16888410121935493,-2.6045473783099204,11.0,267.0],["PPP5C",-0.13781141232179148,-1.9597966213450766,8.0,270.0],["SERPINI2",-0.14201478305328966,-2.0410407484015782,10.0,268.0],["SF3B2",-0.14777205109567318,-2.1552868209876035,12.0,266.0],["SLC39A11",-0.13960775283204746,-1.9944314279548303,10.0,268.0],["STEAP2",-0.14987661378965259,-2.197397482606392,8.0,270.0],["TLX1",-0.1412969149680625,-2.026808018722773,8.0,270.0],["TLX3",-0.14468427689367405,-2.093669296194213,12.0,266.0],["USP8",-0.14017454999892437,-2.0052290397227877,9.0,269.0],["ZNF77",-0.14446372159353124,-2.089307878476431,12.0,266.0]]}}}
{"depmap_damaging":{"corr":{"top":[["CNTNAP2",0.14639833997096255,-1.8368205822594015,8.0,270.0],["OGFRL1",0.138599383446315,-1.6820216986311844,13.0,265.0],["PPWD1",0.15724348367334975,-2.063917609727827,12.0,266.0]],"bottom":[["PRDM2",-0.14848314362541967,-1.8794012023994533,11.0,267.0]]},"para":{"top":[["CUX1",0.14345900118603494,-2.0693089690973974,10.0,268.0]],"bottom":[["FLOT2",-0.13094553525448968,-1.8319939198379442,11.0,267.0],["KMT2A",-0.14020640673661472,-2.0064303507379098,16.0,262.0],["PRDM2",-0.1586521849439822,-2.380631261873804,11.0,267.0],["SPATA6",-0.1607896187789788,-2.426334214762574,10.0,268.0]]}}}
{"ccle_rppa":{"corr":{"top":[],"bottom":[["PRKAA1_AMPK_pT172",-0.20935617347940488,-2.9149728847844094,236]]},"para":{"top":[],"bottom":[["CDK1_CDK1",-0.2184936284275844,-3.13922201916727,236]]}}}
{"ccle_metabolomics":{"corr":{"top":[],"bottom":[["5-adenosylhomocysteine",-0.25672643871687456,-4.25823590045272,241]]},"para":{"top":[],"bottom":[["5-adenosylhomocysteine",-0.21638798387302471,-3.1428084508429834,241]]}}}
{"ccle_rrbs_enhancer_clusters":{"corr":{"top":[["2-182549041-182553809-1_enh",0.22033366424854395,-2.647234209726007,190],["2-105517613-105520490-0_enh",0.30983408702791093,-3.1233694356123447,115]],"bottom":[["5-158338962-158341786-0_enh",-0.21373940816430817,-2.8566031038676227,221]]},"para":{"top":[["2-182549041-182553809-1_enh",0.200192379340632,-2.2504991510977796,190],["4-42148091-42153064-1_enh",0.22946316707251538,-2.570137676159931,169],["9-127121220-127123732-0_enh",0.20556138124985884,-2.548600449511032,209]],"bottom":[["9-84297210-84302117-0_enh",-0.18491595452994292,-2.150374220043643,211],["20-30189716-30194554-0_enh",-0.3383899199411784,-3.664514177703091,115],["5-158338962-158341786-0_enh",-0.21995203462866528,-3.00178581660014,221],["12-14408263-14412303-2_enh",-0.24863710241144588,-3.1617649662519414,183]]}}}
{"ccle_mirna":{"corr":{"top":[],"bottom":[["hsa-miR-122_miR00039.1",-0.26374464557142546,-4.52158674405538,244],["hsa-miR-125a-3p_miR00073.1",-0.24225964518405094,-3.8779719488847495,244],["hsa-miR-1908_miR00201.1",-0.2202871151765423,-3.2771477986124395,244],["hsa-miR-330-5p_miR00307.1",-0.20406350972394907,-2.8694610853543145,244],["hsa-miR-509-5p_miR00421.1",-0.21286234590242029,-3.086845624681264,244],["hsa-miR-557_miR00510.1",-0.206171169756843,-2.9207358421221357,244],["hsa-miR-596_miR00550.1",-0.244216827761295,-3.9342713766870294,244],["hsa-miR-770-5p_miR00641.1",-0.23123786886725475,-3.5694763134822165,244],["hsv2-miR-H4-5p_miR00783.1",-0.21996368771291527,-3.2687259980302694,244]]},"para":{"top":[],"bottom":[["hsa-miR-1181_miR00023.1",-0.21135481602644582,-3.0489772810361586,244],["hsa-miR-1538_miR00175.1",-0.2417304659290152,-3.862828975380004,244],["hsa-miR-202_miR00229.1",-0.24037324881678437,-3.8241445720931906,244],["hsa-miR-326_miR00303.1",-0.22954060036656448,-3.523249527162225,244],["hsa-miR-506_miR00415.2",-0.2152019274197997,-3.1461282960872405,244],["hsa-miR-557_miR00510.1",-0.21401348997128453,-3.1159362800697528,244],["hsa-miR-596_miR00550.1",-0.23988975960407177,-3.8104171458951104,244],["hsa-miR-640_miR00596.1",-0.23031913908248647,-3.5444117193984646,244],["hsa-miR-922_miR00665.1",-0.22425293801839496,-3.381399842619446,244],["hcmv-miR-UL70-3p_miR00757.1",-0.22972918554366764,-3.528369098608045,244],["hsv2-miR-H4-5p_miR00783.1",-0.2382706738344384,-3.7646509977566405,244]]}}}
{"prism_primary_logfold":{"corr":{"top":[["narasin_BRD-A25608658-001-01-1::2.5::HTS",0.2319266165584845,-2.722351395363027,177],["bethanechol_BRD-A99833829-003-27-1::2.5::HTS",0.225377107666905,-2.480059665849722,168],["idoxuridine_BRD-K76634210-001-14-7::2.5::HTS",0.278171785678744,-3.63879593093929,171],["novobiocin_BRD-K85307935-236-09-5::2.5::HTS",0.270614566043972,-3.4636538135792256,171]],"bottom":[["sal003_BRD-A45869167-001-10-0::2.5::HTS",-0.22280568784054092,-2.5534711232196825,178],["mephenesin_BRD-A55469827-001-07-4::2.5::HTS",-0.2515732412046454,-3.136178743087317,177],["viloxazine_BRD-A59198242-003-02-9::2.5::HTS",-0.29825721460052673,-4.278777182406369,178],["tizanidine_BRD-K06335600-003-20-7::2.5::HTS",-0.21095909892752987,-2.3384008777028193,179],["abacavir_BRD-K17443395-065-02-2::2.5::HTS",-0.2251222376658265,-2.58667252103516,177],["tranilast_BRD-K17849083-001-31-1::2.5::HTS",-0.2195747207534107,-2.490687130934163,178],["zibotentan_BRD-K31553034-001-03-0::2.5::HTS",-0.22546704797934866,-2.5934549359887087,177],["anguidine_BRD-K45724504-001-01-6::1.36::HTS",-0.2322460363652141,-2.7419199451174507,178],["danofloxacin_BRD-K45916615-066-02-5::2.5::HTS",-0.23002307298906352,-2.6453748756228936,174],["apixaban_BRD-K67121414-001-03-3::2.5::HTS",-0.23424982141455516,-2.782887718579362,178],["etafenone_BRD-K84971356-001-01-4::2.632189712::MTS004",-0.22916823644401274,-2.6413167408886915,175]]},"para":{"top":[["eptifibatide_BRD-A90547603-001-02-5::2.5::HTS",0.21033761132513484,-2.3159459248407557,178],["bethanechol_BRD-A99833829-003-27-1::2.5::HTS",0.24834022467791753,-2.9314054032737684,168],["xylose_BRD-K10759144-001-04-3::2.5::HTS",0.23851174703445271,-2.7330221228858598,168],["dacarbazine_BRD-K35520305-001-17-7::2.5::HTS",0.2347523981928706,-2.7932165712322807,178],["N20C_BRD-K41143549-003-02-4::2.5::HTS",0.2077650614604852,-2.279132212316548,179],["idoxuridine_BRD-K76634210-001-14-7::2.5::HTS",0.2807589962050695,-3.699918796887833,171],["novobiocin_BRD-K85307935-236-09-5::2.5::HTS",0.2961835413721683,-4.076852264452582,171]],"bottom":[["metrizamide_BRD-A45543382-001-10-0::2.5::HTS",-0.26039807460399506,-3.332974712809547,177],["viloxazine_BRD-A59198242-003-02-9::2.5::HTS",-0.29635583595547466,-4.228881800961818,178],["PSI-7976_BRD-K05674516-001-01-7::2.5::HTS",-0.21820973140451064,-2.4644229204200143,178],["abacavir_BRD-K17443395-065-02-2::2.5::HTS",-0.26564074042429686,-3.4531610468502354,177],["tranilast_BRD-K17849083-001-31-1::2.5::HTS",-0.22301389042577585,-2.5575466915226337,178],["ST-91_BRD-K18905250-003-02-4::2.5::HTS",-0.22487095240133806,-2.581735975228091,177],["PNU-282987_BRD-K28863208-001-02-0::2.5::HTS",-0.2244738412497103,-2.5739453596650668,177],["obidoxime_BRD-K33588785-001-01-9::2.5::HTS",-0.22786956208065798,-2.5143141505334854,167],["LY215490_BRD-K34313798-001-01-6::2.5::HTS",-0.2209847147704024,-2.5179793923276534,178],["ephedrine_BRD-K45014108-003-01-8::2.5::HTS",-0.27250733301628743,-3.6321750008499802,178],["danofloxacin_BRD-K45916615-066-02-5::2.5::HTS",-0.24248878521643166,-2.8979726604212397,174],["toltrazuril_BRD-K64514229-001-05-2::2.5::HTS",-0.22442700337366625,-2.5853039853471804,178],["apixaban_BRD-K67121414-001-03-3::2.5::HTS",-0.2349191825965633,-2.796649045335645,178],["sulphadimethoxine_BRD-K71125014-001-27-1::2.5::HTS",-0.2316023651377866,-2.7157976996024837,177],["hexoprenaline_BRD-A33894669-065-01-9::2.312630829::MTS004",-0.24492288676833593,-2.9633442740507943,175]]}}}
{"prism_secondary_logfold":{"corr":{"top":[["monensin_BRD-A06627858-236-03-0::2.5::MTS006",0.2633313222275676,-3.0646461853306,157],["narasin_BRD-A25608658-001-01-1::2.5::MTS006",0.26906022808703595,-3.1832473106629435,157],["thioproperazine_BRD-K08619574-334-05-4::0.0024414::HTS002",0.30447933125912924,-3.096050679382,118],["PD-153035_BRD-K26603252-003-04-9::10::HTS002",0.29909704636919937,-3.848679881855322,157],["resminostat_BRD-K28822270-001-03-7::2.61565::MTS010::PROS002_PR500",0.2672802509538657,-2.8854350548978207,142],["tamibarotene_BRD-K36627727-001-05-4::0.625::MTS010::PROS005_PR500",0.25130093587622465,-2.762427783367388,153],["YM-201636_BRD-K48488978-001-05-3::0.00976562::HTS002",0.24725658465923148,-2.6560501275488395,151],["monobenzone_BRD-K54262262-001-09-0::2.5::HTS002",0.24785837422920523,-2.1670317090553755,118],["raloxifene_BRD-K63828191-003-32-1::0.00976562::HTS002",0.2489823739265399,-2.183637230957711,118],["volasertib_BRD-K69776681-001-03-8::0.00977::MTS010::PROS003_PR500",0.26621494297988313,-3.0035205117629893,150],["JNJ-26481585_BRD-K83837640-001-04-8::0.0390625::HTS002",0.28321236434811253,-2.8428217721224156,124],["R306465_BRD-K86687746-001-01-3::0.625::HTS002",0.2452613224721583,-2.338161183619809,132]],"bottom":[["isofloxythepin_BRD-A07704283-001-01-3::0.000610352::HTS002",-0.249363726750232,-2.755972300889906,155],["morin_BRD-K11590034-002-03-4::0.155486::HTS002",-0.27528846980497945,-3.2233234376976125,152],["salvianolic-acid-B_BRD-K18898553-001-01-1::0.624999999::MTS006",-0.2468252697289071,-2.752165474960158,158],["flufenamic-acid_BRD-K44067360-001-30-3::2.5::HTS002",-0.24456734354589862,-2.6357360408311146,153],["clofibrate_BRD-K45252063-001-13-6::0.15625::HTS002",-0.24914164372731523,-2.324782449601257,127],["pterostilbene_BRD-K53097745-001-01-5::0.15625::HTS002",-0.2639514082375387,-3.026608305440889,154],["idelalisib_BRD-K60866521-001-07-1::0.0390625::HTS002",-0.25595065743681233,-2.3369782380821933,121],["SB-218795_BRD-K61097567-001-08-5::0.00061034::HTS002",-0.24322330013008264,-2.59637784633641,152],["2'-MeCCPA_BRD-K63932022-001-01-5::0.15625::HTS002",-0.2447107394490131,-2.6091057594112117,151],["trichostatin-a_BRD-K68202742-001-16-5::0.000643289::HTS002",-0.2608622939054417,-2.9316207236664087,152],["AZD5438_BRD-K72414522-001-06-7::0.15625::HTS002",-0.27982419647324835,-3.337354835452016,153],["WZ-3146_BRD-K73293050-001-03-1::0.00061034::HTS002",-0.24687711584503294,-2.6639218704395122,152],["SB-239063_BRD-K82091397-001-03-0::0.00976562::HTS002",-0.24455524943556922,-2.6939414199929836,157],["mycophenolate-mofetil_BRD-K92428153-001-04-4::0.0024414::HTS002",-0.27244270529167364,-2.5651723001241282,119],["lorlatinib_BRD-K99879819-001-02-1::0.002441408::MTS006",-0.2523977558506871,-2.845461439565857,157]]},"para":{"top":[["8-bromo-cGMP_BRD-A00077618-236-07-6::0.00976562::HTS002",0.23455774583085715,-2.426573508506473,151],["pindolol_BRD-A97701745-001-16-0::0.625::HTS002",0.2215608571433651,-2.191523215414123,150],["thioproperazine_BRD-K08619574-334-05-4::0.0024414::HTS002",0.31751556243011275,-3.3380101058309157,118],["resminostat_BRD-K28822270-001-03-7::2.61565::MTS010::PROS002_PR500",0.2679454764732809,-2.8980212030041614,142],["monobenzone_BRD-K54262262-001-09-0::2.5::HTS002",0.25822673861282747,-2.3229428690666385,118],["JNJ-26481585_BRD-K83837640-001-04-8::0.0390625::HTS002",0.2797027833391245,-2.7813523787376013,124],["R306465_BRD-K86687746-001-01-3::0.625::HTS002",0.24665017845179535,-2.36073025219637,132],["beclomethasone-dipropionate_BRD-K97810537-001-13-6::2.5::HTS002",0.2426200856891819,-2.44085895875599,142]],"bottom":[["nutlin-3_BRD-A12230535-001-06-7::0.00976562::HTS002",-0.25975898885830356,-3.0083898991587845,158],["morin_BRD-K11590034-002-03-4::0.155486::HTS002",-0.2764102345055506,-3.246681346950875,152],["PCI-24781_BRD-K12867552-001-04-7::0.0024414::HTS002",-0.25446987747174243,-2.870531417353134,156],["BAY-11-7082_BRD-K15025317-001-15-1::0.00976562::HTS002",-0.27316630600917063,-3.1794035595902153,152],["salvianolic-acid-B_BRD-K18898553-001-01-1::0.624999999::MTS006",-0.24617483928116377,-2.739622597784184,158],["flufenamic-acid_BRD-K44067360-001-30-3::2.5::HTS002",-0.24889638685012475,-2.7167984112621926,153],["clofibrate_BRD-K45252063-001-13-6::0.15625::HTS002",-0.30968875869644824,-3.402778559207847,127],["pterostilbene_BRD-K53097745-001-01-5::0.15625::HTS002",-0.28990154965858145,-3.5760742325767616,154],["enzalutamide_BRD-K56851771-001-06-8::10::HTS002",-0.2970579753577871,-2.6143794900947723,102],["SB-225002_BRD-K61323504-001-04-0::0.0390625::HTS002",-0.25030654359702165,-2.420733999932854,132],["dorzolamide_BRD-K71075609-003-01-0::2.5::HTS002",-0.2491779555886314,-2.325358697194322,127],["AZD5438_BRD-K72414522-001-06-7::0.15625::HTS002",-0.28148004195032983,-3.37267961603648,153],["mycophenolate-mofetil_BRD-K92428153-001-04-4::0.0024414::HTS002",-0.3056336448403307,-3.1399624730498594,119]]}}}
{"ccle_proteomics":{"corr":{"top":[["SYVN1_Q86TM6",0.28996898347965416,-3.2510442977826135,138],["BCL3_P20749",0.34326683147824333,-3.5883678210641876,109],["PEX16_Q9Y5Y5-2",0.28300776544087675,-2.976627875801045,131],["PSEN1_P49768",0.280546026026318,-3.0273416633920864,136],["FAM120C_Q9NX05",0.2754149362334562,-2.8004761267681872,129],["STX6_O43752",0.2569190349378372,-2.628755625872602,138],["CYP1B1_Q16678",0.3479620729607722,-3.88771795386792,116],["USP20_Q9Y2K6",0.3070988116266686,-3.2131899848671974,121],["STARD3_Q14849",0.29778032738890253,-2.71346723530954,106],["ARL8A_Q96BM9",0.26265202699801804,-2.697423853837293,136],["TMEM205_Q6UW68",0.278349976141977,-3.023484663998234,138]],"bottom":[["VDAC3_Q9Y277",-0.27261407589551373,-2.9146975951491987,138],["TRIM28_Q13263",-0.28062506532823617,-3.0672799641544475,138],["ERF_P50548",-0.31222690822507615,-3.667212621575638,136],["GINS1_Q14691",-0.2997422156046467,-3.4281932035420684,137],["GAB2_Q9UQC2",-0.3340220615319673,-3.987870698069074,130],["GINS2_Q9Y248",-0.3298119260198642,-3.2016384072193818,104],["GINS3_Q9BRX5",-0.28315688042317716,-3.1164517198018933,138]]},"para":{"top":[["BCL3_P20749",0.34605689926790845,-3.6421761595162825,109],["PEX16_Q9Y5Y5-2",0.2773508710597374,-2.87272938909289,131],["THBD_P07204",0.34514570079557405,-3.624547942458285,109],["STX6_O43752",0.26473190383739115,-2.768967502139096,138],["AP4B1_Q9Y6B7",0.2635710749829373,-2.180853836757616,105],["CYP1B1_Q16678",0.3288977220967174,-3.505301096326835,116]],"bottom":[["VDAC3_Q9Y277",-0.2642926290224885,-2.7609728688541706,138],["TRIM28_Q13263",-0.2721992383360063,-2.906919697147106,138],["ERF_P50548",-0.30239195644287314,-3.4607275973195253,136],["C12orf43_Q96C57",-0.2676537572421048,-2.822483982144462,138],["DCP1B_Q8IZD4",-0.26892319998909353,-2.79283232859687,135],["GINS1_Q14691",-0.28464452687025904,-3.12580654559029,137],["NUDT15_Q9NV35",-0.2974355131804401,-2.948091878763481,117]]}}}
{"depmap_copy_number":{"corr":{"top":[],"bottom":[["ZNF675_171392",-0.1757054448459543,-2.497804730280127,280],["RPSAP58_388524",-0.1726376427609656,-2.4248397409547318,280],["PSG8_440533",-0.19031495645951108,-2.861361839990673,280],["ZNF726_730087",-0.17256979617078166,-2.4232391866708847,280]]},"para":{"top":[],"bottom":[["KIR2DS2_100132285",-0.2286695068319633,-3.946377525535425,280],["LIPE-AS1_100996307",-0.22806831488615886,-3.92786765000643,280],["LOC101930071_101930071",-0.22806831488615886,-3.92786765000643,280],["LOC102725023_102725023",-0.2286695068319633,-3.946377525535425,280],["MEGF8_1954",-0.22806831488615886,-3.92786765000643,280],["ERF_2077",-0.22926984000031805,-3.9649097955330426,280],["CIC_23152",-0.22926984000031805,-3.9649097955330426,280],["PRR19_284338",-0.22865433331732912,-3.9459097520354947,280],["TMEM145_284339",-0.22865433331732912,-3.9459097520354947,280],["KIR2DL1_3802",-0.2286695068319633,-3.946377525535425,280],["KIR2DL2_3803",-0.2286695068319633,-3.946377525535425,280],["KIR2DL3_3804",-0.2286695068319633,-3.946377525535425,280],["KIR2DS4_3809",-0.2286695068319633,-3.946377525535425,280],["LIPE_3991",-0.22806831488615886,-3.92786765000643,280],["PSG8_440533",-0.23005001658417548,-3.989066830621804,280],["PAFAH1B3_5050",-0.22865433331732912,-3.9459097520354947,280]]}}}
{"depmap_gene_tpm":{"corr":{"top":[["CREG2_200407",0.2672481688350696,-5.205223767435359,278]],"bottom":[["SPAG6_9576",-0.25609478253976353,-4.8127440854099,278],["RGN_9104",-0.22109594176286532,-3.6935906918193453,278],["CRH_1392",-0.21720722676592025,-3.5794564688957586,278],["MAT1A_4143",-0.22745983996874447,-3.884705028461696,278],["GABRG1_2565",-0.21759820998431192,-3.590841564199746,278],["PARL_55486",-0.24591514420532648,-4.469872991851154,278],["C2orf88_84281",-0.2401775718540751,-4.28296594187793,278]]},"para":{"top":[["MFSD2B_388931",0.2573473805723545,-4.8559397015545835,278]],"bottom":[["TF_7018",-0.2142537161841925,-3.4941025072242247,278],["SGK3_23678",-0.2116349387497187,-3.4193786061042415,278],["ZNF706_51123",-0.23930707706988869,-4.255004401038679,278],["MMAB_326625",-0.21737844576413337,-3.584439739549745,278],["FBXO25_26260",-0.22124069400253613,-3.6978778220912685,278],["LRRC28_123355",-0.21384029819500558,-3.4822464350339115,278],["C2orf88_84281",-0.24673026232990974,-4.4967953129374,278],["NAT8B_51471",-0.2146637949838006,-3.5058849496091704,278]]}}}
{"avana":{"corr":{"top":[["APOC3_345",0.2815328188291388,-4.439431879308906,209],["GATB_5188",0.28516507288693105,-4.54506784111234,209],["GFM2_84340",0.25547412185082286,-3.7236347705318296,209],["GORASP2_26003",0.2553066616461292,-3.7192690050206823,209],["MRPS16_51021",0.33005217343728455,-5.97510302780592,209],["MTG2_26164",0.2697205588333245,-4.105909479112433,209],["SLC25A33_84275",0.2700439807247976,-4.114839529366862,209]],"bottom":[["ARL5C_390790",-0.27793867893707463,-4.336337377600276,209],["ARSA_410",-0.2727333286023793,-4.189533121675604,209],["AVPR2_554",-0.27626653837353593,-3.9606995470226796,191],["CACNG1_786",-0.30076198056671805,-5.015474897644725,209],["CDC25B_994",-0.25634032532163903,-3.74626406090307,209],["CISD3_284106",-0.24945422095342001,-3.5685330137687226,209],["DLX4_1748",-0.257015977026786,-3.7639699474396053,209],["FAM133B_257415",-0.30420825336347573,-5.123150823312924,209],["FZD2_2535",-0.24751233678423212,-3.519304135056965,209],["NECAB2_54550",-0.2498381749778907,-3.578312908833508,209],["NT5C_30833",-0.27077779182124473,-4.135142744728044,209],["RAB11FIP4_84440",-0.2484774067376057,-3.54372093629802,209],["SLC30A3_7781",-0.2508979049917062,-3.6053852409616995,209],["USH1G_124590",-0.2521508649037796,-3.6375445343716417,209],["ZNF524_147807",-0.26814661050984046,-4.062611764654845,209]]},"para":{"top":[["ADRA2A_150",0.24482029765050123,-3.451701953459605,209],["APOC3_345",0.28271999768651795,-4.473797645529469,209],["BRI3BP_140707",0.26609504399066447,-4.006574747609582,209],["CADPS2_93664",0.25036394598291195,-3.5917299110698524,209],["GFM2_84340",0.2508311603384026,-3.603676710266444,209],["MRPS16_51021",0.3176873632140166,-5.5575798761932305,209],["PSMD7_5713",0.25088293124826333,-3.6050019025506512,209]],"bottom":[["APLP1_333",-0.24420749470872363,-3.4364175147123692,209],["ARL5C_390790",-0.24402175198946313,-3.4317923625818065,209],["CACNG1_786",-0.3141551959214519,-5.441673127895168,209],["CDC25B_994",-0.24985984345893789,-3.5788652939173313,209],["FAM133B_257415",-0.2796027228316679,-4.383892358699529,209],["FMNL1_752",-0.24577221679150804,-3.4755211298008053,209],["MAP3K3_4215",-0.24804495783653946,-3.532767834588777,209],["METTL16_79066",-0.2552214576328906,-3.717048825081539,209],["NECAB2_54550",-0.2787742081986114,-4.360177118803549,209],["NOTUM_147111",-0.24332886191878234,-3.4145700348896737,209],["NT5C_30833",-0.2417893271209128,-3.3764797054576507,209],["RAB11FIP4_84440",-0.2789833938381572,-4.366157694238086,209],["SHKBP1_92799",-0.26704164367699307,-4.032374335936208,209],["SPIRE2_84501",-0.2410657276024502,-3.3586605165780283,209],["ZNF524_147807",-0.2670868625798836,-4.033609180735468,209]]}}}
{"drive":{"corr":{"top":[["MAL2_114569",0.34882137022523335,-3.965284469570077,118],["NRAP_4892",0.331564681904323,-3.611269652536239,118],["ALDH7A1_501",0.2941478791243606,-3.0182359494210353,123]],"bottom":[["RRN3P2_653390",-0.272416004671759,-2.5464049026187237,118],["RNF8_9025",-0.31195942005040317,-3.209653098665967,117]]},"para":{"top":[["LINC01361&LOC105369547&LOC105377362_101927498&105369547&105377362",0.32426648357668225,-3.4676744657982352,118],["VSTM4_196740",0.3214507446552089,-3.4132261707194327,118],["LOC285074_285074",0.29888831267484234,-2.9956162792398273,118],["HUNK_30811",0.2881288152558411,-2.807855473489039,118],["MCM3_4172",0.32532889745649773,-3.4623941256459343,117],["NRAP_4892",0.3365672391288126,-3.711779810589181,118]],"bottom":[["RNF8_9025",-0.29812805925523106,-2.9602626799706657,117]]}}}
{"achilles":{"corr":{"top":[["LDHC_3948",0.26197032850636115,-5.130358798989909,285],["ASB11_140456",0.2891820319195397,-6.167572970737156,285],["PPP1R13B_23368",0.24876540606603753,-4.666479670626611,285],["DENND5A_23258",0.2630896957032986,-5.170846980494943,285],["CIDEA_1149",0.27007792169074957,-5.42778917778831,285],["TSSK3_81629",0.2517940038390629,-4.77064709031142,285],["FXYD7_53822",0.25442904617408263,-4.862350735228215,285]],"bottom":[["IFNGR2_3460",-0.2686512678473851,-5.374747170127923,285],["RGPD2_729857",-0.23222790642470553,-4.120621206536527,285],["NUP205_23165",-0.22700240788098658,-3.956086505727392,285],["FARSB_10056",-0.2601167023677026,-5.0637154753218185,285],["LDB2_9079",-0.2561924921372124,-4.92428135349387,285],["RGPD3_653489",-0.27532830215585574,-5.625608422460583,285],["MIOX_55586",-0.24059061004265633,-4.39183698647252,285],["STAT4_6775",-0.22462073063244706,-3.882342762170757,285],["RPS6KA4_8986",-0.23721126277388666,-4.281061508962334,285]]},"para":{"top":[["ASB11_140456",0.2888214699729037,-6.153095523364969,285],["C10orf111_221060",0.257140498489693,-4.957760636011389,285],["TMC8_147138",0.24272527494174526,-4.462640014269904,285],["FXYD7_53822",0.24935250442928003,-4.686570002788513,285],["GJA1_2697",0.24096214412518302,-4.404113902857216,285],["CIDEA_1149",0.23758285741242544,-4.293164012656886,285]],"bottom":[["RGPD2_729857",-0.23415033050321357,-4.182104085719044,285],["MMP27_64066",-0.2615879174782635,-5.116568845668126,285],["NUP205_23165",-0.23080213851747455,-4.075353727355147,285],["RGPD3_653489",-0.26104672907858156,-5.097089872392228,285],["LDB2_9079",-0.2572883679001386,-4.9629944691983185,285],["RPS6KA4_8986",-0.25482192110671287,-4.876109204000024,285]]}}}
{"ccle_rrbs_tss1kb":{"corr":{"top":[["ZNF513_2_27603311_27604311",0.23020091379466964,-3.186576204781134,216],["GDF9_5_132201053_132202053",0.26268892243909586,-3.914532942813549,209],["ZNF513_2_27603611_27604611",0.2310610676231397,-3.2074613834108416,216],["DCPS_11_126172646_126173646",0.21842333031551442,-2.942730302578273,219],["TOP1_20_39656457_39657457",0.2184565447439396,-2.932016537422775,218],["UQCRQ_5_132201318_132202318",0.21857882246089522,-2.9118454160813445,216]],"bottom":[["CUEDC1_17_56032684_56033684",-0.2490252185303257,-3.6613644176789895,216],["LOC401261_6_42750233_42751233",-0.2776377367423652,-4.474600003322604,217],["TRAF5_1_211499147_211500147",-0.2494186620374425,-2.5897197395584928,144],["CSTF3-DT_11_33182202_33183202",-0.24814951646422892,-3.594312657216031,213],["TBC1D10A_22_30722955_30723955",-0.24624264360803186,-3.5163448572520295,211],["APEX1_14_20922289_20923289",-0.2377948836915114,-3.332999810341168,213],["TMCC1-AS1_3_129611713_129612713",-0.23663021028994405,-3.3847530884301733,219],["SCAMP1_5_77655326_77656326",-0.23839625507389167,-3.429484848794307,219],["LIN54_4_83931987_83932987",-0.23884532784563536,-3.3453345377368446,212],["EIF4G2_11_10829543_10830543",-0.24517158120676247,-3.589836987305386,218],["NUP107_12_69079730_69080730",-0.25933491717653673,-3.8251047901555197,209],["C5orf30_5_102593736_102594736",-0.23559385569253155,-3.3586579111395145,219],["THBS3_1_155177772_155178772",-0.24213278495511548,-3.4691632070127,215]]},"para":{"top":[["APOC1_19_45416811_45417811",0.2594823625934273,-2.5916569109502867,133],["TRPV1_17_3496171_3497171",0.230905915059437,-2.204710912291026,139]],"bottom":[["NDUFAF6_8_95906995_95907995",-0.254937690149856,-3.864754251868013,219],["ERICH6_3_150421758_150422758",-0.25981526461701965,-2.3306189415129057,117],["PML_15_74286013_74287013",-0.25633674252517546,-3.7304717006349875,208],["MAGOHB_12_10765577_10766577",-0.2787647342483555,-4.526406782756499,218],["LOC401261_6_42750233_42751233",-0.2701557331421491,-4.257024812563493,217],["ARHGEF18_19_7503573_7504573",-0.2594409195463673,-2.574391482615986,132],["GIT2_12_110434194_110435194",-0.2777983578794785,-4.332341170564835,209],["TRAF5_1_211499147_211500147",-0.2581624180450444,-2.748702375353797,144],["BMT2_7_112579932_112580932",-0.2803409659672864,-4.554771641461818,217],["PTCH1_9_98269481_98270481",-0.2549616439311209,-3.725813650895131,210],["GPANK1_6_31634060_31635060",-0.25490951415974955,-3.7865063267143233,214],["AKIRIN1_1_39455915_39456915",-0.25133954252896346,-3.5562527154758308,205],["RTN4_2_55276827_55277827",-0.2591459625023075,-3.980255193753384,219],["MED22_9_136215011_136216011",-0.2628835504591853,-4.084483405248566,219]]}}}
{"ccle_gene_tpm":{"corr":{"top":[["RP5-901A4.1_ENSG00000255306.1",0.2664968078938994,-4.994134248424943,267],["CREG2_ENSG00000175874.5",0.2906211149651752,-5.8673480443482715,267],["PTGES_ENSG00000148344.10",0.3374412097548225,-7.8065095999818785,267]],"bottom":[["AC103801.1_ENSG00000203507.2",-0.25325267106763544,-4.549164394351808,267],["C2orf88_ENSG00000187699.6",-0.24336645991641398,-4.232448235989978,267],["AC007403.2_ENSG00000230525.1",-0.24707903326097438,-4.34985608166214,267],["SPAG6_ENSG00000077327.11",-0.26247161717562284,-4.856363225840608,267],["PARL_ENSG00000175193.8",-0.22726540263380549,-3.7442093944954635,267],["AC007403.3_ENSG00000223859.1",-0.23338448409524237,-3.925782920757602,267],["MAT1A_ENSG00000151224.8",-0.24923839564935338,-4.418988216945334,267],["GAPDHP44_ENSG00000213352.3",-0.22492632987092867,-3.6760757483473077,267]]},"para":{"top":[["DNAH17_ENSG00000187775.12",0.28180536896228997,-5.538689749145318,267],["EPGN_ENSG00000182585.5",0.2741559644757208,-5.262479767639174,267],["RPL13P6_ENSG00000213176.4",0.27792107791750653,-5.39740062666278,267]],"bottom":[["AC092653.5_ENSG00000204872.2",-0.22702203480982477,-3.73708772707982,267],["MMAB_ENSG00000139428.7",-0.22965733958138848,-3.814610250055603,267],["CTC-255N20.1_ENSG00000250343.1",-0.24087372965269283,-4.154641130257997,267],["SGK3_ENSG00000104205.8",-0.2370515294083329,-4.036924645639266,267],["ZNF706_ENSG00000120963.7",-0.22926750769379114,-3.803086201238559,267],["C2orf88_ENSG00000187699.6",-0.2572818140495686,-4.682005645116168,267],["FBXO25_ENSG00000147364.12",-0.22707068707642825,-3.7385108285900235,267],["AC013463.2_ENSG00000236283.1",-0.225124738683441,-3.6818278696256277,267]]}}}
{"ccle_rrbs_tss_clusters":{"corr":{"top":[["ZNF90_1",0.2881748191272441,-2.685753514248275,112],["JSRP1_3",0.36045295745804895,-3.670967414824835,101],["MIR6851_2",0.272788812033551,-2.534043529722598,117],["FIP1L1_1",0.29998738734416935,-4.086546722177593,167],["DSG3_2",0.2658302032047706,-3.678269883874571,190],["MIR3190_1",0.26563313146662676,-3.043466179345257,153],["ALG12_1",0.2720039773230702,-4.169198892069922,209],["GDF9_2",0.30669557018411087,-4.707392887780323,187]],"bottom":[["ZNF672_2",-0.26306819608680015,-4.12261660898539,221],["CIPC_3",-0.34611052036342677,-3.7022243646264363,111],["SNORD83B_3",-0.25579764578283437,-3.3713748653345132,186],["GNA12_5",-0.2475525140536805,-3.167130488559697,185],["OXA1L_3",-0.25838041612380985,-3.990897003274294,221],["POLR2J2",-0.24996162522715473,-2.213723666828022,119],["SEMA6A-AS1_1",-0.2536452839599223,-3.660737348650842,208],["SUPT5H_2",-0.25733343663974784,-3.103864421674161,167]]},"para":{"top":[["JSRP1_3",0.33844186991673497,-3.2702201994061415,101],["EBLN3P_2",0.260929056980061,-2.6835107197399575,137],["FIP1L1_2",0.28225220844938603,-3.658713392586275,167],["MIR6851_2",0.2719285345236358,-2.5202498667436304,117],["FIP1L1_1",0.275490090328947,-3.5028893009924684,167],["SHMT2_3",0.2673287244253401,-4.125396445912735,214],["SMARCA4_1",0.26937525864639517,-4.079081326743214,208],["SS18L1_1",0.2893238403882559,-4.007161071207544,176]],"bottom":[["AKAP8L",-0.2772999552161248,-4.501219747070675,219],["DNAJA1_2",-0.2583803514440815,-3.9749977067133724,220],["IGF2R_3",-0.2590612585420857,-4.009874696546885,221],["ERICH6-AS1_2",-0.3273976207264008,-3.4235947567589022,114],["KIRREL3-AS2_2",-0.2597119769799823,-3.023808137817216,159],["ZNF672_2",-0.27113911323187445,-4.355215889983607,221],["CIPC_3",-0.30267331616099125,-2.9055668275363,111],["WASF1_2",-0.26127595445706225,-2.353034596155602,117],["THBS3_1",-0.26237399168447517,-4.1029547322972535,221],["PCBD2_3",-0.29830314256067836,-5.193588560907703,221],["CDC42_3",-0.28933201276527476,-4.867279673944658,219],["ID1_1",-0.33838991994117834,-3.6645141777030905,115],["SEMA6A-AS1_1",-0.2984771604968595,-4.923612492207796,208],["ZNF121_3",-0.2622686751324695,-2.1798512816694804,106]]}}}
{"ccle_rrbs_cgi_clusters":{"corr":{"top":[["17_48634103_48637691-3",0.2787980168874305,-2.61242426713155,116],["4_54241642_54246397-1",0.29998738734416935,-4.086546722177593,167],["5_132199901_132204753-3",0.30669557018411087,-4.707392887780323,187],["19_1004964_1007605-1",0.3055824889172468,-3.2305859978058686,123],["6_46656000_46658738-3",0.28747848048113095,-3.241697566228052,140],["4_146680510_146684817-3",0.2872769088246354,-2.874477936090303,122],["14_104203070_104207329-3",0.3100008327147936,-2.7703761777464315,100],["10_392695_396008-1",0.2854763581844005,-3.8129089568447214,171],["22_50312360_50314953-3",0.2852514580388275,-3.866190635788524,174]],"bottom":[["1_249130080_249132695-2",-0.30712182901403773,-5.46229045994286,220],["14_71374683_71377402-1",-0.27937840018162147,-4.6003650147330735,221],["14_23233774_23238578-2",-0.25838041612380985,-3.990897003274294,221],["1_39454655_39459271-1",-0.25797963974392984,-2.6148819577801654,136],["19_39933931_39938638-2",-0.25733343663974784,-3.103864421674161,167],["19_19496495_19499038-1",-0.25316014272288867,-3.8471043147984485,221],["14_77561965_77566697-3",-0.34611052036342677,-3.7022243646264363,111],["7_102309947_102314332-1",-0.24996162522715473,-2.213723666828022,119],["3_49446861_49449413-1",-0.26817271300527756,-4.200415486490027,217],["5_115781075_115785425-1",-0.2536452839599223,-3.660737348650842,208]]},"para":{"top":[["17_48634103_48637691-3",0.2873779527497063,-2.7543278917855987,116],["4_54241642_54246397-1",0.275490090328947,-3.5028893009924684,167],["4_54241642_54246397-2",0.28225220844938603,-3.658713392586275,167],["9_37077450_37082393-2",0.260929056980061,-2.6835107197399575,137],["6_46656000_46658738-3",0.2885337101099652,-3.2629467068706672,140],["5_140229828_140232333-3",0.30682558033095714,-3.4841409283091784,133],["20_60715598_60718632-1",0.2893238403882559,-4.007161071207544,176],["7_158821178_158823747-2",0.33689064763426235,-3.5231617673361697,111]],"bottom":[["12_46659054_46662231-2",-0.2690141211789419,-4.1726847241231315,214],["1_249130080_249132695-2",-0.2782275407160583,-4.547249154288699,220],["19_40374867_40379136-3",-0.28169370598477733,-2.502714114501517,108],["4_57178225_57182683-2",-0.36025291972225276,-4.751561953414976,135],["4_39769679_39773944-2",-0.29393761480418346,-2.844530055482831,115],["3_150419183_150423879-2",-0.3273976207264008,-3.4235947567589022,114],["14_77561965_77566697-3",-0.30267331616099125,-2.9055668275363,111],["20_30190006_30194273-1",-0.33838991994117834,-3.6645141777030905,115],["1_25226496_25231132-3",-0.3046687462622962,-2.7100011594907496,101],["12_122238690_122241351-1",-0.27856821605460674,-4.5390140237658,219],["19_9692921_9697433-3",-0.2622686751324695,-2.1798512816694804,106],["19_15527290_15531902-1",-0.2772999552161248,-4.501219747070675,219],["5_115781075_115785425-1",-0.2984771604968595,-4.923612492207796,208]]}}}
