{"depmap_hotspot":{"corr":{"top":[["AC074212.3",0.11769371760798261,-1.9858296851974986,12.0,462.0],["AC104809.3",0.16569359724629526,-3.5357213224852178,20.0,454.0],["AK7",0.13935592714403292,-2.627226617246387,31.0,443.0],["C17orf77",0.11948181494512902,-2.035245274084249,12.0,462.0],["C1QTNF1",0.13279017610125932,-2.422908265370103,11.0,463.0],["C3orf17",0.12230055492910877,-2.1144206511034267,9.0,465.0],["CBR1",0.12017399378189991,-2.0545428658316363,9.0,465.0],["CERKL",0.15041562708177308,-2.9912292937448157,20.0,454.0],["CIB3",0.12839928236911838,-2.291108195690186,9.0,465.0],["CMPK2",0.11624706599350737,-1.9463088887018165,12.0,462.0],["DGAT2L6",0.1279631972868539,-2.2782288122648233,9.0,465.0],["EDEM3",0.14361798818602817,-2.764536645996087,18.0,456.0],["FAM187B",0.1215477832144577,-2.093122818199362,8.0,466.0],["G6PC2",0.12927741350649805,-2.3171581714177325,12.0,462.0],["PIK3C2B",0.16164269333308173,-3.386588941635445,39.0,435.0],["PTGFRN",0.14428243266973823,-2.7862768808653278,26.0,448.0],["PTPLA",0.1257314961845169,-2.212910453099789,8.0,466.0],["TCF19",0.15484840348285897,-3.144192798095407,12.0,462.0],["ZNF729",0.16895107508033347,-3.658160426862779,34.0,440.0]],"bottom":[["ABHD17A",-0.1241004853927439,-2.165799312000433,16.0,458.0],["ARHGEF25",-0.16629724674853422,-3.5582410194892553,22.0,452.0],["C1GALT1C1",-0.1230914099093946,-2.136916523637137,12.0,462.0],["CAMKMT",-0.17214141389642637,-3.7802619151627157,8.0,466.0],["CYP17A1",-0.1422013284523776,-2.718485591553227,10.0,464.0],["DCAF17",-0.14717214491269795,-2.8818786435714028,23.0,451.0],["DENND2D",-0.12900787095782132,-2.309145747525915,11.0,463.0],["EBF1",-0.14448669770419809,-2.7929784649206333,29.0,445.0],["FGF17",-0.131135116866979,-2.3727754141664343,9.0,465.0],["FOXN3",-0.12305286061292187,-2.135817122190692,18.0,456.0],["GFI1B",-0.1449319556086771,-2.807616214005985,12.0,462.0],["GNB5",-0.1400316844883146,-2.648750673393535,14.0,460.0],["KAT5",-0.12098994247341066,-2.077412201226488,10.0,464.0],["KRCC1",-0.128325852936519,-2.2889368671317567,11.0,463.0],["LHFPL1",-0.14233716014617698,-2.7228832858712404,9.0,465.0],["LMNB1",-0.1382466566023443,-2.592095396379622,11.0,463.0],["MFSD11",-0.14679792653169588,-2.8694016071089594,12.0,462.0],["POU6F2",-0.13884594802283803,-2.6110442885082596,41.0,433.0],["RAB4A",-0.12222751753105497,-2.11234933595493,8.0,466.0],["SLC7A9",-0.12977344498472582,-2.3319411499233156,17.0,457.0],["SSR2",-0.13125698828461096,-2.3764482394643798,10.0,464.0],["TRIM45",-0.12364752278254447,-2.1528092218820887,12.0,462.0],["TSSK3",-0.1322535368010711,-2.4065928701716865,12.0,462.0],["ZNF384",-0.12016280128126977,-2.0542300748882516,18.0,456.0]]},"para":{"top":[["AC074212.3",0.12077678111710588,-2.3641010137326752,12.0,462.0],["AC104809.3",0.15078357389931982,-3.2824822108929217,20.0,454.0],["C17orf77",0.13952392877526698,-2.917514861791873,12.0,462.0],["C1QTNF1",0.11894489838596634,-2.313530978666575,11.0,463.0],["C3orf17",0.11878866168541755,-2.3091076343086736,9.0,465.0],["CBLB",0.1423473528035995,-3.0069700860642032,19.0,455.0],["CBR1",0.13629911585682952,-2.817334377470319,9.0,465.0],["CERKL",0.1672347827504918,-3.8591758183246396,20.0,454.0],["CIB3",0.12856062481978617,-2.5855700175299012,9.0,465.0],["CMPK2",0.12210184129189737,-2.4010313919834902,12.0,462.0],["CREB3L1",0.1165692987739932,-2.2489008755608495,10.0,464.0],["CTAGE1",0.11436843626615058,-2.18986598396161,8.0,466.0],["EDEM3",0.15322656564343223,-3.364745844580092,18.0,456.0],["ELANE",0.10862130119879121,-2.0404958370570325,9.0,465.0],["FAM187B",0.12496143114794474,-2.4815508702713447,8.0,466.0],["G6PC2",0.12926698149632543,-2.606470773322764,12.0,462.0],["GSDMB",0.12149995781518458,-2.3840089063501058,9.0,465.0],["KCNK6",0.13148244422229977,-2.6718243491639218,10.0,464.0],["KIF2A",0.1341010283567998,-2.7505043826046283,11.0,463.0],["KRTAP13-3",0.12357413037499905,-2.4424532090818163,12.0,462.0],["LRRC20",0.1374906179280923,-2.854119900330951,10.0,464.0],["MCAT",0.11628355398489304,-2.2410394590383795,8.0,466.0],["PTGFRN",0.16773116722017065,-3.8775566978938096,26.0,448.0],["PTPLA",0.12005394199366723,-2.343796917369608,8.0,466.0],["RPL13A",0.11546308474401813,-2.2192630060381267,11.0,463.0],["SOCS1",0.10760567682184133,-2.014638029034425,8.0,466.0],["TCF19",0.15562095608384513,-3.446254271903217,12.0,462.0],["TCTN1",0.13483049711987238,-2.7724740648820587,9.0,465.0]],"bottom":[["ABHD17A",-0.1348467064387173,-2.7733865781902125,16.0,458.0],["ARHGEF25",-0.14859142535053566,-3.209639607622266,22.0,452.0],["CAMKMT",-0.12107134828174913,-2.371982790721067,8.0,466.0],["DENND2D",-0.11561669416939818,-2.223373968257393,11.0,463.0],["LMNB1",-0.13031199586409137,-2.637182711494696,11.0,463.0],["LURAP1L",-0.11400935169388635,-2.180347361496295,8.0,466.0],["MMAB",-0.1217258991593318,-2.390313123754801,9.0,465.0],["NRM",-0.1299886151596437,-2.6273825364135437,8.0,466.0],["RAB4A",-0.12041302656593143,-2.3537226328778256,8.0,466.0],["SIRT3",-0.1233074095769707,-2.4350188468619605,14.0,460.0],["SLC35C2",-0.11310768293544875,-2.1569286803935017,14.0,460.0],["SLC7A9",-0.12333543141260149,-2.435924890900492,17.0,457.0],["SSR2",-0.14730754460809264,-3.1668160067936926,10.0,464.0],["TRIM45",-0.13280047529576944,-2.711363897824204,12.0,462.0],["ZDHHC11",-0.15001661777572195,-3.2568722443673788,20.0,454.0]]}}}
{"depmap_damaging":{"corr":{"top":[["ADAMTS16",0.09590904413586962,-1.4335267533825007,8.0,466.0],["GLI3",0.10975020116105798,-1.7738521872956496,8.0,466.0],["ZNF347",0.11806263533156684,-1.9959736718524292,10.0,464.0]],"bottom":[["MYEOV",-0.12418791953865048,-2.168311433308973,9.0,465.0],["RABL2A",-0.13485424193424275,-2.4862016526274227,11.0,463.0],["XPO7",-0.11644560657423399,-1.9517085353486776,8.0,466.0],["ZDHHC11",-0.11874566316742287,-2.014825087064964,10.0,464.0]]},"para":{"top":[["ADAMTS16",0.09940657908847522,-1.813573600615688,8.0,466.0],["GLI3",0.11766004484523915,-2.2782448270168834,8.0,466.0],["ZNF347",0.1258497813731192,-2.507150808405906,10.0,464.0]],"bottom":[["MYEOV",-0.1226296645359208,-2.415626177269171,9.0,465.0],["RABL2A",-0.12370679057274846,-2.446145404674959,11.0,463.0],["XPO7",-0.12160997514014546,-2.3869836034320318,8.0,466.0],["ZDHHC11",-0.13132151099803746,-2.6670358809464703,10.0,464.0]]}}}
{"prism_primary_logfold":{"corr":{"top":[],"bottom":[]},"para":{"top":[],"bottom":[["PMPA_BRD-A74387232-001-02-5::2.5::HTS",-0.19738492491046689,-3.0003968943891386,275]]}}}
{"prism_secondary_logfold":{"corr":{"top":[["TAK-733_BRD-K26667523-001-02-5::0.00061034::HTS002",0.2248222916574501,-3.456759101291475,249],["BIIB021_BRD-K51967704-001-03-6::0.00977::MTS010::PROS004_PR500",0.25190944374542523,-4.205175244992463,247],["PRT062607_BRD-K53734668-003-02-0::0.000648796::HTS002",0.22417560940527587,-3.475168187060254,252]],"bottom":[["raclopride_BRD-K04111260-001-10-0::0.0024414::HTS002",-0.22142316887101823,-3.3887009382139404,251]]},"para":{"top":[["BIIB021_BRD-K51967704-001-03-6::0.00977::MTS010::PROS004_PR500",0.23494307271749326,-3.710947886400557,247],["naftifine_BRD-K74141488-003-11-2::0.00976562::HTS002",0.23166548662239247,-3.6705385502293466,251]],"bottom":[]}}}
{"ccle_proteomics":{"corr":{"top":[["DNAJB4_Q9UDY4",0.2900781453873333,-5.429334341945025,246],["MSANTD2_Q6P1R3",0.29295405720495427,-3.143628491318083,130],["MPV17L2_Q567V2",0.28343997217720396,-2.82710345226909,123]],"bottom":[["POGK_Q9P215",-0.26375587586807075,-4.439525524591869,239]]},"para":{"top":[["DNAJB4_Q9UDY4",0.30040475794629024,-5.7972825807042,246]],"bottom":[]}}}
{"avana":{"corr":{"top":[],"bottom":[["MAP4_4134",-0.20828096576269065,-3.991852595833613,343]]},"para":{"top":[["SMAD7_4092",0.19355501326102245,-3.506902607852871,343]],"bottom":[["LSM6_11157",-0.20981346382405075,-4.044318105607898,343],["MAP4_4134",-0.22109332409293464,-4.442252724609551,343],["PPM1E_22843",-0.20071799487193748,-3.738469356750002,343]]}}}
{"drive":{"corr":{"top":[["KLRA1P_10748",0.3554539373986018,-6.9224579956526044,210],["WDR88_126248",0.3014686933804754,-5.059096867737282,210]],"bottom":[["TMEM71_137835",-0.34117164666777267,-6.561405843621459,216],["PHF11_51131",-0.37957988835738427,-7.875438975450491,210]]},"para":{"top":[["WDR88_126248",0.2926068150690427,-4.786480679101186,210]],"bottom":[["TMEM71_137835",-0.3398509446573484,-6.512559254311138,216],["PHF11_51131",-0.2825870827274316,-4.4889668218947945,210]]}}}
{"achilles":{"corr":{"top":[["PLEKHG4B_153478",0.3145183634856207,-7.236013173094556,285],["CGNL1_84952",0.2960370317716595,-6.446653286155041,285],["GRHL3_57822",0.28862899961877186,-9.97487900722323,482],["CBLL1_79872",0.310400959441283,-11.49870155138357,482]],"bottom":[["CES4A_283848",-0.23219229054321128,-6.595909678544838,482]]},"para":{"top":[["COX7B_1349",0.25770162711088485,-8.024409466521956,482],["GNB2_2783",0.2700641774197903,-8.774674774168048,482],["DENND6A_201627",0.25691263126641795,-4.949701497149749,285],["CGNL1_84952",0.3050041017227338,-6.822842126931406,285],["GRHL3_57822",0.28813855108334324,-9.942014930723252,482],["PLEKHG4B_153478",0.33646139909568834,-8.245587656387185,285],["PIPOX_51268",0.2685479613855326,-8.680577535321502,482],["CBLL1_79872",0.31408935221620404,-11.769650115505023,482]],"bottom":[]}}}
{"ccle_rrbs_tss1kb":{"corr":{"top":[["USP10_16_84732554_84733554",0.1915599983462037,-3.5565878506673227,356]],"bottom":[["COPS3_17_17184617_17185617",-0.22135636984934845,-4.463268924128034,344]]},"para":{"top":[],"bottom":[["ENKUR_10_25305085_25306085",-0.21718184811043056,-3.8243947664234033,300]]}}}
{"ccle_gene_tpm":{"corr":{"top":[],"bottom":[["GRK6P1_ENSG00000215571.4",-0.27958138378042324,-8.962111747693987,459]]},"para":{"top":[["SUCLA2-AS1_ENSG00000227848.1",0.2226717212826366,-5.839049061758932,459]],"bottom":[["CTC-265F19.2_ENSG00000267412.1",-0.19890506689728346,-4.753312969442661,459],["RP11-342M3.1_ENSG00000241317.1",-0.20776923796788532,-5.143791652228218,459]]}}}
{"ccle_rrbs_tss_clusters":{"corr":{"top":[["DUSP15_3",0.2587409097964634,-3.10139131319542,165],["SNORD146_1",0.2785335204482412,-3.47891411563556,162]],"bottom":[["CES1_3",-0.2771719267166943,-2.567033808846782,115],["SELENOV_3",-0.2662628367750266,-3.0389470473282527,152]]},"para":{"top":[["DUSP15_3",0.2471458322777594,-2.8623876385374745,165]],"bottom":[["SCD5_3",-0.2497082319887865,-5.9106549874764935,368],["ZC3H18-AS1_1",-0.2533259001298261,-4.581852032771477,269],["PRDM5_3",-0.3184908713548721,-4.097976023165855,148],["CES1_3",-0.28342758609037266,-2.66861984646335,115],["ZPBP2_3",-0.2611969148034253,-5.214786510994511,292],["SELENOV_3",-0.29543977636050783,-3.6581289201968605,152]]}}}
{"ccle_rrbs_cgi_clusters":{"corr":{"top":[["4_10460832_10465689-1",0.26183317260480116,-4.3807900502692965,239],["5_109218986_109223247-2",0.2914035798632392,-4.304110836462145,188],["20_30455907_30460712-3",0.2587409097964634,-3.10139131319542,165]],"bottom":[["16_55864647_55868998-3",-0.2771719267166943,-2.567033808846782,115],["19_1278712_1283170-3",-0.3017604304651298,-3.5584406451466304,141],["19_40003648_40007869-3",-0.2662628367750266,-3.0389470473282527,152],["7_2470245_2472906-3",-0.27288654509675453,-4.317981310762949,216]]},"para":{"top":[["4_10460832_10465689-1",0.24625042836284633,-3.921264609899733,239],["5_109218986_109223247-2",0.3192585977947662,-5.0979249864275475,188],["20_30455907_30460712-3",0.2471458322777594,-2.8623876385374745,165]],"bottom":[["16_55864647_55868998-3",-0.28342758609037266,-2.66861984646335,115],["6_19802854_19807371-2",-0.28368091091366077,-4.750636708697052,222],["4_121843670_121846193-3",-0.3184908713548721,-4.097976023165855,148],["19_1278712_1283170-3",-0.2601570733005623,-2.7360830425913645,141],["19_40003648_40007869-3",-0.29543977636050783,-3.6581289201968605,152],["7_2470245_2472906-3",-0.272137250177581,-4.296405677981809,216],["17_38022145_38026637-3",-0.2611969148034253,-5.214786510994511,292],["6_133562836_133565586-2",-0.31552384656479265,-3.90737041371564,143]]}}}
