{"depmap_hotspot":{"corr":{"top":[["AATF",0.1120998850764212,-1.8943440195308332,12.0,481.0],["AP5Z1",0.1312367989663635,-2.4547338046600746,25.0,468.0],["C14orf93",0.1404631893437627,-2.75210131200918,9.0,484.0],["DERA",0.1279329683991888,-2.3525890506910536,9.0,484.0],["DISC1",0.12802383017994118,-2.3553678412001653,31.0,462.0],["GBX1",0.10994715749163961,-1.8359874915513645,18.0,475.0],["GLCE",0.11617811574847837,-2.007471360687586,12.0,481.0],["GRK5",0.11222735130716555,-1.8978287694455993,11.0,482.0],["KCTD9",0.13534909678230245,-2.5850611230952296,11.0,482.0],["KLHDC10",0.12716725402145473,-2.3292396316115997,14.0,479.0],["MALT1",0.11128538080267586,-1.8721541991490287,13.0,480.0],["MBNL3",0.12935926905379697,-2.3964071238873355,8.0,485.0],["MYL6B",0.11233978099830691,-1.9009051707238318,12.0,481.0],["NUDT3",0.11913074707448813,-2.0914892419441613,9.0,484.0],["PLA2G4B",0.14709566262499607,-2.9770003544580765,17.0,476.0],["RAB40B",0.13005418740028854,-2.417909504695328,8.0,485.0],["RILPL1",0.14294852242367811,-2.8352782472944518,9.0,484.0],["TFAP2C",0.1229394763870656,-2.2025060382348167,15.0,478.0]],"bottom":[["ACRV1",-0.13822086899526403,-2.678181093677392,8.0,485.0],["APOL3",-0.12988582012704325,-2.4126905928976563,9.0,484.0],["C14orf183",-0.12490769646247862,-2.2610463119108397,8.0,485.0],["C20orf195",-0.13024759533551894,-2.4239119019093307,8.0,485.0],["C7orf62",-0.14575143237934823,-2.9306610135179683,14.0,479.0],["DNAAF3",-0.15178562899786627,-3.1417123427243827,12.0,481.0],["DNAJB11",-0.1594390973853824,-3.420707935845442,14.0,479.0],["DPH1",-0.12517203412463485,-2.268969401267734,10.0,483.0],["ENDOU",-0.12313961083168419,-2.2084220750599193,10.0,483.0],["ERO1L",-0.14123578819768426,-2.7778174733137453,11.0,482.0],["FAM84B",-0.1222784306059232,-2.183023972535358,12.0,481.0],["FNTB",-0.12370753224022468,-2.2252549875484484,13.0,480.0],["HNMT",-0.14113885601666054,-2.7745841122912913,9.0,484.0],["HOXB9",-0.16126003326410868,-3.4889645273089,11.0,482.0],["NIPAL2",-0.12401767257724283,-2.2344754922377525,9.0,484.0],["NPM3",-0.15497205861069188,-3.256325016619676,8.0,485.0],["OR1B1",-0.13657982938184196,-2.624755987653158,10.0,483.0],["RPN1",-0.15487722498619333,-3.252882221275759,9.0,484.0],["TMEM53",-0.14995448589029176,-3.0768396772865905,10.0,483.0],["TSEN54",-0.18813861569641294,-4.5819815664735355,15.0,478.0],["U2AF1L4",-0.19176615632492852,-4.741961626524002,8.0,485.0]]},"para":{"top":[["AATF",0.13068522507336533,-2.7259638412775207,12.0,481.0],["C14orf93",0.16235788965302528,-3.7984591314600555,9.0,484.0],["CDK2",0.10970369024117502,-2.124597495160863,8.0,485.0],["DERA",0.11876080387406542,-2.3735617517247114,9.0,484.0],["DNAJC27",0.12375288776747176,-2.5176754873794125,10.0,483.0],["DUPD1",0.11184063152819877,-2.181962425225439,9.0,484.0],["DUSP9",0.13625809866922278,-2.900133006467461,11.0,482.0],["EIF4E2",0.13032473229760705,-2.7147731222671054,10.0,483.0],["FAM182B",0.11609919912565518,-2.2987633432179893,9.0,484.0],["FOSB",0.1254983408777084,-2.5692614639077265,11.0,482.0],["GLCE",0.12504347084160644,-2.555837201458768,12.0,481.0],["GOLGA7B",0.10595835488587448,-2.0264936692898794,10.0,483.0],["HRH1",0.12299459801399458,-2.495481126600528,10.0,483.0],["IL1B",0.12132269290939202,-2.4467766018688133,8.0,485.0],["ISL2",0.12122525525588122,-2.44413377213515,10.0,483.0],["KCTD9",0.14016635149932444,-3.0260014467387726,11.0,482.0],["KLHDC10",0.16641999281347547,-3.951010824294414,14.0,479.0],["LSMEM1",0.11508778932125927,-2.270702950934375,9.0,484.0],["MALT1",0.12640063991740683,-2.5962415453142365,13.0,480.0],["MBNL3",0.1248196742949719,-2.5489178716423186,8.0,485.0],["MICB",0.12491934045843406,-2.552105324049479,11.0,482.0],["MINA",0.1358763855148048,-2.8882943197860977,17.0,476.0],["MYL6B",0.12777186018319475,-2.637326918922723,12.0,481.0],["NUDT3",0.15032743619021094,-3.367340762353198,9.0,484.0],["OLA1",0.10981649609232277,-2.127599010977236,8.0,485.0],["PLA2G4B",0.15903668922572148,-3.6770443901209173,17.0,476.0],["PSMB6",0.1152311769474142,-2.2745811808163277,8.0,485.0],["RAB40B",0.12882428201071658,-2.6688442680316427,8.0,485.0],["RBMS1",0.1330802374205125,-2.7998700927353353,9.0,484.0],["RGMB",0.1327724271169359,-2.790645768117116,15.0,478.0],["RGPD8",0.12488249479540894,-2.550868500176387,9.0,484.0],["RILPL1",0.14468483412358127,-3.175150705701512,9.0,484.0],["SERGEF",0.11107158043078992,-2.1613797033607103,11.0,482.0],["SERPINE3",0.11682717468571371,-2.3191588164657064,10.0,483.0],["SLC22A12",0.13476401352368994,-2.853030361226772,15.0,478.0],["TFAP2C",0.158289627953472,-3.6498339000658477,15.0,478.0],["THAP2",0.10818081125068058,-2.084318561021428,8.0,485.0]],"bottom":[["ATP8A1",-0.14979088684261646,-3.349528074854276,26.0,467.0],["CFC1",-0.11494916231954487,-2.266784892917868,8.0,485.0],["DNAAF3",-0.12458103197015082,-2.5421707903021167,12.0,481.0],["DNAJB11",-0.13990605737683517,-3.0176979539062545,14.0,479.0],["FAM84B",-0.14779546331722426,-3.2805500985549387,12.0,481.0],["GPR148",-0.10909949673377867,-2.1088790888996907,13.0,480.0],["OR14A2",-0.13238822018592594,-2.7783368044515537,9.0,484.0],["RFC4",-0.11778318055975281,-2.3461237151519447,12.0,481.0],["SMS",-0.11929218758873276,-2.3885708503944043,8.0,485.0],["U2AF1L4",-0.14529393627828632,-3.195483587106994,8.0,485.0]]}}}
{"depmap_damaging":{"corr":{"top":[["ABI3BP",0.11681416416713376,-2.025419838699388,8.0,485.0],["AXIN1",0.11198631039150826,-1.8912418150904473,8.0,485.0],["ERV3-1",0.13353439957315774,-2.5271125426239864,11.0,482.0]],"bottom":[["COL16A1",-0.14935426258638115,-3.0557323863732515,9.0,484.0],["CUL9",-0.18818184064302476,-4.58387016016684,8.0,485.0],["MUC17",-0.11264968415839029,-1.9093982662920939,10.0,483.0],["RNF213",-0.12855347334697667,-2.371599873503153,17.0,476.0],["TEP1",-0.11697677891112401,-2.030021864328047,10.0,483.0]]},"para":{"top":[["ABCC9",0.12380442163464225,-2.51901621117519,8.0,485.0],["ABI3BP",0.12577852402972764,-2.577344693722533,8.0,485.0],["AXIN1",0.1254965094018583,-2.568965061359771,8.0,485.0],["FAM193B",0.1195592852985885,-2.396271634396669,9.0,484.0],["MAST2",0.12588434115722458,-2.5807355850377025,11.0,482.0],["PCGF6",0.11297505992445941,-2.2126450942002305,8.0,485.0],["PTPN12",0.1194528211086521,-2.393236432710743,9.0,484.0],["PTPRD",0.12481449342233979,-2.5489376541181623,10.0,483.0],["RASAL2",0.11915259659637699,-2.384765458518606,10.0,483.0],["SMARCB1",0.12099655186273002,-2.4374643623192003,9.0,484.0],["TCF7L2",0.11201621018970366,-2.186622495438416,8.0,485.0],["UBE3B",0.12652038123406528,-2.599866203707799,14.0,479.0]],"bottom":[]}}}
{"ccle_rppa":{"corr":{"top":[],"bottom":[]},"para":{"top":[],"bottom":[["SNAI1_Snail_Caution",-0.20356813167606477,-4.4934582223191315,411]]}}}
{"ccle_rrbs_enhancer_clusters":{"corr":{"top":[],"bottom":[]},"para":{"top":[["1-39193371-39196134-2_enh",0.2700143230718188,-4.633855302569697,239],["2-105045627-105048213-0_enh",0.2301311408342216,-5.023887416242776,363]],"bottom":[]}}}
{"ccle_mirna":{"corr":{"top":[],"bottom":[["hsa-miR-143_miR00154.1",-0.25162561433526776,-6.760795556768068,420]]},"para":{"top":[],"bottom":[["hsa-miR-143_miR00154.1",-0.21622749189096052,-5.109002040876839,420]]}}}
{"prism_primary_logfold":{"corr":{"top":[],"bottom":[["R-428_BRD-K14870255-001-02-3::2.5::HTS",-0.241342991559345,-4.663477137174976,303],["5-fluorouracil_BRD-K24844714-001-24-5::2.5::HTS",-0.2701371434865341,-5.515786445063833,290],["ganaxolone_BRD-K28217197-001-01-4::2.5::HTS",-0.24181512997365526,-4.680082709335481,303],["GDC-0941_BRD-K52911425-001-09-8::2.5::HTS",-0.26151127673554353,-5.403041414765515,303],["clomipramine_BRD-K52989797-003-26-4::2.5::HTS",-0.23863256455114182,-4.56879615788998,303],["golvatinib_BRD-K69001009-001-02-8::2.5::HTS",-0.24510941590252772,-4.754528260014319,300],["GS-39783_BRD-K75478907-001-02-3::2.5::HTS",-0.2663552919382976,-5.556727873810236,301],["PD-407824_BRD-K82823804-001-04-1::2.5::HTS",-0.24084451236154855,-4.632346188135668,302],["mycophenolate-mofetil_BRD-K92428153-001-04-4::2.5::HTS",-0.23866289812421115,-4.5430610479148825,301],["cepharanthine_BRD-K96194081-001-10-2::2.5::HTS",-0.24053310938623995,-4.635070797717634,303],["molidustat_BRD-K01291782-001-01-1::2.50002964::MTS004",-0.22721484419388144,-4.108945072298747,297]]},"para":{"top":[],"bottom":[["desoxypeganine_BRD-K13819402-003-10-2::2.4::HTS",-0.20968155576174555,-3.6249964412931504,303],["chloroxylenol_BRD-K17223896-001-10-0::2.5::HTS",-0.226042842078877,-4.143333835732149,303],["5-fluorouracil_BRD-K24844714-001-24-5::2.5::HTS",-0.24953859311114487,-4.766229439472385,290],["golvatinib_BRD-K69001009-001-02-8::2.5::HTS",-0.24191063568730484,-4.6421763392502005,300],["mycophenolate-mofetil_BRD-K92428153-001-04-4::2.5::HTS",-0.2438268892128181,-4.723272238287224,301],["adefovir-dipivoxil_BRD-K96159438-001-06-3::2.5::HTS",-0.23245231954520712,-4.344290475228784,302],["cepharanthine_BRD-K96194081-001-10-2::2.5::HTS",-0.24278637463335523,-4.714347811464895,303],["molidustat_BRD-K01291782-001-01-1::2.50002964::MTS004",-0.22179064165783366,-3.9352480403024366,297]]}}}
{"prism_secondary_logfold":{"corr":{"top":[["PI3K-IN-2_BRD-K62374002-001-01-5::0.009765624::MTS006",0.22480575277983136,-3.600587099204063,261],["KPT-276_BRD-K75352575-001-01-3::0.625::HTS002",0.28008473594933814,-5.253662355800843,255]],"bottom":[["carmofur_BRD-K11630072-001-13-2::0.625::MTS010::PROS004_PR500",-0.2757427913638383,-5.139677991058069,257],["cefdinir_BRD-K15766189-001-09-8::10::HTS002",-0.2510607974854511,-4.3884727594689315,261],["STA-5326_BRD-K41783120-001-02-8::10::HTS002",-0.26502449840639625,-4.910345070029475,265],["4-(4-fluorobenzoyl)-1-(4-phenylbutyl)-piperidine_BRD-K47337578-034-02-5::10::HTS002",-0.2845326408740113,-5.562782933619756,263],["enzalutamide_BRD-K56851771-001-06-8::0.00061034::HTS002",-0.268354921871663,-4.085500097315628,210],["betamethasone-dipropionate_BRD-K58148589-001-03-6::2.5::HTS002",-0.2524864424042623,-4.4488665630518796,262],["golvatinib_BRD-K69001009-001-02-8::10::HTS002",-0.26272561165440544,-2.8169747381878336,143],["navarixin_BRD-K82850175-001-01-1::0.625::HTS002",-0.24735106162671652,-4.083438093852956,248],["AZD7762_BRD-K86525559-001-07-8::0.157606::HTS002",-0.26879680846255843,-4.988634031964615,262],["chlorquinaldol_BRD-K90374350-001-09-2::0.00061034::HTS002",-0.26962876393313745,-5.017126900618635,262],["adefovir-dipivoxil_BRD-K96159438-001-06-3::0.625::HTS002",-0.2742133962023626,-4.248896559921055,210],["ftorafur_BRD-K99383816-001-03-5::10::HTS002",-0.2521944318534937,-4.424495581034493,261]]},"para":{"top":[["KPT-276_BRD-K75352575-001-01-3::0.625::HTS002",0.26477926588929945,-4.736452246034031,255]],"bottom":[["carmofur_BRD-K11630072-001-13-2::0.625::MTS010::PROS004_PR500",-0.26472778766766897,-4.767883756078723,257],["STA-5326_BRD-K41783120-001-02-8::10::HTS002",-0.29736914948911425,-6.084769410355771,265],["4-(4-fluorobenzoyl)-1-(4-phenylbutyl)-piperidine_BRD-K47337578-034-02-5::10::HTS002",-0.26481045918582047,-4.869964533274867,263],["betamethasone-dipropionate_BRD-K58148589-001-03-6::2.5::HTS002",-0.24596413664552413,-4.242903158266138,262],["AVN-944_BRD-K62196610-001-01-6::10::HTS002",-0.2797403571465999,-4.722843199515374,227],["golvatinib_BRD-K69001009-001-02-8::10::HTS002",-0.2789122416668093,-3.129056521456673,143],["navarixin_BRD-K82850175-001-01-1::0.625::HTS002",-0.24377859728453757,-3.97804035181525,248],["adefovir-dipivoxil_BRD-K96159438-001-06-3::2.5::HTS002",-0.26002612342291603,-3.859577323430607,210]]}}}
{"ccle_proteomics":{"corr":{"top":[["FAM110A_Q9BQ89",0.28669113938208934,-3.22589623674704,140],["PUS1_Q9Y606",0.27350751670763135,-4.956862083128651,251]],"bottom":[["POSTN_Q15063",-0.324043643452269,-5.820028196816231,211],["OSBPL6_Q9BZF3-5",-0.30575468950215706,-5.838506747561269,239],["SNTA1_Q13424",-0.35619729643205833,-5.0832537652196335,149],["EIF4G3_B1AN89",-0.3108939057748973,-2.9997161116904074,109],["RPS6KC1_Q96S38",-0.3583444140551916,-6.507790968976706,193],["WDR54_Q9H977",-0.3445252341632846,-4.107770567229646,126],["MPV17L2_Q567V2",-0.30211659035857474,-3.232334601686891,126],["PCOLCE_Q15113",-0.3224555473062893,-4.368681851495159,155],["NUDT14_O95848",-0.29722695899450313,-4.421135486693556,186],["KCTD2_Q14681",-0.3665923036728208,-3.754701130848252,100],["COL11A1_P12107",-0.3022794172093473,-3.8131619808703423,152],["MAP1LC3A_Q9H492-2",-0.294270076394122,-5.310285283464657,233],["CERCAM_Q5T4B2",-0.31758163781526705,-3.1409141309799233,110]]},"para":{"top":[["PUS1_Q9Y606",0.30521795470969265,-6.083986035673083,251],["MUC16_Q8WXI7",0.28400495478859167,-3.932553747419806,179],["FABP4_P15090",0.2674301261843276,-2.3423328962585566,111],["SPRR3_Q9UBC9",0.34628088039901994,-4.585414302278854,141]],"bottom":[["OSBPL6_Q9BZF3-5",-0.32766816088822603,-6.660534932268109,239],["GMPR_P36959",-0.306875513065403,-5.27474390858331,212],["SNTA1_Q13424",-0.34932771022289555,-4.898847731540755,149],["TRIM37_O94972",-0.29762283025117586,-2.9731577776282547,118],["FKBP7_Q9Y680-2",-0.3165765909193943,-6.521496242026015,251],["RPS6KC1_Q96S38",-0.3454480960103799,-6.063343246817689,193],["WDR54_Q9H977",-0.31591467104520404,-3.5031761972422726,126],["LRP12_Q9Y561",-0.3397076506854026,-4.142671063619325,131],["GYG2_O15488",-0.32680295485503397,-3.307219992657205,110],["NKIRAS1_Q9NYS0",-0.3450888605884052,-3.7114157574519937,112],["CERCAM_Q5T4B2",-0.36157109577217056,-3.982892548433254,110]]}}}
{"depmap_copy_number":{"corr":{"top":[["LINC02418_100190940",0.42854589170055823,-22.758697758582993,494],["LINC02419_105370078",0.42854589170055823,-22.758697758582993,494],["ADGRD1-AS1_105755954",0.43298865872967385,-23.265183283005168,494],["LINC02415_107161159",0.42642328125431905,-22.519350131940467,494],["FZD10_11211",0.428610709335468,-22.766033352721298,494],["LINC01257_116437",0.41991562970943336,-21.7960283064869,494],["STX2_2054",0.4216934162506756,-21.992068254959005,494],["RIMBP2_23504",0.41901348183338827,-21.696992158607465,494],["ADGRD1_283383",0.4275575766960487,-22.647043541712588,494],["LINC02370_338797",0.4186581329266515,-21.658064698967816,494],["FZD10-AS1_440119",0.428610709335468,-22.766033352721298,494],["EP400_57634",0.3960075253478956,-19.27042716248142,494],["RAN_5901",0.4275575766960487,-22.647043541712588,494],["PUS1_80324",0.3960075253478956,-19.27042716248142,494],["ULK1_8408",0.3913528744383241,-18.802059414865663,494],["PIWIL1_9271",0.4190555582678224,-21.701604581780618,494]],"bottom":[]},"para":{"top":[["LINC02418_100190940",0.40984901020193903,-20.707745051905572,494],["TMEM132D-AS2_101927735",0.3896949339460648,-18.637020295221838,494],["LINC02419_105370078",0.40984901020193903,-20.707745051905572,494],["ADGRD1-AS1_105755954",0.41201565726196904,-20.93887804986069,494],["LINC02415_107161159",0.4055124446289653,-20.250169598233608,494],["FZD10_11211",0.40986639508301936,-20.70959292833633,494],["LINC01257_116437",0.39847390694127666,-19.521628205510826,494],["TMEM132D_121256",0.38898220872246525,-18.566359353673285,494],["STX2_2054",0.40535464740477783,-20.233645495688613,494],["RIMBP2_23504",0.40984150941710057,-20.706947810761136,494],["TMEM132D-AS1_283352",0.38898220872246525,-18.566359353673285,494],["ADGRD1_283383",0.41170487490547164,-20.905620845772674,494],["LINC02370_338797",0.3938804353186824,-19.05546944717111,494],["FZD10-AS1_440119",0.40986639508301936,-20.70959292833633,494],["RAN_5901",0.41170487490547164,-20.905620845772674,494],["PIWIL1_9271",0.4098568887586384,-20.70858246724549,494]],"bottom":[]}}}
{"depmap_gene_tpm":{"corr":{"top":[["RAN_5901",0.2292181618788705,-6.548860503410903,491],["PUS1_80324",0.24464872660030418,-7.398045000504432,491]],"bottom":[["DPF1_8193",-0.2918939244893397,-10.373184058104643,491],["SNTA1_6640",-0.3281471357365925,-13.063820959756468,491],["USP11_8237",-0.3527429632077332,-15.10600143889501,491],["SEPT4_5414",-0.30608704100264816,-11.382698462278931,491],["RNF8_9025",-0.29509587976511475,-10.59610777604309,491],["UNK_85451",-0.3120923766362647,-11.826649017171595,491],["NACAD_23148",-0.29303935332438225,-10.452610111782302,491],["CMTR1_23070",-0.31540414365741193,-12.075818946718327,491],["FAM171B_165215",-0.2936098774608863,-10.492304118919655,491],["ZNF599_148103",-0.32073420952884063,-12.483391931390132,491],["RNF20_56254",-0.29161035755399983,-10.353575947316315,491],["ZNF483_158399",-0.3141211406783328,-11.978920193814862,491],["DAND5_199699",-0.3075694717184369,-11.49134973528395,491],["TOX_9760",-0.30650034677844323,-11.412929093195851,491]]},"para":{"top":[["RAN_5901",0.2387408323699978,-7.066009346714022,491],["UGT2A3_79799",0.2235354649731712,-6.250737024013834,491],["PUS1_80324",0.24431876690360854,-7.379272655603742,491],["CYP4F2_8529",0.2317063410694855,-6.681852414787101,491]],"bottom":[["SNTA1_6640",-0.34831881135746995,-14.72520763735029,491],["USP11_8237",-0.3526569231661935,-15.098538497411509,491],["SEPT4_5414",-0.31761169297182806,-12.243639049702084,491],["GOSR2_9570",-0.31588885923120524,-12.112548690883889,491],["PPP2R5D_5528",-0.3080152322736241,-11.524140736218177,491],["MEA1_4201",-0.3161399319005631,-12.131600198585156,491],["C22orf23_84645",-0.3120277653070399,-11.821818643979116,491],["CHN1_1123",-0.3086544091190637,-11.571256820388689,491],["UNK_85451",-0.3340346835057284,-13.536226670669405,491],["CMTR1_23070",-0.3160885193991415,-12.127697534994182,491],["KRBOX4_55634",-0.3200269340829895,-12.4288412849289,491],["ZNF599_148103",-0.3241173617843754,-12.746318389181363,491],["COG1_9382",-0.3135617722944323,-11.936819958001777,491],["BPGM_669",-0.3053573634466717,-11.329443466999491,491],["MAGI2_9863",-0.31948428307937715,-12.387085044803802,491],["FAM200A_221786",-0.3135785954537111,-11.938084842470909,491]]}}}
{"avana":{"corr":{"top":[["DEPDC4_120863",0.2509632837617749,-5.745612774952546,353],["KCNC2_3747",0.3004717096007157,-8.072410366403997,353],["NUP50_10762",0.36821546195150373,-12.049672506741759,353],["NUP58_9818",0.24654985137691485,-5.5601000960587355,353],["NUP62_23636",0.2579627453747496,-6.046988437124362,353],["PHETA1_144717",0.2392075733231297,-5.259130906807504,353],["RANBP3_8498",0.23390785821435192,-5.0477708065885185,353],["TCTN1_79600",0.23709948697873762,-5.174470020981613,353],["TMPO_7112",0.27518153711887566,-6.82642423069054,353],["TWIST1_7291",0.24607400078404576,-5.483747347760641,349],["UBALD1_124402",0.2645190221479553,-6.3373375482522984,353],["UBE3B_89910",0.28645309843423034,-7.366601889245457,353],["VDAC2_7417",0.27323854802995395,-6.735726413956935,353],["ZNF664_144348",0.23297126439732502,-5.0109268753819425,353]],"bottom":[["BMT2_154743",-0.1960152159664075,-3.676182964983882,353],["CNKSR2_22866",-0.21190402464602628,-3.8522313085810547,318],["COPG1_22820",-0.23756171424575798,-5.19296653670813,353],["FCMR_9214",-0.23631403449806201,-5.143124903984759,353],["NFYA_4800",-0.2550863548636623,-5.861315298934598,349],["NPRL2_10641",-0.23291988769875202,-5.008910212799923,353],["OR11H4_390442",-0.20873795838604617,-4.1098484445690415,353],["PLEKHO1_51177",-0.2183384821073915,-4.4549080114800566,353],["TMEM211_255349",-0.20964771948510888,-4.141884590357987,353]]},"para":{"top":[["DEPDC4_120863",0.2529688509255345,-5.8310649471804625,353],["FAM207A_85395",0.2278750061920503,-4.813109716663734,353],["GTF2H3_2967",0.22792709666560132,-4.766493884999821,349],["KCNC2_3747",0.26350946787193996,-6.292117317627763,353],["NUP50_10762",0.3521794384031606,-11.019251901582562,353],["NUP54_53371",0.247111613877737,-5.583520269477247,353],["NUP62_23636",0.23427305493541983,-5.062178285722442,353],["PAH_5053",0.23120115078484937,-4.941709160582722,353],["RIMBP2_23504",0.22548639409464033,-4.721932696893371,353],["TCP11L2_255394",0.2502814234149151,-5.716724598516581,353],["TMPO_7112",0.26137618730475304,-6.197176462806215,353],["UBE3B_89910",0.2626768652256617,-6.254963643659976,353]],"bottom":[["BRAP_8315",-0.28901910092637956,-7.49295263577127,353],["COPG1_22820",-0.24006044187786785,-5.293603432300388,353],["NFYA_4800",-0.23309089988180937,-4.964817711201656,349],["OR11H4_390442",-0.2624547992211933,-6.245075698881397,353]]}}}
{"drive":{"corr":{"top":[["NUTF2_10204",0.6612746256783313,-27.931619695630783,217],["APC2_10297",0.5022764897359718,-14.352273574279023,214],["ABCA10_10349",0.543347568041772,-17.108286714171022,214],["COL8A1_1295",0.44577401743579637,-11.117234112549864,214],["CSF2RB_1439",0.46691215842269607,-12.25846913434226,214],["ADRA2C_152",0.5536854524639491,-17.863040194267047,214],["FCN1_2219",0.5352056066674776,-16.903242943148836,219],["EHF_26298",0.4772598482350048,-13.017733969593618,217],["RAN_5901",0.7065441464850551,-33.402426039572056,217],["FOXL2_668",0.5258976023718112,-16.105536968808337,217],["PANK3_79646",0.4973381784784734,-14.170593828033752,216],["FOXN1_8456",0.548008779168914,-17.602461472472168,216],["GLYR1_84656",0.5801163028646457,-20.186717708513164,217],["CAV1_857",0.4709467595030637,-13.15035247258657,226],["CREG1_8804",0.48491855017576413,-13.412851465098356,216],["ZBTB47_92999",0.48278700641488714,-13.16862721098445,214]],"bottom":[["CORO1A_11151",-0.3825138126436489,-8.244019388394985,217],["DNAH5_1767",-0.3782500109191918,-8.062366740038703,217],["PHC1_1911",-0.3974895465983763,-8.903029825163813,217],["FCGR3B_2215",-0.3759746711028511,-7.93243960814411,216],["TTC9_23508",-0.3640017737213447,-7.442195827467988,216],["BRWD3_254065",-0.38289997542942916,-8.260600432324994,217],["TBC1D26_353149",-0.3784342217953792,-7.966575080159958,214],["LAMA3_3909",-0.3880479075450224,-8.483709029994511,217],["ARHGEF4_50649",-0.41375056638690616,-9.656790896495197,217],["STK26_51765",-0.43141868492124696,-10.477221625867918,216],["GNB1L_54584",-0.36337420529862,-7.448753587420023,217],["TLE4_7091",-0.3969876653671447,-8.880406440089567,217],["TNKS2_80351",-0.38553484996227017,-8.374312822364043,217],["ARHGEF6_9459",-0.35816406620797936,-7.241096758984107,217],["SLC23A2_9962",-0.37333774364772043,-7.755628666078868,214],["RCE1_9986",-0.3735610562374109,-7.865597142224387,217]]},"para":{"top":[["NUTF2_10204",0.5653933997609377,-19.003915333717558,217],["APC2_10297",0.4416551845246184,-10.903859791054563,214],["ABCA10_10349",0.4424544726042073,-10.945042755324652,214],["ADRA2C_152",0.43814341314749294,-10.72418456797685,214],["FCN1_2219",0.47751089112806366,-13.146787395750788,219],["FOXF1_2294",0.37336941493496634,-7.857621250330927,217],["EHF_26298",0.3677804313039569,-7.627282101334012,217],["PIPOX_51268",0.34645723769925996,-6.701720654362997,214],["RAN_5901",0.6673221815810005,-28.6069155615942,217],["FOXL2_668",0.43055772089466804,-10.479535091861985,217],["PANK3_79646",0.4514207632731674,-11.515389083767264,216],["FOXN1_8456",0.4417820321134385,-11.006648097845838,216],["GLYR1_84656",0.5155338278353171,-15.405778618287474,217],["CAV1_857",0.3766676006082669,-8.303099968134667,226],["CREG1_8804",0.4186317209349857,-9.848258706417013,216],["ZBTB47_92999",0.4129487532330388,-9.49394871272021,214]],"bottom":[["DNAH5_1767",-0.3064621209896527,-5.3732467112982265,217],["FCGR3B_2215",-0.3496520359393398,-6.880482411857141,216],["ARHGEF4_50649",-0.336491205945721,-6.41635586452331,217],["STK26_51765",-0.4404962744913067,-10.939985400632189,216],["RIN2_54453",-0.30820796094869807,-5.430839516030771,217],["WDR55_54853",-0.3392129851695353,-6.516538206100445,217],["TOP1_7150",-0.37884934439626067,-8.05313885426266,216],["WRN_7486",-0.3039958514553796,-5.226531258385241,214],["TNKS2_80351",-0.3286029361497944,-6.131387233906441,217],["KNDC1_85442",-0.32433789346695224,-5.980604772296161,217],["SLC23A2_9962",-0.342613355142659,-6.558845843867337,214],["MED12_9968",-0.37547056915732147,-7.945352355296474,217]]}}}
{"achilles":{"corr":{"top":[["SNU13_4809",0.42472234090335087,-22.634154475390247,501],["TMEM5_10329",0.4251060102916202,-13.208445041280338,285],["GPR87_53836",0.41928632458246606,-22.0238100849427,501],["ORM2_5005",0.43331805186659883,-23.622160845790333,501],["NR5A2_2494",0.48738345950070294,-30.525155004714332,501],["NUP88_4927",0.49559046705256904,-18.344190933971504,285],["CDK16_5127",0.42391532486685735,-22.54284151683739,501],["STARD3_10948",0.4180755216610054,-12.75842480614308,285]],"bottom":[["LRRC45_201255",-0.2817022020469332,-5.871329184379847,285],["NDUFAF5_79133",-0.29033238417941304,-6.213896691411274,285],["RMDN1_51115",-0.31640021265095525,-7.319470489119505,285],["FAM133B_257415",-0.29987689870093026,-6.606189764073271,285],["FNDC1_84624",-0.2987808896241874,-6.560416984121269,285],["RNF19B_127544",-0.28815452280823584,-10.30880411603047,501],["KCNQ1OT1_10984",-0.3200194159084692,-7.481605113188442,285],["RPL18A_6142",-0.4477219271460642,-14.72894759823561,285],["MTIF2_4528",-0.3249219319558678,-7.704672296514963,285]]},"para":{"top":[["STARD3_10948",0.44878478602239325,-14.803223726500088,285],["NCEH1_57552",0.3840399096555234,-18.32663222134044,501],["GPR87_53836",0.43610626400575087,-23.948766376889942,501],["ORM2_5005",0.3892941873897163,-18.850075772285784,501],["NR5A2_2494",0.46275577515327854,-27.227582310861305,501],["NUP88_4927",0.4454495358961078,-14.571011409544987,285],["CDK16_5127",0.41927526077296784,-22.02257915425369,501],["TMEM107_84314",0.4140228755379499,-12.503740932232878,285]],"bottom":[["WDR48_57599",-0.2699480703685934,-5.422948883439137,285],["FAM133B_257415",-0.287095015023819,-6.084051833483558,285],["RPS21_6227",-0.2739165065538181,-5.572010618845502,285],["RPL18A_6142",-0.3031254754650383,-6.742975643965676,285],["KCNQ1OT1_10984",-0.2791794368646011,-5.77333909370464,285]]}}}
{"ccle_rrbs_tss1kb":{"corr":{"top":[["ITIH5_10_7661636_7662636",0.24064747534754993,-5.141449342653531,340],["SNORA80D_7_6055507_6056507",0.25622726480613245,-6.246989072295142,371],["MIR5195_14_107259214_107260214",0.2524650531851504,-6.091912286813202,372],["ZNF470_19_57077889_57078889",0.24746119125708077,-5.883732777931621,373],["ZNF733P_7_62764434_62765434",0.27726136793248446,-3.3203682741047733,155],["CYP4F29P_21_15220685_15221685",0.22931183387244783,-5.199910815397152,380]],"bottom":[["PTER_10_16477941_16478941",-0.24654573891881984,-5.574118438326111,354]]},"para":{"top":[["TTC9B_19_40724306_40725306",0.26155701753124017,-6.5401401109208654,374],["MAGEA4_23_151083708_151084708",0.24993261969882857,-2.9036668198511615,164],["BTNL9_5_180466224_180467224",0.26913533502772724,-3.6217244728923252,182],["MIR5195_14_107259214_107260214",0.28480052724498495,-7.645708759489619,372],["CBS_21_44496502_44497502",0.25735293056348535,-6.4063300778218135,378],["MGC4859_7_10819571_10820571",0.2917418334687488,-3.016379827064113,125],["SYT3_19_51143092_51144092",0.25262491266389947,-6.173416111531691,377]],"bottom":[["SLC38A1_12_46663208_46664208",-0.27592659238178163,-7.305351352120331,378]]}}}
{"ccle_gene_tpm":{"corr":{"top":[["RAN_ENSG00000132341.7",0.23434452976895062,-6.659571211696464,478],["PUS1_ENSG00000177192.9",0.25221943455993623,-7.645149108748694,478]],"bottom":[["ZNF483_ENSG00000173258.8",-0.31095738863232203,-11.449254164680585,478],["CMTR1_ENSG00000137200.8",-0.3250414363980616,-12.497844619982454,478],["DAND5_ENSG00000179284.4",-0.31741736489705435,-11.923373782187372,478],["FAM171B_ENSG00000144369.8",-0.30280174508553126,-10.86698744108989,478],["ZNF599_ENSG00000153896.13",-0.3299493507162996,-12.876312111813759,478],["USP11_ENSG00000102226.5",-0.3649569092764833,-15.77958938277617,478],["AC007228.11_ENSG00000269696.1",-0.3043316663704588,-10.974840995857587,478],["UNK_ENSG00000132478.5",-0.30922166044035937,-11.323817417789217,478],["DPF1_ENSG00000011332.15",-0.3049205561452791,-11.01652391150905,478],["SEPT4_ENSG00000108387.10",-0.3298017187501275,-12.864827857325203,478],["RP11-25K19.1_ENSG00000167912.5",-0.3010339511309034,-10.743149786504652,478],["RNF8_ENSG00000112130.12",-0.3010030497118595,-10.740992545521909,478],["RP11-521B24.3_ENSG00000251602.2",-0.30159453462730507,-10.78232886867773,478],["SNTA1_ENSG00000101400.5",-0.3321900360554577,-13.051378409439094,478],["TOX_ENSG00000198846.5",-0.31502550270297186,-11.746484807727061,478]]},"para":{"top":[["RPLP0P6_ENSG00000213553.3",0.2325297754301613,-6.563794677654826,478],["CYP4F2_ENSG00000186115.8",0.24022457403734881,-6.975288434952808,478],["PUS1_ENSG00000177192.9",0.2521860312490793,-7.6432350697369875,478],["RP11-1149O23.2_ENSG00000253930.1",0.2529668012891306,-7.68804539322356,478],["RAN_ENSG00000132341.7",0.2444931245716894,-7.20967370967216,478]],"bottom":[["LINC00680_ENSG00000215190.4",-0.3412202275380225,-13.771564516120318,478],["KRBOX4_ENSG00000147121.11",-0.3235430566320383,-12.383656119121701,478],["CMTR1_ENSG00000137200.8",-0.3214424247298599,-12.224633594442334,478],["CHN1_ENSG00000128656.9",-0.3193782954500751,-12.069577603806895,478],["PPP2R5D_ENSG00000112640.10",-0.3217677733634069,-12.249182235372007,478],["AL592494.5_ENSG00000227082.1",-0.31405020475471523,-11.674811053234373,478],["ZNF599_ENSG00000153896.13",-0.33847621034847614,-13.550221882171515,478],["RP11-739L10.1_ENSG00000265943.1",-0.31354818958749314,-11.638020652825045,478],["TUBA3FP_ENSG00000161149.7",-0.32199846584205205,-12.266606717600569,478],["USP11_ENSG00000102226.5",-0.36217587235463844,-15.535512116667052,478],["UNK_ENSG00000132478.5",-0.3290045244990785,-12.802921586338526,478],["MAGI2_ENSG00000187391.13",-0.3249993140634899,-12.494625920034943,478],["MEA1_ENSG00000124733.3",-0.3178937860033305,-11.958796654450127,478],["SEPT4_ENSG00000108387.10",-0.31708579038382856,-11.898757730470566,478],["AGPAT1_ENSG00000204310.6",-0.31617229487857546,-11.831097601320273,478],["SNTA1_ENSG00000101400.5",-0.35254156827463695,-14.708206275008969,478]]}}}
{"ccle_rrbs_tss_clusters":{"corr":{"top":[["APOL6_1",0.31311458485140103,-5.337657165292493,206],["FZD3_3",0.28307290270890173,-3.7358022603735437,170],["EFCAB2_1",0.33769991431536256,-3.6788104108425337,116],["MAGEA4_5",0.31693494504620323,-8.667719914560848,341],["NTAN1_2",0.34226879165778057,-5.110718533761235,163],["LOC339166_2",0.3483176965118607,-5.722701730625731,178],["UGT2B15_1",0.32511444905241654,-8.112963103723594,301],["XAGE3_3",0.31326750851219337,-4.425551079765823,167],["SIGLEC12_3",0.3051906081416193,-3.7224090210622967,145]],"bottom":[["MFSD3_3",-0.2820239932402008,-7.708192563593081,383],["HDGF_4",-0.2624898186870778,-6.246634413645968,353],["NAT1_3",-0.30737647200651463,-4.113787264304306,160],["HKDC1_2",-0.31306657275156363,-4.561760659267714,173],["MATR3_3",-0.33688933178404196,-10.784581004963686,379],["CCDC114_2",-0.26709076380474395,-6.93560814459139,382],["CNDP2_2",-0.2693500009328531,-4.061081072137189,207],["LRRFIP1_3",-0.29080322835554534,-8.035889272653705,376]]},"para":{"top":[["HNRNPCL3_1",0.3275636983139909,-6.247897191015088,223],["FZD3_3",0.31542597384689697,-4.5540308557761335,170],["CDH3_1",0.334613689279982,-3.1757373616948095,100],["MAGEA4_5",0.32268450534150156,-8.976688207112675,341],["LINC01559_1",0.2920197226942585,-7.163276826143051,329],["ZSCAN12P1_2",0.32733154650232965,-3.8419630122884243,130],["AOC1_1",0.2883225940784305,-3.0965366231903104,132],["LOC339166_2",0.33696884346976785,-5.372688773794751,178],["UGT2B15_1",0.34820257854157766,-9.279751552901573,301],["MIR5195_2",0.2949593318217868,-7.953074565294701,361],["XAGE3_3",0.3038320920478315,-4.183024084655172,167],["ICAM2_4",0.39004717250975873,-4.672392965864376,112],["SIGLEC12_3",0.32231814072448983,-4.113738774360611,145]],"bottom":[["DNMT3B_4",-0.2629800681493469,-5.3781777665787684,298],["PLEKHG3_3",-0.2902674894575439,-8.145128739881024,383],["LRRFIP1_3",-0.26846013423412834,-6.902172660821129,376],["NAT1_3",-0.32765704270839247,-4.630251088081872,160],["HKDC1_2",-0.2859845259527071,-3.8645479396886153,173],["SLC38A1_2",-0.2934633466353816,-8.237940450421366,379]]}}}
{"ccle_rrbs_cgi_clusters":{"corr":{"top":[["23_37362322_37366821-1",0.3344585397176473,-4.351394679371335,143],["1_245131028_245133870-1",0.33769991431536256,-3.6788104108425337,116],["15_25979176_25983392-3",0.3011107804893037,-4.070929277346451,165],["3_127345682_127348270-1",0.34368734598514344,-3.6836933975725845,112],["16_15147204_15152107-2",0.34226879165778057,-5.110718533761235,163],["21_45551021_45553529-1",0.3245237404530266,-5.257156097188859,188],["7_148765960_148768575-3",0.3689974687897543,-4.13760152793957,110],["23_138771796_138776673-2",0.31242731373229654,-4.262499071846487,161]],"bottom":[["5_138629735_138632308-1",-0.34039808836743196,-10.81752987879865,372],["6_33589263_33591909-3",-0.28175586144328124,-3.666272087410143,168],["13_50571009_50573643-1",-0.2763569544889458,-7.415960831621264,383],["19_48822529_48827493-2",-0.26709076380474395,-6.93560814459139,382],["2_238600643_238603430-3",-0.27633122192848913,-7.12989101590775,367],["18_72163487_72166039-2",-0.2693500009328531,-4.061081072137189,207],["1_156718747_156721408-1",-0.2614546403433786,-4.886390242706871,271],["8_80675581_80679996-1",-0.3189374748771953,-5.210089902596567,193],["17_78963416_78965950-3",-0.2799883139915383,-7.511113534047121,378]]},"para":{"top":[["23_37362322_37366821-1",0.2892411966453131,-3.3382741778158778,143],["3_127345682_127348270-1",0.3728368544135657,-4.287691175434229,112],["15_41911333_41913847-3",0.2971123546717098,-3.438756178590783,140],["2_72374055_72376615-3",0.2832249864451378,-7.3967621988926515,363],["5_180480272_180482959-2",0.2788621643998725,-5.779374292485702,286],["23_30324439_30327053-3",0.2810030005033275,-2.7457868335145452,121],["11_75376416_75379149-3",0.30070024043503024,-2.8051477204419344,108],["8_28352008_28354560-3",0.31542597384689697,-4.5540308557761335,170]],"bottom":[["19_1260799_1263334-2",-0.30283254891867023,-3.402805035124317,133],["6_33589263_33591909-3",-0.2629422721402633,-3.240865064218722,168],["7_148844905_148847556-3",-0.2686429689221142,-2.8054254374982337,136],["2_238600643_238603430-3",-0.263845156153876,-6.534437138625169,367],["14_65171442_65174007-3",-0.2769154795139841,-7.337270731947843,377],["12_46662231_46665408-2",-0.2934633466353816,-8.237940450421366,379]]}}}
