{"depmap_hotspot":{"corr":{"top":[["B4GALT5",0.13098489313837702,-2.446865458973336,12.0,481.0],["BBS12",0.15252448114109543,-3.168092664029549,24.0,469.0],["BRI3BP",0.11562964395008761,-1.9920603849085559,9.0,484.0],["GDI2",0.11713604674075846,-2.0345344024566563,11.0,482.0],["IL27RA",0.13909771088142214,-2.706960348640832,19.0,474.0],["KLK10",0.15648341708414548,-3.3114559691341863,9.0,484.0],["OR51H1P",0.14328792557398448,-2.846738992667368,8.0,485.0],["PLSCR2",0.12365146459236685,-2.223590209543317,12.0,481.0],["PTX3",0.12208274464085868,-2.1772740607596215,9.0,484.0],["RAB13",0.1303504247789067,-2.4271063809455,8.0,485.0],["RNMT",0.1327080592901764,-2.500954016116719,8.0,485.0],["SIGLEC15",0.12226423225089196,-2.182606511869659,9.0,484.0],["SPEF1",0.11456410586850042,-1.962295886059593,9.0,484.0],["TAF15",0.17680476322900393,-4.1013937412359605,20.0,473.0],["VIM",0.11283585366815328,-1.9145097139788225,12.0,481.0],["ZC4H2",0.11346524048739036,-1.9318420976259594,9.0,484.0],["ZNF214",0.12715610644023137,-2.3289006003601083,14.0,479.0],["ZNF844",0.11325047746099673,-1.9259188144830253,13.0,480.0]],"bottom":[["BST1",-0.16557286081079509,-3.6535264883844554,10.0,483.0],["C17orf102",-0.15831483583575415,-3.3789271895152866,8.0,485.0],["CBWD5",-0.11162652192478494,-1.8814316979080972,9.0,484.0],["DDX47",-0.12930422862818597,-2.3947083462262477,10.0,483.0],["MTFR1",-0.11916172825401264,-2.0923802697456844,12.0,481.0],["NPRL2",-0.15324166801502262,-3.1938122000535434,10.0,483.0],["PPP2R3C",-0.13009314067448607,-2.4191177885504573,10.0,483.0],["TAS2R13",-0.12178468858327111,-2.168531315450008,10.0,483.0],["TRIM47",-0.15437153905111936,-3.2345569397435856,21.0,472.0]]},"para":{"top":[["AGTR1",0.11658015648361378,-2.312372272234128,12.0,481.0],["ANGPTL6",0.1202177790334857,-2.4153449541925087,13.0,480.0],["B4GALT5",0.11755127242417543,-2.339595401741059,12.0,481.0],["CSHL1",0.12074208194316366,-2.4303425524964264,12.0,481.0],["HSPB11",0.11306430730048482,-2.2151627321480767,9.0,484.0],["IL27RA",0.14638131461356724,-3.232812055071983,19.0,474.0],["KLK10",0.14218209265517656,-3.09194504278487,9.0,484.0],["OR51H1P",0.12961316360167255,-2.692842246578406,8.0,485.0],["PLSCR2",0.12712370098114018,-2.6178351762407717,12.0,481.0],["PTX3",0.11726961816523919,-2.3314846790309973,9.0,484.0],["RNMT",0.11624574855659148,-2.302757390882245,8.0,485.0],["RXFP4",0.12033488213094291,-2.4185931325175036,11.0,482.0],["SPEF1",0.1219007832947788,-2.4635877776216515,9.0,484.0],["TAF15",0.15073627055975414,-3.3821076857977124,20.0,473.0],["TYR",0.15218114255170004,-3.4324707224805766,20.0,473.0],["ZC4H2",0.11993120732014703,-2.4068922534597132,9.0,484.0],["ZNF385D",0.15668041630893986,-3.5918396953573977,16.0,477.0],["ZNF844",0.11354642614594486,-2.2285628829339768,13.0,480.0]],"bottom":[["AC074212.3",-0.11158949596559957,-2.1754208517138887,13.0,480.0],["ACOT8",-0.11155342722002407,-2.174346626821699,11.0,482.0],["BST1",-0.17127137555454575,-4.136826540189564,10.0,483.0],["C17orf102",-0.1504257212035078,-3.3706350965256022,8.0,485.0],["DDX47",-0.12112344032724075,-2.4411977590224967,10.0,483.0],["GPKOW",-0.13128446349325718,-2.74427051925761,10.0,483.0],["GSTT2",-0.13321756598377446,-2.804310106004881,11.0,482.0],["KRTAP10-12",-0.11419776782105044,-2.24624906809374,10.0,483.0],["MTFR1",-0.11648766925117934,-2.3097892076267037,12.0,481.0],["NPRL2",-0.14589409381653456,-3.215892486614891,10.0,483.0],["OR6S1",-0.1279560860730501,-2.642882189943357,12.0,481.0],["POU2F3",-0.11768171329111923,-2.343360140659168,14.0,479.0],["PPP1R37",-0.17284138612464262,-4.198732984375948,23.0,470.0],["PPP2R3C",-0.1311833587851376,-2.7411544697764367,10.0,483.0],["RBMXL1",-0.12004135391489305,-2.410338377117523,14.0,479.0],["RRNAD1",-0.12823536548345943,-2.6511053027263203,9.0,484.0],["SLC25A45",-0.12750639879737743,-2.629434334798181,14.0,479.0],["SYT5",-0.11915036257147918,-2.3848747547075524,13.0,480.0],["TAS2R13",-0.12395437215458867,-2.523591755645259,10.0,483.0]]}}}
{"depmap_damaging":{"corr":{"top":[["GUCY1B3",0.1182004065911776,-2.0648239180142363,9.0,484.0],["KLHL41",0.10963575334038879,-1.8276233198011873,8.0,485.0],["RAPGEF6",0.11860299713643392,-2.0763411870786026,11.0,482.0]],"bottom":[["DHX29",-0.10458237773741083,-1.6946153523700918,8.0,485.0],["KLK6",-0.151969458498917,-3.1482648665806727,10.0,483.0],["USP24",-0.12524748780297792,-2.2712336536875517,8.0,485.0]]},"para":{"top":[["GUCY1B3",0.11897303522438023,-2.3795857182371236,9.0,484.0]],"bottom":[["A2ML1",-0.11189117548582868,-2.1834626334675273,11.0,482.0],["CEP250",-0.11071829423415289,-2.1516826867999237,8.0,485.0],["DHX29",-0.11015426828288362,-2.136601163241748,8.0,485.0],["DNAH10",-0.12767862437574679,-2.634517989728517,12.0,481.0],["KLK6",-0.1387662118941051,-2.980484918246056,10.0,483.0],["SLC4A3",-0.11183997628922718,-2.1819447339986726,9.0,484.0],["STIM2",-0.12685201816960595,-2.610195521092968,31.0,462.0],["USP24",-0.13220768297751118,-2.772636369232863,8.0,485.0]]}}}
{"prism_primary_logfold":{"corr":{"top":[],"bottom":[]},"para":{"top":[["doramapimod_BRD-K74065929-001-07-2::2.5::HTS",0.23396087804150645,-4.408180537054498,303]],"bottom":[]}}}
{"prism_secondary_logfold":{"corr":{"top":[],"bottom":[["chlorpyrifos_BRD-K08303368-001-10-0::0.00061034::HTS002",-0.24397931358360925,-3.9274145446613526,244]]},"para":{"top":[["GSK1838705A_BRD-K06749501-001-02-1::10::HTS002",0.2594773354971924,-4.548584078462734,254]],"bottom":[["Y-27632_BRD-K44084986-300-08-4::0.15625::HTS002",-0.2305701673959737,-3.2974363429754705,224],["torin-2_BRD-K68174511-001-06-6::0.0024414::HTS002",-0.22185886822546388,-3.4707701549100562,257]]}}}
{"ccle_proteomics":{"corr":{"top":[],"bottom":[]},"para":{"top":[],"bottom":[["AKAP13_Q12802",-0.2718086414232547,-4.900278295088041,251]]}}}
{"depmap_gene_tpm":{"corr":{"top":[["NLRP5_126206",0.18041110787900436,-4.235995131555042,491]],"bottom":[]},"para":{"top":[],"bottom":[]}}}
{"avana":{"corr":{"top":[["FFAR1_2864",0.20228425285323728,-3.8865343383910766,353],["MDN1_23195",0.18708513375473998,-3.38759719455904,353],["NPC1L1_29881",0.2182685732469386,-4.452339290318688,353],["UNG_7374",0.19622600993833492,-3.6831514272324046,353]],"bottom":[["CCL2_6347",-0.19829980715155845,-3.752094296867428,353],["MIA3_375056",-0.24291871987139319,-5.4100662022615085,353],["NRXN3_9369",-0.20170388655193894,-3.8667896921358444,353],["PEX12_5193",-0.22098896757589825,-4.552908054782737,353],["PUS10_150962",-0.21120112610221978,-4.196905170962194,353]]},"para":{"top":[["FBXO46_23403",0.20319263465858323,-3.9175498530356467,353],["FFAR1_2864",0.21983164308956082,-4.509970145769644,353],["GPR143_4935",0.20886690260890178,-3.7548949225100894,318],["NPC1L1_29881",0.20959841420493694,-4.140144827647289,353],["RIMS4_140730",0.20146443824307636,-3.8586595820123324,353],["UNG_7374",0.19489966703455178,-3.6394255795113586,353]],"bottom":[["FBXL4_26235",-0.216822659883517,-4.399396147079055,353],["ITGA6_3655",-0.18819577022988862,-3.4227867388687123,353],["MFSD4B_91749",-0.19411424695579066,-3.6136675291552858,353],["MIA3_375056",-0.21664257520270677,-4.3928269501728066,353],["NRXN3_9369",-0.20848384536752318,-4.100924797574391,353],["PDCD1LG2_80380",-0.18184040970743076,-3.22409631923882,353]]}}}
{"drive":{"corr":{"top":[],"bottom":[["CDC45_8318",-0.2750932944976309,-4.345863097610594,214],["SLF1_84250",-0.27559460631938404,-4.360327518356543,214]]},"para":{"top":[["KCNV2_169522",0.32184132994046866,-6.1154064505115135,226]],"bottom":[["SLF1_84250",-0.33914695993816923,-6.431637551724395,214]]}}}
{"achilles":{"corr":{"top":[["C15orf54_400360",0.2554517400189072,-4.898212004876734,285],["NOMO1_23420",0.3122169035349923,-7.134729678819932,285]],"bottom":[["SSX2&SSX2B_6757&727837",-0.237786904652433,-7.1437295998595935,501]]},"para":{"top":[["C1orf123_54987",0.24016178301910246,-4.377691063352978,285]],"bottom":[["SSX2&SSX2B_6757&727837",-0.22440558760226997,-6.412189170702758,501],["CCDC65_85478",-0.219164927266714,-3.7163378363173414,285]]}}}
{"ccle_rrbs_tss1kb":{"corr":{"top":[["MFGE8_15_89456700_89457700",0.21743620227995158,-4.587840459358382,368]],"bottom":[]},"para":{"top":[["CCNH_5_86708721_86709721",0.19361248684579702,-3.7562780623806575,371],["CCNH_5_86708747_86709747",0.19815376735570783,-3.9135043620552956,371]],"bottom":[["ZNF391_6_27355496_27356496",-0.2590887942253118,-3.238567420082837,173]]}}}
{"ccle_gene_tpm":{"corr":{"top":[["NLRP5_ENSG00000171487.10",0.18079170203313086,-4.152813763356299,478],["IGKV6-21_ENSG00000211611.2",0.1938459319140756,-4.704130994044491,478],["C8orf87_ENSG00000254318.1",0.195811410145577,-4.790407642899544,478]],"bottom":[["IGHVII-49-1_ENSG00000253386.1",-0.17004947925817876,-3.72707562119179,478]]},"para":{"top":[],"bottom":[]}}}
{"ccle_rrbs_tss_clusters":{"corr":{"top":[["UGT8_5",0.23495253959336426,-2.9043263548543528,186],["FBXW9_1",0.3038773121595328,-4.028394328612866,160]],"bottom":[["ZNF280D_3",-0.24230600899378968,-2.894174968305249,174]]},"para":{"top":[["UGT8_5",0.20999286715329996,-2.396011627710009,186],["FBXW9_1",0.2838417397060735,-3.5598523218511513,160]],"bottom":[["AMER1_2",-0.3063869054601704,-3.1998557070654514,121],["TMEM30CP_2",-0.24830792153238893,-3.065094051475919,177],["FMN1_1",-0.2779643830246482,-2.846032022720978,129]]}}}
{"ccle_rrbs_cgi_clusters":{"corr":{"top":[["4_115517422_115520177-3",0.23495253959336426,-2.9043263548543528,186],["4_146680510_146684817-3",0.2719005942478018,-4.2015654053982505,211]],"bottom":[["1_228747005_228751901-1",-0.24210059221279467,-2.776048315518692,166],["15_57023347_57028150-3",-0.24230600899378968,-2.894174968305249,174]]},"para":{"top":[["19_51895623_51899878-2",0.22748101601977647,-2.5575772020691963,171]],"bottom":[["15_33484847_33489290-1",-0.2779643830246482,-2.846032022720978,129],["23_63422198_63425194-2",-0.3063869054601704,-3.1998557070654514,121],["7_101930296_101933089-1",-0.21244991701469357,-4.547915174448796,382]]}}}
