{"depmap_hotspot":{"corr":{"top":[["ACTR1A",0.12079824196456544,-2.1397266027192607,9.0,484.0],["ADTRP",0.12657433546536362,-2.3112429919940634,10.0,483.0],["BCL2L12",0.11650805586101186,-2.0167715546546,13.0,480.0],["C14orf105",0.11553505976753689,-1.9894089492008014,11.0,482.0],["CHRNA7",0.14590641374012084,-2.9359839382716055,12.0,481.0],["CRELD1",0.13309863699903574,-2.513300263637591,11.0,482.0],["DNAJB12",0.14144684715139674,-2.7848646531531664,12.0,481.0],["DPM1",0.12137589446354616,-2.1565700607078213,8.0,485.0],["EGLN1",0.13425568299509366,-2.5500624305846227,11.0,482.0],["GGA2",0.11968925355317102,-2.1075822333507284,17.0,476.0],["GOLGA8Q",0.1361603043758682,-2.6111892097771463,9.0,484.0],["HENMT1",0.11948406155412455,-2.101662334911382,8.0,485.0],["IQCF1",0.11303546734061229,-1.9199980845224118,8.0,485.0],["IRG1",0.11853136780649358,-2.0742895976698406,8.0,485.0],["LHFPL1",0.13723213992240987,-2.645924350317478,9.0,484.0],["LURAP1L",0.11269611860225394,-1.9106725075882605,8.0,485.0],["MPPE1",0.13229024061907857,-2.487782041206996,8.0,485.0],["OR2T11",0.12240319598607355,-2.1866941147644114,12.0,481.0],["RNF148",0.12974166593331665,-2.4082269143779778,10.0,483.0],["SERPINE2",0.13677352109675153,-2.631032184206557,11.0,482.0],["TNFSF11",0.12399880567570849,-2.2339140100194625,11.0,482.0],["UST",0.1207445515597405,-2.138164555128745,12.0,481.0],["VPS37C",0.12014242715208089,-2.1206871191324566,8.0,485.0]],"bottom":[["AGFG1",-0.12571306211156286,-2.28523090856981,14.0,479.0],["HERPUD2",-0.13905969162148232,-2.7057091284777357,10.0,483.0],["NPTXR",-0.15998218522393123,-3.4409894061793325,15.0,478.0],["PCYT1B",-0.14182733319126511,-2.797592835690258,13.0,480.0],["PPP2R5A",-0.13632577636649065,-2.6165358860599683,11.0,482.0],["RAB14",-0.13247858634231627,-2.493715225029791,10.0,483.0],["RASD2",-0.12963663605057696,-2.4049774323356266,9.0,484.0],["SDF4",-0.16534038707704196,-3.6445518869622195,8.0,485.0],["UBAP1",-0.1377268095396259,-2.662036881177205,10.0,483.0],["VCP",-0.13222005217466873,-2.485572894684225,13.0,480.0],["WBP2NL",-0.18857681994608982,-4.601147413743295,8.0,485.0],["WDR45B",-0.14399855668680592,-2.8708145783657644,11.0,482.0]]},"para":{"top":[["ACTR1A",0.124988220455802,-2.553995427126405,9.0,484.0],["ADTRP",0.13305378922280375,-2.799128922814197,10.0,483.0],["ANXA2",0.134049710641238,-2.8304713431364337,13.0,480.0],["BCL2L12",0.13889756016343266,-2.984927758985755,13.0,480.0],["BHMT2",0.11551654752623304,-2.282767752532151,12.0,481.0],["CHRNA7",0.14483499873985664,-3.180417149076799,12.0,481.0],["CRELD1",0.13307281006350272,-2.799793844945534,11.0,482.0],["EGLN1",0.1190803826093998,-2.3827776378394336,11.0,482.0],["GABPB2",0.10947868239089473,-2.1188344038296427,11.0,482.0],["GGA2",0.13310261157951672,-2.8010100572675465,17.0,476.0],["GOLGA8Q",0.11849394324302179,-2.365999728189505,9.0,484.0],["HEMGN",0.11893857495495253,-2.378805455287854,12.0,481.0],["HENMT1",0.11534330125885119,-2.2776851759907113,8.0,485.0],["HPDL",0.11718035084287959,-2.329054775079873,10.0,483.0],["HYAL4",0.1400507044648657,-3.022599036333159,19.0,474.0],["IQCF1",0.11585092458957473,-2.291768637963846,8.0,485.0],["MPPE1",0.12414210565805936,-2.5289393204106694,8.0,485.0],["P4HA3",0.106058833506627,-2.0290943168832136,10.0,483.0],["PNPLA1",0.14059412422683304,-3.040225463715719,16.0,477.0],["PRUNE",0.1456786212416659,-3.209014857160643,17.0,476.0],["RASGRP1",0.1268799009565296,-2.61066735044736,15.0,478.0],["SULT1E1",0.1163783966182627,-2.3066835318847154,11.0,482.0],["TNFSF11",0.11908038260939983,-2.3827776378394336,11.0,482.0],["TNIP3",0.11010592913883727,-2.135528976580568,11.0,482.0],["UST",0.11829116436032992,-2.3604604720383806,12.0,481.0]],"bottom":[["ACTB",-0.10969860281667332,-2.1246177925977916,10.0,483.0],["CDKN2B",-0.12730065082700595,-2.6228430678393853,8.0,485.0],["CITED2",-0.12154111985132827,-2.453321835012983,11.0,482.0],["CPSF7",-0.14284620401994017,-3.114333250301413,16.0,477.0],["DUSP7",-0.10528095415466387,-2.009071006884451,11.0,482.0],["GSK3A",-0.12754358290620588,-2.630322951857991,10.0,483.0],["HERPUD2",-0.12648198352410903,-2.598490052613416,10.0,483.0],["NFKB2",-0.15885907810200317,-3.67062452517579,18.0,475.0],["NPTXR",-0.13733566781102452,-2.9347500223139313,15.0,478.0],["OR51D1",-0.12858558332822143,-2.661854240371228,11.0,482.0],["PCYT1B",-0.1342720890596872,-2.8374543278656352,13.0,480.0],["PPP2R5A",-0.13210781506666802,-2.76979296063826,11.0,482.0],["RAB14",-0.13269992276210482,-2.788107577171476,10.0,483.0],["RASD2",-0.1104027126172629,-2.1433214838075205,9.0,484.0],["RTBDN",-0.10939130878904302,-2.1163827468340113,9.0,484.0],["SDF4",-0.1605217776932472,-3.730658949794517,8.0,485.0],["TCP11L1",-0.13475692414805365,-2.8527624171144557,14.0,479.0],["TUBA4A",-0.15382020249544837,-3.489681633154975,11.0,482.0],["UBAP1",-0.13573306385381007,-2.8833823093474535,10.0,483.0],["VCP",-0.12702255261824003,-2.61485389102499,13.0,480.0],["WBP2NL",-0.16774130950798213,-4.000712927349588,8.0,485.0],["WDR45B",-0.12284386309705508,-2.49114990645539,11.0,482.0],["WDR6",-0.14449323275875517,-3.169278934055412,19.0,474.0]]}}}
{"depmap_damaging":{"corr":{"top":[["ASXL1",0.1316956935656359,-2.469101576704343,9.0,484.0],["DHX29",0.10770512645892298,-1.776203208139551,8.0,485.0]],"bottom":[["AHI1",-0.16387622591042064,-3.588301590930927,11.0,482.0],["CECR2",-0.12560149046359662,-2.2818724758773405,9.0,484.0],["DOT1L",-0.11457794056293306,-1.9626808619042209,9.0,484.0],["IBTK",-0.12531175872129538,-2.2731632571606446,8.0,485.0],["RAD51AP2",-0.12820856735230335,-2.3610228775347815,8.0,485.0],["WDTC1",-0.13332058258349394,-2.520330254602612,8.0,485.0]]},"para":{"top":[["ASXL1",0.13866878802698646,-2.977251024191006,9.0,484.0],["DHX29",0.11088749646694446,-2.1562190428146035,8.0,485.0]],"bottom":[["AHI1",-0.15174546325225383,-3.416816950269983,11.0,482.0],["C11orf57",-0.11072210329985865,-2.151869709236766,9.0,484.0],["RAD51AP2",-0.12605979379634838,-2.5857178157731266,8.0,485.0],["ZNF226",-0.12174108184941188,-2.458962301902281,9.0,484.0]]}}}
{"prism_primary_logfold":{"corr":{"top":[["lofemizole_BRD-K06388517-001-01-2::2.5::MTS004",0.21322320495677768,-3.690923751113623,299],["forodesine_BRD-K16505263-003-02-9::2.49996754::MTS004",0.23258212957902336,-4.310459687116452,299]],"bottom":[]},"para":{"top":[["omarigliptin_BRD-K14171291-001-01-4::2.499985403::MTS004",0.20320125360446345,-3.3714840783537414,297]],"bottom":[]}}}
{"prism_secondary_logfold":{"corr":{"top":[["dihydromyricetin_BRD-K01614093-001-02-6::0.625::HTS002",0.23176604359699596,-3.724412792318536,255]],"bottom":[]},"para":{"top":[],"bottom":[]}}}
{"ccle_proteomics":{"corr":{"top":[["MUS81_Q96NY9",0.2627417451317787,-3.236494238083097,168],["TTF1_Q15361",0.27433414816871954,-4.824288984629442,242],["UHRF1_Q96T88-2",0.28355930239507215,-5.299450242142651,251],["MTA2_O94776",0.2562182947733837,-4.3984992960281675,251],["SETD8_Q9NQR1",0.26297595920037464,-3.0573750026932536,157],["CDK8_P49336",0.2783319869715423,-4.660815287096013,226],["TIGD2_Q4W5G0",0.29426236904943104,-2.6789857527443486,107],["FANCB_Q8NB91",0.2744113890727392,-2.8749099336196453,134],["EXO1_Q9UQ84",0.3022980692931144,-3.4810333596225456,137]],"bottom":[["NAP1L1_B7Z9C2",-0.2915073607966894,-2.8660386938527065,118],["ACAP3_Q96P50",-0.32137802976857216,-4.566010655872394,164],["TSEN15_Q8WW01",-0.24900439010642747,-3.852958352689827,229]]},"para":{"top":[["TTF1_Q15361",0.29747918904759796,-5.607774409559278,242],["UHRF1_Q96T88-2",0.3050119778189857,-6.076220304621651,251],["EXO1_Q9UQ84",0.2792003911005565,-3.0207903017299405,137]],"bottom":[["NAP1L1_B7Z9C2",-0.27959447516233404,-2.663997736731786,118],["ACAP3_Q96P50",-0.3006669577723154,-4.0381816526539955,164],["GFRA1_P56159",-0.3419049388460605,-4.278155477396915,134],["SAMHD1_Q9Y3Z3",-0.3035181992308089,-6.020079425271287,251],["NOS3_P29474",-0.2951485001143012,-3.1857094880453305,130]]}}}
{"depmap_gene_tpm":{"corr":{"top":[["SETSIP_646817",0.21625331524465508,-5.880022806507681,491]],"bottom":[["GUCY1B1_2983",-0.22102416236617906,-6.121463449348968,491],["HOXD1_3231",-0.20267819692869746,-5.222418516627725,491]]},"para":{"top":[["OTOA_146183",0.16908255961977606,-3.777077694357109,491]],"bottom":[["GUCY1B1_2983",-0.2405636590266063,-7.1675356529336,491]]}}}
{"avana":{"corr":{"top":[["HES3_390992",0.21490679525943066,-4.329788863554155,353],["SIAH1_6477",0.21355670748367914,-4.281108490345176,353]],"bottom":[["AGBL5_60509",-0.21474870145764643,-4.324072604064781,353]]},"para":{"top":[["RAB1A_5861",0.20885251776015057,-4.113874924999838,353],["SKA2_348235",0.210418275539847,-4.169126774847407,353]],"bottom":[["AGBL5_60509",-0.26135004154571906,-6.1960180129874916,353]]}}}
{"drive":{"corr":{"top":[["CXCR2P1_3580",0.29639141516138934,-5.027276199309539,216]],"bottom":[]},"para":{"top":[["CXCR2P1_3580",0.2639050594569287,-4.0634861336792465,216]],"bottom":[]}}}
{"achilles":{"corr":{"top":[],"bottom":[["TMEM185A_84548",-0.3084415284572447,-6.970436857177052,285],["MYOM2_9172",-0.2304804350965584,-4.065178729151106,285],["GAD1_2571",-0.23188557578000354,-6.815633678632986,501],["DMTN_2039",-0.31809102628020947,-7.39494896358786,285]]},"para":{"top":[],"bottom":[["TMEM185A_84548",-0.2781859706886669,-5.735015221662221,285],["SNRNP25_79622",-0.2340737115881698,-4.17964382738897,285],["MYOM2_9172",-0.2283584499657778,-3.998421869088421,285],["DMTN_2039",-0.2943423290044884,-6.376978055119429,285],["MRPL17_63875",-0.22324683985754656,-3.8401565807041727,285]]}}}
{"ccle_rrbs_tss1kb":{"corr":{"top":[["C22orf39_22_19435755_19436755",0.20932325354040046,-3.7694322930377084,318],["CWF19L1_10_102027438_102028438",0.1997978410604741,-3.9056433818045075,364]],"bottom":[["CDHR2_5_175968511_175969511",-0.3052513555855773,-3.0642918319818686,116]]},"para":{"top":[["RAD51-AS1_15_40987303_40988303",0.2050788691961379,-4.169976358272391,372]],"bottom":[]}}}
{"ccle_gene_tpm":{"corr":{"top":[["RPL7P53_ENSG00000237475.2",0.18987221188432835,-4.532326082996617,478],["RP11-557B13.1_ENSG00000271024.1",0.16810408951165962,-3.652637822906483,478],["OR4A11P_ENSG00000254663.1",0.17999817553893063,-4.1205078611156525,478],["SETP18_ENSG00000230667.4",0.22544582243789402,-6.197374065192725,478]],"bottom":[["RP11-120J1.1_ENSG00000225472.1",-0.2503642491172292,-7.539258944405139,478],["SLC2A11_ENSG00000133460.15",-0.2118555108423277,-5.527193468491088,478],["GUCY1B3_ENSG00000061918.8",-0.23875099232781946,-6.895391393149334,478]]},"para":{"top":[["RPL7P53_ENSG00000237475.2",0.17954062350313796,-4.101942506176903,478],["None_ENSG00000270099.1",0.17432733650301893,-3.8936243733190543,478]],"bottom":[["GUCY1B3_ENSG00000061918.8",-0.2563583846957136,-7.884435258352041,478],["CTD-2583A14.1_ENSG00000243234.1",-0.2541815910319184,-7.758062624805922,478]]}}}
{"ccle_rrbs_tss_clusters":{"corr":{"top":[["KHDC4_2",0.24791236569870334,-2.5025039377309133,140],["CLDN8_1",0.32445923534433635,-3.134626874653146,105],["PPP2R5C_5",0.2858345605033119,-3.446833857918843,152]],"bottom":[["CCL5_1",-0.24935723309546745,-4.613498795817387,280],["LOC100419583_1",-0.3346543691201455,-3.342563083319266,106],["EIF2S1_1",-0.322173207474529,-3.605032654159427,125]]},"para":{"top":[["KHDC4_2",0.32545317187541917,-4.059410998370082,140],["CLDN8_1",0.3397687873852664,-3.4077165060881884,105],["PPP2R5C_5",0.28184254359722966,-3.3611939400801427,152],["KDR_2",0.23294667988501996,-4.781412725154917,335],["FMN1_1",0.28197809469454044,-2.918624705750909,129]],"bottom":[["CCL5_1",-0.23919454562035133,-4.278403761818948,280]]}}}
{"ccle_rrbs_cgi_clusters":{"corr":{"top":[["1_155902072_155906307-2",0.24791236569870334,-2.5025039377309133,140],["19_14637879_14640459-3",0.2743808335246559,-3.5321674898606625,170]],"bottom":[["14_67824139_67826833-1",-0.322173207474529,-3.605032654159427,125],["1_4724576_4728867-3",-0.24057234885024897,-2.788032844379841,169],["12_133427925_133432579-3",-0.2754175014565666,-3.956859672264246,192]]},"para":{"top":[["1_155902072_155906307-2",0.32545317187541917,-4.059410998370082,140],["4_156678095_156680741-1",0.2592058075415693,-3.3545494863095158,180],["19_14637879_14640459-3",0.27329469964436565,-3.5071900588006932,170],["15_33484847_33489290-1",0.28197809469454044,-2.918624705750909,129]],"bottom":[]}}}
