{"depmap_hotspot":{"corr":{"top":[["BHMT",0.16272388673263666,-3.5443622018358805,10.0,483.0],["CCAR2",0.16734870135567606,-3.722475583631453,27.0,466.0],["CCDC120",0.15875561453264803,-3.395274929601934,24.0,469.0],["CCDC171",0.16398946482230248,-3.5926351954606646,39.0,454.0],["CHPF2",0.15980178864325378,-3.434245400826226,25.0,468.0],["CHRNA10",0.1914006798491666,-4.725707191752723,11.0,482.0],["CILP",0.15766130078313528,-3.3547665769085504,46.0,447.0],["COL9A3",0.1586155282457876,-3.3900747743728195,34.0,459.0],["CUX2",0.16876313867122839,-3.7778910417369334,65.0,428.0],["DNM1",0.18118911505964724,-4.283862038443228,18.0,475.0],["ELP2",0.16708654227681957,-3.712253168721416,19.0,474.0],["FAM162B",0.169351026703804,-3.8010538108686056,8.0,485.0],["FBXW10",0.16602076902916107,-3.670851464528795,30.0,463.0],["FDXACB1",0.19466461558380385,-4.8719552675020195,14.0,479.0],["FLI1",0.16171137352390974,-3.5059948703452117,22.0,471.0],["FNBP1",0.16937407106476654,-3.8019633170483997,16.0,477.0],["GADL1",0.16379733743574104,-3.585284228052541,21.0,472.0],["GNPTAB",0.1773733187806432,-4.124812268788924,38.0,455.0],["GPR89A",0.19021261859508412,-4.673079931778304,15.0,478.0],["HIAT1",0.16276766162107625,-3.546026039543616,21.0,472.0],["HIVEP3",0.1873025540233257,-4.545535936513374,66.0,427.0],["ITGA10",0.18674702033984053,-4.521407107974462,41.0,452.0],["KIAA1239",0.19236413377401093,-4.768622498608487,39.0,454.0],["KIF26A",0.16790370924230932,-3.744167199491336,58.0,435.0],["LETMD1",0.16811789583624165,-3.752556555170954,8.0,485.0],["MAP1B",0.15858990903271775,-3.3891242240538446,56.0,437.0],["MAST2",0.1847469856498783,-4.435119311558257,59.0,434.0],["MUC4",0.1575905366760337,-3.352156070258267,181.0,312.0],["MYO1G",0.16594180830642288,-3.6677940737309602,30.0,463.0],["NAV2",0.170623834603732,-3.8514648417880983,59.0,434.0],["NBEA",0.16128622818461225,-3.489951716706166,80.0,413.0],["NEDD4L",0.16397510282686437,-3.5920854120339505,22.0,471.0],["NFIX",0.1608203840758395,-3.472418187081428,20.0,473.0],["NSRP1",0.17542322738861943,-4.044790653705188,11.0,482.0],["NTRK1",0.1701409867798305,-3.8322987973648535,31.0,462.0],["OR13A1",0.17689088445050022,-4.104936376373818,9.0,484.0],["OSMR",0.19472941040851777,-4.874883337585882,33.0,460.0],["PAQR6",0.2156143508203564,-5.869595452933701,11.0,482.0],["PCDHB11",0.16629978165617562,-3.6816659548609434,48.0,445.0],["PKD2",0.1620312727179614,-3.5180925852505487,23.0,470.0],["PRSS21",0.17421063838553436,-3.9954612116602988,13.0,480.0],["PRUNE2",0.1574814388415308,-3.3481335575467597,85.0,408.0],["PTX4",0.16274873689129016,-3.545306678787459,23.0,470.0],["RGS3",0.1660986624282174,-3.6738688747732144,31.0,462.0],["RLTPR",0.1583004609427259,-3.378394761850517,43.0,450.0],["RPS6KL1",0.1723518043330527,-3.9204787227239497,25.0,468.0],["SHANK3",0.18840777228659658,-4.593748546611657,48.0,445.0],["SMARCA4",0.16556486394178876,-3.6532175731776912,84.0,409.0],["SMPD1",0.17254946854142406,-3.928415614027624,16.0,477.0],["SUPT5H",0.15828700490763495,-3.3778964083059,30.0,463.0],["TBC1D14",0.19922754169728246,-5.080521901473005,16.0,477.0],["TFAP4",0.1629204421066886,-3.551836359740284,14.0,479.0],["TMEM2",0.16142249655658528,-3.4950895890406755,32.0,461.0],["TMEM39A",0.15899218426300712,-3.404066369257953,17.0,476.0],["TRIM77",0.17734202921285386,-4.123521582257826,23.0,470.0],["UGCG",0.1829674950329094,-4.359109196582333,14.0,479.0],["WDFY4",0.17882255816148837,-4.184833776273291,93.0,400.0],["XYLT2",0.15778290493071187,-3.3592551320678714,39.0,454.0],["ZC3H7B",0.17902074376157368,-4.193078471852797,34.0,459.0],["ZFHX2",0.19001035473560657,-4.664152469496594,60.0,433.0],["ZNF148",0.17065310427058042,-3.852628328136699,22.0,471.0],["ZNF540",0.16374466669882376,-3.5832704145278673,21.0,472.0],["ZNF850",0.17498661671541574,-4.026991010072874,27.0,466.0]],"bottom":[]},"para":{"top":[["ATXN3",0.11929146181310275,-2.3885501998468754,8.0,485.0],["BHMT",0.14720842185112465,-3.2604084252847536,10.0,483.0],["CCNK",0.15428574982473636,-3.5060689026041745,10.0,483.0],["CD72",0.11816341016475189,-2.3565631757597783,8.0,485.0],["CEACAM6",0.12019390313178342,-2.414319316368747,8.0,485.0],["CHDH",0.1381863269229795,-2.9615907209013606,8.0,485.0],["CHRNA10",0.17495356226389855,-4.281358188470853,11.0,482.0],["COQ9",0.11449724230761164,-2.2543239373198425,8.0,485.0],["CTSC",0.1218859806043097,-2.463066956473958,8.0,485.0],["CTSE",0.1322449284212026,-2.7739730248408723,10.0,483.0],["DNM1",0.1713975545862357,-4.142218809722775,18.0,475.0],["ELMO2",0.14847223041784102,-3.3035394965302225,10.0,483.0],["FAM154A",0.14247654946054172,-3.1019005676628923,12.0,481.0],["FAM162B",0.16424431999988423,-3.868588475192158,8.0,485.0],["FAM213A",0.11996829280211324,-2.4078620706266336,8.0,485.0],["FAM217A",0.12882088606989958,-2.6688374475044396,9.0,484.0],["FBXL8",0.1500142572054519,-3.3567480417960347,12.0,481.0],["FDXACB1",0.16457417078497777,-3.881451535233769,14.0,479.0],["FNBP1",0.1603400100260427,-3.7245887669480657,16.0,477.0],["GAPDHS",0.13616687048215007,-2.897072807629187,9.0,484.0],["GPR89A",0.18227053865776863,-4.576843139908153,15.0,478.0],["GSTO2",0.12245000642848515,-2.479441087396267,8.0,485.0],["HPD",0.11991189021969569,-2.40624931851593,8.0,485.0],["IMPA1",0.15153179645790965,-3.4095485512349444,14.0,479.0],["IRAK4",0.14441878090401553,-3.1664798236247957,12.0,481.0],["KAZALD1",0.1273570310988113,-2.624537125798993,8.0,485.0],["KCMF1",0.14405671422418537,-3.15444294603252,13.0,480.0],["LACTB2",0.12070152637354131,-2.4288846164627462,8.0,485.0],["LETMD1",0.15476868615373704,-3.5229909188401436,8.0,485.0],["MFSD9",0.15317422778267809,-3.4670351651786464,13.0,480.0],["MMD2",0.12174106051316545,-2.4589616845395454,9.0,484.0],["MST4",0.13277167901089543,-2.7901583716693548,8.0,485.0],["MTFR1L",0.12688638009832512,-2.61058998900444,10.0,483.0],["NKX3-1",0.13728473767531862,-2.932742901380327,9.0,484.0],["NOG",0.15433059535595037,-3.5078729063937257,13.0,480.0],["NOXRED1",0.12476251230760436,-2.5472289316979198,8.0,485.0],["NSRP1",0.1446527246737915,-3.1742421344409744,11.0,482.0],["OR13A1",0.16650898001101072,-3.9539903542673174,9.0,484.0],["OR2AT4",0.14436322622547834,-3.164555087877672,11.0,482.0],["OSM",0.11934786439552027,-2.390156093473467,8.0,485.0],["PAQR6",0.19545970235274493,-5.136277254835323,11.0,482.0],["PCED1A",0.14907885852986488,-3.3243560877088316,10.0,483.0],["PRSS21",0.1496161737110712,-3.3430653499824694,13.0,480.0],["QRSL1",0.1527426299474746,-3.45179985920836,12.0,481.0],["RAB15",0.13333570483507085,-2.8077443536757825,8.0,485.0],["SECTM1",0.15533271197791246,-3.5430557084328043,8.0,485.0],["SFRP4",0.1555634899010913,-3.5516463672713443,12.0,481.0],["SKAP2",0.1209425839466165,-2.435910304349212,9.0,484.0],["SMPD1",0.16042044143312878,-3.727536687203552,16.0,477.0],["SPRY2",0.13423078053451895,-2.836037880442708,11.0,482.0],["TBC1D14",0.1904615719797688,-4.920329432256141,16.0,477.0],["TRIM49C",0.1253608209481874,-2.565032924931483,9.0,484.0],["TSNAX",0.11731737142848876,-2.332736362291456,8.0,485.0],["UGCG",0.17856040114887317,-4.42573175294666,14.0,479.0],["USP39",0.1208143315383764,-2.4321282143356715,8.0,485.0],["VSTM2L",0.11545608620870984,-2.2808099264134287,8.0,485.0],["XBP1",0.13271527642847786,-2.788403242011162,8.0,485.0],["ZNF385C",0.13316928622403748,-2.8028033572972544,11.0,482.0],["ZSCAN16",0.12267561675815529,-2.4860082414246776,8.0,485.0]],"bottom":[["HIST2H2AC",-0.13078039966433677,-2.72914125556039,18.0,475.0],["TFEB",-0.1348057736380074,-2.8542527884626168,13.0,480.0]]}}}
{"depmap_damaging":{"corr":{"top":[["ANK2",0.13581229077807552,-2.5999631213738597,11.0,482.0],["ATG2B",0.14493610913702057,-2.902742779419028,10.0,483.0],["B4GALNT4",0.13204964912119088,-2.4802138321092437,14.0,479.0],["BAG6",0.16932761776257801,-3.8001300360319177,10.0,483.0],["BRINP3",0.19197937916871471,-4.751458777229624,12.0,481.0],["BRSK1",0.1439282792996125,-2.8684288451071605,9.0,484.0],["BSN",0.12828118916578773,-2.3632478649768713,10.0,483.0],["CCDC73",0.1408631273739258,-2.765397550045149,16.0,477.0],["CDH24",0.12462631869952236,-2.2526283496031896,8.0,485.0],["CENPH",0.12537568284211795,-2.275083296594584,8.0,485.0],["CHD4",0.16496866931292853,-3.6302265247389887,8.0,485.0],["CLASP2",0.14013324232388988,-2.7411575042153746,12.0,481.0],["COL5A1",0.1349561611208718,-2.572454867314367,8.0,485.0],["CTCF",0.1531570366563993,-3.1907713913832563,11.0,482.0],["DAZAP1",0.13534296198844972,-2.58486405571869,9.0,484.0],["DNAH17",0.14511556616965365,-2.9088755473074284,11.0,482.0],["EIF4G3",0.16392786102342652,-3.590277295040171,9.0,484.0],["EPHA3",0.13425422508856713,-2.5500159326170766,8.0,485.0],["FAT4",0.16836927000399346,-3.7624154304292032,17.0,476.0],["FXR1",0.1473254122847283,-2.9849591654714924,8.0,485.0],["HELZ2",0.12751603204612924,-2.3398600432742565,10.0,483.0],["ITGA10",0.14245471113783728,-2.8186473252370137,12.0,481.0],["ITGAD",0.1554187616763417,-3.2725681392316113,10.0,483.0],["ITGAM",0.12239534374890804,-2.186463036078619,11.0,482.0],["KDM3B",0.13770699151774174,-2.6613903695328522,8.0,485.0],["KIAA1107",0.1488620266360074,-3.0384803401213483,20.0,473.0],["KIF26A",0.13901343132898855,-2.704187106907734,9.0,484.0],["MAP9",0.15279594136209035,-3.177814614978355,11.0,482.0],["MMS22L",0.13687829245650435,-2.6344303879144486,9.0,484.0],["NAT10",0.12733324451198863,-2.3342909499884423,10.0,483.0],["NAV1",0.13513878719543188,-2.578309883492313,11.0,482.0],["NELFE",0.13205356077107114,-2.4803367827681977,8.0,485.0],["NLRC5",0.15438745790703748,-3.235132970128186,8.0,485.0],["NUP214",0.14152923445824014,-2.7876181009502026,12.0,481.0],["PDCD11",0.17853336352811483,-4.1728188630217495,9.0,484.0],["RBM44",0.1252178380271097,-2.2703437676211515,9.0,484.0],["RNF43",0.1360881952791011,-2.6088610482136185,16.0,477.0],["RP11-1055B8.7",0.1574528773277787,-3.347080902557639,12.0,481.0],["RPRD2",0.13525589387701942,-2.5820680286012,13.0,480.0],["SLC23A2",0.13363765965478588,-2.530391391291738,8.0,485.0],["SPECC1",0.12508492046175074,-2.266356714965494,11.0,482.0],["SPG11",0.12491449783929044,-2.261249990931922,10.0,483.0],["TRIP11",0.18791124483636193,-4.572054241818652,9.0,484.0],["XPO7",0.122563462028403,-2.191413260674233,9.0,484.0],["ZFHX2",0.15358788032020124,-3.2062677514472036,9.0,484.0],["ZFHX4",0.1370393741493562,-2.639659501346493,24.0,469.0],["ZNF540",0.12239896233539713,-2.1865695236701406,9.0,484.0]],"bottom":[]},"para":{"top":[["ANK2",0.13022605199952073,-2.7118210285586453,11.0,482.0],["ATG2B",0.14564129922839636,-3.2073700411084363,10.0,483.0],["B2M",0.11229754159332746,-2.194239122535512,8.0,485.0],["B4GALNT4",0.13471399798353234,-2.8514095690340096,14.0,479.0],["BAG6",0.14897775384452758,-3.320881533368669,10.0,483.0],["BRINP3",0.15801440100833208,-3.639698299250998,12.0,481.0],["BRSK1",0.1310566204562367,-2.7371687647938154,9.0,484.0],["BSN",0.12754356055301766,-2.630322279505371,10.0,483.0],["CDH24",0.1246497071427693,-2.5438977950304156,8.0,485.0],["CHD4",0.15093331054934414,-3.3882463767123725,8.0,485.0],["CLASP2",0.13956320229533103,-3.006443261585267,12.0,481.0],["COL5A1",0.13829913208781458,-2.965224193909219,8.0,485.0],["CTCF",0.14938119932957253,-3.334837825631473,11.0,482.0],["DAZAP1",0.11679050580056187,-2.3180578000657097,9.0,484.0],["DNAH17",0.14860920346740417,-3.3083122512555367,11.0,482.0],["EIF4G3",0.14675999293169964,-3.2450905338874794,9.0,484.0],["EPHA3",0.11602011203288527,-2.2964737404505784,8.0,485.0],["FAT4",0.17004949215066265,-4.089947874336791,17.0,476.0],["FGGY",0.11145150285706433,-2.1713803766684014,8.0,485.0],["FXR1",0.13322289967023573,-2.8042221114594947,8.0,485.0],["GON4L",0.12349937313952523,-2.5102428001521977,10.0,483.0],["GRM7",0.1248137340489103,-2.548915221884984,10.0,483.0],["HELZ2",0.13163830030917872,-2.755191714647413,10.0,483.0],["ITGA10",0.1316555457040449,-2.755857785354547,12.0,481.0],["ITGAD",0.13143609093850414,-2.748947474511388,10.0,483.0],["KIF26A",0.1471326153294225,-3.257740418821975,9.0,484.0],["LPIN2",0.1142152293955239,-2.2465680688834717,8.0,485.0],["MAP9",0.12260259286060848,-2.484118924633829,11.0,482.0],["MMS22L",0.12562697980370371,-2.5729340616553786,9.0,484.0],["NAV1",0.13789776087981856,-2.952569537065375,11.0,482.0],["NELFE",0.12301403225266055,-2.4958777306125275,8.0,485.0],["NLRC5",0.1305155757141937,-2.720444725667355,8.0,485.0],["NUP214",0.14206035700836875,-3.0881601575612123,12.0,481.0],["PDCD11",0.13169540170947586,-2.7568736519856527,9.0,484.0],["PDZD2",0.10896978923069243,-2.1051302810779307,8.0,485.0],["PI4KA",0.1053600239559697,-2.0108970672805726,8.0,485.0],["PPP1R13B",0.1201375005493659,-2.412704069272457,8.0,485.0],["RBM44",0.12296539124854053,-2.4945503367639934,9.0,484.0],["RP11-1055B8.7",0.14395634484604555,-3.151035457496128,12.0,481.0],["SLC23A2",0.12611617428562535,-2.5873980815683164,8.0,485.0],["SORCS1",0.11398961906585373,-2.2403745378661744,8.0,485.0],["SPG11",0.12425765827955505,-2.532512319150958,10.0,483.0],["TOP2A",0.1373670137245778,-2.935537679432534,11.0,482.0],["TRIP11",0.15884360497214065,-3.669508486666534,9.0,484.0],["ZFHX2",0.14553566219632458,-3.2037222883020116,9.0,484.0],["ZNF540",0.12413649021281233,-2.52886740265734,9.0,484.0],["ZNRF3",0.1155124887911274,-2.282373512852909,8.0,485.0]],"bottom":[]}}}
{"ccle_metabolomics":{"corr":{"top":[],"bottom":[["malondialdehyde",-0.19788883326951287,-4.326260606446937,417]]},"para":{"top":[],"bottom":[["anthranilic acid",-0.21275595561945332,-4.929263339984278,417]]}}}
{"ccle_rrbs_enhancer_clusters":{"corr":{"top":[],"bottom":[["11-31987173-31992022-0_enh",-0.2017601757221073,-3.7152521430787173,337]]},"para":{"top":[],"bottom":[["7-42186555-42189508-1_enh",-0.2632569648598766,-2.9789359980485965,152]]}}}
{"ccle_mirna":{"corr":{"top":[["hsa-miR-620_miR00575.1",0.17748331274076537,-3.590686989847676,420]],"bottom":[]},"para":{"top":[],"bottom":[]}}}
{"prism_primary_logfold":{"corr":{"top":[["igmesine_BRD-A48376327-003-01-5::2.426818202::MTS004",0.2242022361174561,-4.03567334684868,299]],"bottom":[]},"para":{"top":[["igmesine_BRD-A48376327-003-01-5::2.426818202::MTS004",0.21820177899805984,-3.8451266555773524,299]],"bottom":[]}}}
{"prism_secondary_logfold":{"corr":{"top":[["saracatinib_BRD-K19540840-001-09-4::0.0024414::HTS002",0.2178979385273921,-3.407774354564073,261],["cladribine_BRD-K93034159-001-25-8::0.00061034::HTS002",0.2564737713451881,-2.846038117625923,152]],"bottom":[["indisulam_BRD-K17610631-001-03-3::0.151324::MTS010::PROS001_PR500",-0.24023117947611777,-3.957075657846191,254]]},"para":{"top":[["saracatinib_BRD-K19540840-001-09-4::0.0024414::HTS002",0.227869684521396,-3.688013531904088,261],["tamoxifen_BRD-K93754473-048-20-2::2.5::HTS002",0.23374049071322273,-3.8199659999413718,258]],"bottom":[]}}}
{"ccle_proteomics":{"corr":{"top":[["E2F5_Q15329",0.31480041021563565,-4.775371174934271,180],["RBM33_Q96EV2",0.30045926388277755,-5.906085347221473,251],["ELK1_P19419",0.29799069586770827,-3.305718482594324,133],["FSD1L_Q9BXM9",0.3320803168912882,-4.347531092826652,145],["DNAJC12_Q9UKB3",0.30977508975198537,-4.542471233044674,176],["C5orf30_Q96GV9",0.38428652154154924,-4.43165080369322,109],["DAZAP2_Q15038",0.32080695806335774,-3.4513088744256324,120],["LSM10_Q969L4",0.3479456311936074,-4.065545693029342,122],["ZNF3_P17036",0.3228695772220754,-4.227776881117425,149],["DDIT3_P35638-2",0.3382245500774703,-3.576872836096384,112]],"bottom":[["EFEMP1_Q12805",-0.3343871745367062,-6.472981797175829,222],["MAN1B1_Q9UKM7",-0.2983374598261598,-5.82777668172093,251],["FITM2_Q8N6M3",-0.2915915901375055,-5.220540581157555,233],["VPS45_Q9NRW7",-0.3107758209984307,-6.295779242801204,251],["NIPAL1_Q6NVV3",-0.3344529725545593,-4.676535677166817,155],["RAB22A_Q9UL26",-0.31804540191870934,-6.579413302730074,251],["DOLK_Q9UPQ8",-0.3341963455949746,-4.831766058657754,161],["LPAR1_Q92633",-0.34548171943333345,-3.9536981644662466,120],["IMPAD1_Q9NX62",-0.31384380506753,-6.4145617139683235,251],["ZDHHC7_Q9NXF8",-0.387483893314332,-4.16696279650735,100]]},"para":{"top":[["E2F5_Q15329",0.29471083410153415,-4.227675824073919,180],["RBM33_Q96EV2",0.28375089854986085,-5.306110858573409,251],["ZBED3_Q96IU2",0.34994216581019133,-4.199059112004755,125],["COA4_Q9NYJ1-2",0.30826036680822433,-2.7901249236534826,102],["RP9_Q8TA86",0.29023774633872623,-5.534532954945907,251],["C9orf85_Q96MD7-1",0.313005441160781,-2.9151552523780198,104],["DDIT3_P35638-2",0.38810776642635053,-4.627958031609849,112]],"bottom":[["PLEC_Q15149-3",-0.29729407722606127,-5.78949698108476,251],["MAN1B1_Q9UKM7",-0.29425212341516704,-5.678748051985483,251],["SAMD9L_Q8IVG5",-0.33521029359374677,-4.342344867216823,142],["FITM2_Q8N6M3",-0.3002497650226121,-5.513927464613305,233],["VPS45_Q9NRW7",-0.30774340010381346,-6.179683890889922,251],["NIPAL1_Q6NVV3",-0.33373427679933876,-4.657729809869388,155],["RAB22A_Q9UL26",-0.32828052101008687,-6.991669901491223,251],["DOLK_Q9UPQ8",-0.3124029051714733,-4.261885053002912,161],["LPAR1_Q92633",-0.387264349136569,-4.904966581883626,120],["IMPAD1_Q9NX62",-0.3024701417740507,-5.980876009855436,251],["ZDHHC7_Q9NXF8",-0.39328768849498047,-4.286511443036936,100]]}}}
{"depmap_gene_tpm":{"corr":{"top":[["ZNF195_7748",0.3002252830582408,-10.959055094273511,491],["ZNF142_7701",0.278028652435699,-9.439705445840861,491],["CNNM3_26505",0.2917576029165697,-10.363754964031656,491],["DFFB_1677",0.30357346078342645,-11.199869979842232,491]],"bottom":[]},"para":{"top":[["ZNF195_7748",0.2737305963248372,-9.16070048792467,491],["PUS3_83480",0.28284191295216454,-9.757941955935376,491],["ZBED3_84327",0.2621960712828285,-8.43574135399646,491],["CAPN10_11132",0.2577416886496545,-8.164944580441807,491],["CNNM3_26505",0.28129424405129977,-9.654945192852203,491]],"bottom":[["FOLR3_2352",-0.29156960220413797,-10.350759582636709,491],["TAGLN2_8407",-0.27520947662670914,-9.25615325498841,491]]}}}
{"avana":{"corr":{"top":[["LRRK1_79705",0.2044064378351096,-3.9592061834614385,353],["SZRD1_26099",0.22672766531571997,-4.769191723759905,353],["ZNF707_286075",0.21148004175180532,-4.206826871755183,353]],"bottom":[["DYSF_8291",-0.20564533493541737,-4.0019749608047,353],["MRPL3_11222",-0.21759835830873064,-4.4277549621130925,353],["MRPL4_51073",-0.21997200009978446,-4.515165415940365,353],["NMB_4828",-0.21381403283299177,-4.290363294362858,353]]},"para":{"top":[["FAAP100_80233",0.20848393357603853,-4.100927893313532,353],["LRRK1_79705",0.22118996010759429,-4.560388272391294,353],["MAP3K7_6885",0.19895205042083072,-3.736620790124381,349],["SETD5_55209",0.23611532599502227,-5.083096286232189,349],["SZRD1_26099",0.22330699390155184,-4.639594315296437,353],["TERT_7015",0.20846776640897485,-4.059525143111482,349]],"bottom":[["NMB_4828",-0.21086899468729317,-4.185107426408094,353],["TTLL9_164395",-0.1965576754078645,-3.694130359434667,353]]}}}
{"drive":{"corr":{"top":[],"bottom":[]},"para":{"top":[],"bottom":[["SOX18_54345",-0.2695063779591263,-4.238439164975008,217],["SSH3_54961",-0.2685985843290825,-4.366946197311759,226],["STC1_6781",-0.30893204328603485,-5.43211648846249,216],["EED_8726",-0.28094567714575536,-4.572820317343529,217]]}}}
{"achilles":{"corr":{"top":[["TMEM126B_55863",0.32685298020962533,-13.210932100976546,501],["USH1G_124590",0.321684587893764,-7.556925506176102,285],["TRIAP1_51499",0.29862505642164566,-6.553924265907711,285],["ANO3_63982",0.3105592491136796,-7.062310522203558,285],["POMGNT1_55624",0.26749292920873896,-8.92977853635934,501],["SPATS2_65244",0.30117910092897315,-6.66082023038788,285],["FUT4_2526",0.2953106915661384,-6.416735902623808,285],["SHISA5_51246",0.2672272403047514,-5.322103905888732,285]],"bottom":[["LOC102723623&GOLGA6L1&GOLGA6L22&LOC645202_102723623&283767&440243&645202",-0.27271738932556927,-5.526721598650507,285],["MYADM_91663",-0.29228173458619355,-6.292863205745892,285],["DNAJC14_85406",-0.29288279147887397,-6.317330481357335,285]]},"para":{"top":[["TMEM126B_55863",0.3039309988046611,-11.440467273178555,501],["USH1G_124590",0.2910149970147514,-6.241481725099325,285],["TRIAP1_51499",0.28839589293685425,-6.136033369529102,285],["ANO3_63982",0.2772017290749409,-5.697194248662154,285],["IGFL2_147920",0.29383531002293806,-6.356219860089254,285]],"bottom":[["LOC102723623&GOLGA6L1&GOLGA6L22&LOC645202_102723623&283767&440243&645202",-0.25075804181386724,-4.734867582514529,285],["NMRK2_27231",-0.256784481683696,-4.9451724520216995,285]]}}}
{"ccle_rrbs_tss1kb":{"corr":{"top":[["C7orf65_7_47693841_47694841",0.2829284423344503,-7.699466494980271,380]],"bottom":[["DHRSX_23_2419015_2420015",-0.2991954378723068,-3.088969353665091,122],["RAD51B_14_68285539_68286539",-0.22306893353270596,-4.793573553212955,367],["NOCT_4_139935912_139936912",-0.21300310342544299,-4.37821549786662,364],["ARMC3_10_23215952_23216952",-0.293063613780342,-2.744893210523873,111]]},"para":{"top":[["C7orf65_7_47693841_47694841",0.2655936580046799,-6.829646800199773,380]],"bottom":[["NME6_3_48343175_48344175",-0.25843814720291947,-2.8353386879250437,149]]}}}
{"ccle_gene_tpm":{"corr":{"top":[["DFFB_ENSG00000169598.11",0.3107604104173913,-11.434977592121797,478],["CNNM3_ENSG00000168763.11",0.29576578945856036,-10.379066957346202,478],["PUS3_ENSG00000110060.4",0.28356106696084954,-9.563793001519912,478],["ING5_ENSG00000168395.10",0.311469781561613,-11.486441122896343,478],["ZNF195_ENSG00000005801.12",0.2993168422490272,-10.623665814338953,478]],"bottom":[]},"para":{"top":[["CTC-425O23.2_ENSG00000205041.1",0.2729607091024942,-8.887081019094838,478],["CNNM3_ENSG00000168763.11",0.28442391989049076,-9.620151440465863,478],["PUS3_ENSG00000110060.4",0.28590047776228134,-9.717043826996168,478],["ZNF195_ENSG00000005801.12",0.2751008488914039,-9.021383970083527,478]],"bottom":[["FOLR3_ENSG00000110203.4",-0.2692869608693895,-8.659250902697705,478],["TAGLN2_ENSG00000158710.10",-0.2770923752540044,-9.147411130482272,478]]}}}
{"ccle_rrbs_tss_clusters":{"corr":{"top":[["CXXC5_11",0.30256072762284675,-7.837701613589392,337],["JPH2_3",0.2941517209973376,-6.73544800298478,303],["ZSCAN23_3",0.2951899632518161,-4.5740199893002575,196]],"bottom":[["DHRS4_3",-0.2623354205399016,-2.7760426659200803,141],["CHCHD10_1",-0.27780058652707307,-6.318016695043781,318],["SCARA5_2",-0.2678865511028919,-2.8092181851066065,137],["MED1_1",-0.28112754736915296,-3.345988865662857,152],["MAPT_2",-0.26674440640023817,-3.2556068115526675,164],["BLK_2",-0.2688570361957381,-5.857559250931985,313],["ARMC3_2",-0.29615815712190713,-2.8393213261806123,113]]},"para":{"top":[["H2AFJ_2",0.2875487540462103,-3.061602428374288,131],["ACTC1_1",0.28852578794508826,-6.199996952747557,288]],"bottom":[["NME6_3",-0.258027336149034,-2.8437239969276087,150],["ZNF428_2",-0.25782122374073546,-2.644733264286216,138],["CHCHD10_1",-0.2706778661797125,-6.017662976470272,318],["MED1_1",-0.2622470326909374,-2.9589279710856258,152],["DNAAF5_2",-0.2559268892607193,-2.3690722735235736,123],["MAPT_2",-0.2677971841404082,-3.278419928114346,164],["BLK_2",-0.2603648910667414,-5.518318957490894,313]]}}}
{"ccle_rrbs_cgi_clusters":{"corr":{"top":[["7_76586998_76591608-1",0.29794484118704995,-3.0006734850672774,119],["1_45203323_45207745-1",0.27471600281445574,-5.495780768750544,279]],"bottom":[["22_24108029_24112995-1",-0.27780058652707307,-6.318016695043781,318],["17_37605393_37609718-1",-0.28112754736915296,-3.345988865662857,152],["16_1361813_1366496-2",-0.2543133773477803,-6.325872833981927,382],["14_24420770_24425141-3",-0.2623354205399016,-2.7760426659200803,141]]},"para":{"top":[["12_14925291_14930023-2",0.2875487540462103,-3.061602428374288,131],["6_421846_426313-1",0.3116483257206717,-3.3229844272318276,122]],"bottom":[["7_6191413_6194045-2",-0.24139091770666055,-4.760979488547958,310],["22_24108029_24112995-1",-0.2706778661797125,-6.017662976470272,318],["19_1115270_1119572-2",-0.25896735553775824,-3.7512886985448812,205],["17_37605393_37609718-1",-0.2622470326909374,-2.9589279710856258,152],["11_68203925_68208126-2",-0.2595980811656298,-4.997582284920469,282],["1_9425507_9429734-3",-0.2433241533845219,-4.830718924138341,310],["7_764085_768952-2",-0.2559268892607193,-2.3690722735235736,123],["3_48340584_48345258-3",-0.258027336149034,-2.8437239969276087,150],["19_44121485_44126244-2",-0.25782122374073546,-2.644733264286216,138]]}}}
