{"depmap_hotspot":{"corr":{"top":[["ABCA6",0.19663058090619318,-3.0083774429576597,31.0,247.0],["ADAM2",0.16091169541485909,-2.14388608712166,21.0,257.0],["ARAP2",0.17259552469062397,-2.4093908163864546,27.0,251.0],["ARFGAP1",0.17854746482214992,-2.5510351549148944,16.0,262.0],["ATRX",0.18339250073444216,-2.6695630429936617,32.0,246.0],["B4GALNT1",0.16382541882439725,-2.208554648504441,13.0,265.0],["CIZ1",0.18198483354114459,-2.6348262522539256,12.0,266.0],["CPT1A",0.15956271928445878,-2.1142910036799467,11.0,267.0],["EBF4",0.1626411588377918,-2.1821476196236174,8.0,270.0],["EMILIN3",0.1609858781534626,-2.145519895614582,20.0,258.0],["EXOSC10",0.16181660944832707,-2.163861062156247,19.0,259.0],["FAM26E",0.18954346685069462,-2.8242491982551927,10.0,268.0],["FAN1",0.15866723385872908,-2.09476516179182,15.0,263.0],["FEM1B",0.17446663065253862,-2.4534509272233955,12.0,266.0],["FKBP9",0.16113338581623504,-2.148770579053417,11.0,267.0],["GOLIM4",0.1633894962002513,-2.1988146804801167,13.0,265.0],["GPC2",0.16173789721902154,-2.1621196777817313,12.0,266.0],["GPNMB",0.17137344145096303,-2.3808446557067837,11.0,267.0],["GPRIN2",0.19924729219313325,-3.0779724172635414,14.0,264.0],["GRAMD3",0.2379489426949465,-4.21158638811091,9.0,269.0],["HLA-E",0.17332178287478317,-2.4264416099615005,8.0,270.0],["ICAM5",0.15951894515700246,-2.113334292585229,13.0,265.0],["KLC1",0.17161434372227544,-2.386457375489661,11.0,267.0],["KYNU",0.17457011120345034,-2.455900157922641,13.0,265.0],["LIG3",0.159381258485151,-2.110326556680114,15.0,263.0],["LIN9",0.16749427502466047,-2.2914373065080613,12.0,266.0],["MAP4K2",0.15983487374231983,-2.1202442495929,11.0,267.0],["METTL2A",0.16632486567795973,-2.2648427820754993,8.0,270.0],["MEX3A",0.16794505974807455,-2.3017331995755326,15.0,263.0],["MRGPRX4",0.16361750817753945,-2.2039063774366072,8.0,270.0],["MTMR11",0.15974634428359022,-2.118306739156546,17.0,261.0],["MYH8",0.18962485770948553,-2.8263278098051594,60.0,218.0],["NUP85",0.16732854672550748,-2.2876582724726924,8.0,270.0],["NVL",0.18256535745730906,-2.6491219220396025,13.0,265.0],["OR5AK2",0.1582938899010526,-2.0866527625219495,10.0,268.0],["PARP9",0.19046982311122276,-2.847956295606916,12.0,266.0],["PBXIP1",0.17709673974615403,-2.5161095413822445,9.0,269.0],["PCDH8",0.17956330740726822,-2.5756457113116813,16.0,262.0],["PNKP",0.19437374857631753,-2.9490536274949357,11.0,267.0],["POM121",0.16999021145546983,-2.348754004994195,29.0,249.0],["PPRC1",0.1881523669340725,-2.7888510463700453,26.0,252.0],["PRKAA2",0.17595508979113833,-2.4888069801127317,14.0,264.0],["PSKH1",0.20859529408190192,-3.333767635056914,10.0,268.0],["RCC1",0.2351600564777804,-4.123218272350366,8.0,270.0],["REN",0.20867079162956856,-3.3358794572041215,8.0,270.0],["RFWD2",0.15803224042612352,-2.080977283557657,16.0,262.0],["RNF151",0.1753118500580641,-2.4734944516956614,10.0,268.0],["RUSC2",0.1686063627339769,-2.3168818969635163,19.0,259.0],["SDPR",0.162651010791213,-2.1823666062794813,9.0,269.0],["SIDT2",0.15945962704170952,-2.112038223281389,15.0,263.0],["SLC27A5",0.17900403268511017,-2.5620805389095267,13.0,265.0],["SLFN12L",0.17650066297574085,-2.5018343670947165,14.0,264.0],["STRIP2",0.16469377378869712,-2.2280247900586443,22.0,256.0],["TMEM59L",0.16012100027924753,-2.1265126785972406,9.0,269.0],["TRAF6",0.1697079237323266,-2.34223360097351,8.0,270.0],["TRIM9",0.16146434527883513,-2.1560735503455364,15.0,263.0],["UBA7",0.18928221120685512,-2.8175827108699307,17.0,261.0],["USP37",0.16409895742399405,-2.2146780951842384,14.0,264.0],["VAV2",0.19850143185532196,-3.058046278415507,9.0,269.0],["WDR63",0.17310283693910652,-2.4212944966186276,20.0,258.0],["ZNF503",0.18625138308113498,-2.7408705941830505,10.0,268.0],["ZNF587",0.1957069103810544,-2.9840193641903947,13.0,265.0],["ZNF683",0.19796490090171256,-3.0437564135332273,13.0,265.0]],"bottom":[["ANO4",-0.14328168330820357,-1.7741117795798893,34.0,244.0],["BCL2",-0.18538466064243866,-2.7191447119990504,10.0,268.0],["C14orf37",-0.13437532581363337,-1.6011133096464891,18.0,260.0],["C19orf57",-0.1425996339149128,-1.7605393664069895,9.0,269.0],["C8orf37",-0.21958254398042468,-3.6489346430071516,10.0,268.0],["CBLN2",-0.18240883502382638,-2.6452633640196495,10.0,268.0],["CD5L",-0.17183188589753845,-2.3915319166548454,11.0,267.0],["CHRNA4",-0.1809361446092717,-2.609107800811696,12.0,266.0],["CYP27C1",-0.18429206756575642,-2.691890584567561,11.0,267.0],["EZH2",-0.22907510381321394,-3.9340749214957134,15.0,263.0],["FOXD4L1",-0.18657759015219186,-2.7490718478735254,8.0,270.0],["FRMD5",-0.17801691258978505,-2.5382322379800497,9.0,269.0],["HLA-B",-0.18945746802374777,-2.8220538102015347,11.0,267.0],["IKZF4",-0.17707748124889083,-2.5156476447928355,9.0,269.0],["IP6K2",-0.15044496129612078,-1.9199354310957055,9.0,269.0],["KLK10",-0.1365327719729548,-1.6421813841667354,9.0,269.0],["NKAIN3",-0.15398656183465903,-1.994258330777587,11.0,267.0],["NRXN2",-0.16188050863460768,-2.165275277898597,32.0,246.0],["OBSL1",-0.16456962868007347,-2.2252356583462856,37.0,241.0],["OC90",-0.16333926277610591,-2.1976937671705157,24.0,254.0],["OR2G2",-0.1593419938695811,-2.109469244661165,20.0,258.0],["RXRB",-0.14934430995774747,-1.8971385755274464,11.0,267.0],["SEPT7",-0.1552994874314091,-2.022187794015347,8.0,270.0],["SKOR2",-0.14318156735821524,-1.772116142088512,21.0,257.0],["TOX",-0.16507692486593956,-2.236644651528315,15.0,263.0],["VN1R4",-0.15833973098599574,-2.0876479490038578,11.0,267.0],["WDR59",-0.17448694897891867,-2.4539317282303084,20.0,258.0]]},"para":{"top":[["ABHD8",0.1786497681699747,-2.8292116289172466,12.0,266.0],["ACAA1",0.15443455722421387,-2.2912992508722128,8.0,270.0],["ACD",0.17199612579745346,-2.674518013886132,8.0,270.0],["ACTR8",0.1470613795789606,-2.1405361794657365,8.0,270.0],["ARFGAP1",0.2082406464049212,-3.5752945234595552,16.0,262.0],["BEST4",0.15738382828231517,-2.353276073663295,8.0,270.0],["C7orf55-LUC7L2",0.17545171676446286,-2.7545031700266427,12.0,266.0],["CDC73",0.16864468141324748,-2.5987472528586757,8.0,270.0],["CDKL2",0.18149005333936968,-2.8962799366087877,10.0,268.0],["CIZ1",0.20213890435528617,-3.413071365171144,12.0,266.0],["CLHC1",0.17953198924735728,-2.85002181690513,12.0,266.0],["COG6",0.15638260621115696,-2.3322853352948276,9.0,269.0],["CPT1A",0.1822200565385364,-2.913853288373377,11.0,267.0],["CREB3L4",0.15979686823894354,-2.404697113659034,8.0,270.0],["CSNK1G3",0.16046715711578471,-2.4190947393556517,8.0,270.0],["CSRNP3",0.15233058726479504,-2.2478236406663945,9.0,269.0],["DDX24",0.1941269602363417,-3.2066934729441092,10.0,268.0],["EBF4",0.19384754318247677,-3.1992898746641787,8.0,270.0],["FAM26E",0.1612710023042144,-2.436722685367643,10.0,268.0],["FBXO17",0.16837656586251099,-2.5927395001655005,8.0,270.0],["GMPPA",0.1463910907021194,-2.1271256381532972,8.0,270.0],["GPRIN2",0.1938983147898991,-3.201368764762731,14.0,264.0],["GRAMD3",0.21589663448584828,-3.783505464545184,9.0,269.0],["HLA-E",0.1742751079787136,-2.7267557929885826,8.0,270.0],["HRASLS5",0.16381860149999075,-2.49182748607627,8.0,270.0],["INTS4",0.18173058766751557,-2.9023603971927234,13.0,265.0],["KCNK1",0.15942162042092844,-2.3968176048153147,9.0,269.0],["KLC1",0.1672745629423158,-2.568555560976663,11.0,267.0],["KLHL23",0.15336209502126794,-2.26899942796465,8.0,270.0],["KYNU",0.18863040554040608,-3.0698227120967805,13.0,265.0],["LEF1",0.1715776772600143,-2.6651584161402515,9.0,269.0],["MAP4K2",0.17164324568582642,-2.666915621366344,11.0,267.0],["MSN",0.16853866305024284,-2.5965372724093214,9.0,269.0],["NUP85",0.1474635529050653,-2.1486060759301706,8.0,270.0],["OR5AK2",0.16716822552280133,-2.5660679149291994,10.0,268.0],["PBXIP1",0.19664954449062894,-3.2706477092405803,9.0,269.0],["PCDH11Y",0.15840861568433795,-2.375193729002381,9.0,269.0],["PNKP",0.19636079278726826,-3.263570220524737,11.0,267.0],["PRICKLE4",0.15014470841243016,-2.202857632485483,8.0,270.0],["PSKH1",0.23023240851340465,-4.19303050865369,10.0,268.0],["PSMB11",0.1443802240715958,-2.0871884119502266,8.0,270.0],["PSMC4",0.15148528616611256,-2.230278700363705,8.0,270.0],["RCC1",0.18499973000817285,-2.9803622618926404,8.0,270.0],["REN",0.1998801430740476,-3.3536104052136197,8.0,270.0],["SDPR",0.18993838811071695,-3.101662598615694,9.0,269.0],["SKOR1",0.15862326943056312,-2.3799000649433055,10.0,268.0],["SLC27A5",0.1971224890762713,-3.2832720897532246,13.0,265.0],["SLFN12L",0.18990146792055126,-3.1013456891259636,14.0,264.0],["TAB2",0.1558761038428617,-2.321628876091492,9.0,269.0],["TAS2R41",0.14424616629622755,-2.0845416192242094,8.0,270.0],["TC2N",0.154356596737976,-2.2898288649006644,9.0,269.0],["TIMM50",0.17306858800039943,-2.699028466863231,8.0,270.0],["VAV2",0.20855235014556722,-3.5828581957180097,9.0,269.0],["ZC3H10",0.15497078832568686,-2.302496574689914,8.0,270.0],["ZNF195",0.16199311126975569,-2.4523541280795373,10.0,268.0],["ZNF503",0.1847395436843053,-2.974389257890518,10.0,268.0],["ZNF549",0.15385009436968072,-2.279285281283091,9.0,269.0],["ZNF587",0.20582687470053315,-3.5104988095176815,13.0,265.0],["ZNF671",0.17739810253463587,-2.799600280033697,10.0,268.0]],"bottom":[["AFG3L2",-0.15738382828231515,-2.353276073663295,8.0,270.0],["C8orf37",-0.1701770128792233,-2.6335455675860158,10.0,268.0],["CBLN2",-0.1731858002356452,-2.7020292959572627,10.0,268.0],["CD5L",-0.19038259534878008,-3.1129807885052276,11.0,267.0],["CHRNA4",-0.16629867308661844,-2.5469769838688845,12.0,266.0],["DMP1",-0.15428348004713938,-2.2885480566377248,11.0,267.0],["FOXD4L1",-0.17400699242797707,-2.7205801531688616,8.0,270.0],["FRMD5",-0.16600615120876655,-2.540136302888419,9.0,269.0],["HLA-B",-0.1923370060498242,-3.161769353773961,11.0,267.0],["IKZF4",-0.16410676732765941,-2.498302143342683,9.0,269.0],["SHC3",-0.1698049189709809,-2.6250046965237126,9.0,269.0],["SKOR2",-0.15774500600217112,-2.3619768061962834,21.0,257.0],["TMC3",-0.1495230662148323,-2.190850425256673,14.0,264.0],["VN1R4",-0.163940568217005,-2.494915981416181,11.0,267.0]]}}}
{"depmap_damaging":{"corr":{"top":[["ABCA6",0.20337451402919518,-3.1895211137058093,8.0,270.0],["CNTNAP2",0.1484058943585773,-1.8778143584863836,8.0,270.0],["EPB41L3",0.16752746082116374,-2.29219442831184,8.0,270.0],["FASTKD1",0.13715851699178677,-1.6541926869652768,8.0,270.0],["GOLGA3",0.1527317632284278,-1.9677561246358457,9.0,269.0],["PRKCA",0.15464320196984954,-2.008201295455239,14.0,264.0],["SECISBP2",0.18023566230470978,-2.5920048197905796,10.0,268.0]],"bottom":[["C8orf37",-0.16944943522551145,-2.33627141947019,8.0,270.0]]},"para":{"top":[["ABCA6",0.18432944113133165,-2.9641349261659937,8.0,270.0],["PRKCA",0.1649980374269226,-2.518414327203144,14.0,264.0],["SCAF4",0.15886397241907688,-2.3850337895762683,10.0,268.0],["SECISBP2",0.18883149448903913,-3.0744328837494304,10.0,268.0],["SLC15A2",0.14236935744107215,-2.0476922079852757,8.0,270.0],["WDR87",0.1612259018916685,-2.4359659332364516,12.0,266.0]],"bottom":[["NCK1",-0.1230650377880454,-1.6908127555503494,8.0,270.0]]}}}
{"ccle_chromatin":{"corr":{"top":[["H3K27me2K36me2",0.2199842117446687,-3.1535054431764507,234]],"bottom":[]},"para":{"top":[],"bottom":[]}}}
{"ccle_rppa":{"corr":{"top":[["BAD_Bad_pS112",0.225475966467556,-3.3168342103656268,236]],"bottom":[["PDK1_PDK1",-0.2384956857913583,-3.662742399989593,236],["PDK1_PDK1_pS241",-0.2453054436134363,-3.8514213206745675,236]]},"para":{"top":[["BAD_Bad_pS112",0.21981245442318972,-3.1723519212293168,236]],"bottom":[["PDK1_PDK1",-0.2090658150546705,-2.9079976119414583,236],["PDK1_PDK1_pS241",-0.23782568555023625,-3.644468649331834,236]]}}}
{"ccle_rrbs_enhancer_clusters":{"corr":{"top":[["4-54959998-54964796-1_enh",0.24969316737264516,-3.2004496203092843,184],["4-54959998-54964796-2_enh",0.281545670299878,-4.061153346524095,189],["6-3347397-3350827-1_enh",0.27437913768226574,-4.289447900626671,212],["6-3347397-3350827-2_enh",0.25240771278726915,-3.491650443083511,199]],"bottom":[]},"para":{"top":[["18-72737006-72739599-0_enh",0.21077375585358984,-2.7887030598767564,221]],"bottom":[["12-50597851-50600545-1_enh",-0.2368158329270689,-2.217459744016795,133]]}}}
{"ccle_mirna":{"corr":{"top":[],"bottom":[["ebv-miR-BART21-3p_miR00739.1",-0.2180428794717248,-3.2189583689319163,244]]},"para":{"top":[],"bottom":[]}}}
{"prism_primary_logfold":{"corr":{"top":[["IDRA-21_BRD-A14344385-001-03-2::2.5::HTS",0.22471298799790662,-2.6032428943032486,179],["nornicotine_BRD-A24543851-001-05-7::2.5::HTS",0.252333928452421,-3.16824296356841,178],["MRS-1220_BRD-K37618799-001-03-0::2.5::HTS",0.2629838573635827,-3.4252539835125515,179],["nithiamide_BRD-K39467894-001-06-7::2.5::HTS",0.2656543928279242,-3.351423052817309,171],["betamethasone-dipropionate_BRD-K58148589-001-03-6::2.5::HTS",0.23662679401633305,-2.8455040991364737,179],["icariin_BRD-K65639003-001-09-0::2.5::HTS",0.2262608730527904,-2.609107107140043,177],["honokiol_BRD-K98493452-001-14-9::2.5::HTS",0.22827859279797738,-2.6618083137963415,178],["reboxetine_BRD-M39350793-334-01-1::2.5::HTS",0.2371274444690623,-2.787743639601535,174]],"bottom":[["U-0521_BRD-K08953028-001-09-6::2.5::HTS",-0.2767410030562416,-3.7342247575676377,178],["ibuprofen-(s)_BRD-K14965640-001-12-4::2.5::HTS",-0.2573356577226116,-3.2798703468549255,178],["orbifloxacin_BRD-K63001556-001-09-6::2.57::HTS",-0.23446526165522513,-2.680404931380381,170],["3-carboxy-4-hydroxyphenylglycine-(R)_BRD-K76592088-001-02-1::2.5::HTS",-0.2436237318647555,-2.993457479741675,179],["TCS-359_BRD-K81376179-001-04-8::2.5::HTS",-0.23353212189872502,-2.7549321519141747,177],["mabuterol_BRD-A13116749-003-01-6::2.713967431::MTS004",-0.22919051689750908,-2.6417574940926376,175],["xibenolol_BRD-A21446384-001-01-1::2.5::MTS004",-0.23511988395786954,-2.760519711205504,175],["oritavancin_BRD-A33352494-316-01-6::2.499995956::MTS004",-0.26821801947541035,-3.4785094673108694,175],["tasuldine_BRD-K10415035-001-04-4::2.5::MTS004",-0.23510067779211957,-2.760130284786384,175],["ergocalciferol_BRD-K56155962-001-12-1::2.355251659::MTS004",-0.231683484791957,-2.6913336589583285,175],["huperzine-a_BRD-K62240499-001-05-9::2.500058444::MTS004",-0.2795370574173322,-3.7461849939304095,175],["sophocarpine_BRD-K66845263-001-03-0::2.5::MTS004",-0.27660348759963505,-3.675698326030933,175],["testolactone_BRD-K69636617-001-01-7::2.49998713::MTS004",-0.295075885764258,-4.1327706259067325,175],["piroximone_BRD-K71977764-001-01-2::2.5::MTS004",-0.24330595353873133,-2.929329154327451,175]]},"para":{"top":[["nornicotine_BRD-A24543851-001-05-7::2.5::HTS",0.2482309796400487,-3.078321119069647,178],["clindamycin_BRD-K23586533-001-03-6::2.5::HTS",0.22363941598673065,-2.4843351641083213,171],["temsirolimus_BRD-K42898655-001-01-8::2.5::HTS",0.20728983307722534,-2.2598211222901634,178],["gallamine-triethiodide_BRD-K43106192-320-11-8::2.5::HTS",0.2225913074730789,-2.4281659621355085,168],["icariin_BRD-K65639003-001-09-0::2.5::HTS",0.22484714737343836,-2.581268593391297,177],["tazarotene_BRD-K76841105-001-04-7::2.5::HTS",0.23273722321001933,-2.751930796159064,178],["honokiol_BRD-K98493452-001-14-9::2.5::HTS",0.23151495549840362,-2.7270577196823385,178]],"bottom":[["azlocillin_BRD-A46717658-236-02-5::2.5::HTS",-0.23452188477249086,-2.7350423841854075,174],["histamine_BRD-K01674964-300-06-3::2.5::HTS",-0.23614743934496019,-2.82200002815451,178],["celecoxib_BRD-K02637541-001-18-0::2.5::HTS",-0.23866093642531427,-2.8742802432937467,178],["U-0521_BRD-K08953028-001-09-6::2.5::HTS",-0.31317096265443334,-4.682373289274116,178],["CPI-1189_BRD-K11073688-001-01-6::2.5::HTS",-0.25124236232646924,-3.0220795855829956,170],["tasquinimod_BRD-K14653796-001-01-1::2.5::HTS",-0.23826555163174437,-2.7695735045722736,171],["ibuprofen-(s)_BRD-K14965640-001-12-4::2.5::HTS",-0.25765219815176943,-3.2870094828886236,178],["3-indolebutyric-acid_BRD-K43187796-001-02-3::2.5::HTS",-0.24846289769285573,-3.0982768592766314,179],["3-carboxy-4-hydroxyphenylglycine-(R)_BRD-K76592088-001-02-1::2.5::HTS",-0.2438658482043944,-2.998653204611107,179],["cortisone-acetate_BRD-K86161929-001-13-3::2.5::HTS",-0.25359110526198986,-3.1960920910121065,178],["pirenzepine_BRD-K89375097-300-08-8::2.5::HTS",-0.23754172529294476,-2.850934054085976,178],["huperzine-a_BRD-K62240499-001-05-9::2.500058444::MTS004",-0.26877497349408924,-3.491410714790563,175],["sophocarpine_BRD-K66845263-001-03-0::2.5::MTS004",-0.2510729697825469,-3.0947664584796426,175],["testolactone_BRD-K69636617-001-01-7::2.49998713::MTS004",-0.26804486129891486,-3.4745040882397786,175]]}}}
{"prism_secondary_logfold":{"corr":{"top":[["buphenine_BRD-A36267905-003-18-4::0.00061034::HTS002",0.2766925772802172,-3.066484213909998,142],["tucatinib_BRD-K26026438-001-01-0::0.00061035::MTS006",0.25883017571498845,-2.989553737566927,158],["GDC-0068_BRD-K71480163-001-01-4::0.156249998::MTS006",0.2629514178775842,-3.0400878995415646,156],["GDC-0068_BRD-K71480163-001-01-4::10::HTS002",0.294206244552679,-3.7561394076433032,158]],"bottom":[["doxycycline_BRD-A08545410-311-03-4::0.000610352::HTS002",-0.2382795594331844,-2.520463645886661,153],["narasin_BRD-A25608658-001-01-1::0.009765626::MTS006",-0.24816861340524404,-2.7631673583176473,157],["danazol_BRD-A92537424-001-04-7::0.0024414::HTS002",-0.26885632799879317,-3.143923528657512,155],["colfosceril-palmitate_BRD-A95886749-001-03-5::10::HTS002",-0.23238938550973448,-2.441628769424576,155],["clofoctol_BRD-K02900412-001-11-3::0.156249999::MTS006",-0.23044969544628996,-2.420109311049071,156],["AMG458_BRD-K21782625-001-02-4::0.00061034::HTS002",-0.23205649722937363,-2.448893525745921,156],["paclitaxel_BRD-K62008436-001-23-9::0.00061::MTS010::PROS005_PR500",-0.28516589641208623,-3.4520970071001287,153],["tacrolimus_BRD-K69608737-001-10-2::0.00061034::HTS002",-0.24008119787147444,-2.5955104856778437,156],["dorzolamide_BRD-K71075609-003-01-0::0.0024414::HTS002",-0.28189861814628814,-2.8782262199174147,127]]},"para":{"top":[["isoxsuprine_BRD-A16700644-003-04-4::0.0024414::HTS002",0.3009216850438224,-2.674223304836439,102],["lestaurtinib_BRD-A27376179-001-01-3::2.5::HTS002",0.26057782114718847,-2.593895155135438,132],["8-hydroxy-PIPAT_BRD-A60594020-034-01-1::0.0024414::HTS002",0.24898333667905806,-2.763806250452887,156],["prednisolone-hemisuccinate_BRD-A78391468-001-02-8::0.625::HTS002",0.3079191571508689,-4.058475486379067,157],["TAS-103_BRD-K09426783-300-01-0::0.0390625::HTS002",0.2867885792764538,-3.447563214793634,151],["tucatinib_BRD-K26026438-001-01-0::0.00061035::MTS006",0.2939237781573282,-3.7496091140206,158],["CD-437_BRD-K28907958-001-04-3::0.625::HTS002",0.2499652288259355,-2.7827369399295385,156],["ENMD-2076_BRD-K68488863-001-04-9::0.625::HTS002",0.2815558905796202,-2.930351940716663,130],["GDC-0068_BRD-K71480163-001-01-4::0.156249998::MTS006",0.2998937107590146,-3.845626197335115,156],["alvespimycin_BRD-K83988098-003-03-4::0.000610352::HTS002",0.25829114039095574,-2.946231730809063,156]],"bottom":[["protirelin_BRD-A16997652-001-02-3::0.00976562::HTS002",-0.23467437113482675,-2.4961982856292737,156],["danazol_BRD-A92537424-001-04-7::0.0024414::HTS002",-0.2890008741294891,-3.576304852167362,155],["paliperidone_BRD-A99888680-001-03-8::0.00929578::HTS002",-0.23812425172776844,-2.559313754030794,156],["AMG458_BRD-K21782625-001-02-4::0.00061034::HTS002",-0.2300095541628498,-2.4122577855449197,156],["GSK256066_BRD-K37590257-001-02-8::0.0024414::HTS002",-0.26670730447645463,-2.7179609266214713,133],["tecastemizole_BRD-K48195801-001-01-6::0.00244141::HTS002",-0.2343521660148569,-2.530703274383568,159],["paclitaxel_BRD-K62008436-001-23-9::0.00061::MTS010::PROS005_PR500",-0.24881282956605494,-2.715220577597158,153],["tacrolimus_BRD-K69608737-001-10-2::0.00061034::HTS002",-0.23142234423752922,-2.4375106018312542,156],["dorzolamide_BRD-K71075609-003-01-0::0.0024414::HTS002",-0.3138659831576996,-3.4861975862462007,127]]}}}
{"ccle_proteomics":{"corr":{"top":[["MYLK_Q15746-6",0.3591367555051426,-4.818100436118786,138],["UTRN_P46939",0.32145763767172075,-3.917893178197169,138],["DMD_P11532",0.3185318192684791,-3.8527537067563196,138],["CPNE2_Q96FN4",0.31968034960912123,-3.87824486091297,138],["CHST14_Q8NCH0",0.33311397070180543,-4.076058221579237,134],["KIAA0754_O94854",0.3307786229631694,-4.129887814068305,138],["ST5_P78524",0.3569729746686016,-3.8575657986727854,109],["PVRL3_Q9NQS3",0.3480248884851095,-3.501045967263462,103],["RAB23_Q9ULC3",0.38003614102251676,-5.192104591310887,133]],"bottom":[["TANK_Q92844",-0.2959680342260959,-3.372369032282615,138],["ANKRD16_Q6P6B7",-0.33001741979596616,-3.232147641118697,105],["WASF2_Q9Y6W5",-0.2746905454186806,-2.953811694642516,138],["PRKD2_Q9BZL6",-0.31727290258031976,-3.8249300208978076,138],["PLEKHF2_Q9H8W4",-0.37256167549864294,-5.167556417442068,138],["BID_P55957-2",-0.27897267192881126,-2.959413004521781,134],["NAT1_P18440",-0.29691264521571614,-3.0903948518474467,124],["UFM1_P61960",-0.31906299773214464,-3.566828641417075,126]]},"para":{"top":[["MYLK_Q15746-6",0.320947515625655,-3.9064880359703014,138],["GPAM_Q9HCL2",0.31189918991899185,-2.8004483735487793,100],["DMD_P11532",0.28678182963916815,-3.187655322542956,138],["RAB3B_P20337",0.33589125129111913,-3.97416334052037,128],["KIAA0754_O94854",0.33539959998904073,-4.237545043881949,138],["POMGNT2_Q8NAT1",0.2884238475778462,-3.017097894067021,128],["BTN2A1_Q7KYR7",0.30250372156314775,-3.5075688153406923,138],["PVRL3_Q9NQS3",0.36930097444724297,-3.907993904526981,103],["RAB23_Q9ULC3",0.2817439164666665,-2.9920546896629245,133]],"bottom":[["WASF2_Q9Y6W5",-0.24397015443345477,-2.405484478567158,138],["PRKD2_Q9BZL6",-0.3140591911871677,-3.7544575049680757,138],["ZNF385A_Q96PM9",-0.34096147963642726,-4.142776518944617,130],["PLEKHF2_Q9H8W4",-0.3050106395609012,-3.5602732650108573,138]]}}}
{"depmap_copy_number":{"corr":{"top":[["PLK3_1263",0.19562338694006517,-3.0001313957078186,280]],"bottom":[["SNAR-B2_100170217",-0.22506772320269694,-3.836213450427025,280],["SNAR-B1_100170224",-0.22506772320269694,-3.836213450427025,280],["SNAR-D_100170227",-0.22506772320269694,-3.836213450427025,280],["MIR4749_100616313",-0.22443049132772797,-3.8169051368360587,280],["MIR4750_100616314",-0.22390405217820733,-3.8009950466672673,280],["PTOV1-AS2_101928378",-0.22443049132772797,-3.8169051368360587,280],["IZUMO2_126123",-0.22506772320269694,-3.836213450427025,280],["DACT3_147906",-0.22065374745072971,-3.70358694829109,280],["ZC3H4_23211",-0.22241268191537528,-3.7561246586451493,280],["NUP62_23636",-0.22390405217820733,-3.8009950466672673,280],["IL4I1_259307",-0.22390405217820733,-3.8009950466672673,280],["ARHGAP35_2909",-0.22324816370228243,-3.781224789978928,280],["KCNC3_3748",-0.2209137975091578,-3.711328344129903,280],["PTOV1_53635",-0.22443049132772797,-3.8169051368360587,280],["TMEM160_54958",-0.2223523179618804,-3.7543147853065446,280],["MYH14_79784",-0.22506772320269694,-3.836213450427025,280]]},"para":{"top":[["LRRC42_115353",0.21658543053499968,-3.5836508264760414,280],["DIO1_1733",0.21658543053499968,-3.5836508264760414,280],["HSPB11_51668",0.21658543053499968,-3.5836508264760414,280],["YIPF1_54432",0.21658543053499968,-3.5836508264760414,280],["NDC1_55706",0.21658543053499968,-3.5836508264760414,280],["ANKRD36B_57730",0.2185946319801159,-3.642607904034013,280]],"bottom":[["PPP5D1_100506012",-0.2503797575357226,-4.648013664476184,280],["DACT3-AS1_100506068",-0.2514042318107723,-4.68274195712297,280],["DACT3_147906",-0.2514042318107723,-4.68274195712297,280],["ZC3H4_23211",-0.25087561199499825,-4.6648039933629235,280],["PRKD2_25865",-0.2514042318107723,-4.68274195712297,280],["ARHGAP35_2909",-0.2515247702485988,-4.686837774691197,280],["STRN4_29888",-0.24809584802063306,-4.571123658731531,280],["NPAS1_4861",-0.24948982995468053,-4.617966249170427,280],["TMEM160_54958",-0.2508346125263498,-4.663414380340998,280],["PNMA8A_55228",-0.2503797575357226,-4.648013664476184,280],["PTGIR_5739",-0.2511899412546364,-4.675465563161916,280],["PNMA8B_57469",-0.25071899402476117,-4.659496947181489,280],["SLC1A5_6510",-0.24809584802063306,-4.571123658731531,280],["FKRP_79147",-0.24809584802063306,-4.571123658731531,280],["CALM3_808",-0.25071899402476117,-4.659496947181489,280],["GNG8_94235",-0.2514042318107723,-4.68274195712297,280]]}}}
{"depmap_gene_tpm":{"corr":{"top":[["RCN1_5954",0.33943050022686916,-8.197186611028778,278],["AKAP12_9590",0.32213220767692363,-7.405581287317053,278],["MFGE8_4240",0.3340823335961064,-7.947179193706951,278],["TPM2_7169",0.3117168135743321,-6.9523406905514085,278]],"bottom":[["BLNK_29760",-0.3440598496373319,-8.417459631931763,278],["CD86_942",-0.32377906010463364,-7.478837641371543,278],["CD27_939",-0.32426783552743854,-7.500664042423035,278],["MS4A1_931",-0.3194577507321644,-7.287545304547033,278],["FCRL3_115352",-0.31077780472208966,-6.9123245281850885,278],["SLAMF6_114836",-0.3133302895866428,-7.021424277295118,278],["CAMP_820",-0.3120291081818073,-6.965680014750612,278],["CYBB_1536",-0.3601100136665786,-9.209512919693225,278],["SERPINA9_327657",-0.3079684459776336,-6.793430149339535,278],["ZNF296_162979",-0.31126469492989367,-6.933056174883311,278],["BFSP2_8419",-0.37934579295480714,-10.218634287403834,278],["SAMD7_344658",-0.3170310177574417,-7.181434813791935,278],["CNR2_1269",-0.3135708238983572,-7.0317583823202146,278],["KIAA0040_9674",-0.30540621487560227,-6.686070965360079,278]]},"para":{"top":[["AGPAT4_56895",0.28721824586891276,-5.953027752263074,278],["CDH6_1004",0.28961345317525183,-6.046688667620641,278],["AKAP12_9590",0.29126093343568144,-6.111612226403299,278],["JCAD_57608",0.3170807268162656,-7.183598937870343,278],["MAGED4B_81557",0.3068243967618549,-6.74536717045317,278]],"bottom":[["OTOR_56914",-0.23778945748975372,-4.206504373443168,278],["PPA2_27068",-0.23612806526913638,-4.1537703331466,278],["ZNF749_388567",-0.23448633521615628,-4.102029641338755,278],["ZNF587B_100293516",-0.22434660142775018,-3.7905364208223995,278]]}}}
{"avana":{"corr":{"top":[["FITM1_161247",0.25621179934929605,-3.742901384959766,209],["IRF8_3394",0.2916983608674682,-4.738772358989063,209],["KLHL6_89857",0.3409941622435951,-6.360169792970725,209],["NMNAT1_64802",0.32458057149107833,-5.788066059713968,209],["OR5AU1_390445",0.2685791442016878,-4.074483766623181,209],["PRPF38B_55119",0.28303877717489223,-4.483052023546559,209],["RAB11A_8766",0.2419545661470223,-3.380556343978485,209],["SF3A1_10291",0.24164787148653513,-3.372992047522292,209]],"bottom":[["CACNG1_786",-0.25168277933030436,-3.6255112228057924,209],["GJC1_10052",-0.24289874054531238,-3.403903785081993,209],["GRN_2896",-0.23917637885868068,-3.3123855888392413,209],["HBM_3042",-0.2469495909944049,-3.5051107699013917,209],["HEYL_26508",-0.25163222513923567,-3.5636263385210003,205],["IQCF5_389124",-0.28409102277291143,-4.513679279280647,209],["MAB21L1_4081",-0.2576882597291316,-3.7816351965133417,209],["MGAT5B_146664",-0.2447453206759203,-3.4498298178852727,209],["PRICKLE3_4007",-0.2575339513766165,-3.491743724837792,191],["PSMB7_5695",-0.25497237165797115,-3.7105626993149494,209],["RPL35A_6165",-0.2663862791898188,-4.014502145619253,209],["TMEM154_201799",-0.24959471515067788,-3.5721098419080435,209],["ZBTB39_9880",-0.25222089912740825,-3.6393469023270852,209]]},"para":{"top":[["BAMBI_25805",0.2538793494392333,-3.6821775154048195,209],["CEP162_22832",0.25366714480785635,-3.6766811634367262,209],["CYP2R1_120227",0.23927219861398957,-3.314723707725648,209],["EEF2_1938",0.2305359832620138,-3.1053675338778204,209],["FITM1_161247",0.23603612189248285,-3.236275242460697,209],["KBTBD8_84541",0.23735258955392016,-3.2680607323720574,209],["KLHL6_89857",0.26787335669829504,-4.055121972086047,209],["NMNAT1_64802",0.2482657088502613,-3.538356617755538,209],["NPEPPS_9520",0.23002515597852585,-3.093363575746637,209],["PRPF38B_55119",0.2772052625774856,-4.315474206672702,209],["PTEN_5728",0.24655154679725086,-3.4950911788373573,209],["SMARCE1_6605",0.28377094148215853,-4.4275732338764255,205],["TMEM230_29058",0.2281190879229334,-3.048802923029912,209],["USP13_8975",0.25525330623764153,-3.717878622211309,209]],"bottom":[["CACNG1_786",-0.2464829508972453,-3.4933661294239378,209],["EIF4E_1977",-0.2410886490192514,-3.359224154026328,209],["FGF1_2246",-0.24921106724055708,-3.562347421923012,209],["GEMIN7_79760",-0.2283832415257223,-3.054956748941369,209],["IQCF5_389124",-0.3031105458860803,-5.088705288854413,209],["IRGQ_126298",-0.24858899277992852,-3.546550337045328,209],["IRS2_8660",-0.23508256400800306,-3.213361491249703,209],["MAB21L1_4081",-0.2838703571465108,-4.507246293037069,209],["MGAT5B_146664",-0.25249496636244767,-3.6464050826883345,209],["SLC25A12_8604",-0.25654362515354723,-3.7515866177504997,209]]}}}
{"drive":{"corr":{"top":[["OLIG2_10215",0.3941796150097668,-4.998618562910901,118],["LOC105369236&SLX1A&SLX1B_105369236&548593&79008",0.4495659743862449,-6.535582217388118,119],["KLHL40_131377",0.383434926751287,-4.739771357812324,118],["DIO2_1734",0.37484369559991076,-4.539227021243209,118],["SARDH_1757",0.38745385659968273,-4.798486405885959,117],["NCR3_259197",0.37719879289942887,-4.698695007174083,121],["NOL11_25926",0.39736239857546823,-5.077043248824627,118],["ULK3_25989",0.38327310633097406,-4.844526048272164,121],["LY6E_4061",0.4234724747524004,-5.707054999364123,117],["PPAT_5471",0.3848046347657532,-4.772267596694456,118],["ACTA1_58",0.3836797470369218,-4.709267499503844,117],["SMARCD2_6603",0.379232818894355,-4.640978030656923,118],["SOX11_6664",0.3910336966643116,-4.921893249063535,118],["WDR75_84128",0.39939594835180225,-5.127575151600757,118],["KNDC1_85442",0.39741441178081666,-5.078331592401927,118]],"bottom":[["KCNE3_10008",-0.3566601008516083,-4.101748386354884,117],["TBC1D3K_101060351",-0.36357760495102304,-4.317147196186894,119],["NCOA6_23054",-0.34819290441741163,-3.9520277009944054,118],["MED13L_23389",-0.36899733873190177,-4.405948940943183,118],["TBC1D25_4943",-0.3582808925361895,-4.136684616279433,117],["ASF1B_55723",-0.3502233728978226,-3.994958776680709,118],["AXL_558",-0.3492997170913464,-4.12494257669763,123],["SULT1E1_6783",-0.4083417651479985,-5.312503950087192,117],["ZBTB16_7704",-0.3622348950632793,-4.254954019644954,118],["PRDM2_7799",-0.36510756732651256,-4.318684761254975,118],["DHX34_9704",-0.35771538573896233,-4.124473736297951,117],["USP3_9960",-0.3459516329068009,-3.8756065128014687,117]]},"para":{"top":[["LOC105369236&SLX1A&SLX1B_105369236&548593&79008",0.34747852406246305,-3.966612795211846,119],["AHCYL2_23382",0.33252158926999237,-3.603242408295808,117],["HOXB4_3214",0.39572635838667514,-5.036629789779135,118],["PIM3_415116",0.32547837344864783,-3.49127143037889,118],["WDR41_55255",0.3464752983288437,-3.915938817336903,118],["ZNF189_7743",0.32858441952106704,-3.5521988799732416,118],["SLIRP_81892",0.37167776887198223,-4.432740493214651,117]],"bottom":[["ADRA1D_146",-0.3063129523990387,-3.1294216802147177,118],["UBE2V1_7335",-0.38042144581945964,-4.633119740616337,117]]}}}
{"achilles":{"corr":{"top":[["CRYGN_155051",0.3187423573424673,-7.4241495526524375,285],["NEGR1_257194",0.3061370891829611,-6.871281010233381,285],["RCC1L_81554",0.32863940893917115,-7.876483332709845,285],["FGFBP3_143282",0.3321321322640415,-8.040018997103997,285],["RAB3IL1_5866",0.35610884489580025,-9.219205488226097,285],["GORASP2_26003",0.33187734387901674,-8.028019793737219,285],["SMARCAL1_50485",0.3235244353206435,-7.640679768636113,285],["FOXD4_2298",0.33954813081404384,-8.394108664330858,285],["SPINK7_84651",0.3131143954038903,-7.174124597735284,285]],"bottom":[["NR1H2_7376",-0.3338793413683994,-8.122599456631168,285],["SV2B_9899",-0.29081930548407,-6.23356626531539,285],["TRIM61_391712",-0.30469696884334924,-6.80974648851294,285],["ARSF_416",-0.3054211204821022,-6.840647197725865,285],["NMU_10874",-0.28429334490898217,-5.972983215773986,285]]},"para":{"top":[["IDH3B_3420",0.3188915993230436,-7.430850199671922,285],["RCC1L_81554",0.29636302396247766,-6.460107494301855,285],["PPP1R14A_94274",0.3003241981745983,-6.624924831428728,285],["FOXD4_2298",0.33916006611482286,-8.37534677745979,285],["VKORC1L1_154807",0.30748571136795816,-6.929206494952259,285]],"bottom":[["NR1H2_7376",-0.3278627274399313,-7.8403964006306355,285],["TWF1_5756",-0.2949928261962059,-6.403669227215122,285],["SLC16A1_6566",-0.26210506835425196,-5.135222695306295,285],["ARSF_416",-0.28486470794827995,-5.995536525544298,285],["TRIM61_391712",-0.2780237083461403,-5.728769977210492,285],["NMU_10874",-0.2720775587873856,-5.502644057572302,285]]}}}
{"ccle_rrbs_tss1kb":{"corr":{"top":[["LOC100130449_2_241396131_241397131",0.277035765379191,-4.420334758944732,215],["MIR3654_7_132719675_132720675",0.33737001719368354,-4.8634387603281315,159],["MIR4725_17_29901287_29902287",0.32681051281302853,-5.991314244432141,214],["NPEPPS_17_45599322_45600322",0.2981588329182956,-4.871487388247295,206],["LOC285847_6_35704724_35705724",0.32752533218401286,-6.06748867727939,216],["LINC01819_2_43266682_43267682",0.2819785920064605,-4.5848320361090735,216]],"bottom":[["SPRY2_13_80915250_80916250",-0.3863008684989427,-8.40756083460177,217],["TBC1D8-AS1_2_101767121_101768121",-0.3921575754791614,-8.739039891600388,219],["HNRNPH1_5_179051601_179052601",-0.33941275216686284,-6.578969583971682,219],["SPRY2_13_80913794_80914794",-0.3946486455631819,-8.5867795276539,212],["NOG_17_54670059_54671059",-0.3729534342058538,-7.907276895704786,219],["RTL6_22_44894005_44895005",-0.3642461471202117,-7.356379803588987,213],["CRY1_12_107487635_107488635",-0.38315408613806284,-8.236084679037777,216],["LPAR1_9_113799909_113800909",-0.34201575571178544,-6.648666266280888,218],["HHAT_1_210501639_210502639",-0.34717378949783584,-6.872771256745652,219],["TGIF1_18_3450402_3451402",-0.3328777269305826,-6.311272939565737,218],["HHAT_1_210501249_210502249",-0.35117726878479205,-6.820697866344029,212],["PIMREG_17_6346734_6347734",-0.3559239767057284,-7.183315186339603,218],["SPRY2_13_80914243_80915243",-0.3790337433936344,-8.095560880980555,217],["LOC107984282_10_134350427_134351427",-0.33226989480709956,-6.289214069454273,218]]},"para":{"top":[["GLB1_3_33138722_33139722",0.2293382099594301,-3.1783257896303687,217],["LOC100130449_2_241396131_241397131",0.23592734810634544,-3.3137340776555755,215],["BICDL2_16_3085542_3086542",0.2452863440212365,-3.6071924628407657,219],["AGL_1_100314639_100315639",0.24556695330640102,-3.5136663380610513,212],["CEP164_11_117191493_117192493",0.23648811490104518,-3.381168409828381,219],["PDIA5_3_122784855_122785855",0.26900083612689707,-4.051555287241502,207]],"bottom":[["BNC2_9_16870786_16871786",-0.25365296536093507,-3.7838527450451718,216],["NT5E_6_86158301_86159301",-0.31364393915470695,-5.331155637888596,205],["FOXC2_16_86599856_86600856",-0.3054513612603205,-5.362271001522345,218],["PRDM11_11_45114563_45115563",-0.339440545576088,-6.056331994535742,200]]}}}
{"ccle_gene_tpm":{"corr":{"top":[["AKAP12_ENSG00000131016.12",0.3152237783464734,-6.844728326881863,267],["TPM2_ENSG00000198467.9",0.32173019733575053,-7.1184347962672865,267],["RCN1_ENSG00000049449.4",0.3424506079613475,-8.034139943001229,267],["RIN3_ENSG00000100599.11",0.31193307412936133,-6.708759896917449,267],["CHST14_ENSG00000169105.6",0.3119829499751052,-6.710808455876599,267],["MFGE8_ENSG00000140545.10",0.3423190136711251,-8.028108457829447,267]],"bottom":[["BLNK_ENSG00000095585.12",-0.340106372246914,-7.927113440777367,267],["RP11-91K8.4_ENSG00000214301.4",-0.3309750206742117,-7.518613320796522,267],["LA16c-390H2.4_ENSG00000262312.1",-0.3256552366992648,-7.286707955688291,267],["BFSP2_ENSG00000170819.4",-0.3841213049097635,-10.089813872078604,267],["CTB-4E7.1_ENSG00000253980.1",-0.33071261450893563,-7.5070700190747335,267],["CYBB_ENSG00000165168.6",-0.3562723272707117,-8.68342174284161,267],["STAP1_ENSG00000035720.3",-0.3263711029541987,-7.31765669717036,267],["LINC00487_ENSG00000205837.3",-0.32623742241506287,-7.311871271653553,267],["SAMD7_ENSG00000187033.5",-0.32584772167824494,-7.295021719831884,267],["AC006509.7_ENSG00000224058.2",-0.3248952154276203,-7.253937701777808,267],["IGLV6-57_ENSG00000211640.3",-0.3915671087021517,-10.488980015005238,267],["PRAMENP_ENSG00000197549.5",-0.32820521832972116,-7.397315625776593,267],["AC023590.1_ENSG00000225885.2",-0.32651192099820786,-7.323754037063183,267],["None_ENSG00000262560.1",-0.34612892879067614,-8.203869365795287,267]]},"para":{"top":[["AGPAT4_ENSG00000026652.9",0.3059914355249315,-6.467400200431064,267],["MAGED4B_ENSG00000187243.12",0.3093289532801888,-6.602322361132837,267],["KIAA1462_ENSG00000165757.8",0.31430939213350617,-6.806781792524211,267],["KIAA0754_ENSG00000255103.1",0.30097041931280755,-6.267553142404596,267],["RP11-474B16.1_ENSG00000257642.1",0.30180693723803487,-6.300588457422782,267],["CDH6_ENSG00000113361.8",0.2976604486421409,-6.137850629669849,267]],"bottom":[["IGLV11-55_ENSG00000211641.2",-0.23163079620816565,-3.8732500666293825,267],["ZNF587B_ENSG00000269343.2",-0.23475230424567575,-3.967034207325467,267],["CTD-2516F10.2_ENSG00000251364.2",-0.24070896176342285,-4.149527004520435,267],["MAGEA8-AS1_ENSG00000230899.1",-0.2388217455536082,-4.091205571209993,267],["OTOR_ENSG00000125879.4",-0.24007338870574899,-4.1298333338087225,267],["RP11-334E6.3_ENSG00000254740.2",-0.2503634316820013,-4.455253221145544,267],["LL22NC03-30E12.13_ENSG00000227710.1",-0.2301931687707599,-3.8304822274297456,267],["AC113607.2_ENSG00000228799.1",-0.23730166491862362,-4.044569765327824,267],["AC006509.4_ENSG00000224443.1",-0.24009008572800264,-4.130350022842421,267],["ZNF749_ENSG00000186230.6",-0.24540092353085294,-4.2965602731154755,267]]}}}
{"ccle_rrbs_tss_clusters":{"corr":{"top":[["C11orf24_3",0.3322949912403289,-5.073118370246047,172],["KIAA0930_1",0.31981825750835813,-5.823314166330503,217],["ARMC12_2",0.3274241431566581,-6.115048351052158,218],["MIR3918_1",0.32315175061973733,-5.21537579138178,188],["MIR4725_1",0.3402413217746323,-6.609956655677434,219],["CISH_1",0.3745824747594403,-5.769181990290956,154],["CTRC_1",0.386356929895025,-4.181108577489718,101],["AMD1_2",0.33478049423828904,-6.166471161493278,210],["KRT19_3",0.35524707548808226,-3.85409870525744,110],["OGFR-AS1_1",0.3347446506833016,-6.406068592574816,219],["LPCAT4_3",0.32655806044168656,-5.651395121323015,201],["HMCES_1",0.40701314024382157,-7.074932920894354,161],["PRDM15_6",0.32193245917512747,-5.103885932817063,185]],"bottom":[["SPRY2_6",-0.3894193072200055,-8.653798415950222,220],["ANKRD29_2",-0.3919860195579091,-8.731369617195881,219],["SPATS2L_1",-0.3528747853047248,-7.093705416402703,219],["TBC1D8_2",-0.381181025758127,-8.327133279886947,221],["TNFRSF21_2",-0.3654617001822106,-7.500910047965382,216],["CRY1",-0.36292169263757035,-7.557027362540846,221],["NOG_3",-0.3487109225165666,-6.844606346233036,216],["FAM20C_3",-0.3466447581399379,-6.9099617014259325,221],["VPS37B",-0.3833047908714564,-8.278005518586983,217],["SMOX_1",-0.3663800139257443,-7.699236994135682,221],["PIMREG_3",-0.3568947854045179,-7.282664793140784,220],["CXCL3_1",-0.42136091221485,-5.208087493676373,107],["SPRY2_5",-0.3836929408440471,-8.401322434280056,220],["RND3_3",-0.3924744081670432,-5.146996792608397,123],["EIF4E3_1",-0.3520677848794591,-7.06216526563296,219]]},"para":{"top":[["CTRC_1",0.32100264750043445,-2.9729330825034137,101],["CATSPER1_2",0.2937035831652099,-3.2842466806019077,136],["ARMS2_3",0.2830390930150379,-3.4061391565983326,153],["KRT19_3",0.3218382878970984,-3.2170314747337656,110],["UNC13B_1",0.2911463535029105,-2.9639142135968117,123],["MIR149_3",0.2831482790916128,-4.7151604377434495,221],["SLA_1",0.28648477463147504,-4.759618829368774,218],["AKR7A2P1_1",0.27727894765442873,-4.317567633195147,209],["LAIR1_4",0.28799321600598154,-2.6622928700571147,111],["LOC105372977_1",0.28348509055121307,-4.2659452886822455,197],["MIR4265_3",0.3069151493277308,-4.102467575193084,160]],"bottom":[["GLIS3_2",-0.30780551547024615,-5.440077230456398,218],["BICC1_3",-0.2892005206675371,-3.438959233076083,148],["LOC101927907_2",-0.3115518063571064,-3.1544397980162646,115],["CXCL3_1",-0.3787132552399104,-4.239362025129411,107],["PRDM11_1",-0.33242432187520765,-5.475222298281749,187],["MXRA7_4",-0.31188913866843115,-5.507164498159233,215]]}}}
{"ccle_rrbs_cgi_clusters":{"corr":{"top":[["12_133347663_133351998-1",0.3468619006592913,-5.966556000863036,188],["17_78850167_78852933-3",0.3491038197284688,-4.774528754668942,145],["22_47079750_47084045-1",0.37388409848115617,-4.068667122020091,105],["1_208039862_208044718-1",0.3409463001567551,-6.024331694250021,197],["3_128995382_128999600-1",0.40701314024382157,-7.074932920894354,161],["7_73788230_73792510-2",0.3478731758008214,-5.446075266243932,169],["2_133400720_133405010-3",0.3677066171139714,-7.396663739489144,210],["17_78850167_78852933-1",0.34181387208597414,-4.871857751893295,155],["3_50646939_50651829-1",0.3745824747594403,-5.769181990290956,154],["11_73071118_73075733-2",0.33954190998896,-5.45084323266879,178],["10_76991892_76994922-1",0.3738630585222019,-7.6425128034500895,210],["17_39681908_39686599-3",0.35524707548808226,-3.85409870525744,110],["15_75973005_75977363-1",0.34376580425447684,-6.686270726919132,217]],"bottom":[["18_21240366_21244805-2",-0.3919860195579091,-8.731369617195881,219],["2_101765042_101767650-3",-0.3914444965116217,-8.781319725752157,221],["12_107487212_107489811-1",-0.38341268152553426,-8.318133058397917,218],["4_74901953_74906589-1",-0.42136091221485,-5.208087493676373,107],["13_80911157_80915461-1",-0.3881104235321364,-8.595661332697599,220],["12_123378333_123382894-1",-0.3833047908714564,-8.278005518586983,217],["17_33567141_33569834-3",-0.3956850372852526,-6.191215395406065,148],["13_80912013_80914793-1",-0.3944095890096274,-8.689423406983098,215],["20_4127482_4132412-1",-0.3663800139257443,-7.699236994135682,221],["6_144603926_144607103-1",-0.36082361933259743,-7.471569536759182,221],["13_110437323_110442180-3",-0.3701593948004497,-6.568451003901806,182],["2_201169200_201171846-2",-0.3664766255379129,-7.606446291430894,218],["10_112287947_112292305-3",-0.3951296582314184,-4.596612975266327,107],["8_125737685_125740475-1",-0.40999372759435565,-6.393525590102256,142],["6_47274455_47277139-2",-0.3753806213515064,-7.873697878888556,215]]},"para":{"top":[["10_15252598_15256852-2",0.3069678850847323,-5.232819021587949,210],["7_73788230_73792510-2",0.31559602577342566,-4.534625336524203,169],["6_16324950_16329781-2",0.29705227515699006,-4.859038550455327,207],["9_35159874_35164409-1",0.2911463535029105,-2.9639142135968117,123],["9_46146700_46149213-2",0.29769875712138016,-2.7121625156558204,106],["7_148956858_148959374-1",0.3358526585236108,-3.918214707531599,126],["10_76991892_76994922-1",0.32367870294047646,-5.78259073718163,210],["2_241392737_241395598-2",0.3011453335092784,-5.178538687083457,216],["9_129242737_129247247-3",0.3128299556300564,-2.8395359799011595,101],["7_282872_287161-3",0.30182618515964416,-3.159876448669807,123],["17_39681908_39686599-3",0.3218382878970984,-3.2170314747337656,110]],"bottom":[["16_57833955_57836472-1",-0.2838362035963133,-4.602170438201792,214],["11_1296009_1300476-3",-0.2943065615502547,-2.7867541632560364,112],["2_99436297_99439091-2",-0.278799734270146,-2.5740277573606716,114],["4_74901953_74906589-1",-0.3787132552399104,-4.239362025129411,107],["11_63883581_63887788-2",-0.3078233934931433,-3.4584466147707125,131],["10_131909309_131911886-2",-0.2899104835701745,-2.9829420369310404,125],["18_33877607_33880487-2",-0.29241421543787266,-4.821377576173502,212],["17_74704465_74709067-1",-0.31188913866843115,-5.507164498159233,215],["1_39568665_39571262-2",-0.29803071405872555,-4.973422018172859,211],["9_4298999_4302182-1",-0.34278440400189303,-6.593264312137708,215]]}}}
