{"depmap_hotspot":{"corr":{"top":[["BECN1",0.11793605235373211,-2.057279327274058,11.0,482.0],["CCRL2",0.1160831168381228,-2.0047976907532035,8.0,485.0],["COMMD8",0.1254289956629103,-2.2766852593355797,8.0,485.0],["FLJ30594",0.11758709489924943,-2.047342057677109,10.0,483.0],["GPR162",0.11489091648162532,-1.9714003883708158,11.0,482.0],["GSTO2",0.12301827850825943,-2.204834468077725,8.0,485.0],["KCTD9",0.12850241207041205,-2.370032452056674,11.0,482.0],["KRTAP5-10",0.15761526920574678,-3.3530683359332376,14.0,479.0],["NDUFAF6",0.14925808229731422,-3.052357335927735,13.0,480.0],["NMNAT3",0.13428986396555384,-2.551152714525452,11.0,482.0],["PIRT",0.12764051822141162,-2.3436568071246575,9.0,484.0],["ZEB1",0.14579690562527045,-2.932222286308577,27.0,466.0]],"bottom":[["AGRN",-0.17911293100278294,-4.196916551187753,62.0,431.0],["AJUBA",-0.14288214269214355,-2.833039646100966,12.0,481.0],["C19orf47",-0.13387413571288023,-2.53790871234605,17.0,476.0],["C2orf42",-0.13067061955613327,-2.4370676189123293,14.0,479.0],["CLIC1",-0.13725112891076477,-2.646541912645696,13.0,480.0],["CMPK1",-0.13628561040021211,-2.615237526663737,8.0,485.0],["CYP4Z1",-0.14722258752484313,-2.981395791338612,16.0,477.0],["DHRS11",-0.1682525118436658,-3.7578344462721547,8.0,485.0],["DNAJC18",-0.1429693807095228,-2.8359818692371044,8.0,485.0],["GNA11",-0.1344745569272452,-2.5570481827138654,11.0,482.0],["GNB4",-0.13353049196205208,-2.526988506972165,12.0,481.0],["GRWD1",-0.13432284215410104,-2.552204865342131,12.0,481.0],["IER5L",-0.15289832184636634,-3.181485356693638,11.0,482.0],["IGLL5",-0.18969033027493495,-4.650046429349166,22.0,471.0],["ITPRIP",-0.14429721162476414,-2.8809648760079147,11.0,482.0],["KLF11",-0.14942825477815555,-3.0583301901651407,14.0,479.0],["LCLAT1",-0.1436249630406935,-2.85814412682822,10.0,483.0],["LMO4",-0.1431301751837504,-2.84140912988788,8.0,485.0],["MGAT4A",-0.14716014233344632,-2.9792328695498265,11.0,482.0],["MTO1",-0.1561124452263169,-3.297877836004001,21.0,472.0],["NELFE",-0.14866910903899058,-3.03173309676082,11.0,482.0],["OXER1",-0.13713158132805126,-2.642655238472422,8.0,485.0],["PCDHGA2",-0.14800812511818306,-3.0086759288429943,41.0,452.0],["RECK",-0.15319598997852685,-3.1921707937322767,22.0,471.0],["REEP4",-0.1395824605509106,-2.7229403501190217,11.0,482.0],["SLC28A3",-0.1524459237169874,-3.1652822142138657,27.0,466.0],["SMAD2",-0.1403995135353139,-2.749987491889073,16.0,477.0],["STK19",-0.14376712891444005,-2.8629621857359675,22.0,471.0],["TBCCD1",-0.16772821496730078,-3.7373009209276904,21.0,472.0],["TSPYL5",-0.1497194210682338,-3.0685642224876375,14.0,479.0],["UBA5",-0.1420001826634798,-2.80338522872438,13.0,480.0],["WSB2",-0.1577399078330078,-3.3576676896665356,12.0,481.0],["YJEFN3",-0.1317327541581917,-2.4702638472647043,11.0,482.0],["ZNF33A",-0.14052847889754716,-2.7542695954671994,23.0,470.0]]},"para":{"top":[["C5orf49",0.11878381477939719,-2.374124527095632,8.0,485.0],["CCDC181",0.12559405167049842,-2.57210380384257,11.0,482.0],["CCRL2",0.11421520651865114,-2.2465674406672003,8.0,485.0],["FLJ30594",0.11182175958559139,-2.181525058212495,10.0,483.0],["GLIPR1L1",0.11241032424280087,-2.197296864623641,8.0,485.0],["GPR1",0.11040629427438138,-2.1434888666997742,10.0,483.0],["GPR162",0.11883908922951895,-2.3759241644209235,11.0,482.0],["KIR3DX1",0.12190780321076156,-2.4640449749163644,13.0,480.0],["KRTAP5-10",0.15144596102960095,-3.4065562352651018,14.0,479.0],["MS4A3",0.14571418979827327,-3.2099036876531297,11.0,482.0],["MYCL",0.12098351505308973,-2.4369975951121488,8.0,485.0],["NDUFAF6",0.11292371847943217,-2.211571890448618,13.0,480.0],["NMNAT3",0.12718629281730073,-2.6196536261230494,11.0,482.0],["OR9A4",0.12217528289246564,-2.4719277990854662,16.0,477.0],["OR9K2",0.12184749964977983,-2.4620439529721354,9.0,484.0],["PIRT",0.12041024211786891,-2.420611537710296,9.0,484.0],["TMEM156",0.11801481289801742,-2.3524575935175096,9.0,484.0]],"bottom":[["AGPAT4",-0.13894522791095082,-2.9866075209625054,16.0,477.0],["AJUBA",-0.1355862250393827,-2.878864371698817,12.0,481.0],["AL133481.1",-0.11671610103378247,-2.316115985678533,11.0,482.0],["C19orf47",-0.14739702683352632,-3.2672161394442902,17.0,476.0],["C5AR2",-0.12424305918230255,-2.532150290165926,11.0,482.0],["CCDC11",-0.13119238042586792,-2.7412521823848937,8.0,485.0],["CDC123",-0.12391644875134646,-2.5223057357097733,8.0,485.0],["CDC14B",-0.13999952996021012,-3.0204044770820957,9.0,484.0],["CLIC1",-0.14419011237113788,-3.158896493328134,13.0,480.0],["CMPK1",-0.11951704820396136,-2.39497683229312,8.0,485.0],["COLEC10",-0.1100524279465789,-2.134040629244428,10.0,483.0],["CYP4Z1",-0.14071471851242165,-3.0441681489425916,16.0,477.0],["DHRS11",-0.14963602118221306,-3.3433384973146496,8.0,485.0],["DNAJC18",-0.12363443589574481,-2.5140295520088407,8.0,485.0],["DUOXA2",-0.12370155773324693,-2.5161695507307527,10.0,483.0],["EIF2D",-0.13179425012354726,-2.7601462624642594,12.0,481.0],["FAM46B",-0.12562254636988907,-2.57288194722508,10.0,483.0],["FDPS",-0.12267559218669936,-2.4860075259735117,8.0,485.0],["GNB4",-0.12347040274732331,-2.5095204297084996,12.0,481.0],["GRWD1",-0.13609490460126306,-2.895007068771755,12.0,481.0],["IFIT2",-0.11386273558360818,-2.236982547800266,9.0,484.0],["IGLL5",-0.1807488507200449,-4.514834528261578,22.0,471.0],["ITPRIP",-0.12501505488984305,-2.5549368549716993,11.0,482.0],["KLF11",-0.13715941569734683,-2.9290621259706215,14.0,479.0],["KLK10",-0.1274368344961,-2.627031392570474,9.0,484.0],["LMO4",-0.12577773359831704,-2.577321195904144,8.0,485.0],["MR1",-0.13049942942057913,-2.7202610583959097,12.0,481.0],["MTHFD2L",-0.14382655635681996,-3.146369937678525,8.0,485.0],["NELFE",-0.1369327386249999,-2.9216433224610374,11.0,482.0],["NPLOC4",-0.13495449962442732,-2.858825114358566,11.0,482.0],["OIP5",-0.1266801747362422,-2.6042410586295826,8.0,485.0],["OXER1",-0.10552921056612159,-2.015257421528596,8.0,485.0],["REEP4",-0.15386839445917008,-3.49138441224219,11.0,482.0],["RMDN2",-0.13804248245458942,-2.957223426776277,11.0,482.0],["TEX264",-0.14195071072401327,-3.084479883511187,11.0,482.0],["TMX3",-0.14750094130255093,-3.270671662356168,15.0,478.0],["TRMT13",-0.12333167195771956,-2.505459060546549,12.0,481.0]]}}}
{"depmap_damaging":{"corr":{"top":[["MYH14",0.14051050222106273,-2.753672495099935,11.0,482.0],["PLCB4",0.12085595281752731,-2.1414062798710334,8.0,485.0],["SCAF8",0.1226088202793551,-2.1927498267021797,9.0,484.0],["TESPA1",0.1556835559517165,-3.2822170837097855,8.0,485.0]],"bottom":[["AGL",-0.14416213971983788,-2.876371871386587,8.0,485.0],["ARID1B",-0.17848981675804865,-4.171011291724841,12.0,481.0],["DIDO1",-0.11838102569909455,-2.069986950359657,8.0,485.0],["GRM8",-0.1311618020154953,-2.4523898692089,9.0,484.0],["IBTK",-0.1294410456166738,-2.3989322557701773,8.0,485.0],["ITGAE",-0.12977223423523213,-2.409173088089531,8.0,485.0],["MAGI1",-0.12069676704845958,-2.1367748291964723,11.0,482.0],["NELFE",-0.13584882541051926,-2.6011404437931755,8.0,485.0],["PDE4DIP",-0.13887952255210462,-2.699783891753856,18.0,475.0],["RUSC1",-0.13472326409092622,-2.564998326500045,8.0,485.0],["SLC26A7",-0.14117498417087024,-2.7757890038879824,10.0,483.0],["SLCO5A1",-0.12654743036010271,-2.310428080675097,9.0,484.0],["TEX10",-0.13357370359607523,-2.528360311605678,8.0,485.0]]},"para":{"top":[["MT-CO3",0.12835237232722269,-2.654724424801812,10.0,483.0],["MYH14",0.12506330462156431,-2.556364911783413,11.0,482.0],["SCAF8",0.11221255100993269,-2.1920223896869184,9.0,484.0],["TESPA1",0.15849122484810355,-3.6566009390388157,8.0,485.0]],"bottom":[["AGL",-0.12809023901425023,-2.6466249551258025,8.0,485.0],["ARID1B",-0.16730933226210315,-3.984644363798484,12.0,481.0],["ITGAE",-0.11675332221906559,-2.3169289380945357,8.0,485.0],["KDM5B",-0.15271859661305226,-3.450804787012571,10.0,483.0],["MAGI1",-0.13292801089213346,-2.7952803912203614,11.0,482.0],["PDE4DIP",-0.14035522940047107,-3.032496102249426,18.0,475.0],["RUSC1",-0.12284479990006035,-2.490939454707219,8.0,485.0],["SLC26A7",-0.11247893990865321,-2.1993171267107816,10.0,483.0],["SLCO5A1",-0.11375627206272584,-2.234065887566687,9.0,484.0],["TEX10",-0.13615580668445623,-2.896620196623971,8.0,485.0]]}}}
{"ccle_mirna":{"corr":{"top":[],"bottom":[]},"para":{"top":[["hsa-miR-452_miR00378.1",0.25853189431740375,-7.113873517974687,420]],"bottom":[]}}}
{"prism_primary_logfold":{"corr":{"top":[],"bottom":[["cilnidipine_BRD-A02743701-001-03-6::2.5::HTS",-0.2179454811706828,-3.848323727935682,300]]},"para":{"top":[],"bottom":[["cilnidipine_BRD-A02743701-001-03-6::2.5::HTS",-0.2260874299574996,-4.108656703030562,300]]}}}
{"prism_secondary_logfold":{"corr":{"top":[["brilliant-green_BRD-K60348325-065-09-9::2.5::HTS002",0.22863626004404658,-3.5112101410122154,245]],"bottom":[["epothilone-a_BRD-K71823332-001-03-7::10::HTS002",-0.2191658589039731,-3.3740870747263423,255]]},"para":{"top":[["nobiletin_BRD-K06753942-001-14-5::0.0390625::HTS002",0.22338334694014209,-3.5366735807455107,259],["NSC-697923_BRD-K20605374-001-05-4::0.00061034::HTS002",0.2496402976025894,-4.343572062029887,261],["chicago-sky-blue-6b_BRD-K56483981-342-06-4::0.0390625::HTS002",0.23710711361162806,-3.958761270902951,261],["AT13387_BRD-K58435339-001-03-0::0.0390625::HTS002",0.23719727049160227,-3.934795872105861,259],["azithromycin_BRD-K74501079-001-18-1::0.0024414::HTS002",0.23781923520233722,-3.7653890239552394,245]],"bottom":[]}}}
{"ccle_proteomics":{"corr":{"top":[["SOX15_O60248",0.3377719193144242,-3.2302274294895823,100],["LACE1_Q8WV93",0.24921054728535508,-3.858676470916583,229],["ABCB8_Q9NUT2",0.277877216818527,-5.10414604264638,251]],"bottom":[["SAE1_Q9UBE0",-0.2723523011390195,-4.918344603494393,251],["HDAC8_Q9BY41",-0.29804445943425756,-3.5660574264630953,145]]},"para":{"top":[],"bottom":[["ANKHD1_Q8IWZ3-2",-0.31081908190819074,-2.7833141986540153,100],["IFT46_Q9NQC8-2",-0.26254322177806555,-2.7967232435802316,142],["IQCB1_Q15051",-0.27452593113946133,-3.335326693546559,159],["HDAC8_Q9BY41",-0.29362698787592506,-3.471403572529451,145]]}}}
{"depmap_gene_tpm":{"corr":{"top":[],"bottom":[["PKN1_5585",-0.2657207728052868,-8.653622050745676,491],["HAUS8_93323",-0.2756418545308629,-9.284169008790846,491],["ZNF653_115950",-0.24943277082822435,-7.673271358246093,491],["ERICH3_127254",-0.2505429475339375,-7.737958161572785,491]]},"para":{"top":[],"bottom":[["ASF1B_55723",-0.2326430177308543,-6.732307097320113,491],["PKN1_5585",-0.24139055362951847,-7.213861630980683,491],["EPS15L1_58513",-0.2449297451630669,-7.414054284032738,491],["HAUS8_93323",-0.2610053161843077,-8.36285500465211,491]]}}}
{"avana":{"corr":{"top":[["F11_2160",0.20421577772252683,-3.952646830351123,353],["GRIA1_2890",0.23038755748544082,-4.9100766651850165,353],["NSG2_51617",0.1974088614042264,-3.7223888945424632,353],["OAZ1_4946",0.22587753546570696,-4.736796152779713,353],["SERPINA11_256394",0.22524493472904666,-4.7127702716963435,353],["YY1_7528",0.211572238795146,-4.1680831909295595,349]],"bottom":[["COPS7A_50813",-0.23575675712692956,-5.120950881152287,353],["PITPNM1_9600",-0.19708057951483132,-3.7114762364131186,353],["SCG5_6447",-0.19415408045714905,-3.6149714630290988,353]]},"para":{"top":[["F11_2160",0.1970819233577154,-3.7115208721739466,353],["PRPF19_27339",0.22844307214287,-4.834937949449036,353],["SERPINA11_256394",0.2150093011440144,-4.333497456288778,353],["SNU13_4809",0.2535094227354111,-5.8542209060889805,353]],"bottom":[["CSNK1G3_1456",-0.18755026969096197,-3.4023104623819043,353],["EFCAB5_374786",-0.212634366928866,-4.2480274621330345,353],["FAM133A_286499",-0.22268853743696462,-4.2091063008108565,318],["NAA35_60560",-0.23013782491627346,-4.9003900062062025,353]]}}}
{"achilles":{"corr":{"top":[["WDR37_22884",0.32029876657734374,-7.49420901522543,285],["TRMT61B_55006",0.33925177536349616,-8.379778338427647,285],["DNAH10_196385",0.2624033728648446,-5.146000483149937,285],["PPP1R32_220004",0.291714729095952,-6.2698335141092505,285]],"bottom":[["TUBA3D_113457",-0.35231619365527794,-15.361075073065999,501],["C2orf48_348738",-0.2776115530748501,-5.712924589684564,285],["PHOSPHO2_493911",-0.3156125457203937,-7.28446833044806,285],["ANKRD33_341405",-0.27801652437314245,-5.72849356835185,285],["C14orf28_122525",-0.2627306710380207,-5.1578408260197115,285]]},"para":{"top":[["TRMT61B_55006",0.3276918323728627,-7.832469673885163,285],["PHLDA1_22822",0.31858652395174486,-7.417156867863247,285],["PPP1R32_220004",0.2791007409803594,-5.77029788240014,285],["SHROOM2_357",0.2783070058461262,-5.739676281288901,285]],"bottom":[["C2orf48_348738",-0.28154031636326543,-5.865012145402377,285],["SPATA22_84690",-0.24708220271307388,-4.609153916890165,285],["PHOSPHO2_493911",-0.3123073063097551,-7.138691949085964,285],["ANKRD33_341405",-0.3065909582197092,-6.8907429159153155,285],["C14orf28_122525",-0.2730074838060094,-5.537658340205209,285]]}}}
{"ccle_rrbs_tss1kb":{"corr":{"top":[["MARCH8_10_46090354_46091354",0.32186988590704335,-3.5481819005317763,123]],"bottom":[["LINC01105_2_6071818_6072818",-0.25598475682640687,-6.144331259820508,365]]},"para":{"top":[["CLU_8_27469268_27470268",0.3241774042737454,-4.081163064607054,142]],"bottom":[]}}}
{"ccle_gene_tpm":{"corr":{"top":[],"bottom":[["ASF1B_ENSG00000105011.4",-0.2551232497670297,-7.8125868999508254,478],["HAUS8_ENSG00000131351.10",-0.27772506918126005,-9.187661640301476,478],["C1orf173_ENSG00000178965.9",-0.2530686750942303,-7.693903208515648,478],["MAD2L1_ENSG00000164109.9",-0.2599613327605962,-8.096174434693841,478],["PKN1_ENSG00000123143.8",-0.25767052547758795,-7.961175554087908,478],["RP11-586D19.2_ENSG00000251408.1",-0.25865398083503927,-8.018971932277333,478]]},"para":{"top":[["RP5-1029F21.3_ENSG00000263015.1",0.20260218416558465,-5.095154186063337,478]],"bottom":[["ASF1B_ENSG00000105011.4",-0.23696691981236753,-6.799355262933476,478],["HAUS8_ENSG00000131351.10",-0.26122238231442346,-8.171044895187947,478],["PKN1_ENSG00000123143.8",-0.23751735453102144,-6.828903863634769,478],["RP11-435O5.6_ENSG00000271314.1",-0.25484064598307515,-7.796200553153076,478]]}}}
{"ccle_rrbs_tss_clusters":{"corr":{"top":[["MTERF2_1",0.33767367072301785,-4.180124304338675,134],["MARC1_3",0.2954272611913585,-2.998749483211051,121]],"bottom":[["MORC4_3",-0.314800507460026,-3.091779476062645,110],["MED1_1",-0.27531037819209725,-3.223778682113789,152],["FAM156A_3",-0.30316897210280425,-3.1174552564135274,120]]},"para":{"top":[["MARC1_3",0.2820096998589776,-2.7630168470699017,121]],"bottom":[["THNSL2_2",-0.3062724781152705,-2.8977183669681543,108],["LOC389906",-0.3094856162090873,-2.857212195058261,104],["MED1_1",-0.33133138526731903,-4.515515978577509,152],["XK_3",-0.25310602235528956,-2.7657173203702903,151],["ENDOG_2",-0.25425510262911954,-4.962715507790615,292]]}}}
{"ccle_rrbs_cgi_clusters":{"corr":{"top":[["1_220958016_220962603-3",0.2954272611913585,-2.998749483211051,121],["12_107378558_107383076-1",0.33767367072301785,-4.180124304338675,134]],"bottom":[["22_18983499_18987700-2",-0.28610751400956375,-4.201370410480504,190],["17_37605393_37609718-1",-0.27531037819209725,-3.223778682113789,152],["23_48532591_48537247-2",-0.3625430900959598,-4.100098801904182,113],["23_149734720_149737238-3",-0.2998498832592551,-2.902133740518904,113],["23_53022599_53026966-3",-0.30316897210280425,-3.1174552564135274,120],["23_106243050_106245593-2",-0.31098883952253287,-3.0013488833789803,109]]},"para":{"top":[["1_220958016_220962603-3",0.2820096998589776,-2.7630168470699017,121],["19_2442300_2446522-3",0.32379747760476457,-4.351779565925924,153]],"bottom":[["17_80289020_80291707-3",-0.26193497714218106,-6.701657919998339,383],["17_2627771_2630302-2",-0.25390603454810456,-6.126809844595396,370],["17_37605393_37609718-1",-0.33133138526731903,-4.515515978577509,152],["23_48532591_48537247-2",-0.3225582529383496,-3.3068310823936735,113],["2_88467691_88472386-2",-0.3062724781152705,-2.8977183669681543,108]]}}}
