{"depmap_hotspot":{"corr":{"top":[["ALDH3A1",0.15065202948855777,-2.4454976910543733,9.0,363.0],["AOC1",0.14730717239533217,-2.3554292889523705,27.0,345.0],["AOX1",0.1609597492753582,-2.7343733169548656,53.0,319.0],["ARHGEF38",0.1684429459939299,-2.9549179860664583,15.0,357.0],["BRINP2",0.15671869917021108,-2.6134378972346917,43.0,329.0],["C1orf63",0.16468080095747364,-2.842893100188648,11.0,361.0],["C22orf29",0.17903220031873135,-3.282804634165061,12.0,360.0],["CARD8",0.18143716702593057,-3.3598805793983715,9.0,363.0],["CCDC51",0.1762825979081455,-3.1958714529489636,10.0,362.0],["CEL",0.16576222382248706,-2.8748563503633555,27.0,345.0],["CNBD1",0.16827792303791858,-2.9499552935738267,22.0,350.0],["CNOT10",0.14952905070844408,-2.4150593741151676,12.0,360.0],["CP",0.15608691997920743,-2.5956719490486875,20.0,352.0],["CTR9",0.16010070840970947,-2.7096414086440666,14.0,358.0],["DIDO1",0.15148421783460012,-2.468184452884432,62.0,310.0],["DLX1",0.15456900196752904,-2.553250896642852,8.0,364.0],["DMXL2",0.17429278774509252,-3.1337477491906496,42.0,330.0],["ECM2",0.14956739199133806,-2.41609528655909,12.0,360.0],["EPG5",0.1715119140310498,-3.04802959934158,42.0,330.0],["FAM180A",0.1663559305679293,-2.8924859436748194,8.0,364.0],["FAM46C",0.17825999474080406,-3.2582623287716226,9.0,363.0],["FBXL13",0.16393296107554628,-2.8209015516234732,15.0,357.0],["FMNL2",0.15944276917492453,-2.69078043077238,23.0,349.0],["GLE1",0.17938063884362268,-3.2939114631844104,14.0,358.0],["GLYCTK",0.15105089909551414,-2.456357649070208,8.0,364.0],["GUCY2C",0.1527463033542898,-2.502802948745468,40.0,332.0],["HOXA4",0.17802835582114385,-3.2509198343212717,12.0,360.0],["ICAM1",0.20085501225995914,-4.018180908032511,10.0,362.0],["KRT4",0.15564223087091786,-2.583205755337957,19.0,353.0],["KRT77",0.17546530633875942,-3.1702749974423705,13.0,359.0],["LETM1",0.16627910288622177,-2.8902013529464097,19.0,353.0],["LTA",0.19187515902398064,-3.705733274314767,11.0,361.0],["MYL1",0.1477702463465516,-2.367792143311321,10.0,362.0],["MYT1L",0.17227259507446882,-3.0713494428612176,42.0,330.0],["NACC1",0.15567660467165956,-2.584168234167849,14.0,358.0],["NEO1",0.1628643388523716,-2.789635654928775,26.0,346.0],["NLRP1",0.17516451518872675,-3.1608826694616288,47.0,325.0],["NUDT19",0.22164489913481514,-4.795630106205166,13.0,359.0],["OR10A6",0.1854785301726115,-3.491595004229632,9.0,363.0],["OR14I1",0.15009263386550484,-2.4303100530989967,11.0,361.0],["PDE8A",0.14896145130762692,-2.3997513521701257,15.0,357.0],["PPARGC1A",0.16081287196475563,-2.730136183691434,22.0,350.0],["RP11-307N16.6",0.20391043082882354,-4.127674285672814,9.0,363.0],["SCN10A",0.14698040984828048,-2.346726153089076,52.0,320.0],["SELO",0.1871046194510921,-3.5453713511223963,8.0,364.0],["SERBP1",0.15235098986284423,-2.4919321434371264,10.0,362.0],["SLC17A3",0.15973947886679035,-2.6992774199854535,12.0,360.0],["SLC25A17",0.18486883898215684,-3.4715474385042633,8.0,364.0],["SNRPN",0.2150048464620609,-4.539008010929564,19.0,353.0],["SPARC",0.17630333814663943,-3.1965224589103207,12.0,360.0],["SSX5",0.15808669065272124,-2.6521278880575556,8.0,364.0],["SYNRG",0.14510514112355802,-2.297107961433434,23.0,349.0],["TAF5L",0.14774068883803448,-2.3670020143664523,28.0,344.0],["TAS1R2",0.1507335541375835,-2.447715276497043,32.0,340.0],["TAS2R39",0.15068285978036633,-2.4463361932736913,12.0,360.0],["THUMPD2",0.15553526510535015,-2.580211896097917,16.0,356.0],["TMTC4",0.14655896118921347,-2.3355262135917476,28.0,344.0],["TRAF1",0.1491358138727775,-2.404448389910463,10.0,362.0],["TRNT1",0.15074959794272583,-2.4481518160305322,11.0,361.0],["UEVLD",0.1864467367668236,-3.5235605117718425,9.0,363.0],["YBX3",0.14617535803978346,-2.325356587050293,13.0,359.0],["ZFP90",0.15332522698187254,-2.5187682234398756,11.0,361.0]],"bottom":[["DCAF4L2",-0.14314413816796207,-2.2458184667807277,35.0,337.0],["LRRC37A",-0.11607003533858219,-1.5990401343037903,11.0,361.0],["MBTPS2",-0.15234540870667518,-2.4917788458602996,9.0,363.0],["MT-ND4",-0.10286964653886144,-1.3241753897384727,141.0,231.0],["MT-ND5",-0.15158635899428272,-2.470976633265676,192.0,180.0],["OR10P1",-0.11409215663460488,-1.5561948999352222,9.0,363.0],["RCOR1",-0.11973531799713077,-1.680002074773857,12.0,360.0],["SC5D",-0.13328493764683597,-1.9971349747891622,8.0,364.0],["WDR47",-0.14684469701007524,-2.3431165164761354,9.0,363.0]]},"para":{"top":[["ACMSD",0.16057421941164524,-3.0019493534700725,13.0,359.0],["AIFM1",0.13011431810019858,-2.2124730436026567,8.0,364.0],["ALDH3B1",0.15454082039765482,-2.8344283170986087,10.0,362.0],["ALDH6A1",0.1567575147057657,-2.8955013542349777,13.0,359.0],["ALKBH1",0.1486646577464315,-2.6766545700381585,9.0,363.0],["AQP7",0.1352237434844254,-2.335332512181737,9.0,363.0],["ARHGEF38",0.16441150527366122,-3.111307390464689,15.0,357.0],["BTBD19",0.1361198044352258,-2.3572552102549826,9.0,363.0],["C11orf65",0.14206639074508307,-2.505749054736336,9.0,363.0],["C1QTNF6",0.16126237435628057,-3.02086207421902,8.0,364.0],["C22orf29",0.20812744454826151,-4.513024248257151,12.0,360.0],["CA2",0.1295966218743357,-2.2002507650988155,8.0,364.0],["CARD8",0.13970404823842744,-2.4461318983316556,9.0,363.0],["CCDC51",0.14355193882706546,-2.5437671892502434,10.0,362.0],["CD84",0.1556351244630805,-2.8645397905634926,12.0,360.0],["CERK",0.17902019403788824,-3.5474113063175943,14.0,358.0],["CMAS",0.13514228339798898,-2.3333454126754587,9.0,363.0],["DDAH2",0.13123599325623475,-2.239089659647166,8.0,364.0],["EMID1",0.13831117500969384,-2.411248057238347,8.0,364.0],["FAM46C",0.12976591769318654,-2.204357132897392,9.0,363.0],["FBXW12",0.15570161774666075,-2.866184714121246,10.0,362.0],["FCN3",0.15619764195811792,-2.879912463614286,11.0,361.0],["FKBP5",0.16377752514693694,-3.0929782760823494,13.0,359.0],["GLYCTK",0.17420478000285206,-3.399453259664483,8.0,364.0],["GRB7",0.14193740312277414,-2.502664814477089,11.0,361.0],["HLF",0.1251099212501909,-2.0959698430640636,8.0,364.0],["HOXA4",0.15917711637166224,-2.962655431838856,12.0,360.0],["HPD",0.14486750915593882,-2.5776171212962886,10.0,362.0],["KRTAP10-10",0.13204680011340575,-2.258560114224741,9.0,363.0],["LENG9",0.17932435053564438,-3.556583916811037,11.0,361.0],["MRPL35",0.13347934356830712,-2.2928777944842635,8.0,364.0],["NOP9",0.13489790313867978,-2.3273899851835074,9.0,363.0],["NR1H3",0.1278923357051493,-2.1604045440433857,9.0,363.0],["NUDT19",0.16084684117635092,-3.0096364483801286,13.0,359.0],["OR10A6",0.14222931091795585,-2.5098910709086146,9.0,363.0],["PAQR6",0.13496203844442162,-2.3290513168914346,10.0,362.0],["POLB",0.14670961567195792,-2.6253409032921695,9.0,363.0],["RNF148",0.13822489230538335,-2.4091040734333298,8.0,364.0],["RP11-307N16.6",0.15314496250043358,-2.7963980133126953,9.0,363.0],["RUVBL2",0.1329499897061447,-2.280332969437836,10.0,362.0],["SELO",0.15522258505454725,-2.8528116758218443,8.0,364.0],["SEPT8",0.13935134944797087,-2.4374913351472602,11.0,361.0],["SH3D19",0.15059410941103474,-2.7279637143699977,10.0,362.0],["SLC25A17",0.1225214401208766,-2.0371467156865077,8.0,364.0],["SPARC",0.1533682496415882,-2.802731908934509,12.0,360.0],["STEAP2",0.16188696004268513,-3.038904549382994,11.0,361.0],["STX19",0.14202133129504432,-2.50448166044445,8.0,364.0],["TAS2R4",0.15738255853514568,-2.9128503668858494,14.0,358.0],["TMEM39A",0.1370514736726323,-2.3802752418304456,10.0,362.0],["TRAF1",0.1777567673777732,-3.5080564248577817,10.0,362.0],["UEVLD",0.1564033659578896,-2.885368345950712,9.0,363.0],["USF1",0.14165909031290105,-2.495411234113444,9.0,363.0],["ZDHHC20",0.1402956772088348,-2.46086364099854,8.0,364.0],["ZNF284",0.1587636842055335,-2.951247627259357,14.0,358.0]],"bottom":[["AFTPH",-0.11654405384019434,-1.9052309365218056,10.0,362.0],["AMBN",-0.13174446779401966,-2.2516493462005753,13.0,359.0],["C3orf30",-0.16085253857276388,-3.0096354774120835,11.0,361.0],["GFI1",-0.1219878462028632,-2.02542070588502,11.0,361.0],["LRRC37A",-0.13188873741496718,-2.2549603081750966,11.0,361.0],["MARCH11",-0.1466437727160881,-2.6241384266582166,16.0,356.0],["OR10P1",-0.1300102979524957,-2.2101280444109213,9.0,363.0],["PPP1CA",-0.12281235952482632,-2.043909956024889,10.0,362.0],["WDR45B",-0.14633546651056809,-2.6154599336196287,8.0,364.0],["WDR47",-0.15966176941534557,-2.97592922954718,9.0,363.0]]}}}
{"depmap_damaging":{"corr":{"top":[["ANKRD26",0.1286142795461879,-1.8846223065219796,13.0,359.0],["BTBD7",0.12929540432104064,-1.9008196205354941,16.0,356.0],["C1orf168",0.1218863481619074,-1.728466224005712,8.0,364.0],["DNAH14",0.13244105808952591,-1.9765559701608626,11.0,361.0],["EIF5B",0.14871031118172,-2.3929945906425143,15.0,357.0],["NDST4",0.10488273652959906,-1.3644174342624582,8.0,364.0],["NEK10",0.13752483747126584,-2.102210907078047,11.0,361.0],["PLEKHA5",0.12566214563995776,-1.815246995047729,13.0,359.0],["PTEN",0.16304203048029187,-2.7948216394711327,27.0,345.0],["SCAF4",0.12132344734240304,-1.7157155751121136,21.0,351.0],["TRPS1",0.15087286045029555,-2.451507069338384,13.0,359.0],["TTC3",0.14293998405050282,-2.240513881635996,27.0,345.0],["USP47",0.13217220735634547,-1.9700229855227098,11.0,361.0],["ZNF638",0.1458111660614913,-2.3157232234019336,15.0,357.0]],"bottom":[["PCNX",-0.10360099643756322,-1.3387260247225252,8.0,364.0]]},"para":{"top":[["ANKRD26",0.14823808455871318,-2.6657601290242066,13.0,359.0],["BCLAF1",0.12942405646571473,-2.1961854132465426,8.0,364.0],["COL16A1",0.15061969982090517,-2.728537834289684,9.0,363.0],["COL5A1",0.12141940270601925,-2.0125985847107413,10.0,362.0],["DCHS2",0.12829963613733134,-2.1699156716367747,9.0,363.0],["DPAGT1",0.14888597075021293,-2.68318546902512,20.0,352.0],["FLNB",0.1362403901062424,-2.3600960683138736,8.0,364.0],["KIF20B",0.13572912993685127,-2.3479424759873226,12.0,360.0],["LAMB4",0.13375746192857016,-2.299714383858209,9.0,363.0],["LIFR",0.12072384809874599,-1.9969787048674772,9.0,363.0],["LRBA",0.11354803887258703,-1.8407713361749964,8.0,364.0],["NDST4",0.11682678163638514,-1.9111699762797612,8.0,364.0],["OSBPL8",0.11363682057877916,-1.8427595863066257,9.0,363.0],["PLEKHA5",0.1573027582351771,-2.9105744443887103,13.0,359.0],["PTEN",0.18076389774477414,-3.6021782589255804,27.0,345.0],["RLF",0.13380124109541575,-2.3008717966800156,10.0,362.0],["SCAF4",0.1523921331030358,-2.7768017420143565,21.0,351.0],["SIPA1L1",0.14770106258785745,-2.6515708893058547,12.0,360.0],["UBE3B",0.14199287249368134,-2.504279855184832,14.0,358.0]],"bottom":[]}}}
{"ccle_rppa":{"corr":{"top":[],"bottom":[]},"para":{"top":[["FOXO3_FOXO3a_pS318_S321_Caution",0.17772882716708788,-3.0689377759012344,349]],"bottom":[]}}}
{"ccle_rrbs_enhancer_clusters":{"corr":{"top":[],"bottom":[["2-147170004-147172903-1_enh",-0.2549600373624237,-4.7431688836767565,276],["9-81871423-81874224-1_enh",-0.2223169506096218,-4.0451981469572384,305]]},"para":{"top":[["16-72840343-72843124-0_enh",0.27366827562404605,-3.3711488556788707,162]],"bottom":[["16-78830182-78832888-0_enh",-0.22476512868496093,-4.327358823480715,322]]}}}
{"prism_primary_logfold":{"corr":{"top":[["piperaquine-phosphate_BRD-K27382019-418-01-9::2.5::HTS",0.1910896873216157,-2.9163868637740107,284],["ephedrine_BRD-K45014108-003-01-8::2.5::HTS",0.2207952333533534,-3.788591655442698,287],["amprenavir_BRD-K47827687-001-02-2::2.5::HTS",0.17100706979827646,-2.4149208830243376,284],["AP26113_BRD-K56032964-001-02-1::2.5::HTS",0.22716534152850057,-4.0342888074344865,291]],"bottom":[["oxcarbazepine_BRD-K04196797-001-24-4::2.5::HTS",-0.1858375800279945,-2.8134539531164147,288],["U-104_BRD-K77867004-001-02-7::2.5::HTS",-0.21141341135909383,-3.5404347727053995,290],["triclabendazole_BRD-K81916719-001-13-9::2.5::HTS",-0.24040656489945098,-4.249407649811866,275]]},"para":{"top":[["closantel_BRD-A19952358-001-11-3::2.5::HTS",0.1929831018485334,-2.984136406888732,286],["piperaquine-phosphate_BRD-K27382019-418-01-9::2.5::HTS",0.20728366780265967,-3.358530907532888,284],["ephedrine_BRD-K45014108-003-01-8::2.5::HTS",0.19910602438598998,-3.159336621883821,287],["toremifene_BRD-K51350053-048-16-5::2.5::HTS",0.18718365431027792,-2.865250412008086,290]],"bottom":[["anagrelide_BRD-K62200014-003-10-5::2.5::HTS",-0.23435411967770156,-4.162728061001341,283],["triclabendazole_BRD-K81916719-001-13-9::2.5::HTS",-0.23427158061818767,-4.056377643013646,275],["candesartan_BRD-K84091759-001-07-1::2.5::HTS",-0.17839290668279256,-2.470279675893727,268]]}}}
{"prism_secondary_logfold":{"corr":{"top":[["rabeprazole_BRD-A39390670-236-10-7::2.5::HTS002",0.2618401444059856,-3.4318193333646696,181],["obatoclax_BRD-K15600710-066-04-1::0.00061034::HTS002",0.25696952330253553,-3.525679083226281,194],["KP-1212_BRD-K46690591-001-01-2::0.625::HTS002",0.24109921828654227,-2.840966140808473,172],["rigosertib_BRD-K55187425-236-05-2::0.00976562::HTS002",0.2580152211275246,-3.9014342237202086,216]],"bottom":[["norethindrone-acetate_BRD-A09349126-001-10-7::10::HTS002",-0.2578621154102886,-4.182011649877923,234],["anagrelide_BRD-K62200014-003-10-5::10::MTS010::PROS001_PR500",-0.22153152638977092,-3.274498014133665,241],["anagrelide_BRD-K62200014-003-10-5::2.5::MTS010::PROS001_PR500",-0.22524590506952033,-3.3714762417901976,241],["YM-155_BRD-K76703230-004-04-1::0.625::HTS002",-0.30925596166279223,-3.2537981686668958,121]]},"para":{"top":[["rabeprazole_BRD-A39390670-236-10-7::2.5::HTS002",0.24224202700210282,-2.9922896939411268,181],["ebastine_BRD-K13314656-001-01-0::2.5::HTS002",0.25624927831703853,-4.337280008071444,247],["obatoclax_BRD-K15600710-066-04-1::0.00061034::HTS002",0.30683758717104,-4.869127542509821,194],["fexinidazole_BRD-K37069697-001-01-3::0.0390625::HTS002",0.24709999019317463,-3.274570426325622,193],["rigosertib_BRD-K55187425-236-05-2::0.00976562::HTS002",0.2502051110457951,-3.6923752395009104,216],["triciribine_BRD-K80431395-001-07-3::2.48737::HTS002",0.24167708848734576,-3.958341877440327,251]],"bottom":[["norethindrone-acetate_BRD-A09349126-001-10-7::10::HTS002",-0.2516167023930707,-4.0010390137964595,234],["PKI-179_BRD-A28467416-002-01-0::0.000610352::HTS002",-0.21253608011416514,-3.1002635505444163,246],["zardaverine_BRD-K37561857-001-15-5::0.625::HTS002",-0.21513944029177628,-3.0002939813062905,231],["YM-201636_BRD-K48488978-001-05-3::0.00976562::HTS002",-0.2088954258975411,-2.9877534325712416,244],["MLN0128_BRD-K59317601-001-05-5::0.625::MTS010::PROS004_PR500",-0.2067170715054835,-2.954615422199087,246],["felbamate_BRD-K99107520-001-24-1::10::MTS006",-0.22896788299017057,-3.5826113894035245,250]]}}}
{"ccle_proteomics":{"corr":{"top":[["ARSI_Q5FYB1",0.3910406009515831,-4.467915741196064,106],["SRPX_P78539",0.43540244712961795,-7.871727958667777,156],["TMEM120A_Q9BXJ8",0.3547640863161463,-8.371032954909888,259],["APMAP_Q9HDC9",0.3275216680744677,-7.799213645638628,284],["FAM46A_Q96IP4-2",0.33975621157005054,-3.578222836089554,111]],"bottom":[["AKNA_Q7Z591",-0.36429391367540626,-6.5595492578864025,188],["RBM27_Q9P2N5",-0.34292214381175046,-8.53042912878123,284],["CWC27_Q6UX04",-0.3312470197537674,-7.972415243124603,284],["LAMP3_Q9UQV4",-0.3472746092524854,-3.8142322196214646,114],["YAF2_Q8IY57",-0.3890017552226225,-7.535845281056903,190],["ZNF511_Q8NB15",-0.32863171528540625,-6.286900011935319,223],["ITGB3BP_Q13352-5",-0.3286739490937287,-3.791876412872949,127],["C12orf65_Q9H3J6",-0.3537465337748326,-6.767890784295312,207],["CCDC28A_Q8IWP9",-0.33544986455884784,-5.705191372401645,192]]},"para":{"top":[["CNP_P09543",0.296071774753509,-6.427445586087118,284],["AKT1_P31749",0.303849969104178,-6.751953093801417,284],["SRGAP2_O75044",0.3206452631089561,-7.4855753659778435,284],["AGAP3_Q96P47-4",0.338514260580988,-8.181191015234146,279],["CDKL5_O76039",0.31632652518416804,-4.77059107391829,178],["GREB1_Q4ZG55",0.34904904652744534,-3.6102878177255535,106],["SBF2_Q86WG5",0.29741060560099375,-5.668183028851333,245],["SFRP1_Q8N474",0.3544721392951668,-4.4857225783770724,131],["FAM46A_Q96IP4-2",0.3492249439527469,-3.763969528679899,111]],"bottom":[["RBM27_Q9P2N5",-0.3190452746819739,-7.413716761489629,284],["LAMP3_Q9UQV4",-0.38963647888230984,-4.738053839438576,114],["ETAA1_Q9NY74",-0.3225780056306206,-3.587853219496937,124],["YAF2_Q8IY57",-0.3037332877277636,-4.689710042917592,190],["SKIL_P12757",-0.2835800836533342,-4.843016612661278,227],["ZNF511_Q8NB15",-0.33393228735509045,-6.482679146664056,223],["AKIRIN2_Q53H80",-0.29917882798168155,-4.9238085478491005,207],["OTUD1_Q5VV17",-0.29285287175452396,-3.0157559363781057,124],["CDC42SE2_Q9NRR3",-0.3157037579593101,-5.254377664344579,199]]}}}
{"depmap_copy_number":{"corr":{"top":[],"bottom":[]},"para":{"top":[["SNRK-AS1_100873954",0.2526366279996468,-6.173949703190368,377],["ZKSCAN7-AS1_112840933",0.2500835918240891,-6.05829049417504,377],["TMEM42_131616",0.25208573644277293,-6.148887092793807,377],["EXOSC7_23016",0.25208573644277293,-6.148887092793807,377],["TCAIM_285343",0.25050891353903454,-6.077471966685482,377],["ZNF445_353274",0.25000937819311414,-6.0549470997843455,377],["TOPAZ1_375337",0.25050891353903454,-6.077471966685482,377],["MIR138-1_406929",0.25050891353903454,-6.077471966685482,377],["ABHD5_51099",0.2526366279996468,-6.173949703190368,377],["ZDHHC3_51304",0.25208573644277293,-6.148887092793807,377],["SNRK_54861",0.2526366279996468,-6.173949703190368,377],["ANO10_55129",0.2526366279996468,-6.173949703190368,377],["CDCP1_64866",0.25200119280095057,-6.145045968913692,377],["MIR564_693149",0.25208573644277293,-6.148887092793807,377],["TGM4_7047",0.25208573644277293,-6.148887092793807,377],["CLEC3B_7123",0.25200119280095057,-6.145045968913692,377]],"bottom":[["MIR3180-4_100500852",-0.18539949811323647,-3.529553029198433,377],["LOC100505915_100505915",-0.18539949811323647,-3.529553029198433,377],["MIR6506_102465252",-0.18352064686621952,-3.467215924577893,377],["PKD1P6-NPIPP1_105369154",-0.18539949811323647,-3.529553029198433,377],["NTAN1_123803",-0.1851067855201966,-3.5198014979689476,377],["IQCK_124152",-0.178674606853743,-3.3092182513801385,377],["ERCC4_2072",-0.179121706485277,-3.323627685481524,377],["KNOP1_400506",-0.178674606853743,-3.3092182513801385,377],["GDE1_51573",-0.18079636706557475,-3.3779020816367606,377],["NDE1_54820",-0.18352064686621952,-3.467215924577893,377],["VPS35L_57020",-0.18079636706557475,-3.3779020816367606,377],["MIR484_619553",-0.18352064686621952,-3.467215924577893,377],["CLEC19A_728276",-0.1783125601029588,-3.297574849248431,377],["TMC5_79838",-0.18079636706557475,-3.3779020816367606,377],["BMERB1_89927",-0.17794406133741264,-3.285746808433821,377],["CCP110_9738",-0.18079636706557475,-3.3779020816367606,377]]}}}
{"depmap_gene_tpm":{"corr":{"top":[["PYURF_100996939",0.2982083446536782,-8.205473946955603,365]],"bottom":[["DEFB131B_100129216",-0.2269687854927045,-4.922904453805362,365]]},"para":{"top":[["UQCRC1_7384",0.2623819447501182,-6.434523291232766,365],["PEAK1_79834",0.2594195376286466,-6.299184229020334,365],["CSMD1_64478",0.2574289500975061,-6.209171394330886,365],["SLC26A6_65010",0.27085810889163303,-6.830963808846067,365]],"bottom":[["MAPK10_5602",-0.2069462504803374,-4.167797297821987,365],["GRB14_2888",-0.20389478515474,-4.058827588937493,365]]}}}
{"avana":{"corr":{"top":[["EFCAB13_124989",0.2278623563389015,-3.7740192816139944,268],["EGFL8_80864",0.26002283867677384,-4.789585920408341,268],["IST1_9798",0.2797472826607749,-5.4820138432685415,268],["LY6G6C_80740",0.23097427055879666,-3.8663241541408135,268],["OXER1_165140",0.22673411728913925,-3.7408630810013315,268],["POU2F2_5452",0.22145348919353833,-3.5878546158787374,268],["PRRT1_80863",0.2267277689535386,-3.7406769834845814,268],["TLR9_54106",0.23843385164470476,-4.092723491632122,268]],"bottom":[["KNTC1_9735",-0.2608977596096371,-4.819155929273617,268],["KRT5_3852",-0.21185213661637298,-3.3187548858805056,268]]},"para":{"top":[["ABCA4_24",0.23538006774142903,-3.999160715464666,268],["ARHGEF3_50650",0.24124903622545738,-4.180063291835362,268],["BLOC1S6_26258",0.24334806277135723,-4.245866690389466,268],["COL1A1_1277",0.23357581413732598,-3.9444556189808337,268],["EFCAB13_124989",0.2475188885842799,-4.378358597286649,268],["ESCO1_114799",0.2536655767138826,-4.577864917469015,268],["GGNBP2_79893",0.2490274969121283,-4.426853933496069,268],["HDAC11_79885",0.24305790224922336,-4.222772532897472,267],["HOXB3_3213",0.2474663265264773,-4.376674446219951,268],["IST1_9798",0.2335834408481271,-3.944685966367866,268],["LY6G6C_80740",0.24611856275853808,-4.333616653720492,268],["SSTR4_6754",0.233083345425168,-3.929597790796539,268],["TLR9_54106",0.25057323863935127,-4.476859726852065,268]],"bottom":[["BEST3_144453",-0.19907864008572582,-2.978670125227195,268],["CPSF4_10898",-0.21011021643191294,-3.2711804461118335,268],["KNTC1_9735",-0.2765281660979821,-5.365283418392223,268],["LITAF_9516",-0.20092768608856076,-3.026647752582287,268],["NIP7_51388",-0.20275800071346622,-3.0745545421986633,268],["PAM16_51025",-0.22904620179382865,-3.8089864226444403,268],["SLC44A1_23446",-0.2026572812305282,-3.071907541160622,268],["TRIM29_23650",-0.23107307808480373,-3.8692755276420083,268]]}}}
{"drive":{"corr":{"top":[["CRIM1_51232",0.299794132064899,-8.667830822336818,383],["GPR50_9248",0.3420934317930044,-11.228225956286222,383]],"bottom":[["ERCC1_2067",-0.24309502050630222,-5.830615726819898,383],["RDH12_145226",-0.29144448205562384,-8.208670228304252,383]]},"para":{"top":[["GPR50_9248",0.2974759914146067,-8.538870082130918,383]],"bottom":[["ACTL6A_86",-0.22814715877835903,-5.091037709740796,375],["CLDN6&CLDN9_9074&9080",-0.238072040307244,-5.609989287183227,383]]}}}
{"achilles":{"corr":{"top":[["FAM76B_143684",0.33978118122302686,-3.748934749878943,117],["GLIPR1L2_144321",0.3609590853583457,-4.194826352295317,117],["OLFM4_10562",0.3942966660630716,-4.963065626297116,117],["TVP23C-CDRT4_100533496",0.4307084534556004,-5.90261286901748,117],["KLHL15_80311",0.3790303288919644,-4.600854678649111,117],["P3H4_10609",0.3626986712482588,-4.232868763224678,117],["ZNF521_25925",0.3459689630896818,-6.740746870178236,216]],"bottom":[["CCDC82_79780",-0.37977225284333155,-4.618044346695599,117],["GDAP1_54332",-0.3853036489463799,-4.7475217810999,117],["C2orf71_388939",-0.3809416254716864,-4.645222303372807,117],["DIO1_1733",-0.352703002281346,-4.017239649477191,117],["HAUS2_55142",-0.3769023954393686,-4.551783141977938,117],["VEPH1_79674",-0.39000050047935747,-4.859310130114464,117],["SPRR4_163778",-0.41478827701410176,-5.478263947475684,117],["NELFCD_51497",-0.3530373526225675,-4.024337130837627,117],["TTC39C_125488",-0.3564546027201376,-4.097332283623637,117],["NETO2_81831",-0.35410114767527817,-4.046971698929802,117],["AGMO_392636",-0.3639383973497787,-4.260113765352801,117],["RBM45_129831",-0.41103618090427135,-5.381368173010288,117],["SPINK14_408187",-0.35945297279312466,-4.162066179624751,117],["NLRP7_199713",-0.36409495434880695,-4.263562303640905,117]]},"para":{"top":[["CEACAM4_1089",0.4124474549970795,-5.417676530399778,117],["GLIPR1L2_144321",0.3454351658115088,-3.864903062654422,117],["CCDC144A_9720",0.3475250640650991,-3.9083293361071734,117],["OLFM4_10562",0.3433216066875281,-3.821293748510439,117],["DOK5_55816",0.3497068355118862,-3.9539900780757584,117],["FANCD2OS_115795",0.35942086540559964,-4.161369574736891,117],["TVP23C-CDRT4_100533496",0.3857932300572192,-4.759094592764785,117],["P3H4_10609",0.4531987591601852,-6.540105467483409,117],["TMEM177_80775",0.3294600725703614,-3.5428687916891377,117],["ZNF521_25925",0.3545900870225283,-7.070654101888838,216]],"bottom":[["RPS24_6229",-0.3886907393501745,-4.827965101888503,117],["UGT3A2_167127",-0.3585697372956286,-4.142930431911566,117],["RUSC2_9853",-0.3643512647267418,-4.269211996640359,117],["CSRP3_8048",-0.3642552203103813,-4.2670943880334296,117],["DGAT2L6_347516",-0.4240742856829169,-5.723147299110151,117],["PACRG_135138",-0.3707008946634896,-4.4107080639566725,117],["TTC39C_125488",-0.35740083022374075,-4.117691513001582,117],["NETO2_81831",-0.35629936009830804,-4.0939981579581035,117],["AGMO_392636",-0.41874379484399304,-5.581684972944798,117],["RBM45_129831",-0.4317570453525674,-5.931329185511559,117],["NRSN1_140767",-0.3758640456116294,-4.527961863827858,117]]}}}
{"ccle_rrbs_tss1kb":{"corr":{"top":[["LINC01806_2_162100249_162101249",0.2536354759260307,-4.53131487879987,265],["IFNLR1_1_24513765_24514765",0.23224995584345395,-4.527709451364502,317],["B3GALNT1_3_160823160_160824160",0.23978644929982454,-2.533738220621772,152]],"bottom":[["IGF2R_6_160389130_160390130",-0.26956472794957126,-5.835257037315105,310]]},"para":{"top":[["EFCAB10_7_105221989_105222989",0.23516894194855859,-2.5322802784040452,158],["MIR5572_15_80872443_80873443",0.24137813506072398,-4.801551728300999,313],["LINC01806_2_162100249_162101249",0.28457667761002403,-5.602603505639403,265],["CTDSP1_2_219263477_219264477",0.2582725447339489,-5.483423043410272,316]],"bottom":[["NCR1_19_55416507_55417507",-0.2609510544768841,-3.6889806865660257,198],["ARAP1-AS2_11_72410518_72411518",-0.24222969157909216,-4.708479102801865,304],["KCNA5_12_5152084_5153084",-0.2802346046945074,-5.258881844184435,255],["PPP1R1C_2_182849550_182850550",-0.2686557636059408,-5.9677503358691775,320],["ZFAND1_8_82633539_82634539",-0.2411977836435886,-4.109667207280665,263]]}}}
{"ccle_gene_tpm":{"corr":{"top":[["RP11-241F15.1_ENSG00000248583.1",0.2740222653154279,-6.842335312569402,357],["RP11-212F11.1_ENSG00000249848.1",0.27198499038077084,-6.746648980666666,357],["RP11-449L23.3_ENSG00000265780.1",0.2811615877353854,-7.183864286046383,357]],"bottom":[["RP11-345J4.3_ENSG00000258150.1",-0.28258972675656074,-7.253350969120384,357]]},"para":{"top":[["CTD-2201E9.1_ENSG00000251370.1",0.26257028550541284,-6.314563204254805,357],["UQCRC1_ENSG00000010256.6",0.26772194951523687,-6.548947964985528,357],["SPCS1_ENSG00000114902.9",0.28034881110952914,-7.144492843946947,357],["RP4-668G5.1_ENSG00000237928.1",0.2747315545497442,-6.875832996875361,357],["SLC26A6_ENSG00000225697.6",0.2696511462320197,-6.637993525699453,357],["RP11-454P7.3_ENSG00000265015.1",0.290170428114928,-7.6287790674619504,357],["RP11-115N12.1_ENSG00000267088.1",0.29141082136763885,-7.69127078004221,357],["CSMD1_ENSG00000183117.13",0.25974605782531446,-6.188156110149178,357]],"bottom":[["RP11-345J4.3_ENSG00000258150.1",-0.2742871685733914,-6.854834798918428,357],["RP11-180K7.1_ENSG00000242770.2",-0.22456351695018964,-4.7341596237376615,357],["FGD6_ENSG00000180263.9",-0.2769453663033922,-6.980997817207542,357],["TMEM156_ENSG00000121895.7",-0.2521284270903769,-5.854503521083961,357]]}}}
{"ccle_rrbs_tss_clusters":{"corr":{"top":[["ALDH2_1",0.31723316248493966,-4.578408180171836,169],["H2AFJ_2",0.3418122047266247,-3.675540393595442,113],["PPIL1_2",0.32356878907672865,-3.6847170762265087,127],["LOC101927690_3",0.28862471314044336,-3.88943477262586,171]],"bottom":[["AKR1C3_1",-0.328002424971168,-6.033021843465931,214],["TBC1D23_2",-0.3263560787610603,-4.467358702275126,155],["PHLDB2_3",-0.30012132978310124,-5.1885851080418295,218]]},"para":{"top":[["ALDH2_1",0.30632561581604106,-4.291482815933121,169],["LINC01806_1",0.2854083414397647,-5.671664567922529,267],["SLK_2",0.31040699854510334,-3.9324737955666556,149],["CSRNP1_7",0.3086780197888912,-4.214750887784302,163],["PPIL1_2",0.2726040695934596,-2.7142429846838856,127],["LOC101927690_3",0.30323247593114266,-4.2563781367328675,171],["EEF1AKMT1_2",0.277136130160687,-3.9833065113085464,191]],"bottom":[["ARAP1-AS2_2",-0.2740466096988855,-5.806375808212729,298],["SLC11A1_2",-0.2724866958074712,-5.884268694724391,306],["C3orf70_3",-0.2985901780816299,-4.714395497532079,198],["ORMDL3_2",-0.342220668996733,-5.0244541248491545,160],["TMPRSS6_2",-0.297944925490891,-3.585441251375047,146],["LINC00533_2",-0.2764619563458988,-5.362897948593427,268],["LOC110091776_1",-0.27549070692581756,-3.209111194691728,151],["PI16_1",-0.2810681572815329,-5.530336859789827,268]]}}}
{"ccle_rrbs_cgi_clusters":{"corr":{"top":[["12_112202498_112206979-1",0.31723316248493966,-4.578408180171836,169],["12_14925291_14930023-2",0.3418122047266247,-3.675540393595442,113],["6_36840308_36844845-2",0.32356878907672865,-3.6847170762265087,127]],"bottom":[["3_65340203_65344884-1",-0.29754232787025436,-7.133346255210017,315],["3_99977678_99982038-2",-0.3263560787610603,-4.467358702275126,155],["11_401072_405400-1",-0.4133184989117873,-4.844651230561147,103]]},"para":{"top":[["19_17595344_17600000-2",0.36468262174918864,-6.701470851469172,192],["17_30241859_30246564-3",0.2802119946122161,-4.830661476399661,232],["2_162099439_162103650-1",0.2854083414397647,-5.671664567922529,267],["12_112202498_112206979-1",0.30632561581604106,-4.291482815933121,169],["2_219261098_219264327-3",0.27495482404987925,-6.0552390844492905,310],["6_36840308_36844845-2",0.2726040695934596,-2.7142429846838856,127],["13_21345443_21350257-3",0.277136130160687,-3.9833065113085464,191],["6_137110676_137113521-1",0.33222762636521797,-3.325918301231102,107],["20_32320029_32322554-3",0.3077173641312085,-7.273768864633168,300],["10_105724687_105729255-2",0.31040699854510334,-3.9324737955666556,149]],"bottom":[["11_7108132_7110754-3",-0.2758536744169634,-4.72937996118151,234],["23_153775515_153778136-3",-0.26730012958694827,-2.197763017158178,103],["17_38081226_38086052-2",-0.342220668996733,-5.0244541248491545,160],["1_70030967_70033731-3",-0.30043251909484164,-2.6441891201281553,101]]}}}
