{"depmap_hotspot":{"corr":{"top":[["ADCK2",0.1547659200384354,-2.558733150616757,11.0,361.0],["AIFM2",0.16277581226727175,-2.7870539048579457,9.0,363.0],["BRAP",0.14643697726426186,-2.332289783409231,14.0,358.0],["CACNA1F",0.15145018409804678,-2.4672544618809265,32.0,340.0],["CAMK2D",0.14739850127163634,-2.3578648236536366,10.0,362.0],["CCNK",0.14558429875076817,-2.309732938049129,9.0,363.0],["CHERP",0.17616604808660602,-3.192214458743443,11.0,361.0],["CIRH1A",0.18390939062774317,-3.4401266898310348,12.0,360.0],["CNOT10",0.18558865977939423,-3.495222943998571,12.0,360.0],["CNOT2",0.1488383805060757,-2.3964389535639636,9.0,363.0],["CXCL9",0.14750708200517046,-2.360762155984722,9.0,363.0],["DHX37",0.1711713413245794,-3.037619893567545,21.0,351.0],["FAM47E-STBD1",0.15366914452999308,-2.5282781450879805,9.0,363.0],["FOXC1",0.1595573714136181,-2.694060643020328,19.0,353.0],["FUT10",0.145634284037683,-2.3110520648692208,17.0,355.0],["GATM",0.16640504186558477,-2.8939468526713727,13.0,359.0],["GBP1",0.1769788893327502,-3.2177663028702392,21.0,351.0],["GGA2",0.17600883967624972,-3.187285307531488,13.0,359.0],["GPR135",0.16966909201882613,-2.991932235155636,16.0,356.0],["GPR98",0.1490932089567183,-2.4033002357700033,120.0,252.0],["HLA-DPB1",0.17303120886086817,-3.094701492707927,8.0,364.0],["ISG20L2",0.14840285252631782,-2.384736329480005,13.0,359.0],["KIAA0753",0.1530525744849597,-2.511242430220954,20.0,352.0],["KIAA1614",0.16107762812606444,-2.7377764411710745,24.0,348.0],["KIF22",0.1574930024741781,-2.635299772512412,13.0,359.0],["KMT2E",0.15282096250218938,-2.504858835414803,25.0,347.0],["M1AP",0.17197175208421908,-3.0621151738400236,9.0,363.0],["MED26",0.23774420655587922,-5.450893534477892,8.0,364.0],["MIPEP",0.1634121658804152,-2.805640725939479,14.0,358.0],["MS4A10",0.15532120278580933,-2.574226065036602,13.0,359.0],["MUC8",0.1684506320306172,-2.9551492356572564,13.0,359.0],["NEDD4",0.14573801694071836,-2.3137908744496474,21.0,351.0],["OR51A7",0.1476037536193333,-2.363343290619057,11.0,361.0],["OR8B3",0.1579003540565123,-2.646840018592235,11.0,361.0],["PITPNM3",0.16236661778609204,-2.7751369714724112,27.0,345.0],["PPWD1",0.1660702054253266,-2.8839943641451815,23.0,349.0],["PRRT1",0.15539324018144046,-2.5762396230025106,9.0,363.0],["PSD2",0.1469427144588168,-2.345723251792511,21.0,351.0],["RELL1",0.15941497423863196,-2.689985189449146,8.0,364.0],["RING1",0.14846454883200683,-2.386392266142503,14.0,358.0],["RSPH10B2",0.20572635352733498,-4.193520590250433,12.0,360.0],["RUNX1T1",0.15264870666725686,-2.5001167829961326,34.0,338.0],["S1PR4",0.18011975283369983,-3.3175389004221247,10.0,362.0],["SAMD15",0.15365123011611725,-2.5277823101979995,10.0,362.0],["SEL1L2",0.14898016730758873,-2.40025529737306,25.0,347.0],["SLC16A9",0.1640597871172329,-2.824624646405747,18.0,354.0],["SLC1A1",0.15091041512147868,-2.4525298059995215,10.0,362.0],["SLC35A4",0.18418188355521042,-3.4490346720297747,9.0,363.0],["SMYD4",0.15737790092102913,-2.6320438236868715,13.0,359.0],["ST8SIA1",0.1925921941467957,-3.7301724016663336,14.0,358.0],["TCEA1",0.19282517956171152,-3.7381323359940755,8.0,364.0],["TGDS",0.1453389149830635,-2.303262943734637,9.0,363.0],["TINF2",0.14847155604224216,-2.386580378978609,8.0,364.0],["TMEM175",0.14710207091402502,-2.3499645394633144,13.0,359.0],["TRIP12",0.20226249299949342,-4.068417263971232,58.0,314.0],["TTL",0.14808447824065415,-2.3762007795075726,15.0,357.0],["UPB1",0.1504528475760797,-2.4400841405411815,13.0,359.0],["VPS16",0.14543379954386376,-2.3057636154516694,22.0,350.0],["ZMYM4",0.17141139695411478,-3.044955266898034,21.0,351.0],["ZNF619",0.17064223554079747,-3.0214857079508657,11.0,361.0],["ZNF689",0.1668312932883997,-2.9066431627453726,14.0,358.0]],"bottom":[["ABI2",-0.17542648350111692,-3.169061890718589,14.0,358.0],["ACOXL",-0.14104416566366287,-2.191568998618294,15.0,357.0],["BCL2L12",-0.1361879984632171,-2.068777209910329,10.0,362.0],["BMI1",-0.15219724575066682,-2.487711084572234,12.0,360.0],["CEP68",-0.14737244839762104,-2.3571699168922144,15.0,357.0],["CYR61",-0.16763953283257932,-2.9307994041022485,11.0,361.0],["DLGAP5",-0.1415361347009714,-2.204215771766633,18.0,354.0],["FGFR2",-0.14473016176016745,-2.2872533285900483,24.0,348.0],["GPR17",-0.13751592225419573,-2.1019870144342208,8.0,364.0],["GZMA",-0.13590116292276425,-2.0616400412169917,17.0,355.0],["HLA-DMB",-0.17764308206399945,-3.2387273108543266,8.0,364.0],["HOXA2",-0.14525082892678956,-2.300942725736536,17.0,355.0],["ITGB3",-0.14001146939513592,-2.1651461708693747,16.0,356.0],["KLK4",-0.14983618963320547,-2.423364317372616,15.0,357.0],["KRT32",-0.1434939292299517,-2.254922504647008,14.0,358.0],["LMOD2",-0.1373709328043403,-2.0983475654997736,19.0,353.0],["NUDC",-0.13751883170603804,-2.102060079694208,8.0,364.0],["OR8B8",-0.13588534364769914,-2.061246793388308,13.0,359.0],["PCDHB3",-0.14376388930412834,-2.261962021087268,39.0,333.0],["PDIA2",-0.16633113330091095,-2.8917484523465484,8.0,364.0],["RAE1",-0.1800627839740275,-3.3157145010878164,10.0,362.0],["RPL3",-0.1642049358604221,-2.828888852120562,12.0,360.0],["RYK",-0.14265967332820884,-2.233241242673149,13.0,359.0],["SMU1",-0.13475970154220174,-2.0333650940789822,8.0,364.0],["TBC1D2B",-0.16842151150532314,-2.95427313859962,16.0,356.0],["TBX18",-0.17766581387782768,-3.2394460012287616,23.0,349.0],["TMEM38A",-0.1964142677047193,-3.8619310274505887,12.0,360.0],["TTC31",-0.1715778379035414,-3.050046801376784,17.0,355.0],["VWA1",-0.17453789355856258,-3.141364557757664,19.0,353.0],["ZC3H15",-0.1409053749710843,-2.188008088249997,12.0,360.0],["ZCCHC8",-0.14942327807198583,-2.4122028066602677,13.0,359.0],["ZSCAN5B",-0.15498262880750732,-2.564773611392367,25.0,347.0]]},"para":{"top":[["AIFM2",0.15778819662270477,-2.923662437079133,9.0,363.0],["ALDH7A1",0.1296997646874196,-2.2028925563784165,10.0,362.0],["B9D2",0.14019281692703922,-2.4583988630620413,9.0,363.0],["C3orf27",0.12907893317078423,-2.1880679935149154,8.0,364.0],["CCNK",0.12487831978451544,-2.090777205223121,9.0,363.0],["CHERP",0.14710951904545752,-2.635988916406458,11.0,361.0],["CIRH1A",0.15450169605620384,-2.833539985399164,12.0,360.0],["CNOT10",0.17561196906159074,-3.4426115897275618,12.0,360.0],["DNAJC28",0.11303034923377497,-1.8297979281773709,8.0,364.0],["EIF2B5",0.1161365267699703,-1.8962200919180001,8.0,364.0],["EMC8",0.1414147182947937,-2.4892205556232563,9.0,363.0],["ENDOD1",0.12523889240685612,-2.099210568256577,11.0,361.0],["EVI2A",0.1327028069630121,-2.2741752186864357,8.0,364.0],["FAM47E-STBD1",0.14459166185095557,-2.570393158201764,9.0,363.0],["GGA2",0.15941558620188162,-2.969403982753151,13.0,359.0],["HLA-DPB1",0.13805233494201524,-2.4048196072290655,8.0,364.0],["HORMAD1",0.12864751962409043,-2.1779455661890155,8.0,364.0],["KIAA0753",0.17518935410005915,-3.43022502065665,20.0,352.0],["KIF22",0.1474202278557802,-2.644275071752687,13.0,359.0],["KLK14",0.11855244263145556,-1.9488473683190644,8.0,364.0],["KPNA5",0.1374231738267955,-2.389354533270146,9.0,363.0],["M1AP",0.18271498452489765,-3.6623518957689996,9.0,363.0],["MBNL3",0.138889455468101,-2.4257660720945116,9.0,363.0],["MED26",0.19586175019898408,-4.089752786256791,8.0,364.0],["MPPED1",0.14932613661018065,-2.6943458368922215,11.0,361.0],["MS4A10",0.1498738238811191,-2.7090299440138117,13.0,359.0],["MUC8",0.16043791787910616,-2.9981102556711114,13.0,359.0],["MUL1",0.11542894920721354,-1.881070347198308,9.0,363.0],["OR6C3",0.12862548397896273,-2.1775422563000006,9.0,363.0],["OR8B3",0.15479379326983098,-2.8414273698131733,11.0,361.0],["PMEPA1",0.11544626509526022,-1.881339048721457,8.0,364.0],["PPP2R5A",0.12683336197292272,-2.135789516204621,9.0,363.0],["PRLH",0.14202133957159815,-2.504481870575245,8.0,364.0],["PRRT1",0.14890904668368832,-2.683109041165824,9.0,363.0],["RAB40A",0.13132228361359194,-2.2411449303529984,8.0,364.0],["RSPH10B2",0.19296773042507992,-3.9938824866942277,12.0,360.0],["S1PR4",0.15307048600937706,-2.794493199459591,10.0,362.0],["SAMD15",0.16096390844262096,-3.0126801794563356,10.0,362.0],["SESN1",0.12660430490967686,-2.130581096185394,10.0,362.0],["SLC35A4",0.17961950105991945,-3.5655071498159616,9.0,363.0],["SNUPN",0.1552581040478351,-2.854280255459964,13.0,359.0],["SPATA31A3",0.13078317560962954,-2.2285335964583264,10.0,362.0],["ST8SIA1",0.1969090713391009,-4.125638894258629,14.0,358.0],["TCEA1",0.18033086251800737,-3.587483617785276,8.0,364.0],["TFDP3",0.13924157443798377,-2.4348899704537437,13.0,359.0],["TGDS",0.14565064303634287,-2.597783764058939,9.0,363.0],["TIGIT",0.12767717172805151,-2.155566305152788,11.0,361.0],["TMEM161B",0.1338098136571188,-2.3011638300752435,11.0,361.0],["TMEM209",0.15909155808164294,-2.9599663697621716,9.0,363.0],["TMEM80",0.13840069492099918,-2.4135935741300067,9.0,363.0],["TTC9C",0.12041338535419147,-1.9901606958662104,10.0,362.0],["UPB1",0.14401245559836504,-2.555824402760283,13.0,359.0],["ZNF619",0.13942524482108407,-2.439339894309289,11.0,361.0],["ZNF689",0.14889850952295403,-2.6832452849345576,14.0,358.0]],"bottom":[["ABHD16A",-0.1376675541003464,-2.395401053495839,9.0,363.0],["BMI1",-0.13147874730871817,-2.2452426769250025,12.0,360.0],["C16orf78",-0.12962851690359645,-2.2014863182452995,14.0,358.0],["C9orf171",-0.16786610383423023,-3.21159714635951,16.0,356.0],["C9orf57",-0.10129590076370368,-1.591391142854866,8.0,364.0],["CD19",-0.15338003198715136,-2.802873777911655,10.0,362.0],["CRTAM",-0.12804660798883877,-2.1641809799702703,11.0,361.0],["CYR61",-0.14371070544621545,-2.5479284304768126,11.0,361.0],["EXOC7",-0.13627939116861984,-2.361657450372766,16.0,356.0],["GZMA",-0.1473802709608219,-2.643443363258157,17.0,355.0],["HOXB4",-0.14980510768670832,-2.7068507666377197,9.0,363.0],["ING3",-0.13106928671447182,-2.2352368470805866,9.0,363.0],["LYPLA1",-0.11700837959867451,-1.915307947622584,10.0,362.0],["OR52H1",-0.11852443267219172,-1.9483382416052593,9.0,363.0],["PARP12",-0.13377189415622281,-2.300442962664338,14.0,358.0],["PDGFRL",-0.12376114736370739,-2.065478592313648,11.0,361.0],["PDIA2",-0.1497005007027478,-2.7039449396512936,8.0,364.0],["RPL3",-0.1532974187371046,-2.8008130403328093,12.0,360.0],["SQRDL",-0.16854725342531363,-3.2315160539036802,15.0,357.0],["TBX18",-0.16323405300420146,-3.0778882086625265,23.0,349.0],["TMEM38A",-0.1845377891913852,-3.7203988348834938,12.0,360.0],["TTC31",-0.14126689656553773,-2.486024550264956,17.0,355.0],["UNC119",-0.13442846114978732,-2.3158575118469797,8.0,364.0],["WDR83",-0.11665422302600285,-1.9074261454174586,8.0,364.0],["ZCCHC8",-0.13106292102018732,-2.235401914064959,13.0,359.0],["ZFAND1",-0.1283068077874354,-2.1701786112290744,10.0,362.0]]}}}
{"depmap_damaging":{"corr":{"top":[["ASXL3",0.12094585283956699,-1.7071895042559413,10.0,362.0],["CHD7",0.16094122391810578,-2.733838701713228,10.0,362.0],["COL25A1",0.1327770029872814,-1.9847351135710258,8.0,364.0],["CPED1",0.1331548469217987,-1.9939553343756495,11.0,361.0],["CTNNA1",0.14419209085847157,-2.2731515458449203,11.0,361.0],["DMXL1",0.12709090282021174,-1.8486552314378095,20.0,352.0],["FAM193A",0.1510044157509035,-2.4550907419550003,13.0,359.0],["HCFC2",0.11782977074697368,-1.6376566008486777,11.0,361.0],["KALRN",0.14272441883630396,-2.2349199559396133,8.0,364.0],["MAP9",0.16528599411747727,-2.8607569550799155,10.0,362.0],["N4BP1",0.14068780254665328,-2.182432011249085,8.0,364.0],["PCSK5",0.11535423553796002,-1.5834662043397958,8.0,364.0],["SLIT2",0.13198261293460717,-1.965422656216924,10.0,362.0],["SVIL",0.12785791094147456,-1.8667196299489666,16.0,356.0],["TRIP12",0.18571181748059362,-3.4992824950052857,27.0,345.0],["WDFY3",0.129997239965625,-1.9175844818614247,10.0,362.0],["WHSC1L1",0.12647418724252385,-1.8341962166241974,13.0,359.0],["XPO7",0.13880635702192834,-2.134524128630096,8.0,364.0]],"bottom":[["MYH15",-0.1107479954872198,-1.485091229787917,8.0,364.0],["PLXNC1",-0.1752277521262018,-3.1628560171895104,8.0,364.0]]},"para":{"top":[["CPED1",0.13920358306461175,-2.433797249382934,11.0,361.0],["KALRN",0.1470257367132462,-2.6334734068959773,8.0,364.0],["N4BP1",0.15254783011092682,-2.7801354904285227,8.0,364.0],["PCSK5",0.12562762479723383,-2.1078520534614005,8.0,364.0],["TG",0.1377126534311143,-2.3967809172698495,12.0,360.0]],"bottom":[["ANAPC1",-0.13400184999708276,-2.305628925500994,9.0,363.0],["C1orf112",-0.12450594957583,-2.0821571251129063,8.0,364.0],["PLXNC1",-0.14650804045721366,-2.619956821597612,8.0,364.0],["SCN1A",-0.13270280696301212,-2.2741752186864357,8.0,364.0]]}}}
{"ccle_rrbs_enhancer_clusters":{"corr":{"top":[["17-2080504-2083236-1_enh",0.2751631436942162,-3.3491253255143287,159]],"bottom":[["3-193658817-193661647-1_enh",-0.17931285675485678,-2.786231722287168,306]]},"para":{"top":[],"bottom":[]}}}
{"prism_primary_logfold":{"corr":{"top":[["simeprevir_BRD-A68493689-001-01-9::2.5::HTS",0.21638685526255713,-3.644458193260587,286],["dasabuvir_BRD-K02943813-001-01-9::2.5::HTS",0.1833896392155354,-2.6451767082968467,275],["imetit_BRD-K33183200-303-02-4::2.5::HTS",0.1656169736867788,-2.322344116774269,289],["fomocaine_BRD-K44942188-001-09-1::2.5::HTS",0.17427788262408592,-2.4931221094896294,284]],"bottom":[["Z160_BRD-K16037980-001-01-1::2.5::HTS",-0.19934451614172827,-3.2037871098284985,291],["phenacemide_BRD-K40905133-001-04-9::2.5::HTS",-0.17496134352464696,-2.442913720820797,275],["mequinol_BRD-K45216060-001-11-8::2.5::HTS",-0.1887297515175082,-2.752152258555341,272],["emodin_BRD-K58685305-001-20-4::2.5::HTS",-0.20123667412945603,-3.199067706866052,285],["PF-06463922_BRD-A23124853-001-01-4::2.5::MTS004",-0.19244285819627444,-2.8988100595356316,278]]},"para":{"top":[["simeprevir_BRD-A68493689-001-01-9::2.5::HTS",0.20777659396567028,-3.393049969126623,286],["dasabuvir_BRD-K02943813-001-01-9::2.5::HTS",0.1972216287751056,-2.996111117321173,275],["L-168049_BRD-K18036262-001-02-8::2.5::HTS",0.1678162510448227,-2.3467647606529343,285],["dioxybenzone_BRD-K22193694-001-13-6::2.5::HTS",0.1734319272515419,-2.4946082006666113,287],["1-naphthyl-PP1_BRD-K29542628-001-03-9::2.5::HTS",0.17154834183195122,-2.42776979116768,284],["ICI-199441_BRD-K73290745-003-02-6::2.5::HTS",0.1833748683095965,-2.717692447370068,284]],"bottom":[["mebeverine_BRD-A09467419-003-22-4::2.5::HTS",-0.19379818011363592,-2.9070327343590656,275],["quinine_BRD-K07940445-310-02-9::2.5::HTS",-0.17906082613533758,-2.6485323833879653,289],["Z160_BRD-K16037980-001-01-1::2.5::HTS",-0.21560985503689972,-3.6764204587299965,291],["FR-139317_BRD-K19318328-001-01-3::2.5::HTS",-0.18969714504587326,-2.6376091591215354,256],["phenacemide_BRD-K40905133-001-04-9::2.5::HTS",-0.1946771268440846,-2.9297626875569955,275],["chlorogenic-acid_BRD-K47114202-001-14-6::2.58::HTS",-0.18564602843882672,-2.6509770778482213,269]]}}}
{"prism_secondary_logfold":{"corr":{"top":[["BTS-54505_BRD-A68304895-003-02-2::0.00976562::HTS002",0.2666258442890033,-3.5444278730846093,181],["propoxycaine_BRD-K18250272-003-11-0::0.00976562::HTS002",0.2019219149397698,-2.522100685311423,214],["etofylline-clofibrate_BRD-K49840922-001-05-1::10::HTS002",0.2353015002564005,-2.8448005768171374,181],["hexaminolevulinate_BRD-K73753850-003-01-6::0.625::MTS006",0.19704470222948256,-2.7491050558261643,249],["carbachol_BRD-K75037734-003-13-9::2.5::HTS002",0.295622811126236,-4.272637631630347,181]],"bottom":[["fenaclon_BRD-K08791496-001-01-0::0.0390625::HTS002",-0.21124988424533725,-2.9392471856085907,234],["forskolin_BRD-K09602097-001-13-6::0.0390625::HTS002",-0.22636906547858643,-3.045198951572461,212],["CHIR-99021_BRD-K16189898-003-03-3::2.5::HTS002",-0.22131553719978025,-3.2923104208148204,243],["MK-0773_BRD-K38868394-001-01-3::2.5::HTS002",-0.21261611055881,-2.776229123661365,216],["CHIR-98014_BRD-K42973005-001-04-0::10::HTS002",-0.2147018759454963,-3.1334048927462788,244],["4-hydroxy-phenazone_BRD-K49759007-001-11-9::0.00061034::HTS002",-0.22329578680114803,-3.379862103666042,246],["BW-180C_BRD-K57927309-001-01-7::10::HTS002",-0.21433269533529134,-3.1130317167767285,243],["LDN-212854_BRD-K59831625-001-01-6::10::HTS002",-0.2083365169252082,-3.0051692973570034,247],["cholecalciferol_BRD-K62779383-001-05-5::0.000580092::HTS002",-0.2119909339160412,-3.0972144080214763,247],["tacrolimus_BRD-K69608737-001-10-2::0.0024414::HTS002",-0.25797873011137473,-4.390579315992295,247]]},"para":{"top":[["BTS-54505_BRD-A68304895-003-02-2::0.00976562::HTS002",0.24905857026209016,-3.1412682680249397,181],["triapine_BRD-K01669786-001-02-2::0.625::HTS002",0.23965520914149765,-3.8446965895400984,247],["niraparib_BRD-K54955827-001-02-2::0.15625::MTS006",0.2097654991436057,-3.0620608731080194,249],["carbachol_BRD-K75037734-003-13-9::2.5::HTS002",0.2951856268520943,-4.261060033492761,181],["hexylresorcinol_BRD-K99946902-001-07-5::0.00976562::HTS002",0.2987665288550244,-2.861609535102359,112]],"bottom":[["clenbuterol_BRD-A75726477-003-21-3::0.15625::HTS002",-0.2017300951942215,-2.6069135649247483,223],["trametinib_BRD-K12343256-001-08-9::0.0024414::HTS002",-0.19807429017739595,-2.7548462606856075,247],["mitoxantrone_BRD-K21680192-300-14-4::10::HTS002",-0.20363339260849533,-2.5585200139401256,214],["AP1903_BRD-K28383148-001-01-4::0.00976562::HTS002",-0.22170800790780884,-2.972626585270245,215],["CHIR-98014_BRD-K42973005-001-04-0::10::HTS002",-0.21965454723083933,-3.2606875133968605,244],["vismodegib_BRD-K44827188-001-06-0::0.0024414::HTS002",-0.2674370635036188,-4.4175442900868624,231],["CNX-774_BRD-K48443249-001-01-0::0.00976562::HTS002",-0.2163658923029528,-3.1758554087633035,244],["4-hydroxy-phenazone_BRD-K49759007-001-11-9::0.00061034::HTS002",-0.22018030254670487,-3.297519947663908,246],["LDN-212854_BRD-K59831625-001-01-6::10::HTS002",-0.1990523082075071,-2.7781880666269014,247],["tacrolimus_BRD-K69608737-001-10-2::0.0024414::HTS002",-0.21558543996668772,-3.1892535722601636,247],["captamine_BRD-K81645907-001-01-1::2.5::HTS002",-0.2137948339331028,-3.110398961520095,244],["OSI-027_BRD-K87124298-001-03-4::0.00061034::HTS002",-0.22888908985237866,-3.5804289754655354,250]]}}}
{"ccle_proteomics":{"corr":{"top":[["MYH9_P35579",0.3135161117356929,-7.168608418630682,284],["MYH11_P35749-2",0.33322502739046533,-8.065325276763785,284],["SP140_Q13342",0.2858668171617664,-4.05789210164528,183],["NTN4_Q9HB63",0.3082520511687725,-3.7675799724931927,144],["TSR3_Q9UJK0",0.31895898129129713,-6.108442142571482,230],["TAPBPL_Q9BX59",0.2904190829247761,-5.221532656762305,235]],"bottom":[["HSPE1_P61604",-0.2586376526733411,-4.9951587027462026,284],["SLITRK5_O94991",-0.26954907293432195,-2.7685914059496666,133],["GTF2H5_Q6ZYL4",-0.2575568897366013,-4.125793509132322,231]]},"para":{"top":[["ALDH3B1_P43353",0.311786847210025,-6.748702645736852,269],["ZBTB38_Q8NAP3",0.3142497869561871,-6.5239339624724435,255],["TSR3_Q9UJK0",0.2975466899695645,-5.358294147486357,230],["TAPBPL_Q9BX59",0.3441972006087927,-7.2117979123478575,235],["RPS6KA4_O75676",0.29933816883649056,-6.562561876804443,284],["DDO_Q99489-3",0.3261556288888329,-3.19046309740447,106],["HRH1_P35367",0.3232953981658432,-3.7300574544944665,129]],"bottom":[["MARCKSL1_P49006",-0.3012581903784516,-6.642765885095639,284],["MSI1_O43347",-0.2837009380997423,-5.930715538474383,284],["ATP5J_P18859-2",-0.26478092436338824,-5.2158761951816075,284],["C15orf57_Q9BV29-2",-0.26370450913361104,-3.240704963304907,167]]}}}
{"depmap_copy_number":{"corr":{"top":[],"bottom":[["DGKD_8527",-0.16551189766940652,-2.900118860722134,377]]},"para":{"top":[],"bottom":[]}}}
{"depmap_gene_tpm":{"corr":{"top":[["KRT81_3887",0.2506866059593656,-5.9097917881144895,365]],"bottom":[["PKLR_5313",-0.2583466431102585,-6.2505763032512665,365],["DLGAP1_9229",-0.28006095752118765,-7.277034140572979,365],["KCNG3_170850",-0.23750092731988212,-5.348554245028572,365],["AKIRIN1_79647",-0.28044993436868315,-7.2962509915721,365],["PRAME_23532",-0.25065497030208395,-5.90840700044381,365]]},"para":{"top":[],"bottom":[["TEX15_56154",-0.22501410798334243,-4.846087336185433,365],["ZC3HAV1L_92092",-0.22567147726270334,-4.871845716877773,365]]}}}
{"avana":{"corr":{"top":[["ARGLU1_55082",0.21716030276912918,-3.4660844342664534,268],["IGLL5_100423062",0.2247972401660042,-3.6843254987604026,268],["MAMLD1_10046",0.22696206867552263,-3.47821915308615,246],["MEI1_150365",0.2301015997642795,-3.840312578460503,268],["RNF20_56254",0.21429309231012894,-3.3751324922524453,267],["RXRG_6258",0.22447543862196212,-3.674978828802143,268],["SDF2L1_23753",0.22002969742349973,-3.547210697150092,268],["SYNPO_11346",0.21531828140793463,-3.4145555529087015,268],["TTC1_7265",0.26571162299660334,-4.9837347225429385,268],["UTS2B_257313",0.21254436037821697,-3.3377663298634617,268],["VSIG2_23584",0.21378294329556116,-3.371933597290814,268]],"bottom":[["ABHD3_171586",-0.21023351658177,-3.274535444719037,268],["ARL2BP_23568",-0.20718970198192574,-3.1820244538163234,267],["C10orf82_143379",-0.22359221635526946,-3.649394106429162,268],["C11orf91_100131378",-0.20981170690143672,-3.2630658830926422,268],["CACUL1_143384",-0.27791867854795105,-5.415525436514192,268],["MTO1_25821",-0.20104137398380356,-3.0296113824946347,268],["NQO2_4835",-0.21994064988644843,-3.5446773132843594,268],["PCTP_58488",-0.20400572003641326,-3.107449879346951,268],["PREP_5550",-0.22114675118611765,-3.5790765327643776,268],["RAP2A_5911",-0.22669878891526854,-3.7398275176523925,268],["RPL38_6169",-0.2222126936649945,-3.6096328717781185,268],["SATB1_6304",-0.22951640333886464,-3.8104416877962897,267]]},"para":{"top":[["ACSM3_6296",0.20482592445972528,-3.1291791494210113,268],["C17orf53_78995",0.20763453767937626,-3.2042196202095408,268],["DDX20_11218",0.2077833401431246,-3.2082227238742727,268],["EIF4G2_1982",0.26150887517415494,-4.839872293857859,268],["FLT3LG_2323",0.23716825055433527,-4.053799044024532,268],["GLE1_2733",0.2760397614849455,-5.3477012658476,268],["IGLL5_100423062",0.22655659695124988,-3.7356611411241185,268],["IGSF6_10261",0.25988591025468627,-4.78496759445903,268],["MAMLD1_10046",0.2231945472771168,-3.3771684996243216,246],["RRP9_9136",0.22228082430872295,-3.611590845460409,268],["TMOD3_29766",0.207868804016014,-3.21052313320581,268],["TTC1_7265",0.2753519012854142,-5.322995999592621,268],["UNC45A_55898",0.21090867264801075,-3.292940229340731,268],["UTS2B_257313",0.22442025871776647,-3.673377473928659,268],["VSIG2_23584",0.21251487647168127,-3.336955346489332,268],["ZNF449_203523",0.21802679241674808,-3.2412643135111323,246]],"bottom":[["ADAMTS3_9508",-0.1987625035457235,-2.9705093617560068,268],["ARID5B_84159",-0.2100140544205726,-3.258050969195659,267],["C11orf91_100131378",-0.19872606421984415,-2.969569504594264,268],["C5orf34_375444",-0.1996314003281377,-2.9929686263377326,268],["CACUL1_143384",-0.24100519670828424,-4.172456882658772,268],["HS2ST1_9653",-0.20580850468925024,-3.1553201104636335,268],["JCHAIN_3512",-0.22768179291905719,-3.7687019178467045,268],["NPR3_4883",-0.2041221743103632,-3.110529962801195,268],["NQO2_4835",-0.20138175846922501,-3.038494098826312,268],["PPM1M_132160",-0.2068695509737899,-3.183683424742224,268],["RHBDF1_64285",-0.21929240374298473,-3.526265281977652,268],["ZFP91_80829",-0.2254937792395936,-3.704601934869583,268]]}}}
{"drive":{"corr":{"top":[["NUDT12_83594",0.321484660865497,-9.930852348703421,383],["KCNC2_3747",0.39518118188329715,-15.03977946873222,383]],"bottom":[["KCNAB1_7881",-0.33152019675515076,-10.550494523824735,383]]},"para":{"top":[["C1QTNF5&MFRP_114902&83552",0.3305557698679661,-10.335889054258809,377],["KCNC2_3747",0.34386559751684836,-11.344360241976338,383]],"bottom":[["ALOX12_239",-0.23382424104562316,-5.350723256042248,377],["RASL11A_387496",-0.2196180047529071,-4.840356718850963,383],["KCNAB1_7881",-0.29136642300796356,-8.204447106568198,383]]}}}
{"achilles":{"corr":{"top":[["KNSTRN_90417",0.36781784143479174,-4.346094772955011,117],["TIMM22_29928",0.3854052134215835,-4.749921065582811,117],["ITPRIP_85450",0.37851194854512715,-4.588869011371943,117],["BZW2_28969",0.3945080487853078,-4.9682080652578,117],["ZNF385A_25946",0.38925803393806546,-4.841525151148563,117],["TJP3_27134",0.39589419907215484,-5.0020171771612585,117],["R3HCC1L_27291",0.41007210875637756,-5.356659687360292,117]],"bottom":[["NUDT16_131870",-0.3427568614209622,-3.8096936324637545,117],["PABPC1L2A_340529",-0.370932938064812,-4.415935170763864,117],["RUNDC1_146923",-0.3803565481850061,-4.631611266041554,117],["TANC1_85461",-0.35866136539894433,-4.144912996840887,117],["ZNF570_148268",-0.3421682845270501,-3.7976274318879577,117],["APOC4_346",-0.4208149701518953,-5.636363643175755,117],["MMRN2_79812",-0.33272678972618863,-3.6073115217486116,117],["ACCSL_390110",-0.3421712222767392,-3.797687598302477,117],["PCF11_51585",-0.32827999149599,-3.5197650198637107,117],["CA13_377677",-0.4217534237494005,-5.661258406808308,117],["TSPAN18_90139",-0.34007135512480396,-3.754832888671524,117]]},"para":{"top":[["SYNGR3_9143",0.34348388063856816,-3.8246310027451758,117],["SPTY2D1_144108",0.3828454430170684,-4.689692353166193,117],["FBRS_64319",0.40198265736851413,-5.152326917325586,117],["CHTOP_26097",0.3648996214149883,-4.281315156542184,117],["ZNF395_55893",0.3622957913495508,-4.22403883048212,117],["SRPX2_27286",0.4687559710052942,-7.008605795585812,117],["BZW2_28969",0.36654128296005456,-4.31768060327237,117],["BTLA_151888",0.42010831183842295,-5.617667168083898,117],["VPS18_57617",0.3757570308101507,-4.525511386641321,117],["SELENOM_140606",0.4130675048892153,-5.433680926519286,117],["LINC00301_283197",0.34725352125928954,-3.9026697056137087,117],["TJP3_27134",0.42815743677333856,-5.833152436642478,117],["TIMM22_29928",0.38604871597526846,-4.765141144244703,117]],"bottom":[["NUDT16_131870",-0.37634898066675376,-4.539076912262268,117],["TM9SF1_10548",-0.34759378188133416,-6.8021718958445545,216],["RUNDC1_146923",-0.3733442731667813,-4.470490361145771,117],["PIWIL3_440822",-0.3188730494749164,-3.338894746844632,117],["APOC4_346",-0.3899893224462115,-4.859042054429803,117],["TTC13_79573",-0.4049274205792104,-5.226093348865084,117],["METTL16_79066",-0.37336253130761404,-4.4709050913009785,117],["CA13_377677",-0.3798178061438551,-4.619101131370232,117],["AVL9_23080",-0.37374445048311306,-4.479586008115945,117],["CSNK1G3_1456",-0.34867599064408555,-6.843276967442787,216]]}}}
{"ccle_rrbs_tss1kb":{"corr":{"top":[["KCNH6_17_61599694_61600694",0.2370795687290854,-2.4021443823830753,146],["TMEM86B_19_55740632_55741632",0.2244998028963346,-4.211497931499766,313],["LDHC_11_18432852_18433852",0.31798256532963737,-2.94825089554646,102],["RARA-AS1_17_38499388_38500388",0.30098679563321534,-4.676510238706586,193]],"bottom":[["RRN3_16_15188192_15189192",-0.246926794234747,-4.990834132156879,312],["MIB1_18_19320289_19321289",-0.2461895185989706,-5.048874162367982,318],["BCAT2_19_49314320_49315320",-0.3118363165770056,-7.805157293116497,315],["TMPRSS3_21_43816200_43817200",-0.2599806386528097,-4.995216744470353,281],["TBC1D5_3_17784231_17785231",-0.233445398506867,-4.518793011537511,313],["SEZ6L2_16_29910585_29911585",-0.24554982367815567,-4.911722551082846,310]]},"para":{"top":[["KCNH6_17_61599694_61600694",0.24185230369810878,-2.4852229658077025,146],["RARA-AS1_17_38499388_38500388",0.26323199356017485,-3.6639981644652466,193],["CDC25C_5_137667566_137668566",0.21279622633295062,-3.806293956506167,311],["LDHC_11_18432852_18433852",0.34536203835920654,-3.4225970996260444,102]],"bottom":[["PECAM1_17_62407083_62408083",-0.2221307008250567,-3.0536485104484425,221],["TMPRSS3_21_43816200_43817200",-0.2232731856163378,-3.7937794931427335,281],["BCAR1_16_75301951_75302951",-0.2238486317804544,-4.166011558713452,311]]}}}
{"ccle_gene_tpm":{"corr":{"top":[["LA16c-444G7.2_ENSG00000260420.1",0.24465381946844925,-5.537354936072239,357],["TUBA8P2_ENSG00000261665.2",0.23201940157266632,-5.0239619149938335,357]],"bottom":[["KCNG3_ENSG00000171126.7",-0.24069092509854764,-5.3732766847134235,357],["DLGAP1_ENSG00000170579.10",-0.2861657148316123,-7.429063342037841,357],["AKIRIN1_ENSG00000174574.11",-0.28944202581874384,-7.592221596937497,357],["PKLR_ENSG00000143627.13",-0.2617721416065063,-6.27869054793647,357]]},"para":{"top":[["LGALS17A_ENSG00000226025.5",0.2278903735221187,-4.862275356783776,357]],"bottom":[["XXbac-BPG55C20.7_ENSG00000225096.1",-0.22981199908732114,-4.937153031188203,357],["AC005197.2_ENSG00000269694.1",-0.25601357709373745,-6.023348032234283,357],["ZC3HAV1L_ENSG00000146858.7",-0.24522067572542297,-5.561054358619976,357]]}}}
{"ccle_rrbs_tss_clusters":{"corr":{"top":[["PSG11_2",0.26897840509205045,-5.335822115396429,282],["UQCRHL_2",0.383070651199178,-5.092256988022532,128],["UTP25_3",0.27532680982271573,-2.836077183952731,131],["GRPR_3",0.24862041693998482,-3.6802709022123974,218],["SGTB_1",0.25635209747518795,-2.667080889523234,141]],"bottom":[["C6orf99_1",-0.2681493203124491,-3.736049724673667,190],["TMPRSS3_3",-0.2659308338531112,-5.457280284226844,296],["LUCAT1_1",-0.27126944200150016,-4.113678954123756,207],["LINC02219_1",-0.27112389327709147,-5.846689693503811,307],["C8orf74_3",-0.27586058732430685,-6.1997033551613745,316],["RPN1_3",-0.26138343459050617,-3.2069770893775624,168],["LINC01795_2",-0.2583358496750908,-4.100799060578877,228]]},"para":{"top":[["PMS2CL_1",0.2501409376120831,-3.6159551507826317,211],["SNORA58B_3",0.24884365704419242,-2.881662808911228,164],["PSG11_2",0.2652071694481767,-5.198297185190857,282],["RIPOR3_5",0.25584341787656134,-3.811409600134091,214],["SH2D6_2",0.2399341726812146,-4.247957189082824,276]],"bottom":[["CSNK1A1L_2",-0.2731860615469893,-3.4687053367521306,168],["KSR2_3",-0.32854821075063984,-3.3392883015583004,110],["NFE2_2",-0.24721286687151764,-4.31079980141672,264],["LUCAT1_1",-0.3141760942079178,-5.395270434368951,207],["P4HTM_3",-0.2598266302404221,-3.4662519870177584,186]]}}}
{"ccle_rrbs_cgi_clusters":{"corr":{"top":[["22_40740403_40744944-3",0.3106524853859032,-3.7978182891567203,143],["1_233119927_233124136-3",0.2679285664904011,-2.438904469446659,116],["17_58466980_58471903-1",0.38323740764573616,-5.0604400539031635,127],["11_27744018_27746564-3",0.30182206122041344,-4.088543125926336,165],["19_51170841_51174023-3",0.2737394641536485,-3.8056404514949604,186],["6_160390361_160392890-3",0.3273434631086418,-3.2114597324631897,106],["1_209999129_210003428-3",0.27532680982271573,-2.836077183952731,131]],"bottom":[["16_48528535_48532809-2",-0.28978306543078325,-3.6952148988354043,160],["19_49251688_49256221-3",-0.272713672689244,-2.3853166834552133,109],["11_1578398_1581091-3",-0.28475276088531337,-6.2960503191860555,301],["13_53172028_53176674-3",-0.3299209700883721,-3.7651512791651274,125],["11_19260473_19263435-2",-0.27778160259874257,-4.258273192925256,205],["6_159288673_159293195-1",-0.2681493203124491,-3.736049724673667,190],["5_42949076_42951743-2",-0.28127752849376736,-6.449198925447596,317],["19_56059261_56063516-1",-0.27893202343911566,-3.299551409747433,152]]},"para":{"top":[["18_67065509_67068339-2",0.2521602576338958,-4.13737099231798,242],["6_100907210_100911444-2",0.25242556595389304,-4.190559995991702,245],["17_43109525_43113732-1",0.3353281098390843,-4.29054622070723,140],["19_11558045_11562295-2",0.2565209844227792,-2.782759810684854,148],["3_75442712_75447611-3",0.2482987727777093,-2.3419586589945314,129],["11_27744018_27746564-3",0.27413779716655257,-3.4359262272608233,165]],"bottom":[["22_39636219_39639593-1",-0.2526338916036072,-3.771908073070981,217],["16_48528535_48532809-2",-0.27271505236715377,-3.314291605459827,160],["11_57241681_57246463-1",-0.25891888916972283,-4.213089338097832,234],["13_53172028_53176674-3",-0.3294790173148331,-3.7559025905615266,125],["12_122014170_122016932-3",-0.2679452368195088,-4.074212933595836,210],["12_118404590_118409364-3",-0.32854821075063984,-3.3392883015583004,110],["3_49027736_49030356-3",-0.2598266302404221,-3.4662519870177584,186]]}}}
