{"depmap_hotspot":{"corr":{"top":[["ARHGEF9",0.1319019301107564,-1.989175615757066,9.0,369.0],["ASIC5",0.14520209905562892,-2.3303450351282113,14.0,364.0],["CHST8",0.15136717098824498,-2.4981407096545145,30.0,348.0],["DLX1",0.13812624545688415,-2.145321990055023,8.0,370.0],["LRPAP1",0.16168480493468343,-2.792858651981429,11.0,367.0],["PIEZO1",0.12252471040342663,-1.7654681120679578,70.0,308.0],["RP11-20I23.1",0.10205755043946281,-1.3243502379748562,8.0,370.0],["SLCO5A1",0.1281065424267944,-1.8969702572197606,35.0,343.0],["TICAM1",0.1196498161568994,-1.6996310227816234,42.0,336.0],["VPS41",0.12375810994544574,-1.7941072448342485,22.0,356.0]],"bottom":[["BCAR1",-0.1498316523073759,-2.455770883661208,16.0,362.0],["BMP2",-0.2046473721100279,-4.213223024704614,10.0,368.0],["C17orf80",-0.14897975535212826,-2.432429876439571,15.0,363.0],["CASP9",-0.17792576029686905,-3.2926541791095523,9.0,369.0],["CLUH",-0.1423061732541563,-2.253648772563042,38.0,340.0],["CNKSR1",-0.18826093165505225,-3.634006390977192,16.0,362.0],["CYP27B1",-0.17279060858453515,-3.1298279499287425,15.0,363.0],["DEGS2",-0.14652605126822316,-2.3658595852458237,14.0,364.0],["DHX8",-0.1469574183082606,-2.37749209696724,22.0,356.0],["DNAH1",-0.14773398082513584,-2.3985093395573664,76.0,302.0],["ENAM",-0.14908912836414714,-2.435419970969299,23.0,355.0],["EPHB1",-0.17369654621789102,-3.158229159869363,38.0,340.0],["FRMD3",-0.14486812131653373,-2.3214309351755884,10.0,368.0],["HHLA2",-0.15037771952757195,-2.4707946009899575,12.0,366.0],["KLC2",-0.15805205559218596,-2.6870922230637584,15.0,363.0],["KMT2A",-0.15651040959390558,-2.642866032989819,65.0,313.0],["MAGEB18",-0.14747284238786257,-2.3914308624752505,8.0,370.0],["MAN2B2",-0.17375168266131535,-3.15996216815315,36.0,342.0],["MAP7",-0.15363853274333905,-2.561520291924945,26.0,352.0],["MIEF2",-0.16483574461296174,-2.886369339202345,12.0,366.0],["MYD88",-0.16926735226218398,-3.0206888722934115,11.0,367.0],["OR2H2",-0.1519143456638005,-2.513331889027637,11.0,367.0],["PDPN",-0.16921816546876028,-3.0191799996069886,14.0,364.0],["PHTF2",-0.14355040454119677,-2.286435704423925,21.0,357.0],["PTPN9",-0.18225407832745036,-3.43338115441378,18.0,360.0],["RASA3",-0.16518319520531158,-2.896781808173069,25.0,353.0],["RGR",-0.18936927551480268,-3.671704799478461,12.0,366.0],["RHAG",-0.17015131770096828,-3.047874992293314,17.0,361.0],["RNASEL",-0.15709900308305003,-2.6597052078936168,30.0,348.0],["RNF145",-0.19501291742990326,-3.866973682436719,8.0,370.0],["SENP7",-0.1416482953311053,-2.2364135265812792,29.0,349.0],["SIRPB2",-0.1614279198031113,-2.7853077549052845,10.0,368.0],["SLC25A37",-0.1947474307481148,-3.857663435713655,13.0,365.0],["THAP10",-0.19484012844976184,-3.860912814235998,8.0,370.0],["TMEM184C",-0.21299236631744373,-4.526447562645797,10.0,368.0],["TNRC6A",-0.17328702372193167,-3.1453734294067033,48.0,330.0],["TTC13",-0.1743601927600564,-3.179122557601548,19.0,359.0],["UNC5B",-0.17402884856263826,-3.168681629957584,27.0,351.0],["ZNF785",-0.1516077115305766,-2.50481280477777,15.0,363.0],["ZP4",-0.14165520207961466,-2.236594110191513,31.0,347.0]]},"para":{"top":[["ACPL2",0.11277302697434739,-1.8436312944993638,8.0,370.0],["ACRBP",0.14078894182404525,-2.502673763053812,17.0,361.0],["ASIC5",0.14705537252535406,-2.665894309236829,14.0,364.0],["BPIFB1",0.13392305336007754,-2.3300466261550654,10.0,368.0],["C1orf198",0.13483609191256407,-2.35275949234616,13.0,365.0],["ETV3",0.13945858315444382,-2.468481955147843,12.0,366.0],["LRPAP1",0.15937985049929734,-3.00433657744786,11.0,367.0],["OLFML1",0.11906181467127033,-1.9816131779478996,12.0,366.0],["RAC2",0.1180790021045818,-1.9593807222214457,8.0,370.0],["RP11-20I23.1",0.11260458331941932,-1.840024494056288,8.0,370.0],["SFMBT1",0.12651511970644824,-2.1524479764943067,14.0,364.0],["SNAPC2",0.13008265060790786,-2.2367199166922918,9.0,369.0]],"bottom":[["ANAPC5",-0.14062927985232113,-2.4982401836660295,11.0,367.0],["ANGPTL1",-0.1577920239533006,-2.9593126638828777,10.0,368.0],["AP1M2",-0.13778690973116678,-2.4258589875921786,8.0,370.0],["BDNF",-0.14396917073001003,-2.5843996743595827,10.0,368.0],["BIRC2",-0.1428046702272631,-2.5540343506857672,9.0,369.0],["CEPT1",-0.13610247318188604,-2.3837213610029164,8.0,370.0],["CLEC4C",-0.12549052292141724,-2.1280229944663227,8.0,370.0],["DNAJC7",-0.14352028383085183,-2.5726065823785476,9.0,369.0],["EFCAB12",-0.16472986123486877,-3.1588986341407526,16.0,362.0],["EID3",-0.1386817405353087,-2.448636966160852,10.0,368.0],["EXOG",-0.14993244759639773,-2.7426755818615765,11.0,367.0],["FAM3B",-0.135436814134697,-2.367486842340469,11.0,367.0],["FCN3",-0.13745610635821748,-2.4178537598827474,11.0,367.0],["FRMD3",-0.1599825307482483,-3.0213927703612247,10.0,368.0],["GCDH",-0.14717786447141648,-2.6687398028129627,9.0,369.0],["GPR35",-0.12952606224956104,-2.223391173853231,9.0,369.0],["HIST1H2AM",-0.1453169225140652,-2.6197697141792746,11.0,367.0],["IL21R",-0.1682821499091587,-3.2637201790539443,16.0,362.0],["KCNIP4",-0.13770268790370274,-2.4237419818459918,8.0,370.0],["KLC2",-0.17281633094915744,-3.400271568343287,15.0,363.0],["LCAT",-0.13509181125231753,-2.3586432580345837,8.0,370.0],["MIEF2",-0.21316351604618258,-4.755670121281698,12.0,366.0],["MLKL",-0.15006917777737763,-2.7465169069400717,13.0,365.0],["MMAA",-0.15395750060426217,-2.852161495858685,8.0,370.0],["MSTN",-0.13701997675983113,-2.4068380693505596,10.0,368.0],["MTERFD2",-0.13416537115021315,-2.3357895792430274,8.0,370.0],["MYD88",-0.20560721890203465,-4.48241366056273,11.0,367.0],["NFKBIB",-0.14589386314935676,-2.6349565790338905,11.0,367.0],["NUTM2D",-0.18343562038657907,-3.7320438026215546,9.0,369.0],["OAS1",-0.15411659982709733,-2.8569690828037646,12.0,366.0],["OR1G1",-0.1546312752239745,-2.8707841861785615,8.0,370.0],["OR2Z1",-0.15211149377281924,-2.8019045799176734,12.0,366.0],["OR5M11",-0.15951502141407428,-3.008338194991974,13.0,365.0],["OR6C74",-0.14547390131727805,-2.6239751766446227,12.0,366.0],["P2RY1",-0.13104916353404372,-2.259861493839628,8.0,370.0],["PRKACB",-0.13542869856217374,-2.36698559740167,8.0,370.0],["PRR21",-0.14185051875581145,-2.529391584792241,9.0,369.0],["RAC1",-0.13846575246997778,-2.4432669407585608,11.0,367.0],["SIRPB2",-0.16836688434270325,-3.265787555755709,10.0,368.0],["SLA2",-0.13441803663260524,-2.3420096400799,8.0,370.0],["SMPD1",-0.1482115285654891,-2.6962747394523143,9.0,369.0],["ST3GAL3",-0.14812950811111159,-2.694281433452422,11.0,367.0],["TMEM184C",-0.15529937829008428,-2.889559774692777,10.0,368.0],["TMOD3",-0.13045961074179543,-2.245660105742113,8.0,370.0],["TPK1",-0.14412024016414435,-2.588340576568507,10.0,368.0],["TRIM49C",-0.15884982115796886,-2.9894552066446307,13.0,365.0],["TUT1",-0.15040177790543033,-2.7555055325290714,13.0,365.0],["USF2",-0.1538608192371784,-2.8499830745824557,13.0,365.0],["ZNF34",-0.17387548396099806,-3.4323304975916127,11.0,367.0],["ZNF785",-0.17244374813000724,-3.3889270925829407,15.0,363.0],["ZSCAN9",-0.14132545563265939,-2.515991542548609,10.0,368.0]]}}}
{"depmap_damaging":{"corr":{"top":[["ARAP2",0.12519817216686427,-1.827844902729016,11.0,367.0],["ATP13A5",0.20020169115977238,-4.051417992365713,8.0,370.0],["CRTC1",0.13527281360135304,-2.0729755295472576,15.0,363.0],["ERMAP",0.11309605183197412,-1.5543127291533956,19.0,359.0],["ZNF300",0.13850700497659865,-2.1550739890269854,17.0,361.0]],"bottom":[]},"para":{"top":[["ARAP2",0.11401789304949733,-1.870677684689178,11.0,367.0],["CRTC1",0.14462423096679394,-2.6018647014527603,15.0,363.0]],"bottom":[["ABCB4",-0.144422379032413,-2.596232724004843,10.0,368.0],["EFCAB13",-0.14048200821001602,-2.4941665421322514,8.0,370.0],["HERC5",-0.1282538602876255,-2.1930990659720235,9.0,369.0],["NOTCH4",-0.1434404277105399,-2.5706336603814184,10.0,368.0],["PRDM9",-0.12707117492296913,-2.1653289228249384,11.0,367.0],["TIAM1",-0.12181333785532687,-2.0434420126047934,9.0,369.0],["ZKSCAN3",-0.13290204373825257,-2.3048327431136983,8.0,370.0]]}}}
{"ccle_rppa":{"corr":{"top":[],"bottom":[["KIT_c-Kit",-0.23177413603619337,-4.989167939061729,355]]},"para":{"top":[],"bottom":[]}}}
{"ccle_metabolomics":{"corr":{"top":[],"bottom":[["kynurenine",-0.17654894694041834,-3.130267146812064,362]]},"para":{"top":[],"bottom":[]}}}
{"ccle_rrbs_enhancer_clusters":{"corr":{"top":[],"bottom":[["4-174434313-174438870-1_enh",-0.21524178404120578,-3.98263377851359,320]]},"para":{"top":[],"bottom":[["17-41705554-41708087-1_enh",-0.2489494341565325,-3.600156201253206,212]]}}}
{"prism_primary_logfold":{"corr":{"top":[["milnacipran_BRD-A15202882-003-02-7::2.5::HTS",0.17760616001224983,-2.5435955089223214,280],["isosteviol_BRD-A96529864-001-01-3::2.5::HTS",0.1818760822300654,-2.775393615441449,296],["griseofulvin_BRD-K08273968-001-19-0::2.5::HTS",0.17431744904664834,-2.5454975852177633,291],["ganciclovir_BRD-K22662435-001-18-3::2.5::HTS",0.18287532828512854,-2.761364834735575,291],["odanacatib_BRD-K22822991-001-02-3::2.5::HTS",0.21336322361332596,-3.490216628101595,280],["GBR-12935_BRD-K50135270-300-02-3::2.5::HTS",0.2016117885599156,-3.267519253060641,291],["QX-314_BRD-K56596464-004-10-7::2.5::HTS",0.21614478959713893,-3.72574752484555,294],["org-27569_BRD-K57597776-001-01-2::2.5::HTS",0.18182800864228252,-2.7503241354909798,293],["todralazine_BRD-K68553471-003-12-3::2.5::HTS",0.19441190086309748,-3.0855496871566133,293],["allylthiourea_BRD-K89634775-001-09-9::2.5::HTS",0.2087207597049517,-3.492517756057266,293],["bremelanotide_BRD-K06328344-015-01-7::2.500004254::MTS004",0.18784807132823486,-2.8235041950038298,283]],"bottom":[["talarozole_BRD-A95755460-001-01-3::2.5::HTS",-0.16735975333187653,-2.363335551158445,289],["propranolol-(S)_BRD-K13994703-003-15-8::2.5::HTS",-0.20018110819208437,-3.2272230218754205,291],["setiptiline_BRD-K36732695-001-01-9::2.5::HTS",-0.1830657899165711,-2.8064940388910395,296],["moroxydine_BRD-K57291914-003-09-4::2.5::HTS",-0.19956994489190058,-3.20060719084308,290]]},"para":{"top":[["tenoxicam_BRD-A22844106-001-26-0::2.5::HTS",0.19452519220937745,-3.088663333189719,293],["isosteviol_BRD-A96529864-001-01-3::2.5::HTS",0.21138435590947943,-3.6031142367540157,296],["tobramycin_BRD-K05619559-001-12-7::2.5::HTS",0.1958651919110526,-3.143911587679515,295],["tranilast_BRD-K17849083-001-31-1::2.5::HTS",0.18288781458837478,-2.7456158804755226,289],["odanacatib_BRD-K22822991-001-02-3::2.5::HTS",0.20658861525157568,-3.2982296437369536,280],["L-798,106_BRD-K43905307-001-01-2::2.5::HTS",0.1753259382100269,-2.436576711955853,273],["sulfabenzamide_BRD-K59983611-001-21-9::2.5::HTS",0.1759124950305808,-2.2997969841443338,253],["todralazine_BRD-K68553471-003-12-3::2.5::HTS",0.1859125791210185,-2.8568367095995684,293],["AZD4282_BRD-K72369578-001-04-1::2.5::HTS",0.17070694848184764,-2.3511835339082223,276],["IEM1754_BRD-K80060353-303-03-9::2.46::HTS",0.17198701558328497,-2.380785610443473,276],["allylthiourea_BRD-K89634775-001-09-9::2.5::HTS",0.21157309972070418,-3.5769788063303167,293],["vincamine_BRD-K89704198-001-12-3::2.5::HTS",0.18939101276478976,-2.940698769928115,292],["fluocinolone-acetonide_BRD-K94353609-001-21-6::2.5::HTS",0.1783679081133656,-2.6541479457798482,292],["bremelanotide_BRD-K06328344-015-01-7::2.500004254::MTS004",0.19524998209787137,-3.017600489597074,283]],"bottom":[["propranolol-(S)_BRD-K13994703-003-15-8::2.5::HTS",-0.21176447242015597,-3.5614291493675596,291],["proguanil_BRD-K28183345-003-11-4::2.5::HTS",-0.17628923734068613,-2.6243626141507796,295],["moroxydine_BRD-K57291914-003-09-4::2.5::HTS",-0.20903347893780164,-3.47062385491329,290]]}}}
{"prism_secondary_logfold":{"corr":{"top":[["sevoflurane_BRD-K05638300-001-01-2::2.5::HTS002",0.2152773401500255,-3.2366765574710126,252],["ganetespib_BRD-K38852836-001-02-1::0.00061034::HTS002",0.19321848873163108,-2.7036179065239554,254],["DMH1_BRD-K39381259-001-01-0::0.0024414::HTS002",0.22694854072520707,-3.5881790112905256,255],["SB-431542_BRD-K67298865-001-09-0::0.00061034::HTS002",0.2050821659307814,-2.9749504037821617,252],["ibrutinib_BRD-K70301465-001-05-9::0.0391::MTS010::PROS003_PR500",0.21204140760727205,-3.0661919876578962,244],["guanidine_BRD-K76037122-001-02-5::2.5::HTS002",0.24261083015413398,-4.055563709086844,256],["vorinostat_BRD-K81418486-001-44-2::0.00977::MTS010::PROS001_PR500",0.21644063122256973,-3.1889731301639537,245],["bexarotene_BRD-K92441787-001-04-1::0.0391::MTS010::PROS003_PR500",0.1947297573507311,-2.6483652719854427,244],["trapidil_BRD-K95763993-001-19-3::0.00976562::HTS002",0.1933008779427873,-2.7235972329986335,256]],"bottom":[["omeprazole_BRD-A55962179-001-22-1::0.625::HTS002",-0.22834238670106247,-2.9535310938781083,201],["ketoprofen_BRD-A97739905-001-26-5::0.00061034::HTS002",-0.23188590383844615,-3.4847193809884836,236],["epinastine_BRD-A98990573-003-01-3::0.0024414::HTS002",-0.2633394263174585,-4.62380819277163,251],["PU-H71_BRD-K36529613-001-02-6::0.0024414::HTS002",-0.23560745204760328,-3.782392804266979,251],["bisacodyl_BRD-K39987650-001-24-1::0.625::HTS002",-0.2445372220045538,-3.7871892901079,233],["chlorogenic-acid_BRD-K47114202-001-14-6::10.3178::HTS002",-0.2173746509310602,-3.314583785886792,254],["thioguanine_BRD-K49350383-001-13-7::10::HTS002",-0.23227832634814932,-3.53373449623864,239],["clofazimine_BRD-K56614220-001-19-0::0.0024414::HTS002",-0.23507598403089627,-3.7803240236704063,252],["paricalcitol_BRD-K60585088-001-01-5::0.625::HTS002",-0.23199169829895802,-2.9062734197034503,191],["altretamine_BRD-K67043667-001-26-4::10::HTS002",-0.22434859742613256,-2.8645879950266044,201],["ACDPP_BRD-K68633617-003-02-9::0.0024414::HTS002",-0.22190458996911544,-3.000896318500899,217],["NVP-BVU972_BRD-K77943374-001-02-8::10::HTS002",-0.24097842490631727,-3.992931901451968,255],["pyrimethamine_BRD-K88429204-001-35-1::0.0390625::HTS002",-0.22671078619753893,-3.5937490140906663,256]]},"para":{"top":[["trovafloxacin_BRD-K00494077-066-01-9::0.15625::HTS002",0.18586268526049113,-2.405253615181964,239],["sevoflurane_BRD-K05638300-001-01-2::2.5::HTS002",0.2042732211487214,-2.9547045089474406,252],["ebastine_BRD-K13314656-001-01-0::0.15625::HTS002",0.19341949368608696,-2.6903785337723782,252],["spiradoline_BRD-K28192623-066-08-1::0.15625::HTS002",0.19344806235952625,-2.709103993035632,254],["rimexolone_BRD-K31627533-001-09-5::0.00061034::HTS002",0.19345821362721477,-2.6732377191336747,250],["DMH1_BRD-K39381259-001-01-0::0.0024414::HTS002",0.2471110141331627,-4.177580128355086,255],["2,3-DCPE_BRD-K61734568-003-02-1::0.0390625::HTS002",0.18830871284925624,-2.5448348256176625,249],["SB-431542_BRD-K67298865-001-09-0::0.00061034::HTS002",0.20826058795574998,-3.0552372169601503,252],["torin-2_BRD-K68174511-001-06-6::0.0390625::HTS002",0.18894543623576943,-2.550790445027864,248],["trans-4-Hydroxycrotonic-acid_BRD-K91614056-001-02-2::0.00061034::HTS002",0.19598813774698223,-2.7517103347268463,252]],"bottom":[["omeprazole_BRD-A55962179-001-22-1::0.625::HTS002",-0.2510556769374343,-3.4887257043983833,201],["ketoprofen_BRD-A97739905-001-26-5::0.00061034::HTS002",-0.2328487230226118,-3.510340067638134,236],["epinastine_BRD-A98990573-003-01-3::0.0024414::HTS002",-0.2539015908014307,-4.326593099545787,251],["BAY-K-8644-(s)-(-)_BRD-K14329163-001-03-9::0.0390625::HTS002",-0.20680118915042525,-3.007977742068141,251],["bisacodyl_BRD-K39987650-001-24-1::0.625::HTS002",-0.2124602381772556,-2.9575944921583193,233],["chlorogenic-acid_BRD-K47114202-001-14-6::10.3178::HTS002",-0.20254001137624897,-2.9312739274869406,254],["clofazimine_BRD-K56614220-001-19-0::0.0024414::HTS002",-0.2198425416499648,-3.3578519367138564,252],["altretamine_BRD-K67043667-001-26-4::10::HTS002",-0.23122537675595314,-3.0186842514929664,201],["bosentan_BRD-K74763371-002-04-0::10::HTS002",-0.21066156684081136,-2.946446415254851,236],["pyrimethamine_BRD-K88429204-001-35-1::0.0390625::HTS002",-0.20978375487343584,-3.136236949304055,256]]}}}
{"ccle_proteomics":{"corr":{"top":[["RASEF_Q8IZ41",0.27259771209918887,-3.059334028821272,146],["STRN3_H0YJT2",0.2674451730496415,-2.80114465508644,137],["JTB_O76095",0.23425260685995258,-3.886946293243852,262]],"bottom":[["TRANK1_O15050",-0.4070656573236765,-6.180918053975059,139],["PPP1R14A_Q96A00",-0.297338355345108,-2.9463868147468126,117]]},"para":{"top":[],"bottom":[]}}}
{"depmap_copy_number":{"corr":{"top":[],"bottom":[["PRSS43P_100288960",-0.19341246936966644,-3.8549975558312366,383]]},"para":{"top":[],"bottom":[]}}}
{"depmap_gene_tpm":{"corr":{"top":[["CBLN1_869",0.23196971034525668,-5.197875287634011,371],["STMN2_11075",0.230996403188795,-5.158049832505168,371],["RUNDC3A_10900",0.22872458144714253,-5.065762656775239,371],["MAPK10_5602",0.24377586298398954,-5.694795292043193,371],["PLPPR5_163404",0.24734737627647319,-5.8502057221631665,371],["SCN3B_55800",0.21895706654990266,-4.679597580737464,371],["AMER3_205147",0.22902358739140047,-5.07785548240423,371]],"bottom":[]},"para":{"top":[["RTN2_6253",0.21233791072745703,-4.427595483557233,371],["LINGO4_339398",0.18848370802962663,-3.5829539910727504,371]],"bottom":[["EIF2S2_8894",-0.18079872010697007,-3.331589878987048,371],["USP50_373509",-0.1814936014067715,-3.3539093775227884,371]]}}}
{"avana":{"corr":{"top":[["CMTR2_55783",0.23850893776287085,-4.135390849835704,271],["DSCAML1_57453",0.21206131108476553,-3.356615186230523,271],["EDRF1_26098",0.24351901482322078,-4.293281501806496,271],["GLYR1_84656",0.22167036709399593,-3.617397877154768,270],["HMGCL_3155",0.22862071566074135,-3.8335494171655293,271],["LRRFIP1_9208",0.21236155364887505,-3.36494920643158,271],["PLPP6_403313",0.2716358828056243,-5.242860620620997,271]],"bottom":[["ARRDC5_645432",-0.19868846054084505,-2.996954862422582,271],["CASQ2_845",-0.19632202383710262,-2.9356389826973457,271],["FAM169A_26049",-0.20039111415524788,-3.041502059740104,271],["FNDC4_64838",-0.22762892316949832,-3.8039843929454604,271],["HERPUD2_64224",-0.19048957734938876,-2.7874704289836445,271],["HS1BP3_64342",-0.22398453752824085,-3.6964483095219283,271],["L3MBTL1_26013",-0.1982681960929113,-2.9766035024612783,270],["LSM5_23658",-0.21737324359123908,-3.5057597461728243,271],["SEMA4F_10505",-0.23584197594515638,-4.052707943721239,271],["SFTPB_6439",-0.19805178876439192,-2.98038997373192,271],["SH3RF2_153769",-0.2609520958368991,-4.869170125698752,271],["SYTL2_54843",-0.20043016351372203,-3.0425279580118625,271],["TRAPPC4_51399",-0.21538428666744774,-3.449492995835029,271]]},"para":{"top":[["C3orf80_401097",0.2022897869437226,-3.0916039574561043,271],["CST4_1472",0.18774247949907483,-2.719129559332155,271],["EXOSC7_23016",0.21211147355402893,-3.3580067795101383,271],["FBXL15_79176",0.1920082242122947,-2.825647269604934,271],["MMP1_4312",0.2018641053821706,-3.0803319844288874,271],["NETO2_81831",0.21154310829655215,-3.3422580680293925,271],["PI4KB_5298",0.2105785263992991,-3.315624574154823,271],["PRAMEF1_65121",0.19161721235984214,-2.8157906699444877,271],["RNF207_388591",0.19850001695792324,-2.9920467021688206,271],["TM9SF2_9375",0.26293911970759376,-4.937462199145867,271]],"bottom":[["ARRDC5_645432",-0.19836172893646892,-2.988447689525718,271],["CCDC70_83446",-0.1912864953188703,-2.807468633863355,271],["CSNK1G3_1456",-0.20916717389761755,-3.276867688111414,271],["DNAJB4_11080",-0.19811777658630536,-2.9821045025091064,271],["GABRA3_2556",-0.22956004358358414,-3.5865009079357595,249],["HSD17B4_3295",-0.19930887020261873,-3.0131451071325106,271],["KANK4_163782",-0.20801441769751583,-3.2453990764255614,271],["OR2AE1_81392",-0.19067827140805835,-2.7921985620913627,271],["SEMA4F_10505",-0.2023799259338759,-3.0939937284938175,271],["SFTPB_6439",-0.2053062798310342,-3.172130290774935,271],["URI1_8725",-0.20818526465559972,-3.239720342309108,270],["ZCCHC18_644353",-0.21501632534576504,-3.19668647360415,249],["ZNF273_10793",-0.1990225603691333,-3.0056676026846754,271]]}}}
{"drive":{"corr":{"top":[["HSDL1_83693",0.39444913797205805,-15.205984572014328,389],["SERPINF1_5176",0.3086369197013571,-9.170350792501731,383],["AKR1E2_83592",0.382766004199551,-14.084793297504447,383],["HTR1F_3355",0.3319822959927273,-10.579576722390932,383],["IVNS1ABP_10625",0.3356993542750478,-10.815289189638008,383]],"bottom":[["ELAVL3_1995",-0.24898299908272387,-6.181953902334568,389],["LOC105370892&LOC105374686&LOC107985088&RNF219&KIAA0753_105370892&105374686&107985088&79596&9851",-0.25954370328524334,-6.446089541510291,374],["ARHGAP20_57569",-0.24017757383121782,-5.7018843223436555,383],["PTPN4_5775",-0.23646576637301434,-5.54045195359942,383],["STARD6_147323",-0.31168035614263667,-9.347221707400509,383]]},"para":{"top":[["POLG_5428",0.2848993036471509,-7.858991711911962,383],["AKR1E2_83592",0.2454576911062295,-5.936065424273969,383]],"bottom":[["INSR_3643",-0.199448469289486,-4.0710050481618545,383],["LOC105370892&LOC105374686&LOC107985088&RNF219&KIAA0753_105370892&105374686&107985088&79596&9851",-0.24013243462339376,-5.579020418977561,374],["PTPN4_5775",-0.21088157266463362,-4.498040264849142,383]]}}}
{"achilles":{"corr":{"top":[["SIGLEC1_6614",0.2957714270801573,-2.9619824641165917,119]],"bottom":[["ARR3_407",-0.38757722058170796,-4.8755499894035905,119],["INTS11_54973",-0.26239617112061786,-2.4044466049407913,119]]},"para":{"top":[["LRRC37A11P_342666",0.26750154447689545,-2.485373533771526,119],["C7orf66_154907",0.2940108246688506,-2.9308588627953345,119],["RNF150_57484",0.290326485995595,-2.8663573739667734,119],["ZNF705E&ZNF705B_100131539&100132396",0.30077485016027883,-5.231212564408407,219]],"bottom":[["C2CD6_151254",-0.3682879931633671,-4.423300259012202,119],["SLX4_84464",-0.3068152684802735,-3.1617048453398096,119],["ARR3_407",-0.45397702591256534,-6.666745026246402,119],["MKI67_4288",-0.27748184019370464,-2.6480631349230905,119],["SLAMF9_89886",-0.3679759577574879,-4.416217093854398,119]]}}}
{"ccle_rrbs_tss1kb":{"corr":{"top":[["FAM114A2_5_153418498_153419498",0.33926077988816206,-4.998334924284823,162]],"bottom":[["LOC731157_5_89704816_89705816",-0.21834845449891957,-4.0633657577014315,318]]},"para":{"top":[["TMEM109_11_60680370_60681370",0.18820573197688573,-3.196359838730887,326],["LOC101927907_2_77212090_77213090",0.2014673871061061,-3.2247901560132073,287],["FAM171A2_17_42441235_42442235",0.17698345490833087,-2.859933277403501,324],["UBE2L3_22_21921018_21922018",0.26093759042128417,-2.733700749486659,140],["NSUN5_7_72722864_72723864",0.2863225013774576,-3.9319419924669696,176],["ARAF_23_47419498_47420498",0.19631170756625055,-3.183899722895469,298]],"bottom":[["SLC12A4_16_67997968_67998968",-0.2143394881906922,-3.0140810548529298,234],["SMIM12_1_35325338_35326338",-0.2073456892092372,-3.7878475803657965,326],["ADNP_20_49547750_49548750",-0.23571174449967167,-4.507193175572233,306],["MIR6752_11_67256715_67257715",-0.31842640444464576,-3.2308092386269407,113],["FAAH_1_46858938_46859938",-0.21075384637722291,-3.836164909120316,320]]}}}
{"ccle_gene_tpm":{"corr":{"top":[["RP11-384F7.2_ENSG00000239268.2",0.23930913989520108,-5.39692049917662,363],["MAPK10_ENSG00000109339.14",0.23127780955213062,-5.069669832882461,363],["RUNDC3A_ENSG00000108309.8",0.22967398159616753,-5.005699840104754,363],["LPPR5_ENSG00000117598.7",0.24895760301102174,-5.805477071712169,363],["CBLN1_ENSG00000102924.7",0.2319500942686315,-5.096620613487333,363]],"bottom":[["RP11-680B3.2_ENSG00000240521.1",-0.3790745215689367,-13.12348616924839,363]]},"para":{"top":[["RP11-491F9.5_ENSG00000260769.1",0.2028568413786442,-4.002796517973134,363],["RP11-364C11.3_ENSG00000256031.1",0.21940014413327313,-4.606700523634655,363],["SNX18P24_ENSG00000251539.1",0.22058714510372537,-4.651852207585991,363],["CTD-2562J17.4_ENSG00000255136.2",0.19826019182122318,-3.8433033413629687,363],["RP11-357K6.1_ENSG00000255618.1",0.21929695346685374,-4.602786933918056,363],["RP11-227F19.1_ENSG00000250467.1",0.20313130663494383,-4.012433082156382,363],["PCDHA2_ENSG00000204969.5",0.2123142501557565,-4.342262360018035,363],["RP11-227F19.2_ENSG00000249122.1",0.21925501719679472,-4.601196997836226,363],["AC006042.8_ENSG00000233264.2",0.20103069225950168,-3.9390052610457493,363]],"bottom":[["RP11-383G10.5_ENSG00000225063.1",-0.1936960128372797,-3.688460570996676,363],["RP11-80H5.6_ENSG00000225836.1",-0.17753253226631593,-3.167957769274006,363]]}}}
{"ccle_rrbs_tss_clusters":{"corr":{"top":[["LPP_4",0.2590340419878379,-3.817140721062856,209],["SEMA3A_2",0.249231815510891,-2.8442054160372012,161]],"bottom":[["IRGC_3",-0.27148868616636734,-2.7853979884926705,132]]},"para":{"top":[["TTC7A_1",0.2402998478818248,-4.518252721367217,295],["CCDC124_2",0.26244906203124113,-3.0131587796783155,155],["AGFG2_2",0.2279190541641108,-2.5786791332335066,172]],"bottom":[["ZNF556_2",-0.24872563017408433,-3.1488226740754914,182],["MIR4517_3",-0.2451133324579795,-4.145362219542833,257],["LOC339059_2",-0.2422139434650723,-4.69413549625319,303],["RUSC2_1",-0.2996370416501911,-3.3604284589962727,134],["SMARCD2_1",-0.26377476444241005,-3.1074872888044784,159],["KPNB1_1",-0.2768078261866714,-2.4662850681421458,110]]}}}
{"ccle_rrbs_cgi_clusters":{"corr":{"top":[["3_187869478_187874354-2",0.2590340419878379,-3.817140721062856,209]],"bottom":[["16_2625134_2629399-1",-0.2721768456246382,-2.797741216908646,132],["3_57198811_57201378-1",-0.4588758941040957,-6.176424200283895,107],["7_148956858_148959374-1",-0.30436720790062477,-4.397009755810823,176]]},"para":{"top":[["2_47165858_47168418-1",0.2402998478818248,-4.518252721367217,295],["5_14459130_14463463-3",0.2307823398539051,-3.0599258525225985,205]],"bottom":[["2_241987164_241991461-1",-0.2526546979509649,-2.9280976048372436,162],["9_124985743_124989415-2",-0.25132111329059775,-5.391749146924767,328],["11_615414_618068-2",-0.31312798889867804,-3.853254260955035,143],["9_35487704_35492700-1",-0.2996370416501911,-3.3604284589962727,134],["17_61917659_61922656-1",-0.26377476444241005,-3.1074872888044784,159],["17_45724673_45727447-1",-0.2768078261866714,-2.4662850681421458,110],["17_52975866_52980307-3",-0.25831824595429553,-5.5633741482966865,321],["23_30324439_30327053-3",-0.2784921814575689,-2.3572441938926665,103]]}}}
