{"depmap_hotspot":{"corr":{"top":[["ADAD1",0.12937097516613014,-1.9150336731486328,16.0,359.0],["ANGEL2",0.14957282124430651,-2.432459512471807,18.0,357.0],["BCL6",0.12500760287579335,-1.8117089691522161,22.0,353.0],["C7orf25",0.1325529106820295,-1.9922528868566727,10.0,365.0],["CANX",0.1271907035801622,-1.8630350381735665,17.0,358.0],["CENPBD1",0.12138243211110511,-1.728107200446995,8.0,367.0],["CHST15",0.1516641383254001,-2.4897468360801147,21.0,354.0],["CIC",0.1368463058657722,-2.0989629270575256,61.0,314.0],["DNAJB11",0.13370018749640736,-2.020483972665252,13.0,362.0],["EFHC2",0.12258737911150498,-1.755670139398235,17.0,358.0],["FOXA2",0.1186785900389391,-1.66706938727828,15.0,360.0],["GALM",0.12318167697369915,-1.769346971779238,8.0,367.0],["HARS",0.12856178613707994,-1.8956484582604942,12.0,363.0],["HERC5",0.12897786670737058,-1.9056034835126592,24.0,351.0],["IL1A",0.163858731201747,-2.8379661068517503,10.0,365.0],["INPP4A",0.1263170682212732,-1.8424066025731987,28.0,347.0],["KRT71",0.12379825390230308,-1.7835941220487466,16.0,359.0],["LBR",0.11899758253168342,-1.6742121453712118,16.0,359.0],["LENG9",0.13778422231236928,-2.1226610947503577,11.0,364.0],["LYPD3",0.11659879402740765,-1.6208808264361774,13.0,362.0],["MACC1",0.12346747923887812,-1.7759436644608122,23.0,352.0],["MOK",0.1569746916107541,-2.638404723928002,12.0,363.0],["MS4A12",0.11552406197360814,-1.5972716103160332,8.0,367.0],["MYADM",0.11666608207156809,-1.6223648348963597,14.0,361.0],["MYLK4",0.1302089120960264,-1.9352152126293685,16.0,359.0],["NEU2",0.1205247000150038,-1.7086228284569718,16.0,359.0],["OR2M5",0.11951597876034753,-1.6858531230300984,26.0,349.0],["PHF1",0.12560057595774166,-1.825577044789759,12.0,363.0],["RAD54B",0.15193384282927988,-2.4971863111247816,11.0,364.0],["RNF135",0.14481527841975536,-2.3047603011057345,10.0,365.0],["SP1",0.13095354237608903,-1.9532415020397278,20.0,355.0],["SULT6B1",0.12013856998518428,-1.6998883315294973,9.0,366.0],["TBL1X",0.12542934659512403,-1.8215668494277168,10.0,365.0],["TRPV1",0.16040557462484664,-2.7368903290589754,21.0,354.0],["TUBB2A",0.132181591578045,-1.9831600533038531,12.0,363.0],["UBR3",0.11836122990166852,-1.6599786370157117,31.0,344.0],["UPK3BL",0.12345583875794772,-1.7756747405377795,18.0,357.0],["ZNF785",0.1438334909780283,-2.2788595586450464,15.0,360.0],["ZSCAN25",0.1191723804774078,-1.6781327635495564,18.0,357.0]],"bottom":[["ABRA",-0.12362873308445284,-1.7796711796191889,18.0,357.0],["ADNP",-0.13186639458803312,-1.9754584893551361,24.0,351.0],["ADNP2",-0.1439083662495973,-2.280829430846905,21.0,354.0],["ADORA2A",-0.12299697035558761,-1.7650904049083989,14.0,361.0],["ADRA2C",-0.15921552389879043,-2.7025108934706683,26.0,349.0],["ALOX15B",-0.14781738353019316,-2.384917575517163,13.0,362.0],["ANKRD36C",-0.19395490906710566,-3.803408480725986,49.0,326.0],["CDHR5",-0.14113088363817838,-2.2083562704661905,24.0,351.0],["CPSF3",-0.17816660824362543,-3.2778565333933396,14.0,361.0],["DHX57",-0.15088284581151,-2.4682622455133356,26.0,349.0],["FAM196A",-0.12596951817673785,-1.8342331215395684,19.0,356.0],["FANCM",-0.15821588376326365,-2.6738115429671807,50.0,325.0],["HECW1",-0.14194059082089217,-2.229357071481508,60.0,315.0],["INMT",-0.125293353474161,-1.818385123647418,15.0,360.0],["ITCH",-0.14989066636730758,-2.441120707766766,20.0,355.0],["MAGEB1",-0.12260731298081803,-1.7561280034082505,11.0,364.0],["NRN1",-0.14353833334908797,-2.2711030651680524,8.0,367.0],["OCA2",-0.14845591561590435,-2.402153304130292,36.0,339.0],["P4HA3",-0.14835877011999493,-2.399526849390041,8.0,367.0],["PARP4",-0.15938293101375697,-2.707333093674087,27.0,348.0],["PPP1R7",-0.12499995877621513,-1.8115305492926168,10.0,365.0],["SFMBT1",-0.16281767137008255,-2.8072870009329405,14.0,361.0],["SLC5A1",-0.14195273187803203,-2.2296727598102106,18.0,357.0],["STAP1",-0.15084946067843324,-2.4673463940030014,14.0,361.0],["TBX4",-0.1729175670990078,-3.1125039652973507,24.0,351.0],["TLR1",-0.1239006058210929,-1.785964833785629,22.0,353.0],["UBOX5",-0.15798187921670462,-2.667116963311174,11.0,364.0],["WSCD2",-0.1299087760344362,-1.927973899985556,28.0,347.0]]},"para":{"top":[["AMBN",0.1353455038925037,-2.3519355970951348,12.0,363.0],["ANKRD34A",0.131426502745668,-2.256674811306603,12.0,363.0],["C7orf25",0.12538012974675855,-2.1140170210092686,10.0,365.0],["CANX",0.15204086945901507,-2.7837336983905163,17.0,358.0],["CAPS2",0.11592902460665468,-1.901864124852745,8.0,367.0],["CENPBD1",0.10297225126826388,-1.6324616680658035,8.0,367.0],["CLEC2A",0.113712734430351,-1.8540543509121339,8.0,367.0],["FAM46A",0.1298907563656968,-2.219812286314337,10.0,365.0],["FFAR2",0.1481504740929161,-2.6787525974108783,8.0,367.0],["FOXA2",0.14613605405781976,-2.6262401183827544,15.0,360.0],["GALM",0.1478947483033426,-2.671978007553825,8.0,367.0],["HARS",0.16263854759368077,-3.0791013154726676,12.0,363.0],["HNRNPA2B1",0.11795751673928603,-1.9465211174862693,11.0,364.0],["IL1A",0.14449295440327664,-2.5830209708475445,10.0,365.0],["ILKAP",0.11985015338011507,-1.9882085828523595,8.0,367.0],["KRT71",0.14047369727066558,-2.480269872818998,16.0,359.0],["LENG9",0.13474602469104083,-2.3371421825441563,11.0,364.0],["LYPD3",0.12631012697699762,-2.1357960848939475,13.0,362.0],["MOK",0.17775469487433268,-3.53031988063895,12.0,363.0],["MS4A12",0.10766055741044475,-1.727135827862954,8.0,367.0],["OR2B2",0.10706386390143992,-1.7149102359829473,8.0,367.0],["RAD54B",0.14248333705141478,-2.531235670458595,11.0,364.0],["RNF135",0.12690915571928,-2.149543128303035,10.0,365.0],["RNF183",0.128630072155472,-2.189733134496779,8.0,367.0],["RPL13A",0.11290863906837584,-1.8369868514867225,9.0,366.0],["TRIM23",0.13051240094668526,-2.234711217050159,11.0,364.0],["TUBB2A",0.15459059881000034,-2.853025253783499,12.0,363.0],["ZCWPW1",0.11569471784144081,-1.8970415863106809,11.0,364.0]],"bottom":[["ADORA2A",-0.1411800744666158,-2.4981213957988198,14.0,361.0],["AICDA",-0.11857152443224757,-1.959805540150058,8.0,367.0],["ARRB1",-0.14558212977526153,-2.611283373462534,9.0,366.0],["CPSF3",-0.18276095235830192,-3.6876057434389558,14.0,361.0],["EIF2B3",-0.10767766149215033,-1.727584886380818,9.0,366.0],["GPHN",-0.14402329214621123,-2.5710109861521584,12.0,363.0],["HAUS1",-0.14047870040571098,-2.4797804757301254,8.0,367.0],["IFIT1",-0.13471779173233153,-2.336266914271963,9.0,366.0],["IMPA1",-0.13299383913169005,-2.2946205927292067,14.0,361.0],["ITCH",-0.16143118095275674,-3.044992398781765,20.0,355.0],["KIF9",-0.13689204643403557,-2.3902807545165072,14.0,361.0],["KRT79",-0.12140466221820274,-2.02326092507439,10.0,365.0],["KRTAP10-4",-0.13698378128153976,-2.392055528101348,8.0,367.0],["KRTAP16-1",-0.12223692741613444,-2.0418691706737016,8.0,367.0],["LAT2",-0.13669713606891828,-2.3854440520338662,14.0,361.0],["LRRC37A",-0.13029342040818415,-2.229485365328603,11.0,364.0],["MAGEB1",-0.1332861544343665,-2.3015206280720824,11.0,364.0],["NRN1",-0.15727136058770433,-2.926817244744016,8.0,367.0],["OR10P1",-0.12581708847016349,-2.123930512887487,8.0,367.0],["OR2J1",-0.11886390584746337,-1.9663848975769023,9.0,366.0],["P4HA3",-0.13042015268248652,-2.232216574486896,8.0,367.0],["PPP1R7",-0.13378977259562647,-2.3136891290494868,10.0,365.0],["PRR16",-0.1490001657783026,-2.701810056133521,13.0,362.0],["REPS2",-0.12293368819072423,-2.057891953306021,10.0,365.0],["SAPCD2",-0.13117682229611732,-2.250431317271813,9.0,366.0],["SFMBT1",-0.16846752558303477,-3.249123527894418,14.0,361.0],["SLC5A1",-0.1490010946611207,-2.702093527388772,18.0,357.0],["SLC6A9",-0.14226435651291364,-2.525619558854692,11.0,364.0],["STAP1",-0.16203548353416458,-3.061964070215042,14.0,361.0],["UBOX5",-0.13956359653806616,-2.4569435795687666,11.0,364.0],["UMPS",-0.12394176601329114,-2.080710647557014,8.0,367.0],["WT1",-0.12344853612532394,-2.0697778807399416,12.0,363.0],["ZNF143",-0.1324644475456498,-2.281428933977736,9.0,366.0],["ZNF287",-0.14112261521523825,-2.4965981235414247,13.0,362.0]]}}}
{"depmap_damaging":{"corr":{"top":[["CDH10",0.0905318773180574,-1.097097514514709,8.0,367.0],["CDH11",0.12204572324861888,-1.7432522015409324,8.0,367.0],["MECOM",0.10975038749729375,-1.4734387108526312,13.0,362.0],["NCAM1",0.11751393538614943,-1.6411230681318603,8.0,367.0],["TAF4",0.1114781664403419,-1.5099670516760446,8.0,367.0]],"bottom":[["ABR",-0.11196244744484495,-1.5202864785328571,9.0,366.0],["ADNP",-0.16291319780204092,-2.8100946344500564,10.0,365.0],["ANKRD11",-0.11909480715568457,-1.6763922605460038,19.0,356.0],["DMXL1",-0.15856835240806819,-2.6839121386089224,22.0,353.0],["FAM208B",-0.08639540811790765,-1.0231697397283988,18.0,357.0],["FANCM",-0.13309462208421957,-2.0055570562916896,19.0,356.0],["KRT17",-0.12606568883646083,-1.8364929328437882,10.0,365.0],["KRT79",-0.10043342968908132,-1.284172608923235,8.0,367.0],["TTC17",-0.10229040433336285,-1.3208634818694434,8.0,367.0],["VPS33A",-0.09558412802733056,-1.1907583580144114,8.0,367.0]]},"para":{"top":[["CDH10",0.10348370284741087,-1.6426358563142716,8.0,367.0],["CDH11",0.1478947483033426,-2.671978007553825,8.0,367.0],["DNHD1",0.12670278699141702,-2.145167272063181,18.0,357.0],["GCFC2",0.12949049176701322,-2.2103846584792244,11.0,364.0],["MECOM",0.14267119353105434,-2.5362047894716806,13.0,362.0],["NCAM1",0.113201282851204,-1.8431229885066844,8.0,367.0],["TAF4",0.09836918705594082,-1.5425832036808063,8.0,367.0]],"bottom":[["ANKRD11",-0.12765238558369899,-2.167412314932517,19.0,356.0],["DMXL1",-0.17526648413960622,-3.4541893449491528,22.0,353.0],["FANCM",-0.13158360731306942,-2.26078204567436,19.0,356.0],["KRT17",-0.12476851935774994,-2.0999031143731752,10.0,365.0],["KRT79",-0.1241122498730068,-2.084618317451148,8.0,367.0],["PABPC4",-0.1248191726265509,-2.100977190058063,9.0,366.0],["RFC1",-0.11482985053636054,-1.8782528764602044,10.0,365.0],["TTC17",-0.11797483092324272,-1.9466327280299085,8.0,367.0],["VPS33A",-0.10893918635831229,-1.7535069595352657,8.0,367.0]]}}}
{"ccle_rrbs_enhancer_clusters":{"corr":{"top":[],"bottom":[["11-1986222-1989372-2_enh",-0.2395645224894365,-4.816849880493777,319]]},"para":{"top":[],"bottom":[]}}}
{"ccle_mirna":{"corr":{"top":[],"bottom":[["hsa-miR-1227_miR00045.1",-0.14907675137254148,-2.3275012930134777,358]]},"para":{"top":[],"bottom":[["ebv-miR-BART21-3p_miR00739.1",-0.1654174412096377,-2.773080386042665,358]]}}}
{"prism_primary_logfold":{"corr":{"top":[["benzyldimethylhexadecylammonium_BRD-K23403298-003-01-9::2.5::HTS",0.20721377384487444,-3.3769626500092893,286],["SGC-CBP30_BRD-K24821794-001-01-4::2.5::HTS",0.17953572385994293,-2.68375320112121,292],["azimilide_BRD-K38913877-300-01-9::2.5::HTS",0.214962578460187,-3.6788036460653095,293],["mibampator_BRD-K42981054-001-01-9::2.5::HTS",0.1798848709527337,-2.6458977929111684,286],["securinine_BRD-K49071277-001-04-7::2.5::HTS",0.23123650023471803,-4.1774336531084915,292],["4-hydroxy-phenazone_BRD-K49759007-001-11-9::2.5::HTS",0.18531257010836255,-2.857513299932561,295],["benzonatate_BRD-K91699951-001-10-2::2.5::HTS",0.2716938881419577,-5.592364743851249,291],["ravuconazole_BRD-K03503561-001-01-4::2.339952449::MTS004",0.21096430876686917,-3.4638338092476535,284],["bicyclol_BRD-K16546375-001-01-4::2.393310671::MTS004",0.18778325188142636,-2.821835501705024,283],["L-365260_BRD-K34277641-001-01-2::2.569027627::MTS004",0.18413784905802355,-2.7370039264790953,284],["resveratrol_BRD-K80738081-001-46-8::2.500037854::MTS004",0.18860753507789027,-2.8516270491061704,284]],"bottom":[["8-M-PDOT_BRD-A07232941-001-02-7::2.5::HTS",-0.19453026077287655,-3.0797734103477628,292],["8-hydroxy-DPAT_BRD-A48015106-004-08-9::2.5::HTS",-0.1807667021136763,-2.723007326690712,293],["monastrol_BRD-A78377521-001-05-5::2.5::HTS",-0.21170078646077128,-3.538289274524729,289],["CGP-37849_BRD-A90272038-001-01-7::2.5::HTS",-0.1793392799968184,-2.6632772306908152,290],["picolinic-acid_BRD-K01029106-001-01-4::2.52::HTS",-0.19144180076145353,-2.995775011451381,292],["ramatroban_BRD-K08586861-001-01-1::2.5::HTS",-0.17941362404715047,-2.572011363322645,278],["C-751_BRD-K15337272-001-01-3::2.5::HTS",-0.1862508364480424,-2.865755936318555,293],["betaxolol_BRD-K17498618-344-02-6::2.5::HTS",-0.1868922953906249,-2.899439222952663,295],["RS-56812_BRD-K20714604-003-02-9::2.5::HTS",-0.18133442279507295,-2.737601446646912,293],["thiocolchicoside_BRD-K26619122-001-02-1::2.5::HTS",-0.1791937563694599,-2.628662385926829,286],["2-phenylmelatonin_BRD-K41869275-001-02-8::2.5::HTS",-0.18284476624837873,-2.7766328371300655,293],["5,7-dichlorokynurenic-acid_BRD-K60287130-001-05-7::2.5::HTS",-0.2029673222913431,-3.325542173702988,293],["phenylbutyrate_BRD-K67102207-236-07-7::2.5::HTS",-0.2395887754806666,-4.426466900494812,290],["BVT-948_BRD-K68567222-001-01-2::2.5::HTS",-0.18806520719451214,-2.9053890463112304,292],["propylhexedrine_BRD-A35667010-001-01-8::2.5::MTS004",-0.19466534606546623,-3.0110731432101114,284]]},"para":{"top":[["AMG-208_BRD-K32285926-001-02-1::2.5::HTS",0.19507165650027186,-3.067385013741781,289],["sodium-glucoheptonate_BRD-K35952844-236-01-6::2.5::HTS",0.1823096158352013,-2.7068492841574052,286],["azimilide_BRD-K38913877-300-01-9::2.5::HTS",0.18376410583757397,-2.8005377326379386,293],["securinine_BRD-K49071277-001-04-7::2.5::HTS",0.2587551505227057,-5.125301922768095,292],["4-hydroxy-phenazone_BRD-K49759007-001-11-9::2.5::HTS",0.22696155397686862,-4.076440615140625,295],["benzonatate_BRD-K91699951-001-10-2::2.5::HTS",0.2305799561211224,-4.143614005422252,291],["carbendazim_BRD-K12906202-001-06-2::2.5::MTS004",0.176364132621469,-2.543701638369588,284],["L-365260_BRD-K34277641-001-01-2::2.569027627::MTS004",0.1721833262675301,-2.4428898645246777,284]],"bottom":[["etilefrine_BRD-A09925278-003-05-6::2.5::HTS",-0.16128294334645346,-2.2474522341363046,293],["8-hydroxy-DPAT_BRD-A48015106-004-08-9::2.5::HTS",-0.19110968042337334,-2.995546840201401,293],["monastrol_BRD-A78377521-001-05-5::2.5::HTS",-0.21076506898992298,-3.5108036056071,289],["picolinic-acid_BRD-K01029106-001-01-4::2.52::HTS",-0.19156025802457685,-2.9989733559921414,292],["YM-976_BRD-K12932420-001-02-3::2.5::HTS",-0.19749624987592546,-2.9753164139008184,272],["thiocolchicoside_BRD-K26619122-001-02-1::2.5::HTS",-0.1825250965756745,-2.7123022338055374,286],["TG100-115_BRD-K64785675-001-04-0::2.5::HTS",-0.17194046327546494,-2.5015175133042167,293],["FGIN-1-43_BRD-K66093087-001-03-1::2.5::HTS",-0.1797645909920968,-2.6973494815042587,293],["phenylbutyrate_BRD-K67102207-236-07-7::2.5::HTS",-0.23744146818406023,-4.355009735997411,290],["L-Arginine_BRD-K76811153-003-01-3::2.5::HTS",-0.17469130308668918,-2.5178626540306843,286],["propylhexedrine_BRD-A35667010-001-01-8::2.5::MTS004",-0.18157679187505418,-2.672474877876412,284]]}}}
{"prism_secondary_logfold":{"corr":{"top":[["sonidegib_BRD-K19796430-001-05-6::0.0390625::HTS002",0.21564096673247746,-2.675904488900483,201],["axitinib_BRD-K29905972-001-06-3::0.00244::MTS010::PROS001_PR500",0.227070214272223,-3.4934269626359202,247],["oncrasin-1_BRD-K43449605-001-01-0::0.625::HTS002",0.22511913832170669,-3.549245347010697,256],["flufenamic-acid_BRD-K44067360-001-30-3::0.15625::HTS002",0.22041873413425903,-3.3849028554125526,253],["halobetasol-propionate_BRD-K65877271-001-01-8::0.15625::HTS002",0.253675488898953,-4.3196117267844425,251],["oseltamivir-phosphate_BRD-K76011241-001-01-8::0.00061034::HTS002",0.22539616869265824,-3.5207125534495107,253],["pyritinol_BRD-K82181219-001-04-3::0.15625::HTS002",0.21893702587456015,-2.2312281667016576,157]],"bottom":[["bruceantin_BRD-A36057565-001-01-0::10::HTS002",-0.22237362712041314,-3.4614367613997303,255],["tremorine_BRD-K08619838-300-05-7::0.0390625::HTS002",-0.21351786288998645,-3.0487731685656057,239],["FR-139317_BRD-K19318328-001-01-3::0.00061034::HTS002",-0.24541241096630798,-4.0688846458773185,251],["rutin_BRD-K20482099-001-09-4::0.000610352::HTS002",-0.21800366402365762,-3.3540757650481927,256],["I-BET151_BRD-K36363294-001-04-2::0.0024414::HTS002",-0.22068287901142564,-3.415241216114889,255],["tyrphostin-A9_BRD-K40255344-001-17-6::0.00976562::HTS002",-0.2162584133114604,-3.2736714644121885,253],["KI-8751_BRD-K47150025-001-05-3::0.15625::HTS002",-0.2272757745604573,-3.548200079240369,251],["tiagabine_BRD-K60160658-003-11-2::2.5::HTS002",-0.27247215282647264,-3.898487632158562,193],["xanomeline_BRD-K72815923-034-01-2::0.0390625::HTS002",-0.22318542825758578,-3.495595033953581,256],["YM-155_BRD-K76703230-004-04-1::0.625::HTS002",-0.31897964846492616,-3.5899888741136143,127],["KD025_BRD-K88506063-001-01-8::0.00976562::HTS002",-0.24524873282841447,-4.1210055828784595,255],["AR-12_BRD-K90497590-001-04-2::0.0024414::HTS002",-0.26063190449453427,-4.344322336591449,239],["SB-2343_BRD-K98795921-001-01-7::0.00976562::HTS002",-0.21023574100630488,-3.1480046730638653,256]]},"para":{"top":[["meloxicam_BRD-A84174393-236-07-1::2.5::HTS002",0.2259416272262435,-3.5357773982622778,253],["tetrahydrouridine_BRD-A86248581-001-01-4::0.625::HTS002",0.21729801844042468,-3.3800630888240106,260],["oncrasin-1_BRD-K43449605-001-01-0::0.625::HTS002",0.26406039442778767,-4.72940092595315,256],["flumethasone_BRD-K61496577-001-20-2::0.625::HTS002",0.21400723787267223,-3.2143446096926747,253],["semaxanib_BRD-K63504947-001-15-4::0.15625::HTS002",0.2022008122562813,-2.5280159722660125,214],["halobetasol-propionate_BRD-K65877271-001-01-8::0.15625::HTS002",0.2872396715225418,-5.428256029279039,251],["iproniazid_BRD-K88568253-011-19-9::0.00976562::HTS002",0.21077237059028178,-2.8101083462813357,223],["AZD2014_BRD-K99113996-001-02-0::0.0391::MTS010::PROS001_PR500",0.23284066430686423,-3.65213546823879,247]],"bottom":[["atenolol-(+\/-)_BRD-A20239487-001-24-9::0.00976562::HTS002",-0.21072485743499875,-2.9799691324780797,239],["bruceantin_BRD-A36057565-001-01-0::10::HTS002",-0.20961091285559524,-3.121237485825055,255],["FR-139317_BRD-K19318328-001-01-3::0.00061034::HTS002",-0.20379720298957774,-2.932860017296098,251],["tyrphostin-A9_BRD-K40255344-001-17-6::0.00976562::HTS002",-0.21253669186432683,-3.1759152874185705,253],["KI-8751_BRD-K47150025-001-05-3::0.15625::HTS002",-0.2254209267788775,-3.4972056974476318,251],["fudosteine_BRD-K54838207-001-03-8::0.00976562::HTS002",-0.2074932204427688,-3.0047944368697923,249],["AT13387_BRD-K58435339-001-03-0::0.00976562::HTS002",-0.19593285116365364,-2.7688711790815463,254],["avanafil_BRD-K65781196-001-03-0::0.625::HTS002",-0.19574494073932175,-2.607109900729629,237],["CGS-20625_BRD-K68103045-001-02-9::0.00061034::HTS002",-0.20368825763138707,-2.960016391738269,254],["xanomeline_BRD-K72815923-034-01-2::0.0390625::HTS002",-0.20524059399481343,-3.0193038669224324,256],["YM-155_BRD-K76703230-004-04-1::0.625::HTS002",-0.28891587159954574,-3.0057793232773724,127],["batimastat_BRD-K82818427-001-02-2::0.00934334::HTS002",-0.2152406284796459,-3.2909963401883546,257],["KD025_BRD-K88506063-001-01-8::0.00976562::HTS002",-0.20778918134080612,-3.0742661763910095,255],["AR-12_BRD-K90497590-001-04-2::0.0024414::HTS002",-0.2687745176784462,-4.594974544044628,239]]}}}
{"ccle_proteomics":{"corr":{"top":[["ITGBL1_O95965",0.2480728274439927,-2.4446999801613525,136]],"bottom":[["RBM48_Q5RL73",-0.36237940716216177,-4.064285269421661,112]]},"para":{"top":[["LAMA2_P24043",0.23491494932809165,-2.160141742539742,131]],"bottom":[]}}}
{"depmap_copy_number":{"corr":{"top":[["LOC100129724_100129724",0.19631851022067642,-3.9310414212074782,380],["LOC100505736_100505736",0.19647093687847084,-3.9364544194520366,380],["CENPA_1058",0.19631851022067642,-3.9310414212074782,380],["TCF23_150921",0.19517455943781542,-3.890547866260405,380],["TOGARAM2_165186",0.19862540938730952,-4.013402863619993,380],["MAPRE3_22924",0.19631851022067642,-3.9310414212074782,380],["WDR43_23160",0.19873142327190504,-4.017210391294848,380],["PCARE_388939",0.1991246813549008,-4.031351769651526,380],["ATRAID_51374",0.19517455943781542,-3.890547866260405,380],["TMEM214_54867",0.19631851022067642,-3.9310414212074782,380],["SLC35F6_54978",0.19631851022067642,-3.9310414212074782,380],["DPYSL5_56896",0.19631851022067642,-3.9310414212074782,380],["AGBL5_60509",0.19517455943781542,-3.890547866260405,380],["SLC30A3_7781",0.19524954766217054,-3.893195244000368,380],["CLIP4_79745",0.1991246813549008,-4.031351769651526,380],["SLC5A6_8884",0.19517455943781542,-3.890547866260405,380]],"bottom":[]},"para":{"top":[["LOC100505736_100505736",0.17161229195794747,-3.1070831143170614,380],["CEBPZOS_100505876",0.1725744088088552,-3.1372082326037116,380],["RMDN2-AS1_101410544",0.16965780516696574,-3.046368243887357,380],["CEBPZ_10153",0.1725744088088552,-3.1372082326037116,380],["CDC42EP3_10602",0.1704808276028375,-3.071856150126762,380],["PRKD3_23683",0.1725744088088552,-3.1372082326037116,380],["GPATCH11_253635",0.1710506403164466,-3.0895695896674376,380],["QPCT_25797",0.17033698798158436,-3.0673933725872784,380],["SULT6B1_391365",0.1725744088088552,-3.1372082326037116,380],["VIT_5212",0.17373622494538754,-3.173795564877642,380],["HEATR5B_54497",0.17423090707933847,-3.1894434710828734,380],["NDUFAF7_55471",0.1725744088088552,-3.1372082326037116,380],["EIF2AK2_5610",0.1710506403164466,-3.0895695896674376,380],["SRD5A2_6716",0.1710014516715428,-3.0880383239406326,380],["STRN_6801",0.17373622494538754,-3.173795564877642,380],["FEZ2_9637",0.17433307650253546,-3.1926805052645535,380]],"bottom":[]}}}
{"depmap_gene_tpm":{"corr":{"top":[["AMTN_401138",0.2059533680338599,-4.162013807252352,368]],"bottom":[["KISS1R_84634",-0.24412274544177312,-5.668112655991772,368],["PTPRD_5789",-0.20849750692240665,-4.254376403657461,368],["ASRGL1_80150",-0.21409010806804984,-4.461372561161341,368],["RGS14_10636",-0.2093760706160372,-4.286532978212894,368],["OR2T2_401992",-0.22315520388088267,-4.808573280473671,368],["AVPR1B_553",-0.20504434223927182,-4.129284423469357,368]]},"para":{"top":[["GSTA3_2940",0.19202630629474599,-3.676139221417996,368],["LILRB4_11006",0.16406645004708573,-2.799085401030462,368]],"bottom":[["LAPTM4B_55353",-0.20290884727509914,-4.052957698031682,368],["SLC5A9_200010",-0.24732129782219833,-5.806297043140475,368],["RGS14_10636",-0.22265778246655776,-4.789144094042139,368],["OR2T2_401992",-0.19496893671929222,-3.7760386066893137,368],["H2AFB2_474381",-0.19808064206295456,-3.883279975594552,368]]}}}
{"avana":{"corr":{"top":[["AGR2_10551",0.22201651868349728,-3.639094903292661,271],["FIG4_9896",0.21130150556295954,-3.3355759817050044,271],["GTF3C2_2976",0.21273027102249037,-3.36442964660419,270],["HCN2_610",0.21358185062687318,-3.3989398377081357,271],["KRTAP5-8_57830",0.2266582673669575,-3.7751738713123695,271],["LRRC10B_390205",0.19123359412053736,-2.8061386940697393,271],["TESC_54997",0.22182253835914512,-3.633468944339612,271]],"bottom":[["ATP2C1_27032",-0.241019212015852,-4.2140814062603145,271],["C1orf115_79762",-0.2366722438736504,-4.078347178582459,271],["CDKL3_51265",-0.24589104052936778,-4.354932971721292,270],["CERS2_29956",-0.20996844881582472,-3.298840385258323,271],["EFCAB14_9813",-0.21357590448773958,-3.3987737516810275,271],["GPR82_27197",-0.22991329121649903,-3.5962821094494104,249],["MMP15_4324",-0.21645360562015134,-3.4796805884873523,271],["RP1_6101",-0.1956511110273453,-2.9183814476530787,271],["TMEM136_219902",-0.22417049652939555,-3.701893628923331,271]]},"para":{"top":[["AFF2_2334",0.1942840902162326,-2.6745160776718877,248],["GTF3C2_2976",0.1950043805194749,-2.8926799727044985,270],["HCN2_610",0.2399664036905402,-4.180976183515468,271],["KRTAP5-8_57830",0.2110154098465305,-3.3276729235445472,271],["LRRC10B_390205",0.19296410058210395,-2.849822063300664,271],["NSG2_51617",0.19598653495867635,-2.927002419155519,271],["OR5C1_392391",0.19242117994891078,-2.836077428166814,271]],"bottom":[["ATP2C1_27032",-0.21362548590099734,-3.4001587848556576,271],["C1orf115_79762",-0.22065348450658545,-3.5996661627022615,271],["CDKL3_51265",-0.2334237122903876,-3.9656572456617534,270],["FAM160A1_729830",-0.22476281148122262,-3.719267947470544,271],["GPR82_27197",-0.20523086908461113,-2.948370379724739,249],["MMP15_4324",-0.2469016366582019,-4.401789344586424,271],["PUF60_22827",-0.19395059609418966,-2.8748891596168873,271],["RCL1_10171",-0.19487591426269363,-2.898510770022643,271],["ROCK2_9475",-0.20483923433985457,-3.1595876678800727,271],["TMEM136_219902",-0.23404711379116075,-3.9975934836190805,271]]}}}
{"drive":{"corr":{"top":[["GTF3C1_2975",0.38667579222391874,-14.488348309833388,386]],"bottom":[["RLIM_51132",-0.1965588211677339,-3.9939851585836927,386]]},"para":{"top":[["GTF3C1_2975",0.35455248280050095,-12.149591012365708,386],["NFIB_4781",0.25416341821407895,-6.379037550424618,386]],"bottom":[["DACH2_117154",-0.24216348173926416,-5.639080458524086,372],["RLIM_51132",-0.2262064293867418,-5.143598010128599,386]]}}}
{"achilles":{"corr":{"top":[["MXRA7_439921",0.3360066094597657,-3.700430712157645,118],["C1orf174_339448",0.3186982015281457,-3.360507511456816,118],["ASAP3_55616",0.3444043630597157,-3.8727016773715155,118],["DCAF7_10238",0.3881289639021806,-4.851742634850323,118],["NEURL2_140825",0.3222344183102328,-3.4283272818964945,118],["LAMB4_22798",0.3634113449185121,-4.280980610215887,118]],"bottom":[["FMO1_2326",-0.2905186084349743,-4.864157644677386,217],["MRO_83876",-0.3533428262132381,-4.061484902435268,118],["EVA1C_59271",-0.3422975981086016,-3.8290241762437347,118],["GP1BA_2811",-0.3149743363986343,-3.2899784909937457,118],["MAGEB4_4115",-0.3196303656006711,-3.3783049794830204,118],["ARL13A_392509",-0.32293345564877396,-3.4418318661112366,118],["EVI2B_2124",-0.3336740185292657,-3.6534418508548887,118]]},"para":{"top":[["MXRA7_439921",0.3639029645664215,-4.291886740969333,118],["FEM1C_56929",0.2950677182152948,-2.9281184162204283,118],["DCAF7_10238",0.32865380893297397,-3.553567407177567,118],["ASAP3_55616",0.42499397409958434,-5.792807318385956,118],["ZC3H14_79882",0.3017579355567669,-3.046917442304224,118],["ABHD6_57406",0.3094354644325793,-3.1867455827853215,118],["LAMB4_22798",0.369497455418202,-4.417250062780562,118]],"bottom":[["SERF1B&SERF1A_728492&8293",-0.3134210074632777,-3.2608267747255772,118],["FMO1_2326",-0.2697529436081484,-4.245490726049865,217],["MRPL49_740",-0.33479537503012946,-3.6759846018426026,118],["MRO_83876",-0.349655610661096,-3.9829249476174406,118],["EVA1C_59271",-0.29830379104701726,-2.9852302671497126,118],["MAGEB4_4115",-0.32012446200730094,-3.3877618144691737,118]]}}}
{"ccle_rrbs_tss1kb":{"corr":{"top":[["FBH1_10_5930534_5931534",0.1885911789149166,-3.1146608383687227,315],["LOC102725254_19_18314539_18315539",0.18289332076688974,-2.986047352909052,319],["SLC25A1_22_19166376_19167376",0.21919825874162502,-4.102987492951469,319],["MGAT4A_2_99347589_99348589",0.19106406753130425,-3.1857870115664664,315],["NELFA_4_2010962_2011962",0.1907076452163913,-3.201430954902532,318],["HIST1H4E_6_26203872_26204872",0.18012869722732275,-2.8856195739242145,316],["NPDC1_9_139940676_139941676",0.1930762534598458,-3.306281404689548,322],["AIMP1_4_107235766_107236766",0.22423947461686486,-3.272961598217417,235],["SNX10_7_26331664_26332664",0.185748549153595,-3.066881540860229,319]],"bottom":[["MYOM2_8_1992157_1993157",-0.23066552199582085,-4.534480281002063,322],["PPY_17_42019642_42020642",-0.21219015610252842,-2.8752745527641115,226]]},"para":{"top":[["RUVBL1_3_127842730_127843730",0.1952084048082091,-3.33409366612165,318],["RCC2_1_17766250_17767250",0.19396220472537723,-2.5030249549402486,230]],"bottom":[["TRAPPC5_19_7744706_7745706",-0.22743642293368568,-3.8717516968545924,277],["TAF1C_16_84220676_84221676",-0.24951831385820775,-5.131073756414801,315],["TICAM1_19_4831754_4832754",-0.22474940015257822,-4.172345374897208,309],["PXK_3_58317616_58318616",-0.2238503298829896,-4.236821627088184,317],["C2orf73_2_54557070_54558070",-0.215232238184436,-3.9495700077237132,317],["TREX1_3_48506350_48507350",-0.21083609385543586,-3.8597887438295113,322],["LOC100268168_5_172386371_172387371",-0.20817256218145067,-3.650908421544248,310],["PLEKHA5_12_19281625_19282625",-0.2201572682664756,-3.8379538011177767,293],["CASTOR3_7_99869855_99870855",-0.21839080246893963,-4.031073019578784,315],["RIPPLY3_21_38377862_38378862",-0.2304340944730885,-4.513787255791381,321]]}}}
{"ccle_gene_tpm":{"corr":{"top":[["AC112715.2_ENSG00000224132.2",0.2592838682913424,-6.2146515939365905,360],["RP11-114F10.3_ENSG00000257438.1",0.21193388941142502,-4.296734066381241,360],["PTP4A1P1_ENSG00000231158.1",0.19261777066371522,-3.626148021001672,360],["AMTN_ENSG00000187689.5",0.1924323572273574,-3.620013611923073,360],["RP11-733C7.1_ENSG00000249091.1",0.20783717193076842,-4.14925125335546,360],["RP11-138A23.2_ENSG00000250180.1",0.19299054395348347,-3.6384984648512946,360]],"bottom":[["KISS1R_ENSG00000116014.5",-0.24273446044109934,-5.49878684969773,360],["PTPRD_ENSG00000153707.11",-0.22181514578085543,-4.664300806593779,360],["RP11-683L23.1_ENSG00000173213.7",-0.2144681428510281,-4.389402372521647,360],["ASRGL1_ENSG00000162174.8",-0.21419748561292415,-4.379452949989076,360],["SDHAP3_ENSG00000185986.10",-0.22912604219458313,-4.9471564099087475,360],["ANKRD31_ENSG00000145700.5",-0.21280491354770137,-4.328460195626924,360]]},"para":{"top":[["GSTA3_ENSG00000174156.9",0.1920025707811244,-3.605815995122534,360],["PTP4A1P1_ENSG00000231158.1",0.18344830026049241,-3.3295618223771326,360],["LILRB4_ENSG00000186818.8",0.18459415353860734,-3.365870235094934,360],["VN1R17P_ENSG00000235818.3",0.19249009237240813,-3.62192317073595,360]],"bottom":[["RGS14_ENSG00000169220.13",-0.22454878897152605,-4.7689713504550255,360],["AC004540.4_ENSG00000225792.1",-0.20560619568580227,-4.070134855838369,360],["RP11-153F1.1_ENSG00000224613.2",-0.20133351698416102,-3.9209612634976105,360],["SLC5A9_ENSG00000117834.8",-0.2440014777945163,-5.551831446955144,360],["PPY2_ENSG00000265060.1",-0.2015964789806532,-3.930053396639933,360]]}}}
{"ccle_rrbs_tss_clusters":{"corr":{"top":[["ANKRD28_1",0.23378418050252392,-3.8082736766221243,257],["RALGPS2_1",0.2531902261123976,-3.249029632971159,182],["C9orf78_1",0.276177243301356,-3.019221985062713,140],["TBCK_1",0.2269757113698403,-3.3680006779030762,237]],"bottom":[["MIR6081",-0.3037921243784466,-4.514564850356236,182],["ZNF311_3",-0.2526708221494608,-3.436871171533879,195],["MIR335_1",-0.2648737184703731,-3.2831387313694442,168],["C13orf42_5",-0.25224529875161555,-3.181639578043218,179],["PLEKHH2_2",-0.26183500727304093,-2.8505690209698633,146],["ACSF3_6",-0.2789564430888426,-3.4319577268393306,159],["RNF135_3",-0.2567018448479218,-2.930632341057553,157]]},"para":{"top":[["ANKRD28_1",0.24610349064153084,-4.175596589542145,257],["LEMD2_2",0.2210400469535876,-2.375561475885459,166],["SYNCRIP_2",0.22988575289229576,-3.7963191000047,265],["C9orf78_1",0.28267754995276956,-3.146052216631799,140],["C14orf132_3",0.22658620097137874,-2.7527782779998993,188],["MIR197_1",0.2521237198975609,-3.1175457182815567,175]],"bottom":[["MIR6081",-0.2699104717731161,-3.6404402127934947,182],["KCNN4_1",-0.24729221555949316,-4.889538151960692,304],["NBEAL2_2",-0.2548758344235358,-3.0047542208274147,164],["C13orf42_5",-0.25242372219319925,-3.1856032059307497,179],["SFRP1_2",-0.23910529579419512,-3.910362385961432,253],["PLEKHH2_2",-0.27752650840426374,-3.1578079982969993,146],["HUS1",-0.2463798105246149,-5.112934347684543,322]]}}}
{"ccle_rrbs_cgi_clusters":{"corr":{"top":[["12_120424547_120427307-2",0.2261994335539841,-4.401244926444534,324],["12_54471305_54475562-1",0.23061297224119573,-3.6157000728938717,249],["9_132595219_132597770-1",0.276177243301356,-3.019221985062713,140],["1_178691968_178694522-1",0.2531902261123976,-3.249029632971159,182],["3_15898497_15901243-1",0.23378418050252392,-3.8082736766221243,257]],"bottom":[["16_89914650_89919192-3",-0.2831534466861311,-5.436882585918006,259],["7_51452273_51456504-2",-0.34429929502413975,-4.536266313955854,141],["2_43862322_43866956-2",-0.26183500727304093,-2.8505690209698633,146]]},"para":{"top":[["6_86352733_86355914-2",0.22988575289229576,-3.7963191000047,265],["19_41835014_41839230-3",0.22566426869883643,-2.4230782414091143,163],["12_54471305_54475562-1",0.23590483586976563,-3.764474328003633,249],["9_132595219_132597770-1",0.28267754995276956,-3.146052216631799,140],["3_15898497_15901243-1",0.24610349064153084,-4.175596589542145,257]],"bottom":[["23_49123645_49126423-3",-0.2958123330032007,-2.6820930474107105,106],["16_89914650_89919192-3",-0.24897689225407799,-4.2933747322357965,259],["17_40803674_40807957-2",-0.26155298910564956,-3.441587933777624,182],["1_200269276_200273538-1",-0.2921562677102106,-2.7721519924952394,113],["2_43862322_43866956-2",-0.27752650840426374,-3.1578079982969993,146]]}}}
