{"depmap_hotspot":{"corr":{"top":[["ALG12",0.14923637702722142,-2.4233092488169135,13.0,362.0],["DHRS4L2",0.13183643295626765,-1.9747272129835263,9.0,366.0],["ELMOD3",0.14455238684375885,-2.2978097898627508,8.0,367.0],["FGF10",0.1467530094942043,-2.3563329255312238,10.0,365.0],["GTF3C4",0.12288412359062044,-1.762492439245447,17.0,358.0],["HPSE2",0.11629456558335156,-1.6141798178778854,23.0,352.0],["IGSF5",0.12342064142856383,-1.7748617223504684,20.0,355.0],["PLEKHM2",0.11404870679881902,-1.5651479393734187,19.0,356.0],["POM121L2",0.12418466571102853,-1.792552810295152,33.0,342.0],["PPP1R15A",0.12684769142474397,-1.85492164301078,9.0,366.0],["TRIM15",0.14271338327419203,-2.249497838425751,13.0,362.0],["TTLL12",0.18219184210821057,-3.407806753166425,25.0,350.0]],"bottom":[["AIFM1",-0.24204691499730455,-5.675025467760158,9.0,366.0],["APOA1BP",-0.18875205253396302,-3.625503789833524,10.0,365.0],["ARHGEF6",-0.13350192175133463,-2.015590469937126,15.0,360.0],["BEND7",-0.13736611487324604,-2.1120796710877254,10.0,365.0],["BPHL",-0.13225803099359598,-1.9850301292078703,11.0,364.0],["C18orf8",-0.14069159761437292,-2.1970064683309287,10.0,365.0],["C7orf26",-0.1283252346526775,-1.8900008181002146,17.0,358.0],["CAB39L",-0.15497992780740785,-2.582027768063282,10.0,365.0],["DENND2A",-0.1448297074245472,-2.305142105374683,38.0,337.0],["DFFA",-0.1498578610479542,-2.4402260171870425,10.0,365.0],["EPAS1",-0.1426702562000506,-2.2483713383603687,28.0,347.0],["EPHX1",-0.12797722600548542,-1.8817079850222918,9.0,366.0],["GP1BA",-0.12821970738847746,-1.8874841766683572,17.0,358.0],["GTF3C2",-0.15761492247703288,-2.656636812051745,11.0,364.0],["HCAR1",-0.1275297202896446,-1.8710718907233987,15.0,360.0],["INVS",-0.13783288970264268,-2.1238945609152675,34.0,341.0],["LRRC34",-0.12809653254653006,-1.8845488636366938,10.0,365.0],["LUM",-0.1603003942148037,-2.733842409388944,17.0,358.0],["METTL17",-0.15669079123316368,-2.63034140532773,15.0,360.0],["NDUFAF7",-0.1395286540932661,-2.1671076126224924,8.0,367.0],["NFYC",-0.13670776571772136,-2.095474240445142,17.0,358.0],["OR10A6",-0.14877774154370274,-2.410865141598975,9.0,366.0],["PKP4",-0.15178768509067195,-2.4931532638634395,22.0,353.0],["PODXL",-0.13683170483439594,-2.098595104294626,28.0,347.0],["RABEPK",-0.13916113658723284,-2.1577035092171815,11.0,364.0],["SLC30A5",-0.17640278401655127,-3.221776439955178,10.0,365.0],["SPATA5L1",-0.17664108253931426,-3.229322412135728,19.0,356.0],["SYCP2",-0.1555175669060041,-2.597158960071466,37.0,338.0],["TMEM52B",-0.1819499316693957,-3.399919360005931,8.0,367.0],["USP22",-0.15366469531788546,-2.5452103323222035,15.0,360.0],["WDR81",-0.16275854986498944,-2.8055501039940904,40.0,335.0],["YIPF4",-0.14694120822057236,-2.361373913009783,9.0,366.0],["ZNF860",-0.13700971686179694,-2.103081802456836,20.0,355.0]]},"para":{"top":[["ALG12",0.16953558367766408,-3.2807405893807076,13.0,362.0],["APPL2",0.1266032929057089,-2.1424089671391573,10.0,365.0],["BZW2",0.13608324962087068,-2.3699637418375334,10.0,365.0],["C12orf77",0.11345695700480625,-1.8485828058801772,8.0,367.0],["CA10",0.12121396909153612,-2.018768131788757,8.0,367.0],["CES2",0.12204883731233147,-2.037955423387459,12.0,363.0],["CTD-2144E22.5",0.11746332588476562,-1.9353820411045202,8.0,367.0],["CTPS1",0.1302151782496435,-2.227754895227888,13.0,362.0],["ELMOD3",0.13348880140460306,-2.3061484933948537,8.0,367.0],["FGF10",0.13929420270181256,-2.4500659964180302,10.0,365.0],["GTPBP1",0.14163480085842342,-2.5097184230241525,14.0,361.0],["HIST3H2A",0.1278845762824733,-2.1724680409860655,11.0,364.0],["KRTAP10-1",0.0998182544347319,-1.5705499916272094,8.0,367.0],["KRTAP10-4",0.1655397524442779,-3.1625612244075683,8.0,367.0],["KRTAP16-1",0.11678139075626191,-1.9204422071551022,8.0,367.0],["LAYN",0.14540301138966144,-2.606801432411522,11.0,364.0],["MKKS",0.15797545090500248,-2.946621982480476,9.0,366.0],["MS4A4E",0.12119767145335386,-2.018508579028361,9.0,366.0],["OR6C2",0.1343656924539429,-2.327905018140836,12.0,363.0],["PKM",0.12563677487788766,-2.1201672134194602,13.0,362.0],["POLK",0.1272275150423272,-2.1571347826496448,12.0,363.0],["PPP1R15A",0.15016922638244248,-2.732705454367185,9.0,366.0],["SAMSN1",0.13783137967763232,-2.413813611580124,17.0,358.0],["SGTA",0.13730646984218187,-2.4002977121464935,10.0,365.0],["TMEM5",0.1268399339016918,-2.1477221993102686,8.0,367.0],["TRIM15",0.14825947389126937,-2.682118356440143,13.0,362.0],["TRIM72",0.13614217162641457,-2.371755890301799,15.0,360.0],["TTLL12",0.18713985339110223,-3.828701186308638,25.0,350.0],["UBC",0.14718220250967978,-2.653625622594563,13.0,362.0]],"bottom":[["ACVR2B",-0.1447583419011032,-2.5901538054304796,13.0,362.0],["AMBP",-0.1467087350992458,-2.640812298837683,9.0,366.0],["C5orf34",-0.1443031551250158,-2.5782636204135643,12.0,363.0],["CABP7",-0.14951427692444041,-2.715047901795561,8.0,367.0],["CCDC34",-0.1389883976464847,-2.4423709817492996,10.0,365.0],["CHCHD3",-0.11132590972823221,-1.8033658633288725,8.0,367.0],["EPHX1",-0.16224070760289605,-3.067394576328144,9.0,366.0],["FAM124A",-0.1471572586900592,-2.653030151945332,14.0,361.0],["FBXL12",-0.13667510279299508,-2.3847733700239218,12.0,363.0],["FGL1",-0.13639517426704934,-2.377837965647204,12.0,363.0],["FOXO1",-0.13791807995283745,-2.415548284873678,10.0,365.0],["FRA10AC1",-0.1489175836869997,-2.6991335200339397,8.0,367.0],["FTO",-0.13506289946679673,-2.34505501256472,13.0,362.0],["IGFBP6",-0.11274763459903642,-1.8335602960600619,9.0,366.0],["INPP1",-0.11612764934076342,-1.9062875544311388,9.0,366.0],["LRRC34",-0.13715356731451794,-2.3964937785584146,10.0,365.0],["LUM",-0.16252024794463088,-3.0760162214423157,17.0,358.0],["MAGEB1",-0.122410065311477,-2.046072129968922,11.0,364.0],["NUDT17",-0.11540336046753621,-1.8905628992492896,9.0,366.0],["OR7A5",-0.16861493790668564,-3.2532490811711727,11.0,364.0],["OTUB1",-0.12240735556641767,-2.0457328209619132,8.0,367.0],["PIGS",-0.16036667471038457,-3.0142033767176724,11.0,364.0],["PKNOX1",-0.12280720228274773,-2.054922581262623,9.0,366.0],["PNKD",-0.13095030242623118,-2.245182805271757,11.0,364.0],["RABEPK",-0.14073142869441121,-2.4865059261070614,11.0,364.0],["RUVBL1",-0.15319947725879007,-2.8150759360223163,14.0,361.0],["SEPP1",-0.11891243803283606,-1.9673550664951165,8.0,367.0],["TFPT",-0.1244531609519288,-2.092445195916005,8.0,367.0],["TMLHE",-0.11055873270866552,-1.7872493291718627,8.0,367.0],["UBE2Q2",-0.15805592744647215,-2.9488752214222513,9.0,366.0],["WDR76",-0.118059086336036,-1.94859467466678,9.0,366.0],["YIPF4",-0.1269919824391716,-2.1513833875392963,9.0,366.0]]}}}
{"depmap_damaging":{"corr":{"top":[["ATM",0.14159684265091413,-2.220428770402213,24.0,351.0]],"bottom":[["ARID4B",-0.1291669146279939,-1.9101355039367485,18.0,357.0],["FSTL5",-0.10855550034086178,-1.4484396957519121,8.0,367.0],["MYH8",-0.19096804278302465,-3.70070608276694,12.0,363.0],["PLXNA4",-0.11950807832495648,-1.6856754037575985,12.0,363.0]]},"para":{"top":[["ATM",0.14905857894264138,-2.703819738193324,24.0,351.0],["KIAA1731",0.12036244071345799,-2.0001995182818595,16.0,359.0],["KTN1",0.1346456209798886,-2.3347559015783657,12.0,363.0],["NF1",0.12562326759989997,-2.120362271636409,30.0,345.0]],"bottom":[["CDH10",-0.10808671786783952,-1.7358989039347947,8.0,367.0],["FAM131B",-0.11072921649079147,-1.790823397120757,8.0,367.0],["MED12",-0.14405879589641069,-2.5715352152163633,8.0,367.0],["MYH8",-0.15613013534622222,-2.895515004448005,12.0,363.0],["PLXNA4",-0.13268612129826865,-2.287044200461459,12.0,363.0],["ROBO2",-0.14345168362753152,-2.556625680591897,20.0,355.0],["VPS33A",-0.08617955186465755,-1.3191398173375146,8.0,367.0]]}}}
{"ccle_rppa":{"corr":{"top":[["JUN_c-Jun_pS73",0.256065092819877,-5.9491051098923196,352]],"bottom":[]},"para":{"top":[],"bottom":[]}}}
{"ccle_rrbs_enhancer_clusters":{"corr":{"top":[],"bottom":[["5-3187183-3189926-2_enh",-0.2726839097568264,-6.01427540749481,313],["10-130832316-130835175-0_enh",-0.257735430152113,-3.7828764570771245,209],["14-95837948-95841481-0_enh",-0.2553883851381598,-5.386070704672022,317],["16-72252566-72255196-0_enh",-0.24366644309000207,-4.787362795373886,306],["16-78395855-78398387-0_enh",-0.23652771524838612,-4.77191749173828,324]]},"para":{"top":[],"bottom":[["10-130364868-130367436-0_enh",-0.254716370197691,-4.796033287483707,280],["10-130832316-130835175-0_enh",-0.2611981707408116,-3.874637695628035,209],["16-78207751-78210557-1_enh",-0.2509764998805568,-5.142001944889742,312],["16-79027363-79030162-2_enh",-0.21982937793998944,-3.953335563560886,304]]}}}
{"ccle_mirna":{"corr":{"top":[["hsa-let-7a_miR00001.1",0.18257449784130933,-3.2862241567481396,358]],"bottom":[]},"para":{"top":[["ebv-miR-BART11-5p_miR00723.1",0.1662390486658753,-2.7965858127001306,358]],"bottom":[["hcmv-miR-US25-2-5p_miR00761.1",-0.19094873381216318,-3.5539214855990564,358]]}}}
{"prism_primary_logfold":{"corr":{"top":[["bucladesine_BRD-A15931911-001-03-8::2.5::HTS",0.2164690492781982,-3.7245709104719165,293],["aminoguanidine_BRD-K25114078-003-08-1::2.5::HTS",0.20804963530871684,-3.47280737572514,293],["clocortolone-pivalate_BRD-K38003476-001-09-1::2.5::HTS",0.18767331423200231,-2.9034296012936935,293],["E-2012_BRD-K50564936-001-01-6::2.5::HTS",0.21047794237177703,-3.5023934067138476,289],["dichlorisone-acetate_BRD-K54187111-001-08-4::2.51::HTS",0.1886006330993257,-2.7745936198443446,275],["mestinon_BRD-K69688083-004-23-1::2.5::HTS",0.19127394207397044,-2.9650037223083605,289],["beclomethasone-dipropionate_BRD-K97810537-001-12-8::2.54::HTS",0.1824607462423014,-2.622458893074884,275],["fagomine_BRD-K61536264-001-01-3::2.499924728::MTS004",0.18464317441492267,-2.741639683791879,283]],"bottom":[["edelfosine_BRD-A30403214-001-03-3::0.25::HTS",-0.20603662920513632,-3.393894574132369,291],["ZK-164015_BRD-K05151076-001-02-6::2.5::HTS",-0.21711073050876947,-3.7330088366273015,292],["mestranol_BRD-K31920458-001-23-6::2.5::HTS",-0.21089385464989766,-3.472361164255082,285],["levocarnitine_BRD-K59647213-001-10-5::2.5::HTS",-0.16864630746835527,-2.2692782648227126,271],["letrozole_BRD-K88789588-001-14-9::2.5::HTS",-0.1819419523108776,-2.737359367237054,291],["perzinfotel_BRD-K04643877-001-03-2::2.633096501::MTS004",-0.20079509941087398,-3.1676438822897857,283],["PF-3274167_BRD-K31417912-001-01-9::2.499995989::MTS004",-0.1944196994218841,-3.004515308837546,284]]},"para":{"top":[["vandetanib_BRD-K77625799-001-07-7::2.5::HTS",0.22084087311631967,-3.8707028572733324,294]],"bottom":[["domiphen_BRD-K30431096-004-01-3::2.5::HTS",-0.15673942196134596,-2.10136127927102,286],["mestranol_BRD-K31920458-001-23-6::2.5::HTS",-0.19506328835048567,-3.0308062812747494,285],["perzinfotel_BRD-K04643877-001-03-2::2.633096501::MTS004",-0.207357230916589,-3.3503940964276717,283],["etilevodopa_BRD-K90982969-001-01-2::2.5::MTS004",-0.19535776753739229,-3.0296002909219104,284]]}}}
{"prism_secondary_logfold":{"corr":{"top":[["racecadotril_BRD-A08187463-001-12-9::2.5::HTS002",0.2505195165724564,-4.059158096649888,240],["methocarbamol_BRD-A31521121-001-26-4::0.0390625::HTS002",0.25526311698365006,-3.3432251153086985,185],["triamcinolone-acetonide_BRD-A92439610-001-05-7::0.0390625::HTS002",0.2561545080567103,-3.5687242140355826,198],["famotidine_BRD-K00673382-001-18-9::2.5::HTS002",0.26020771198789283,-3.5890742217172362,193],["aspirin_BRD-K11433652-001-17-0::2.5::HTS002",0.2456973487131665,-3.6755725608069265,223],["penfluridol_BRD-K15409150-001-05-8::0.0024414::HTS002",0.24598343639502268,-4.085936331424774,251],["desonide_BRD-K21528677-001-02-8::0.152295::HTS002",0.2703730491371386,-4.939136844836173,256],["atipamezole_BRD-K39252998-003-01-5::0.15625::HTS002",0.25220070031476577,-4.274232987910706,251],["golvatinib_BRD-K69001009-001-02-8::2.5::HTS002",0.29006634048581836,-2.6334317653687496,108],["pilocarpine_BRD-K85090592-008-22-7::10::HTS002",0.2771915034423844,-4.4979964560651045,219],["indiplon_BRD-K90948141-001-01-4::0.0024414::HTS002",0.2488302843482347,-4.244855525443946,256],["taltirelin_BRD-K93869735-001-01-1::0.0390625::HTS002",0.25642215885874886,-4.233504622826797,240],["deflazacort_BRD-K96006502-001-02-6::0.0390625::HTS002",0.24549045568721098,-3.8709504549810494,237],["adefovir-dipivoxil_BRD-K96159438-001-06-3::0.15625::HTS002",0.26937863049844235,-3.9579053275263676,201],["nicorandil_BRD-K97752965-001-16-4::2.5::HTS002",0.26489703904122686,-4.756895326750031,256],["beclomethasone-dipropionate_BRD-K97810537-001-13-6::0.15625::HTS002",0.26288956490175525,-4.150436804919138,223]],"bottom":[["lanatoside-c_BRD-A64242993-001-05-6::2.5::HTS002",-0.3154035534565698,-4.79243808997721,180],["I-BET-762_BRD-K08109215-001-06-4::0.00244::MTS010::PROS002_PR500",-0.21471344966876002,-3.0674416040069175,238],["calcitriol_BRD-K27316855-001-13-3::0.000594718::HTS002",-0.2093634785122154,-2.925684385847329,237],["dacarbazine_BRD-K35520305-001-16-9::0.00977::MTS010::PROS002_PR500",-0.23223420894858388,-3.5196929186660038,238],["rigosertib_BRD-K55187425-236-05-2::0.00244::MTS010::PROS004_PR500",-0.20141057790233233,-2.89341260353411,253],["tipifarnib_BRD-K62965247-001-04-9::0.0024414::HTS002",-0.19332514145727736,-2.7151748277381857,255],["AVL-292_BRD-K87782578-001-01-4::0.00244::MTS010::PROS001_PR500",-0.19898293747675627,-2.7765288808898245,247]]},"para":{"top":[["methocarbamol_BRD-A31521121-001-26-4::0.0390625::HTS002",0.29087669837362157,-4.229075059789481,185],["selamectin_BRD-A58564983-001-04-6::0.0390625::HTS002",0.2525684549208682,-3.4037725804616024,193],["prednisolone-hemisuccinate_BRD-A78391468-001-02-8::0.15625::HTS002",0.22823682371243909,-3.6243308718630494,255],["famotidine_BRD-K00673382-001-18-9::2.5::HTS002",0.29048764874295635,-4.380305694958907,193],["olaparib_BRD-K02113016-001-15-4::0.00976562::HTS002",0.24159705710761945,-4.039002208663573,257],["penfluridol_BRD-K15409150-001-05-8::0.0024414::HTS002",0.25992076252837876,-4.514833927486289,251],["atipamezole_BRD-K39252998-003-01-5::0.15625::HTS002",0.23356261984241553,-3.7241337483496366,251],["delanzomib_BRD-K59325863-001-02-8::10::HTS002",0.2314214173561385,-3.701852145290387,254],["RS-17053_BRD-K76840893-003-02-5::2.5::HTS002",0.23796924786959767,-3.8771942307069502,253],["candesartan_BRD-K84091759-001-07-1::2.5::HTS002",0.27145344581788194,-4.434480205954747,225],["taltirelin_BRD-K93869735-001-01-1::0.0390625::HTS002",0.22609681480397967,-3.3817170634217253,240],["deflazacort_BRD-K96006502-001-02-6::0.0390625::HTS002",0.2424192570961527,-3.7847758579180515,237],["beclomethasone-dipropionate_BRD-K97810537-001-13-6::0.15625::HTS002",0.22916883654430972,-3.249753910407316,223]],"bottom":[["lanatoside-c_BRD-A64242993-001-05-6::2.5::HTS002",-0.2867904572635286,-4.022606882528607,180],["dacarbazine_BRD-K35520305-001-16-9::0.00977::MTS010::PROS002_PR500",-0.23099277584284075,-3.48649923223451,238],["rigosertib_BRD-K55187425-236-05-2::0.00244::MTS010::PROS004_PR500",-0.17765027374035233,-2.337921731551418,253],["alvespimycin_BRD-K83988098-001-02-0::9.52e-06::MTS010::PROS005_PR500",-0.19316632480451806,-2.6663661455449756,250]]}}}
{"ccle_proteomics":{"corr":{"top":[["FYCO1_Q9BQS8",0.30860006821458336,-7.044640511712491,288],["MADD_Q8WXG6-4",0.3218561966589992,-3.6744819162259077,128],["GNB5_O14775",0.3622857128293835,-4.126960962649257,114],["MFI2_P08582-2",0.40733934534975835,-5.163539418410327,114],["SEMA5A_Q13591",0.31052200998339596,-3.583955346047427,134],["ORAI1_Q96D31",0.37184597258779656,-7.061338492606729,195]],"bottom":[["HDAC10_Q969S8",-0.36826984284706143,-3.9211839501854535,104]]},"para":{"top":[["TAOK2_Q9UL54-2",0.26986823857077863,-3.9361007965938235,199],["SORBS1_Q9BX66-11",0.30997087944088525,-2.793742285991408,101],["PLAUR_Q03405-2",0.35586523007201076,-4.611748249582758,134],["NDOR1_Q9UHB4-2",0.28429149977092427,-3.1189327806574845,137]],"bottom":[["D2HGDH_Q8N465",-0.24723243626843464,-4.455759937652447,274],["SERPINF1_P36955",-0.25386877833484134,-3.093276343586161,171]]}}}
{"depmap_copy_number":{"corr":{"top":[["FOLH1_2346",0.16707296136107708,-2.9670622650900342,380],["OR4A47_403253",0.16895388200777212,-3.0246594570084517,380],["LOC440040_440040",0.15734717584059546,-2.6786954499873294,380],["OR4C5_79346",0.17400090319149822,-3.1821627555267056,380]],"bottom":[]},"para":{"top":[["FOLH1_2346",0.16447766067367622,-2.8885661077807048,380],["OR4C13_283092",0.16481039161680633,-2.898566569601588,380],["TRIM49B_283116",0.16406302283571106,-2.8761298301494658,380],["LOC440040_440040",0.1662296218273961,-2.941431009552325,380],["TRIM64C_646754",0.16406302283571106,-2.8761298301494658,380]],"bottom":[]}}}
{"depmap_gene_tpm":{"corr":{"top":[["PSMD2_5708",0.29955310905578725,-8.33984420877779,368]],"bottom":[["EPX_8288",-0.30153204647708304,-8.446475971406914,368],["PRG3_10394",-0.32392673118514304,-9.71012595367854,368]]},"para":{"top":[],"bottom":[["NME9_347736",-0.22119579346404417,-4.732293852405156,368],["GRAPL_400581",-0.2162838879945409,-4.544065520694217,368]]}}}
{"avana":{"corr":{"top":[["G3BP2_9908",0.2218112638115263,-3.6331421013246232,271],["RNF165_494470",0.22546567170255996,-3.73994404674747,271],["SCRT2_85508",0.2323932107669262,-3.947184284153307,271],["SLC5A3_6526",0.25979818095378765,-4.829762827143589,271],["USP34_9736",0.2634211739865002,-4.954112757322747,271]],"bottom":[["ADH1A_124",-0.2360373753271844,-4.0587337819824185,271],["ANXA10_11199",-0.22840606576442285,-3.8271398634928677,271],["CHP1_11261",-0.27862300248309274,-5.49597468426666,271],["CST7_8530",-0.22551634397518439,-3.741437160998338,271],["CTSO_1519",-0.22899061880081753,-3.844609060327644,271],["PANK3_79646",-0.24614623994541865,-4.377423862447197,271],["PDCD5_9141",-0.2358758962327369,-4.053753633942497,271],["POMP_51371",-0.24365582448390807,-4.297640183283835,271],["YJEFN3_374887",-0.2589097829928513,-4.799548836858965,271],["ZFYVE9_9372",-0.24222916123542929,-4.252311035645511,271],["ZNF829_374899",-0.230264788565873,-3.8828423820117868,271]]},"para":{"top":[["C18orf32_497661",0.21739856594699566,-3.5064793737716053,271],["CSRP1_1465",0.21130929187181008,-3.335791214604336,271],["MEF2C_4208",0.21224129011564297,-3.3616096000499036,271],["METTL11B_149281",0.22506877376934523,-3.72826056941429,271],["MOSPD2_158747",0.2199392575460601,-3.3258338334545523,249],["PITX3_5309",0.20794637858596082,-3.2435469523796776,271],["RNASE11_122651",0.21786367515792918,-3.51971179714428,271],["RNF165_494470",0.24864155830688525,-4.4582046079541895,271],["SUPT6H_6830",0.20947862517220367,-3.2749430876689645,270],["USP34_9736",0.2664252864380388,-5.058608586284634,271],["ZNF93_81931",0.20878426329064806,-3.2663961393934375,271]],"bottom":[["EAF1_85403",-0.2306645380578997,-3.894881337227481,271],["JUN_3725",-0.29288073428238726,-6.034320655368218,271],["KCNE4_23704",-0.24610160304237938,-4.375986501790777,271],["LSM5_23658",-0.2280828029896804,-3.8174984476266163,271],["MAMSTR_284358",-0.24181154637120247,-4.239093889660514,271],["MAP2K7_5609",-0.22311611130305967,-3.6710781402152084,271],["MAPRE1_22919",-0.23506863224274868,-4.028908761837693,271],["OR56B4_196335",-0.23586351458888644,-4.05337191655821,271],["PDCD5_9141",-0.2422590342926829,-4.253257387808616,271],["POMP_51371",-0.22990236452355958,-3.8719456567279553,271]]}}}
{"drive":{"corr":{"top":[["SLC47A2_146802",0.3593503471799607,-12.482526277931608,386],["ARX_170302",0.35936449224013317,-12.483516153541466,386],["GAB2_9846",0.35208105373956433,-11.980275104819915,386],["TBC1D30_23329",0.3439576460242802,-11.127245258309557,375]],"bottom":[["ID2_3398",-0.23437359948922304,-5.488993898076353,386]]},"para":{"top":[["RECQL4_9401",0.28521642270146486,-7.723969351134307,375],["ARX_170302",0.300808469522755,-8.788027935127756,386],["STAG3L5P-PVRIG2P-PILRB_101752399",0.2791989591978778,-7.416352656108763,375],["TBC1D30_23329",0.3232186284061281,-9.840199543374217,375]],"bottom":[["SAP30_8819",-0.20316164289755706,-4.236113112337208,386]]}}}
{"achilles":{"corr":{"top":[["PABPC3_5042",0.33570177442311405,-3.694268829887832,118],["MIPOL1_145282",0.3379630278588549,-3.7401291903166274,118],["TPPP_11076",0.35712183867581104,-4.143008989926477,118],["SALL2_6297",0.37757455275110513,-4.602363270780419,118],["TP53AIP1_63970",0.4382420991881284,-6.159147217704343,118],["ADAT3_113179",0.32534078618222917,-6.0158539088748535,217],["CDYL_9425",0.3577537938577258,-4.156742352335038,118],["GSTM2P1_442245",0.3269960119781821,-3.520960192644565,118]],"bottom":[["CBLN2_147381",-0.39336768606773914,-4.978741537672926,118],["OR11H12&OR11H2&OR11H1_440153&79334&81061",-0.34106111891514224,-3.803533348441499,118],["LINC01123_440894",-0.33710253533576845,-3.722636198217421,118],["A2M_2",-0.2870814414864974,-4.758331576773178,217]]},"para":{"top":[["SAMD13_148418",0.3381285242667245,-3.7434994161549935,118],["KHNYN_23351",0.3432535479794126,-3.8488045919152727,118],["TMEM116_89894",0.3145958264269495,-3.282860409680011,118],["MAB21L1_4081",0.31137949798588116,-3.2227517969445243,118],["TP53AIP1_63970",0.41599164408753125,-5.5525934307285745,118],["CDYL_9425",0.35168013673365794,-4.025939820750195,118],["MAP7D2_256714",0.32189747166903443,-3.42182945098524,118]],"bottom":[["LYNX1_66004",-0.2931509250689703,-2.894598530947923,118],["CXorf65_158830",-0.30871600844562347,-3.1734820637216123,118],["ARRB2_409",-0.2687812137650906,-2.488034416853681,118],["NTNG1_22854",-0.3048667363013268,-3.1030833740297785,118],["OR11H12&OR11H2&OR11H1_440153&79334&81061",-0.2650117961583385,-2.428325974066158,118],["LINC01123_440894",-0.38928848594475407,-4.879666240299814,118],["WRAP73_49856",-0.352059952449994,-4.034042176238401,118],["NAA50_80218",-0.28893543280488915,-2.8216825473283356,118],["A2M_2",-0.26764000125660903,-4.185283095477138,217]]}}}
{"ccle_rrbs_tss1kb":{"corr":{"top":[["HIST1H2BJ_6_27100575_27101575",0.23200485833715284,-3.769571700403144,258]],"bottom":[["C1orf109_1_38156267_38157267",-0.41939863296802904,-5.160548511306793,107],["MSH2_2_47629205_47630205",-0.3134542588274627,-8.045244371840731,322],["SEMA6A-AS1_5_115782193_115783193",-0.3301939227616365,-4.354609269541153,147],["BNIP2_15_59981125_59982125",-0.27636102601463247,-6.113409826015256,310],["ARHGEF7-AS1_13_111800912_111801912",-0.2683323385956825,-5.870006375273899,315]]},"para":{"top":[["LOC102723729_8_41435887_41436887",0.20104813864301668,-2.942654991471919,259],["FGFR4_5_176512872_176513872",0.21163271484261387,-3.8117747916893276,315]],"bottom":[["PDYN_20_1974394_1975394",-0.22088958009870555,-3.54854565121583,266]]}}}
{"ccle_gene_tpm":{"corr":{"top":[["PSMD2_ENSG00000175166.12",0.3005073724783668,-8.222187999374011,360]],"bottom":[["CTD-2006O16.2_ENSG00000264434.1",-0.3369453076870931,-10.280147040044533,360],["CTD-2342N23.3_ENSG00000272456.1",-0.3614134845499859,-11.822446631982437,360],["PRG3_ENSG00000156575.2",-0.32638650965342086,-9.655150886177786,360],["AE000661.37_ENSG00000251002.3",-0.3116755838890937,-8.823667897824967,360]]},"para":{"top":[],"bottom":[["GRAPL_ENSG00000189152.6",-0.22639279834405088,-4.840314248805029,360],["NME9_ENSG00000181322.9",-0.23152317111866325,-5.041941188357074,360],["AE000661.50_ENSG00000259042.1",-0.23115519279418542,-5.027325142687535,360]]}}}
{"ccle_rrbs_tss_clusters":{"corr":{"top":[["CORO2B_3",0.30691588217719085,-3.2559121997151035,123],["HPGD_1",0.2828902540098697,-5.672860526544429,272]],"bottom":[["NACA2_1",-0.30991971554705416,-5.258827617685887,207],["DNAJC10_2",-0.3130761103423434,-4.65620538502309,177],["CDCA8_2",-0.41981767208809434,-5.2146783683099684,108],["CCDC36_3",-0.3497360129610202,-3.5024776240180215,102],["PDLIM5_2",-0.44557334567871376,-7.213566578648028,135]]},"para":{"top":[["SKAP2_1",0.22113663198871683,-4.145154667314599,317],["CORO2B_3",0.346077433239707,-4.054376083440428,123],["FAM122C_1",0.2426278908437274,-2.9721408151987103,179],["LTB4R2_1",0.24277916257401636,-3.2028609081874078,195]],"bottom":[["HMGXB4_1",-0.3303995862736285,-6.8195521226524125,241],["CCDC36_3",-0.3450686451672354,-3.417280281787719,102],["S100A6_1",-0.3005119098253303,-4.099629558845579,167],["LOC101929420_2",-0.30158029887659255,-4.5194696003957455,185],["CTCFL_2",-0.27586257190592917,-4.819835635879943,239]]}}}
{"ccle_rrbs_cgi_clusters":{"corr":{"top":[["6_30711373_30714440-3",0.3083568216389824,-3.3299482561627562,125],["22_38218589_38221104-2",0.3244969242672827,-3.1092635219821863,104],["4_175441406_175445837-1",0.2828902540098697,-5.672860526544429,272]],"bottom":[["4_95370801_95375535-2",-0.44557334567871376,-7.213566578648028,135],["6_31371416_31373917-3",-0.39904575326532377,-5.197602201871945,120],["22_37415215_37418111-2",-0.41570189353337983,-6.614476343792493,143],["7_158347387_158352091-3",-0.32214394226943915,-7.013205127580171,262],["1_38154042_38158279-2",-0.41981767208809434,-5.2146783683099684,108],["3_49234567_49239328-3",-0.3497360129610202,-3.5024776240180215,102]]},"para":{"top":[["10_88731093_88733632-3",0.3138725637861707,-3.245107584319337,117],["22_38218589_38221104-2",0.2771032015206991,-2.3562485389935888,104],["23_133928787_133933355-1",0.2426278908437274,-2.9721408151987103,179]],"bottom":[["22_49374395_49378660-2",-0.2846625922658509,-6.406429035101329,307],["1_153506424_153510840-1",-0.3005119098253303,-4.099629558845579,167],["22_25079850_25084112-3",-0.2812386691425619,-3.9962681748024593,186],["16_58076950_58081332-2",-0.2778620191744717,-6.338733649963651,319],["6_22570144_22572705-2",-0.3011602726117773,-3.9847070203881048,161],["7_157935614_157939841-3",-0.32277976911702816,-2.976620312569546,100],["16_29229876_29234338-2",-0.2917246812294802,-6.850193377100546,314],["3_49234567_49239328-3",-0.3450686451672354,-3.417280281787719,102]]}}}
