{"depmap_hotspot":{"corr":{"top":[["ABCG8",0.11978069886903256,-1.6918135002377037,20.0,355.0],["ADAM15",0.13514319764293753,-2.0562858583363695,14.0,361.0],["AGAP8",0.1782986738218922,-3.2820766246726696,16.0,359.0],["ATP2A1",0.1443830345270478,-2.293338190322677,29.0,346.0],["C2CD2",0.12014495278824619,-1.700032528390577,24.0,351.0],["CALHM2",0.11268521880864495,-1.535753809483553,14.0,361.0],["CPNE3",0.14043432915149176,-2.190373685318252,9.0,366.0],["CPSF3",0.1958193521154608,-3.868299320744828,14.0,361.0],["CSTF3",0.14503249980336747,-2.3105116970541797,17.0,358.0],["DNASE1L3",0.17402452220645892,-3.146989546638653,12.0,363.0],["DSG4",0.12993052878858471,-1.9284982508614807,19.0,356.0],["GAL3ST1",0.12272535372343482,-1.7588405540933487,12.0,363.0],["H3F3C",0.1316237948452632,-1.9695413737936165,8.0,367.0],["HAS3",0.12956865408149018,-1.919784853865956,12.0,363.0],["IMMT",0.15640526409425254,-2.6222451466768564,12.0,363.0],["ITM2A",0.13496260085228828,-2.051787214189243,17.0,358.0],["KLRB1",0.18274586403914161,-3.4259078876252573,8.0,367.0],["KRTAP10-4",0.16826393925462385,-2.9697669546466963,8.0,367.0],["KRTAP21-1",0.1880075291907232,-3.6004268827776347,8.0,367.0],["LAX1",0.12927168879310114,-1.9126496406133315,15.0,360.0],["MAEA",0.11771132383633294,-1.6455059179675287,12.0,363.0],["MRPL35",0.18051133181822973,-3.3532195770301616,9.0,366.0],["OR10K1",0.1605999903571678,-2.7425288914586714,12.0,363.0],["PWP2",0.19304208014998556,-3.77185760038997,21.0,354.0],["RHCE",0.17859428378078893,-3.2915333727776215,11.0,364.0],["SBK3",0.16713409362127304,-2.9356561204431317,11.0,364.0],["SLC22A17",0.20496435096459004,-4.195362493328349,12.0,363.0],["TCP11",0.16729222752846132,-2.940417539581656,11.0,364.0],["UBE4B",0.1253316586239585,-1.819281029801273,29.0,346.0],["UVSSA",0.1814547365524271,-3.3838047166668415,23.0,352.0]],"bottom":[["ANKRD44",-0.1867520029256857,-3.558353739813566,26.0,349.0],["APOBEC3B",-0.1425704301557876,-2.2457649716076618,9.0,366.0],["ARHGAP32",-0.13361595672000634,-2.0184042734581995,39.0,336.0],["BTN3A2",-0.15168871288427282,-2.490424208273086,11.0,364.0],["C14orf28",-0.14549444986436696,-2.3227679209068968,9.0,366.0],["C1orf65",-0.136257695556157,-2.084161588248052,21.0,354.0],["C9orf43",-0.14944659998592486,-2.4290245372458705,11.0,364.0],["CAPG",-0.1393525787725916,-2.1625994928169514,8.0,367.0],["CCDC124",-0.1450614891719261,-2.3112798232409375,8.0,367.0],["CTNNAL1",-0.1458518577248279,-2.3322739425926176,9.0,366.0],["DSG2",-0.15930528849098594,-2.705096012131639,20.0,355.0],["DUSP13",-0.13061781466901393,-1.9451033520781136,9.0,366.0],["FURIN",-0.16911578468108748,-2.995625024516366,20.0,355.0],["GNAT3",-0.1624475368827943,-2.796422512317545,12.0,363.0],["GPT2",-0.1420721752372819,-2.2327797440451236,10.0,365.0],["HHIPL2",-0.14997841870826736,-2.443514807178559,26.0,349.0],["HYAL3",-0.14337715364026482,-2.266873272193616,12.0,363.0],["LRPPRC",-0.14359902618719383,-2.2726968851954443,33.0,342.0],["MARVELD2",-0.13605073854752794,-2.07897038935623,16.0,359.0],["NACAD",-0.1316238702097823,-1.9695432105367514,38.0,337.0],["OR10Z1",-0.189852891775941,-3.6627565105515743,20.0,355.0],["OR8I2",-0.1481028652915876,-2.3926154006917564,29.0,346.0],["PPIP5K2",-0.15903069490195013,-2.697192184332898,31.0,344.0],["PRODH",-0.134239300957354,-2.0338213545218946,10.0,365.0],["PZP",-0.14452287410299255,-2.2970302017315873,35.0,340.0],["RNF17",-0.1339639507188932,-2.0270036273499055,48.0,327.0],["RTP1",-0.13040301040260255,-1.9399056680989433,13.0,362.0],["SLC2A2",-0.14949742874180674,-2.430407477940605,11.0,364.0],["SNX29",-0.1483997930914134,-2.4006357734247517,32.0,343.0],["TBK1",-0.1800209437948461,-3.337380810914342,11.0,364.0],["TDRKH",-0.15216550305448123,-2.503585782544885,15.0,360.0],["UNC5A",-0.15493576423957997,-2.580786929531224,32.0,343.0],["YEATS2",-0.17168621642957757,-3.0743840465442043,29.0,346.0],["ZFP42",-0.1443585864442616,-2.2926930390191376,20.0,355.0],["ZNF473",-0.14331543140679132,-2.2652546116682823,14.0,361.0]]},"para":{"top":[["ABHD14A",0.12423490936945196,-2.087713582986717,11.0,364.0],["ADAM15",0.12942043089933156,-2.208912833718463,14.0,361.0],["AGAP8",0.1591222028259474,-2.979372248944892,16.0,359.0],["BTNL3",0.12465816982827244,-2.0972698480851917,9.0,366.0],["CRX",0.13854163218755566,-2.4312407423560027,11.0,364.0],["EDAR",0.18094171689489882,-3.630061799625449,14.0,361.0],["FKBP5",0.1387660277353197,-2.4370132475911004,13.0,362.0],["H3F3C",0.1396262255043813,-2.4582147037556004,8.0,367.0],["KRTAP21-1",0.1680970187390964,-3.237573254072045,8.0,367.0],["PLD4",0.11876533518271995,-1.964544406878275,14.0,361.0],["PWP2",0.14115636541079013,-2.4978079125810733,21.0,354.0],["PYGO1",0.12017721466215164,-1.996012822036847,15.0,360.0],["RHCE",0.13255616651875715,-2.283827276277685,11.0,364.0],["SBK3",0.16350540363547136,-3.1039506530580754,11.0,364.0],["TCP11",0.13467297754796637,-2.3353522693872653,11.0,364.0],["TUBAL3",0.13554809848528981,-2.3567628655302717,10.0,365.0],["UNC50",0.1271809087011825,-2.1556876920265027,8.0,367.0]],"bottom":[["ADRA1B",-0.1407933895623534,-2.4883377362191474,15.0,360.0],["BTN3A2",-0.15387026377838117,-2.833185106422538,11.0,364.0],["C1orf65",-0.1782802216649372,-3.5471440402623884,21.0,354.0],["C5orf38",-0.12914147230716583,-2.201821657239688,8.0,367.0],["CAAP1",-0.13021105150558093,-2.227343152566343,9.0,366.0],["CBR4",-0.1456784001141561,-2.613674664793435,8.0,367.0],["CCDC124",-0.11320123777156188,-1.8431220274127993,8.0,367.0],["CCNL1",-0.16143803726002862,-3.0450131793424906,16.0,359.0],["DRAXIN",-0.11636908558533372,-1.911546272099005,9.0,366.0],["DUSP13",-0.15145685966223937,-2.7673581717036324,9.0,366.0],["EBLN2",-0.14644557717736698,-2.633772629181404,8.0,367.0],["EVX1",-0.1445584632284201,-2.5850203358616883,14.0,361.0],["FCRLB",-0.11041382117778555,-1.7843144256481218,9.0,366.0],["FRZB",-0.16070672112295034,-3.0241967054474626,16.0,359.0],["GFRA1",-0.16405858675122575,-3.1202714343221376,16.0,359.0],["GLYATL3",-0.1343222830334608,-2.3269085214251826,13.0,362.0],["GOLPH3L",-0.1478946894078764,-2.6719764493477642,8.0,367.0],["HELT",-0.15028146249342136,-2.735588157325605,8.0,367.0],["HSP90AA1",-0.11306954719736784,-1.8404151268046738,9.0,366.0],["IFNG",-0.13655751725153775,-2.381480589727969,8.0,367.0],["IGJ",-0.12033429611722853,-1.999222442728421,10.0,365.0],["KPNA6",-0.13834759706569646,-2.4260715222781286,8.0,367.0],["LIPN",-0.14646731380726655,-2.6344684872081956,9.0,366.0],["MKLN1",-0.1442985828450881,-2.5782750258915126,14.0,361.0],["MPP4",-0.16153457957379383,-3.0474234115975642,11.0,364.0],["OR10Z1",-0.17217491933793616,-3.3601662436574458,20.0,355.0],["PGBD5",-0.15369827480928355,-2.8288089238295213,16.0,359.0],["POLG2",-0.13674614377992927,-2.3866011166767347,13.0,362.0],["PPM1A",-0.13975067613677825,-2.461868221623087,14.0,361.0],["RBM45",-0.12015148324958731,-1.99504363003674,9.0,366.0],["SEC22A",-0.14944494601104064,-2.7133232931071594,9.0,366.0],["SLX4IP",-0.14365117605116418,-2.5613079812204465,11.0,364.0],["SSBP3",-0.11274764101317603,-1.8335604323956278,9.0,366.0],["TBCCD1",-0.121534150470116,-2.0262583953302356,11.0,364.0],["TBK1",-0.15036657655762106,-2.7382012248389525,11.0,364.0],["TFDP3",-0.13324598593043716,-2.3006181075088024,12.0,363.0],["TGFBR3L",-0.11661091360805471,-1.9167180142600468,8.0,367.0],["TMEM41A",-0.11882720290177502,-1.9654659401727037,8.0,367.0],["TSTD2",-0.1307610683294999,-2.2403612024749897,8.0,367.0],["ZNF645",-0.12626770074923144,-2.134503666079638,9.0,366.0]]}}}
{"depmap_damaging":{"corr":{"top":[["DGCR8",0.14219048938811638,-2.235859595940019,8.0,367.0],["ITM2A",0.13547143042783985,-2.0644752502665327,12.0,363.0],["MUC6",0.12413843456600644,-1.7914797582994417,8.0,367.0],["NEK10",0.13630984475061014,-2.085470736693712,10.0,365.0],["UBE4B",0.11737691083518657,-1.638084049446583,8.0,367.0]],"bottom":[["ASXL1",-0.1434177447743719,-2.2679381029046004,11.0,364.0],["MYOM1",-0.12494500883889358,-1.8102482366823167,10.0,365.0],["PDCD11",-0.13423197106228288,-2.0336397104038504,8.0,367.0],["PPIP5K2",-0.15527335308481816,-2.590280029941465,9.0,366.0],["SCN11A",-0.1413729224201563,-2.214622924216882,12.0,363.0]]},"para":{"top":[["RTTN",0.12671668781749032,-2.1451328923282316,11.0,364.0]],"bottom":[["CRYBG3",-0.13826235516978413,-2.4239373146302454,8.0,367.0],["DDX60",-0.1244531680319882,-2.0924453585313016,8.0,367.0],["LRBA",-0.11848623531812576,-1.9579194764809773,8.0,367.0],["PCDH7",-0.1296803112826636,-2.2150822429355395,14.0,361.0],["PNMA2",-0.12172542736279394,-2.0302989649186944,8.0,367.0]]}}}
{"ccle_chromatin":{"corr":{"top":[["H3K27me2K36me2",0.23889516420418383,-5.273193977495135,355]],"bottom":[]},"para":{"top":[["H3K4me1",0.19466765266318412,-3.64968228810942,355]],"bottom":[]}}}
{"ccle_rrbs_enhancer_clusters":{"corr":{"top":[["22-38392345-38397199-1_enh",0.2063886569247703,-3.6059931955412434,311],["2-3269522-3272849-1_enh",0.25763573738974466,-5.0533661660727915,290]],"bottom":[]},"para":{"top":[],"bottom":[["23-139591502-139594138-2_enh",-0.2603434290934498,-3.851869552093675,209]]}}}
{"ccle_mirna":{"corr":{"top":[],"bottom":[]},"para":{"top":[],"bottom":[["hsa-let-7d_miR00004.1",-0.18805655207489871,-3.460174079743726,358]]}}}
{"prism_primary_logfold":{"corr":{"top":[["cefoperazone_BRD-K02292852-001-02-1::2.5::HTS",0.16607280541475147,-2.3397348023659466,290],["ganciclovir_BRD-K22662435-001-18-3::2.5::HTS",0.17317551425447683,-2.5101579378214565,290],["acyclovir_BRD-K32318651-001-24-5::2.5::HTS",0.18404085597426664,-2.693800507498165,279],["E-4031_BRD-K41713976-300-02-6::2.5::HTS",0.1911716324433316,-2.971012389947276,290],["MPEP_BRD-K60690191-001-03-3::2.5::HTS",0.20663212848254606,-3.451645499588714,295],["acipimox_BRD-K63736853-001-04-8::2.5::HTS",0.1592344124613093,-2.1568565428883,286],["ZK-200775_BRD-K67525671-001-02-5::2.5::HTS",0.1951882408067335,-3.0432645811888572,286],["pentagastrin_BRD-K78789465-001-01-6::2.5::HTS",0.1750035783995145,-2.5254644870991703,286]],"bottom":[["AZD7545_BRD-A87435144-001-01-6::2.5::HTS",-0.1921198723709686,-3.022925331517767,293],["JDTic_BRD-K95837862-300-01-7::2.5::HTS",-0.1941795802976137,-3.0791700736887466,293]]},"para":{"top":[["diclofenac_BRD-K08252256-236-33-8::2.5::HTS",0.1940907368572587,-2.9506795595571287,279],["ganciclovir_BRD-K22662435-001-18-3::2.5::HTS",0.164579467808579,-2.304717081364996,290],["acyclovir_BRD-K32318651-001-24-5::2.5::HTS",0.19942912895545678,-3.0923395349343505,279],["piromidic-acid_BRD-K37682401-001-09-3::2.44::HTS",0.18810430930134697,-2.762122534685753,275],["E-4031_BRD-K41713976-300-02-6::2.5::HTS",0.2207637712967055,-3.8222163124804975,290],["danofloxacin_BRD-K45916615-066-02-5::2.5::HTS",0.18331798065938748,-2.7324181176230877,286],["MPEP_BRD-K60690191-001-03-3::2.5::HTS",0.2273404096689769,-4.088636955446901,295],["ZK-200775_BRD-K67525671-001-02-5::2.5::HTS",0.19035440361457534,-2.9144782957952433,286],["tolbutamide_BRD-K85119730-001-28-9::2.5::HTS",0.17167725749745474,-2.4451229418485,286],["perchlozone_BRD-K86435560-001-01-0::2.5::HTS",0.16864393400339403,-2.4351633650192657,295]],"bottom":[["AZD7545_BRD-A87435144-001-01-6::2.5::HTS",-0.18154288950197964,-2.7429709975107315,293],["HA-966-(R)-(+)_BRD-K58046914-001-03-8::2.5::HTS",-0.17020383861794106,-2.4591256323261446,293],["fruquintinib_BRD-K70504253-001-01-3::2.500017504::MTS004",-0.19704887634835555,-3.075111112994738,284]]}}}
{"prism_secondary_logfold":{"corr":{"top":[["PD-318088_BRD-A57798112-001-03-7::0.00061034::HTS002",0.1955430680098069,-2.7686542532164213,255],["sparfloxacin_BRD-K07612980-001-05-3::2.58642::HTS002",0.2640427474377796,-4.646413779720639,251],["tetrandrine_BRD-K08078237-001-19-8::0.00976562::HTS002",0.1875391861385935,-2.544288635403638,251],["deoxycorticosterone-acetate_BRD-K24556098-001-16-7::0.0383358::HTS002",0.22696576935026797,-3.600907447228888,256],["ku-0063794_BRD-K67566344-001-07-5::0.00061034::HTS002",0.2052462956393457,-3.0295379212422464,257],["BI-78D3_BRD-K73982490-001-02-9::0.00061034::HTS002",0.19621948019209895,-2.6364960946838267,239],["uracil_BRD-K80129304-001-08-1::0.625::HTS002",0.23041432376715845,-3.6858993629437045,255],["PTC-209_BRD-K83834509-001-01-1::0.15625::HTS002",0.19658496232226277,-2.747452678867277,250]],"bottom":[["dinaciclib_BRD-K13662825-001-07-5::0.15625::MTS010::PROS005_PR500",-0.33729366430836144,-4.723796825998428,154],["iobenguane_BRD-K43860855-065-11-9::10::HTS002",-0.2995718126097831,-3.0298326628972863,119],["SRT1720_BRD-K95926480-003-03-6::10::HTS002",-0.2619111663764366,-4.561870320616868,250]]},"para":{"top":[["sparfloxacin_BRD-K07612980-001-05-3::2.58642::HTS002",0.21988313013625344,-3.347411507846299,251],["tetrandrine_BRD-K08078237-001-19-8::0.00976562::HTS002",0.22295103364895236,-3.429943534201561,251],["GW-842166_BRD-K26823213-001-02-9::0.0024414::HTS002",0.19631356833023988,-2.7873662264160046,255],["AT13387_BRD-K58435339-001-03-0::0.0024414::HTS002",0.20124754382503016,-2.8991057045624316,254],["ku-0063794_BRD-K67566344-001-07-5::0.00061034::HTS002",0.21057684422474804,-3.1674978468398582,257],["indibulin_BRD-K74057757-001-01-9::0.000610352::HTS002",0.22672491537930403,-3.5207774047717484,250],["PF-04457845_BRD-K86816506-001-01-8::0.0024414::HTS002",0.1926557732572486,-2.70809406584694,256],["elacridar_BRD-K88807631-001-01-3::0.156250002::MTS006",0.23106783293402747,-3.7044911125637356,255]],"bottom":[["amisulpride_BRD-A60197193-001-14-6::0.00976562::HTS002",-0.23658351114344192,-3.664034476000651,240],["dinaciclib_BRD-K13662825-001-07-5::0.15625::MTS010::PROS005_PR500",-0.3118926924768224,-4.084659785334711,154],["exatecan-mesylate_BRD-K92150287-066-01-2::2.5::HTS002",-0.2298670563553519,-2.936904517071957,197],["SRT1720_BRD-K95926480-003-03-6::10::HTS002",-0.22379522953690137,-3.4409201781629863,250]]}}}
{"ccle_proteomics":{"corr":{"top":[["ATP13A2_Q9NQ11",0.28600867799472535,-5.036381875178551,233],["TMC6_Q7Z403",0.31168108932128114,-3.037225759793434,110]],"bottom":[["FOXO1_Q12778",-0.31198608735310174,-4.906165436073909,189],["SPATA33_Q96N06-2",-0.4099469433956513,-5.811360469247597,128],["C5orf45_Q6NTE8",-0.3366165340990311,-4.5688059197147854,149],["ASF1B_Q9NVP2",-0.3142263909421131,-5.820185306064034,225]]},"para":{"top":[["DNAJC10_Q8IXB1",0.2634926802705342,-5.2344538119088355,288],["DGAT1_E9PNR5",0.24040783825121345,-3.5222682270594765,222],["TMC6_Q7Z403",0.30299328039172885,-2.8883627363761644,110]],"bottom":[["HLA-A_P16188",-0.31593279023321447,-3.1117269562233276,110],["HBS1L_Q9Y450-2",-0.28078961801835,-3.300578525160784,150],["SPATA33_Q96N06-2",-0.3779704638154845,-4.962775019068124,128]]}}}
{"depmap_copy_number":{"corr":{"top":[],"bottom":[]},"para":{"top":[["MIR6760_102465455",0.1985832521096754,-4.011889321921096,380],["MIR6761_102465456",0.20671269973728978,-4.309594460309638,380],["ATXN2-AS_102723619",0.20787287270463334,-4.353042742228822,380],["PHETA1_144717",0.19821224454675548,-3.998582863506531,380],["CCDC63_160762",0.2055140570414863,-4.264958828417655,380],["ALDH2_217",0.20671269973728978,-4.309594460309638,380],["CUX2_23316",0.1985832521096754,-4.011889321921096,380],["MAPKAPK5-AS1_51275",0.20711513506139584,-4.324638248705809,380],["PPP1CC_5501",0.21915576546246407,-4.788258580471175,380],["TCTN1_79600",0.21167270107112637,-4.4970400559561945,380],["ACAD10_80724",0.2027582205825143,-4.163309425049989,380],["BRAP_8315",0.20434245712301247,-4.221578571562889,380],["HVCN1_84329",0.21167270107112637,-4.4970400559561945,380],["MAPKAPK5_8550",0.20711513506139584,-4.324638248705809,380],["ADAM1A_8759",0.19828013846473405,-4.001016109468833,380],["TMEM116_89894",0.19885596617752543,-4.021685935434541,380]],"bottom":[["LOC100996385_100996385",-0.18964746061205437,-3.6981348866589925,380],["FAM153B_202134",-0.18964746061205437,-3.6981348866589925,380],["THOC3_84321",-0.1924434847235214,-3.7948032795647895,380],["UNC5A_90249",-0.1939707232633206,-3.848183052158445,380]]}}}
{"depmap_gene_tpm":{"corr":{"top":[["SLC11A2_4891",0.2645540366272433,-6.583753033773813,368],["VPS37B_79720",0.2655173347442812,-6.628874588039585,368]],"bottom":[]},"para":{"top":[["ERP29_10961",0.2191331065535785,-4.652730293778554,368],["SLC11A2_4891",0.2232622697471522,-4.812761015636711,368],["BACH1_571",0.2366884750252439,-5.354215977432846,368],["NCSTN_23385",0.26871996886771204,-6.78017007556587,368],["KCNAB1_7881",0.22849949478831155,-5.020108274818924,368],["CYP7B1_9420",0.22399741024658784,-4.841570202040631,368]],"bottom":[["SLC25A5_292",-0.18434304840718796,-3.4221919343679565,368],["KCNJ18_100134444",-0.18665711919136774,-3.497632513558369,368]]}}}
{"avana":{"corr":{"top":[["CD81_975",0.25756673277075404,-4.754079449083174,271],["CHD7_55636",0.22992852469676034,-3.860212046962882,270],["CRISP2_7180",0.2419262899732515,-4.2427230957189925,271],["FRMD6_122786",0.24961211214598808,-4.4898522140165555,271],["GAB4_128954",0.23948081617042774,-4.165756932387177,271],["GPX3_2878",0.2508663469371355,-4.530939658062747,271],["GSX1_219409",0.25516550722996295,-4.67340474330474,271],["HIPK1_204851",0.23510435712787914,-4.030006428548822,271],["ISM2_145501",0.22976213773343515,-3.8677341886223164,271],["LRP10_26020",0.28168727644877967,-5.609185756276095,271],["NUDT17_200035",0.22644211206287268,-3.768774792706638,271]],"bottom":[["CORIN_10699",-0.22830655118225376,-3.824170353157134,271],["CXorf21_80231",-0.24610244601098608,-4.060782603602811,249],["DLL3_10683",-0.23197486005450893,-3.9344905476671106,271],["FAN1_22909",-0.23750853179397657,-4.104264822359268,271],["GABRA5_2558",-0.26272906674635366,-4.930216921642842,271],["MORN5_254956",-0.23746357316552347,-4.102869132648921,271],["NSFL1C_55968",-0.22977773813143523,-3.8682025919988186,271],["PSMA7_5688",-0.228260636344508,-3.8228006933022796,271],["UGT1A9_54600",-0.2447968041274811,-4.334089226898044,271],["WDCP_80304",-0.25856437230344737,-4.787831053802399,271],["ZNF512_84450",-0.23449011129079084,-4.01115689931771,271]]},"para":{"top":[["AATK_9625",0.24482685435242355,-4.3350515616813325,271],["ABHD12_26090",0.21538760229772513,-3.4495863721730435,271],["ARFGAP3_26286",0.2689127488856765,-5.146090559758153,271],["C6orf203_51250",0.2402390569766876,-4.1895354658309945,271],["CAPZB_832",0.21691871363713464,-3.492856601016445,271],["GAB4_128954",0.2218977349608261,-3.635649273444276,271],["GPX3_2878",0.23096558337879783,-3.9039615465496196,271],["HIPK1_204851",0.24076605345760607,-4.206107384674828,271],["KLHL40_131377",0.2143037273852785,-3.4191366167592965,271],["LAMA1_284217",0.2165760133902856,-3.48314558156752,271],["LIMS2_55679",0.21017601869623032,-3.3045456624671816,271],["NSUN2_54888",0.22354140510665943,-3.683490434267978,271],["NUDT17_200035",0.2242519015155418,-3.704278772423392,271],["OSBP2_23762",0.23226398507584328,-3.943260814961745,271],["PABPC4_8761",0.22385741726309788,-3.692728510603522,271]],"bottom":[["BORCS5_118426",-0.2251681853478325,-3.731185022664267,271],["CAPZA3_93661",-0.2145282617006794,-3.425432230509007,271],["HOXA2_3199",-0.21204552381605124,-3.356177286402953,271],["NSFL1C_55968",-0.24268264723033264,-4.266689955192084,271],["SPHK2_56848",-0.20900239340721294,-3.272359123234538,271],["TNNT1_7138",-0.24141737403775423,-4.226640115232154,271],["WDCP_80304",-0.21697057763936772,-3.4943275712248334,271],["ZNF512_84450",-0.2143585417824926,-3.420672938448902,271]]}}}
{"drive":{"corr":{"top":[["GAS6_2621",0.3373141520811694,-10.624041012706506,372],["FOXF1_2294",0.33366530834761177,-10.764437946441534,386]],"bottom":[["TRNAU1AP_54952",-0.3357019463555939,-10.603316229209632,375],["CSMD3_114788",-0.3245597891045674,-10.192457306589889,386],["PLEKHA4_57664",-0.3007092209250389,-8.48660957755303,372],["DUPD1_338599",-0.32031059126209116,-9.59517674223997,372],["RGMA_56963",-0.325614643272987,-10.257750318992127,386]]},"para":{"top":[["CYP39A1_51302",0.2778763174353343,-7.295712210870458,372],["LHFPL6_10186",0.285097036424027,-7.717795032334253,375],["FOXF1_2294",0.37979276992518785,-13.965160009395996,386],["GRIA4_2893",0.29224064256045185,-8.032540314142755,372]],"bottom":[["IGSF21_84966",-0.31684185453090175,-9.463638186495633,375],["NEIL2_252969",-0.2998766188204893,-8.735447228254651,386],["GTF3C4_9329",-0.2982360819324343,-8.643332235276858,386],["NPC1_4864",-0.2797826513559215,-7.646536118345135,386],["CSMD3_114788",-0.2709803145669433,-7.196049625340866,386],["DUPD1_338599",-0.2732188589886028,-7.065656391606735,372],["RHOBTB1_9886",-0.3190915638870992,-9.595476803584875,375]]}}}
{"achilles":{"corr":{"top":[["ZC2HC1C_79696",0.3645724080509379,-4.306766252736428,118],["PIWIL3_440822",0.3895741720206041,-4.886562305516796,118],["LINGO1_84894",0.3714818529842271,-4.462275161260105,118],["SPDYE3_441272",0.3364384247939644,-3.709170252145154,118],["HIST1H3E_8353",0.34316130431217357,-3.8468931202515946,118],["TSGA13_114960",0.3156935989777855,-3.3035303777782223,118]],"bottom":[["INO80E_283899",-0.32190681045435654,-3.4220094428795105,118],["PRR3_80742",-0.327977345451211,-3.54023973046084,118],["SPERT_220082",-0.31423961694428554,-3.2761702336727123,118],["FAM69B_138311",-0.35465672048338637,-4.089713128016949,118]]},"para":{"top":[["SMAP1_60682",0.32733481242122736,-3.527609046184038,118],["CFHR1_3078",0.28794909017915743,-2.804780072603574,118],["FUCA1_2517",0.3403039256145528,-3.78797568523148,118],["KLHL14_57565",0.3425317916747477,-3.8338642002447867,118],["STOX2_56977",0.3341203538859004,-3.6624042999663713,118],["PLEKHA6_22874",0.3539802970962834,-4.07516514667532,118],["HIST1H3E_8353",0.3211183402028242,-3.4068331460800034,118],["ZC2HC1C_79696",0.31664463256826875,-3.321501074213922,118]],"bottom":[["EHD1_10938",-0.3243349731711514,-5.980502315866788,217],["ENDOG_2021",-0.3171887896361057,-3.331810088288894,118]]}}}
{"ccle_rrbs_tss1kb":{"corr":{"top":[["NOL6_9_33473941_33474941",0.22779908080771183,-4.299005462788967,311]],"bottom":[["LSM5_7_32530023_32531023",-0.5413191611036577,-8.449535360562741,103],["KIF1BP_10_70747476_70748476",-0.37693613479344446,-11.583619779432043,322],["ANKRD13C_1_70820417_70821417",-0.33930878167817907,-9.281851258077362,318],["ARMT1_6_151772392_151773392",-0.33698790680215246,-9.076904635913095,315]]},"para":{"top":[["BCAR1_16_75300789_75301789",0.21935215685131157,-4.062824838447321,315],["SLC38A1_12_46660278_46661278",0.2769279352847226,-6.065001991872262,306],["GALK1_17_73761280_73762280",0.23780332450397024,-4.739293786852513,318],["NSUN5_7_72722864_72723864",0.29205071035038677,-4.076233615038509,176],["NT5C_17_73127890_73128890",0.18789952966856316,-3.128554450015814,319],["C10orf91_10_134257692_134258692",0.2019775726449839,-3.2001578875579644,283]],"bottom":[["ARHGEF26_3_153838148_153839148",-0.25172207498053495,-4.663685457450549,278],["LYRM2_6_90348474_90349474",-0.2255072718116054,-4.161696636440985,306],["LRIG3_12_59313327_59314327",-0.21788195285041198,-4.092577278112806,322],["TIMM9_14_58894332_58895332",-0.21300116814268152,-3.8770343414254156,317],["ZDHHC1_16_67450397_67451397",-0.21754520684217604,-3.9028175386395842,306]]}}}
{"ccle_gene_tpm":{"corr":{"top":[["TPTE2P6_ENSG00000205822.6",0.2807388551005167,-7.218572164170251,360],["VPS37B_ENSG00000139722.2",0.27345423530878427,-6.8679246306351045,360],["RP11-624J12.1_ENSG00000258803.1",0.25618522865708826,-6.076796353957413,360],["SLC11A2_ENSG00000110911.10",0.2759388544902633,-6.986380111946885,360]],"bottom":[]},"para":{"top":[["BACH1_ENSG00000156273.11",0.24655101283501993,-5.659448249806828,360],["NCSTN_ENSG00000162736.11",0.26462949413894477,-6.45666474193674,360],["AL359195.1_ENSG00000204038.3",0.27484826813921215,-6.9342407585861405,360],["CYP7B1_ENSG00000172817.3",0.2472798737693171,-5.690430088029292,360],["KCNAB1_ENSG00000169282.13",0.24232721722187173,-5.481798736333485,360],["SLC11A2_ENSG00000110911.10",0.23802410842838947,-5.304114414560865,360]],"bottom":[["ZRANB3_ENSG00000121988.13",-0.20941075449925273,-4.205562603654285,360]]}}}
{"ccle_rrbs_tss_clusters":{"corr":{"top":[["RASEF_3",0.3059232024324682,-2.7064410871719047,100]],"bottom":[["CDK13_2",-0.33870208763711196,-5.673432138584989,187]]},"para":{"top":[["TBC1D13_2",0.2404797886828673,-2.715819050010184,164]],"bottom":[["C17orf51_1",-0.25583495337308954,-5.41881131694016,318],["SMIM17_2",-0.2869596317696446,-2.9900603198906555,128],["MGAT4A_2",-0.2632135872751133,-2.944358923244292,150],["LOC643387_3",-0.24394060749189309,-3.2584641697841428,197]]}}}
{"ccle_rrbs_cgi_clusters":{"corr":{"top":[["19_2797493_2801974-2",0.31774168298935823,-5.631602694212491,212]],"bottom":[["7_39986922_39990267-2",-0.33870208763711196,-5.673432138584989,187],["5_28807400_28809960-2",-0.36773014329161713,-4.044166986149705,108],["1_157013149_157015689-1",-0.34122543672133193,-9.275234528480375,314]]},"para":{"top":[["9_131547294_131551546-2",0.2404797886828673,-2.715819050010184,164],["23_222019_226578-3",0.23433834545543997,-3.18235503505555,208],["19_59090691_59095273-3",0.26826149164945456,-3.2885105636508483,164],["8_144450966_144453557-3",0.2571274116887562,-4.63005796516414,264],["5_141229507_141232084-3",0.2382613030119522,-4.622628098260108,308]],"bottom":[["4_74807869_74812089-2",-0.3150197405936564,-3.533686930855021,128],["19_57152197_57157015-2",-0.2869596317696446,-2.9900603198906555,128],["16_33965392_33968423-3",-0.269019063591359,-3.6710604479019593,185],["2_99347530_99350177-2",-0.2632135872751133,-2.944358923244292,150],["22_20501820_20506267-2",-0.29397101178507734,-5.095096729879213,223],["10_1593542_1597792-2",-0.26358224747869774,-5.694311228806341,316]]}}}
