{"depmap_hotspot":{"corr":{"top":[["ABCG8",0.12049793131394222,-1.7080165656053012,20.0,355.0],["APLF",0.13367576386289956,-2.019880826426515,15.0,360.0],["BRMS1L",0.1730888573472771,-3.117826838311424,11.0,364.0],["C5orf30",0.14045116918089906,-2.190807525884608,8.0,367.0],["C8orf33",0.10926001252464738,-1.4631532702085546,9.0,366.0],["CTNND1",0.17149641306825728,-3.0685307001945272,34.0,341.0],["FICD",0.1557669911880742,-2.604194681769121,12.0,363.0],["GSDMB",0.1261135130567034,-1.8376172369073815,15.0,360.0],["KYNU",0.15415946157197286,-2.5590273881273458,13.0,362.0],["MEOX2",0.1399424052891347,-2.177720394789228,10.0,365.0],["METTL8",0.12463002247078865,-1.8029067259764586,12.0,363.0],["MS4A14",0.12219202314661168,-1.746601800344703,25.0,350.0],["OR1J1",0.14363249488198962,-2.2735760391874673,8.0,367.0],["PCYT1B",0.13196304259768926,-1.9778183447602091,10.0,365.0],["PI16",0.12862736720438672,-1.8972157417190225,13.0,362.0],["PPT1",0.12062876850071143,-1.7109808377670783,8.0,367.0],["RFWD3",0.15977212919836137,-2.7185617865996687,22.0,353.0],["SENP1",0.15030290768333832,-2.452378459458755,17.0,358.0],["SGCA",0.12557603379433993,-1.8250019879120623,12.0,363.0],["SLC22A17",0.14110067372720822,-2.2075747564456063,12.0,363.0],["SORD",0.1610977781491317,-2.7569943232339003,8.0,367.0],["SPPL2C",0.12524179420741055,-1.8171795802250754,15.0,360.0],["SPRY3",0.12723953532859406,-1.8641915601186487,13.0,362.0],["TDRD7",0.13482792171135377,-2.0484357159054345,12.0,363.0],["WSB2",0.1150313916371381,-1.5865076442679762,10.0,365.0]],"bottom":[["APCS",-0.1474281903349793,-2.374444354480311,8.0,367.0],["ARIH1",-0.1576120192066459,-2.656553983446822,16.0,359.0],["ASB4",-0.13343084122048604,-2.013837596988924,12.0,363.0],["CCRL2",-0.1515210507404506,-2.485804716517766,8.0,367.0],["CD22",-0.14394278439768216,-2.2817352286621957,20.0,355.0],["CLCN1",-0.13321076195755116,-2.008415389642793,34.0,341.0],["CXXC11",-0.15561598662482984,-2.599933958025339,21.0,354.0],["DGKI",-0.17240865264245198,-3.0967183382398438,35.0,340.0],["FAM115A",-0.12948489467141377,-1.9177709657977071,23.0,352.0],["GYPC",-0.17060065501077074,-3.0409876065416,8.0,367.0],["HELT",-0.13563112210744435,-2.0684656884770782,8.0,367.0],["MANEA",-0.1246284485245798,-1.8028700799394213,10.0,365.0],["NIF3L1",-0.1426673350316412,-2.248295046752932,8.0,367.0],["OPRM1",-0.1301992268522598,-1.9349813193731702,14.0,361.0],["OR56B1",-0.15348395600244288,-2.5401728411142517,11.0,364.0],["OXA1L",-0.13837907557677742,-2.13776325027448,11.0,364.0],["PDPR",-0.14493923496433594,-2.308041387746305,42.0,333.0],["PGBD5",-0.14503083411439646,-2.3104675656747524,16.0,359.0],["PTN",-0.14622440786278187,-2.342204503658877,8.0,367.0],["RSPH1",-0.14055846667426203,-2.1935728314171254,10.0,365.0],["SLC1A7",-0.12530292020650122,-1.818608855414903,17.0,358.0],["TEX35",-0.14393531099800766,-2.2815385317662638,10.0,365.0],["TSEN54",-0.1349514585064278,-2.0515098279086104,17.0,358.0],["WDR4",-0.1461059497888515,-2.3390445148311483,17.0,358.0]]},"para":{"top":[["APLF",0.13677076019314824,-2.387322869588246,15.0,360.0],["BRMS1L",0.13116932763790168,-2.2504310394949316,11.0,364.0],["BTG1",0.12257788118880308,-2.0496029527325144,8.0,367.0],["C3orf33",0.13226073157463936,-2.276605573517475,10.0,365.0],["C5orf30",0.14116061978348948,-2.4971097072376423,8.0,367.0],["CLEC4E",0.10757530324079938,-1.7253859121682598,8.0,367.0],["ESM1",0.1176655293001099,-1.9400943053789752,11.0,364.0],["FAM45A",0.12493752982493526,-2.104062519464089,14.0,361.0],["FICD",0.14311350773955728,-2.5475150195399765,12.0,363.0],["FOXI2",0.11949336615674064,-1.980454573370086,10.0,365.0],["HTRA1",0.12227034354570597,-2.0430323532255397,13.0,362.0],["KANK3",0.12935558255739293,-2.2071027138732138,10.0,365.0],["KYNU",0.13438965072534642,-2.328555784457512,13.0,362.0],["MEOX2",0.1244627000020306,-2.0928665059037566,10.0,365.0],["METTL8",0.13695507806665702,-2.3917216042379295,12.0,363.0],["NANS",0.11098498004716384,-1.796193204971144,8.0,367.0],["OR1F1",0.16562084242139047,-3.1655772259450092,15.0,360.0],["OR1J1",0.14832094107685487,-2.683274001252701,8.0,367.0],["PCYT1B",0.13677135768036405,-2.3870003391966526,10.0,365.0],["QRICH1",0.14377886297586148,-2.5648158159404515,14.0,361.0],["RFWD3",0.15393469059495435,-2.835512638846277,22.0,353.0],["SENP1",0.13723936733133166,-2.3990569743589067,17.0,358.0],["SGCA",0.14556288317764263,-2.6110547195667806,12.0,363.0],["SORD",0.14081965210285305,-2.4884362034915006,8.0,367.0],["SPPL2C",0.12979394292226612,-2.217833239587302,15.0,360.0],["SPRY3",0.13681351216127452,-2.3882726913872983,13.0,362.0],["TARDBP",0.12888578328057734,-2.1957728214885477,8.0,367.0],["TRIM69",0.1190829624622795,-1.971137712999428,8.0,367.0]],"bottom":[["ABTB1",-0.1507956353217236,-2.7499494512025677,14.0,361.0],["APCS",-0.13860336217871616,-2.432481635012843,8.0,367.0],["ARIH1",-0.18124456752700221,-3.639733042706199,16.0,359.0],["B4GALT3",-0.14721279611478646,-2.6539600123387985,8.0,367.0],["BARHL2",-0.13576538142530128,-2.3622770999008877,12.0,363.0],["CCRL2",-0.1218959458275302,-2.0341518456229837,8.0,367.0],["CRLF1",-0.12232438478766161,-2.0439593533662364,9.0,366.0],["CXXC11",-0.17549464312031207,-3.4611452721640297,21.0,354.0],["DUS4L",-0.13084634744423695,-2.242401250366487,8.0,367.0],["ENPP5",-0.17003945771164125,-3.295991984798865,17.0,358.0],["FANK1",-0.1122636088495505,-1.8231807659661983,8.0,367.0],["GYPC",-0.13749521721664767,-2.4047791666990292,8.0,367.0],["KRTAP13-3",-0.14260384781376945,-2.534474885585191,13.0,362.0],["LETMD1",-0.1402229586617393,-2.4732993677813426,8.0,367.0],["MTHFD1L",-0.1608128414087057,-3.0273068334839275,18.0,357.0],["NIF3L1",-0.1226631231089622,-2.051539147470169,8.0,367.0],["OMA1",-0.1462789830753227,-2.629722093960072,11.0,364.0],["OR1S2",-0.13583536358067516,-2.3640032972847225,12.0,363.0],["OR2AG1",-0.14942908603892338,-2.712772502303478,8.0,367.0],["OR52N2",-0.1375927560364188,-2.4075155636832517,11.0,364.0],["OR56B1",-0.1723376641920344,-3.3645269753921974,11.0,364.0],["PADI1",-0.11575852757607412,-1.8981607245861236,8.0,367.0],["PTN",-0.1226631231089622,-2.051539147470169,8.0,367.0],["RGS18",-0.16414091947442241,-3.1222041555806683,10.0,365.0],["RNF38",-0.12576237193079873,-2.122865883732104,10.0,365.0],["SLC17A3",-0.15387030754629755,-2.833186303945039,11.0,364.0],["SNAI2",-0.13740997529648857,-2.402655789243999,8.0,367.0],["SPEM1",-0.14815736341716118,-2.679061582949401,9.0,366.0],["TNFRSF11B",-0.14543168615568555,-2.607697772777884,13.0,362.0],["TRIB1",-0.11644046293734701,-1.9129986448254899,8.0,367.0],["VSIG4",-0.14189937280360643,-2.5162748994273683,11.0,364.0],["WDR4",-0.17252610716285613,-3.3706324368780245,17.0,358.0],["WDR76",-0.13343015130127828,-2.304838213181661,9.0,366.0]]}}}
{"depmap_damaging":{"corr":{"top":[],"bottom":[["DGKI",-0.162739190056501,-2.804981468392769,8.0,367.0],["GRINA",-0.09731048146648633,-1.223617280073067,8.0,367.0],["HELZ",-0.14171544230218105,-2.22350707794041,8.0,367.0]]},"para":{"top":[["IGFN1",0.11525698279221788,-1.8877297896855658,14.0,361.0],["LY75",0.12415556910698339,-2.0860228566747603,13.0,362.0],["RABGAP1",0.11758208390855221,-1.9381839247021553,10.0,365.0],["UBR4",0.12489188624844172,-2.102825270185997,11.0,364.0]],"bottom":[["BAI3",-0.11949336615674068,-1.980454573370086,10.0,365.0],["DGKI",-0.12939723480153206,-2.2078819062454245,8.0,367.0],["GRINA",-0.10842772244239049,-1.7429298564656583,8.0,367.0],["HELZ",-0.14934384411876425,-2.7104968328022414,8.0,367.0],["MYH14",-0.12990868632248673,-2.2200296999583253,8.0,367.0],["TNRC6C",-0.12744665890694282,-2.1621947068361687,11.0,364.0]]}}}
{"ccle_rppa":{"corr":{"top":[["YWHAB_14-3-3_beta",0.185585911520794,-3.332253325762022,352]],"bottom":[["MET_c-Met_pY1235",-0.21598966886585752,-4.3581197279090444,352]]},"para":{"top":[["YWHAB_14-3-3_beta",0.18933580466066818,-3.4506388797916,352]],"bottom":[]}}}
{"ccle_rrbs_enhancer_clusters":{"corr":{"top":[["7-95234622-95238540-0_enh",0.2101924872306809,-3.6092290961765223,300]],"bottom":[["17-37772485-37776988-0_enh",-0.2252454119685772,-4.34401503839406,322]]},"para":{"top":[["2-236963728-236966857-2_enh",0.20382723904767205,-2.993381915181103,257],["7-95234622-95238540-0_enh",0.18522680585645432,-2.8963283285734414,300]],"bottom":[["19-31804450-31809052-0_enh",-0.1934111347290558,-3.2718802075457805,317]]}}}
{"ccle_mirna":{"corr":{"top":[["hsa-miR-675_miR00627.1",0.15909234202635736,-2.595676266749492,358]],"bottom":[]},"para":{"top":[],"bottom":[]}}}
{"prism_primary_logfold":{"corr":{"top":[["methyclothiazide_BRD-A95340155-001-09-7::2.5::HTS",0.20167844432524892,-3.2984271139760093,294]],"bottom":[["metixene_BRD-A33711280-003-03-1::2.5::HTS",-0.19230146737718493,-3.045521596325517,295],["cetirizine_BRD-A42571354-300-12-0::2.5::HTS",-0.19363205694271476,-3.055213526328295,292],["doxylamine_BRD-A44008656-036-25-8::2.5::HTS",-0.22301193771638653,-3.9035183167859793,291],["methylatropine-nitrate_BRD-A52460047-001-01-3::2.5::HTS",-0.17130163879099303,-2.4716764547629406,291],["TC2559_BRD-K24227647-364-01-5::2.5::HTS",-0.1777103083360694,-2.6147227122894288,289],["LY294002_BRD-K27305650-001-16-6::2.5::HTS",-0.17325725465137978,-2.5048981987586276,289],["o-3M3FBS_BRD-K46384212-001-02-9::2.5::HTS",-0.18445266412031303,-2.785858720509598,289],["U-99194_BRD-K70281171-050-08-9::2.5::HTS",-0.18338262040643027,-2.75830636011954,289],["proxyfan_BRD-K77171813-034-01-8::2.5::HTS",-0.1782885600928522,-2.6291703199442935,289],["CGP-13501_BRD-K95851186-001-07-8::2.5::HTS",-0.20917687534108736,-3.526698781302046,295]]},"para":{"top":[["sphingosylphosphorylcholine_BRD-A35379661-001-04-6::2.5::HTS",0.1885924426163453,-2.868289764482306,286],["methyclothiazide_BRD-A95340155-001-09-7::2.5::HTS",0.1979998155979044,-3.1943320696845365,294],["oridonin_BRD-K23925186-001-02-8::2.51::HTS",0.21978615959012082,-3.620557772088341,275],["SU3327_BRD-K32730239-001-01-0::2.5::HTS",0.2274316575439471,-4.06717115289128,293],["thiomersal_BRD-K61443650-236-13-1::2.5::HTS",0.24284019013493238,-4.591446853380738,294],["oxyquinoline_BRD-K66808046-065-03-7::2.5::HTS",0.19782033949207323,-3.049265200065435,279]],"bottom":[["TC2559_BRD-K24227647-364-01-5::2.5::HTS",-0.17255567566039123,-2.48782621724632,289],["SB-216641_BRD-K30867024-003-03-3::2.5::HTS",-0.16486741447350017,-2.3048315204876997,289],["arecaidine-but-2-ynyl-ester_BRD-K63792901-075-02-1::2.5::HTS",-0.18006261093417764,-2.704966201463637,293],["proxyfan_BRD-K77171813-034-01-8::2.5::HTS",-0.17945625696252904,-2.658476224467961,289],["CGP-13501_BRD-K95851186-001-07-8::2.5::HTS",-0.19620489988140996,-3.1533799762440817,295],["PF-04937319_BRD-K27755542-001-01-6::2.49693186::MTS004",-0.1862355898482056,-2.790481469291465,284]]}}}
{"prism_secondary_logfold":{"corr":{"top":[["methotrexate_BRD-A55424491-001-19-9::2.5::HTS002",0.26446806530643896,-3.3923653258251405,175],["thiram_BRD-K29254801-001-14-7::0.15625::HTS002",0.23416479168979581,-3.3753439953025355,223],["disulfiram_BRD-K32744045-001-31-2::10::MTS006",0.26544487962676827,-4.75829891950561,255],["disulfiram_BRD-K32744045-001-31-2::2.5::MTS006",0.22690847295155311,-3.587057888694183,255],["niraparib_BRD-K54955827-001-02-2::0.624995::MTS010::PROS001_PR500",0.24938426923966936,-3.893093735906138,231],["vinflunine_BRD-K64120610-001-01-4::10::MTS006",0.25537231530304133,-4.433882740552734,255],["benzocaine_BRD-K75466013-001-14-4::0.0024414::HTS002",0.24811429069261573,-3.0311366448748363,175]],"bottom":[["camylofine-chlorhydrate_BRD-A91733352-300-04-5::0.0024414::HTS002",-0.21179807750029198,-3.156709965246525,253],["temocapril_BRD-K10784860-003-02-3::0.15625::HTS002",-0.21481993176118339,-3.3127627312083137,260],["hydroxyurea_BRD-K51747290-001-13-1::0.0390625::HTS002",-0.2435585986528763,-4.098140854527576,257],["nitarsone_BRD-K56707426-001-02-0::0.00061034::HTS002",-0.22603331355694423,-2.9019218023748636,201],["ulipristal_BRD-K64381438-001-03-8::0.0024414::HTS002",-0.21617683343874655,-2.391266983853624,175],["lidamidine_BRD-K68693535-001-03-4::0.625::HTS002",-0.2173873003454463,-2.169726517351175,154],["SRT1720_BRD-K95926480-003-03-6::0.00061034::HTS002",-0.20828383286999638,-3.0350468928418266,250],["theophylline_BRD-K97799481-001-16-0::0.00061034::HTS002",-0.23494907712716273,-3.6191931745780246,240],["AZD5363_BRD-K99023089-001-03-7::0.0390625::HTS002",-0.24564315055608013,-3.9039444503973177,239]]},"para":{"top":[["thiram_BRD-K29254801-001-14-7::0.15625::HTS002",0.2559975241056504,-3.9560949418340527,223],["axitinib_BRD-K29905972-001-06-3::0.00061::MTS010::PROS001_PR500",0.22361329440828182,-3.400241184412962,247],["disulfiram_BRD-K32744045-001-31-2::10::MTS006",0.27006364379305053,-4.911503132017352,255],["disulfiram_BRD-K32744045-001-31-2::2.5::MTS006",0.24360690636356896,-4.071492364502729,255],["vinflunine_BRD-K64120610-001-01-4::10::MTS006",0.27162465512693773,-4.963920077673249,255]],"bottom":[["ajmaline_BRD-A48300215-001-04-8::2.5::HTS002",-0.22408954340420362,-3.124803140692157,223],["dapivirine_BRD-K12885236-001-02-7::0.00061034::HTS002",-0.21668671963061534,-3.307430304669577,255],["hydroxyurea_BRD-K51747290-001-13-1::0.0390625::HTS002",-0.2320266520563585,-3.7574254867406602,257],["GDC-0941_BRD-K52911425-001-09-8::0.0390625::HTS002",-0.22248649908306675,-3.464533064124824,255],["nitarsone_BRD-K56707426-001-02-0::0.00061034::HTS002",-0.2115776080485461,-2.5902897601541555,201],["PQ-401_BRD-K67537649-001-04-5::0.15625::HTS002",-0.20904532222888003,-3.054313961600011,250],["lidamidine_BRD-K68693535-001-03-4::0.625::HTS002",-0.26297224832625143,-3.0069139682397155,154],["BIBX-1382_BRD-K70914287-300-02-8::0.625::HTS002",-0.21310523711667195,-3.1690349773022586,251],["mebendazole_BRD-K77987382-001-13-2::0.625::HTS002",-0.24316705954823326,-3.069392066295699,185],["hydrocortisone_BRD-K93568044-001-32-0::0.15625::HTS002",-0.2456056059471304,-3.1235248856078224,185],["metaraminol_BRD-K96253961-046-03-1::0.0390625::HTS002",-0.2102074903547567,-3.0944255825970544,251],["theophylline_BRD-K97799481-001-16-0::0.00061034::HTS002",-0.22218188091998484,-3.2795694089070992,240],["efonidipine-monoethanolate_BRD-M92675308-003-07-1::0.00061034::HTS002",-0.23825730597411618,-3.925976124474855,256]]}}}
{"ccle_proteomics":{"corr":{"top":[["TSPAN1_O60635",0.3024428763886216,-4.258029419734164,172],["RNF213_Q63HN8-5",0.3845274789719147,-4.363725768396811,107],["PXMP4_Q9Y6I8",0.28040740385999635,-5.079010221372075,245]],"bottom":[["C19orf68_Q86XI8",-0.2668708705926073,-2.947187649897343,146],["EIF4E3_Q8N5X7",-0.3240462623235267,-3.2828078222713444,111]]},"para":{"top":[["ACE_P12821",0.2851420809893758,-3.66772109392914,164],["DGKB_Q9Y6T7",0.3335250399951398,-3.5412304576565803,114],["SOD3_P08294",0.2621420897021644,-2.9401316070532615,151]],"bottom":[["TENM2_Q9NT68",-0.27634999534513066,-3.430303947549187,162],["SMARCC1_Q92922",-0.3136127684249798,-7.265661070818199,288],["CDCA7L_Q96GN5",-0.2792479972909059,-5.574075508485001,274],["USP42_Q9H9J4-2",-0.25575940846472206,-4.600672788415154,265],["C19orf68_Q86XI8",-0.2770389664987047,-3.147986067738015,146],["EIF4E3_Q8N5X7",-0.2757690232056125,-2.469214883387125,111]]}}}
{"depmap_copy_number":{"corr":{"top":[],"bottom":[["DEPTOR_64798",-0.21069739347003189,-4.4598318554516,380]]},"para":{"top":[],"bottom":[]}}}
{"depmap_gene_tpm":{"corr":{"top":[],"bottom":[]},"para":{"top":[["MYEOV_26579",0.27474260782062127,-7.070057309769184,368]],"bottom":[["GFI1B_8328",-0.22620539648326923,-4.9286783122152915,368]]}}}
{"avana":{"corr":{"top":[["DMC1_11144",0.2178541822077141,-3.519441443696006,271],["MARCO_8685",0.20946155176163775,-3.2849307225304205,271],["MS4A15_219995",0.21256135179368088,-3.3705014826876547,271],["OASL_8638",0.21150824542749494,-3.341293396448637,271],["PGLS_25796",0.24567058655705068,-4.362121102976962,271],["UMOD_7369",0.20844822631882318,-3.2572217287330125,271],["UNC45A_55898",0.213597654224278,-3.3993812816308506,271],["ZNF714_148206",0.19977321165542122,-3.0252939169809414,271]],"bottom":[["CBFA2T3_863",-0.2099696479233887,-3.2988733283174634,271],["CDH13_1012",-0.20490617035858577,-3.161383569098058,271],["DPEP1_1800",-0.216906013053987,-3.492496438821804,271],["KIF13A_63971",-0.23119527449843336,-3.910897560769979,271],["KLK1_3816",-0.214300735519228,-3.4190527726618427,271],["KRTAP29-1_100533177",-0.24677187468573575,-4.39759835853376,271],["MACF1_23499",-0.2124254671201624,-3.366724772765467,271],["NKX2-2_4821",-0.21149931725793933,-3.330396019167667,270],["NRIP2_83714",-0.2096484226080289,-3.290054822247344,271],["SERPINF1_5176",-0.21895810999830226,-3.5509582669708415,271],["TAS2R5_54429",-0.2335995624657019,-3.983916972718867,271],["TCEAL7_56849",-0.24493461477786255,-4.011974366031306,248],["TRPV5_56302",-0.2189187796342933,-3.549832704249788,271],["ZNF704_619279",-0.20750783879781257,-3.2316232796003392,271]]},"para":{"top":[["APEX1_328",0.20086113238191858,-3.044215490907663,270],["APOBEC3C_27350",0.21343127220548727,-3.3947353080805276,271],["COX5A_9377",0.20326018829805317,-3.1173847423462706,271],["FAM200B_285550",0.19944510567916565,-3.016706726116322,271],["FIP1L1_81608",0.26110462518568095,-4.874392968048288,271],["MS4A15_219995",0.20836871258611278,-3.2550529494970752,271],["NRL_4901",0.21135358527649548,-3.337015740696453,271],["PDLIM1_9124",0.21446426253849699,-3.4236371317755157,271],["RNASEH2C_84153",0.21101392737954752,-3.3276319991944283,271],["SUPT4H1_6827",0.21816685622501045,-3.517045136738797,270],["UGT1A8_54576",0.2026193041602618,-3.1003450731069897,271],["UNC45A_55898",0.21298420300468532,-3.382269031160941,271]],"bottom":[["CBFA2T3_863",-0.21186267074928788,-3.351107702990866,271],["CDH13_1012",-0.23722414119300536,-4.095440763632243,271],["CPNE7_27132",-0.21001437132126174,-3.3001021434762565,271],["GPR173_54328",-0.20780759235688168,-3.0126817199448173,249],["HGH1_51236",-0.20745564668640512,-3.2302058187421236,271],["KIAA0513_9764",-0.2400302921087899,-4.182980913273334,271],["NRIP2_83714",-0.20683674544545935,-3.213423561707304,271],["SERPINF1_5176",-0.23867500885957557,-4.140570779509614,271],["TCEAL7_56849",-0.22904259426573895,-3.559715903137532,248],["UBQLN2_29978",-0.21551421592348288,-3.209618791142553,249],["UGP2_7360",-0.21727507945731858,-3.5029708300399727,271],["WFDC10B_280664",-0.20684225520687136,-3.2135727525444393,271],["ZNF696_79943",-0.22456449706355075,-3.7134457336010995,271],["ZNF704_619279",-0.24213897910515333,-4.2494548709318805,271]]}}}
{"drive":{"corr":{"top":[["ATP1A3_478",0.29968792531318805,-8.556994442025704,378],["RNMT_8731",0.30563742218011486,-9.063515419768377,386],["GEM_2669",0.39303029064990236,-14.464450180417272,372],["UVSSA_57654",0.30476846055722545,-8.70952370275234,372]],"bottom":[["CD8B2_927",-0.29213681371450345,-8.027064587058279,372]]},"para":{"top":[["RNMT_8731",0.2990401951064193,-8.688410335670739,386],["MAVS_57506",0.3058109963913442,-9.073511958156542,386],["VANGL1_81839",0.30914796187347754,-9.021007183915973,375]],"bottom":[["SLC24A2_25769",-0.21775547936045864,-4.799407358583607,386],["P2RY8_286530",-0.24165420363126786,-5.658032565126107,375]]}}}
{"achilles":{"corr":{"top":[["DIRAS2_54769",0.31865948767961316,-5.7833971668077195,217],["TNKS1BP1_85456",0.34851375385255523,-3.9587921682832183,118],["KIF19_124602",0.32014168468518084,-3.388091741234994,118],["SCAPER_49855",0.352887882835886,-4.0517394942177125,118],["METTL6_131965",0.32834369054866713,-3.547453635026239,118],["KLHL40_131377",0.41520570010621677,-5.531949125239239,118]],"bottom":[["CTAGE8_100142659",-0.3180532574067423,-3.3482273092887325,118],["MAML2_84441",-0.30365955002083767,-3.081200444528384,118],["CTSF_8722",-0.2972646375050277,-5.0758817657023405,217],["LOC105369189_105369189",-0.3414641118196066,-3.811829647110321,118],["KSR2_283455",-0.3192905456516438,-5.80511501011681,217],["CDKN2D_1032",-0.33508395862867124,-6.364933737776763,217],["C1orf115_79762",-0.3298561751044201,-3.577332517267201,118],["RBBP7_5931",-0.29788015101442084,-5.095466940334986,217]]},"para":{"top":[["MAGI2_9863",0.329393977021233,-3.568185502677456,118],["SCAPER_49855",0.31589644141433426,-3.3073583165087896,118],["KLHL40_131377",0.3800633633722224,-4.660397121124505,118]],"bottom":[["CTAGE8_100142659",-0.32949988678611336,-3.5702802097039554,118],["FAM162A_26355",-0.3333893315998217,-3.6477324071004964,118],["DOLK_22845",-0.29114700694453466,-2.8597992996021526,118],["PTPN5_84867",-0.279154897075084,-4.519492819546486,217],["LOC105369189_105369189",-0.3044608015898816,-3.095714543832872,118],["KSR2_283455",-0.31326252743334226,-5.599671216865734,217],["PEX16_9409",-0.29131606627124723,-2.8627254981113355,118],["CDKN2D_1032",-0.3266601546731867,-6.062419222305179,217],["NCK1_4690",-0.27989701077223655,-2.669021694718222,118],["TMEM41A_90407",-0.2804860901882752,-2.678819924000324,118]]}}}
{"ccle_rrbs_tss1kb":{"corr":{"top":[["FANCE_6_35419137_35420137",0.25473006123794284,-2.828250511122968,153],["SFR1_10_105880928_105881928",0.2065943990212291,-3.389736970593434,289]],"bottom":[["PPARA_22_46545697_46546697",-0.27402106021270406,-6.122394151693641,316],["DNAJC19_3_180707306_180708306",-0.2735009924618513,-6.065580520307906,314],["ENO1_1_8938745_8939745",-0.25704250702761544,-5.528082461932466,322],["GABPB1_15_50647605_50648605",-0.2721994083925799,-5.8205364324466755,303],["SMG1P2_16_29606413_29607413",-0.25380992289305604,-5.339901508252252,318],["TRAM1_8_71520694_71521694",-0.2728941191209414,-5.970577998258344,310],["CBLB_3_105586435_105587435",-0.2533146977192866,-5.3056685467017335,317],["GABPB1_15_50647626_50648626",-0.2836100086842643,-6.286321371736152,303]]},"para":{"top":[["HACL1_3_15643359_15644359",0.24969428276921063,-1.9440126145174006,102],["POLR2J4_7_44058793_44059793",0.18981133489577803,-3.123913077607864,312],["LOC105377372_4_113435534_113436534",0.20252518633478783,-3.312897169096285,293],["RPL27_17_41149407_41150407",0.2035655086555136,-3.5490720570615344,314]],"bottom":[["ULK1_12_132378278_132379278",-0.21236340810095422,-2.9444241771881523,232],["KHK_2_27308610_27309610",-0.24439969527208405,-4.995870709969452,319],["SLC25A51_9_37904350_37905350",-0.2179548368113926,-3.409338348179773,261]]}}}
{"ccle_gene_tpm":{"corr":{"top":[["RP5-1031J8.1_ENSG00000229976.1",0.25673931919738063,-6.101316960634579,360]],"bottom":[["RP11-169K16.7_ENSG00000233954.4",-0.23121774471986362,-5.029808009746994,360]]},"para":{"top":[["RP11-803D5.4_ENSG00000270190.1",0.2330058723774792,-5.101076321654102,360],["RP11-211G23.2_ENSG00000260877.1",0.30570618657926313,-8.499027443161356,360],["MYEOV_ENSG00000172927.3",0.2837791036989034,-7.3679376149919635,360]],"bottom":[["RP4-665N4.8_ENSG00000271554.1",-0.21472069082383896,-4.398697431378171,360]]}}}
{"ccle_rrbs_tss_clusters":{"corr":{"top":[["ZNF845_2",0.27227161727255444,-2.3417828053546947,107],["UBA1_2",0.25633268619783706,-2.650629987384142,140],["APTX_1",0.29112665156026535,-3.5623279097788423,152],["C15orf48_1",0.25176136254752524,-4.140602177922018,243],["LOC101928461_1",0.26010683690280634,-3.5216582027603898,189]],"bottom":[["PNPO_3",-0.2741490206359515,-6.250985557075831,323],["LINC00863",-0.26884385772732505,-5.789247752032415,309],["DNAJC19",-0.27392798640311067,-6.118497578949278,316],["SMG1P2_4",-0.26204410754073104,-5.729246143997396,322],["SET_2",-0.2757115337257678,-6.15778717170695,314]]},"para":{"top":[["ZNF845_2",0.34195201772172323,-3.5055321764113847,107],["APTX_2",0.2746954470629771,-3.2110149899012352,152],["C11orf96_3",0.24527203578157084,-3.5780840198856607,217]],"bottom":[["EPHX2_2",-0.2512709654357849,-5.182704303322441,314],["ZNF182",-0.3997251540298676,-5.2148210442417495,120]]}}}
{"ccle_rrbs_cgi_clusters":{"corr":{"top":[["11_43964837_43968048-2",0.2640824955750158,-3.2826290517438514,169],["19_53834795_53839495-2",0.27227161727255444,-2.3417828053546947,107],["19_33876782_33880985-1",0.2727121077376919,-6.13741699613694,320],["5_7392986_7396004-3",0.2728381094077337,-2.4056885235807925,110],["16_57757991_57762243-3",0.32688026942690335,-3.936397989549908,134],["9_32999216_33003668-1",0.29112665156026535,-3.5623279097788423,152]],"bottom":[["12_120931649_120934181-2",-0.2742792106380655,-6.256558843379762,323],["15_50647089_50649742-1",-0.2660579092554488,-5.843956686767864,319],["16_29603964_29608945-1",-0.26204410754073104,-5.729246143997396,322],["17_15650534_15655138-2",-0.28252484331810107,-4.885575104001761,231],["18_77656912_77659456-2",-0.2635458785649407,-3.22046444219065,166],["1_2344051_2346717-3",-0.3491562109967296,-8.229153876676325,263],["3_180705266_180709627-1",-0.27392798640311067,-6.118497578949278,316],["1_8938754_8941409-1",-0.2724144270259349,-6.194379197862472,324],["6_31371416_31373917-1",-0.27924607928620127,-6.416554227204609,320]]},"para":{"top":[["19_53834795_53839495-2",0.34195201772172323,-3.5055321764113847,107],["5_176762115_176766542-2",0.251704776672203,-3.0471640259798023,171],["3_169896946_169901626-3",0.2802448148260844,-2.8293670617383873,126],["22_30951468_30954075-3",0.25717381518497784,-2.698091558905135,142],["19_17714644_17719531-1",0.2572681806604926,-3.421739949061511,187],["9_32999216_33003668-2",0.2746954470629771,-3.2110149899012352,152],["16_57757991_57762243-3",0.2985032980748575,-3.337641200890877,134],["7_73267934_73272232-2",0.27212709133653606,-3.426865781166879,167]],"bottom":[["23_47861379_47865596-1",-0.3997251540298676,-5.2148210442417495,120],["7_157344613_157349069-2",-0.2525845680004852,-3.526576712275435,201],["10_70584917_70587563-1",-0.24324613652920146,-2.7124097723434493,160],["15_31681984_31684904-3",-0.2411789452243578,-3.8332636986218196,243],["14_69257612_69261256-3",-0.2430845478042348,-3.859536768490401,241],["9_140482219_140484970-3",-0.2769659760549271,-3.015740245172565,139],["19_46178162_46182769-3",-0.2723679156304773,-3.0005864124247172,143],["8_27346658_27350883-2",-0.2512709654357849,-5.182704303322441,314]]}}}
