{"depmap_hotspot":{"corr":{"top":[["AMFR",0.16412800199072536,-2.826628245546288,12.0,360.0],["ANXA8",0.13456813579063276,-2.0286397877574447,14.0,358.0],["ARMC9",0.15876653161922644,-2.671468202057691,15.0,357.0],["ARMCX2",0.14912771629611304,-2.4042301470809977,13.0,359.0],["AVL9",0.1204817250657077,-1.6967392792101175,13.0,359.0],["BHLHE23",0.15155869141652206,-2.470220133620946,8.0,364.0],["BRD9",0.12824221242990577,-1.875804723410894,15.0,357.0],["C3orf33",0.13017155210701511,-1.921760121629043,10.0,362.0],["C9orf84",0.1343713655385556,-2.02379206384277,26.0,346.0],["CYP11B1",0.13552683935573948,-2.052345304395064,28.0,344.0],["DDX10",0.166350564105481,-2.8923263320558035,24.0,348.0],["EHD2",0.13242340366380914,-1.9761266287736703,23.0,349.0],["ENO2",0.1492235786443781,-2.40681446521429,8.0,364.0],["EPS8L3",0.14803360454869952,-2.374838364849147,18.0,354.0],["FAM63B",0.11737781674885978,-1.6276939842061966,17.0,355.0],["INPP1",0.1426715659110624,-2.233549542344604,9.0,363.0],["KAT7",0.13863220625970138,-2.1301178190084533,11.0,361.0],["LTF",0.1307623008458639,-1.9359464831877,15.0,357.0],["METTL3",0.13634578731486846,-2.0727088689565054,12.0,360.0],["MYOC",0.13263511538483344,-1.9812784805700623,14.0,358.0],["NLRX1",0.13154394931522848,-1.954800299234692,24.0,348.0],["OR4C3",0.14446220747176353,-2.2802250328287084,17.0,355.0],["OR5M3",0.12485614122198252,-1.7965388452574658,21.0,351.0],["OR6C70",0.12125280001853644,-1.7141187080866616,13.0,359.0],["PATZ1",0.13988248805317463,-2.1618578222538276,12.0,360.0],["PAX3",0.1470616230309704,-2.348887632087203,18.0,354.0],["PBRM1",0.1615317151272936,-2.750906946708695,38.0,334.0],["PHYH",0.1533711829896531,-2.52003788556195,14.0,358.0],["PLCXD1",0.12927098373085946,-1.900237653607382,9.0,363.0],["PLEKHG4B",0.12440504444926521,-1.7861119621390689,30.0,342.0],["PPP2R5E",0.13477866276552175,-2.0338331174684683,14.0,358.0],["QPCT",0.1424552315883524,-2.2279448541340416,8.0,364.0],["RAB3D",0.14041217685302482,-2.1753788225868886,10.0,362.0],["RPN2",0.12092216005464364,-1.7066552465432696,14.0,358.0],["RWDD4",0.11925776862463554,-1.6693380987219977,9.0,363.0],["SH2B1",0.12446100075597692,-1.7874036695914888,24.0,348.0],["SLC47A2",0.13807721121349617,-2.116107278487272,16.0,356.0],["STON1-GTF2A1L",0.12751421008192362,-1.8586136536906654,8.0,364.0],["SUCLA2",0.14745766745058245,-2.3594433613951358,11.0,361.0],["SYPL2",0.11880513840125392,-1.6592625658982147,14.0,358.0],["TAF6L",0.12580508480701436,-1.818575169413462,17.0,355.0],["TMEM194A",0.14927380878092492,-2.4081691876149454,15.0,357.0],["TRIM52",0.1784787841785033,-3.265205771030243,8.0,364.0],["UGT3A1",0.136852381451965,-2.085358122966569,23.0,349.0],["ULK3",0.13176948066839986,-1.9602578695379864,8.0,364.0],["XRCC4",0.12837267644052244,-1.878894144446742,9.0,363.0],["ZCRB1",0.13778722659019732,-2.1088060075837447,10.0,362.0]],"bottom":[["AQP1",-0.15447994621594752,-2.5507736128404894,12.0,360.0],["ARL13B",-0.17630780543142205,-3.196662689889671,22.0,350.0],["C6orf58",-0.1500792035848394,-2.429946035733236,8.0,364.0],["CACNA2D1",-0.14651652713668506,-2.3344001011898587,33.0,339.0],["CCNA1",-0.18217389286985028,-3.383686248209225,13.0,359.0],["GPC2",-0.17173777137771776,-3.0549435920295087,19.0,353.0],["GSAP",-0.1728767955048498,-3.089940516641428,14.0,358.0],["LAMC3",-0.14857946124937899,-2.3894781499288396,48.0,324.0],["LIMK1",-0.19683096306557746,-3.8764477606161676,20.0,352.0],["LIPH",-0.14924253751004674,-2.40732574433363,9.0,363.0],["LPXN",-0.19393143572177513,-3.776054541976832,11.0,361.0],["NUAK1",-0.15241235703244663,-2.4936180450665466,21.0,351.0],["OR2V2",-0.16894432043352234,-2.9700232337246546,11.0,361.0],["OR2W3",-0.14834809797561418,-2.3832672192968674,18.0,354.0],["OR6Q1",-0.17151354181598277,-3.048079399200791,12.0,360.0],["PAG1",-0.174139213905164,-3.128980445138869,12.0,360.0],["PSG11",-0.1703011893403725,-3.011110630135306,9.0,363.0],["RBM12",-0.14443277536682056,-2.279453738835042,18.0,354.0],["RUNDC3B",-0.14531601592490406,-2.3026596558783896,18.0,354.0],["SERPINB10",-0.22052686873882207,-4.751868685782358,13.0,359.0],["SLC2A14",-0.1756436855664745,-3.175852086573792,18.0,354.0],["SMPD1",-0.20473630213662364,-4.157549371054484,9.0,363.0],["THBS2",-0.17088710894239795,-3.028946948618219,38.0,334.0],["UCHL5",-0.1467416765469274,-2.340378376740327,13.0,359.0],["WRAP73",-0.1474448996875713,-2.359102673706033,13.0,359.0],["ZNF23",-0.2261815322339208,-4.975509799754494,17.0,355.0],["ZNF385B",-0.1618669850053645,-2.760623276110887,16.0,356.0],["ZNF385C",-0.16296130845346385,-2.792465102852585,8.0,364.0]]},"para":{"top":[["ANXA8",0.15981601699845277,-2.980696071942031,14.0,358.0],["ARMC9",0.13743380606427005,-2.3900583816440606,15.0,357.0],["ARRDC3",0.10112335891762723,-1.5880324565829218,8.0,364.0],["BHLHE23",0.15470493390725742,-2.838662977410701,8.0,364.0],["BRD9",0.13724292577806968,-2.3853409069773126,15.0,357.0],["C3orf33",0.13155707122098922,-2.2469549207060537,10.0,362.0],["CCDC41",0.12198623687641601,-2.0254530052006654,12.0,360.0],["CLIC3",0.12545508862306315,-2.1038876905332224,8.0,364.0],["DECR1",0.11544629200664269,-1.8813396271152152,8.0,364.0],["DRAXIN",0.12234891036279474,-2.03326072867184,8.0,364.0],["ENO2",0.1451275509380965,-2.584108384541731,8.0,364.0],["EVI2A",0.1182073393491035,-1.941277964118459,8.0,364.0],["FGF18",0.12666304683538981,-2.131734396779601,8.0,364.0],["FYTTD1",0.1292515287189468,-2.192125315970337,8.0,364.0],["GOLPH3L",0.1454726818559041,-2.5930441469461463,8.0,364.0],["INPP1",0.13302435991183897,-2.2820250304006953,9.0,363.0],["KRR1",0.11933000224868553,-1.966161886170376,10.0,362.0],["LTF",0.15041366552589558,-2.723518523906477,15.0,357.0],["METTL3",0.14104215889718014,-2.48006781055095,12.0,360.0],["MYOC",0.15350229780839045,-2.806502972329553,14.0,358.0],["NDC80",0.1247955979846862,-2.089058149324059,11.0,361.0],["PATZ1",0.12807846473435544,-2.164995923786376,12.0,360.0],["PDSS2",0.11819861986042762,-1.9411925899118128,9.0,363.0],["PLCXD1",0.1254485696657881,-2.1038487353907893,9.0,363.0],["QPCT",0.13511875432167605,-2.332654043565888,8.0,364.0],["RNH1",0.12813675330148355,-2.1661091747423953,9.0,363.0],["SLC47A2",0.15663805107986198,-2.892383049765149,16.0,356.0],["STON1-GTF2A1L",0.1159639883833541,-1.892493948455243,8.0,364.0],["TOM1L2",0.1325355992508034,-2.2702754580125397,9.0,363.0],["TRIM52",0.15392838934219033,-2.817513267859435,8.0,364.0],["ULK3",0.14133111084221286,-2.486982536525772,8.0,364.0],["XRCC4",0.12911427462355463,-2.189011767542942,9.0,363.0],["ZCRB1",0.14068867969397553,-2.4709827070868244,10.0,362.0],["ZNF821",0.1294240941778506,-2.1961863006119406,8.0,364.0]],"bottom":[["ACTR3",-0.1435744618079622,-2.544116491071526,8.0,364.0],["ADAP1",-0.13417069259229494,-2.309977786308532,12.0,360.0],["CBLN2",-0.15027967030512948,-2.7198910680314525,14.0,358.0],["CCNA1",-0.16752612322610508,-3.2014640371833667,13.0,359.0],["CD200R1L",-0.1516905640394084,-2.757401639507957,11.0,361.0],["CLEC4M",-0.14626050859274684,-2.613739686637591,10.0,362.0],["CYP17A1",-0.12554137135251503,-2.10586966420046,8.0,364.0],["DHCR24",-0.1315580779287323,-2.2468817446567813,9.0,363.0],["EEF1D",-0.11966490184353423,-1.9734721591934354,9.0,363.0],["FUT3",-0.15095169134559738,-2.7376073703381123,11.0,361.0],["GPC2",-0.15930284726500077,-2.966564274674518,19.0,353.0],["IDI2",-0.14127245905667263,-2.4858123272478085,11.0,361.0],["LACTB2",-0.12269404128060236,-2.0410386513283707,8.0,364.0],["LGALS9B",-0.1318148885758912,-2.2531950181046208,11.0,361.0],["LIPH",-0.1296030352845902,-2.2005156180595713,9.0,363.0],["LPXN",-0.160557036365141,-3.001303733150643,11.0,361.0],["MNX1",-0.13310809471009616,-2.284297329602802,12.0,360.0],["NFKBIB",-0.12612556883354611,-2.119603599171023,11.0,361.0],["OR2V2",-0.1480700878397343,-2.6611879545253787,11.0,361.0],["OR6Q1",-0.13870444355634293,-2.4214188229903733,12.0,360.0],["PRCC",-0.14305831271423702,-2.531368327007956,13.0,359.0],["PSG11",-0.13620130420856993,-2.359255031079394,9.0,363.0],["SERPINB10",-0.1734556483362235,-3.3773959750245433,13.0,359.0],["SLC25A17",-0.1396054562531748,-2.4435409629654443,8.0,364.0],["SMPD1",-0.15795115362465137,-2.928187516896164,9.0,363.0],["STK17A",-0.12251600569957484,-2.0371329274877477,9.0,363.0],["TASP1",-0.1551220459188382,-2.8506803705588903,15.0,357.0],["TMEM53",-0.15314500712446857,-2.796399220248797,9.0,363.0],["UBXN2B",-0.1397040889459913,-2.4461329179299764,9.0,363.0],["WRAP73",-0.15518998477861726,-2.852415546708729,13.0,359.0],["ZNF23",-0.1679380298886362,-3.2137546563930695,17.0,355.0]]}}}
{"depmap_damaging":{"corr":{"top":[["PBRM1",0.15665573830562815,-2.611664510141867,15.0,357.0],["PTPRD",0.12846836516177437,-1.881161748065915,11.0,361.0],["REV3L",0.10735599935866304,-1.4146793553942922,18.0,354.0],["SLITRK3",0.108776269255023,-1.4439529159392563,9.0,363.0],["TMEM194A",0.1775063422749126,-3.2344059613731555,9.0,363.0],["VPS13D",0.1262004218264785,-1.827796492880474,12.0,360.0]],"bottom":[["CNOT1",-0.15900093319767736,-2.678153914806439,13.0,359.0],["HERC5",-0.1483542114118246,-2.383431224148645,9.0,363.0],["MAGI2",-0.18379400008988342,-3.4363582749466084,11.0,361.0],["PHKA1",-0.1375071508810055,-2.1017667463805187,9.0,363.0],["PTX4",-0.1058882625947034,-1.3847424433045958,8.0,364.0],["ZBTB7C",-0.13955643921944128,-2.153556959843552,8.0,364.0]]},"para":{"top":[["DNAH8",0.13011672842658903,-2.213065831160453,15.0,357.0],["NPHS1",0.11803477389019972,-1.9374994413319215,8.0,364.0],["PBRM1",0.154549405060237,-2.8350376979054746,15.0,357.0],["PCDH7",0.1182506989972091,-1.9426776661876772,14.0,358.0],["PTEN",0.16132229788974795,-3.023632931958426,27.0,345.0],["PTPRD",0.12605168156416496,-2.117899844847558,11.0,361.0],["SLITRK3",0.13074347682700643,-2.2274942953915957,9.0,363.0],["VPS13D",0.13530413033330693,-2.337553653908078,12.0,360.0]],"bottom":[["MAGI2",-0.13883417916709617,-2.424576469162081,11.0,361.0],["PHKA1",-0.1375046659713314,-2.391369851921615,9.0,363.0],["ZBTB7C",-0.13546388523948358,-2.3410782742826064,8.0,364.0]]}}}
{"ccle_chromatin":{"corr":{"top":[["H3K4me0",0.13594436196286863,-1.9718474807685444,352],["H3K9me2K14ac0",0.1791012297439769,-3.132828348763401,352],["H3K18ac0K23ac0",0.16723095599592133,-2.7782757446722908,351]],"bottom":[]},"para":{"top":[],"bottom":[]}}}
{"ccle_metabolomics":{"corr":{"top":[["betaine",0.18027157981081357,-3.1991843456839812,356],["carnitine",0.21041874798157809,-4.200314348275779,356]],"bottom":[]},"para":{"top":[["betaine",0.1857056652668816,-3.3686583370837857,356],["thymidine",0.1959789097926568,-3.7021446575085704,356],["carnitine",0.23845365074397468,-5.26860349956351,356]],"bottom":[["C36:2 DAG",-0.20203685860493484,-3.906917265401636,356]]}}}
{"ccle_rrbs_enhancer_clusters":{"corr":{"top":[["2-60795538-60798264-1_enh",0.17090772931595224,-1.9905057009865037,225]],"bottom":[["4-124384941-124388454-2_enh",-0.23207914576186914,-2.8299784216387125,185],["15-64751430-64753997-0_enh",-0.2309288220526228,-4.506287297679664,319]]},"para":{"top":[],"bottom":[["16-8236189-8238988-1_enh",-0.2851080328505356,-3.627706022122826,162]]}}}
{"prism_primary_logfold":{"corr":{"top":[["BNTX_BRD-A55484088-050-02-5::2.5::HTS",0.2300334532188448,-4.101034523460358,289],["colchicine_BRD-K00259736-001-16-4::2.5::HTS",0.23830961919782537,-4.330280460653251,286],["sarafloxacin_BRD-K08525451-003-05-2::2.5::HTS",0.2369069907088662,-4.271166038691289,285],["vincristine_BRD-K12251893-065-04-7::2.5::HTS",0.21324932856091888,-3.5409044303356296,285],["nocodazole_BRD-K12539581-001-23-7::2.5::HTS",0.23838057307885008,-4.386179800506564,290],["bardoxolone_BRD-K20545304-001-01-6::2.5::HTS",0.20791519318400542,-3.3970180968691914,286],["AMG900_BRD-K21728777-001-02-3::2.5::HTS",0.2527390214715739,-4.848517613324343,288],["docetaxel_BRD-K30577245-001-04-3::2.5::HTS",0.22306571635966255,-3.7167998482511106,275],["cycloheximide_BRD-K36055864-001-19-2::2.5::HTS",0.2113772743328029,-3.5181749227205463,288],["fenbendazole_BRD-K51318897-001-15-3::2.5::HTS",0.2148291845235233,-3.477758567892417,275],["aurora-a-inhibitor-i_BRD-K53561341-001-07-5::2.5::HTS",0.260665658481796,-5.131345411590255,288],["harringtonine_BRD-K96358241-001-01-9::0.94::HTS",0.2091293642290826,-3.4422759664554685,287]],"bottom":[["U-0521_BRD-K08953028-001-09-6::2.5::HTS",-0.19674577298961282,-3.085410876913041,286],["quinpirol-(-)_BRD-K26548821-003-10-5::2.5::HTS",-0.18813240197623093,-2.87326328230773,288],["picrotoxinin_BRD-K36461289-001-05-8::2.5::HTS",-0.19643488239538398,-3.067759721493684,285],["cytarabine_BRD-K71847383-001-12-5::2.5::HTS",-0.24341714600006775,-4.471763779292257,284],["N-[2-(Piperidinylamino)ethyl]-4-iodobenzamide_BRD-K78844995-001-02-6::2.5::HTS",-0.24231955680553371,-4.43529459822258,284],["mirodenafil_BRD-K82967685-300-01-2::2.5::HTS",-0.19657912224332275,-2.9792808382425884,275],["trepibutone_BRD-K37543758-001-01-3::2.588829083::MTS004",-0.16899187386377976,-2.3257374184883117,278]]},"para":{"top":[["BNTX_BRD-A55484088-050-02-5::2.5::HTS",0.2155952800873409,-3.6539661139138264,289],["colchicine_BRD-K00259736-001-16-4::2.5::HTS",0.23632642529705256,-4.265493881206571,286],["nocodazole_BRD-K12539581-001-23-7::2.5::HTS",0.23762209628676334,-4.360995231768769,290],["bardoxolone_BRD-K20545304-001-01-6::2.5::HTS",0.2161273551889783,-3.636735047920637,286],["AMG900_BRD-K21728777-001-02-3::2.5::HTS",0.24926521294606582,-4.727460182749624,288],["docetaxel_BRD-K30577245-001-04-3::2.5::HTS",0.23485118744112415,-4.074397344327593,275],["fenbendazole_BRD-K51318897-001-15-3::2.5::HTS",0.21803726445736224,-3.569810433202907,275],["vinorelbine_BRD-K69280563-001-01-8::2.5::HTS",0.21748457508910946,-3.6772291187920954,286],["ZM-447439_BRD-K72703948-001-10-1::2.5::HTS",0.21766945765466622,-3.6715416071119065,285],["Ro-10-5824_BRD-K79684402-300-02-8::2.5::HTS",0.2213283168528274,-3.3043420250281987,244]],"bottom":[["U-0521_BRD-K08953028-001-09-6::2.5::HTS",-0.20117795094961669,-3.207086715469921,286],["pipemidic-acid_BRD-K08999871-213-01-5::2.5::HTS",-0.18128025438941445,-2.6492236730469547,282],["forskolin_BRD-K09602097-001-13-6::2.5::HTS",-0.23047789212997363,-3.939544902474492,275],["picrotoxinin_BRD-K36461289-001-05-8::2.5::HTS",-0.1673374142363733,-2.335581873452473,285],["N-[2-(Piperidinylamino)ethyl]-4-iodobenzamide_BRD-K78844995-001-02-6::2.5::HTS",-0.1935353914770137,-2.980972366232689,284]]}}}
{"prism_secondary_logfold":{"corr":{"top":[["monensin_BRD-A06627858-236-03-0::0.00976562::HTS002",0.26474087177783057,-2.803423129339543,140],["EMD-53998_BRD-A65248799-001-01-7::0.625::HTS002",0.25573437447176717,-4.429846886035331,254],["TAS-103_BRD-K09426783-300-01-0::0.625::HTS002",0.28570041854574635,-4.9682492816899435,230],["AMG900_BRD-K21728777-001-02-3::0.625::HTS002",0.2613671114630322,-4.479919460345341,246],["AMG900_BRD-K21728777-001-02-3::2.5::HTS002",0.26517547912063194,-4.599770596523372,246],["barasertib-HQPA_BRD-K63923597-001-10-0::10::HTS002",0.26220764461159074,-4.441078772126417,242],["epothilone-b_BRD-K68164687-001-01-6::10::HTS002",0.2598404883811287,-4.496318084986854,250],["SNS-314_BRD-K71512533-066-02-8::0.625::HTS002",0.29230725719614553,-5.4266496927137124,242],["SNS-314_BRD-K71512533-066-02-8::2.5::HTS002",0.26046540797413353,-4.387526846633074,242],["MLN-8054_BRD-K83963101-001-06-9::10::HTS002",0.2544716350824277,-3.1218515271505582,172],["alvespimycin_BRD-K83988098-001-02-0::0.039::MTS010::PROS005_PR500",0.2638218593648701,-4.474540097970637,241],["PP242_BRD-K87112191-001-04-5::2.5::HTS002",0.30668663375896493,-6.005894094693147,245],["pyrimethamine_BRD-K88429204-001-35-1::2.5::HTS002",0.29356994546203996,-5.654086000321633,251],["GSK923295_BRD-K89015388-001-01-7::2.5::HTS002",0.27908127454045323,-4.8317359885114035,234]],"bottom":[["nocodazole_BRD-K12539581-001-23-7::0.00976562::HTS002",-0.21525708418158018,-3.1807837408235065,247],["GSK256066_BRD-K37590257-001-02-8::0.0390625::HTS002",-0.20376970845183842,-2.541264787899531,212],["betamethasone-dipropionate_BRD-K58148589-001-03-6::0.00061034::HTS002",-0.20340622100559488,-2.9231600062516407,251],["GDC-0068_BRD-K71480163-001-01-4::0.00061035::MTS006",-0.20140237128558236,-2.8639755646527405,250],["pyritinol_BRD-K82181219-001-04-3::10::HTS002",-0.27130883466185635,-2.492126988361234,116],["oleanolic-acid_BRD-K90647725-001-07-3::0.00977173::HTS002",-0.22685374574996703,-3.4875503096376064,247]]},"para":{"top":[["monensin_BRD-A06627858-236-03-0::0.00976562::HTS002",0.26709074170856023,-2.847008031396874,140],["TAS-103_BRD-K09426783-300-01-0::0.625::HTS002",0.289882445769175,-5.103953908593754,230],["dabrafenib_BRD-K09951645-001-06-8::10::HTS002",0.24347514132818152,-3.5599842335161695,219],["tozasertib_BRD-K59369769-001-22-9::2.5::MTS010::PROS003_PR500",0.2572479684328399,-4.242537160638843,239],["SNS-314_BRD-K71512533-066-02-8::0.625::HTS002",0.2743740037721957,-4.825578928329909,242],["SNS-314_BRD-K71512533-066-02-8::10::HTS002",0.2440755484789861,-3.9018990685159576,242],["SNS-314_BRD-K71512533-066-02-8::2.5::HTS002",0.2536318244091114,-4.181081315580471,242],["ZM-447439_BRD-K72703948-001-10-1::10::HTS002",0.24534688576294703,-4.066930561750931,251],["PP242_BRD-K87112191-001-04-5::2.5::HTS002",0.2577028686609353,-4.350592800948367,245],["pyrimethamine_BRD-K88429204-001-35-1::2.5::HTS002",0.2599716637456632,-4.516445479236125,251]],"bottom":[["LE-135_BRD-K06593056-001-04-8::2.5::HTS002",-0.20918968148579797,-2.995042459116272,244],["nocodazole_BRD-K12539581-001-23-7::0.00976562::HTS002",-0.22991079205328904,-3.57105772000695,247],["GSK256066_BRD-K37590257-001-02-8::0.0390625::HTS002",-0.23546362616205607,-3.26241147860961,212],["iobenguane_BRD-K43860855-065-11-9::0.15625::HTS002",-0.269803458573512,-2.540351968568194,120],["fenofibrate_BRD-K50388907-001-30-4::2.5::HTS002",-0.21353075810039476,-3.1582722554277582,249],["anastrozole_BRD-K52172416-001-11-4::2.5::HTS002",-0.20222666462215116,-2.508683638829673,212],["latrepirdine_BRD-K55703048-001-07-7::0.15625::HTS002",-0.2119189406518505,-2.520961310430818,194],["chlormidazole_BRD-K60443845-001-08-6::0.15625::HTS002",-0.21528234982876385,-3.1814350156668403,247],["pyritinol_BRD-K82181219-001-04-3::10::HTS002",-0.296487511967408,-2.909852574520585,116],["riociguat_BRD-K84783599-001-01-0::0.0390625::HTS002",-0.20709587972147978,-2.685001788314289,219],["novobiocin_BRD-K85307935-236-09-5::2.5::HTS002",-0.20636175501231113,-2.956068081523334,247]]}}}
{"ccle_proteomics":{"corr":{"top":[["DGKH_Q86XP1-2",0.2490825507011579,-3.6480528197108764,215],["CORO1B_Q9BR76",0.245049016548379,-4.526299587123802,284]],"bottom":[["TLR2_O60603",-0.33855986402836774,-3.498721298504737,109]]},"para":{"top":[["RHPN2_Q8IUC4",0.2869926571697387,-5.419553943183242,251],["SDSL_Q96GA7",0.23179250036250956,-4.0940821872174205,284],["CLU_P10909-2",0.2415044546237411,-4.4083212711341915,284]],"bottom":[["TCERG1_O14776",-0.30116632826175443,-6.6389153585751535,284],["DDX12P_Q92771",-0.2703938044758287,-3.6696982994558494,183],["SKA2_Q8WVK7",-0.25168335924799357,-4.751905255653412,284]]}}}
{"depmap_copy_number":{"corr":{"top":[["KCTD21-AS1_100289388",0.16993013879102561,-3.03419409766026,377],["KCTD21_283219",0.16993013879102561,-3.03419409766026,377],["USP35_57558",0.16993013879102561,-3.03419409766026,377],["ALG8_79053",0.16700394584447223,-2.945031930437728,377],["GAB2_9846",0.16995054997241676,-3.034821065184056,377]],"bottom":[["ORM1_5004",-0.17769521046165415,-3.27777225252715,377]]},"para":{"top":[],"bottom":[]}}}
{"depmap_gene_tpm":{"corr":{"top":[["LNX1_84708",0.23002990981354762,-5.044569457045124,365],["PEX11G_92960",0.2321148105272943,-5.128392270703633,365],["KIAA1324_57535",0.2299359900699891,-5.0408117447468594,365],["RAI2_10742",0.25099973415305415,-5.92350834897656,365],["SELENOW_6415",0.24467653446131826,-5.65002879473638,365],["IGSF5_150084",0.2640520002387728,-6.511551871071213,365],["C2orf81_388963",0.23416948683586847,-5.211762514895642,365]],"bottom":[["CYP3A43_64816",-0.22920790200655752,-5.011734512994855,365],["ADA_100",-0.2231002712876025,-4.771531100017408,365]]},"para":{"top":[["PEX11G_92960",0.22059478588234477,-4.674903727296996,365],["ZC2HC1C_79696",0.2295232807243995,-5.0243179910859785,365],["NAT2_10",0.24831972285878584,-5.80669739236413,365],["CCDC24_149473",0.2365596943757293,-5.309703342873872,365],["AKTIP_64400",0.2401412960992732,-5.4583963418873225,365],["KCNH6_81033",0.22667935779595821,-4.911487415902099,365],["RGL3_57139",0.27508163320941514,-7.033643832204005,365]],"bottom":[["KCNAB2_8514",-0.2051462436837589,-4.103324807548262,365],["HSP90AB1_3326",-0.21085744627768516,-4.309810663909652,365],["PPIF_10105",-0.20365487906053817,-4.050328040218294,365],["PTDSS1_9791",-0.22416327282993018,-4.812861844798364,365],["KLHL34_257240",-0.21710538432764268,-4.542168677855287,365],["CLEC17A_388512",-0.21874156807528874,-4.604142442245995,365]]}}}
{"avana":{"corr":{"top":[["ACAP1_9744",0.21585989932950067,-3.4296622547880085,268],["ANG_283",0.2515415710769537,-4.5083496831310805,268],["AOC3_8639",0.2170204654051793,-3.4621575379132574,268],["AP2S1_1175",0.32404899362420003,-7.242418088618083,268],["DPH5_51611",0.21936554077978118,-3.528339903993821,268],["ENTPD1_953",0.2425139913045294,-4.219649044390407,268],["KRT81_3887",0.2602326733299046,-4.796668212678521,268],["MYL4_4635",0.2476044026356299,-4.381099359602152,268],["PAQR7_164091",0.22169095569381791,-3.5946585734137053,268],["RLF_6018",0.23866610798702603,-4.099889580996972,268],["SLC38A7_55238",0.2364132427264822,-4.03067846244419,268]],"bottom":[["DLG1_1739",-0.2234270876810217,-3.644621847829242,268],["EPHA6_285220",-0.22752248726682642,-3.7640140645126263,268],["ESR1_2099",-0.26236306734145926,-4.8689147365326315,268],["FAM120AOS_158293",-0.23170810401931605,-3.8882739862303817,268],["POU3F4_5456",-0.2332233675728589,-3.6498655003135845,246],["SLC25A30_253512",-0.23534644897354492,-3.9981374997701975,268],["SPACA7_122258",-0.2509438657873272,-4.488897521936122,268],["SPERT_220082",-0.23862561960478945,-4.098639832192834,268],["STX16_8675",-0.2650779237318031,-4.9618867712887695,268],["TBP_6908",-0.23054222540908995,-3.8408417050283052,267],["TYMP_1890",-0.22970087091084457,-3.828401210080776,268],["WDR11_55717",-0.2566078001673506,-4.6596303213727115,267],["WFDC6_140870",-0.24628683794738118,-4.338979380562312,268]]},"para":{"top":[["ABHD11_83451",0.21348644882472642,-3.3637369790061844,268],["ANG_283",0.21966406750454184,-3.5368150434513024,268],["AOC3_8639",0.22012358457294628,-3.54988286124708,268],["AP2S1_1175",0.2969611739860271,-6.1314654361683445,268],["DPH5_51611",0.25996424344965474,-4.787609304556577,268],["FCHO2_115548",0.20449703647705675,-3.1204560605462435,268],["IRGQ_126298",0.20673207527410709,-3.1800005964887568,268],["MYL4_4635",0.2106334381465618,-3.285430425146633,268],["NAALADL1_10004",0.2081514361372258,-3.218137161439386,268],["SLC38A7_55238",0.2193259661206301,-3.5272172355852587,268],["STXBP2_6813",0.2042693024210548,-3.1144237384587465,268],["TPI1_7167",0.21130048041403704,-3.3036471397569653,268]],"bottom":[["BACH2_60468",-0.2055220733467945,-3.1476873880924816,268],["DHX16_8449",-0.23358225774231858,-3.944650232860671,268],["DLG1_1739",-0.22093014194432445,-3.5728849489475696,268],["DUSP16_80824",-0.2186795432916982,-3.508907484455521,268],["LYSMD3_116068",-0.22811074452016178,-3.7813408809137274,268],["POLA2_23649",-0.20844264752092148,-3.2259927432761795,268],["RAP2A_5911",-0.21015054626871876,-3.2722776118862718,268],["STX16_8675",-0.230044450263801,-3.8386125789188803,268],["TBP_6908",-0.21328294928076214,-3.347286460425437,267],["TSPAN9_10867",-0.2280601049503494,-3.779847559691002,268],["ZBTB18_10472",-0.22990793427301298,-3.834553415617366,268],["ZNF821_55565",-0.20577721420190362,-3.1544857962564516,268]]}}}
{"drive":{"corr":{"top":[["MTMR10_54893",0.32276352913720435,-9.861920160868303,377],["GADD45A_1647",0.3253044057825007,-10.014989160247469,377]],"bottom":[["LOC101929141_101929141",-0.21773055499564195,-4.698788706443908,377]]},"para":{"top":[["TEX2_55852",0.27246061559724316,-7.218843982600817,383],["SNAP25_6616",0.28709967958780086,-7.82174941744271,375],["MAZ_4150",0.3331289677840672,-10.443183635069774,375],["SMAD9_4093",0.268732527855876,-6.898569524599136,375],["OPN1SW_611",0.2885134981544888,-7.934475316618381,377],["PPP1CA_5499",0.27790671984702753,-7.387246709407253,377]],"bottom":[["LOC105376601&LOC105377814_105376601&105377814",-0.20611098150123933,-4.316989441931973,383],["UBE2E2_7325",-0.24257966256152405,-5.80775707927506,383],["LOC101929141_101929141",-0.1976927373413412,-3.9524659389059567,377]]}}}
{"achilles":{"corr":{"top":[["BICD1_636",0.3391044378414313,-3.735201530187404,117],["MPHOSPH6_10200",0.3819891811252335,-4.669657303884485,117],["FBXL17_64839",0.37560708505523593,-4.522079300011862,117],["CHAC1_79094",0.33925560732339327,-3.7382665073780115,117],["LOC107984873_107984873",0.3774169726450496,-4.563618338267383,117],["PIKFYVE_200576",0.3959455754839511,-5.003273199823839,117],["NIP7_51388",0.33636071507289145,-3.6798434337832,117],["LHFPL3_375612",0.35852578219463266,-4.141979585560693,117],["C9orf139_401563",0.3560380170935007,-4.088389212105881,117],["SPAG16_79582",0.3470422812886637,-3.8982704953803387,117]],"bottom":[["TMEM74_157753",-0.36781156396839,-4.345954753921383,117],["TARS2_80222",-0.291401235353841,-4.871357323480871,216],["PCLO_27445",-0.2938080686603276,-4.946195174569238,216],["NPHP1_4867",-0.287279818798253,-4.744771689083224,216]]},"para":{"top":[["MPHOSPH6_10200",0.365330326099113,-4.290836910063947,117],["RUFY2_55680",0.33040168294113875,-3.561370546752222,117],["TRIM6_117854",0.3053306310642469,-5.313931368536048,216],["ODF1_4956",0.36428519245501984,-4.267755148441186,117],["NIP7_51388",0.35874423501290686,-4.14670657257618,117],["METTL13_51603",0.37445160033419134,-4.495688058668553,117],["SSUH2_51066",0.36708353315207876,-4.329735633389265,117],["LOC107984873_107984873",0.35159330644633807,-3.993740012262989,117],["PIKFYVE_200576",0.36673984879282095,-4.322092517692896,117],["C9orf139_401563",0.3419266130687807,-3.7926799303543013,117]],"bottom":[["IGDCC4_57722",-0.2712387743213578,-4.270617393444754,216],["TMEM74_157753",-0.3392884238264689,-3.738932072054118,117],["TARS2_80222",-0.2840716942849495,-4.64759596567955,216],["CPED1_79974",-0.2928158373410754,-2.867666785167691,117],["UNC93B1_81622",-0.32964612130954174,-3.5465197691367014,117],["ZNF69_7620",-0.32574476096792404,-3.47044373331277,117],["RER1_11079",-0.2791081039103398,-2.636710658559073,117]]}}}
{"ccle_rrbs_tss1kb":{"corr":{"top":[["TMEM170A_16_75498635_75499635",0.32238900592142017,-3.1500930450699762,107],["LIME1_20_62366811_62367811",0.27651356790267484,-6.191442374974627,314]],"bottom":[["VIPAS39_14_77923983_77924983",-0.27223761243233197,-6.06534496522484,317],["SPATS2L_2_201169984_201170984",-0.27949633432361176,-4.287713317084044,204],["GFPT1_2_69614386_69615386",-0.2702025574772609,-5.997922305255519,318],["PBX1_1_164527596_164528596",-0.27125997665260204,-5.938434998554746,312],["USP53_4_120132781_120133781",-0.31581891693784475,-7.787464601288598,306],["THG1L_5_157157820_157158820",-0.29348339905923193,-6.787355256685803,307],["LOC100507642_7_148717_149717",-0.27241844886516,-5.951134258027708,310]]},"para":{"top":[["SPACA4_19_49108999_49109999",0.2233632121753332,-4.044023930901925,302],["MGAT1_5_180230048_180231048",0.2794142436868791,-6.40554259379364,319],["SPHK1_17_74378057_74379057",0.23663271550363874,-4.565463600359099,308]],"bottom":[["HSPE1_2_198363720_198364720",-0.19497433361415678,-3.3451606882687903,320],["INCA1_17_4900905_4901905",-0.20984698020030187,-3.7757597947621258,317],["VPS39_15_42500524_42501524",-0.22197490500516834,-3.8129884463812886,286],["GXYLT1_12_42538673_42539673",-0.19980609668626276,-3.359076503912701,306],["STXBP5_6_147524493_147525493",-0.24109317498660343,-4.873046895519848,319],["PRKN_6_163148834_163149834",-0.2002195243859451,-3.466292472951153,316],["DPP9_19_4723855_4724855",-0.22481121514700755,-4.269549150961136,317],["ZCCHC10_5_132362296_132363296",-0.21043385779058296,-3.710818428659112,309],["SON_21_34914343_34915343",-0.20037850234284874,-3.4901389140698766,318],["ARHGEF11_1_157015162_157016162",-0.21567569228667235,-3.9531129524209967,316],["ABCF1_6_30538169_30539169",-0.21675821728685682,-3.9663954298051123,314]]}}}
{"ccle_gene_tpm":{"corr":{"top":[["AP006621.8_ENSG00000255108.1",0.24498820105443703,-5.551327970389708,357],["KRTAP5-AS1_ENSG00000233930.3",0.24538441576379033,-5.567910809845457,357],["RP11-332J15.3_ENSG00000251365.1",0.25658999062850996,-6.048632931169455,357],["RAI2_ENSG00000131831.13",0.25573820099416567,-6.011289853504588,357],["IGSF5_ENSG00000183067.5",0.2490469462795038,-5.722534938498368,357],["PEX11G_ENSG00000104883.3",0.23757068598461542,-5.2460540844505665,357],["RGL3_ENSG00000205517.8",0.24272993458341638,-5.457348977176972,357],["SEPW1_ENSG00000178980.10",0.25213548055609714,-5.85480756883546,357],["RP11-855O10.2_ENSG00000250230.2",0.2534228661809585,-5.910453168506111,357]],"bottom":[["CYP3A43_ENSG00000021461.12",-0.2329583754750512,-5.0611469072491015,357]]},"para":{"top":[["RP11-30K9.6_ENSG00000245975.2",0.24460002849823617,-5.535109005998521,357],["AKTIP_ENSG00000166971.12",0.24483343998029747,-5.544858372088996,357],["NAT2_ENSG00000156006.4",0.24969834677509253,-5.750288849832766,357],["RP11-279F6.1_ENSG00000245750.3",0.2430516090172994,-5.470679946687583,357],["RGL3_ENSG00000205517.8",0.28778464858652125,-7.509424885002846,357],["RP11-579D7.4_ENSG00000257660.1",0.23145329593177447,-5.001617818680597,357],["KCNH6_ENSG00000173826.10",0.2301641254146362,-4.950943736861961,357],["CCDC24_ENSG00000159214.8",0.23662348965721658,-5.207774947794343,357],["RP11-1260E13.2_ENSG00000262294.1",0.24410726711794511,-5.514558891564088,357]],"bottom":[["KLHL34_ENSG00000185915.4",-0.2066861349055983,-4.078239001696687,357],["PPIF_ENSG00000108179.9",-0.21282728380880375,-4.29742453444845,357],["TCOF1_ENSG00000070814.13",-0.2135641371674064,-4.32415241783903,357],["HSP90AB1_ENSG00000096384.15",-0.20922336037535746,-4.168024344721655,357],["PTDSS1_ENSG00000156471.8",-0.23024524580819122,-4.954123811924855,357],["KCNAB2_ENSG00000069424.10",-0.20830230231233343,-4.135305379938116,357],["CLEC17A_ENSG00000187912.7",-0.220783294259406,-4.590908595336125,357]]}}}
{"ccle_rrbs_tss_clusters":{"corr":{"top":[["CD274_3",0.2952276084688202,-4.178517920780912,177],["RGS12_3",0.3217656389901009,-4.15093504866159,147],["TMEM170A_2",0.3062205309719719,-2.873680262200566,107],["NR4A1_6",0.3376777350627122,-4.871791168639722,159]],"bottom":[["BRI3_2",-0.3010798104720984,-7.423951280807084,321],["SRBD1_2",-0.2867128055401503,-4.4337139955036635,201],["THG1L",-0.2926056733884619,-6.789073496624358,309]]},"para":{"top":[["MRPL44_1",0.2956431679591287,-3.556819747144511,147],["ELK3_2",0.2814626564654227,-4.8141316386789,229],["MGAT1_2",0.266379931774616,-4.436292187887611,234],["DGKZ_7",0.25491242089849386,-4.863987570369773,284],["FBRSL1_1",0.3197982472656358,-4.302226438962175,155],["BCL2L13_6",0.25939792424340175,-3.164110480527693,168],["SLC29A2_2",0.24063734488130428,-2.220812923767781,129],["CCDC174_1",0.3036207346013616,-3.8217132300597068,151],["BOP1_3",0.2513695909342205,-2.9635106673742615,166],["GAS2L1_1",0.27333208336652487,-6.093584061538686,316],["KCNMB1_2",0.2907649383166206,-3.1845634567732137,134]],"bottom":[["EXOSC2_3",-0.226297068224459,-4.2361111293619835,310],["OR3A2_1",-0.25894713694514465,-3.170639420992867,169]]}}}
{"ccle_rrbs_cgi_clusters":{"corr":{"top":[["9_5448409_5452629-3",0.2952276084688202,-4.178517920780912,177],["16_75495828_75500780-2",0.3062205309719719,-2.873680262200566,107],["12_52442553_52447421-1",0.3376777350627122,-4.871791168639722,159],["11_77120736_77125088-1",0.2726092751900267,-4.627779081766439,234],["2_224819928_224824575-1",0.2725849305945412,-3.0771594623652265,147]],"bottom":[["5_157156378_157160856-1",-0.2926056733884619,-6.789073496624358,309],["3_136468433_136471178-1",-0.299763520726453,-7.361943442315634,321],["22_39546613_39549139-1",-0.37088587976295584,-4.448721908528974,118],["7_97911039_97913618-1",-0.30615825079731324,-7.666096146089338,321]]},"para":{"top":[["2_23783049_23787339-3",0.32951894613853755,-3.3572075474014293,110],["11_94884229_94886811-3",0.2901200883961267,-4.991849414466252,224],["11_70664428_70668779-2",0.36635350620486007,-4.9056720658753274,135],["12_96585839_96590090-2",0.2814626564654227,-4.8141316386789,229],["7_6693595_6697242-3",0.26834367300850204,-3.516088630476762,177],["5_180227375_180232147-2",0.266379931774616,-4.436292187887611,234],["3_14690931_14695429-1",0.3036207346013616,-3.8217132300597068,151],["12_133063843_133068393-2",0.3197982472656358,-4.302226438962175,155],["2_224819928_224824575-1",0.2956431679591287,-3.556819747144511,147],["11_77120736_77125088-1",0.336971523553401,-6.894412880204286,234],["5_174145869_174150484-1",0.33923098108513816,-3.991392072481676,126],["22_29700245_29703484-1",0.27333208336652487,-6.093584061538686,316]],"bottom":[["3_12974966_12977574-2",-0.29472897485429667,-4.061267568586383,172],["6_146753475_146757901-2",-0.28217641109627906,-5.589845594209403,269]]}}}
