{"depmap_hotspot":{"corr":{"top":[["ANKRD39",0.07808119207921282,-2.926688287598016,27.0,1695.0],["AP5M1",0.08601067335516294,-3.452687367341972,40.0,1682.0],["APOA5",0.07221520062124721,-2.5664632949872197,42.0,1680.0],["B4GALT6",0.0728579386424906,-2.604743536487722,43.0,1679.0],["BTBD11",0.07246803307950603,-2.581486693649809,116.0,1606.0],["CD300C",0.07438106511587464,-2.696624480583229,26.0,1696.0],["CYP26B1",0.07043924399206726,-2.46220590830751,75.0,1647.0],["DNAJC13",0.08654044301204264,-3.489441972229399,125.0,1597.0],["FAM186A",0.09341989768636863,-3.985211725372061,99.0,1623.0],["GNG13",0.0809786731050977,-3.113660613736999,11.0,1711.0],["IL2RA",0.0971169417358663,-4.2658954526646164,25.0,1697.0],["MEF2A",0.07839528900383709,-2.9466668082342666,54.0,1668.0],["MUC17",0.08548927116203615,-3.416711256286451,382.0,1340.0],["MUC8",0.08273084729465213,-3.2296449493236246,19.0,1703.0],["MUL1",0.07457345107126744,-2.708346819451693,26.0,1696.0],["NCAM2",0.0829659269921734,-3.2453736907265296,126.0,1596.0],["NLRP14",0.08204115447036017,-3.183728055717233,121.0,1601.0],["OR51J1",0.11310898550707703,-5.596206479476123,16.0,1706.0],["RAB44",0.06882628956324062,-2.369440781167899,41.0,1681.0],["RP11-58C22.1",0.07942597535612216,-3.012719687368286,11.0,1711.0],["ZNF502",0.07487969118516419,-2.727060583063655,45.0,1677.0]],"bottom":[["BLOC1S4",-0.06207472761813406,-2.000878469104594,9.0,1713.0],["CCP110",-0.070342831827205,-2.4566096157847714,55.0,1667.0],["FABP2",-0.06194876153741854,-1.9943030852549088,16.0,1706.0],["HOXA9",-0.0682988272704323,-2.33950130733495,25.0,1697.0],["PLCH1",-0.08974117991195786,-3.7158263214660776,172.0,1550.0],["PSD",-0.06749498255551874,-2.294248852808349,92.0,1630.0],["TVP23C",-0.06389710574624495,-2.0972352387822184,18.0,1704.0],["VRK3",-0.06961500595863984,-2.4145735245116153,38.0,1684.0],["ZNF25",-0.09974242080347817,-4.471313611517552,49.0,1673.0]]},"para":{"top":[["FAM209B",0.05838377690433325,-2.1122583976699745,15.0,1707.0],["OSTF1",0.06578637235953863,-2.497939895042847,17.0,1705.0],["TYROBP",0.06993244048333472,-2.7302736025617445,10.0,1712.0]],"bottom":[["FAM133B",-0.06253688365318126,-2.3240838901846113,24.0,1698.0],["ZNF25",-0.09137134419711239,-4.123748353708464,49.0,1673.0]]}}}
{"depmap_damaging":{"corr":{"top":[["BACH2",0.10014395857695829,-4.500873735714545,25.0,1696.0],["FAM35A",0.07266533370346645,-2.591984668188752,11.0,1710.0],["IL22RA2",0.07950643798546932,-3.0164214206548636,9.0,1712.0],["MEF2A",0.13937562108712648,-8.194318341887932,8.0,1713.0],["MYO18A",0.09707693142235777,-4.260633971003998,25.0,1696.0],["RLIM",0.06933089928927023,-2.39711332544488,9.0,1712.0],["STARD6",0.06959711977841497,-2.412384572051177,9.0,1712.0]],"bottom":[["ECD",-0.0634401422564779,-2.071878167771211,47.0,1674.0],["PLCH1",-0.06670912848071424,-2.24937264539136,57.0,1664.0]]},"para":{"top":[["IL22RA2",0.05413683926149882,-1.906995493603656,9.0,1712.0],["MEF2A",0.07194202390508785,-2.8459248589890414,8.0,1713.0],["PCDHB1",0.0596221242569054,-2.17318047600911,8.0,1713.0],["SDCCAG8",0.05335111341866848,-1.8705425847022064,10.0,1711.0]],"bottom":[]}}}
{"ccle_rrbs_enhancer_clusters":{"corr":{"top":[],"bottom":[["1-218223181-218226086-1_enh",-0.12804923568349155,-3.3382195227291867,745],["20-39575604-39578895-0_enh",-0.16274238487506196,-3.9480243233159227,558],["21-40362243-40365126-2_enh",-0.20056056649903028,-6.856231642958847,678]]},"para":{"top":[],"bottom":[]}}}
{"ccle_mirna":{"corr":{"top":[],"bottom":[]},"para":{"top":[["hsa-miR-363_miR00332.1",0.13489358232244647,-4.522952534739316,951]],"bottom":[]}}}
{"prism_primary_logfold":{"corr":{"top":[["GSK2636771_BRD-K49215523-001-04-2::2.5::HTS",0.1486907713594177,-3.324888484825987,549],["meprylcaine_BRD-K65417056-003-10-1::2.5::HTS",0.16644631705666316,-4.082287370462227,554],["CK-636_BRD-K81572616-001-01-9::2.5::HTS",0.12104313739054158,-2.3706030046532294,556]],"bottom":[["biperiden_BRD-A00546892-001-02-6::2.5::HTS",-0.12843763558739407,-2.6098835543920385,554],["EO-1428_BRD-K42452249-001-02-5::2.5::HTS",-0.1378108292616118,-2.9181229907266855,549]]},"para":{"top":[["hydroxypropyl-beta-cyclodextrin_BRD-A01412266-001-01-0::2.5::HTS",0.1436179683194005,-3.131722069915986,549],["maraviroc_BRD-A04352665-001-05-3::2.5::HTS",0.13519572107207622,-2.767971101370043,536],["benzyldimethylhexadecylammonium_BRD-K23403298-003-01-9::2.5::HTS",0.1266059315868072,-2.505363882878534,543],["GSK2636771_BRD-K49215523-001-04-2::2.5::HTS",0.15151187264264945,-3.434985157285051,549],["meprylcaine_BRD-K65417056-003-10-1::2.5::HTS",0.1385839400180251,-2.9688669250960906,554],["CK-636_BRD-K81572616-001-01-9::2.5::HTS",0.12692042165536044,-2.5660138378661874,556],["exherin_BRD-K81795818-019-01-4::2.5::HTS",0.13270355636957928,-2.7116540513899667,543]],"bottom":[]}}}
{"prism_secondary_logfold":{"corr":{"top":[["romidepsin_BRD-K61397605-001-03-4::0.00976562::HTS002",0.17103667865997688,-3.648517756139921,461]],"bottom":[["S-methylcysteine_BRD-K63123526-001-01-2::0.625::HTS002",-0.15641656212586688,-3.222405093786913,478],["mericitabine_BRD-K69726595-001-01-2::2.5::HTS002",-0.1677413533964129,-3.4735123501725984,453]]},"para":{"top":[["teriflunomide_BRD-A42699921-001-03-6::0.000635154::HTS002",0.16194889729496834,-3.3668442253074904,469],["chlorpyrifos_BRD-K08303368-001-10-0::0.0390625::HTS002",0.1632707565919542,-3.276419663685486,447]],"bottom":[["AZ-628_BRD-K05804044-001-06-0::0.0024414::HTS002",-0.16643616573714493,-3.4983098209444194,464],["fenaclon_BRD-K08791496-001-01-0::0.15625::HTS002",-0.18565560570935058,-4.072272402107821,443]]}}}
{"ccle_proteomics":{"corr":{"top":[["BAZ2A_Q9UIF9",0.2658905154256858,-6.745243887943312,374]],"bottom":[["PCID2_Q5JVF3",-0.24932314987960727,-5.980649303830405,374],["HK3_P52790",-0.2636214256043642,-6.637392783861767,374],["RBL2_Q08999",-0.24349810863943516,-4.3626039084461175,276],["MT-ND2_P03891",-0.27057491996401506,-4.216756515269631,214]]},"para":{"top":[["BAZ2A_Q9UIF9",0.28920806270587807,-7.9125564030407665,374],["ATPAF1_Q5TC12",0.2877628150086396,-7.8370300652827565,374],["CNPY2_Q9Y2B0",0.4055673262486625,-15.513893146663035,374],["PMAIP1_Q13794",0.2739300511101188,-2.533856504842579,116],["PTGES3_Q15185",0.2765108528536854,-7.263467233295423,374]],"bottom":[["GPN2_Q9H9Y4",-0.26391537727044234,-4.030581655978897,214]]}}}
{"depmap_copy_number":{"corr":{"top":[["APOF_319",0.9537644909057661,-323.0051853474518,1745],["TIMELESS_8914",0.9625555583632324,-323.0051853474518,1745],["MIP_4284",0.9652736434873089,-323.0051853474518,1745],["GLS2_27165",0.9673865027334425,-323.0051853474518,1745],["BAZ2A_11176",0.9732801848422381,-323.0051853474518,1745],["HSD17B6_8630",0.9475306656182594,-323.0051853474518,1745],["SNORD59B_692090",0.9962261315694265,-323.0051853474518,1745],["SNORA105C_106635541",0.9672329961826391,-323.0051853474518,1745],["RBMS2_5939",0.9702934806778489,-323.0051853474518,1745],["PTGES3_10728",0.9764111089746479,-323.0051853474518,1745],["SNORD59A_26789",0.9952535374931417,-323.0051853474518,1745],["SPRYD4_283377",0.9673865027334425,-323.0051853474518,1745]],"bottom":[]},"para":{"top":[["NACA_4666",0.9863093383428165,-323.0051853474518,1745],["TIMELESS_8914",0.9828722936658428,-323.0051853474518,1745],["PRIM1_5557",0.9830354996934522,-323.0051853474518,1745],["MIP_4284",0.9863866481943632,-323.0051853474518,1745],["GLS2_27165",0.9877271043640999,-323.0051853474518,1745],["BAZ2A_11176",0.9920309229477724,-323.0051853474518,1745],["HSD17B6_8630",0.9812680673573779,-323.0051853474518,1745],["SNORD59B_692090",0.9979927037309883,-323.0051853474518,1745],["SNORA105C_106635541",0.9894232264163728,-323.0051853474518,1745],["RBMS2_5939",0.9911966991644819,-323.0051853474518,1745],["PTGES3_10728",0.9906076872703167,-323.0051853474518,1745],["SNORD59A_26789",0.9960794616284048,-323.0051853474518,1745],["SPRYD4_283377",0.9877271043640999,-323.0051853474518,1745]],"bottom":[]}}}
{"depmap_gene_tpm":{"corr":{"top":[["NACA_4666",0.4326293620777782,-59.38571490819069,1293],["PTGES3_10728",0.3952145194948769,-48.862803385122334,1293],["ATP5F1B_506",0.43403907360068894,-59.808802776669594,1293]],"bottom":[]},"para":{"top":[["NACA_4666",0.39671539622382035,-49.25959642507967,1293],["PTGES3_10728",0.3995278084637496,-50.00865912683861,1293],["ATP5F1B_506",0.3812265241318649,-45.2620390612697,1293]],"bottom":[]}}}
{"avana":{"corr":{"top":[["NACA_4666",0.2271798585564436,-9.591056024323267,757],["TIMELESS_8914",0.21595901941660792,-8.840506060570874,769],["PRIM1_5557",0.18221403652598706,-6.440038614322795,769]],"bottom":[]},"para":{"top":[["NACA_4666",0.20992976296216764,-8.260148596952648,757],["PRIM1_5557",0.20649919039125766,-8.125348744224658,769],["NOP9_161424",0.17741457945282188,-6.132156611062801,769]],"bottom":[["ASAH1_427",-0.13134249960674543,-3.5849308400453936,769]]}}}
{"drive":{"corr":{"top":[["NACA_4666",0.2918343599132371,-8.110536345486384,377],["HOXD4_3233",0.2121510761314293,-4.515352970237878,380],["PRIM1_5557",0.18534196084241455,-3.5276350503910563,377]],"bottom":[["FBXO32_114907",-0.15360451737024952,-2.5719141421156397,380]]},"para":{"top":[["PRIM1_5557",0.18698894573005906,-3.582761521769418,377]],"bottom":[["COPS8_10920",-0.17679095896242644,-3.2488834584446638,377]]}}}
{"achilles":{"corr":{"top":[["NACA_4666",0.34705351873792184,-14.702299511075122,494],["NACA2_342538",0.3057160112278838,-11.420800911290769,494]],"bottom":[["TAL2_6887",-0.19079724929651262,-4.707392583276905,494]]},"para":{"top":[["CSF3_1440",0.21602337115749656,-5.900889671915065,494],["NACA2_342538",0.30065694409986926,-11.052926125915448,494]],"bottom":[]}}}
{"ccle_rrbs_tss1kb":{"corr":{"top":[],"bottom":[["FAM187A_17_42980197_42981197",-0.16796342780325388,-5.873155041015817,819],["LINC00311_16_85315563_85316563",-0.17651453546322965,-6.474524268198628,825]]},"para":{"top":[],"bottom":[]}}}
{"ccle_gene_tpm":{"corr":{"top":[["TIMELESS_ENSG00000111602.7",0.3263050664368303,-25.783934923958427,1011],["NACA_ENSG00000196531.6",0.4291597386395392,-45.83475069180635,1011],["ATP5B_ENSG00000110955.4",0.4616019524582946,-53.76796098205034,1011],["BAZ2A_ENSG00000076108.7",0.3737862325457054,-34.14856884241299,1011],["PTGES3_ENSG00000110958.11",0.45787115817340807,-52.81143512343074,1011]],"bottom":[["MLTK_ENSG00000091436.12",-0.17796249776555223,-7.914055638530203,1011]]},"para":{"top":[["NACA_ENSG00000196531.6",0.3612538703663315,-31.800334152749134,1011],["ATP5B_ENSG00000110955.4",0.4179130458527514,-43.27960520996465,1011],["PTGES3_ENSG00000110958.11",0.44013169235109206,-48.422223312514014,1011],["BAZ2A_ENSG00000076108.7",0.34538058756146456,-28.97275516747446,1011]],"bottom":[]}}}
{"ccle_rrbs_tss_clusters":{"corr":{"top":[["ZNF442_3",0.18782859457052287,-4.519222915707279,487],["CDK6_3",0.1778852077666022,-6.690147267978956,842],["CSGALNACT1_5",0.19267080081252205,-4.997565474837846,518]],"bottom":[["MIR7106_1",-0.2054685137700898,-8.646189588091813,831],["CYBRD1_1",-0.23870410829219774,-6.90602555651817,479],["BCAT1_6",-0.20809069510154093,-2.811654559458308,229],["LOC101928510_3",-0.207977037470695,-7.701366861242694,715],["GPR146_6",-0.20858019113194218,-5.7947109283074,520]]},"para":{"top":[["CSGALNACT1_5",0.18494021179961667,-4.6421568124259185,518]],"bottom":[["HSD17B6_2",-0.19185110804973304,-3.1297699896685853,306]]}}}
{"ccle_rrbs_cgi_clusters":{"corr":{"top":[["19_12474049_12478372-3",0.18782859457052287,-4.519222915707279,487]],"bottom":[["2_172376822_172379506-1",-0.23870410829219774,-6.90602555651817,479],["11_777401_779998-2",-0.21208217879831087,-5.433822889475815,468],["8_8176237_8178775-1",-0.24919021895792623,-6.7395603247351685,427],["17_80364776_80369097-3",-0.22651779478391926,-6.406223966500192,491]]},"para":{"top":[],"bottom":[["2_98204120_98206672-1",-0.2555087658188836,-3.7713124030449796,212]]}}}
