{"depmap_hotspot":{"corr":{"top":[["FBLL1",0.06237331352591558,-2.0165083845703298,32.0,1690.0],["RNF212",0.06437368928731498,-2.1228142148813527,24.0,1698.0],["SPATA31A7",0.07694019315915529,-2.8547055233886933,9.0,1713.0]],"bottom":[["ABCC5",-0.0823322978287642,-3.203069499103994,109.0,1613.0],["ACTR3C",-0.08183581188701078,-3.170123190619906,15.0,1707.0],["CCDC40",-0.08758226879428552,-3.5623142838443917,108.0,1614.0],["CDK20",-0.08811580712699286,-3.599937789184087,47.0,1675.0],["CHST14",-0.08077059268447284,-3.1000331269296257,32.0,1690.0],["CLDN9",-0.08274498675093642,-3.2305898709763072,34.0,1688.0],["COG1",-0.08432725235034912,-3.3372391740455085,75.0,1647.0],["DBN1",-0.08354623306742409,-3.284371022788465,92.0,1630.0],["FDXR",-0.08316517918617404,-3.258736393129016,51.0,1671.0],["GPR108",-0.10363148294728018,-4.7849305045415695,39.0,1683.0],["HIST1H3B",-0.0829205823210237,-3.242336671291933,38.0,1684.0],["IL3RA",-0.09411295388220844,-4.0370676205058,55.0,1667.0],["IZUMO4",-0.08253447566597985,-3.2165365409464424,18.0,1704.0],["KCNK7",-0.10100769007428792,-4.572120492186506,24.0,1698.0],["KIAA1549",-0.0835502099680861,-3.2846391116286036,225.0,1497.0],["KRTAP10-12",-0.08128019016549379,-3.1334624682112984,34.0,1688.0],["MAZ",-0.08204426402818095,-3.1839343105049625,63.0,1659.0],["MRPS18B",-0.09835193069767824,-4.3618900109757375,24.0,1698.0],["OR10Z1",-0.09620715333659957,-4.195894638226879,77.0,1645.0],["PAFAH1B1",-0.07977366962750916,-3.0351733790727535,22.0,1700.0],["PLBD1",-0.08523000074590438,-3.3988949778207442,54.0,1668.0],["PSMC2",-0.08033047232862832,-3.07131120132814,32.0,1690.0],["RTP2",-0.08086252775289669,-3.1060502611742886,26.0,1696.0],["SERPINI2",-0.08608049887049553,-3.4575201503571034,50.0,1672.0],["SLC2A4",-0.08125589810962523,-3.13186469572001,52.0,1670.0],["SLC5A5",-0.08719982815956633,-3.5354725720592923,81.0,1641.0],["SPC24",-0.123191360731649,-6.533147659273119,13.0,1709.0],["TNFRSF10D",-0.09694690086001637,-4.252766051183075,26.0,1696.0],["TNR",-0.07990271928846183,-3.0435292584622404,234.0,1488.0],["USP29",-0.07960075551945542,-3.02399598074242,109.0,1613.0],["VPS13B",-0.08044682404099604,-3.078890737062219,293.0,1429.0],["VPS37B",-0.09781821836778147,-4.320267566082291,35.0,1687.0],["WDFY3",-0.09688044246572743,-4.247640352373941,233.0,1489.0],["ZNF517",-0.09247917537952764,-3.91538604494155,59.0,1663.0],["ZRSR2",-0.08353377263859108,-3.2835311202869475,36.0,1686.0]]},"para":{"top":[],"bottom":[["CBWD2",-0.08427919537434309,-3.626987387400936,22.0,1700.0],["CMC2",-0.05774070113225825,-2.0804048325166624,8.0,1714.0],["H3F3B",-0.05622783188785653,-2.006900990357199,11.0,1711.0],["HRSP12",-0.06255525637846693,-2.324883376699517,9.0,1713.0],["ISOC2",-0.08429479878005298,-3.6280410365992264,22.0,1700.0],["MRP63",-0.07951856987969844,-3.3133304403431842,9.0,1713.0],["MRPS18B",-0.07893996066787942,-3.2765157365439874,24.0,1698.0],["PEBP1",-0.0668511759923484,-2.5564823455499335,15.0,1707.0]]}}}
{"depmap_damaging":{"corr":{"top":[["PCOLCE2",0.06718991436724335,-2.276105634417989,13.0,1708.0],["RADIL",0.07863545210316321,-2.960533785499485,13.0,1708.0]],"bottom":[["ANO8",-0.07443147967594115,-2.698379345936968,11.0,1710.0],["BCAP29",-0.08113808248639974,-3.1225770132742126,21.0,1700.0],["C6orf165",-0.06946463556608191,-2.4047786420944974,16.0,1705.0],["C6orf89",-0.083951663898019,-3.3101133972549115,22.0,1699.0],["CLCN3",-0.0733574314665752,-2.633414598448783,17.0,1704.0],["DAAM2",-0.0686975656832673,-2.360983147006566,16.0,1705.0],["DCLK2",-0.08312464814083809,-3.254399434890902,9.0,1712.0],["DET1",-0.07880644253542593,-2.97146282064602,9.0,1712.0],["DHX30",-0.11937209336987671,-6.165974593062259,8.0,1713.0],["EDNRB",-0.07406705486296955,-2.6762452743629255,16.0,1705.0],["EMR1",-0.0692965444198721,-2.3951462452548755,8.0,1713.0],["FBRSL1",-0.06859266091636498,-2.3550257258297718,14.0,1707.0],["FBXO34",-0.0770194894231112,-2.858277221551809,23.0,1698.0],["GPR108",-0.09104364909990043,-3.8081565171927227,12.0,1709.0],["GPR64",-0.07578369861163745,-2.781331736320001,9.0,1712.0],["KCNB2",-0.07071896287848355,-2.477283942214555,21.0,1700.0],["KLHL4",-0.07311688734960084,-2.6189769186564757,11.0,1710.0],["LAMB4",-0.07144686922483144,-2.5198673434605774,23.0,1698.0],["OR4K5",-0.07610821808647387,-2.8014325816518397,13.0,1708.0],["PCDHB13",-0.07558200401376293,-2.7688763898752424,8.0,1713.0],["PCDHB2",-0.07456326321330593,-2.706406641513676,19.0,1702.0],["RAE1",-0.08163019555289548,-3.1549683135206723,15.0,1706.0],["RPS6KA1",-0.0692278773743299,-2.3912170111106033,9.0,1712.0],["RSL1D1",-0.07632992703667286,-2.815208326998124,15.0,1706.0],["SGOL1",-0.0704208915502687,-2.459954018145647,14.0,1707.0],["TMPRSS5",-0.11657139309964906,-5.9062418299683825,10.0,1711.0],["TRPS1",-0.07060832839976075,-2.470844339458857,24.0,1697.0],["UBR3",-0.07529067967676532,-2.750937066949036,13.0,1708.0],["UGT2B10",-0.0852250528520363,-3.396861075345499,12.0,1709.0],["UROC1",-0.0795317641675768,-3.018054605958988,20.0,1701.0],["WDR72",-0.07164884966857299,-2.531749583795906,26.0,1695.0],["WDR96",-0.0754642864024169,-2.761620261508312,14.0,1707.0],["ZNF420",-0.08725322186931331,-3.537442236463675,14.0,1707.0]]},"para":{"top":[["TTC16",0.05169059336999598,-1.7948875348682054,15.0,1706.0]],"bottom":[["DHX30",-0.09528397976040463,-4.410534780618013,8.0,1713.0],["TRMT1",-0.07045030737278558,-2.758931682145813,9.0,1712.0]]}}}
{"prism_primary_logfold":{"corr":{"top":[],"bottom":[]},"para":{"top":[["cefminox_BRD-K77073709-435-01-2::2.5::MTS004",0.1725761995276926,-4.249018698141929,539]],"bottom":[["lumacaftor_BRD-K69236721-001-02-7::2.5::HTS",-0.13054636108750178,-2.6946911499915935,557]]}}}
{"prism_secondary_logfold":{"corr":{"top":[],"bottom":[["hexaminolevulinate_BRD-K73753850-003-01-6::0.625::MTS006",-0.16526894394290276,-3.4878082311448506,469]]},"para":{"top":[["carboxypyridine-disulfide_BRD-K26530649-001-01-6::0.009765624::MTS006",0.16562672737529668,-3.494528760846296,468],["etomoxir_BRD-K32405725-001-02-8::0.0390625::HTS002",0.1632145560410499,-3.450315201329721,475]],"bottom":[]}}}
{"ccle_proteomics":{"corr":{"top":[["TIA1_P31483",0.2540909876926266,-6.1952898224178,374],["BOLA3_Q53S33",0.26014868487133236,-6.474268490459059,374]],"bottom":[]},"para":{"top":[],"bottom":[["PREX2_Q70Z35",-0.3394815486777382,-3.9404941940743594,124]]}}}
{"depmap_copy_number":{"corr":{"top":[["DUSP11_8446",0.9872935612841479,-323.0051853474518,1745],["TPRKB_51002",0.9872935612841479,-323.0051853474518,1745],["C2orf78_388960",0.9872935612841479,-323.0051853474518,1745],["DGUOK_1716",0.9867031838369196,-323.0051853474518,1745],["DCTN1-AS1_100189589",0.9878363923089919,-323.0051853474518,1745],["C2orf81_388963",0.9878363923089919,-323.0051853474518,1745],["DCTN1_1639",0.9878363923089919,-323.0051853474518,1745],["STAMBP_10617",0.9872935612841479,-323.0051853474518,1745],["WDR54_84058",0.9878363923089919,-323.0051853474518,1745],["MTHFD2_10797",0.9977666686746272,-323.0051853474518,1745],["TET3_200424",0.9881579565309891,-323.0051853474518,1745],["ACTG2_72",0.988483407596164,-323.0051853474518,1745],["BOLA3_388962",0.9999999999999998,-323.0051853474518,1745],["BOLA3-AS1_100507171",0.9999999999999998,-323.0051853474518,1745],["DGUOK-AS1_100874048",0.9881579565309891,-323.0051853474518,1745],["SLC4A5_57835",0.9963989893000709,-323.0051853474518,1745]],"bottom":[]},"para":{"top":[["DCTN1-AS1_100189589",0.991838657097642,-323.0051853474518,1745],["DGUOK_1716",0.992488364881837,-323.0051853474518,1745],["C2orf81_388963",0.991838657097642,-323.0051853474518,1745],["MOB1A_55233",1.0,-323.0051853474518,1745],["DCTN1_1639",0.991838657097642,-323.0051853474518,1745],["WDR54_84058",0.991838657097642,-323.0051853474518,1745],["MTHFD2_10797",0.9975731348875251,-323.0051853474518,1745],["TET3_200424",0.9941468514232281,-323.0051853474518,1745],["ACTG2_72",0.9931423709828978,-323.0051853474518,1745],["BOLA3-AS1_100507171",1.0,-323.0051853474518,1745],["DGUOK-AS1_100874048",0.9941468514232281,-323.0051853474518,1745],["SLC4A5_57835",0.9972318221524946,-323.0051853474518,1745]],"bottom":[]}}}
{"depmap_gene_tpm":{"corr":{"top":[["DUSP11_8446",0.36501474772840414,-41.302991765913575,1293],["DGUOK_1716",0.37649756596102246,-44.08380030005858,1293],["BOLA3_388962",0.3486843366056889,-37.538898065358495,1293]],"bottom":[]},"para":{"top":[["DUSP11_8446",0.33384347963127525,-34.30610344127973,1293],["MOGS_7841",0.3259881997204261,-32.66536812483154,1293],["BOLA3_388962",0.3335672546478568,-34.247590661014826,1293],["SMYD5_10322",0.33913285258608966,-35.43815651415399,1293]],"bottom":[]}}}
{"avana":{"corr":{"top":[["DCTN1_1639",0.22496486319086148,-9.552563634297877,769]],"bottom":[]},"para":{"top":[["DCTN1_1639",0.19825234949267742,-7.528943187577889,769]],"bottom":[["FKBP8_23770",-0.13337507231006382,-3.6820645204904396,769]]}}}
{"drive":{"corr":{"top":[],"bottom":[["MCM3_4172",-0.15528057095230735,-2.6020723652600255,377]]},"para":{"top":[["SFXN1_94081",0.1754036399848938,-3.30682390058418,391]],"bottom":[]}}}
{"achilles":{"corr":{"top":[["ARHGEF3_50650",0.2076676783033709,-5.489043032313396,494],["CCT7_10574",0.4190354695420861,-12.60586657561154,280],["SMC1B_27127",0.21553301615843767,-3.552982994088305,280]],"bottom":[]},"para":{"top":[["ARHGEF3_50650",0.20508452261010718,-5.365057655299114,494],["CCT7_10574",0.35902351745574235,-9.215913647043289,280]],"bottom":[["HDGF_3068",-0.19553299771722918,-2.997738416773792,280]]}}}
{"ccle_rrbs_tss1kb":{"corr":{"top":[],"bottom":[]},"para":{"top":[],"bottom":[]}}}
{"ccle_gene_tpm":{"corr":{"top":[["MOB1A_ENSG00000114978.13",0.31099792196812526,-23.384325008672903,1011],["DUSP11_ENSG00000144048.6",0.37997243087938115,-35.346403050899,1011],["DGUOK_ENSG00000114956.15",0.36637410571211637,-32.747184255541846,1011],["BOLA3_ENSG00000163170.7",0.30995951078070993,-23.22655054237321,1011]],"bottom":[]},"para":{"top":[["CCT7_ENSG00000135624.11",0.3074694727183825,-22.850779443158505,1011],["MOGS_ENSG00000115275.7",0.35846211843146875,-31.29128938602108,1011],["DUSP11_ENSG00000144048.6",0.34783269555326873,-29.39906815596068,1011],["DGUOK_ENSG00000114956.15",0.3558639082671148,-30.822071834178455,1011],["BOLA3_ENSG00000163170.7",0.3005594928830659,-21.82680036711289,1011],["SMYD5_ENSG00000135632.7",0.3500872066609814,-29.794382164456042,1011]],"bottom":[]}}}
{"ccle_rrbs_tss_clusters":{"corr":{"top":[["LGALS2_2",0.19036602640779887,-7.089517208920916,782],["IFITM2_2",0.1924191566014249,-3.0399041289727937,294]],"bottom":[]},"para":{"top":[],"bottom":[]}}}
{"ccle_rrbs_cgi_clusters":{"corr":{"top":[["1_228672346_228675049-1",0.210535155328601,-2.633144098423772,207],["7_27232451_27235097-2",0.18633098060530157,-7.226053121839318,834]],"bottom":[]},"para":{"top":[],"bottom":[]}}}
