{"depmap_hotspot":{"corr":{"top":[["BEND2",0.08098093749442895,-3.1138090825339524,53.0,1669.0],["C1QTNF5",0.09644504737594561,-4.214140031816523,26.0,1696.0],["C1orf35",0.09716192611780236,-4.269372390672733,27.0,1695.0],["CD2AP",0.07567034421373947,-2.775683617408061,60.0,1662.0],["CXorf61",0.07988157285026584,-3.0421592244866535,10.0,1712.0],["DFFB",0.09495544692578006,-4.100577534839037,28.0,1694.0],["DKFZP434O1614",0.07962019840020143,-3.025251727398315,16.0,1706.0],["ENPP3",0.07988569592231365,-3.042426324684457,80.0,1642.0],["FAM127B",0.10219634133032303,-4.667899017950668,8.0,1714.0],["HINT3",0.10636745212949116,-5.012267159098558,13.0,1709.0],["HTR3B",0.08823059996678137,-3.6080595938477806,47.0,1675.0],["IL22",0.09708680335533404,-4.263566824391407,12.0,1710.0],["IQCG",0.07287583674485354,-2.6058136901596485,33.0,1689.0],["ISM1",0.09349657242037071,-3.9909314249971435,61.0,1661.0],["KIAA1551",0.07175763888501639,-2.539389529508714,135.0,1587.0],["LRRC72",0.09298137595029952,-3.9525818274002313,21.0,1701.0],["MRS2",0.10873185267550586,-5.213208259781111,40.0,1682.0],["MYADM",0.07044543167497179,-2.462565298803868,45.0,1677.0],["NBPF16",0.09864644775431336,-4.384948071760238,13.0,1709.0],["OR2L8",0.07785031235024581,-2.9120477774319538,36.0,1686.0],["OR6C74",0.07901430968462322,-2.9862465366486206,41.0,1681.0],["OR7G3",0.0946471251154083,-4.077274985088243,25.0,1697.0],["PBX1",0.07829877379855339,-2.9405203479884925,57.0,1665.0],["POU2F3",0.08169076146321623,-3.160531190743261,38.0,1684.0],["SFT2D3",0.1202377810430395,-6.250733541818924,8.0,1714.0],["SLA",0.08785759893288568,-3.581703980200919,32.0,1690.0],["TEP1",0.07087019568977226,-2.487300688011905,189.0,1533.0],["TP53I3",0.10881979250689028,-5.220762189591761,17.0,1705.0],["TTC38",0.07678926177355822,-2.8452530907754356,45.0,1677.0],["VANGL2",0.07065946300021866,-2.475013164148942,74.0,1648.0],["WDR74",0.07089402925602362,-2.488692357598519,41.0,1681.0],["ZSWIM2",0.11169483673333078,-5.4709029313191575,63.0,1659.0]],"bottom":[["AJUBA",-0.07406897479547946,-2.6776641813756967,50.0,1672.0],["C14orf178",-0.07435525572780433,-2.6950538752102506,10.0,1712.0],["DDC8",-0.06831439388736069,-2.3403820968518403,19.0,1703.0],["DPP6",-0.07350740237933119,-2.643720938948212,127.0,1595.0],["DUPD1",-0.06618780877271523,-2.221626368472827,23.0,1699.0],["KCNJ6",-0.06930606918215305,-2.3968431994599704,46.0,1676.0],["KIAA1328",-0.05869096683744363,-1.8280490244832563,44.0,1678.0],["NAA20",-0.06462465024487152,-2.1363471210095994,12.0,1710.0],["NMU",-0.06894521827561012,-2.376218289448949,17.0,1705.0],["OR10A2",-0.07734196576205896,-2.8799465347461,27.0,1695.0],["OR51F2",-0.07623924829332118,-2.810944373668051,56.0,1666.0],["TARS",-0.05952243824852716,-1.8697868875662742,67.0,1655.0],["TAS2R3",-0.08279560650630548,-3.2339739021542537,28.0,1694.0],["TLR1",-0.07390726947886123,-2.667867300557718,66.0,1656.0],["VTCN1",-0.05781891370049172,-1.7847837053553974,19.0,1703.0],["ZFYVE20",-0.05744146117387192,-1.7662186185149455,62.0,1660.0]]},"para":{"top":[["AL450307.1",0.07812065434408215,-3.22440804393776,14.0,1708.0],["C7orf71",0.06497382346817955,-2.453678756622079,10.0,1712.0],["CD38",0.0871867176662826,-3.826317913942259,26.0,1696.0],["CYP4F31P",0.06796560743643497,-2.6185528396811284,11.0,1711.0],["LINC00632",0.055409490981838797,-1.9677800449055447,13.0,1709.0],["TMEM221",0.06631474363346525,-2.526869543426506,14.0,1708.0],["TTC9",0.07664857732908704,-3.132219896003783,22.0,1700.0]],"bottom":[["DUPD1",-0.07128667257573934,-2.8089190727124147,23.0,1699.0],["MED6",-0.06316017219816943,-2.356772418606292,12.0,1710.0],["MRPL52",-0.06444318897275418,-2.4251575996142223,15.0,1707.0],["RABIF",-0.055994920734422,-1.9957628869937645,15.0,1707.0],["TAS2R3",-0.08037929114376129,-3.36905058658336,28.0,1694.0]]}}}
{"depmap_damaging":{"corr":{"top":[["C2orf73",0.08648522685079942,-3.483859651679305,14.0,1707.0],["CCDC14",0.07514935102323858,-2.7422559494794245,9.0,1712.0],["DIO2",0.10148361349480046,-4.607980995320623,8.0,1713.0],["FERMT3",0.09530296188001514,-4.1248305616862675,10.0,1711.0],["IFNGR1",0.10672545451662767,-5.039821775216039,8.0,1713.0],["KIF16B",0.0708208426721318,-2.4832215851392205,10.0,1711.0],["MUTYH",0.1122758131505106,-5.519328903127267,11.0,1710.0],["PAN3",0.08500881901214466,-3.3820481176748163,13.0,1708.0],["PNPLA6",0.10495678066463565,-4.891837702132498,15.0,1706.0],["SLC47A1",0.12134753222863784,-6.352731640344974,12.0,1709.0],["TMPRSS5",0.07237060898640327,-2.574444748585996,10.0,1711.0]],"bottom":[["ATF6",-0.07042638948348863,-2.4602731033899734,11.0,1710.0],["METTL8",-0.06918314271336853,-2.3886590043803264,9.0,1712.0],["NLRP14",-0.0818789803538232,-3.171409617674659,17.0,1704.0],["UGT2A1",-0.061158452233879376,-1.9523832956404035,11.0,1710.0],["ZNF85",-0.06763192899879776,-2.300825332529629,10.0,1711.0]]},"para":{"top":[["DIO2",0.06358524159421357,-2.3782257986225153,8.0,1713.0],["NOS2",0.061611407513423186,-2.2748285443586234,11.0,1710.0],["SSH3",0.05074753069152347,-1.7526233401059315,9.0,1712.0],["TMEM232",0.08488191385358032,-3.665938889745784,9.0,1712.0]],"bottom":[["ATF6",-0.062037022286622154,-2.2969132305061444,11.0,1710.0],["NLRP14",-0.07516881892411922,-3.0396153089388087,17.0,1704.0],["ZNF85",-0.06147589678679247,-2.2678046004447174,10.0,1711.0]]}}}
{"ccle_rrbs_enhancer_clusters":{"corr":{"top":[],"bottom":[]},"para":{"top":[],"bottom":[["1-216772937-216775458-1_enh",-0.15599143206404115,-4.845630346895254,767]]}}}
{"ccle_mirna":{"corr":{"top":[],"bottom":[["hsa-miR-455-5p_miR00382.1",-0.13222759055321748,-4.365674748314472,951]]},"para":{"top":[],"bottom":[]}}}
{"prism_primary_logfold":{"corr":{"top":[["glutamine-(l)_BRD-K83896451-001-06-7::2.5::HTS",0.13598925103668844,-2.7515099283545874,526]],"bottom":[["5-Amino-3-D-ribofuranosylthiazolo[4,5-d]pyrimidin-2,7(3H,6H)-dione_BRD-K87535339-001-01-6::2.53::HTS",-0.12363552710932844,-2.4226949881664686,547]]},"para":{"top":[["allylisothiocyanate_BRD-K33219225-001-01-9::2.5::HTS",0.1449820893877361,-3.0688113652966362,526],["pentostatin_BRD-K91543828-001-02-0::2.500044381::MTS004",0.13496811735342826,-2.7731029272098877,539]],"bottom":[]}}}
{"prism_secondary_logfold":{"corr":{"top":[],"bottom":[["pentamidine_BRD-K13183738-317-10-2::0.0024414::HTS002",-0.21646423275659213,-4.966503460638788,406],["GGTI-298_BRD-K19669037-001-01-1::0.000305176::HTS002",-0.1663015270771203,-3.5648990207306293,475]]},"para":{"top":[["tideglusib_BRD-K81330143-001-04-8::9.53029::HTS002",0.17395642485302668,-3.8294389564995543,471]],"bottom":[["phenelzine_BRD-K87024524-065-17-7::0.625::HTS002",-0.16416822704773143,-3.122805154949253,418]]}}}
{"ccle_proteomics":{"corr":{"top":[["KMT2A_Q03164-3",0.3765152557192459,-13.315297214606824,374],["C2CD2L_O14523-2",0.4071457558172721,-12.80069515815619,303],["DPAGT1_Q9H3H5",0.3908898753374976,-13.717467320658201,356]],"bottom":[["NCS1_P62166",-0.25067180860124133,-6.04092533207138,374]]},"para":{"top":[["KMT2A_Q03164-3",0.393527312865352,-14.576348219619943,374],["DPAGT1_Q9H3H5",0.3995230157657318,-14.348287736703652,356],["SLC35F2_Q8IXU6",0.34453224045520214,-6.402590915219089,206]],"bottom":[["TRAK2_O60296",-0.24402277643499723,-3.231765910966587,195],["ECM1_Q16610-4",-0.22170529312340698,-4.717595424223091,365],["HSF2_Q03933-2",-0.2913064640185577,-3.7508859143074655,161]]}}}
{"depmap_copy_number":{"corr":{"top":[["CCDC153_283152",0.9761184146519221,-323.0051853474518,1745],["PDZD3_79849",0.9761276978278715,-323.0051853474518,1745],["CBL_867",0.9750398160208462,-323.0051853474518,1745],["DPAGT1_1798",0.9716642940749233,-323.0051853474518,1745],["NLRX1_79671",0.9762542275666192,-323.0051853474518,1745],["ABCG4_64137",0.9762883430320823,-323.0051853474518,1745],["HYOU1_10525",0.9577598928910606,-323.0051853474518,1745],["SNORD150_109623467",0.9761184146519221,-323.0051853474518,1745],["HMBS_3145",0.9712805329371589,-323.0051853474518,1745],["HINFP_25988",0.9944878763397669,-323.0051853474518,1745],["H2AFX_3014",0.9716642940749233,-323.0051853474518,1745],["VPS11_55823",0.9672612563486922,-323.0051853474518,1745]],"bottom":[["LINC01638_105372978",-0.1379191032489354,-8.13922246406437,1745],["LOC642648_642648",-0.14379488322953973,-8.79561193365833,1745],["LOC284898_284898",-0.1391502712269738,-8.274515235878129,1745],["MIR3619_100500828",-0.13932937317227823,-8.294295579894637,1745],["LINC02554_100507657",-0.13804533390818735,-8.153039352663544,1745],["MIRLET7A3_406883",-0.13931614913552504,-8.292834234139429,1745],["LOC105372977_105372977",-0.13981450041192944,-8.348000142939354,1745],["ST13_6767",-0.1377916663776231,-8.12528618759654,1745],["LINC00899_100271722",-0.14379488322953973,-8.79561193365833,1745],["LOC730668_730668",-0.14533729445542104,-8.972413734907214,1745],["MIRLET7B_406884",-0.13945646454210167,-8.308347023455875,1745],["SLC25A17_10478",-0.13813828538429376,-8.163221553957925,1745],["MIR4763_100616143",-0.13945646454210167,-8.308347023455875,1745],["PRR34-AS1_150381",-0.14379488322953973,-8.79561193365833,1745],["MIRLET7BHG_400931",-0.13932937317227823,-8.294295579894637,1745],["PPARA_5465",-0.13851580575895656,-8.20464581988774,1745]]},"para":{"top":[["CCDC153_283152",0.9903082336444335,-323.0051853474518,1745],["PDZD3_79849",0.9903082336444335,-323.0051853474518,1745],["CBL_867",0.9898185874796195,-323.0051853474518,1745],["DPAGT1_1798",0.9952479037539733,-323.0051853474518,1745],["NLRX1_79671",0.9903082336444335,-323.0051853474518,1745],["ABCG4_64137",0.99039376646347,-323.0051853474518,1745],["HYOU1_10525",0.9866009931183001,-323.0051853474518,1745],["SNORD150_109623467",0.9903082336444335,-323.0051853474518,1745],["HMBS_3145",0.9951674498698436,-323.0051853474518,1745],["HINFP_25988",0.9966316789913233,-323.0051853474518,1745],["H2AFX_3014",0.9952479037539733,-323.0051853474518,1745],["VPS11_55823",0.9933621955094692,-323.0051853474518,1745],["SLC37A4_2542",0.9812306104724674,-323.0051853474518,1745],["RPS25_6230",0.9764420036872956,-323.0051853474518,1745]],"bottom":[["LOC642648_642648",-0.14641695186960868,-9.097287940577791,1745],["ZDHHC8P1_150244",-0.14605565874262688,-9.055397988245595,1745],["GSTT4_25774",-0.14951121940888235,-9.460278620589275,1745],["CES5AP1_649264",-0.14605565874262688,-9.055397988245595,1745],["LINC01659_101929374",-0.1440370518152106,-8.823246902255386,1745],["MIR3619_100500828",-0.14367841056053704,-8.782337150582205,1745],["MIRLET7A3_406883",-0.14367841056053704,-8.782337150582205,1745],["LINC02556_102724679",-0.14427831302203845,-8.850824260539374,1745],["LINC00899_100271722",-0.14641695186960868,-9.097287940577791,1745],["LOC730668_730668",-0.14689523424340672,-9.152900749660539,1745],["MIRLET7B_406884",-0.14276562095754064,-8.678673184292824,1745],["PRR34-AS1_150381",-0.14641695186960868,-9.097287940577791,1745],["MIRLET7BHG_400931",-0.14367841056053704,-8.782337150582205,1745]]}}}
{"depmap_gene_tpm":{"corr":{"top":[["DDX6_1656",0.4829723738143846,-75.79911078534644,1293],["DPAGT1_1798",0.5698939908488236,-111.50280874363123,1293],["TRAPPC4_51399",0.5268961798080057,-92.54277246741457,1293],["HMBS_3145",0.5774396036377754,-115.12607410266526,1293],["HINFP_25988",0.563724853220675,-108.60950827707708,1293],["VPS11_55823",0.589914534348508,-121.32783814846024,1293],["RPS25_6230",0.5168559577379818,-88.49685702263342,1293]],"bottom":[["ZFYVE16_9765",-0.1887767509924117,-11.11084649517983,1293],["IFT81_28981",-0.18010985612053715,-10.16342700422056,1293]]},"para":{"top":[["DPAGT1_1798",0.5102299348653045,-85.90002848885787,1293],["TRAPPC4_51399",0.4896612111125141,-78.19386154787215,1293],["HMBS_3145",0.541900043064688,-98.8481981762626,1293],["HINFP_25988",0.4955110898153455,-80.33225212972611,1293],["VPS11_55823",0.5270473403351879,-92.60472905864144,1293]],"bottom":[]}}}
{"avana":{"corr":{"top":[["DPAGT1_1798",0.292121099601429,-15.867969969351865,769],["HYOU1_10525",0.40672323603683763,-31.27049107666217,769],["HINFP_25988",0.26390631227289996,-12.80136859274404,757]],"bottom":[["CCDC153_283152",-0.1683642044794961,-5.5737911767847725,769],["ABCG4_64137",-0.1559068315328575,-4.8521281927645825,769],["PEX2_5828",-0.15512937159804277,-4.808872056041091,769]]},"para":{"top":[["HYOU1_10525",0.4259939108236808,-34.523909290612984,769],["TRAPPC4_51399",0.38559166462087274,-27.939482113899295,769],["HINFP_25988",0.2791794863737744,-14.293221229206583,757]],"bottom":[["IL2_3558",-0.14570172018755842,-4.300832431966286,769],["KRTAP10-9_386676",-0.14583901113730718,-4.308013154981354,769]]}}}
{"drive":{"corr":{"top":[],"bottom":[["TBC1D4_9882",-0.26394010503032933,-6.701155681379919,377]]},"para":{"top":[["HSPA8_3312",0.227973158541019,-5.14455980005291,380],["DET1_55070",0.22826085618682232,-5.119976830896601,377],["TMEM14C_51522",0.2110036908876524,-4.502729033925444,383],["HTR3B_9177",0.245882451559158,-5.870679323990675,377]],"bottom":[["TBC1D4_9882",-0.2821213274889667,-7.601950395224507,377],["DBF4_10926",-0.20632777224625454,-4.2653256284740575,377],["ACO2_50",-0.2002822194926045,-4.044907230199458,377],["KCNK15_60598",-0.22559656983470597,-5.0827181156110655,383]]}}}
{"achilles":{"corr":{"top":[["SRPRA_6734",0.4570155180126708,-26.13757043232615,494]],"bottom":[["C10orf111_221060",-0.22904935866913168,-3.9580978689366817,280],["PCMTD1_115294",-0.19904706031739558,-3.091541389752213,280],["OR2G3_81469",-0.20174723234695707,-5.207191335057633,494]]},"para":{"top":[],"bottom":[["NSUN2_54888",-0.19705205017248392,-3.0380929985981817,280]]}}}
{"ccle_rrbs_tss1kb":{"corr":{"top":[["SPON2_4_1166657_1167657",0.16254826443720122,-5.1997750696257725,764]],"bottom":[["ZPR1_11_116658754_116659754",-0.1591887201878323,-5.386499388063922,829]]},"para":{"top":[],"bottom":[["ZPR1_11_116658754_116659754",-0.18688301256946324,-7.225995606536121,829]]}}}
{"ccle_gene_tpm":{"corr":{"top":[["HINFP_ENSG00000172273.8",0.5986498208725931,-98.60690381761182,1011],["VPS11_ENSG00000160695.10",0.6235067353467996,-109.25202324555411,1011],["DPAGT1_ENSG00000172269.12",0.6095122099997036,-103.1425942942328,1011],["RPS25_ENSG00000118181.6",0.5887179789620602,-94.60921947863517,1011],["TRAPPC4_ENSG00000196655.5",0.5197382046722646,-70.309029434324,1011],["HMBS_ENSG00000256269.2",0.5877827686146544,-94.23989921928519,1011]],"bottom":[]},"para":{"top":[["HINFP_ENSG00000172273.8",0.5303736454689367,-73.69634163886192,1011],["VPS11_ENSG00000160695.10",0.5632064433604634,-84.95110417100143,1011],["DPAGT1_ENSG00000172269.12",0.554688999955752,-81.91026821653303,1011],["HMBS_ENSG00000256269.2",0.5551193949481634,-82.06182096516534,1011]],"bottom":[["LINC01010_ENSG00000236700.1",-0.20751716602907708,-10.570675837508533,1011]]}}}
{"ccle_rrbs_tss_clusters":{"corr":{"top":[],"bottom":[["CYCSP52_2",-0.214169623554239,-5.372560363979925,453]]},"para":{"top":[],"bottom":[]}}}
{"ccle_rrbs_cgi_clusters":{"corr":{"top":[["4_183064883_183068370-2",0.2258683939817596,-3.7276310205787495,269]],"bottom":[["17_42986741_42991148-2",-0.1935394145906765,-4.968963910596603,510],["14_88945862_88948537-3",-0.20869776034001283,-8.31840107868058,772]]},"para":{"top":[],"bottom":[["17_42986741_42991148-2",-0.2191254461947837,-6.235459723749512,510],["17_26709383_26714311-1",-0.2335349571435236,-10.35842689490547,777]]}}}
