{"depmap_hotspot":{"corr":{"top":[["ACTG2",0.08478878104449179,-3.368687190037071,44.0,1678.0],["ADD1",0.08945211695475246,-3.6950760597612096,69.0,1653.0],["ADRM1",0.08568684689483098,-3.430320639037747,40.0,1682.0],["BCL2L13",0.08741901474333923,-3.5508432966910872,23.0,1699.0],["C19orf26",0.08626218827733818,-3.470111797139789,51.0,1671.0],["CCDC97",0.09971569437630462,-4.469196980078138,45.0,1677.0],["CCNL1",0.09544318751223858,-4.137582397328127,53.0,1669.0],["CLDN1",0.09077254445343295,-3.7903572028211796,28.0,1694.0],["CNIH1",0.11327087572056317,-5.610646618043104,15.0,1707.0],["CSDC2",0.10309918311487717,-4.74134531256038,13.0,1709.0],["EYA3",0.08878004413243124,-3.6470660732133817,35.0,1687.0],["FUZ",0.09934835580833562,-4.440158462328707,31.0,1691.0],["GOLPH3L",0.13677530689969056,-7.917544839752607,27.0,1695.0],["GPR85",0.08641752192268101,-3.4808958233221263,56.0,1666.0],["GREM1",0.08602124928271834,-3.4534191250373474,17.0,1705.0],["HES5",0.1117211172903956,-5.473217926964369,8.0,1714.0],["HIST1H2BH",0.13680598007419364,-7.920830909247336,24.0,1698.0],["HTATIP2",0.08864388041606708,-3.637379050816335,24.0,1698.0],["LIAS",0.11494874147934483,-5.7614646250465835,24.0,1698.0],["LINC00955",0.09371207382155611,-4.007030161253656,30.0,1692.0],["MRPL1",0.1011758553271102,-4.585607481170661,24.0,1698.0],["MRPS16",0.16972250553353166,-11.870493244610987,12.0,1710.0],["NIP7",0.09238307790937468,-3.9082894979283487,13.0,1709.0],["NUDT3",0.13291276087248322,-7.509528441307829,20.0,1702.0],["OIP5",0.086867793710048,-3.5122544785629337,21.0,1701.0],["ONECUT1",0.08781919198284434,-3.578995935132035,48.0,1674.0],["OR56A1",0.14918839274154594,-9.306883493495343,40.0,1682.0],["PDK4",0.11342315433650148,-5.624247353999501,41.0,1681.0],["PEX14",0.09972126040866,-4.46963774530812,42.0,1680.0],["PIGF",0.10078623494163982,-4.554391440628161,13.0,1709.0],["POLR2G",0.092882275356836,-3.9452273106444293,13.0,1709.0],["PPP1R14D",0.10321414429473515,-4.7507406859730095,9.0,1713.0],["PRR3",0.16162518450975832,-10.819688729870585,16.0,1706.0],["PTGES3",0.08498190615265683,-3.3818920809795854,14.0,1708.0],["PTHLH",0.17609694405657625,-12.734648869808764,16.0,1706.0],["QDPR",0.11516838509167875,-5.781364065856059,22.0,1700.0],["RFT1",0.09168556885865908,-3.85698203865717,39.0,1683.0],["RGMB",0.08846998981409378,-3.62502759581759,42.0,1680.0],["RIMKLB",0.08541229202189131,-3.4114164189186615,39.0,1683.0],["S100A10",0.21727225030582645,-19.119171560354037,11.0,1711.0],["SDF2L1",0.16862716805162978,-11.725288033656165,13.0,1709.0],["SERF2",0.0969257746812725,-4.251136313033987,13.0,1709.0],["SERPINB2",0.08513224824114787,-3.392190313599923,40.0,1682.0],["SIPA1L1",0.08687206331256261,-3.5125525318151856,177.0,1545.0],["SLC25A29",0.09071912510067368,-3.7864778953064704,50.0,1672.0],["SNAP23",0.10917941516223545,-5.251713338236486,8.0,1714.0],["TBC1D31",0.08608157390078053,-3.4575945831858137,76.0,1646.0],["TMEM91",0.09060590360251024,-3.7782626249281956,23.0,1699.0],["TMPRSS11B",0.08832979559960297,-3.6150855601135095,53.0,1669.0],["TSLP",0.08980389109749136,-3.7203360289551464,13.0,1709.0],["TTC9",0.10113781461194649,-4.582554758835705,22.0,1700.0],["U82695.9",0.10044380727592862,-4.5270488862530325,14.0,1708.0],["UCK1",0.09598302423443072,-4.178742908612592,41.0,1681.0],["YARS",0.09342483897444061,-3.9855802008585144,46.0,1676.0],["ZFAND3",0.08557610125448116,-3.422688802895124,29.0,1693.0],["ZNF708",0.09961665262858548,-4.461357837229654,60.0,1662.0]],"bottom":[["NOTCH4",-0.07724921808342773,-2.874109536509595,156.0,1566.0],["TANC1",-0.08631024237881081,-3.4734460863767116,159.0,1563.0],["TMCO4",-0.07491907802736895,-2.729472267431282,72.0,1650.0]]},"para":{"top":[["FDCSP",0.060882469811841866,-2.2382288976258096,13.0,1709.0],["GSKIP",0.06367016470715109,-2.383872354693019,18.0,1704.0],["SPAG11A",0.07147567009369545,-2.8199813200147874,24.0,1698.0]],"bottom":[["C4B",-0.07133002237660505,-2.811439117119043,21.0,1701.0],["HIST1H2AB",-0.06636651025104001,-2.5297403437946655,16.0,1706.0],["IFNA21",-0.06354718075847639,-2.377328481414061,17.0,1705.0],["PRR13",-0.06979898650511968,-2.7227354747059547,20.0,1702.0],["RP11-385D13.1",-0.056818152115045636,-2.035462224952993,14.0,1708.0],["TMEM220",-0.0741298768547595,-2.9778327651922436,19.0,1703.0]]}}}
{"depmap_damaging":{"corr":{"top":[["ASIC3",0.11304893456539963,-5.587945196735638,10.0,1711.0],["ATG4C",0.07710033525107875,-2.8633488675955046,12.0,1709.0],["BAZ2A",0.07684763524708672,-2.8475118617762076,13.0,1708.0],["CKAP2L",0.14196431191508652,-8.479243777013359,8.0,1713.0],["CLCN3",0.07884986740821692,-2.974241690161517,17.0,1704.0],["CR1L",0.10224134650076332,-4.669148929042681,9.0,1712.0],["DIAPH2",0.08620635219857803,-3.4645082127872846,14.0,1707.0],["DSG4",0.09688676818926169,-4.245965969226869,9.0,1712.0],["ELTD1",0.08424132363587175,-3.3297434043612912,17.0,1704.0],["ENTPD4",0.08581700288027722,-3.437584749085104,11.0,1710.0],["FAM47A",0.09576790107939555,-4.16020034433098,9.0,1712.0],["GATA3",0.13012856721999178,-7.2186956850544,12.0,1709.0],["HEATR5B",0.07428386629603823,-2.6894024191406936,55.0,1666.0],["HNRNPUL2",0.09458974292972323,-4.07088053623173,13.0,1708.0],["LPHN2",0.08689541066444567,-3.5124248969673566,24.0,1697.0],["MAP4K3",0.09543521969616382,-4.134875840160845,15.0,1706.0],["MAZ",0.08054737457594742,-3.083925249683982,8.0,1713.0],["MIPEP",0.09552988336487371,-4.142073618993137,10.0,1711.0],["MYO1C",0.12681925633102692,-6.885454402312882,17.0,1704.0],["NFKB1",0.07558395061275977,-2.768996461149945,10.0,1711.0],["PCDH7",0.08355393269631055,-3.283257849752714,25.0,1696.0],["PLD2",0.16817458690358325,-11.65921955157509,9.0,1712.0],["PVRIG",0.125896407611749,-6.794013026729202,13.0,1708.0],["SLC12A2",0.08149879161144076,-3.146302206273278,18.0,1703.0],["SLC9A2",0.12474261681426614,-6.680599279264276,12.0,1709.0],["ST3GAL4",0.227894118892683,-20.985912943274336,9.0,1712.0],["STRBP",0.09939975148533496,-4.441944598214152,13.0,1708.0],["TDRD1",0.09039133819833317,-3.760825273947432,35.0,1686.0],["TMEM175",0.1273674613367261,-6.940080689824259,8.0,1713.0],["TTC16",0.0756063016887632,-2.7703753262355195,15.0,1706.0],["TUBGCP4",0.16272136035046023,-10.952937108807005,12.0,1709.0],["ZFAT",0.13784164238710891,-8.027923639503143,11.0,1710.0],["ZNF347",0.08434537596737225,-3.336809694022497,14.0,1707.0],["ZNF778",0.2471929865489273,-24.6480082848788,8.0,1713.0],["ZNF99",0.11346361733132722,-5.624933595830242,13.0,1708.0]],"bottom":[["DPP4",-0.06264539678683688,-2.0298476990997227,18.0,1703.0],["ITGAV",-0.0609391132550381,-1.9410857203523033,14.0,1707.0]]},"para":{"top":[["CRYBA1",0.05310536010180748,-1.85917855160139,8.0,1713.0],["EDN3",0.07921528055335182,-3.2923961979249743,8.0,1713.0],["NDUFV1",0.048436919511036854,-1.6517725359019992,9.0,1712.0],["PVRIG",0.06689956629471501,-2.5580597145656707,13.0,1708.0],["RNF133",0.05952049315877493,-2.1680875983906542,9.0,1712.0],["SLC8A3",0.05257197624867138,-1.8347660037741587,9.0,1712.0],["SPRYD3",0.06559719889538469,-2.4864319870345684,8.0,1713.0],["ZFAT",0.0712393259498196,-2.804813275424954,11.0,1710.0]],"bottom":[["C2orf73",-0.0826943355024238,-3.519177920893899,14.0,1707.0],["IGSF9",-0.08083860900227344,-3.397276296893536,18.0,1703.0],["ITGAV",-0.0765485747785781,-3.1245444608822757,14.0,1707.0],["NEK11",-0.08668238605011325,-3.7894405080139815,13.0,1708.0],["OR4P4",-0.07228222593654157,-2.866123399730413,15.0,1706.0],["RANBP17",-0.06173702297087254,-2.281268476528876,8.0,1713.0],["RRNAD1",-0.06845149378834244,-2.644714415645049,8.0,1713.0],["STAC3",-0.06158227204294108,-2.273256133130446,8.0,1713.0]]}}}
{"ccle_rppa":{"corr":{"top":[["RPS6KB1_p70S6K",0.46758269638488104,-49.193166646107926,897]],"bottom":[]},"para":{"top":[["RPS6KB1_p70S6K",0.34280151274404813,-25.40819979196333,897],["RPS6KB1_p70S6K_pT389",0.21644402415146807,-10.243720607923729,897]],"bottom":[]}}}
{"ccle_rrbs_enhancer_clusters":{"corr":{"top":[["18-73568346-73573156-1_enh",0.17463326237168453,-6.285610346344614,816]],"bottom":[]},"para":{"top":[],"bottom":[]}}}
{"prism_primary_logfold":{"corr":{"top":[["MK-1775_BRD-K54256913-001-08-7::2.5::HTS",0.16029392172105722,-3.8200734254277746,554]],"bottom":[["proglumide_BRD-A44863528-001-13-2::2.5::HTS",-0.11250888536697387,-2.079544778934706,549]]},"para":{"top":[],"bottom":[["2-ethyl-1,3-hexanediol_BRD-A55455283-001-01-3::2.5::HTS",-0.14777375503116075,-3.171058339350915,526],["rostafuroxine_BRD-K11672787-001-01-5::2.5::HTS",-0.14386725534251407,-3.175277866721746,556],["octreotide_BRD-A64173453-015-02-3::2.500011906::MTS004",-0.12430542373902555,-2.4111513340317883,538]]}}}
{"prism_secondary_logfold":{"corr":{"top":[["oxyphencyclimine_BRD-A58193911-003-18-7::2.5::HTS002",0.15898191220669342,-3.2487472801480006,467],["digoxin_BRD-A94756469-001-04-7::10::HTS002",0.16045531160154913,-3.1793693870332143,447],["ouabain_BRD-K33277808-331-01-3::2.5::HTS002",0.16088270091634296,-2.9052491461633605,400]],"bottom":[["CGS-15943_BRD-K49049886-001-08-7::0.15625::HTS002",-0.15859261099916022,-3.2231246347406484,465]]},"para":{"top":[["BI-2536_BRD-K64890080-001-13-8::0.0390625::HTS002",0.1765220828770675,-3.900434893256297,467],["volasertib_BRD-K69776681-001-03-8::0.15625::HTS002",0.15799729027770257,-3.1313958770736914,453]],"bottom":[]}}}
{"ccle_proteomics":{"corr":{"top":[["RPS6KB1_P23443",0.47148317903304726,-21.369636063881817,374],["TTC39A_Q5SRH9-4",0.333046375026299,-4.0745276839393965,134],["USP32_Q8NFA0",0.3623081718085556,-11.195871956408741,338],["JMJD4_Q9H9V9",0.3795964419937601,-5.81461977074308,151],["HEATR6_Q6AI08",0.4496227983148138,-16.652815826419356,321],["BCAS3_Q9H6U6-8",0.35760952815594216,-10.694509666246153,331]],"bottom":[["FANCG_O15287",-0.36233517799758663,-5.6023656602092995,160],["SON_P18583-3",-0.4277586113895142,-6.914097384137284,141],["CCDC82_Q8N4S0",-0.26796097842366096,-6.107028626052564,330],["TEAD4_Q15561",-0.41894375816442064,-8.574702141132684,186]]},"para":{"top":[["USP32_Q8NFA0",0.31300058317616464,-8.391041676160903,338],["PCDH19_Q8TAB3",0.2940300819549046,-2.6966865992912825,108],["BCAS3_Q9H6U6-8",0.3630282007858865,-11.021361284063723,331],["C16orf70_Q9BSU1",0.29672461008996004,-7.405784507735716,330]],"bottom":[["TOE1_Q96GM8",-0.23504861636057628,-5.363641973316795,374]]}}}
{"depmap_copy_number":{"corr":{"top":[["LINC01999_388406",0.9248011247869194,-323.0051853474518,1745],["RNFT1-DT_101927755",0.9860659069048129,-323.0051853474518,1745],["TBC1D3P1-DHX40P1_653645",0.9793630118238689,-323.0051853474518,1745],["WFDC21P_645638",0.9936999195237113,-323.0051853474518,1745],["LOC653653_653653",0.9936999195237113,-323.0051853474518,1745],["SCARNA20_677681",0.9891199859288643,-323.0051853474518,1745],["LOC105371849_105371849",0.9936999195237113,-323.0051853474518,1745],["C17orf64_124773",0.9367278759292078,-323.0051853474518,1745],["USP32_84669",0.9538822280197127,-323.0051853474518,1745],["APPBP2_10513",0.9362102627483487,-323.0051853474518,1745],["RPS6KB1_6198",0.9526502961335258,-323.0051853474518,1745],["BCAS3_54828",0.9243785043584924,-323.0051853474518,1745],["RNFT1_51136",0.9727964838389115,-323.0051853474518,1745],["PPM1D_8493",0.9248011247869194,-323.0051853474518,1745],["MIR4737_100616210",0.9908451233669257,-323.0051853474518,1745],["HEATR6_63897",0.9908451233669257,-323.0051853474518,1745]],"bottom":[]},"para":{"top":[["LINC01999_388406",0.9766801562153524,-323.0051853474518,1745],["RNFT1-DT_101927755",0.9836768196553601,-323.0051853474518,1745],["TBC1D3P1-DHX40P1_653645",0.9831603325723441,-323.0051853474518,1745],["LOC653653_653653",0.9916441429301814,-323.0051853474518,1745],["WFDC21P_645638",0.9916441429301814,-323.0051853474518,1745],["SCARNA20_677681",0.9951026125577028,-323.0051853474518,1745],["LOC105371849_105371849",0.9916441429301814,-323.0051853474518,1745],["C17orf64_124773",0.9845545540601163,-323.0051853474518,1745],["USP32_84669",0.9918645324111971,-323.0051853474518,1745],["APPBP2_10513",0.9828118594590597,-323.0051853474518,1745],["RPS6KB1_6198",0.9722362517127833,-323.0051853474518,1745],["BCAS3_54828",0.9743931242044663,-323.0051853474518,1745],["RNFT1_51136",0.979125716279145,-323.0051853474518,1745],["PPM1D_8493",0.9766801562153524,-323.0051853474518,1745],["MIR4737_100616210",0.9887839717729277,-323.0051853474518,1745],["HEATR6_63897",0.9887839717729277,-323.0051853474518,1745]],"bottom":[]}}}
{"depmap_gene_tpm":{"corr":{"top":[["USP32_84669",0.4476054049447408,-63.984130436858166,1293],["APPBP2_10513",0.4010456119451077,-50.415926775762756,1293],["TUBD1_51174",0.42298103885536437,-56.543228983107,1293],["HEATR6_63897",0.4708935665973409,-71.60697132125733,1293],["RPS6KB1_6198",0.4887753117688804,-77.87362928617864,1293]],"bottom":[["PPARA_5465",-0.17303244580246085,-9.423579653510279,1293]]},"para":{"top":[["USP32_84669",0.4003121369756987,-50.21885106218619,1293],["RPS6KB1_6198",0.4121437711865313,-53.45893201263724,1293],["HEATR6_63897",0.42973357140485546,-58.52287677823831,1293]],"bottom":[["TMEM217_221468",-0.17443005792920926,-9.56728685537144,1293]]}}}
{"avana":{"corr":{"top":[["CTLA4_1493",0.19655832088337208,-7.4095221905208035,769],["ATOH1_474",0.22385814138813187,-9.463403573461633,769],["LLCFC1_135927",0.22203343736482078,-9.317417500351272,769],["KIAA0586_9786",0.24561048112914124,-11.302213287530435,769]],"bottom":[["PPM1E_22843",-0.2894855395228278,-15.585261641324347,769],["TBX2_6909",-0.24282290054292943,-11.056301352158192,769],["ESR1_2099",-0.25929458674024813,-12.554013245210733,769],["ADAM17_6868",-0.21831464453247904,-9.023797625579322,769],["APPBP2_10513",-0.23122444420174124,-10.065652634037042,769],["SKA2_348235",-0.20670098248060315,-8.140256577161345,769],["BCAS3_54828",-0.23965019179185756,-10.78011833958538,769],["RNFT1_51136",-0.23503563874201136,-10.38542127440894,769],["BMP7_655",-0.21655776256794063,-8.886896538033259,769],["ZNF831_128611",-0.23993664436210824,-10.804892487449612,769]]},"para":{"top":[["POLG2_11232",0.21329442386903374,-8.635684933321429,769]],"bottom":[["TAOK3_51347",-0.14096384294571532,-4.056942940757954,769]]}}}
{"drive":{"corr":{"top":[["FASN_2194",0.2147510141325309,-4.7340717215207535,391],["CD244_51744",0.21690080949826648,-4.666458364169438,377],["RPL22_6146",0.2617343308313154,-6.596324078531804,377],["USP28_57646",0.25913191727831,-6.645778426474721,388]],"bottom":[["KATNB1_10300",-0.21954932750237585,-4.80385723644769,380],["ESR1_2099",-0.26529406541874734,-6.995320250699063,391],["NDUFS7_374291",-0.22446894874250847,-4.965974616387426,377],["SREK1_140890",-0.21768018616353266,-4.696822576184297,377],["PALB2_79728",-0.23541206568137463,-5.4176330963516195,377],["TFAM_7019",-0.28245647034671456,-7.6749776580248525,380],["PDHB_5162",-0.31481049746502104,-9.391972788474915,377],["BCCIP_56647",-0.23026142035447192,-5.202292752032511,377]]},"para":{"top":[],"bottom":[["NADK_65220",-0.24171910639177271,-5.688062391218889,377]]}}}
{"achilles":{"corr":{"top":[["OSBPL9_114883",0.21025664981448886,-3.401431759998887,280]],"bottom":[["ATP6AP1L_92270",-0.1883294097048813,-2.8103769451267064,280],["HADHB_3032",-0.23647425479486786,-6.979643005143605,494],["FOXA1_3169",-0.29889442073927314,-10.92643355388496,494]]},"para":{"top":[["SLCO4A1_28231",0.23388202492845242,-6.8372684091819345,494],["ING4_51147",0.23829012313520995,-4.249276436225819,280]],"bottom":[["SDR39U1_56948",-0.19876334096382695,-3.083909053287123,280],["SPRR2D_6703",-0.21965696397537218,-3.6739974374329507,280]]}}}
{"ccle_rrbs_tss1kb":{"corr":{"top":[["ODC1_2_10587925_10588925",0.19767469650960756,-8.040696786488198,831]],"bottom":[["LOC644762_5_149312540_149313540",-0.1533628055199357,-5.0526581206430405,832]]},"para":{"top":[],"bottom":[]}}}
{"ccle_gene_tpm":{"corr":{"top":[["RPS6KB1_ENSG00000108443.9",0.5247128905840353,-71.87845594748782,1011],["TUBD1_ENSG00000108423.10",0.4515499371370272,-51.217583507665466,1011],["HEATR6_ENSG00000068097.10",0.4899522588092166,-61.43650126459562,1011],["APPBP2_ENSG00000062725.5",0.4447717325136531,-49.54535426741994,1011],["USP32_ENSG00000170832.8",0.47776141196637106,-58.05049470564099,1011]],"bottom":[["C1RL_ENSG00000139178.6",-0.18441456374886342,-8.458374132151928,1011],["PPARA_ENSG00000186951.12",-0.21692092221036186,-11.504921916314432,1011]]},"para":{"top":[["RPS6KB1_ENSG00000108443.9",0.4212815170893523,-44.034759895882,1011],["HEATR6_ENSG00000068097.10",0.4536483566968059,-51.74297480965869,1011],["USP32_ENSG00000170832.8",0.4289413699681391,-45.78421332276159,1011]],"bottom":[]}}}
{"ccle_rrbs_tss_clusters":{"corr":{"top":[["C1RL_2",0.23354885953601176,-11.155651426898975,841],["DERL3_3",0.20466558871429957,-8.56361037808199,829],["HSPA4_1",0.2948152294762819,-16.62040662071967,792],["OSBPL3_4",0.3909216108651541,-31.40537736414142,842],["PLEKHH3_3",0.2354610943836675,-6.102792219328234,430],["CYP4F29P_2",0.21293438530893585,-6.510245669647283,567],["RET_6",0.36411913193647133,-26.321640592433614,818]],"bottom":[["LRPAP1_1",-0.2401139713410159,-5.20147388358542,346],["TMEM211_2",-0.2320047231607723,-8.320452078677752,622],["RGL2_3",-0.26525533131512086,-9.615420688747996,552]]},"para":{"top":[["PLEKHH3_3",0.1913225790910596,-4.184999967080121,430],["TEX35_3",0.17844156072603165,-4.487673308699657,536],["LINC00908_3",0.1755013252058328,-6.4345703190941785,829],["BTK_1",0.2170578153887004,-5.625960059906464,464]],"bottom":[]}}}
{"ccle_rrbs_cgi_clusters":{"corr":{"top":[["2_10585827_10588491-3",0.27349171395711985,-15.149756109120299,840],["19_7853744_7856557-2",0.2177832095234621,-5.121010300621992,415],["5_132385100_132387734-1",0.2948152294762819,-16.62040662071967,792],["7_25019013_25023520-1",0.3958271016248039,-32.243563755732126,842],["10_43600656_43603165-3",0.36411913193647133,-26.321640592433614,818],["7_25016999_25019627-3",0.3481190505660406,-24.55594938914821,838]],"bottom":[["4_3531643_3534215-2",-0.2401139713410159,-5.20147388358542,346],["11_72525551_72528098-3",-0.23959830795103854,-11.679453026970332,838],["6_41618950_41623262-3",-0.24727146624918692,-4.052074291095836,246],["6_33266942_33269582-2",-0.26525533131512086,-9.615420688747996,552],["10_81000109_81002898-1",-0.21505713301932647,-9.41396669856142,830],["17_80555446_80559686-3",-0.2833926424718718,-9.124412425242026,455],["16_88107923_88112535-2",-0.2620986544349121,-13.385767539366737,805]]},"para":{"top":[["10_21786633_21791588-3",0.18820065238150202,-4.494076145437612,482],["5_1481763_1486069-1",0.2481714048906048,-3.624307477891008,215],["7_6655303_6657860-3",0.177910596103357,-3.8065417591116617,447]],"bottom":[]}}}
