{"depmap_hotspot":{"corr":{"top":[["AIP",0.08195303228913577,-3.177885859223727,31.0,1691.0],["BCKDHB",0.07226811993813355,-2.569604045442473,41.0,1681.0],["C12orf61",0.09702956275093627,-4.2591459905413425,13.0,1709.0],["DPPA2",0.08061425359097567,-3.089814665440862,40.0,1682.0],["FAM24A",0.08274271754114725,-3.2304382129283304,14.0,1708.0],["FANCD2OS",0.09643450863012672,-4.21333087940935,11.0,1711.0],["KRTAP19-5",0.1285779776895175,-7.065253097864119,12.0,1710.0],["LAMP2",0.08602556001747416,-3.4537174117324447,25.0,1697.0],["MDK",0.07110641553429174,-2.5011115063769913,18.0,1704.0],["MRPL52",0.06676146089434554,-2.2533497032640226,15.0,1707.0],["OR11A1",0.06926474024418017,-2.394476354978089,32.0,1690.0],["OR1G1",0.09556985451292156,-4.147221109487685,30.0,1692.0],["OR2F2",0.06755287684934584,-2.2974928986487715,47.0,1675.0],["OR9I1",0.07609243377936152,-2.8018227658975974,54.0,1668.0],["RETN",0.09101597556573209,-3.808061431637358,11.0,1711.0],["RGS17",0.07648881306085108,-2.826485042877634,25.0,1697.0],["TBC1D1",0.07366450865549737,-2.6531944543980295,104.0,1618.0],["VSTM5",0.08970540826895142,-3.713255178833086,22.0,1700.0],["ZNF414",0.07497928556078629,-2.7331609445602716,32.0,1690.0]],"bottom":[["ACAA1",-0.06404488721977197,-2.105150022185759,32.0,1690.0],["BCDIN3D",-0.08295690528489123,-3.2447693321204807,13.0,1709.0],["CAMK2A",-0.06843216270127762,-2.347051187767134,35.0,1687.0],["DAB2",-0.08309585456201908,-3.254083949266954,88.0,1634.0],["DPY19L1",-0.07364597476759949,-2.652075951256194,59.0,1663.0],["ENO2",-0.08474732584663204,-3.365856205410331,31.0,1691.0],["KIF17",-0.07909601665769281,-2.9914912667794953,112.0,1610.0],["LIM2",-0.09413022578544034,-4.03836442247973,38.0,1684.0],["LTBP2",-0.07369941120014215,-2.655301451061518,144.0,1578.0],["PSMG1",-0.06936376041992609,-2.4001490929719895,24.0,1698.0],["SMDT1",-0.0654289768304314,-2.1800151613796004,12.0,1710.0],["ST3GAL6",-0.06674708567269944,-2.2525519373026825,38.0,1684.0],["UFD1L",-0.06517169571025057,-2.165998016038877,17.0,1705.0]]},"para":{"top":[["C17orf67",0.059698738356999154,-2.1779976364469555,12.0,1710.0],["KRTAP19-5",0.08081307689375479,-3.3970603627279647,12.0,1710.0]],"bottom":[["APOO",-0.06989162112357776,-2.728019270290802,16.0,1706.0],["C11orf65",-0.08924146175725936,-3.970785401723238,29.0,1693.0],["C1orf122",-0.06687942108548621,-2.558067354699638,17.0,1705.0],["DEFB118",-0.06974880778705052,-2.7198081432851824,15.0,1707.0],["DPY30",-0.05507141907009462,-1.951725705031609,12.0,1710.0],["FRAT1",-0.05859400140540717,-2.1226844198436887,14.0,1708.0],["KRTAP29-1",-0.06657359555629992,-2.541151405233604,16.0,1706.0],["PDXK",-0.08767584884351727,-3.8603550707432555,17.0,1705.0],["UFD1L",-0.07125139737552684,-2.806810389312242,17.0,1705.0]]}}}
{"depmap_damaging":{"corr":{"top":[["ABCG2",0.05954618468191842,-1.870113007104862,19.0,1702.0],["ANKRD11",0.10270689809852203,-4.706940815451402,54.0,1667.0],["CYP26A1",0.08234223775563092,-3.2021429794664726,10.0,1711.0],["EGFL7",0.061193366470476976,-1.9541846972416375,8.0,1713.0],["GLRB",0.07219055441091125,-2.5637593482006396,14.0,1707.0],["GRID2IP",0.0809982412848523,-3.1134042119222434,11.0,1710.0],["LRCH2",0.0764606780019741,-2.8233488320424027,14.0,1707.0],["MAOA",0.09743863486054687,-4.288606723213484,8.0,1713.0],["MICALCL",0.07707349272408875,-2.8616644579020902,10.0,1711.0],["MYO1D",0.095558598093087,-4.144258247995826,29.0,1692.0],["NBPF14",0.08271086154570861,-3.2267082338180373,13.0,1708.0],["NISCH",0.07763813516779752,-2.8972047267415033,15.0,1706.0],["OR5K3",0.06747067811924648,-2.2917915420019614,8.0,1713.0],["PEG3",0.07312105452855769,-2.6192266884666626,27.0,1694.0],["PKD1L1",0.059616478573025176,-1.873662653197459,38.0,1683.0],["POLR3A",0.11410720251547123,-5.682594477326832,8.0,1713.0],["PTOV1",0.09970839726462156,-4.466334860431725,8.0,1713.0],["SHROOM2",0.10302138386084955,-4.732560328438137,14.0,1707.0],["SLAMF6",0.08177092805341547,-3.164263371680465,10.0,1711.0],["WDR70",0.060405486691899046,-1.9137384776542437,54.0,1667.0],["ZHX2",0.07194715115230789,-2.5493508557814386,11.0,1710.0],["ZNF365",0.09653156020317054,-4.218638470423109,19.0,1702.0],["ZNF800",0.07548507075574687,-2.762900696705465,59.0,1662.0]],"bottom":[["FBXO16",-0.05559186077305034,-1.6758813615120767,9.0,1712.0],["MAPK13",-0.07087843341662663,-2.486581255086964,8.0,1713.0],["NPVF",-0.06279240485211006,-2.037589315295966,8.0,1713.0],["OTOF",-0.08575915490498258,-3.433593905162153,21.0,1700.0],["SLC39A5",-0.08270278732882191,-3.2261691190637616,10.0,1711.0]]},"para":{"top":[["CYP26A1",0.053158803912776144,-1.8616789388940655,10.0,1711.0]],"bottom":[["CCDC160",-0.0949416331821814,-4.3850317413566495,19.0,1702.0],["MAPK13",-0.0574126710686233,-2.063506475562296,8.0,1713.0],["NPVF",-0.061324435868896396,-2.2599427590475063,8.0,1713.0],["RAVER2",-0.06605863927903838,-2.5117097120139786,11.0,1710.0],["SLC39A5",-0.08525875034845452,-3.691607030761253,10.0,1711.0]]}}}
{"ccle_rrbs_enhancer_clusters":{"corr":{"top":[],"bottom":[["4-85243591-85248555-2_enh",-0.128145626208255,-3.511792843289898,789]]},"para":{"top":[["4-124384941-124388454-0_enh",0.13993157395499572,-3.991165231339007,766]],"bottom":[]}}}
{"ccle_mirna":{"corr":{"top":[],"bottom":[["hsa-miR-384_miR00355.1",-0.10783895029887854,-3.0626740045040965,951]]},"para":{"top":[],"bottom":[["ebv-miR-BART22_miR00741.1",-0.11137446909638654,-3.2365592429489585,951]]}}}
{"prism_primary_logfold":{"corr":{"top":[["fesoterodine_BRD-K46731503-050-01-8::2.5::HTS",0.12042263038819447,-2.353944066211576,557],["clomipramine_BRD-K52989797-003-26-4::2.5::HTS",0.10996427516412,-2.03298059417155,559]],"bottom":[["homatropine_BRD-A74975734-004-10-7::2.5::HTS",-0.15159020893398803,-3.465057991365382,554],["PLX-4720_BRD-K16478699-001-09-2::2.5::HTS",-0.17352491783666396,-4.374653476021686,551],["GDC-0879_BRD-K67578145-001-12-1::2.5::HTS",-0.1408537619729256,-3.038442751037993,551],["edoxudine_BRD-K86892782-001-17-0::2.5::HTS",-0.14935437774403507,-3.319112618781848,543]]},"para":{"top":[["naringenin_BRD-K08832567-001-11-5::2.5::HTS",0.1270284689671463,-2.4922600846306153,536],["RS-39604_BRD-K20742498-003-02-9::2.5::HTS",0.15117991065267716,-3.4541478787348288,555]],"bottom":[["homatropine_BRD-A74975734-004-10-7::2.5::HTS",-0.17085789895183384,-4.276106398441677,554],["BRL-50481_BRD-K84266862-001-03-2::2.5::HTS",-0.13776463758534271,-2.938971782623108,554]]}}}
{"prism_secondary_logfold":{"corr":{"top":[["GW-501516_BRD-K14880289-001-02-2::0.15625::HTS002",0.1610524366435207,-3.23661257315167,453]],"bottom":[["lenalidomide_BRD-A17883755-001-06-1::10::HTS002",-0.18126169814185863,-4.126001197997497,472],["ketoconazole_BRD-A38350138-001-04-9::0.15625::HTS002",-0.23636698008713325,-4.949259991350035,338],["meclizine_BRD-A50311610-300-10-4::10::HTS002",-0.1689672752155782,-3.2350143138602614,411],["bumetanide_BRD-K38197229-001-29-9::10::HTS002",-0.19869074218459867,-3.260713015677913,299],["riociguat_BRD-K84783599-001-01-0::2.5::HTS002",-0.19072965412055995,-4.059809306763722,418],["OSI-027_BRD-K87124298-001-03-4::0.625::HTS002",-0.17103049019159405,-3.751211091451553,476]]},"para":{"top":[["ubenimex_BRD-K59574735-001-11-8::0.0390625::HTS002",0.19105161890538178,-2.7840220425824067,269],["PF-04457845_BRD-K86816506-001-01-8::0.00976562::HTS002",0.16734116074215763,-3.5973672617294064,474]],"bottom":[["SB-205384_BRD-A22707317-001-10-8::0.00061034::HTS002",-0.1575397500657637,-3.2449172141489884,475],["ketoconazole_BRD-A38350138-001-04-9::0.15625::HTS002",-0.1652508316553026,-2.6373221854804014,338],["norethindrone_BRD-K92073408-001-16-5::10::HTS002",-0.20218160357229262,-3.196044631807667,282]]}}}
{"ccle_proteomics":{"corr":{"top":[["PCDHGC4_Q9Y5F7",0.2667952863023271,-4.279887472451715,224],["CMTM7_Q96FZ5",0.30782454080043237,-5.16984090535877,206]],"bottom":[["DOCK8_Q8NF50",-0.22557132997785564,-3.1487692509884337,222]]},"para":{"top":[["ATG9A_Q7Z3C6",0.2826805199045581,-7.574805392598282,374]],"bottom":[["DOCK8_Q8NF50",-0.2319385223449887,-3.3061729533921933,222],["ATP8B3_O60423-1",-0.2263872182709372,-2.170963377318573,142]]}}}
{"depmap_copy_number":{"corr":{"top":[["ACSL3_2181",0.939965110747599,-323.0051853474518,1745],["CCDC140_151278",1.0,-323.0051853474518,1745],["SCG2_7857",0.9129606623770636,-323.0051853474518,1745],["FARSB_10056",0.9489360074587723,-323.0051853474518,1745],["SGPP2_130367",0.9744217527672527,-323.0051853474518,1745],["MOGAT1_116255",0.9486574585535089,-323.0051853474518,1745],["KCNE4_23704",0.9507926170261436,-323.0051853474518,1745],["AP1S3_130340",0.907595628802572,-323.0051853474518,1745],["PAX3_5077",0.9794403037129389,-323.0051853474518,1745]],"bottom":[]},"para":{"top":[["ACSL3_2181",0.9860632266705522,-323.0051853474518,1745],["WDFY1_57590",0.9657298880709674,-323.0051853474518,1745],["SCG2_7857",0.9725624558645685,-323.0051853474518,1745],["FARSB_10056",0.9892728593237272,-323.0051853474518,1745],["SERPINE2_5270",0.9621228593324774,-323.0051853474518,1745],["SGPP2_130367",0.9974396448467738,-323.0051853474518,1745],["KCNE4_23704",0.9860895421615571,-323.0051853474518,1745],["MRPL44_65080",0.9621228593324774,-323.0051853474518,1745],["MOGAT1_116255",0.9892724353109282,-323.0051853474518,1745],["AP1S3_130340",0.970171253395856,-323.0051853474518,1745],["FAM124B_79843",0.963334887060228,-323.0051853474518,1745],["PAX3_5077",0.9906514281009434,-323.0051853474518,1745],["CUL3_8452",0.9620741452849828,-323.0051853474518,1745],["EPHA4_2043",0.9750367938782839,-323.0051853474518,1745]],"bottom":[]}}}
{"depmap_gene_tpm":{"corr":{"top":[["WDFY1_57590",0.3727723107390846,-43.1692880952745,1293],["FARSB_10056",0.3657109737440524,-41.4684031188444,1293],["MRPL44_65080",0.5021748331386224,-82.81927618709828,1293]],"bottom":[]},"para":{"top":[["WDFY1_57590",0.3670625864726316,-41.79069170229304,1293],["MRPL44_65080",0.49778422698896163,-81.17444945946008,1293]],"bottom":[["IFI30_10437",-0.21010534777887035,-13.63977125903325,1293]]}}}
{"avana":{"corr":{"top":[["GNAI3_2773",0.1467979138492548,-4.358345276976338,769],["COPS7A_50813",0.23051584315147075,-10.00681607220567,769]],"bottom":[["DCLRE1B_64858",-0.16447966559713684,-5.342963374315291,769],["CSTL1_128817",-0.1453169384794206,-4.280741332295664,769],["MOGAT1_116255",-0.1497494827950158,-4.515236628147122,769],["E4F1_1877",-0.1457237646129896,-4.242957056890058,757],["MYOD1_4654",-0.15243464654886574,-4.59616891687631,757],["AP1S3_130340",-0.17118553148656424,-5.744755755104366,769],["PAX3_5077",-0.23411568797073423,-10.307721898868557,769]]},"para":{"top":[],"bottom":[["C17orf99_100141515",-0.14997202175746893,-4.527186263491994,769],["ZNF605_100289635",-0.18085575838186385,-6.352072918338808,769],["AP1S3_130340",-0.1588276362137683,-5.016498348087122,769],["PLAA_9373",-0.15254917362191223,-4.666805521620532,769],["PAX3_5077",-0.1600828494681046,-5.088042446144664,769]]}}}
{"drive":{"corr":{"top":[["PIP4K2B_8396",0.2090026577814465,-4.364918759773664,377],["VSIR_64115",0.19498676069743626,-3.8571208212167476,377],["KCNF1_3754",0.2027314299866846,-4.133426243295014,377],["COPS7A_50813",0.18682154864598696,-3.5771372475444285,377],["SOCS2_8835",0.18109971119472007,-3.3877843306790725,377],["GSR_2936",0.18654266224002364,-3.657961540062585,388]],"bottom":[["TNFRSF14_8764",-0.17934259371411151,-3.330759133706833,377]]},"para":{"top":[["FCGR2B_2213",0.18194689141149895,-3.5248562838378157,391],["XDH_7498",0.1911029809427021,-3.722506093995613,377]],"bottom":[]}}}
{"achilles":{"corr":{"top":[["SDF2_6388",0.23818274353881436,-4.2458257144830736,280],["LOC644762_644762",0.19517775451675745,-2.9883437752033997,280],["MYO1F_4542",0.24539529507822092,-4.481150238120681,280],["ROPN1B_152015",0.2050140904139782,-3.254468144580035,280],["C2orf73_129852",0.19488672471030458,-2.9806593232195753,280],["PNISR_25957",0.21047954159572077,-3.407759702982102,280]],"bottom":[["CCDC177_56936",-0.22299595473696981,-3.773637891472742,280],["SNX25_83891",-0.1978730665923471,-3.060026971419538,280],["ZNF512B_57473",-0.21754777118761445,-3.6118224024845778,280],["MAP4K5_11183",-0.21049401594908132,-5.626500712188661,494],["ZNF142_7701",-0.1912567684770461,-4.727810687343695,494],["TAS2R50_259296",-0.19429736540620046,-4.864138441137751,494],["SPATA12_353324",-0.20971964252247854,-3.386212770351166,280],["LHFPL3_375612",-0.2295128897193775,-3.9724266240435275,280],["GSTO2_119391",-0.2048965710211338,-3.2512148088192,280]]},"para":{"top":[["C2orf73_129852",0.218556874071794,-3.641495007249496,280],["ARMC5_79798",0.21239938497558616,-3.4625345883574994,280],["SDF2_6388",0.21817903518756085,-3.630368825619574,280]],"bottom":[["CCDC177_56936",-0.21497715564490708,-3.5368441429289565,280]]}}}
{"ccle_rrbs_tss1kb":{"corr":{"top":[["DSE_6_116600225_116601225",0.2512238261538388,-12.484518987867455,816]],"bottom":[["VPS28_8_145653946_145654946",-0.15088228361678063,-4.906932571532761,832]]},"para":{"top":[],"bottom":[["VPS28_8_145653946_145654946",-0.1478719564911925,-4.733149757787644,832]]}}}
{"ccle_gene_tpm":{"corr":{"top":[["WDFY1_ENSG00000085449.10",0.38200832962566206,-35.746303926390944,1011],["MRPL44_ENSG00000135900.3",0.5072918962328147,-66.49452541302664,1011],["FARSB_ENSG00000116120.8",0.3416381017735542,-28.329385288293278,1011]],"bottom":[]},"para":{"top":[["WDFY1_ENSG00000085449.10",0.3958069656001744,-38.53233652231312,1011],["MRPL44_ENSG00000135900.3",0.48556403736611625,-60.20188963248675,1011]],"bottom":[["IFI30_ENSG00000216490.3",-0.19980823288090338,-9.837170699887668,1011]]}}}
{"ccle_rrbs_tss_clusters":{"corr":{"top":[["ZNF37A_2",0.18168503900483843,-6.5793478987640786,792],["TNFAIP8_1",0.17144814555863255,-6.245401426208585,841]],"bottom":[["MICAL1_3",-0.21831906283430497,-8.316544101563737,704],["THAP7_2",-0.2453938103269967,-3.2638035711225513,195],["MIR6847_2",-0.1892734517922713,-5.658984402239104,617],["CMIP_4",-0.20143782040508884,-3.3301437184732983,298]]},"para":{"top":[["ATIC_1",0.20561474487544573,-2.6522639713716236,219],["SNORA36C_1",0.16839831217890272,-4.720109466384003,638]],"bottom":[["KTN1_1",-0.20466603794501026,-3.154943399750022,271]]}}}
{"ccle_rrbs_cgi_clusters":{"corr":{"top":[["10_38381200_38385962-1",0.18168503900483843,-6.5793478987640786,792],["17_29335925_29338452-2",0.23655172597907903,-3.2889646082087327,212],["5_118602471_118606834-1",0.17144814555863255,-6.245401426208585,841],["16_21529112_21531618-1",0.16861700424636827,-2.406940950078941,291]],"bottom":[["1_47879896_47882480-1",-0.21632944130602563,-3.219675147820563,248],["24_13368336_13372718-2",-0.2513772570944754,-3.949127227086632,231],["22_21352247_21356504-2",-0.2453938103269967,-3.2638035711225513,195],["16_81475777_81479999-1",-0.20143782040508884,-3.3301437184732983,298],["6_109776920_109779645-3",-0.20735118904370553,-7.412185998840577,690],["9_139702521_139705088-2",-0.212933534967798,-8.949357045261038,802],["6_109776920_109779645-2",-0.20550379309576408,-7.405488557108992,702]]},"para":{"top":[],"bottom":[["14_56044634_56047310-1",-0.20466603794501026,-3.154943399750022,271]]}}}
