{"depmap_hotspot":{"corr":{"top":[["ADC",0.07059369485868228,-2.4711847181113153,47.0,1675.0],["ASB5",0.07766045066464614,-2.9000367776999814,38.0,1684.0],["BSPH1",0.07151131519044705,-2.5248758018012794,12.0,1710.0],["C17orf100",0.0745818051781127,-2.7088564410169353,11.0,1711.0],["CDHR1",0.078298966011763,-2.940532582260286,101.0,1621.0],["COA3",0.07742387985297695,-2.8851068265307624,13.0,1709.0],["DEFA6",0.08218391768184831,-3.19320459709048,12.0,1710.0],["DKKL1",0.08217412656568318,-3.1925542008818226,27.0,1695.0],["FAM25A",0.12065424139719343,-6.2901547182379804,10.0,1712.0],["HIF3A",0.07356814686439322,-2.6473817627560203,76.0,1646.0],["IL36RN",0.11037521068112004,-5.355323805472236,15.0,1707.0],["KIAA1143",0.07482861195102715,-2.723934604219511,20.0,1702.0],["KLK9",0.07789836687218284,-2.9150918707119082,29.0,1693.0],["LINC00955",0.08376818353488764,-3.2993504475744846,30.0,1692.0],["MAP3K19",0.06789846566452301,-2.316906393086884,125.0,1597.0],["NRIP2",0.13137456762083743,-7.350231792471601,29.0,1693.0],["NT5E",0.0814605541710926,-3.1453388683443877,35.0,1687.0],["PDLIM3",0.07988735957168161,-3.042534102397126,40.0,1682.0],["PSAT1",0.11230636763689021,-5.524905190147787,27.0,1695.0],["RPP38",0.11520359266922411,-5.784557198266892,24.0,1698.0],["SMYD2",0.0914621561634344,-3.8406231748475155,37.0,1685.0],["SOS1",0.06928588016838841,-2.3956868559892985,87.0,1635.0],["TLR10",0.07624325606153631,-2.81119359179961,68.0,1654.0],["TUBA3E",0.0994268069991466,-4.4463517714235286,50.0,1672.0],["VARS2",0.08041028418816247,-3.076509365946549,88.0,1634.0],["ZNF223",0.07832247525705759,-2.942029132423761,54.0,1668.0],["ZNF614",0.07651708288484609,-2.8282482289000024,45.0,1677.0]],"bottom":[["B3GNT1",-0.06144692852159325,-1.9682164613676196,23.0,1699.0],["DHRS2",-0.07707314158254408,-2.8630451653535247,36.0,1686.0],["FAM170A",-0.08627707697798197,-3.4711446883669126,50.0,1672.0],["FGF5",-0.07207682014940026,-2.5582597865360075,41.0,1681.0],["HIST2H3D",-0.0704237450660619,-2.4613058242038925,25.0,1697.0],["HSPA9",-0.06625361908813297,-2.225254057395071,37.0,1685.0],["OR52A5",-0.07513310365483189,-2.7425964495385577,47.0,1675.0],["PFN4",-0.06416338726856316,-2.111507528273997,13.0,1709.0],["PRR25",-0.06060341292769234,-1.9247600093381685,21.0,1701.0],["TEX13A",-0.07022927151428797,-2.450026337481613,39.0,1683.0],["TMEM181",-0.07111961628091758,-2.501884460259502,48.0,1674.0],["UNC5A",-0.08584198968069774,-3.4410269174375587,93.0,1629.0],["UVRAG",-0.061855547031994994,-1.989444384622297,60.0,1662.0],["VIPAS39",-0.06448509843608469,-2.1288164761149004,53.0,1669.0]]},"para":{"top":[["ARMS2",0.052115106141108876,-1.8147233576773263,12.0,1710.0],["C11orf83",0.0821936799039523,-3.4875378934187475,10.0,1712.0],["DKKL1",0.0666010690511906,-2.542744017356917,27.0,1695.0],["FAM25A",0.05651007678394627,-2.020490996806118,10.0,1712.0],["GGT2",0.0805255141221381,-3.378331132390196,10.0,1712.0],["IDI1",0.05480265906178673,-1.9389541733072657,8.0,1714.0],["NRIP2",0.07649438466165695,-3.1226837317356653,29.0,1693.0]],"bottom":[["CLEC7A",-0.07716568030783258,-3.164473176058981,24.0,1698.0],["ELOVL1",-0.0708389926549563,-2.7828293394940538,23.0,1699.0],["PFKFB4",-0.08223457096401864,-3.490436683547084,27.0,1695.0],["WRAP53",-0.08892658833178688,-3.948479843524178,34.0,1688.0]]}}}
{"depmap_damaging":{"corr":{"top":[["AFF1",0.08199479984820215,-3.1790788618996637,22.0,1699.0],["BPI",0.09517983400828699,-4.115490227508779,11.0,1710.0],["GTF2IRD1",0.06150386797813598,-1.9702420337452915,10.0,1711.0],["KDM1A",0.07410009632173856,-2.6782482370037917,10.0,1711.0],["KIAA0408",0.06526514348575525,-2.170052581319312,9.0,1712.0],["MAP3K19",0.07572105227977681,-2.7774600141150443,19.0,1702.0],["PLXNB2",0.06218847501999131,-2.005881125354716,25.0,1696.0],["PPP2R2B",0.06694832962263358,-2.2626526940925307,14.0,1707.0],["SASS6",0.07681115222447596,-2.84522918108063,13.0,1708.0],["SPDL1",0.07399338352929044,-2.671782124397644,15.0,1706.0],["TBC1D4",0.06951768595046001,-2.407822790182462,18.0,1703.0],["TINAG",0.06524114038967858,-2.1687463318553353,9.0,1712.0],["UBXN1",0.08195399160538407,-3.1763755557215005,25.0,1696.0],["ZNF530",0.08017069728730895,-3.059408574103416,8.0,1713.0]],"bottom":[["SCLT1",-0.05788463687561291,-1.7871968438497905,24.0,1697.0]]},"para":{"top":[["BPI",0.06538331618232274,-2.4748654866899726,11.0,1710.0],["PLIN3",0.06129844991543905,-2.2586034904145627,8.0,1713.0]],"bottom":[["FYCO1",-0.058022894597376994,-2.0934663056895157,8.0,1713.0],["MPP7",-0.054721547505156995,-1.9343826401865907,8.0,1713.0],["TTC21A",-0.06318185772500547,-2.3569315639769473,11.0,1710.0]]}}}
{"ccle_rppa":{"corr":{"top":[],"bottom":[]},"para":{"top":[["XRCC1_XRCC1_Caution",0.2671669589168108,-15.399061543933495,897]],"bottom":[]}}}
{"ccle_mirna":{"corr":{"top":[["hsa-miR-769-3p_miR00639.1",0.21306394189893513,-10.498361328278559,951]],"bottom":[]},"para":{"top":[["hsa-miR-217_miR00246.1",0.11628334419375169,-3.4863616384559974,951]],"bottom":[]}}}
{"prism_primary_logfold":{"corr":{"top":[],"bottom":[]},"para":{"top":[],"bottom":[["tubocurarine_BRD-K99621550-300-01-8::2.5::HTS",-0.13470677493192879,-2.828807599634256,554]]}}}
{"prism_secondary_logfold":{"corr":{"top":[["I-BET-762_BRD-K08109215-001-06-4::0.00061034::HTS002",0.2012369632913433,-4.731958785842935,446],["AZD2461_BRD-K85014146-001-02-5::0.0390625::HTS002",0.20730011209772875,-5.202470338510064,467]],"bottom":[]},"para":{"top":[],"bottom":[]}}}
{"ccle_proteomics":{"corr":{"top":[["CIC_Q96RK0",0.28456927296130907,-7.671646448657669,374],["SMG7_Q92540",0.3209671785455171,-3.5301049432512883,123],["ZNF574_Q6ZN55-2",0.3598063691900494,-12.14653289219278,374],["FILIP1_Q7Z7B0",0.29675664675636904,-4.766083430362565,203]],"bottom":[]},"para":{"top":[["ZNF574_Q6ZN55-2",0.3478126677105237,-11.348681133287636,374]],"bottom":[["SLC25A22_Q9H936",-0.23777709751610676,-5.478638878747004,374],["C7_P10643",-0.2192531706227736,-1.961854195200934,134]]}}}
{"depmap_copy_number":{"corr":{"top":[["ATP1A3_478",0.9858507822727635,-323.0051853474518,1745],["LYPD4_147719",0.9925553898256804,-323.0051853474518,1745],["MIR6797_102465478",0.9980794553020939,-323.0051853474518,1745],["GRIK5_2901",0.9856704989766342,-323.0051853474518,1745],["CD79A_973",0.9999999999999999,-323.0051853474518,1745],["LOC100505585_100505585",0.992689694064237,-323.0051853474518,1745],["LOC390937_390937",0.992689694064237,-323.0051853474518,1745],["DMRTC2_63946",0.9975790629963776,-323.0051853474518,1745],["CEACAM6_4680",0.9859152172817189,-323.0051853474518,1745],["RPS19_6223",0.9975790629963776,-323.0051853474518,1745],["POU2F2_5452",0.9799981770285799,-323.0051853474518,1745],["CEACAM7_1087",0.9820024648719348,-323.0051853474518,1745],["ZNF574_64763",0.9799981770285799,-323.0051853474518,1745],["RABAC1_10567",0.9891425463295168,-323.0051853474518,1745],["CEACAM5_1048",0.9804748835662488,-323.0051853474518,1745],["CEACAM3_1084",0.9862888295174403,-323.0051853474518,1745]],"bottom":[]},"para":{"top":[["ATP1A3_478",0.9926539214634389,-323.0051853474518,1745],["LYPD4_147719",0.9957199754638791,-323.0051853474518,1745],["MIR6797_102465478",0.9977730892483818,-323.0051853474518,1745],["GRIK5_2901",0.9924451268313983,-323.0051853474518,1745],["CD79A_973",1.0,-323.0051853474518,1745],["LOC100505585_100505585",0.9962012638606507,-323.0051853474518,1745],["LOC390937_390937",0.9962012638606507,-323.0051853474518,1745],["DMRTC2_63946",0.9976897635626795,-323.0051853474518,1745],["CEACAM6_4680",0.9932347100172407,-323.0051853474518,1745],["RPS19_6223",0.9976897635626795,-323.0051853474518,1745],["POU2F2_5452",0.9900964294350163,-323.0051853474518,1745],["CEACAM7_1087",0.9869521916921407,-323.0051853474518,1745],["ZNF574_64763",0.9900964294350163,-323.0051853474518,1745],["RABAC1_10567",0.994209555667154,-323.0051853474518,1745],["CEACAM3_1084",0.9932587948103363,-323.0051853474518,1745]],"bottom":[]}}}
{"depmap_gene_tpm":{"corr":{"top":[["MEGF8_1954",0.40871326347862724,-52.50599667685636,1293],["GSK3A_2931",0.5202614161699561,-89.85398291220214,1293],["ZNF526_116115",0.4877451077956896,-77.50241579120024,1293],["ZNF574_64763",0.4877908187554041,-77.51885994493304,1293]],"bottom":[]},"para":{"top":[["MEGF8_1954",0.40512793371000805,-51.52188258890254,1293],["ZNF574_64763",0.4456039418320339,-63.3561666477539,1293]],"bottom":[]}}}
{"avana":{"corr":{"top":[["POP4_10775",0.2721380605990719,-13.797504910494082,769],["EXOSC5_56915",0.32292815509640854,-19.396843885858356,769]],"bottom":[["PAM16_51025",-0.19276063212201153,-7.145604405843232,769],["C20orf202_400831",-0.21474786421063705,-8.747077533893087,769],["OAZ1_4946",-0.13974280484689958,-3.995318048980146,769],["SNRPA1_6627",-0.15894602444962277,-5.0232228900062275,769]]},"para":{"top":[],"bottom":[["PAM16_51025",-0.19169126619135407,-7.072235186545613,769],["C20orf202_400831",-0.19714183679903843,-7.450538941749643,769],["OAZ1_4946",-0.14562425398594453,-4.296783546639287,769],["RPS2_6187",-0.14918792023057426,-4.4851577159525755,769],["RPL37_6167",-0.18835501227931195,-6.845994780396364,769]]}}}
{"drive":{"corr":{"top":[],"bottom":[]},"para":{"top":[],"bottom":[["CYP2J2_1573",-0.1864728413395045,-3.565436727772026,377],["LTBP4_8425",-0.15771521210574246,-2.689320897113719,380]]}}}
{"achilles":{"corr":{"top":[["RPS19_6223",0.27321797930980957,-9.17955469529438,494],["EXOSC5_56915",0.2938365574032648,-10.568198065132863,494]],"bottom":[]},"para":{"top":[],"bottom":[]}}}
{"ccle_rrbs_tss1kb":{"corr":{"top":[],"bottom":[]},"para":{"top":[],"bottom":[["SGPL1_10_72574703_72575703",-0.16453434804512343,-4.258163358372109,595]]}}}
{"ccle_gene_tpm":{"corr":{"top":[["RPS19_ENSG00000105372.2",0.42143169703950983,-44.06862800289394,1011],["ZNF574_ENSG00000105732.9",0.5349989987409304,-75.20750961947402,1011],["GSK3A_ENSG00000105723.7",0.5516448080835751,-80.84462600387076,1011]],"bottom":[]},"para":{"top":[["MEGF8_ENSG00000105429.8",0.4305834365520502,-46.16514881590584,1011],["ZNF574_ENSG00000105732.9",0.50387092267677,-65.47344050441968,1011],["GSK3A_ENSG00000105723.7",0.5215436885842487,-70.87561842616323,1011]],"bottom":[["HMOX2_ENSG00000103415.7",-0.1884235163918381,-8.806524450731349,1011]]}}}
{"ccle_rrbs_tss_clusters":{"corr":{"top":[["COMT_4",0.17334812149140635,-6.221728363942343,819]],"bottom":[]},"para":{"top":[["PODXL2_3",0.19529881960706344,-2.9458984028065482,275]],"bottom":[]}}}
{"ccle_rrbs_cgi_clusters":{"corr":{"top":[],"bottom":[]},"para":{"top":[["3_127348270_127350859-3",0.19529881960706344,-2.9458984028065482,275]],"bottom":[]}}}
