{"depmap_hotspot":{"corr":{"top":[["ANKH",0.08512836619321644,-3.391924193414074,47.0,1675.0],["AP003068.23",0.07922561366657897,-2.999819818372346,8.0,1714.0],["CHMP5",0.062261526778461224,-2.010649520828384,14.0,1708.0],["DPF3",0.08695357696663535,-3.5182453821360964,35.0,1687.0],["EGFL6",0.07226981083552309,-2.56970443244783,34.0,1688.0],["FGFR1OP2",0.06950910169519783,-2.408487976222391,17.0,1705.0],["OR8H2",0.07955355092096678,-3.020948328184664,59.0,1663.0],["STEAP1B",0.11913687921392427,-6.147155690118669,57.0,1665.0]],"bottom":[["BICD2",-0.07375314679300847,-2.658547046962007,88.0,1634.0],["C2orf16",-0.06978857048987579,-2.4245640551436325,147.0,1575.0],["CCBL1",-0.0691340057037528,-2.3869972851017063,34.0,1688.0],["ERBB2IP",-0.06647655651818087,-2.237565590642495,106.0,1616.0],["GPR115",-0.06292845332933894,-2.045732008845993,71.0,1651.0],["GPR18",-0.06491455703380124,-2.1520346791544958,35.0,1687.0],["KLK11",-0.07238739604520297,-2.576690308496158,36.0,1686.0],["L2HGDH",-0.0678630121246323,-2.3149109379424133,42.0,1680.0],["MAF1",-0.07124295083500633,-2.5091120994721967,24.0,1698.0],["MRPL13",-0.0686540397411821,-2.3596421995161343,13.0,1709.0],["PIP4K2B",-0.09005731571180016,-3.7385894882132584,47.0,1675.0],["PML",-0.06537750080225085,-2.177206964194792,106.0,1616.0],["PODNL1",-0.07583605970978521,-2.7859309457873227,32.0,1690.0],["PROS1",-0.06345681187805907,-2.0737441410056348,71.0,1651.0],["PSG4",-0.06517990056669581,-2.166444320048802,50.0,1672.0],["RTKN",-0.06470257960929301,-2.1405583220955333,44.0,1678.0],["TMEM8A",-0.07684883718228419,-2.848982203594492,76.0,1646.0]]},"para":{"top":[["COPZ2",0.06252109469451161,-2.3231497231850113,12.0,1710.0],["PRSS58",0.06942665338390139,-2.7014537065948208,27.0,1695.0],["RETN",0.06507677861663652,-2.459268763508057,11.0,1711.0]],"bottom":[["C6orf223",-0.05878653365646605,-2.132290008608607,16.0,1706.0],["CCBL1",-0.08237651670301897,-3.4998571627068706,34.0,1688.0],["GLRX5",-0.06501984069501238,-2.4561677821346293,10.0,1712.0],["KLF9",-0.07344689503581517,-2.9367954263704554,28.0,1694.0],["LRAT",-0.07969283110810871,-3.3247666517900485,32.0,1690.0],["MIS18A",-0.061286408638236284,-2.2590479190583546,18.0,1704.0],["MRPL13",-0.07608585819086265,-3.09725296681002,13.0,1709.0],["POTED",-0.05706160072989689,-2.0471915941688685,8.0,1714.0],["RPUSD4",-0.07339209068498484,-2.9334959605200925,25.0,1697.0],["SPACA4",-0.06722528164477977,-2.577230970700706,14.0,1708.0],["TIRAP",-0.060720226341586,-2.22991898923816,13.0,1709.0],["TOMM22",-0.07480904569579137,-3.0189340856952174,12.0,1710.0]]}}}
{"depmap_damaging":{"corr":{"top":[["CLIC1",0.08293524940073517,-3.2417093271268214,13.0,1708.0],["DYRK1A",0.08144947347489999,-3.1430528636729975,18.0,1703.0],["ERI1",0.10102262316188468,-4.570974873127881,10.0,1711.0],["KIF1B",0.08498315831801088,-3.3802924861297017,40.0,1681.0],["RHPN2",0.06160895225061155,-1.9756914525563731,9.0,1712.0],["SUZ12",0.0899286828804888,-3.72744275477394,20.0,1701.0]],"bottom":[["ADH6",-0.06300314183204342,-2.0487130660017585,8.0,1713.0],["RAPGEF3",-0.060667364150721284,-1.9271346341669835,14.0,1707.0],["SLC8A1",-0.05980046299391858,-1.8829694323412767,10.0,1711.0],["SRPK2",-0.05322341741076693,-1.5646479622693823,14.0,1707.0],["ZNF454",-0.055274970489563764,-1.660778008536685,12.0,1709.0]]},"para":{"top":[["CLIC1",0.08595928938107812,-3.73960252330498,13.0,1708.0],["HRNR",0.07700238632269753,-3.152806631425626,16.0,1705.0],["JAKMIP3",0.0652041286419591,-2.4651588094832375,12.0,1709.0],["SCAF11",0.05540031753444316,-1.9665650756736723,12.0,1709.0],["SEC22A",0.0769187360833543,-3.1475135009644326,11.0,1710.0],["SUZ12",0.07657670924320459,-3.126356229432074,20.0,1701.0],["TBC1D2B",0.057752686497477584,-2.080192975094106,9.0,1712.0],["TLK2",0.07341694630096007,-2.9335950301181755,13.0,1708.0],["ZUFSP",0.0576133611672652,-2.073376114875259,10.0,1711.0]],"bottom":[["ADH6",-0.06263084381261931,-2.3278666486978348,8.0,1713.0],["BCAR1",-0.064766720537272,-2.4414988917320266,11.0,1710.0],["CEACAM5",-0.06435578281349146,-2.4194061935492237,11.0,1710.0],["CLCA4",-0.06577223692072462,-2.4961138755499674,16.0,1705.0],["CWC27",-0.05193931064198251,-1.806029519761766,9.0,1712.0],["FANK1",-0.05607975211938445,-1.9989405488089722,8.0,1713.0],["FETUB",-0.057058883427901046,-2.0463284951612226,12.0,1709.0],["GBP2",-0.0652615971697451,-2.4681897857247077,8.0,1713.0],["PLOD2",-0.06435338579099975,-2.4192585813745127,10.0,1711.0],["PTK2",-0.06624424623616154,-2.5219080142841057,12.0,1709.0],["TTC32",-0.07321448253154887,-2.921404995386325,9.0,1712.0],["XPC",-0.05643109617049616,-2.015866608761774,9.0,1712.0]]}}}
{"prism_primary_logfold":{"corr":{"top":[["nafcillin_BRD-K18574842-323-10-8::2.51::HTS",0.1425895806808368,-2.982601043432961,526]],"bottom":[]},"para":{"top":[["nafcillin_BRD-K18574842-323-10-8::2.51::HTS",0.163927921587357,-3.798066722977963,526]],"bottom":[]}}}
{"prism_secondary_logfold":{"corr":{"top":[],"bottom":[]},"para":{"top":[],"bottom":[["dabrafenib_BRD-K09951645-001-06-8::0.15625::HTS002",-0.18127348341193542,-3.7109177665158217,418]]}}}
{"ccle_proteomics":{"corr":{"top":[],"bottom":[]},"para":{"top":[["ANKIB1_Q9P2G1",0.3325986768438556,-10.384348767484266,374]],"bottom":[]}}}
{"depmap_copy_number":{"corr":{"top":[["PON1_5444",0.962827834476185,-323.0051853474518,1745],["PON2_5445",0.9600984648871019,-323.0051853474518,1745],["GNGT1_2792",0.9843424459174656,-323.0051853474518,1745],["GNG11_2791",0.9865858970594853,-323.0051853474518,1745],["LOC105375401_105375401",0.9843424459174656,-323.0051853474518,1745],["BET1_10282",0.9873593733257872,-323.0051853474518,1745],["MIR653_724023",0.9588039311305054,-323.0051853474518,1745],["MIR4652_100616206",0.9837994505691561,-323.0051853474518,1745],["SGCE_8910",0.9822880762628069,-323.0051853474518,1745],["TFPI2_7980",0.9835936767622773,-323.0051853474518,1745],["PPP1R9A_55607",0.9826532693136453,-323.0051853474518,1745],["PEG10_23089",0.979443716076094,-323.0051853474518,1745],["CASD1_64921",0.9761461946544316,-323.0051853474518,1745],["PON3_5446",0.9615416503113667,-323.0051853474518,1745],["MIR489_574442",0.9588039311305054,-323.0051853474518,1745]],"bottom":[]},"para":{"top":[["COL1A2_1278",0.9999999999999999,-323.0051853474518,1745],["TFPI2_7980",0.9931182154666375,-323.0051853474518,1745],["PON1_5444",0.9852890682550054,-323.0051853474518,1745],["GNGT1_2792",0.9936736254507101,-323.0051853474518,1745],["GNG11_2791",0.9956774167801671,-323.0051853474518,1745],["LOC105375401_105375401",0.9936736254507101,-323.0051853474518,1745],["CASD1_64921",0.9974357421566727,-323.0051853474518,1745],["BET1_10282",0.9961051481584854,-323.0051853474518,1745],["MIR653_724023",0.9847537792613857,-323.0051853474518,1745],["CALCR_799",0.9838311976442885,-323.0051853474518,1745],["PPP1R9A_55607",0.9926020163076962,-323.0051853474518,1745],["SGCE_8910",0.9974512787964103,-323.0051853474518,1745],["PEG10_23089",0.9972021624204712,-323.0051853474518,1745],["MIR4652_100616206",0.9932344506666554,-323.0051853474518,1745],["MIR489_574442",0.9847537792613857,-323.0051853474518,1745]],"bottom":[]}}}
{"depmap_gene_tpm":{"corr":{"top":[["BET1_10282",0.5052274783780203,-83.9770918857747,1293],["VPS50_55610",0.5034841524201908,-83.31444025442248,1293]],"bottom":[]},"para":{"top":[["BET1_10282",0.48885433089676705,-77.90215467354145,1293]],"bottom":[]}}}
{"avana":{"corr":{"top":[["BET1_10282",0.5622047721931901,-64.56576214705147,769]],"bottom":[["GNB2_2783",-0.19001648369022706,-6.95816072636122,769],["ALKBH4_54784",-0.20224888018627604,-7.814843945458871,769],["FAM110D_79927",-0.17451583346176838,-5.950169347888908,769]]},"para":{"top":[],"bottom":[["GNB2_2783",-0.2084835114023122,-8.272600340665788,769],["ACTL6B_51412",-0.14988752608687955,-4.460325485096054,757]]}}}
{"drive":{"corr":{"top":[],"bottom":[["SLC35F3_148641",-0.20359889893650943,-4.271832422944712,388]]},"para":{"top":[],"bottom":[]}}}
{"achilles":{"corr":{"top":[["TPP2_7174",0.24978647413042224,-7.737072140600374,494]],"bottom":[["DCAF17_80067",-0.2101453159304707,-3.398273408827262,280]]},"para":{"top":[["TPP2_7174",0.24747723488678816,-7.60250528200181,494],["TMEM141_85014",0.23499562536238178,-4.144126970242972,280],["MCM7_4176",0.46084980332128606,-26.617451818674063,494]],"bottom":[["PSMA1_5682",-0.19676016516269157,-4.976122498607682,494]]}}}
{"ccle_rrbs_tss1kb":{"corr":{"top":[],"bottom":[]},"para":{"top":[["HEPACAM2_7_92861511_92862511",0.1523858069611974,-4.91482853670725,817],["ZNF789_7_99069514_99070514",0.15158399180854884,-4.900325274454855,823]],"bottom":[["JOSD2_19_51014416_51015416",-0.17768043064781008,-6.5894459277075885,830]]}}}
{"ccle_gene_tpm":{"corr":{"top":[["BET1_ENSG00000105829.7",0.539117800631106,-76.57306300813323,1011]],"bottom":[]},"para":{"top":[],"bottom":[]}}}
{"ccle_rrbs_tss_clusters":{"corr":{"top":[["GUSBP1_2",0.24785193601947517,-6.500915638261839,415]],"bottom":[]},"para":{"top":[],"bottom":[["DHTKD1_1",-0.19106598586297946,-4.063988322920829,417],["TIMM8A_2",-0.24538317794190262,-4.324449092568036,269],["TREX1_2",-0.18697637280878163,-7.121020738699133,815]]}}}
{"ccle_rrbs_cgi_clusters":{"corr":{"top":[["5_21457469_21461852-2",0.24785193601947517,-6.500915638261839,415]],"bottom":[["23_146993645_146996200-3",-0.2661487300688125,-4.42927545310576,234]]},"para":{"top":[],"bottom":[["23_100601622_100605950-2",-0.24538317794190262,-4.324449092568036,269]]}}}
