{"depmap_hotspot":{"corr":{"top":[["ALDH1A1",0.07464451185960358,-2.7126832862925734,41.0,1681.0],["ARHGAP20",0.08143433012614167,-3.143610648240932,83.0,1639.0],["EPB41L4A",0.07627821368922043,-2.813367873137338,66.0,1656.0],["GLUD2",0.07986414341036151,-3.041030247662261,65.0,1657.0],["KCNA7",0.07638381244030713,-2.81994114209692,42.0,1680.0],["PCDH18",0.0662053895089238,-2.2225951827680426,128.0,1594.0],["RASGEF1C",0.08495819645087989,-3.3802694863730114,42.0,1680.0],["SLC35B1",0.08326009848464624,-3.2651121273868253,32.0,1690.0],["SMIM17",0.09310344292230112,-3.9616505911273867,12.0,1710.0],["TAF13",0.08578734605508201,-3.4372540220527634,10.0,1712.0],["TMEM237",0.08576907619749838,-3.4359930519736563,38.0,1684.0]],"bottom":[["AGPAT2",-0.06737674051531167,-2.2876305690684413,25.0,1697.0],["ARHGAP19",-0.06727017159338677,-2.2816740352433342,53.0,1669.0],["AZU1",-0.06791158730348255,-2.3176451501367605,38.0,1684.0],["BORA",-0.06402850497707094,-2.1042718852792666,32.0,1690.0],["C11orf54",-0.06746354223397248,-2.2924881099317487,31.0,1691.0],["CD300LD",-0.062038767056566316,-1.9990002217507976,14.0,1708.0],["CENPQ",-0.07061498003967212,-2.4724234219842858,26.0,1696.0],["FA2H",-0.06599746317243578,-2.211150878155317,33.0,1689.0],["FOSB",-0.07036082936886405,-2.457653795685674,34.0,1688.0],["KIAA1107",-0.06462066309130539,-2.1361317740117145,119.0,1603.0],["MMP27",-0.07105374370683805,-2.4980285928699284,45.0,1677.0],["NEIL2",-0.07704941483946584,-2.8615559020966126,35.0,1687.0],["RSPO4",-0.06546457286906365,-2.18195812918281,40.0,1682.0],["TF",-0.10862181730956037,-5.203764465007399,63.0,1659.0],["TMEM232",-0.06720076586832527,-2.277798961174863,43.0,1679.0],["TMEM244",-0.09183683124800936,-3.8680785094960273,18.0,1704.0],["XRCC6BP1",-0.06810716928202895,-2.328670837758593,20.0,1702.0],["ZNF101",-0.08046852889883084,-3.0803057362341795,42.0,1680.0]]},"para":{"top":[["KIAA1644",0.08216416592412518,-3.4857859042177193,27.0,1695.0],["KRTAP5-11",0.04553781430262844,-1.530806186117636,11.0,1711.0],["MPLKIP",0.0744569898689966,-2.9976734570540784,25.0,1697.0],["NFKBIE",0.08484308991132244,-3.6652642763052152,40.0,1682.0],["PLP2",0.058716447769982874,-2.128718346924641,10.0,1712.0],["RPS10",0.048791585044238216,-1.6676340959116904,9.0,1713.0],["SEC11C",0.06197571152795333,-2.2946611586364507,11.0,1711.0],["SMIM17",0.07015397450998542,-2.743065542015065,12.0,1710.0],["TUSC2",0.05515827716633992,-1.9558839728732214,16.0,1706.0]],"bottom":[["AGPAT2",-0.08368658984619887,-3.5871189005760376,25.0,1697.0],["DSCR8",-0.05765531825657991,-2.076288752902529,12.0,1710.0],["PIP",-0.07292060493693472,-2.905327412505958,24.0,1698.0],["TF",-0.11565546094551189,-6.095843331271067,63.0,1659.0],["ZG16B",-0.05121899683990614,-1.7743641747165413,13.0,1709.0]]}}}
{"depmap_damaging":{"corr":{"top":[["SLC5A7",0.07929446663704691,-3.002770196932719,13.0,1708.0]],"bottom":[["ADAM11",-0.0575734238139719,-1.7718767108574518,10.0,1711.0],["COL25A1",-0.057415145606519266,-1.7641105378845665,25.0,1696.0],["FRMPD4",-0.0660689348949073,-2.2140265995367487,11.0,1710.0],["KPNA5",-0.12126080146478521,-6.344470269498626,8.0,1713.0],["LAMB1",-0.06985958470520974,-2.427489096334279,14.0,1707.0],["LARP1",-0.07676378461269238,-2.8422668828018174,31.0,1690.0],["RLN2",-0.05793022493406651,-1.789446579116059,13.0,1708.0],["STK36",-0.055721808406416364,-1.6820945667453127,10.0,1711.0],["TYK2",-0.060721028233592406,-1.9298856144730763,15.0,1706.0],["UGDH",-0.05940264578197423,-1.8628752363213619,9.0,1712.0],["WWOX",-0.06279539800509963,-2.0377470936087896,15.0,1706.0],["ZNF658",-0.0788733380833013,-2.9757441995056984,19.0,1702.0]]},"para":{"top":[["GRIA3",0.06118677634639157,-2.2528532724277723,8.0,1713.0],["PTPRQ",0.06947733245988186,-2.7031169732067437,16.0,1705.0],["SLC5A7",0.08372405227393599,-3.5878749314399045,13.0,1708.0]],"bottom":[["ADAM11",-0.06212237090423025,-2.3013382206117856,10.0,1711.0],["FBXL19",-0.059512364678934865,-2.1676786000681556,9.0,1712.0],["FRMPD4",-0.07937737155186343,-3.302847694762486,11.0,1710.0],["GCNT2",-0.059775662565638446,-2.1809706118901144,10.0,1711.0],["KPNA5",-0.06824513568043504,-2.6330827167966566,8.0,1713.0],["LAMB1",-0.08160708061841543,-3.4474342615700575,14.0,1707.0],["MTIF2",-0.06895329715102813,-2.673264200767468,16.0,1705.0],["PLAG1",-0.06222569325587062,-2.306773189496593,13.0,1708.0],["TYK2",-0.07225074387350221,-2.8642634261641566,15.0,1706.0],["UGDH",-0.06541495343728154,-2.4765427188446267,9.0,1712.0]]}}}
{"ccle_mirna":{"corr":{"top":[],"bottom":[]},"para":{"top":[["hsa-miR-1537_miR00174.1",0.1059502729159942,-2.9718428724984047,951]],"bottom":[]}}}
{"prism_primary_logfold":{"corr":{"top":[["ethimizol_BRD-K19672466-001-02-3::2.5::HTS",0.13876998794172113,-2.998490519835409,559],["phenprobamate_BRD-K22009844-001-12-5::2.5::HTS",0.15323232606398868,-3.558152763018157,559],["CO-101244_BRD-K55677650-003-02-9::2.5::HTS",0.15085002066856054,-3.4196803551994446,551]],"bottom":[]},"para":{"top":[["L-152804_BRD-A42553870-001-14-3::2.5::HTS",0.1386123260428359,-2.947128047886242,549],["estramustine-phosphate_BRD-K00077635-304-01-2::2.5::HTS",0.1366030281343257,-2.8968608166620453,554],["CO-101244_BRD-K55677650-003-02-9::2.5::HTS",0.15863186415124775,-3.73318417472967,551]],"bottom":[]}}}
{"prism_secondary_logfold":{"corr":{"top":[],"bottom":[]},"para":{"top":[["GSK2830371_BRD-K17472821-001-01-2::0.039062501::MTS006",0.15366401035611793,-3.074961252724601,469],["idronoxil_BRD-K74671368-001-01-8::0.625::MTS006",0.16016676587650164,-3.3028595087098105,469]],"bottom":[["U-18666A_BRD-K22025381-003-01-9::0.625::HTS002",-0.15338478463076968,-3.0542186098002,467],["napabucasin_BRD-K22064724-001-01-8::0.624997::MTS010::PROS004_PR500",-0.1833406685192806,-4.155564300739973,465],["capsaicin_BRD-K50590187-001-19-9::0.15625::HTS002",-0.19024844995851822,-3.3598842809540805,338],["GS-39783_BRD-K75478907-001-02-3::0.15625::HTS002",-0.1342449182369461,-2.428358508091685,465]]}}}
{"ccle_proteomics":{"corr":{"top":[["PIGB_Q92521",0.40776171919907794,-4.884669019058758,107],["STARD5_Q9NSY2",0.29844107169000306,-4.112424652102258,170],["MTFMT_Q96DP5",0.2687724445188513,-6.580493181939937,356]],"bottom":[["KIAA1549_Q9HCM3",-0.24304293495179624,-4.082546729411147,257]]},"para":{"top":[["PIGB_Q92521",0.38223761405590007,-4.314466434844365,107]],"bottom":[["KIAA1549_Q9HCM3",-0.25515648768863947,-4.457866908825524,257]]}}}
{"depmap_copy_number":{"corr":{"top":[["CIAO2A_84191",0.9680645197510853,-323.0051853474518,1745],["PPIB_5479",0.9614086116864602,-323.0051853474518,1745],["USP3-AS1_100130855",0.9638953614262503,-323.0051853474518,1745],["LINC02568_102723344",0.9483843004761117,-323.0051853474518,1745],["USP3_9960",0.9554912626408764,-323.0051853474518,1745],["CSNK1G1_53944",0.9614086116864602,-323.0051853474518,1745],["SNX22_79856",0.9614086116864602,-323.0051853474518,1745],["CA12_771",0.9476003569931751,-323.0051853474518,1745],["RPS27L_51065",0.9477559936920555,-323.0051853474518,1745],["MIR422A_494334",0.9946457257621776,-323.0051853474518,1745],["SNX1_6642",0.9658066282807294,-323.0051853474518,1745],["LOC101928988_101928988",0.9967405664831055,-323.0051853474518,1745],["FBXL22_283807",0.9638953614262503,-323.0051853474518,1745]],"bottom":[]},"para":{"top":[["PPIB_5479",0.9820187111040217,-323.0051853474518,1745],["USP3-AS1_100130855",0.9791491087281039,-323.0051853474518,1745],["LINC02568_102723344",0.965977413815557,-323.0051853474518,1745],["HERC1_8925",0.9788939360549421,-323.0051853474518,1745],["USP3_9960",0.9717516242197183,-323.0051853474518,1745],["SNX22_79856",0.9820187111040217,-323.0051853474518,1745],["CSNK1G1_53944",0.9820187111040217,-323.0051853474518,1745],["RPS27L_51065",0.9653440421472821,-323.0051853474518,1745],["MIR422A_494334",0.996918274554423,-323.0051853474518,1745],["CIAO2A_84191",0.987976427957791,-323.0051853474518,1745],["SNX1_6642",0.9856948082866569,-323.0051853474518,1745],["LOC101928988_101928988",0.997829231474251,-323.0051853474518,1745],["FBXL22_283807",0.9791491087281039,-323.0051853474518,1745]],"bottom":[]}}}
{"depmap_gene_tpm":{"corr":{"top":[["SNX1_6642",0.40740467970338856,-52.14541691493079,1293]],"bottom":[]},"para":{"top":[["CIAO2A_84191",0.4838693449884484,-76.11716989024094,1293],["SNX1_6642",0.4378822595197984,-60.97244555047328,1293]],"bottom":[]}}}
{"avana":{"corr":{"top":[["GTF2A2_2958",0.20810466407190198,-8.125760401356786,757],["CDC42_998",0.16882223706293467,-5.601356622224248,769]],"bottom":[["AK3_50808",-0.13168800226930183,-3.601344765270399,769],["NUP43_348995",-0.18063921207143496,-6.338109676459106,769],["HAUS8_93323",-0.1524574562921928,-4.66179761397332,769]]},"para":{"top":[["GTF2A2_2958",0.19664784882654562,-7.309812397028071,757]],"bottom":[["KRT82_3888",-0.14440190515259452,-4.233165420460948,769],["NUP43_348995",-0.1452767359721612,-4.278645088745594,769],["HAUS8_93323",-0.14543718486998486,-4.287014508752878,769]]}}}
{"drive":{"corr":{"top":[],"bottom":[["LOC101928704&LOC105377224&SLC26A2&TRAPPC10&DISP1_101928704&105377224&1836&7109&84976",-0.26117512310036206,-6.56989835680882,377]]},"para":{"top":[["SMAD9_4093",0.1851347961730215,-3.5449886967868385,380],["ALOX15B_247",0.21652020635547536,-4.651670119137044,377]],"bottom":[["ADCK2_90956",-0.20178155468366918,-4.098970468914888,377]]}}}
{"achilles":{"corr":{"top":[["LOC102724985&PDXDC1_102724985&23042",0.29651688999761877,-6.362920685914987,280],["IVL_3713",0.1899761642424141,-2.8526270007104384,280]],"bottom":[["NKX3-2_579",-0.22566894487506928,-6.397042144787559,494],["ACSBG1_23205",-0.2088413018774379,-3.3614017002483254,280],["EXTL2_2135",-0.20165863924081193,-3.162282656580828,280]]},"para":{"top":[["LOC102724985&PDXDC1_102724985&23042",0.3186352248532184,-7.299448930629433,280]],"bottom":[["FBXL19_54620",-0.20307484908896883,-5.269680615846749,494],["ITIH2_3698",-0.2533299567976175,-4.748422288957383,280],["SLC35G3_146861",-0.22402345726450767,-3.804600453248971,280]]}}}
{"ccle_rrbs_tss1kb":{"corr":{"top":[],"bottom":[["TPRKB_2_73964533_73965533",-0.15315327660316708,-5.024076185044685,829]]},"para":{"top":[["HKDC1_10_70979058_70980058",0.14320166793731665,-4.365888566589606,810]],"bottom":[["TPRKB_2_73964533_73965533",-0.16551305433640828,-5.780893731828311,829],["DAPK2_15_64338647_64339647",-0.16474598617476266,-5.657613128938302,817]]}}}
{"ccle_gene_tpm":{"corr":{"top":[["FAM96A_ENSG00000166797.6",0.49366030122025895,-62.49383357259425,1011],["SNX1_ENSG00000028528.10",0.4860252171891765,-60.330798520938544,1011]],"bottom":[]},"para":{"top":[["FAM96A_ENSG00000166797.6",0.49443659804024226,-62.716841179916486,1011],["SNX1_ENSG00000028528.10",0.505957578275158,-66.09488038562685,1011]],"bottom":[["RP11-180O5.2_ENSG00000226088.1",-0.1657430123502419,-6.936713856665479,1011]]}}}
{"ccle_rrbs_tss_clusters":{"corr":{"top":[["KHDC4_2",0.20959416058309305,-3.819540701382168,322],["NDUFV2_3",0.17362426902959827,-3.2345595837620054,389],["CPD_5",0.18499959335369234,-3.2409145464432805,343],["ZNF823_2",0.18615293518291157,-4.196906530775054,456]],"bottom":[["FIGNL2_3",-0.18136974670788936,-3.590589485595386,402],["ERF_1",-0.1873163434353884,-5.269557352340452,582]]},"para":{"top":[["SFMBT2_4",0.1495404227451983,-4.808450084293327,828]],"bottom":[["ERF_1",-0.17673100997643568,-4.744444154353146,582]]}}}
{"ccle_rrbs_cgi_clusters":{"corr":{"top":[["19_45656269_45659246-1",0.17537916479889756,-6.306806525751484,812],["1_155902072_155906307-2",0.20959416058309305,-3.819540701382168,322],["18_9100416_9104973-3",0.17362426902959827,-3.2345595837620054,389],["10_7447376_7452358-1",0.17244098983240588,-6.2438564781964105,831],["19_11847359_11851796-2",0.18615293518291157,-4.196906530775054,456]],"bottom":[]},"para":{"top":[["10_7447376_7452358-1",0.17324697075690407,-6.297443455044204,831]],"bottom":[["11_941737_946142-3",-0.23247207808105966,-5.016613640531838,355]]}}}
