{"depmap_hotspot":{"corr":{"top":[["AL603965.1",0.134680760860901,-7.69486609080534,25.0,1697.0],["ALS2CR12",0.13366403433415436,-7.5879904418797866,39.0,1683.0],["ANXA4",0.0880119681409062,-3.592599216070383,58.0,1664.0],["ARHGDIA",0.08470426621951295,-3.3629169659122264,30.0,1692.0],["BMP2",0.09713696227736911,-4.267442699233335,50.0,1672.0],["C14orf178",0.11856560170216406,-6.093767834536602,10.0,1712.0],["C14orf182",0.09637887298424437,-4.209060590329318,13.0,1709.0],["C15orf38-AP3S2",0.15489558021173153,-9.985981892072008,21.0,1701.0],["CCDC50",0.09688499360612057,-4.247991262224535,42.0,1680.0],["CCDC59",0.08861751391543464,-3.635504827054851,24.0,1698.0],["CCL15",0.18585763832211777,-14.121550667910277,8.0,1714.0],["CLASP1",0.0863778099803106,-3.4781371654673268,118.0,1604.0],["CNNM3",0.08536593891544247,-3.408230187645146,57.0,1665.0],["CREB3L1",0.08840391472258051,-3.6203400285673686,45.0,1677.0],["CRISPLD2",0.09931494665074007,-4.437522360596677,48.0,1674.0],["CWC25",0.11104383594264959,-5.413722553303845,37.0,1685.0],["DERL1",0.11184365840482553,-5.484019120219957,27.0,1695.0],["DUSP15",0.08527992715788614,-3.4023219984163307,35.0,1687.0],["FAM43A",0.08643148452531865,-3.48186603020943,43.0,1679.0],["FBXO6",0.10970027555006368,-5.296712480012134,21.0,1701.0],["FKBP8",0.10207841709824843,-4.658350355834497,47.0,1675.0],["FXN",0.10546455439537541,-4.936629909090415,14.0,1708.0],["GLB1L2",0.0898135155375787,-3.721028397751183,66.0,1656.0],["HSD17B6",0.09607059675182318,-4.185440110714438,33.0,1689.0],["IL23R",0.1367342870112115,-7.91315144211746,72.0,1650.0],["INSL5",0.1392625971528792,-8.186368835626705,8.0,1714.0],["KRT73",0.08469946855647825,-3.36258956139035,63.0,1659.0],["LCE1E",0.09811306828271146,-4.343236047318083,19.0,1703.0],["LDB1",0.08489342630043564,-3.3758389499627914,31.0,1691.0],["LEP",0.08523225098547556,-3.3990493987892494,17.0,1705.0],["MDH1",0.1150180024810277,-5.767735675736359,24.0,1698.0],["MIPEP",0.09867091306724589,-4.38686635724569,46.0,1676.0],["MSL3",0.08562234248417175,-3.425874357103732,42.0,1680.0],["NBPF24",0.08770432412290069,-3.570903065568467,10.0,1712.0],["NDNF",0.08493667975273662,-3.3787973228622046,61.0,1661.0],["OTOL1",0.08520815075316551,-3.3973957287697836,75.0,1647.0],["PAH",0.0967079702839966,-4.2343533059517435,58.0,1664.0],["PDXDC1",0.08401152395226882,-3.315814235827414,82.0,1640.0],["PRR13",0.08434556513148538,-3.3384840602512935,20.0,1702.0],["RARRES3",0.0875251488335506,-3.5582985756468157,19.0,1703.0],["SHBG",0.08657139571062286,-3.4915956954063216,31.0,1691.0],["SLC17A3",0.09823066521409933,-4.352414540066588,52.0,1670.0],["SLC25A41",0.08706474854286914,-3.5260172672934322,58.0,1664.0],["SLC5A12",0.08740901721252772,-3.550141450801734,57.0,1665.0],["SMPD2",0.1008462676263603,-4.55919390792551,32.0,1690.0],["SPARCL1",0.09153791966272914,-3.8461667033674356,51.0,1671.0],["SSNA1",0.11546920524818645,-5.808676798348554,20.0,1702.0],["TCF24",0.09041641844746312,-3.7645345771338286,22.0,1700.0],["TESC",0.08671804226172858,-3.5018089413604283,22.0,1700.0],["TGS1",0.08532807148455462,-3.405628397673061,81.0,1641.0],["THAP5",0.10180779634096121,-4.636476260146161,26.0,1696.0],["TM7SF2",0.08718925593593163,-3.5347320611306743,48.0,1674.0],["TMED5",0.10098027336894588,-4.569923628508935,17.0,1705.0],["TRIM28",0.09210734808850966,-3.887964947397436,90.0,1632.0],["TSPO2",0.10864536533717756,-5.2057847178104435,15.0,1707.0],["WDR77",0.09806767162421419,-4.339695537155441,43.0,1679.0],["ZMYM6NB",0.0854568729150628,-3.4144822943261204,14.0,1708.0],["ZNF418",0.10019183409191015,-4.5069842561418065,69.0,1653.0]],"bottom":[["AP000769.1",-0.07163107762995632,-2.5319270234093803,10.0,1712.0],["CLU",-0.06921431664402845,-2.39159029718131,54.0,1668.0],["COX5B",-0.07853090705683492,-2.955314722895376,12.0,1710.0],["ENPP5",-0.08598700968740479,-3.451050350093035,58.0,1664.0],["GRIA4",-0.07692200365170539,-2.8535655033446314,109.0,1613.0],["HNRNPM",-0.07936546873904403,-3.008821070707677,76.0,1646.0],["MANEA",-0.08207974811636388,-3.1862884367928817,45.0,1677.0],["NHLRC2",-0.07661215333697516,-2.8341819344617107,59.0,1663.0],["SLC16A12",-0.06848518980741196,-2.3500572158182393,42.0,1680.0],["UGCG",-0.06406454000106554,-2.1062037156249804,40.0,1682.0]]},"para":{"top":[["AC018816.3",0.05328167832812477,-1.8680537748419952,10.0,1712.0],["ARHGDIA",0.08323172018559338,-3.5566961316864854,30.0,1692.0],["BLOC1S2",0.06744204533873799,-2.5893164595163065,15.0,1707.0],["LEP",0.07701788301903079,-3.155181646125608,17.0,1705.0],["MAD2L2",0.060191637940924025,-2.2030124284966734,17.0,1705.0],["MRPL49",0.07019496363911498,-2.7454111171243585,11.0,1711.0],["NKIRAS1",0.05408886000817861,-1.905509492588616,10.0,1712.0],["RARRES3",0.05943498537927817,-2.164782163525829,19.0,1703.0],["SAR1A",0.07262226281604221,-2.8875318686960334,17.0,1705.0]],"bottom":[["AP000769.1",-0.06829525757712604,-2.6370746586630704,10.0,1712.0],["C22orf46",-0.061753242246404036,-2.28308682288814,10.0,1712.0],["COX5B",-0.07525908816029642,-3.046403676295265,12.0,1710.0],["OAT",-0.07683529024332689,-3.1438804732238768,29.0,1693.0],["SLC16A12",-0.09505993604983262,-4.396124963133387,42.0,1680.0],["TMEM147",-0.0811612040080209,-3.4197774818575293,13.0,1709.0]]}}}
{"depmap_damaging":{"corr":{"top":[["ANXA4",0.0791803625677211,-2.9954350397999887,30.0,1691.0],["ARHGAP35",0.07972458147875819,-3.0305036620478387,30.0,1691.0],["ATAD3C",0.11280242622041706,-5.566018443747356,15.0,1706.0],["C10orf112",0.0850210784746717,-3.382887042713046,13.0,1708.0],["C3orf20",0.08491912716225376,-3.3759137268672115,10.0,1711.0],["C7orf63",0.08572736058311616,-3.4314014916815663,18.0,1703.0],["CCDC146",0.1155099098572914,-5.809343762722846,21.0,1700.0],["CCDC50",0.151094021815243,-9.525658619937632,9.0,1712.0],["CUX2",0.07482627590314976,-2.7224642532683947,16.0,1705.0],["DENND2A",0.12173709101477297,-6.389908470214004,8.0,1713.0],["DIDO1",0.09121173725589063,-3.8204030205979778,22.0,1699.0],["FAM168A",0.13608584907516857,-7.839694683837277,11.0,1710.0],["HHIP",0.0782033193310561,-2.9330065328179686,10.0,1711.0],["IKZF1",0.0786132369946804,-2.9591154146748417,12.0,1709.0],["ITGA2B",0.08788788087229586,-3.5820439758808202,16.0,1705.0],["KIAA0319",0.09072446139928453,-3.784957819587139,13.0,1708.0],["KIAA0825",0.06962566961091363,-2.4140252341027026,36.0,1685.0],["MGAT1",0.12410261487756619,-6.6181251594935935,9.0,1712.0],["NADK",0.13170629171000933,-7.38051324245729,9.0,1712.0],["NCAPG",0.10131932570451997,-4.594774771901061,11.0,1710.0],["NEIL3",0.06821065270662098,-2.3333970708276563,9.0,1712.0],["NRDE2",0.08113331273220543,-3.1222639132688133,19.0,1702.0],["OAS2",0.0735899270907223,-2.647408078920113,19.0,1702.0],["OTUD4",0.09661978509539872,-4.2254173124339545,13.0,1708.0],["PAH",0.11028301534333453,-5.344523844234651,10.0,1711.0],["PPRC1",0.07540711145119722,-2.758099538681817,30.0,1691.0],["RFC1",0.08887080127956881,-3.6516960478141667,37.0,1684.0],["SCN10A",0.0791657527006843,-2.994496518998405,27.0,1694.0],["SCUBE3",0.0736133559232834,-2.648820337176678,11.0,1710.0],["SLC27A3",0.09326105535202149,-3.971365947169069,25.0,1696.0],["SNX31",0.07945479610113129,-3.0130926599452263,13.0,1708.0],["SREBF1",0.12364264592108165,-6.573416994544578,14.0,1707.0],["THUMPD3",0.08486389913295261,-3.372139341528855,18.0,1703.0],["TRIM28",0.12983005976434156,-7.188293678061799,9.0,1712.0],["TYR",0.1330229457069692,-7.517012871544207,9.0,1712.0],["XPA",0.12025592010028464,-6.249166803835998,13.0,1708.0],["ZC3H7A",0.11875301864258749,-6.108053766741305,14.0,1707.0],["ZNF205",0.09157246236246339,-3.8467539908074504,10.0,1711.0],["ZNF429",0.11710260742561886,-5.955052017186003,13.0,1708.0],["ZNF682",0.08991707024527468,-3.7266068546637126,15.0,1706.0]],"bottom":[["CD4",-0.05693946580871075,-1.7408735963733928,12.0,1709.0],["CD93",-0.0875704173521683,-3.5596972517060794,19.0,1702.0],["EHMT1",-0.057945313489556234,-1.7901915009239817,11.0,1710.0],["NHLRC2",-0.08817161944714455,-3.6020785030295626,22.0,1699.0],["PPOX",-0.05717487201968823,-1.7523538600037651,10.0,1711.0]]},"para":{"top":[["AAR2",0.05969910574732012,-2.177086130092107,9.0,1712.0],["CCDC11",0.05708296543825355,-2.047467894285701,10.0,1711.0],["CDC7",0.058060134954139565,-2.095364945778425,11.0,1710.0],["CEP192",0.07011825347417672,-2.7398751051817203,15.0,1706.0],["DHX9",0.06811757114086238,-2.6260366446934986,15.0,1706.0],["EGFL7",0.05814359393470774,-2.0994220876665377,8.0,1713.0],["IDO2",0.06290650256103157,-2.342347887187136,8.0,1713.0],["LILRB5",0.06595433073685258,-2.5059789083769415,10.0,1711.0],["MYSM1",0.058767838765125424,-2.13047421526738,13.0,1708.0],["SLC22A3",0.06930231477589661,-2.69305462710325,11.0,1710.0],["TMC1",0.07387495005135253,-2.9611788936544103,21.0,1700.0],["TRERF1",0.07765505648773914,-3.1936682312479525,16.0,1705.0],["TRIM46",0.06094579899111399,-2.240554491612217,12.0,1709.0],["ZC3H14",0.07693818947830482,-3.148791204388434,15.0,1706.0]],"bottom":[["ICK",-0.05325325635588736,-1.8660101298582166,9.0,1712.0],["SMAP1",-0.05841870779037986,-2.1130341940988338,8.0,1713.0]]}}}
{"prism_primary_logfold":{"corr":{"top":[["rotigotine_BRD-K91111634-001-01-2::2.5::HTS",0.15413001593268255,-3.5778754357238873,556]],"bottom":[["levocetirizine_BRD-K27184429-300-01-3::2.5::HTS",-0.11124592695397206,-2.071808354814949,559],["S-Nitrosoglutathione_BRD-K94780074-001-06-7::2.5::HTS",-0.1207061385443808,-2.253927611623463,526]]},"para":{"top":[["piceatannol_BRD-K91509126-001-23-6::2.5::HTS",0.1187203814550977,-2.3058274728747588,559]],"bottom":[["chlorcyclizine_BRD-A57133233-003-11-0::2.5::HTS",-0.15435792134071086,-3.5591775488678787,551],["1-phenylbiguanide_BRD-K31491153-003-05-9::2.5::HTS",-0.14692545520125508,-3.292567158679731,556]]}}}
{"prism_secondary_logfold":{"corr":{"top":[["gimeracil_BRD-K35687421-001-02-5::0.0390625::HTS002",0.18219405940181801,-4.140525684124202,469],["brequinar_BRD-K96123349-236-02-8::0.00244141::HTS002",0.17000620488131452,-3.6643996616412067,469],["beclomethasone-dipropionate_BRD-K97810537-001-13-6::0.00976562::HTS002",0.2639723963325596,-3.4482011197195708,179]],"bottom":[["pheniramine_BRD-A23072235-050-18-5::0.0024414::HTS002",-0.16029719339119886,-3.2953948459457476,467],["lacitol_BRD-K40787673-001-02-1::0.00061034::HTS002",-0.1805775321193764,-3.3939062566728078,380],["palmatine-chloride_BRD-K58466253-003-14-0::0.0024414::HTS002",-0.16251520868266478,-3.3810920039754193,468],["WZ-4002_BRD-K72420232-001-12-3::0.0024414::HTS002",-0.17453812783801578,-3.809215287742992,465],["benzethonium_BRD-K72723676-003-17-8::0.0390625::HTS002",-0.20597920014915044,-2.71160844163756,224],["gestrinone_BRD-K97472745-001-01-8::0.0024414::HTS002",-0.1881468285272217,-4.359871410505805,466]]},"para":{"top":[["10-hydroxycamptothecin_BRD-K63784565-001-06-2::2.50835::HTS002",0.16769153706047296,-3.531260220734934,462]],"bottom":[["lacitol_BRD-K40787673-001-02-1::0.00061034::HTS002",-0.18036171829798212,-3.3868403090517227,380],["palmatine-chloride_BRD-K58466253-003-14-0::0.0024414::HTS002",-0.15313345662231684,-3.0511932889487543,468],["ZK-93426_BRD-K68392338-003-02-0::0.0390625::HTS002",-0.14090071648997313,-2.652818436717388,469]]}}}
{"ccle_proteomics":{"corr":{"top":[["EPB41L5_Q9HCM4",0.24962648934204876,-5.732683754068806,356],["TMEM185B_Q9H7F4",0.2593711486467105,-4.894504401244417,276],["TMEM177_Q53S58",0.2780345038306628,-5.547236143336106,275]],"bottom":[["TRIB3_J3KR25",-0.2282568318880025,-2.7752432994029603,187]]},"para":{"top":[["LSAMP_Q13449",0.23228809641653966,-4.4656703736019825,312],["SFT2D3_Q587I9",0.29156395590669965,-6.62350260043987,303],["PRKG1_Q13976-2",0.28428635176899597,-2.5227227961495413,107]],"bottom":[["MBNL1_Q9NR56-5",-0.27088580873486956,-2.7925946617929753,133]]}}}
{"depmap_copy_number":{"corr":{"top":[["EN1_2019",0.973567682849151,-323.0051853474518,1745],["LOC101927709_101927709",0.9735676110659621,-323.0051853474518,1745],["CFAP221_200373",0.9683476561569927,-323.0051853474518,1745],["TMEM37_140738",0.9930979658943634,-323.0051853474518,1745],["STEAP3-AS1_100874111",0.9999999999999997,-323.0051853474518,1745],["SCTR_6344",0.9930979658943634,-323.0051853474518,1745],["MARCO_8685",0.9708113539353905,-323.0051853474518,1745],["LOC107105282_107105282",0.9719290067337892,-323.0051853474518,1745],["PTPN4_5775",0.9635519471177867,-323.0051853474518,1745],["C1QL2_165257",0.9982998233899949,-323.0051853474518,1745],["C2orf76_130355",0.9999999999999997,-323.0051853474518,1745],["TMEM177_80775",0.9607763147794053,-323.0051853474518,1745],["DBI_1622",0.9999999999999997,-323.0051853474518,1745]],"bottom":[]},"para":{"top":[["EN1_2019",0.9907627304491751,-323.0051853474518,1745],["LOC101927709_101927709",0.9907617883205413,-323.0051853474518,1745],["CFAP221_200373",0.9907105184165286,-323.0051853474518,1745],["TMEM37_140738",0.996276783496916,-323.0051853474518,1745],["SCTR_6344",0.996276783496916,-323.0051853474518,1745],["THORLNC_100506797",0.9860319493729885,-323.0051853474518,1745],["MARCO_8685",0.9927475996842078,-323.0051853474518,1745],["LOC107105282_107105282",0.992883950630436,-323.0051853474518,1745],["PTPN4_5775",0.9915023946975947,-323.0051853474518,1745],["C1QL2_165257",0.9987470557635261,-323.0051853474518,1745],["STEAP3_55240",0.9999619792458674,-323.0051853474518,1745],["TMEM177_80775",0.9896039260888018,-323.0051853474518,1745],["TMEM185B_79134",0.9858765205032035,-323.0051853474518,1745],["EPB41L5_57669",0.9859364041696144,-323.0051853474518,1745]],"bottom":[]}}}
{"depmap_gene_tpm":{"corr":{"top":[["C2orf76_130355",0.28148109380098396,-24.2477904780913,1293],["DBI_1622",0.30238044757109406,-28.01830837910976,1293]],"bottom":[["UBXN2B_137886",-0.13919164782341648,-6.297456231781604,1293]]},"para":{"top":[["RALB_5899",0.32025907088967687,-31.498833541682608,1293],["TMEM185B_79134",0.3559613494804505,-39.1890043114042,1293]],"bottom":[]}}}
{"avana":{"corr":{"top":[["NIFK_84365",0.21136382554830202,-8.488944195007775,769],["POLR1B_84172",0.15156260560245688,-4.549415040418038,757]],"bottom":[["RHPN2_85415",-0.1657703911520639,-5.419075947458762,769],["KIDINS220_57498",-0.19718200557839285,-7.453367076357536,769]]},"para":{"top":[["NIFK_84365",0.21790516129460144,-8.991785701149633,769],["DDX18_8886",0.24788976797805168,-11.505557276847751,769]],"bottom":[["C8orf34_116328",-0.1432723387230859,-4.1748267439626625,769],["C16orf96_342346",-0.16138101654378148,-5.1626092843284255,769]]}}}
{"drive":{"corr":{"top":[["WDR25_79446",0.18938763980494389,-3.6892212736195784,380],["ANGPTL4_51129",0.19295118034665323,-3.812502793907214,380],["RPS6KL1_83694",0.18593075145137553,-3.547288985259502,377],["ARID2_196528",0.23038681373406547,-5.244599985221227,380],["PBRM1_55193",0.1932161270906179,-3.821757424391829,380],["RASD2_23551",0.18123987527557966,-3.415641983342851,380]],"bottom":[["AFF3_3899",-0.16969590253351136,-3.0270040909296725,377],["NPAS1_4861",-0.21894832565582345,-4.7800481991334,380],["CCNJL_79616",-0.18950307544968006,-3.6678133748891875,377],["CNOT8_9337",-0.17108050301238067,-3.090499429275341,380],["ZKSCAN4_387032",-0.16565446961082944,-2.924019187202231,380]]},"para":{"top":[["SAP130_79595",0.17997521618299592,-3.3742058600410245,380],["ARID2_196528",0.20395949823317883,-4.207452100998058,380]],"bottom":[["GIPC1_10755",-0.16179244907310353,-2.808538075003802,380]]}}}
{"achilles":{"corr":{"top":[["AAAS_8086",0.18162344934547422,-2.6418548185938513,280],["GDPD3_79153",0.2053043276087105,-3.262510588378276,280]],"bottom":[["IPO9_55705",-0.18904879970554234,-2.828791802166675,280],["PLAC8L1_153770",-0.19476421498359772,-2.9774277712532675,280],["MESD_23184",-0.1809760932444908,-2.6258850985187916,280],["COPS4_51138",-0.20636403591861163,-3.291968068304705,280],["SLFNL1_200172",-0.19438545096061455,-2.967448890580866,280]]},"para":{"top":[["SPACA1_81833",0.2124280776872874,-3.4633568936260426,280]],"bottom":[["CILP2_148113",-0.20470410540609454,-3.2458905840834547,280],["SLC39A14_23516",-0.20771264173840995,-5.491215064122816,494],["SLFNL1_200172",-0.20498115921416848,-3.2535563161308843,280],["COPS4_51138",-0.19118915448307933,-2.8839679220227326,280]]}}}
{"ccle_rrbs_tss1kb":{"corr":{"top":[["ZKSCAN3_6_28316690_28317690",0.22669889097097393,-10.431390302011957,832]],"bottom":[["LINC01058_13_30996381_30997381",-0.14893175604036243,-2.7242196932504843,433]]},"para":{"top":[["BMPR1B_4_95971829_95972829",0.14160596117789578,-4.0383447278788545,758]],"bottom":[["PRNP_20_4666151_4667151",-0.1321757452639762,-3.8281726843595747,819]]}}}
{"ccle_gene_tpm":{"corr":{"top":[["C2orf76_ENSG00000186132.10",0.3164467546785092,-24.222577595561603,1011],["DBI_ENSG00000155368.12",0.33100000530386453,-26.548060461938217,1011]],"bottom":[["UBXN2B_ENSG00000215114.3",-0.16667125063561752,-7.008516483166766,1011]]},"para":{"top":[["RALB_ENSG00000144118.9",0.34960199555270455,-29.709031278852365,1011],["TMEM185B_ENSG00000226479.3",0.3991359417635464,-39.22453952348176,1011]],"bottom":[["UBXN2B_ENSG00000215114.3",-0.1896968574725548,-8.918708433827973,1011]]}}}
{"ccle_rrbs_tss_clusters":{"corr":{"top":[["ZKSCAN3",0.2447114141217508,-12.124847100592845,835]],"bottom":[["PSMC3_3",-0.1667982997311701,-4.440314395168308,607]]},"para":{"top":[],"bottom":[]}}}
{"ccle_rrbs_cgi_clusters":{"corr":{"top":[["16_88729759_88732410-1",0.24773779745523902,-12.402963166536669,834]],"bottom":[["10_70746435_70751334-3",-0.19157799967036815,-5.15039264749326,542]]},"para":{"top":[["6_149775792_149780189-3",0.17314778998363323,-2.805180651889581,331]],"bottom":[["7_64539192_64543752-2",-0.16653740212368756,-3.8013168445939582,510]]}}}
