{"depmap_hotspot":{"corr":{"top":[["CELSR2",0.07792824771480678,-2.916985552492872,208.0,1514.0],["EPHX2",0.07247864707332671,-2.582118368446165,46.0,1676.0],["EXOC3L2",0.06299084260684185,-2.0490296426409733,25.0,1697.0],["HOXA2",0.07172470485824317,-2.537446533614804,61.0,1661.0],["HRC",0.06782467435269943,-2.3127541379173993,68.0,1654.0],["KCNA10",0.0785594883844462,-2.9571389346053087,73.0,1649.0],["MAEA",0.07561989763232477,-2.7725680319083232,44.0,1678.0],["NCKAP5L",0.08318998041307331,-3.260401667411659,148.0,1574.0],["OR6N2",0.06385728093556108,-2.0951049217041833,58.0,1664.0],["PGM5",0.07978773736935485,-3.0360836773799105,51.0,1671.0],["RND1",0.07737194237181975,-2.8818343982326784,18.0,1704.0],["SULT1C4",0.062470511224196654,-2.0216096490026634,29.0,1693.0]],"bottom":[["B3GALT5",-0.07376811925798159,-2.659451738537743,34.0,1688.0],["BECN1",-0.07043355961742666,-2.4618757745003097,37.0,1685.0],["CCDC136",-0.06975474591614374,-2.4226154216583087,82.0,1640.0],["CCDC166",-0.068874109961855,-2.3721647768690883,16.0,1706.0],["CLIC6",-0.06851918651228843,-2.3519854755075915,64.0,1658.0],["CPA1",-0.08787926408254298,-3.583232044957075,49.0,1673.0],["CYP4F2",-0.08327001219625163,-3.2657784057053627,72.0,1650.0],["DAZAP1",-0.07887412597275899,-2.977259324696374,65.0,1657.0],["EBAG9",-0.07007018556787993,-2.4408191161071784,19.0,1703.0],["EPC2",-0.07633363927956811,-2.816816994321706,75.0,1647.0],["EXOC1",-0.08063215161654028,-3.090983608689223,68.0,1654.0],["FBXL20",-0.06868965274017827,-2.3616663698497855,40.0,1682.0],["GINS4",-0.07004758412734131,-2.4395124841436777,18.0,1704.0],["GLB1L",-0.0854705934884318,-3.4154261614318746,46.0,1676.0],["KCNJ15",-0.07441398269258456,-2.698628332975579,50.0,1672.0],["LEPREL4",-0.08298327626860998,-3.246536072536586,36.0,1686.0],["LY6G6F",-0.07416810764084791,-2.683679280778344,18.0,1704.0],["NPIPB11",-0.076157831950664,-2.805884071280727,41.0,1681.0],["POMT2",-0.06893368013942094,-2.375560319631206,54.0,1668.0],["PSORS1C1",-0.06987008933398682,-2.429263659165525,9.0,1713.0],["RDH14",-0.0908890026800829,-3.798821583020446,20.0,1702.0],["RTN4R",-0.07577736616726294,-2.7822992890907776,39.0,1683.0],["S100A14",-0.0837307999631511,-3.2968249490567554,41.0,1681.0],["SCD",-0.07970143436896018,-3.0305013949073096,29.0,1693.0],["SH2B1",-0.09199954935273347,-3.880033973895253,83.0,1639.0],["SHF",-0.082628477576082,-3.222807998973945,39.0,1683.0],["STAT5A",-0.0688529936283359,-2.3709617283585587,68.0,1654.0],["TSC2",-0.07484775142401581,-2.725105696814218,175.0,1547.0],["VCX2",-0.08013427045988643,-3.0585519145868107,12.0,1710.0],["VPS52",-0.0770332303046468,-2.8605402727592524,52.0,1670.0],["ZNF827",-0.07957972299598481,-3.0226378691006888,101.0,1621.0]]},"para":{"top":[["AL138764.1",0.068305877730848,-2.637622394243391,8.0,1714.0],["C5orf60",0.05488003982050503,-1.9427315612220533,17.0,1705.0],["DTD2",0.06459290293439351,-2.433226739643479,17.0,1705.0],["EFNA2",0.06663801905534492,-2.5447790512663477,26.0,1696.0],["HRCT1",0.06796173447893575,-2.618440970470489,20.0,1702.0],["RP4-583P15.15",0.07397503410433813,-2.9684957041427755,20.0,1702.0]],"bottom":[["C2orf74",-0.06827217124214212,-2.635811192018644,12.0,1710.0],["CCDC166",-0.07635100717940589,-3.1136971446276775,16.0,1706.0],["CIAPIN1",-0.0727775846578749,-2.8967949586452097,21.0,1701.0],["EBAG9",-0.0724914864620627,-2.8797937223747847,19.0,1703.0],["FAM180B",-0.07071267037288367,-2.775479149200798,21.0,1701.0],["POLDIP2",-0.0621867308054018,-2.305708093318145,15.0,1707.0],["PSORS1C1",-0.05361972128342793,-1.883667611778006,9.0,1713.0],["RDH14",-0.06741110595476019,-2.58763772008171,20.0,1702.0],["VCX2",-0.06408020515846848,-2.4056676470081717,12.0,1710.0]]}}}
{"depmap_damaging":{"corr":{"top":[["PDCD11",0.08337224972866736,-3.2710281410261124,29.0,1692.0],["SLC7A13",0.06478638419662688,-2.1440742144901526,12.0,1709.0]],"bottom":[["CAD",-0.07239954439234378,-2.5761640638378216,15.0,1706.0],["CASP14",-0.07442382224719081,-2.697913289236636,10.0,1711.0],["DAZAP1",-0.07500932823418373,-2.7336690162532706,26.0,1695.0],["DST",-0.06819176517388324,-2.3323303422061223,111.0,1610.0],["ERAP2",-0.06984739295410747,-2.426786405066524,8.0,1713.0],["GCN1L1",-0.0714290527878852,-2.518820605845296,21.0,1700.0],["GNL2",-0.0680565310109708,-2.3246998930835385,13.0,1708.0],["GREB1",-0.07103101521400222,-2.4954937011061458,14.0,1707.0],["HDAC6",-0.08202189504163936,-3.180874419198707,13.0,1708.0],["HS6ST2",-0.06385962536062553,-2.094239218566399,9.0,1712.0],["IQGAP1",-0.08023105312116152,-3.0633301047195713,24.0,1697.0],["KIF27",-0.06920805538012852,-2.3900833813473823,21.0,1700.0],["KLB",-0.06643424500908399,-2.2341608923291547,15.0,1706.0],["KRT73",-0.07991414764328063,-3.042768719446944,8.0,1713.0],["MARK2",-0.07274346008056234,-2.5966444778316236,11.0,1710.0],["MEIS1",-0.06576616235470947,-2.1974096114585,10.0,1711.0],["NBN",-0.08845184935501531,-3.621922522030878,22.0,1699.0],["NT5DC1",-0.07822649057760617,-2.934479183141045,14.0,1707.0],["OXSR1",-0.06535357185154235,-2.174868316311141,12.0,1709.0],["PCOLCE",-0.06859391873296924,-2.355097110113402,11.0,1710.0],["PROX1",-0.0636935926382669,-2.085374051784455,21.0,1700.0],["RECK",-0.07786174623725636,-2.911342238414407,15.0,1706.0],["S100A14",-0.08900064545781546,-3.6609494731528707,31.0,1690.0],["SETD3",-0.07451974116109275,-2.7037542335683233,15.0,1706.0],["TNKS",-0.07124343839241955,-2.507928831060095,18.0,1703.0],["TSPAN7",-0.07211657785960063,-2.559375813953712,10.0,1711.0],["WWTR1",-0.08490807207456812,-3.375158025810478,9.0,1712.0]]},"para":{"top":[["CCDC27",0.05756733990496517,-2.071076324104378,8.0,1713.0]],"bottom":[["CAD",-0.07089810508236712,-2.784998380484682,15.0,1706.0],["CSTF2T",-0.057550254958644215,-2.0702633207272445,9.0,1712.0],["IQGAP1",-0.08966594651014773,-3.9991094902205413,24.0,1697.0],["NBN",-0.08481592825621076,-3.6616564843829575,22.0,1699.0],["SETD3",-0.07724615619853611,-3.1680210731934495,15.0,1706.0],["SLC10A5",-0.06259491085277596,-2.3260487933344725,11.0,1710.0],["ZNF641",-0.05716918113741903,-2.0516461553406957,9.0,1712.0]]}}}
{"ccle_rppa":{"corr":{"top":[],"bottom":[["ANXA7_Annexin_VII",-0.1726644146610411,-6.70801603752686,897]]},"para":{"top":[],"bottom":[]}}}
{"prism_primary_logfold":{"corr":{"top":[],"bottom":[["KD025_BRD-K88506063-001-01-8::2.5::HTS",-0.15647889160800296,-3.673640848229098,556]]},"para":{"top":[],"bottom":[]}}}
{"ccle_proteomics":{"corr":{"top":[["DRAM2_Q6UX65",0.3987580505513462,-6.831343904888122,162]],"bottom":[]},"para":{"top":[["DRAM2_Q6UX65",0.36246014755823225,-5.669785918931521,162]],"bottom":[]}}}
{"depmap_copy_number":{"corr":{"top":[["CEPT1_10390",0.9993277610764265,-323.0051853474518,1745],["CHI3L2_1117",0.9964123220742277,-323.0051853474518,1745],["DRAM2_128338",0.9971687628559278,-323.0051853474518,1745],["LRIF1_55791",0.9960548544401074,-323.0051853474518,1745],["CHIA_27159",0.9932254651626754,-323.0051853474518,1745],["CHIAP2_149620",0.9962540728933065,-323.0051853474518,1745],["CD53_963",0.9931696376373441,-323.0051853474518,1745],["PIFO_128344",0.9918254025863743,-323.0051853474518,1745]],"bottom":[]},"para":{"top":[["CEPT1_10390",0.9980995454158391,-323.0051853474518,1745],["CHI3L2_1117",0.9985893208367747,-323.0051853474518,1745],["OVGP1_5016",0.9964805576126248,-323.0051853474518,1745],["DRAM2_128338",0.9967436932723945,-323.0051853474518,1745],["LRIF1_55791",0.996711747398455,-323.0051853474518,1745],["WDR77_79084",0.996400080683513,-323.0051853474518,1745],["ATP5PB_515",0.996400080683513,-323.0051853474518,1745],["PGCP1_441897",0.9965876026838265,-323.0051853474518,1745],["CHIA_27159",0.9948301654254402,-323.0051853474518,1745],["CHIAP2_149620",0.9985390490643148,-323.0051853474518,1745],["CD53_963",0.9942675248061923,-323.0051853474518,1745],["PIFO_128344",0.9966740520386808,-323.0051853474518,1745]],"bottom":[]}}}
{"depmap_gene_tpm":{"corr":{"top":[["LAMTOR5_10542",0.5647583179218097,-109.08994714783842,1293],["WDR77_79084",0.45841556749226336,-67.44923206700959,1293]],"bottom":[["PTPN6_5777",-0.1843318270423202,-10.61922710608297,1293],["MUC13_56667",-0.1900565522871388,-11.254639998524723,1293]]},"para":{"top":[],"bottom":[["ACTL10_170487",-0.19305590986717905,-11.595583202750802,1293]]}}}
{"avana":{"corr":{"top":[["ATP1A1_476",0.182746215132309,-6.474683670151337,769],["WDR77_79084",0.20536021420544498,-7.925966350957174,757]],"bottom":[["NRBF2_29982",-0.23233724288433316,-10.158440328931807,769]]},"para":{"top":[["ATP1A1_476",0.20246353423599056,-7.830365696750923,769]],"bottom":[["NRBF2_29982",-0.216488220961765,-8.88150155645286,769],["GSTM4_2948",-0.2033621408029551,-7.895528589110143,769]]}}}
{"drive":{"corr":{"top":[["SCGB3A1_92304",0.20428166022939945,-4.190001611701661,377]],"bottom":[]},"para":{"top":[],"bottom":[["CDC42_998",-0.21432386078678434,-4.599051661432193,380]]}}}
{"achilles":{"corr":{"top":[["SPATA31D4_389761",0.23727938154299036,-4.216858354067495,280],["LOC105379426_105379426",0.22058753253779054,-3.7016172477812828,280]],"bottom":[["RTL10_79680",-0.19877224570889743,-3.084148442491077,280]]},"para":{"top":[["SPATA31D4_389761",0.2179873959346627,-3.6247329006447977,280]],"bottom":[["RSRP1_57035",-0.2071443302073155,-3.3137519930102393,280]]}}}
{"ccle_rrbs_tss1kb":{"corr":{"top":[["LOC101928902_8_145596648_145597648",0.20992647819091825,-8.882977368768733,819]],"bottom":[["CCDC178_18_31020045_31021045",-0.19800818583747223,-7.994634793443624,823],["CCDC178_18_31020685_31021685",-0.19826186629580067,-7.99589704515821,821]]},"para":{"top":[["LOC101926889_20_25177528_25178528",0.1863544190766611,-6.9265350882204775,796]],"bottom":[["NTNG2_9_135036333_135037333",-0.2254988428238144,-10.314525774897985,831]]}}}
{"ccle_gene_tpm":{"corr":{"top":[["STRIP1_ENSG00000143093.10",0.5370089841753355,-75.87154305426583,1011],["LAMTOR5_ENSG00000134248.9",0.5727592033831065,-88.46847769635511,1011],["STXBP3_ENSG00000116266.6",0.4843821267102062,-59.87242004135274,1011],["AHCYL1_ENSG00000168710.13",0.4918528913499687,-61.976835079116725,1011],["WDR77_ENSG00000116455.9",0.48967157734071837,-61.35699391371917,1011]],"bottom":[]},"para":{"top":[["STRIP1_ENSG00000143093.10",0.537214111273095,-75.93956270128041,1011],["ATP5F1_ENSG00000116459.6",0.5387885559851565,-76.46320850157235,1011]],"bottom":[]}}}
{"ccle_rrbs_tss_clusters":{"corr":{"top":[["CRACR2B_2",0.19150024944184135,-7.661677561204217,841]],"bottom":[]},"para":{"top":[],"bottom":[]}}}
{"ccle_rrbs_cgi_clusters":{"corr":{"top":[],"bottom":[["4_117845087_117849522-2",-0.21710421488968312,-3.531708100187937,274]]},"para":{"top":[],"bottom":[["19_18075752_18080259-3",-0.23973471750682548,-11.626763552972571,833]]}}}
