{"depmap_hotspot":{"corr":{"top":[["ACSF2",0.07638514646573463,-2.8200242327075418,42.0,1680.0],["AGO4",0.08319620252994299,-3.2608195198412817,61.0,1661.0],["BST2",0.07662715770489194,-2.8351190012261966,17.0,1705.0],["C8orf31",0.08097232238824588,-3.113244237065678,20.0,1702.0],["CABIN1",0.08795882324706866,-3.588846349867253,165.0,1557.0],["CCDC177",0.08124124513466834,-3.1309011235032944,30.0,1692.0],["CCDC181",0.07302626307176587,-2.614816849203324,50.0,1672.0],["CDKL3",0.07215200380869638,-2.562715167549015,53.0,1669.0],["EYA4",0.08526910510662163,-3.4015790045967997,64.0,1658.0],["FAM105A",0.07796439160567847,-2.9192770023870986,29.0,1693.0],["GTF2B",0.07518699267361678,-2.745906079798777,26.0,1696.0],["HGF",0.073283896836438,-2.630273642721232,104.0,1618.0],["HSPBP1",0.07248465823803026,-2.582476148552841,34.0,1688.0],["KIAA1598",0.07280714690520362,-2.601707857313057,40.0,1682.0],["MRO",0.0802692788573776,-3.0673287456067673,21.0,1701.0],["NUDT12",0.07535920987002362,-2.756496734470941,50.0,1672.0],["NUP98",0.1004063611550696,-4.524064090001459,121.0,1601.0],["OR5AR1",0.08212883680940268,-3.189546625908954,48.0,1674.0],["PHLDB2",0.07354855519509201,-2.6462007670008365,108.0,1614.0],["POM121L2",0.07529854367007195,-2.7527636087442997,119.0,1603.0],["SGSM2",0.07459753126474507,-2.7098159061694664,89.0,1633.0],["SLC18A1",0.07158679414595087,-2.529318577944208,66.0,1656.0],["SMIM12",0.08864657773288216,-3.6375708140266987,9.0,1713.0],["TIFA",0.07647920234061856,-2.825885752737115,12.0,1710.0],["TMPPE",0.08198934896779805,-3.1802928543419844,37.0,1685.0],["UBIAD1",0.07170745039642658,-2.53642888428158,28.0,1694.0],["WDR5",0.09134791884271498,-3.832272463871017,42.0,1680.0],["ZBTB41",0.07902734806060556,-2.9870831437008962,109.0,1613.0],["ZMAT1",0.08550862091143367,-3.4180428580800344,59.0,1663.0],["ZNF324B",0.07658009390674565,-2.8321802658465933,61.0,1661.0],["ZNF710",0.07790440606648007,-2.915474549952648,64.0,1658.0]],"bottom":[["PRAMEF7",-0.07166694322859402,-2.5340406408259373,14.0,1708.0],["PSMF1",-0.05839473695571738,-1.813293655369267,27.0,1695.0],["SPPL2A",-0.06661841462364808,-2.2454176486052,29.0,1693.0],["TEX26",-0.10520220881155698,-4.9147662343613785,39.0,1683.0]]},"para":{"top":[["AL109659.1",0.06167141246278945,-2.2788792937845614,12.0,1710.0],["B4GALT4",0.07492322475098738,-3.025985659363771,20.0,1702.0],["BST2",0.08790564848428792,-3.8764410940322613,17.0,1705.0],["C8orf31",0.06757973470226586,-2.5970489292795467,20.0,1702.0],["C9orf40",0.07256611774817104,-2.8842099905665015,18.0,1704.0],["CCDC166",0.0716566744270124,-2.8305281599344503,16.0,1706.0],["CLLU1",0.06432560737465723,-2.4188075927922323,12.0,1710.0],["DEFB126",0.05992248870857398,-2.189291162898452,11.0,1711.0],["LRRC3DN",0.06719207878296973,-2.5754176710916643,17.0,1705.0],["MRO",0.07290490563575236,-2.904372119974997,21.0,1701.0],["NDUFB5",0.06898144005477042,-2.6759906382322542,15.0,1707.0],["SESN3",0.08249476214362612,-3.5076749563576133,31.0,1691.0],["TAS2R39",0.08189908729404195,-3.4683358070450363,33.0,1689.0],["TWSG1",0.07601207506110359,-3.0927591738888114,18.0,1704.0],["ZMYM6NB",0.07144021012453286,-2.8178159797758897,14.0,1708.0]],"bottom":[["HMGN1",-0.05463414185406428,-1.931059989761666,10.0,1712.0],["LXN",-0.07515274272399108,-3.0399872482734067,19.0,1703.0],["PSMF1",-0.06581091361850326,-2.4993467845947874,27.0,1695.0],["TEX26",-0.11318003986200785,-5.875379757878053,39.0,1683.0],["VPREB1",-0.06743510924982475,-2.5889296341521275,15.0,1707.0]]}}}
{"depmap_damaging":{"corr":{"top":[["ARMC2",0.09351610376800501,-3.990368311598773,13.0,1708.0],["CSMD1",0.07994140985147016,-3.044534715783426,60.0,1661.0],["FOLH1",0.09352915354770465,-3.991341861209853,19.0,1702.0],["ITGB4",0.05946430875228231,-1.86598278075667,26.0,1695.0],["KCTD3",0.0648410973153702,-2.14703498164818,23.0,1698.0],["MARCH7",0.05791451219384185,-1.7886710069480567,15.0,1706.0],["SKIV2L2",0.07739959585487881,-2.8821626616728473,15.0,1706.0],["SLIT3",0.0685299609876064,-2.3514687506337664,23.0,1698.0]],"bottom":[["FRK",-0.05751500173777674,-1.76900814397248,11.0,1710.0],["KDR",-0.058996212128613716,-1.8424580789160636,22.0,1699.0],["L3MBTL3",-0.06181291345889497,-1.9862901538965902,21.0,1700.0],["MYLK4",-0.07513288117381194,-2.741245210165328,8.0,1713.0],["USP44",-0.05733059800647932,-1.7599690926414386,15.0,1706.0]]},"para":{"top":[["ANKLE2",0.06012927242820115,-2.1988680192435988,10.0,1711.0],["ARMC2",0.07039780202354122,-2.7559750112627213,13.0,1708.0],["CST1",0.0597913822945393,-2.181782412584914,11.0,1710.0],["ELP2",0.06294160811035648,-2.3443057101083027,14.0,1707.0],["EPN2",0.05890395490928824,-2.1371928053456064,9.0,1712.0],["FAM114A2",0.05894257505949768,-2.139096058174336,8.0,1713.0],["FBXO43",0.055391921106817905,-1.9660914081056187,8.0,1713.0],["KANK4",0.06244779864095847,-2.318345261034094,11.0,1710.0],["LPIN3",0.060290848208238546,-2.207074234000776,10.0,1711.0],["PUM2",0.06286061423423422,-2.339959361416984,9.0,1712.0],["RAG2",0.0591575056861732,-2.149842511137646,8.0,1713.0],["SEZ6L",0.054143274482053916,-1.9073152383752887,10.0,1711.0],["SLC35F5",0.05789813528521293,-2.087382529601642,11.0,1710.0],["STK32A",0.0767498855447455,-3.137000778855443,11.0,1710.0],["UBL3",0.0679659982815839,-2.617483507681968,12.0,1709.0],["ZBTB4",0.062901153776498,-2.342092158141378,9.0,1712.0],["ZNF420",0.06686732073867101,-2.5562881601784495,14.0,1707.0],["ZNF568",0.07821268756433734,-3.22884706616837,19.0,1702.0]],"bottom":[["FNDC7",-0.05287977892888893,-1.848843625404878,9.0,1712.0],["TGM6",-0.06999143401145261,-2.7325167692857697,11.0,1710.0]]}}}
{"ccle_rppa":{"corr":{"top":[],"bottom":[]},"para":{"top":[],"bottom":[["SMAD3_Smad3",-0.20045065855737076,-8.857143989143768,897]]}}}
{"ccle_rrbs_enhancer_clusters":{"corr":{"top":[],"bottom":[["1-38492689-38497688-1_enh",-0.2199661259014713,-9.881452729456873,835],["17-41638235-41642900-1_enh",-0.22026880410100588,-6.407746925402458,520]]},"para":{"top":[],"bottom":[]}}}
{"ccle_mirna":{"corr":{"top":[],"bottom":[]},"para":{"top":[["hsa-miR-1908_miR00201.1",0.14613838933273657,-5.219087021111781,951]],"bottom":[]}}}
{"prism_primary_logfold":{"corr":{"top":[["ADX-47273_BRD-K56543881-001-02-7::2.5::HTS",0.12794672367341395,-2.597050661716353,555]],"bottom":[["lenvatinib_BRD-K39974922-001-04-3::2.5::HTS",-0.1666977611151687,-4.021954295108043,543],["cyt387_BRD-K87737963-001-06-0::2.5::HTS",-0.18061799321612337,-4.729850888149219,555],["ABT-751_BRD-K91623615-001-05-0::2.46::HTS",-0.17348111578842104,-4.197637586252864,526],["verubulin_BRD-K42673188-001-01-1::2.363355746::MTS004",-0.20542598061321798,-5.8202714543901255,539],["vindesine_BRD-K59753975-001-02-6::2.5::MTS004",-0.19279495192517834,-5.184081471318375,539],["vinflunine_BRD-K64120610-001-01-4::2.5::MTS004",-0.1720432353561574,-4.22573459173071,539]]},"para":{"top":[["calcitriol_BRD-K27316855-001-19-0::2.5::HTS",0.1987250504557626,-5.632718309879644,556],["fanetizole_BRD-K60798049-001-03-8::2.665505334::MTS004",0.13513464582134788,-2.7789046986551678,539]],"bottom":[["CCG-50014_BRD-K08893438-001-04-9::2.52::HTS",-0.17706208290793224,-4.280048526562291,516],["oxaliplatin_BRD-K78960041-001-03-2::2.5::HTS",-0.1758093095479288,-4.298302762768313,526],["verubulin_BRD-K42673188-001-01-1::2.363355746::MTS004",-0.20948839996361773,-6.033550030346786,539]]}}}
{"prism_secondary_logfold":{"corr":{"top":[["calcitriol_BRD-K27316855-001-13-3::0.608991::HTS002",0.17668614346067796,-3.628593683349007,429],["hyoscyamine_BRD-K40530731-001-11-6::0.15625::HTS002",0.18503910974826626,-4.312115812420304,476],["RN-1734_BRD-K95581532-001-01-5::0.00976562::HTS002",0.14749673131223026,-2.8461263730691178,465]],"bottom":[["filanesib_BRD-K37379014-001-02-0::0.00975::MTS010::PROS005_PR500",-0.22967529670863132,-6.231708849840239,463],["ethinyl-estradiol_BRD-K48195008-001-19-9::10::HTS002",-0.22612096413270294,-2.631245927332706,179]]},"para":{"top":[["calcitriol_BRD-K27316855-001-13-3::0.608991::HTS002",0.19754854518225848,-4.422308550902473,429],["hypericin_BRD-K29673530-001-05-4::0.00061034::HTS002",0.15734101037194287,-2.7141071604780884,386],["hyoscyamine_BRD-K40530731-001-11-6::0.15625::HTS002",0.1604492536385569,-3.3554477559609808,476]],"bottom":[["NSC-3852_BRD-K13169950-001-14-4::10::HTS002",-0.22385407029785856,-5.768606754849839,448]]}}}
{"ccle_proteomics":{"corr":{"top":[["GALNT1_Q10472",0.3047206796937576,-8.750317660130216,374],["ZNF24_P17028",0.5447163473018671,-29.5561752704589,374]],"bottom":[["ARHGAP12_Q8IWW6",-0.29619885295803394,-8.283924259484586,374],["CDYL2_Q8N8U2",-0.4012635957543237,-4.775039279942793,108],["VSTM2L_Q96N03",-0.2955157836916953,-3.4692885737334764,143]]},"para":{"top":[["TRAPPC11_Q7Z392",0.3322500268565593,-10.362862562821496,374],["TRAPPC8_Q9Y2L5",0.44739309542844746,-19.080314125867638,374]],"bottom":[["PTK6_Q13882",-0.31710885446028714,-3.3056208537143688,117],["USH1C_Q9Y6N9",-0.33972398085682065,-3.4638604100398016,107]]}}}
{"depmap_copy_number":{"corr":{"top":[["MIR3975_100616257",0.980220402778386,-323.0051853474518,1745],["INO80C_125476",0.9806100383198899,-323.0051853474518,1745],["ZNF271P_10778",0.985182782853485,-323.0051853474518,1745],["ZNF396_252884",0.9835523471471919,-323.0051853474518,1745],["ZNF24_7572",0.9847622113151794,-323.0051853474518,1745],["GALNT1_2589",0.980220402778386,-323.0051853474518,1745],["ZSCAN30_100101467",0.9851827746160352,-323.0051853474518,1745],["MAPRE2_10982",0.9870440884871251,-323.0051853474518,1745],["ZNF397_84307",0.9856241248331112,-323.0051853474518,1745]],"bottom":[]},"para":{"top":[["MIR3975_100616257",0.9830832285924512,-323.0051853474518,1745],["INO80C_125476",0.9833360064981921,-323.0051853474518,1745],["ZNF271P_10778",0.9895354972716552,-323.0051853474518,1745],["ASXL3_80816",0.9577329435471952,-323.0051853474518,1745],["ZNF396_252884",0.9870654366867322,-323.0051853474518,1745],["ZNF24_7572",0.989252160056027,-323.0051853474518,1745],["NOL4_8715",0.9675122145103073,-323.0051853474518,1745],["GALNT1_2589",0.9830832285924512,-323.0051853474518,1745],["ZSCAN30_100101467",0.9895354978421615,-323.0051853474518,1745],["MAPRE2_10982",0.9907778148043757,-323.0051853474518,1745],["ZNF397_84307",0.9895501502918973,-323.0051853474518,1745]],"bottom":[]}}}
{"depmap_gene_tpm":{"corr":{"top":[["C18orf21_83608",0.7054790032853842,-194.53104637941905,1293],["ZNF24_7572",0.6465995409941301,-153.25074222081238,1293],["ZSCAN30_100101467",0.5281720768278853,-93.06671358480503,1293],["ZNF397_84307",0.5368140639981748,-96.67510313294663,1293]],"bottom":[]},"para":{"top":[["ZNF24_7572",0.6057644854990724,-129.60852199731917,1293],["TPGS2_25941",0.5566180986536419,-105.35120558522979,1293],["ZSCAN30_100101467",0.5093559712827669,-85.5617672312003,1293],["ZNF397_84307",0.5277233665977344,-92.88219769814896,1293]],"bottom":[]}}}
{"avana":{"corr":{"top":[["ELP2_55250",0.29122453141317667,-15.537196552473818,757]],"bottom":[["BDP1_55814",-0.15775045470331336,-4.88673323894636,757],["OR4E2_26686",-0.15473293037148642,-4.786895067237737,769]]},"para":{"top":[["C18orf21_83608",0.3645071929073356,-24.849755454986653,769],["ELP2_55250",0.28485047309215034,-14.871399654812711,757]],"bottom":[["BDP1_55814",-0.1537970135113166,-4.669724971106507,757]]}}}
{"drive":{"corr":{"top":[["APCDD1L_164284",0.22046468335632902,-4.806204436763504,377]],"bottom":[]},"para":{"top":[],"bottom":[]}}}
{"achilles":{"corr":{"top":[["TERB1_283847",0.22211988867713064,-3.7473504879618105,280],["ARID3B_10620",0.2767108741953142,-5.588308920507148,280]],"bottom":[["KDELC1_79070",-0.27271390830895964,-5.439098688178031,280]]},"para":{"top":[["TRAPPC8_22878",0.3151482812550191,-12.125882751691446,494],["ARID3B_10620",0.28494466786327394,-5.903153142255851,280]],"bottom":[["FAM96B_51647",-0.27120075111800274,-5.38322414823169,280],["RPA4_29935",-0.2859372640496782,-5.941793239729575,280],["TFAP2D_83741",-0.26966616204298816,-8.951759118003476,494]]}}}
{"ccle_rrbs_tss1kb":{"corr":{"top":[],"bottom":[]},"para":{"top":[],"bottom":[]}}}
{"ccle_gene_tpm":{"corr":{"top":[["ZNF271_ENSG00000257267.1",0.6463550812834397,-119.92280633060273,1011],["ZSCAN30_ENSG00000186814.8",0.5265851024554095,-72.47589084453001,1011],["C18orf21_ENSG00000141428.12",0.7316762008746968,-169.3997962924474,1011],["ZNF24_ENSG00000172466.11",0.6690576869765835,-131.47427613276543,1011],["ZNF397_ENSG00000186812.8",0.5326051649039685,-74.42248584283543,1011],["TPGS2_ENSG00000134779.10",0.5829586693441621,-92.35382570362886,1011]],"bottom":[]},"para":{"top":[["ZNF271_ENSG00000257267.1",0.6276276721102524,-111.11084522936798,1011],["KIAA1328_ENSG00000150477.10",0.5981760850381908,-98.41303376872578,1011],["ZNF24_ENSG00000172466.11",0.6305602137731897,-112.45077309381495,1011],["ZNF397_ENSG00000186812.8",0.5270719630439616,-72.63186465824187,1011],["TPGS2_ENSG00000134779.10",0.5609518300076319,-84.13757552415203,1011]],"bottom":[]}}}
{"ccle_rrbs_tss_clusters":{"corr":{"top":[],"bottom":[]},"para":{"top":[],"bottom":[]}}}
{"ccle_rrbs_cgi_clusters":{"corr":{"top":[],"bottom":[]},"para":{"top":[],"bottom":[]}}}
