{"depmap_hotspot":{"corr":{"top":[["ADAMTS12",0.08466833424703554,-3.3604652815364684,204.0,1518.0],["C10orf95",0.135720557245832,-7.804988595087807,23.0,1699.0],["C3orf27",0.08805485099750493,-3.5956289127719065,18.0,1704.0],["C4orf50",0.08649673756251482,-3.4864020780068303,56.0,1666.0],["CCDC160",0.11949156338960022,-6.180426064158928,39.0,1683.0],["EDDM3A",0.1591761903316903,-10.512147867436648,10.0,1712.0],["EML5",0.08339477735363816,-3.274169636251551,139.0,1583.0],["FBXL16",0.10044324175753548,-4.527003801607965,42.0,1680.0],["FCAR",0.08437835195190169,-3.340713482108285,41.0,1681.0],["FHL2",0.09335602490297042,-3.9804502897268637,30.0,1692.0],["GCN1L1",0.08517097761152456,-3.3948458651217974,190.0,1532.0],["GDF1",0.09479061681646127,-4.088111243420691,63.0,1659.0],["GPLD1",0.09095214087024286,-3.8034146984382815,86.0,1636.0],["GRIN2D",0.08208478183749544,-3.1866224629435695,105.0,1617.0],["HIST1H2AG",0.08426458773115464,-3.3329811183762454,36.0,1686.0],["KRTAP6-2",0.107114259597412,-5.075286072128163,12.0,1710.0],["MMP17",0.08141556174510918,-3.1423740750256712,71.0,1651.0],["NPBWR2",0.08356097040572065,-3.2853645459371803,42.0,1680.0],["PDE3A",0.09487225389597412,-4.094283065171563,134.0,1588.0],["PIRT",0.10062587867182174,-4.541576365645867,24.0,1698.0],["PLIN1",0.08179880988671814,-3.1676748608339294,40.0,1682.0],["SEMA6D",0.08124934252287963,-3.1314335846219223,132.0,1590.0],["SLAMF6",0.10006154398332001,-4.496627606081048,47.0,1675.0],["SPATA8",0.0849390741920878,-3.37896113289205,24.0,1698.0],["STX1A",0.08748119160528729,-3.5552098563951,22.0,1700.0],["TAAR6",0.10131434451606096,-4.596730095495538,49.0,1673.0],["UBE2T",0.08695581396501355,-3.5184016801319142,17.0,1705.0],["ZBTB46",0.09210764741642886,-3.8879869813564105,80.0,1642.0],["ZP3",0.07875420720215166,-2.9695824426491377,27.0,1695.0]],"bottom":[["CD160",-0.07958952320781111,-3.0232706488028134,8.0,1714.0],["CDADC1",-0.0719144935142317,-2.548653920680577,24.0,1698.0],["FAM19A4",-0.07821573440849232,-2.9352373994235035,30.0,1692.0],["GPN3",-0.0779592046703015,-2.9189481038727227,22.0,1700.0],["KRTAP1-5",-0.05697675031700053,-1.7434955614180236,20.0,1702.0],["NDFIP2",-0.060832235157734275,-1.9365000175975207,16.0,1706.0],["PRG3",-0.05714167008804165,-1.751542775457004,15.0,1707.0],["SPRR4",-0.07744665187781266,-2.886542231096015,14.0,1708.0],["TAP2",-0.05935101027918895,-1.861142750590539,54.0,1668.0]]},"para":{"top":[["AC005008.2",0.053481743077691025,-1.8772775040922387,9.0,1713.0],["EDDM3A",0.08140930544191266,-3.4359451553994313,10.0,1712.0],["EMC9",0.07150451840241799,-2.821606321160314,16.0,1706.0],["F8A1",0.06005550405517124,-2.196083433088367,15.0,1707.0],["FHL2",0.09779851180086357,-4.604574356685074,30.0,1692.0],["FOXD4L5",0.07048370017554131,-2.7621934792741176,19.0,1703.0],["LIPT2",0.07675390600714511,-3.1386753372207004,13.0,1709.0],["MPC2",0.06498131558267886,-2.454035101535873,8.0,1714.0]],"bottom":[["AC009365.3",-0.055705660135747084,-1.9819185504206984,15.0,1707.0],["GPN3",-0.0819015264300161,-3.4684344804900737,22.0,1700.0],["IGFBP7",-0.0565902055183744,-2.024421035521587,14.0,1708.0]]}}}
{"depmap_damaging":{"corr":{"top":[["ADAMTS20",0.07752657167419941,-2.8901645930580684,50.0,1671.0],["ERVW-1",0.07475767402476029,-2.718271203138436,14.0,1707.0],["NBPF14",0.08378103523613384,-3.298578293879039,13.0,1708.0],["PSME4",0.08443045066777104,-3.3425929886818353,37.0,1684.0],["SPTA1",0.06789288166346374,-2.3154832634216693,54.0,1667.0],["ZNF480",0.07043417943855353,-2.46072524780574,10.0,1711.0],["ZNF831",0.08649678015779912,-3.4846625611562794,20.0,1701.0]],"bottom":[["ACOX1",-0.06884607809048682,-2.369430184186503,16.0,1705.0],["CAPN11",-0.062108090422322924,-2.001679706145558,11.0,1710.0],["FANK1",-0.06262902581968482,-2.0289865104295908,8.0,1713.0],["NAIP",-0.0726348492304163,-2.590167605672385,11.0,1710.0],["NFE2L3",-0.07569655888717496,-2.775947010220934,15.0,1706.0],["RGS9BP",-0.05168185185448094,-1.494288099426265,8.0,1713.0],["TRIM16",-0.06269981427518327,-2.0327116438589745,10.0,1711.0]]},"para":{"top":[["BIRC8",0.0659822013950678,-2.5074815560772072,9.0,1712.0],["BRCC3",0.05189288385590858,-1.803909185935841,8.0,1713.0],["CCDC136",0.06633706962804475,-2.5269915791323205,11.0,1710.0],["CCT7",0.07015777693186552,-2.7420471962380195,9.0,1712.0],["GAA",0.06424564906721857,-2.413485839205227,10.0,1711.0],["GALNT16",0.06345418187208612,-2.371356649199134,12.0,1709.0],["KARS",0.0697019133688504,-2.71591526386381,12.0,1709.0],["METAP1D",0.05365817262626674,-1.8847273238126905,9.0,1712.0],["TIGD2",0.06064719420436314,-2.2252142298535205,9.0,1712.0],["XKR6",0.053156676752995825,-1.8615394713647297,8.0,1713.0],["ZNF425",0.0625190608681523,-2.322009133865884,8.0,1713.0]],"bottom":[["C16orf59",-0.0579796906090108,-2.0913609599804333,9.0,1712.0],["NAIP",-0.06464195203024845,-2.4347788831088772,11.0,1710.0],["ZDHHC11",-0.06201602548350904,-2.2958512145482484,13.0,1708.0]]}}}
{"ccle_rppa":{"corr":{"top":[],"bottom":[["GSK3A-GSK3B_GSK3_pS9",-0.14600058286643794,-4.9458927064419305,897]]},"para":{"top":[["ERCC1_ERCC1_Caution",0.13313946684478675,-4.197902081756191,897]],"bottom":[]}}}
{"prism_primary_logfold":{"corr":{"top":[["BTZ043-racemate_BRD-A53037217-001-02-0::2.5::HTS",0.13393921485098556,-2.788692907961017,551],["CGP-53353_BRD-K32292990-001-03-6::2.5::HTS",0.1462173451605909,-3.240014895253958,551],["frovatriptan_BRD-K08255599-365-01-1::2.656154742::MTS004",0.15592105267931555,-3.5482018152147967,538]],"bottom":[]},"para":{"top":[["vanillylacetone_BRD-K33510429-001-03-1::2.5::HTS",0.14382189591083,-3.017042747672814,524],["moxisylyte_BRD-K81144366-003-19-7::2.5::HTS",0.1429549488170821,-3.1455529902797235,557],["frovatriptan_BRD-K08255599-365-01-1::2.656154742::MTS004",0.14957377767190222,-3.301212459200016,538]],"bottom":[["amisulpride_BRD-A60197193-001-14-6::2.5::HTS",-0.13583707260752093,-2.8561147175889783,551]]}}}
{"prism_secondary_logfold":{"corr":{"top":[["saracatinib_BRD-K19540840-001-09-4::0.0024414::HTS002",0.1716988720041617,-3.7424653016036484,471],["BAY-11-7085_BRD-K48684885-001-04-2::0.0024414::HTS002",0.17415676733711888,-3.85851371131482,474]],"bottom":[["D-7193_BRD-K32372024-001-01-0::10::HTS002",-0.22302260957086634,-5.948145554926263,467],["PF-03758309_BRD-K37764012-001-04-1::0.0390625::HTS002",-0.2381428634990005,-6.403302200582191,443],["paclitaxel_BRD-K62008436-001-22-1::0.00976562::HTS002",-0.21459230168466376,-5.5627464673031675,469],["cephalomannine_BRD-K68904758-001-03-5::0.0390625::HTS002",-0.26077237232095885,-8.018451210060032,470],["NMS-1286937_BRD-K83699324-001-01-1::0.15625::HTS002",-0.2283647752281048,-5.051232349033498,371],["LY456236_BRD-K87696786-003-04-4::2.5::HTS002",-0.2443034412132885,-7.019784030226737,465],["10-deacetylbaccatin_BRD-K96631475-001-02-4::2.43028::HTS002",-0.24664606629059221,-7.259254267084535,473]]},"para":{"top":[["hydroxyurea_BRD-K51747290-001-13-1::0.0024414::HTS002",0.17961439185257722,-4.0371110441101274,469],["UH-232-(+)_BRD-K66715657-050-01-0::0.625::HTS002",0.17247403041463044,-3.723388423652663,464],["carboxyamidotriazole_BRD-K68408772-001-05-4::0.009765624::MTS006",0.17516376796444014,-3.8548483373666445,468]],"bottom":[["MRS-1220_BRD-K37618799-001-03-0::2.5::HTS002",-0.251564807050979,-4.2697357791695945,252],["cephalomannine_BRD-K68904758-001-03-5::0.0390625::HTS002",-0.2044042481910436,-5.10024109599894,470],["NMS-1286937_BRD-K83699324-001-01-1::0.15625::HTS002",-0.21607929610093618,-4.569080962684806,371]]}}}
{"ccle_proteomics":{"corr":{"top":[],"bottom":[["MLXIP_Q9HAP2",-0.26998190812346606,-4.043565383286101,205],["GPN1_Q9HCN4",-0.22820998145621677,-4.3252235053291965,312],["NOB1_Q9ULX3",-0.24348349814419426,-5.723622275750937,374],["RIOK2_Q9BVS4",-0.30927711540590924,-8.60270306777648,356]]},"para":{"top":[["PPP2R5C_Q13362-2",0.36403284601114466,-5.974072708162198,170]],"bottom":[["YTHDC2_Q9H6S0",-0.22691005075421955,-4.920586343879076,365]]}}}
{"depmap_copy_number":{"corr":{"top":[["TNFAIP2_7127",0.9696514265506513,-323.0051853474518,1745],["CDC42BPB_9578",0.9400643020421813,-323.0051853474518,1745],["AMN_81693",0.932785651227087,-323.0051853474518,1745],["LINC00677_105370683",0.9696514265506513,-323.0051853474518,1745],["LINC00605_100131366",0.965970614621478,-323.0051853474518,1745]],"bottom":[]},"para":{"top":[["TNFAIP2_7127",0.9924595979119727,-323.0051853474518,1745],["EXOC3L4_91828",1.0,-323.0051853474518,1745],["LOC105370687_105370687",0.9847676268238675,-323.0051853474518,1745],["CDC42BPB_9578",0.9769348189740962,-323.0051853474518,1745],["AMN_81693",0.975183205522106,-323.0051853474518,1745],["LOC105378183_105378183",0.9847676268238675,-323.0051853474518,1745],["SNORA28_677811",0.9839937820559889,-323.0051853474518,1745],["LINC00677_105370683",0.9924595979119727,-323.0051853474518,1745],["LINC00605_100131366",0.9887880903098392,-323.0051853474518,1745],["EIF5_1983",0.9847676268238675,-323.0051853474518,1745]],"bottom":[]}}}
{"depmap_gene_tpm":{"corr":{"top":[],"bottom":[["PARN_5073",-0.17678743688960388,-9.81234651377638,1293]]},"para":{"top":[],"bottom":[]}}}
{"avana":{"corr":{"top":[["EIF5_1983",0.3726676424921196,-26.018661678028135,769]],"bottom":[]},"para":{"top":[["CINP_51550",0.3770835029724968,-26.665273007148702,769]],"bottom":[]}}}
{"drive":{"corr":{"top":[],"bottom":[]},"para":{"top":[],"bottom":[]}}}
{"achilles":{"corr":{"top":[],"bottom":[["HIST1H4C_8364",-0.2391333775260717,-7.127414101527074,494]]},"para":{"top":[],"bottom":[["ARID5B_84159",-0.27768678938465996,-5.6250989556554085,280],["FAM74A1_401507",-0.23016516208615292,-3.992639137758875,280],["COMMD1_150684",-0.21233473638574496,-3.4606822196995624,280]]}}}
{"ccle_rrbs_tss1kb":{"corr":{"top":[["LOC100126784_11_19736218_19737218",0.24543140114715584,-4.921529440812559,311]],"bottom":[["DNTTIP1_20_44419575_44420575",-0.3059168567916475,-5.377602569736832,218]]},"para":{"top":[["LOC100126784_11_19736218_19737218",0.22256455700245087,-4.123286632343265,311]],"bottom":[]}}}
{"ccle_gene_tpm":{"corr":{"top":[],"bottom":[]},"para":{"top":[],"bottom":[["POLR2J4_ENSG00000272655.1",-0.2203890483449312,-11.860535666656016,1011]]}}}
{"ccle_rrbs_tss_clusters":{"corr":{"top":[],"bottom":[["CERKL_3",-0.21672962477073923,-3.1514622053436385,241]]},"para":{"top":[],"bottom":[]}}}
{"ccle_rrbs_cgi_clusters":{"corr":{"top":[["5_176730581_176733130-2",0.20754848694212424,-8.438856633877622,793]],"bottom":[["2_182519221_182523927-3",-0.21672962477073923,-3.1514622053436385,241],["1_15373063_15377413-2",-0.21171831661438173,-3.0795609159093837,246]]},"para":{"top":[],"bottom":[["1_15373063_15377413-2",-0.2120533534585103,-3.088033471579349,246]]}}}
