{"depmap_hotspot":{"corr":{"top":[["CHMP2B",0.13165833587379827,-7.379482711284452,22.0,1700.0],["GPX8",0.08895033090176208,-3.659199621463309,18.0,1704.0],["KPNA2",0.06694781325795449,-2.2637045628319727,38.0,1684.0],["OR5L2",0.09981229868334347,-4.476850160103672,62.0,1660.0],["OR5M8",0.07591863392987926,-2.791044361399861,57.0,1665.0],["PRR26",0.06636583020412151,-2.231446486489946,18.0,1704.0],["RAB5C",0.09751877471139271,-4.297006607183521,17.0,1705.0],["RAB8B",0.07542780867352376,-2.7607211449096636,20.0,1702.0],["SRSF2",0.08952014336272267,-3.699953846558671,28.0,1694.0]],"bottom":[["AGAP7",-0.08448882600657824,-3.3482311443869386,34.0,1688.0],["AMER1",-0.08306764811041419,-3.2521919757352955,109.0,1613.0],["ARID4B",-0.08837230736945333,-3.6180988263794407,125.0,1597.0],["CCDC88C",-0.11755713577913171,-6.0001238262688785,157.0,1565.0],["CHST3",-0.0880748513257773,-3.597042402309439,63.0,1659.0],["CKAP2L",-0.08357139536525104,-3.28606744285881,53.0,1669.0],["CNOT4",-0.08931319665650236,-3.685125312595952,53.0,1669.0],["CRISP1",-0.09557817729684136,-4.147854842273762,24.0,1698.0],["CTNNB1",-0.093276683066317,-3.9745398525218585,90.0,1632.0],["DENND2C",-0.08367048696973,-3.2927525428610753,81.0,1641.0],["EPHA3",-0.08056424480390689,-3.0865497430043116,148.0,1574.0],["GLDC",-0.08518341372550102,-3.3956988000122994,93.0,1629.0],["GPR125",-0.08428378145909096,-3.3342850300089393,120.0,1602.0],["KCNC1",-0.08611552884701851,-3.459945981708508,67.0,1655.0],["KIF23",-0.09594135382873294,-4.175558093124425,56.0,1666.0],["MLLT4",-0.08024041608840903,-3.0654512943077186,150.0,1572.0],["MPRIP",-0.09197142466903648,-3.8779661764387097,103.0,1619.0],["MRPL2",-0.08351393008831877,-3.282193852208594,34.0,1688.0],["PAGE4",-0.1098928022114457,-5.313396827012719,15.0,1707.0],["PCDHB2",-0.08705139497914499,-3.5250832615001597,125.0,1597.0],["PHGDH",-0.08944168533013692,-3.6943283644452594,57.0,1665.0],["POU5F1B",-0.0872938117138364,-3.5420590240099536,64.0,1658.0],["PRPF8",-0.10022571780727049,-4.509679693699575,128.0,1594.0],["PTDSS1",-0.08376045988750108,-3.2988285835111038,45.0,1677.0],["RBMXL1",-0.08134907759606633,-3.1379957341866347,32.0,1690.0],["RPS3",-0.0797264441505317,-3.0321185385671385,19.0,1703.0],["RUSC2",-0.08675447489618741,-3.504348715550344,124.0,1598.0],["SEMA5A",-0.08220108819561509,-3.1943453520796754,147.0,1575.0],["SLC20A1",-0.08027873239447494,-3.067943804330701,56.0,1666.0],["TBC1D17",-0.0805701524520892,-3.0869353421760235,68.0,1654.0],["TRIM71",-0.07944998474184811,-3.0142674069992905,76.0,1646.0],["ZNF30",-0.08710938037434615,-3.5291399462269535,53.0,1669.0]]},"para":{"top":[["OCM2",0.05508665625024969,-1.9524997725459325,17.0,1705.0],["OR5M8",0.08340174892885689,-3.5681417650123954,57.0,1665.0]],"bottom":[["CRISP1",-0.08591005083768949,-3.7380577935126538,24.0,1698.0],["PAGE4",-0.10159293599203877,-4.902158906414683,15.0,1707.0],["RMI2",-0.0711362270179772,-2.800097749092752,18.0,1704.0],["RP1-241P17.4",-0.06732681404082025,-2.58286851783593,13.0,1709.0],["RPS16",-0.07237446933825771,-2.8727945460147044,13.0,1709.0],["RPS3",-0.0755779064813622,-3.066036944271044,19.0,1703.0]]}}}
{"depmap_damaging":{"corr":{"top":[["BCKDK",0.10503072265219833,-4.897977919412205,8.0,1713.0],["FAM160B1",0.09807558801179853,-4.33809965811842,12.0,1709.0],["PDE1C",0.10350605643148642,-4.772187256373876,20.0,1701.0],["PIK3AP1",0.10724456423795453,-5.083696275468622,9.0,1712.0],["PRSS42",0.14756512147798248,-9.113488178372904,8.0,1713.0],["SLC45A4",0.08136379894033093,-3.137412312400296,13.0,1708.0],["ZNF662",0.08903872790194557,-3.663665760737934,9.0,1712.0]],"bottom":[["ARHGEF26",-0.08686701657948287,-3.510443612128383,20.0,1701.0],["CPEB2",-0.0803470772340903,-3.0708759197351796,21.0,1700.0],["CSMD2",-0.11054531362459653,-5.367362741323043,39.0,1682.0],["DLGAP3",-0.06850244252565212,-2.349908494353865,9.0,1712.0],["DUOX1",-0.07166583312666172,-2.5327500083366603,22.0,1699.0],["EFCAB14",-0.0913248779922513,-3.8286577597461826,10.0,1711.0],["LAIR1",-0.06922467574068797,-2.3910338894159726,37.0,1684.0],["NWD1",-0.07417768147743806,-2.6829544625928787,23.0,1698.0],["PTPN6",-0.06673448980162451,-2.250778770522759,10.0,1711.0],["SLC30A3",-0.07399080114777103,-2.6716257484924792,10.0,1711.0],["TBC1D17",-0.06783475691115477,-2.312214223531226,9.0,1712.0],["ZNF532",-0.08955917920610802,-3.7008931674493266,8.0,1713.0],["ZNF568",-0.06664406468881688,-2.245767322229193,19.0,1702.0]]},"para":{"top":[["ADCY2",0.06339808054636797,-2.3683841717192093,12.0,1709.0]],"bottom":[["AADAT",-0.06002597877814128,-2.1935854246341533,8.0,1713.0],["AGPAT9",-0.07072955133310917,-2.775076184416264,8.0,1713.0],["BNC2",-0.08868808405521654,-3.9296122443219716,13.0,1708.0],["C9orf3",-0.07285350515875942,-2.8999321061921775,11.0,1710.0],["CDK11B",-0.06943996427829376,-2.700838909726796,8.0,1713.0],["DLGAP3",-0.06595800377910024,-2.506157253078157,9.0,1712.0],["FBXL13",-0.09057023121741396,-4.063809947315584,18.0,1703.0],["HIAT1",-0.09043227199240647,-4.053893406744188,18.0,1703.0],["HMMR",-0.0775442345597191,-3.1865826168790137,9.0,1712.0],["KDM1A",-0.07880301748326614,-3.266159274421875,10.0,1711.0],["LRRC45",-0.09047497389042439,-4.05682156053453,10.0,1711.0],["RNMT",-0.07054724343917858,-2.7645637376508216,10.0,1711.0],["SLC30A3",-0.08260390506740334,-3.5131006042730295,10.0,1711.0],["ZNF532",-0.0715119008130305,-2.820674726677343,8.0,1713.0]]}}}
{"prism_primary_logfold":{"corr":{"top":[],"bottom":[]},"para":{"top":[],"bottom":[["secnidazole_BRD-A70083328-001-23-5::2.5::HTS",-0.14962643739920173,-3.3664580085864366,550]]}}}
{"prism_secondary_logfold":{"corr":{"top":[],"bottom":[["talmapimod_BRD-K17555800-003-02-3::0.15625::MTS010::PROS002_PR500",-0.1985132429513197,-4.543790535304171,438],["methylprednisolone_BRD-K35240538-001-26-2::0.00976562::HTS002",-0.16428731629993376,-3.081903348266251,411]]},"para":{"top":[],"bottom":[["MK-2206_BRD-K68065987-300-09-1::2.5::HTS002",-0.1640765244744285,-2.863686885167563,378]]}}}
{"ccle_proteomics":{"corr":{"top":[["LMLN_Q96KR4-3",0.3345041418728217,-3.8618916253050237,125]],"bottom":[]},"para":{"top":[],"bottom":[]}}}
{"depmap_copy_number":{"corr":{"top":[["PYDC2_152138",0.9747957769709162,-323.0051853474518,1745],["MB21D2_151963",0.986882865304474,-323.0051853474518,1745],["CCDC50_152137",0.9659535996957231,-323.0051853474518,1745],["FGF12-AS2_100873987",0.9946020870719409,-323.0051853474518,1745],["FGF12_2257",0.9999999999999999,-323.0051853474518,1745],["LINCR-0002_103344926",0.9747957581404394,-323.0051853474518,1745]],"bottom":[]},"para":{"top":[["OSTN_344901",0.9832199985494054,-323.0051853474518,1745],["OSTN-AS1_106480738",0.9832199985494054,-323.0051853474518,1745],["PYDC2_152138",0.9948617240233497,-323.0051853474518,1745],["MB21D2_151963",0.9882439274561939,-323.0051853474518,1745],["UTS2B_257313",0.9873148842446385,-323.0051853474518,1745],["FGF12-AS1_100873986",0.999680556723038,-323.0051853474518,1745],["CCDC50_152137",0.9882539641572987,-323.0051853474518,1745],["FGF12-AS2_100873987",0.9952964946765596,-323.0051853474518,1745],["LINCR-0002_103344926",0.9948617240233497,-323.0051853474518,1745]],"bottom":[]}}}
{"depmap_gene_tpm":{"corr":{"top":[],"bottom":[]},"para":{"top":[],"bottom":[]}}}
{"avana":{"corr":{"top":[],"bottom":[["STAMBP_10617",-0.18275295970804817,-6.4751233949568645,769]]},"para":{"top":[],"bottom":[["UPF1_5976",-0.16989650241446805,-5.586803842765865,757]]}}}
{"drive":{"corr":{"top":[],"bottom":[]},"para":{"top":[],"bottom":[]}}}
{"achilles":{"corr":{"top":[["CLDN16_10686",0.22272442337602394,-3.7654792737030776,280],["ASNSD1_54529",0.2371241980349463,-7.0155998695873105,494]],"bottom":[["SNN_8303",-0.2096065311731853,-3.3830119711777584,280]]},"para":{"top":[["ASNSD1_54529",0.2528843208796333,-7.9197081358404,494]],"bottom":[]}}}
{"ccle_rrbs_tss1kb":{"corr":{"top":[["SLC25A17_22_41215403_41216403",0.16454526554564156,-5.607852099104201,811]],"bottom":[]},"para":{"top":[],"bottom":[]}}}
{"ccle_gene_tpm":{"corr":{"top":[],"bottom":[]},"para":{"top":[],"bottom":[]}}}
{"ccle_rrbs_tss_clusters":{"corr":{"top":[["TERT_3",0.1968397267619677,-7.959600594201627,829]],"bottom":[]},"para":{"top":[],"bottom":[]}}}
{"ccle_rrbs_cgi_clusters":{"corr":{"top":[["2_177010371_177014675-3",0.20691023209848206,-4.156459555133649,364]],"bottom":[]},"para":{"top":[],"bottom":[]}}}
