{"depmap_hotspot":{"corr":{"top":[["ANKRD36",0.060526191745108315,-1.9208062264013903,145.0,1577.0],["C5orf56",0.05901427530240985,-1.8442219133629625,15.0,1707.0],["IZUMO4",0.06046998130788888,-1.9179307939025863,18.0,1704.0],["NBPF9",0.074603072117952,-2.710154001249594,68.0,1654.0],["OTOA",0.06364263804904025,-2.0836421580750644,66.0,1656.0],["PEX7",0.08176248543968884,-3.1652723188511294,30.0,1692.0],["SPC24",0.09196953896458232,-3.877827555326782,13.0,1709.0],["TMEM155",0.0788168538992102,-2.9735916370128677,11.0,1711.0],["TMEM217",0.06996570641435325,-2.434781986101356,28.0,1694.0],["U82695.9",0.11367265440835142,-5.646568971777839,14.0,1708.0]],"bottom":[["CCDC138",-0.06992079568900249,-2.4321892632045152,62.0,1660.0],["CPB2",-0.06806220670057526,-2.3261337575279497,33.0,1689.0],["DSN1",-0.07865041944453406,-2.9629465156969625,34.0,1688.0],["FAM168B",-0.06414272766583726,-2.11039844225417,23.0,1699.0],["GABARAPL2",-0.06767820401577843,-2.304523507829972,17.0,1705.0],["GK2",-0.06370895403503178,-2.087180275487951,71.0,1651.0],["GPR75",-0.06820275160174046,-2.3340689164588126,56.0,1666.0],["HIF1A",-0.0709488491333004,-2.491894872099734,99.0,1623.0],["IFRD1",-0.07045129329368266,-2.462905775819387,51.0,1671.0],["KIAA0196",-0.08682222588839561,-3.509074292443824,83.0,1639.0],["KLF14",-0.09745099422323249,-4.291750519539658,31.0,1691.0],["KRTAP15-1",-0.062388028949777075,-2.017280279843839,18.0,1704.0],["LAMB4",-0.0760421346680943,-2.7987011989060524,157.0,1565.0],["LGALS13",-0.06964684711354414,-2.416404744764301,18.0,1704.0],["MAPK6",-0.06340325648607516,-2.070895964054934,71.0,1651.0],["NAT16",-0.07018507691668047,-2.447466755802614,35.0,1687.0],["PAIP2",-0.07383907055620412,-2.663741035883676,11.0,1711.0],["RGS6",-0.07208274795584779,-2.558610923255154,82.0,1640.0],["SBDS",-0.07023606427527937,-2.450419869954409,19.0,1703.0],["SLC2A14",-0.07123645894056992,-2.5087313948805914,61.0,1661.0],["SLC9A3R1",-0.07634889156977905,-2.8177665240048633,25.0,1697.0],["VGF",-0.0838872025736209,-3.307397643109351,50.0,1672.0],["ZNF587",-0.07040714362140447,-2.46034189994701,39.0,1683.0]]},"para":{"top":[["APITD1",0.05222628363570727,-1.819720518119322,9.0,1713.0],["CDC26",0.05531853415210541,-1.9634119893642579,10.0,1712.0],["LINC00696",0.054605098915894455,-1.9296516400919892,8.0,1714.0],["OR2L8",0.08158124112722377,-3.447453874215748,36.0,1686.0],["PEBP1",0.04958963994104572,-1.7023505315527434,15.0,1707.0],["PEX7",0.07289597917811756,-2.9038915798437372,30.0,1692.0],["STATH",0.05963885324514088,-2.174943017317926,10.0,1712.0]],"bottom":[["C11orf68",-0.07489859867691159,-3.024513216823272,24.0,1698.0],["C8orf56",-0.06925063826646861,-2.691184394475594,8.0,1714.0],["EIF2S2",-0.08505274983600672,-3.6794799173530826,30.0,1692.0],["FAM168B",-0.07178541783203224,-2.838148489525604,23.0,1699.0],["KLF14",-0.0896955024642079,-4.003118408279991,31.0,1691.0],["LYRM4",-0.07655193354388096,-3.126004781908456,8.0,1714.0],["POLR2H",-0.06636447919210327,-2.529490907416321,8.0,1714.0],["SBDS",-0.06832551744076604,-2.6388986009175674,19.0,1703.0],["TMEM208",-0.08073335229348827,-3.3919571149441397,18.0,1704.0]]}}}
{"depmap_damaging":{"corr":{"top":[["ANKRD36",0.0611127392027754,-1.9500260007870613,42.0,1679.0],["WDR64",0.08413365625115207,-3.322439819619804,22.0,1699.0],["ZNF256",0.07087243432877553,-2.4862311775300094,8.0,1713.0]],"bottom":[["CALB1",-0.06417268649650346,-2.1110068744645107,10.0,1711.0],["CASP12",-0.1131191298461835,-5.594197341416997,8.0,1713.0],["CCT7",-0.05705472013510817,-1.7464895773321534,9.0,1712.0],["COG7",-0.05705576603294986,-1.746540582180692,8.0,1713.0],["CYB5R2",-0.05609995727404086,-1.700240460525687,14.0,1707.0],["EVC",-0.10024645246797795,-4.509021539019391,14.0,1707.0],["EYA2",-0.06190569065324417,-1.9911207632247894,8.0,1713.0],["GALNT16",-0.05296943616332903,-1.5529454101203994,12.0,1709.0],["NIN",-0.07087945330407118,-2.486640773271284,20.0,1701.0],["PAPPA",-0.0653226777192378,-2.1731852290806977,12.0,1709.0],["PTBP2",-0.08928844672387923,-3.681503395204779,11.0,1710.0],["RBM26",-0.057711015946750086,-1.7786418083428266,11.0,1710.0],["SEL1L2",-0.07119066850523376,-2.5048367462342718,21.0,1700.0],["TPP2",-0.0885980835834706,-3.6323004512438315,14.0,1707.0],["ZNF326",-0.06465987495795161,-2.1372362131828306,27.0,1694.0],["ZNF608",-0.082187852180269,-3.1918836413971214,23.0,1698.0]]},"para":{"top":[["CSRP2",0.08161147607221556,-3.4476449642758844,10.0,1711.0],["SLC30A8",0.07741461248702357,-3.1784539220359846,9.0,1712.0],["ZNF256",0.05071522889415548,-1.751167287057611,8.0,1713.0]],"bottom":[["FBLN2",-0.06482291749867215,-2.444509938626117,10.0,1711.0],["FLI1",-0.06972017729115167,-2.716900046944396,9.0,1712.0],["LILRA1",-0.07297098511067143,-2.9069042730028123,10.0,1711.0],["MKL1",-0.06101572779021908,-2.2441428124989105,12.0,1709.0],["PAPPA",-0.06138117559545881,-2.2629495862276436,12.0,1709.0],["RFWD2",-0.10064316537889191,-4.824339468824403,14.0,1707.0]]}}}
{"prism_primary_logfold":{"corr":{"top":[["HA-1004_BRD-K05434375-001-06-5::2.5::HTS",0.14638700544933517,-3.2616542133181934,554],["U-0521_BRD-K08953028-001-09-6::2.5::HTS",0.11567802959652834,-2.1830009037751887,551],["nor-Binaltorphimine-dihydrochloride_BRD-K36381762-300-02-7::2.5::HTS",0.13602914693159288,-2.8981463130777723,559]],"bottom":[]},"para":{"top":[["nor-Binaltorphimine-dihydrochloride_BRD-K36381762-300-02-7::2.5::HTS",0.13118603807615783,-2.7252432196378575,559]],"bottom":[]}}}
{"prism_secondary_logfold":{"corr":{"top":[["GSK1070916_BRD-K36740062-001-06-6::0.625::HTS002",0.1611579195258403,-3.20344202392779,447]],"bottom":[["BMS-754807_BRD-K13049116-001-04-0::0.00977::MTS010::PROS002_PR500",-0.17057438089339028,-3.473883442575216,438],["UNC0631_BRD-K13060017-001-01-3::2.5::MTS006",-0.18263919898502773,-4.189654808877634,473],["AZD8330_BRD-K37687095-001-06-9::0.0024414::HTS002",-0.18533015407047979,-4.3242213057935075,476]]},"para":{"top":[["crenolanib_BRD-K22127577-001-03-7::0.000628853::HTS002",0.16665273410683848,-3.5454337111221292,470],["Y-39983_BRD-K56751279-300-01-4::2.5::HTS002",0.16812615578882956,-3.487415316704899,453]],"bottom":[["UNC0631_BRD-K13060017-001-01-3::2.5::MTS006",-0.15702111499882976,-3.2148333847705843,473]]}}}
{"ccle_proteomics":{"corr":{"top":[["ZNF142_P52746",0.25302468035817943,-2.8889226065502718,159]],"bottom":[["EZR_P15311",-0.21563636610618583,-4.584821533782029,374],["EHD1_Q9H4M9",-0.20972325325242616,-4.3610819122598405,374],["TRAF6_Q9Y4K3",-0.20541773041845862,-4.033759324073658,357]]},"para":{"top":[],"bottom":[["EZR_P15311",-0.23251708941742352,-5.258176707623464,374],["UAP1_Q16222",-0.2462897623081604,-5.846335214307617,374]]}}}
{"depmap_copy_number":{"corr":{"top":[["GOLGA2P10_80154",0.9999999999999999,-323.0051853474518,1745],["GOLGA6L9_440295",0.8855976691957912,-323.0051853474518,1745],["CPEB1_64506",0.9124919710432804,-323.0051853474518,1745],["GOLGA6L17P_642402",0.9248953503036552,-323.0051853474518,1745],["RPS17_6218",0.90335762368614,-323.0051853474518,1745]],"bottom":[]},"para":{"top":[["UBE2Q2P2_100134869",0.9712549447562273,-323.0051853474518,1745],["GOLGA6L9_440295",0.9769369451758595,-323.0051853474518,1745],["GOLGA6L17P_642402",0.9903760899968529,-323.0051853474518,1745],["GOLGA6L10_647042",0.9711052531456577,-323.0051853474518,1745]],"bottom":[]}}}
{"depmap_gene_tpm":{"corr":{"top":[],"bottom":[]},"para":{"top":[["RPS17_6218",0.45923808616052497,-67.71802376033429,1293],["RAMAC_83640",0.46578348232946143,-69.88339928223553,1293]],"bottom":[]}}}
{"avana":{"corr":{"top":[],"bottom":[["PCDHGA9_56107",-0.1676446680367779,-5.530636356025103,769],["SNAP91_9892",-0.12141826077456366,-3.1303443361569507,769]]},"para":{"top":[["EFL1_79631",0.3446436126440028,-22.142069146809483,769],["SPG11_80208",0.23161301582989868,-10.097998471825573,769],["HAUS2_55142",0.18229841412204736,-6.445524876370914,769]],"bottom":[["GPRASP2_114928",-0.13639318616436477,-3.6205995220422693,721],["EXOSC3_51010",-0.12754973294998861,-3.407354912868228,769],["MAGED1_9500",-0.13234391408759552,-3.3908335613477605,710]]}}}
{"drive":{"corr":{"top":[],"bottom":[]},"para":{"top":[],"bottom":[["ARHGAP33_115703",-0.19370886236058998,-3.812538327481807,377],["MYO15A_51168",-0.17743055639356392,-3.2693028028452895,377]]}}}
{"achilles":{"corr":{"top":[],"bottom":[["ANAPC2_29882",-0.18760149716621605,-4.566731529143772,494]]},"para":{"top":[["SH3GL2_6456",0.24615349083506746,-4.506307856426494,280],["DFFA_1676",0.2930413753395616,-10.512515919563024,494],["RPS17_6218",0.48574005091458844,-29.88458782002464,494]],"bottom":[["SLC35F1_222553",-0.21341275584297284,-3.491642531842702,280]]}}}
{"ccle_rrbs_tss1kb":{"corr":{"top":[],"bottom":[["BNIP1_5_172570444_172571444",-0.19108925961861573,-7.556152153426516,832],["PDHB_3_58419579_58420579",-0.16353351429618207,-5.674217645424225,832],["ZNF106_15_42783395_42784395",-0.1716744068048908,-6.19985926135117,832],["LOC100996351_19_3155173_3156173",-0.18142912261200875,-5.217093429098059,614],["ARL8B_3_5162929_5163929",-0.231649449903441,-3.2346579610911697,217]]},"para":{"top":[],"bottom":[["BEND5_1_49242641_49243641",-0.17545302962785542,-2.8840446254732934,333]]}}}
{"ccle_gene_tpm":{"corr":{"top":[["RPS17L_ENSG00000182774.6",0.47667722673919394,-57.75593225569423,1011]],"bottom":[["RP11-531H8.2_ENSG00000254789.1",-0.18841150120863753,-8.805469575481268,1011],["RP11-56L13.4_ENSG00000260649.1",-0.18900900506692012,-8.858011034998016,1011],["LINC00501_ENSG00000203645.2",-0.19699970152426272,-9.57711664864928,1011]]},"para":{"top":[["RPS17L_ENSG00000182774.6",0.466452485665791,-55.029418385106666,1011],["FAM103A1_ENSG00000169612.3",0.4991128165077734,-64.07239491382187,1011],["C15orf40_ENSG00000169609.9",0.4924713686182097,-62.153398221013305,1011]],"bottom":[]}}}
{"ccle_rrbs_tss_clusters":{"corr":{"top":[["NRIP3_3",0.17939021483986686,-6.647920524032964,822],["CTSL3P_3",0.20211824201401019,-6.101763293230508,587],["SLC26A4_1",0.17992002010674477,-6.639777572208269,816],["GLIS3_3",0.19450409590023884,-7.3525098957164,779]],"bottom":[["LOC100996351_1",-0.18603112889133835,-5.834035626388631,661]]},"para":{"top":[["DNAJC22_2",0.1484596490824692,-4.751576055473599,829]],"bottom":[["CELF2_7",-0.2327561302688045,-5.520483407626838,394]]}}}
{"ccle_rrbs_cgi_clusters":{"corr":{"top":[["9_4298999_4302182-3",0.19450409590023884,-7.3525098957164,779],["7_107299205_107301811-3",0.18307138950785942,-6.832962640672234,813],["9_4298999_4302182-1",0.17961486965784834,-6.729579057583608,831]],"bottom":[["23_10092050_10096406-3",-0.20375989144215095,-3.790368553753381,338]]},"para":{"top":[["16_33316698_33321468-1",0.15771540322804833,-4.11908296784202,624]],"bottom":[["7_6191413_6194045-3",-0.1939043677856769,-4.031155623160276,401],["19_1941121_1943940-1",-0.19281856605363035,-7.760334198159653,841],["10_11205178_11209980-1",-0.2327561302688045,-5.520483407626838,394]]}}}
