{"depmap_hotspot":{"corr":{"top":[["APOA1BP",0.08727062121656243,-3.540433219004464,42.0,1680.0],["TMEM89",0.08415808874081422,-3.3257510106927977,18.0,1704.0],["UBP1",0.07126040859876016,-2.5101360235772354,33.0,1689.0],["XRCC2",0.0677203345857339,-2.306889419026827,25.0,1697.0],["ZNF7",0.06487283036027554,-2.149773145638617,52.0,1670.0],["ZNF714",0.0689392847385312,-2.375879913922236,50.0,1672.0]],"bottom":[["ALDH5A1",-0.0666211082140429,-2.245566878793896,52.0,1670.0],["BEND6",-0.0696660006639069,-2.417506629857021,28.0,1694.0],["CLEC18B",-0.0745017724938077,-2.7039762791913504,35.0,1687.0],["CXCR2",-0.07479317549554285,-2.721767029234941,51.0,1671.0],["CXorf56",-0.06709598950911873,-2.271955446602977,16.0,1706.0],["CYCS",-0.08812048831878021,-3.6002688053332395,12.0,1710.0],["DKFZP779J2370",-0.07979072588479913,-3.0362770770782523,14.0,1708.0],["DSCAM",-0.07392814454293861,-2.6691309706512794,253.0,1469.0],["HMOX2",-0.07339521260125086,-2.63696658036616,19.0,1703.0],["HYDIN",-0.09040930951117297,-3.7640200485484625,243.0,1479.0],["ILDR1",-0.08829001360732977,-3.612266969172333,57.0,1665.0],["KIAA1644",-0.07839949707123767,-2.9469349454270435,27.0,1695.0],["MAGEA2B",-0.08562581763671144,-3.426113822421834,30.0,1692.0],["MORC1",-0.08174085685750793,-3.1638422285573946,120.0,1602.0],["MYT1",-0.07537455047868569,-2.757441140599472,139.0,1583.0],["NEK10",-0.0739118448964813,-2.6681442466380325,92.0,1630.0],["NUP37",-0.0741048051046668,-2.6798374593393492,33.0,1689.0],["OCIAD1",-0.0744970833323854,-2.7036904884994506,26.0,1696.0],["OR2L13",-0.07128943448985733,-2.5118389111660755,85.0,1637.0],["OR52B4",-0.07307379953606831,-2.61766527839816,37.0,1685.0],["OR52N5",-0.09102432442208351,-3.8086693910838605,42.0,1680.0],["PLAC1L",-0.06989601717238188,-2.430759391602944,15.0,1707.0],["POLR1B",-0.07722124308804262,-2.8723501562391904,85.0,1637.0],["SEC11C",-0.07616661325771847,-2.8064296326040297,11.0,1711.0],["TMEM241",-0.07345172229812487,-2.6403676198897075,26.0,1696.0],["TRIM21",-0.10047544346698586,-4.529571383902527,43.0,1679.0],["UGT2B15",-0.07108866525328271,-2.50007235349083,59.0,1663.0],["ZBP1",-0.07233109188112333,-2.5733439934844027,61.0,1661.0]]},"para":{"top":[["EMC10",0.07432447488883548,-2.989665079086058,29.0,1693.0],["LEMD1",0.07171195239056811,-2.833783996320142,17.0,1705.0],["MAGEB5",0.0745228556088586,-3.0016564397286754,23.0,1699.0],["TMEM154",0.05281724163893912,-1.8467310950742812,12.0,1710.0]],"bottom":[["CD300E",-0.09339009511699292,-4.271567158777438,31.0,1691.0],["CLEC18B",-0.08434482358764396,-3.6314919503855143,35.0,1687.0],["KRTAP4-8",-0.08058907616258167,-3.3826904472264494,36.0,1686.0],["OR52N5",-0.08693323302209842,-3.808774331625239,42.0,1680.0],["OR8A1",-0.0740924038387932,-2.9756376262340973,30.0,1692.0],["SEC11C",-0.05999599628388981,-2.1930139408476306,11.0,1711.0],["TRIM21",-0.09552898024965532,-4.431459775211221,43.0,1679.0]]}}}
{"depmap_damaging":{"corr":{"top":[["DGKD",0.06947562288269171,-2.4054089563654104,10.0,1711.0],["KLHL4",0.0739635485683877,-2.6699757584968093,11.0,1710.0],["MME",0.0733515381664346,-2.633060388354404,23.0,1698.0],["MPP7",0.0727607316558909,-2.5976752143085666,8.0,1713.0]],"bottom":[["BZW1",-0.06711599519868798,-2.2719850267325064,10.0,1711.0],["CCDC144A",-0.07149715687216619,-2.5228230111406034,9.0,1712.0],["CDH4",-0.0635654115822974,-2.0785430197778574,12.0,1709.0],["CLIP2",-0.05333936145321731,-1.5700047507641663,11.0,1710.0],["DIS3L",-0.08344484844692192,-3.275912164195529,11.0,1710.0],["FAM171A1",-0.054319872370786317,-1.6156697110478417,8.0,1713.0],["FAM208B",-0.07744540622296742,-2.885048276560727,53.0,1668.0],["KALRN",-0.06392575980561538,-2.09777573381981,36.0,1685.0],["KIF27",-0.08529293004676135,-3.401517910810567,21.0,1700.0],["MACC1",-0.07400047202837341,-2.672211392150916,13.0,1708.0],["MAML3",-0.061974228301242995,-1.9946931167146205,12.0,1709.0],["PCSK5",-0.059680654948533175,-1.8769063471664957,32.0,1689.0],["PDGFRB",-0.05525239530452785,-1.65970465531396,13.0,1708.0],["SAMSN1",-0.05548778253127276,-1.670913340498022,8.0,1713.0],["SEC24D",-0.0637732330830091,-2.0896239946133512,14.0,1707.0],["SLC2A2",-0.07192237473832348,-2.5478865350194737,8.0,1713.0],["SURF1",-0.10170197038227413,-4.6255643702172184,9.0,1712.0],["ZNF419",-0.10715063772310914,-5.07574288656537,10.0,1711.0]]},"para":{"top":[["OR52A5",0.049176283182065635,-1.6836365893174565,8.0,1713.0],["SCNN1D",0.05287994646141881,-1.8488513037422127,9.0,1712.0],["SPARCL1",0.05703931667526547,-2.0453241328518814,9.0,1712.0],["SUN5",0.052174556191234296,-1.8166834211675855,9.0,1712.0],["VIT",0.07374243419375741,-2.9531365388789688,14.0,1707.0]],"bottom":[["ACAT2",-0.07612866915685161,-3.098417095554688,8.0,1713.0],["ATP11A",-0.06101704944614487,-2.2441947311121653,11.0,1710.0],["NCAM2",-0.0632979074836552,-2.3631209064182057,15.0,1706.0],["PAXBP1",-0.05768938151474571,-2.077192476127183,17.0,1704.0],["SURF1",-0.06011222371434514,-2.197982182926288,9.0,1712.0]]}}}
{"prism_primary_logfold":{"corr":{"top":[],"bottom":[["glycopyrrolate_BRD-A81233518-004-16-1::2.5::HTS",-0.14412003638914272,-3.1897875311010417,557],["IEM1460_BRD-K13829090-303-02-9::2.5::HTS",-0.14839273505340564,-3.349646450042894,556],["chrysin_BRD-K22861715-001-17-4::2.5::HTS",-0.12489664235067408,-2.4190326146613095,535]]},"para":{"top":[["sulfaguanidine_BRD-K45086103-001-15-5::2.5::HTS",0.11765628559064376,-2.2549520903786857,554],["diphencyprone_BRD-K51730347-001-06-4::2.5::MTS004",0.12065255689624539,-2.298106585311216,539]],"bottom":[["IEM1460_BRD-K13829090-303-02-9::2.5::HTS",-0.1404788432353819,-3.0479637701813087,556]]}}}
{"prism_secondary_logfold":{"corr":{"top":[["temozolomide_BRD-K32107296-001-16-9::2.5::HTS002",0.14532032344176132,-2.780142269001467,466],["bentazepam_BRD-K89490285-001-08-1::2.5::MTS006",0.15629046602562305,-3.119717634972277,461]],"bottom":[["PD-407824_BRD-K82823804-001-04-1::0.15625::HTS002",-0.14544726918685943,-2.688258385504327,447]]},"para":{"top":[["bisacodyl_BRD-K39987650-001-24-1::2.5::HTS002",0.15033948687364043,-2.8327553776441334,445]],"bottom":[]}}}
{"ccle_proteomics":{"corr":{"top":[],"bottom":[["MYH10_P35580",-0.25404359720687625,-3.932702413828638,225],["MLIP_Q5VWP3-3",-0.44402602240073935,-6.669752457226671,125]]},"para":{"top":[],"bottom":[["MLIP_Q5VWP3-3",-0.4460119787975036,-6.730423372890483,125]]}}}
{"depmap_copy_number":{"corr":{"top":[["PTPN20_26095",0.8791606147225103,-323.0051853474518,1745],["MSMB_4477",0.9011789513248131,-323.0051853474518,1745],["LOC105378577_105378577",0.9143025680165392,-323.0051853474518,1745],["NCOA4_8031",0.9011790761731084,-323.0051853474518,1745],["AGAP7P_653268",0.907148163296056,-323.0051853474518,1745],["ANXA8L1_728113",0.9460125795510798,-323.0051853474518,1745],["ANTXRL_195977",0.9143025680165392,-323.0051853474518,1745],["GLUD1P2_414212",0.9182007700539785,-323.0051853474518,1745],["LINC00842_643650",0.9517807813644156,-323.0051853474518,1745],["HNRNPA1P33_728643",0.9547141176316288,-323.0051853474518,1745],["BMS1P1_399761",0.9153393247380769,-323.0051853474518,1745],["SHLD2P1_414241",0.9852197215692643,-323.0051853474518,1745],["FAM25BP_100132929",0.9460125795510798,-323.0051853474518,1745],["LOC101927699_101927699",0.9900515613229559,-323.0051853474518,1745],["ANTXRLP1_100996567",0.9122044017070998,-323.0051853474518,1745]],"bottom":[]},"para":{"top":[["PTPN20_26095",0.9588098739153881,-323.0051853474518,1745],["LOC105378577_105378577",0.959803235774183,-323.0051853474518,1745],["AGAP7P_653268",0.9538687122096859,-323.0051853474518,1745],["ANXA8L1_728113",0.962398689681466,-323.0051853474518,1745],["FRMPD2B_728798",0.9596057320915744,-323.0051853474518,1745],["ANTXRL_195977",0.959803235774183,-323.0051853474518,1745],["LINC00842_643650",0.9699878165379753,-323.0051853474518,1745],["GLUD1P2_414212",0.9829822854885428,-323.0051853474518,1745],["HNRNPA1P33_728643",0.9751184462068275,-323.0051853474518,1745],["BMS1P1_399761",0.982169393228833,-323.0051853474518,1745],["SHLD2P1_414241",0.9945779402656252,-323.0051853474518,1745],["FAM25BP_100132929",0.962398689681466,-323.0051853474518,1745],["LOC101927699_101927699",0.9974362693737433,-323.0051853474518,1745],["ANTXRLP1_100996567",0.957434503237679,-323.0051853474518,1745]],"bottom":[]}}}
{"depmap_gene_tpm":{"corr":{"top":[],"bottom":[]},"para":{"top":[],"bottom":[["ATPAF2_91647",-0.1959874099818731,-11.934177018887775,1293],["MED9_55090",-0.2054346304995982,-13.061682343313128,1293]]}}}
{"avana":{"corr":{"top":[],"bottom":[["PIGV_55650",-0.12997756235725927,-3.5204747041506774,769],["IGSF22_283284",-0.13535269514276124,-3.777896240538752,769],["ATPAF2_91647",-0.1220736772904861,-3.15936421812643,769],["SOHLH1_402381",-0.15788944424377593,-4.963379762136536,769],["NLRP12_91662",-0.13513974974662987,-3.7675144752110308,769],["PABPC1_26986",-0.1489906812566126,-4.474618580511521,769]]},"para":{"top":[["TIMM23_100287932",0.30251977715025724,-17.012517388229192,769]],"bottom":[["IGSF22_283284",-0.14000425558734497,-4.0084709793943425,769],["SOHLH1_402381",-0.13099631580739712,-3.5685244165630587,769]]}}}
{"drive":{"corr":{"top":[["INPP5D_3635",0.21809845188658925,-4.713163363948022,377],["SHCBP1_79801",0.2519552108667189,-6.142957419133864,377],["EPC1_80314",0.26259337475751576,-6.685204550133139,380]],"bottom":[["SRP19_6728",-0.21044551982550125,-4.419169986482184,377],["APH1A_51107",-0.17422962357177796,-3.1678057881080104,377]]},"para":{"top":[["DSG3_1830",0.20724866284241025,-4.440152765701842,391],["SHCBP1_79801",0.1965891178882313,-3.9134253366375424,377],["EPC1_80314",0.2102105752057768,-4.441323842604615,380],["CCDC47_57003",0.19714535450046866,-4.060745080659391,391],["LOC102725117_102725117",0.19753102350483465,-3.9742137100297668,380]],"bottom":[["SRP19_6728",-0.25986432776794033,-6.508194949697645,377],["CDC27P9&CDC27P10&CDC27P11_102723570&102723584&102723603",-0.19790046709687184,-3.9598382367483946,377],["GRB10_2887",-0.17314964045552014,-3.2334617217118,391],["CELP_1057",-0.19828521471247187,-3.973512844523843,377]]}}}
{"achilles":{"corr":{"top":[["CNGA4_1262",0.1945979990339491,-2.9730464056013077,280],["SAMHD1_25939",0.22227017426653234,-3.751852680685003,280]],"bottom":[["KRTAP2-4_85294",-0.2075804915200848,-3.325963163356821,280],["NPC1_4864",-0.20408804656929697,-5.317647734066721,494],["FRMD7_90167",-0.21197390483360398,-3.450353456884672,280],["F11R_50848",-0.19443334884343566,-4.870285106924016,494],["KRTAP26-1_388818",-0.22093707707160054,-3.7120217908433677,280]]},"para":{"top":[],"bottom":[["CELF6_60677",-0.22787134178972746,-6.513478858333587,494],["FSIP2_401024",-0.19208097945251426,-2.90712983331007,280],["F11R_50848",-0.1912907056062501,-4.7293205586045515,494],["KRTAP26-1_388818",-0.20828732825140667,-3.3458051596908356,280],["SARAF_51669",-0.22356225979122982,-3.7906852937611895,280]]}}}
{"ccle_rrbs_tss1kb":{"corr":{"top":[],"bottom":[["ZSCAN12_6_28351216_28352216",-0.16272145294137275,-5.562453782557258,822]]},"para":{"top":[],"bottom":[]}}}
{"ccle_gene_tpm":{"corr":{"top":[],"bottom":[["TCEB3_ENSG00000011007.8",-0.20837093891822095,-10.653698420936268,1011],["MLIP_ENSG00000146147.10",-0.23193548404701464,-13.087964812318486,1011]]},"para":{"top":[],"bottom":[["RP11-1281K21.6_ENSG00000268736.1",-0.21482776162261305,-11.293188821050784,1011],["TCEB3_ENSG00000011007.8",-0.22750430338026634,-12.608963202577268,1011],["ZBTB11-AS1_ENSG00000256628.2",-0.2110969435624121,-10.92117764239323,1011]]}}}
{"ccle_rrbs_tss_clusters":{"corr":{"top":[],"bottom":[["DST_1",-0.17851122100509084,-6.507955074072792,811],["MYSM1",-0.17110551565815524,-6.222562892642733,841]]},"para":{"top":[["MAGEA4_2",0.24071619790179044,-5.29312729773751,351],["MAGEA4_3",0.25412660878644966,-5.850575812167703,351]],"bottom":[]}}}
{"ccle_rrbs_cgi_clusters":{"corr":{"top":[],"bottom":[]},"para":{"top":[],"bottom":[["7_5456503_5461421-1",-0.18425229263496332,-6.40236813446957,747]]}}}
