{"depmap_hotspot":{"corr":{"top":[["ADH1A",0.07689181043374664,-2.8516736755751513,38.0,1684.0],["ADHFE1",0.09118910825878988,-3.820679247984284,51.0,1671.0],["ARRDC5",0.07736367391077764,-2.881313604103104,44.0,1678.0],["C11orf74",0.08113957333243474,-3.1242194772909606,19.0,1703.0],["CAV3",0.08916486292884179,-3.674515755759881,11.0,1711.0],["CCL22",0.09744349853566622,-4.29116946812243,11.0,1711.0],["CLTCL1",0.0781844903890148,-2.933250935305908,118.0,1604.0],["CPB2",0.0767936436777218,-2.845527289266325,33.0,1689.0],["DAO",0.08636676121802879,-3.477369847033667,38.0,1684.0],["DBX1",0.09253086966580601,-3.919206318667179,37.0,1685.0],["DDX43",0.07938291389781034,-3.0099448443202887,56.0,1666.0],["FAM47E",0.08053906739117925,-3.0849066638343383,39.0,1683.0],["GJB3",0.09366734517034417,-4.003685979012755,40.0,1682.0],["GVQW1",0.09686587919321608,-4.246517572024472,13.0,1709.0],["HARS",0.07841220666201205,-2.9477448746771486,43.0,1679.0],["ICOSLG",0.07870113544369535,-2.966188207541449,35.0,1687.0],["KLHDC7A",0.07607582979034068,-2.8007921221142436,107.0,1615.0],["LAIR1",0.07593795077621149,-2.7922412581145313,69.0,1653.0],["MTAP",0.07628262506032416,-2.81364231168286,35.0,1687.0],["MYL5",0.08681932208083482,-3.5088716861182396,29.0,1693.0],["NDUFB6",0.07960646520826056,-3.024364721238307,23.0,1699.0],["NEK6",0.07828054692783458,-2.9393603368356365,37.0,1685.0],["NMNAT3",0.07717837682764024,-2.869655328327711,27.0,1695.0],["NPC1L1",0.08104176557437741,-3.1177987614186873,127.0,1595.0],["NUTM2D",0.07858200443066389,-2.958576438601912,29.0,1693.0],["OR5A1",0.10569936393775378,-4.956242063827125,40.0,1682.0],["OXA1L",0.07694863948385876,-2.8552349734668274,34.0,1688.0],["P2RY12",0.08299441457248638,-3.247282440318367,36.0,1686.0],["PCTP",0.07775278421729385,-2.9058747582150195,18.0,1704.0],["PER3",0.07925405017374765,-3.001648896249865,105.0,1617.0],["PWWP2B",0.07793376525080141,-2.9173352929086365,88.0,1634.0],["QSOX1",0.07657342026734386,-2.831763681200765,69.0,1653.0],["RGS13",0.07474602338010272,-2.7188842124946646,20.0,1702.0],["RRP15",0.08970949580800064,-3.7135489300393707,30.0,1692.0],["SCGB3A1",0.07786384829066109,-2.9129050674085133,8.0,1714.0],["SLC37A4",0.08431949355366607,-3.3367118109823157,15.0,1707.0],["TEK",0.07767795815830307,-2.9011432583977923,93.0,1629.0],["TLR8",0.07968192335088392,-3.0292401144042818,61.0,1661.0],["TMSB4X",0.11007049119539543,-5.3288198855769355,16.0,1706.0],["TTL",0.0821238177068633,-3.1892134110176604,45.0,1677.0],["TXLNB",0.08180252479417648,-3.167920622591143,84.0,1638.0],["UPK3B",0.07871392313096552,-2.967005867572977,26.0,1696.0],["UXS1",0.08286481932325465,-3.2386038974156794,40.0,1682.0],["VWA8",0.08874792346142332,-3.64477971747935,151.0,1571.0],["ZNF827",0.07574779013083364,-2.7804702024461925,101.0,1621.0],["ZNF836",0.085948008105452,-3.4483531615778578,90.0,1632.0]],"bottom":[["CCNYL1",-0.06214540593680775,-2.004572657458739,24.0,1698.0],["CDK5R2",-0.06956036803983946,-2.411432896651433,33.0,1689.0],["CLDN5",-0.06509281698849,-2.161709790966437,33.0,1689.0],["COQ10A",-0.07118428983092057,-2.5056731165935617,16.0,1706.0],["CYYR1",-0.08698721407154403,-3.5205959724630325,19.0,1703.0],["DPF1",-0.06637831004908264,-2.2321357362803056,56.0,1666.0],["EFNB2",-0.0911925894909058,-3.8209331820485324,29.0,1693.0],["GOLGA8O",-0.07701922251418228,-2.859661391398314,12.0,1710.0],["GPR89B",-0.08347860171238448,-3.279813634304098,13.0,1709.0],["HES1",-0.06326513452081553,-2.0635595578611845,37.0,1685.0],["HIST1H4C",-0.07641720210125141,-2.8220212187193754,27.0,1695.0],["HOXB4",-0.07774619350121642,-2.9054578450832604,23.0,1699.0],["HTR3A",-0.0714734764432194,-2.522650082199431,65.0,1657.0],["MRAS",-0.06089315831328493,-1.93963184153515,26.0,1696.0],["MRPS26",-0.07567149334378591,-2.7757546088436595,14.0,1708.0],["OR2W1",-0.07063255527791457,-2.4734464638726728,33.0,1689.0],["OTUD3",-0.06946600345491835,-2.4060136888776595,42.0,1680.0],["RMDN1",-0.07487484590264398,-2.726763978986226,29.0,1693.0],["RPUSD2",-0.0784714085805859,-2.9515190855063373,31.0,1691.0],["SLC16A2",-0.06431753517010139,-2.1197921349127165,45.0,1677.0],["SNRPD3",-0.0631548358881052,-2.0577104994835884,12.0,1710.0],["SYT7",-0.0840093791191268,-3.3156689356560283,36.0,1686.0],["UBE2E3",-0.08772627577766384,-3.572448902931062,21.0,1701.0],["UBE2L3",-0.06956489774287222,-2.411693187601645,15.0,1707.0],["WASF1",-0.0611579040364473,-1.953271134055376,40.0,1682.0],["XXYLT1",-0.0707959776655212,-2.48296957366224,36.0,1686.0],["YPEL5",-0.07338109041895027,-2.6361169888360583,15.0,1707.0],["ZNF334",-0.07055947536683095,-2.4691939626574513,75.0,1647.0],["ZNF692",-0.06728672074464437,-2.282598508024122,37.0,1685.0]]},"para":{"top":[["AC008394.1",0.06555197968634335,-2.485033803982522,9.0,1713.0],["AGTRAP",0.05085197706952477,-1.7579421207803976,10.0,1712.0],["ATOX1",0.058221184433416555,-2.1040928669138523,8.0,1714.0],["CLDN20",0.07399592934992887,-2.9697636920061385,21.0,1701.0],["CNN3",0.07938702738217399,-3.305088130475586,23.0,1699.0],["CSH1",0.058193418959380565,-2.1027643735713903,10.0,1712.0],["CXCL1",0.06843711359734088,-2.6451950283080494,19.0,1703.0],["DPY30",0.05568194323368281,-1.9807508050248557,12.0,1710.0],["FCF1",0.08079240881985424,-3.395787864778199,17.0,1705.0],["FGFBP1",0.05485709877069218,-1.9415647815325692,10.0,1712.0],["FTSJ2",0.06088689071151758,-2.2384894321165714,16.0,1706.0],["GLO1",0.06539850605987527,-2.4767808352489014,15.0,1707.0],["GPX8",0.06362962866239205,-2.38171720583942,18.0,1704.0],["GVQW1",0.06991797480189724,-2.729495994564337,13.0,1709.0],["IL15",0.06806473734174245,-2.624190620362379,16.0,1706.0],["ILF2",0.07034924693273652,-2.7544262319416086,20.0,1702.0],["INSIG2",0.07122712325393547,-2.8053437397604757,13.0,1709.0],["LURAP1",0.06740295351402048,-2.5871669776296873,18.0,1704.0],["MT1HL1",0.04675803593049603,-1.581280804411884,9.0,1713.0],["NDUFB6",0.07740260611060319,-3.1793005526606124,23.0,1699.0],["NQO2",0.07607301835623692,-3.0965750627918056,25.0,1697.0],["NRTN",0.08790189554768009,-3.8761192110305216,13.0,1709.0],["PLAC1",0.06561732907596604,-2.488704591247704,16.0,1706.0],["PRG3",0.06250699195111492,-2.3224494532555036,15.0,1707.0],["PRH1",0.06654448625795864,-2.5394941164591933,12.0,1710.0],["PSMD12",0.08582721499204782,-3.732402126476581,29.0,1693.0],["RECQL",0.09004035712023674,-4.027788021899483,36.0,1686.0],["TMSB4X",0.10178052583893119,-4.91716064971153,16.0,1706.0]],"bottom":[["CYYR1",-0.06163757685950555,-2.2772006468361963,19.0,1703.0],["LCE6A",-0.0590543881646118,-2.145541377442042,8.0,1714.0],["LGALS9C",-0.0658509556280939,-2.5015083533938998,22.0,1700.0],["LNP1",-0.06056919745675656,-2.222242497854705,17.0,1705.0],["POLR3GL",-0.05428242344430668,-1.9146004473899625,13.0,1709.0],["SYT7",-0.09212254548204507,-4.1783980007926615,36.0,1686.0]]}}}
{"depmap_damaging":{"corr":{"top":[["ADCY8",0.09056201857792778,-3.773179848543269,15.0,1706.0],["AK9",0.06841796496532769,-2.3451220549207092,20.0,1701.0],["ALMS1",0.06837497266430785,-2.3426880605499663,32.0,1689.0],["ANKRD30B",0.07836749640144669,-2.943449073118181,33.0,1688.0],["ANKS1B",0.1056336821202448,-4.948199574361338,22.0,1699.0],["AP4B1",0.07965914115371737,-3.0262755942759325,11.0,1710.0],["BRSK1",0.07404308455048843,-2.6747926854271205,17.0,1704.0],["C6orf10",0.09431020860385014,-4.0498371686275965,8.0,1713.0],["CACNA2D3",0.08159949217643957,-3.1529423133748926,19.0,1702.0],["DNTT",0.0922075185816429,-3.8933750341910276,10.0,1711.0],["EP300",0.06714629006274153,-2.27367334555325,95.0,1626.0],["FSTL4",0.07271029803965967,-2.594666017587656,15.0,1706.0],["GABRB1",0.08677258868322286,-3.5038588064221976,8.0,1713.0],["KIAA0368",0.08459472997103477,-3.3537752867758783,15.0,1706.0],["MAGED1",0.07014555926162805,-2.4440016534581734,9.0,1712.0],["MAP4K4",0.09161651271789764,-3.8499783578743783,18.0,1703.0],["MAP7D1",0.06668353063702663,-2.2479538618343726,27.0,1694.0],["MRC2",0.08131405831058003,-3.1341399542766517,21.0,1700.0],["NOL4",0.08696102918123853,-3.5170058612676214,8.0,1713.0],["NOS3",0.07673413323676856,-2.8404133431235503,28.0,1693.0],["NOVA1",0.08067922890719584,-3.0925312058139096,9.0,1712.0],["OBSCN",0.07358727183122352,-2.6472480479727394,74.0,1647.0],["PEAK1",0.0775510471265026,-2.8917083396866348,20.0,1701.0],["PTCHD4",0.0753583715231263,-2.755100059872708,10.0,1711.0],["PUM2",0.10681953180064471,-5.047758214279254,9.0,1712.0],["RP11-1220K2.2",0.0665211742015262,-2.23896575888104,23.0,1698.0],["RPP40",0.06521247023909049,-2.1671866265555835,11.0,1710.0],["SAFB",0.0769128480598268,-2.8515944755587763,13.0,1708.0],["SLC3A2",0.06615841533363089,-2.2189497637380784,27.0,1694.0],["TSPYL2",0.0759458255245037,-2.7913645815682004,8.0,1713.0],["ZDHHC2",0.08069538484223504,-3.09358653808413,9.0,1712.0],["ZNF513",0.08487105274870098,-3.3726281088846437,8.0,1713.0],["ZNF560",0.07476072540837324,-2.7184576374107525,11.0,1710.0],["ZSCAN9",0.06905718913818513,-2.381464297178028,10.0,1711.0]],"bottom":[["BTN2A1",-0.07437550773452374,-2.694973664351698,12.0,1709.0],["DPF1",-0.08114502600311461,-3.1230328342676357,8.0,1713.0],["HDX",-0.10066078896716417,-4.542038306976143,10.0,1711.0],["LPHN2",-0.056820172570976255,-1.7350703642354177,24.0,1697.0],["LRRIQ4",-0.08153685374230778,-3.14881113518907,10.0,1711.0],["NCOA7",-0.06973787820510059,-2.420479026273546,35.0,1686.0],["RADIL",-0.05007950080774942,-1.4228497230501063,13.0,1708.0],["RLIM",-0.06968361476676363,-2.4173569051530635,9.0,1712.0],["RSAD1",-0.06500187945971313,-2.1557476561996403,10.0,1711.0],["SLC18A1",-0.06299442305994633,-2.048252235818703,11.0,1710.0],["ZNF561",-0.08343901185415947,-3.275519371784752,17.0,1704.0]]},"para":{"top":[["ACMSD",0.07654972439009393,-3.1244862922802787,8.0,1713.0],["AKAP8",0.052640831361247205,-1.8378872956228711,8.0,1713.0],["AKT1",0.07503872448420813,-3.0315386040587797,9.0,1712.0],["APBB3",0.06465342162845912,-2.4353770306682083,10.0,1711.0],["BHLHB9",0.07185535876080262,-2.8409009338947024,11.0,1710.0],["BTNL3",0.05744668220739082,-2.0651696731685965,8.0,1713.0],["CCDC91",0.05657836210817704,-2.02295246452737,8.0,1713.0],["CD58",0.08513516875512267,-3.683282986769485,15.0,1706.0],["CGB1",0.057283334861994155,-2.0571888933052023,8.0,1713.0],["COL9A2",0.07527655144509626,-3.0461786242632454,15.0,1706.0],["DDX51",0.056868893952699694,-2.0370449625674896,9.0,1712.0],["DSN1",0.06121226838021888,-2.2541651436791366,8.0,1713.0],["DUS2",0.05989847523236394,-2.187176945171529,10.0,1711.0],["DZIP1L",0.05266662304736248,-1.8390656463381745,8.0,1713.0],["EIF2AK1",0.06936038102605255,-2.6963671030823844,11.0,1710.0],["FAM71B",0.055668922993903094,-1.979305338603173,9.0,1712.0],["GRIA2",0.07501825167241263,-3.0303872022480776,14.0,1707.0],["GSG2",0.06228497909105206,-2.3097962691045755,9.0,1712.0],["ILF2",0.061796879932164796,-2.2843719999664587,8.0,1713.0],["ISM1",0.058101296559031367,-2.0973579986697497,9.0,1712.0],["MOCS1",0.07489045925001214,-3.022471194803676,8.0,1713.0],["MRC2",0.08738246299215621,-3.8381431082944286,21.0,1700.0],["NDC1",0.06971595370307145,-2.716719883420443,12.0,1709.0],["NEDD4L",0.06143364834325715,-2.2656016733029873,9.0,1712.0],["NOBOX",0.08227041428737741,-3.4911456704992414,17.0,1704.0],["NOXA1",0.062168231198137525,-2.3037279048544836,10.0,1711.0],["PRMT3",0.07337660254803713,-2.931098808704448,9.0,1712.0],["RAD54L",0.054128151927227273,-1.9065671401770001,8.0,1713.0],["RBM15B",0.06903016338468854,-2.6775604217451567,11.0,1710.0],["RECQL",0.0769124392466143,-3.1471404390499425,12.0,1709.0],["REXO1",0.07117071201118995,-2.8008282081787526,12.0,1709.0],["SAFB",0.09028861322883859,-4.043509370908236,13.0,1708.0],["SP110",0.05686889395269971,-2.0370449625674896,9.0,1712.0],["TBX15",0.05762722401019762,-2.0740115392904768,8.0,1713.0],["USP31",0.08033319094430408,-3.3643281427475222,9.0,1712.0],["VPS45",0.07477927130392781,-3.01573350854331,9.0,1712.0],["ZNF202",0.06330139495555498,-2.363183412751767,8.0,1713.0],["ZNF268",0.06714435618672883,-2.571531779946455,8.0,1713.0]],"bottom":[["ARHGAP36",-0.053743204816706754,-1.8886911038881207,10.0,1711.0],["BTN2A1",-0.06705241071381098,-2.5665154310525806,12.0,1709.0],["GABRA5",-0.06673168920888471,-2.548672379138854,8.0,1713.0],["GHSR",-0.06345251840231365,-2.3712112339929483,9.0,1712.0],["HDX",-0.07705629151600833,-3.1560702791989295,10.0,1711.0],["LECT1",-0.05736070992033993,-2.060967012691059,8.0,1713.0],["LRRIQ4",-0.055366657388836324,-1.9649338518128805,10.0,1711.0],["MPPE1",-0.046328608503810396,-1.5628357032193332,9.0,1712.0],["SLC25A41",-0.059698555200132314,-2.1770583638866223,9.0,1712.0],["TRIM58",-0.06116364535041768,-2.2517280557529067,11.0,1710.0],["ZNF561",-0.07221796662773954,-2.862349996426162,17.0,1704.0]]}}}
{"ccle_rrbs_enhancer_clusters":{"corr":{"top":[],"bottom":[["9-129199570-129202739-1_enh",-0.16584385478788818,-3.34053691563921,443]]},"para":{"top":[],"bottom":[["6-17471150-17474128-0_enh",-0.13376620739882109,-4.004792919277365,842]]}}}
{"ccle_mirna":{"corr":{"top":[],"bottom":[]},"para":{"top":[],"bottom":[["hsa-miR-507_miR00416.1",-0.12403709465251035,-3.9009200492211726,951]]}}}
{"prism_primary_logfold":{"corr":{"top":[["canrenone_BRD-A20644369-001-08-6::2.5::HTS",0.11720680628201892,-2.244072089664764,555],["ZK-164015_BRD-K05151076-001-02-6::2.5::HTS",0.12845435484195594,-2.610455073950741,554],["fenaclon_BRD-K08791496-001-01-0::2.5::HTS",0.1296493737484793,-2.5549084187976896,530],["sulfachlorpyridazine_BRD-K32021043-001-14-3::2.5::HTS",0.11494645255560293,-2.1731986080279118,555],["MK-6096_BRD-K03894385-001-01-1::2.500025266::MTS004",0.12103280965174244,-2.310120994401373,539]],"bottom":[["SB-205384_BRD-A22707317-001-10-8::2.5::HTS",-0.1731925239366284,-4.401555306289073,557],["SB-203186_BRD-K27141178-003-07-3::2.5::HTS",-0.15310941550373797,-3.4981822064244827,549],["mebhydrolin_BRD-K29713308-001-01-7::2.5::HTS",-0.13303103729568222,-2.769379105663507,554],["M-344_BRD-K45528773-001-06-4::2.5::HTS",-0.14881332521217247,-3.2618207326276307,536],["SB-939_BRD-K86797399-001-04-4::2.5::HTS",-0.13701115563044827,-2.8313299929189677,536]]},"para":{"top":[["siguazodan_BRD-A62071884-001-04-6::2.5::HTS",0.11161494017058239,-2.080015370265926,558],["fenaclon_BRD-K08791496-001-01-0::2.5::HTS",0.15221703939324344,-3.35930548685643,530],["3-indolebutyric-acid_BRD-K43187796-001-02-3::2.5::HTS",0.11184618177676382,-2.0901234526356056,559],["imidacloprid_BRD-K76609936-001-08-4::2.5::HTS",0.11861505621076086,-2.237697970152967,540],["A-33903_BRD-A40302156-001-01-9::2.503151999::MTS004",0.12679199823591256,-2.496090444579143,539],["MK-6096_BRD-K03894385-001-01-1::2.500025266::MTS004",0.12067278787252639,-2.298744978344972,539]],"bottom":[["SB-205384_BRD-A22707317-001-10-8::2.5::HTS",-0.15225371317189354,-3.5077903125005445,557],["doxifluridine_BRD-K58262659-001-09-7::2.5::HTS",-0.13059401820624986,-2.6107555618555898,536],["benurestat_BRD-K88553858-001-02-7::2.5::HTS",-0.13370051463904514,-2.7930416251545855,554],["GW-9662_BRD-K93258693-001-17-3::2.5::HTS",-0.13292209773419406,-2.7781631754469145,557],["pyronaridine_BRD-K73132780-001-01-2::2.5::MTS004",-0.14483492571913567,-3.1279610494514705,539]]}}}
{"prism_secondary_logfold":{"corr":{"top":[["BNC105_BRD-K20468903-001-01-6::0.000610352::MTS006",0.14325866538760562,-2.7234158595308844,468],["cibenzoline_BRD-K34251960-036-01-6::0.009765627::MTS006",0.14335475331333375,-2.7265101369371254,468],["FK-866_BRD-K58550667-001-08-7::3.81e-05::MTS010::PROS005_PR500",0.14092805056654678,-2.62515353664084,463],["vinflunine_BRD-K64120610-001-01-4::0.000610352::MTS006",0.1423169019064692,-2.7173890160728678,473],["dovitinib_BRD-K85402309-001-06-6::0.15625::HTS002",0.13565956825420944,-2.190595282703074,402],["motesanib_BRD-K99616396-001-05-1::0.624999999::MTS006",0.1561183620995725,-3.1599526466269907,469]],"bottom":[["ethinyl-estradiol_BRD-K48195008-001-19-9::0.625::HTS002",-0.21979529062487543,-2.506741411923021,179],["R547_BRD-K52233191-001-02-4::2.5::HTS002",-0.18934140565824506,-3.738253459450468,386],["A-674563_BRD-K78177893-001-02-4::0.15625::HTS002",-0.16897824559373797,-3.4847102923181206,448],["oxaliplatin_BRD-K78960041-001-05-7::0.160475::HTS002",-0.1705388580773185,-3.6709018551433923,467],["mycophenolate-mofetil_BRD-K92428153-001-04-4::2.5::HTS002",-0.17377158340585425,-3.067357067624758,365],["hydrocortisone_BRD-K93568044-001-32-0::10::HTS002",-0.18613421531794908,-2.9952609515723245,309]]},"para":{"top":[["FK-866_BRD-K58550667-001-08-7::3.81e-05::MTS010::PROS005_PR500",0.1619592424260652,-3.3301109356784995,463],["alogliptin_BRD-K83003151-057-02-4::0.586869::HTS002",0.1598495597200143,-2.8551622383375164,397],["imatinib_BRD-K92723993-001-17-4::0.625::MTS010::PROS003_PR500",0.1425389713309425,-2.651696689716271,458]],"bottom":[["JZL-184_BRD-K45446451-001-05-0::0.15625::HTS002",-0.17082575592361174,-3.6885827547955987,468],["ethinyl-estradiol_BRD-K48195008-001-19-9::0.625::HTS002",-0.21777586907188667,-2.467698770608931,179],["MK-1775_BRD-K54256913-001-08-7::10::HTS002",-0.21148716298422596,-5.35415413337936,463],["bosentan_BRD-K74763371-002-04-0::0.0024414::HTS002",-0.19342399809105892,-4.380832039444649,443]]}}}
{"ccle_proteomics":{"corr":{"top":[["CAAP1_Q9H8G2",0.45322507747968893,-19.618005421834525,374],["SMCR8_Q8TEV9",0.3062045223617728,-5.854727429207299,239],["PLAA_Q9Y263",0.6039664949953972,-37.82217219067126,374],["TUSC1_Q2TAM9",0.28892717072786334,-4.914208961751558,222],["IFT74_Q96LB3",0.31947531271558405,-9.594140160233865,374]],"bottom":[["WNK4_Q96J92",-0.26697794179957396,-2.2823084544740535,108],["MREG_Q8N565-2",-0.2415897121830845,-4.795527737841257,312],["ST3GAL1_Q11201",-0.23121719813928726,-4.101124134652825,286],["EXOC6B_Q9Y2D4",-0.24010492599209027,-5.577842073942942,374]]},"para":{"top":[["SMCR8_Q8TEV9",0.2914706451202928,-5.337321274482774,239],["UBXN2B_Q14CS0",0.3290649953562792,-6.97247738223524,249],["PLAA_Q9Y263",0.5047923135922642,-24.84897524063961,374],["RFX3_P48380-2",0.3695441792476164,-4.619606107417848,124],["PIWIL2_Q8TC59",0.28659407406036547,-2.7411802498748457,116],["C16orf87_Q6PH81",0.28657746201453566,-4.527823589633994,206]],"bottom":[["DCAF6_Q58WW2-3",-0.2493754159464633,-5.852552326538576,365],["ST3GAL1_Q11201",-0.27795970392591324,-5.744479528521357,286],["HYAL2_Q12891",-0.27886935805837415,-2.7859793095309637,125],["EXOC6B_Q9Y2D4",-0.2695780666836076,-6.922661413426396,374],["TMEM127_O75204",-0.25007584505051783,-3.5394870541087866,206]]}}}
{"depmap_copy_number":{"corr":{"top":[["CAAP1_79886",0.9656928039671757,-323.0051853474518,1745],["LRRC19_64922",0.9959128236530987,-323.0051853474518,1745],["MIR873_100126316",0.772027956217549,-323.0051853474518,1745],["LINGO2_158038",0.8702062759155929,-323.0051853474518,1745],["IFNK_56832",0.9091623884774563,-323.0051853474518,1745],["IFT74_80173",0.995445501098484,-323.0051853474518,1745],["LINC01241_101929582",0.858712419199204,-323.0051853474518,1745],["EQTN_54586",0.9142437743204295,-323.0051853474518,1745],["C9orf72_203228",0.9091667516072849,-323.0051853474518,1745],["LOC100506422_100506422",0.8641598889067511,-323.0051853474518,1745],["TEK_7010",0.9471378313979011,-323.0051853474518,1745],["MIR876_100126310",0.7752670814267564,-323.0051853474518,1745],["PLAA_9373",0.9857143051156457,-323.0051853474518,1745],["MOB3B_79817",0.9115381039106517,-323.0051853474518,1745],["TUSC1_286319",0.8579331105514778,-323.0051853474518,1745],["LINC00032_158035",0.9382224635783942,-323.0051853474518,1745]],"bottom":[]},"para":{"top":[["CAAP1_79886",0.9784538810271051,-323.0051853474518,1745],["LRRC19_64922",0.9980957216937304,-323.0051853474518,1745],["LINGO2_158038",0.9246018379675319,-323.0051853474518,1745],["IFNK_56832",0.9590816814814436,-323.0051853474518,1745],["IFT74_80173",0.9995784103080166,-323.0051853474518,1745],["LINC01241_101929582",0.9333682325823494,-323.0051853474518,1745],["EQTN_54586",0.9674747522189774,-323.0051853474518,1745],["C9orf72_203228",0.9590898116885093,-323.0051853474518,1745],["LOC100506422_100506422",0.9380445685232959,-323.0051853474518,1745],["TEK_7010",0.9834778054060533,-323.0051853474518,1745],["MIR876_100126310",0.861445282153278,-323.0051853474518,1745],["IZUMO3_100129669",0.8600651218790666,-323.0051853474518,1745],["MOB3B_79817",0.964740023540804,-323.0051853474518,1745],["TUSC1_286319",0.9315112917415854,-323.0051853474518,1745],["LINC00032_158035",0.9723967148964523,-323.0051853474518,1745],["PLAA_9373",0.9929322947275024,-323.0051853474518,1745]],"bottom":[]}}}
{"depmap_gene_tpm":{"corr":{"top":[["CAAP1_79886",0.7351716119040665,-219.5011312169385,1293],["IFT74_80173",0.596595522128108,-124.76194912603816,1293],["C9orf72_203228",0.4693477967723897,-71.08251280422012,1293],["PLAA_9373",0.7399681486491073,-223.8540524805926,1293]],"bottom":[["UBC_7316",-0.1985824535654327,-12.238351302845096,1293]]},"para":{"top":[["CAAP1_79886",0.6308754955064643,-143.72633414384725,1293],["IFT74_80173",0.5236928865478505,-91.2371685152953,1293],["C9orf72_203228",0.4372340432538479,-60.775125887878,1293],["PLAA_9373",0.6330497313252582,-145.01047223334677,1293]],"bottom":[]}}}
{"avana":{"corr":{"top":[["IFT74_80173",0.20155056497609916,-7.764465653678645,769],["FBXO10_26267",0.24302789230039304,-11.074281224113694,769],["FAM205A_259308",0.23083238801513659,-10.033075576982665,769]],"bottom":[["CDC45_8318",-0.16902111706918582,-5.613348590157801,769],["HPN_3249",-0.15091737870139124,-4.578137672597238,769],["TCEA2_6919",-0.13121648148740203,-3.5306598742848228,757]]},"para":{"top":[["FBXO10_26267",0.26063104551605976,-12.680285020288634,769],["FAM205A_259308",0.2813170366007243,-14.727755453140846,769]],"bottom":[["C10orf113_387638",-0.13567699151028986,-3.793735891073578,769],["CACNG6_59285",-0.1497329874241232,-4.514351552817793,769],["CHMP2A_27243",-0.17558132491444006,-6.016716341361034,769]]}}}
{"drive":{"corr":{"top":[["INSL4_3641",0.19333666234767646,-3.825971812737268,380],["SMCO1_255798",0.19862758409348638,-3.9857030777590277,377],["SIGLEC10_89790",0.2053161482611544,-4.366132198386141,391]],"bottom":[["BIN2_51411",-0.20909902887581494,-4.368530702415931,377],["IRF5_3663",-0.21522557873013845,-4.634038440300872,380],["RECQL4_9401",-0.2169912003571796,-4.669974326266817,377],["CZ1P-ASNS&ASNS_107986827&440",-0.2043248636185997,-4.2209290141141205,380],["KRTAP5-5_439915",-0.18401121828842235,-3.4834338725897345,377],["CENPA_1058",-0.20487464501251362,-4.2412532307340065,380],["SUZ12_23512",-0.2198016607102315,-4.813873264475484,380],["APH1A_51107",-0.18701905635422694,-3.5837737025155483,377],["CYP3A7_1551",-0.18438990997390414,-3.5441059775113755,383]]},"para":{"top":[["UBQLN2_29978",0.2565691783563275,-6.354557187999594,377],["ANKAR_150709",0.22522007826127322,-4.996270975538692,377],["INSL4_3641",0.21632412565255157,-4.676861888623029,380],["BLOC1S1-RDH5_100528022",0.27576781976428794,-7.279655077509145,377],["PIPOX_51268",0.2098184968934233,-4.395548404953805,377]],"bottom":[["EED_8726",-0.20404837214597993,-4.210728122713002,380],["RECQL4_9401",-0.20281254072270657,-4.136375834070003,377],["INSR_3643",-0.20376876941754254,-4.17123671306996,377],["HMGN5_79366",-0.19959793028386288,-4.048405878149723,380],["CENPA_1058",-0.18764995952382346,-3.6299092896958864,380],["SUZ12_23512",-0.2811234049700273,-7.606056150040345,380],["APH1A_51107",-0.2061678519109377,-4.259411685032144,377]]}}}
{"achilles":{"corr":{"top":[["C1orf64_149563",0.214569352714758,-3.5250299782606085,280],["CCDC189_90835",0.19897109214114023,-3.089496753969168,280],["CRACR2B_283229",0.20746522503779743,-3.3227336437737205,280]],"bottom":[["TMEM187_8269",-0.2101490949154631,-3.398380585492844,280],["TMEM270_135886",-0.25534680599771414,-4.817773333927031,280],["IQSEC2_23096",-0.21363585501309942,-3.498068986070988,280],["AP1AR_55435",-0.20300777518775268,-3.199172540474814,280]]},"para":{"top":[["C1orf64_149563",0.2371374366512925,-4.212316929077522,280],["VPS13C_54832",0.23437540358807785,-4.124498035071595,280],["CADM4_199731",0.22681444821127528,-3.8894200651961905,280]],"bottom":[["TMEM270_135886",-0.21908784259498879,-3.6571624837888246,280],["C17orf102_400591",-0.23608743021340528,-4.1788086920869505,280],["LCP2_3937",-0.2112115921658897,-5.661700095940703,494],["FRMPD1_22844",-0.20848198996503928,-3.351281080504398,280],["SFMBT2_57713",-0.20745878408759275,-3.3225532333330543,280]]}}}
{"ccle_rrbs_tss1kb":{"corr":{"top":[["CDKN2B-AS1_9_21993789_21994789",0.18129453335091997,-5.103866893495225,600],["COX16_14_70826448_70827448",0.2005235102339097,-4.561274405212224,431]],"bottom":[["EML2_19_46146985_46147985",-0.14931876134238536,-3.2914880096672636,538]]},"para":{"top":[["FAM217B_20_58507818_58508818",0.19871086039627625,-8.110807339941648,830],["COX16_14_70826448_70827448",0.19374368678379195,-4.288670413634656,431]],"bottom":[["LOXL3_2_74781122_74782122",-0.19981639076831553,-8.213772270656959,832],["MPP2_17_41985310_41986310",-0.17094930980774034,-6.12527900370255,828]]}}}
{"ccle_gene_tpm":{"corr":{"top":[["IFT74_ENSG00000096872.11",0.6092411620176597,-103.02727130951313,1011],["CAAP1_ENSG00000120159.7",0.7659623079588899,-195.0778017523112,1011],["C9orf72_ENSG00000147894.10",0.4807683141051813,-58.872999035496704,1011],["PLAA_ENSG00000137055.10",0.7764378315600365,-203.82107143925677,1011]],"bottom":[["RP3-525L6.2_ENSG00000220920.1",-0.2123234794430858,-11.042720606465663,1011],["UBC_ENSG00000150991.10",-0.22598019823301266,-12.446505846722543,1011]]},"para":{"top":[["IFT74_ENSG00000096872.11",0.5386301526047765,-76.4103995455451,1011],["CAAP1_ENSG00000120159.7",0.6663952053081148,-130.0666891760094,1011],["C9orf72_ENSG00000147894.10",0.4582025852160377,-52.89592970044813,1011],["PLAA_ENSG00000137055.10",0.6888414093063449,-142.41080639540957,1011]],"bottom":[["ATP6V0D2_ENSG00000147614.3",-0.1965797398558522,-9.538558350444765,1011]]}}}
{"ccle_rrbs_tss_clusters":{"corr":{"top":[["COX16_1",0.20546746177042988,-4.844517093938099,439],["LINC02578_2",0.20384052308376327,-5.286660568847077,492]],"bottom":[["MCCC1_2",-0.17748909569546012,-4.342426377648725,522],["MIR6750_2",-0.18722617077906056,-2.4861195953112167,245]]},"para":{"top":[["TBC1D20_2",0.19873832766481483,-7.49124142740887,761],["COX16_1",0.20240850923008216,-4.7150450704909606,439]],"bottom":[["SELENON_1",-0.24400408216699931,-10.425112468565647,715],["DOK1_5",-0.2130069653348045,-9.358282827470886,841],["ARHGAP45_9",-0.18854782201849504,-7.386495414084015,834],["RAB3IL1_3",-0.19379557543164386,-7.773986859290057,834],["RAB3IL1_1",-0.19555678794720696,-7.644909090727048,804]]}}}
{"ccle_rrbs_cgi_clusters":{"corr":{"top":[["20_62077615_62081912-3",0.1734159841669031,-4.383738587567935,553],["6_160390361_160392890-2",0.183932324884458,-2.910277826291384,306],["9_21992101_21995005-2",0.18870955645493132,-5.513404156194323,603],["14_70824255_70828580-1",0.20546746177042988,-4.844517093938099,439]],"bottom":[["10_103051645_103054162-3",-0.17775114612977175,-3.9485211863809484,467],["19_1228974_1233323-2",-0.30393174513371246,-4.805841049832342,195],["3_182814771_182819455-2",-0.17748909569546012,-4.342426377648725,522]]},"para":{"top":[["14_70824255_70828580-1",0.20240850923008216,-4.7150450704909606,439]],"bottom":[["8_27735077_27739289-2",-0.19557850552022452,-3.4901196146537914,334],["20_61448288_61450891-3",-0.21314749152236837,-8.738471543753937,780],["2_74779494_74782090-3",-0.21905957767124998,-9.804103386412853,835],["5_1481763_1486069-1",-0.25389515692785974,-3.7749471966532755,215],["19_1228974_1233323-2",-0.29606665924364517,-4.578169853863284,195],["2_74782090_74784685-1",-0.20586240405529535,-8.754643787987014,839],["19_4369729_4373952-2",-0.219346491395271,-3.2526882073328687,244]]}}}
