{"depmap_hotspot":{"corr":{"top":[["AFF2",0.07281325770943362,-2.6020729863956107,136.0,1586.0],["C21orf54",0.08169639391655048,-3.160903375949851,16.0,1706.0],["COPB1",0.07201564123867339,-2.554637270485388,108.0,1614.0],["DCAF8L1",0.07754281477324766,-2.892607807393063,66.0,1656.0],["ECE1",0.0767626003163895,-2.843585039536646,60.0,1662.0],["FPGT-TNNI3K",0.07467872409535047,-2.7147723563324617,121.0,1601.0],["GBP3",0.08696119795816154,-3.518777871973661,50.0,1672.0],["KHDRBS3",0.08002092044646415,-3.0511931596342174,49.0,1673.0],["KIAA1328",0.07992284445729647,-3.044833423649958,44.0,1678.0],["MLEC",0.07262851009649945,-2.5910457195900403,34.0,1688.0],["MYO1D",0.09169874167647638,-3.857947721953926,106.0,1616.0],["POM121L12",0.0877067182216587,-3.571071641247129,105.0,1617.0],["POTEC",0.08575352065686151,-3.4349196117362055,73.0,1649.0],["SIGLEC1",0.07476790716496966,-2.7202219614905077,153.0,1569.0],["SIL1",0.07860645688419582,-2.960137979655571,48.0,1674.0],["SPATS2L",0.07468583996880761,-2.7152069705886075,56.0,1666.0],["TMEM201",0.07990608898872537,-3.0437476039235722,63.0,1659.0],["UPK3BL",0.09257719660602877,-3.9226315946271217,49.0,1673.0],["WDR43",0.07790545695620968,-2.915541143227884,44.0,1678.0],["ZNF594",0.0904014266516133,-3.7634495481282895,70.0,1652.0],["ZNF792",0.06956734818042822,-2.411834003440302,64.0,1658.0]],"bottom":[["AGPAT2",-0.07018692698155204,-2.4475738769198148,25.0,1697.0],["ARC",-0.07551396480360152,-2.766031493885349,39.0,1683.0],["C2orf91",-0.07379602112137314,-2.6611380955400303,16.0,1706.0],["CARD14",-0.06867301614711126,-2.360720669094791,96.0,1626.0],["CPSF4L",-0.07277093894600394,-2.5995449226606064,8.0,1714.0],["CSN3",-0.066000050033834,-2.2112930742324552,24.0,1698.0],["DUSP28",-0.060650190561269315,-1.92715705847962,14.0,1708.0],["EREG",-0.058875217847705226,-1.8372570358209364,15.0,1707.0],["FAM182B",-0.06350726594635953,-2.0764292038162373,33.0,1689.0],["FGF11",-0.07330418005974482,-2.631492532510481,19.0,1703.0],["KRT84",-0.07358551123384202,-2.6484287228256522,62.0,1660.0],["LRRC18",-0.06151790730228817,-1.971895564222267,27.0,1695.0],["MB",-0.07036413378208173,-2.457845535621672,11.0,1711.0],["MBOAT4",-0.06773603738445177,-2.3077715532153333,16.0,1706.0],["MYL2",-0.06327132743670343,-2.0638882139001726,15.0,1707.0],["NCALD",-0.06114378525461725,-1.9525425353460162,19.0,1703.0],["NDUFA4L2",-0.06638346125994135,-2.232420264379119,8.0,1714.0],["NIP7",-0.07288646445151008,-2.6064492433994073,13.0,1709.0],["PELI1",-0.06159614680262568,-1.9759550499811678,39.0,1683.0],["PLCD4",-0.07882450764872058,-2.9740816453860544,41.0,1681.0],["RPL23",-0.07571703892675888,-2.7785690982876208,12.0,1710.0],["RPL31",-0.06392512535989874,-2.098734729758788,10.0,1712.0],["SLC4A1",-0.07120536504131199,-2.5069083650754984,105.0,1617.0],["SMDT1",-0.06619739148904613,-2.2221544124859443,12.0,1710.0],["SNRNP25",-0.07303799204865999,-2.6155195119427663,11.0,1711.0],["SSU72",-0.06735441863761166,-2.2863822586399283,20.0,1702.0],["SSX3",-0.06898412233013947,-2.3784375072010815,19.0,1703.0],["TMOD3",-0.08443642383192342,-3.344664125944934,31.0,1691.0],["TOMM20L",-0.07712292834854365,-2.8661714486709977,13.0,1709.0],["TOR1AIP1",-0.06816716172222359,-2.332058205166894,54.0,1668.0],["TRAPPC3",-0.08070370399967688,-3.095659080070713,15.0,1707.0]]},"para":{"top":[["C21orf62",0.049298900050997845,-1.6896370622658288,11.0,1711.0],["C22orf24",0.07440599156911712,-2.9945198804497717,17.0,1705.0],["CD82",0.08345162633467429,-3.571408696879565,32.0,1690.0],["CREBL2",0.05297150026154926,-1.8537578438205249,9.0,1713.0],["DEFB123",0.05949890940620942,-2.1679400504129687,13.0,1709.0],["EBLN2",0.08210139708883919,-3.481601572379789,21.0,1701.0],["NDUFA5",0.0639624634213125,-2.399361332559389,11.0,1711.0],["NPIPB7",0.05479031543799554,-1.9384461060430767,12.0,1710.0],["PFN1",0.07396420277819254,-2.9677791247751832,14.0,1708.0],["RP11-122A3.2",0.0911458258455866,-4.107040197994538,8.0,1714.0]],"bottom":[["NIP7",-0.06287301110782048,-2.3416443228914456,13.0,1709.0],["PPP1R14C",-0.06425890446895717,-2.415196259194834,10.0,1712.0],["SMDT1",-0.05732514869099009,-2.0601206618125434,12.0,1710.0],["SSX3",-0.0642770184214976,-2.4162792799271386,19.0,1703.0],["TRAPPC3",-0.06296600735256287,-2.346566372050108,15.0,1707.0]]}}}
{"depmap_damaging":{"corr":{"top":[["ANKRD26",0.08119609502147077,-3.1263864231530474,42.0,1679.0]],"bottom":[["ACAT2",-0.09597694495735064,-4.1761547207869345,8.0,1713.0],["CCDC148",-0.06250670738910201,-2.022557863800676,10.0,1711.0],["EXOSC9",-0.06687269238140069,-2.2584491215154294,8.0,1713.0],["GCNT4",-0.06683650302748845,-2.2564392953770094,8.0,1713.0],["GPRC6A",-0.08184504722870839,-3.169164483376181,11.0,1710.0],["KHSRP",-0.06207371336354631,-1.9998843021024044,12.0,1709.0],["KIF22",-0.11612688262391123,-5.8655614130473,8.0,1713.0],["KL",-0.07349463655630845,-2.6416680954264065,9.0,1712.0],["LDHA",-0.06029158206678449,-1.907926504126662,9.0,1712.0],["MAN1A2",-0.06812966763418592,-2.328824962517079,10.0,1711.0],["MAP4K1",-0.0839672555184909,-3.3111684908831474,16.0,1705.0],["MEX3A",-0.05435552022473615,-1.6173421981465883,9.0,1712.0],["NCAPG2",-0.07107817048791557,-2.498251399967138,9.0,1712.0],["PCDH10",-0.06714628805160597,-2.2736732334522767,19.0,1702.0],["PRDM10",-0.05649416268881154,-1.7192605710543476,10.0,1711.0],["PRKG1",-0.08384404343708472,-3.3028354322157902,12.0,1709.0],["SGSM2",-0.05463063556658506,-1.6302787599934443,12.0,1709.0],["SMARCAD1",-0.07074399448362792,-2.4787421291665703,12.0,1709.0],["SUPT6H",-0.06736746472637553,-2.286018739160705,15.0,1706.0],["TMEM234",-0.06583120616623504,-2.2009740067572134,9.0,1712.0],["ZNF532",-0.06923395352331885,-2.3915645643079104,8.0,1713.0]]},"para":{"top":[["ABCF2",0.07016254973923719,-2.7423460453716677,10.0,1711.0],["ACSM4",0.05845269216956048,-2.114719239337326,8.0,1713.0],["ALKBH3",0.053027828401507444,-1.8556149095697276,8.0,1713.0],["ATF4",0.061024360232125305,-2.244570073602232,11.0,1710.0],["BCKDK",0.0655024358934963,-2.4812731451136822,8.0,1713.0],["BTN3A3",0.06717889934004202,-2.5734505925583107,8.0,1713.0],["CDC42BPG",0.07547190985304207,-3.058097698410283,12.0,1709.0],["ELMO1",0.06773988551445803,-2.604844291469455,14.0,1707.0],["FAM214B",0.06650649831326623,-2.53637457778284,15.0,1706.0],["GAS2L3",0.06259924385112774,-2.326257259622026,10.0,1711.0],["HADHA",0.06961469126488862,-2.710857990698065,9.0,1712.0],["KIF24",0.07020836187776355,-2.7450788021390036,16.0,1705.0],["SIL1",0.08288607224690878,-3.5317772817153346,8.0,1713.0],["SLC6A14",0.06508976796819274,-2.4588796566672624,8.0,1713.0],["STPG2",0.05651320625449033,-2.01984877999531,10.0,1711.0],["TLR3",0.05713731315765538,-2.0500698814328726,8.0,1713.0],["XPC",0.06226079830224549,-2.308534158335737,9.0,1712.0]],"bottom":[["KIF22",-0.06726487182448025,-2.5782297875356175,8.0,1713.0],["KL",-0.06288510895067276,-2.341247899798395,9.0,1712.0],["METTL18",-0.0500886280077239,-1.7235210215556083,10.0,1711.0],["PCIF1",-0.05133417045807409,-1.7787715742728587,8.0,1713.0],["PRKG1",-0.07609035924936092,-3.0961482158473768,12.0,1709.0],["PRUNE2",-0.060048729623147355,-2.1948742465294693,17.0,1704.0],["SMARCAD1",-0.059912285268384755,-2.1879091793761694,12.0,1709.0],["ZNF343",-0.06787592515412975,-2.6125130620164385,19.0,1702.0]]}}}
{"ccle_rrbs_enhancer_clusters":{"corr":{"top":[],"bottom":[]},"para":{"top":[["15-48010796-48014524-0_enh",0.15137746447558784,-4.682387112792278,784]],"bottom":[]}}}
{"ccle_mirna":{"corr":{"top":[],"bottom":[["ebv-miR-BART12_miR00724.1",-0.12654346965441843,-4.040197142021499,951]]},"para":{"top":[["hsa-miR-519b-3p_miR00446.1",0.08689676698479015,-2.1346737386285057,951]],"bottom":[]}}}
{"prism_primary_logfold":{"corr":{"top":[["moprolol_BRD-A51747092-003-03-0::2.5::HTS",0.15803873559883222,-3.726301940327411,554],["roscovitine_BRD-K07691486-001-15-5::2.5::HTS",0.1447005542644099,-3.192194308606913,553],["AZD1446_BRD-A44188509-001-01-2::2.639346634::MTS004",0.1198325581188481,-2.272309030969308,539],["igmesine_BRD-A48376327-003-01-5::2.426818202::MTS004",0.1287762656595802,-2.5619113786327685,539],["dihydrotestosterone_BRD-K22525962-001-05-0::2.500010949::MTS004",0.13620700720573578,-2.816418691614314,539],["examorelin_BRD-K35304636-001-01-0::2.5::MTS004",0.12054738855624815,-2.2947894622580702,539],["alcaftadine_BRD-K55991142-001-01-6::2.5::MTS004",0.12868013933935418,-2.5587020115787618,539],["vasopressin_BRD-K73028949-001-02-8::2.5::MTS004",0.12803631657697148,-2.533328498944503,538]],"bottom":[["L-368899_BRD-A43930669-003-02-8::2.5::HTS",-0.1677824937833009,-4.1470331231732604,555],["clebopride_BRD-K17294426-050-12-3::2.5::HTS",-0.13825485714928182,-2.9794931490028524,559],["tangeritin_BRD-K25186396-001-09-6::2.5::HTS",-0.1501846622268619,-3.393557750284993,551],["efaproxiral_BRD-K37355418-236-01-6::2.5::HTS",-0.15726857284833162,-3.630851628452913,543],["efloxate_BRD-K55166090-001-09-0::2.5::HTS",-0.14096529396321406,-3.061370999133987,555]]},"para":{"top":[["roscovitine_BRD-K07691486-001-15-5::2.5::HTS",0.12600236922645122,-2.523530238249085,553],["daptomycin_BRD-K94358652-001-02-1::2.5::HTS",0.12463659484319095,-2.3694400313272963,524],["alcaftadine_BRD-K55991142-001-01-6::2.5::MTS004",0.12012289561178201,-2.281425851966416,539],["ferulic-acid_BRD-K66295376-001-13-1::2.5::MTS004",0.11714623974670492,-2.1888562439316672,539]],"bottom":[["efaproxiral_BRD-K37355418-236-01-6::2.5::HTS",-0.17426205664894026,-4.351373078917402,543],["metaraminol_BRD-K96253961-046-03-1::2.5::HTS",-0.16280843007757856,-3.9322938314605063,555]]}}}
{"prism_secondary_logfold":{"corr":{"top":[["noretynodrel_BRD-A00758722-001-04-9::0.0024414::HTS002",0.15321173407584066,-2.735361016355407,411],["BNC105_BRD-K20468903-001-01-6::0.002441409::MTS006",0.1968400251184777,-4.745877958115658,468],["tetramethylthiuram-monosulfide_BRD-K36889451-001-01-1::0.00976562::HTS002",0.17419154874809323,-3.6749188291455126,448],["SAR131675_BRD-K38904395-001-02-3::0.00061034::HTS002",0.15745115573545693,-3.08341511969231,448]],"bottom":[["piroxicam_BRD-A57382968-001-29-0::10::HTS002",-0.19550351501943425,-4.652440367648933,464],["phlorizin_BRD-K24601397-001-01-1::10::HTS002",-0.18319057624943125,-4.1886880618123925,470],["serdemetan_BRD-K65924316-001-03-1::0.00976562::HTS002",-0.2324481541378412,-3.6412141258796655,247]]},"para":{"top":[["oxazepam_BRD-A50049929-001-01-9::0.00061034::HTS002",0.1378304896310449,-2.3226035496435746,418],["BNC105_BRD-K20468903-001-01-6::0.002441409::MTS006",0.16319393663169557,-3.4056646216813946,468],["niclosamide_BRD-K35960502-001-20-0::0.0390625::HTS002",0.13880736164115418,-2.6005870080441458,472],["bindarit_BRD-K36467523-001-02-8::0.00061034::HTS002",0.1369543056193981,-2.5199462079437973,467],["SAR131675_BRD-K38904395-001-02-3::0.00061034::HTS002",0.1649411322181074,-3.341159590731537,448],["RU-58841_BRD-K62762455-001-01-3::0.15625::HTS002",0.1545465572889727,-2.23452498553251,317]],"bottom":[]}}}
{"ccle_proteomics":{"corr":{"top":[],"bottom":[["HLA-DRB1_P04229",-0.23960595278758157,-4.724061336347148,312]]},"para":{"top":[],"bottom":[["FUT4_P22083",-0.27831891411702264,-2.7573301550644347,124],["JAK2_O60674",-0.3445386557775707,-3.5835755114744603,108],["PRRG1_O14668",-0.28687540037922843,-3.8269995020352634,170]]}}}
{"depmap_copy_number":{"corr":{"top":[["LGALS9C_654346",0.9082900892302586,-323.0051853474518,1745],["FAM106A_80039",0.8700398587203803,-323.0051853474518,1745],["KRT16P1_729252",0.9705883995823505,-323.0051853474518,1745],["CCDC144B_284047",0.8670550071649454,-323.0051853474518,1745],["USP32P2_220594",0.8660703017469766,-323.0051853474518,1745]],"bottom":[]},"para":{"top":[["LGALS9C_654346",0.9303829137687839,-323.0051853474518,1745],["FAM106A_80039",0.9272066321742471,-323.0051853474518,1745],["KRT16P1_729252",0.9676923985914342,-323.0051853474518,1745],["CCDC144B_284047",0.9267405689102115,-323.0051853474518,1745],["USP32P2_220594",0.9222700365412918,-323.0051853474518,1745]],"bottom":[]}}}
{"depmap_gene_tpm":{"corr":{"top":[],"bottom":[["MESP1_55897",-0.1589990832144514,-8.045348810641192,1293]]},"para":{"top":[],"bottom":[]}}}
{"avana":{"corr":{"top":[["ZNF286B_729288",0.1645916924111723,-5.349546424812809,769]],"bottom":[["SLC6A5_9152",-0.130213709513469,-3.5315819094866834,769],["FEZF2_55079",-0.15880704181853258,-5.015329065972832,769],["STAT1_6772",-0.1372528627720133,-3.8712082486002077,769]]},"para":{"top":[],"bottom":[["FEZF2_55079",-0.1473858166454238,-4.389358571952901,769]]}}}
{"drive":{"corr":{"top":[["HTR6_3362",0.1729644169476784,-3.128165060052675,377],["SAMD7_344658",0.2042916577844348,-4.219703195335999,380],["TOP3A_7156",0.17763810205095149,-3.3804307622540506,391],["OPN5_221391",0.1738844607144692,-3.15696457675893,377]],"bottom":[["RIOK1_83732",-0.22151442301304836,-4.847806313021807,377],["FTSJ3_117246",-0.2256110372638486,-5.047702643541788,380],["ZNF350_59348",-0.1731153109512674,-3.1542135330461565,380],["ATRNL1_26033",-0.19063805756435975,-3.7322270897138137,380],["TBPL1_9519",-0.19802463290153446,-3.9918632974664674,380]]},"para":{"top":[["PIK3R3_8503",0.1876417573204556,-3.604741054741214,377]],"bottom":[["RIOK1_83732",-0.20616817575378318,-4.2594236563322765,377],["FTSJ3_117246",-0.20135323640877828,-4.112007227160332,380],["WDR74_54663",-0.19733590255294386,-3.967248795403055,380]]}}}
{"achilles":{"corr":{"top":[["TSNARE1_203062",0.18359837664853,-2.690898439931231,280],["SERTM1_400120",0.22294808338502692,-3.7721987983461305,280],["TVP23C_201158",0.24130472479640935,-4.346802117319462,280]],"bottom":[["PHYHIPL_84457",-0.1954972453299206,-2.99679219075551,280]]},"para":{"top":[["SLBP_7884",0.28027775862139276,-5.723458863148613,280],["FAM133B_257415",0.2221684368820057,-3.748804544111389,280],["TVP23C_201158",0.20363491549109847,-3.216400902839884,280],["TMEM42_131616",0.24951606803055487,-4.618850555260034,280]],"bottom":[["GCN1_10985",-0.19721918597986202,-3.0425511251586985,280],["DDX4_54514",-0.18165331374043764,-4.311120818957687,494],["PHYHIPL_84457",-0.18708488785451613,-2.7786742379257365,280],["NTSR2_23620",-0.1807880814775596,-4.2746077243295355,494]]}}}
{"ccle_rrbs_tss1kb":{"corr":{"top":[["PDE8B_5_76475081_76476081",0.17671538681181734,-6.538018703108234,832],["DDN_12_49393088_49394088",0.1660158489770638,-5.737122897831534,817],["CCDC170_6_151814174_151815174",0.1661778737491234,-5.816902405183844,828]],"bottom":[["ANKRD36_2_97777889_97778889",-0.18259694370570265,-2.874117953513128,306],["FRMD8_11_65153040_65154040",-0.15179519376362152,-3.597492959306864,577],["FAM72C_1_143913160_143914160",-0.16276785323847084,-5.626072712481069,832]]},"para":{"top":[["NCOR1_17_16118874_16119874",0.21569884082404536,-9.467317755968645,830],["ZNF702P_19_53496784_53497784",0.22140537499213103,-9.379290441452788,779],["MED31_17_6554954_6555954",0.23264894377421075,-10.949879639410126,831],["LRRC43_12_122666666_122667666",0.23208351004003203,-10.66558979213428,812],["WNK2_9_95946211_95947211",0.2095994197723337,-8.946937350929568,828],["FFAR4_10_95325421_95326421",0.21808600884634857,-9.688917376859393,832]],"bottom":[["TIMM17A_1_201923618_201924618",-0.11078880607583891,-2.8309688932416965,821],["MPG_16_126017_127017",-0.14218299525103048,-2.582374518971346,446],["LOC101928510_11_36099451_36100451",-0.13145410558638304,-3.682993409667632,792]]}}}
{"ccle_gene_tpm":{"corr":{"top":[],"bottom":[["MESP1_ENSG00000166823.5",-0.17116726850431596,-7.361960190035444,1011]]},"para":{"top":[],"bottom":[["MPV17L_ENSG00000156968.8",-0.20767233496334145,-10.585738191249455,1011],["SLC45A4_ENSG00000022567.5",-0.18171202338471001,-8.227983753031443,1011],["FUT4_ENSG00000196371.2",-0.1842602922380579,-8.445129382258619,1011]]}}}
{"ccle_rrbs_tss_clusters":{"corr":{"top":[["ALG1L9P_1",0.2068221674739808,-4.413756959754534,390],["STUM_3",0.2159569275307116,-3.6206150612293606,285],["ZNF320_1",0.21534910706870836,-5.877761765052221,495],["DDX55_1",0.19531395915747243,-3.877545708526248,378]],"bottom":[["LINC02148_2",-0.14301966236384295,-3.809956308056989,695],["LINC01924_2",-0.14633181925716038,-4.264416731491202,755],["FAM72C_1",-0.16345726203064878,-5.730630986575768,842],["LINC01234_1",-0.14469750164821463,-2.599644835876478,434]]},"para":{"top":[["TRIL_1",0.23109019470889894,-10.809560816722753,831],["RDH8_3",0.24924733091127513,-4.726841543854057,288],["ZNF320_1",0.22484370797178807,-6.365393447759766,495],["HNRNPH1_2",0.24210210816342265,-7.280928481458447,493]],"bottom":[["TSNARE1_5",-0.1420922669320012,-4.413541530367909,833],["OR1L6",-0.13182478187999816,-3.765908940981086,808]]}}}
{"ccle_rrbs_cgi_clusters":{"corr":{"top":[["19_53398460_53403205-1",0.21534910706870836,-5.877761765052221,495],["4_132679681_132684004-1",0.23425225700609612,-3.259312701729955,214],["11_71522539_71526853-1",0.2068221674739808,-4.413756959754534,390],["7_56434287_56438559-3",0.2110141168285112,-5.166995960221435,447]],"bottom":[["18_15328548_15333174-2",-0.19266318048152983,-5.126130456655274,533],["1_143910736_143914446-1",-0.16345726203064878,-5.730630986575768,842]]},"para":{"top":[["15_62454015_62456831-2",0.24731946749346964,-3.966388585028174,240],["5_179057337_179061700-3",0.24210210816342265,-7.280928481458447,493],["2_238393061_238395651-3",0.23524959185821234,-9.328291923089512,684],["7_28993305_28996923-3",0.23645315401399344,-11.373062175339394,837],["11_3599851_3604616-2",0.24716789154078758,-11.720088643085182,789],["7_28993305_28996923-2",0.2416091714975544,-11.749586022889964,829]],"bottom":[]}}}
