{"depmap_hotspot":{"corr":{"top":[["ARL4D",0.0992804718554322,-4.434803037637262,16.0,1706.0],["ARL5A",0.09397428931518521,-4.026664366406288,11.0,1711.0],["C18orf56",0.12317708198444481,-6.531766465737357,8.0,1714.0],["CCDC155",0.0822654114526149,-3.198620669487061,52.0,1670.0],["CDKN2D",0.07733889841976065,-2.879753396120366,18.0,1704.0],["CNEP1R1",0.07725576962480664,-2.8745216511934744,11.0,1711.0],["FAM89B",0.0788787798074897,-2.9775574579006947,12.0,1710.0],["GPM6B",0.0778612837654929,-2.912742634844654,14.0,1708.0],["GRIK5",0.08094033727562533,-3.1111476132624225,87.0,1635.0],["GTPBP6",0.1262576624068553,-6.833339079555107,33.0,1689.0],["HDAC3",0.09041701773615377,-3.7645779539610573,31.0,1691.0],["HMX2",0.11455330172267474,-5.725729578059971,37.0,1685.0],["IL1RN",0.10431593825845337,-4.841282616807725,18.0,1704.0],["KIAA0141",0.08902660175159409,-3.6646410174612596,45.0,1677.0],["KIAA0922",0.0871578798747967,-3.532534861946152,110.0,1612.0],["KRTAP5-11",0.1334199813633663,-7.562454375591111,11.0,1711.0],["MAS1",0.0793245801298325,-3.0061879810128165,35.0,1687.0],["MN1",0.08093738525676057,-3.1109541454150933,139.0,1583.0],["MS4A4E",0.0825625625883964,-3.218409730839422,21.0,1701.0],["OR10A6",0.08309553542349865,-3.2540625395587854,36.0,1686.0],["OR8B8",0.09195846731723767,-3.8770137133220564,42.0,1680.0],["S100A9",0.09057210849599108,-3.775812283262532,16.0,1706.0],["SEMG1",0.10753427999884727,-5.11091144222949,63.0,1659.0],["SLAMF9",0.08876536066304284,-3.646020808085818,34.0,1688.0],["SLC41A3",0.08233054776588501,-3.2029530558120296,45.0,1677.0],["THAP10",0.10866154366565112,-5.2071729424152675,19.0,1703.0],["TNFAIP8",0.09738715902782673,-4.286803457227993,33.0,1689.0],["TPRX1",0.08148010924683229,-3.1466279103198542,47.0,1675.0],["TSLP",0.07833004486786024,-2.9425110822054426,13.0,1709.0],["TTYH2",0.07535725587688814,-2.7563764537769115,55.0,1667.0],["TULP3",0.07511339276064599,-2.7413864065418205,41.0,1681.0],["ZC2HC1C",0.08705037040088964,-3.525011603411203,40.0,1682.0],["ZNF205",0.08081512038905742,-3.1029467011513256,73.0,1649.0],["ZNF639",0.08795292460029633,-3.5884299387094303,34.0,1688.0]],"bottom":[["CNOT2",-0.06412990800064912,-2.109710382971505,35.0,1687.0],["HSPA1B",-0.07932604509688265,-3.0062822993496727,30.0,1692.0],["PIGB",-0.06337671042627732,-2.069484931873858,46.0,1676.0],["ST8SIA3",-0.06231327216286799,-2.013360477230804,60.0,1662.0],["SULT1A1",-0.0584679315940514,-1.81693392108376,38.0,1684.0],["ZNF391",-0.06736525117503923,-2.2869880050793387,35.0,1687.0]]},"para":{"top":[["AC021218.2",0.07637774612200565,-3.11538483314333,19.0,1703.0],["CHMP2B",0.07780344350551,-3.2044793693234457,22.0,1700.0],["DPM2",0.050606188348421545,-1.7470044929048236,9.0,1713.0],["HBD",0.07680705671470771,-3.1420942945458386,24.0,1698.0],["KRTAP5-11",0.04822125979920651,-1.643172506648475,11.0,1711.0],["TSLP",0.07022199633729057,-2.7470041423178695,13.0,1709.0]],"bottom":[["HSPA1B",-0.09297287506557074,-4.2407613350905855,30.0,1692.0],["MRPS21",-0.054098386433012714,-1.9059120397080869,8.0,1714.0],["STARD4",-0.07980025980895891,-3.331576205042528,17.0,1705.0]]}}}
{"depmap_damaging":{"corr":{"top":[["ADAMTS19",0.06742785683052765,-2.289395611174937,14.0,1707.0],["ANKS3",0.11025725420400045,-5.342283532945854,10.0,1711.0],["ARSK",0.07799672395850255,-2.9198932699740348,10.0,1711.0],["ATP10D",0.0737860102137127,-2.6592396782224768,17.0,1704.0],["CACNA1D",0.062116609984138114,-2.002124781963326,16.0,1705.0],["GOLGA3",0.07889521290608596,-2.977144902082544,19.0,1702.0],["GRAMD1B",0.08888007350691389,-3.6523564334797674,12.0,1709.0],["KIAA1211L",0.08504351154296509,-3.3844224364269127,12.0,1709.0],["LILRB5",0.12837098773244016,-7.040670908332841,10.0,1711.0],["NOC3L",0.1045891124563559,-4.861366322578461,8.0,1713.0],["PIEZO2",0.09846881317201571,-4.368803036910399,43.0,1678.0],["PPHLN1",0.0814158433580394,-3.140838131571689,8.0,1713.0],["RPL5",0.07991638096808855,-3.042913370186569,14.0,1707.0],["SLAMF9",0.06595007025923433,-2.2074953648223268,10.0,1711.0]],"bottom":[["ANXA10",-0.07204012177890373,-2.5548494100215695,13.0,1708.0],["CACNA1A",-0.06840122617996691,-2.3441742404341737,25.0,1696.0],["OR51M1",-0.08128592786389577,-3.1322900812369503,8.0,1713.0]]},"para":{"top":[["ERGIC2",0.09472542373568646,-4.368757144756746,14.0,1707.0],["ESRRG",0.05612865471385099,-2.0013315345369285,10.0,1711.0]],"bottom":[["ANXA10",-0.07692266559135669,-3.147794790968034,13.0,1708.0],["ESR2",-0.0575583562725279,-2.0706601728541982,9.0,1712.0],["OR51M1",-0.08654873715209105,-3.780073890882372,8.0,1713.0],["PSMD2",-0.07363340945447103,-2.946573003749259,13.0,1708.0],["SLC4A9",-0.05259705053103294,-1.8359293162185837,10.0,1711.0]]}}}
{"ccle_metabolomics":{"corr":{"top":[],"bottom":[]},"para":{"top":[],"bottom":[["C36:2 PC",-0.11837188464070905,-3.50731840027385,924]]}}}
{"ccle_rrbs_enhancer_clusters":{"corr":{"top":[],"bottom":[]},"para":{"top":[["3-71275312-71278134-2_enh",0.16671739685924414,-5.5454802701274755,780]],"bottom":[]}}}
{"ccle_mirna":{"corr":{"top":[["hsa-miR-122_miR00039.1",0.126257721167589,-4.02418764261984,951]],"bottom":[]},"para":{"top":[],"bottom":[]}}}
{"prism_primary_logfold":{"corr":{"top":[["betamipron_BRD-K82142815-001-19-1::2.5::HTS",0.15376917824358063,-3.557739619256424,555]],"bottom":[["RS-67506_BRD-K50018155-003-02-1::2.5::HTS",-0.14518576468346253,-3.225568018176684,556]]},"para":{"top":[["JNJ-26481585_BRD-K83837640-001-04-8::2.5::HTS",0.1439725794741066,-3.081335744496605,536]],"bottom":[["tacalcitol_BRD-K73237276-001-01-0::2.5::HTS",-0.17107772272456667,-4.306307667027586,557]]}}}
{"prism_secondary_logfold":{"corr":{"top":[["PF-05212384_BRD-K07955840-001-02-3::0.00976562::HTS002",0.17809605110537427,-4.02139503565435,475],["selinexor_BRD-K21361524-001-01-1::0.00061035::MTS006",0.15860129937735476,-3.2471973155024525,469],["parachlorophenol_BRD-K40992116-001-09-7::0.0390625::HTS002",0.18203387605787297,-3.7383413630936033,418],["SGI-1776_BRD-K80700417-001-04-2::0.15625::HTS002",0.1722374893634863,-3.5960110321228487,447],["plinabulin_BRD-K99498722-001-02-6::0.0024414::HTS002",0.15584930765623045,-3.1563208187179925,470]],"bottom":[["MG-132_BRD-K60230970-001-17-5::9.6082::HTS002",-0.15727268107172115,-3.1594121567770435,462]]},"para":{"top":[["zolantidine_BRD-K08996725-332-01-7::0.0024414::HTS002",0.196395871164325,-2.761515293198774,252],["AT7867_BRD-K12040459-001-06-0::0.625::HTS002",0.20829097790337406,-2.931143726925017,240]],"bottom":[]}}}
{"ccle_proteomics":{"corr":{"top":[["USP43_Q70EL4",0.320096475091577,-3.3369383612979857,116],["CRB3_Q9BUF7",0.3057505186622207,-3.096204013157225,117]],"bottom":[["KLC1_Q07866-3",-0.25029014819447565,-3.529886834918986,205]]},"para":{"top":[["ATP2A2_P16615",0.2899360818013959,-7.950762903451991,374],["RBM19_Q9Y4C8",0.2810765388599429,-7.493129904775336,374],["USP12_O75317",0.3052802117973483,-3.679175214639832,143]],"bottom":[["PASK_Q96RG2-2",-0.2340480990872581,-4.7456064376673694,329],["IMPDH1_P20839-6",-0.22363338752318276,-4.897372286911168,374],["ARHGAP24_Q8N264",-0.2830155964821425,-3.211219069323374,143]]}}}
{"depmap_copy_number":{"corr":{"top":[["DDX54_79039",0.9804474912352639,-323.0051853474518,1745],["LINC01234_100506465",0.949448663655009,-323.0051853474518,1745],["MIR6762_102465457",0.9744550887234383,-323.0051853474518,1745],["RBM19_9904",0.949448663655009,-323.0051853474518,1745],["SLC8B1_80024",0.9744550887234383,-323.0051853474518,1745],["PLBD2_196463",0.9759679503073796,-323.0051853474518,1745],["RITA1_84934",0.9418948170062531,-323.0051853474518,1745],["CFAP73_387885",0.9804474912352639,-323.0051853474518,1745],["IQCD_115811",0.9418948170062531,-323.0051853474518,1745],["DTX1_1840",0.9061108648456211,-323.0051853474518,1745],["TPCN1_53373",0.9439556707178328,-323.0051853474518,1745],["SDSL_113675",0.9768005228625799,-323.0051853474518,1745],["RASAL1_8437",0.9362091685312102,-323.0051853474518,1745],["SDS_10993",0.9759654534447786,-323.0051853474518,1745],["MIR7106_102466222",0.9418948170062531,-323.0051853474518,1745]],"bottom":[["HLA-A_3105",-0.12383817217456863,-6.675764701634813,1745]]},"para":{"top":[["DDX54_79039",0.9910930154313333,-323.0051853474518,1745],["LINC01234_100506465",0.9825258339289484,-323.0051853474518,1745],["MIR6762_102465457",0.9927821409866825,-323.0051853474518,1745],["SLC8B1_80024",0.9927821409866825,-323.0051853474518,1745],["PLBD2_196463",0.9964184569026439,-323.0051853474518,1745],["RITA1_84934",0.9908213786774986,-323.0051853474518,1745],["CFAP73_387885",0.9910930154313333,-323.0051853474518,1745],["IQCD_115811",0.9908213786774986,-323.0051853474518,1745],["DTX1_1840",0.9893116211725674,-323.0051853474518,1745],["TPCN1_53373",0.9914812871012397,-323.0051853474518,1745],["SDSL_113675",0.9977946363825295,-323.0051853474518,1745],["RASAL1_8437",0.989731676774618,-323.0051853474518,1745],["SDS_10993",0.9964185478018853,-323.0051853474518,1745],["MIR7106_102466222",0.9908213786774986,-323.0051853474518,1745]],"bottom":[]}}}
{"depmap_gene_tpm":{"corr":{"top":[],"bottom":[]},"para":{"top":[],"bottom":[]}}}
{"avana":{"corr":{"top":[["DDX54_79039",0.20854677376070951,-8.158202650606226,757],["NEDD1_121441",0.179582254518991,-6.270195382235291,769],["RPL6_6128",0.191027258630334,-7.026886179245173,769]],"bottom":[["LTK_4058",-0.13169791788624324,-3.6018164170828486,769]]},"para":{"top":[],"bottom":[["INA_9118",-0.12493813905015379,-3.287851674186796,769],["TMEM211_255349",-0.12630219950693228,-3.3499881559787017,769]]}}}
{"drive":{"corr":{"top":[["GABRR3_200959",0.2030031728657318,-4.143312744093209,377]],"bottom":[["CYP4A22_284541",-0.18382887361633765,-3.4774008713966413,377],["HIST1H2BI&HIST2H2BE_8346&8349",-0.21006558827056404,-4.43581993924839,380]]},"para":{"top":[["CBR1_873",0.1852039645648628,-3.523037323868914,377]],"bottom":[["PHACTR4_65979",-0.1708311928675037,-3.082741248744297,380],["FBXW7_55294",-0.17082698957388825,-3.0826105383331535,380]]}}}
{"achilles":{"corr":{"top":[["DNAH1_25981",0.21756056036812416,-3.612197620865345,280],["SNTG1_54212",0.26207166650516855,-5.05320127656133,280],["RPL6_6128",0.4663560694840637,-27.317298739038833,494]],"bottom":[["SOCS7_30837",-0.20163845621453158,-3.1617325726974075,280],["RGPD4_285190",-0.20766319627784957,-5.488826546876216,494],["LOC100506248_100506248",-0.19468276536203832,-2.975280360767001,280],["FAM81A_145773",-0.2212020602076684,-3.7199201557162085,280],["SLC35G3_146861",-0.23445591784856856,-4.127043197742039,280]]},"para":{"top":[],"bottom":[["RGPD4_285190",-0.21689072499045392,-5.944591511180285,494],["MVB12B_89853",-0.2013265386827932,-3.153238023299877,280]]}}}
{"ccle_rrbs_tss1kb":{"corr":{"top":[["ZBED1_23_2419008_2420008",0.2805848536349226,-5.7722409496005325,282]],"bottom":[["CALHM1_10_105218648_105219648",-0.16311646387719766,-4.778930478224072,690],["ABCB1_7_87230204_87231204",-0.20585485477666646,-4.049057670848761,357]]},"para":{"top":[["ZBED1_23_2419008_2420008",0.2209789253260237,-3.7364009429493383,282],["DHRSX_23_2419015_2420015",0.2319732339401953,-4.074394476673333,282]],"bottom":[["PRR36_19_7939326_7940326",-0.1813937906275457,-6.755420957543749,818],["ABCB1_7_87230204_87231204",-0.2243624196977441,-4.7264769440049985,357],["TMEM139_7_142981042_142982042",-0.19744992246197446,-7.213932301416443,740]]}}}
{"ccle_gene_tpm":{"corr":{"top":[],"bottom":[["SLC25A12_ENSG00000115840.9",-0.16715585435468844,-7.04616098167733,1011]]},"para":{"top":[],"bottom":[]}}}
{"ccle_rrbs_tss_clusters":{"corr":{"top":[],"bottom":[["RETREG1_1",-0.19175778748652533,-7.127190619938832,775],["TMEM139_2",-0.1906816821698735,-5.627240612802294,604]]},"para":{"top":[["LINC01585_3",0.19420136359599077,-7.606644373386382,811]],"bottom":[["TMEM139_2",-0.20652290302557616,-6.515810352793021,604],["C1orf210_2",-0.2145913257602753,-8.840090625035824,779]]}}}
{"ccle_rrbs_cgi_clusters":{"corr":{"top":[],"bottom":[["5_16614509_16619428-1",-0.19175778748652533,-7.127190619938832,775],["17_16518938_16523317-2",-0.21024358502411356,-3.15877318644155,257]]},"para":{"top":[],"bottom":[]}}}
