{"depmap_hotspot":{"corr":{"top":[["ADAM15",0.07777982561340908,-2.907585657252914,67.0,1655.0],["ASPHD2",0.08722957337131222,-3.53755645176452,42.0,1680.0],["AZIN1",0.1027945948291294,-4.716499647762626,34.0,1688.0],["BLK",0.08007557660120491,-3.0547403239950786,65.0,1657.0],["BRD9",0.08573447339899158,-3.4336054567558056,61.0,1661.0],["C2orf71",0.08830451916602323,-3.6132945685277678,126.0,1596.0],["CLEC2L",0.08938976898996122,-3.69060839299253,9.0,1713.0],["COL10A1",0.09749804396990262,-4.295398668507025,65.0,1657.0],["COX4I1",0.08011104399266641,-3.0570432884894188,23.0,1699.0],["COX8C",0.08267166986853604,-3.2256917573473967,14.0,1708.0],["DKFZP667F0711",0.09892953560632585,-4.407171458041171,11.0,1711.0],["FGD4",0.08006176248922503,-3.0538435913158395,38.0,1684.0],["FTCDNL1",0.09476400080059591,-4.086100107587849,9.0,1713.0],["GINS3",0.0860104246182956,-3.4526701579927157,16.0,1706.0],["GNB1L",0.0776241472508183,-2.8977430834659414,33.0,1689.0],["GTPBP8",0.0794346087224846,-3.0132761735458398,22.0,1700.0],["HSPB9",0.09360151172908442,-3.9987665345945973,13.0,1709.0],["IGFALS",0.09433739458736987,-4.053935981242952,52.0,1670.0],["IL2RA",0.0958314885374795,-4.167167330102219,25.0,1697.0],["ITGAL",0.08670400680383819,-3.500830764443834,108.0,1614.0],["KRTAP11-1",0.13074291959347062,-7.285342649933235,29.0,1693.0],["KRTAP4-8",0.08684016992209886,-3.510326430376845,36.0,1686.0],["LELP1",0.09543090620662693,-4.1366484775175545,12.0,1710.0],["LGALS16",0.09649242406103861,-4.217778563569238,19.0,1703.0],["LILRA3",0.07989680594154137,-3.043146112726386,34.0,1688.0],["MDM4",0.11068407922146774,-5.382259354125867,48.0,1674.0],["MYL1",0.07808784459188801,-2.9271106992358624,30.0,1692.0],["NEDD8",0.08047410278294533,-3.0806691674609237,12.0,1710.0],["NPY",0.117051256250581,-5.953437498788965,9.0,1713.0],["OLR1",0.07904443042806529,-2.988179417165274,26.0,1696.0],["OR13C9",0.08511299875657555,-3.3908708393777696,31.0,1691.0],["PIGS",0.07931803286917873,-3.00576647032411,49.0,1673.0],["PMVK",0.09035843989267733,-3.760339293905282,15.0,1707.0],["RANBP10",0.08859773292292661,-3.6340990554260255,44.0,1678.0],["RHOXF1",0.08515908054920689,-3.394030005696489,16.0,1706.0],["RHPN1",0.07926897487610356,-3.0026091062757034,75.0,1647.0],["RIN2",0.10609983639113953,-4.98978542196862,104.0,1618.0],["RNF145",0.07926005671492141,-3.002035319725087,38.0,1684.0],["RP11-849H4.2",0.08569659235580791,-3.43099265382423,14.0,1708.0],["RP13-996F3.5",0.08831960206505059,-3.6143632294440717,14.0,1708.0],["RPL31",0.08105277883396281,-3.1185213983673683,10.0,1712.0],["SH2D1A",0.08722251699468853,-3.537062040649035,11.0,1711.0],["SRGAP1",0.0813180675236225,-3.135954637311434,85.0,1637.0],["TM4SF20",0.08375863127942491,-3.298705036146653,20.0,1702.0],["TMEM72",0.10333912154881844,-4.760965731849511,15.0,1707.0],["TMEM88B",0.0840772091084975,-3.3202656337225798,13.0,1709.0],["TRPC6",0.08967469886731051,-3.711048634188963,94.0,1628.0],["TSSK3",0.10168938741074861,-4.626922357071204,32.0,1690.0],["TUFT1",0.09951233493882579,-4.453108915539164,24.0,1698.0],["ZNF25",0.07775286573214958,-2.905879914846087,49.0,1673.0]],"bottom":[["ALOX5AP",-0.06056734667128097,-1.9229128782489922,19.0,1703.0],["CLDN25",-0.06577343094438183,-2.19885384812422,22.0,1700.0],["CPT1C",-0.07723020156296988,-2.8729135045614242,83.0,1639.0],["CSNK1A1L",-0.06826465996611851,-2.3375686500110096,55.0,1667.0],["DRP2",-0.058267237463677624,-1.8069613616132478,66.0,1656.0],["GPR171",-0.07298420153616272,-2.612297815092302,31.0,1691.0],["JUP",-0.07436643477376055,-2.6957341072921275,77.0,1645.0],["KRT35",-0.059224903385951426,-1.8547967911169576,46.0,1676.0],["KRTAP19-7",-0.06435688713430324,-2.1219097335140105,8.0,1714.0],["LIN7A",-0.0586879784358191,-1.8278998700208426,43.0,1679.0],["MAGEH1",-0.06879560506088281,-2.367693743195477,16.0,1706.0],["MRPL55",-0.060694848715273496,-1.9294469054875572,14.0,1708.0],["PTCD3",-0.06507886073100964,-2.1609515129472228,57.0,1665.0],["RPA3",-0.07600719999520732,-2.7965342085305394,21.0,1701.0],["SIL1",-0.06183177429198713,-1.9882062186865794,48.0,1674.0],["SRD5A3",-0.07410652705335,-2.679941926586367,18.0,1704.0],["STAC",-0.06959075383491692,-2.413179235726288,47.0,1675.0],["TMEM55B",-0.06981249441236945,-2.425942797610847,20.0,1702.0],["TRIM49C",-0.06686837971314194,-2.2592877898409345,25.0,1697.0],["TSPAN4",-0.06866836811236035,-2.3604564880275345,29.0,1693.0],["ZCWPW2",-0.0645452635276382,-2.1320615090060833,26.0,1696.0]]},"para":{"top":[["ARHGAP40",0.09165768241275732,-4.144506552792775,36.0,1686.0],["BOLA1",0.07270643755895174,-2.8925729209024844,22.0,1700.0],["CCDC103",0.06614679396437963,-2.5176754329855897,17.0,1705.0],["CFC1",0.06408027224932597,-2.405671233318491,12.0,1710.0],["COX4I1",0.07095622025666563,-2.7896476570563125,23.0,1699.0],["COX5B",0.07606635867597508,-3.096031686037532,12.0,1710.0],["COX8C",0.08704536215506781,-3.8163711944203325,14.0,1708.0],["HIST1H2AK",0.062430615561057466,-2.3184703524624513,17.0,1705.0],["HIST1H2BH",0.07596009983883008,-3.0895990736253536,24.0,1698.0],["KRBOX1",0.06192175537825785,-2.2918857044410528,13.0,1709.0],["KRTAP11-1",0.08408912943646984,-3.614211191773417,29.0,1693.0],["MZT1",0.06854646315170644,-2.6512035477188856,8.0,1714.0],["NEDD8",0.07647361878888992,-3.1212411718226547,12.0,1710.0],["NPY",0.05732188322110382,-2.0599083999199386,9.0,1713.0],["RPLP1",0.09467549467628779,-4.367158343636861,20.0,1702.0],["SLPI",0.06477340579436297,-2.4429191199923674,14.0,1708.0],["TNNI1",0.06899764255574678,-2.6769590273788553,20.0,1702.0]],"bottom":[["C19orf10",-0.0801205802807651,-3.3522073606236855,15.0,1707.0],["CD160",-0.07069390873916591,-2.7742008430399503,8.0,1714.0],["CSNK2A2",-0.07903670009816326,-3.2827163117592586,29.0,1693.0],["GPR171",-0.08499503223410165,-3.6755572596660793,31.0,1691.0],["KRTAP19-7",-0.0661756832231512,-2.5191139606884985,8.0,1714.0],["MAGEH1",-0.059213035109287514,-2.153612263569036,16.0,1706.0],["RP11-295K3.1",-0.07102652152799362,-2.793711837537284,19.0,1703.0],["SPIC",-0.06625637479009233,-2.5237643216204595,28.0,1694.0],["SRD5A3",-0.07231389231076996,-2.8692698904814646,18.0,1704.0],["TMED2",-0.05678975197910363,-2.0341215968470006,18.0,1704.0],["TSPAN4",-0.07958597588426847,-3.317886375271451,29.0,1693.0]]}}}
{"depmap_damaging":{"corr":{"top":[["ADAM15",0.08386320033991791,-3.3041303313867525,15.0,1706.0],["ALDH1A2",0.0875527561623788,-3.5584561964898724,13.0,1708.0],["ARHGAP5",0.09670978528084731,-4.232338439816243,28.0,1693.0],["BBX",0.07779785346598422,-2.9072990676440087,16.0,1705.0],["C1orf87",0.0674905422488725,-2.292903412291047,10.0,1711.0],["CCSER2",0.08284522947378081,-3.235686843029026,9.0,1712.0],["DYRK3",0.07047155591035623,-2.46289524578561,11.0,1710.0],["FAM105A",0.12278447531648379,-6.490433142804386,9.0,1712.0],["FCRL5",0.11478039343432006,-5.743240090839333,18.0,1703.0],["GHRHR",0.09981150541223774,-4.474498448471091,9.0,1712.0],["KIAA1731",0.0660361651060852,-2.2122250203021703,40.0,1681.0],["LIPT1",0.1167051020013178,-5.918507574714202,11.0,1710.0],["MAN1A2",0.11841657181209483,-6.076696885646001,10.0,1711.0],["MFSD1",0.07524069893252443,-2.747865378589539,10.0,1711.0],["ORC2",0.07961578738297305,-3.0234762137659037,10.0,1711.0],["PAPPA2",0.0665090220302252,-2.238293750814652,35.0,1686.0],["PCDH18",0.11438037279417357,-5.707162539179854,9.0,1712.0],["PLEKHH1",0.07616270848177997,-2.8048150704823387,13.0,1708.0],["SNAPC4",0.08430472715134099,-3.3340482675646226,13.0,1708.0],["SOAT1",0.09921618364098302,-4.427471671592343,10.0,1711.0],["SYNGAP1",0.08449183703541317,-3.3467692113740024,11.0,1710.0],["TSC22D4",0.09508138172378819,-4.1080297340440755,8.0,1713.0],["WHAMM",0.08944098601740917,-3.6924216682833797,10.0,1711.0],["ZNF311",0.10622753449659894,-4.997926279858837,15.0,1706.0],["ZNF451",0.06555742756124708,-2.1859908670712036,25.0,1696.0]],"bottom":[["ALCAM",-0.051942692050421665,-1.506080666649337,19.0,1702.0],["BRIP1",-0.07124415066927875,-2.507970580785682,22.0,1699.0],["CILP",-0.07818450796841576,-2.9318112568056556,13.0,1708.0],["CPSF3L",-0.06522464083230851,-2.167848657802965,10.0,1711.0],["MGAT5B",-0.05987175492318758,-1.8865819622211186,11.0,1710.0],["MMP1",-0.07131688237221363,-2.5122355915495045,11.0,1710.0],["OSBPL6",-0.09453595785983271,-4.066827154466914,16.0,1705.0],["PDPR",-0.05713492734576236,-1.7504031761627987,16.0,1705.0],["SLC35F1",-0.07145367407790201,-2.5202671959797254,8.0,1713.0]]},"para":{"top":[["CCDC84",0.05826542930482689,-2.1055062242788045,11.0,1710.0],["FCRL5",0.07875204436693266,-3.263040166855001,18.0,1703.0],["GPRIN3",0.06019891767415643,-2.2024030260654093,10.0,1711.0],["IWS1",0.05583934643546788,-1.9874230971791669,8.0,1713.0],["MDGA1",0.058961100557884394,-2.1400455249227472,9.0,1712.0],["PCDH18",0.05400713570077941,-1.9009463284621348,9.0,1712.0],["PCDHA13",0.06688783225610793,-2.557377723040927,11.0,1710.0],["SLC26A9",0.06482579376307818,-2.4446842881502593,11.0,1710.0],["SMARCAL1",0.06800450043180153,-2.6195560443383092,8.0,1713.0],["ZNF311",0.07907075309178335,-3.283311765759784,15.0,1706.0],["ZNF479",0.0682771490371211,-2.6349128306504648,9.0,1712.0]],"bottom":[["ANGPTL3",-0.06139319059209796,-2.2634884768307453,8.0,1713.0],["MMP1",-0.05642353727012773,-2.015539202224078,11.0,1710.0],["PPP1R12B",-0.06601602579504155,-2.5094328653952145,15.0,1706.0],["SHISA9",-0.06475829347577322,-2.4410031864721207,9.0,1712.0]]}}}
{"prism_primary_logfold":{"corr":{"top":[["SID-7969543_BRD-A43885598-001-08-1::2.5::HTS",0.13292166390539087,-2.6432298837874866,525],["mezlocillin_BRD-K45114938-236-01-8::2.35::HTS",0.1291629118232738,-2.5108148546335816,523]],"bottom":[["cathepsin-inhibitor-1_BRD-K40269473-001-02-2::2.5::HTS",-0.13219641180378772,-2.715022422642636,548],["cotinine_BRD-K94144010-001-13-9::2.5::HTS",-0.1349121769665748,-2.8361378377967705,554],["veliflapon_BRD-K12852738-001-01-2::2.584725941::MTS004",-0.17047158766943937,-4.1574759770398435,539],["org-26576_BRD-K40002998-001-01-5::2.5::MTS004",-0.1527848380208269,-3.4304582151730667,539],["F351_BRD-K41267922-001-01-4::2.5::MTS004",-0.12598619248836704,-2.469617058422343,539],["ergocalciferol_BRD-K56155962-001-12-1::2.355251659::MTS004",-0.1433549245050324,-3.0732870361915725,539]]},"para":{"top":[["nicotinamide_BRD-K28912512-001-23-2::2.5::HTS",0.15252071361213437,-3.4802842039807036,550],["BVD-523_BRD-K28965160-001-01-1::2.5::HTS",0.17078862704685305,-4.252670534858621,551],["U-0126_BRD-K91701654-001-03-1::2.38::HTS",0.17844416138539176,-4.413791921294708,526]],"bottom":[["cathepsin-inhibitor-1_BRD-K40269473-001-02-2::2.5::HTS",-0.14867866721449846,-3.319216476278157,548],["veliflapon_BRD-K12852738-001-01-2::2.584725941::MTS004",-0.167725533363345,-4.039654079102134,539]]}}}
{"prism_secondary_logfold":{"corr":{"top":[["bucladesine_BRD-A94624445-236-17-0::0.0024414::HTS002",0.1710474320741233,-2.1876798627711,252],["dasatinib_BRD-K49328571-001-15-0::0.00976562::HTS002",0.20884186850905964,-4.4201257940201595,383]],"bottom":[["sulfasalazine_BRD-K10670311-001-15-5::0.15625::HTS002",-0.20201375523879353,-2.1745058976261022,179],["digitoxigenin_BRD-K18518344-001-15-9::2.5::HTS002",-0.1919885435316561,-4.176525663128808,426],["atiprimod_BRD-K38527262-300-01-0::9.20395::MTS010::PROS001_PR500",-0.17576092173429694,-3.355047449259712,396],["cromakalim_BRD-M89827113-001-01-5::2.5::HTS002",-0.17044516066224524,-2.751868536043459,334]]},"para":{"top":[["abemaciclib_BRD-K33622447-066-01-9::0.625::HTS002",0.20031783645141646,-4.916962869875184,470],["ribociclib_BRD-K36788280-001-01-2::2.5::MTS010::PROS001_PR500",0.17566215657863157,-3.8091590428869075,459],["FPH1-(BRD-6125)_BRD-K61250484-001-02-3::0.00976562::HTS002",0.17319154816688279,-3.3128843943042137,402],["benzocaine_BRD-K75466013-001-14-4::0.625::HTS002",0.18559252803552923,-2.9802617860634264,309],["novobiocin_BRD-K85307935-236-09-5::0.625::HTS002",0.17043927339343373,-3.6671452381608294,467]],"bottom":[["propoxycaine_BRD-K18250272-003-11-0::2.5::HTS002",-0.17209096737624235,-3.4093483319366804,421],["atiprimod_BRD-K38527262-300-01-0::9.20395::MTS010::PROS001_PR500",-0.15959043996293543,-2.8411931610211174,396],["phenazone_BRD-K46937689-001-15-0::2.5::HTS002",-0.20747146842137262,-2.157044723939791,168]]}}}
{"ccle_proteomics":{"corr":{"top":[],"bottom":[["SCD5_Q86SK9",-0.20527704890023776,-3.751083272402487,329]]},"para":{"top":[["XAF1_Q6GPH4",0.2353779924105886,-2.6849104413647256,169],["RAB23_Q9ULC3",0.22449172358551986,-4.825672805513839,365]],"bottom":[]}}}
{"depmap_copy_number":{"corr":{"top":[["LOC101930010_101930010",0.8829157826441595,-323.0051853474518,1745],["ZNF451-AS1_101927211",0.8867521324738225,-323.0051853474518,1745],["LOC100506188_100506188",0.8951045244283931,-323.0051853474518,1745],["PRIM2_5558",0.9482350093857387,-323.0051853474518,1745],["GUSBP4_375513",0.9962485679358444,-323.0051853474518,1745],["BAG2_9532",0.8917415535242222,-323.0051853474518,1745],["KIAA1586_57691",0.8849252603665075,-323.0051853474518,1745],["MIR548U_100422884",0.9545766902874507,-323.0051853474518,1745],["RAB23_51715",0.8917415535242222,-323.0051853474518,1745],["LINC00680_106660612",0.995675196895879,-323.0051853474518,1745],["BEND6_221336",0.8844925450192416,-323.0051853474518,1745],["ZNF451_26036",0.8863098658714879,-323.0051853474518,1745]],"bottom":[]},"para":{"top":[["LOC101930010_101930010",0.9580374396687464,-323.0051853474518,1745],["ZNF451-AS1_101927211",0.965773038827569,-323.0051853474518,1745],["LOC100506188_100506188",0.9676552873327431,-323.0051853474518,1745],["PRIM2_5558",0.9752737785743585,-323.0051853474518,1745],["GUSBP4_375513",0.9982058428245381,-323.0051853474518,1745],["BAG2_9532",0.9674207736134663,-323.0051853474518,1745],["KIAA1586_57691",0.963097134249401,-323.0051853474518,1745],["MIR548U_100422884",0.9836757766622668,-323.0051853474518,1745],["RAB23_51715",0.9674207736134663,-323.0051853474518,1745],["LINC00680_106660612",0.9966696577896489,-323.0051853474518,1745],["BEND6_221336",0.9614006746001938,-323.0051853474518,1745],["ZNF451_26036",0.9650055700114994,-323.0051853474518,1745]],"bottom":[]}}}
{"depmap_gene_tpm":{"corr":{"top":[["ZNF451_26036",0.3985266771160775,-49.74118654551424,1293],["PRIM2_5558",0.41715533233239144,-54.87116733531556,1293],["KIAA1586_57691",0.30542798727893994,-28.594708037028617,1293]],"bottom":[]},"para":{"top":[["ZNF451_26036",0.3946700779178088,-48.71937292726476,1293],["PRIM2_5558",0.3878960533278515,-46.95713993219515,1293]],"bottom":[["FAM86B2_653333",-0.14319616937605253,-6.632424815053592,1293]]}}}
{"avana":{"corr":{"top":[],"bottom":[["SPOCK1_6695",-0.1279720356513494,-3.426890841043587,769]]},"para":{"top":[],"bottom":[["COX7A1_1346",-0.12880239716245878,-3.4654761143864916,769],["C9orf47_286223",-0.1266768674462077,-3.367162853099208,769],["INCA1_388324",-0.1280151131130824,-3.428886945772767,769],["ABI2_10152",-0.1269689576417054,-3.380584404876598,769],["TSPAN2_10100",-0.14496325606407776,-4.262318406510707,769],["PIMREG_54478",-0.16471280492953008,-5.28183862252195,757]]}}}
{"drive":{"corr":{"top":[["LOC107984021_107984021",0.23547186093309247,-5.420162004365229,377]],"bottom":[]},"para":{"top":[["LOC107984021_107984021",0.2565601960865465,-6.354141263361528,377],["FLCN_201163",0.18356764606138962,-3.468767899718306,377],["ABCB8_11194",0.19111859404357748,-3.723042011298293,377]],"bottom":[["LINC01116_375295",-0.19390760590158224,-3.8194532856722305,377],["QSOX2_169714",-0.2436912839475324,-5.774159311113685,377],["PLK1_5347",-0.20984487151404918,-4.540681118221764,391],["SMPDL3B_27293",-0.1848161487850845,-3.510133674751138,377],["BCAM_4059",-0.2107536326600318,-4.430803154364695,377],["GNPNAT1_64841",-0.18283615517213334,-3.4446559628855877,377]]}}}
{"achilles":{"corr":{"top":[["SI_6476",0.20506552400336223,-5.364151571267329,494],["ELMOD3_84173",0.18997371634816398,-2.8525639413339903,280],["SCAMP5_192683",0.33305868450537673,-7.952418222395464,280],["FANCB_2187",0.2208526226107716,-3.7095064241931572,280]],"bottom":[["ARPC5L_81873",-0.23906555160601486,-4.27424255739371,280],["TBL1Y_90665",-0.20061539495807953,-3.133918203103222,280],["DCUN1D5_84259",-0.23859468088955332,-4.2590722628640085,280]]},"para":{"top":[],"bottom":[["DCUN1D5_84259",-0.18346599946641476,-2.6875958262726045,280],["CBX4_8535",-0.166803881386317,-3.707769690999919,494],["FIGNL2_401720",-0.1866185730303546,-2.766845757650217,280]]}}}
{"ccle_rrbs_tss1kb":{"corr":{"top":[["SLC16A1-AS1_1_113498036_113499036",0.13312928819479317,-3.9301999496847384,832],["SLC16A1_1_113498685_113499685",0.13159439809006537,-3.835044942257418,828]],"bottom":[]},"para":{"top":[["STPG3-AS1_9_140147949_140148949",0.12220922262132906,-3.2145690233755917,783]],"bottom":[["ZNF286B_17_18585572_18586572",-0.1844176124906901,-4.894647825999636,553]]}}}
{"ccle_gene_tpm":{"corr":{"top":[["LINC00680_ENSG00000215190.4",0.339476357680473,-27.9617451285749,1011],["KIAA1586_ENSG00000168116.9",0.31052668375143466,-23.312647789433534,1011],["PRIM2_ENSG00000146143.13",0.432316537064169,-46.56948593520178,1011]],"bottom":[]},"para":{"top":[["PRIM2_ENSG00000146143.13",0.40356990712139984,-40.15884338581101,1011],["ZNF451_ENSG00000112200.12",0.40948371202089284,-41.42717151961996,1011]],"bottom":[["CTB-140J7.2_ENSG00000253852.1",-0.14760642210782934,-5.613209854745037,1011]]}}}
{"ccle_rrbs_tss_clusters":{"corr":{"top":[["SLC16A1-AS1_1",0.13054184652502002,-3.837094033441748,842]],"bottom":[["PTPRA_4",-0.17594398509342643,-3.732824329437288,447]]},"para":{"top":[["ATG101_1",0.13102796388131147,-3.557986141601853,766]],"bottom":[["ZNF286B_3",-0.18626073783211447,-5.047461461080953,561]]}}}
{"ccle_rrbs_cgi_clusters":{"corr":{"top":[["20_61271277_61274097-3",0.15399657791411175,-5.128416232394308,839]],"bottom":[]},"para":{"top":[["9_5111529_5114274-2",0.2040793149282155,-4.1630691613665425,375]],"bottom":[["17_18583239_18587829-3",-0.18626073783211447,-5.047461461080953,561]]}}}
