{"depmap_hotspot":{"corr":{"top":[["BPIFA1",0.07620893559069955,-2.8090597854578476,39.0,1683.0],["CD300A",0.07775076138608061,-2.90574679539665,25.0,1697.0],["CSRP1",0.08020135459910699,-3.0629113913223094,18.0,1704.0],["GRAMD3",0.0789946088813275,-2.984982665523552,36.0,1686.0],["GTF2A1L",0.08131239256321923,-3.1355811835225174,32.0,1690.0],["LMAN2L",0.07754747217331279,-2.892901745138413,28.0,1694.0],["OR13A1",0.07661905423866722,-2.834612896108404,43.0,1679.0],["PERP",0.07001076496473235,-2.43738466792434,13.0,1709.0],["RPS6KB1",0.08385532587847988,-3.305241374478046,33.0,1689.0]],"bottom":[["ALOX12",-0.08402786145924487,-3.316921117167342,45.0,1677.0],["BRD1",-0.07883666348788082,-2.9748599725477174,98.0,1624.0],["CDC14A",-0.07586733782987186,-2.78786727595791,58.0,1664.0],["DHPS",-0.07486014697556603,-2.725864285731814,25.0,1697.0],["HIAT1",-0.07631035205169336,-2.815367569599082,58.0,1664.0],["HPS1",-0.07136628214916904,-2.5163502677310223,59.0,1663.0],["KCNE4",-0.07389686000512243,-2.6672372793255037,36.0,1686.0],["LRMP",-0.0772965777378917,-2.877089311444256,54.0,1668.0],["LRRCC1",-0.07152891902391531,-2.5259116240426023,109.0,1613.0],["MEGF9",-0.09701264122832931,-4.257839559878647,47.0,1675.0],["MELK",-0.09048246391292669,-3.7693165538359756,65.0,1657.0],["MROH6",-0.08251544468017771,-3.2152676371703444,59.0,1663.0],["PCSK5",-0.08442438039648871,-3.3438446084202003,191.0,1531.0],["PHKA2",-0.07591444335792467,-2.7907847431610793,93.0,1629.0],["PTGFRN",-0.08140077270917309,-3.1413998628490747,86.0,1636.0],["PVALB",-0.08262707834215194,-3.2227146007315493,9.0,1713.0],["RALGDS",-0.08653025264077545,-3.4887330664316694,100.0,1622.0],["RPAP1",-0.07938843109434357,-3.010300293641501,97.0,1625.0],["SEMA4F",-0.09316889109346974,-3.96651743359843,84.0,1638.0],["SHPK",-0.08598766130890839,-3.451095422880748,53.0,1669.0],["SLCO3A1",-0.07846297630910719,-2.950981362809434,66.0,1656.0],["SOX3",-0.07304698629014005,-2.6160584073011246,55.0,1667.0],["SOX7",-0.08634188558006319,-3.4756425977047125,55.0,1667.0],["SUPT5H",-0.08049195371425105,-3.0818332426957693,84.0,1638.0],["TMEM41A",-0.09775028925308682,-4.31498501664611,32.0,1690.0],["VWA8",-0.07658568304033189,-2.832529177409635,151.0,1571.0]]},"para":{"top":[["DSCC1",0.06228267772420098,-2.31076662435272,21.0,1701.0],["HSPB7",0.06270754458038663,-2.3330425297034583,25.0,1697.0]],"bottom":[["ALOX12",-0.10637390986304864,-5.292175818239343,45.0,1677.0],["CAV3",-0.07819363226629121,-3.2289693951156737,11.0,1711.0],["CBY3",-0.06756939962315872,-2.5963235803515854,9.0,1713.0],["CENPO",-0.061105122943064166,-2.249662128671167,13.0,1709.0],["DHPS",-0.08313962670205459,-3.550520795014218,25.0,1697.0],["DIRC1",-0.0668417820033182,-2.555950166049245,14.0,1708.0],["FAM159A",-0.0739402354596525,-2.9663195879551885,13.0,1709.0],["FXYD3",-0.0638916023052215,-2.395539512207972,9.0,1713.0],["HIST1H2AB",-0.06413822108146039,-2.4088203021722636,16.0,1706.0],["HRSP12",-0.06323543141810056,-2.3606932321136744,9.0,1713.0],["IFITM5",-0.06672669922695888,-2.5495381442992078,11.0,1711.0],["IL6",-0.060051787484291484,-2.195802933017479,9.0,1713.0],["LSM10",-0.0730047817070485,-2.9102663790889807,15.0,1707.0],["MEGF9",-0.11239339526557184,-5.806298020401333,47.0,1675.0],["SPATA12",-0.07110883231415673,-2.798455734012957,14.0,1708.0],["TP53I3",-0.07208429409525935,-2.8556987796400755,17.0,1705.0],["USP18",-0.0780975219273563,-3.223042549585311,24.0,1698.0]]}}}
{"depmap_damaging":{"corr":{"top":[["CFHR2",0.1008586565170642,-4.557850191262803,12.0,1709.0],["MPPE1",0.05744839770850839,-1.7657406841345324,9.0,1712.0],["NFKBIZ",0.06978430782294608,-2.4231520593500586,12.0,1709.0],["SPRYD3",0.09499925366865548,-4.101811678415718,8.0,1713.0],["TIAM1",0.07220516444006493,-2.5646255326189222,19.0,1702.0]],"bottom":[["BRF1",-0.07359056469271903,-2.6474465075644544,27.0,1694.0],["CUL1",-0.06114725958648602,-1.9518059884661478,14.0,1707.0],["ERCC6L2",-0.06615596173975309,-2.2188146939257303,9.0,1712.0],["GOLGA3",-0.06602710712391542,-2.211727173173598,19.0,1702.0],["LAYN",-0.07043068180650594,-2.460522233038113,12.0,1709.0],["MAP1B",-0.06703140967102088,-2.267274508362422,39.0,1682.0],["MAP7D1",-0.0775322388278534,-2.8905220009702157,27.0,1694.0],["PCNXL2",-0.06961417018230004,-2.4133643321113136,29.0,1692.0],["PMPCA",-0.06283593328019015,-2.0398844435391656,8.0,1713.0],["PTPN21",-0.06993458583765752,-2.4318142045578637,24.0,1697.0],["REST",-0.06246007358581516,-2.0201096729413144,9.0,1712.0],["ZW10",-0.06669299825048007,-2.248478559544871,11.0,1710.0]]},"para":{"top":[["CCDC168",0.05297629872983044,-1.8533635784782259,16.0,1705.0],["EDN3",0.0795333298305245,-3.3127629259234315,8.0,1713.0],["SPRYD3",0.06468584732946346,-2.4370740598666107,8.0,1713.0]],"bottom":[["ACSBG2",-0.06517980446576413,-2.4637820399262926,9.0,1712.0],["BACE2",-0.06631534662890984,-2.5257973759250567,11.0,1710.0],["C1orf27",-0.07191107883639486,-2.844212399805312,13.0,1708.0],["CAST",-0.07657456813970129,-3.1261578857804646,14.0,1707.0],["CD163L1",-0.06217621225552524,-2.304143925646756,10.0,1711.0],["ERCC6L2",-0.0650338613782677,-2.4558813347960804,9.0,1712.0],["FAM13B",-0.07345541880661584,-2.935864263347969,11.0,1710.0],["FAM151B",-0.0712799521808322,-2.807111562571317,8.0,1713.0],["FBXO11",-0.06247174939777492,-2.3195581516657637,9.0,1712.0],["GMEB2",-0.0589944556585298,-2.1416871959051695,8.0,1713.0],["GRIN2D",-0.08194473508217816,-3.4695917418198685,12.0,1709.0],["LANCL2",-0.05879671848567257,-2.13182113911309,8.0,1713.0],["LAYN",-0.07420004399636683,-2.9806831823450692,12.0,1709.0],["MGAT4C",-0.07771387688179003,-3.19733920347765,14.0,1707.0],["NBPF12",-0.06486638996555046,-2.4468067888696834,8.0,1713.0],["NOP14",-0.06391209317480478,-2.3956155606028355,8.0,1713.0],["OTOL1",-0.06312974175176105,-2.3541134455106496,8.0,1713.0],["PPP2R5E",-0.06691253984120334,-2.5586760372277677,8.0,1713.0],["REST",-0.06662301944211764,-2.5426991935065826,9.0,1712.0],["RNF169",-0.06806457380480622,-2.6229291685700162,8.0,1713.0],["RTEL1",-0.06311489532633008,-2.353377583337849,10.0,1711.0],["SETMAR",-0.06263969745381055,-2.328330949687452,8.0,1713.0],["VWA5A",-0.06895009244847114,-2.67294004679043,8.0,1713.0],["ZW10",-0.07900310078641619,-3.278928673837318,11.0,1710.0]]}}}
{"ccle_metabolomics":{"corr":{"top":[],"bottom":[["C24:0 SM",-0.17132430204017202,-6.793244757423091,924]]},"para":{"top":[],"bottom":[["C24:0 SM",-0.16056755441955328,-6.031938559344661,924]]}}}
{"ccle_rrbs_enhancer_clusters":{"corr":{"top":[],"bottom":[["1-38663425-38666040-0_enh",-0.14856460970590388,-4.472309160075261,773],["1-38663425-38666040-1_enh",-0.13021552166135464,-3.5475229429195134,773]]},"para":{"top":[],"bottom":[]}}}
{"prism_primary_logfold":{"corr":{"top":[["dobutamine_BRD-A78322124-003-14-0::2.5::HTS",0.140428594451553,-3.018089009799641,550],["m-Chlorophenylbiguanide_BRD-K36965586-003-08-8::2.5::HTS",0.13435906723304128,-2.8207161753547974,555],["MK-3207_BRD-K66911501-003-01-2::2.5::HTS",0.12363335237090464,-2.448373741402029,554],["flunixin-meglumin_BRD-K99984802-100-13-5::2.5::HTS",0.14051178061342348,-3.0445162590064045,555]],"bottom":[["TGR-1202_BRD-K52579889-001-01-9::2.499985811::MTS004",-0.12523413297209476,-2.4412686863451927,538]]},"para":{"top":[],"bottom":[["isopropyl-palmitate_BRD-K30758549-001-01-8::2.5::HTS",-0.1218653156570933,-2.2898514604651914,526]]}}}
{"prism_secondary_logfold":{"corr":{"top":[["penfluridol_BRD-K15409150-001-05-8::0.00976562::HTS002",0.14438964903974497,-2.7500021513175117,466],["fenofibrate_BRD-K50388907-001-30-4::0.15625::HTS002",0.15224059588003935,-3.048217729469497,473],["PD-173074_BRD-K97764662-001-17-3::0.15625::HTS002",0.1402081556863177,-2.5318188516186018,448]],"bottom":[["indisulam_BRD-K17610631-001-03-3::0.002441404::MTS006",-0.14849413822728597,-2.899975655439424,469],["embelin_BRD-K86727142-001-12-4::0.625::HTS002",-0.1672536219685761,-3.1055376196830635,400]]},"para":{"top":[["rociletinib_BRD-K33610132-001-02-9::0.625::MTS010::PROS002_PR500",0.17125469686632322,-3.498089295962498,438],["AZD5363_BRD-K99023089-001-03-7::2.5::HTS002",0.19271993028689158,-4.585987532899476,470]],"bottom":[["hypericin_BRD-K29673530-001-05-4::0.15625::HTS002",-0.16645289806159405,-2.9350038179373072,378],["rigosertib_BRD-K55187425-236-05-2::0.00976562::HTS002",-0.1600929575390412,-2.893136996656338,402],["embelin_BRD-K86727142-001-12-4::0.625::HTS002",-0.17643174759625505,-3.406765922751698,400]]}}}
{"ccle_proteomics":{"corr":{"top":[["BRWD3_Q6RI45",0.3018699840252963,-4.001874068299606,161]],"bottom":[["SPIDR_Q14159",-0.27097145232278985,-2.4686024037074135,115]]},"para":{"top":[["BRWD3_Q6RI45",0.3136312006801623,-4.292850352992487,161]],"bottom":[["ELL_P55199",-0.19671390050278437,-3.890555293180949,374],["ZNF384_Q8TF68",-0.19293520087888474,-3.7594146655001017,374]]}}}
{"depmap_copy_number":{"corr":{"top":[["ABCA8_10351",0.9499213685720167,-323.0051853474518,1745],["LOC105371880_105371880",0.9673836797384433,-323.0051853474518,1745],["KCNJ2_3759",0.9999999999999999,-323.0051853474518,1745],["MIR4524B_100847008",0.943769888817754,-323.0051853474518,1745],["ABCA5_23461",0.9477890466616794,-323.0051853474518,1745],["CASC17_101928165",0.9974336313483985,-323.0051853474518,1745],["MAP2K6_5608",0.9584743617817894,-323.0051853474518,1745],["ABCA9_10350",0.9476476636547069,-323.0051853474518,1745],["ABCA9-AS1_104355297",0.9476476636547069,-323.0051853474518,1745],["ABCA10_10349",0.9535780242860031,-323.0051853474518,1745],["KCNJ16_3773",0.9999999999999999,-323.0051853474518,1745],["LINC01028_101928141",0.9999999999999999,-323.0051853474518,1745],["PRO1804_100133319",0.9447423151105243,-323.0051853474518,1745],["LINC01483_101928122",0.9795852944077446,-323.0051853474518,1745],["ABCA6_23460",0.9524267337512848,-323.0051853474518,1745],["MIR4524A_100616316",0.943769888817754,-323.0051853474518,1745]],"bottom":[]},"para":{"top":[["LOC105371880_105371880",0.9856236979877334,-323.0051853474518,1745],["KCNJ2_3759",0.9999999999999999,-323.0051853474518,1745],["ABCA5_23461",0.9780635500388701,-323.0051853474518,1745],["CASC17_101928165",0.9949370979413005,-323.0051853474518,1745],["MAP2K6_5608",0.9844649753423322,-323.0051853474518,1745],["ABCA9_10350",0.9669469687071106,-323.0051853474518,1745],["ABCA9-AS1_104355297",0.9669469687071106,-323.0051853474518,1745],["ABCA10_10349",0.973856321975189,-323.0051853474518,1745],["KCNJ16_3773",0.9999999999999999,-323.0051853474518,1745],["LINC01028_101928141",0.9999999999999999,-323.0051853474518,1745],["PRO1804_100133319",0.9752207943701051,-323.0051853474518,1745],["LINC01483_101928122",0.9946028628322593,-323.0051853474518,1745]],"bottom":[]}}}
{"depmap_gene_tpm":{"corr":{"top":[],"bottom":[]},"para":{"top":[],"bottom":[]}}}
{"avana":{"corr":{"top":[["NOL11_25926",0.21275316711789052,-8.59440467697876,769]],"bottom":[]},"para":{"top":[["NOL11_25926",0.21550218150207737,-8.805200925150416,769]],"bottom":[["SAE1_10055",-0.15966494629355618,-5.064162387089085,769]]}}}
{"drive":{"corr":{"top":[],"bottom":[["NR3C2_4306",-0.18960103358214384,-3.696541261652287,380]]},"para":{"top":[["RGL4_266747",0.2214298484632113,-4.8787825247863825,380]],"bottom":[["HOXA5_3202",-0.19911744603180434,-4.031091343637199,380],["SYTL4_94121",-0.1984813556078775,-3.9804940242901514,377]]}}}
{"achilles":{"corr":{"top":[["CA13_377677",0.21642805105574728,-3.579055385115528,280]],"bottom":[["ASRGL1_80150",-0.17709002937924503,-4.12045197602818,494],["NEURL1_9148",-0.1820765224260679,-4.329042024329832,494]]},"para":{"top":[],"bottom":[["UNC13D_201294",-0.2366788116847567,-4.1976624778192555,280],["SKAP1_8631",-0.18454321560429396,-4.434304238055262,494],["ALDH3A2_224",-0.21799187286093585,-6.000332096595992,494]]}}}
{"ccle_rrbs_tss1kb":{"corr":{"top":[],"bottom":[]},"para":{"top":[["NOL11_17_65712948_65713948",0.13948212801880783,-4.153797715055529,807]],"bottom":[]}}}
{"ccle_gene_tpm":{"corr":{"top":[],"bottom":[["EIF2S2_ENSG00000125977.6",-0.16136827762194667,-6.603673375843585,1011]]},"para":{"top":[],"bottom":[]}}}
{"ccle_rrbs_tss_clusters":{"corr":{"top":[["KIF5C_1",0.1632871619451873,-3.2076667752387507,436]],"bottom":[["PCGF3_3",-0.20316581101381465,-6.899487147033346,665]]},"para":{"top":[],"bottom":[]}}}
{"ccle_rrbs_cgi_clusters":{"corr":{"top":[],"bottom":[["4_697541_701951-3",-0.20316581101381465,-6.899487147033346,665]]},"para":{"top":[["9_129242737_129247247-3",0.19112130507537703,-3.8262114348185943,389]],"bottom":[]}}}
