{"depmap_hotspot":{"corr":{"top":[["CCR3",0.06826997584387423,-2.3378692863782087,39.0,1683.0],["PRAMEF7",0.07895442798676318,-2.9824057888597872,14.0,1708.0]],"bottom":[["ADH6",-0.08692256881055105,-3.5160792301344985,53.0,1669.0],["AGRN",-0.10740175626224265,-5.099656848768938,199.0,1523.0],["ATIC",-0.09995603559677324,-4.488250000354992,50.0,1672.0],["BROX",-0.09884718165745966,-4.400700304533209,28.0,1694.0],["C1orf172",-0.0846929208735452,-3.362142757913349,42.0,1680.0],["C1orf192",-0.08861105170047913,-3.63504554697597,22.0,1700.0],["C1orf87",-0.08892210295000523,-3.657186823128246,56.0,1666.0],["C8orf31",-0.1007078909114033,-4.548128108666099,20.0,1702.0],["C8orf74",-0.10581086931505312,-4.9655697332955056,36.0,1686.0],["CDC6",-0.09611147844651032,-4.188568506540066,29.0,1693.0],["DYSF",-0.09116055311301628,-3.818596662028271,231.0,1491.0],["FAM227B",-0.08460558905878998,-3.356186329001516,54.0,1668.0],["FAM46C",-0.09290443221552136,-3.9468710076021547,50.0,1672.0],["GLI1",-0.08567646778902964,-3.429605005607796,97.0,1625.0],["GON4L",-0.09229915783917965,-3.9020977280123597,144.0,1578.0],["GPR156",-0.09793514881430475,-4.329368674626455,84.0,1638.0],["IL17D",-0.08534872661790055,-3.4070474393043066,19.0,1703.0],["KLF2",-0.09035712260538535,-3.7602440044156267,29.0,1693.0],["LATS2",-0.0953589539303914,-4.131179156472272,116.0,1606.0],["MBTPS2",-0.08945806799440657,-3.695502640842962,38.0,1684.0],["MGAT5B",-0.09894752966434678,-4.408586047349376,95.0,1627.0],["NFATC1",-0.0876280158883149,-3.5655321484780105,135.0,1587.0],["OR2A2",-0.08666543780863593,-3.498143498767878,54.0,1668.0],["OTOGL",-0.08792982402745636,-3.586799411370324,185.0,1537.0],["PARP10",-0.0854855450009813,-3.4164548621521016,89.0,1633.0],["PARP14",-0.09414524047610517,-4.039491926520377,115.0,1607.0],["PDE2A",-0.09838368857104492,-4.364373301503873,85.0,1637.0],["PLAUR",-0.08725617953316421,-3.539420959552196,25.0,1697.0],["PLCZ1",-0.08715349856965507,-3.532228105102449,64.0,1658.0],["PLEKHB2",-0.12013965252437142,-6.2414640037368905,44.0,1678.0],["POLR1E",-0.09332351707243805,-3.97802811753856,38.0,1684.0],["PRKDC",-0.08604362046892335,-3.454967273253955,252.0,1470.0],["PRLHR",-0.08891576982537372,-3.656735318131796,46.0,1676.0],["PSMD11",-0.08885886464188494,-3.6526797044159105,38.0,1684.0],["RND3",-0.08858987521190341,-3.6335407118815377,31.0,1691.0],["RPE65",-0.09660352605335695,-4.226317658409265,67.0,1655.0],["RTP4",-0.09642543084418968,-4.212633963060119,11.0,1711.0],["SBK3",-0.0861233358256047,-3.460486737011027,41.0,1681.0],["SETBP1",-0.0865614019460058,-3.490900242433849,157.0,1565.0],["SLC22A1",-0.08658334661733925,-3.492427438140532,63.0,1659.0],["SLC6A15",-0.08720459564690974,-3.5358065279396986,70.0,1652.0],["SMPD3",-0.08940578332463926,-3.691755662450504,74.0,1648.0],["SP100",-0.09129217193726978,-3.82820083313285,98.0,1624.0],["SPECC1",-0.08593813761383885,-3.4476707333253973,85.0,1637.0],["SPTY2D1",-0.08648791329333538,-3.4857884812593127,70.0,1652.0],["SRPX",-0.08911900847510579,-3.6712392516167505,44.0,1678.0],["TCF3",-0.09510876716429202,-4.1121911697164375,101.0,1621.0],["TFEB",-0.09616112929491147,-4.192369592944084,51.0,1671.0],["TSHZ1",-0.0852114118376505,-3.3976194679729654,114.0,1608.0],["VWF",-0.09688100906448179,-4.247684038416885,240.0,1482.0],["ZBTB20",-0.08914070280935532,-3.672789217834341,111.0,1611.0],["ZFYVE26",-0.0912402949435635,-3.8244138846263733,171.0,1551.0],["ZSCAN1",-0.08910349046777759,-3.6701307667575955,87.0,1635.0]]},"para":{"top":[["PRAMEF7",0.0582099880002399,-2.103642218278188,14.0,1708.0],["VHL",0.1198100633962125,-6.475658143467358,57.0,1665.0]],"bottom":[["AC022498.1",-0.07255280285840872,-2.883429190159258,19.0,1703.0],["BLOC1S6",-0.06743813133244708,-2.5889696885991382,8.0,1714.0],["BROX",-0.10197975676132301,-4.9332218482906365,28.0,1694.0],["C10orf40",-0.06843019210204314,-2.6447762340465184,16.0,1706.0],["C22orf15",-0.06521464979641724,-2.466771860704605,13.0,1709.0],["C8orf31",-0.08457849716203271,-3.647211252351427,20.0,1702.0],["CDC6",-0.09752105774460233,-4.583201392901109,29.0,1693.0],["CGB1",-0.08878878306193926,-3.9385956404449374,16.0,1706.0],["CLDND2",-0.0661054128110206,-2.5153589084064927,13.0,1709.0],["DBP",-0.07109335919397368,-2.7976068227841213,19.0,1703.0],["HEPN1",-0.06570881346595657,-2.493694874704019,16.0,1706.0],["IL17D",-0.07455464512610123,-3.0035553061491025,19.0,1703.0],["LCE1D",-0.07064906143480143,-2.771672473664411,11.0,1711.0],["MGST3",-0.07014083919536017,-2.742324161611501,13.0,1709.0],["MRPL34",-0.07515325579996204,-3.0399312061080956,12.0,1710.0],["NPIPA1",-0.07682610429337146,-3.1432514214853153,20.0,1702.0],["OSCAR",-0.075359582716951,-3.052653118002193,20.0,1702.0],["PLEKHB2",-0.11709047245419403,-6.225574936151106,44.0,1678.0],["RRP15",-0.0924279728506577,-4.20072112284533,30.0,1692.0],["RTP4",-0.07885332666368713,-3.2708441171889873,11.0,1711.0],["SLURP1",-0.05791209800577739,-2.088836821609718,8.0,1714.0],["SPRN",-0.06761194992972387,-2.598761354232466,12.0,1710.0],["TGIF2",-0.074599449341497,-3.006266623759314,18.0,1704.0],["XG",-0.07230015715069728,-2.868318168667098,9.0,1713.0]]}}}
{"depmap_damaging":{"corr":{"top":[],"bottom":[["ADCY7",-0.0921256266517303,-3.887346649450204,11.0,1710.0],["ANGPTL6",-0.07356377556201135,-2.6458321587850797,9.0,1712.0],["ARHGAP21",-0.08725376920306013,-3.5374805757096652,16.0,1705.0],["ARSJ",-0.08761842698609952,-3.5630720387741306,13.0,1708.0],["CCT6A",-0.08018329428265081,-3.0602268299596256,11.0,1710.0],["CCT8L2",-0.11365323881030982,-5.641890147995602,10.0,1711.0],["CDC42BPG",-0.09332156377628242,-3.9758698280324754,12.0,1709.0],["CNTN2",-0.08540411239243757,-3.409152951989987,13.0,1708.0],["DMXL2",-0.07340976737629808,-2.636561266051058,26.0,1695.0],["DPPA4",-0.0735077255536554,-2.642456152432419,11.0,1710.0],["DYSF",-0.09602424404030577,-4.179769059943841,46.0,1675.0],["EFCAB6",-0.0839961932741821,-3.313127188610631,22.0,1699.0],["FBN2",-0.07568625762657526,-2.7753108088111715,45.0,1676.0],["FDFT1",-0.09013293797068976,-3.742161445125314,8.0,1713.0],["FEZ2",-0.0799816854056658,-3.0471446656235606,9.0,1712.0],["GUCY2F",-0.07717240533514463,-2.867873912577323,12.0,1709.0],["HIPK3",-0.08144797064768722,-3.142953876754273,17.0,1704.0],["HOXA3",-0.07383283442032725,-2.6620690609495963,11.0,1710.0],["IL12RB1",-0.07905625021152171,-2.987467059766866,11.0,1710.0],["IRAK4",-0.08038360468766294,-3.0732535351112165,10.0,1711.0],["KLHL41",-0.07222087173337867,-2.565556938495903,18.0,1703.0],["LRP6",-0.08265005554039445,-3.2226493737024065,15.0,1706.0],["MCM3AP",-0.08319534850852639,-3.259143114227344,25.0,1696.0],["MMP2",-0.0846660075278836,-3.3586331134103884,13.0,1708.0],["MYH11",-0.0753341779433599,-2.753611801260514,20.0,1701.0],["NAV2",-0.08282001064938192,-3.234000705386308,25.0,1696.0],["NFATC4",-0.08183801492253275,-3.1686993047145813,10.0,1711.0],["NOTCH1",-0.0993118821556373,-4.4350136775025835,46.0,1675.0],["OSMR",-0.08192535027463545,-3.1744789494762506,15.0,1706.0],["PCDHB12",-0.0739708817834372,-2.6704196916178478,9.0,1712.0],["PDCD1LG2",-0.07873163152404987,-2.9666786278896065,8.0,1713.0],["PHACTR4",-0.08020180340830423,-3.061429322639176,10.0,1711.0],["PHYHIPL",-0.07361167041159088,-2.648718723856066,9.0,1712.0],["PLEKHB2",-0.08189747938884623,-3.172633926454832,9.0,1712.0],["PPP1R18",-0.0748386656672218,-2.7232218899686336,10.0,1711.0],["RALBP1",-0.07857927553589877,-2.956947753785784,8.0,1713.0],["ROBO4",-0.08000126475864228,-3.0484138723997307,8.0,1713.0],["SLC6A15",-0.07886698078912718,-2.975337189258422,16.0,1705.0],["SORBS3",-0.07497090038806638,-2.7313148503097855,13.0,1708.0],["SRPK3",-0.08658757334577948,-3.4909756882888217,10.0,1711.0],["SWAP70",-0.09041338662059184,-3.7624200420906853,11.0,1710.0],["TBC1D31",-0.07490986257154052,-2.727577705211585,12.0,1709.0],["TCF20",-0.08774271103277606,-3.5718162049653723,25.0,1696.0],["TSC1",-0.07301343365476587,-2.612780108635552,20.0,1701.0],["TTBK1",-0.07665347350862993,-2.8353743801565514,12.0,1709.0],["TXLNB",-0.07873460241331001,-2.9668685412309777,25.0,1696.0],["USP6NL",-0.07845339138588375,-2.9489201135460372,19.0,1702.0],["UTRN",-0.08112756855314934,-3.1218868709260006,42.0,1679.0],["ZNF280C",-0.08968039244551676,-3.709591659809475,9.0,1712.0],["ZNF626",-0.08545455728631941,-3.412620011106165,12.0,1709.0]]},"para":{"top":[["BTN1A1",0.049565438331193964,-1.7006039071498802,10.0,1711.0]],"bottom":[["ARHGAP21",-0.08444260246309641,-3.636310696522074,16.0,1705.0],["CBLB",-0.06020139550622083,-2.202507841437407,9.0,1712.0],["CCT8L2",-0.08195762947902482,-3.4703969062881974,10.0,1711.0],["CDC42BPG",-0.07303326545077582,-2.910655301781997,12.0,1709.0],["DPPA4",-0.07269942915069094,-2.8907747743615384,11.0,1710.0],["FBLN1",-0.06377699354234787,-2.3884449121568228,9.0,1712.0],["FDFT1",-0.07044586726501925,-2.7586466743721783,8.0,1713.0],["FEZ2",-0.06292566067660334,-2.3433820168841155,9.0,1712.0],["FGD1",-0.058383925384030484,-2.111310397040872,8.0,1713.0],["HIPK3",-0.08376075020316719,-3.5903940010573265,17.0,1704.0],["HOXA3",-0.0684652946377255,-2.645564443340363,11.0,1710.0],["IL12RB1",-0.07167208282172184,-2.8301369896410047,11.0,1710.0],["LIMA1",-0.07043360575926469,-2.757966094590731,9.0,1712.0],["MMP2",-0.07882037235990583,-3.2673236214341017,13.0,1708.0],["NFATC4",-0.0692007998060786,-2.6872488903630036,10.0,1711.0],["PCDHB12",-0.06837419101736839,-2.6403812720402025,9.0,1712.0],["PDCD1LG2",-0.06978387900783026,-2.72052443173032,8.0,1713.0],["PHACTR4",-0.06423040658006941,-2.4126697588316204,10.0,1711.0],["PLEKHB2",-0.06590937967273658,-2.5034973398450155,9.0,1712.0],["RALBP1",-0.07613724682682578,-3.0989469385064776,8.0,1713.0],["ROBO4",-0.07016215801193826,-2.7422714340295093,8.0,1713.0],["RPS6KA2",-0.0676077765239091,-2.5974301300887963,12.0,1709.0],["SLC6A15",-0.07903164626543231,-3.2808289262509294,16.0,1705.0],["SWAP70",-0.0884471807361742,-3.912584883487313,11.0,1710.0],["TTBK1",-0.07341276856224059,-2.933328484738694,12.0,1709.0],["UGT1A6",-0.06787960716203108,-2.612578672019236,9.0,1712.0],["ZNF280C",-0.0652850689045239,-2.469489664188058,9.0,1712.0],["ZNF626",-0.07950590185186938,-3.3111043912334277,12.0,1709.0]]}}}
{"ccle_rrbs_enhancer_clusters":{"corr":{"top":[["11-109998895-110002065-1_enh",0.21813478250132912,-9.00972887916348,769],["11-109998895-110002065-2_enh",0.2172889558516327,-9.019129003207842,776]],"bottom":[]},"para":{"top":[["7-1265736-1268318-2_enh",0.210188360420241,-8.974359070579212,826]],"bottom":[]}}}
{"ccle_mirna":{"corr":{"top":[],"bottom":[]},"para":{"top":[],"bottom":[["hsa-miR-532-3p_miR00471.1",-0.22559245170715217,-11.711989261659317,951]]}}}
{"prism_primary_logfold":{"corr":{"top":[["naltriben_BRD-A19102171-066-01-4::2.5::HTS",0.15553414357447026,-3.634959656055372,556]],"bottom":[["proxymetacaine_BRD-K79116891-003-15-1::2.5::HTS",-0.12687271332683026,-2.5566801194605357,554]]},"para":{"top":[["naltriben_BRD-A19102171-066-01-4::2.5::HTS",0.12492815390305445,-2.498866382165213,556]],"bottom":[["ACPC_BRD-K66465025-001-05-1::2.5::HTS",-0.1287452371643901,-2.620408918819448,554]]}}}
{"prism_secondary_logfold":{"corr":{"top":[["omeprazole_BRD-A55962179-001-22-1::0.625::HTS002",0.20592530853391025,-4.3100261422639,383]],"bottom":[]},"para":{"top":[["levonorgestrel_BRD-K35189033-001-26-1::2.5::HTS002",0.3168360082511912,-2.904459526947984,101]],"bottom":[]}}}
{"ccle_proteomics":{"corr":{"top":[["TBC1D9B_Q66K14",0.32741825308688977,-10.067880077496538,374],["TBC1D9_Q6ZT07",0.3067000548007734,-6.717964295846573,277],["ERGIC1_Q969X5",0.36008951266220424,-12.16577782277731,374]],"bottom":[]},"para":{"top":[["TBC1D9_Q6ZT07",0.35527226605477646,-8.936034583909967,277],["ERGIC1_Q969X5",0.38998693743701,-14.307850454869204,374],["ENPP5_Q9UJA9",0.4125083885225032,-4.995961672917607,107]],"bottom":[]}}}
{"depmap_copy_number":{"corr":{"top":[["CPLX2_10814",0.9676888203466616,-323.0051853474518,1745],["MIR4634_100616202",0.999351246686701,-323.0051853474518,1745],["SFXN1_94081",0.9780196008203348,-323.0051853474518,1745],["MSX2_4488",0.9963760045990493,-323.0051853474518,1745],["HRH2_3274",0.9698938700645477,-323.0051853474518,1745],["LINC01411_101928176",0.9732825488415242,-323.0051853474518,1745],["DRD1_1812",0.9819377050017706,-323.0051853474518,1745]],"bottom":[]},"para":{"top":[["CPLX2_10814",0.9825457842544235,-323.0051853474518,1745],["MIR4634_100616202",0.9996157990856094,-323.0051853474518,1745],["SFXN1_94081",0.9858514163646647,-323.0051853474518,1745],["MSX2_4488",0.9965382005991408,-323.0051853474518,1745],["HRH2_3274",0.9825875174262948,-323.0051853474518,1745],["LINC01411_101928176",0.9838862677866836,-323.0051853474518,1745],["DRD1_1812",0.9897264295440695,-323.0051853474518,1745]],"bottom":[]}}}
{"depmap_gene_tpm":{"corr":{"top":[],"bottom":[]},"para":{"top":[],"bottom":[]}}}
{"avana":{"corr":{"top":[],"bottom":[["SQSTM1_8878",-0.21421114329427662,-8.705850770135898,769]]},"para":{"top":[],"bottom":[["HIST1H3F_8968",-0.1562499600086128,-4.871285335886304,769]]}}}
{"drive":{"corr":{"top":[["TRRAP_8295",0.2640726849935317,-6.934713142036891,391],["HLA-F_3134",0.2543553507659875,-6.252517443120808,377]],"bottom":[["SCRT1_83482",-0.2490047962808608,-6.053103175434103,380],["RASA4CP_401331",-0.19308933322690408,-3.791026923534742,377]]},"para":{"top":[],"bottom":[["EMD_2010",-0.23022393007688258,-5.200743370231981,377],["ZNF423_23090",-0.1884696400476792,-3.657821848656509,380]]}}}
{"achilles":{"corr":{"top":[["FBLIM1_54751",0.28710821487391897,-5.98756721760527,280],["HMHB1_57824",0.2582307707653502,-4.917945373304186,280],["LOC728554&THOC3_728554&84321",0.33924184596049967,-14.04350936119847,494]],"bottom":[["RTFDC1_51507",-0.23864997620336934,-4.260852157813644,280],["IBA57_200205",-0.26190550987386024,-5.047306316062574,280],["AIF1_199",-0.25926585095884297,-8.303624874966747,494],["NFE2L2_4780",-0.25331224398264957,-7.945127776167017,494]]},"para":{"top":[["FBLIM1_54751",0.3043920401568632,-6.687557140263615,280]],"bottom":[["RTFDC1_51507",-0.24074484575848387,-4.32859445975505,280]]}}}
{"ccle_rrbs_tss1kb":{"corr":{"top":[["FAM129C_19_17637046_17638046",0.26590837104287873,-14.043975132092301,822],["BAIAP3_16_1385197_1386197",0.2940126817958613,-13.800675835018115,655]],"bottom":[]},"para":{"top":[["GSG1L2_17_9725388_9726388",0.25929418380487235,-13.107692822689605,805]],"bottom":[]}}}
{"ccle_gene_tpm":{"corr":{"top":[],"bottom":[]},"para":{"top":[],"bottom":[]}}}
{"ccle_rrbs_tss_clusters":{"corr":{"top":[["COL1A1_3",0.29937138327768376,-9.0835069876676,404]],"bottom":[]},"para":{"top":[],"bottom":[["SEMA6A-AS2_3",-0.25291118679592783,-5.709118894104838,345]]}}}
{"ccle_rrbs_cgi_clusters":{"corr":{"top":[["17_48277943_48281008-3",0.29937138327768376,-9.0835069876676,404]],"bottom":[]},"para":{"top":[],"bottom":[]}}}
