{"depmap_hotspot":{"corr":{"top":[["BCL7A",0.06743133353502642,-2.2906850528778553,24.0,1698.0],["C18orf21",0.12491572390048011,-6.701084058314411,8.0,1714.0],["CFDP1",0.06555134125649534,-2.186697977798219,31.0,1691.0],["DDX3Y",0.07505227205210774,-2.7376359865572444,11.0,1711.0],["FAM220A",0.07569932050461926,-2.7774740132017697,23.0,1699.0],["GNAI2",0.08748693580965883,-3.5556134018945276,44.0,1678.0],["IDI1",0.07372269002296335,-2.656707226313136,8.0,1714.0],["NFIA",0.07584988082742997,-2.7867864820441066,55.0,1667.0],["PON2",0.09248577013648812,-3.915873297442356,33.0,1689.0],["PRM2",0.0745671411417042,-2.7079619306523552,15.0,1707.0],["RFXAP",0.10216060664806008,-4.6650043935283305,17.0,1705.0],["TCTN1",0.06817362609054936,-2.3324233547967292,31.0,1691.0],["TMEM54",0.06486561593445293,-2.1493822556214877,20.0,1702.0],["TNIP3",0.06488866725064707,-2.150631342640638,39.0,1683.0]],"bottom":[["ALDOC",-0.0760350394300762,-2.798261012588529,30.0,1692.0],["ANKHD1",-0.07686025573341615,-2.84969723441907,145.0,1577.0],["AQPEP",-0.08083143352488642,-3.1040144715627065,121.0,1601.0],["ATP6V0A4",-0.06659749224293994,-2.2442586802151827,81.0,1641.0],["C5orf47",-0.06480965235395321,-2.1463512824254747,17.0,1705.0],["CALB1",-0.07802257177543706,-2.922967464900825,33.0,1689.0],["DLG1",-0.06992322228056111,-2.432329315545371,77.0,1645.0],["ELOF1",-0.08084649609812174,-3.1050005561769893,15.0,1707.0],["FAM127B",-0.06972074519609567,-2.420657450628583,8.0,1714.0],["FBP1",-0.08696029298825662,-3.5187146382027508,31.0,1691.0],["KRTAP5-6",-0.07110440987134001,-2.500994077932349,8.0,1714.0],["KYNU",-0.06564206601794531,-2.191659559269064,57.0,1665.0],["LRRIQ1",-0.07817528155753742,-2.932665579720699,193.0,1529.0],["MTHFD1",-0.07624055809150289,-2.811025820598757,69.0,1653.0],["PHTF2",-0.08575332256803382,-3.4349059433594213,64.0,1658.0],["PRAF2",-0.0645417664909038,-2.1318728257711954,12.0,1710.0],["PRAMEF11",-0.0654643444267799,-2.1819456571158273,46.0,1676.0],["PROSER2",-0.08218429977811895,-3.193229980062906,40.0,1682.0],["ROBO3",-0.0790514619420201,-2.9886307303037105,119.0,1603.0],["RUFY4",-0.08044317661063727,-3.0786529841906907,60.0,1662.0],["TMEM237",-0.06602318769373731,-2.212565125920563,38.0,1684.0],["WNT1",-0.06824036466064058,-2.336194895198421,43.0,1679.0],["ZNF555",-0.08442570904064862,-3.3439350133051007,42.0,1680.0],["ZNF676",-0.06868166248400952,-2.361212142578529,84.0,1638.0]]},"para":{"top":[["ANP32E",0.06971449236689885,-2.717851341823982,16.0,1706.0],["GABARAPL3",0.05971927817431485,-2.1789799054043906,9.0,1713.0],["KCNJ13",0.06672982942485493,-2.549828972584157,22.0,1700.0],["LGALS3",0.06366066241732199,-2.3833894590504165,21.0,1701.0],["MAGOH",0.06807349178594437,-2.6245420580167886,8.0,1714.0],["MDP1",0.06469202615515357,-2.438573096523378,18.0,1704.0],["RFXAP",0.06293821680245337,-2.34512204839183,17.0,1705.0],["RPL27A",0.07012145861984909,-2.7412894320934913,21.0,1701.0],["SRXN1",0.0474454314330672,-1.610210369102089,12.0,1710.0],["STX7",0.060237682835190154,-2.205333209020208,15.0,1707.0],["TCEB2",0.05044446324878204,-1.7398600647420712,10.0,1712.0],["UBE2QL1",0.06240522057178565,-2.317110405405675,14.0,1708.0],["VCX3B",0.0634863965070318,-2.3740928096592495,16.0,1706.0]],"bottom":[["C22orf34",-0.06496294014486638,-2.4532365411608854,24.0,1698.0],["ELOF1",-0.0778444604227272,-3.2069945896573975,15.0,1707.0],["FBP1",-0.08131290258708936,-3.429849584664872,31.0,1691.0],["KLRF2",-0.051434603508007284,-1.7840287051623385,13.0,1709.0],["P2RY13",-0.07273577237572934,-2.89432924430766,24.0,1698.0],["PAGE3",-0.053359309902118165,-1.8715954422333025,8.0,1714.0],["TP53TG5",-0.07140077575860002,-2.815618458531447,28.0,1694.0]]}}}
{"depmap_damaging":{"corr":{"top":[["ATP13A5",0.09639871395257378,-4.2084418672199755,23.0,1698.0],["CEP250",0.07518165935207312,-2.7442392404228504,21.0,1700.0],["FOXD4",0.06741597732490456,-2.2887311578499414,9.0,1712.0],["NCOA7",0.08774962625465463,-3.572303062767312,35.0,1686.0],["ODF2L",0.07050075911139257,-2.464591404809324,25.0,1696.0],["PRDX6",0.06553848782963415,-2.1849562790475363,24.0,1697.0],["SKIL",0.06923892044053094,-2.3918486891487647,17.0,1704.0],["SRPK3",0.06301646051027295,-2.049417125589253,10.0,1711.0],["TMEM256-PLSCR3",0.061232275010162436,-1.9561931757162385,8.0,1713.0]],"bottom":[["APPBP2",-0.05785068112937825,-1.7855220784291272,11.0,1710.0],["ARHGAP12",-0.06274463389653182,-2.0350720004355973,14.0,1707.0],["CBL",-0.06524508372847454,-2.1689609009883117,9.0,1712.0],["COL5A1",-0.07175425406824902,-2.5379618010730356,29.0,1692.0],["FAM188A",-0.06560447231170326,-2.1885617803054247,9.0,1712.0],["GBP2",-0.054823260124594916,-1.6393669890320666,8.0,1713.0],["GSN",-0.07448921872453314,-2.7018948748140805,9.0,1712.0],["IFT140",-0.05883071316773573,-1.8341767377005378,11.0,1710.0],["KCNQ1",-0.061963393661917554,-1.9941281722500557,20.0,1701.0],["LRRC37B",-0.06821186749118593,-2.3334656878855466,28.0,1693.0],["MAST4",-0.06113312539337426,-1.9510770823275512,21.0,1700.0],["PPFIA3",-0.060645775670247974,-1.9260285041588925,10.0,1711.0],["STXBP2",-0.0641891062198331,-2.111888197925656,10.0,1711.0],["WNT1",-0.06137889941968735,-1.9637713855232772,14.0,1707.0],["ZEB1",-0.0594340221620177,-1.8644561424616624,15.0,1706.0]]},"para":{"top":[["ACTL6B",0.07466563731736707,-3.0088260407678726,9.0,1712.0],["CCDC50",0.07367647369995817,-2.949077485269522,9.0,1712.0],["CDH20",0.05754583266753798,-2.070084413621448,11.0,1710.0],["CNGB1",0.0702395714306129,-2.746854448382399,14.0,1707.0],["EPHA6",0.06463769437749234,-2.434606087370552,15.0,1706.0],["FAM168A",0.0682962336950747,-2.6360311261667713,11.0,1710.0],["LRCH2",0.07115752300830466,-2.8000892654519793,14.0,1707.0],["RAB3GAP2",0.0715783874640844,-2.8247534587038605,20.0,1701.0],["SIX3",0.06477642013669138,-2.4420025714391214,10.0,1711.0],["SLC7A10",0.05572714450024992,-1.9820610253581212,8.0,1713.0],["ZDHHC11",0.06933732598356457,-2.695084939398539,13.0,1708.0]],"bottom":[["APPBP2",-0.05728899714810873,-2.057526688886201,11.0,1710.0],["FAM188A",-0.06745771554788732,-2.5889957420095393,9.0,1712.0],["STXBP2",-0.05838264354403304,-2.1112916350810464,10.0,1711.0],["USP16",-0.06896559033618177,-2.6739725709120963,17.0,1704.0],["ZNF479",-0.06350916897675497,-2.3742148928065387,9.0,1712.0]]}}}
{"ccle_chromatin":{"corr":{"top":[["H3K27me2K36me0",0.1581500646926995,-5.695867752674098,894]],"bottom":[]},"para":{"top":[],"bottom":[]}}}
{"ccle_rppa":{"corr":{"top":[],"bottom":[["RPS6_S6_pS235_S236",-0.15001192102013908,-5.192625359215148,897]]},"para":{"top":[],"bottom":[]}}}
{"ccle_rrbs_enhancer_clusters":{"corr":{"top":[],"bottom":[["2-220269494-220274006-1_enh",-0.14402611760328388,-4.496845891060638,828]]},"para":{"top":[],"bottom":[]}}}
{"prism_primary_logfold":{"corr":{"top":[["OCO-1112_BRD-K22097830-001-01-9::2.5::HTS",0.15047831714980062,-3.405073722517281,551],["MK-0773_BRD-K38868394-001-01-3::2.5::HTS",0.17556190039316186,-4.409397344586916,543],["BP-554_BRD-K45479396-050-01-5::2.5::HTS",0.1343660949109883,-2.838140875174489,559],["doxofylline_BRD-K70507123-001-09-7::2.5::HTS",0.1897377421609668,-5.186056427022473,557]],"bottom":[]},"para":{"top":[["MK-0773_BRD-K38868394-001-01-3::2.5::HTS",0.1658868728050684,-3.987472094106251,543],["dimethindene-(S)-(+)_BRD-K83192048-050-02-7::2.5::HTS",0.14107812732825897,-3.0373160383242004,549]],"bottom":[["osimertinib_BRD-K42805893-001-04-9::2.5::HTS",-0.18285226917489253,-4.8665396584518295,559]]}}}
{"ccle_proteomics":{"corr":{"top":[["UCHL3_P15374",0.4629961666120313,-20.542330703790103,374]],"bottom":[["NPR1_P16066",-0.3259114545552932,-3.889092213187301,133],["TNFRSF12A_Q9NP84",-0.3220344139207853,-7.597306334070164,286],["CECR2_Q9BXF3",-0.30601856939234023,-2.8934610316047378,108],["EFNA5_P52803",-0.36755856640544815,-9.785949821051823,284]]},"para":{"top":[["UCHL3_P15374",0.43518711746512084,-17.98789498020375,374],["GPR180_Q86V85",0.3736025056935075,-11.610602536056177,329]],"bottom":[["SOX1_O00570",-0.2531958322295646,-2.626324460484976,142]]}}}
{"depmap_copy_number":{"corr":{"top":[["LINC00397_101930749",0.9980371512618319,-323.0051853474518,1745],["LINC00351_100874137",0.9503788635517817,-323.0051853474518,1745],["LINC00375_104355140",0.9475226574862124,-323.0051853474518,1745],["SLITRK6_84189",0.9487725020304745,-323.0051853474518,1745],["LINC00560_100861553",1.0,-323.0051853474518,1745],["MIR4500HG_642345",0.9959918397929317,-323.0051853474518,1745],["MIR4500_100616182",0.9949521330175217,-323.0051853474518,1745],["SLITRK5_26050",0.9949521330175217,-323.0051853474518,1745],["LINC00373_105370306",0.9990398498362589,-323.0051853474518,1745],["LINC00430_106144533",0.9928382004234009,-323.0051853474518,1745]],"bottom":[]},"para":{"top":[["LINC00397_101930749",0.9992709256395311,-323.0051853474518,1745],["LINC00351_100874137",0.9776722827670117,-323.0051853474518,1745],["LINC00375_104355140",0.9750456074263991,-323.0051853474518,1745],["SLITRK6_84189",0.9757718525521508,-323.0051853474518,1745],["SLITRK1_114798",0.9621719726427882,-323.0051853474518,1745],["MIR4500HG_642345",0.9967748150782264,-323.0051853474518,1745],["MIR4500_100616182",0.9967472096899961,-323.0051853474518,1745],["SLITRK5_26050",0.9967472096899961,-323.0051853474518,1745],["LINC00373_105370306",0.9992709391898503,-323.0051853474518,1745],["LINC00430_106144533",0.9927117760008012,-323.0051853474518,1745]],"bottom":[]}}}
{"depmap_gene_tpm":{"corr":{"top":[],"bottom":[["HECTD2_143279",-0.22688884245943544,-15.83146258426209,1293],["ATL3_25923",-0.25778249263684383,-20.346192198256276,1293]]},"para":{"top":[],"bottom":[["SPDYA_245711",-0.21993484608821348,-14.901494479167079,1293]]}}}
{"avana":{"corr":{"top":[],"bottom":[["GPR183_1880",-0.18049215452621162,-6.328636714572606,769],["FGF14_2259",-0.2298000773359313,-9.947580411836011,769]]},"para":{"top":[["RBM27_54439",0.3216118049184259,-19.237425640846233,769]],"bottom":[["E2F1_1869",-0.16262809801833925,-5.16179613266895,757],["ATIC_471",-0.1459309268861847,-4.312824200312909,769],["GPR183_1880",-0.16994211441737608,-5.6690634732093805,769],["ADPRHL1_113622",-0.16986655448513963,-5.664481326495278,769],["FGF14_2259",-0.20851491108614043,-8.27494217484147,769]]}}}
{"drive":{"corr":{"top":[["GPR87_53836",0.2216107944109387,-4.851635628091992,377],["NAA40_79829",0.21252634476879015,-4.4980642620400415,377],["HMGB3_3149",0.22954623188138137,-5.209636890402944,380]],"bottom":[["HK1_3098",-0.19320452984529854,-3.8915123614250446,388]]},"para":{"top":[],"bottom":[["VCAM1_7412",-0.22392534370259973,-5.072756376422818,388],["TPR_7175",-0.2159767116899451,-4.630598116473642,377]]}}}
{"achilles":{"corr":{"top":[["TIMM10_26519",0.20364755982050387,-3.216748783459333,280],["MVB12B_89853",0.2127482280432594,-3.472539444691575,280],["ITPRIPL1_150771",0.1962394025059259,-3.016467738394505,280],["CYP27A1_1593",0.20200824103568826,-3.171819332165292,280],["LOC107987397_107987397",0.1970747444233666,-3.038698127485627,280]],"bottom":[["FRRS1L_23732",-0.22763804674352603,-3.9146503021003345,280],["AREG_374",-0.23999070449927112,-4.304137794402161,280],["GDPD3_79153",-0.2202992284816911,-3.6930478652583676,280],["TUBB6_84617",-0.21083424838699488,-3.4178433429382533,280]]},"para":{"top":[["CYP27A1_1593",0.20206573609460046,-3.173389234841533,280],["MVB12B_89853",0.23641668699819943,-4.189299778014908,280],["ZDHHC6_64429",0.21940137692373687,-3.6664316799864034,280]],"bottom":[["CEP41_95681",-0.27147502950912367,-5.393327201010536,280],["AREG_374",-0.2710147809403311,-5.3763801955211665,280],["GDPD3_79153",-0.2189369442298924,-3.6527060550702295,280],["MAPRE1_22919",-0.22730345192744775,-3.9043892260575026,280]]}}}
{"ccle_rrbs_tss1kb":{"corr":{"top":[["FNDC3A_13_49549744_49550744",0.26029548302554856,-13.547439757644895,827],["NR3C2_4_149365850_149366850",0.18817877394547655,-7.303120524072014,827],["ENTPD6_20_25175548_25176548",0.19191844282771336,-7.575358063585947,827]],"bottom":[["FGR_1_27961727_27962727",-0.21456452738759638,-8.575386551311405,754]]},"para":{"top":[],"bottom":[["FGR_1_27961727_27962727",-0.21662633879485566,-8.731581489421155,754],["LYL1_19_13213974_13214974",-0.19258105994263242,-7.607252400460706,825]]}}}
{"ccle_gene_tpm":{"corr":{"top":[],"bottom":[["GAS2L3_ENSG00000139354.6",-0.2402661168577718,-14.015573956234325,1011],["ATL3_ENSG00000184743.8",-0.2565757767258532,-15.935614660716846,1011],["ITGAV_ENSG00000138448.7",-0.22991385466785222,-12.86819644624396,1011],["RNF11_ENSG00000123091.4",-0.2774104091790365,-18.593668423694766,1011]]},"para":{"top":[],"bottom":[["SPDYA_ENSG00000163806.11",-0.2176863971866405,-11.582896771650253,1011],["GAS2L3_ENSG00000139354.6",-0.2155013459535604,-11.36108784632537,1011],["ATL3_ENSG00000184743.8",-0.23677313225024504,-13.622307234393283,1011],["BTF3L4_ENSG00000134717.13",-0.21113514093304214,-10.924951600917721,1011]]}}}
{"ccle_rrbs_tss_clusters":{"corr":{"top":[["FNDC3A",0.24978974547790023,-12.674234936777339,839],["LOC643542_2",0.20019855002185627,-7.6399857449394695,766],["MAGI3_3",0.2190998032812964,-9.884045580582903,842],["C17orf97_2",0.21081708789165068,-4.982623204083348,430],["GLRB_2",0.20167582827765831,-6.114666594026588,591]],"bottom":[["CSK_1",-0.23042587324624972,-8.372085598260156,635],["RNF7_1",-0.23399877133408983,-10.972362099122524,823]]},"para":{"top":[["KLF11_3",0.2011750802221392,-8.41104735505588,842],["TEX30_2",0.18908574091649522,-7.417564830942036,833]],"bottom":[["LYL1_3",-0.20678022095642937,-8.808902444721982,837],["CSK_1",-0.21436923644262926,-7.309626525808678,635],["FGR_3",-0.2197595906614885,-9.368582814769928,790],["LYL1_1",-0.20697730011760934,-8.834497046747941,838],["TRABD_4",-0.21413365414170166,-9.40013386228893,836]]}}}
{"ccle_rrbs_cgi_clusters":{"corr":{"top":[["7_82072771_82075520-2",0.2686009607751768,-4.896769275866402,257],["14_61115327_61118552-1",0.22359571137631967,-6.265408111608419,492],["1_113933325_113936070-1",0.21643876868117298,-9.657049603098447,842],["13_49547822_49550432-1",0.2465908166082107,-12.305794621979272,835],["13_49550432_49553042-1",0.23440571326301243,-11.184375634433088,837]],"bottom":[["17_61774890_61777812-2",-0.23242517052763026,-10.991225311505103,836],["15_75072425_75077146-1",-0.23042587324624972,-8.372085598260156,635],["3_141454881_141459591-1",-0.23399877133408983,-10.972362099122524,823],["21_44874603_44878827-3",-0.25331782732432484,-12.863325604520739,828]]},"para":{"top":[["13_103448877_103452047-2",0.21710546957069815,-3.5093537399716035,272]],"bottom":[["15_75072425_75077146-1",-0.21436923644262926,-7.309626525808678,635],["21_44874603_44878827-3",-0.2573249025616787,-13.262514773809297,828],["1_228159368_228163576-3",-0.2630441658110198,-5.31559490457055,294]]}}}
