{"depmap_hotspot":{"corr":{"top":[["ADAM20",0.07631354871861144,-2.815566511108168,70.0,1652.0],["DMTN",0.07051747573783848,-2.4667517158775487,53.0,1669.0],["DSCR4",0.07566380187816943,-2.775279460143563,23.0,1699.0],["NPAS2",0.06563840954929799,-2.1914594823461666,72.0,1650.0]],"bottom":[["B3GNT7",-0.0750746859825817,-2.739011017050383,30.0,1692.0],["BIVM",-0.10029449230251868,-4.515153282298034,27.0,1695.0],["C20orf78",-0.08388654513596557,-3.307353163976932,17.0,1705.0],["CTNND2",-0.10055559004631075,-4.535965138514683,168.0,1554.0],["DNAJC17",-0.07308269821749667,-2.618198673217961,26.0,1696.0],["EHD3",-0.07463301474331575,-2.711981434861972,58.0,1664.0],["FAM135B",-0.08704849664885553,-3.524880556830376,225.0,1497.0],["FOXA3",-0.08909999040915903,-3.669880774147745,48.0,1674.0],["FSCN3",-0.08006695996906013,-3.054180965780632,57.0,1665.0],["GDF6",-0.08404057273445249,-3.3177824508905656,83.0,1639.0],["KCNQ3",-0.07497391391714527,-2.73283174073594,112.0,1610.0],["KIAA0355",-0.09303690368444271,-3.9567058202087475,95.0,1627.0],["LAD1",-0.07898641343966072,-2.9844569827357805,49.0,1673.0],["LAYN",-0.07265064367207404,-2.5923655629884252,33.0,1689.0],["LPPR5",-0.08192537407094432,-3.1760533642517306,44.0,1678.0],["MAGEA2B",-0.07880989027824685,-2.9731458484007014,30.0,1692.0],["MLF1",-0.08452593249674627,-3.350758181774304,28.0,1694.0],["NBPF9",-0.07425722802948137,-2.6890927959203115,68.0,1654.0],["NKAIN2",-0.07751963319496437,-2.8911450020192326,24.0,1698.0],["OR5L2",-0.09888516785933278,-4.403684538916293,62.0,1660.0],["PAX1",-0.07786181082887915,-2.912776017739946,73.0,1649.0],["PIH1D3",-0.07256089555808175,-2.5870159523861473,19.0,1703.0],["PLA2G5",-0.08601640226901829,-3.4530837458817607,18.0,1704.0],["REG3G",-0.08330462927926297,-3.268105496668778,58.0,1664.0],["RNASE10",-0.088709579951969,-3.6420513987870455,21.0,1701.0],["SARS2",-0.0727819386303644,-2.6002019066867983,30.0,1692.0],["SERPINF2",-0.07425813922911516,-2.6891481747543677,32.0,1690.0],["SLC35F4",-0.07663931339429121,-2.83587827712527,53.0,1669.0],["SPEG",-0.07423941656775795,-2.6880104092639154,275.0,1447.0],["SULF2",-0.07439602548630457,-2.697535095614812,94.0,1628.0],["TBX5",-0.07313336358723763,-2.62123666717987,72.0,1650.0],["TOP1",-0.08042658978464146,-3.077571914285666,54.0,1668.0],["TRIM10",-0.07576325977456744,-2.781426822378551,46.0,1676.0],["TRMT2B",-0.0778592379449287,-2.9126130594909845,27.0,1695.0],["TTN",-0.08845148342659577,-3.6237143774627087,1215.0,507.0],["TXNDC12",-0.0730464884127397,-2.6160285751834143,18.0,1704.0],["UBN2",-0.08227326086740763,-3.199142593079135,127.0,1595.0],["ZFAT",-0.07534624132186331,-2.7556984886309266,129.0,1593.0],["ZNF534",-0.10935832195195146,-5.267146975314705,81.0,1641.0]]},"para":{"top":[["DSCR4",0.07534210298753803,-3.051604577880751,23.0,1699.0],["TPPP",0.0659291837286251,-2.5057877939469133,22.0,1700.0]],"bottom":[["ATP6V1G1",-0.05673347698284767,-2.0313566633384808,14.0,1708.0],["BIVM",-0.08640975687352015,-3.772481102183162,27.0,1695.0],["C8orf22",-0.05418812289816995,-1.9101897122763951,13.0,1709.0],["ENY2",-0.06380937423141203,-2.3912638104355395,16.0,1706.0],["MYL9",-0.06810293104462407,-2.626300591111099,13.0,1709.0],["NDP",-0.08073765377427043,-3.39213353322208,11.0,1711.0],["NKAIN2",-0.0871458308870144,-3.8234604536854855,24.0,1698.0],["PLA2G5",-0.083243144746803,-3.557373744114423,18.0,1704.0],["RNASE10",-0.07353315883198851,-2.9419259410577907,21.0,1701.0],["TRMT2B",-0.0781204761374218,-3.2245107120701126,27.0,1695.0]]}}}
{"depmap_damaging":{"corr":{"top":[["ABCC12",0.05642373409580657,-1.7158546719747172,18.0,1703.0],["DENND6B",0.048351181113888544,-1.3477239777661694,8.0,1713.0],["FGD2",0.05816747273400086,-1.8011775421005,8.0,1713.0],["SETD6",0.07946531973120886,-3.0137708432275936,8.0,1713.0],["SORBS3",0.06408721820798785,-2.106422414116536,13.0,1708.0],["TMX3",0.06240367001053744,-2.0171505966763483,8.0,1713.0],["UGT1A4",0.06608437055018249,-2.2148754623421296,10.0,1711.0]],"bottom":[["ATXN2",-0.057878503551710835,-1.7868942776372665,13.0,1708.0],["BRCA1",-0.09013274671586459,-3.7421476490647625,27.0,1694.0],["CYP39A1",-0.057638953788373054,-1.7750970581887777,10.0,1711.0],["CYP4F11",-0.10562513563730813,-4.947485837685736,11.0,1710.0],["DENND2C",-0.06582268170848458,-2.2005066993615165,10.0,1711.0],["FAM135B",-0.07704578216701187,-2.8599261159023435,25.0,1696.0],["GLMN",-0.064828324053716,-2.146343578123561,8.0,1713.0],["GPR126",-0.07963678436243617,-3.024831834306289,13.0,1708.0],["ID1",-0.07968818867090671,-3.028151962506012,9.0,1712.0],["IL18RAP",-0.07151859423528065,-2.524083538617712,8.0,1713.0],["NALCN",-0.0733027933396475,-2.6301315775214076,30.0,1691.0],["PAPPA2",-0.08523702797086156,-3.3976824082571966,35.0,1686.0],["PDE9A",-0.06431402721666267,-2.118599423340416,12.0,1709.0],["TBX5",-0.06496145529554687,-2.153555406531307,9.0,1712.0],["TENM4",-0.08597491782806428,-3.4484913580523586,27.0,1694.0],["TP53",-0.12093186479059802,-6.313189730943214,375.0,1346.0],["UBN2",-0.08474811472830426,-3.3642335568918913,43.0,1678.0],["ZC3H14",-0.05931182371157265,-1.858302956926901,15.0,1706.0]]},"para":{"top":[["ABCC12",0.06303593734191033,-2.349315631574335,18.0,1703.0],["AP3D1",0.05513167900680908,-1.9538551815545284,15.0,1706.0],["DENND6B",0.053578101399659385,-1.880994662287436,8.0,1713.0],["GLRA3",0.04928815467029514,-1.688513867996935,9.0,1712.0],["KCNT1",0.06589796970930507,-2.502846653672088,8.0,1713.0],["KL",0.05694204807525624,-2.040596399143191,9.0,1712.0],["SLCO4A1",0.05925229057228056,-2.1545916849691187,8.0,1713.0]],"bottom":[["CELF2",-0.05417724124147261,-1.908882085600507,9.0,1712.0],["CYP4F11",-0.08526246888979985,-3.691884806842365,11.0,1710.0],["GLMN",-0.059071748189515334,-2.145550905946884,8.0,1713.0],["GPR126",-0.06594710139727654,-2.50563478434362,13.0,1708.0],["IL18RAP",-0.06391200349888766,-2.395610780105837,8.0,1713.0],["NALCN",-0.08484579865279539,-3.6637339326711973,30.0,1691.0],["TBX5",-0.06228517917045687,-2.309806712502008,9.0,1712.0]]}}}
{"ccle_rppa":{"corr":{"top":[],"bottom":[]},"para":{"top":[["CCNB1_Cyclin_B1",0.1858385733422817,-7.686441948824441,897]],"bottom":[]}}}
{"ccle_rrbs_enhancer_clusters":{"corr":{"top":[["2-182549041-182553809-2_enh",0.1690817061477015,-5.9970066235302575,827]],"bottom":[]},"para":{"top":[],"bottom":[]}}}
{"ccle_mirna":{"corr":{"top":[],"bottom":[["hsa-miR-545_miR00479.2",-0.1994461416010627,-9.26184803296184,951]]},"para":{"top":[],"bottom":[["hsa-miR-1266_miR00083.1",-0.22987548951452308,-12.143849593096515,951],["hsa-miR-30b_miR00288.1",-0.19566802764755817,-8.93382341874395,951]]}}}
{"prism_primary_logfold":{"corr":{"top":[["molindone_BRD-A65280694-003-13-7::2.5::HTS",0.14812361154612488,-3.328811524027906,554]],"bottom":[["mevalonic-d,-l-acid-lactone_BRD-A05674712-001-06-0::2.5::HTS",-0.16412902895783682,-3.80625606942581,526]]},"para":{"top":[],"bottom":[]}}}
{"prism_secondary_logfold":{"corr":{"top":[],"bottom":[["halobetasol-propionate_BRD-K65877271-001-01-8::2.5::HTS002",-0.16789095483385844,-3.5650983616753553,466]]},"para":{"top":[["SCH-58261_BRD-K81225797-001-02-3::2.5::HTS002",0.1582023482229607,-3.1087646840943104,448]],"bottom":[["ganetespib_BRD-K38852836-001-02-1::0.00976562::HTS002",-0.16222230630361448,-3.3767189529950365,469],["halobetasol-propionate_BRD-K65877271-001-01-8::0.0390625::HTS002",-0.14636022732062703,-2.8140261126395965,466]]}}}
{"ccle_proteomics":{"corr":{"top":[["NLN_Q9BYT8",0.31790757679129045,-9.502261965120832,374],["PPWD1_Q96BP3",0.33007045095350007,-10.22915634868744,374],["SGTB_Q96EQ0",0.33112915572031704,-10.293970529266819,374],["ERBB2IP_Q96RT1-8",0.3726694074556439,-13.040261528684159,374],["LRRC7_Q96NW7",0.348452934321631,-10.644446962874188,348],["RAD17_O75943",0.3019949905773606,-8.023266038181102,347]],"bottom":[["RECQL4_O94761",-0.21630463457668261,-4.028787464656424,321],["UBE2J2_Q8N2K1",-0.21671645010705307,-4.329450212616172,347],["RMND5A_Q9H871",-0.230418059463703,-5.171624099270345,374]]},"para":{"top":[["EFNB3_Q15768",0.2973352769782717,-2.750113382562929,108],["NLN_Q9BYT8",0.3227747903090239,-9.789253816935897,374],["PPWD1_Q96BP3",0.30127998311254883,-8.560185273712856,374],["SGTB_Q96EQ0",0.38569296968359557,-13.986509464249377,374],["ERBB2IP_Q96RT1-8",0.36402468395636844,-12.435227506251751,374],["LRRC7_Q96NW7",0.3388244251991407,-10.069035379135459,348],["FAM102A_Q5T9C2",0.34079469191491796,-3.769560739454327,117]],"bottom":[]}}}
{"depmap_copy_number":{"corr":{"top":[["MAST4-AS1_101928794",0.9848594948777425,-323.0051853474518,1745],["CD180_4064",0.976892534158394,-323.0051853474518,1745],["TRAPPC13_80006",0.9415001754140416,-323.0051853474518,1745],["SGTB_54557",0.9464958593431795,-323.0051853474518,1745],["SHLD3_112441434",0.9415001754140416,-323.0051853474518,1745],["ERBIN_55914",0.9433681432159549,-323.0051853474518,1745],["SREK1_140890",0.9768340334454505,-323.0051853474518,1745],["LINC02065_101928741",0.9842832847140299,-323.0051853474518,1745],["LOC100303749_100303749",0.9433681432159549,-323.0051853474518,1745],["LINC02242_105379006",0.9706127449598094,-323.0051853474518,1745],["CENPK_64105",0.9421491607701126,-323.0051853474518,1745],["TRIM23_373",0.9405487511861864,-323.0051853474518,1745]],"bottom":[["DLGAP1-AS3_201477",-0.13687802376135835,-8.025743587267577,1745],["MIR6718_102465430",-0.13687802376135835,-8.025743587267577,1745],["DLGAP1-AS5_284215",-0.13866201139757262,-8.220718520873008,1745],["DLGAP1-AS2_84777",-0.13730248361443356,-8.071907923985703,1745],["DLGAP1-AS4_101410534",-0.1369825640673581,-8.037100346382605,1745]]},"para":{"top":[["MAST4-AS1_101928794",0.9933384443374684,-323.0051853474518,1745],["CD180_4064",0.988266122488917,-323.0051853474518,1745],["LINC02229_101928769",1.0,-323.0051853474518,1745],["PIK3R1_5295",0.9725315050288896,-323.0051853474518,1745],["SGTB_54557",0.9679149183509457,-323.0051853474518,1745],["TRAPPC13_80006",0.9658055459116732,-323.0051853474518,1745],["LINC02219_102467655",0.9725315050288896,-323.0051853474518,1745],["SHLD3_112441434",0.9658055459116732,-323.0051853474518,1745],["ERBIN_55914",0.9678697664585911,-323.0051853474518,1745],["SREK1_140890",0.983930013752939,-323.0051853474518,1745],["LINC02065_101928741",0.9872424668676735,-323.0051853474518,1745],["LOC100303749_100303749",0.9678697664585911,-323.0051853474518,1745],["LINC02242_105379006",0.9836129764148077,-323.0051853474518,1745],["LOC101928858_101928858",0.9725308528667005,-323.0051853474518,1745],["CENPK_64105",0.9684844949913094,-323.0051853474518,1745],["TRIM23_373",0.9662968924084916,-323.0051853474518,1745]],"bottom":[]}}}
{"depmap_gene_tpm":{"corr":{"top":[["TRAPPC13_80006",0.4132121682188313,-53.7579907564034,1293]],"bottom":[]},"para":{"top":[],"bottom":[]}}}
{"avana":{"corr":{"top":[["MRPS27_23107",0.24373306809325226,-11.136258158279107,769],["CENPH_64946",0.3468747087988634,-22.099251244355496,757],["RAD17_5884",0.22286657474726593,-9.38391615462319,769]],"bottom":[["GGPS1_9453",-0.15414038265831173,-4.754147585117826,769],["AGO2_27161",-0.15709782936762873,-4.91879669643608,769]]},"para":{"top":[["CENPH_64946",0.35970456803769246,-23.8129790529605,757],["RAD17_5884",0.22968272831815495,-9.937887551915455,769]],"bottom":[["NOP2_4839",-0.15362251809221583,-4.725626354551219,769]]}}}
{"drive":{"corr":{"top":[["UTP15_84135",0.35291888954402867,-11.86090026864001,380],["RAP1A_5906",0.21511564258629234,-4.59732244265124,377],["KIF21B_23046",0.21223884502145074,-4.518717386017394,380]],"bottom":[["RXRB_6257",-0.15640261488992097,-2.6515279937271443,380]]},"para":{"top":[],"bottom":[["CIAO1_9391",-0.18057516479041535,-3.455437352109772,388]]}}}
{"achilles":{"corr":{"top":[],"bottom":[["RPL10L_140801",-0.22862385307303024,-3.94497019245173,280],["RPL30_6156",-0.2611340295972874,-5.019987475598801,280]]},"para":{"top":[],"bottom":[["ANKRD26P1_124149",-0.20946792902782574,-3.3790921246558434,280],["RPL18A_6142",-0.25504972681057725,-4.807521778322134,280],["EPHA4_2043",-0.22405316729669214,-6.312366680184984,494]]}}}
{"ccle_rrbs_tss1kb":{"corr":{"top":[["LOC102723376_18_11074_12074",0.18010798991970553,-6.711841290450804,824],["PHYH_10_13342130_13343130",0.22677684118473437,-10.215596296864678,813]],"bottom":[]},"para":{"top":[],"bottom":[]}}}
{"ccle_gene_tpm":{"corr":{"top":[["PPWD1_ENSG00000113593.7",0.4229605115039931,-44.414378854851314,1011]],"bottom":[]},"para":{"top":[],"bottom":[]}}}
{"ccle_rrbs_tss_clusters":{"corr":{"top":[["ANKRD20A5P_1",0.23805021973070886,-11.159648431254508,809]],"bottom":[["ILDR1_3",-0.19463787910197025,-3.85382520412987,378]]},"para":{"top":[],"bottom":[]}}}
{"ccle_rrbs_cgi_clusters":{"corr":{"top":[["19_5041658_5046441-2",0.24981808675139916,-4.05353231664866,241],["18_14176943_14181710-1",0.23805021973070886,-11.159648431254508,809],["12_34489006_34493271-3",0.21521399998644988,-9.490278725039188,836]],"bottom":[]},"para":{"top":[],"bottom":[["1_38225079_38229741-3",-0.18359514210654249,-3.2942854686318133,355]]}}}
