{"depmap_hotspot":{"corr":{"top":[["AP3S1",0.11665185437590728,-5.91671381714861,25.0,1697.0],["ARHGEF15",0.1127254348421207,-5.562073227737955,61.0,1661.0],["ASB6",0.13932587114441639,-8.193269725709952,30.0,1692.0],["ATP5O",0.16876678610016052,-11.743743315514694,9.0,1713.0],["C14orf80",0.10430761656881365,-4.8405953971477285,52.0,1670.0],["C1orf111",0.11951741850019418,-6.182855059904621,26.0,1696.0],["C1orf146",0.10845999288817171,-5.189892257765827,14.0,1708.0],["C1orf194",0.11230717214349283,-5.524976417751597,14.0,1708.0],["C6orf1",0.10261273120631771,-4.70169750751839,15.0,1707.0],["C6orf203",0.1134120713759899,-5.623256895103063,14.0,1708.0],["CACNA1F",0.11376075747012832,-5.654462293901754,139.0,1583.0],["CELSR3",0.1161398022814275,-5.86980789074134,247.0,1475.0],["CGA",0.14540867856373962,-8.871162580830573,16.0,1706.0],["CLEC4D",0.10809708312102716,-5.1588531641211945,26.0,1696.0],["COMMD7",0.10612605532723507,-4.991985659538892,22.0,1700.0],["DMTF1",0.10098136457659349,-4.5700110549114425,61.0,1661.0],["EMP1",0.15070399546526758,-9.48473476005698,16.0,1706.0],["FAM174A",0.13622745523965163,-7.8589746378674965,15.0,1707.0],["FAM198A",0.10405532907709111,-4.819785411453284,34.0,1688.0],["FKBP3",0.10997928858399918,-5.320900732847675,22.0,1700.0],["GLOD4",0.10985537052402947,-5.3101508337813375,24.0,1698.0],["GLTPD2",0.12474159865088827,-6.684023451868719,20.0,1702.0],["GRXCR1",0.10308503893070146,-4.740190033575347,50.0,1672.0],["GSTM5",0.11653808847256426,-5.906275384166502,27.0,1695.0],["HTN1",0.20950561884967556,-17.806670414088494,10.0,1712.0],["KRTAP10-9",0.12128992739488247,-6.350580140157511,30.0,1692.0],["KRTAP19-4",0.11245380401015184,-5.537966672171475,18.0,1704.0],["LAPTM5",0.10285196666207623,-4.7211742980340645,30.0,1692.0],["LRCH1",0.1262313548819217,-6.830733172478068,53.0,1669.0],["LYZL1",0.11253680624555387,-5.545327051676246,17.0,1705.0],["MEGF11",0.10198681456325999,-4.650940127040267,84.0,1638.0],["MGARP",0.12225879902717755,-6.443264864283248,16.0,1706.0],["MRGPRX2",0.11797297513131363,-6.038644922295968,37.0,1685.0],["MRPS26",0.14596000659834357,-8.93402516395284,14.0,1708.0],["NUDT17",0.10770862707927002,-5.125737791133681,36.0,1686.0],["OBFC1",0.14654441914882976,-9.000918528955456,23.0,1699.0],["OPRD1",0.12751904208617942,-6.958904161911365,46.0,1676.0],["OR2J2",0.10652324336271211,-5.025379296850885,39.0,1683.0],["PATE1",0.10977821198954274,-5.303463114752585,15.0,1707.0],["PFN3",0.15071645503444756,-9.48620430294193,16.0,1706.0],["PLEKHG5",0.10761470421083318,-5.117747848439175,82.0,1640.0],["POLR3GL",0.12827959665506355,-7.035200134184823,13.0,1709.0],["PRDX3",0.10723584960170424,-5.085585621744728,20.0,1702.0],["PRIM1",0.10136526272556051,-4.600823097246507,29.0,1693.0],["RAB18",0.14168235690809755,-8.452481882681623,10.0,1712.0],["RP11-474G23.1",0.16564311495426393,-11.334568813743568,10.0,1712.0],["RP11-766F14.2",0.10934315887525821,-5.265837986253855,106.0,1616.0],["RPS6",0.10694123136750829,-5.060648287288109,18.0,1704.0],["RSPO2",0.10383184270663469,-4.80139047253415,42.0,1680.0],["S100B",0.11163020491466719,-5.465211855735605,11.0,1711.0],["SCGB2A2",0.12521984992086826,-6.730937265380784,14.0,1708.0],["SDHAF2",0.10401611424881882,-4.81655500230709,19.0,1703.0],["SMR3B",0.13211548609476584,-7.426735617462334,14.0,1708.0],["STRA8",0.1199301375321919,-6.221696887440365,24.0,1698.0],["TCEA3",0.1554147903062718,-10.049032360418433,31.0,1691.0],["TMEM229A",0.10441232451414388,-4.849246101297124,22.0,1700.0],["TNFRSF17",0.10517812647228558,-4.912761789834686,11.0,1711.0],["TOM1",0.11033268821948218,-5.351621121133403,50.0,1672.0],["TPRX2P",0.1619141572729325,-10.856291087872554,18.0,1704.0],["TRIM39-RPP21",0.13307370507547459,-7.52630078841635,16.0,1706.0],["TSPAN19",0.10811382199889731,-5.16028265621492,23.0,1699.0],["TTC34",0.11552007840959092,-5.813302508146751,32.0,1690.0],["ZBTB6",0.10488936694814373,-4.888760979323061,24.0,1698.0]],"bottom":[["CDK11B",-0.06423354436577049,-2.1152760413134,39.0,1683.0],["HIST1H3F",-0.05321554430521588,-1.5649981608765928,23.0,1699.0],["PDE11A",-0.054276082754817094,-1.6143555399696252,102.0,1620.0],["PRKRIR",-0.06412486169226389,-2.1094395679527955,55.0,1667.0],["TMEM215",-0.06914216574634852,-2.3874637543058825,23.0,1699.0],["ZKSCAN8",-0.06079874348529158,-1.9347794305285355,43.0,1679.0]]},"para":{"top":[["C12orf45",0.06517581017901816,-2.464755736573714,23.0,1699.0],["C6orf164",0.06245773951412931,-2.3197752519902752,9.0,1713.0],["CCL26",0.058735031313438525,-2.129661637052611,11.0,1711.0],["CD164L2",0.06626979091041708,-2.5244758701648804,23.0,1699.0],["HSPB9",0.06542397483156155,-2.4781405489806936,13.0,1709.0],["IGSF6",0.08374295291797022,-3.590888452821283,23.0,1699.0],["MRPL40",0.06026035033721081,-2.206448271370582,12.0,1710.0],["OR7A17",0.06930414141886077,-2.694407209056076,19.0,1703.0],["PSPH",0.06580992135886958,-2.4992266350302605,17.0,1705.0],["RPRML",0.06630389533201932,-2.526207932399767,10.0,1712.0],["SNCG",0.07555417521969596,-3.06447277045521,11.0,1711.0],["SNRPG",0.062283380867248765,-2.310679800682091,10.0,1712.0],["TMEM88B",0.06454670647384077,-2.4306963240446255,13.0,1709.0],["UQCC1",0.07257685615056685,-2.88489805589538,25.0,1697.0]],"bottom":[["ASB9",-0.0654493970511701,-2.479508432045619,12.0,1710.0],["ATP6V1E1",-0.06912520543972542,-2.684208313050236,19.0,1703.0],["CCL16",-0.07068519822961894,-2.773695491155638,8.0,1714.0],["CD82",-0.07848207037431118,-3.2474315381192764,32.0,1690.0],["HIST1H3F",-0.05970081823955186,-2.178200185877543,23.0,1699.0],["HNRNPAB",-0.05775923252084852,-2.0813395685217193,9.0,1713.0],["IL17B",-0.06236478047801792,-2.315043118618148,19.0,1703.0],["KRBOX4",-0.058575138955140084,-2.1217210447995476,12.0,1710.0],["MOG",-0.0669020562725936,-2.5593880159281297,27.0,1695.0],["SNAP29",-0.060673306391526294,-2.22760942942368,24.0,1698.0],["ZFPL1",-0.06663035595269717,-2.5443653871646754,28.0,1694.0]]}}}
{"depmap_damaging":{"corr":{"top":[["ACSM4",0.16367997416871036,-11.075378388667328,8.0,1713.0],["ADCY10",0.09515007422749266,-4.113234350275379,23.0,1698.0],["ANO1",0.13992152255320242,-8.253972034569228,12.0,1709.0],["ARID1B",0.09611060655067356,-4.186372641653272,36.0,1685.0],["ASIC3",0.15704160852099086,-10.242417543054643,10.0,1711.0],["BIRC6",0.07515147454056402,-2.742386281761561,42.0,1679.0],["C17orf53",0.08211556256700762,-3.1870856819968245,13.0,1708.0],["CCDC84",0.1112593435288028,-5.429795122065777,11.0,1710.0],["CEP135",0.08333618228419908,-3.2686031404280507,33.0,1688.0],["CGN",0.12677716208029083,-6.881269348134982,15.0,1706.0],["CHD6",0.10121622156154553,-4.586496945586941,27.0,1694.0],["DARS2",0.08287587621410676,-3.2377365076748945,9.0,1712.0],["DDB1",0.08050510225259816,-3.0811688261465857,9.0,1712.0],["ECD",0.08518237043733387,-3.3939344739659116,47.0,1674.0],["EDC4",0.14573794041858867,-8.903894601113551,16.0,1705.0],["EDEM1",0.07905479778917793,-2.9873738797576137,10.0,1711.0],["EXO1",0.11544400535602617,-5.803355542733281,17.0,1704.0],["FBN2",0.07821309062497914,-2.9336275014593043,45.0,1676.0],["FES",0.07636201453551804,-2.817204957208467,19.0,1702.0],["FRY",0.08855129575494891,-3.6289783335316197,32.0,1689.0],["HDC",0.07331237577644609,-2.6307072012416617,10.0,1711.0],["HELZ",0.09339040495643913,-3.9809971976817278,19.0,1702.0],["HSPA8",0.12282306639032857,-6.494152860126975,10.0,1711.0],["IGHMBP2",0.16742516613305392,-11.560752006944478,10.0,1711.0],["IRAK3",0.12776772673704356,-6.980109988422305,15.0,1706.0],["KANSL3",0.07891963318602664,-2.9787090005166474,12.0,1709.0],["KAT6A",0.09876593695068811,-4.392078096726407,18.0,1703.0],["KDM1B",0.09841024825560016,-4.364223034865144,9.0,1712.0],["KPNA6",0.07787501701428604,-2.912182385564115,8.0,1713.0],["LAMA3",0.09350248416451654,-3.9893523841194094,34.0,1687.0],["LAMC2",0.19227249616088707,-15.067099155453953,12.0,1709.0],["LAMC3",0.07886820909343584,-2.9754158261960644,19.0,1702.0],["LIMK2",0.080933829254579,-3.1091838550316506,8.0,1713.0],["MEGF11",0.1524477696469793,-9.686360250466844,11.0,1710.0],["MKKS",0.0800144902351413,-3.049271352315676,10.0,1711.0],["MTPAP",0.08377679186826584,-3.2982916941203486,12.0,1709.0],["NME7",0.10006813214476702,-4.494850854796647,9.0,1712.0],["OBP2B",0.07543148309818996,-2.7596000138585537,8.0,1713.0],["OSBPL6",0.10069638653812789,-4.544880831894835,16.0,1705.0],["PAN3",0.1330903803468398,-7.524039690658686,13.0,1708.0],["PLEKHG5",0.1752296272829199,-12.608253354502098,8.0,1713.0],["RNF219",0.08813007352836873,-3.599141339347174,17.0,1704.0],["RNPC3",0.07502528406505973,-2.734646809705112,12.0,1709.0],["SDK1",0.10045795476110982,-4.525859480519843,20.0,1701.0],["SLC9A4",0.07288820419651369,-2.6052890616176563,20.0,1701.0],["SLITRK5",0.07914123073917985,-2.9929215994791267,16.0,1705.0],["SRRM1",0.08771947020143575,-3.570180216102865,8.0,1713.0],["ST18",0.07829397606037725,-2.9387704094045133,16.0,1705.0],["STIL",0.09384359134193052,-4.01483737589999,16.0,1705.0],["TTBK1",0.09152237923432188,-3.8430897569126232,12.0,1709.0],["TTF2",0.08187793132509061,-3.1713401978902023,19.0,1702.0],["ZNF280A",0.14975491230309768,-9.368106612717959,9.0,1712.0],["ZNF70",0.07984390765171599,-3.038221148878076,8.0,1713.0],["ZNF804B",0.12471746303947742,-6.678138010832333,21.0,1700.0]],"bottom":[["APBA1",-0.07033650610586631,-2.4550591806668733,12.0,1709.0],["PAPPA",-0.044038871820370015,-1.1689388525527888,12.0,1709.0],["SEMA3C",-0.06636908980893429,-2.2305630035051838,10.0,1711.0]]},"para":{"top":[["FYCO1",0.06870076256760574,-2.658804042777215,8.0,1713.0],["LPAR3",0.05703427091396531,-2.0450549283615054,8.0,1713.0],["MAOA",0.050182248918422594,-1.7276012872047437,8.0,1713.0],["MFN2",0.05047344368064412,-1.7404931392046066,10.0,1711.0],["MTPAP",0.08128410638522197,-3.426248628246751,12.0,1709.0],["NBPF12",0.05939851940678116,-2.1619304150009104,8.0,1713.0],["NEMF",0.05799083696124101,-2.0919769471731193,13.0,1708.0],["ODF2",0.05980259096737151,-2.182284940672692,8.0,1713.0],["OSBPL6",0.06560188136619764,-2.48682345748411,16.0,1705.0],["PSIP1",0.06294842724837532,-2.344664771737909,14.0,1707.0],["RASGRF2",0.07393637992452544,-2.964710671273234,9.0,1712.0],["SIDT1",0.06364578142169025,-2.381489216054092,10.0,1711.0],["TMEM132C",0.05537945342517282,-1.9655734973709502,12.0,1709.0],["WDR78",0.07991641199743116,-3.3375905463887254,20.0,1701.0],["ZNF704",0.05637038019331361,-2.012991753705929,12.0,1709.0]],"bottom":[["AKAP17A",-0.055112999555556964,-1.9529043847065921,10.0,1711.0],["CFHR2",-0.06286411305687448,-2.340200201369127,12.0,1709.0],["ERN2",-0.08315650648914039,-3.549926481652928,14.0,1707.0],["LRRC71",-0.050501511017346075,-1.74175064170489,11.0,1710.0],["PTPN22",-0.06655373400207952,-2.5389373758857317,12.0,1709.0],["RCN1",-0.049766586245941116,-1.7093750948465578,9.0,1712.0],["SPATA16",-0.08040695493579486,-3.3692658691784616,19.0,1702.0],["TNN",-0.08775377003969079,-3.864032660895882,18.0,1703.0]]}}}
{"ccle_chromatin":{"corr":{"top":[],"bottom":[]},"para":{"top":[],"bottom":[["H3K18ac1K23ac0",-0.15921790726864085,-5.771714107799501,895]]}}}
{"ccle_metabolomics":{"corr":{"top":[],"bottom":[["sarcosine",-0.1254994678320635,-3.883169459693644,924]]},"para":{"top":[],"bottom":[]}}}
{"ccle_rrbs_enhancer_clusters":{"corr":{"top":[],"bottom":[]},"para":{"top":[["18-22658089-22660788-1_enh",0.28927271039759855,-4.1263693815865725,182]],"bottom":[]}}}
{"ccle_mirna":{"corr":{"top":[],"bottom":[["hsa-miR-944_miR00682.1",-0.15487605856700865,-5.796946033499031,951]]},"para":{"top":[["hsa-miR-188-3p_miR00196.1",0.17085377866709062,-6.938496996745527,951]],"bottom":[["hsa-miR-611_miR00565.1",-0.13898900973820466,-4.77033885319731,951]]}}}
{"prism_primary_logfold":{"corr":{"top":[["elbasvir_BRD-K09735259-001-01-3::2.500007896::MTS004",0.14577673645143352,-3.158002052286825,538]],"bottom":[]},"para":{"top":[],"bottom":[["gallamine-triethiodide_BRD-K43106192-320-11-8::2.5::HTS",-0.15897650529746102,-3.599430488215079,526]]}}}
{"prism_secondary_logfold":{"corr":{"top":[["bardoxolone_BRD-K20545304-001-01-6::0.0024414::HTS002",0.2013063916819329,-2.8323962757679464,247],["hypericin_BRD-K29673530-001-05-4::0.0024414::HTS002",0.16884772220565789,-3.0078291853898236,378],["bumetanide_BRD-K38197229-001-29-9::0.625::HTS002",0.19790024551108243,-3.2381523913446912,299],["naproxen_BRD-K59197931-001-04-5::0.0390625::HTS002",0.21877380448861097,-4.806667186722879,383],["altretamine_BRD-K67043667-001-26-4::0.00061034::HTS002",0.22717413863646016,-3.212723394254036,224]],"bottom":[]},"para":{"top":[["streptozotocin_BRD-K34411947-001-12-5::0.00976562::HTS002",0.22768790547871925,-3.225459763176756,224],["phenazone_BRD-K46937689-001-15-0::2.5::HTS002",0.250981997579446,-2.9860776148923374,168]],"bottom":[["AZ-628_BRD-K05804044-001-18-5::0.625::MTS010::PROS002_PR500",-0.1731393662117368,-3.565621486439273,438]]}}}
{"ccle_proteomics":{"corr":{"top":[["QDPR_P09417",0.28869261901883037,-7.885571293063764,374],["CGGBP1_Q9UFW8",0.34593668804927397,-11.22691769739091,374],["KHDRBS3_O75525",0.29861169602250154,-8.414441005033868,374],["UNNAMED_C9JYP6",0.41344055943762975,-7.971210543794428,177],["ZNF654_Q8IZM8",0.31924762567115467,-8.287814593216703,320],["CHMP2B_Q9UQN3",0.43121527493615164,-17.641824008813412,374]],"bottom":[["LRRC8B_Q6P9F7",-0.3213839105977294,-4.889258154610922,177],["FAM179B_G3XAE9",-0.23494084646996238,-1.967422651438726,117]]},"para":{"top":[["SOX10_P56693",0.2985141933237541,-4.882268999821897,206],["CGGBP1_Q9UFW8",0.3565733736711057,-11.928138353389965,374],["KHDRBS3_O75525",0.3083201859876117,-8.951893844192613,374],["UNNAMED_C9JYP6",0.383334144894904,-6.856530862118129,177],["CHMP2B_Q9UQN3",0.41077122752569634,-15.931027563322413,374]],"bottom":[["LRRC8B_Q6P9F7",-0.3692932790837311,-6.373584468856261,177],["AKR1C1_Q04828",-0.2612013095445283,-6.523466439709834,374],["MPZL1_O95297",-0.2771818721738559,-7.296959670562316,374]]}}}
{"depmap_copy_number":{"corr":{"top":[["CSNKA2IP_111064647",0.7958871253821695,-323.0051853474518,1745],["ZNF654_55279",0.8013686274139659,-323.0051853474518,1745],["SNORA95_106635529",0.9135349513259076,-323.0051853474518,1745],["CHMP2B_25978",0.8694620252197701,-323.0051853474518,1745],["CADM2_253559",0.9140938029874756,-323.0051853474518,1745],["LINC02025_105377192",0.9141047677210883,-323.0051853474518,1745],["LINC02070_101927494",0.9424857316284179,-323.0051853474518,1745],["VGLL3_389136",0.9964518719456611,-323.0051853474518,1745],["LINC00971_440970",0.9051234601853159,-323.0051853474518,1745],["HTR1F_3355",0.806735716776654,-323.0051853474518,1745],["CADM2-AS2_100874037",0.9223234464636866,-323.0051853474518,1745],["CGGBP1_8545",0.8013686274139659,-323.0051853474518,1745],["POU1F1_5449",0.8684937688122737,-323.0051853474518,1745],["MIR4795_100616161",0.8694620252197701,-323.0051853474518,1745],["MIR5688_100847077",0.9204816261516928,-323.0051853474518,1745],["C3orf38_285237",0.7996182771702774,-323.0051853474518,1745]],"bottom":[]},"para":{"top":[["SNORA95_106635529",0.9410537702753198,-323.0051853474518,1745],["LINC02025_105377192",0.9414392523405537,-323.0051853474518,1745],["CADM2_253559",0.9414392523405537,-323.0051853474518,1745],["CSNKA2IP_111064647",0.9531658944455005,-323.0051853474518,1745],["ZNF654_55279",0.9576236955327659,-323.0051853474518,1745],["LINC02070_101927494",0.9543404920999318,-323.0051853474518,1745],["CHMP2B_25978",0.9884549191650215,-323.0051853474518,1745],["VGLL3_389136",0.9957175666260529,-323.0051853474518,1745],["LINC00971_440970",0.9355592926887468,-323.0051853474518,1745],["HTR1F_3355",0.9615807136320342,-323.0051853474518,1745],["CADM2-AS2_100874037",0.9462034793418524,-323.0051853474518,1745],["CGGBP1_8545",0.9576236955327659,-323.0051853474518,1745],["POU1F1_5449",0.9845926232155381,-323.0051853474518,1745],["MIR4795_100616161",0.9884549191650215,-323.0051853474518,1745],["MIR5688_100847077",0.9441299062317371,-323.0051853474518,1745],["C3orf38_285237",0.9561566828039967,-323.0051853474518,1745]],"bottom":[["KCNK2_3776",-0.14784433642652284,-9.263794085011872,1745]]}}}
{"depmap_gene_tpm":{"corr":{"top":[["CHMP2B_25978",0.3514270844611637,-38.15574819312071,1293],["C3orf38_285237",0.4311771036025009,-58.9519465369216,1293]],"bottom":[]},"para":{"top":[["ZNF654_55279",0.46373012781891315,-69.19902280293715,1293],["CHMP2B_25978",0.39096315155049866,-47.74992492505698,1293],["C3orf38_285237",0.5375413654791185,-96.98358454585681,1293],["CGGBP1_8545",0.45220409903336384,-65.44296390244223,1293]],"bottom":[["TMPRSS11A_339967",-0.23687103178975277,-17.22121492063668,1293]]}}}
{"avana":{"corr":{"top":[],"bottom":[["ULK3_25989",-0.18319043019257827,-6.503679842916678,769],["VGLL3_389136",-0.16003618656753185,-5.08537300675436,769],["STPG2_285555",-0.13326951465324754,-3.676986148706291,769],["PGP_283871",-0.12392374199471186,-3.2420412498811046,769]]},"para":{"top":[["TRIAP1_51499",0.17166480593686162,-5.774076566888415,769],["TP63_8626",0.20722110598261567,-8.17875138612245,769],["ZNF501_115560",0.16854728314155862,-5.584800440748678,769]],"bottom":[["LIPT1_51601",-0.14584172442510873,-4.308155132505408,769],["ZFR_51663",-0.17249179793404212,-5.824860154472066,769],["MBNL1_4154",-0.14699072829687929,-4.368503739765869,769],["CNBP_7555",-0.1540632037331563,-4.7498911351916,769]]}}}
{"drive":{"corr":{"top":[["GRIN2B_2904",0.2597018100486755,-6.500568035507029,377],["NDOR1_27158",0.24652578280717644,-5.899190768660211,377],["SI_6476",0.2326739297292518,-5.302542854552844,377],["KDSR_2531",0.20729474948137705,-4.441926424236777,391],["KRT1_3848",0.23346574706909304,-5.335681486471567,377]],"bottom":[["PGAM1P5_100132594",-0.1919827463613537,-3.7527698205956677,377],["RBBP8_5932",-0.23185749887066026,-5.443828429671345,391],["KANSL1_284058",-0.20134363692458876,-4.08313903398585,377],["TERC_7012",-0.2049180316238791,-4.213348979560374,377]]},"para":{"top":[["GRIN2B_2904",0.2366076330177772,-5.4683236640222805,377],["NDOR1_27158",0.24540435269521982,-5.8495416315859,377],["TBC1D23_55773",0.23711208949577464,-5.489792078238067,377],["PWWP2A_114825",0.24467109300654413,-5.8590289587542665,380],["EME1_146956",0.243263664162308,-5.755428861813327,377],["TNFAIP3_7128",0.2571708827952211,-6.42864830618666,380],["LOC101060524&DRD5P2_101060524&1818",0.24828983890327944,-5.9777749248851,377],["GP2_2813",0.23032568202063095,-5.340939229022383,388]],"bottom":[["CFAP65_255101",-0.21899661019102484,-4.7819585783124845,380],["RBBP8_5932",-0.29508525986272666,-8.569618410481414,391],["PGAM1P5_100132594",-0.19419377021749182,-3.8294219871313073,377]]}}}
{"achilles":{"corr":{"top":[["ZBTB8B_728116",0.203781741090382,-3.2204417605085025,280],["HIST1H4C_8364",0.21548023001395147,-5.8736147768833735,494]],"bottom":[["SFI1_9814",-0.21757241878415065,-3.6125455512029836,280],["PHF20L1_51105",-0.2100011705674325,-3.394186666876271,280],["FAM210A_125228",-0.20515731048313424,-3.258435389546918,280],["WDR24_84219",-0.24460502523921782,-4.455013726033269,280]]},"para":{"top":[["ZBTB8B_728116",0.27000583424905933,-5.339337753694218,280],["HIST1H4C_8364",0.2531198103758457,-7.933691015858838,494],["ANKRD20A11P_391267",0.22676912190850743,-3.888034191700595,280]],"bottom":[["MORC4_79710",-0.23029899744877957,-3.9967935464872837,280],["SFI1_9814",-0.2224301507611861,-3.7566485125774705,280],["ERVK13-1_100507321",-0.22921473863421385,-3.963206782369633,280],["SDF4_51150",-0.25918468479065987,-8.298676514942372,494]]}}}
{"ccle_rrbs_tss1kb":{"corr":{"top":[["TSC22D2_3_150125121_150126121",0.2285728273796606,-10.061032854969138,787],["CACYBP_1_174967891_174968891",0.29622609488826096,-17.30453668220855,818],["CNOT6L_4_78740522_78741522",0.227277832587422,-10.458857795576758,830],["R3HDM1_2_136288024_136289024",0.22633578671719976,-10.16601299492881,812],["NPRL2_3_50388486_50389486",0.23992723623442513,-11.408461383804157,815],["RBM26_13_79980356_79981356",0.22045881206193882,-9.724352344606014,817],["SARS_1_109755514_109756514",0.2252662947995535,-10.213292043434057,824],["POP4_19_30096169_30097169",0.22338016967879037,-9.84607867572814,806],["HADH_4_108909869_108910869",0.22341677327321458,-9.815018729899995,803],["PAN3_13_28711642_28712642",0.22985654491088386,-10.470438953582025,812],["MGAT2_14_50086488_50087488",0.2502533190446239,-12.534099448445161,826],["RBBP6_16_24549907_24550907",0.29318911233430534,-16.715484494055545,806],["BUB1_2_111435684_111436684",0.3325985541095627,-21.467041214419023,803],["CYB561D1_1_110035657_110036657",0.2216728367404162,-8.907319337480859,735],["INO80C_18_33077613_33078613",0.24321363174843463,-11.806302946367973,822]],"bottom":[["SNORD23_19_48258109_48259109",-0.2141932557496,-9.12292294971595,809],["DAZL_3_16647006_16648006",-0.15188107873040257,-4.299563885765721,707]]},"para":{"top":[["CHMP2B_3_87275412_87276412",0.20027024079716735,-8.221383570895446,829]],"bottom":[]}}}
{"ccle_gene_tpm":{"corr":{"top":[["ZNF654_ENSG00000175105.5",0.3989832849812641,-39.192624082413374,1011],["CHMP2B_ENSG00000083937.4",0.3653213605986108,-32.55110111100707,1011],["CGGBP1_ENSG00000163320.6",0.4092123984663914,-41.36842281618484,1011],["RP11-159G9.5_ENSG00000229729.3",0.3811779159936891,-35.58284782523331,1011],["C3orf38_ENSG00000179021.5",0.50147207941908,-64.76432532681532,1011]],"bottom":[]},"para":{"top":[["ZNF654_ENSG00000175105.5",0.47145938159345885,-56.35300439687326,1011],["CHMP2B_ENSG00000083937.4",0.3694574414927645,-33.32569816881024,1011],["CGGBP1_ENSG00000163320.6",0.4475801745134002,-50.23363724276336,1011],["RP11-159G9.5_ENSG00000229729.3",0.4490404138366315,-50.59406104530192,1011],["C3orf38_ENSG00000179021.5",0.5460963444591715,-78.93036955603384,1011]],"bottom":[["XPR1_ENSG00000143324.9",-0.2239091363712717,-12.227622538209193,1011]]}}}
{"ccle_rrbs_tss_clusters":{"corr":{"top":[["PNKD_5",0.21456329024018667,-9.425442805460959,835],["INO80C",0.24131326437403555,-11.761665030359467,832],["CACYBP",0.2545744500957102,-13.180193033380354,841],["FANCI",0.19698969382105616,-8.006316859820206,833]],"bottom":[["BIRC6-AS2",-0.19550543935933895,-7.676037060848976,808],["AGAP3_4",-0.17320912753258877,-5.917239516950605,776],["GCC2_2",-0.17573728804746833,-6.386942664744004,820]]},"para":{"top":[["SGK1_1",0.2097942285727362,-8.018951489219077,734],["SGK1_2",0.22081257525660897,-9.709617679014999,813],["MAPRE2_2",0.22599838080934767,-3.561645828918373,255]],"bottom":[]}}}
{"ccle_rrbs_cgi_clusters":{"corr":{"top":[["8_31497435_31500346-3",0.22413037765883279,-3.4739319119189846,252],["1_174966490_174969057-1",0.2734041610770433,-15.105958778982815,838],["1_45266158_45268783-1",0.24560202963023653,-12.072774682151136,825],["13_28710176_28712814-1",0.23255915701098517,-10.867811586022807,825],["11_63581139_63583740-2",0.21832056380952328,-4.699583289804614,375],["18_33075545_33080063-1",0.24131326437403555,-11.761665030359467,832],["2_219185653_219190251-2",0.21456329024018667,-9.425442805460959,835]],"bottom":[]},"para":{"top":[["6_134636797_134641021-2",0.22081257525660897,-9.709617679014999,813]],"bottom":[["5_54514267_54518919-3",-0.19757169949949446,-2.8462164447918576,258],["6_74006820_74011456-3",-0.19297088594068135,-6.324674626668603,671]]}}}
