{"depmap_hotspot":{"corr":{"top":[["AC091801.1",0.0930560850067775,-3.9581309219922285,11.0,1711.0],["ACAA2",0.09958636661741066,-4.458962145245978,30.0,1692.0],["CCDC112",0.06767781053142821,-2.3045014169266334,41.0,1681.0],["FAM81A",0.06991768957879646,-2.4320099980341694,29.0,1693.0],["FLYWCH2",0.09435649905420483,-4.055373522530009,15.0,1707.0],["FXYD1",0.08244146830572541,-3.2103376843820626,12.0,1710.0],["GZMH",0.06681151897536726,-2.2561288484145505,25.0,1697.0],["LRTM1",0.07803231414300463,-2.923585675055693,34.0,1688.0],["MFI2",0.07990448322562256,-3.0436435547582716,77.0,1645.0],["PAK1IP1",0.06547286449126624,-2.1824108443603487,29.0,1693.0],["PODNL1",0.06399141082764125,-2.1022842174607677,32.0,1690.0],["PRPF3",0.10472290855793971,-4.874953561249771,60.0,1662.0],["SLURP1",0.11717747480970603,-5.965067845673815,8.0,1714.0]],"bottom":[["AADACL4",-0.07843819315525695,-2.949401244438738,44.0,1678.0],["ACTC1",-0.08767203465205196,-3.5686298725646513,66.0,1656.0],["ADAM21",-0.09617369125140246,-4.1933315765748365,72.0,1650.0],["ATP10D",-0.08655390825912733,-3.490378813966361,129.0,1593.0],["CD1B",-0.08341786668570324,-3.275723765099223,56.0,1666.0],["COMMD2",-0.06810533519145075,-2.328567318780625,14.0,1708.0],["CTCFL",-0.08388591734068947,-3.307310690598655,64.0,1658.0],["EPS15L1",-0.06880578020270761,-2.368272996958748,77.0,1645.0],["GTSF1",-0.0808562290803565,-3.105637820894264,12.0,1710.0],["HABP2",-0.06895256739516789,-2.3766374265251207,56.0,1666.0],["LPL",-0.0741153135300511,-2.6804750175875776,46.0,1676.0],["MCHR1",-0.0722329788072876,-2.5675182060970942,37.0,1685.0],["MED23",-0.07322480554952365,-2.6267242995659013,89.0,1633.0],["MEIS3",-0.07186116203621365,-2.5455020267791575,38.0,1684.0],["ODAM",-0.08923971558662859,-3.679867589230977,33.0,1689.0],["OR13D1",-0.08591778867738079,-3.4462640661065027,39.0,1683.0],["OR2C3",-0.0756402313022919,-2.7738236237598666,76.0,1646.0],["PDZD3",-0.08415748154271677,-3.3257098120597135,54.0,1668.0],["PNPLA1",-0.07024632987930678,-2.4510146600348373,39.0,1683.0],["PTGS1",-0.08548729113571808,-3.4165750110260342,79.0,1643.0],["RNF39",-0.07074440270299705,-2.4799621162984002,32.0,1690.0],["RPS18",-0.07040026307181582,-2.4599424536826877,11.0,1711.0],["SCN1A",-0.09623247063561952,-4.197834387340118,187.0,1535.0],["SF3B1",-0.06991516136333065,-2.431864090324643,138.0,1584.0],["SLC17A2",-0.07199825905676374,-2.5536085213191067,66.0,1656.0],["SPAM1",-0.07261754882905935,-2.5903922183042583,65.0,1657.0],["SPTLC3",-0.07543305637647159,-2.761044443389916,63.0,1659.0],["TAAR1",-0.07645442099837642,-2.824340780008669,29.0,1693.0],["TCEAL3",-0.0846611853964259,-3.3599776173458844,31.0,1691.0],["TMEM132D",-0.07150302843077537,-2.5243882785271787,188.0,1534.0],["TRPC7",-0.0733638044882115,-2.635077258018061,115.0,1607.0],["YTHDF1",-0.07146579292244933,-2.5221982517695554,51.0,1671.0]]},"para":{"top":[["ACAA2",0.07421720267506035,-2.9831788278426226,30.0,1692.0],["COPS6",0.07181193063070913,-2.8397347544575453,28.0,1694.0],["FAM81A",0.06584459230171387,-2.501196609471133,29.0,1693.0],["GOLGA8Q",0.08737612465089246,-3.839417888019557,16.0,1706.0],["MALSU1",0.0644334365821954,-2.4246711130437735,19.0,1703.0],["PPP1R2",0.05417047244584227,-1.9093761919193144,14.0,1708.0],["STMN1",0.06020635020072316,-2.203740745739445,15.0,1707.0]],"bottom":[["BTF3L4",-0.055699540808305546,-1.9816042037818373,13.0,1709.0],["C1orf50",-0.07435982403147798,-2.9917724865283737,23.0,1699.0],["CD46",-0.0929105073881241,-4.236195886195912,36.0,1686.0],["COMMD2",-0.0655535568334772,-2.4852066611838253,14.0,1708.0],["GTSF1",-0.07356616611894991,-2.943804530952916,12.0,1710.0],["MEIS3",-0.0979971532807422,-4.619943514017379,38.0,1684.0],["ODAM",-0.10299699304273029,-5.015099071055643,33.0,1689.0],["RBAK-RBAKDN",-0.06882471558004417,-2.6669886237354103,9.0,1713.0],["RPS18",-0.07265778681337162,-2.889556455911492,11.0,1711.0],["UQCRH",-0.06706348879972628,-2.5682270323668472,13.0,1709.0]]}}}
{"depmap_damaging":{"corr":{"top":[["ABCF1",0.08195988661107863,-3.1767659913619384,13.0,1708.0],["CYP4F11",0.13248612054098333,-7.461198983585756,11.0,1710.0],["FLOT2",0.0643357559927989,-2.1197678813552723,50.0,1671.0],["LGI1",0.08901548473627065,-3.6620077819312855,8.0,1713.0],["MARCO",0.0759329059519801,-2.7905643994713065,13.0,1708.0],["PPP1R42",0.08569290870686731,-3.429026647056827,9.0,1712.0],["PTCHD4",0.06262249724300455,-2.028643128796438,10.0,1711.0],["WDFY4",0.0754592739919731,-2.7613115142018194,34.0,1687.0],["ZNF492",0.12593420536499886,-6.797745532559688,9.0,1712.0]],"bottom":[["BAZ2B",-0.0640579745200711,-2.104854967196924,69.0,1652.0],["CCDC39",-0.059806475575100694,-1.8832739690449416,16.0,1705.0],["DCLRE1C",-0.06181864977100876,-1.9865886527170569,9.0,1712.0],["DSP",-0.0607350400417379,-1.9306042280596685,34.0,1687.0],["FAM135A",-0.06181372285098984,-1.986332270622472,24.0,1697.0],["FASTKD3",-0.06754930000174045,-2.2961939203511097,15.0,1706.0],["FCGBP",-0.06375670494082647,-2.0887416229292097,23.0,1698.0],["FLT4",-0.06184566492188431,-1.9879947379247154,18.0,1703.0],["HDAC9",-0.05686363734832164,-1.7371836607661353,21.0,1700.0],["IQCJ-SCHIP1",-0.05854325983265908,-1.819837619728941,8.0,1713.0],["NBAS",-0.06937777819298245,-2.399798838885589,32.0,1689.0],["NUP155",-0.05900082089808959,-1.842688964392031,14.0,1707.0],["SCFD1",-0.05748876815776359,-1.7677208152006183,15.0,1706.0],["SF3B1",-0.0712844580053609,-2.51033375586355,66.0,1655.0]]},"para":{"top":[["ASIC3",0.05986769662523679,-2.185620586943003,10.0,1711.0],["C8G",0.07392471986214594,-2.964054684509453,11.0,1710.0],["CYP4F11",0.05825038974247713,-2.1047623219528,11.0,1710.0],["WDFY4",0.07807418755124053,-3.2201851007006126,34.0,1687.0]],"bottom":[["C14orf79",-0.06427141508164891,-2.4148435428258415,9.0,1712.0],["CCDC87",-0.0666658782174447,-2.5451243087788464,12.0,1709.0],["CLEC4F",-0.05622587361339691,-2.005960044198409,8.0,1713.0],["DDX5",-0.06830915504767152,-2.6367156948360546,9.0,1712.0],["EPB41L1",-0.06804159396558565,-2.6216660350963426,9.0,1712.0],["ETV1",-0.05695663802580342,-2.0412813644050676,8.0,1713.0],["FASTKD3",-0.07004839884828423,-2.735853770770938,15.0,1706.0],["FSCN3",-0.06720647907301472,-2.5750103872439776,9.0,1712.0],["GPS2",-0.07126910614184623,-2.806585873853033,13.0,1708.0],["KPNA7",-0.06374844844699358,-2.3868998864946485,8.0,1713.0],["PCDHGB7",-0.06675747838043224,-2.5500975174177674,8.0,1713.0],["PTPRE",-0.060598603992614776,-2.2227720557926847,11.0,1710.0],["TMEM234",-0.066014616070996,-2.5092561975568484,9.0,1712.0],["ZNF785",-0.06543445771399203,-2.4776446965620806,11.0,1710.0]]}}}
{"ccle_metabolomics":{"corr":{"top":[],"bottom":[["C20:3 CE",-0.18721051749804765,-8.007790985406835,924]]},"para":{"top":[],"bottom":[]}}}
{"ccle_rrbs_enhancer_clusters":{"corr":{"top":[["14-36582759-36585834-1_enh",0.18122462040983142,-3.0333751420207764,331]],"bottom":[]},"para":{"top":[["3-71291501-71294584-0_enh",0.12954434704657847,-3.5276196405365843,776],["10-77019198-77022022-1_enh",0.16288315743903928,-5.584650194723362,824]],"bottom":[]}}}
{"prism_primary_logfold":{"corr":{"top":[["QX-222_BRD-K40782193-003-02-9::2.5::HTS",0.13346826372322398,-2.7848207381464403,554]],"bottom":[["rebamipide_BRD-A15909516-001-06-6::2.5::HTS",-0.12598988805437358,-2.5383417290197494,557],["estradiol-benzoate_BRD-A74765037-001-01-1::2.5::HTS",-0.14065125555999358,-3.045013480210018,554],["apafant_BRD-K28115081-001-02-7::2.5::HTS",-0.1320657520808328,-2.722970914950624,551]]},"para":{"top":[["ethotoin_BRD-A30205217-001-11-2::2.5::HTS",0.14384997788837714,-3.1648532589696465,554],["FLI-06_BRD-A44500574-001-01-8::2.5::HTS",0.17331686980241218,-4.393233949435643,555],["denatonium-benzoate_BRD-K34122555-057-11-5::2.5::HTS",0.13059560618173097,-2.6882658486418882,555]],"bottom":[["estradiol-benzoate_BRD-A74765037-001-01-1::2.5::HTS",-0.14473421664163333,-3.1984153538467095,554],["chrysophanic-acid_BRD-K59284035-001-07-9::2.5::HTS",-0.1327288201775248,-2.7419377853482527,550]]}}}
{"prism_secondary_logfold":{"corr":{"top":[["GW-501516_BRD-K14880289-001-02-2::0.00061034::HTS002",0.15793812757792236,-3.1293767554300134,453],["epiandrosterone_BRD-K42756753-001-01-9::2.5::HTS002",0.1530350988056024,-3.0589327558126205,470]],"bottom":[["homosalate_BRD-A34751532-001-06-9::0.625::HTS002",-0.15684353161225303,-2.781965921139257,400],["brilliant-green_BRD-K60348325-065-09-9::2.5::HTS002",-0.15501796187198397,-2.9963616266244486,447]]},"para":{"top":[["GW-501516_BRD-K14880289-001-02-2::0.00061034::HTS002",0.16807234491576983,-3.4854693193191992,453]],"bottom":[["NSC-663284_BRD-K03109492-001-02-2::0.0024414::HTS002",-0.14567493244925603,-2.7866113706972433,465],["SB-216641_BRD-K30867024-003-03-3::0.15625::HTS002",-0.15816372074834692,-3.225819750712887,468],["I-BET151_BRD-K36363294-001-04-2::0.0024414::HTS002",-0.1518569649890194,-3.0186463627493905,470],["fenofibrate_BRD-K50388907-001-30-4::0.0390625::HTS002",-0.14138970574335363,-2.687507624471621,473],["paricalcitol_BRD-K60585088-001-01-5::0.625::HTS002",-0.16220510011917907,-2.7263498076425057,365],["erlotinib_BRD-K70401845-003-09-6::0.0024414::HTS002",-0.14987895632597986,-2.9302985690580274,466]]}}}
{"ccle_proteomics":{"corr":{"top":[["YTHDF3_Q7Z739",0.39499991399714923,-14.688981561744262,374],["UBE2V2_Q15819",0.3263513426408912,-10.003441527658126,374]],"bottom":[["TEX15_Q9BXT5",-0.26261673416753806,-5.31584518785097,295],["LRFN4_E7ENX6",-0.284186367046295,-2.879842838484054,125],["ZNF688_P0C7X2",-0.3070214636645113,-2.9102986527037285,108]]},"para":{"top":[["YTHDF3_Q7Z739",0.36414102374938256,-12.44324998031987,374],["UBE2V2_Q15819",0.3447315198393374,-11.149121969914011,374]],"bottom":[["RNF157_Q96PX1",-0.2612283701584643,-3.8102532942082505,205],["CCHCR1_Q8TD31-2",-0.2992326739781568,-2.758920383997731,107]]}}}
{"depmap_copy_number":{"corr":{"top":[["LOC100130298_100130298",0.9106869972507039,-323.0051853474518,1745],["YTHDF3-AS1_101410533",0.9908823076023282,-323.0051853474518,1745],["MIR124-2HG_100130155",0.933696697828324,-323.0051853474518,1745],["LOC401463_401463",0.9289203042666965,-323.0051853474518,1745],["LINC02155_111082988",0.9123743693574822,-323.0051853474518,1745],["YTHDF3_253943",0.9908823076023282,-323.0051853474518,1745],["NKAIN3-IT1_643763",0.9847112709518115,-323.0051853474518,1745],["LINC01414_102724623",0.9915240356466823,-323.0051853474518,1745],["LINC01289_286184",0.9968493372882352,-323.0051853474518,1745],["NKAIN3_286183",0.9441033133938488,-323.0051853474518,1745],["BHLHE22_27319",0.9289203042666965,-323.0051853474518,1745],["ASPH_444",0.925296227377104,-323.0051853474518,1745],["MIR124-2_406908",0.933696697828324,-323.0051853474518,1745],["GGH_8836",0.9861165030176611,-323.0051853474518,1745],["TTPA_7274",0.9895031777393815,-323.0051853474518,1745],["CYP7B1_9420",0.9289203042666965,-323.0051853474518,1745]],"bottom":[["FICD_11153",-0.1423299257459489,-8.629423111257314,1745],["KSR2_283455",-0.1361239992128323,-7.944082746522351,1745],["LINC01498_102723562",-0.14235481696432983,-8.632232742488812,1745],["SART3_9733",-0.13910649905789876,-8.269684778611664,1745],["AACS_65985",-0.13490671956654046,-7.813187616528899,1745],["ISCU_23479",-0.14121537564310888,-8.504115660890202,1745]]},"para":{"top":[["LOC100130298_100130298",0.957446022601677,-323.0051853474518,1745],["YTHDF3-AS1_101410533",0.9935824922461515,-323.0051853474518,1745],["MIR124-2HG_100130155",0.97822753609333,-323.0051853474518,1745],["LOC401463_401463",0.9723549973813477,-323.0051853474518,1745],["LINC02155_111082988",0.9599569186595233,-323.0051853474518,1745],["MIR124-2_406908",0.97822753609333,-323.0051853474518,1745],["YTHDF3_253943",0.9935824922461515,-323.0051853474518,1745],["NKAIN3-IT1_643763",0.9855988094435445,-323.0051853474518,1745],["LINC01414_102724623",0.9935323985777901,-323.0051853474518,1745],["LINC01289_286184",0.9973306849181786,-323.0051853474518,1745],["NKAIN3_286183",0.9759317059350134,-323.0051853474518,1745],["BHLHE22_27319",0.9723549973813477,-323.0051853474518,1745],["MIR4470_100616484",0.958293380871072,-323.0051853474518,1745],["GGH_8836",0.9882293704042958,-323.0051853474518,1745],["TTPA_7274",0.9908040244741259,-323.0051853474518,1745],["CYP7B1_9420",0.9723549973813477,-323.0051853474518,1745]],"bottom":[["MIR4700_100616329",-0.15992169272937792,-10.737425845096691,1745],["SPPL3_121665",-0.1619928915509527,-11.001858574170015,1745],["UNC119B_84747",-0.15919074443469802,-10.644927067971452,1745],["PSMD9_5715",-0.15961391717219642,-10.698425754407745,1745],["KDM2B_84678",-0.16228459645870597,-11.039378017769755,1745],["ORAI1_84876",-0.1589638201863686,-10.616297819253688,1745],["LINC01089_338799",-0.16104254384415384,-10.880098411167879,1745],["RHOF_54509",-0.15981325411173333,-10.723676263332457,1745],["P2RX7_5027",-0.16001590567511445,-10.74937933026297,1745],["ANAPC5_51433",-0.15997297932237126,-10.743932066569661,1745],["MIR7107_102465665",-0.164033172508592,-11.265718550597434,1745],["ACADS_35",-0.1594899161985895,-10.682734324760368,1745],["MORN3_283385",-0.159294480143079,-10.658028338954919,1745],["HPD_3242",-0.1610652440152341,-10.882998330766323,1745],["SETD1B_23067",-0.16104254384415384,-10.880098411167879,1745],["TMEM120B_144404",-0.16017749986791557,-10.769898557237203,1745]]}}}
{"depmap_gene_tpm":{"corr":{"top":[["YTHDF3_253943",0.5029082254853436,-83.09636829484661,1293]],"bottom":[["ZXDB_158586",-0.14494532807842928,-6.781648075826152,1293]]},"para":{"top":[["RAB2A_5862",0.45932069961549604,-67.74506175195744,1293],["YTHDF3_253943",0.48709718298856064,-77.26959794768192,1293]],"bottom":[]}}}
{"avana":{"corr":{"top":[],"bottom":[["SPTSSA_171546",-0.15255257555217952,-4.66699132775514,769]]},"para":{"top":[["MRPL15_29088",0.2503049374531088,-11.723263807002457,769]],"bottom":[["RAB3GAP2_25782",-0.13552323948084388,-3.786221769122977,769]]}}}
{"drive":{"corr":{"top":[["PARP12_64761",0.18193253678840055,-3.438453380120442,380]],"bottom":[["LMO7_4008",-0.19799163798137498,-3.990682182714842,380],["NFATC1_4772",-0.19247322078952475,-3.795838706874898,380]]},"para":{"top":[["BAG6_7917",0.19267517439508675,-3.776683646163597,377],["ACTG1P20_644961",0.1832760107610205,-3.4591438266653314,377]],"bottom":[["LMO7_4008",-0.193678250662669,-3.837928932351648,380]]}}}
{"achilles":{"corr":{"top":[["YBEY_54059",0.21863602117950764,-3.6438280493617046,280]],"bottom":[["LCMT1_51451",-0.18827096931307086,-4.596004952407988,494]]},"para":{"top":[["MRPL15_29088",0.251458419834238,-4.684582977277843,280]],"bottom":[["ATP1A3_478",-0.22116599048662736,-6.162633079516571,494],["OSTF1_26578",-0.18219056825483992,-2.655888193229219,280],["FAM110D_79927",-0.20287140792593705,-3.1954331000990566,280]]}}}
{"ccle_rrbs_tss1kb":{"corr":{"top":[["ERICH6_3_150421758_150422758",0.15625014908526677,-3.072062603931937,453],["PSMG4_6_3258161_3259161",0.22165876533519463,-9.511736685700038,789]],"bottom":[]},"para":{"top":[["RB1CC1_8_53627026_53628026",0.18574285571695617,-7.018484644010352,813],["MIR5699_10_687718_688718",0.14461789011262813,-4.549064356927115,832]],"bottom":[["CCR7_17_38717265_38718265",-0.15748846811506131,-3.190349893040056,466]]}}}
{"ccle_gene_tpm":{"corr":{"top":[["YTHDF3-AS1_ENSG00000270673.1",0.43247906399648595,-46.607524571652334,1011],["YTHDF3_ENSG00000185728.12",0.569561842220807,-87.27834471021085,1011]],"bottom":[]},"para":{"top":[["YTHDF3_ENSG00000185728.12",0.509956936771311,-67.29806202051198,1011],["RAB2A_ENSG00000104388.10",0.45528038191454323,-52.15413532065498,1011]],"bottom":[]}}}
{"ccle_rrbs_tss_clusters":{"corr":{"top":[["ASH2L_2",0.22132410247971485,-3.093197900428528,226],["KCNE5_3",0.17719985157272972,-3.373344338305712,392]],"bottom":[]},"para":{"top":[["SH2D3C_10",0.1795549545339935,-5.142341600107571,617],["UNC5B-AS1_1",0.22395204590889167,-2.61260686001284,181]],"bottom":[["ZNF391_2",-0.21064097518101466,-4.322672706141591,367]]}}}
{"ccle_rrbs_cgi_clusters":{"corr":{"top":[["11_65372699_65377308-2",0.19178880099303652,-4.297685906706848,441],["1_38225079_38229741-3",0.26840522892442437,-6.546785484984567,355],["2_228337314_228339875-1",0.22860755602648447,-10.504802164665248,824]],"bottom":[["8_42292064_42297059-1",-0.21024737265733098,-8.938843324646923,822]]},"para":{"top":[["1_38225079_38229741-3",0.18227800757545043,-3.25332825060817,355]],"bottom":[["6_27354492_27359020-2",-0.21064097518101466,-4.322672706141591,367]]}}}
