{"depmap_hotspot":{"corr":{"top":[["ACO1",0.09978857294717725,-4.474969924585012,58.0,1664.0],["AP1G2",0.09499547424080047,-4.10360784707203,61.0,1661.0],["ARMCX6",0.13205681152398183,-7.420661818493243,13.0,1709.0],["ATF7",0.08799567846426462,-3.5914486909414904,34.0,1688.0],["C20orf196",0.09094310779656166,-3.8027573913932793,14.0,1708.0],["C2orf47",0.09056250385391891,-3.7751160424679835,20.0,1702.0],["C3orf58",0.1047246536516488,-4.875098207016367,40.0,1682.0],["CELA2B",0.08666901905254458,-3.4983929739336928,36.0,1686.0],["CHMP7",0.09401393043635765,-4.029636991303184,33.0,1689.0],["CLEC1A",0.10990620724362236,-5.314559536039893,29.0,1693.0],["CPLX4",0.1138636979469211,-5.6636923010202125,19.0,1703.0],["DNM2",0.12629424705449624,-6.836963868531107,79.0,1643.0],["EEF1A1",0.09408433914505204,-4.0349196603951345,39.0,1683.0],["ENPP7",0.1003474698367406,-4.519372007783312,65.0,1657.0],["ERMN",0.12514539047408485,-6.723621779331193,27.0,1695.0],["FAM46C",0.10169271281209044,-4.62719052797485,50.0,1672.0],["FAM86A",0.08726007984472965,-3.539694328816966,23.0,1699.0],["FBXL8",0.09027695999822802,-3.7544476028283493,28.0,1694.0],["FNBP1L",0.08689316604095927,-3.514025868882647,49.0,1673.0],["FOXR1",0.10659957995647075,-5.03181073406413,24.0,1698.0],["GNL2",0.09420910233609556,-4.0442893712632095,56.0,1666.0],["HLA-DQA2",0.107481658998974,-5.106441033825322,23.0,1699.0],["HOXB3",0.09292077362930289,-3.9480835178386195,80.0,1642.0],["HSPB8",0.10321002096348804,-4.750403531524348,29.0,1693.0],["KLHDC4",0.09077093496507554,-3.7902402916221716,65.0,1657.0],["LALBA",0.10597256439901846,-4.9791122796351805,13.0,1709.0],["LARP6",0.09723473044789054,-4.275002738637746,45.0,1677.0],["LEF1",0.09280031021990336,-3.939149876148458,40.0,1682.0],["MBD3L1",0.0990617485288657,-4.417570833120189,15.0,1707.0],["MCFD2",0.13251810884360238,-7.468484976721448,8.0,1714.0],["MEP1B",0.09231069640234067,-3.90294875895695,63.0,1659.0],["MINA",0.08978885748515332,-3.71925466650637,57.0,1665.0],["NDUFV2",0.0914138770387354,-3.8370928271435782,22.0,1700.0],["NT5C2",0.11482052452331629,-5.749865071993795,45.0,1677.0],["PAAF1",0.09471303506400344,-4.0822505260974395,34.0,1688.0],["POLR1E",0.12116879517814699,-6.339042290036377,38.0,1684.0],["PPARA",0.08720507292288265,-3.5358399613658897,42.0,1680.0],["PRR11",0.0975139304139886,-4.296630840645482,39.0,1683.0],["PRR4",0.09400926871038857,-4.029287356268869,16.0,1706.0],["PRTN3",0.12762318418055257,-6.969325243920991,15.0,1707.0],["RAB40C",0.09146183446972986,-3.840599645799774,34.0,1688.0],["RBM42",0.09134463403101173,-3.8320324857506356,49.0,1673.0],["REM2",0.09538049535837262,-4.132816191250566,18.0,1704.0],["RNF168",0.08687628692680135,-3.512847387682933,47.0,1675.0],["RPS17L",0.11797822781083933,-6.039132335258502,13.0,1709.0],["SDAD1",0.08701670456380935,-3.5226574673046342,64.0,1658.0],["SF3B14",0.10204265299442959,-4.6554564646854,13.0,1709.0],["SMIM12",0.11081430759617311,-5.393637555403945,9.0,1713.0],["SNN",0.10079332081537665,-4.554958154755673,12.0,1710.0],["SNRNP27",0.09218286754796648,-3.8935261138919914,15.0,1707.0],["SPINK2",0.12663621136627187,-6.8708947935685805,8.0,1714.0],["SREK1IP1",0.09735458795715438,-4.284280436404847,23.0,1699.0],["SRSF1",0.08914161028439396,-3.672854060438431,24.0,1698.0],["TMEM200C",0.09358717870118367,-3.9976959099165414,83.0,1639.0],["TMEM9B",0.10447506496792637,-4.854433450653078,17.0,1705.0],["TRMT112",0.11876520544425034,-6.112393510692665,11.0,1711.0],["TRPV2",0.09336601504934346,-3.981194814755725,68.0,1654.0],["U2AF1L4",0.09133965269859935,-3.831668580097387,27.0,1695.0],["ZNF23",0.09837999466370771,-4.3640844202165265,51.0,1671.0]],"bottom":[]},"para":{"top":[["AKAP14",0.0610300576468043,-2.2457091449011464,8.0,1714.0],["CHCHD5",0.06372773314595223,-2.3868504520228466,11.0,1711.0],["DCTPP1",0.06174168748044132,-2.282522077305206,12.0,1710.0],["DUSP2",0.0986110736084303,-4.667467008886438,30.0,1692.0],["GLOD5",0.06618063469076499,-2.5194353432612817,10.0,1712.0],["GRPEL1",0.06316704435739304,-2.3571743664167215,15.0,1707.0],["GTSF1L",0.08358177344093688,-3.580031525623549,18.0,1704.0],["H3F3B",0.07651433767960855,-3.1237488051138302,11.0,1711.0],["IL36RN",0.06363220121702556,-2.3818251021156636,15.0,1707.0],["LIN52",0.05510192757424152,-1.9531190541278936,9.0,1713.0],["MMP7",0.07193757045042483,-2.8470702536670167,19.0,1703.0],["MRPL53",0.06335202095575632,-2.366934869474667,13.0,1709.0],["RBP7",0.06196189352532534,-2.293972768885436,13.0,1709.0],["RNF187",0.06238584188449645,-2.316096759750477,14.0,1708.0],["RP11-444E17.6",0.07895080654786209,-3.2770085460636538,9.0,1713.0],["RPP25L",0.06830829610998607,-2.637899733931132,16.0,1706.0],["SAA2",0.06433072424540402,-2.419109743780834,14.0,1708.0],["SCN4B",0.06471186077786278,-2.439573041214137,12.0,1710.0],["TIFA",0.07042751341167139,-2.758860011265222,12.0,1710.0],["TMEM18",0.09859337625020227,-4.665980073413317,17.0,1705.0],["WRB",0.062468007881064797,-2.3203836443426633,13.0,1709.0]],"bottom":[["AC092850.1",-0.07043762193610825,-2.75946050256049,13.0,1709.0]]}}}
{"depmap_damaging":{"corr":{"top":[["ADAM28",0.08562424957756723,-3.4242963745688035,26.0,1695.0],["AQR",0.08226198181879327,-3.196807620724964,11.0,1710.0],["ARHGAP12",0.08263124723349535,-3.221394438638334,14.0,1707.0],["ATF7",0.14005007780824455,-8.268053484360202,9.0,1712.0],["ATP13A2",0.10185300202018191,-4.637746908039056,16.0,1705.0],["C3orf20",0.12752595327463806,-6.95591638053887,10.0,1711.0],["CELA2B",0.13287253417506956,-7.501352261152529,8.0,1713.0],["CEP164",0.08730687946892335,-3.541201836628719,15.0,1706.0],["CLEC1A",0.1872530145094983,-14.318288595634996,8.0,1713.0],["CPSF1",0.11752412062693951,-5.993933471218246,21.0,1700.0],["CTNNB1",0.12632928123290876,-6.836824065344019,8.0,1713.0],["ERCC5",0.13525341687005477,-7.751283380297317,9.0,1712.0],["FGD5",0.13402880777631504,-7.622187631674468,11.0,1710.0],["GCC2",0.1015425291886572,-4.6127217661512745,31.0,1690.0],["IPMK",0.14172577917888401,-8.452772646450686,11.0,1710.0],["KCNH7",0.06399965749617353,-2.101730976383359,31.0,1690.0],["KIAA1199",0.10776785033649562,-5.128126478688416,15.0,1706.0],["KIF25",0.1450517822985033,-8.825857586085625,8.0,1713.0],["KYNU",0.10691422548929082,-5.055753293465377,9.0,1712.0],["LRRIQ1",0.06744041772699426,-2.2900982838598085,44.0,1677.0],["LYPD4",0.10074338601205211,-4.548635248240893,9.0,1712.0],["MAGI3",0.07340006231877441,-2.6359776085719235,32.0,1689.0],["MAP4K1",0.1085950888723732,-5.198779638654876,16.0,1705.0],["MARS",0.1124454882253828,-5.534349647713052,8.0,1713.0],["MTERFD1",0.10231561522822417,-4.675167076834209,15.0,1706.0],["MTF1",0.09659993769370072,-4.223891821400909,11.0,1710.0],["MYBPH",0.11997244841613579,-6.222420150611704,11.0,1710.0],["NAMPT",0.09888625735350244,-4.401521803279046,10.0,1711.0],["NBEAL2",0.06739425031392246,-2.2875161617501054,21.0,1700.0],["NOP9",0.10369916626585544,-4.788024361185802,9.0,1712.0],["NRCAM",0.1164829243547973,-5.898133566576024,14.0,1707.0],["NT5C2",0.14178015582742298,-8.458803207541136,8.0,1713.0],["PKP1",0.15446793526230435,-9.928845145270309,10.0,1711.0],["PRUNE2",0.09028438890686492,-3.7530946161924668,17.0,1704.0],["RREB1",0.12167441346689029,-6.383919204325178,12.0,1709.0],["SF1",0.09059020953299521,-3.7752224675862727,16.0,1705.0],["SLC16A13",0.09411638224118478,-4.035279426408318,13.0,1708.0],["SYNRG",0.11780889974243793,-6.020277922737663,12.0,1709.0],["TET1",0.08941004909493074,-3.6902059377982,20.0,1701.0],["TIMELESS",0.09851613631317147,-4.372505730014507,14.0,1707.0],["USP6NL",0.1193658242064215,-6.165386599358131,19.0,1702.0],["UTRN",0.0962070435733675,-4.193753012816607,42.0,1679.0],["WDR11",0.10718351165775744,-5.078525797568756,13.0,1708.0],["WDR46",0.11990204928745372,-6.215787124387777,11.0,1710.0]],"bottom":[]},"para":{"top":[["ACTA1",0.07953865635337982,-3.313136013404326,9.0,1712.0],["BLK",0.05768743418328518,-2.0769651814290238,8.0,1713.0],["CD34",0.05424854093837996,-1.912191258295595,8.0,1713.0],["CDK5",0.06772040522529618,-2.6036378039310817,8.0,1713.0],["CLEC1A",0.05959601993420759,-2.1718653595852033,8.0,1713.0],["ECEL1",0.060129328696884775,-2.1988708735966114,10.0,1711.0],["ERG",0.0653647633525361,-2.4737893237303874,8.0,1713.0],["EWSR1",0.05483315279001385,-1.9396406039433627,8.0,1713.0],["FAM58A",0.07112418611311615,-2.7980767411933716,10.0,1711.0],["FPGS",0.07546651225944523,-3.0576705688496726,8.0,1713.0],["GALNT8",0.06977002592749214,-2.7197817020540334,10.0,1711.0],["GPR115",0.07452791354299415,-3.000576456142359,15.0,1706.0],["MTHFD1",0.0789294634492176,-3.2742539633880834,12.0,1709.0],["NLK",0.07294144528417378,-2.905166121060071,11.0,1710.0],["PIP4K2C",0.06409237285192118,-2.4052384515329015,8.0,1713.0],["PTRH1",0.06941186921929508,-2.6992623162516884,9.0,1712.0],["RASAL3",0.059398592909771716,-2.1619586908102617,9.0,1712.0],["RUFY1",0.05635486305088442,-2.0121685098227235,8.0,1713.0],["SF3A2",0.08843819691658523,-3.9120259408452593,15.0,1706.0],["SLC18A1",0.07883399866075241,-3.268153815415717,11.0,1710.0],["TNFAIP3",0.0931861636224233,-4.2543239386718446,13.0,1708.0],["TRAF3IP3",0.06767263666103124,-2.601037114362521,11.0,1710.0],["TRIM55",0.06029857159022282,-2.2074458961743377,9.0,1712.0],["UGT8",0.06123098193483429,-2.2551536527145024,9.0,1712.0],["USP48",0.07196586277192653,-2.8473568690407607,9.0,1712.0],["ZNF471",0.06612005530701451,-2.515033790675765,9.0,1712.0]],"bottom":[]}}}
{"ccle_chromatin":{"corr":{"top":[],"bottom":[]},"para":{"top":[],"bottom":[["H3K18ac0K23ac0",-0.13412268766320468,-4.240298857385876,894]]}}}
{"ccle_rrbs_enhancer_clusters":{"corr":{"top":[["9-84297210-84302117-0_enh",0.20578051355021065,-8.545526125638025,818],["9-2241884-2244833-0_enh",0.21655224516551105,-9.324864821099473,810],["15-95336721-95339446-1_enh",0.20443044863610252,-8.268913673896336,800],["17-32078098-32080677-0_enh",0.2073055844593606,-8.390888547433805,790]],"bottom":[]},"para":{"top":[["10-130829457-130832316-0_enh",0.200009410149965,-7.900383936982342,796],["16-8236189-8238988-1_enh",0.20077621840264023,-4.599797286998287,434],["18-76010236-76012891-1_enh",0.21287966298462654,-8.076257479105191,718]],"bottom":[["2-236960599-236963728-1_enh",-0.21437158467471487,-9.200132187474692,815]]}}}
{"ccle_mirna":{"corr":{"top":[["hsa-miR-155_miR00178.1",0.2189391975625911,-11.058333798475276,951]],"bottom":[]},"para":{"top":[],"bottom":[]}}}
{"prism_primary_logfold":{"corr":{"top":[["clidinium_BRD-A46066006-004-22-6::2.5::HTS",0.13197075004541828,-2.73212066282192,554],["marbofloxacin_BRD-K71926323-001-13-8::2.5::HTS",0.1325377016766641,-2.76038148406099,556]],"bottom":[]},"para":{"top":[["ML167_BRD-K64835161-001-02-8::2.5::HTS",0.12881900510238206,-2.630873516959779,556]],"bottom":[]}}}
{"prism_secondary_logfold":{"corr":{"top":[],"bottom":[["VE-821_BRD-K26756394-001-02-2::0.00061034::HTS002",-0.15143943055969072,-3.031634502711223,475]]},"para":{"top":[["teniposide_BRD-A35588707-001-05-5::0.00976562::HTS002",0.16075937167365043,-3.305774119118216,466]],"bottom":[]}}}
{"ccle_proteomics":{"corr":{"top":[["PPA2_Q9H2U2",0.2992885047880525,-8.451268459370207,374]],"bottom":[]},"para":{"top":[["PPA2_Q9H2U2",0.27789801577997736,-7.332803438657225,374]],"bottom":[]}}}
{"depmap_copy_number":{"corr":{"top":[["SLC39A8_64116",0.9989647095800115,-323.0051853474518,1745],["MANBA_4126",0.985113935785021,-323.0051853474518,1745],["NFKB1_4790",0.9992454560188481,-323.0051853474518,1745],["BANK1_55024",0.9187943279435707,-323.0051853474518,1745]],"bottom":[]},"para":{"top":[["BDH2_56898",0.9873540374562334,-323.0051853474518,1745],["SLC39A8_64116",0.9996780041025672,-323.0051853474518,1745],["FLJ20021_90024",0.9918329321629278,-323.0051853474518,1745],["UBE2D3_7323",0.9894107371888745,-323.0051853474518,1745],["SLC9B1_150159",0.9859163127554663,-323.0051853474518,1745],["CENPE_1062",0.9843342297905422,-323.0051853474518,1745],["PPP3CA_5530",0.9851816357809101,-323.0051853474518,1745],["SLC9B2_133308",0.9861061512898537,-323.0051853474518,1745],["CISD2_493856",0.9859163127554663,-323.0051853474518,1745],["MIR1255A_100302193",0.9875250745857311,-323.0051853474518,1745],["MANBA_4126",0.9903214539569289,-323.0051853474518,1745],["NFKB1_4790",0.9986975006292603,-323.0051853474518,1745],["UBE2D3-AS1_105377348",0.9864645270270974,-323.0051853474518,1745],["MIR8066_102465868",0.9849197701851958,-323.0051853474518,1745],["LOC102723704_102723704",0.9894107371888745,-323.0051853474518,1745],["BANK1_55024",0.9946315593358198,-323.0051853474518,1745]],"bottom":[]}}}
{"depmap_gene_tpm":{"corr":{"top":[["OR52A5_390054",0.36677298754032756,-41.72150755029058,1293]],"bottom":[["LAPTM4B_55353",-0.25641239398279303,-20.132453942747222,1293],["CORO1B_57175",-0.25871096673620436,-20.491761504635445,1293]]},"para":{"top":[["UBE2D3_7323",0.5931031419239613,-122.95678133906195,1293]],"bottom":[["DIRC2_84925",-0.2797339533833516,-23.946766625336263,1293],["TM4SF19_116211",-0.2889538094678793,-25.559796274663746,1293]]}}}
{"avana":{"corr":{"top":[],"bottom":[["IGBP1_3476",-0.1588665441573627,-4.675304101698922,710],["GRINA_2907",-0.1521107372184109,-4.6428922830193935,769],["DEFB126_81623",-0.14921895373882121,-4.486817148901991,769],["AKIRIN2_55122",-0.16224727238886577,-5.140028064311881,757],["GPIHBP1_338328",-0.18640145727620938,-6.7153834669142345,769],["SCN4B_6330",-0.1611628180257587,-5.150035056643485,769]]},"para":{"top":[["CENPE_1062",0.248649091111001,-11.573754839092523,769]],"bottom":[["NUS1_116150",-0.16768947135696313,-5.533318177656815,769]]}}}
{"drive":{"corr":{"top":[],"bottom":[["EPHA2_1969",-0.21226636025675163,-4.488164557288381,377],["FAM58A_92002",-0.23285367222634115,-5.3858678960366895,383],["TNKS2_80351",-0.23600074198259868,-5.481491368548256,380],["UNC5C_8633",-0.21927408167919168,-4.759262561467772,377]]},"para":{"top":[],"bottom":[["KAT2B_8850",-0.2277757579022382,-5.136425918515296,380],["TNKS2_80351",-0.3028913297133248,-8.777601049225078,380],["GLI1_2735",-0.22444480189224605,-5.000262626090697,380]]}}}
{"achilles":{"corr":{"top":[],"bottom":[["SERPINH1_871",-0.2144239069137611,-5.820770770352134,494],["HSPB8_26353",-0.20792878528445702,-5.501662874494032,494],["NIPAL3_57185",-0.20232315445776405,-3.180423286951179,280],["MYH9_4627",-0.20258738660163808,-5.246688535439917,494],["ZNF579_163033",-0.20908661626813732,-5.557816828556944,494]]},"para":{"top":[],"bottom":[]}}}
{"ccle_rrbs_tss1kb":{"corr":{"top":[["CRIM1_2_36582369_36583369",0.28215344982212465,-15.874482400285336,827],["CYFIP1_15_22891218_22892218",0.2937220266098386,-16.557579495672712,795],["LHFPL2_5_77944648_77945648",0.3054547461762042,-18.33476526418708,815],["CETN4P_4_123653613_123654613",0.3636450241188247,-26.343798810436077,821],["CCN2_6_132272518_132273518",0.291275616858583,-16.850453118850993,824],["PPP4R1_18_9614605_9615605",0.361716034320915,-26.26996568679712,828],["SMOX_20_4128425_4129425",0.2832035534616106,-15.789108775471725,816],["FAM86B1_8_12051624_12052624",0.36806721153715427,-9.780669844459807,283],["PPP4R1-AS1_18_9614261_9615261",0.3742087375924389,-28.191810118075555,828],["PRRT1_6_32120860_32121860",0.335044168449408,-10.403720808849307,369]],"bottom":[]},"para":{"top":[["BMPR1B_4_95678127_95679127",0.26957268046587163,-10.940384874028641,613]],"bottom":[["CSK_15_75079884_75080884",-0.2443212054792184,-10.246243463322433,700]]}}}
{"ccle_gene_tpm":{"corr":{"top":[["OR52E1_ENSG00000273085.1",0.4490509453976232,-50.596666872201915,1011],["RNU4-73P_ENSG00000200034.1",0.47152467858107916,-56.37041138151895,1011],["RN7SKP174_ENSG00000200673.1",0.4715246785810791,-56.37041138151895,1011],["PARP4P2_ENSG00000224976.2",0.4368663324995202,-47.64220803506806,1011],["RP11-359B20.5_ENSG00000253232.1",0.4715246785810791,-56.37041138151895,1011],["CTD-2182N23.1_ENSG00000240237.1",0.4127283052912196,-42.133947303956894,1011],["IL21_ENSG00000138684.3",0.4164731864401532,-42.95942497385881,1011],["AC010967.3_ENSG00000232604.1",0.40191379251621584,-39.80821711453505,1011],["RP11-385E5.5_ENSG00000229791.1",0.4493639994564763,-50.67416767157069,1011],["TRBV2_ENSG00000226660.2",0.47248481511639073,-56.62680173699467,1011],["GS1-388B5.8_ENSG00000239432.1",0.4347968212696802,-47.15224481765352,1011]],"bottom":[["PTPLAD1_ENSG00000074696.8",-0.2602346222931357,-16.385544614189836,1011],["LAPTM4B_ENSG00000104341.12",-0.2594994726978535,-16.294572168944114,1011],["IL13RA1_ENSG00000131724.6",-0.248066168316801,-14.916506169185231,1011]]},"para":{"top":[["UBE2D3_ENSG00000109332.15",0.6375924375155373,-115.7234294503031,1011]],"bottom":[["HOXA2_ENSG00000105996.5",-0.26658791264263165,-17.183771378765005,1011],["DIRC2_ENSG00000138463.8",-0.2753072758429623,-18.314691310746113,1011]]}}}
{"ccle_rrbs_tss_clusters":{"corr":{"top":[["AK4_2",0.3125238268606087,-6.640678292787103,263],["EPHB2_2",0.30150571101181595,-6.481725891690841,276],["FAM86B1",0.36736686394123585,-9.840192801617839,286],["PPP4R1",0.3615580987105335,-26.645020718124705,841],["ERRFI1_2",0.28717025952437913,-5.640083791680222,262],["HACD3_1",0.30744913598188917,-19.121159702260414,840],["ZBED3-AS1_1",0.2895015854660285,-16.704822352086254,827],["KCTD1_5",0.3037626281558497,-7.940971591704429,339],["RND3_1",0.29382451420472244,-17.244566640285132,829],["BBS12",0.36089060311830184,-26.23762207028551,831],["DNAJC9-AS1_2",0.31360261877359263,-9.321803765770692,377]],"bottom":[]},"para":{"top":[["LOC101929998_3",0.2680743128208671,-9.265855210758636,519]],"bottom":[]}}}
{"ccle_rrbs_cgi_clusters":{"corr":{"top":[["8_12051852_12054607-1",0.36736686394123585,-9.840192801617839,286],["15_67358200_67361061-2",0.3142410466311392,-16.872978865515535,704],["15_68175160_68179415-1",0.33244366495793565,-7.557212082608578,266],["4_123651585_123656000-1",0.36089060311830184,-26.23762207028551,831],["10_75004629_75009184-2",0.31360261877359263,-9.321803765770692,377],["15_65820685_65825540-1",0.30744913598188917,-19.121159702260414,840],["18_24236425_24239261-1",0.3037626281558497,-7.940971591704429,339]],"bottom":[["17_78850167_78852933-3",-0.26814453460730625,-9.619041429347984,540],["17_78718000_78722227-1",-0.2953788186558807,-17.44696826835444,830],["8_48741841_48746177-2",-0.3000345787173576,-8.049823302148427,353]]},"para":{"top":[["12_3065960_3068702-2",0.3513127567973197,-8.211660642256087,259]],"bottom":[["21_36396960_36401259-1",-0.28240502821340324,-13.226486872689502,681]]}}}
