{"depmap_hotspot":{"corr":{"top":[["DTX3L",0.0623501356726764,-2.0152928977755016,45.0,1677.0],["ERH",0.06254401024245515,-2.0254714684152684,15.0,1707.0],["HIGD1B",0.07414355812054611,-2.6821890370708417,8.0,1714.0],["MYOG",0.06816661299953015,-2.332027211082781,25.0,1697.0],["TMEM69",0.06001674684794229,-1.8948252105308272,11.0,1711.0]],"bottom":[["ACOX1",-0.07313671473803017,-2.62143767269177,62.0,1660.0],["ATM",-0.07215689009012292,-2.5630048664962124,264.0,1458.0],["C17orf64",-0.08107608663729163,-3.12005103066324,20.0,1702.0],["CDK1",-0.08401846525048387,-3.316284491770857,31.0,1691.0],["CPVL",-0.08530650658793376,-3.404147182334541,57.0,1665.0],["CRYM",-0.07202375987908809,-2.5551178381379724,23.0,1699.0],["DLG5",-0.09130709782479463,-3.8292907651575843,172.0,1550.0],["DPYSL3",-0.07289465679463966,-2.606939212636869,74.0,1648.0],["FAM43A",-0.08795880553663203,-3.5888450995726573,43.0,1679.0],["GEMIN4",-0.08008325581450298,-3.0552388734076783,60.0,1662.0],["HMGXB3",-0.074738835031902,-2.718444865100814,92.0,1630.0],["HSD17B13",-0.08071870940049408,-3.096640048255092,26.0,1696.0],["HTR1B",-0.0827997769766973,-3.2342527885070615,72.0,1650.0],["IDUA",-0.07382526399948966,-2.662906093523992,62.0,1660.0],["KRT6A",-0.07270558127244928,-2.59564303329555,74.0,1648.0],["MAD2L2",-0.07566635026143345,-2.775436884651515,17.0,1705.0],["MAN2B2",-0.08818342698680938,-3.6047208627729965,127.0,1595.0],["MARS",-0.08147889877739492,-3.1465481099816652,79.0,1643.0],["MPP2",-0.08328154895866495,-3.2665538546383357,59.0,1663.0],["NHS",-0.07249011924989253,-2.5828012060919634,102.0,1620.0],["NMT1",-0.07740353380154841,-2.883824652544923,57.0,1665.0],["NPIPB6",-0.07462604134876309,-2.711555783611698,21.0,1701.0],["OPN4",-0.08625338798938242,-3.4695013598099496,60.0,1662.0],["PHKA2",-0.074372630621672,-2.6961111556557467,93.0,1629.0],["PINK1",-0.0776899758164252,-2.901902905728492,50.0,1672.0],["PRODH",-0.08086461381202294,-3.1061868636535364,51.0,1671.0],["PRSS53",-0.077070317422985,-2.8628678795060014,36.0,1686.0],["PSKH2",-0.07299779503874904,-2.6131117830645922,68.0,1654.0],["PSME4",-0.07232594485077658,-2.573038202651444,144.0,1578.0],["RNASE12",-0.08892988192368034,-3.6577414463042555,20.0,1702.0],["RPL13A",-0.07626923140737035,-2.8128091136027726,25.0,1697.0],["RUNDC3A",-0.07624772064708904,-2.8114712300033964,31.0,1691.0],["SHE",-0.07210955989725294,-2.560199452429364,39.0,1683.0],["SHISA7",-0.08348641826949924,-3.2803401905110072,40.0,1682.0],["SLC22A8",-0.07817512581915406,-2.9326556807946913,57.0,1665.0],["STC1",-0.08249988867184622,-3.2142306231460807,25.0,1697.0],["SULT1C2",-0.07967728325349135,-3.028940197586478,39.0,1683.0],["TIPRL",-0.0749461638685153,-2.7311313914053925,25.0,1697.0],["TMEM130",-0.08438312073300955,-3.3410378118343664,54.0,1668.0],["TMPRSS11A",-0.07419083291974829,-2.685059167080948,38.0,1684.0],["TPGS1",-0.08941305581189223,-3.69227672606317,30.0,1692.0],["TTC8",-0.07666517691098441,-2.8374941293327876,44.0,1678.0],["ZNF366",-0.07345500788767667,-2.640565432798942,74.0,1648.0],["ZNF668",-0.09913981678347857,-4.423717430853856,87.0,1635.0]]},"para":{"top":[["EDN2",0.06341984357543859,-2.3704974998799906,11.0,1711.0],["GSTA1",0.0857296131339253,-3.7256633065744635,22.0,1700.0],["OR2B3",0.06312598374648398,-2.3551157243850698,34.0,1688.0],["PSCA",0.0670431078910885,-2.5670806212422304,12.0,1710.0],["ZNF550",0.07390799413963138,-2.964530202169216,34.0,1688.0]],"bottom":[["BARX1",-0.07134292047582216,-2.8121685980518527,18.0,1704.0],["C15orf38-AP3S2",-0.07218124422997724,-2.861455349062951,21.0,1701.0],["CXCL14",-0.07809524989156746,-3.2227701828979094,12.0,1710.0],["LGALS2",-0.06503236646667085,-2.4568963627646836,13.0,1709.0],["LYZL4",-0.06963554739346597,-2.713326564757813,16.0,1706.0],["NPIPB6",-0.07638556355031065,-3.115886075565585,21.0,1701.0],["PDSS2",-0.09934250299513743,-4.72447093263281,28.0,1694.0],["RFESD",-0.0727657862458473,-2.8959923133213303,12.0,1710.0],["RNASE12",-0.07695684956329811,-3.151401492133689,20.0,1702.0],["RPL13A",-0.08099066348164609,-3.4087685066266067,25.0,1697.0],["SMCO2",-0.07830154437823933,-3.2359471249123115,24.0,1698.0]]}}}
{"depmap_damaging":{"corr":{"top":[["XPOT",0.06622882512140552,-2.222827595928829,16.0,1705.0]],"bottom":[["AL627309.1",-0.08222274041546955,-3.1942005625532413,13.0,1708.0],["CASC1",-0.06400654811267767,-2.1020999775654707,8.0,1713.0],["CASR",-0.06885634062824134,-2.370014464331644,11.0,1710.0],["CDH8",-0.07019830286754253,-2.44705341733299,18.0,1703.0],["CDK1",-0.07752322081625787,-2.889953276720053,12.0,1709.0],["COL5A3",-0.0911318830954644,-3.81458247360485,33.0,1688.0],["FBN1",-0.08105100934688782,-3.116863856084106,35.0,1686.0],["FCRL4",-0.0743725983062663,-2.6947966972857333,11.0,1710.0],["HNRNPK",-0.06944604548637111,-2.403712369695707,9.0,1712.0],["KIAA1211",-0.07264550156516561,-2.590802475904976,51.0,1670.0],["MAPT",-0.07207542901134469,-2.5569391799768377,27.0,1694.0],["MED13L",-0.07500990837468878,-2.733704564832747,13.0,1708.0],["PAPD4",-0.07180201950159659,-2.540779530229143,29.0,1692.0],["PRX",-0.06543578048145128,-2.179350211846275,13.0,1708.0],["SHPRH",-0.07510325557526006,-2.7394275990724157,37.0,1684.0],["SLCO4C1",-0.06688640591982058,-2.2592109608802127,13.0,1708.0],["SPAG17",-0.06396760942670364,-2.100015195008621,38.0,1683.0],["SPEF2",-0.08652612397819148,-3.486702275002695,45.0,1676.0],["TMEM87A",-0.07166527782847461,-2.532717294826182,10.0,1711.0],["TOP2B",-0.06855309457190667,-2.352780801265343,21.0,1700.0],["TRANK1",-0.07186043061812492,-2.5442274447169666,26.0,1695.0]]},"para":{"top":[["LARS2",0.05766354011177455,-2.0758167568033383,9.0,1712.0],["SNED1",0.05734358586458297,-2.060130518754377,8.0,1713.0]],"bottom":[["AAGAB",-0.0625769407455956,-2.325066660090101,9.0,1712.0],["CSF1R",-0.06361097328516485,-2.3795921708629963,8.0,1713.0],["DMC1",-0.06039590977117669,-2.2123986293816706,9.0,1712.0],["DYRK3",-0.06512633700344887,-2.4609275361249896,11.0,1710.0],["EME1",-0.06544714507624354,-2.478292598997895,9.0,1712.0],["FAM214A",-0.08110991079069324,-3.414888773175899,13.0,1708.0],["FCRL4",-0.0683404593254219,-2.638523095756507,11.0,1710.0],["HNRNPK",-0.06378502109945591,-2.388872190124718,9.0,1712.0],["KANK1",-0.0744063742939415,-2.993196647304167,14.0,1707.0],["LTK",-0.0614219800690032,-2.265020739890067,10.0,1711.0],["MRPS9",-0.05656983433117784,-2.022540375082251,8.0,1713.0],["OPN4",-0.05447210795172382,-1.9226612941775076,8.0,1713.0],["PACSIN2",-0.06632862690144276,-2.5265444710830027,12.0,1709.0],["PMPCA",-0.0665254373943243,-2.537291145663247,8.0,1713.0],["RARB",-0.06571470649689716,-2.4928642983332265,9.0,1712.0]]}}}
{"ccle_rppa":{"corr":{"top":[],"bottom":[["CCNB1_Cyclin_B1",-0.14506794785414828,-4.889447774626193,897]]},"para":{"top":[],"bottom":[["CCNB1_Cyclin_B1",-0.1658876713153276,-6.23273375150949,897]]}}}
{"ccle_rrbs_enhancer_clusters":{"corr":{"top":[],"bottom":[["17-35009848-35014557-0_enh",-0.1468964313163504,-4.6327614695545805,823],["16-89055397-89059210-0_enh",-0.15722982813786296,-5.324143305398346,839]]},"para":{"top":[],"bottom":[["7-115453163-115456796-0_enh",-0.1422564195089044,-4.16496628539381,778]]}}}
{"prism_primary_logfold":{"corr":{"top":[["PNU-37883_BRD-K12769093-003-01-3::2.5::HTS",0.17598622685282692,-4.4859783256376815,551],["fenbendazole_BRD-K51318897-001-15-3::2.5::HTS",0.16048989270163527,-3.7198557977053803,536],["naftifine_BRD-K74141488-003-11-2::2.5::HTS",0.13817341000945246,-2.976495338729976,559]],"bottom":[["castanospermine_BRD-K20897876-001-10-0::2.5::HTS",-0.14182110995495475,-3.074288798823357,551]]},"para":{"top":[["TAS-103_BRD-K09426783-300-01-0::2.5::HTS",0.15794206039920886,-3.617158155802998,536],["PNU-37883_BRD-K12769093-003-01-3::2.5::HTS",0.17920591362118332,-4.633902468556189,551],["ispinesib_BRD-K64881305-001-03-7::2.5::HTS",0.16291730658302328,-3.9369283325947944,555]],"bottom":[["clobutinol_BRD-A43809092-003-02-1::2.5::HTS",-0.1296344129493347,-2.6389086255073013,551],["castanospermine_BRD-K20897876-001-10-0::2.5::HTS",-0.13893074168394967,-2.96784541383939,551],["ilepcimide_BRD-K43873574-001-01-8::2.5::HTS",-0.1264630766032879,-2.554350371631804,557],["trans-4-[8-(3-Fluorophenyl)-1,7-naphthyridin-6-yl]cyclohexanecarboxylic-acid_BRD-K75080769-001-01-6::2.5::HTS",-0.1287049352112474,-2.6388346836792516,559],["metrizoic-acid_BRD-K99241550-001-03-5::2.5::HTS",-0.12408493672399193,-2.4225744151738575,543]]}}}
{"prism_secondary_logfold":{"corr":{"top":[],"bottom":[["doxycycline_BRD-A08545410-311-03-4::0.00244141::HTS002",-0.1527032868401532,-3.0254410639791227,466]]},"para":{"top":[["amsacrine_BRD-K68346641-001-01-4::2.5::HTS002",0.2021956377548134,-4.534624366435847,421]],"bottom":[["doxycycline_BRD-A08545410-311-03-4::0.00244141::HTS002",-0.17616247414155023,-3.8791614184482452,466],["clofoctol_BRD-K02900412-001-11-3::0.156249999::MTS006",-0.16818664987994952,-3.5893703209229955,468],["BIBR-1532_BRD-K04623885-001-07-5::0.00061034::HTS002",-0.15319891470175853,-3.092355419704395,475],["uridine_BRD-K13050303-001-17-3::0.000610352::HTS002",-0.15269579130110508,-3.025186416818565,466],["anagrelide_BRD-K62200014-003-10-5::0.00061::MTS010::PROS001_PR500",-0.1548511466219434,-3.0591110659829166,459],["7-aminocephalosporanic-acid_BRD-K65377893-001-07-4::2.5818::HTS002",-0.15006439282955414,-2.8346737457727387,447]]}}}
{"ccle_proteomics":{"corr":{"top":[["DSTN_P60981",0.3842577262894547,-13.880147115254944,374],["MGME1_Q9BQP7",0.47572613248446566,-21.79196362494585,374],["RRBP1_Q9P2E9",0.3884296931722973,-14.190769983580502,374],["RRBP1_Q9P2E9-2",0.4456824558845315,-9.342628872309518,178]],"bottom":[["SMARCE1_Q969G3-2",-0.21594911101417047,-2.203454217089091,159]]},"para":{"top":[["DSTN_P60981",0.39865939428162317,-14.971323616469519,374],["MGME1_Q9BQP7",0.43363426087739326,-17.85205055679342,374],["RRBP1_Q9P2E9",0.3837252986283695,-13.840822609868358,374],["RRBP1_Q9P2E9-2",0.41248444684930685,-7.975758625679181,178]],"bottom":[["OTUD4_Q01804",-0.21698224169303026,-4.63661817503195,374],["SMARCE1_Q969G3-2",-0.2349662865758487,-2.5420603435212956,159]]}}}
{"depmap_copy_number":{"corr":{"top":[["SNX5_27131",0.9997174757269021,-323.0051853474518,1745],["BFSP1_631",0.9781017077865096,-323.0051853474518,1745],["PCSK2_5126",0.9716664236932382,-323.0051853474518,1745],["BANF2_140836",0.9872447808285211,-323.0051853474518,1745],["RRBP1_6238",0.9697810839573979,-323.0051853474518,1745]],"bottom":[]},"para":{"top":[["SNX5_27131",0.9990904229242746,-323.0051853474518,1745],["BFSP1_631",0.9886788117918589,-323.0051853474518,1745],["OVOL2_58495",0.9933548616562893,-323.0051853474518,1745],["DSTN_11034",0.9838342663185972,-323.0051853474518,1745],["PCSK2_5126",0.984950899026336,-323.0051853474518,1745],["BANF2_140836",0.9950200642146356,-323.0051853474518,1745],["RRBP1_6238",0.9880736982356138,-323.0051853474518,1745]],"bottom":[]}}}
{"depmap_gene_tpm":{"corr":{"top":[["SNX5_27131",0.5178993796970888,-88.91103924008938,1293],["SNRPB2_6629",0.47008912172457246,-71.33369839336505,1293],["MGME1_92667",0.5448407864286424,-100.1217880425435,1293]],"bottom":[]},"para":{"top":[["SNRPB2_6629",0.4819816090932522,-75.44889129045339,1293],["SNX5_27131",0.4717460517283343,-71.89736112478545,1293],["MGME1_92667",0.5304649248261599,-94.01390492715348,1293]],"bottom":[]}}}
{"avana":{"corr":{"top":[["POLR3F_10621",0.4106282763110801,-31.42820023370154,757],["CFL1_1072",0.2688697271066573,-13.474682977745896,769]],"bottom":[["TLR5_7100",-0.14890535648883213,-4.470063508738348,769],["HSD11B1_3290",-0.16625718597011854,-5.447932759491952,769]]},"para":{"top":[["POLR3F_10621",0.3871948425600355,-27.757197580021316,757]],"bottom":[["CLDN11_5010",-0.13707181948888808,-3.862265512783814,769]]}}}
{"drive":{"corr":{"top":[["CFL1_1072",0.2517590828631489,-6.296321642222604,388],["LRRC15_131578",0.26599133778175343,-7.030056671296582,391]],"bottom":[]},"para":{"top":[["ADGRF1_266977",0.27297444927324027,-7.1405228216946,377],["CFL1_1072",0.2642137673489424,-6.892976399584102,388]],"bottom":[["KRIT1_889",-0.2122121553302353,-4.486102066544837,377],["NSF_4905",-0.21848767676248496,-4.795278486585582,383],["LDLR_3949",-0.20734531761002942,-4.303061483326104,377]]}}}
{"achilles":{"corr":{"top":[["CFL1_1072",0.22290236283383552,-6.252443168157237,494],["RNASE1_6035",0.23893523152985482,-7.116342535793911,494]],"bottom":[["CCDC81_60494",-0.20445204524971441,-3.2389250592377268,280],["SEC1P_653677",-0.17828087428519446,-4.169756961263096,494],["PSMG3_84262",-0.18801694838171248,-2.802398977911728,280],["GNB3_2784",-0.2117822538379236,-5.689779880346266,494]]},"para":{"top":[],"bottom":[["ACYP1_97",-0.17743797875026984,-4.134825284146696,494]]}}}
{"ccle_rrbs_tss1kb":{"corr":{"top":[],"bottom":[["MAGEA4-AS1_23_151079555_151080555",-0.21250768638579234,-5.495624002692605,472],["IL9R_23_155226245_155227245",-0.17718340155393986,-6.160669191394913,775]]},"para":{"top":[["SLC23A2_20_4982145_4983145",0.14684081159656712,-3.859935432493396,669]],"bottom":[["SPON2_4_1166657_1167657",-0.17507837476173796,-5.950131447929666,764],["MAGEA4-AS1_23_151079555_151080555",-0.18761418042460798,-4.387071123976538,472],["SPON2_4_1166999_1167999",-0.1751377826874093,-5.904602179018105,757]]}}}
{"ccle_gene_tpm":{"corr":{"top":[["MGME1_ENSG00000125871.9",0.5669871335254726,-86.32942448860655,1011],["SNX5_ENSG00000089006.12",0.5197122096079728,-70.30089666580994,1011],["SNRPB2_ENSG00000125870.6",0.5149701664118519,-68.82903457409547,1011]],"bottom":[["VPS9D1-AS1_ENSG00000261373.1",-0.17519961136787746,-7.686968322666948,1011],["RP11-79L9.2_ENSG00000174715.7",-0.1701725224727728,-7.282950658323091,1011],["WDR75_ENSG00000115368.5",-0.16726193575109036,-7.054416017327358,1011]]},"para":{"top":[["MGME1_ENSG00000125871.9",0.5439421666972833,-78.19677893849274,1011]],"bottom":[["WDR75_ENSG00000115368.5",-0.1856059177679313,-8.561036663253832,1011]]}}}
{"ccle_rrbs_tss_clusters":{"corr":{"top":[["CHCHD10_1",0.16763644227559618,-5.110084870477431,704],["PACS2_3",0.172020599922948,-3.9970877685813475,506]],"bottom":[["SHC4_2",-0.19792516042918915,-8.104405973288943,836]]},"para":{"top":[["CHCHD10_1",0.16730022041957895,-5.091623294638083,704]],"bottom":[["FAM84A_2",-0.19335918099783891,-7.80951010609177,842],["HCG15_4",-0.2019800284666462,-4.659063613767877,435],["BPIFB6_1",-0.22475244279859627,-3.3102470624043634,237]]}}}
{"ccle_rrbs_cgi_clusters":{"corr":{"top":[["22_24108029_24112995-1",0.16763644227559618,-5.110084870477431,704],["14_105767277_105769996-2",0.172020599922948,-3.9970877685813475,506]],"bottom":[["2_130761483_130765764-3",-0.20705162489074827,-4.382450764279564,386],["12_42678607_42682889-2",-0.20446919668933436,-7.441328094177529,713],["1_27939865_27944324-3",-0.23044352096341178,-7.666287297951565,577],["15_49252984_49257564-2",-0.19792516042918915,-8.104405973288943,836]]},"para":{"top":[["22_24108029_24112995-1",0.16730022041957895,-5.091623294638083,704]],"bottom":[["8_1352903_1357417-3",-0.22970309844691691,-3.6782599394962716,256],["23_129305686_129308427-2",-0.23905641915848314,-3.705281126752963,238],["1_27939865_27944324-3",-0.19918988335316595,-5.8489372828436474,577]]}}}
