{"depmap_hotspot":{"corr":{"top":[["ART3",0.0810743899649445,-3.1199396691977386,35.0,1687.0],["COMMD1",0.07944467252839038,-3.013924929702942,15.0,1707.0],["FAM132B",0.09374700992034532,-4.009643210153838,35.0,1687.0],["GP1BB",0.0998591949609406,-4.480567852473154,15.0,1707.0],["LEKR1",0.08905229898438086,-3.6664752874522883,55.0,1667.0],["OR13J1",0.08122128136300794,-3.1295885637515672,36.0,1686.0],["RIMS3",0.08458367200801298,-3.3546923490173186,44.0,1678.0],["RPL34",0.07379188786641142,-2.6608882515168615,12.0,1710.0],["RPL36AL",0.10693687249192664,-5.060279824016581,8.0,1714.0],["SCTR",0.0825630361201464,-3.218441316762129,58.0,1664.0],["SNX16",0.07531841357698744,-2.753986025910106,24.0,1698.0]],"bottom":[["AFAP1L2",-0.0691761841529094,-2.3894089215928465,71.0,1651.0],["ANK3",-0.06502036907891456,-2.1577749915288265,286.0,1436.0],["ANKS6",-0.06285555393378431,-2.0418822713132143,78.0,1644.0],["ATG7",-0.06637092252432206,-2.2317277172902483,47.0,1675.0],["BIRC6",-0.07851154327156329,-2.9540791549337144,319.0,1403.0],["C6orf58",-0.07939500194461083,-3.010723653746878,32.0,1690.0],["CCDC13",-0.08485678746769662,-3.373334047588344,59.0,1663.0],["CDH2",-0.07273554729216854,-2.5974316465771405,97.0,1625.0],["DLST",-0.06741415388051951,-2.2897236250532487,33.0,1689.0],["ELMOD1",-0.06775515582327397,-2.3088458003717838,46.0,1676.0],["MAGED1",-0.07609795335846307,-2.802165420940647,61.0,1661.0],["RAPGEF4",-0.06926500952794917,-2.3944917725628043,130.0,1592.0],["RBM19",-0.07067031237746099,-2.4756450125653022,102.0,1620.0],["RBM34",-0.08444861524532306,-3.3454938193641355,54.0,1668.0],["SCML1",-0.06268223562500017,-2.0327443010880026,11.0,1711.0],["TCF21",-0.06271978523530468,-2.034722287324765,29.0,1693.0],["UTP14C",-0.06270565196004645,-2.0339776796765783,52.0,1670.0],["ZNF184",-0.08537816077128366,-3.4090701460559734,70.0,1652.0]]},"para":{"top":[["KB-1507C5.2",0.0773067701904325,-3.1731068489086236,9.0,1713.0],["TREM1",0.07618401107394389,-3.1034770808454932,34.0,1688.0]],"bottom":[["C6orf58",-0.08756096288592082,-3.852437573260025,32.0,1690.0],["CCL21",-0.0527331604177921,-1.8428807481567628,12.0,1710.0],["DBNDD1",-0.07598506242231205,-3.091030172975885,13.0,1709.0],["DLST",-0.08186980140676814,-3.4664077292521087,33.0,1689.0],["SCML1",-0.05240777695165591,-1.8280108962677064,11.0,1711.0],["SUGT1",-0.09243687303656573,-4.201349570030517,26.0,1696.0],["ZCRB1",-0.07083923263524167,-2.7828367291236393,22.0,1700.0]]}}}
{"depmap_damaging":{"corr":{"top":[["DZIP3",0.08724446623402556,-3.5368289573919194,42.0,1679.0],["LY75-CD302",0.08144099426166351,-3.142494383416062,16.0,1705.0],["MX2",0.07439518253788399,-2.696170549020007,15.0,1706.0],["SMC1B",0.060861592317667086,-1.9371007532903615,17.0,1704.0],["TTC39A",0.13206806668620127,-7.417886725173682,10.0,1711.0],["ZNF845",0.09530994234249851,-4.125360423544029,10.0,1711.0]],"bottom":[]},"para":{"top":[["ALS2CL",0.057094545907618394,-2.0479875736104085,8.0,1713.0],["DCST1",0.06187996291594616,-2.2887092245857983,9.0,1712.0],["SS18L1",0.06209816369383041,-2.300030381401833,8.0,1713.0]],"bottom":[["NFKB2",-0.05298950909775309,-1.8538965639138612,10.0,1711.0],["TFIP11",-0.06800076686597092,-2.619397177550231,10.0,1711.0]]}}}
{"ccle_rrbs_enhancer_clusters":{"corr":{"top":[],"bottom":[["6-50683244-50688237-0_enh",-0.18493646049929952,-6.993429402827539,817],["7-155264928-155267809-1_enh",-0.22351292297479852,-9.800287784855367,801],["10-119492536-119495137-2_enh",-0.2560927796281825,-4.145848129045791,235]]},"para":{"top":[],"bottom":[]}}}
{"ccle_mirna":{"corr":{"top":[["hsa-miR-876-5p_miR00648.2",0.11279515141742726,-3.307851466886519,951]],"bottom":[]},"para":{"top":[],"bottom":[]}}}
{"prism_primary_logfold":{"corr":{"top":[["hydroxytoluic-acid_BRD-K75608666-001-08-3::2.5::HTS",0.13888511287582214,-2.929581534984765,543],["MEK162_BRD-K82244583-001-01-3::2.5::HTS",0.19340362825834534,-5.187856698304471,536],["pregabalin_BRD-K66786476-001-01-3::2.500037331::MTS004",0.1526117348527014,-3.423712589353822,539]],"bottom":[["salinomycin_BRD-A28301258-001-04-8::2.5::HTS",-0.1809157384593958,-4.52364044449611,526],["Ro-106-9920_BRD-A53134341-001-03-2::2.5::HTS",-0.17547136185952694,-4.355239596523015,536],["SU3327_BRD-K32730239-001-01-0::2.5::HTS",-0.20669623221292754,-6.053982266286536,556],["inosine_BRD-K79612754-001-19-1::2.62::HTS",-0.2567760382082134,-8.639557622414452,526]]},"para":{"top":[],"bottom":[["triapine_BRD-K01669786-001-02-2::2.5::HTS",-0.1687573893400996,-3.9973627243979646,526],["TW-37_BRD-K28360340-001-08-3::2.31::HTS",-0.16444589514771046,-3.819178560376055,526]]}}}
{"prism_secondary_logfold":{"corr":{"top":[["iobenguane_BRD-K43860855-065-11-9::0.15625::HTS002",0.23640147569206454,-3.6057960871166888,236],["cinacalcet_BRD-K73838513-003-05-5::2.5::MTS010::PROS003_PR500",0.15651998327573832,-3.1102062033892364,458]],"bottom":[["mocetinostat_BRD-K16485616-001-08-9::0.625::HTS002",-0.2619943074127188,-4.596986834053857,252],["chloroxine_BRD-K17075857-001-18-4::2.5::HTS002",-0.24273846083315487,-7.017456623385341,471],["fdcyd_BRD-K18157228-001-01-7::10::HTS002",-0.2637753865157439,-7.162635797083545,406],["spermine_BRD-K18375018-376-02-3::10::HTS002",-0.22181474409057167,-5.923047640280245,470],["SU3327_BRD-K32730239-001-01-0::2.5::HTS002",-0.22247154711410225,-6.012693192670889,475],["SN-38_BRD-K89561498-001-01-7::0.0024414::HTS002",-0.22244269874348155,-5.976909236204954,472]]},"para":{"top":[["iobenguane_BRD-K43860855-065-11-9::0.15625::HTS002",0.282086027765872,-4.96590225635801,236],["cinacalcet_BRD-K73838513-003-05-5::2.5::MTS010::PROS003_PR500",0.1883679721528266,-4.302848283500905,458]],"bottom":[["fdcyd_BRD-K18157228-001-01-7::10::HTS002",-0.2401375111570732,-6.008602291641114,406]]}}}
{"ccle_proteomics":{"corr":{"top":[["DCHS1_Q96JQ0",0.4113215427750483,-4.925815556139161,106]],"bottom":[["CHKA_P35790",-0.2560869234494313,-3.8179182773810005,214]]},"para":{"top":[["MIER1_Q8N108-12",0.32562352969703207,-9.959627519730889,374]],"bottom":[]}}}
{"depmap_copy_number":{"corr":{"top":[["ALG6_29929",0.9628642905904647,-323.0051853474518,1745],["UBE2U_148581",0.9941738560898453,-323.0051853474518,1745],["MIR101-1_406893",0.9770554671349415,-323.0051853474518,1745],["JAK1_3716",0.9675760236123517,-323.0051853474518,1745],["ROR1-AS1_101927034",0.9923893118014228,-323.0051853474518,1745],["LINC01359_101927084",0.977430085386623,-323.0051853474518,1745],["EFCAB7_84455",0.9663922651662505,-323.0051853474518,1745],["MIR3671_100500854",0.9770554671349415,-323.0051853474518,1745],["PGM1_5236",0.9712713610557558,-323.0051853474518,1745],["RAVER2_55225",0.9820413931649278,-323.0051853474518,1745],["CACHD1_57685",0.9972954526920246,-323.0051853474518,1745],["ITGB3BP_23421",0.9635009276513433,-323.0051853474518,1745],["DLEU2L_79469",0.9682608446104904,-323.0051853474518,1745]],"bottom":[]},"para":{"top":[["UBE2U_148581",0.9941168248705766,-323.0051853474518,1745],["MIR101-1_406893",0.9927823188521416,-323.0051853474518,1745],["JAK1_3716",0.9926932157397955,-323.0051853474518,1745],["ROR1-AS1_101927034",0.9925575238430121,-323.0051853474518,1745],["LINC01359_101927084",0.9935147701092673,-323.0051853474518,1745],["DNAJC6_9829",0.9896609118556597,-323.0051853474518,1745],["MIR3671_100500854",0.9927823188521416,-323.0051853474518,1745],["PGM1_5236",0.9836065538783507,-323.0051853474518,1745],["RAVER2_55225",0.9928272287474457,-323.0051853474518,1745],["AK4_205",0.9898535190122418,-323.0051853474518,1745],["CACHD1_57685",0.9982157912434871,-323.0051853474518,1745],["LEPR_3953",0.9873308332781701,-323.0051853474518,1745],["DLEU2L_79469",0.9829549805567241,-323.0051853474518,1745],["LEPROT_54741",0.9873308332781701,-323.0051853474518,1745]],"bottom":[["LOC102724084_102724084",-0.14771056093086307,-9.248120592701463,1745],["MPHOSPH6_10200",-0.1491375923178825,-9.416045796151096,1745]]}}}
{"depmap_gene_tpm":{"corr":{"top":[],"bottom":[["DNPH1_10591",-0.18468305930548984,-10.657634834336648,1293],["HDDC3_374659",-0.16470593328475863,-8.591679540081188,1293],["PYCARD_29108",-0.17540712459230107,-9.668450530181197,1293]]},"para":{"top":[],"bottom":[["PYCARD_29108",-0.18336274382378437,-10.513646621828489,1293]]}}}
{"avana":{"corr":{"top":[],"bottom":[["NSMCE3_56160",-0.15660796664477247,-4.8913164108769704,769],["ZSWIM5_57643",-0.1557625036235668,-4.8440823712580565,769],["FNBP4_23360",-0.17728312823076475,-6.12383943099614,769]]},"para":{"top":[],"bottom":[]}}}
{"drive":{"corr":{"top":[],"bottom":[]},"para":{"top":[],"bottom":[]}}}
{"achilles":{"corr":{"top":[["EVI2A_2123",0.22808942896018328,-3.928516894751376,280],["SNX24_28966",0.265313925548514,-5.1690276364809975,280]],"bottom":[["ANKRD1_27063",-0.19784058157816034,-3.059157469574145,280]]},"para":{"top":[["SNX24_28966",0.28091086919201075,-5.747645221138645,280]],"bottom":[]}}}
{"ccle_rrbs_tss1kb":{"corr":{"top":[],"bottom":[["TCF15_20_590910_591910",-0.2144438480488759,-9.164093422317425,811],["EPHA5_4_66535206_66536206",-0.21280804992535113,-9.166408226273733,824],["LRRC3B_3_26663296_26664296",-0.2242112078661143,-5.983517019102295,465],["CRISPLD1_8_75895707_75896707",-0.2098775598214067,-8.768664375740366,808],["XKR4_8_56014016_56015016",-0.20709473404363615,-8.775584896027896,831]]},"para":{"top":[],"bottom":[["EPHA5_4_66535206_66536206",-0.2301843284121862,-10.643960199834707,824]]}}}
{"ccle_gene_tpm":{"corr":{"top":[],"bottom":[["DNPH1_ENSG00000112667.8",-0.17740538061614816,-7.867976377165787,1011],["C11orf1_ENSG00000137720.3",-0.17789921439822054,-7.90881410992306,1011]]},"para":{"top":[],"bottom":[["CTD-3199J23.6_ENSG00000267681.1",-0.1875213945175194,-8.72751401602756,1011]]}}}
{"ccle_rrbs_tss_clusters":{"corr":{"top":[],"bottom":[["GUCY1A1_3",-0.23998228446723419,-4.507434618876525,295]]},"para":{"top":[],"bottom":[["TDRG1_2",-0.24437477803934893,-6.345665400694019,416],["HNRNPCL3_2",-0.25307964635682345,-8.093964367057845,505]]}}}
{"ccle_rrbs_cgi_clusters":{"corr":{"top":[],"bottom":[["10_7211842_7216103-3",-0.2697889216941828,-14.315485411663424,814],["16_76266977_76271193-1",-0.272112586212159,-9.450668935540312,514],["1_1912034_1915800-3",-0.29824165211434633,-7.874301391981786,349],["4_156586297_156591292-3",-0.23998228446723419,-4.507434618876525,295]]},"para":{"top":[["8_41557255_41561609-1",0.22439739092094713,-4.657117383255834,351]],"bottom":[["23_37431245_37433784-1",-0.2462386510969511,-4.179733412048006,257]]}}}
