{"depmap_hotspot":{"corr":{"top":[["ANAPC15",0.09156475214164382,-3.848131007591759,14.0,1708.0],["ANO4",0.0901653361601639,-3.7463840826227606,157.0,1565.0],["APOLD1",0.11218702055469854,-5.514344071390228,18.0,1704.0],["APPBP2",0.09960539653797887,-4.460467376132311,41.0,1681.0],["ARHGEF9",0.09543711418005278,-4.137120542948344,36.0,1686.0],["ATP12A",0.08948004531509898,-3.6970782370323,104.0,1618.0],["BCAR1",0.0862690113017697,-3.47058511890055,76.0,1646.0],["BCDIN3D",0.09549576494693925,-4.1415818452887345,13.0,1709.0],["BTG3",0.10067886327134919,-4.545808599412893,28.0,1694.0],["C12orf79",0.12391550744894037,-6.603397698092273,10.0,1712.0],["C14orf105",0.09510050468913296,-4.111564868725621,40.0,1682.0],["C17orf75",0.11598295895813042,-5.855479892979277,24.0,1698.0],["C2orf69",0.09184090288460484,-3.868377431436641,26.0,1696.0],["C4orf33",0.09861793848159213,-4.3827132613387025,20.0,1702.0],["CAMK2B",0.09800833232085149,-4.335069916231567,62.0,1660.0],["CCM2",0.08626388692028429,-3.4702296309857488,55.0,1667.0],["CTNND2",0.09689388228167378,-4.248676655995381,168.0,1554.0],["EFHC2",0.09478201550003688,-4.087461261679155,54.0,1668.0],["EMILIN2",0.09114137478970656,-3.817198280351177,89.0,1633.0],["ENTPD1",0.0909282305666201,-3.801674953755693,33.0,1689.0],["FAM19A1",0.10215557682499775,-4.664597037403853,17.0,1705.0],["FGF13",0.09925460420618974,-4.4327632086558655,47.0,1675.0],["FNDC3B",0.09135925570354195,-3.8331007599889566,93.0,1629.0],["GABRA1",0.09589626267454676,-4.172113267649526,67.0,1655.0],["GFI1B",0.08660338522377763,-3.493822289197235,41.0,1681.0],["HIVEP3",0.09145307308101376,-3.8399588567239613,191.0,1531.0],["HORMAD1",0.08680093773082508,-3.507589102981888,39.0,1683.0],["KCTD4",0.11034268051650914,-5.352491088683721,14.0,1708.0],["LCMT1",0.12149185980755212,-6.369838893425897,19.0,1703.0],["LRRIQ3",0.09743128148398623,-4.290222513976232,111.0,1611.0],["MRPS23",0.09819428199811767,-4.349573727960616,13.0,1709.0],["NEDD8",0.10185044314776553,-4.639919782374145,12.0,1710.0],["NHLRC4",0.13646949698518857,-7.884822540653499,8.0,1714.0],["NOP58",0.08591084671852718,-3.445784255593784,47.0,1675.0],["OR51F1",0.08821993642162472,-3.6073047260146747,26.0,1696.0],["OTOGL",0.09823500565849651,-4.3527535081945,185.0,1537.0],["PCSK1",0.08666874355862453,-3.4983737822583434,65.0,1657.0],["PCTP",0.08649902867367083,-3.486561399935495,18.0,1704.0],["PDE9A",0.08853368787318631,-3.6295495260204333,48.0,1674.0],["RAB42",0.09575387261929466,-4.161244885603154,12.0,1710.0],["RNASEL",0.1012512230466233,-4.591658805210475,89.0,1633.0],["RPL28",0.09728483778944984,-4.278880067695437,17.0,1705.0],["RPS27",0.11696570094961836,-5.945560867361214,8.0,1714.0],["RSAD1",0.09470027787223426,-4.081287237866603,45.0,1677.0],["RTCB",0.09064329430160856,-3.7809746359261593,52.0,1670.0],["SCAF1",0.09898120743455342,-4.41123424007406,165.0,1557.0],["SEC61A1",0.09437066153135026,-4.056439369409394,33.0,1689.0],["SEZ6L",0.09868003637401057,-4.387581813617733,134.0,1588.0],["SLIT2",0.0865463375106391,-3.4898520645986166,174.0,1548.0],["SOGA2",0.09351187854949813,-3.992073729299097,173.0,1549.0],["SP8",0.0878711645339843,-3.582660735867091,67.0,1655.0],["SPAG9",0.09376392267008782,-4.010908521235313,113.0,1609.0],["STXBP4",0.0919861304612419,-3.879047311348803,53.0,1669.0],["TM4SF20",0.08943471066479028,-3.6938284936178736,20.0,1702.0],["TTC21B",0.08945768566897867,-3.6954752343048924,113.0,1609.0],["UGT2A1",0.086028855165689,-3.4539454326966497,82.0,1640.0],["ZBED2",0.09155844902330044,-3.8476695330321364,28.0,1694.0]],"bottom":[["ATP6V1G2",-0.053825858682301365,-1.593309047080956,9.0,1713.0],["CTB-167G5.5",-0.06839675858316438,-2.3450452779656987,15.0,1707.0],["MRPL55",-0.055901668769982094,-1.6914923534137791,14.0,1708.0],["SNX31",-0.05734116555088088,-1.7613019486295927,42.0,1680.0]]},"para":{"top":[["AL136531.1",0.06472013308347699,-2.439983009450294,10.0,1712.0],["C12orf79",0.07811925316478122,-3.224244755865052,10.0,1712.0],["CWC15",0.052096815263644,-1.813822861109351,8.0,1714.0],["IFRG15",0.06061182526723878,-2.224347002548159,11.0,1711.0],["KCTD4",0.06740101073992691,-2.587016234328363,14.0,1708.0],["LEPROT",0.07409997001032952,-2.9759400922625097,12.0,1710.0],["MRPL48",0.07227324184565138,-2.866806765865034,13.0,1709.0],["NHLRC4",0.07879374879033904,-3.2669697473880013,8.0,1714.0],["OR51A2",0.08716570731864488,-3.824789986087259,18.0,1704.0],["PATE1",0.06424203327476309,-2.414367435675733,15.0,1707.0],["RP11-113D6.10",0.058553932523087056,-2.12066714403764,12.0,1710.0],["RPS19",0.07036081226602475,-2.7550864653356824,19.0,1703.0],["TMEM89",0.06863215407905425,-2.6562115894920604,18.0,1704.0],["TPRKB",0.0713372373067726,-2.811836305849294,18.0,1704.0],["UBE2E1",0.06618464430406831,-2.519720427855813,14.0,1708.0]],"bottom":[["CTB-167G5.5",-0.06001789957998415,-2.1941769509094184,15.0,1707.0],["MRPL55",-0.054736489613634885,-1.935933750604849,14.0,1708.0],["TSLP",-0.05654993152815675,-2.022462136671003,13.0,1709.0]]}}}
{"depmap_damaging":{"corr":{"top":[["ALOX15B",0.07818946381465111,-2.932126127330194,8.0,1713.0],["ALS2CR12",0.1000718988778261,-4.495149945829503,9.0,1712.0],["ANAPC1",0.07501459884893688,-2.7339919862085376,26.0,1695.0],["ARIH2",0.07118963406534737,-2.5047761521739944,12.0,1709.0],["ATXN2",0.09998222182397906,-4.488032128580604,13.0,1708.0],["COLQ",0.14167430861738542,-8.447066490417942,9.0,1712.0],["CRYBG3",0.09493237697484165,-4.096751973714003,24.0,1697.0],["DLG5",0.06805456864439717,-2.3245892627887303,17.0,1704.0],["FPGS",0.08244785201473957,-3.2091711880396,8.0,1713.0],["GALNT13",0.07492773118962656,-2.7286714685672973,15.0,1706.0],["GPR87",0.067098269653136,-2.270997487567925,14.0,1707.0],["ITGAE",0.06520483392071773,-2.1667712942212907,25.0,1696.0],["KIFAP3",0.07093340809098905,-2.4897904889751703,15.0,1706.0],["KLB",0.06516574327183576,-2.1646458252796017,15.0,1706.0],["LYST",0.07962473974282012,-3.0240541632668205,35.0,1686.0],["MYH9",0.07205678001101988,-2.5558352704911584,35.0,1686.0],["NCOA1",0.0774902339463194,-2.8878734409359645,11.0,1710.0],["PARP8",0.06710810316768219,-2.271545312751258,11.0,1710.0],["PIK3C3",0.10257201604016448,-4.6959750757050145,11.0,1710.0],["PLOD2",0.06565080409422895,-2.1910952375884754,10.0,1711.0],["PLXNC1",0.07355561357008444,-2.645340407140262,20.0,1701.0],["PYROXD1",0.0764719923306375,-2.824053829128424,8.0,1713.0],["ROR1",0.07753070762900208,-2.8904254312636746,8.0,1713.0],["SLC5A11",0.12241516640195214,-6.454893234275644,9.0,1712.0],["TECPR1",0.07463409507054511,-2.7107262878672147,16.0,1705.0],["TLK2",0.09854054026524486,-4.374415805742067,13.0,1708.0],["TOP1",0.08464285574091404,-3.3570548329428114,10.0,1711.0],["TOX",0.07980565428492435,-3.0357459824371564,12.0,1709.0],["UBAP2L",0.07165651830712168,-2.532201286072112,15.0,1706.0],["ZNF513",0.08736499640047715,-3.5452762361323678,8.0,1713.0]],"bottom":[["DZIP1L",-0.05245600400353342,-1.52942137603434,8.0,1713.0],["TMEM67",-0.06236354392272899,-2.015046818687596,11.0,1710.0]]},"para":{"top":[["COLQ",0.05730683991691752,-2.058360071995628,9.0,1712.0],["LRIG2",0.07311312560077222,-2.9154345146365497,13.0,1708.0],["METTL18",0.0654691305908338,-2.4795106056774125,10.0,1711.0],["NCOA1",0.05931454944064292,-2.1577776513170615,11.0,1710.0],["OR4C12",0.05992632749868749,-2.188619594380473,12.0,1709.0],["OTX2",0.07338486249123095,-2.931593192395319,9.0,1712.0],["PIK3C3",0.08389013104112704,-3.5989880243962404,11.0,1710.0],["PKN2",0.07921756291295566,-3.292675512978011,14.0,1707.0],["PLAG1",0.06861489542524206,-2.654049892487085,13.0,1708.0],["RABGAP1L",0.06369544589196839,-2.3841478572675956,11.0,1710.0],["RTEL1",0.0647228025067686,-2.4391130818641944,10.0,1711.0],["SLC5A11",0.061409451829475555,-2.264352802058054,9.0,1712.0],["SUN1",0.06811509207240536,-2.625871297073253,13.0,1708.0]],"bottom":[["MBIP",-0.05462813811198968,-1.9300308238530623,10.0,1711.0],["NF2",-0.10199480155278133,-4.93211227872384,40.0,1681.0]]}}}
{"ccle_rrbs_enhancer_clusters":{"corr":{"top":[["16-54616981-54619623-1_enh",0.16526988639194656,-2.768870251072188,358]],"bottom":[]},"para":{"top":[["16-54616981-54619623-1_enh",0.20872293520574223,-4.160453639977566,358]],"bottom":[]}}}
{"prism_primary_logfold":{"corr":{"top":[["hydrochlorothiazide_BRD-K13078532-001-28-4::2.5::HTS",0.13589990200207555,-2.8539716109209867,550],["etravirine_BRD-K74717603-001-02-2::2.5::HTS",0.14334132984234033,-3.169885985414783,559]],"bottom":[]},"para":{"top":[],"bottom":[]}}}
{"prism_secondary_logfold":{"corr":{"top":[],"bottom":[["isoetharine_BRD-A24587114-066-22-5::2.5::HTS002",-0.15930477314691124,-2.893047060980961,406],["PRT062070_BRD-K25835157-001-01-4::10::HTS002",-0.1782094085979309,-3.9739595873184625,468]]},"para":{"top":[["butylscopolamine-bromide_BRD-A53951045-004-01-6::0.15625::HTS002",0.15107724045432275,-2.867345091252089,447],["TWS-119_BRD-K94176593-001-09-4::0.0390625::HTS002",0.153510213188981,-3.103165500739742,475]],"bottom":[["dinaciclib_BRD-K13662825-001-07-5::2.5::HTS002",-0.1568326365800745,-3.179104687419908,468]]}}}
{"ccle_proteomics":{"corr":{"top":[["UBE2E3_R4GMM6",0.2669611288182555,-2.8794084700830767,142]],"bottom":[]},"para":{"top":[["DCLK3_Q9C098",0.33309554702287497,-5.256354687083831,178]],"bottom":[]}}}
{"depmap_copy_number":{"corr":{"top":[["ASPHD2_57168",0.9867972443628261,-323.0051853474518,1745],["GRK3_157",0.9053112398526518,-323.0051853474518,1745],["HPS4_89781",0.9879067239331211,-323.0051853474518,1745],["LOC284898_284898",0.9406350190390679,-323.0051853474518,1745],["CRYBB1_1414",0.9660496096875041,-323.0051853474518,1745],["SRRD_402055",0.9889274505105098,-323.0051853474518,1745],["MIAT_440823",0.986986534321663,-323.0051853474518,1745],["MIATNB_102724827",0.986986534321663,-323.0051853474518,1745],["CRYBA4_1413",0.990483073728025,-323.0051853474518,1745],["LOC105372977_105372977",0.9372357092206762,-323.0051853474518,1745],["SEZ6L_23544",0.9733201057787391,-323.0051853474518,1745],["LOC100507599_100507599",0.9985097370008497,-323.0051853474518,1745],["LOC110091768_110091768",0.9443313724623285,-323.0051853474518,1745],["TFIP11_24144",0.99114960076193,-323.0051853474518,1745],["TPST2_8459",0.9985097370008497,-323.0051853474518,1745],["LINC01422_101929539",0.9443313724623285,-323.0051853474518,1745]],"bottom":[]},"para":{"top":[["ASPHD2_57168",0.9931155236969578,-323.0051853474518,1745],["GRK3_157",0.9530581480514281,-323.0051853474518,1745],["HPS4_89781",0.9931155462809826,-323.0051853474518,1745],["LOC284898_284898",0.9783286847577342,-323.0051853474518,1745],["CRYBB1_1414",0.9957772910980135,-323.0051853474518,1745],["CRYBA4_1413",0.9926841700620119,-323.0051853474518,1745],["MIAT_440823",0.9869700393589339,-323.0051853474518,1745],["MIATNB_102724827",0.9869700393589339,-323.0051853474518,1745],["SRRD_402055",0.9936585502514564,-323.0051853474518,1745],["LOC105372977_105372977",0.9751634397994301,-323.0051853474518,1745],["SEZ6L_23544",0.9818945750297268,-323.0051853474518,1745],["LOC100507599_100507599",0.9984215983835122,-323.0051853474518,1745],["LOC110091768_110091768",0.9831290103605578,-323.0051853474518,1745],["TFIP11_24144",0.9960175919183601,-323.0051853474518,1745],["TPST2_8459",0.9984215983835122,-323.0051853474518,1745],["LINC01422_101929539",0.9831290103605578,-323.0051853474518,1745]],"bottom":[]}}}
{"depmap_gene_tpm":{"corr":{"top":[["HPS4_89781",0.4257484678749075,-57.34911773682977,1293],["SRRD_402055",0.46687657730994353,-70.24963268033622,1293],["TFIP11_24144",0.5874902245095156,-120.10144877336475,1293]],"bottom":[]},"para":{"top":[["HPS4_89781",0.5043135597847188,-83.62922559535303,1293],["SRRD_402055",0.4637773443438196,-69.21470753301705,1293],["TFIP11_24144",0.5843209915529558,-118.51378440313606,1293]],"bottom":[]}}}
{"avana":{"corr":{"top":[["TFIP11_24144",0.4422542540895273,-37.43771423920465,769]],"bottom":[["C15orf41_84529",-0.17809528437557248,-6.175324340693924,769],["SIN3A_25942",-0.12483005048784011,-3.239023220215169,757],["ATRIP_84126",-0.1388268713167505,-3.9494213535621023,769]]},"para":{"top":[["TFIP11_24144",0.4238091578037229,-34.14435773724968,769]],"bottom":[["MTNR1B_4544",-0.14213621123776948,-4.116585019201413,769],["UBAP1L_390595",-0.148240346998908,-4.434647030264556,769]]}}}
{"drive":{"corr":{"top":[["NPBWR2_2832",0.2474367310679849,-5.93969718459639,377],["LMLN_89782",0.24847773008335292,-5.986179929306226,377]],"bottom":[["MFSD10_10227",-0.18855066591790126,-3.635465470480142,377]]},"para":{"top":[["NPBWR2_2832",0.3039175456554632,-8.770508991786993,377],["LMLN_89782",0.2817182922940536,-7.581263240764869,377]],"bottom":[["RYR1_6261",-0.25597446095333787,-6.327052452373954,377],["CHRFAM7A_89832",-0.20738924580323587,-4.3046947142491865,377]]}}}
{"achilles":{"corr":{"top":[["SNRPD3_6634",0.4345076870776863,-23.44008152623774,494],["FAM171B_165215",0.21432086232331155,-5.8156300464858415,494],["MANBA_4126",0.27411897791403117,-4.3178312335775635,214],["ELOA_6924",0.3754516218216104,-17.25721380180141,494]],"bottom":[["AVEN_57099",-0.28626006955315725,-5.954391481647478,280],["MYOZ3_91977",-0.18843894394544314,-4.603365898659423,494]]},"para":{"top":[["MANBA_4126",0.29472497426600214,-4.9335472226811445,214]],"bottom":[["WDR64_128025",-0.20392010015857312,-3.224252166001859,280]]}}}
{"ccle_rrbs_tss1kb":{"corr":{"top":[["DEXI_16_11036257_11037257",0.2944379190600276,-17.356281291790804,831]],"bottom":[]},"para":{"top":[],"bottom":[]}}}
{"ccle_gene_tpm":{"corr":{"top":[["TFIP11_ENSG00000100109.12",0.5833264644155797,-92.4965106967379,1011],["SRRD_ENSG00000100104.8",0.4579069777888867,-52.820562553836204,1011],["HPS4_ENSG00000100099.16",0.41800489328453216,-43.3000821578706,1011]],"bottom":[]},"para":{"top":[["TFIP11_ENSG00000100109.12",0.5995198135858025,-98.96378167353845,1011],["SRRD_ENSG00000100104.8",0.4697093757772063,-55.88788578234758,1011],["HPS4_ENSG00000100099.16",0.52698798864712,-72.6049439544348,1011]],"bottom":[]}}}
{"ccle_rrbs_tss_clusters":{"corr":{"top":[["CLEC16A_1",0.21085752322001375,-9.190417733461276,842],["AKAP2_3",0.17943516797817075,-5.344029965400072,645],["DKK1_1",0.18413697713301022,-5.171335114247322,590]],"bottom":[]},"para":{"top":[],"bottom":[["ZNF415_4",-0.16941917080486912,-2.7581469890503563,339]]}}}
{"ccle_rrbs_cgi_clusters":{"corr":{"top":[["9_112808858_112813128-3",0.17943516797817075,-5.344029965400072,645],["10_54071989_54076827-1",0.18413697713301022,-5.171335114247322,590],["23_150149106_150151782-1",0.18945231518103195,-2.3968209971142236,229],["16_11036164_11040763-1",0.2056672720683959,-8.767906567281912,842],["16_11036096_11038696-1",0.21131378855012475,-9.228085324320876,842]],"bottom":[["18_56930002_56934341-1",-0.17099973535032106,-4.02356265470223,516],["15_31662258_31666540-2",-0.16935504485833638,-6.086907187738689,838]]},"para":{"top":[["15_79100715_79103671-1",0.21643029675963138,-3.0428406077967662,232]],"bottom":[["11_67050394_67055110-3",-0.2111804679586782,-4.7073821054122975,402]]}}}
