{"depmap_hotspot":{"corr":{"top":[["ARMCX1",0.07514160302154597,-2.7431183069496075,62.0,1660.0],["COL4A5",0.08567046777807401,-3.429191343751503,136.0,1586.0],["COL4A6",0.08465544249401236,-3.3595858876502236,119.0,1603.0],["GUCY2F",0.07385529599526497,-2.6647224310631366,87.0,1635.0],["TIMP1",0.08282590153792728,-3.2360000662124366,18.0,1704.0]],"bottom":[["ALOX15B",-0.07196091893832632,-2.5513993001809956,52.0,1670.0],["CD151",-0.07063768518042117,-2.4737451127737935,25.0,1697.0],["CD247",-0.0711190924120238,-2.501853783405494,29.0,1693.0],["CNGA1",-0.08017510875569765,-3.0612054161210462,70.0,1652.0],["CYP2A13",-0.07185166068693576,-2.5449407070024384,59.0,1663.0],["DMBT1",-0.0767499035889858,-2.842790857490153,200.0,1522.0],["ENDOD1",-0.06894213736231095,-2.376042589198065,41.0,1681.0],["EPHA7",-0.08721968241422748,-3.5368634434692536,137.0,1585.0],["GEN1",-0.07317124535758239,-2.623509317711389,77.0,1645.0],["GNL1",-0.06790507549901713,-2.3172785161221685,46.0,1676.0],["HLA-DOA",-0.07363352400309198,-2.6513246955664758,31.0,1691.0],["NDN",-0.07151736087553337,-2.525231509632898,63.0,1659.0],["SUCLA2",-0.06656242423150072,-2.2423168183263775,36.0,1686.0]]},"para":{"top":[["BRCC3",0.0897783491509695,-4.009031922520549,31.0,1691.0],["SLC35D1",0.08703294941950518,-3.8156280149842843,26.0,1696.0],["TCP10L",0.062267912372634494,-2.30994515455512,15.0,1707.0]],"bottom":[["C15orf54",-0.05781122451959616,-2.083985190225506,15.0,1707.0],["GSTA3",-0.07103142798800167,-2.793997660682835,19.0,1703.0],["HINT3",-0.06293338265719932,-2.3448231449549874,13.0,1709.0],["TTC4",-0.07123886625663091,-2.8060785315644012,17.0,1705.0]]}}}
{"depmap_damaging":{"corr":{"top":[["EIF4G3",0.07289457183652184,-2.6056696973793554,22.0,1699.0]],"bottom":[["CDH26",-0.07302419532966757,-2.613424373628694,19.0,1702.0],["GEMIN5",-0.060551789670017404,-1.921216680317955,19.0,1702.0],["GTPBP4",-0.055517421565234724,-1.6723273654291686,11.0,1710.0],["HKR1",-0.061339574380644565,-1.9617374347384477,9.0,1712.0],["LIN54",-0.06533828171497223,-2.1740352390578312,11.0,1710.0],["NCAPD2",-0.07341008931388142,-2.636580628363289,38.0,1683.0],["PIWIL2",-0.06370721923899031,-2.0861009114509,8.0,1713.0],["RBKS",-0.055036934179235684,-1.6494778343383563,12.0,1709.0],["ZACN",-0.06656610080358617,-2.2414510687434555,16.0,1705.0],["ZNF804B",-0.061189034082008445,-1.9539611217712523,21.0,1700.0]]},"para":{"top":[["ANKRD1",0.07950689559007015,-3.311067476678228,8.0,1713.0],["MYEF2",0.058133526786194156,-2.098949124183031,9.0,1712.0],["NRP2",0.07310576657795144,-2.9150230415421587,15.0,1706.0],["PIK3R4",0.05825943262758582,-2.1051919895695663,10.0,1711.0]],"bottom":[["C5orf34",-0.052368821410324694,-1.8255092789740959,9.0,1712.0],["CDH26",-0.08079248110641925,-3.3942855939366314,19.0,1702.0],["CPNE7",-0.05705915905522671,-2.0463094912280693,10.0,1711.0],["DDX20",-0.054330929287906136,-1.9160686489515886,9.0,1712.0],["GTPBP4",-0.0599526396088697,-2.189935413637891,11.0,1710.0],["HKR1",-0.0731087881493881,-2.915094940127059,9.0,1712.0],["PIWIL2",-0.07458070061027881,-3.003639172313313,8.0,1713.0],["PLEKHH1",-0.07178892466642259,-2.8370308291794917,13.0,1708.0],["POC1B",-0.06075230850863943,-2.230609025176404,10.0,1711.0]]}}}
{"prism_primary_logfold":{"corr":{"top":[],"bottom":[["estrone_BRD-K81839095-001-25-1::2.6::HTS",-0.1303637868325378,-2.562303643191903,526]]},"para":{"top":[],"bottom":[["anandamide_BRD-K42352790-001-05-3::2.5::HTS",-0.12362982173810946,-2.407783469439561,543]]}}}
{"prism_secondary_logfold":{"corr":{"top":[],"bottom":[]},"para":{"top":[["mechlorethamine_BRD-K12829205-003-02-8::0.15625::HTS002",0.14983620237575268,-2.9342065381171443,467]],"bottom":[["lonafarnib_BRD-K41599323-001-02-3::10::HTS002",-0.16559352829267737,-3.5062068780457607,470]]}}}
{"ccle_proteomics":{"corr":{"top":[["NKAP_Q8N5F7",0.3414087429666258,-10.441598989816988,356]],"bottom":[]},"para":{"top":[["NKAP_Q8N5F7",0.3490669798237882,-10.912308066481666,356]],"bottom":[]}}}
{"depmap_copy_number":{"corr":{"top":[["PRPS1_5631",0.9898738060711345,-323.0051853474518,1745],["TSC22D3_1831",0.9887242933406765,-323.0051853474518,1745],["MID2_11043",0.9899248162359674,-323.0051853474518,1745],["PWWP3B_139221",0.9839129338530774,-323.0051853474518,1745],["FRMPD3-AS1_100874122",0.9904703106969278,-323.0051853474518,1745],["RIPPLY1_92129",0.9955759373430331,-323.0051853474518,1745],["MIR548AN_100616144",0.9999999999999999,-323.0051853474518,1745],["CLDN2_9075",0.9955759373430331,-323.0051853474518,1745],["NCBP2L_392517",0.9899248162359674,-323.0051853474518,1745],["MORC4_79710",0.9933728548530957,-323.0051853474518,1745],["PIH1D3_139212",0.994477589051644,-323.0051853474518,1745],["RBM41_55285",0.9954184345648858,-323.0051853474518,1745],["RADX_55086",0.9999999999999999,-323.0051853474518,1745],["TBC1D8B_54885",0.9980578100219378,-323.0051853474518,1745],["FRMPD3_84443",0.9910838321357236,-323.0051853474518,1745],["NUP62CL_54830",0.9944794686446611,-323.0051853474518,1745]],"bottom":[]},"para":{"top":[["PRPS1_5631",0.9926245993653368,-323.0051853474518,1745],["PWWP3B_139221",0.9916602898548322,-323.0051853474518,1745],["FRMPD3-AS1_100874122",0.9915499862836767,-323.0051853474518,1745],["RIPPLY1_92129",0.9957199109122855,-323.0051853474518,1745],["MIR548AN_100616144",1.0,-323.0051853474518,1745],["CLDN2_9075",0.9957199109122855,-323.0051853474518,1745],["PIH1D3_139212",0.9951624536839205,-323.0051853474518,1745],["MORC4_79710",0.995328290431636,-323.0051853474518,1745],["RBM41_55285",0.9956418935049546,-323.0051853474518,1745],["RADX_55086",1.0,-323.0051853474518,1745],["TBC1D8B_54885",0.997719342262518,-323.0051853474518,1745],["FRMPD3_84443",0.9920501851143028,-323.0051853474518,1745],["NUP62CL_54830",0.9951649475020856,-323.0051853474518,1745]],"bottom":[]}}}
{"depmap_gene_tpm":{"corr":{"top":[["RBM41_55285",0.26948831519971983,-22.22466803582558,1293],["FAM199X_139231",0.289946283479059,-25.73705310487318,1293]],"bottom":[]},"para":{"top":[["RBM41_55285",0.2923705727819612,-26.17301652916821,1293],["FAM199X_139231",0.29824189460000866,-27.246507083058095,1293]],"bottom":[]}}}
{"avana":{"corr":{"top":[],"bottom":[["HRK_8739",-0.16270282368029707,-5.2391352790917205,769]]},"para":{"top":[],"bottom":[["HRK_8739",-0.15419198668073086,-4.7569947107815,769]]}}}
{"drive":{"corr":{"top":[["RRN3P3&LOC101060405_100131998&101060405",0.16175195326505448,-2.788579385865248,377]],"bottom":[["RACGAP1_29127",-0.19622972819624662,-3.9007578903610045,377]]},"para":{"top":[],"bottom":[]}}}
{"achilles":{"corr":{"top":[],"bottom":[["PRODH2_58510",-0.16905127915629867,-3.795925242208012,494]]},"para":{"top":[],"bottom":[]}}}
{"ccle_rrbs_tss1kb":{"corr":{"top":[],"bottom":[]},"para":{"top":[],"bottom":[]}}}
{"ccle_gene_tpm":{"corr":{"top":[["RBM41_ENSG00000089682.12",0.2951153678580765,-21.03932805604024,1011],["PSMD10_ENSG00000101843.14",0.3603794083281232,-31.640340695268257,1011]],"bottom":[["TXLNG2P_ENSG00000131002.7",-0.2792515488134531,-18.839884339649824,1011],["TTTY14_ENSG00000176728.3",-0.22821178762763347,-12.684773833164208,1011]]},"para":{"top":[["RBM41_ENSG00000089682.12",0.30780933885693834,-22.901855996224665,1011]],"bottom":[]}}}
{"ccle_rrbs_tss_clusters":{"corr":{"top":[],"bottom":[]},"para":{"top":[],"bottom":[["ALG13_1",-0.36092850874458676,-23.766462111914723,750],["ALG13_4",-0.355897182564201,-24.839661974158492,809]]}}}
{"ccle_rrbs_cgi_clusters":{"corr":{"top":[],"bottom":[["23_153693618_153697844-1",-0.32242090911960053,-20.564595187787756,820]]},"para":{"top":[],"bottom":[["23_110922384_110927275-1",-0.355897182564201,-24.839661974158492,809]]}}}
