{"depmap_hotspot":{"corr":{"top":[["ADAM28",0.12331602320613583,-6.545212918112236,99.0,1623.0],["AGO1",0.09149180687482109,-3.842792185589929,66.0,1656.0],["AHDC1",0.08722389743322856,-3.537158759430933,172.0,1550.0],["AP3D1",0.0982854775256213,-4.356696138526094,102.0,1620.0],["ATP2A3",0.1064528915546482,-5.019455918132925,111.0,1611.0],["BRD1",0.09671333508358747,-4.234766274719411,98.0,1624.0],["CDH13",0.08912985991345686,-3.6720144971882656,93.0,1629.0],["EFR3B",0.08733320936092494,-3.5448219482509242,74.0,1648.0],["EFTUD2",0.09827575469089583,-4.35593648973187,72.0,1650.0],["FAM69A",0.09884650683495988,-4.400647299393053,34.0,1688.0],["FBXO25",0.09171692082486553,-3.859280620870655,38.0,1684.0],["GAREM",0.09156216548664813,-3.847941625531025,83.0,1639.0],["GLCCI1",0.0885805408278985,-3.632877498917847,47.0,1675.0],["GLRB",0.09356645427803414,-3.9961481367669034,67.0,1655.0],["GNB3",0.08652705911974562,-3.4885109206369083,37.0,1685.0],["HCN2",0.09407526156710709,-4.034238378681185,80.0,1642.0],["ITSN2",0.09411880057199694,-4.0375065748630234,121.0,1601.0],["KDM2B",0.08588459249949386,-3.443969945606761,134.0,1588.0],["LARP4",0.08689741916183318,-3.5143228496152896,57.0,1665.0],["LLGL1",0.08745520584791323,-3.553384586919459,75.0,1647.0],["MAP1S",0.09328263202378356,-3.9749828507511995,126.0,1596.0],["MAST1",0.10319398267632204,-4.749092240657742,124.0,1598.0],["MLXIP",0.08936984084409745,-3.689180997508498,95.0,1627.0],["MTA3",0.09466086760871592,-4.078312143479305,51.0,1671.0],["MYSM1",0.08706744201266305,-3.5262056758151243,54.0,1668.0],["NOP2",0.09347359638823295,-3.989217033067703,67.0,1655.0],["PCED1B",0.09368620464316461,-4.005095848114377,63.0,1659.0],["PIWIL3",0.10358830635492941,-4.781387350802968,97.0,1625.0],["PRKAA1",0.08967834552673307,-3.711310619629856,48.0,1674.0],["RQCD1",0.09540777574515556,-4.134889844219194,35.0,1687.0],["SERINC2",0.09162802342827628,-3.852764935160801,58.0,1664.0],["SORL1",0.09350205435994366,-3.9913405253052785,196.0,1526.0],["SPTB",0.09212169781514626,-3.889021324915584,185.0,1537.0],["SRCRB4D",0.0869923580159428,-3.5209555079604886,64.0,1658.0],["SUN2",0.09380323314491562,-4.013850303923512,70.0,1652.0],["TIE1",0.092050510438734,-3.883782229691402,142.0,1580.0],["TNRC6A",0.08723136855680408,-3.537682238734806,156.0,1566.0],["TRHR",0.0988964780865181,-4.404573286885927,49.0,1673.0],["TTLL9",0.10005218306864555,-4.495883996591781,50.0,1672.0],["XKR8",0.09151747078025663,-3.844670070160832,26.0,1696.0]],"bottom":[["AL121761.2",-0.06774002743464996,-2.307995729271253,8.0,1714.0],["ASAH2B",-0.06581095728511581,-2.20091121245306,14.0,1708.0],["UBAP1L",-0.0584976927870335,-1.8184151163324473,30.0,1692.0]]},"para":{"top":[["APOO",0.07491398269875846,-3.025383489911956,16.0,1706.0],["C19orf69",0.06113780963536379,-2.251295116703252,10.0,1712.0],["C1orf100",0.07032964877172353,-2.7532571664648655,16.0,1706.0],["C9orf153",0.05741075650329688,-2.064252921340645,9.0,1713.0],["DLEU1",0.06388913104024012,-2.395448735947131,11.0,1711.0],["DYNLRB1",0.05740527898113751,-2.0639610891412334,8.0,1714.0],["FABP9",0.07995336476977825,-3.341267145376481,8.0,1714.0],["FAM199X",0.09297336923776761,-4.240780259075189,27.0,1695.0],["FAM64A",0.08006986425284567,-3.3489860586196016,20.0,1702.0],["FAM69A",0.09711375036837216,-4.5519595625247975,34.0,1688.0],["HIST1H4K",0.05548691114442705,-1.9714366554957894,11.0,1711.0],["HMGA2",0.07067102755300374,-2.7729464396945263,11.0,1711.0],["KRTAP12-3",0.07052439195272776,-2.764448369684799,11.0,1711.0],["MYCBP",0.07391980322807366,-2.9650881641688063,13.0,1709.0],["OR2B2",0.08633356696776837,-3.76720477877198,24.0,1698.0],["PANK3",0.07486344222237871,-3.0223424661832787,20.0,1702.0],["PRELID1",0.07842444063609455,-3.2436862368454022,18.0,1704.0],["RBM18",0.07377697207152695,-2.9564715735874936,12.0,1710.0],["RIPPLY3",0.0699747862695852,-2.732789412029197,15.0,1707.0],["RQCD1",0.09840636729010427,-4.65160345910166,35.0,1687.0],["S100A4",0.06273886413430027,-2.3345754689814404,12.0,1710.0],["SKP1",0.06459259218482691,-2.4331500904162686,12.0,1710.0],["SNAP23",0.05017271203483828,-1.7278237376258625,8.0,1714.0],["TMEM9B",0.07330116936278007,-2.9279917349527746,17.0,1705.0],["VTI1B",0.05309300100502436,-1.859342588903403,9.0,1713.0],["XAGE5",0.05918335660332748,-2.1519991594469077,8.0,1714.0],["ZFY",0.053604167809303625,-1.8829658178224764,10.0,1712.0]],"bottom":[]}}}
{"depmap_damaging":{"corr":{"top":[["APBB2",0.06646432588512578,-2.235822966186969,11.0,1710.0],["COL4A3",0.0834164855746981,-3.2740036225850506,29.0,1692.0],["COLEC12",0.06348753539665725,-2.0743984015775596,13.0,1708.0],["DMXL1",0.06973715327336867,-2.420437302708046,61.0,1660.0],["ECSIT",0.06378218050084618,-2.0901017406810767,11.0,1710.0],["IRS4",0.07297810753266197,-2.6106658286449886,11.0,1710.0],["NHSL1",0.06720048385976701,-2.27669514040029,10.0,1711.0],["PCNX",0.07208268653283915,-2.5573688482313357,27.0,1694.0],["PPP1R21",0.0984895593857053,-4.370426075299118,10.0,1711.0],["TMTC2",0.08702158803850266,-3.521236362592313,26.0,1695.0],["USP47",0.07760028983353554,-2.8948155306502596,23.0,1698.0],["WDR87",0.06891272079615472,-2.373225690420644,52.0,1669.0]],"bottom":[["EYA2",-0.05576131975816267,-1.6839860074209678,8.0,1713.0],["NBPF12",-0.0703573524532384,-2.4562679221667896,8.0,1713.0],["PODXL",-0.07819431670842346,-2.932434473722858,18.0,1703.0],["ZNF100",-0.058692409091773534,-1.8272706027840666,8.0,1713.0],["ZNF679",-0.068389448791344,-2.3435074769517343,10.0,1711.0]]},"para":{"top":[["ARFGAP2",0.0776788747561456,-3.1951650510563017,16.0,1705.0],["ATP11C",0.0683042067339579,-2.6365131855094823,13.0,1708.0],["BRD1",0.07462511417079927,-3.0063900612852446,10.0,1711.0],["CAMK2G",0.062183748090359786,-2.3045367814569855,10.0,1711.0],["CCDC157",0.05423393485108089,-1.9115312718160264,9.0,1712.0],["CDC40",0.05266673206396146,-1.8390706271363955,8.0,1713.0],["CHN1",0.07195090390184757,-2.846521616953765,11.0,1710.0],["COLEC12",0.06636578022029767,-2.5286025398282805,13.0,1708.0],["COLGALT2",0.06303009952440329,-2.3489053161582047,10.0,1711.0],["ECSIT",0.07463667961098334,-3.007113969582392,11.0,1710.0],["GARS",0.058891138530547824,-2.13652889938588,8.0,1713.0],["GLG1",0.07021212311350898,-2.745284241521992,15.0,1706.0],["GXYLT1",0.07068139789725607,-2.7723564603755837,11.0,1710.0],["MAP3K7",0.05229705046442663,-1.8222234018267536,8.0,1713.0],["NHSL1",0.08805901966025338,-3.88527697000997,10.0,1711.0],["NKTR",0.08206336292884263,-3.477501604893147,19.0,1702.0],["PLG",0.07011736710900698,-2.7397194473534685,9.0,1712.0],["PML",0.06993171076383076,-2.7290632890849538,10.0,1711.0],["PNN",0.07299396413427907,-2.908273289058721,10.0,1711.0],["PPP1R21",0.08852836000095023,-3.9182791732891165,10.0,1711.0],["PRKG1",0.08255594791651684,-3.509965827463607,12.0,1709.0],["SGK1",0.07157735884071609,-2.824644250381824,15.0,1706.0],["SKAP2",0.05552101790223033,-1.9722324493163794,8.0,1713.0],["SLAMF6",0.058929142121265224,-2.1384705391851835,10.0,1711.0],["SLC38A1",0.060355420994385726,-2.210337707369289,9.0,1712.0],["SLC7A2",0.07307676107232652,-2.913184422717647,9.0,1712.0],["TBC1D17",0.06983358960567497,-2.723404693678835,9.0,1712.0],["TJP3",0.06124449199029271,-2.255888898525145,11.0,1710.0],["TMTC2",0.09391258501510255,-4.308255473664472,26.0,1695.0],["TRAF6",0.055237308767703615,-1.958751381630995,8.0,1713.0],["TREML2",0.060775727068269246,-2.231807251628709,10.0,1711.0],["TSPYL2",0.058727790847032446,-2.128388245600856,8.0,1713.0],["UNC50",0.05820335881048302,-2.102374780826657,8.0,1713.0],["ZNF432",0.06722824531960502,-2.5762803553863822,12.0,1709.0]],"bottom":[["PODXL",-0.07703872580375558,-3.1550954416635233,18.0,1703.0]]}}}
{"ccle_chromatin":{"corr":{"top":[["H3K9ac1K14ac1",0.17601096133020164,-6.9355890647187834,895]],"bottom":[]},"para":{"top":[["H3K9ac1K14ac1",0.17293322404045094,-6.713617345380379,895]],"bottom":[]}}}
{"ccle_rppa":{"corr":{"top":[["MYH9_Myosin IIa pS1943",0.18249290343185118,-7.431098075178213,897]],"bottom":[]},"para":{"top":[],"bottom":[]}}}
{"ccle_metabolomics":{"corr":{"top":[],"bottom":[["2-deoxyadenosine",-0.15251418806244485,-5.493748254231678,924]]},"para":{"top":[],"bottom":[["2-deoxyadenosine",-0.15488746644949739,-5.649541873170381,924]]}}}
{"ccle_rrbs_enhancer_clusters":{"corr":{"top":[],"bottom":[]},"para":{"top":[["16-54616981-54619623-0_enh",0.18841678690578123,-3.488551671147815,360]],"bottom":[]}}}
{"prism_primary_logfold":{"corr":{"top":[["iocetamic-acid_BRD-A37492983-001-10-3::2.5::HTS",0.16165314600834488,-3.907700868967502,559],["dinoprost_BRD-K81672972-001-03-1::2.5::HTS",0.11586818960857924,-2.1399120087970576,536]],"bottom":[]},"para":{"top":[["erastin_BRD-A25004090-001-08-4::2.5::HTS",0.1590604293271747,-3.774544753531065,555],["dinoprost_BRD-K81672972-001-03-1::2.5::HTS",0.13022074623296778,-2.5982149431022736,536]],"bottom":[["erlotinib_BRD-K70401845-003-09-6::2.5::HTS",-0.14948402950084985,-3.3976920107807764,557],["m-THP_BRD-K91147684-001-01-5::2.5::HTS",-0.15461563692236902,-3.5583320226056094,549]]}}}
{"prism_secondary_logfold":{"corr":{"top":[["barasertib_BRD-K31928526-001-02-1::0.0024414::HTS002",0.164475647269931,-3.356726300192845,453]],"bottom":[["everolimus_BRD-K13514097-001-04-6::0.00244::MTS010::PROS003_PR500",-0.2069386634245297,-5.096537802497463,458],["everolimus_BRD-K13514097-001-04-6::0.0391::MTS010::PROS003_PR500",-0.2068967909273773,-5.094664663385634,458],["everolimus_BRD-K13514097-001-04-6::0.15625::MTS010::PROS003_PR500",-0.21780515566811956,-5.59560896613848,458],["temsirolimus_BRD-K42898655-001-01-8::0.625::MTS010::PROS005_PR500",-0.18621789686916196,-4.256162925004255,463],["semaxanib_BRD-K63504947-001-14-7::10::MTS010::PROS002_PR500",-0.19332853159341548,-4.333361943013407,438],["dovitinib_BRD-K85402309-043-01-9::0.625::MTS010::PROS001_PR500",-0.1855180116104366,-4.195581142037005,459]]},"para":{"top":[["9-aminoacridine_BRD-K00535541-001-06-3::0.0390625::HTS002",0.14379213655714784,-2.71592491057979,463],["AZD9668_BRD-K31476763-001-01-5::0.0390625::HTS002",0.14612034244994726,-2.7399595806872283,453],["barasertib_BRD-K31928526-001-02-1::0.0024414::HTS002",0.165198009349903,-3.3823736117457504,453],["flumethasone_BRD-K61496577-001-20-2::0.0024414::HTS002",0.15726637273433075,-3.2001328536311853,469],["sobetirome_BRD-K85406984-001-01-0::0.00976562::HTS002",0.16660969041228982,-3.1244826622523503,406]],"bottom":[["everolimus_BRD-K13514097-001-04-6::0.15625::MTS010::PROS003_PR500",-0.2087584448926853,-5.178313333906449,458],["arcyriaflavin-a_BRD-K72726508-001-02-1::2.5::HTS002",-0.18598004002968013,-4.343259664748188,475],["dovitinib_BRD-K85402309-043-01-9::0.625::MTS010::PROS001_PR500",-0.18648500550423472,-4.234592621085655,459]]}}}
{"ccle_proteomics":{"corr":{"top":[["SLC1A4_P43007",0.3173962709264185,-9.472411656314712,374]],"bottom":[]},"para":{"top":[],"bottom":[["TATDN1_Q6P1N9",-0.23429399260357858,-5.332080117957887,374]]}}}
{"depmap_copy_number":{"corr":{"top":[["APOL3_80833",0.9572935475322562,-323.0051853474518,1745],["APOL1_8542",0.9744110177211157,-323.0051853474518,1745],["APOL4_80832",0.9600480945485201,-323.0051853474518,1745],["APOL2_23780",0.978829466407751,-323.0051853474518,1745],["MIR6819_102465491",0.9931520155643376,-323.0051853474518,1745]],"bottom":[]},"para":{"top":[["TXN2_25828",0.9683298601842812,-323.0051853474518,1745],["FOXRED2_80020",0.9669948684815297,-323.0051853474518,1745],["APOL3_80833",0.9760036437713352,-323.0051853474518,1745],["EIF3D_8664",0.9664693842318458,-323.0051853474518,1745],["APOL2_23780",0.9911774889785836,-323.0051853474518,1745],["APOL1_8542",0.9933277381658789,-323.0051853474518,1745],["APOL4_80832",0.9807233660553923,-323.0051853474518,1745],["MIR6819_102465491",0.9978123588468046,-323.0051853474518,1745]],"bottom":[]}}}
{"depmap_gene_tpm":{"corr":{"top":[],"bottom":[]},"para":{"top":[],"bottom":[]}}}
{"avana":{"corr":{"top":[["RBX1_9978",0.29799013253063206,-16.508213092351113,769],["DDX5_1655",0.30015910867117335,-16.499220617163072,757],["POLR2F_5435",0.3017398534597279,-16.672960500843505,757],["GSTT2B_653689",0.2699065150673908,-13.576614241347507,769]],"bottom":[["DDX6_1656",-0.15975811343235133,-5.0694809547376725,769]]},"para":{"top":[],"bottom":[["DDX6_1656",-0.14699422311079227,-4.368687981395168,769],["BIRC5_332",-0.1567453461808676,-4.899014764348587,769]]}}}
{"drive":{"corr":{"top":[],"bottom":[["WDR81_124997",-0.20914616957156967,-4.401005673580958,380],["PAN3_255967",-0.21587111369021703,-4.626510129312239,377],["DIMT1_27292",-0.2386192834007973,-5.594011075475029,380]]},"para":{"top":[],"bottom":[]}}}
{"achilles":{"corr":{"top":[["RBX1_9978",0.2418592447931447,-7.280713057689829,494],["DDX5_1655",0.2713930351644529,-9.062098758821698,494],["MCM5_4174",0.2543781666923701,-8.008648315673767,494],["RANGAP1_5905",0.3455159436146224,-14.571163053668002,494],["EIF3D_8664",0.3355749782487838,-8.069849217568796,280],["STARD3NL_83930",0.25098752435253885,-4.66859829376962,280]],"bottom":[["HMGN2P46_283651",-0.2685357336007516,-5.2856305467863995,280]]},"para":{"top":[["ZNF608_57507",0.2743861356320918,-5.501238024013128,280],["EIF3D_8664",0.29894985718425904,-6.462188701277081,280]],"bottom":[]}}}
{"ccle_rrbs_tss1kb":{"corr":{"top":[],"bottom":[["MGAT1_5_180230853_180231853",-0.25438989916139765,-12.215156355529368,777]]},"para":{"top":[],"bottom":[]}}}
{"ccle_gene_tpm":{"corr":{"top":[["EIF3D_ENSG00000100353.13",0.5396349142765515,-76.74584686747252,1011]],"bottom":[["AP000974.1_ENSG00000215504.2",-0.21898861436208517,-11.71621677171172,1011]]},"para":{"top":[["EIF3D_ENSG00000100353.13",0.5190702947361411,-70.10029179216615,1011]],"bottom":[]}}}
{"ccle_rrbs_tss_clusters":{"corr":{"top":[["SNX31_2",0.2570520267905512,-6.438470294078377,381],["FAM90A10P_1",0.2642788951653039,-5.427450853429067,298],["MAP3K21_2",0.30984076689128764,-5.439327295211095,215]],"bottom":[["GP1BA_3",-0.20616139659772806,-8.546267844142179,815]]},"para":{"top":[["SYDE2_2",0.28533314575877655,-11.657550447714868,583],["FAM90A10P_1",0.24866927626986948,-4.85230325825076,298],["MAP3K21_2",0.3487323920538044,-6.816309899010262,215]],"bottom":[["C22orf15_2",-0.22262936744264017,-6.020570085110786,475]]}}}
{"ccle_rrbs_cgi_clusters":{"corr":{"top":[["1_233461526_233466414-2",0.30984076689128764,-5.439327295211095,215],["8_101659671_101664022-2",0.2570520267905512,-6.438470294078377,381]],"bottom":[["22_20427818_20430590-1",-0.3571503070989669,-7.262281512675657,219]]},"para":{"top":[["1_85663818_85666734-2",0.28533314575877655,-11.657550447714868,583],["1_233461526_233466414-2",0.3487323920538044,-6.816309899010262,215]],"bottom":[["7_99156420_99158969-2",-0.22960182193298967,-5.83714083478683,431]]}}}
