{"depmap_hotspot":{"corr":{"top":[["BUD13",0.07125053570118983,-2.509556936897821,41.0,1681.0],["CTAGE6",0.07730560639200187,-2.877657557674777,17.0,1705.0],["CTD-2192J16.24",0.10084413368764185,-4.55902315250353,12.0,1710.0],["CTD-2203A3.1",0.09381572276467581,-4.014785195658872,12.0,1710.0],["DDT",0.0748370830213118,-2.7244528940504527,20.0,1702.0],["HTR3A",0.08057877676682022,-3.087498306265348,65.0,1657.0],["KRTAP13-2",0.07028312138310816,-2.4531469721615555,39.0,1683.0],["OR6P1",0.09809359785448124,-4.341717352501722,57.0,1665.0],["SLC30A7",0.0672647108218803,-2.2813690262971047,25.0,1697.0],["SULT6B1",0.07581856364541999,-2.784848122588029,39.0,1683.0],["YIF1B",0.10772090649260667,-5.126782876144072,27.0,1695.0]],"bottom":[["ARHGEF17",-0.07210200552627763,-2.559751826684927,177.0,1545.0],["ARHGEF37",-0.0735693551827802,-2.6474546096943774,51.0,1671.0],["CT47B1",-0.076526328964044,-2.8288250292963943,38.0,1684.0],["CYR61",-0.07141182341662188,-2.5190257408628387,37.0,1685.0],["DCAF12L2",-0.09475391611628783,-4.085338232989775,66.0,1656.0],["DGAT2L6",-0.07790744939528534,-2.915667403207377,23.0,1699.0],["ESR1",-0.06921636865202802,-2.3917077115857306,59.0,1663.0],["FAM58A",-0.08380296545034932,-3.301701091155775,27.0,1695.0],["GRAMD4",-0.07713960003721682,-2.8672187162131886,54.0,1668.0],["ITPRIPL1",-0.071768776000304,-2.5400467546470638,57.0,1665.0],["KLHL17",-0.06949229127407837,-2.4075227279870552,85.0,1637.0],["KRT18",-0.07178556424219511,-2.5410376302755875,34.0,1688.0],["ME1",-0.07477691245824755,-2.720772550924216,60.0,1662.0],["MYB",-0.07189557935377944,-2.5475358628927625,49.0,1673.0],["MYO3A",-0.09556969859921259,-4.147209238027242,170.0,1552.0],["NR4A2",-0.07816965151943374,-2.932307738465685,75.0,1647.0],["OR5I1",-0.07842225623971798,-2.948385374001209,73.0,1649.0],["PCDHA10",-0.08782564723431971,-3.5794510153377144,141.0,1581.0],["RECQL5",-0.07411595763833508,-2.680514098922085,96.0,1626.0],["SCAF8",-0.0827845321403997,-3.233233401402969,88.0,1634.0],["SERPIND1",-0.08325290815751704,-3.264628925864304,66.0,1656.0],["SPINT2",-0.07312915930770898,-2.620984501349999,20.0,1702.0],["TBX10",-0.07746999307680746,-2.8880138962786757,36.0,1686.0]]},"para":{"top":[["CTD-2203A3.1",0.07227436556726599,-2.8668570283589916,12.0,1710.0],["DTWD1",0.07965422898428197,-3.32226631160988,28.0,1694.0],["EDARADD",0.06836459738973419,-2.6411025732480526,19.0,1703.0],["KRTAP13-2",0.08953373636905114,-3.991619002344568,39.0,1683.0],["LCE2B",0.08621222634374895,-3.758860341122066,27.0,1695.0],["SETD9",0.05361449103260981,-1.8834878571828166,13.0,1709.0]],"bottom":[["ANKRD66",-0.06341963331963081,-2.3705172883320555,13.0,1709.0],["C9orf152",-0.07314759720890725,-2.9188114556360394,17.0,1705.0],["CLEC2L",-0.06158272787976668,-2.2742311931536596,9.0,1713.0],["CMTM6",-0.07223399011166114,-2.864501265635323,14.0,1708.0],["DDA1",-0.06577475696599717,-2.497259467453309,13.0,1709.0],["DGAT2L6",-0.08292358158692924,-3.5361092893093313,23.0,1699.0],["EMP3",-0.06270606894863648,-2.332817762034764,10.0,1712.0],["FAM58A",-0.10154479997523705,-4.898443928495716,27.0,1695.0],["HIGD2B",-0.07118612380018767,-2.8029993793150294,17.0,1705.0],["HSCB",-0.05933022091361927,-2.15945927369809,13.0,1709.0],["MYL3",-0.07671306327415035,-3.1362058751401443,19.0,1703.0],["NRL",-0.07736003859570563,-3.1765811267940878,17.0,1705.0],["PLAC1",-0.07230222756220495,-2.8685596301298846,16.0,1706.0],["SLC39A9",-0.08324538980236014,-3.5575932596314592,27.0,1695.0],["SPINT2",-0.0849819348780616,-3.6745943504687255,20.0,1702.0],["TRMT112",-0.061286380245786656,-2.2589645679415504,11.0,1711.0],["TSSK4",-0.09065783686668859,-4.0719866948063554,16.0,1706.0],["UBL4B",-0.06567340284764023,-2.49167536715363,10.0,1712.0]]}}}
{"depmap_damaging":{"corr":{"top":[["ADAMTS4",0.0787074265737877,-2.9651315673106438,8.0,1713.0],["CLEC4A",0.08126965453736369,-3.13122019761553,8.0,1713.0],["CNGA4",0.09386727535827896,-4.016610023545652,8.0,1713.0],["MYOM3",0.0720184856554213,-2.553569242272434,15.0,1706.0],["SHB",0.07118975152170276,-2.5047830323401037,10.0,1711.0],["SND1",0.1086035274837803,-5.1995029917263444,13.0,1708.0],["TTC26",0.07392646017169766,-2.667731109730534,13.0,1708.0]],"bottom":[["COL3A1",-0.07741767220735417,-2.8833011204331997,33.0,1688.0],["DTNA",-0.07089344328772684,-2.4874572690457044,10.0,1711.0],["INTS2",-0.06550815876375465,-2.1833000657811774,33.0,1688.0],["KIAA1217",-0.07007378812699375,-2.439852090213837,20.0,1701.0],["MYT1L",-0.061348005501955766,-1.9621734152808745,24.0,1697.0],["PIGT",-0.07543387841679502,-2.7597475078109794,8.0,1713.0],["PRRG1",-0.0629864753200666,-2.0478322043663275,32.0,1689.0],["SMG1",-0.06109008010229229,-1.9488580677340348,17.0,1704.0],["UBBP4",-0.05842015162882433,-1.8137139034303962,25.0,1696.0],["ULBP1",-0.0657841114966586,-2.1983929284310433,9.0,1712.0]]},"para":{"top":[["TMEM67",0.08090353097726279,-3.401398414375008,11.0,1710.0]],"bottom":[["CDX2",-0.05791496408647128,-2.0881730335365125,9.0,1712.0],["DSE",-0.07224428513162168,-2.863881926859881,15.0,1706.0],["DTNA",-0.082650106857907,-3.5161647068814332,10.0,1711.0],["ELK3",-0.06219916811015828,-2.3053407717455663,10.0,1711.0],["MARCH7",-0.07340190495781851,-2.9327221421998106,15.0,1706.0],["POLM",-0.06587893518107171,-2.501891789235345,12.0,1709.0],["PPP2R2C",-0.07664449175472088,-3.1303707754635233,8.0,1713.0],["PYROXD1",-0.056982578951238365,-2.042541842075088,8.0,1713.0],["RHAG",-0.05847850060747183,-2.1159994182013073,8.0,1713.0],["SF3B3",-0.06683369018126599,-2.554338811179368,9.0,1712.0],["ULBP1",-0.07881721487954467,-3.267036484812742,9.0,1712.0]]}}}
{"ccle_rrbs_enhancer_clusters":{"corr":{"top":[],"bottom":[]},"para":{"top":[],"bottom":[["1-3188581-3193428-0_enh",-0.19165548211213765,-7.681629447238035,842],["1-3188581-3193428-1_enh",-0.16173921119132498,-5.567737719097598,833],["1-3188581-3193428-2_enh",-0.2228850976460337,-10.15543289182329,837],["16-86428087-86432726-1_enh",-0.2796972921768081,-5.443295918071876,266]]}}}
{"prism_primary_logfold":{"corr":{"top":[],"bottom":[["tanshinone-i_BRD-K34073885-001-09-3::2.54::HTS",-0.1444916500152862,-3.046089934568718,525],["WZ4003_BRD-K45909031-001-01-5::2.5::HTS",-0.1347931223667013,-2.8362084598912674,555],["torin-2_BRD-K68174511-001-06-6::2.5::HTS",-0.1388696693621208,-3.002174034305989,559]]},"para":{"top":[],"bottom":[["testosterone-enanthate_BRD-K89657519-001-01-8::2.5::HTS",-0.12616875896069338,-2.5214779805499954,551]]}}}
{"prism_secondary_logfold":{"corr":{"top":[["enoximone_BRD-K21152241-001-07-3::0.000610352::MTS006",0.14052761744960862,-2.6362462981614168,468]],"bottom":[["cidofovir_BRD-K96153583-001-05-1::10.0717::HTS002",-0.18177555035426501,-4.100501035280845,466]]},"para":{"top":[["enoximone_BRD-K21152241-001-07-3::0.000610352::MTS006",0.17510258625014558,-3.8524757497527937,468]],"bottom":[["R306465_BRD-K86687746-001-01-3::0.15625::HTS002",-0.19801805768027178,-4.193791352537714,402]]}}}
{"ccle_proteomics":{"corr":{"top":[["CHD1L_Q86WJ1",0.3698620431899512,-12.841786015983683,374],["OTUD7A_Q8TE49-2",0.4197636897280114,-13.208108497505755,293],["OTUD7B_Q6GQQ9",0.40538876574491745,-15.143667804873036,365]],"bottom":[["ETV5_P41161",-0.40309826079204486,-6.541714100440066,151],["ITPKA_P23677",-0.27116560684413066,-4.233505824023455,214],["PPP1R1B_Q9UD71",-0.22700421578142738,-2.636357463452045,178],["TNFRSF21_O75509",-0.2661044198937991,-5.413982350507392,293]]},"para":{"top":[["OTUD7A_Q8TE49-2",0.3963644409042912,-11.736035930936476,293],["OTUD7B_Q6GQQ9",0.3533661747945915,-11.448128418366661,365]],"bottom":[]}}}
{"depmap_copy_number":{"corr":{"top":[["NBPF12_149013",0.9736158120508788,-323.0051853474518,1745],["ACP6_51205",0.9145618810229175,-323.0051853474518,1745],["FMO5_2330",0.9822663751842919,-323.0051853474518,1745],["CHD1L_9557",0.9822663751842919,-323.0051853474518,1745],["PRKAB2_5565",0.9973577679254398,-323.0051853474518,1745],["HYDIN2_100288805",0.9097760427082533,-323.0051853474518,1745],["RNVU1-8_101447996",0.999349663854943,-323.0051853474518,1745],["BCL9_607",0.9168792930480016,-323.0051853474518,1745],["LOC728989_728989",0.9936156715637388,-323.0051853474518,1745],["PDIA3P1_171423",0.9822663751842919,-323.0051853474518,1745],["LINC00624_100289211",0.9329662266427766,-323.0051853474518,1745]],"bottom":[]},"para":{"top":[["PPIAL4H_105371242",0.9616684218578017,-323.0051853474518,1745],["ACP6_51205",0.984633193260351,-323.0051853474518,1745],["NBPF12_149013",0.9902446093639528,-323.0051853474518,1745],["FMO5_2330",0.9941343385759698,-323.0051853474518,1745],["CHD1L_9557",0.9941343385759698,-323.0051853474518,1745],["GJA5_2702",0.9808641858673225,-323.0051853474518,1745],["PRKAB2_5565",0.9979075869588548,-323.0051853474518,1745],["GJA8_2703",0.9764467675427028,-323.0051853474518,1745],["HYDIN2_100288805",0.9616684218578017,-323.0051853474518,1745],["RNVU1-8_101447996",0.9984303625666887,-323.0051853474518,1745],["PDZK1P1_100034743",0.9668877366258026,-323.0051853474518,1745],["BCL9_607",0.985937404743828,-323.0051853474518,1745],["GPR89B_51463",0.9764467675427028,-323.0051853474518,1745],["LOC728989_728989",0.9962933793002675,-323.0051853474518,1745],["PDIA3P1_171423",0.9941343385759698,-323.0051853474518,1745],["LINC00624_100289211",0.9880912973529531,-323.0051853474518,1745]],"bottom":[]}}}
{"depmap_gene_tpm":{"corr":{"top":[["GPR89B_51463",0.5127511740543439,-86.88138778740458,1293],["SF3B4_10262",0.507579996249542,-84.87741169912327,1293]],"bottom":[]},"para":{"top":[],"bottom":[]}}}
{"avana":{"corr":{"top":[],"bottom":[["GABPB2_126626",-0.2101823232806065,-8.3998266096009,769],["ANP32E_81611",-0.21413308482661775,-8.57429881612207,757],["GOLPH3L_55204",-0.23739479422192383,-10.586174031214217,769]]},"para":{"top":[],"bottom":[]}}}
{"drive":{"corr":{"top":[["C1QTNF9_338872",0.30448611470945613,-8.9323690250961,383],["IL1R2_7850",0.29465566787754843,-8.261904285166919,377]],"bottom":[["POLE2_5427",-0.20550053077363423,-4.234782777633171,377]]},"para":{"top":[["GJD3_125111",0.2667528414706954,-6.836218644937635,377],["IL1R2_7850",0.31132235200040115,-9.19019594091968,377],["SSX5_6758",0.314610171218663,-9.635275401609992,388]],"bottom":[["NXF1_10482",-0.26289530541727596,-6.651381821359893,377],["DDX46_9879",-0.20746518252078974,-4.307518817843862,377]]}}}
{"achilles":{"corr":{"top":[["PIWIL3_440822",0.23298046819897825,-4.0805429186224185,280],["PRPF3_9129",0.34284547637731677,-14.345117584098256,494],["COL14A1_7373",0.2410664438016117,-7.2359366609674955,494],["CA9_768",0.23737179128781077,-4.21981642623317,280],["BTBD3_22903",0.23365394968770686,-4.101731472355804,280]],"bottom":[["YBEY_54059",-0.23928534350115543,-4.28133417768277,280],["AADACL4_343066",-0.23884060568772295,-4.2669915407130885,280],["WASL_8976",-0.2533820279268627,-4.750205548796145,280]]},"para":{"top":[["PIWIL3_440822",0.23550167183626627,-4.160181474085226,280],["CA9_768",0.23276626806420603,-4.073816894402341,280]],"bottom":[["YBEY_54059",-0.2340582464355501,-4.114480900534259,280],["OTULIN_90268",-0.24289300379695172,-4.398690438767567,280],["CSE1L_1434",-0.22132940460795758,-6.17105437016504,494],["SHCBP1L_81626",-0.22191612256712778,-3.741250976868728,280],["SCFD2_152579",-0.22584461210193313,-3.859827331034704,280]]}}}
{"ccle_rrbs_tss1kb":{"corr":{"top":[["HIST1H2BB_6_26043885_26044885",0.16481107877659093,-5.443559238238553,782]],"bottom":[["CDH4_20_60173816_60174816",-0.19579999629088063,-7.207509263168277,752]]},"para":{"top":[],"bottom":[["POMT1_9_134377288_134378288",-0.20515259763200713,-8.515709842079342,820]]}}}
{"ccle_gene_tpm":{"corr":{"top":[["SF3B4_ENSG00000143368.9",0.5367581235434613,-75.78842195453166,1011]],"bottom":[]},"para":{"top":[["SF3B4_ENSG00000143368.9",0.5002826479573845,-64.4148089695831,1011]],"bottom":[]}}}
{"ccle_rrbs_tss_clusters":{"corr":{"top":[],"bottom":[["ARC_2",-0.22423773725266902,-10.250471944113569,835],["LINC00454_3",-0.25744533698360395,-6.487775472162364,383],["MIR6784_3",-0.328202410854818,-7.601285703596425,275]]},"para":{"top":[["GNAQ_1",0.20780546576953454,-4.310075700199845,376]],"bottom":[["SNRPD2_1",-0.24073396024039997,-4.954902366439377,326],["COA3_1",-0.2445751240719937,-3.560037265709709,217],["LINC00454_3",-0.2359036953786258,-5.516235065342905,383]]}}}
{"ccle_rrbs_cgi_clusters":{"corr":{"top":[],"bottom":[["13_114584257_114588710-3",-0.25744533698360395,-6.487775472162364,383],["8_1319232_1323638-2",-0.2438204939759753,-6.952522789554097,462]]},"para":{"top":[["9_80643881_80646692-1",0.20780546576953454,-4.310075700199845,376]],"bottom":[["1_3325991_3328707-3",-0.2402104150261969,-5.622694428715333,377],["16_46462128_46464886-1",-0.255098619957451,-4.901126510343739,286],["12_132877966_132882288-2",-0.2464067947101161,-12.204885353058893,829],["19_46193482_46198292-1",-0.24073396024039997,-4.954902366439377,326],["10_133107193_133110123-3",-0.2746308899325864,-6.359906568582976,328]]}}}
