{"depmap_hotspot":{"corr":{"top":[["ATP5L",0.07886941291248226,-2.9769574131610046,9.0,1713.0],["C14orf166",0.07311733144027716,-2.6202751521975345,25.0,1697.0],["CDS2",0.07404264723507854,-2.67606786974221,29.0,1693.0],["CMTM7",0.0901538445628211,-3.7455544629760995,9.0,1713.0],["DUSP19",0.08873255244420018,-3.643685870185262,24.0,1698.0],["FAM105B",0.07008378309088237,-2.441605387635571,25.0,1697.0],["FGFBP3",0.10744297558197657,-5.103156004304058,14.0,1708.0],["GCLM",0.11069107459180391,-5.382870225621759,16.0,1706.0],["GOLGA7",0.07303790705427689,-2.6155144197263374,18.0,1704.0],["HES6",0.11953920294535626,-6.184902022872358,27.0,1695.0],["LSG1",0.0769613861342279,-2.856034081658023,41.0,1681.0],["NAT1",0.07246006664509998,-2.5810126363733503,28.0,1694.0],["OSCP1",0.07309211201474414,-2.6187630054826845,32.0,1690.0],["POPDC2",0.07969917891428473,-3.030355578192007,42.0,1680.0],["SLC11A2",0.07484144221917133,-2.72471962492151,36.0,1686.0],["SMG8",0.08532455196131775,-3.4053866313392134,64.0,1658.0],["TAF8",0.08917475926830754,-3.67522309334063,36.0,1686.0],["TPGS2",0.0728463242016509,-2.604049213249637,29.0,1693.0],["TRAPPC13",0.08008836426338142,-3.0555705471875734,25.0,1697.0],["UBXN7",0.07378316635102386,-2.6603610993158395,52.0,1670.0],["WDR83OS",0.1023178226570832,-4.677746453585679,10.0,1712.0]],"bottom":[["ARHGEF39",-0.07490619694099857,-2.7286834282446173,26.0,1696.0],["CCDC89",-0.08273390935075785,-3.229849570399317,33.0,1689.0],["CCS",-0.08498346954061328,-3.381999087079261,31.0,1691.0],["DACT1",-0.0809112531592643,-3.1092417862151756,114.0,1608.0],["DOCK10",-0.07359398880835077,-2.648939943701861,183.0,1539.0],["FHAD1",-0.07088003192720456,-2.4878749888499887,110.0,1612.0],["GPR137C",-0.07389760924173883,-2.6672826234332643,32.0,1690.0],["KLK4",-0.07662733507304696,-2.8351300793455514,37.0,1685.0],["KNDC1",-0.08341534994430265,-3.2755543461448218,166.0,1556.0],["MEX3B",-0.08368758433872292,-3.2939067119380123,63.0,1659.0],["NARG2",-0.07365759977538798,-2.6527774813927616,71.0,1651.0],["NR0B1",-0.07281161714611088,-2.6019749578555635,50.0,1672.0],["PCDHGB2",-0.07412066943427202,-2.6807999965500238,100.0,1622.0],["PSMF1",-0.07671929965066995,-2.8408770484968993,27.0,1695.0],["TAS2R41",-0.07462727227701567,-2.711630916127149,43.0,1679.0],["WDR66",-0.08353752634079177,-3.2837841290213854,88.0,1634.0],["ZFYVE1",-0.0720830009809122,-2.558625911879297,66.0,1656.0],["ZNF780A",-0.09188004401277235,-3.871251619904787,43.0,1679.0],["ZNF845",-0.08097112705225062,-3.1131658696143214,84.0,1638.0]]},"para":{"top":[["DUSP19",0.07513778357405404,-3.039110223769257,24.0,1698.0],["FGFBP3",0.08763707239270119,-3.857602699250582,14.0,1708.0],["GCLM",0.07126124663873955,-2.8073751810013636,16.0,1706.0],["SCGB1D2",0.04145047442437141,-1.3687155518034575,10.0,1712.0],["WDR83OS",0.06582722783677526,-2.5000752612333814,10.0,1712.0]],"bottom":[["APITD1-CORT",-0.05506896027544881,-1.9515350982704491,8.0,1714.0],["ASAH2B",-0.0780687406559192,-3.221128328207678,14.0,1708.0],["FTSJ2",-0.07180308781352363,-2.839128440533434,16.0,1706.0],["HLA-DPB1",-0.07416777092776765,-2.9801460060580016,22.0,1700.0],["NANOS3",-0.06332439638540686,-2.36549656503791,15.0,1707.0],["NIT1",-0.08033161147055959,-3.3659455955395496,25.0,1697.0],["PGPEP1L",-0.06887923074857244,-2.670215911081479,18.0,1704.0],["PSPN",-0.05655284389641841,-2.022589683649323,12.0,1710.0],["RP11-1070N10.3",-0.05840725969317038,-2.1133327435347575,9.0,1713.0],["SSR4",-0.06512097943082712,-2.4616626482040678,11.0,1711.0],["TSNAX",-0.0746400457711359,-3.0087505652237194,20.0,1702.0]]}}}
{"depmap_damaging":{"corr":{"top":[["KAT6A",0.08798017891194583,-3.5885546602734575,18.0,1703.0],["NPAP1",0.08833644391339969,-3.6137433855594225,14.0,1707.0],["NPR2",0.07165465865099466,-2.5320917437988046,13.0,1708.0],["NUDCD1",0.07920633067992748,-2.997103577301004,9.0,1712.0],["PAXBP1",0.07274386886984381,-2.5966688712047845,17.0,1704.0],["PEX5",0.08022913118610882,-3.063205189672953,10.0,1711.0],["RENBP",0.0907524147129262,-3.7869865184801386,8.0,1713.0],["SLC19A2",0.09167938030333887,-3.854582541902986,12.0,1709.0],["STX17",0.08980901050838613,-3.7188331993650947,8.0,1713.0],["TGFBR2",0.0943234507973007,-4.050832753538582,12.0,1709.0]],"bottom":[["ASB14",-0.06068146155403017,-1.9278571167889693,9.0,1712.0],["CDH4",-0.06330721848439115,-2.0648179629930468,12.0,1709.0],["CEP170B",-0.07109332211865989,-2.499137818430187,15.0,1706.0],["CHD5",-0.08098302927620638,-3.11240723401423,19.0,1702.0],["CR1L",-0.0750439188704369,-2.735789002645841,9.0,1712.0],["FSD2",-0.08271358643555182,-3.226890185042602,11.0,1710.0],["GABRG1",-0.06234650294916609,-2.0141537112443233,21.0,1700.0],["IDO2",-0.07666139998416653,-2.835869356792455,8.0,1713.0],["INPP4A",-0.0619778957542722,-1.9948843650168386,9.0,1712.0],["KCNA4",-0.07935756569746347,-3.006830500832162,22.0,1699.0],["LAMA1",-0.0662328728031621,-2.223050627833767,37.0,1684.0],["PDE1A",-0.06928936998583213,-2.3947355583198395,8.0,1713.0],["TBX4",-0.06549391083802121,-2.1825222344661306,16.0,1705.0],["WDR66",-0.06150111098184931,-1.9700991651385158,16.0,1705.0],["ZNF384",-0.05893887814173559,-1.8395870372906642,8.0,1713.0]]},"para":{"top":[["DUS2",0.0543897124413662,-1.9188409721494648,10.0,1711.0]],"bottom":[["CCDC57",-0.06952560546888908,-2.705761303348398,9.0,1712.0],["CDH4",-0.06992705081352824,-2.7288338117146194,12.0,1709.0],["CHD5",-0.08542148393500737,-3.7028536494526705,19.0,1702.0],["CR1L",-0.07134178455052535,-2.8107521500290793,9.0,1712.0],["EIF3A",-0.06787158523382746,-2.6121291164376492,9.0,1712.0],["GRIN3A",-0.0620464325462802,-2.2973373933398866,8.0,1713.0],["IDO2",-0.08058212723517866,-3.380426512019055,8.0,1713.0],["MBD1",-0.06748838884043334,-2.5907664231121776,12.0,1709.0],["NCSTN",-0.07764165573995123,-3.1926996997268606,9.0,1712.0],["PCOLCE",-0.06770220886828764,-2.602690540661441,11.0,1710.0],["RNPEP",-0.06040435569768113,-2.2128037592956873,8.0,1713.0],["SIX4",-0.05772201026960304,-2.078662437803012,8.0,1713.0],["TBX4",-0.07765463193994247,-3.193641556981555,16.0,1705.0],["WDR66",-0.08135943547254487,-3.4312365430823433,16.0,1705.0],["ZMYND8",-0.07861784891575128,-3.2544474142498308,13.0,1708.0]]}}}
{"ccle_chromatin":{"corr":{"top":[],"bottom":[]},"para":{"top":[],"bottom":[["H3K79me1",-0.12297000775039119,-3.6312347854132887,891]]}}}
{"ccle_rppa":{"corr":{"top":[],"bottom":[["MAP2K1_MEK1",-0.16700908591053593,-6.310080403189339,897]]},"para":{"top":[],"bottom":[]}}}
{"ccle_metabolomics":{"corr":{"top":[],"bottom":[["taurine",-0.14469700201190333,-4.997065523197962,924]]},"para":{"top":[],"bottom":[]}}}
{"prism_primary_logfold":{"corr":{"top":[["cetirizine_BRD-A42571354-300-12-0::2.5::HTS",0.1310274417264128,-2.70329332899623,555],["butein_BRD-K17497770-001-03-6::2.5::HTS",0.13787238733859036,-2.9519099973457754,556],["CTEP_BRD-K30572193-001-02-0::2.5::HTS",0.11687917657657254,-2.2469749448220226,559],["rivanicline_BRD-K79966802-034-01-2::2.5::HTS",0.14416398047469034,-3.1767499439366143,554],["entacapone_BRD-K83636919-001-04-8::2.5::HTS",0.13169335384700673,-2.7182802554007917,553]],"bottom":[["UB-165_BRD-A14574269-051-02-2::2.5::HTS",-0.15956646783017053,-3.75992108358462,549],["flurbiprofen-(+\/-)_BRD-A86044036-001-26-5::2.5::HTS",-0.13659397385511035,-2.8743768637531506,549]]},"para":{"top":[["SC-560_BRD-K14767410-001-02-3::2.5::HTS",0.11770584885027699,-2.2632350613797665,556],["rivanicline_BRD-K79966802-034-01-2::2.5::HTS",0.12544967645892557,-2.5087991926207436,554],["fosfosal_BRD-K28687144-001-08-7::2.5::MTS004",0.12505525286365493,-2.4392165754497284,539]],"bottom":[["UB-165_BRD-A14574269-051-02-2::2.5::HTS",-0.19196026197213092,-5.228679556714406,549],["pimavanserin_BRD-K83405785-001-01-5::2.5::HTS",-0.15729742608302308,-3.6146207129716585,540]]}}}
{"prism_secondary_logfold":{"corr":{"top":[["WYE-125132_BRD-A45498368-001-07-1::0.625::HTS002",0.16872110771910406,-3.5692168876559998,462],["everolimus_BRD-K13514097-001-05-3::2.5::HTS002",0.17772855319702555,-3.584517631255686,418],["anastrozole_BRD-K52172416-001-11-4::0.00061034::HTS002",0.18352981980126237,-3.697656119808693,406],["uracil_BRD-K80129304-001-08-1::0.0390625::HTS002",0.16813391139482242,-3.6006829603174753,470],["sirolimus_BRD-K84937637-001-09-9::0.625::HTS002",0.18847642625979938,-4.315554889973234,459]],"bottom":[["LY364947_BRD-K06234293-001-04-2::0.625::HTS002",-0.22174685520482137,-5.82863414009952,462],["ispinesib_BRD-K64881305-001-03-7::2.5::MTS010::PROS001_PR500",-0.16084748362559137,-3.26616744693714,459]]},"para":{"top":[["PKI-179_BRD-A28467416-002-01-0::0.625::HTS002",0.17333549502624637,-3.777249660588318,467],["CUDC-101_BRD-K41278234-001-03-0::0.0024414::HTS002",0.18263416845234368,-2.4005039252127753,247],["temsirolimus_BRD-K42898655-001-01-8::0.0024414::HTS002",0.16569904535119717,-3.523015716561083,472],["deforolimus_BRD-K62304154-001-04-2::10::HTS002",0.16800676703902923,-3.5428583772291717,462],["serdemetan_BRD-K65924316-001-03-1::0.00061034::HTS002",0.24022194218707585,-3.8609634908619563,247]],"bottom":[]}}}
{"ccle_proteomics":{"corr":{"top":[["TFDP2_Q14188",0.3036868085684611,-7.135883832303797,302]],"bottom":[]},"para":{"top":[["XRN1_Q8IZH2",0.29171772974643967,-8.044721196002953,374],["TFDP2_Q14188",0.310976979244286,-7.467921345347306,302]],"bottom":[["CCNL2_Q96S94",-0.21436543584345877,-3.6716281848398453,294]]}}}
{"depmap_copy_number":{"corr":{"top":[["TRIM42_287015",0.9445509034271924,-323.0051853474518,1745],["TFDP2_7029",0.9844102570525782,-323.0051853474518,1745],["RNF7_9616",0.968363276450557,-323.0051853474518,1745],["PXYLP1_92370",0.99137011548496,-323.0051853474518,1745],["LINC02618_646730",0.9785990424110872,-323.0051853474518,1745],["GRK7_131890",0.9658538235743488,-323.0051853474518,1745],["ATP1B3_483",0.9649610652786699,-323.0051853474518,1745],["XRN1_54464",0.9729454890018023,-323.0051853474518,1745],["SLC25A36_55186",0.9597218953304786,-323.0051853474518,1745],["GK5_256356",0.979230362223755,-323.0051853474518,1745],["ZBTB38_253461",0.9916956257241021,-323.0051853474518,1745],["CLSTN2-AS1_101927808",0.9307784105301319,-323.0051853474518,1745],["ATR_545",0.9314570975176845,-323.0051853474518,1745],["SPSB4_92369",0.9705202856255832,-323.0051853474518,1745]],"bottom":[]},"para":{"top":[["TRIM42_287015",0.9785754005926214,-323.0051853474518,1745],["PXYLP1_92370",0.9936092609979352,-323.0051853474518,1745],["TFDP2_7029",0.994838189601038,-323.0051853474518,1745],["RNF7_9616",0.9953082049945816,-323.0051853474518,1745],["LINC02618_646730",0.997998760072266,-323.0051853474518,1745],["GRK7_131890",0.9938317564440853,-323.0051853474518,1745],["ATP1B3_483",0.9930928393585823,-323.0051853474518,1745],["SLC25A36_55186",0.9868555279524013,-323.0051853474518,1745],["GK5_256356",0.9908795654690707,-323.0051853474518,1745],["SPSB4_92369",0.9891580096659697,-323.0051853474518,1745],["ZBTB38_253461",0.9950824808202946,-323.0051853474518,1745],["CLSTN2-AS1_101927808",0.9770264767612932,-323.0051853474518,1745],["XRN1_54464",0.9853339041738377,-323.0051853474518,1745]],"bottom":[]}}}
{"depmap_gene_tpm":{"corr":{"top":[["RNF7_9616",0.5186940319512007,-89.22744159001846,1293],["ATP1B3_483",0.4310709040945568,-58.92030924004035,1293]],"bottom":[["SRP72_6731",-0.22984441333290473,-16.23617886926964,1293],["RASSF1_11186",-0.26380066210561176,-21.300195606775045,1293]]},"para":{"top":[["RNF7_9616",0.5188258857130219,-89.28002226191813,1293],["ATP1B3_483",0.40481373419694644,-51.43621236669399,1293],["COPB2_9276",0.39894129377749343,-49.85184834962516,1293]],"bottom":[["RASSF1_11186",-0.27713581751692834,-23.503105311065447,1293]]}}}
{"avana":{"corr":{"top":[],"bottom":[["FLYWCH1_84256",-0.16045143258042663,-5.109154468615016,769],["CCDC88B_283234",-0.16676334323797185,-5.478025214748217,769],["PXYLP1_92370",-0.2014793214270379,-7.759336036295363,769]]},"para":{"top":[],"bottom":[["NFIX_4784",-0.1849426887018589,-6.618747978272317,769]]}}}
{"drive":{"corr":{"top":[["WNK4_65266",0.22765326709940273,-5.2280176950838,388],["TFDP1_7027",0.22057486995173714,-4.844637385762812,380]],"bottom":[]},"para":{"top":[["U2SURP_23350",0.4013095658332072,-15.294076182516092,377],["IGF2BP3_10643",0.23430652953578185,-5.5116715329849955,388],["IRX2_153572",0.2585234010661924,-6.492100659356033,380],["ATR_545",0.3892330682234066,-14.866989858357552,391]],"bottom":[["OR51S1_119692",-0.1767177870264919,-3.2465518409282783,377],["SLC35E1_79939",-0.2142626888795189,-4.714621743492853,391]]}}}
{"achilles":{"corr":{"top":[["C12orf45_121053",0.21698616177899918,-3.595366907649577,280],["U2SURP_23350",0.28128963512431476,-9.709608130091057,494],["RSRC1_51319",0.22177119945532686,-3.736916246517377,280],["ATR_545",0.23145565141447047,-6.705498915244243,494]],"bottom":[["FAM180A_389558",-0.20690849375554432,-3.30715963977913,280],["SOGA3_387104",-0.19201265748016028,-2.9053518423960325,280]]},"para":{"top":[["IRF5_3663",0.24488442556037066,-7.453010921249494,494],["COPB2_9276",0.40937763989259274,-20.65768331956739,494],["ATR_545",0.2482353023505625,-7.646532293901552,494]],"bottom":[["FAM180A_389558",-0.207788414895296,-3.3317931173875124,280],["C6orf52_347744",-0.2499765277444198,-4.63438525631296,280],["PPP1R42_286187",-0.19038910878342516,-2.8632755979662665,280]]}}}
{"ccle_rrbs_tss1kb":{"corr":{"top":[],"bottom":[]},"para":{"top":[["LOC728743_7_150101839_150102839",0.192700768163342,-7.641464486904832,828],["LRCH3_3_197517096_197518096",0.2069270505910297,-4.547820590335564,403],["RASSF1_3_50374895_50375895",0.22984257205402597,-10.661865693171697,828]],"bottom":[]}}}
{"ccle_gene_tpm":{"corr":{"top":[["RNF7_ENSG00000114125.9",0.5519186259144462,-80.9400286010755,1011],["SLC25A36_ENSG00000114120.7",0.36226110458601524,-31.985237899932372,1011],["GK5_ENSG00000175066.11",0.3613289262794338,-31.814089765431543,1011],["ATP1B3_ENSG00000069849.6",0.4358765501116029,-47.40745052029946,1011]],"bottom":[]},"para":{"top":[["RNF7_ENSG00000114125.9",0.5391603649383113,-76.58727373079985,1011],["ATP1B3_ENSG00000069849.6",0.40348512556110944,-40.140845567561584,1011]],"bottom":[]}}}
{"ccle_rrbs_tss_clusters":{"corr":{"top":[],"bottom":[]},"para":{"top":[["PRDM8_3",0.2227003773563947,-4.952913915019576,382],["LOC102724927_1",0.2634701304339881,-4.249559696921513,228],["LRRC41_2",0.21732112987149668,-9.73199414847648,842],["LOC728743_1",0.21006816904195277,-9.08526306007618,838]],"bottom":[]}}}
{"ccle_rrbs_cgi_clusters":{"corr":{"top":[],"bottom":[["7_6693595_6697242-3",-0.2700292930928607,-8.823112981269023,485]]},"para":{"top":[["5_54517054_54521628-1",0.2430959102546918,-11.903116983540583,830],["12_106631422_106635642-2",0.24180394182111034,-3.892698055754746,246],["4_81102761_81107527-3",0.2227003773563947,-4.952913915019576,382]],"bottom":[["7_6693595_6697242-3",-0.2784709641215334,-9.36096636624441,485],["17_6896820_6899624-3",-0.3358151821190125,-6.795092017065165,232]]}}}
