{"depmap_hotspot":{"corr":{"top":[["ACTG2",0.0842624717767158,-3.3328373888286,44.0,1678.0],["ADD1",0.08885758108566602,-3.6525882528797786,69.0,1653.0],["ADRM1",0.09636640193525153,-4.208103691947844,40.0,1682.0],["BCL2L13",0.08693576351444421,-3.517000894032315,23.0,1699.0],["C19orf26",0.08571504902346325,-3.4322655525636248,51.0,1671.0],["CCDC97",0.09912797888744149,-4.422785101728259,45.0,1677.0],["CCNL1",0.08962262979730774,-3.7073089111582287,53.0,1669.0],["CLDN1",0.0902616587364347,-3.7533417294470364,28.0,1694.0],["CNIH1",0.11271162580293384,-5.560846377277448,15.0,1707.0],["CSDC2",0.10258793109982889,-4.699680886185412,13.0,1709.0],["EYA3",0.08825890318021251,-3.6100635660058704,35.0,1687.0],["FUZ",0.09879543995653503,-4.396637132008959,31.0,1691.0],["GCA",0.08575153716035121,-3.4347827492753824,17.0,1705.0],["GOLPH3L",0.1360847319231808,-7.843754202376935,27.0,1695.0],["GPR85",0.08585962966454243,-3.4422453390387098,56.0,1666.0],["GREM1",0.08556290113890978,-3.4217797313371636,17.0,1705.0],["HES5",0.11119784710465325,-5.427221450155099,8.0,1714.0],["HIST1H2BH",0.13612387742306867,-7.847927233048217,24.0,1698.0],["HTATIP2",0.08815279353236148,-3.60255360259372,24.0,1698.0],["LIAS",0.11435332685124007,-5.707702959026888,24.0,1698.0],["LINC00955",0.09318414198468214,-3.967651966207839,30.0,1692.0],["MRPS16",0.16895106273696112,-11.768125636013998,12.0,1710.0],["NIP7",0.09191432705341435,-3.8737699892193675,13.0,1709.0],["NUDT3",0.13225840479400613,-7.441541131914676,20.0,1702.0],["OIP5",0.08639287685077289,-3.4791836771362425,21.0,1701.0],["ONECUT1",0.08727217701997114,-3.540542278782352,48.0,1674.0],["OR56A1",0.14841572708475015,-9.216904915180516,40.0,1682.0],["PDK4",0.1127900345978002,-5.567814425778966,41.0,1681.0],["PEX14",0.09914020701136633,-4.423748166181406,42.0,1680.0],["PIGF",0.10028415631341331,-4.5143304443938606,13.0,1709.0],["POLR2G",0.09241154463321621,-3.910390989123369,13.0,1709.0],["PPP1R14D",0.102719725505925,-4.710402964879483,9.0,1713.0],["PRR3",0.1608705154972972,-10.72441196109715,16.0,1706.0],["PTGES3",0.0845386143829035,-3.3516220749601278,14.0,1708.0],["PTHLH",0.17528487857935626,-12.62274203779067,16.0,1706.0],["QDPR",0.12203822312701036,-6.422101529169759,22.0,1700.0],["RFT1",0.09114329475849578,-3.8173382622383953,39.0,1683.0],["RGMB",0.08793356009604834,-3.5870630912627486,42.0,1680.0],["RIMKLB",0.084894898373322,-3.3759396120138403,39.0,1683.0],["S100A10",0.21631643308883647,-18.954880383138697,11.0,1711.0],["SDF2L1",0.16785602540849445,-11.623636186179313,13.0,1709.0],["SERF2",0.09643900702961178,-4.2136762512250785,13.0,1709.0],["SLC25A29",0.09015638979527157,-3.7457382041639673,50.0,1672.0],["SNAP23",0.10866622562467926,-5.207574726775,8.0,1714.0],["TBC1D31",0.08548800346751927,-3.4166240261252625,76.0,1646.0],["TMEM91",0.09011001284947835,-3.742390975584232,23.0,1699.0],["TMPRSS11B",0.08777034958167618,-3.575553637723596,53.0,1669.0],["TSLP",0.08934536955777102,-3.6874285844256467,13.0,1709.0],["TTC9",0.10060319372807101,-4.5397650006314025,22.0,1700.0],["U82695.9",0.09993919203959484,-4.486913342838201,14.0,1708.0],["UCK1",0.09541907381888999,-4.135748799694287,41.0,1681.0],["YARS",0.09285989149637278,-3.9435671374088987,46.0,1676.0],["ZFAND3",0.08508310929901988,-3.3888225678795716,29.0,1693.0],["ZNF708",0.09407006268490195,-4.033848224261951,60.0,1662.0]],"bottom":[["NOTCH4",-0.0773132258077763,-2.8781371543206777,156.0,1566.0]]},"para":{"top":[["FDCSP",0.060868974259480346,-2.237536987923531,13.0,1709.0],["SPAG11A",0.07164009757420509,-2.8296202436700173,24.0,1698.0]],"bottom":[["HIST1H2AB",-0.06625083709381743,-2.523379234724628,16.0,1706.0],["IFNA21",-0.06332267509980692,-2.3654254405392865,17.0,1705.0],["NDUFB9",-0.06496511806283607,-2.45330425777744,17.0,1705.0],["PRR13",-0.06950459205064409,-2.7058666909734503,20.0,1702.0],["RP11-385D13.1",-0.0566295179827451,-2.0263227300426756,14.0,1708.0],["TMEM220",-0.07388384078364582,-2.962991119963172,19.0,1703.0]]}}}
{"depmap_damaging":{"corr":{"top":[["ASIC3",0.1125106804426467,-5.540126615221208,10.0,1711.0],["BAZ2A",0.07644032880614517,-2.8220811004018485,13.0,1708.0],["C8G",0.09417184546610904,-4.039442306830383,11.0,1710.0],["CKAP2L",0.14132086630530058,-8.407938398300566,8.0,1713.0],["CLCN3",0.07841977666957127,-2.946778413322388,17.0,1704.0],["CR1L",0.10175059989618751,-4.629485094008944,9.0,1712.0],["DIAPH2",0.085758019500552,-3.4335155995023383,14.0,1707.0],["DSG4",0.09641726455261586,-4.209864940093201,9.0,1712.0],["ELTD1",0.08378984362526515,-3.2991732594297303,17.0,1704.0],["ENTPD4",0.08538237610232226,-3.4076595905737523,11.0,1710.0],["FAM47A",0.09530283627186963,-4.124821027549207,9.0,1712.0],["GATA3",0.12951392916227683,-7.1561710182150575,12.0,1709.0],["HEATR5B",0.0737758326144477,-2.6586248955060254,55.0,1666.0],["HNRNPUL2",0.09411204905533883,-4.03495428690741,13.0,1708.0],["LPHN2",0.0864110459743886,-3.478706669410647,24.0,1697.0],["MAP4K3",0.09494650947543934,-4.097820926829236,15.0,1706.0],["MAZ",0.08014758550723011,-3.05790761055206,8.0,1713.0],["MIPEP",0.09506113175402164,-4.106496115902613,10.0,1711.0],["MYO1C",0.12619885888077204,-6.823910343922477,17.0,1704.0],["NFKB1",0.07519432956740525,-2.745017221033307,10.0,1711.0],["PCDH7",0.08307990324567054,-3.2513991084402822,25.0,1696.0],["PLD2",0.16742226644016622,-11.560371883126416,9.0,1712.0],["PVRIG",0.12529451227178662,-6.734722551839495,13.0,1708.0],["SLC12A2",0.08105475656375943,-3.1171096115503243,18.0,1703.0],["SLC9A2",0.12414934618552237,-6.6226763404339275,12.0,1709.0],["ST3GAL4",0.2269048759250002,-20.80696675130839,9.0,1712.0],["STRBP",0.09890297508912584,-4.40283478695287,13.0,1708.0],["TDRD1",0.08986356616289239,-3.722756791528597,35.0,1686.0],["TMEM175",0.12678192512907757,-6.881742827732567,8.0,1713.0],["TTC16",0.07519625780641609,-2.745135629364883,15.0,1706.0],["TUBGCP4",0.16197741842996732,-10.85841820991501,12.0,1709.0],["WDPCP",0.09585690695688255,-4.166989423894203,14.0,1707.0],["ZFAT",0.13720062069169658,-7.958928001143183,11.0,1710.0],["ZNF347",0.08390442623325087,-3.306917866187697,14.0,1707.0],["ZNF778",0.24613207214318103,-24.438154388342195,8.0,1713.0],["ZNF99",0.11291104601836477,-5.575674496711462,13.0,1708.0]],"bottom":[["DPP4",-0.06251757534212465,-2.023128627961098,18.0,1703.0],["ITGAV",-0.06080368263467488,-1.9341266064153406,14.0,1707.0]]},"para":{"top":[["CRYBA1",0.053182736348299064,-1.8627390649874964,8.0,1713.0],["EDN3",0.07907772533651058,-3.2836096084978026,8.0,1713.0],["NDUFV1",0.04840448840570593,-1.6503822253076774,9.0,1712.0],["PVRIG",0.06681851782855423,-2.5535743966287447,13.0,1708.0],["RNF133",0.059536709943567606,-2.1689037079758164,9.0,1712.0],["SLC8A3",0.052653056567278776,-1.83846812937483,9.0,1712.0],["SPRYD3",0.06551122712157106,-2.481751473495951,8.0,1713.0],["ZFAT",0.07119529774772063,-2.802244146119871,11.0,1710.0]],"bottom":[["C2orf73",-0.08249902652381173,-3.506229030698711,14.0,1707.0],["CD58",-0.09062803376589576,-4.067929728087946,15.0,1706.0],["IGSF9",-0.08057993583642212,-3.3804691756434284,18.0,1703.0],["ITGAV",-0.07634675536969222,-3.1120334491408634,14.0,1707.0],["NEK11",-0.0864932719410154,-3.776370557063609,13.0,1708.0],["OR4P4",-0.0721501069925229,-2.858322371073541,15.0,1706.0],["OR8J1",-0.07617184675815222,-3.1010846966101324,8.0,1713.0],["RANBP17",-0.06154788385345504,-2.27147787803441,8.0,1713.0],["STAC3",-0.06142752201884846,-2.2652601739215297,8.0,1713.0]]}}}
{"ccle_rppa":{"corr":{"top":[["RPS6KB1_p70S6K",0.4731304330077267,-50.500655431097705,897]],"bottom":[]},"para":{"top":[["RPS6KB1_p70S6K",0.34313627544251507,-25.459192301161625,897],["RPS6KB1_p70S6K_pT389",0.2159380062157426,-10.198141274498738,897]],"bottom":[]}}}
{"ccle_rrbs_enhancer_clusters":{"corr":{"top":[["18-73568346-73573156-1_enh",0.17736289831662397,-6.467155477378953,816]],"bottom":[]},"para":{"top":[],"bottom":[]}}}
{"ccle_mirna":{"corr":{"top":[],"bottom":[]},"para":{"top":[["hsa-miR-301a_miR00279.1",0.26410243472109013,-15.913944539600436,951]],"bottom":[]}}}
{"prism_primary_logfold":{"corr":{"top":[],"bottom":[["salirasib_BRD-K98453471-001-01-7::2.5::HTS",-0.12568729237639237,-2.51676126360569,554],["avatrombopag_BRD-K68544925-001-01-1::2.500014712::MTS004",-0.12262656609085945,-2.357202856151696,538]]},"para":{"top":[["econazole_BRD-A51820102-008-28-9::2.5::HTS",0.14090945224282714,-3.049897779151965,553],["TAK-901_BRD-K01683783-001-02-6::2.5::HTS",0.15121791089190595,-3.4556563573807426,555]],"bottom":[["octreotide_BRD-A64173453-015-02-3::2.500011906::MTS004",-0.13038972903935553,-2.6120270205354905,538]]}}}
{"prism_secondary_logfold":{"corr":{"top":[["oxyphencyclimine_BRD-A58193911-003-18-7::2.5::HTS002",0.15917344627830737,-3.2555180018872076,467],["digoxin_BRD-A94756469-001-04-7::10::HTS002",0.16165180376624821,-3.220421763774461,447],["ouabain_BRD-K33277808-331-01-3::2.5::HTS002",0.15912029552695245,-2.851105581519148,400]],"bottom":[["CGS-15943_BRD-K49049886-001-08-7::0.15625::HTS002",-0.15453915183592387,-3.0824985266117655,465]]},"para":{"top":[["ilomastat_BRD-K51662849-001-08-8::0.653163::HTS002",0.15667555450045517,-3.144581834442037,463],["BI-2536_BRD-K64890080-001-13-8::0.0390625::HTS002",0.16896715125264178,-3.6118550875713464,467],["volasertib_BRD-K69776681-001-03-8::0.15625::HTS002",0.15459659556119462,-3.0164665642858903,453]],"bottom":[["PHA-848125_BRD-K60997853-001-02-3::0.0024414::HTS002",-0.17831911875509188,-3.866658706474863,453]]}}}
{"ccle_proteomics":{"corr":{"top":[["RPS6KB1_P23443",0.47752068803521175,-21.9723654889571,374],["TTC39A_Q5SRH9-4",0.3397530378630946,-4.228122989171508,134],["USP32_Q8NFA0",0.3644808391254326,-11.33110271414621,338],["JMJD4_Q9H9V9",0.3795964419937601,-5.81461977074308,151],["HEATR6_Q6AI08",0.4524043795501668,-16.87360173854869,321]],"bottom":[["SON_P18583-3",-0.4234656483300282,-6.7753157368067685,141],["CCDC82_Q8N4S0",-0.26332216371646305,-5.911132380664812,330]]},"para":{"top":[["USP32_Q8NFA0",0.31807108858745364,-8.656935126743354,338],["PCDH19_Q8TAB3",0.2954019841598947,-2.718787192310235,108],["BCAS3_Q9H6U6-8",0.3633299583735013,-11.03974505655368,331],["C16orf70_Q9BSU1",0.2908610391979454,-7.1290686475869,330]],"bottom":[["ESRRA_P11474",-0.22173696701907797,-3.9103282637797427,295]]}}}
{"depmap_copy_number":{"corr":{"top":[["LINC01999_388406",0.9143808834858185,-323.0051853474518,1745],["LOC653653_653653",0.9917173205048084,-323.0051853474518,1745],["WFDC21P_645638",0.9917173205048084,-323.0051853474518,1745],["TBC1D3P1-DHX40P1_653645",0.9934429310367658,-323.0051853474518,1745],["SCARNA20_677681",0.9753118217047724,-323.0051853474518,1745],["LOC105371849_105371849",0.9917173205048084,-323.0051853474518,1745],["C17orf64_124773",0.9261761541258422,-323.0051853474518,1745],["USP32_84669",0.9405696718770683,-323.0051853474518,1745],["MIR4737_100616210",0.9952022193102761,-323.0051853474518,1745],["APPBP2_10513",0.925664142385042,-323.0051853474518,1745],["RPS6KB1_6198",0.9665620823929753,-323.0051853474518,1745],["BCAS3_54828",0.9139458020283898,-323.0051853474518,1745],["RNFT1_51136",0.9868374711393358,-323.0051853474518,1745],["PPM1D_8493",0.9143808834858185,-323.0051853474518,1745],["CA4_762",0.9860659069048129,-323.0051853474518,1745],["HEATR6_63897",0.9952022193102761,-323.0051853474518,1745]],"bottom":[]},"para":{"top":[["LINC01999_388406",0.9649901084147561,-323.0051853474518,1745],["WFDC21P_645638",0.9916182890581928,-323.0051853474518,1745],["LOC653653_653653",0.9916182890581928,-323.0051853474518,1745],["TBC1D3P1-DHX40P1_653645",0.9994938553621807,-323.0051853474518,1745],["SCARNA20_677681",0.9787673984042756,-323.0051853474518,1745],["LOC105371849_105371849",0.9916182890581928,-323.0051853474518,1745],["C17orf64_124773",0.9728697164266756,-323.0051853474518,1745],["USP32_84669",0.9755816674894154,-323.0051853474518,1745],["MIR4737_100616210",0.9948840170854445,-323.0051853474518,1745],["APPBP2_10513",0.9711278044042323,-323.0051853474518,1745],["RPS6KB1_6198",0.9885443335837455,-323.0051853474518,1745],["TUBD1_51174",0.9734597209915102,-323.0051853474518,1745],["RNFT1_51136",0.9954743761116858,-323.0051853474518,1745],["PPM1D_8493",0.9649901084147561,-323.0051853474518,1745],["CA4_762",0.9836768196553601,-323.0051853474518,1745],["HEATR6_63897",0.9948840170854445,-323.0051853474518,1745]],"bottom":[]}}}
{"depmap_gene_tpm":{"corr":{"top":[["USP32_84669",0.44152282937253917,-62.088640656631,1293],["APPBP2_10513",0.3912547870763496,-47.82574574526532,1293],["TUBD1_51174",0.4305664592364471,-58.77018698252555,1293],["HEATR6_63897",0.4663899713687626,-70.08643474696756,1293],["RPS6KB1_6198",0.5002167012774849,-82.08274902186571,1293]],"bottom":[["APOL6_80830",-0.17007828382052387,-9.123683482344727,1293],["HLA-B_3106",-0.17837266469616675,-9.979024406759361,1293],["PSMB8_5696",-0.17207651361634188,-9.325963700468211,1293],["PPARA_5465",-0.17466774064616758,-9.591843150226442,1293]]},"para":{"top":[["USP32_84669",0.3936356049262626,-48.44758608598506,1293],["RPS6KB1_6198",0.41372030734218374,-53.900606909658414,1293],["HEATR6_63897",0.4245656293454509,-57.00374909043663,1293]],"bottom":[]}}}
{"avana":{"corr":{"top":[["CTLA4_1493",0.19723591313025493,-7.457163433051292,769],["KIAA0586_9786",0.2503891058017507,-11.730892522183565,769],["PRR9_574414",0.19126322743338875,-7.042983596169211,769]],"bottom":[["ESR1_2099",-0.2624019532359402,-12.848715635542606,769],["GDPD1_284161",-0.25260500832416544,-11.93274617630247,769],["PRR11_55771",-0.24282310770631385,-11.056319514192236,769],["ADAM17_6868",-0.2146733990600598,-8.741351245217494,769],["APPBP2_10513",-0.22734122184674654,-9.745585514285535,769],["SKA2_348235",-0.2233640797568601,-9.423751198260204,769],["RNFT1_51136",-0.24582255142417053,-11.321046503174408,769],["BCAS3_54828",-0.2364878239957193,-10.508739933417575,769],["BMP7_655",-0.2198278622877125,-9.142644141335362,769],["ZNF831_128611",-0.23952855465743758,-10.769608100714255,769]]},"para":{"top":[["HIST1H3I_8354",0.21380761992722763,-8.674926276152911,769]],"bottom":[]}}}
{"drive":{"corr":{"top":[["CD244_51744",0.21509052549351118,-4.5963538090094875,377],["TWNK_56652",0.23778835709998475,-5.558165744293872,380],["SMG1P6&LOC101060596&LOC105371128_100422558&101060596&105371128",0.21033293792856417,-4.414923557809123,377],["USP28_57646",0.2567404855841501,-6.531243746817031,388]],"bottom":[["KATNB1_10300",-0.21488352228059396,-4.620749221362641,380],["CCND1_595",-0.21169850855851574,-4.613221059590936,391],["ESR1_2099",-0.26115773917005974,-6.791294866053001,391],["NDUFS7_374291",-0.2233162124208401,-4.9196804875505595,377],["OPRL1_4987",-0.2087531830381876,-4.467703347151256,388],["SREK1_140890",-0.21911777857116152,-4.753119106602789,377],["PALB2_79728",-0.23447494056479845,-5.3780865177202735,377],["TFAM_7019",-0.28521777016412175,-7.818899542866055,380],["PDHB_5162",-0.31223186345812576,-9.242554852620817,377],["BCCIP_56647",-0.23160737985477828,-5.258090188766581,377]]},"para":{"top":[],"bottom":[["NADK_65220",-0.24954704568097338,-6.034142300628406,377]]}}}
{"achilles":{"corr":{"top":[["OSBPL9_114883",0.20729040017110692,-3.317838736012852,280]],"bottom":[["TXLNG_55787",-0.20069056939112123,-3.1359574000822046,280],["HADHB_3032",-0.23733759591831655,-7.02742844287515,494],["FOXA1_3169",-0.299363937152298,-10.960045737799678,494]]},"para":{"top":[["KHDRBS3_10656",0.2611572760071918,-5.020809403262784,280]],"bottom":[["RPSAP9_653162",-0.20422945086153377,-5.324361245454779,494],["PSMB2_5690",-0.21548850515051982,-5.874029801349448,494]]}}}
{"ccle_rrbs_tss1kb":{"corr":{"top":[["ODC1_2_10587925_10588925",0.1996703907509919,-8.19343987481055,831],["CDK6_7_92465941_92466941",0.23915490971142253,-11.390000277611856,819],["SLC16A3_17_80185886_80186886",0.19283946653579168,-7.634765171835981,826],["GSDMD_8_144639476_144640476",0.18746847729315763,-7.2039217101595705,821]],"bottom":[["GIPC2_1_78509645_78510645",-0.1993375376899156,-3.1088519917733315,281],["LOC644762_5_149312540_149313540",-0.15749050123488653,-5.300236281912885,832]]},"para":{"top":[["ASPSCR1_17_79934425_79935425",0.15572379974721168,-5.176775050616087,829],["ASPSCR1_17_79934421_79935421",0.1565774146455453,-5.228026761612877,829]],"bottom":[]}}}
{"ccle_gene_tpm":{"corr":{"top":[["RPS6KB1_ENSG00000108443.9",0.5422714416531853,-77.63148219802251,1011],["TUBD1_ENSG00000108423.10",0.46230037687900627,-53.948348200355966,1011],["HEATR6_ENSG00000068097.10",0.4849287521638123,-60.024637081697364,1011],["APPBP2_ENSG00000062725.5",0.43323951466543337,-46.78577991821769,1011],["USP32_ENSG00000170832.8",0.47044547982984114,-56.083199628074,1011]],"bottom":[["PSMB8_ENSG00000204264.4",-0.18625471432083401,-8.61722910835552,1011],["OSBPL3_ENSG00000070882.8",-0.20491565544014573,-10.31990122605883,1011],["PPARA_ENSG00000186951.12",-0.2229662227158685,-12.12868337654943,1011]]},"para":{"top":[["RPS6KB1_ENSG00000108443.9",0.4284475607704117,-45.67006693673096,1011],["HEATR6_ENSG00000068097.10",0.44923057621017637,-50.641127048287736,1011],["USP32_ENSG00000170832.8",0.4223589254341942,-44.278113818559255,1011]],"bottom":[["CTC-205M6.5_ENSG00000260841.1",-0.19467589994265824,-9.36482642085396,1011],["AVEN_ENSG00000169857.3",-0.18969355274783803,-8.918416278082116,1011]]}}}
{"ccle_rrbs_tss_clusters":{"corr":{"top":[["C1RL_2",0.23553773166824732,-11.339055369294076,841],["DERL3_3",0.20626800585660157,-8.690289924585361,829],["HSPA4_1",0.29374242204093454,-16.500281312705376,792],["ANKRD20A2_3",0.2506457954662493,-4.508873570321175,270],["PLEKHH3_3",0.23830977914714496,-6.2405384254817005,430],["RET_6",0.36405370051503955,-26.311831408708116,818],["PARP8_1",0.2128787581979948,-5.387159068134659,460],["CYP4F29P_2",0.2132506211867553,-6.528169322453451,567],["IKBKE_3",0.2018895336202793,-8.44869389612422,840]],"bottom":[["TMEM211_2",-0.23567080558484962,-8.571090175080565,622],["THAP3_2",-0.2186852997432179,-9.543500357804943,814],["RGL2_3",-0.2683861067414104,-9.835113133913318,552]]},"para":{"top":[["ARL9_1",0.20003710411142847,-4.195539873583951,394],["LINC00908_3",0.17419780518917782,-6.3471079031882605,829]],"bottom":[["EHD2_1",-0.20074352661050998,-3.529919609232626,321]]}}}
{"ccle_rrbs_cgi_clusters":{"corr":{"top":[["2_10585827_10588491-3",0.274056982549279,-15.2115114334791,840],["19_7853744_7856557-2",0.21623354585357094,-5.054869471139992,415],["5_132385100_132387734-1",0.29374242204093454,-16.500281312705376,792],["9_43131116_43133980-3",0.2506457954662493,-4.508873570321175,270],["17_36712408_36716825-2",0.21428863491812405,-8.103542751367147,711],["5_49960267_49963022-1",0.2128787581979948,-5.387159068134659,460],["7_99156420_99158969-2",0.23200552249315418,-5.950511824212856,431],["10_43600656_43603165-3",0.36405370051503955,-26.311831408708116,818]],"bottom":[["11_72525551_72528098-3",-0.24003470277849726,-11.720528953829538,838],["6_33266942_33269582-2",-0.2683861067414104,-9.835113133913318,552],["10_81000109_81002898-1",-0.21473834312645138,-9.387524850696206,830],["17_80555446_80559686-3",-0.28086878524986547,-8.968516705334826,455],["16_88107923_88112535-2",-0.26318638302817693,-13.49451688931882,805],["8_38829592_38834353-2",-0.21343586332745604,-9.290293720044597,831],["13_102068687_102071258-3",-0.2207185327125514,-3.008265315015506,220]]},"para":{"top":[["7_6655303_6657860-3",0.1828298364603274,-3.9943753994174336,447],["15_76625523_76629838-2",0.1882049198847313,-2.959941631065529,298]],"bottom":[["17_58466980_58471903-1",-0.2085528678174965,-4.164605834523833,359],["19_48214486_48218837-1",-0.20074352661050998,-3.529919609232626,321]]}}}
