{"depmap_hotspot":{"corr":{"top":[["SERPINB13",0.07893928192335516,-2.981434742523,35.0,1687.0]],"bottom":[["AC004381.6",-0.0850186648979681,-3.384408500144619,52.0,1670.0],["AP1G2",-0.08241919759275905,-3.2088542837257368,61.0,1661.0],["ATP1A3",-0.08381888191428978,-3.302777053672194,89.0,1633.0],["ATP2A2",-0.08591016816140722,-3.445737357321724,75.0,1647.0],["BCLAF1",-0.08728901640662094,-3.5417228097967897,149.0,1573.0],["CCRN4L",-0.08592202892360948,-3.4465571582489947,35.0,1687.0],["CDCA4",-0.09173506297030247,-3.860611046742047,29.0,1693.0],["CEP164",-0.08647578577928768,-3.484945284780511,98.0,1624.0],["EPHA5",-0.08623560426138661,-3.4682679515216703,157.0,1565.0],["FLNA",-0.09431798464840135,-4.052475727596214,202.0,1520.0],["FOXP4",-0.0831272649863901,-3.256191505556877,55.0,1667.0],["GOLGA8R",-0.09602328588801395,-4.181821263707397,41.0,1681.0],["INTS6",-0.08151906439456341,-3.1491965941467637,74.0,1648.0],["ITIH6",-0.08966199630012545,-3.7101361243447073,111.0,1611.0],["KIF2C",-0.0821217044699345,-3.189073120029853,53.0,1669.0],["MPZ",-0.08153054778597477,-3.1499540112378965,22.0,1700.0],["NT5C2",-0.09250707395008728,-3.9174475428270523,45.0,1677.0],["ONECUT1",-0.0867180344547384,-3.5018083972261707,48.0,1674.0],["OR51E1",-0.08987501467558945,-3.7254541488755555,43.0,1679.0],["PCDHB14",-0.08849602645806033,-3.6268755837003,102.0,1620.0],["PDCD1",-0.09259306153088477,-3.9238049597362186,38.0,1684.0],["PDCD11",-0.1054681646413418,-4.936931140360211,140.0,1582.0],["PKNOX1",-0.08054370954467249,-3.0852095768564882,47.0,1675.0],["PTPN3",-0.08569332637934664,-3.430767435239291,74.0,1648.0],["RASAL2",-0.09813137511809743,-4.344664235950472,108.0,1614.0],["SH2D4B",-0.08641313461845603,-3.4805909957331274,62.0,1660.0],["SOS2",-0.08301539813328895,-3.2486887722954254,97.0,1625.0],["SP110",-0.08462956156225372,-3.3578208158197294,56.0,1666.0],["TNS1",-0.08328624916269792,-3.2668698085220016,161.0,1561.0],["USP26",-0.08068096616087685,-3.094172916267874,86.0,1636.0],["WWC3",-0.0824777973489684,-3.2127582426108243,82.0,1640.0],["ZNF132",-0.0913654691715413,-3.833554769399177,60.0,1662.0],["ZSCAN22",-0.08451631971527569,-3.35010343398596,44.0,1678.0]]},"para":{"top":[["LGALSL",0.06611883638283916,-2.516095277187118,13.0,1709.0],["PMEPA1",0.06190000158436749,-2.2908875349634314,34.0,1688.0],["SERPINB13",0.06631341939953218,-2.5269267938284625,35.0,1687.0],["SPPL3",0.0730426950051734,-2.9126652517435763,38.0,1684.0]],"bottom":[["BTF3",-0.07915553763832169,-3.2901488757032062,12.0,1710.0],["C17orf112",-0.0702667643998265,-2.7495095957048035,9.0,1713.0],["C2orf66",-0.08019840529839546,-3.3571193478799106,9.0,1713.0],["CDCA4",-0.09570063187270335,-4.44436869074936,29.0,1693.0],["FABP1",-0.0845635517098485,-3.6461559495109883,16.0,1706.0],["FCER1G",-0.08027372044186802,-3.3621429657145736,18.0,1704.0],["MPZ",-0.09178890062704471,-4.153976194303505,22.0,1700.0],["PDCD1",-0.11406907100209114,-5.954018768885272,38.0,1684.0],["RP11-73M18.2",-0.057356475586989704,-2.0616363852416133,11.0,1711.0],["RPP25L",-0.07294747851601187,-2.9068625895162303,16.0,1706.0],["TMEM105",-0.06476890008123064,-2.442631496402454,11.0,1711.0],["TMEM144",-0.08764891393070566,-3.8585367577850143,24.0,1698.0],["TXN",-0.06726461288354879,-2.5793534136891068,10.0,1712.0],["UCN",-0.07346833203749437,-2.9378964137243333,10.0,1712.0]]}}}
{"depmap_damaging":{"corr":{"top":[["DBF4B",0.08165554047965806,-3.1566412390627065,9.0,1712.0],["HELZ2",0.07383510255447251,-2.662206153805997,20.0,1701.0]],"bottom":[["BBS9",-0.07739546373012796,-2.8819024508240783,16.0,1705.0],["BRD3",-0.07269557094842105,-2.5937876426298168,24.0,1697.0],["C2CD3",-0.07069278394665822,-2.475759390695855,33.0,1688.0],["C5orf42",-0.06860573351847635,-2.3557676832771235,57.0,1664.0],["C6",-0.07927745391656088,-3.0016759476983386,35.0,1686.0],["EPHA5",-0.07010015169574751,-2.4413759215922455,22.0,1699.0],["GYS1",-0.07014130828428645,-2.443755775530878,13.0,1708.0],["LIMCH1",-0.09935798666407097,-4.438649581535009,24.0,1697.0],["MGAM",-0.07086686427435246,-2.4859061589505864,37.0,1684.0],["RNF157",-0.06967300351467667,-2.416746613948658,9.0,1712.0],["SLIT3",-0.07157199986648116,-2.5272252241882245,23.0,1698.0],["TLDC1",-0.07118480468834264,-2.504493273244754,8.0,1713.0],["UBASH3A",-0.08362730942918267,-3.288203821495067,10.0,1711.0],["VWA2",-0.08319124568628546,-3.2588677349503183,8.0,1713.0]]},"para":{"top":[["HELZ2",0.07300275590240843,-2.908930512382057,20.0,1701.0],["IVNS1ABP",0.0645539691619291,-2.430046562099304,11.0,1710.0],["TLE3",0.06643988141322109,-2.5326479641728405,11.0,1710.0]],"bottom":[["GYS1",-0.08163674287697126,-3.44936453924797,13.0,1708.0],["RAVER1",-0.08996709575167285,-4.020416693883707,10.0,1711.0],["UBASH3A",-0.08290391317234883,-3.5330239153636565,10.0,1711.0],["VWA2",-0.06837385453948659,-2.640334710500019,8.0,1713.0],["ZNF814",-0.07738110774270116,-3.1764029448298974,11.0,1710.0]]}}}
{"ccle_rppa":{"corr":{"top":[["BRCA2_BRCA2_Caution",0.25097394120797767,-13.62467513960614,897],["FN1_Fibronectin",0.21309279184406918,-9.943952285924526,897],["KDR_VEGFR2",0.2782978134516846,-16.691135129962298,897]],"bottom":[]},"para":{"top":[],"bottom":[]}}}
{"prism_primary_logfold":{"corr":{"top":[["genipin_BRD-K28824103-001-02-8::2.5::HTS",0.21402518404020807,-6.139443959227161,526]],"bottom":[]},"para":{"top":[],"bottom":[]}}}
{"ccle_proteomics":{"corr":{"top":[],"bottom":[]},"para":{"top":[],"bottom":[["PDE3A_Q14432",-0.2928932547518912,-3.393321619518549,142]]}}}
{"depmap_copy_number":{"corr":{"top":[["LOC105372631_105372631",0.9958013851406154,-323.0051853474518,1745],["SLPI_6590",0.9937284825580291,-323.0051853474518,1745],["RBPJL_11317",0.9985215480597041,-323.0051853474518,1745],["SDC4_6385",1.0,-323.0051853474518,1745],["SYS1_90196",0.9976328252252056,-323.0051853474518,1745],["MIR6812_102465487",0.9958013851406154,-323.0051853474518,1745],["PIGT_51604",0.9965849128271714,-323.0051853474518,1745],["WFDC2_10406",0.9958013851406154,-323.0051853474518,1745],["DBNDD2_55861",0.9974541371616471,-323.0051853474518,1745],["SYS1-DBNDD2_767557",0.9976328252252056,-323.0051853474518,1745],["TP53TG5_27296",0.9976328252252056,-323.0051853474518,1745]],"bottom":[]},"para":{"top":[["LOC105372631_105372631",0.9964294702799502,-323.0051853474518,1745],["RBPJL_11317",0.9999955193338413,-323.0051853474518,1745],["SLPI_6590",0.9987542133273363,-323.0051853474518,1745],["SEMG2_6407",0.9951362086739449,-323.0051853474518,1745],["SDC4_6385",0.9999999999999999,-323.0051853474518,1745],["SYS1_90196",0.9977974007737298,-323.0051853474518,1745],["MIR6812_102465487",0.9964294702799502,-323.0051853474518,1745],["PIGT_51604",0.996943569133035,-323.0051853474518,1745],["PI3_5266",0.9947399040265251,-323.0051853474518,1745],["WFDC2_10406",0.9964294702799502,-323.0051853474518,1745],["DBNDD2_55861",0.9977176148848157,-323.0051853474518,1745],["SYS1-DBNDD2_767557",0.9977974007737298,-323.0051853474518,1745],["TP53TG5_27296",0.9977974007737298,-323.0051853474518,1745]],"bottom":[]}}}
{"depmap_gene_tpm":{"corr":{"top":[["SYS1_90196",0.5375315890883596,-96.97943293343229,1293],["PIGT_51604",0.505486431932439,-84.07585008265288,1293],["OSER1_51526",0.5956475743602271,-124.26977295293456,1293],["DNTTIP1_116092",0.514680556857301,-87.6379595907016,1293]],"bottom":[["AKNA_80709",-0.26519401374291224,-21.524607962874526,1293],["CYFIP2_26999",-0.27703432251099336,-23.485870340060266,1293]]},"para":{"top":[["SYS1_90196",0.5554331670922473,-104.81556723037895,1293],["PIGT_51604",0.4929965683620684,-79.40799418396678,1293]],"bottom":[]}}}
{"avana":{"corr":{"top":[],"bottom":[]},"para":{"top":[],"bottom":[]}}}
{"drive":{"corr":{"top":[],"bottom":[["POLR2J4_84820",-0.19500536318424305,-3.911373355050071,383]]},"para":{"top":[],"bottom":[["POLR2J4_84820",-0.23118604900764703,-5.315331519108872,383]]}}}
{"achilles":{"corr":{"top":[],"bottom":[]},"para":{"top":[],"bottom":[["CCDC50_152137",-0.2224735786512966,-3.7579510007424446,280]]}}}
{"ccle_rrbs_tss1kb":{"corr":{"top":[],"bottom":[]},"para":{"top":[],"bottom":[]}}}
{"ccle_gene_tpm":{"corr":{"top":[["OSER1_ENSG00000132823.6",0.6161005224040769,-105.98043161512237,1011],["SYS1_ENSG00000204070.5",0.577013418372758,-90.07243699509935,1011],["DNTTIP1_ENSG00000101457.8",0.5254994054242587,-72.12898271308059,1011],["PIGT_ENSG00000124155.12",0.5145630880258698,-68.70376342968937,1011]],"bottom":[["RP5-935K16.1_ENSG00000270081.1",-0.29331707782286487,-20.782912526699427,1011],["RP11-51F16.9_ENSG00000270587.1",-0.2696490480541186,-17.576113507857528,1011],["RP11-126K1.6_ENSG00000237976.1",-0.28355969032518635,-19.42331533574307,1011]]},"para":{"top":[["SYS1_ENSG00000204070.5",0.5944827337715323,-96.91261791614929,1011],["DNTTIP1_ENSG00000101457.8",0.5790304120338648,-90.84116812874898,1011],["PIGT_ENSG00000124155.12",0.5108911004159987,-67.58141094199314,1011]],"bottom":[]}}}
{"ccle_rrbs_tss_clusters":{"corr":{"top":[],"bottom":[]},"para":{"top":[],"bottom":[]}}}
{"ccle_rrbs_cgi_clusters":{"corr":{"top":[["19_14589032_14593308-3",0.327271009757231,-21.370701309223243,827]],"bottom":[]},"para":{"top":[],"bottom":[]}}}
