{"depmap_hotspot":{"corr":{"top":[["ANKRD6",0.07562367119390968,-2.772801024865216,56.0,1666.0],["ARHGAP20",0.08157107620292756,-3.1526279250100004,83.0,1639.0],["ATP13A4",0.07759183561434997,-2.895702384753156,113.0,1609.0],["ELAVL2",0.0845128692635357,-3.3498684323371224,99.0,1623.0],["HLCS",0.07811019716359167,-2.9285302417787076,73.0,1649.0],["KRT72",0.07273892670448548,-2.597633396923124,51.0,1671.0],["LEPR",0.07331241111313098,-2.6319872482918383,115.0,1607.0],["OR5L2",0.1005116072048675,-4.532455787349941,62.0,1660.0],["OR5M8",0.07521373151002801,-2.7475490284671458,57.0,1665.0],["OSCP1",0.07505428978615425,-2.7377597541650904,32.0,1690.0],["RAB5C",0.0978954801643523,-4.326279997936685,17.0,1705.0],["SRSF2",0.09081642888851438,-3.793545638932759,28.0,1694.0],["WDR5B",0.0681872523043389,-2.333193147995596,21.0,1701.0],["XPA",0.10231099680399801,-4.677192851800406,33.0,1689.0],["ZHX2",0.07256729360314387,-2.587397131915078,88.0,1634.0]],"bottom":[["ADAR",-0.07904748179176456,-2.9883752626161337,114.0,1608.0],["AKNA",-0.0942419918245707,-4.046761265799153,120.0,1602.0],["ARID4B",-0.08928335830348247,-3.6829898437174733,125.0,1597.0],["ARRDC2",-0.08169092401163261,-3.1605419314126157,44.0,1678.0],["CCNT2",-0.09473949416882248,-4.084248817468011,61.0,1661.0],["CELF4",-0.08705523250984455,-3.5253516617235503,81.0,1641.0],["CKAP2",-0.07922390383363168,-2.9997098578272103,53.0,1669.0],["CNTN2",-0.08594869417960907,-3.4484005981418764,98.0,1624.0],["DDX51",-0.08907669724354839,-3.6682172801174384,71.0,1651.0],["ELFN1",-0.09567197417480694,-4.155000450437725,119.0,1603.0],["FCER2",-0.08324174513655014,-3.263878826629482,31.0,1691.0],["GATM",-0.08726477743684856,-3.5400235933618722,43.0,1679.0],["GRB14",-0.081104643852549,-3.1219256994891893,60.0,1662.0],["HMOX1",-0.08156922016023878,-3.1525054444897602,27.0,1695.0],["HS6ST2",-0.09273408094946357,-3.93424278284352,63.0,1659.0],["JARID2",-0.0958464488249039,-4.168309374843543,142.0,1580.0],["KIF23",-0.09303128529544628,-3.956288445393817,56.0,1666.0],["LATS2",-0.09314676541213034,-3.9648717787144343,116.0,1606.0],["LGR6",-0.08334679413705023,-3.2709411420773975,88.0,1634.0],["LOXHD1",-0.08061849191850629,-3.0900914553697105,206.0,1516.0],["MANBA",-0.08073585427099479,-3.097761080314927,72.0,1650.0],["OR4F6",-0.08208629138676171,-3.186722636705154,37.0,1685.0],["OTOA",-0.08402149136312254,-3.3164895143477566,66.0,1656.0],["PHF19",-0.09091222025394033,-3.800510255197012,46.0,1676.0],["PTDSS1",-0.08832332609838953,-3.614627111855527,45.0,1677.0],["RABL6",-0.09464468824694452,-4.077091086843161,78.0,1644.0],["RCC2",-0.08333199066644835,-3.2699454423625984,54.0,1668.0],["SLC38A5",-0.08590490697154007,-3.4453737430456632,41.0,1681.0],["SPAG9",-0.08241531303060445,-3.2085955785251596,113.0,1609.0],["SPATC1",-0.0790279711148009,-2.987123124997592,66.0,1656.0],["SYNPO2L",-0.08778507537672381,-3.576591295124926,78.0,1644.0],["TRIM71",-0.0801196182888448,-3.0576001688188437,76.0,1646.0],["TRPV5",-0.09397473018390652,-4.026697420138445,110.0,1612.0],["ZNF30",-0.09924465115391773,-4.431978478276388,53.0,1669.0],["ZNF687",-0.08055658812745098,-3.086050019886592,75.0,1647.0]]},"para":{"top":[["KCNE2",0.05200334605750263,-1.809692379538469,15.0,1707.0],["PPIAL4G",0.08993303618930798,-4.019935336089139,14.0,1708.0],["TIMM23B",0.05437600792795407,-1.9189707808227678,12.0,1710.0],["TPGS2",0.06642576255778299,-2.533087609547835,29.0,1693.0]],"bottom":[["ALX3",-0.08878037330870535,-3.938055211786066,21.0,1701.0],["C19orf70",-0.07064252777513587,-2.7713761620406463,17.0,1705.0],["C1orf158",-0.07508183315537809,-3.0356456448149496,18.0,1704.0],["C8orf46",-0.048540646821247126,-1.6568091791780875,8.0,1714.0],["DCTPP1",-0.07280093623412032,-2.898082712503782,12.0,1710.0],["ETNK2",-0.09304000511638046,-4.245684750075216,26.0,1696.0],["FCER2",-0.09439164935948385,-4.3460103161097265,31.0,1691.0],["GEMIN7",-0.06511920164305865,-2.4615831375341517,12.0,1710.0],["GPX2",-0.08184216981006578,-3.4644254136875237,13.0,1709.0],["HIST2H2BF",-0.09838392811874563,-4.649781294377812,22.0,1700.0],["NPB",-0.08882852030069506,-3.941491087376183,25.0,1697.0],["NRN1L",-0.07760313084949658,-3.1918449717049575,18.0,1704.0],["OOSP1",-0.0677043670580552,-2.603841711909002,8.0,1714.0],["OR3A3",-0.08601297167098047,-3.74510597670619,21.0,1701.0],["OR4F6",-0.10172451318737395,-4.912847942926119,37.0,1685.0],["PRAF2",-0.06687462545271625,-2.5577400811913833,12.0,1710.0],["RFESD",-0.062422870671424546,-2.3180067992552957,12.0,1710.0],["WFDC9",-0.07099423924572779,-2.7916571189540917,8.0,1714.0]]}}}
{"depmap_damaging":{"corr":{"top":[["BCKDK",0.1044248987964113,-4.84778907743304,8.0,1713.0],["NAALADL2",0.08933786665372821,-3.6850388663491676,16.0,1705.0],["PIK3AP1",0.10907176054343685,-5.239722774875843,9.0,1712.0],["PRSS42",0.14666492367554282,-9.009902622904995,8.0,1713.0],["WDR5B",0.12068806312070746,-6.2900579564594965,9.0,1712.0],["ZNF662",0.08846283752272743,-3.622701790230536,9.0,1712.0]],"bottom":[["AGGF1",-0.07064932959154054,-2.47322985514376,19.0,1702.0],["ARHGAP19",-0.07671227775091717,-2.839047533324269,13.0,1708.0],["CCDC28A",-0.06912262733379582,-2.385200862298264,14.0,1707.0],["DNAJB13",-0.06935807732750685,-2.3986700636460907,10.0,1711.0],["ESRP1",-0.07931094496076563,-3.0038302711600284,36.0,1685.0],["LAIR1",-0.07450258187616672,-2.7027088469769884,37.0,1684.0],["PCF11",-0.0751592000916888,-2.7428604695632623,18.0,1703.0],["SALL2",-0.06915824097008422,-2.387235687044751,12.0,1709.0],["SDK1",-0.068061583675274,-2.3249847542764632,20.0,1701.0],["SEMA6B",-0.06807731605737863,-2.3258718354459145,14.0,1707.0],["SLC17A4",-0.07827541997441244,-2.9375901524489736,8.0,1713.0],["STIP1",-0.06863585377187459,-2.357477664548718,10.0,1711.0],["TRAK2",-0.08353732770739447,-3.282139124865683,11.0,1710.0],["WNK2",-0.10327580731051492,-4.75334038055494,33.0,1688.0],["ZC3H8",-0.06810298562694943,-2.327319603704349,8.0,1713.0],["ZNF106",-0.07432408626775294,-2.691846817773016,32.0,1689.0]]},"para":{"top":[["ELAVL2",0.10837249397384727,-5.4573334668275235,50.0,1671.0],["FANCI",0.05763761176638922,-2.074643735717243,16.0,1705.0]],"bottom":[["ARHGAP19",-0.09050490647744718,-4.059040409880778,13.0,1708.0],["ASB14",-0.07456859949539606,-3.0029345206145925,9.0,1712.0],["CPNE6",-0.06812279797328669,-2.626228341398747,9.0,1712.0],["DBF4B",-0.07545236347767267,-3.0568332375072775,9.0,1712.0],["DIAPH3",-0.11085466769320919,-5.669452406225749,20.0,1701.0],["EOMES",-0.06256214562775887,-2.3242657972618432,8.0,1713.0],["FAM166A",-0.07137432087421387,-2.812625258865745,8.0,1713.0],["FAS",-0.06708498338859485,-2.5682627961915756,9.0,1712.0],["FOXP4",-0.07193620780223624,-2.8456566697294856,11.0,1710.0],["GDF5",-0.07023374934970958,-2.7464709252538135,11.0,1710.0],["IFITM1",-0.06741958856848772,-2.586843292925345,8.0,1713.0],["ITIH5",-0.07629508849534328,-3.1087839021358623,11.0,1710.0],["MAPRE3",-0.07286454696890496,-2.9006074615034403,12.0,1709.0],["MOGS",-0.07493345618532676,-3.02512032576651,9.0,1712.0],["NADK2",-0.06915623188535007,-2.684659757443265,8.0,1713.0],["OR6C75",-0.09369313114640568,-4.291907275941,19.0,1702.0],["OSGEPL1",-0.07029979299657481,-2.750281212782107,11.0,1710.0],["PML",-0.07250921569891813,-2.879471312335494,10.0,1711.0],["POLE3",-0.06503815194090914,-2.456086932943038,8.0,1713.0],["PPFIA3",-0.07050105511982034,-2.7618907541525406,10.0,1711.0],["TRAK2",-0.07532644834131949,-3.049167829491988,11.0,1710.0],["TTC27",-0.0746917829075542,-3.0104801874260216,12.0,1709.0],["ZNF283",-0.06391478414941906,-2.3957851251761437,9.0,1712.0],["ZNF34",-0.06407694267827715,-2.404440098134766,9.0,1712.0],["ZNF407",-0.07792416511801964,-3.210524520318002,11.0,1710.0]]}}}
{"ccle_metabolomics":{"corr":{"top":[],"bottom":[["acetylcholine",-0.11117880546828043,-3.1483947342215393,924]]},"para":{"top":[],"bottom":[["acetylcholine",-0.12476404805835112,-3.8434532364647396,924]]}}}
{"ccle_mirna":{"corr":{"top":[],"bottom":[["hsa-miR-145_miR00156.1",-0.1406333805724401,-4.871645512122529,951]]},"para":{"top":[],"bottom":[]}}}
{"prism_secondary_logfold":{"corr":{"top":[],"bottom":[["8-bromo-cGMP_BRD-A00077618-236-07-6::10::HTS002",-0.1648588865106894,-3.4471572294312924,465]]},"para":{"top":[],"bottom":[]}}}
{"ccle_proteomics":{"corr":{"top":[["UBXN7_O94888",0.4189167232814447,-16.598723195537453,374],["BDH1_Q02338",0.3587632696079149,-12.075799011896613,374],["SENP5_Q96HI0",0.4291094691171455,-13.019941782793719,275],["SENP2_Q9HC62",0.3529841755621651,-9.829382273276432,311]],"bottom":[["ROCK2_O75116",-0.24987289246855796,-6.0051774665470665,374],["ZBED1_O96006",-0.27212192399855584,-5.3474658432341995,276],["RTTN_Q86VV8",-0.28371213919508703,-3.5569327531311483,160],["TNIK_Q9UKE5-3",-0.2957011687538527,-3.4732050392964613,143]]},"para":{"top":[["UBXN7_O94888",0.341825794832373,-10.962921659609185,374],["SENP5_Q96HI0",0.434527670963388,-13.366177238025006,275],["UNNAMED_Q69YL0",0.32775775994407824,-6.4340516400665,230],["SENP2_Q9HC62",0.3818707367709816,-11.509166571395046,311]],"bottom":[["ZBED1_O96006",-0.23839397742754204,-4.198946879457434,276]]}}}
{"depmap_copy_number":{"corr":{"top":[["UBXN7_26043",0.9896055141770207,-323.0051853474518,1745],["DLG1_1739",0.9828256239284718,-323.0051853474518,1745],["MELTF-AS1_100507057",0.983876654486208,-323.0051853474518,1745],["RNF168_165918",0.9914145397858656,-323.0051853474518,1745],["CEP19_84984",0.9958218554517785,-323.0051853474518,1745],["PAK2_5062",0.9975447561457025,-323.0051853474518,1745],["WDR53_348793",0.9923185411131242,-323.0051853474518,1745],["FBXO45_200933",0.9923185411131242,-323.0051853474518,1745],["PIGX_54965",0.9967158944115674,-323.0051853474518,1745],["MELTF_4241",0.983876654486208,-323.0051853474518,1745],["LINC01063_101929769",0.9923426204157567,-323.0051853474518,1745],["SMCO1_255798",0.9920669107183512,-323.0051853474518,1745],["NRROS_375387",0.9923426204157567,-323.0051853474518,1745],["UBXN7-AS1_100874034",0.9914145397858656,-323.0051853474518,1745]],"bottom":[]},"para":{"top":[["NCBP2-AS1_100874001",0.9915413661485281,-323.0051853474518,1745],["CEP19_84984",0.9951342548516484,-323.0051853474518,1745],["DLG1_1739",0.9943823168761318,-323.0051853474518,1745],["PIGZ_80235",0.9918353038767116,-323.0051853474518,1745],["RNF168_165918",0.9929888421520539,-323.0051853474518,1745],["MELTF-AS1_100507057",0.9952892706961212,-323.0051853474518,1745],["PAK2_5062",0.9981362115619508,-323.0051853474518,1745],["WDR53_348793",0.9936807085983981,-323.0051853474518,1745],["FBXO45_200933",0.9936807085983981,-323.0051853474518,1745],["PIGX_54965",0.9963759104386953,-323.0051853474518,1745],["MELTF_4241",0.9952892706961212,-323.0051853474518,1745],["NCBP2_22916",0.9968237143662975,-323.0051853474518,1745],["LINC01063_101929769",0.9936822646373121,-323.0051853474518,1745],["SMCO1_255798",0.992989163974323,-323.0051853474518,1745],["NRROS_375387",0.9936822646373121,-323.0051853474518,1745],["UBXN7-AS1_100874034",0.9929888421520539,-323.0051853474518,1745]],"bottom":[]}}}
{"depmap_gene_tpm":{"corr":{"top":[["PIGX_54965",0.445365041416452,-63.28149098295611,1293],["SENP5_205564",0.4607710830097626,-68.22095970694775,1293],["NCBP2_22916",0.5165146000800397,-88.36166898693361,1293],["WDR53_348793",0.5935240606099722,-123.17317687241324,1293],["NCBP2-AS2_152217",0.46136567206448725,-68.4167197265567,1293]],"bottom":[["CNTNAP1_8506",-0.2227327979889338,-15.27192466559387,1293]]},"para":{"top":[["SENP5_205564",0.42837991268689557,-58.122408139873336,1293],["PIGX_54965",0.42278513812858254,-56.48646631457934,1293],["NCBP2_22916",0.5027969012528796,-83.05426401917515,1293],["WDR53_348793",0.5534990989247331,-103.94590683277879,1293],["NCBP2-AS2_152217",0.4294725453523036,-58.445512457719154,1293]],"bottom":[]}}}
{"avana":{"corr":{"top":[],"bottom":[]},"para":{"top":[["NCBP2_22916",0.3883190528624883,-27.926664554531072,757]],"bottom":[["OSBPL9_114883",-0.1864277233982037,-6.717130463582163,769]]}}}
{"drive":{"corr":{"top":[["NCBP2_22916",0.35401997684189174,-12.231469340083962,390]],"bottom":[["ELK1_2002",-0.21937505955634123,-4.796946707918265,380]]},"para":{"top":[["NCBP2_22916",0.34015302106014567,-11.292622535030635,390]],"bottom":[["MAEA_10296",-0.24579966942424608,-5.867016256770226,377],["ARHGAP36_158763",-0.18212298660739537,-3.4212360925638294,377],["F2RL2_2151",-0.18267850397626104,-3.526103457023559,388]]}}}
{"achilles":{"corr":{"top":[["NCBP2_22916",0.2896801760793565,-10.279055228065893,494],["RPL35A_6165",0.39390938227839306,-11.102618999603662,280],["HIKESHI_51501",0.2339186837458049,-4.110077290710179,280],["RIMKLB_57494",0.25351526425945764,-4.7547701895015715,280]],"bottom":[["WDR17_116966",-0.26937717352008816,-5.316332309750773,280],["PRAMEF4&PRAMEF15_400735&653619",-0.2376700380652069,-4.229371434035804,280],["UXT_8409",-0.29685345663538354,-6.3765986246088495,280]]},"para":{"top":[["NCBP2_22916",0.2897951305679628,-10.286988926695088,494],["RPL35A_6165",0.3185245581518619,-7.294569887206161,280],["RIMKLB_57494",0.22269321637175948,-3.7645422397263615,280]],"bottom":[["LINC00671_388387",-0.24826568477146363,-4.57681617133684,280],["PRAMEF4&PRAMEF15_400735&653619",-0.21881304123063258,-3.6490491375564695,280],["TJAP1_93643",-0.21987470226508626,-3.68044968381842,280],["FNIP1_96459",-0.21257038945952209,-3.4674370128863354,280]]}}}
{"ccle_rrbs_tss1kb":{"corr":{"top":[],"bottom":[]},"para":{"top":[],"bottom":[]}}}
{"ccle_gene_tpm":{"corr":{"top":[["NCBP2_ENSG00000114503.6",0.5673541495309613,-86.46417871956032,1011],["NCBP2-AS2_ENSG00000270170.1",0.4921455498462823,-62.060338233842934,1011],["WDR53_ENSG00000185798.6",0.6020830403701798,-100.02163676706643,1011],["SENP5_ENSG00000119231.6",0.47996287713249414,-58.651876688968585,1011]],"bottom":[]},"para":{"top":[["NCBP2_ENSG00000114503.6",0.5355442417780732,-75.38719746476337,1011],["NCBP2-AS2_ENSG00000270170.1",0.4504555022332262,-50.945016831504326,1011],["WDR53_ENSG00000185798.6",0.5690753417039938,-87.09840038209602,1011],["SENP5_ENSG00000119231.6",0.44783643474709844,-50.29676193412058,1011]],"bottom":[["RSU1_ENSG00000148484.13",-0.2397274044351876,-13.954512533742848,1011],["ERCC2_ENSG00000104884.10",-0.22978657640733013,-12.854429600509047,1011]]}}}
{"ccle_rrbs_tss_clusters":{"corr":{"top":[["RARG_4",0.22250134814101158,-10.065732699310361,832]],"bottom":[]},"para":{"top":[["RARG_4",0.1976871930700792,-8.050552816035193,832]],"bottom":[]}}}
{"ccle_rrbs_cgi_clusters":{"corr":{"top":[],"bottom":[]},"para":{"top":[],"bottom":[]}}}
