{"depmap_hotspot":{"corr":{"top":[["AMICA1",0.08604826820187819,-3.4552889546435357,27.0,1695.0],["ANKS1B",0.08313461633248466,-3.25668486387863,121.0,1601.0],["AP3M1",0.08401061269441619,-3.3157525029179014,36.0,1686.0],["APMAP",0.08616037884229096,-3.4630531451704374,46.0,1676.0],["BCL2L14",0.08018199968366366,-3.0616532774901857,20.0,1702.0],["BNIPL",0.07787531688428331,-2.9136315255620304,36.0,1686.0],["C11orf72",0.08105515785681912,-3.1186775097862145,10.0,1712.0],["C19orf12",0.0847079231797408,-3.363166537167919,22.0,1700.0],["CHM",0.0842798458546286,-3.334017646013903,42.0,1680.0],["CINP",0.08775097908282796,-3.5741889291211906,21.0,1701.0],["CR1",0.08120078318982614,-3.1282411660069833,164.0,1558.0],["CRNKL1",0.07821672214515776,-2.935300210109252,54.0,1668.0],["CSRP2BP",0.08441680130452664,-3.343328928876364,76.0,1646.0],["DUT",0.08022080370200943,-3.064175897677296,17.0,1705.0],["DYNLT1",0.09790754574588874,-4.3272193247558315,10.0,1712.0],["EPB41L2",0.09127398376753397,-3.8268728989525647,86.0,1636.0],["GALC",0.08372162868341841,-3.296205524347756,81.0,1641.0],["GDF9",0.08512971667365052,-3.392016769632296,35.0,1687.0],["GUSB",0.08845253012628027,-3.6237886449352796,79.0,1643.0],["HYLS1",0.09279416482419721,-3.9386944136205213,17.0,1705.0],["IGFBP3",0.09655097107119318,-4.2222772507922235,39.0,1683.0],["KHDRBS3",0.07860725449652875,-2.9601889226089404,49.0,1673.0],["KIAA1033",0.10186651260314993,-4.641217661186285,90.0,1632.0],["LAD1",0.08053446873702821,-3.084606604479783,49.0,1673.0],["LDLRAD2",0.08641052652832565,-3.480409793597296,26.0,1696.0],["MAP3K7CL",0.1209492695762943,-6.318160750133838,14.0,1708.0],["MGAT4B",0.08133606923397968,-3.137139433991201,56.0,1666.0],["MMAA",0.08768556328290866,-3.5695822022414743,25.0,1697.0],["MYO1D",0.0864565955856846,-3.48361125464926,106.0,1616.0],["NXPH3",0.0985337932592016,-4.37612069596734,35.0,1687.0],["PCSK1N",0.09777724149884759,-4.317080568964526,19.0,1703.0],["PIH1D1",0.08953088447240137,-3.700724337629569,27.0,1695.0],["POM121L12",0.09321644505110904,-3.970055591864667,105.0,1617.0],["RP11-468E2.6",0.0849485642664788,-3.3796104150529818,11.0,1711.0],["SIL1",0.07750941552063796,-2.8905003673075402,48.0,1674.0],["SMG6",0.09245310116662787,-3.913459866743154,93.0,1629.0],["SPAG6",0.08736032685273559,-3.546724328221115,53.0,1669.0],["VTI1A",0.08067251306164529,-3.0936205092086904,16.0,1706.0],["ZNF584",0.09009839873863963,-3.7415529787808626,41.0,1681.0],["ZNHIT6",0.08569845485065854,-3.4311210931201757,37.0,1685.0]],"bottom":[["FAM220A",-0.0698195057888037,-2.426346941446165,23.0,1699.0],["MACC1",-0.06106296195361718,-1.9483743024517317,75.0,1647.0],["OR10W1",-0.06957637091527662,-2.4123525365753635,50.0,1672.0]]},"para":{"top":[["AC011294.3",0.05448282770308373,-1.9240052736339488,14.0,1708.0],["APRT",0.07850598442554664,-3.2488371839262755,16.0,1706.0],["C22orf24",0.07186553800786562,-2.8428118680120487,17.0,1705.0],["CYS1",0.05348996123337639,-1.8776577484118084,9.0,1713.0],["GUCA1B",0.057584958176399886,-2.0728370980005137,12.0,1710.0],["HSPB6",0.07338806234353909,-2.9331706839503733,15.0,1707.0],["HYKK",0.08199469720104753,-3.4746055224929475,27.0,1695.0],["MAP3K7CL",0.06597651879087611,-2.508307900388907,14.0,1708.0],["POP7",0.0570195386311129,-2.045256779200604,15.0,1707.0],["PSPN",0.05641233434815226,-2.0158048260579937,12.0,1710.0],["PTH2",0.0703397445690455,-2.7537241362223357,9.0,1713.0],["TSPAN1",0.06346622384471783,-2.373049033869044,19.0,1703.0]],"bottom":[["GLYAT",-0.0932373229831808,-4.260331576944423,46.0,1676.0],["UGT2B17",-0.07177515910009541,-2.837573141729747,28.0,1694.0]]}}}
{"depmap_damaging":{"corr":{"top":[["ANKRD26",0.09367361276601609,-4.002127222558717,42.0,1679.0],["C3",0.08271391888627784,-3.2269123844029384,24.0,1697.0],["CDKN1A",0.08031606737856227,-3.068858200697233,13.0,1708.0],["DUS3L",0.10403913847488006,-4.815972831003465,9.0,1712.0],["EPB41L2",0.11471871381938188,-5.73766942721231,13.0,1708.0],["MIOX",0.1312499565354569,-7.333514023321504,8.0,1713.0],["NAV2",0.0830843516972415,-3.2516973307168398,25.0,1696.0],["NDC80",0.08400034699494723,-3.3134083892299953,10.0,1711.0],["PIH1D1",0.11245361492328605,-5.535069616483379,8.0,1713.0],["SNED1",0.09431743750432324,-4.05038064157624,8.0,1713.0],["ZNF366",0.11305876543372674,-5.588820589163564,8.0,1713.0]],"bottom":[["BAIAP3",-0.07229926818320866,-2.5702082678646314,11.0,1710.0],["DYTN",-0.059620015825791274,-1.8738413643653713,8.0,1713.0],["MAP4K1",-0.08299883312828774,-3.245966694025734,16.0,1705.0],["XPA",-0.05388738861785942,-1.5954475403701733,13.0,1708.0]]},"para":{"top":[["ACSM4",0.057266278490341986,-2.0563565974711318,8.0,1713.0],["CDC42BPG",0.07413662993584891,-2.9768528517362376,12.0,1709.0],["CTR9",0.07598847044040505,-3.0898929964726105,14.0,1707.0],["FAM81B",0.07230092582951196,-2.867250877002794,17.0,1704.0],["FMNL3",0.06454724214891375,-2.4296435803060756,9.0,1712.0],["HADHA",0.06796068128277793,-2.617124618911798,9.0,1712.0],["NDC80",0.06812361959127093,-2.6262977874773092,10.0,1711.0],["SAE1",0.05499609891924153,-1.947355515634205,9.0,1712.0],["SLC6A14",0.06393774405234552,-2.396983383961279,8.0,1713.0],["TLR3",0.05632917830186468,-2.01093136597231,8.0,1713.0],["XPC",0.06109326335787779,-2.2480698541951285,9.0,1712.0]],"bottom":[["BAIAP3",-0.06608771664847228,-2.5133031542479527,11.0,1710.0],["BRCA1",-0.08803836701648005,-3.8840379147666773,27.0,1694.0],["DYTN",-0.057756321708169536,-2.080347505268514,8.0,1713.0],["FCRL5",-0.06538119432959606,-2.474836587547992,18.0,1703.0],["MAP4K1",-0.06730180926862973,-2.5804240248833814,16.0,1705.0],["MAPKAPK5",-0.05785009078413511,-2.084980725970189,9.0,1712.0],["PLEKHM2",-0.06290607412007689,-2.3423253425695334,8.0,1713.0],["SLC38A4",-0.06111476673355147,-2.2492684449063374,15.0,1706.0],["XPA",-0.06186081707020047,-2.2877854584057564,13.0,1708.0]]}}}
{"prism_primary_logfold":{"corr":{"top":[["ramatroban_BRD-K08586861-001-01-1::2.5::HTS",0.13059584892735887,-2.606734880351642,535],["valsartan_BRD-K45158365-001-11-4::2.5::HTS",0.14004687515258873,-2.9715345556075023,543],["erteberel_BRD-K80608265-001-01-6::2.5::HTS",0.12445336733904482,-2.3337220738592097,516],["cabergoline_BRD-K86882815-001-03-2::2.5::HTS",0.1271285161329672,-2.4955456329314245,536]],"bottom":[["metergoline_BRD-A72309220-001-04-1::2.5::HTS",-0.15123740012882916,-3.467172538342472,557],["theophylline_BRD-K97799481-001-16-0::2.5::HTS",-0.1540961615101756,-3.5932022379701234,559],["elagolix_BRD-K55808645-001-01-4::2.500006596::MTS004",-0.15357756945114684,-3.455899784652703,538]]},"para":{"top":[["cabergoline_BRD-K86882815-001-03-2::2.5::HTS",0.1325498983410619,-2.6769857775514923,536]],"bottom":[["halopemide_BRD-K50055394-001-03-6::2.701086832::MTS004",-0.1978853171730828,-5.435593250594249,539]]}}}
{"prism_secondary_logfold":{"corr":{"top":[["phenazone_BRD-K46937689-001-15-0::2.5::HTS002",0.32285521077264756,-4.70561865159277,168]],"bottom":[["golvatinib_BRD-K69001009-001-02-8::0.0024414::HTS002",-0.20614628222607573,-3.0016986526658758,252],["nizofenone_BRD-K84011460-051-01-7::10::HTS002",-0.19170052392298162,-4.508326614414646,466],["norethindrone_BRD-K92073408-001-15-7::0.625::MTS005",-0.197427719609898,-4.599170072042128,449],["hexylresorcinol_BRD-K99946902-001-07-5::10::HTS002",-0.1946259729268151,-3.8979051819073183,383]]},"para":{"top":[["BAM7_BRD-K07442505-001-03-6::0.15625::HTS002",0.17214509094387404,-3.697026272776781,462],["tyloxapol_BRD-U25960968-000-01-9::0.0390625::HTS002",0.18643468415785003,-3.4657136658891865,365]],"bottom":[]}}}
{"ccle_proteomics":{"corr":{"top":[["TOM1L2_Q6ZVM7",0.3341652928630014,-10.481229847115356,374],["PHF14_O94880-2",0.3614593161525318,-7.026808192940721,206],["GID4_Q8IVV7",0.35814483016816245,-7.701304323358358,232],["ATPAF2_Q8N5M1",0.3524995932538681,-11.392028435600569,365]],"bottom":[]},"para":{"top":[["LLGL1_Q15334",0.4813456536528998,-22.36044577594878,374],["TTC19_Q6DKK2",0.38323760561852066,-13.804864896489294,374],["GID4_Q8IVV7",0.3690894260912709,-8.171727593746649,232],["ATPAF2_Q8N5M1",0.3475582241762261,-11.07539993160747,365]],"bottom":[["TMEM222_Q9H0R3",-0.26441726139791477,-3.877617814500958,204]]}}}
{"depmap_copy_number":{"corr":{"top":[["PLD6_201164",0.9688157877128303,-323.0051853474518,1745],["MPRIP_23164",0.9589269149963056,-323.0051853474518,1745],["NT5M_56953",0.9829683799995316,-323.0051853474518,1745],["RASD1_51655",0.9895883474756791,-323.0051853474518,1745],["COPS3_8533",0.9767436024734554,-323.0051853474518,1745],["FLCN_201163",0.967749162111874,-323.0051853474518,1745],["MED9_55090",0.9879511835570857,-323.0051853474518,1745],["PEMT_10400",0.9908370991876777,-323.0051853474518,1745],["SMCR2_105371564",1.0,-323.0051853474518,1745]],"bottom":[]},"para":{"top":[["MIR6777_102465466",0.9841948207346454,-323.0051853474518,1745],["PLD6_201164",0.9715930082939066,-323.0051853474518,1745],["SREBF1_6720",0.9841948207346454,-323.0051853474518,1745],["MIR33B_693120",0.9841948207346454,-323.0051853474518,1745],["NT5M_56953",0.9839698196537586,-323.0051853474518,1745],["RAI1-AS1_100861516",0.984991139253149,-323.0051853474518,1745],["TOM1L2_146691",0.9835274372884597,-323.0051853474518,1745],["COPS3_8533",0.9777464005349166,-323.0051853474518,1745],["RASD1_51655",0.994184298946559,-323.0051853474518,1745],["SMCR5_140771",0.9848967972534357,-323.0051853474518,1745],["MED9_55090",0.9918910317862561,-323.0051853474518,1745],["PEMT_10400",0.9941981271561234,-323.0051853474518,1745],["SMCR2_105371564",1.0,-323.0051853474518,1745]],"bottom":[]}}}
{"depmap_gene_tpm":{"corr":{"top":[["PEMT_10400",0.5469725790263541,-101.05296934619967,1293],["COPS3_8533",0.5851883484383039,-118.94655676524259,1293],["MED9_55090",0.5761700853657017,-114.50986048276238,1293]],"bottom":[]},"para":{"top":[["PEMT_10400",0.5148763962305337,-87.7150265892521,1293],["COPS3_8533",0.5512544723046713,-102.94373270002272,1293],["MED9_55090",0.5116313472966587,-86.44449295724242,1293]],"bottom":[["MCRIP2_84331",-0.23468057881379867,-16.91067740610035,1293],["SLC39A4_55630",-0.24661705863376304,-18.64128947553358,1293]]}}}
{"avana":{"corr":{"top":[["COPS3_8533",0.4132788123372825,-32.35357801313158,769]],"bottom":[["TBC1D28_254272",-0.14117186011925123,-4.067491556499591,769]]},"para":{"top":[["COPS3_8533",0.45918405037354937,-40.64398137695929,769],["MED9_55090",0.409829679536849,-31.298212361142244,757]],"bottom":[["RPGRIP1_57096",-0.15386177852771793,-4.738792095378535,769],["EDDM3B_64184",-0.15137901096615503,-4.6031291445776805,769]]}}}
{"drive":{"corr":{"top":[["COPS3_8533",0.41388576051284226,-16.308289791890644,377]],"bottom":[["BRAP_8315",-0.22162720892300522,-4.852288026924545,377]]},"para":{"top":[],"bottom":[]}}}
{"achilles":{"corr":{"top":[["COPS3_8533",0.4593558610907042,-15.295135102175205,280]],"bottom":[["SYAP1_94056",-0.19389603440656675,-2.954581893205031,280],["USP16_10600",-0.18782349794372807,-4.576427420778831,494],["PTGS2_5743",-0.18731004803199885,-4.554019555804176,494],["RPP38_10557",-0.18396936003554776,-4.4096926648519155,494],["ARHGAP28_79822",-0.20142138534867823,-3.1558196825726075,280]]},"para":{"top":[["MED9_55090",0.2825778528932617,-9.79580706019139,494]],"bottom":[]}}}
{"ccle_rrbs_tss1kb":{"corr":{"top":[["FNDC11_20_62184558_62185558",0.17628571727293307,-6.480412889534681,828]],"bottom":[["SLC26A3_7_107443678_107444678",-0.14506414950038748,-4.57407863379144,832]]},"para":{"top":[],"bottom":[["SLC26A3_7_107443678_107444678",-0.12613243145814218,-3.576773786353746,832]]}}}
{"ccle_gene_tpm":{"corr":{"top":[["COPS3_ENSG00000141030.8",0.6236459929894541,-109.31438339108858,1011],["MED9_ENSG00000141026.4",0.6093029238276066,-103.05353933394412,1011],["PEMT_ENSG00000133027.13",0.5734442639129689,-88.7251795470094,1011]],"bottom":[]},"para":{"top":[["COPS3_ENSG00000141030.8",0.5732875952146713,-88.66642018630044,1011],["MED9_ENSG00000141026.4",0.5619164387343942,-84.4848681095934,1011],["PEMT_ENSG00000133027.13",0.5441010959049245,-78.25071928067513,1011]],"bottom":[["SLC39A4_ENSG00000147804.5",-0.25200989482108227,-15.384076368864848,1011],["FFAR2_ENSG00000126262.4",-0.21048421190206376,-10.860737063670005,1011]]}}}
{"ccle_rrbs_tss_clusters":{"corr":{"top":[],"bottom":[["MIR3927_1",-0.17591791677725976,-2.9414866431123836,339],["ERVV-1",-0.1633633062103824,-4.625368937552978,663]]},"para":{"top":[],"bottom":[["LINC00601_2",-0.14736618125511733,-2.9966749069598984,495]]}}}
{"ccle_rrbs_cgi_clusters":{"corr":{"top":[["12_117534290_117536856-3",0.21003186367603194,-8.971788733625132,827]],"bottom":[["17_16518938_16523317-1",-0.19257683238520337,-2.715138341649188,257],["3_44618551_44622971-3",-0.18267137829683466,-3.557327601726784,392]]},"para":{"top":[["19_613529_616068-3",0.26405898872866196,-5.582715628284562,308]],"bottom":[]}}}
