{"depmap_hotspot":{"corr":{"top":[["ARMC1",0.061525504621310824,-1.9722895686044857,19.0,1703.0],["BCAS1",0.0699208220854575,-2.4321907866711516,60.0,1662.0],["BLOC1S3",0.06638750894745626,-2.2326438521535112,14.0,1708.0],["CD79B",0.09538454254740976,-4.1331237941620484,34.0,1688.0],["FAM131C",0.0826253607017586,-3.2225999509230867,17.0,1705.0],["FGL1",0.0761419784965877,-2.8048992734383034,45.0,1677.0],["GIF",0.07720859571928511,-2.8715549313586903,47.0,1675.0],["GPER1",0.0734264332175876,-2.638845315733986,45.0,1677.0],["GTF2E2",0.08243331750928035,-3.2097947373512117,20.0,1702.0],["KRT82",0.0829204189379388,-3.2423257311662783,59.0,1663.0],["NAIF1",0.06910731163159184,-2.385471643753343,45.0,1677.0],["PDXDC1",0.0664270212918954,-2.234827051461034,82.0,1640.0],["RNF170",0.08010151982066102,-3.0564247776500135,18.0,1704.0],["SNRPD1",0.12304547378797205,-6.519043189129263,9.0,1713.0],["TAS2R7",0.06612465411362714,-2.2181479097116323,34.0,1688.0]],"bottom":[["ANO6",-0.06882962426823433,-2.3696306841025248,91.0,1631.0],["CINP",-0.06500675260616219,-2.1570358598915087,21.0,1701.0],["DCUN1D4",-0.0638646910621745,-2.0955012223569813,28.0,1694.0],["DISC1",-0.0730846294487551,-2.6183144403187306,82.0,1640.0],["FANCD2",-0.06670326057901974,-2.2501207147900106,87.0,1635.0],["FKBP6",-0.08189801212373535,-3.1742410390464375,29.0,1693.0],["MYO7B",-0.07104339858878367,-2.497423316558124,188.0,1534.0],["NEGR1",-0.0700856019630403,-2.4417105730752695,49.0,1673.0],["RAB34",-0.06445489177670062,-2.1271882144797236,33.0,1689.0],["RP11-295K3.1",-0.0668740726436857,-2.2596041893173755,19.0,1703.0],["TATDN3",-0.07555388897754148,-2.7684940613989726,18.0,1704.0],["TEX9",-0.06761517305092338,-2.3009862200534656,31.0,1691.0],["TTL",-0.06977176050347503,-2.4235955314363786,45.0,1677.0],["ZNF263",-0.07121795191684525,-2.507646249284519,46.0,1676.0]]},"para":{"top":[],"bottom":[["ATOX1",-0.05719943235034785,-2.053907371341173,8.0,1714.0],["C1orf229",-0.06881283264133305,-2.666286866876827,8.0,1714.0],["CINP",-0.06566761847701014,-2.491488854899437,21.0,1701.0],["NDUFB9",-0.06017380678999427,-2.2021066436888197,17.0,1705.0],["SDC4",-0.06532651088102497,-2.472811722147442,11.0,1711.0],["SERTM1",-0.058934570559503914,-2.1395519215384526,8.0,1714.0],["SRXN1",-0.07362289026326951,-2.9472099632166766,12.0,1710.0],["TATDN3",-0.07695457527988409,-3.1512414340276744,18.0,1704.0],["TEX9",-0.08675680984381834,-3.796500343800472,31.0,1691.0],["TMEM97",-0.07538456802642451,-3.0541046304436015,13.0,1709.0]]}}}
{"depmap_damaging":{"corr":{"top":[["MYO19",0.06374606795611733,-2.088173856905374,9.0,1712.0],["PMPCA",0.0926991342951969,-3.9296675135542185,8.0,1713.0],["WWTR1",0.11956463789988994,-6.184048057648375,9.0,1712.0],["ZNF729",0.08331805616635571,-3.2673847810435404,15.0,1706.0]],"bottom":[["CSMD1",-0.07691693046825625,-2.8518501532185256,60.0,1661.0],["FAM13A",-0.05697726431163865,-1.7427143989360343,10.0,1711.0],["OBSL1",-0.05161441265107781,-1.4912466322886815,21.0,1700.0],["SNX19",-0.05791432764578112,-1.788661898761903,17.0,1704.0],["UBXN7",-0.04992284194992604,-1.4159577996804524,10.0,1711.0]]},"para":{"top":[["CALN1",0.07734194805826404,-3.1739022178946716,9.0,1712.0],["HCN1",0.06411113474677005,-2.4064160205778773,21.0,1700.0],["MAS1L",0.06042981782160514,-2.214146520607173,10.0,1711.0]],"bottom":[["ANKRD20A1",-0.06042871777736054,-2.2140694075104763,9.0,1712.0],["FAM13A",-0.05100448973000008,-1.7640765671718934,10.0,1711.0],["FAM188B",-0.06026149972506985,-2.2056004302093197,11.0,1710.0],["TRMT2A",-0.07792630441777655,-3.2106369112976934,10.0,1711.0],["UBXN7",-0.05809849177119179,-2.0972399880873254,10.0,1711.0]]}}}
{"ccle_mirna":{"corr":{"top":[["hsa-miR-1243_miR00055.1",0.11721946250816827,-3.535108922309873,951]],"bottom":[]},"para":{"top":[],"bottom":[]}}}
{"prism_primary_logfold":{"corr":{"top":[],"bottom":[["nomegestrol-acetate_BRD-K27351809-001-09-5::2.5::HTS",-0.11401405527624159,-2.1569639599168724,559]]},"para":{"top":[],"bottom":[["citicoline_BRD-A91728607-236-11-9::2.5::MTS004",-0.11465580151168493,-2.1129348208776366,539]]}}}
{"prism_secondary_logfold":{"corr":{"top":[["beta-lapachone_BRD-K28061410-001-06-6::2.5::MTS006",0.14321315937427817,-2.721951098791102,468],["AVN-944_BRD-K62196610-001-01-6::0.00976562::HTS002",0.15026960975437081,-2.6199275942097824,406]],"bottom":[["oprozomib_BRD-A36331462-001-02-1::10::HTS002",-0.1909314599314772,-3.9307615585968145,402],["alectinib_BRD-K11267252-001-04-4::10::HTS002",-0.15897129928282758,-2.9549131916727864,418],["dioscin_BRD-K37723606-001-01-5::0.00976562::HTS002",-0.16040967178666332,-3.317611335722477,470],["brigatinib_BRD-K56981171-001-02-8::0.00244::MTS010::PROS001_PR500",-0.1874084889435249,-4.272033058856869,459],["darifenacin_BRD-K95773607-004-03-8::0.15625::HTS002",-0.16972264368438808,-3.633410313588739,466]]},"para":{"top":[["TG-100572_BRD-K18424115-003-01-3::0.00976562::HTS002",0.16077392320250025,-3.3428693846728224,472],["JIB04_BRD-K76180386-001-01-6::0.15625::HTS002",0.15740466536105904,-3.18156332565064,465]],"bottom":[["dioscin_BRD-K37723606-001-01-5::0.00976562::HTS002",-0.17141869815344427,-3.7248569478926488,470],["RI-1_BRD-K79555887-001-01-0::0.15625::HTS002",-0.19996059604537306,-4.826801119550972,462]]}}}
{"ccle_proteomics":{"corr":{"top":[["DUSP3_P51452",0.26922882989980124,-6.7536951896404975,365]],"bottom":[]},"para":{"top":[["DUSP3_P51452",0.25788409151591024,-6.22968692880746,365]],"bottom":[]}}}
{"depmap_copy_number":{"corr":{"top":[["PYY_5697",0.9656401869540321,-323.0051853474518,1745],["FAM215A_23591",0.9698804861263147,-323.0051853474518,1745],["MPP2_4355",0.9722572475683399,-323.0051853474518,1745],["LINC01976_107546764",0.9698804861263147,-323.0051853474518,1745],["HDAC5_10014",0.9512815652986547,-323.0051853474518,1745],["LSM12_124801",0.9557271330272812,-323.0051853474518,1745],["G6PC3_92579",0.9525206690642117,-323.0051853474518,1745],["NAGS_162417",0.9582060015149697,-323.0051853474518,1745],["PPY_5539",0.9698804861263147,-323.0051853474518,1745],["CD300LG_146894",0.974371935399571,-323.0051853474518,1745],["DUSP3_1845",0.9946862587967517,-323.0051853474518,1745],["MEOX1_4222",0.9962499325150591,-323.0051853474518,1745],["LOC105371789_105371789",0.9481495709481048,-323.0051853474518,1745],["MPP3_4356",0.9897455281296035,-323.0051853474518,1745],["CFAP97D1_284067",0.9938066498919789,-323.0051853474518,1745],["TMEM101_84336",0.9557271330272812,-323.0051853474518,1745]],"bottom":[]},"para":{"top":[["DHX8_1659",0.9780563207455072,-323.0051853474518,1745],["MIR2117_100313779",0.9780563207455072,-323.0051853474518,1745],["FAM215A_23591",0.9761812264928965,-323.0051853474518,1745],["MPP2_4355",0.9774241113413641,-323.0051853474518,1745],["LINC01976_107546764",0.9761812264928965,-323.0051853474518,1745],["DUSP3_1845",0.9932835292191946,-323.0051853474518,1745],["PPY_5539",0.9761812264928965,-323.0051853474518,1745],["CD300LG_146894",0.980397040334778,-323.0051853474518,1745],["ARL4D_379",0.9729665553166507,-323.0051853474518,1745],["MEOX1_4222",0.9956171651910488,-323.0051853474518,1745],["ETV4_2118",0.9810443497861573,-323.0051853474518,1745],["MPP3_4356",0.9920203190857689,-323.0051853474518,1745],["CFAP97D1_284067",0.9923048871024943,-323.0051853474518,1745],["MIR2117HG_106660605",0.9780563207455072,-323.0051853474518,1745]],"bottom":[]}}}
{"depmap_gene_tpm":{"corr":{"top":[["LSM12_124801",0.47036667664523546,-71.42790239894123,1293]],"bottom":[["CALM1_801",-0.16174422045819478,-8.30573885713359,1293]]},"para":{"top":[["DHX8_1659",0.4448181607684389,-63.110770746816634,1293]],"bottom":[["ALDH4A1_8659",-0.18067473282173052,-10.223782752852943,1293]]}}}
{"avana":{"corr":{"top":[],"bottom":[]},"para":{"top":[["MRPL45_84311",0.22447682202762675,-9.513188472100392,769]],"bottom":[["AGER_177",-0.15841870285701748,-4.99330792413962,769],["INKA1_389119",-0.13557335218657435,-3.788669992043097,769]]}}}
{"drive":{"corr":{"top":[],"bottom":[]},"para":{"top":[["MIOX_55586",0.1933666826445241,-3.8270218371170848,380]],"bottom":[]}}}
{"achilles":{"corr":{"top":[["COG4_25839",0.22849377261812656,-3.9409618504278883,280],["LRIT2_340745",0.21513883401361747,-3.5415340966861826,280],["GATA3_2625",0.20026259284176218,-5.137798141693936,494]],"bottom":[["DMTF1_9988",-0.2012064675566819,-5.1818561001745085,494],["KXD1_79036",-0.21908193347260027,-3.6569879147009066,280],["AGR3_155465",-0.20097215617851952,-3.1436022632930114,280],["SPATA12_353324",-0.20840301377005108,-3.349058847658817,280]]},"para":{"top":[],"bottom":[["AGR3_155465",-0.20240169481568773,-3.1825711383774467,280],["LRRIQ3_127255",-0.21076393572129787,-3.415843175133016,280],["PDZD2_23037",-0.22644580824111898,-3.8781567620220914,280]]}}}
{"ccle_rrbs_tss1kb":{"corr":{"top":[["CCDC24_1_44456267_44457267",0.1479942277045643,-4.730046807592075,830],["HIST1H1B_6_27835359_27836359",0.1446778569142187,-4.276574450888136,775]],"bottom":[["HOXC8_12_54401889_54402889",-0.147145707205199,-4.5918325496226515,812]]},"para":{"top":[["SULF1_8_70404027_70405027",0.13894689141702857,-3.0415892841553944,567],["HSP90AA1_14_102553512_102554512",0.13421739561940854,-3.986751760371338,832],["C1orf141_1_67600654_67601654",0.16412603172498236,-4.6515906538303415,661],["SNHG7_9_139622636_139623636",0.16572558229132706,-5.813280689072775,832]],"bottom":[["L3MBTL3_6_130339204_130340204",-0.15999514648387786,-5.400707932433113,823],["GTF2H2C_5_68855071_68856071",-0.13895272259005575,-2.279288924809952,402]]}}}
{"ccle_gene_tpm":{"corr":{"top":[["LSM12_ENSG00000161654.5",0.5157263227713004,-69.06217933415873,1011],["LSM12P1_ENSG00000232024.2",0.3371315452125176,-27.56625034690847,1011],["RP11-56L13.4_ENSG00000260649.1",0.3515212787342843,-30.0475173587953,1011]],"bottom":[]},"para":{"top":[["LSM12_ENSG00000161654.5",0.46560368894406867,-54.80720740494962,1011],["DHX8_ENSG00000067596.6",0.46464472345487984,-54.55690641648975,1011]],"bottom":[["ALDH4A1_ENSG00000159423.12",-0.17908643454534662,-8.007461240433951,1011]]}}}
{"ccle_rrbs_tss_clusters":{"corr":{"top":[["SEC23B_4",0.18052989037281528,-6.822716418312877,835]],"bottom":[["CHTF18_1",-0.16095542009636157,-5.4000468702177695,813]]},"para":{"top":[["INO80E_2",0.1835188463648586,-7.079075804479534,841],["MEAF6_3",0.21206470719325182,-2.5895471962718593,200]],"bottom":[["ARHGEF9_6",-0.17763474694128414,-3.0736440117513912,350],["HHAT_3",-0.2014131009315488,-4.133205032985991,382]]}}}
{"ccle_rrbs_cgi_clusters":{"corr":{"top":[["7_927476_932013-2",0.22333482646148664,-6.217301825092672,489],["8_142293218_142297879-2",0.20926280475453202,-2.7227114037416325,218],["20_61490119_61492873-3",0.21825631741013457,-3.1788983595981612,240],["5_79862842_79865644-1",0.20269158048192462,-2.6778254441352964,228]],"bottom":[["16_2050209_2054718-2",-0.20202762919979794,-8.357294737200586,829],["16_2050209_2054718-3",-0.1833155585935986,-6.4503498743249095,761]]},"para":{"top":[["2_52799230_52802057-1",0.16149765245543676,-4.99522584103561,740],["9_139978377_139981132-1",0.16606801893393466,-5.569660114479686,790],["16_30004578_30007226-2",0.1835188463648586,-7.079075804479534,841]],"bottom":[["23_62972713_62977218-3",-0.17763474694128414,-3.0736440117513912,350],["16_2050209_2054718-2",-0.18281265985535614,-6.937221589987336,829],["1_210500133_210504793-3",-0.2014131009315488,-4.133205032985991,382]]}}}
