{"depmap_hotspot":{"corr":{"top":[["AMBRA1",0.1058789578379519,-4.97127002657942,104.0,1618.0],["CBX2",0.08934710351762308,-3.6875527406984623,66.0,1656.0],["CLCA4",0.09708762515959701,-4.26363031188289,88.0,1634.0],["CWF19L2",0.08899998544921597,-3.662741649435584,95.0,1627.0],["F13A1",0.09937657243528661,-4.442385494921393,95.0,1627.0],["FAM114A2",0.0882786053059628,-3.611458892136914,41.0,1681.0],["GRM3",0.08288415409041425,-3.2398979131310917,129.0,1593.0],["HIPK1",0.09492594783592166,-4.098345024016306,92.0,1630.0],["HNF1A",0.09058521699581067,-3.7767626270830053,85.0,1637.0],["HS3ST5",0.08338202287062564,-3.2733113042541584,44.0,1678.0],["IQGAP2",0.08598331936305369,-3.4507950954184823,132.0,1590.0],["KIAA1549L",0.08275475959838545,-3.2312430617694896,159.0,1563.0],["LRRC43",0.08523351622920133,-3.3991362267763763,82.0,1640.0],["NEURL4",0.10396668379797241,-4.812484681154315,101.0,1621.0],["POLD1",0.08432633358503205,-3.3371767235808405,132.0,1590.0],["RFTN2",0.08514155198930985,-3.392828143689898,40.0,1682.0],["SLC18A2",0.08894085806234499,-3.6585240947732736,79.0,1643.0],["TMEM59",0.08762727348411564,-3.5654799154411085,33.0,1689.0],["XPO7",0.09920793542614234,-4.429084323833967,83.0,1639.0],["ZBTB14",0.09353595210287555,-3.9938706971757023,82.0,1640.0],["ZNF280C",0.09119099000453819,-3.8208165084472614,47.0,1675.0],["ZZEF1",0.09841127355699716,-4.366530897024341,184.0,1538.0]],"bottom":[["KLF16",-0.05278672720734984,-1.545257230162406,24.0,1698.0],["NPM3",-0.05914343043918731,-1.8507027139017236,20.0,1702.0],["RECQL4",-0.07473765033073242,-2.718372460415919,13.0,1709.0],["XCL2",-0.07574664526929828,-2.7803994126559375,10.0,1712.0]]},"para":{"top":[["ARL2",0.0704714707087815,-2.761418818267612,13.0,1709.0],["CCNDBP1",0.06336200430487601,-2.3674881232320053,15.0,1707.0],["CDK2",0.08234250014699292,-3.497554403526,24.0,1698.0],["CENPO",0.07232047798391375,-2.8695999787970745,13.0,1709.0],["DEFB123",0.05954613210133945,-2.1703176267815207,13.0,1709.0],["GUCA2A",0.062295570615293595,-2.3112949211173235,9.0,1713.0],["KISS1",0.07168281180509173,-2.831989357786504,11.0,1711.0],["LAPTM4A",0.08279573805618884,-3.527580756153571,20.0,1702.0],["SRSF9",0.06763262232142148,-2.5999690639621,16.0,1706.0],["WDR61",0.09278902250406493,-4.227216678823784,28.0,1694.0],["ZCCHC17",0.07200996100619077,-2.851305483400999,16.0,1706.0]],"bottom":[["TCL1A",-0.055974207220030936,-1.9948216499143483,22.0,1700.0]]}}}
{"depmap_damaging":{"corr":{"top":[["AP2A1",0.08033989793678205,-3.070408723008186,10.0,1711.0],["CAMSAP2",0.08089039510503265,-3.1063396727224495,31.0,1690.0],["GYLTL1B",0.06732808596892573,-2.283818218036261,13.0,1708.0],["LRP1B",0.07889789127271307,-2.9773164284317284,97.0,1624.0],["NBEA",0.08497249756107066,-3.3795632470907147,51.0,1670.0],["NFASC",0.06799031710601848,-2.320968509584634,27.0,1694.0],["STAB1",0.07179613448318786,-2.540432280419303,49.0,1672.0],["TBX3",0.06428673831234775,-2.1171324357242707,10.0,1711.0],["TSHZ3",0.0643562168419361,-2.1208684567892275,11.0,1710.0],["WDR19",0.06595783023218248,-2.2079214502571336,21.0,1700.0],["ZNF800",0.06751428607945592,-2.294232806032181,59.0,1662.0]],"bottom":[["BOLL",-0.059829386633651734,-1.8844346399443774,12.0,1709.0],["DSG4",-0.07363450705430027,-2.650095632156817,9.0,1712.0],["OR10H3",-0.06593382051368755,-2.206603257989492,10.0,1711.0],["UPK1A",-0.08776685270015736,-3.5735160202707283,8.0,1713.0],["URB1",-0.07385338316432184,-2.663311221811822,53.0,1668.0]]},"para":{"top":[["DHX34",0.06373642586041728,-2.386286318561496,9.0,1712.0],["FAM160B1",0.07479019141871554,-3.016463489372671,12.0,1709.0],["FAM73A",0.06214949360095984,-2.302704291055973,8.0,1713.0],["FLII",0.05288166207490717,-1.8489075166758813,8.0,1713.0],["GYLTL1B",0.06754099203652252,-2.593716574203396,13.0,1708.0],["SEPT7",0.06801536107407716,-2.620253790476814,12.0,1709.0],["TTC21B",0.08474723616113294,-3.6569363168350733,16.0,1705.0]],"bottom":[]}}}
{"ccle_mirna":{"corr":{"top":[],"bottom":[["hsa-miR-190b_miR00203.1",-0.13571364009447845,-4.571926971071946,951]]},"para":{"top":[],"bottom":[]}}}
{"prism_primary_logfold":{"corr":{"top":[],"bottom":[["dapoxetine_BRD-K51579475-003-02-4::2.5::HTS",-0.18070837248230265,-4.756804225652908,558]]},"para":{"top":[],"bottom":[["bardoxolone_BRD-K20545304-001-01-6::2.5::HTS",-0.1846779222238038,-4.891314749000915,551]]}}}
{"prism_secondary_logfold":{"corr":{"top":[["belinostat_BRD-K17743125-001-08-4::0.00977::MTS010::PROS003_PR500",0.15888342469820588,-3.1915781855464935,458]],"bottom":[["RITA_BRD-K00317371-001-06-1::0.002348::HTS002",-0.19464581219697674,-4.615805322109318,464],["thiram_BRD-K29254801-001-14-7::0.625::HTS002",-0.20870964856450974,-3.543827666328523,298],["lonafarnib_BRD-K41599323-001-02-3::0.15625::HTS002",-0.19187115606618746,-4.549799689797902,470]]},"para":{"top":[["PHA-848125_BRD-K60997853-001-02-3::0.0391::MTS010::PROS004_PR500",0.1656311274247395,-3.488237055113957,467],["AVL-292_BRD-K87782578-001-01-4::0.00977::MTS010::PROS001_PR500",0.14906956044639183,-2.8663186398524485,459]],"bottom":[["RITA_BRD-K00317371-001-06-1::0.002348::HTS002",-0.20958670249382524,-5.276913993552747,464]]}}}
{"ccle_proteomics":{"corr":{"top":[["DERL2_Q9GZP9",0.3813043893541503,-10.60405137165276,286]],"bottom":[["MYO1F_O00160",-0.3428235356838907,-4.299625004336396,134],["APOBR_Q0VD83-4",-0.2865613546211923,-4.664284697501459,213],["HEMGN_Q9BXL5",-0.28301740673396414,-3.88856708774338,178],["DOK2_O60496",-0.34537416736899074,-4.359590954142106,134]]},"para":{"top":[],"bottom":[["SQLE_Q14534",-0.28335420664138833,-7.271955899797519,356],["RAB44_Q7Z6P3",-0.3337005029322979,-3.8175919664552898,124],["ETV3_P41162",-0.2787360815345263,-5.573346567282401,275]]}}}
{"depmap_copy_number":{"corr":{"top":[["GGT6_124975",0.97612117142487,-323.0051853474518,1745],["SPNS3_201305",0.97411047102696,-323.0051853474518,1745],["SMTNL2_342527",0.9733451902894117,-323.0051853474518,1745],["MYBBP1A_10514",0.9761989460253115,-323.0051853474518,1745]],"bottom":[]},"para":{"top":[["ALOX15_246",0.9835003976231627,-323.0051853474518,1745],["GGT6_124975",0.9925355318605392,-323.0051853474518,1745],["SMTNL2_342527",0.9909972857040623,-323.0051853474518,1745],["MYBBP1A_10514",0.9925539999669607,-323.0051853474518,1745],["LINC01996_400568",0.9856895053725508,-323.0051853474518,1745],["SPNS3_201305",0.9890806778250946,-323.0051853474518,1745],["UBE2G1_7326",0.9766495793083729,-323.0051853474518,1745],["ANKFY1_51479",0.9705257940864855,-323.0051853474518,1745]],"bottom":[]}}}
{"depmap_gene_tpm":{"corr":{"top":[],"bottom":[["MMEL1_79258",-0.2175955531170448,-14.595639304257528,1293]]},"para":{"top":[],"bottom":[["RIPK3_11035",-0.2072069537375191,-13.279423600736866,1293]]}}}
{"avana":{"corr":{"top":[["MYBBP1A_10514",0.3695529399228663,-25.568549544921108,769]],"bottom":[["PHGDH_26227",-0.14846144903533084,-4.3852227546190825,757]]},"para":{"top":[["PELP1_27043",0.32097449907735076,-18.873861282623075,757],["MYBBP1A_10514",0.3946032724801994,-29.330567739161637,769]],"bottom":[["PRKAG1_5571",-0.15448646707777047,-4.773259467135936,769],["C3orf38_285237",-0.24844261400769935,-11.555187815981716,769]]}}}
{"drive":{"corr":{"top":[["PAFAH1B1_5048",0.3411398676636438,-11.08378933711066,380],["VSTM2B_342865",0.26649335390881934,-6.823693289772094,377],["SPAG16_79582",0.308707562509512,-9.107551715662646,380]],"bottom":[["UTP18_51096",-0.2019741492644708,-4.134636215086897,380],["TRIM17_51127",-0.1952403657626247,-3.8928710338743144,380],["HSF4_3299",-0.1997121327856591,-4.052527247328403,380],["NAB1_4664",-0.2331684612721386,-5.361239655021939,380],["POMT1_10585",-0.23823234932591486,-5.537637801546829,377]]},"para":{"top":[["PAFAH1B1_5048",0.32649262871215523,-10.162149591276831,380],["SPAG16_79582",0.26440020161760297,-6.771977074657219,380]],"bottom":[["ILF2_3608",-0.24052554095433298,-5.676738602314055,380],["RAB1A_5861",-0.20944741653005314,-4.381601931155277,377]]}}}
{"achilles":{"corr":{"top":[["MYBBP1A_10514",0.2722775716364354,-9.118919499074828,494]],"bottom":[["LINC01312_154089",-0.205653012259811,-3.2721870932228154,280],["ZNF439_90594",-0.2241101106502418,-6.315340082378706,494],["STAC_6769",-0.2468480902209697,-4.529425770488305,280]]},"para":{"top":[["MYBBP1A_10514",0.269822369941699,-8.961708012824435,494]],"bottom":[["LINC01312_154089",-0.21520676112859247,-3.5435055525941865,280],["S100A16_140576",-0.21898906176747715,-6.051060624181166,494],["STAC_6769",-0.23621892501724717,-4.18299671753518,280],["GAR1_54433",-0.2469316016475946,-4.532209771506276,280]]}}}
{"ccle_rrbs_tss1kb":{"corr":{"top":[],"bottom":[["ZNF8-ERVK3-1_19_58789331_58790331",-0.159255080418012,-2.9156704033338503,410]]},"para":{"top":[["XBP1_22_29196560_29197560",0.20170737701994493,-8.304628229132538,826]],"bottom":[]}}}
{"ccle_gene_tpm":{"corr":{"top":[],"bottom":[["ARFGAP2_ENSG00000149182.10",-0.20693313493774695,-10.514089341407066,1011]]},"para":{"top":[],"bottom":[["SLC10A5_ENSG00000253598.1",-0.2039788496322221,-10.230407208411167,1011],["C3orf83_ENSG00000225526.4",-0.2237958637043993,-12.21571334214126,1011]]}}}
{"ccle_rrbs_tss_clusters":{"corr":{"top":[["SMIM5_2",0.19887674918523185,-4.733696378822538,457],["XBP1_2",0.28413221190090515,-16.07713452718525,826]],"bottom":[]},"para":{"top":[["XBP1_2",0.28684193885335163,-16.382544201743773,826],["CDH4_3",0.24540309622730908,-10.705580025052543,727],["SERPINA1_2",0.23861007004672002,-4.62154489647278,307]],"bottom":[]}}}
{"ccle_rrbs_cgi_clusters":{"corr":{"top":[["22_29194082_29198962-2",0.28413221190090515,-16.07713452718525,826],["17_26706225_26710805-3",0.2320270978789376,-6.537403178116769,478],["5_141253564_141256766-2",0.2417956734105172,-5.609653343930431,371]],"bottom":[["7_5519368_5523615-2",-0.2532339281456555,-4.6998062271138705,277]]},"para":{"top":[["22_29194082_29198962-2",0.28684193885335163,-16.382544201743773,826],["17_7162285_7165265-1",0.24573778390308218,-9.627313014575003,647],["2_97424800_97429208-1",0.2611555168128089,-13.83772505201643,840],["15_59728070_59732738-3",0.2358554506261795,-11.00073677519389,812],["19_613529_616068-3",0.25605011481836526,-5.27353960416539,308],["17_26709383_26714311-1",0.24028609129098533,-10.94063578031141,777],["5_141253564_141256766-2",0.2519264124934112,-6.052953844003238,371]],"bottom":[["16_88600570_88603530-1",-0.25352836003629525,-8.210223839166328,511]]}}}
