{"depmap_hotspot":{"corr":{"top":[["ABHD16A",0.13066580425324376,-7.2774415114991395,56.0,1666.0],["ADK",0.17162011732993304,-12.124329385709876,21.0,1701.0],["AFAP1",0.11688950280688797,-5.9385503394025845,68.0,1654.0],["ARL5B",0.18506156389674694,-14.005531605813415,17.0,1705.0],["ATP5A1",0.12900848118249209,-7.108733187043191,41.0,1681.0],["BIN2",0.13402529752918074,-7.62587454528664,40.0,1682.0],["BTBD9",0.11294671855865378,-5.581752440407975,64.0,1658.0],["BTN1A1",0.10953107766258127,-5.282072632596715,59.0,1663.0],["C9orf9",0.12980868651615776,-7.189928534797768,28.0,1694.0],["CACNB4",0.10994660487794244,-5.318064306815888,60.0,1662.0],["CCDC81",0.11718120336080154,-5.965411593558248,54.0,1668.0],["CFP",0.14648813323291868,-8.994464317224438,29.0,1693.0],["CLEC4F",0.13836791555613615,-8.089122672336183,70.0,1652.0],["COPS4",0.143221320544078,-8.624089186526406,35.0,1687.0],["CYP2J2",0.11571055077908526,-5.830638732642753,58.0,1664.0],["DLEU1",0.229342572124438,-21.261312220328637,11.0,1711.0],["DRD4",0.12451428591571437,-6.6617862540354045,56.0,1666.0],["DUSP1",0.1471437629280847,-9.069797434711308,31.0,1691.0],["DYNLRB1",0.2668693020467281,-28.740047830421226,8.0,1714.0],["FABP7",0.11817425367862505,-6.057337071875073,12.0,1710.0],["FAH",0.13680657819249972,-7.920894993887516,35.0,1687.0],["FAM63A",0.1468624554573218,-9.037433615864373,36.0,1686.0],["FEM1A",0.13159187170538209,-7.372626034081166,46.0,1676.0],["FES",0.128447291628196,-7.052082025438237,95.0,1627.0],["GABRR2",0.10969590365245503,-5.296333932792632,52.0,1670.0],["GALR3",0.16494041363724574,-11.24359381197802,33.0,1689.0],["GRIN1",0.13197847403993132,-7.4125566915261505,72.0,1650.0],["H2BFWT",0.14400371967554781,-8.712038026017513,34.0,1688.0],["HADH",0.14062536144226928,-8.335681447554464,38.0,1684.0],["HNRNPM",0.11000024838449336,-5.322720129822621,76.0,1646.0],["IRF8",0.12141757132664967,-6.362750244406669,80.0,1642.0],["KCNJ1",0.1515126197528063,-9.580360076520911,40.0,1682.0],["LINC00692",0.22305256892786182,-20.129371917844292,12.0,1710.0],["MED8",0.11105121969417778,-5.414369325877989,20.0,1702.0],["MYH13",0.11791802989862576,-6.033547624396115,192.0,1530.0],["NAPG",0.14990116521282312,-9.390301245630605,30.0,1692.0],["NKD2",0.12867080573000012,-7.074616602049675,54.0,1668.0],["NRN1",0.1547649100170012,-9.970147333712127,29.0,1693.0],["NTNG1",0.13408370125589603,-7.632008501899653,84.0,1638.0],["PLXDC2",0.1380961980415115,-8.059711074366675,76.0,1646.0],["PNMA3",0.1347837017206236,-7.705731246443463,49.0,1673.0],["PRELID1",0.19107551900298567,-14.894852167499616,18.0,1704.0],["PRSS55",0.15360410785125464,-9.830071467264416,37.0,1685.0],["RAB32",0.11408915256820645,-5.683935120105725,22.0,1700.0],["RAET1G",0.12714634650175283,-6.921677728864655,35.0,1687.0],["RFX1",0.11799190845393358,-6.0404019035638505,85.0,1637.0],["RNASE6",0.11740220948566908,-5.985805603214183,11.0,1711.0],["RNF11",0.191973666236105,-15.030216213363643,16.0,1706.0],["RP2",0.17189712745885133,-12.161625692058063,20.0,1702.0],["RPS6KA1",0.1133709540459964,-5.619583137400232,59.0,1663.0],["SERGEF",0.12734782822247304,-6.941789443212794,35.0,1687.0],["SPACA4",0.19175749228742295,-14.997574889278305,14.0,1708.0],["STK32C",0.13594338967376376,-7.828696503701621,28.0,1694.0],["STRBP",0.13799552978289623,-8.048828876304581,50.0,1672.0],["STX3",0.1397639985584043,-8.241138381334446,29.0,1693.0],["TELO2",0.1110180167093986,-5.411461262842412,85.0,1637.0],["TREM1",0.12484886330885103,-6.694530404240614,34.0,1688.0],["TUBG2",0.15313408821965038,-9.773654719123453,52.0,1670.0]],"bottom":[]},"para":{"top":[["C1orf122",0.06803109769355253,-2.6223104896501943,17.0,1705.0],["C1orf194",0.07710582004293548,-3.1606364133191236,14.0,1708.0],["C2orf76",0.10051294677018746,-4.816414543652851,18.0,1704.0],["CD63",0.07598870439455667,-3.091238019126963,12.0,1710.0],["COMMD3-BMI1",0.05464019068528582,-1.9313250920439622,9.0,1713.0],["CSRP1",0.08802133719215431,-3.884565022365843,18.0,1704.0],["FAM24B",0.06470953939126212,-2.4393897770908626,9.0,1713.0],["GAS1",0.07794357652010156,-3.213295083910171,20.0,1702.0],["KIAA0087",0.07209166771566378,-2.8560680448742755,12.0,1710.0],["NAA20",0.06950768663848796,-2.7059538998843022,12.0,1710.0],["NUDT2",0.08489172928990038,-3.668309820639407,10.0,1712.0],["PFDN5",0.06851321094248689,-2.64944189965824,14.0,1708.0],["POLR2J2",0.06454327183392723,-2.4304125787865645,8.0,1714.0],["PRUNE",0.10600243965207758,-5.261291353560101,42.0,1680.0],["RP11-817J15.3",0.06251609427832346,-2.322805598287546,8.0,1714.0],["RPL30",0.05474238373670725,-1.9361132001459078,8.0,1714.0],["SMIM3",0.06231979050287676,-2.312560315265899,9.0,1713.0],["SRP14",0.05526456957938001,-1.9608495671032975,10.0,1712.0],["TARM1",0.08413641878018949,-3.617306438909466,17.0,1705.0],["TBCA",0.07045300979263656,-2.760244127425405,8.0,1714.0],["UFSP1",0.07699950466696226,-3.154034525865945,17.0,1705.0]],"bottom":[["AC021218.2",-0.08916570008495539,-3.9653315590412057,19.0,1703.0]]}}}
{"depmap_damaging":{"corr":{"top":[["KIAA1755",0.20086922071800467,-16.39786708429155,12.0,1709.0],["KIF20B",0.09906221773863857,-4.4153517470493915,32.0,1689.0],["PDE8A",0.26462802390152007,-28.241826557030173,9.0,1712.0],["PPP2R3A",0.10129827900685892,-4.59308437834644,13.0,1708.0],["PRODH2",0.22057300073480857,-19.681568677782217,15.0,1706.0],["XPC",0.13160342953605425,-7.369905269840373,9.0,1712.0]],"bottom":[]},"para":{"top":[["CLPB",0.07443098361299494,-2.994712653526643,16.0,1705.0],["CNTN2",0.06992509653995171,-2.728737252400359,13.0,1708.0],["FAM126A",0.05982815793973761,-2.1835765750132055,8.0,1713.0],["GPR116",0.06492817354099546,-2.450210574625824,11.0,1710.0],["HGD",0.07556517213644065,-3.063850406562477,14.0,1707.0],["HNRNPR",0.06976656152909479,-2.7195312322987295,8.0,1713.0],["ICK",0.05842565539847337,-2.113402874721924,9.0,1712.0],["KIF2C",0.0556584989943758,-1.9787846738641994,8.0,1713.0],["OR4M2",0.06449522120838709,-2.4268896517888794,11.0,1710.0],["P2RX1",0.05666623724395371,-2.027225403040728,9.0,1712.0],["PAPOLA",0.06613163426214409,-2.5157109435012917,11.0,1710.0],["PDE8A",0.07386313081877498,-2.9603000314766867,9.0,1712.0],["PUS10",0.07510634450197397,-3.035731458746528,12.0,1709.0],["SLC25A17",0.05060332485030831,-1.7462037068927247,8.0,1713.0],["SLC30A7",0.05755848791587055,-2.0706426525690773,8.0,1713.0],["SMARCAD1",0.07078423335116327,-2.778340598044345,12.0,1709.0],["SRGAP3",0.07687647482355708,-3.1448019983137967,8.0,1713.0],["SYNJ1",0.0880740234360736,-3.8864767302191088,19.0,1702.0],["TFB2M",0.051024589362313945,-1.764932592506507,8.0,1713.0],["UNK",0.07203912679369505,-2.851751592091747,13.0,1708.0],["ZFR",0.08498719398928642,-3.673092067749341,9.0,1712.0],["ZNF724P",0.06719644407186123,-2.574527917194534,13.0,1708.0]],"bottom":[]}}}
{"prism_primary_logfold":{"corr":{"top":[],"bottom":[]},"para":{"top":[["ramifenazone_BRD-K85333151-003-13-4::2.5::HTS",0.13305220735945153,-2.694136051357579,536],["FK-962_BRD-K80607346-001-01-1::2.5::MTS004",0.12084414232732385,-2.3041558108946063,539]],"bottom":[]}}}
{"prism_secondary_logfold":{"corr":{"top":[["uracil_BRD-K80129304-001-08-1::0.00976562::HTS002",0.15455880472473102,-3.111459292955003,470]],"bottom":[]},"para":{"top":[["uracil_BRD-K80129304-001-08-1::0.00976562::HTS002",0.15450906813881515,-3.1097371816611816,470]],"bottom":[]}}}
{"ccle_proteomics":{"corr":{"top":[["WDR1_O75083",0.36745125646030297,-12.672880747343926,374]],"bottom":[]},"para":{"top":[],"bottom":[["KAZN_Q674X7",-0.22753202571534717,-4.411647004538531,321],["PPP1R13B_Q96KQ4",-0.22989867559715207,-4.928192421986459,356]]}}}
{"depmap_copy_number":{"corr":{"top":[["USP17L21_100287478",1.0,-323.0051853474518,1745],["USP17L24_728369",1.0,-323.0051853474518,1745],["USP17L9P_391627",1.0,-323.0051853474518,1745],["USP17L10_100287144",1.0,-323.0051853474518,1745],["USP17L13_100287238",1.0,-323.0051853474518,1745],["USP17L12_100287205",1.0,-323.0051853474518,1745],["USP17L17_100287327",1.0,-323.0051853474518,1745],["USP17L26_728379",1.0,-323.0051853474518,1745],["USP17L28_728400",1.0,-323.0051853474518,1745],["USP17L25_728373",1.0,-323.0051853474518,1745],["USP17L22_100287513",1.0,-323.0051853474518,1745],["USP17L6P_391622",1.0,-323.0051853474518,1745],["USP17L29_728405",1.0,-323.0051853474518,1745],["FAM90A26_100287045",1.0,-323.0051853474518,1745],["USP17L11_100287178",1.0,-323.0051853474518,1745],["USP17L5_728386",1.0,-323.0051853474518,1745]],"bottom":[["TRG-AS1_100506776",-0.14110059003259853,-8.49126587456667,1745]]},"para":{"top":[["USP17L21_100287478",1.0,-323.0051853474518,1745],["USP17L9P_391627",1.0,-323.0051853474518,1745],["USP17L24_728369",1.0,-323.0051853474518,1745],["USP17L27_728393",1.0,-323.0051853474518,1745],["USP17L10_100287144",1.0,-323.0051853474518,1745],["USP17L12_100287205",1.0,-323.0051853474518,1745],["USP17L30_728419",1.0,-323.0051853474518,1745],["USP17L26_728379",1.0,-323.0051853474518,1745],["USP17L15_100288520",1.0,-323.0051853474518,1745],["USP17L28_728400",1.0,-323.0051853474518,1745],["USP17L25_728373",1.0,-323.0051853474518,1745],["USP17L6P_391622",1.0,-323.0051853474518,1745],["USP17L29_728405",1.0,-323.0051853474518,1745],["FAM90A26_100287045",1.0,-323.0051853474518,1745],["USP17L11_100287178",1.0,-323.0051853474518,1745],["USP17L5_728386",1.0,-323.0051853474518,1745]],"bottom":[]}}}
{"depmap_gene_tpm":{"corr":{"top":[],"bottom":[]},"para":{"top":[],"bottom":[]}}}
{"avana":{"corr":{"top":[],"bottom":[]},"para":{"top":[],"bottom":[["CDK5RAP2_55755",-0.1375323218854244,-3.8850338955918926,769],["PUM3_9933",-0.15870775038954563,-5.009693684054445,769]]}}}
{"drive":{"corr":{"top":[],"bottom":[["AURKA_6790",-0.18334623205767636,-3.572468054828695,391],["STRA8_346673",-0.19091231365956363,-3.7159648766277327,377]]},"para":{"top":[],"bottom":[["AURKA_6790",-0.1955466063141449,-4.002415666712592,391],["ANKRD31_256006",-0.24838127283367142,-5.981864231070045,377]]}}}
{"achilles":{"corr":{"top":[],"bottom":[]},"para":{"top":[],"bottom":[["DYNLT1_6993",-0.22399280052243378,-3.8036745979288575,280]]}}}
{"ccle_rrbs_tss1kb":{"corr":{"top":[],"bottom":[]},"para":{"top":[],"bottom":[]}}}
{"ccle_gene_tpm":{"corr":{"top":[],"bottom":[]},"para":{"top":[],"bottom":[]}}}
{"ccle_rrbs_tss_clusters":{"corr":{"top":[],"bottom":[]},"para":{"top":[],"bottom":[]}}}
{"ccle_rrbs_cgi_clusters":{"corr":{"top":[],"bottom":[]},"para":{"top":[],"bottom":[]}}}
