{"depmap_hotspot":{"corr":{"top":[["ADAM2",0.08887712563530749,-3.6539809034210036,80.0,1642.0],["ADGB",0.06801207014248405,-2.3233063976483703,174.0,1548.0],["ART5",0.07960183687089693,-3.024065814294294,32.0,1690.0],["ATRAID",0.07468892869927377,-2.7153956313099634,14.0,1708.0],["CCDC171",0.07760781639491823,-2.8967115862886246,112.0,1610.0],["COL9A2",0.07491056616475132,-2.728950986809686,73.0,1649.0],["CTSS",0.08304238285115459,-3.250497771138291,23.0,1699.0],["DHX36",0.0700627812725248,-2.440391020250433,83.0,1639.0],["DTX2",0.07329253461607844,-2.630792681516108,78.0,1644.0],["FAP",0.0705415268066393,-2.4681501155076893,76.0,1646.0],["FARSB",0.08054267661340031,-3.085142173972972,43.0,1679.0],["FOXP1",0.07056040831499642,-2.4692482269844787,73.0,1649.0],["IGF1",0.0739675942511155,-2.6715198977966375,30.0,1692.0],["IK",0.07898552349951467,-2.9843999019136986,37.0,1685.0],["INPP4A",0.07358036634910166,-2.6481184970381113,88.0,1634.0],["MFGE8",0.06823148006841463,-2.3356926276959853,42.0,1680.0],["OR52K1",0.08337231964199535,-3.272658389373983,56.0,1666.0],["PAM",0.07037600544520851,-2.4585344571322327,89.0,1633.0],["PHC3",0.07069330682445345,-2.4769844421304756,74.0,1648.0],["PLA2G4F",0.07083983999379219,-2.485528762883954,81.0,1641.0],["PTEN",0.1147692970228883,-5.745234064584565,204.0,1518.0],["RABEPK",0.0683007845932605,-2.339612047141827,36.0,1686.0],["RFPL4B",0.07438404388806884,-2.696805781275462,31.0,1691.0],["SIPA1L3",0.06769383971079398,-2.3054014109436305,186.0,1536.0],["STAT5B",0.08129310844955902,-3.1343123207621058,75.0,1647.0],["ZNF483",0.07280468774400044,-2.6015609264458024,68.0,1654.0]],"bottom":[["AJAP1",-0.07169951377898615,-2.53596086175071,65.0,1657.0],["BIVM",-0.0737848405842577,-2.6604622903666497,27.0,1695.0],["CRYBG3",-0.08434789507784746,-3.3386424652141113,161.0,1561.0],["DEFB1",-0.06380361825317034,-2.092236127830063,14.0,1708.0],["HDAC10",-0.06408675189611543,-2.107394940144886,75.0,1647.0],["KRT83",-0.11069946773795071,-5.383603206283151,106.0,1616.0],["PIF1",-0.07776318244460138,-2.9065325884847586,84.0,1638.0],["RP11-111M22.2",-0.07979121378748082,-3.0363086519675253,9.0,1713.0],["TRMT13",-0.0653878580457281,-2.1777718396874146,41.0,1681.0],["UPK3BL",-0.06629631800357136,-2.2276093836814943,49.0,1673.0],["UVRAG",-0.06660352501091796,-2.2445928262809924,60.0,1662.0],["ZNF813",-0.07262837157161488,-2.5910374603266835,52.0,1670.0]]},"para":{"top":[["APOPT1",0.060394563760618636,-2.2131992815720243,8.0,1714.0],["ATRAID",0.07312515218605348,-2.9174354830686333,14.0,1708.0],["C9orf37",0.065463339902045,-2.48026699599883,12.0,1710.0],["MMP7",0.07089208931569428,-2.7858871434994796,19.0,1703.0],["RAB9A",0.0699583363085813,-2.7318546325575364,16.0,1706.0],["SLC50A1",0.05863890438540821,-2.124955450265235,18.0,1704.0],["YBEY",0.059006217171414015,-2.143195122366958,11.0,1711.0]],"bottom":[["C5orf17",-0.06731313119417892,-2.582074046862992,11.0,1711.0],["DEFB1",-0.05806040814914724,-2.0962520171668033,14.0,1708.0],["RP11-111M22.2",-0.0738393542155008,-2.960160991676691,9.0,1713.0]]}}}
{"depmap_damaging":{"corr":{"top":[["CHD1",0.07565329568192357,-2.773275599540964,33.0,1688.0],["CYP4V2",0.06139118365059621,-1.9644069633529198,9.0,1712.0],["GPR112",0.06502117958803441,-2.1567947255889344,34.0,1687.0],["PML",0.05700827214275793,-1.7442252214524974,10.0,1711.0],["ZNF37A",0.08067904324718113,-3.092519079282282,10.0,1711.0],["ZNF804A",0.0901808240625707,-3.7456165179349883,26.0,1695.0]],"bottom":[["ARID2",-0.05824164053663866,-1.8048527540176265,42.0,1679.0],["DHX34",-0.062341501610161144,-2.01389163211618,9.0,1712.0],["DICER1",-0.0617926910851367,-1.985238029358708,27.0,1694.0],["UTP6",-0.07264241908817287,-2.59061875461895,8.0,1713.0]]},"para":{"top":[["CADPS",0.06814192345655234,-2.627364263396648,12.0,1709.0],["CILP2",0.06409194222483951,-2.405263701441747,10.0,1711.0],["GUCY2F",0.0635738283403437,-2.3777032030651455,12.0,1709.0],["RASGRF1",0.0681715241720927,-2.628968122286814,9.0,1712.0],["TEK",0.05928078212684535,-2.1561128873175717,13.0,1708.0],["ZNF33A",0.05078397973452982,-1.7542209142858762,8.0,1713.0],["ZNF804A",0.08564754742644622,-3.7183643148765766,26.0,1695.0],["ZNF85",0.056697901831313624,-2.028777886113205,10.0,1711.0]],"bottom":[]}}}
{"ccle_rppa":{"corr":{"top":[],"bottom":[["ERBB2_HER2",-0.258414874978153,-14.4247099489354,897]]},"para":{"top":[],"bottom":[]}}}
{"ccle_metabolomics":{"corr":{"top":[["2-deoxycytidine",0.1844919518283789,-7.792236863778822,924]],"bottom":[]},"para":{"top":[["2-deoxycytidine",0.19162491421376784,-8.36465411469809,924]],"bottom":[]}}}
{"ccle_rrbs_enhancer_clusters":{"corr":{"top":[],"bottom":[["22-19739204-19743707-1_enh",-0.18757390675816715,-6.882064297887096,780],["1-10732594-10735118-1_enh",-0.20664959148823323,-8.243637275349906,780],["22-43497071-43499816-1_enh",-0.19199553095896857,-7.471745605615347,814]]},"para":{"top":[],"bottom":[]}}}
{"prism_primary_logfold":{"corr":{"top":[],"bottom":[["etoposide-phosphate_BRD-K72533376-001-01-2::2.5::MTS004",-0.17684809766677456,-4.43089323149661,538]]},"para":{"top":[],"bottom":[["CGM097_BRD-K79584249-001-01-3::2.5::HTS",-0.21639019174163643,-6.535138423341138,551],["secoisolariciresinol-diglucoside_BRD-K77320845-001-01-2::2.29566066::MTS004",-0.1626795679229857,-3.827914366031263,539]]}}}
{"prism_secondary_logfold":{"corr":{"top":[],"bottom":[["TW-37_BRD-K28360340-001-08-3::2.30697::HTS002",-0.21079126080516422,-5.33235085329162,464],["daunorubicin_BRD-K43389675-001-02-1::0.0391::MTS010::PROS001_PR500",-0.20642025017773338,-5.083266382924595,459]]},"para":{"top":[],"bottom":[["TW-37_BRD-K28360340-001-08-3::2.30697::HTS002",-0.20450021118130224,-5.0463553901736375,464]]}}}
{"ccle_proteomics":{"corr":{"top":[["UBXN6_Q9BZV1",0.44113144562464457,-18.514403894027584,374],["MBNL1_Q9NR56-5",0.41828085052662756,-6.264082746579265,133],["CCDC94_Q9BW85",0.41105752267596324,-15.954188365028605,374],["SIRT6_Q8N6T7",0.42049747063859844,-16.730415998723416,374]],"bottom":[["LAMA5_O15230",-0.337380357414431,-10.681777871920202,374],["ITGA3_P26006",-0.35147134648409284,-8.189505848815475,258],["EXPH5_Q8NEV8",-0.3228823700751778,-7.5867535342883015,284],["C1orf172_Q8NAX2",-0.33082433772728886,-6.836438102645545,241],["IP6K2_Q9UHH9",-0.3683617248958059,-4.291444215780547,115]]},"para":{"top":[["MBNL1_Q9NR56-5",0.3786067533256433,-5.154578796630604,133],["CCDC94_Q9BW85",0.3255508973113077,-9.955261481801235,374],["EEF2_P13639",0.33793280948310206,-10.716473014485262,374],["PGPEP1_Q9NXJ5",0.33404061967850485,-6.965134111400954,241],["SIRT6_Q8N6T7",0.4025345865442759,-15.274137197244471,374]],"bottom":[["EPPK1_E9PPU0",-0.31855791616519685,-8.944987377968715,349],["EXPH5_Q8NEV8",-0.3133963085873496,-7.1633524823320105,284],["ZNF185_O15231-8",-0.321588121693425,-9.71880726872532,374]]}}}
{"depmap_copy_number":{"corr":{"top":[["EBI3_10148",0.9936314729410715,-323.0051853474518,1745],["SH3GL1_6455",0.9800169336078786,-323.0051853474518,1745],["STAP2_55620",0.9925813827267974,-323.0051853474518,1745],["TMIGD2_126259",0.9762571012262281,-323.0051853474518,1745],["SIRT6_51548",0.9705754935161103,-323.0051853474518,1745],["CHAF1A_10036",0.9630069585990279,-323.0051853474518,1745],["FSD1_79187",0.9762571012262281,-323.0051853474518,1745],["MPND_84954",0.9764483565371829,-323.0051853474518,1745],["UBXN6_80700",0.9580251513706054,-323.0051853474518,1745],["SHD_56961",0.9962123661777158,-323.0051853474518,1745],["HDGFL2_84717",0.942483554956964,-323.0051853474518,1745],["CREB3L3_84699",0.9631336113859654,-323.0051853474518,1745],["MAP2K2_5605",0.9268522079823056,-323.0051853474518,1745],["ANKRD24_170961",0.9711792507382209,-323.0051853474518,1745],["MIR4746_100616371",0.9580251513706054,-323.0051853474518,1745]],"bottom":[]},"para":{"top":[["EBI3_10148",0.996777386146453,-323.0051853474518,1745],["SH3GL1_6455",0.9836287293400329,-323.0051853474518,1745],["STAP2_55620",0.9939346746223116,-323.0051853474518,1745],["TMIGD2_126259",0.9948920950781629,-323.0051853474518,1745],["MPND_84954",0.9858618769684435,-323.0051853474518,1745],["SIRT6_51548",0.9873532571633975,-323.0051853474518,1745],["CHAF1A_10036",0.9719549714404042,-323.0051853474518,1745],["FSD1_79187",0.9948920950781629,-323.0051853474518,1745],["SHD_56961",0.9962195760088081,-323.0051853474518,1745],["CREB3L3_84699",0.9798188527370351,-323.0051853474518,1745],["MAP2K2_5605",0.9627843838503809,-323.0051853474518,1745],["ANKRD24_170961",0.9879982421942005,-323.0051853474518,1745]],"bottom":[]}}}
{"depmap_gene_tpm":{"corr":{"top":[["SIRT6_51548",0.447036682360279,-63.80526553675472,1293],["YJU2_55702",0.5280994859079202,-93.03684439286249,1293],["MAP2K2_5605",0.5006408897435245,-82.2418960564741,1293]],"bottom":[["ARHGEF16_27237",-0.39299836892396256,-48.280646928512944,1293],["C6orf132_647024",-0.38946029780372077,-47.36041523675462,1293],["PLEKHG6_55200",-0.371035997189225,-42.747117031332834,1293],["PPL_5493",-0.3926333101904659,-48.18517625943402,1293],["SLC16A5_9121",-0.37149433374205776,-42.85830721391059,1293]]},"para":{"top":[["YJU2_55702",0.4783732154240212,-74.18306656615586,1293],["MAP2K2_5605",0.4875345976001721,-77.4267185978082,1293]],"bottom":[["TACSTD2_4070",-0.3973479691989621,-49.42744683499104,1293],["SLC52A3_113278",-0.4018593591415542,-50.63515087735352,1293],["C1orf116_79098",-0.40388543789195236,-51.18363789674358,1293],["C6orf132_647024",-0.39964824055721004,-50.04089695637315,1293],["LAMA5_3911",-0.41274135320263083,-53.62606953551712,1293],["PLEKHG6_55200",-0.41998274567098154,-55.67856373844447,1293],["PPL_5493",-0.4191281883654674,-55.43372143921613,1293],["LIPH_200879",-0.39615120642753043,-49.11019885267951,1293]]}}}
{"avana":{"corr":{"top":[["YJU2_55702",0.2484322761461468,-11.55425864856535,769],["ACP5_54",0.23713679463155296,-10.56411439330296,769]],"bottom":[["C11orf58_10944",-0.1777325923065156,-6.152303295325712,769]]},"para":{"top":[["YJU2_55702",0.2740881560383016,-13.992215559715312,769]],"bottom":[["NRDE2_55051",-0.17522331723872123,-5.9943115694265074,769],["ZFP64_55734",-0.17670398695456854,-6.087269046432287,769]]}}}
{"drive":{"corr":{"top":[["PABPC1L_80336",0.2363675424820452,-5.458122710200277,377],["HNRNPUL2_221092",0.3029356917249472,-8.715736192948176,377],["MYT1_4661",0.23029614318555502,-5.24082230819801,380],["FOXM1_2305",0.2715458091773919,-7.121494766525316,380],["CNNM1_26507",0.24037118898625412,-5.629639985153906,377]],"bottom":[["LRWD1_222229",-0.1931928678019857,-3.8209444810950135,380],["MTMR3_8897",-0.19176455728561023,-3.745251647736636,377],["ETV6_2120",-0.22603630178667436,-5.065064057740959,380],["DOCK9_23348",-0.23103246444724207,-5.27154454837002,380],["DOCK2_1794",-0.1922079383956171,-3.7866068887934183,380]]},"para":{"top":[["EEF2_1938",0.4487758949651569,-19.503283529930172,380],["HNRNPUL2_221092",0.2709021718869094,-7.03831283186582,377],["FOXM1_2305",0.28188245743037443,-7.64525576647805,380]],"bottom":[["MCUR1_63933",-0.2273559219388486,-5.0829843994081285,377]]}}}
{"achilles":{"corr":{"top":[["CHAF1A_10036",0.303690545669629,-11.272660615605348,494],["CCDC94_55702",0.25429307614904406,-4.781467999913724,280],["EEF2_1938",0.38662539426630377,-18.333924321616987,494]],"bottom":[["APEX2_27301",-0.254876631416214,-3.7856311900783157,214],["APOD_347",-0.24219186204421184,-7.299545441033299,494],["NEMP1_23306",-0.23269642001417096,-4.071624973062803,280]]},"para":{"top":[["CHAF1A_10036",0.2630352238662404,-8.53529374378006,494],["CCDC94_55702",0.25463433634500426,-4.793208567504836,280],["EEF2_1938",0.4233534574940691,-22.17617992895091,494]],"bottom":[["MDM4_4194",-0.23494273419513628,-6.895326461043698,494],["APOD_347",-0.2682375799488822,-8.861068299902447,494],["NEMP1_23306",-0.23866652927906867,-4.26138506495255,280],["PTS_5805",-0.2395650607029028,-7.151568434838107,494]]}}}
{"ccle_rrbs_tss1kb":{"corr":{"top":[["NIPSNAP1_22_29977085_29978085",0.3280349387816763,-21.397218871904723,824],["LNX1-AS2_4_54458122_54459122",0.33036828466006257,-21.78384478052928,827],["TJP2_9_71735179_71736179",0.34397825734392595,-23.352552076935336,816],["NIPSNAP1_22_29977326_29978326",0.34150469455107213,-23.200196434352698,823]],"bottom":[["IFFO1_12_6665249_6666249",-0.3239148999172803,-20.855394942409305,824]]},"para":{"top":[["LOC105378591_1_1981509_1982509",0.3666447078784202,-27.11291104469134,831],["EPCAM_2_47595286_47596286",0.36183149056747865,-25.703428450017984,809],["NIPSNAP1_22_29977085_29978085",0.3670201810083626,-26.9489115006105,824],["FAM83B_6_54710568_54711568",0.35190585211181646,-24.268911307645794,809],["TJP2_9_71735179_71736179",0.3562407412541335,-25.097304961414782,816],["ARHGEF3_3_57113336_57114336",0.40436911658186925,-32.83946522580855,819],["NADK_1_1690081_1691081",0.3590861251090404,-25.876086544194425,828],["SLC11A2_12_51422058_51423058",0.3586386620798886,-24.753809084394767,793],["NIPSNAP1_22_29977326_29978326",0.37454660233123216,-28.07955422749828,823]],"bottom":[]}}}
{"ccle_gene_tpm":{"corr":{"top":[["SIRT6_ENSG00000077463.10",0.5856116212219082,-93.38712844642808,1011],["HDGFRP2_ENSG00000167674.10",0.46463425370983397,-54.55417808534748,1011],["CCDC94_ENSG00000105248.11",0.5704200206354019,-87.59649662904349,1011],["MAP2K2_ENSG00000126934.9",0.5590570846593118,-83.45871619173961,1011],["UBXN6_ENSG00000167671.7",0.5007037929762231,-64.53840539991978,1011]],"bottom":[["PPL_ENSG00000118898.11",-0.38441326916410495,-36.22235549725933,1011],["C6orf132_ENSG00000188112.4",-0.37964800647799757,-35.282939599249154,1011],["ARHGEF16_ENSG00000130762.10",-0.39872516651746837,-39.13869806979489,1011],["LAMA5_ENSG00000130702.9",-0.37922707666426314,-35.200704799561166,1011]]},"para":{"top":[["SIRT6_ENSG00000077463.10",0.5650362001301201,-85.615951046929,1011],["CCDC94_ENSG00000105248.11",0.5163252180462692,-69.24725303592673,1011],["UBXN6_ENSG00000167671.7",0.4874287455444731,-60.724326577639516,1011]],"bottom":[["PPL_ENSG00000118898.11",-0.41170637022067547,-41.910497158307116,1011],["KRT8P10_ENSG00000231203.1",-0.4032489589716425,-40.09073849167358,1011],["LAMA5_ENSG00000130702.9",-0.41908769033507914,-43.54196618156064,1011],["PLEKHG6_ENSG00000008323.11",-0.4057731296241235,-40.628383251468605,1011]]}}}
{"ccle_rrbs_tss_clusters":{"corr":{"top":[["TJP2_1",0.34639745976996633,-24.082913106420857,830],["CAPS_3",0.36177795390090023,-26.156402721722763,824],["COMT_3",0.34192643307368875,-23.42244325475554,829],["UBAP1_3",0.3493585628304403,-19.053425805337064,639]],"bottom":[]},"para":{"top":[["ARHGEF3_3",0.3981237112140902,-31.62206369620361,815],["CDCP1_1",0.3792762985507044,-29.403508544647657,840],["ANXA11_3",0.4179078185898612,-23.049471227538188,529],["FAM83B_3",0.38864385974356164,-30.806087096513814,836],["AHNAK2_6",0.37438877038378443,-28.68282402584778,842]],"bottom":[]}}}
{"ccle_rrbs_cgi_clusters":{"corr":{"top":[["19_5913007_5917301-3",0.36177795390090023,-26.156402721722763,824],["16_69774088_69778394-2",0.3396114537788688,-22.212159499244642,796],["9_34176951_34181480-2",0.3493585628304403,-19.053425805337064,639],["19_46030304_46034855-1",0.34910168422148263,-24.27154817742188,823],["9_71734074_71736720-1",0.3481200172497992,-23.48019305852092,800]],"bottom":[]},"para":{"top":[["10_81964989_81969517-3",0.4179078185898612,-23.049471227538188,529],["19_883746_888200-1",0.3787777544826375,-28.98377584643719,830],["6_54709153_54714033-3",0.38864385974356164,-30.806087096513814,836],["11_64609714_64614634-2",0.3928763591475076,-31.73768730208604,842],["11_9383837_9388241-1",0.3916837540357028,-29.67684621797858,791],["1_59278240_59282490-2",0.38513595952319823,-30.294346998060547,838],["3_57113237_57115908-3",0.3844208116519358,-27.971904260398073,775],["3_45185026_45189946-1",0.3792762985507044,-29.403508544647657,840],["5_79781635_79786145-3",0.39131158725517223,-30.27193135301852,809]],"bottom":[["19_7677323_7680024-3",-0.2595488840286487,-9.035999984772227,540]]}}}
