{"depmap_hotspot":{"corr":{"top":[["APOB",0.07970821633835512,-3.03093987587051,388.0,1334.0],["COL9A1",0.0814236521128446,-3.142907085867287,125.0,1597.0],["CRYBB1",0.06881168483678181,-2.368609171173178,40.0,1682.0],["CYP4F12",0.07849993242897306,-2.9533384165236476,59.0,1663.0],["EHD3",0.08125165438586204,-3.13158561475564,58.0,1664.0],["F13B",0.0934806504701357,-3.9897433432116625,85.0,1637.0],["KIAA1432",0.07169663631403607,-2.5357911885433166,84.0,1638.0],["LPAR1",0.06830314477849235,-2.3397455833375944,37.0,1685.0],["MRPS2",0.06698279177818298,-2.265650884761343,33.0,1689.0],["NOM1",0.0736692425845579,-2.6534801816599947,71.0,1651.0],["OR13C2",0.06723173170249004,-2.2795274355697823,34.0,1688.0],["PLEK",0.08490366801941297,-3.3765393229707747,50.0,1672.0],["RP11-1220K2.2",0.09881019698729757,-4.397795771433567,204.0,1518.0],["SLC10A2",0.10146712548367848,-4.609016961809677,54.0,1668.0],["TENM3",0.07936418045925998,-3.0087380915637123,238.0,1484.0],["TEX37",0.08903987619145723,-3.6655884879266227,30.0,1692.0],["TIAM1",0.06743778900411126,-2.291046374715043,188.0,1534.0],["ZHX1",0.07554070461487546,-2.7676807100352625,59.0,1663.0]],"bottom":[["ANXA4",-0.059945778733492244,-1.891220111640552,58.0,1664.0],["C21orf59",-0.05721046072824206,-1.7549048898897261,16.0,1706.0],["CTAGE9",-0.05937328847325279,-1.8622649711875283,26.0,1696.0],["CXCL1",-0.0675435040472815,-2.296967544459526,19.0,1703.0],["DIRC3",-0.06996922713982599,-2.4349852996101324,8.0,1714.0],["HEBP2",-0.09320392683014221,-3.96912403827823,17.0,1705.0],["OGFRL1",-0.06498974857769783,-2.156113025582841,81.0,1641.0]]},"para":{"top":[["CBWD3",0.06548621747335247,-2.4815973915643648,20.0,1702.0],["CDRT4",0.05389162246725776,-1.896391111381214,16.0,1706.0],["GNG7",0.049130097814653585,-1.6823079532362986,11.0,1711.0],["NUP62CL",0.07509680648471789,-3.036482086591148,12.0,1710.0],["TCEAL1",0.06130623818775801,-2.260004352132438,12.0,1710.0],["TEX37",0.07341351520946832,-2.934804453232467,30.0,1692.0],["THOC7",0.07226702527720483,-2.86648894182688,17.0,1705.0]],"bottom":[["CXCL1",-0.06825250561343206,-2.634783817249905,19.0,1703.0],["RNASE3",-0.07782038012106769,-3.205596915402167,31.0,1691.0]]}}}
{"depmap_damaging":{"corr":{"top":[["IPO11",0.09037472871823614,-3.7596241392055503,19.0,1702.0],["NIPBL",0.06445452413933109,-2.12616039601515,66.0,1655.0],["OFD1",0.08857582280512695,-3.630719651589802,39.0,1682.0],["PRRC2A",0.06419057864954235,-2.11196723927125,26.0,1695.0]],"bottom":[["MAP3K9",-0.07162220088033826,-2.530180224795645,10.0,1711.0],["OGFRL1",-0.07182003940514892,-2.541842959645828,51.0,1670.0],["TGS1",-0.07056206693317264,-2.4681541922751484,16.0,1705.0]]},"para":{"top":[["ETV1",0.06506374937284584,-2.4574716740259115,8.0,1713.0],["IPO11",0.07477071226589888,-3.015365658218424,19.0,1702.0],["PLXNB3",0.05705973897827404,-2.0462937654416553,8.0,1713.0],["SULT1A1",0.06171420652581763,-2.2801329087371016,10.0,1711.0],["TSPAN8",0.07524310896371525,-3.0441921925861655,21.0,1700.0],["UBE3C",0.06837765852593637,-2.6406668777874285,14.0,1707.0]],"bottom":[["IRGQ",-0.06275969482317319,-2.3346291416705856,8.0,1713.0],["MFSD7",-0.06887597981248733,-2.6688051037538463,11.0,1710.0],["POLI",-0.057736651306696196,-2.079443209333938,11.0,1710.0]]}}}
{"ccle_rrbs_enhancer_clusters":{"corr":{"top":[["9-79365799-79368873-1_enh",0.18384180006931328,-3.8991080759039867,430],["10-119726480-119729161-1_enh",0.1859870504504782,-5.823558975858381,660]],"bottom":[["3-71100004-71102851-1_enh",-0.22278117475047737,-6.177341261111916,488],["22-38427240-38429878-2_enh",-0.23615759865431205,-9.473589692680477,690]]},"para":{"top":[["9-79365799-79368873-1_enh",0.1593810427574625,-3.0403862614783255,430],["10-119726480-119729161-1_enh",0.18516867687698005,-5.776836925966915,660]],"bottom":[["3-71100004-71102851-1_enh",-0.16758498475509714,-3.698790700002809,488],["22-38427240-38429878-0_enh",-0.16391053884715695,-5.235465859956084,757]]}}}
{"prism_primary_logfold":{"corr":{"top":[],"bottom":[["MLN2480_BRD-K43410529-001-02-3::2.5::HTS",-0.18693353320511544,-4.934922393296626,543]]},"para":{"top":[],"bottom":[["MLN2480_BRD-K43410529-001-02-3::2.5::HTS",-0.14264679685028878,-3.0665690115132795,543]]}}}
{"prism_secondary_logfold":{"corr":{"top":[["nadifloxacin_BRD-A24397426-001-10-4::0.0390625::HTS002",0.25199843387525406,-3.860904344505039,224],["AP26113_BRD-K56032964-001-02-1::10::HTS002",0.21734650494170812,-5.519262559294283,453]],"bottom":[]},"para":{"top":[["BMS-690514_BRD-K76239644-001-02-6::9.99999::MTS010::PROS001_PR500",0.23947404784188736,-6.682564858979932,459]],"bottom":[["toremifene_BRD-K51350053-048-16-5::2.5::HTS002",-0.15505109921050836,-3.1399100932999042,472]]}}}
{"ccle_proteomics":{"corr":{"top":[],"bottom":[["ANO1_H0YDD9",-0.3148153746616312,-2.994224849678563,106]]},"para":{"top":[],"bottom":[["C4orf32_Q8N8J7",-0.3243060500313431,-7.924879541313704,295]]}}}
{"depmap_copy_number":{"corr":{"top":[["ZNF425_155054",0.9908414392682785,-323.0051853474518,1745],["SSPO_23145",0.987160760556915,-323.0051853474518,1745],["RNY3_6085",0.988786274288293,-323.0051853474518,1745],["RNY5_6090",0.9871484959072659,-323.0051853474518,1745],["RNY1_6084",0.988786274288293,-323.0051853474518,1745],["RNY4_6086",0.988786274288293,-323.0051853474518,1745],["ZNF746_155061",0.9958972194553827,-323.0051853474518,1745],["GHET1_102723099",0.988786274288293,-323.0051853474518,1745],["ZNF282_8427",0.9956234804452229,-323.0051853474518,1745],["ZNF777_27153",0.9965382373017625,-323.0051853474518,1745],["LOC155060_155060",0.9965382373017625,-323.0051853474518,1745],["ZNF467_168544",0.987160760556915,-323.0051853474518,1745],["KRBA1_84626",0.987662734306385,-323.0051853474518,1745],["PDIA4_9601",0.988786274288293,-323.0051853474518,1745],["ZNF786_136051",0.9881657998377984,-323.0051853474518,1745],["ZNF212_7988",0.995902904819559,-323.0051853474518,1745]],"bottom":[["SOD2-OT1_100129518",-0.16286616539879273,-11.114384533407991,1745],["ACAT2_39",-0.16286616539879273,-11.114384533407991,1745],["ZDHHC14_79683",-0.17122967295960187,-12.223270901207488,1745],["SOD2_6648",-0.16911806894169712,-11.937953341136309,1745],["TCP1_6950",-0.16272870668344167,-11.096631534933554,1745],["SNORA29_677812",-0.16272870668344167,-11.096631534933554,1745],["MRPL18_29074",-0.16272870668344167,-11.096631534933554,1745]]},"para":{"top":[["ZNF425_155054",0.9962068001210564,-323.0051853474518,1745],["SSPO_23145",0.9919175610021047,-323.0051853474518,1745],["RNY3_6085",0.9954200710931984,-323.0051853474518,1745],["RNY5_6090",0.9929061388678992,-323.0051853474518,1745],["ZNF398_57541",0.9937301595750833,-323.0051853474518,1745],["RNY1_6084",0.9954200710931984,-323.0051853474518,1745],["RNY4_6086",0.9954200710931984,-323.0051853474518,1745],["ZNF746_155061",0.9992464569574926,-323.0051853474518,1745],["GHET1_102723099",0.9954200710931984,-323.0051853474518,1745],["ZNF282_8427",0.9987351357132767,-323.0051853474518,1745],["ZNF777_27153",0.9992845254916296,-323.0051853474518,1745],["LOC155060_155060",0.9992845254916296,-323.0051853474518,1745],["ZNF467_168544",0.9919175610021047,-323.0051853474518,1745],["PDIA4_9601",0.9954200710931984,-323.0051853474518,1745],["ZNF786_136051",0.9947031084428086,-323.0051853474518,1745],["ZNF212_7988",0.9987786644685195,-323.0051853474518,1745]],"bottom":[]}}}
{"depmap_gene_tpm":{"corr":{"top":[],"bottom":[]},"para":{"top":[["ZNF212_7988",0.48029683877934953,-74.8559880250872,1293]],"bottom":[]}}}
{"avana":{"corr":{"top":[],"bottom":[["VIPR2_7434",-0.18047850759192605,-6.327758015171264,769]]},"para":{"top":[],"bottom":[["VIPR2_7434",-0.1849807187555686,-6.621257560677315,769]]}}}
{"drive":{"corr":{"top":[["KBTBD13_390594",0.22351317922178576,-4.927573507020993,377]],"bottom":[["DHFR2_200895",-0.2234074888156604,-4.9233373107969465,377],["FAU_2197",-0.22780720395246395,-5.101413328290324,377]]},"para":{"top":[["PRKD1_5587",0.2694184469816513,-6.965656095984428,377],["TRMT61A_115708",0.24531551764389642,-5.887660174378941,380],["ARF3_377",0.23788199690832193,-5.522649180038972,377]],"bottom":[["TONSL_4796",-0.23101376986452915,-5.2334404622852,377]]}}}
{"achilles":{"corr":{"top":[],"bottom":[]},"para":{"top":[["COL9A3_1299",0.2279504737191552,-3.9242452142290936,280]],"bottom":[]}}}
{"ccle_rrbs_tss1kb":{"corr":{"top":[["PLAU_10_75669858_75670858",0.19352172489680403,-7.64251446540229,821]],"bottom":[["TBC1D16_17_77924656_77925656",-0.29940974158161177,-16.665306084037347,769],["SMG5_1_156261289_156262289",-0.23149826656466782,-10.724059311853832,821]]},"para":{"top":[["TET2_4_106066031_106067031",0.1946871244949223,-6.3417224641592735,661],["TMEM154_4_153601317_153602317",0.19155675570972408,-7.498586579366568,821]],"bottom":[["FAM102A_9_130712993_130713993",-0.18134512909075223,-6.804646155105674,825],["C3orf62_3_49314508_49315508",-0.19632174228208035,-7.929260203549655,830],["SMG5_1_156261289_156262289",-0.22382569560636378,-10.05477318427068,821]]}}}
{"ccle_gene_tpm":{"corr":{"top":[],"bottom":[["KCNK6_ENSG00000099337.3",-0.20376473371014514,-10.210012613545606,1011],["AC026806.2_ENSG00000268913.1",-0.20269971600114028,-10.108901402745214,1011]]},"para":{"top":[["ZNF212_ENSG00000170260.4",0.5275678679911148,-72.79099721831022,1011],["ZNF746_ENSG00000181220.11",0.5079289501251175,-66.6859568161777,1011]],"bottom":[]}}}
{"ccle_rrbs_tss_clusters":{"corr":{"top":[["MYCL_2",0.21317864706530731,-6.450857471269394,560],["FGFBP3_1",0.2413341402786018,-10.16738889246073,712],["PTEN_2",0.2124892258867121,-8.728806816060427,784]],"bottom":[["C19orf71_1",-0.2641431733297996,-13.734282595744084,814]]},"para":{"top":[["TRIM7_5",0.20205448975086046,-8.480265573537153,842],["TMEM154_2",0.2059913149557419,-8.600680298747163,822],["ZNF777_3",0.2705052495044858,-14.859382390716936,842]],"bottom":[["C7orf61_3",-0.23655236824076345,-11.280205318619993,829],["SMG5_4",-0.21516702834078216,-9.423091453026277,830],["ABCB6_3",-0.22913470509944278,-10.491385341007884,819]]}}}
{"ccle_rrbs_cgi_clusters":{"corr":{"top":[["10_93666002_93670771-1",0.2413341402786018,-10.16738889246073,712],["9_21966358_21970728-2",0.24613510772745884,-3.397547082808219,203],["6_37665431_37669102-2",0.23987056689670638,-11.613234303208417,831]],"bottom":[]},"para":{"top":[],"bottom":[["2_220083501_220086012-2",-0.22913470509944278,-10.491385341007884,819],["1_156259199_156263425-1",-0.21516702834078216,-9.423091453026277,830]]}}}
