{"depmap_hotspot":{"corr":{"top":[["HIST1H3J",0.1734037611570998,-6.005157258683109,10.0,777.0],["PLTP",0.17269476122447322,-5.96038524977593,35.0,752.0],["RESP18",0.15336151125840497,-4.808917359756082,15.0,772.0]],"bottom":[]},"para":{"top":[["LRRC3DN",0.12580897226618382,-3.676580815075695,12.0,775.0],["MAD2L1BP",0.09146214460017885,-2.285467228089934,9.0,778.0],["PPAN-P2RY11",0.13726172445847598,-4.224356149292238,12.0,775.0],["PQBP1",0.147652435969263,-4.758316010131839,16.0,771.0],["TAB3",0.1618958641701424,-5.547642169025621,31.0,756.0]],"bottom":[["LILRA5",-0.11304949144842527,-3.116322419327515,23.0,764.0]]}}}
{"depmap_damaging":{"corr":{"top":[["PRKG2",0.13295672660247002,-3.732041816202854,8.0,778.0]],"bottom":[]},"para":{"top":[["PRPF4B",0.12894531681397498,-3.8183430169753483,9.0,777.0],["SRRT",0.1336090558043973,-4.040738830493959,9.0,777.0]],"bottom":[]}}}
{"ccle_proteomics":{"corr":{"top":[],"bottom":[]},"para":{"top":[["ZNF808_Q8N4W9",0.3842440061137916,-4.649670132037744,115]],"bottom":[]}}}
{"ccle_rrbs_tss1kb":{"corr":{"top":[["APOOL_23_84257897_84258897",0.9352104719644081,-323.0051853474518,777]],"bottom":[]},"para":{"top":[["APOOL_23_84257897_84258897",0.856113147756701,-223.65818142027547,777]],"bottom":[]}}}
{"ccle_rrbs_tss_clusters":{"corr":{"top":[["APOOL_1",0.6309572586152906,-85.01162792263922,761]],"bottom":[]},"para":{"top":[],"bottom":[]}}}
{"ccle_rrbs_cgi_clusters":{"corr":{"top":[],"bottom":[]},"para":{"top":[],"bottom":[]}}}
