{"depmap_hotspot":{"corr":{"top":[],"bottom":[]},"para":{"top":[["CD9",0.1024943314851093,-2.5578623020918014,8.0,726.0],["CH25H",0.10687191197648832,-2.7189670171450615,9.0,725.0],["CHORDC1",0.1565412296578879,-4.947157886500348,19.0,715.0],["CMA1",0.1111697888054934,-2.8825035252653053,8.0,726.0],["COMMD3",0.11291874868397289,-2.950769635216374,10.0,724.0],["FOPNL",0.1063363197269937,-2.698895699637728,8.0,726.0],["GABARAPL2",0.13070712860690883,-3.6955580200721414,10.0,724.0],["INO80B",0.1489973233738447,-4.560655191220302,13.0,721.0],["LGALS1",0.1314094005124928,-3.7269618423507724,11.0,723.0],["NDUFA2",0.12628190911882645,-3.5013746904014758,9.0,725.0],["NKIRAS2",0.12976777592418445,-3.6539167556391683,11.0,723.0],["OAZ1",0.13095688745138065,-3.7066893601333404,10.0,724.0],["RRAGB",0.14369510710886535,-4.299398965163992,11.0,723.0],["SNX30",0.14346541503204274,-4.288421591094334,14.0,720.0],["TMEM208",0.13764487428668107,-4.011744067089896,10.0,724.0],["UBE2E3",0.14070311390759355,-4.155792502585001,11.0,723.0],["VMA21",0.13736080809013088,-3.998444108174204,9.0,725.0]],"bottom":[["TMEM252",-0.08554982330361965,-1.9874168852722447,11.0,723.0]]}}}
{"depmap_damaging":{"corr":{"top":[],"bottom":[]},"para":{"top":[["C10orf12",0.1435947734306284,-4.289576412474862,8.0,725.0],["CNKSR1",0.1266297035460917,-3.5126757975417644,9.0,724.0],["CRIPAK",0.11484756598601431,-3.02385047069491,10.0,723.0],["SMC6",0.138617523222288,-4.052905919902438,12.0,721.0],["TTC14",0.11965713660576043,-3.2182920228668253,8.0,725.0],["ZKSCAN2",0.12293890025050817,-3.3550797581351484,9.0,724.0]],"bottom":[]}}}
{"ccle_rrbs_enhancer_clusters":{"corr":{"top":[["1-38492689-38497688-2_enh",0.47506502324494465,-41.698212259237906,731]],"bottom":[]},"para":{"top":[["1-38492689-38497688-2_enh",0.4839549557738566,-43.45881254808571,731]],"bottom":[]}}}
{"avana":{"corr":{"top":[],"bottom":[["KLK3_354",-0.19941910561530185,-4.367749348408088,415]]},"para":{"top":[],"bottom":[]}}}
{"achilles":{"corr":{"top":[],"bottom":[]},"para":{"top":[],"bottom":[["ZNF512_84450",-0.29163605442926815,-4.188145372050793,182]]}}}
{"ccle_rrbs_tss_clusters":{"corr":{"top":[["NRIP2_3",0.5209054764276024,-26.396823747771162,370]],"bottom":[]},"para":{"top":[["NRIP2_3",0.5137527037841736,-25.583415009701387,370]],"bottom":[]}}}
{"ccle_rrbs_cgi_clusters":{"corr":{"top":[["23_153044341_153048768-3",0.5375848495592492,-55.18007627265232,730]],"bottom":[]},"para":{"top":[["23_153044341_153048768-3",0.5339587964399232,-54.31562625105087,730]],"bottom":[]}}}
