{"depmap_hotspot":{"corr":{"top":[["BLOC1S3",0.15897550285353293,-5.454650054799339,10.0,833.0],["PRMT3",0.2177638909609772,-9.780518421156312,23.0,820.0],["ZNF35",0.22542021992386194,-10.44654307379994,24.0,819.0]],"bottom":[]},"para":{"top":[],"bottom":[]}}}
{"depmap_damaging":{"corr":{"top":[["TEK",0.2159074498484117,-9.612076173631644,9.0,833.0]],"bottom":[]},"para":{"top":[],"bottom":[]}}}
{"prism_secondary_logfold":{"corr":{"top":[],"bottom":[]},"para":{"top":[],"bottom":[["ganetespib_BRD-K38852836-001-02-1::10::HTS002",-0.2278081977447272,-5.548477192535162,414],["AT13387_BRD-K58435339-001-03-0::2.5::HTS002",-0.24382609802815267,-6.305349558940193,415]]}}}
{"achilles":{"corr":{"top":[],"bottom":[["MCUB_55013",-0.2962685278521637,-5.127761194449981,221]]},"para":{"top":[],"bottom":[["MCUB_55013",-0.32050263633985565,-5.944839784637456,221]]}}}
{"ccle_rrbs_tss1kb":{"corr":{"top":[["LOC102724064_11_66114461_66115461",0.8210802014648337,-203.58256587437089,832],["RILPL1_12_124018265_124019265",0.5961704880322701,-80.0058372348994,827],["TIMM22_17_899132_900132",0.5938307696838716,-79.42135786631148,829]],"bottom":[]},"para":{"top":[["TPRG1L_1_3540555_3541555",0.5230502565875226,-58.745770681501305,830],["MIR6831_5_139943336_139944336",0.4951025601229938,-51.93624408098765,832],["LOC102724064_11_66114461_66115461",0.8391579559601594,-221.0090677732887,832]],"bottom":[]}}}
{"ccle_rrbs_tss_clusters":{"corr":{"top":[["C1orf198_3",0.6461370270381255,-100.06251260754142,843],["LOC102724064_1",0.9636277398979188,-323.0051853474518,843],["TIMM22_3",0.6165327618861052,-88.68385690341941,843],["B4GAT1",0.8568119839540207,-243.13006807013033,842],["PLA2G15_3",0.6474085455129791,-100.57973929746595,843]],"bottom":[]},"para":{"top":[["LOC102724064_1",0.9549253387422647,-323.0051853474518,843],["NFS1_3",0.5465669919003756,-66.02878986352373,842],["EGR1_1",0.5762663782927814,-75.02641350454411,843],["B4GAT1",0.9136267247619985,-323.0051853474518,842],["TPRG1L_3",0.5842685250094027,-77.49841676358552,842]],"bottom":[]}}}
{"ccle_rrbs_cgi_clusters":{"corr":{"top":[["1_231004143_231006655-1",0.6216277516688804,-90.342765756337,841],["11_66115011_66117525-1",0.657621035200406,-103.83936552454323,835],["17_897842_902763-3",0.6165327618861052,-88.68385690341941,843],["11_66110251_66114803-1",0.7272962352882584,-138.90188378815952,843],["19_4341266_4346027-1",0.6046165133853361,-84.43805237554687,843],["11_66112497_66115011-1",0.9020020378334938,-307.9358849065424,842],["16_68276870_68281628-3",0.6474085455129791,-100.57973929746595,843],["11_66111970_66116258-1",0.9999999999999999,-323.0051853474518,843]],"bottom":[]},"para":{"top":[["11_66110251_66114803-1",0.8886322847397642,-286.2271707173148,843],["1_3538767_3541504-3",0.5283560132470514,-60.84959260516664,840],["20_34284821_34289701-3",0.5465669919003756,-66.02878986352373,842],["11_66111970_66116258-1",1.0,-323.0051853474518,843],["11_66112497_66115011-1",0.915638003630859,-323.0051853474518,842],["1_6637427_6642361-1",0.5263993738030461,-60.46919178288768,842]],"bottom":[]}}}
