{"depmap_hotspot":{"corr":{"top":[["SLITRK5",0.17429992232737254,-5.783477388091402,89.0,658.0]],"bottom":[]},"para":{"top":[["ABHD6",0.125024300121411,-3.4950246194397185,15.0,732.0],["KLF14",0.14061707340484078,-4.211041351449349,13.0,734.0],["RPL12",0.12368135348946868,-3.4367168461314415,12.0,735.0],["TMEM192",0.1001042995664509,-2.5037657426028535,8.0,739.0],["TMEM52",0.12577006150979753,-3.527466655480549,12.0,735.0],["TNFSF13B",0.11751786945797861,-3.1766196905188466,11.0,736.0]],"bottom":[]}}}
{"depmap_damaging":{"corr":{"top":[],"bottom":[]},"para":{"top":[["GPR75",0.11500210267210464,-3.0706639198357837,11.0,735.0],["KMT2E",0.13146901183649012,-3.777985422099426,16.0,730.0],["LARP4B",0.18437091929003147,-6.614344368545397,15.0,731.0],["SETX",0.11855307949951442,-3.216231687320506,12.0,734.0]],"bottom":[]}}}
{"prism_secondary_logfold":{"corr":{"top":[],"bottom":[["streptozotocin_BRD-K34411947-001-12-5::0.0390625::HTS002",-0.30843495904229995,-4.346096628946061,169]]},"para":{"top":[],"bottom":[["streptozotocin_BRD-K34411947-001-12-5::0.0390625::HTS002",-0.29514264586901234,-4.008821373797497,169]]}}}
{"avana":{"corr":{"top":[],"bottom":[]},"para":{"top":[["FUS_2521",0.24169544990726022,-6.16252993466859,412],["TMEM70_54968",0.21120310682275664,-4.812284665940919,412]],"bottom":[]}}}
{"drive":{"corr":{"top":[],"bottom":[["OR1I1_126370",-0.26214847167553895,-5.055927538221331,280]]},"para":{"top":[],"bottom":[["DHFRP3_1720",-0.26652990208220895,-5.212858963814882,280]]}}}
{"achilles":{"corr":{"top":[["OCSTAMP_128506",0.31452339410604885,-5.028308791283358,191],["KRT28_162605",0.2980158579589389,-7.405087722617852,327],["C4orf48_401115",0.29095264888170447,-4.352690563969124,191],["NIT1_4817",0.29048518929765715,-7.052236493080087,327],["YRDC_79693",0.2923591409935077,-4.39138047535856,191]],"bottom":[["TMEM220_388335",-0.2717732402376448,-3.8450812662970275,191],["PDCD5_9141",-0.290415450386371,-4.337966772242347,191]]},"para":{"top":[["OCSTAMP_128506",0.31061892958625725,-4.912338832280154,191],["PATE4_399968",0.28975449721509056,-4.31989156676333,191],["CHCHD7_79145",0.281807340997252,-4.106037111936401,191],["YRDC_79693",0.34642726645022276,-6.038743657820598,191],["CEP63_80254",0.3504252696996054,-6.173501320970784,191]],"bottom":[["DNMT3A_1788",-0.2748540737803232,-6.3519443985906205,327],["PDCD5_9141",-0.291185314000456,-4.359076732653898,191]]}}}
{"ccle_rrbs_tss_clusters":{"corr":{"top":[["CACNG8_1",0.8104733426892015,-174.48356768702777,747]],"bottom":[]},"para":{"top":[["CACNG8_1",0.7946789426238147,-162.94326749707503,747]],"bottom":[]}}}
{"ccle_rrbs_cgi_clusters":{"corr":{"top":[["19_54464357_54468725-1",0.8558262778183594,-214.75165357515544,747]],"bottom":[]},"para":{"top":[["19_54464357_54468725-1",0.8395390188761609,-198.85434613802695,747]],"bottom":[]}}}
