{"ccle_rrbs_enhancer_clusters":{"corr":{"top":[["17-35009848-35014557-0_enh",0.5709981547389514,-71.4865908617197,821]],"bottom":[]},"para":{"top":[["4-1611479-1616106-2_enh",0.5802867059138731,-75.50045186047329,834],["5-134767599-134770871-2_enh",0.5681884395292128,-56.11552351497656,650]],"bottom":[]}}}
{"ccle_rrbs_tss1kb":{"corr":{"top":[["MIR7152_10_73549503_73550503",0.6535569060071627,-100.44891785725899,821],["KCNQ1_11_2481683_2482683",0.6347868812600607,-89.60293929709721,790],["MRGPRE_11_3253616_3254616",0.6655101222717297,-105.03831345417234,818],["ATP4B_13_114312513_114313513",0.6925879687086376,-118.57734197774887,828],["C16orf92_16_30033654_30034654",0.6410963239385673,-96.07769338268477,826],["EMILIN3_20_39995498_39996498",0.655230540582442,-101.74168667747259,826]],"bottom":[]},"para":{"top":[["MIR7152_10_73549503_73550503",0.6602065416965966,-103.1862597253771,821],["MRGPRE_11_3253616_3254616",0.6559183501588493,-101.04581240247256,818],["MRGPRG_11_3240043_3241043",0.6792083867976109,-110.87039642834891,817]],"bottom":[]}}}
{"ccle_rrbs_tss_clusters":{"corr":{"top":[["CCDC27_2",0.7975869496432261,-184.99328893855545,838],["BTBD17_1",0.7048232124095829,-125.47405257853211,834],["NPBWR2_1",0.7094684847925679,-125.4153195898521,818],["SPPL2C_2",0.7534400713265275,-153.48437208873366,837],["ADGRB1_1",0.7028235580766081,-125.05774466176976,838],["MIR133A2_1",0.695915182380988,-121.47561401819318,837],["MIR7152_2",0.7151758606971831,-131.30426507132606,837],["MRGPRG_2",0.7142542139475371,-129.88399889492752,831],["PDE6B_2",0.6926912629272918,-120.33294523945138,840],["TOP1MT_2",0.695145154259532,-121.38613174173484,839],["ZNRF4_3",0.6936163989290048,-120.35457386863372,837],["C16orf92_2",0.6950756434127161,-121.06496777784787,837]],"bottom":[]},"para":{"top":[["CCDC27_2",0.8186990113791481,-202.88137253875627,838],["BTBD17_1",0.7038106130240264,-124.96205902372556,834],["TRPM5_2",0.7372788105357105,-143.8129458035864,838],["MIR7152_2",0.7033383543886346,-125.16945436347524,837],["MRGPRG_2",0.7219573722887858,-134.00100649941734,831],["FLT4_1",0.6995700971854729,-123.13385118781162,836]],"bottom":[]}}}
{"ccle_rrbs_cgi_clusters":{"corr":{"top":[["9_128996130_129000426-1",0.7366014857227702,-142.90561449787265,835],["20_61949346_61953549-2",0.7467814546450415,-149.1612655238801,836],["7_1807036_1811360-2",0.7372631954013954,-143.97434456704684,839],["19_18082635_18087073-2",0.7533829986084647,-152.9013452523233,834],["5_180053849_180058126-2",0.738048116361139,-143.58090937585126,834],["1_1958942_1963148-3",0.728139837885435,-138.55754424730134,838]],"bottom":[]},"para":{"top":[["17_72354096_72358327-1",0.7226263162300308,-135.00763891992398,835],["11_3237217_3241988-1",0.7218406246884225,-134.89827271219187,837],["5_180053849_180058126-2",0.7306365413633732,-139.30787460998548,834]],"bottom":[]}}}
