{"depmap_hotspot":{"corr":{"top":[["CCDC160",0.1414722271337236,-4.1755912057809255,20.0,769.0],["SLC25A40",0.17639627874183675,-6.21037735143328,15.0,774.0]],"bottom":[]},"para":{"top":[["CCDC93",0.14335549531488842,-4.5429207879836015,23.0,766.0],["CHMP1A",0.11119006121239287,-3.0444636740356894,10.0,779.0],["LYSMD1",0.10779836258273298,-2.905954060973958,11.0,778.0],["SSNA1",0.138729886214369,-4.306401002175602,10.0,779.0],["SYT5",0.12703874110280208,-3.740993909627001,15.0,774.0],["TREX2",0.09324139825563792,-2.352603615428107,9.0,780.0]],"bottom":[]}}}
{"depmap_damaging":{"corr":{"top":[["ALG13",0.19702331839004147,-7.610561944706527,9.0,779.0],["BEND4",0.13582266675093865,-3.882439887458653,8.0,780.0],["SLC25A40",0.17488173058201195,-6.106075222654631,10.0,778.0]],"bottom":[]},"para":{"top":[["ALG13",0.12256567647886775,-3.5324965666031964,9.0,779.0],["ARHGEF2",0.11788106267864598,-3.325538222936978,15.0,773.0],["CPT1C",0.11924593130538992,-3.3848435850362266,8.0,780.0]],"bottom":[["RFX7",-0.11707192767538044,-3.290424995918795,14.0,774.0]]}}}
{"prism_primary_logfold":{"corr":{"top":[["opipramol_BRD-K43786866-300-02-3::2.5::HTS",0.20509927032918124,-4.84840239852483,441]],"bottom":[]},"para":{"top":[["opipramol_BRD-K43786866-300-02-3::2.5::HTS",0.20934729913381353,-5.0319042833895,441]],"bottom":[]}}}
{"prism_secondary_logfold":{"corr":{"top":[["proscillaridin-a_BRD-A11815689-001-01-1::0.0390625::HTS002",0.2884938665141117,-5.885141391073003,272],["2-methoxyestradiol_BRD-K44408410-001-17-6::0.00244::MTS010::PROS001_PR500",0.20900471332664616,-4.354770860614401,376]],"bottom":[]},"para":{"top":[["2-methoxyestradiol_BRD-K44408410-001-17-6::0.00244::MTS010::PROS001_PR500",0.2365787715699385,-5.454053677079917,376],["benzocaine_BRD-K75466013-001-14-4::0.0390625::HTS002",0.2448105418888912,-4.093561380181543,254]],"bottom":[]}}}
{"ccle_proteomics":{"corr":{"top":[],"bottom":[]},"para":{"top":[["AADAT_Q8N5Z0",0.3053878667313162,-3.3864887568108197,130],["ADIPOR1_Q96A54",0.2671268892335732,-3.4876789027284723,177]],"bottom":[["IL27RA_Q6UWB1",-0.27716552765207536,-3.1505340275625175,146]]}}}
{"avana":{"corr":{"top":[],"bottom":[["PTPRT_11122",-0.18271070648368576,-3.919428773147383,438]]},"para":{"top":[],"bottom":[["ADAMTSL2_9719",-0.17484932594847366,-3.627498805038431,438],["ZNF205_7755",-0.21176711633535444,-5.106866274666846,438]]}}}
{"drive":{"corr":{"top":[["POTEB2_100287399",0.25179232775383376,-4.934625569252411,296],["NID2_22795",0.23648192992507075,-4.4023325420646895,296],["NCR3LG1_374383",0.23929837849304925,-4.497664631445009,296],["RFC2_5982",0.23630818044017976,-4.527868468319355,306],["ZEB1_6935",0.2562401457388726,-5.126637338268169,298]],"bottom":[["MBP_4155",-0.27607395259073764,-5.851091892064469,296]]},"para":{"top":[["RAB23_51715",0.27612806791742867,-6.085870096755301,309],["RFC2_5982",0.2464154975567315,-4.8864226721064865,306]],"bottom":[]}}}
{"achilles":{"corr":{"top":[["PDPN_10630",0.23288663740899565,-5.007605300691272,353],["FLJ44635_392490",0.23069564866012127,-3.032295713259522,203],["STK11_6794",0.26084016488703393,-6.173451644007506,353],["MND1_84057",0.31692324757569856,-5.388557871366758,203]],"bottom":[["ASTE1_28990",-0.30219588875922077,-4.929469655578807,203],["C9orf152_401546",-0.35722141716621775,-6.77514027921055,203]]},"para":{"top":[["PDPN_10630",0.253587611310913,-5.8575745453018735,353],["RAD51AP1_10635",0.22627756919028646,-4.752024642967484,353],["AGBL5_60509",0.23643136607699256,-5.147800422190178,353],["STK11_6794",0.25559014203668945,-5.943841663311983,353]],"bottom":[["ASTE1_28990",-0.28366096693124054,-4.386044645840086,203],["SPANXN5_494197",-0.288784575147262,-4.532509362450662,203]]}}}
{"ccle_rrbs_tss_clusters":{"corr":{"top":[["CCDC69_2",0.5833948539566389,-72.23196893669338,787]],"bottom":[]},"para":{"top":[["CCDC69_2",0.5824776460423173,-71.95518379924427,787]],"bottom":[]}}}
{"ccle_rrbs_cgi_clusters":{"corr":{"top":[["5_150601213_150605753-2",0.5833948539566389,-72.23196893669338,787],["5_150601213_150605753-1",1.0,-323.0051853474518,789]],"bottom":[]},"para":{"top":[["5_150601213_150605753-1",1.0,-323.0051853474518,789],["5_150601213_150605753-2",0.5824776460423173,-71.95518379924427,787]],"bottom":[]}}}
