{"depmap_hotspot":{"corr":{"top":[],"bottom":[["CNPY4",-0.11497717735640073,-3.0058738326851873,8.0,810.0],["DPM3",-0.10869755553680181,-2.7328112697797704,8.0,810.0],["SH3BP2",-0.10230123907399759,-2.4685922713420188,36.0,782.0]]},"para":{"top":[["C14orf183",0.1297979093532155,-3.983606075715106,14.0,804.0],["CTAG2",0.12721084131495705,-3.857983635033658,17.0,801.0],["F11R",0.11308402907965408,-3.2109446605308944,13.0,805.0],["NEDD8",0.09976849562284994,-2.661655704692732,8.0,810.0],["ORMDL1",0.10580468729989952,-2.9032951327544962,8.0,810.0],["PANK3",0.10436093521078489,-2.8445633474571723,11.0,807.0],["PSMB5",0.12170888143868949,-3.597845309979756,10.0,808.0],["SKA1",0.12262948779557639,-3.6406225130837595,10.0,808.0],["SULT6B1",0.13896491570318636,-4.447410912941042,23.0,795.0],["YIPF5",0.1366795430142237,-4.328880242041542,12.0,806.0]],"bottom":[["CNPY4",-0.09391681635514253,-2.438812686502322,8.0,810.0],["COMMD9",-0.09673176866444866,-2.544670638823225,9.0,809.0],["DPM3",-0.07899767011405052,-1.9209594610086125,8.0,810.0]]}}}
{"depmap_damaging":{"corr":{"top":[],"bottom":[["KIF3A",-0.1178778514815505,-3.133343388214547,9.0,808.0]]},"para":{"top":[["CALD1",0.10776977451725661,-2.9818021171710525,8.0,809.0],["NLRP14",0.11154862782268442,-3.1416326201925924,11.0,806.0],["OXSR1",0.13058980358453182,-4.0184165451071125,10.0,807.0],["UBC",0.10280512918296494,-2.7791984329491335,8.0,809.0]],"bottom":[["KIF3A",-0.0956900994159398,-2.50300765907404,9.0,808.0]]}}}
{"prism_secondary_logfold":{"corr":{"top":[["fluroxene_BRD-K56908511-001-01-2::10::HTS002",0.24323499897737128,-6.098283363725932,402]],"bottom":[]},"para":{"top":[],"bottom":[]}}}
{"ccle_proteomics":{"corr":{"top":[],"bottom":[]},"para":{"top":[],"bottom":[["NDN_Q99608",-0.3509606387633398,-3.768321922898647,110]]}}}
{"avana":{"corr":{"top":[],"bottom":[]},"para":{"top":[["MLST8_64223",0.25928577951407056,-7.807395074298401,462],["TNFRSF1B_7133",0.21514854353645582,-5.514121507915373,462]],"bottom":[]}}}
{"drive":{"corr":{"top":[],"bottom":[]},"para":{"top":[],"bottom":[["FABP4_2167",-0.2457880363925694,-4.892078255855026,308]]}}}
{"achilles":{"corr":{"top":[["LMLN_89782",0.22122593874743848,-4.733462233545748,368]],"bottom":[]},"para":{"top":[["LMLN_89782",0.24419122487234432,-5.671051288892632,368]],"bottom":[["AMIGO3_386724",-0.2932019482296097,-4.845450069040953,212],["NFIB_4781",-0.2674758792509083,-6.721163568720043,368]]}}}
{"ccle_rrbs_tss1kb":{"corr":{"top":[["ZAP70_2_98329030_98330030",0.6146082413625558,-84.26781392470997,807]],"bottom":[]},"para":{"top":[["FXYD2_11_117698807_117699807",0.5324959450457213,-59.566910101185016,807]],"bottom":[]}}}
{"ccle_rrbs_tss_clusters":{"corr":{"top":[["FXYD2_4",0.537765351230016,-61.622101662126205,816],["CD5_6",0.5363954404310567,-59.55476080139711,793],["CD5_1",0.5822727375589691,-72.61496196021359,795],["CD5_3",0.5308605342552233,-49.759284245506244,677]],"bottom":[]},"para":{"top":[["CD5_6",0.5249068392645193,-56.630059079943535,793],["FXYD2_4",0.5461593687361489,-63.905912261142774,816]],"bottom":[]}}}
{"ccle_rrbs_cgi_clusters":{"corr":{"top":[],"bottom":[]},"para":{"top":[],"bottom":[]}}}
