{"depmap_hotspot":{"corr":{"top":[["C14orf132",0.12714574519253857,-3.66834047676004,17.0,826.0],["ITGB3BP",0.14786570121501671,-4.788208903361874,8.0,835.0]],"bottom":[]},"para":{"top":[["DDX39B",0.15876981576900984,-5.689222900968787,37.0,806.0],["HINT3",0.10018912975243277,-2.7382262677781806,10.0,833.0]],"bottom":[["PRSS33",-0.08681130859780901,-2.229424553208838,8.0,835.0]]}}}
{"depmap_damaging":{"corr":{"top":[["POR",0.12588749796963047,-3.6017183308624547,15.0,827.0]],"bottom":[]},"para":{"top":[["IL27RA",0.12131518463363081,-3.6618289095135292,9.0,833.0]],"bottom":[["ZNF559",-0.0974815831481607,-2.628020663008676,8.0,834.0]]}}}
{"prism_primary_logfold":{"corr":{"top":[],"bottom":[["GSK2190915_BRD-K15691453-236-01-6::2.499981005::MTS004",-0.19639981234694637,-4.717802877249475,467]]},"para":{"top":[],"bottom":[]}}}
{"prism_secondary_logfold":{"corr":{"top":[["imidapril_BRD-K34332569-001-01-3::0.000610352::MTS006",0.21018565040418705,-4.832183278447093,418]],"bottom":[["bafetinib_BRD-A75975749-001-01-4::0.039062501::MTS006",-0.2113544077862037,-4.84974575521973,415],["estradiol_BRD-K18910433-001-36-6::0.645205::HTS002",-0.224054783870217,-5.183364481405666,397]]},"para":{"top":[],"bottom":[]}}}
{"ccle_proteomics":{"corr":{"top":[["FAM161A_Q3B820-3",0.29862726908383336,-3.1877225068011756,127],["FUT3_P21217",0.3058371729144311,-2.7515288731029255,102],["MT-CYB_P00156",0.28351196480296376,-3.338389366816305,149]],"bottom":[["RGS20_O76081-6",-0.5024763839980672,-7.000487988687766,100],["ZNF317_Q96PQ6",-0.28815966525593223,-2.4382315026346015,100]]},"para":{"top":[],"bottom":[]}}}
{"depmap_copy_number":{"corr":{"top":[["LRP5L_91355",0.18133752376066145,-6.931717444278173,842]],"bottom":[]},"para":{"top":[],"bottom":[]}}}
{"avana":{"corr":{"top":[],"bottom":[]},"para":{"top":[["WDR75_84128",0.2078784187223476,-5.309071340224271,475]],"bottom":[]}}}
{"ccle_rrbs_tss1kb":{"corr":{"top":[["MYB_6_135501452_135502452",0.43584316269561957,-38.98488694330898,828],["CDKN1A_6_36645455_36646455",0.5974147881510578,-79.07421471968284,813],["DINOL_6_36646336_36647336",0.9768528394633449,-323.0051853474518,832],["CDKN1A_6_36645486_36646486",0.6401352864947193,-94.21156338835964,813],["GSE1_16_85645735_85646735",0.4534627676378236,-42.354705911611966,825]],"bottom":[]},"para":{"top":[["LAMC1_1_182991594_182992594",0.5200526495996992,-57.971030855425504,830],["DINOL_6_36646336_36647336",0.8632293154385572,-247.89641265750402,832],["SUOX_12_56390042_56391042",0.48793816118284794,-50.196916435527314,831]],"bottom":[]}}}
{"ccle_gene_tpm":{"corr":{"top":[["MTND4P25_ENSG00000226700.1",0.3839049637647339,-30.02154365343201,836],["AC073115.7_ENSG00000229628.1",0.3447380968441528,-24.01308674534807,836],["FTLP15_ENSG00000233952.1",0.32125432625285955,-20.79683668606101,836],["CT47A1_ENSG00000236371.3",0.42392229536076664,-37.06401106377957,836],["AC073115.6_ENSG00000237471.1",0.3470066343048762,-24.338690314805746,836]],"bottom":[]},"para":{"top":[],"bottom":[]}}}
{"ccle_rrbs_tss_clusters":{"corr":{"top":[],"bottom":[["RAP1A_1",-0.2756217641725422,-4.3791961254618155,215]]},"para":{"top":[],"bottom":[]}}}
{"ccle_rrbs_cgi_clusters":{"corr":{"top":[["6_36647354_36650465-1",0.9472749329190778,-323.0051853474518,841],["6_135499988_135503116-1",0.532207880737681,-62.104628080808986,843],["6_36644244_36647354-2",0.9770985145396757,-323.0051853474518,842]],"bottom":[["7_65227370_65231748-1",-0.27365155205116193,-14.583792355707073,806],["1_112160204_112164837-1",-0.2756217641725422,-4.3791961254618155,215],["7_64533252_64537630-1",-0.2576340521097724,-12.883944600505892,801]]},"para":{"top":[["6_36647354_36650465-1",0.749623062671798,-151.80978098790698,841],["6_36644244_36647354-2",0.8666600585913825,-255.16764054940603,842]],"bottom":[]}}}
