{"depmap_hotspot":{"corr":{"top":[],"bottom":[["CLDN17",-0.11583337724675132,-2.4149191980103053,12.0,609.0],["DHCR7",-0.13342841149018625,-3.066298290037092,23.0,598.0],["FAM151A",-0.1278941242486731,-2.8526047638094814,25.0,596.0],["GDNF",-0.13754520806047174,-3.2305617607418897,19.0,602.0],["GLA",-0.18481322599587416,-5.450008987093163,10.0,611.0],["GLYATL2",-0.11854228494144078,-2.509907485201103,24.0,597.0],["GMPPA",-0.19013821957332835,-5.7395570655608505,22.0,599.0],["IREB2",-0.10807946141516592,-2.153540980696012,24.0,597.0],["KATNB1",-0.14137306253496223,-3.3873826501582456,18.0,603.0],["MAGEB16",-0.12087481064578547,-2.5932324348729336,18.0,603.0],["MAN2B2",-0.12115823969344841,-2.603454416898931,54.0,567.0],["MED30",-0.15038579451383308,-3.772301061550017,10.0,611.0],["MRPL47",-0.1461723105212332,-3.589598657628383,17.0,604.0],["MSX1",-0.1330869676937465,-3.0528781158440936,10.0,611.0],["MTERFD1",-0.12454730932196106,-2.7273165405437862,16.0,605.0],["NFKBIA",-0.11469183373300139,-2.3754624902556634,16.0,605.0],["PAPD5",-0.12807162424124688,-2.8593322073642384,30.0,591.0],["PSMC6",-0.11000709705252196,-2.217071299089246,8.0,613.0],["PSMD1",-0.1240656358179797,-2.7095284088680303,34.0,587.0],["RCN1",-0.10879854891278962,-2.1771287431081654,17.0,604.0],["RNF8",-0.13679873712671636,-3.200439678338256,19.0,602.0],["SLC25A20",-0.141642670017066,-3.3985770732888185,8.0,613.0],["SLC39A8",-0.11452302433712092,-2.3696564117079646,13.0,608.0],["SOCS1",-0.13744582735993302,-3.226542846862094,18.0,603.0],["TMEM239",-0.16168803306667204,-4.286481257119575,8.0,613.0],["TXK",-0.11984840102573009,-2.556390624606286,24.0,597.0],["YIPF3",-0.13900637227002063,-3.2899572817180243,8.0,613.0]]},"para":{"top":[],"bottom":[["ASNS",-0.14483371675591128,-3.8073760456774357,18.0,603.0],["BBS2",-0.1378700324490297,-3.5235853311545022,19.0,602.0],["DHCR7",-0.17142026059642437,-5.005129384173946,23.0,598.0],["GMPPA",-0.16580356625317508,-4.736978484246535,22.0,599.0],["POMC",-0.09833543246236504,-2.1429757033123593,11.0,610.0],["RDH14",-0.1282053971586795,-3.1496201957684957,11.0,610.0],["SLC25A20",-0.14521358930395076,-3.822474727208744,8.0,613.0],["SPATA7",-0.115658138416717,-2.69999662397584,16.0,605.0],["TPP1",-0.09907410237757518,-2.165207752063005,11.0,610.0],["TRIM74",-0.1361032860824962,-3.4529175565492434,9.0,612.0],["ZNHIT2",-0.13851765993497683,-3.549424829614984,18.0,603.0]]}}}
{"depmap_damaging":{"corr":{"top":[],"bottom":[["ASUN",-0.10101366778606301,-1.9262866729858399,12.0,608.0],["CELSR3",-0.14811397936400375,-3.668060433420854,10.0,610.0],["DDX26B",-0.09593681062274495,-1.7728513610105165,8.0,612.0],["IL17RB",-0.18460288914071016,-5.4308865244644675,11.0,609.0],["ITGAE",-0.10143911857116565,-1.9394401943173476,17.0,603.0],["KANSL1",-0.1737996661771619,-4.869997966169638,11.0,609.0],["MED12",-0.1596661263601885,-4.185977153199669,11.0,609.0],["MRPL47",-0.11899158576622715,-2.5224530972447954,11.0,609.0],["NBR1",-0.11132650640256118,-2.2581067525055363,27.0,593.0],["PCDH10",-0.1316436095764451,-2.9923906499518393,9.0,611.0],["POLA1",-0.13189053463774394,-3.0019831427043773,17.0,603.0],["PTPRT",-0.12040950294124167,-2.573026697231618,19.0,601.0],["WDR17",-0.11178266818716757,-2.2734130739268665,11.0,609.0],["YIF1A",-0.11645975811133667,-2.4334522643264394,8.0,612.0],["ZNF558",-0.12705377961586403,-2.8170316120823644,8.0,612.0]]},"para":{"top":[],"bottom":[["HDX",-0.12427067424519975,-3.000351085226495,8.0,612.0]]}}}
{"prism_primary_logfold":{"corr":{"top":[["diosmetin_BRD-K26862302-001-05-2::2.5::HTS",0.2106842179612601,-4.084730167158047,344]],"bottom":[]},"para":{"top":[],"bottom":[]}}}
{"prism_secondary_logfold":{"corr":{"top":[["clobutinol_BRD-A43809092-003-02-1::0.0390625::HTS002",0.20745286375761413,-2.8797709421592352,237],["selamectin_BRD-A58564983-001-04-6::2.5::HTS002",0.30415499064047646,-5.429701060610403,223],["AM-404_BRD-K55462201-001-07-3::0.00061034::HTS002",0.26732516314139537,-3.129720723580639,156],["vorinostat_BRD-K81418486-001-47-5::0.00244141::HTS002",0.19541122086760135,-3.1858626346186365,301],["metaraminol_BRD-K96253961-046-03-1::0.0024414::HTS002",0.20048375739170365,-3.3408522030101375,302]],"bottom":[]},"para":{"top":[["cabozantinib_BRD-K51544265-001-04-2::2.5::HTS002",0.21652219200595857,-3.7816297054205315,298],["anisomycin_BRD-K91370081-001-25-1::0.0390625::HTS002",0.18499205176857497,-2.8982212201794635,301]],"bottom":[["prednisolone-tebutate_BRD-A53151380-001-01-2::0.00976562::HTS002",-0.2640123788139752,-3.3987780743591025,176],["etofylline-clofibrate_BRD-K49840922-001-05-1::0.15625::HTS002",-0.24755277291123606,-3.578948025806979,213]]}}}
{"ccle_proteomics":{"corr":{"top":[["MAPK6_Q16659",0.28341717664152,-2.747673266915275,119],["ESPL1_Q14674",0.41782823484265214,-5.601038558771504,118],["TBC1D12_O60347",0.4486096232909247,-6.658936855324185,122]],"bottom":[["HLA-B_F6U0H7",-0.29995382399535986,-3.5200671234467875,141],["CCDC175_P0C221",-0.3055693628265714,-4.272003450963011,169],["FRMPD3_Q5JV73",-0.3028372698275473,-3.1563473671776183,122]]},"para":{"top":[["MAPK6_Q16659",0.270631389790454,-2.535750530213501,119]],"bottom":[]}}}
{"depmap_gene_tpm":{"corr":{"top":[],"bottom":[["USP17L19_100287404",-0.25392528378305557,-9.822765245416853,618]]},"para":{"top":[],"bottom":[]}}}
{"avana":{"corr":{"top":[["DUSP27_92235",0.186062765598633,-3.322583385430699,349],["FBH1_84893",0.20861199097623584,-4.06453324523271,349],["GCH1_2643",0.21536053670668487,-4.302713252053377,349],["HJURP_55355",0.21057821317677883,-4.091484115321262,345],["LRRC52_440699",0.20654578370678714,-3.9931119190769064,349],["MAD1L1_8379",0.17342854212450234,-2.942318006202416,349],["RGN_9104",0.21086100928757462,-3.892043367078527,325]],"bottom":[["DEFB128_245939",-0.23317123940645393,-4.967939294326896,349],["OR2M4_26245",-0.1928049734019731,-3.535838749750698,349],["PI4K2A_55361",-0.20734408863552567,-4.020623311646317,349]]},"para":{"top":[["RNF126_55658",0.22793429524808945,-4.766767193577946,349],["TLCD2_727910",0.1966311145309097,-3.6600961847590927,349]],"bottom":[["C16orf89_146556",-0.2024478487259289,-3.8535300900062297,349]]}}}
{"drive":{"corr":{"top":[["NAV2_89797",0.22565696292583573,-3.260637649184462,231]],"bottom":[["ALPK2_115701",-0.25254064150106664,-3.982048081101646,231]]},"para":{"top":[],"bottom":[["SIGLEC9_27180",-0.21388448453106368,-2.9700328922914285,231]]}}}
{"achilles":{"corr":{"top":[["GLYATL2_219970",0.274884660256349,-3.4526608857763446,165],["PRLH_51052",0.3065300678539215,-4.206281760217621,165],["ALLC_55821",0.24527955411371216,-4.590715093379183,288]],"bottom":[["XXYLT1_152002",-0.2992817570216893,-4.025844756819853,165],["CPS1-IT1_29034",-0.25458806144773166,-3.0145303686978324,165],["DBNDD2&SYS1-DBNDD2_55861&767557",-0.28118812969419715,-3.595798183840938,165],["UBXN8_7993",-0.2297046921088301,-4.078077867193791,288]]},"para":{"top":[["WDR17_116966",0.32268343202125516,-4.625698491134503,165],["FAM178B_51252",0.3275241512677435,-4.756134867387559,165],["FAM3A_60343",0.277159159595724,-3.503917361658447,165],["CCDC169_728591",0.26471255374478797,-3.2287880240727893,165],["FAM120B_84498",0.2722323548119215,-3.393446286218771,165],["ZMYM6_9204",0.28064988794789597,-3.5834428366711495,165]],"bottom":[["BZW2_28969",-0.28058096976393554,-3.5818626207461226,165],["CPS1-IT1_29034",-0.2663560254489188,-3.2643694453761944,165],["KLHL1_57626",-0.23744470083464478,-4.328541576115459,288],["RFX4_5992",-0.23239070962492292,-4.164042419277644,288]]}}}
{"ccle_rrbs_tss1kb":{"corr":{"top":[],"bottom":[["COIL_17_55038411_55039411",-0.3121137673898225,-6.462736109345448,256]]},"para":{"top":[],"bottom":[["SPAG5-AS1_17_26925150_26926150",-0.15304965943159005,-3.8520759210867945,614],["WRB_21_40751170_40752170",-0.15056435652520517,-3.6954078754727244,605],["WRB-SH3BGR_21_40751169_40752169",-0.16305407516873005,-4.252255571840516,605]]}}}
{"ccle_gene_tpm":{"corr":{"top":[],"bottom":[["RP1-161C16.1_ENSG00000216902.3",-0.34295594110773314,-17.716225759766623,616],["RP1-105O18.1_ENSG00000232299.1",-0.2584604467581414,-10.13207666288283,616],["RP11-340I6.4_ENSG00000236574.1",-0.27523023864912066,-11.44311004564095,616],["RP11-137J7.2_ENSG00000236822.1",-0.2584604467581414,-10.13207666288283,616],["RN7SL363P_ENSG00000241869.2",-0.27126365091324367,-11.124715637033747,616],["None_ENSG00000244295.2",-0.2615580772740214,-10.367367703120916,616],["RP11-33B1.2_ENSG00000248280.1",-0.2584604467581414,-10.13207666288283,616],["RP11-432M8.3_ENSG00000250558.1",-0.2584604467581415,-10.132076662882852,616],["RP11-798K23.4_ENSG00000253652.1",-0.2587602883074739,-10.154717256818905,616],["CTD-2309H9.2_ENSG00000253916.1",-0.2584604467581415,-10.132076662882852,616],["RP5-1163L11.3_ENSG00000258966.1",-0.26859557305591647,-10.913459739452605,616],["RN7SL367P_ENSG00000263769.1",-0.2584604467581414,-10.13207666288283,616]]},"para":{"top":[["AK3P2_ENSG00000250115.2",0.159041613407332,-4.133513388544361,616]],"bottom":[["RP11-169L17.3_ENSG00000214031.2",-0.15764078574916857,-4.0693911422719244,616],["RP1-161C16.1_ENSG00000216902.3",-0.15795628950614077,-4.083786146461787,616],["RP4-775D17.1_ENSG00000226773.1",-0.1538697146819881,-3.8994458632334084,616],["AC116609.3_ENSG00000231173.1",-0.19437473063182767,-5.932339450709868,616],["OR4R3P_ENSG00000254624.1",-0.1632365310974023,-4.328766475762438,616]]}}}
{"ccle_rrbs_tss_clusters":{"corr":{"top":[["GTPBP2_3",0.2853098840640717,-5.3989700338334305,253]],"bottom":[["UPRT_5",-0.2767455146340453,-4.1745465225968745,202]]},"para":{"top":[],"bottom":[["HAUS5_2",-0.1506915815521566,-3.7857493093012553,621],["UHMK1_3",-0.17816745753142835,-5.100090024963956,621]]}}}
{"ccle_rrbs_cgi_clusters":{"corr":{"top":[["16_77226337_77230649-2",0.2801295830288515,-10.53979800825765,544]],"bottom":[["5_109025833_109028701-1",-0.20793146045026867,-6.757205156914857,620]]},"para":{"top":[],"bottom":[["19_36101554_36105804-1",-0.1506915815521566,-3.7857493093012553,621],["1_162465599_162470027-3",-0.17816745753142835,-5.100090024963956,621]]}}}
