{"depmap_hotspot":{"corr":{"top":[],"bottom":[["ABHD12",-0.10997933102695032,-2.850555177606556,22.0,818.0],["SLC5A4",-0.1471092859553056,-4.7295626495598055,39.0,801.0],["SPANXN4",-0.1028105321234997,-2.544776976483209,8.0,832.0],["VRK1",-0.1006216886529085,-2.4550054026296095,18.0,822.0]]},"para":{"top":[["TRIM50",0.12997748613605242,-4.078603142437848,32.0,808.0]],"bottom":[["AC008132.13",-0.09615871613206387,-2.5719079441284283,9.0,831.0],["CDADC1",-0.10469376109640295,-2.9154624528718074,14.0,826.0],["FOXRED1",-0.1121602268656147,-3.236166638191362,17.0,823.0],["MAPRE2",-0.11002806852779143,-3.142622069027386,15.0,825.0],["MLLT11",-0.10185851587074246,-2.7986397218746712,13.0,827.0],["MRTO4",-0.08441546380592213,-2.1393871735693812,8.0,832.0],["NDFIP1",-0.0794364678868303,-1.9698505954962102,8.0,832.0],["OSM",-0.12506022187347218,-3.8350270742472903,17.0,823.0],["SLC39A7",-0.11644147700064097,-3.4286330017715305,19.0,821.0],["SPANXN4",-0.0934635883695509,-2.46852614938117,8.0,832.0],["TSSK3",-0.1045403591769254,-2.90916614700079,18.0,822.0],["WARS2",-0.10902723911980716,-3.0992421285210416,14.0,826.0]]}}}
{"depmap_damaging":{"corr":{"top":[],"bottom":[["CCT6A",-0.10351885798512624,-2.5716263665351446,8.0,831.0]]},"para":{"top":[],"bottom":[["ABCF1",-0.08936001083049597,-2.3140612796184357,11.0,828.0],["CCT6A",-0.09725195277397156,-2.6121897536807235,8.0,831.0],["NAV2",-0.10645651262070646,-2.9867939557478502,15.0,824.0],["PHF11",-0.08403520730455913,-2.1244092943577693,8.0,831.0],["XDH",-0.10810401495039744,-3.0568455060789277,16.0,823.0],["ZNF148",-0.08551105300399996,-2.176045662822551,9.0,830.0]]}}}
{"prism_secondary_logfold":{"corr":{"top":[["LY2109761_BRD-K47557313-001-02-7::10::HTS002",0.23085015785960694,-5.673168047153475,413]],"bottom":[]},"para":{"top":[],"bottom":[]}}}
{"depmap_gene_tpm":{"corr":{"top":[["TM4SF18_116441",0.2871132810895031,-16.60267618142609,836]],"bottom":[]},"para":{"top":[],"bottom":[]}}}
{"avana":{"corr":{"top":[["ZNF763_284390",0.20080172183648315,-4.966556095225197,473]],"bottom":[["PPP1R16A_84988",-0.2210771436482477,-5.920729905626869,473]]},"para":{"top":[["LTBP3_4054",0.20219500988865544,-5.029161871607111,473],["ZNF763_284390",0.2021181716201803,-5.0256979534938475,473]],"bottom":[["PPP1R16A_84988",-0.22841115270201037,-6.2890010917498005,473]]}}}
{"drive":{"corr":{"top":[["DIAPH1_1729",0.3020692406751149,-7.4707652199313905,321]],"bottom":[["LOC105369244_105369244",-0.24464508401076993,-5.00505524293932,319]]},"para":{"top":[["RAI1_10743",0.2588237534974807,-5.583563195635299,321],["ABCB1_5243",0.2783135179067433,-6.358124311839645,319]],"bottom":[]}}}
{"achilles":{"corr":{"top":[["CENPT_80152",0.31113107919956495,-5.620242294961469,221],["PGLYRP1_8993",0.30150309962218985,-5.2981333002359,221]],"bottom":[["LOC101929599_101929599",-0.29517710855790585,-5.0926553882237515,221],["PAX8_7849",-0.29750541566002625,-8.47849554685523,380]]},"para":{"top":[["C1orf53_388722",0.2884985637315772,-4.880945320240248,221],["NSMCE3_56160",0.3731054347137383,-7.9806420477702815,221]],"bottom":[["LOC101929599_101929599",-0.3166785116860977,-5.811052665369652,221],["PAX8_7849",-0.2782777617022498,-7.460145123277152,380]]}}}
{"ccle_rrbs_tss1kb":{"corr":{"top":[["CYP2W1_7_1021834_1022834",0.9818905544591117,-323.0051853474518,829],["LCN15_9_139658965_139659965",0.5066657563824276,-48.522417574085644,736]],"bottom":[]},"para":{"top":[["CYP2W1_7_1021834_1022834",0.9749173614723496,-323.0051853474518,829],["CORO2B_15_68932841_68933841",0.49525366375662855,-22.456040360790794,352]],"bottom":[["GNG7_19_2702746_2703746",-0.18813127862598406,-7.2351053661413856,819]]}}}
{"ccle_gene_tpm":{"corr":{"top":[["TM4SF18_ENSG00000163762.2",0.28611490700340597,-16.431885164780223,833]],"bottom":[]},"para":{"top":[],"bottom":[["OR9K1P_ENSG00000196534.3",-0.29009766094493894,-16.88932868713385,833]]}}}
{"ccle_rrbs_tss_clusters":{"corr":{"top":[["MIR1276_3",0.5318553000462382,-55.051338177393504,747]],"bottom":[]},"para":{"top":[["CASP16P_2",0.5670348315267818,-71.39580438479533,834]],"bottom":[]}}}
{"ccle_rrbs_cgi_clusters":{"corr":{"top":[["19_2509392_2513782-2",0.5840137608265145,-77.05246329504311,838],["7_74018801_74023118-1",0.5316296861765102,-61.151252487347804,832],["19_2511215_2515696-2",0.5724857286603818,-73.49399998238917,839],["22_43163947_43168287-1",0.5551953612098439,-68.12373226791141,837],["17_79107698_79111911-3",0.5633743186682072,-69.96180997473711,830],["16_727438_730897-1",0.575600274268361,-74.29036828406844,837],["7_1022021_1026233-1",0.9730265315226722,-323.0051853474518,840],["16_3190181_3194669-3",0.5462500472415305,-65.32079092762407,834]],"bottom":[]},"para":{"top":[["19_2509392_2513782-2",0.5955211141488012,-80.83939202364526,838],["7_1022606_1026894-2",0.5361449764041432,-57.790795003230016,770],["17_79107698_79111911-3",0.5632889237534425,-69.93640455682154,830],["16_727438_730897-1",0.5822063963084237,-76.38121104370826,837],["7_1022021_1026233-1",0.9625723651269512,-323.0051853474518,840],["16_3190181_3194669-3",0.5596733513295306,-69.19493443061421,834]],"bottom":[]}}}
