{"depmap_hotspot":{"corr":{"top":[["ABL1",0.19805182667537394,-7.8906362461955615,67.0,744.0],["ADPRHL1",0.19457391420129785,-7.633872646121134,21.0,790.0],["AZI1",0.20582765672432374,-8.481632867307935,55.0,756.0],["BCL6",0.2233080544353831,-9.896852376839737,40.0,771.0],["DSCR4",0.18944170799984678,-7.263460227984024,13.0,798.0],["FAM46A",0.21032587693169624,-8.834281522758662,23.0,788.0],["GBP6",0.18848468704353816,-7.195501669482243,45.0,766.0],["GPR113",0.2690231627635934,-14.186125198743644,46.0,765.0],["LAMB1",0.19502697198551608,-7.6670567372040415,71.0,740.0],["MARK4",0.19522281845770828,-7.681425885085484,48.0,763.0],["MESDC1",0.2002775686070934,-8.057405557961172,33.0,778.0],["MFSD6",0.20408195968315973,-8.346906231247395,40.0,771.0],["MPHOSPH10",0.20219136527467607,-8.202335900259628,27.0,784.0],["OGN",0.21096391806833417,-8.884945277545546,13.0,798.0],["PA2G4",0.20103918244375016,-8.114911788513558,24.0,787.0],["PCDHGA8",0.21627778318926447,-9.313131483836857,65.0,746.0],["RNF126",0.21004210192807582,-8.811799757879816,18.0,793.0],["SAMD8",0.2015334317901644,-8.152350809899222,25.0,786.0],["SCARA5",0.22805066816735317,-10.30181100891687,36.0,775.0],["SHROOM2",0.20523387886891906,-8.435673807534611,75.0,736.0],["SLC35E1",0.21522812836853672,-9.227666336335522,20.0,791.0],["SLK",0.2021814369559223,-8.201580368196398,40.0,771.0],["THBS2",0.18903279266787779,-7.234380220205464,74.0,737.0],["TMC8",0.2004907853763012,-8.073481992251203,36.0,775.0],["TMEM121",0.23750782722070565,-11.136521420768398,21.0,790.0],["USP21",0.20404560058501148,-8.344112797521435,31.0,780.0],["ZNF282",0.19022792119904103,-7.319550997097795,40.0,771.0],["ZNF48",0.20706788556166242,-8.57807226520916,36.0,775.0]],"bottom":[]},"para":{"top":[["GBAS",0.120182160671404,-3.5040521600441146,13.0,798.0],["IL33",0.1291930477430244,-3.926723650901676,9.0,802.0],["POC1B",0.15019242097574909,-5.017830509374786,19.0,792.0],["RRH",0.14671919827188387,-4.827017988439825,13.0,798.0],["TFF2",0.13764305585459125,-4.347904340285973,10.0,801.0]],"bottom":[["THEM4",-0.11731381328204382,-3.374902698727806,9.0,802.0]]}}}
{"depmap_damaging":{"corr":{"top":[["ABCA1",0.1748630864785528,-6.258827729143843,16.0,794.0],["CDH26",0.16779198361926498,-5.804189809091094,14.0,796.0],["DYNC1H1",0.18330710191908178,-6.826201902899427,34.0,776.0],["F8",0.19563622800767938,-7.70307782883965,30.0,780.0],["GKAP1",0.21301309180290706,-9.03840499901793,9.0,801.0]],"bottom":[]},"para":{"top":[["TFE3",0.16671293102524726,-5.973802142684647,14.0,796.0],["THBS4",0.12243024057189879,-3.603272665022491,8.0,802.0]],"bottom":[]}}}
{"prism_primary_logfold":{"corr":{"top":[],"bottom":[]},"para":{"top":[],"bottom":[["BP-554_BRD-K45479396-050-01-5::2.5::HTS",-0.19510514604692608,-4.679674234038427,469]]}}}
{"ccle_proteomics":{"corr":{"top":[],"bottom":[]},"para":{"top":[["MTHFS_P49914",0.2924296851060389,-6.981983006659481,319]],"bottom":[]}}}
{"ccle_rrbs_tss1kb":{"corr":{"top":[["DLG2_11_84431594_84432594",0.8629936070618953,-227.42659499047892,764]],"bottom":[]},"para":{"top":[["DLG2_11_84431594_84432594",0.8204432152262517,-186.47512152739733,764]],"bottom":[]}}}
{"ccle_rrbs_tss_clusters":{"corr":{"top":[["DLG2_11",0.7296939733100546,-108.17901846699407,649]],"bottom":[]},"para":{"top":[["DLG2_11",0.6863692344773277,-90.83036095875653,649],["DLG2_9",0.6468761263560309,-90.92476429677687,763]],"bottom":[]}}}
{"ccle_rrbs_cgi_clusters":{"corr":{"top":[],"bottom":[]},"para":{"top":[],"bottom":[]}}}
