{"depmap_hotspot":{"corr":{"top":[["AK4",0.14327282540302333,-4.507296312127862,9.0,830.0],["C16orf92",0.1840583317070226,-7.102208793612021,8.0,831.0],["C3orf18",0.16063801201982905,-5.534735733892439,11.0,828.0],["CRYGN",0.17421781443314588,-6.4178136807338895,10.0,829.0],["DIO2",0.23724192865102822,-11.471884793058235,19.0,820.0],["DNAJC12",0.1495546332234905,-4.865927557397051,9.0,830.0],["DONSON",0.14131757156023678,-4.398660480436899,22.0,817.0],["EAF1",0.1709000739173896,-6.195533934140882,8.0,831.0],["EBI3",0.15147206946085595,-4.978327591544339,9.0,830.0],["PAEP",0.13372417620217916,-3.990129720100067,12.0,827.0],["PHOSPHO2",0.1354572190535884,-4.081503365159707,12.0,827.0],["PPBP",0.16199242564026378,-5.619648132353062,10.0,829.0],["SNRPB",0.1332951790350866,-3.9676808297120605,15.0,824.0],["TAAR2",0.21683439910276764,-9.658498008808188,18.0,821.0],["TSEN34",0.12608400254279914,-3.600366776236723,20.0,819.0]],"bottom":[]},"para":{"top":[],"bottom":[["KIAA1644",-0.09037261702401997,-2.351217880503484,13.0,826.0],["LY6D",-0.10986094167213849,-3.1322644801920623,9.0,830.0]]}}}
{"depmap_damaging":{"corr":{"top":[["BBS9",0.16445744675236668,-5.76978393643015,10.0,828.0],["CEP152",0.12593898620733893,-3.58947150606324,12.0,826.0],["DLEC1",0.16670518421069377,-5.914188242737999,8.0,830.0],["EEF1D",0.1390685326469677,-4.270973393621647,9.0,829.0],["GCN1L1",0.13301264189109052,-3.948823555962249,10.0,828.0],["GFRAL",0.15045870719818452,-4.913542814560708,9.0,829.0],["GRIA1",0.2090956421348447,-9.005942987893032,9.0,829.0],["HCN1",0.14726124676352326,-4.728296185646387,9.0,829.0],["IGF2BP3",0.17614776596662993,-6.5419845020529275,9.0,829.0],["KEAP1",0.1320569788801853,-3.899211606889933,11.0,827.0],["KRT83",0.16252263354291696,-5.6470251588561275,9.0,829.0],["LGALS9",0.16480369730737696,-5.791902979289453,9.0,829.0],["LTB4R2",0.1715725045227767,-6.233511694354173,10.0,828.0],["NPEPPS",0.13472623608471834,-4.038617410293373,10.0,828.0],["RBM19",0.13796040421191674,-4.211019682210242,12.0,826.0],["TMPRSS15",0.15021243622371724,-4.899139335791763,8.0,830.0],["XPA",0.14734604193664844,-4.733159648388871,12.0,826.0]],"bottom":[]},"para":{"top":[],"bottom":[["ARHGAP30",-0.07969685173188884,-1.9754211858501463,10.0,828.0],["FAM178B",-0.1058451156336264,-2.958371633335626,15.0,823.0],["GPR149",-0.09563845287252176,-2.54743866696747,11.0,827.0],["MX1",-0.0918905612255687,-2.4052319160539675,8.0,830.0]]}}}
{"prism_primary_logfold":{"corr":{"top":[],"bottom":[]},"para":{"top":[["atropine_BRD-A27290375-330-01-1::2.5::HTS",0.20004109046422203,-4.960429166577038,476]],"bottom":[]}}}
{"prism_secondary_logfold":{"corr":{"top":[["clebopride_BRD-K17294426-050-12-3::0.15625::HTS002",0.286729895470189,-4.845303071623862,222]],"bottom":[["colfosceril-palmitate_BRD-A95886749-001-03-5::0.15625::HTS002",-0.2540152186626039,-6.776969670574547,413]]},"para":{"top":[],"bottom":[]}}}
{"ccle_proteomics":{"corr":{"top":[],"bottom":[["FBXO42_Q6P3S6",-0.26872867569577163,-3.246278594434372,161]]},"para":{"top":[],"bottom":[]}}}
{"depmap_copy_number":{"corr":{"top":[],"bottom":[["HBM_3042",-0.15931957236527963,-5.446924585069573,838],["LUC7L_55692",-0.16099882586443584,-5.551345186092834,838],["FAM234A_83986",-0.17522826386167537,-6.47934080871351,838],["RGS11_8786",-0.1739554738642677,-6.393167788545851,838]]},"para":{"top":[],"bottom":[]}}}
{"depmap_gene_tpm":{"corr":{"top":[["CELA3B_23436",0.28999439525876,-16.916035027405933,835]],"bottom":[]},"para":{"top":[],"bottom":[]}}}
{"avana":{"corr":{"top":[],"bottom":[["NBEAL2_23218",-0.22229779928569224,-5.98116189333024,473]]},"para":{"top":[],"bottom":[]}}}
{"ccle_rrbs_tss1kb":{"corr":{"top":[["MEAF6_1_37980420_37981420",0.5457582114065685,-64.48873586533617,825],["PDIA6_2_10952965_10953965",0.48626881333974437,-49.635084155154324,828],["RFC4_3_186524290_186525290",0.5646705788891601,-70.18108346842614,828],["RFC4_3_186524484_186525484",0.5509517336391959,-65.94843219756658,825],["LOC101927420_7_86781809_86782809",0.5450927950487466,-64.53402483407166,828],["MIR17HG_13_91999073_92000073",0.4431626617633699,-40.279128022155675,825],["INO80E_16_30006529_30007529",0.49054037763258257,-50.441590984112,825],["NAA60_16_3506984_3507984",0.4417958593830612,-40.10383786235302,827]],"bottom":[["MIR4746_19_4444974_4445974",-0.2022866552045946,-8.22824305219549,813]]},"para":{"top":[],"bottom":[]}}}
{"ccle_gene_tpm":{"corr":{"top":[["CELA3B_ENSG00000219073.3",0.2863887503203536,-16.444266624530197,832],["OR5W1P_ENSG00000227806.1",0.5127545565870218,-56.24984431056728,832],["ARL5AP1_ENSG00000227864.1",0.3006381623672433,-18.114631958466624,832],["AC006159.3_ENSG00000231210.2",0.27752694501213526,-15.452514831732454,832],["AC073869.8_ENSG00000234480.1",0.2721023277603226,-14.862925105155197,832],["RP11-282I1.2_ENSG00000234542.1",0.42431072111354334,-36.9637122529166,832],["RP5-1164C1.2_ENSG00000238282.1",0.37603548804672765,-28.61341983437087,832],["AC006159.4_ENSG00000243220.1",0.34072074759080107,-23.334804342159018,832],["RP11-268P4.5_ENSG00000250166.2",0.26360349991941745,-13.965558123913253,832],["RP11-148M9.1_ENSG00000260237.1",0.3028730009102612,-18.385208947937006,832],["hsa-mir-5572_ENSG00000266542.1",0.2859157452437971,-16.390427808180686,832]],"bottom":[]},"para":{"top":[],"bottom":[]}}}
{"ccle_rrbs_tss_clusters":{"corr":{"top":[["PIGU_1",0.5932926618971315,-79.3383215987646,830],["HSF2_1",0.4813595538613571,-48.80576021766492,833],["RBM34_1",0.5657536793591428,-70.50460598224235,828],["CYB5R3_7",0.4536316838758525,-42.99281378449864,837]],"bottom":[["STK3_5",-0.2485930132790487,-5.443439427324248,339],["MIR6126_1",-0.21545323287491752,-9.457450197537588,831],["ANGPT2_1",-0.19007520647322823,-7.283905794381018,808]]},"para":{"top":[],"bottom":[]}}}
{"ccle_rrbs_cgi_clusters":{"corr":{"top":[["6_122718607_122723366-1",0.4813595538613571,-48.80576021766492,833],["10_5727076_5729697-1",0.5531295302560223,-67.28428954698654,834],["1_235322264_235326717-1",0.5657536793591428,-70.50460598224235,828],["20_33262666_33267193-1",0.5932926618971315,-79.3383215987646,830],["1_26362151_26364708-1",0.4562173114762441,-43.533127858692396,837],["22_43043009_43047679-1",0.4536316838758525,-42.99281378449864,837],["1_44677003_44681465-1",0.9999999999999998,-323.0051853474518,839]],"bottom":[["7_127228398_127231039-3",-0.2154093928506365,-8.003031329787627,694],["19_56174635_56178918-2",-0.26488997595919533,-7.024196501983235,394],["3_184043016_184047236-2",-0.2095255000099769,-8.009719811273762,735],["16_2813575_2816185-1",-0.2999854006572638,-18.056777106151635,833],["8_617097_621607-1",-0.26857170990667123,-14.370670385843523,825],["8_99835461_99839936-2",-0.2485930132790487,-5.443439427324248,339],["2_10564889_10569148-2",-0.2098542644533375,-9.01764282394286,833],["8_6422215_6426888-1",-0.2024362537460755,-8.342390465025305,824],["1_8416322_8420857-1",-0.31474744437039737,-19.908540045352307,834],["7_2097668_2102358-1",-0.2841004847434861,-16.18475907939839,832]]},"para":{"top":[["1_44677003_44681465-1",1.0,-323.0051853474518,839]],"bottom":[]}}}
