{"depmap_hotspot":{"corr":{"top":[["ACVR1",0.1928439451687803,-7.736816379073841,29.0,809.0],["AL121761.2",0.1306480505210978,-3.826675979054456,8.0,830.0],["C3orf72",0.12034418431178472,-3.318060835531109,10.0,828.0],["DPPA3",0.1481558178423815,-4.779739555949918,9.0,829.0],["E2F6",0.1407478178785276,-4.362690314671685,8.0,830.0],["FKBP1C",0.16521834645311223,-5.818451572305538,8.0,830.0],["HRCT1",0.15244022519750652,-5.030260236694037,10.0,828.0],["PLA2G2A",0.17586959429128074,-6.522998748429318,9.0,829.0],["SERPINA7",0.16931880467393273,-6.0845268945156175,30.0,808.0],["TPD52L2",0.12344223583226498,-3.4669591142205385,9.0,829.0],["UGT1A9",0.24344318459944522,-12.044147937199854,23.0,815.0]],"bottom":[]},"para":{"top":[["ATAT1",0.12098239471790012,-3.6324589224508705,10.0,828.0],["CBLN4",0.11171700728458019,-3.2106639811988904,15.0,823.0]],"bottom":[]}}}
{"depmap_damaging":{"corr":{"top":[["GOLGA1",0.1415103259377461,-4.400050914144901,19.0,818.0],["GP1BA",0.21145824375116176,-9.189124749222408,10.0,827.0],["IPMK",0.12719823069321784,-3.648341699863693,8.0,829.0],["MCM4",0.11902733583746399,-3.2524867280754575,11.0,826.0],["NLGN2",0.14053423873393484,-4.346400619095524,12.0,825.0],["PRKCA",0.12869123486108305,-3.7232729060190515,35.0,802.0],["SERPINI2",0.21692571838703803,-9.644797556953696,8.0,829.0],["SLC29A3",0.1845211154536484,-7.1197918298015646,23.0,814.0],["ZNF644",0.13901046684003826,-4.263348358084787,34.0,803.0]],"bottom":[]},"para":{"top":[["FRMPD4",0.09838170453607108,-2.651929290682501,8.0,829.0],["NBPF1",0.10592190215625834,-2.9589999984261905,18.0,819.0],["PPP2R2B",0.10234408373307236,-2.810717736970749,8.0,829.0]],"bottom":[["DLGAP5",-0.09214018445386651,-2.4125850759823306,10.0,827.0]]}}}
{"prism_primary_logfold":{"corr":{"top":[],"bottom":[["tianeptine_BRD-A53077924-001-01-2::2.499990763::MTS004",-0.2249933924669754,-6.022123070062399,465]]},"para":{"top":[],"bottom":[]}}}
{"prism_secondary_logfold":{"corr":{"top":[],"bottom":[["CGP-54626_BRD-A74208568-003-01-5::2.5::HTS002",-0.2507767321688064,-3.737466008903235,218]]},"para":{"top":[],"bottom":[]}}}
{"ccle_proteomics":{"corr":{"top":[],"bottom":[["RNF128_Q8TEB7",-0.4992021820132702,-9.082227815198241,134]]},"para":{"top":[],"bottom":[]}}}
{"depmap_gene_tpm":{"corr":{"top":[["ARSF_416",0.3806198876090926,-29.416710143618108,834]],"bottom":[]},"para":{"top":[],"bottom":[]}}}
{"avana":{"corr":{"top":[],"bottom":[]},"para":{"top":[],"bottom":[["DHX58_79132",-0.17109770346744424,-3.7126220602669453,470]]}}}
{"drive":{"corr":{"top":[["GRM8_2918",0.24211960475179872,-4.938477182572253,321]],"bottom":[]},"para":{"top":[],"bottom":[]}}}
{"ccle_rrbs_tss1kb":{"corr":{"top":[["EEF1E1_6_8102828_8103828",0.6139309943368647,-85.26966191801053,819]],"bottom":[]},"para":{"top":[["EEF1E1_6_8102828_8103828",0.5216962586344775,-57.63315807363638,819]],"bottom":[]}}}
{"ccle_gene_tpm":{"corr":{"top":[["ARSF_ENSG00000062096.10",0.3796759898969869,-29.161914013187253,831],["OFD1P4Y_ENSG00000229406.1",0.4161680498589827,-35.41579856734883,831],["RP11-103C3.1_ENSG00000232436.1",0.380722395017101,-29.33052889243654,831],["RPL30P6_ENSG00000242936.1",0.37681051071406013,-28.703309695393706,831],["CTC-552D5.1_ENSG00000251293.1",0.34768166640363335,-24.294929000353605,831],["CTC-137K3.1_ENSG00000270137.1",0.3385563849942903,-23.005869432998253,831]],"bottom":[]},"para":{"top":[],"bottom":[]}}}
{"ccle_rrbs_tss_clusters":{"corr":{"top":[],"bottom":[["CT47B1_1",-0.23449793818850995,-3.41010653729015,225],["LINC02057_3",-0.26403315868872157,-13.59547747711106,806],["CYP1A1_3",-0.17548676458521176,-3.0758576710855956,359],["TMEM101_2",-0.2839861906163045,-15.653351287028201,804]]},"para":{"top":[],"bottom":[["MIR548J_1",-0.18782879442585673,-7.0041446522551984,793],["TRIM66_1",-0.15841281480355154,-5.223871352113043,809],["ACOT2_4",-0.16673307001832505,-5.405981140087493,758]]}}}
{"ccle_rrbs_cgi_clusters":{"corr":{"top":[["22_41862420_41864932-1",0.6033349764561956,-42.07300259962228,418],["6_8100504_8104885-1",1.0,-323.0051853474518,838]],"bottom":[["15_75018761_75021336-3",-0.17548676458521176,-3.0758576710855956,359],["23_120006631_120011630-1",-0.23449793818850995,-3.41010653729015,225]]},"para":{"top":[["6_8100504_8104885-1",1.0,-323.0051853474518,838]],"bottom":[]}}}
