{"depmap_hotspot":{"corr":{"top":[],"bottom":[]},"para":{"top":[["AQP12B",0.11664621570932683,-3.37722311868494,10.0,811.0],["ASPA",0.10688325576824897,-2.956020397000846,11.0,810.0],["C11orf42",0.13933557814704345,-4.480063719876137,20.0,801.0],["CMTM3",0.11074245062421931,-3.1186968796704386,10.0,811.0],["FAM109A",0.15999147848016512,-5.635721675282393,24.0,797.0],["FAM185A",0.1331882396038097,-4.16399069598276,13.0,808.0],["OSER1",0.13198949639330546,-4.10398627542632,16.0,805.0],["PRMT3",0.1566492785483199,-5.438844239822724,23.0,798.0]],"bottom":[["MAGEA3",-0.12798403744622555,-3.906767162739866,20.0,801.0]]}}}
{"depmap_damaging":{"corr":{"top":[],"bottom":[]},"para":{"top":[["FERMT1",0.1078008719401574,-2.99146751187934,10.0,810.0],["FLJ00104",0.11561468161966569,-3.3282060466373453,13.0,807.0],["NBEAL2",0.1284225856031532,-3.9238266184448887,8.0,812.0],["RAE1",0.13950371752044186,-4.484119411399191,11.0,809.0]],"bottom":[]}}}
{"avana":{"corr":{"top":[],"bottom":[]},"para":{"top":[],"bottom":[["LCE1E_353135",-0.2307978790438785,-6.239010106008966,459]]}}}
{"ccle_rrbs_tss1kb":{"corr":{"top":[["EGR2_10_64578927_64579927",0.8107752635691099,-95.03968342434916,405]],"bottom":[]},"para":{"top":[["EGR2_10_64578927_64579927",0.8115082855376285,-95.34431230682192,405]],"bottom":[]}}}
{"ccle_rrbs_tss_clusters":{"corr":{"top":[["EGR2_5",0.9878276047566248,-323.0051853474518,819],["EGR2_6",0.8095110400225413,-95.90831460961702,411]],"bottom":[]},"para":{"top":[["EGR2_5",0.9833307276781713,-323.0051853474518,819],["EGR2_6",0.8119178053501053,-96.9208205981154,411]],"bottom":[]}}}
{"ccle_rrbs_cgi_clusters":{"corr":{"top":[["10_64576719_64580778-2",0.9878276047566248,-323.0051853474518,819],["10_64576719_64580778-3",0.8095110400225413,-95.90831460961702,411]],"bottom":[]},"para":{"top":[["10_64576719_64580778-2",0.9833307276781713,-323.0051853474518,819],["10_64576719_64580778-3",0.8119178053501053,-96.9208205981154,411]],"bottom":[]}}}
