{"depmap_hotspot":{"corr":{"top":[],"bottom":[["ARID3B",-0.1268135551473218,-3.5352934867026895,26.0,786.0],["B3GNT4",-0.12408918644131318,-3.4048115370267356,21.0,791.0],["BEND6",-0.13659355084786284,-4.025178267461429,14.0,798.0],["C18orf54",-0.14752264169908433,-4.612812511317906,10.0,802.0],["CCDC15",-0.12787503513549361,-3.5868352599602042,58.0,754.0],["CCDC86",-0.1240415020100699,-3.402550796875475,18.0,794.0],["CD27",-0.14474161117134485,-4.459224899482195,9.0,803.0],["CTAG2",-0.12757614672043602,-3.5722823476360617,17.0,795.0],["CYP7A1",-0.13033047944590123,-3.7075779630061088,33.0,779.0],["EMILIN3",-0.12232902235721356,-3.3218864467325497,55.0,757.0],["FAIM3",-0.1384230936938298,-4.120576676270402,24.0,788.0],["LRRC66",-0.1593850881673937,-5.299369328615103,43.0,769.0],["MRPS23",-0.12437319021301615,-3.418292708302574,9.0,803.0],["MTCH2",-0.12675396583810797,-3.532411736102394,15.0,797.0],["NAGK",-0.12783777351779418,-3.585019278668952,16.0,796.0],["NCOA3",-0.13951609749617766,-4.178137699113399,49.0,763.0],["OLIG3",-0.12386468885468031,-3.394174926095475,23.0,789.0],["OR2D2",-0.13932048717591783,-4.167804980027029,15.0,797.0],["OR52K1",-0.12553487653975878,-3.4737290187731356,29.0,783.0],["POT1",-0.15675277274752214,-5.142599648533168,44.0,768.0],["PTOV1",-0.1553498059934809,-5.060078531269487,28.0,784.0],["SHE",-0.13196603467160775,-3.789180516601959,21.0,791.0],["SLC15A1",-0.14240370436366565,-4.332258255452759,27.0,785.0],["SLC30A7",-0.1411466150103804,-4.264797453005839,13.0,799.0],["STAB1",-0.16809688514916038,-5.836357848665537,107.0,705.0],["TBX15",-0.12462276958909205,-3.430163040297972,40.0,772.0],["TTC37",-0.12417469664570469,-3.4088675997516114,52.0,760.0],["USP20",-0.13094614540904428,-3.7381847279926985,56.0,756.0],["WDR16",-0.14127198668007535,-4.27150007575989,32.0,780.0],["ZNF131",-0.1449664521173575,-4.471538852941798,39.0,773.0],["ZNF501",-0.12323476971669299,-3.364423383683802,14.0,798.0]]},"para":{"top":[],"bottom":[["ARMC1",-0.09974784900965242,-2.6466930496527983,11.0,801.0],["BEND6",-0.12666549639918284,-3.8093601369769217,14.0,798.0],["C18orf54",-0.13403142448664304,-4.169152610284628,10.0,802.0],["C3orf72",-0.09296880990796484,-2.3912862970519595,10.0,802.0],["C4orf45",-0.1206320949604646,-3.527746571525283,9.0,803.0],["CD27",-0.133335495595219,-4.134304507349291,9.0,803.0],["CD8A",-0.10149860906749222,-2.7150701997143654,11.0,801.0],["CENPQ",-0.09932938157779672,-2.63053419102047,12.0,800.0],["CLDN7",-0.101752732752292,-2.724984834961437,9.0,803.0],["CMPK2",-0.12384321487687054,-3.6763779987600387,20.0,792.0],["CSH2",-0.10529280819747032,-2.866760861490684,13.0,799.0],["CTAG2",-0.12314974994576638,-3.64400526949091,17.0,795.0],["DCTN5",-0.10092871314027971,-2.6926600089617656,10.0,802.0],["HAUS7",-0.1068873121026615,-2.9318103026109563,11.0,801.0],["HIST2H2AA4",-0.10745168916353559,-2.9549623158699916,9.0,803.0],["IL18BP",-0.09309132322859577,-2.395722651993423,9.0,803.0],["MED18",-0.10046208505192947,-2.674504666631096,12.0,800.0],["MRPS23",-0.10416286409801619,-2.8209477873117734,9.0,803.0],["MTCH2",-0.11762586834978361,-3.392303662665547,15.0,797.0],["NAGK",-0.12364509610934361,-3.6670404710505173,16.0,796.0],["NUP43",-0.09292670592715965,-2.3897867853395462,11.0,801.0],["OR2D2",-0.12151029380640606,-3.5682077447631535,15.0,797.0],["PLAC1",-0.12015261914605489,-3.5058352353107174,8.0,804.0],["PRRT1",-0.12164044939970912,-3.574216330947824,16.0,796.0],["PTOV1",-0.1533838027924259,-5.2020992687704535,28.0,784.0],["RP11-407N17.3",-0.12798878874446137,-3.8728307159189574,19.0,793.0],["SAA4",-0.09468505402473162,-2.454425557041491,8.0,804.0],["SEC22C",-0.102378967854308,-2.7498686050263434,12.0,800.0],["SKP2",-0.11692617134832836,-3.361200871976534,17.0,795.0],["SLC30A7",-0.13040141540287348,-3.989635377912245,13.0,799.0],["TAAR2",-0.10688434626887201,-2.931762213148104,13.0,799.0],["TMEM54",-0.10182804935684588,-2.727954973302431,9.0,803.0],["ZNF501",-0.11503480519466676,-3.2777158614119664,14.0,798.0]]}}}
{"depmap_damaging":{"corr":{"top":[],"bottom":[["ABCC8",-0.11940882333122671,-3.183331797391191,10.0,801.0],["AGGF1",-0.13631051110357378,-4.006212072956132,8.0,803.0],["CAB39",-0.13031536119919415,-3.7028696961526713,10.0,801.0],["CACNA2D3",-0.10333661525623171,-2.4925123595261867,10.0,801.0],["COL5A3",-0.10829740147421169,-2.696336311546151,19.0,792.0],["ERMP1",-0.11849207542659732,-3.1415457061224425,31.0,780.0],["FPGT-TNNI3K",-0.12780466325906767,-3.5795916726308454,14.0,797.0],["FREM2",-0.13601944866650717,-3.9911916022556717,12.0,799.0],["LARP1B",-0.10959524013451041,-2.7510390085166785,9.0,802.0],["MYCBP2",-0.1608826821019475,-5.383749808491429,36.0,775.0],["NR1H4",-0.1320341658820995,-3.7885416329664277,8.0,803.0],["PLOD2",-0.14483343580252134,-4.459404568200592,8.0,803.0],["TLE1",-0.11314176731635787,-2.9034523449720475,10.0,801.0],["TTC37",-0.12666504669029122,-3.524363978420019,12.0,799.0],["USP28",-0.11926167198762164,-3.176604949301076,17.0,794.0],["VPS13D",-0.1547843473445543,-5.021509613902486,19.0,792.0]]},"para":{"top":[["ZNF630",0.1321476444340532,-4.071749318369416,24.0,787.0]],"bottom":[["ABCC8",-0.11016557766500797,-3.065407853455282,10.0,801.0],["AGGF1",-0.11906950180719088,-3.453460538255543,8.0,803.0],["ATP13A4",-0.10445909271844467,-2.8302155773705686,8.0,803.0],["CAB39",-0.11372315700442845,-3.217371147954974,10.0,801.0],["CACNA2D3",-0.09426391430894049,-2.436770899028283,10.0,801.0],["CCDC150",-0.1016149271569157,-2.7170869040436525,9.0,802.0],["CMYA5",-0.11254532852815356,-3.1668102934921136,16.0,795.0],["COG2",-0.09084959319795305,-2.3124956935718597,10.0,801.0],["DNAH12",-0.09142828223153181,-2.3332485633728246,9.0,802.0],["ERC1",-0.09976669855855533,-2.6448872514425665,8.0,803.0],["FBXO21",-0.11531025421318868,-3.286386553908475,8.0,803.0],["FPGT-TNNI3K",-0.11419717267067378,-3.2380918397916574,14.0,797.0],["FREM2",-0.12583319079378907,-3.7660716858590746,12.0,799.0],["FXR2",-0.09289460005794084,-2.3865188688639902,11.0,800.0],["GAK",-0.0953383510221883,-2.4766568241544062,10.0,801.0],["GPR155",-0.09077796408373653,-2.309928744052242,10.0,801.0],["LUZP2",-0.07945076475267102,-1.9245742128899923,8.0,803.0],["NBEAL2",-0.09398118985005549,-2.426234776967843,8.0,803.0],["NR1H4",-0.11997598704262404,-3.4944469039570905,8.0,803.0],["PCOLCE",-0.10224620229076961,-2.741922360096947,8.0,803.0],["PHACTR4",-0.12301537871437053,-3.6338577914869696,8.0,803.0],["PIGO",-0.13178502604791992,-4.053712436740334,17.0,794.0],["PLOD2",-0.13000064729329663,-3.9658841936042317,8.0,803.0],["RP11-407N17.3",-0.13594776192883545,-4.261575580297085,11.0,800.0],["SAMD4A",-0.10632148186872142,-2.905877226856982,10.0,801.0],["TLE1",-0.10305041898616696,-2.77393624349395,10.0,801.0],["TTC37",-0.12428373596438237,-3.69316714532297,12.0,799.0],["VPS13D",-0.14486373331553742,-4.727058860565267,19.0,792.0]]}}}
{"prism_secondary_logfold":{"corr":{"top":[],"bottom":[]},"para":{"top":[],"bottom":[["isoxsuprine_BRD-A16700644-003-04-4::0.00061034::HTS002",-0.2400309456392283,-4.019433797979255,259],["dacarbazine_BRD-K35520305-001-16-9::2.5::MTS010::PROS002_PR500",-0.2110946741386477,-4.412419697997136,374]]}}}
{"ccle_proteomics":{"corr":{"top":[["UBR5_O95071",0.2675637056191255,-5.838691587258042,315]],"bottom":[["FAM221A_A4D161",-0.37521948347578404,-8.679850264769462,239],["KIAA1324L_A8MWY0",-0.3484265531172746,-3.6583441783058177,108]]},"para":{"top":[["UBR5_O95071",0.2542894072098189,-5.313065446293813,315]],"bottom":[["FAM221A_A4D161",-0.42132911005275125,-10.976097488571884,239],["KIAA1324L_A8MWY0",-0.3655506619143594,-3.9993674076890406,108]]}}}
{"depmap_gene_tpm":{"corr":{"top":[],"bottom":[["FAM221A_340277",-0.4643246775441308,-43.72089249737551,808]]},"para":{"top":[],"bottom":[["FAM221A_340277",-0.4520043762358191,-41.208332264088995,808]]}}}
{"achilles":{"corr":{"top":[],"bottom":[["NKX6-1_4825",-0.26232399209633145,-6.4479005466087855,366]]},"para":{"top":[],"bottom":[["PPP2CA_5515",-0.23402473183322478,-5.218645184337632,366]]}}}
{"ccle_gene_tpm":{"corr":{"top":[],"bottom":[["FAM221A_ENSG00000188732.6",-0.46942590342677265,-44.6286737681677,805]]},"para":{"top":[],"bottom":[["FAM221A_ENSG00000188732.6",-0.45734192275516544,-42.13058684485896,805]]}}}
{"ccle_rrbs_tss_clusters":{"corr":{"top":[["FAM221A_2",0.6293268580338516,-89.60832190538378,808]],"bottom":[]},"para":{"top":[["FAM221A_2",0.6550899542439048,-99.48781429148472,808]],"bottom":[]}}}
{"ccle_rrbs_cgi_clusters":{"corr":{"top":[["7_23717619_23722006-2",0.6293268580338516,-89.60832190538378,808],["7_23717619_23722006-3",1.0,-323.0051853474518,812]],"bottom":[]},"para":{"top":[["7_23717619_23722006-2",0.6550899542439048,-99.48781429148472,808],["7_23717619_23722006-3",1.0,-323.0051853474518,812]],"bottom":[]}}}
