{"depmap_hotspot":{"corr":{"top":[],"bottom":[["SOAT2",-0.158612530160215,-5.397505270492711,20.0,817.0]]},"para":{"top":[],"bottom":[]}}}
{"ccle_rrbs_enhancer_clusters":{"corr":{"top":[["6-41434815-41437419-0_enh",0.5758464135223966,-29.28433105787211,324],["10-103527793-103530393-0_enh",0.5781554384005338,-74.73899106103238,833]],"bottom":[]},"para":{"top":[["6-41434815-41437419-0_enh",0.5153971918884634,-22.656200263948282,324]],"bottom":[]}}}
{"prism_secondary_logfold":{"corr":{"top":[["PD-153035_BRD-K26603252-003-04-9::10::HTS002",0.26752220314988234,-7.389549142849286,408]],"bottom":[]},"para":{"top":[["PD-153035_BRD-K26603252-003-04-9::10::HTS002",0.2623325302602311,-7.120831210812417,408]],"bottom":[]}}}
{"ccle_proteomics":{"corr":{"top":[["MEX3D_Q86XN8",0.31280263281537507,-6.9294751443380065,275],["FAM168A_Q92567-2",0.38276702744641916,-6.907705301199087,179]],"bottom":[]},"para":{"top":[["MEX3D_Q86XN8",0.3486207695968491,-8.551352208309652,275],["FAM168A_Q92567-2",0.37642654370555495,-6.684774972250121,179]],"bottom":[]}}}
{"depmap_gene_tpm":{"corr":{"top":[["MAML1_9794",0.30824947873792813,-19.067777722274236,833],["NSD1_64324",0.30788867558091043,-19.02296019224302,833]],"bottom":[]},"para":{"top":[["CHD5_26038",0.3921084076716508,-31.278306329318017,833],["FAM57B_83723",0.4494853038587138,-41.93891619331241,833],["SCNN1D_6339",0.3534737478582619,-25.19396787651806,833],["NSD1_64324",0.3384646221977727,-23.046476893511482,833]],"bottom":[]}}}
{"ccle_rrbs_tss1kb":{"corr":{"top":[["HHATL_3_42743013_42744013",0.6119848302857603,-85.10107598921189,824],["VWA5B2_3_183950203_183951203",0.6409587425546884,-95.33317018025863,820],["LCNL1_9_139876444_139877444",0.6274069598320604,-90.6515825148637,824],["C16orf92_16_30033654_30034654",0.7019648950513377,-122.70553225770547,825]],"bottom":[]},"para":{"top":[["HHATL_3_42743013_42744013",0.6204846349394443,-88.12186738251668,824],["BRSK2_11_1431381_1432381",0.5988741357166293,-75.0078240777391,766],["C16orf92_16_30033654_30034654",0.690237107942449,-117.03642193732739,825]],"bottom":[]}}}
{"ccle_gene_tpm":{"corr":{"top":[["MAML1_ENSG00000161021.7",0.31210811597522264,-19.483451259106822,830]],"bottom":[]},"para":{"top":[["FAM57B_ENSG00000149926.9",0.4534058443355225,-42.59421160814506,830],["SCNN1D_ENSG00000162572.15",0.35391466284727197,-25.170878231068478,830],["RP13-467H17.1_ENSG00000261693.1",0.3759238621218144,-28.528989815107423,830]],"bottom":[]}}}
{"ccle_rrbs_tss_clusters":{"corr":{"top":[["C16orf92_3",0.7245151004670707,-135.88461279543927,834],["CABP7_1",0.6775940617062692,-111.88956627742219,830],["GRK1_1",0.6565349838272214,-103.62977054797967,837],["C16orf92_2",0.763311681982813,-159.5008757083079,835]],"bottom":[]},"para":{"top":[["FAM57B_6",0.6450586451195099,-98.68906697008799,835],["C16orf92_3",0.7579919694405648,-155.83808910438472,834],["CABP7_1",0.6665380779294715,-107.00902632488223,830],["C16orf92_2",0.7452796997146897,-148.06898744510963,835]],"bottom":[]}}}
{"ccle_rrbs_cgi_clusters":{"corr":{"top":[["19_593661_597971-2",0.6863487782998217,-116.74044047098722,836],["19_593661_597971-1",0.6824770036227399,-115.06881024528468,837],["11_66062461_66065092-2",0.6966315279343358,-121.24920587150493,833],["20_44933932_44936621-2",0.6807041265196379,-113.7076114786966,833],["9_138871235_138876005-2",0.7008507479364489,-123.91884668820944,837],["9_139141508_139146429-2",0.709571788102772,-128.36137487656364,837],["16_30040307_30044612-1",1.0,-323.0051853474518,837],["17_78952993_78957381-1",0.6673354998977247,-107.99523435382085,835],["3_184102308_184106519-1",0.6792293509778037,-113.43735936639801,836]],"bottom":[]},"para":{"top":[["11_1469339_1473595-2",0.6642161241230284,-106.89695473289265,837],["19_593661_597971-2",0.7093489233401223,-128.09363576650395,836],["19_593661_597971-1",0.6876597256332017,-117.49835840552139,837],["16_30040307_30044612-1",1.0,-323.0051853474518,837],["11_66062461_66065092-2",0.6787433570024052,-112.81227074444817,833]],"bottom":[]}}}
