{"depmap_hotspot":{"corr":{"top":[["ADRA2A",0.2094492981067115,-9.06470841038833,48.0,793.0],["CHD2",0.20747669452176562,-8.904155953171463,78.0,763.0],["EGR3",0.20663425335692318,-8.836070753407474,33.0,808.0],["EHMT2",0.20538718650489293,-8.735812744109655,58.0,783.0],["GAN",0.20125161834973987,-8.407835580174469,38.0,803.0],["IP6K1",0.2166444107160344,-9.663801359521193,22.0,819.0],["JAM2",0.19436253392278127,-7.876756572443209,12.0,829.0],["MDC1",0.19341601518958831,-7.805272060597801,76.0,765.0],["NCKIPSD",0.20208273169330151,-8.473193997712732,28.0,813.0],["NPDC1",0.19471977427835538,-7.9038294669390154,26.0,815.0],["PAN2",0.21220753465464537,-9.291864100866123,52.0,789.0],["PLA2R1",0.19319277887038516,-7.788464446996392,85.0,756.0],["PLXNB1",0.20311173520511933,-8.554500249946031,92.0,749.0],["SEMA4G",0.21531629072063296,-9.551619012312642,52.0,789.0],["TBC1D1",0.19628469237850427,-8.02302454706832,53.0,788.0],["TMEM259",0.20506858724979618,-8.71030001164933,48.0,793.0],["TOP1MT",0.19277691408988357,-7.757206590987354,33.0,808.0]],"bottom":[]},"para":{"top":[["B9D1",0.1273650704655348,-3.951485848530009,9.0,832.0],["C5orf30",0.11946190605536687,-3.571254119060299,11.0,830.0],["CDC42",0.1335328156054518,-4.263536606483258,14.0,827.0],["CNEP1R1",0.11144439019227972,-3.207180267613951,8.0,833.0],["CNN2",0.14701584544413498,-4.991307359732879,17.0,824.0],["COX11",0.1182332289270457,-3.5140548199252524,11.0,830.0],["DENR",0.11363125516771883,-3.304319006279926,9.0,832.0],["DNASE1",0.1298733280374568,-4.076814902277794,11.0,830.0],["GID8",0.14230254547707108,-4.72955376391064,12.0,829.0],["GSG1",0.141394772677899,-4.67995993800108,10.0,831.0],["IP6K1",0.18104653481327618,-7.11131922220036,22.0,819.0],["KCNE2",0.13425499189071202,-4.300730380420825,10.0,831.0],["LRRC3C",0.10579269370075366,-2.963859211084732,8.0,833.0],["LY6K",0.11651577856190805,-3.4348018818970605,8.0,833.0],["MED10",0.10879515746187686,-3.0917685184503134,8.0,833.0],["NMS",0.12408881087965747,-3.7913566706520814,12.0,829.0],["NUDT21",0.11859967649163272,-3.5310599891700694,11.0,830.0],["PIGA",0.16149053033936261,-5.843231026227762,18.0,823.0],["PPAPDC2",0.13172949319376526,-4.170926878637351,12.0,829.0],["RAB11B",0.12954054096323708,-4.0601216781602725,12.0,829.0],["RHOJ",0.13460475334540387,-4.319074808134457,14.0,827.0],["SMIM8",0.11164623649554851,-3.2160717456398538,8.0,833.0],["SMU1",0.1534385083560343,-5.360214765647426,16.0,825.0],["TCF7L1",0.16859543690848178,-6.288359289441643,20.0,821.0],["TMEM138",0.1347437233985036,-4.326061645242664,9.0,832.0],["TMEM17",0.13022200722368454,-4.094439774710686,12.0,829.0],["YOD1",0.147659423678391,-5.027527785567493,14.0,827.0],["ZNF24",0.14022008280226664,-4.6164034467084205,11.0,830.0]],"bottom":[["AC020907.1",-0.09131022144121811,-2.389742397980693,8.0,833.0]]}}}
{"depmap_damaging":{"corr":{"top":[["AFF4",0.18916734627876242,-7.480626888336911,10.0,830.0],["AKAP13",0.20167039551355742,-8.431471053287682,13.0,827.0],["CHD2",0.1881688397990062,-7.4073703327132465,19.0,821.0],["CYP7B1",0.18472515637407178,-7.157736068473203,11.0,829.0],["DNAH10",0.19468367114878288,-7.8924557044403585,28.0,812.0],["FAM193B",0.16564809851701462,-5.858601590310486,12.0,828.0],["NCOR2",0.2621531147118074,-13.941306691610649,24.0,816.0],["PLOD3",0.18428470834689267,-7.126144235984383,11.0,829.0],["PLXNA2",0.17301417911285505,-6.34352396087716,10.0,830.0],["VWA5B1",0.1722280628519085,-6.290776716868557,11.0,829.0],["ZNF106",0.1984565533459151,-8.181100331375035,25.0,815.0]],"bottom":[]},"para":{"top":[["ABR",0.1322316651189919,-4.192452257148788,10.0,830.0],["ADAMTS7",0.10418718188678666,-2.894141712887964,8.0,832.0],["AKAP13",0.13664963561569882,-4.421802684020331,13.0,827.0],["ALG10B",0.13186951060993615,-4.1739634605631295,10.0,830.0],["AP4B1",0.11643267466143346,-3.427951175094238,10.0,830.0],["APPL1",0.12016153874085002,-3.600520112996013,8.0,832.0],["C9orf114",0.13980634585201543,-4.5897980946664445,15.0,825.0],["CNTROB",0.13876458722912624,-4.533638266193282,8.0,832.0],["COL8A2",0.13338082455520936,-4.251284038256443,8.0,832.0],["CRAT",0.1424952236713559,-4.735450200009941,12.0,828.0],["CSPG4",0.12333624499030928,-3.751435811572838,10.0,830.0],["CYP7B1",0.12343308188282409,-3.756139859881655,11.0,829.0],["DAB2IP",0.10858518519787369,-3.0799402756570844,8.0,832.0],["ENAH",0.1116168687540219,-3.2119104867463224,9.0,831.0],["EPB41L2",0.13008137272147322,-4.083340274601815,10.0,830.0],["FBRS",0.13418704877884344,-4.293117533884631,11.0,829.0],["HAUS3",0.123396132408046,-3.75425549296206,9.0,831.0],["HUNK",0.12820269620574634,-3.989319452836248,10.0,830.0],["METTL6",0.14518466102806943,-4.883511053198004,8.0,832.0],["NCOR2",0.17698702413747247,-6.83000121739132,24.0,816.0],["PKP2",0.11434808608826365,-3.333366080248054,8.0,832.0],["PLOD3",0.1416370860863267,-4.688606771422031,11.0,829.0],["PTK7",0.11171939445405071,-3.2163630889568133,8.0,832.0],["SLC16A13",0.14393378269285684,-4.814362374048758,10.0,830.0],["STAMBPL1",0.14130816250220243,-4.670682213937884,10.0,830.0],["VWA5B1",0.14349419683543846,-4.7901971214008325,11.0,829.0]],"bottom":[]}}}
{"prism_secondary_logfold":{"corr":{"top":[],"bottom":[]},"para":{"top":[],"bottom":[["bendroflumethiazide_BRD-A80017228-001-25-7::0.0390625::HTS002",-0.23228507568068438,-5.487402185745427,393],["clopamide_BRD-A85651701-001-19-7::2.5::HTS002",-0.24757614342303758,-6.3308399115140706,404]]}}}
{"ccle_proteomics":{"corr":{"top":[],"bottom":[["GALC_P54803",-0.5525213860975103,-25.289865628447476,308]]},"para":{"top":[["KAZN_Q674X7",0.3263987546792237,-7.74746116599943,284]],"bottom":[["ELOVL6_Q9H5J4",-0.30820606692741126,-2.7421246462819653,100],["GALC_P54803",-0.522784621053862,-22.276274675739003,308]]}}}
{"depmap_copy_number":{"corr":{"top":[],"bottom":[]},"para":{"top":[],"bottom":[["LINC01534_101927621",-0.21871385584585948,-9.82915792749718,840],["LINC01535_101927667",-0.223108925701093,-10.208905820544544,840],["ZNF420_147923",-0.22073783609917993,-10.003042727085644,840],["ZNF567_163081",-0.21871385584585948,-9.82915792749718,840],["ZNF383_163087",-0.22614102189332494,-10.475563345457946,840],["ZNF585A_199704",-0.2278857779384316,-10.630744103675404,840],["ZNF345_25850",-0.2233154307495248,-10.226945482698953,840],["ZNF790-AS1_284408",-0.2242519868353004,-10.30898275395981,840],["LOC284412_284412",-0.223108925701093,-10.208905820544544,840],["ZNF850_342892",-0.21878303300227442,-9.83507316335492,840],["ZNF829_374899",-0.22359322146291194,-10.251240403445559,840],["ZNF568_374900",-0.2238772193054103,-10.276111352657212,840],["ZNF790_388536",-0.2242519868353004,-10.30898275395981,840],["LOC728485_728485",-0.2242519868353004,-10.30898275395981,840],["DPF1_8193",-0.21775881862847696,-9.747695860088765,840],["ZNF585B_92285",-0.22600546174343963,-10.463559700536434,840]]}}}
{"depmap_gene_tpm":{"corr":{"top":[],"bottom":[["GALC_2581",-0.7167586525867206,-132.14838402749317,837]]},"para":{"top":[],"bottom":[["GALC_2581",-0.674823151980357,-111.57186236855902,837]]}}}
{"drive":{"corr":{"top":[],"bottom":[]},"para":{"top":[["TRPT1_83707",0.21962829367845707,-4.162798503343793,323]],"bottom":[]}}}
{"ccle_rrbs_tss1kb":{"corr":{"top":[["GALC_14_88459615_88460615",0.8240670992776467,-193.2279470423058,779]],"bottom":[]},"para":{"top":[["GALC_14_88459615_88460615",0.6736290037337536,-103.40396283269484,779]],"bottom":[]}}}
{"ccle_gene_tpm":{"corr":{"top":[],"bottom":[["GALC_ENSG00000054983.12",-0.718388851801395,-132.55024203818388,834]]},"para":{"top":[["RP11-157L3.5_ENSG00000226129.1",0.18379590521959366,-7.044932368668662,834]],"bottom":[["GALC_ENSG00000054983.12",-0.675633642958009,-111.53919332024338,834]]}}}
{"ccle_rrbs_tss_clusters":{"corr":{"top":[["GALC_1",0.5308555877827313,-55.965696400076354,763]],"bottom":[]},"para":{"top":[["GALC_1",0.675536260499262,-102.07995903319053,763]],"bottom":[]}}}
{"ccle_rrbs_cgi_clusters":{"corr":{"top":[["14_88457118_88461689-1",0.5308555877827313,-55.965696400076354,763],["14_88457118_88461689-2",1.0,-323.0051853474518,841],["10_22538707_22541723-2",0.5213810416068921,-18.589269348526496,257]],"bottom":[]},"para":{"top":[["14_88457118_88461689-1",0.675536260499262,-102.07995903319053,763],["6_87859526_87864513-3",0.41855075295853295,-34.16831731935773,791],["14_88457118_88461689-2",1.0,-323.0051853474518,841]],"bottom":[]}}}
