{"depmap_hotspot":{"corr":{"top":[["AAMP",0.1776483916791182,-6.652128792393995,23.0,816.0],["ANTXRL",0.19437598507957984,-7.860557995302434,37.0,802.0],["ASCL4",0.2042749049862281,-8.62791812924793,23.0,816.0],["C10orf40",0.21985092679488133,-9.915631853996087,10.0,829.0],["CACNA1H",0.18869005867408595,-7.437444106385441,140.0,699.0],["CDHR3",0.1872204910235548,-7.330165673366616,42.0,797.0],["CR2",0.23546446191826828,-11.306998177069527,61.0,778.0],["HES4",0.176951303838734,-6.604146930529896,10.0,829.0],["IL1R1",0.18606340834451912,-7.2462969865741655,27.0,812.0],["PFKFB2",0.19412289419956452,-7.841451781101739,33.0,806.0],["SNAI3",0.20714416629143156,-8.857706770416168,21.0,818.0],["SPTBN5",0.18719332358494195,-7.328190460002522,131.0,708.0],["ZBED1",0.1823512395926375,-6.980776324807413,43.0,796.0],["ZNF780A",0.19250582475488415,-7.719977505781405,23.0,816.0],["ZSCAN22",0.1965370194913625,-8.024736099201204,21.0,818.0]],"bottom":[]},"para":{"top":[["AMIGO2",0.12847882479368236,-3.999450621724185,15.0,824.0],["C10orf40",0.1579443477132362,-5.616074030721081,10.0,829.0],["CDR1",0.11239575710485192,-3.243572903367971,15.0,824.0],["CHCHD2",0.12033553324907874,-3.605537490491293,12.0,827.0],["CLDN19",0.10320240149934501,-2.8510131729798758,10.0,829.0],["CSDC2",0.11306683671187304,-3.2731590841764784,10.0,829.0],["FAM58A",0.11863583879474454,-3.526315089832327,15.0,824.0],["FUCA2",0.13668039530026194,-4.419369562203164,22.0,817.0],["IL22",0.08270483663593686,-2.078525039015142,8.0,831.0],["MAGEH1",0.13390789226296215,-4.274355350703262,8.0,831.0],["OR1E1",0.14611753091245486,-4.93113682878406,18.0,821.0],["PDZK1IP1",0.10422817781247025,-2.8933227318513755,9.0,830.0],["TM2D2",0.12343502057232038,-3.752586687409409,9.0,830.0]],"bottom":[["CD300LD",-0.11223142558801968,-3.2360083214140314,8.0,831.0],["FAM20C",-0.10970508908648798,-3.1259467254460973,26.0,813.0],["FDX1",-0.10871153205085028,-3.0825854030501034,8.0,831.0],["HUS1B",-0.09975044461018967,-2.711350865505514,21.0,818.0],["LIN28B",-0.0999520274965335,-2.719087153228296,9.0,830.0],["MED21",-0.07843926758651601,-1.9354244677984878,10.0,829.0],["PHB2",-0.10253419943421803,-2.8237787777944954,15.0,824.0],["RCE1",-0.08566874750542867,-2.181859227449424,19.0,820.0],["SAYSD1",-0.11663966895915351,-3.4344695597256654,17.0,822.0],["SPCS3",-0.07855186872157877,-1.9390405202833538,8.0,831.0],["UBALD2",-0.07859323838796188,-1.940553381533648,12.0,827.0],["VAPB",-0.09292862977091668,-2.446270853723304,9.0,830.0]]}}}
{"depmap_damaging":{"corr":{"top":[["BEND3",0.1984886926684157,-8.165635101764732,8.0,830.0],["CACNA1D",0.20687576862018914,-8.82632532725713,10.0,828.0],["IL2RG",0.23987619318300607,-11.705599771020449,11.0,827.0],["PTPN12",0.2045139697231315,-8.637412223599759,12.0,826.0],["QSER1",0.2255661197868846,-10.401532680533691,13.0,825.0]],"bottom":[]},"para":{"top":[["ABI3BP",0.11404255651289663,-3.3136641447326105,10.0,828.0],["DBF4",0.10329072164912412,-2.8520590760392555,9.0,829.0],["DENND6A",0.13290543903538635,-4.218697534798034,8.0,830.0],["DOCK9",0.12937467746671563,-4.040270408062018,14.0,824.0],["FSTL4",0.1308759610581329,-4.1154360887045796,8.0,830.0],["GABRG1",0.13417038620820068,-4.283915769113395,10.0,828.0],["HIAT1",0.15186325526829395,-5.252495209424415,12.0,826.0],["IL2RG",0.15574585999851884,-5.4795481959807395,11.0,827.0],["MYO1A",0.11913929758027526,-3.5462550274850795,11.0,827.0],["NPR1",0.11022602263957883,-3.145218641541694,8.0,830.0],["PLCZ1",0.12260583830082498,-3.709322433214421,8.0,830.0],["THBS4",0.11264815264189698,-3.2515344262575407,9.0,829.0],["ZNF518B",0.09761789070589169,-2.624239155573453,8.0,830.0]],"bottom":[["DZIP3",-0.10375760071962274,-2.871687885272827,26.0,812.0],["NFIB",-0.10350337683992673,-2.860748961319875,8.0,830.0],["TAOK3",-0.08724901882391697,-2.2359976772599364,13.0,825.0]]}}}
{"ccle_rrbs_enhancer_clusters":{"corr":{"top":[],"bottom":[]},"para":{"top":[],"bottom":[["2-164347676-164350394-0_enh",-0.12492208978772866,-3.228458309450468,753]]}}}
{"ccle_proteomics":{"corr":{"top":[["HOXB6_P17509",0.33117540060558376,-3.522774098408322,115]],"bottom":[]},"para":{"top":[["HOXB6_P17509",0.34670591119926714,-3.8322303784726945,115],["STXBP5L_Q9Y2K9",0.3013381228968313,-2.748257852960769,105],["SMIM19_Q96E16",0.284442977715119,-2.3841961792376245,100]],"bottom":[["GALNT14_Q96FL9-4",-0.4257625995445058,-8.683169758980698,182]]}}}
{"depmap_gene_tpm":{"corr":{"top":[],"bottom":[["GALNT14_79623",-0.41234253488190103,-34.88599446791769,835]]},"para":{"top":[["CDX1_1044",0.19958065536846115,-8.222835385193301,835]],"bottom":[["GALNT14_79623",-0.5470762073636367,-65.6316750398989,835]]}}}
{"avana":{"corr":{"top":[],"bottom":[]},"para":{"top":[],"bottom":[["CHD4_1108",-0.19241625104558874,-4.555790610317904,468]]}}}
{"achilles":{"corr":{"top":[],"bottom":[["C12orf40_283461",-0.3018658240137921,-5.2883972365308045,220]]},"para":{"top":[],"bottom":[]}}}
{"ccle_rrbs_tss1kb":{"corr":{"top":[["EHD3_2_31455879_31456879",0.5802839577420325,-75.0525057972183,829],["GALNT14_2_31361592_31362592",0.9435864472287832,-323.0051853474518,816]],"bottom":[]},"para":{"top":[["GALNT14_2_31361592_31362592",0.9611577605201541,-323.0051853474518,816]],"bottom":[]}}}
{"ccle_gene_tpm":{"corr":{"top":[["AC011523.2_ENSG00000267968.1",0.30317067405535336,-18.421426839957487,832]],"bottom":[["GALNT14_ENSG00000158089.10",-0.41642982026695147,-35.505141676927316,832]]},"para":{"top":[],"bottom":[["GALNT14_ENSG00000158089.10",-0.5486452171175263,-65.84318163267648,832]]}}}
{"ccle_rrbs_tss_clusters":{"corr":{"top":[["GALNT14_1",0.8621012536144317,-248.0019631497277,837],["GALNT14_2",0.6694719291494173,-64.53226188229813,492]],"bottom":[]},"para":{"top":[["GALNT14_1",0.7332446400543118,-141.29849116957854,837],["GALNT14_2",0.6303777243307038,-55.132948406995894,492],["CHST15_5",0.3962030000353499,-32.19636884760929,839]],"bottom":[]}}}
{"ccle_rrbs_cgi_clusters":{"corr":{"top":[["2_31358321_31361071-1",0.9125645552686487,-323.0051853474518,836],["2_31361071_31363821-3",0.7336286749959087,-104.71048946990894,618],["2_31361071_31363821-1",0.915989475714313,-323.0051853474518,825],["2_31358321_31361071-2",0.7683086921311398,-160.7172535451823,824],["2_31361071_31363821-2",0.9284407858365131,-323.0051853474518,816],["2_31358321_31361071-3",0.6694719291494173,-64.53226188229813,492]],"bottom":[]},"para":{"top":[["2_31358321_31361071-1",0.7302974875851941,-139.44732051902514,836],["2_31361071_31363821-3",0.6804683619991954,-84.50383014802777,618],["2_31361071_31363821-1",0.6929301664591146,-118.31409412450242,825],["2_31358321_31361071-2",0.7051596442931898,-124.14878607139237,824],["2_31361071_31363821-2",0.9194291128041598,-323.0051853474518,816],["2_31358321_31361071-3",0.6303777243307038,-55.132948406995894,492]],"bottom":[["12_133485198_133487739-3",-0.16809819936421305,-5.693958629038422,790],["20_62598653_62601165-1",-0.1777800590332106,-6.524039439591273,820]]}}}
