{"depmap_hotspot":{"corr":{"top":[],"bottom":[]},"para":{"top":[["LTB",0.17016257277452806,-6.238594176352904,17.0,801.0],["RHOXF2",0.10871796278904665,-3.0244152743511767,12.0,806.0]],"bottom":[["C11orf96",-0.09755630962566664,-2.5762759464761693,12.0,806.0],["CYB561A3",-0.10746614034340181,-2.972272369853348,18.0,800.0],["DAPL1",-0.09567440298765491,-2.504747212872937,12.0,806.0],["EBLN1",-0.12202742705468615,-3.612745311350445,13.0,805.0],["FHL2",-0.11179021142324985,-3.1552220815706775,22.0,796.0],["IDH3B",-0.10406019853129679,-2.832452868024089,13.0,805.0],["IGSF23",-0.09616820680996065,-2.523222424878606,8.0,810.0],["MOSPD2",-0.11782414700374025,-3.4206724243904123,16.0,802.0],["TMEM45A",-0.12225307617591441,-3.623347686828217,17.0,801.0]]}}}
{"depmap_damaging":{"corr":{"top":[],"bottom":[]},"para":{"top":[],"bottom":[["CCDC77",-0.10188060570087763,-2.7423624448582715,8.0,809.0],["CLHC1",-0.13671418565097054,-4.3262532715531945,10.0,807.0],["MT-ND1",-0.0884626910155178,-2.239409885545201,12.0,805.0],["PHKB",-0.10537547055340256,-2.883075672397788,8.0,809.0],["ULK4",-0.09600342311841477,-2.514869794057928,10.0,807.0]]}}}
{"ccle_proteomics":{"corr":{"top":[],"bottom":[]},"para":{"top":[["MYB_P10242-4",0.5708169353207448,-10.651610646140073,116],["CBFB_Q13951-2",0.37702024647859667,-11.3511700048353,315],["ZC3H12D_A2A288",0.4981701613132698,-7.450192760323384,109]],"bottom":[["EPN2_O95208",-0.39864307841950397,-12.7164412732678,315],["PDE6C_P51160",-0.38758820723017307,-5.208769449725214,128],["TTC17_G3XAB3",-0.4603264485788973,-7.125931920346183,124],["PON3_Q15166",-0.4040716772530819,-7.492721697267907,174],["TADA2A_O75478",-0.3912601691591827,-5.417718286707199,131]]}}}
{"depmap_gene_tpm":{"corr":{"top":[],"bottom":[["GRB14_2888",-0.5253971868098835,-58.231268399453576,814]]},"para":{"top":[],"bottom":[["GRB14_2888",-0.6034760564319908,-81.18180846412777,814],["PRKAA2_5563",-0.48743985613210383,-49.075783840394244,814]]}}}
{"avana":{"corr":{"top":[],"bottom":[["PLEKHA1_59338",-0.283559728920179,-9.116128692689419,454]]},"para":{"top":[],"bottom":[]}}}
{"drive":{"corr":{"top":[],"bottom":[]},"para":{"top":[["HOXB3_3213",0.21969247177995208,-4.005862351277756,309]],"bottom":[]}}}
{"achilles":{"corr":{"top":[],"bottom":[["MYZAP_100820829",-0.3073501739948087,-5.245026649919962,210],["OPTC_26254",-0.3036366977735902,-5.127165723067154,210],["MINDY4_84182",-0.3023415014173175,-5.08643498628441,210]]},"para":{"top":[["AAK1_22848",0.25146686648260275,-5.914518974650129,363],["CSNK2A3_283106",0.26364667322434365,-6.460397109907093,363],["CAPZA1_829",0.37300761883817246,-7.608044224420035,210]],"bottom":[["FAM217A_222826",-0.2669484996168463,-4.046827626031355,210]]}}}
{"ccle_rrbs_tss1kb":{"corr":{"top":[["GRB14_2_165478360_165479360",0.7408590781463683,-137.103221815292,787]],"bottom":[]},"para":{"top":[["GRB14_2_165478360_165479360",0.6384624098157298,-90.61001481917637,787]],"bottom":[]}}}
{"ccle_gene_tpm":{"corr":{"top":[],"bottom":[["GRB14_ENSG00000115290.5",-0.5278250698672069,-58.64361697400485,811]]},"para":{"top":[],"bottom":[["GRB14_ENSG00000115290.5",-0.6038759664589102,-81.01974639019173,811],["PRKAA2_ENSG00000162409.6",-0.4877338315456457,-48.96459066160909,811]]}}}
{"ccle_rrbs_tss_clusters":{"corr":{"top":[["GRB14_2",0.8384131041568428,-206.2651718302935,779],["GRB14_1",0.8215916415384017,-200.38319801416142,817]],"bottom":[]},"para":{"top":[["EFNA5_2",0.5305646545297735,-59.8577150152422,818],["CFAP221_2",0.5489453763572462,-64.36577409563445,812],["GRB14_1",0.7349139087793208,-138.88452531778933,817],["GRB14_2",0.6087695649741506,-79.44586964166456,779],["GREB1L_3",0.539260633708635,-62.02422703439973,816],["THRB_2",0.575602787114848,-72.62576647426489,818]],"bottom":[["MIR150_2",-0.38546808183516246,-20.093468115742667,547],["LOC101927596_2",-0.4067752916487409,-32.465560049935874,799],["CSK_3",-0.4125967510798462,-34.075514069065434,814]]}}}
{"ccle_rrbs_cgi_clusters":{"corr":{"top":[["2_165475562_165480342-2",0.8384131041568428,-206.2651718302935,779],["2_165475562_165480342-1",0.8215916415384017,-200.38319801416142,817],["2_165475562_165480342-3",1.0,-323.0051853474518,818]],"bottom":[]},"para":{"top":[["18_18822366_18825349-1",0.5409743379488939,-62.48758378298391,816],["2_165475562_165480342-2",0.6087695649741506,-79.44586964166456,779],["2_165475562_165480342-1",0.7349139087793208,-138.88452531778933,817],["2_165475562_165480342-3",1.0,-323.0051853474518,818],["2_120299702_120304455-2",0.5489453763572462,-64.36577409563445,812]],"bottom":[["15_75072425_75077146-3",-0.4125967510798462,-34.075514069065434,814]]}}}
