{"depmap_hotspot":{"corr":{"top":[],"bottom":[["AK3",-0.11969720189397669,-2.29234661006299,8.0,538.0],["C1orf35",-0.11594941150943038,-2.1750965540295866,12.0,534.0],["GAP43",-0.14465335526742018,-3.1558277388257463,20.0,526.0],["NBEAL2",-0.13722549647970972,-2.8836198047096495,65.0,481.0],["SLC40A1",-0.10185451954665883,-1.76250676358668,13.0,533.0],["TAZ",-0.09738653897909189,-1.6409542481527444,8.0,538.0]]},"para":{"top":[["BEST4",0.11685709369089863,-2.495631568549032,13.0,533.0],["KIAA1984",0.11664731565108047,-2.488954010431409,9.0,537.0],["PTGR2",0.11756682606942698,-2.51739234755434,11.0,535.0],["ZNF449",0.1231571794704228,-2.6934426374944147,11.0,535.0],["ZNF525",0.11537973010247785,-2.4503105239608383,10.0,536.0]],"bottom":[["AK3",-0.11925014529224714,-2.569460805319694,8.0,538.0],["ARG1",-0.09199314634709099,-1.7982223112895281,10.0,536.0],["CERS5",-0.09754024875586396,-1.9422925125903479,10.0,536.0],["GAP43",-0.14314396311455854,-3.379446331981642,20.0,526.0],["HOXD9",-0.11763181324657801,-2.519705074125988,19.0,527.0],["MYZAP",-0.12720580286575642,-2.825367814386356,14.0,532.0],["PNPLA5",-0.11246408127762296,-2.362696395122796,12.0,534.0],["SLC40A1",-0.10706045691186872,-2.2050203176986645,13.0,533.0],["TFCP2L1",-0.10640805155805175,-2.1864791817417717,15.0,531.0],["TREM1",-0.10498766944334051,-2.145896520141446,8.0,538.0],["TRIM69",-0.08894238411332056,-1.7216384714370694,8.0,538.0]]}}}
{"depmap_damaging":{"corr":{"top":[["FLG",0.14611802450439204,-3.206008436794371,21.0,524.0]],"bottom":[["CEP152",-0.10916517212760815,-1.968016916019861,8.0,537.0],["NBAS",-0.11995307645864636,-2.296987549575117,13.0,532.0],["SCN3A",-0.14849754750576116,-3.296647454731631,14.0,531.0]]},"para":{"top":[["DHRS9",0.13278108579942513,-3.008246560254436,9.0,536.0],["EPRS",0.09227984663413426,-1.803220845770039,8.0,537.0],["FLG",0.15615598435910785,-3.8678530548016905,21.0,524.0],["MGAM",0.1293308507186683,-2.891603715899743,8.0,537.0]],"bottom":[["NBAS",-0.12342120129135571,-2.69838852988041,13.0,532.0],["SCN3A",-0.12278139101962302,-2.677935127590353,14.0,531.0]]}}}
{"prism_primary_logfold":{"corr":{"top":[["camicinal_BRD-K23248433-001-01-8::2.5::HTS",0.22529652264935143,-4.166679912239402,307]],"bottom":[["sulfamethazine_BRD-K11640013-236-10-1::2.5::HTS",-0.23937256991278927,-4.608006589430954,304],["emoxipin_BRD-K28982731-001-01-6::2.5::HTS",-0.2268857903061905,-4.183217460915143,304],["gadodiamide_BRD-K38140108-002-01-2::2.5::HTS",-0.20893729291829174,-3.6539790006564385,308]]},"para":{"top":[["tomelukast_BRD-K74765201-001-16-7::0.25::HTS",0.21600080975900157,-3.8757030175560865,308]],"bottom":[["algestone-acetophenide_BRD-A41774846-001-01-4::2.5::HTS",-0.2552297373426082,-5.257721171367656,309],["chloroquine_BRD-A91699651-316-10-9::2.5::HTS",-0.22512133347891114,-4.148933325742699,306],["sulfamethazine_BRD-K11640013-236-10-1::2.5::HTS",-0.22065283130363128,-3.979787337077491,304],["emoxipin_BRD-K28982731-001-01-6::2.5::HTS",-0.2213173511861837,-4.001205605435137,304]]}}}
{"prism_secondary_logfold":{"corr":{"top":[["AM-404_BRD-K55462201-001-07-3::2.5::HTS002",0.24392600626937067,-2.404742431951556,138]],"bottom":[["protirelin_BRD-A16997652-001-02-3::0.0390625::HTS002",-0.23221691462749788,-3.724504011045154,254],["MLN-8054_BRD-K83963101-001-06-9::0.00976562::HTS002",-0.2991606432678214,-4.795182301016778,201],["taltirelin_BRD-K93869735-001-01-1::0.00061034::HTS002",-0.23388531566723997,-3.6812921099059315,247]]},"para":{"top":[],"bottom":[["lomefloxacin_BRD-A75850590-213-01-0::2.5::HTS002",-0.2636133768385009,-3.740089025552028,197],["nitrocaramiphen_BRD-K28453807-003-11-2::0.625::HTS002",-0.2166700915605179,-3.26217535649179,251],["PRT062607_BRD-K53734668-003-02-0::0.00259518::HTS002",-0.24500172148227667,-4.141962037744682,257],["azilsartan_BRD-K81074237-001-02-3::0.0390625::HTS002",-0.22680345814720296,-3.584120438331907,255],["MLN-8054_BRD-K83963101-001-06-9::0.00976562::HTS002",-0.30352547352809667,-4.9259401850170805,201]]}}}
{"ccle_proteomics":{"corr":{"top":[["OBFC1_Q9H668",0.30182660735342937,-3.1152274356971295,121]],"bottom":[]},"para":{"top":[],"bottom":[]}}}
{"avana":{"corr":{"top":[["CALML4_91860",0.24438522743517185,-4.644690480792877,294],["SLC6A19_340024",0.2542701275009568,-4.993650977416046,294],["STAC2_342667",0.23906869220865515,-4.462939514837501,294]],"bottom":[["AP1G2_8906",-0.20542108093447298,-3.406222643973573,294],["ARSB_411",-0.1992343167870574,-3.229060524654609,294],["CDC40_51362",-0.25345609754819415,-4.9341616940730315,292],["EFNA2_1943",-0.20832043937296774,-3.491047536457909,294],["OSR2_116039",-0.23961003619989296,-4.481257707464889,294],["TMEM205_374882",-0.20076296435914717,-3.272349943325265,294]]},"para":{"top":[["CALML4_91860",0.21977018990531955,-3.83738192182547,294],["SLC6A19_340024",0.30055131640929433,-6.825856408671578,294],["STAC2_342667",0.22015809304319764,-3.8494353371763133,294]],"bottom":[["ADAMTS8_11095",-0.22268787131733395,-3.9285624767048697,294],["AP1G2_8906",-0.2015866255947108,-3.2958065441252384,294],["ARSB_411",-0.19936731730084492,-3.2328143502500195,294],["CDC40_51362",-0.2565522112646271,-5.045333658389448,292],["EFNA2_1943",-0.202008591143163,-3.3078592083624594,294],["OSR2_116039",-0.22840009688454754,-4.1105560111396855,294]]}}}
{"drive":{"corr":{"top":[["RGPD1&RGPD2_400966&729857",0.25814677126287716,-3.857335454464121,213]],"bottom":[]},"para":{"top":[["CA6_765",0.22700621272879937,-2.9981404087766252,207]],"bottom":[]}}}
{"achilles":{"corr":{"top":[["ANAPC15_25906",0.27891586968901366,-3.034343643127951,138],["NUP88_4927",0.29662909599875664,-3.385900069062392,138],["RNLS_55328",0.3101208810748642,-3.669175588427136,138],["CTC1_80169",0.3286267795379601,-4.080337239492442,138],["KATNAL1_84056",0.34303640805373464,-4.419244239149846,138]],"bottom":[["CPLX2_10814",-0.26726550621982276,-2.815338690583792,138],["KLHL31_401265",-0.27195687922780104,-2.902381230716634,138]]},"para":{"top":[["SLFN12L_100506736",0.2802650436746816,-3.060325007835647,138],["VASH1_22846",0.27389029218947164,-2.9387015232115887,138],["GMPR_2766",0.28045468058019013,-4.95024092431337,238],["OCIAD1_54940",0.31899257159826283,-3.862967617337136,138],["RNLS_55328",0.2804774580085842,-3.064427343368182,138],["GRXCR2_643226",0.2792404342717842,-3.040582018398821,138]],"bottom":[["ZNF772_400720",-0.24561566885533379,-3.8888260512236847,238]]}}}
{"ccle_rrbs_tss1kb":{"corr":{"top":[["IL31_12_122658746_122659746",0.7890486730117537,-114.77685267198848,538]],"bottom":[["ZNF460-AS1_19_57791702_57792702",-0.1620275758916067,-3.7887253018705613,537]]},"para":{"top":[["IL31_12_122658746_122659746",0.830494699473341,-137.5930727339586,538]],"bottom":[["ATF5_19_50431399_50432399",-0.144845307213144,-3.0042179986811877,514]]}}}
{"ccle_rrbs_tss_clusters":{"corr":{"top":[["IL31_2",0.546033288469949,-43.027075929683,546]],"bottom":[]},"para":{"top":[],"bottom":[]}}}
{"ccle_rrbs_cgi_clusters":{"corr":{"top":[],"bottom":[]},"para":{"top":[],"bottom":[]}}}
