{"depmap_hotspot":{"corr":{"top":[["APOL1",0.11242466705763057,-2.9590066519293887,11.0,829.0],["ARL11",0.123780014175736,-3.4905668388411097,11.0,829.0],["GTF3A",0.12730008544092372,-3.6647643913350265,8.0,832.0],["HP",0.15019581322205355,-4.908552546968901,8.0,832.0],["SPON2",0.1303206775717391,-3.8178284126712674,25.0,815.0],["TATDN3",0.1575806475462397,-5.351316977546277,12.0,828.0]],"bottom":[]},"para":{"top":[["WFDC8",0.10023819690814605,-2.7332054927307774,17.0,823.0]],"bottom":[["CTLA4",-0.11319250479805576,-3.282058799717855,21.0,819.0],["TRIM73",-0.07334461603042237,-1.7735319165053105,9.0,831.0],["ZNF487",-0.10976597933923218,-3.1313810517027547,23.0,817.0]]}}}
{"depmap_damaging":{"corr":{"top":[["ENTPD5",0.11343162009413364,-3.001244701452244,8.0,831.0],["GABRA2",0.12521915585382618,-3.557581722429526,11.0,828.0]],"bottom":[]},"para":{"top":[],"bottom":[]}}}
{"depmap_gene_tpm":{"corr":{"top":[["OR52J3_119679",0.32093414637278256,-20.754895459049923,836]],"bottom":[]},"para":{"top":[],"bottom":[]}}}
{"avana":{"corr":{"top":[["C15orf62_643338",0.20109532290875254,-4.979712732558847,473],["TMEM158_25907",0.19681434149581753,-4.789773695689232,473]],"bottom":[]},"para":{"top":[],"bottom":[["CASC1_55259",-0.18968118043304724,-4.48228593498027,473]]}}}
{"ccle_gene_tpm":{"corr":{"top":[["OR52J3_ENSG00000205495.1",0.32093928212044853,-20.683988463666726,833],["RPL21P1_ENSG00000214760.2",0.2789343057723013,-15.625481449722788,833],["RNU4-34P_ENSG00000222363.1",0.3671705722027433,-27.257200390732766,833],["SNRPBP1_ENSG00000223550.1",0.29901067281173327,-17.939660902006118,833],["AP000936.5_ENSG00000225236.1",0.2959886138988104,-17.579384957406162,833],["OR52J2P_ENSG00000230261.1",0.3032936909243422,-18.457615979385984,833],["RP11-359J6.1_ENSG00000235819.1",0.33571014549223654,-22.664947430810543,833],["RPL36AP10_ENSG00000237959.1",0.27734409758726625,-15.450060904516022,833],["PSMC1P6_ENSG00000240255.1",0.38390566008259847,-29.9170169704315,833],["RN7SL148P_ENSG00000244066.2",0.3343977043429026,-22.484510919428196,833],["TUBB8P4_ENSG00000250788.1",0.34119858104212486,-23.42898683272504,833],["RNA5SP137_ENSG00000252642.1",0.31528601497175635,-19.954331569302894,833],["RP11-313F23.4_ENSG00000255652.2",0.32240855742146507,-20.876185858389114,833],["RP13-7D7.1_ENSG00000256614.1",0.3299767606866209,-21.88309834594236,833],["RP11-313F23.2_ENSG00000256986.1",0.34378679646726557,-23.794635620195212,833],["RN7SL847P_ENSG00000265319.1",0.3817763120547496,-29.56990753146972,833]],"bottom":[]},"para":{"top":[],"bottom":[]}}}
{"ccle_rrbs_tss_clusters":{"corr":{"top":[],"bottom":[["FBLIM1_9",-0.19684158621992148,-3.9860119517824617,384]]},"para":{"top":[],"bottom":[]}}}
{"ccle_rrbs_cgi_clusters":{"corr":{"top":[["8_19672263_19677236-3",1.0,-323.0051853474518,840]],"bottom":[]},"para":{"top":[["8_19672263_19677236-3",1.0,-323.0051853474518,840]],"bottom":[]}}}
