{"depmap_hotspot":{"corr":{"top":[["ANAPC2",0.18535495545356595,-4.277199390842612,24.0,446.0],["AP003062.1",0.1612924073746955,-3.3493304557878187,11.0,459.0],["BROX",0.15466028684911967,-3.1149746560823046,10.0,460.0],["CBLB",0.1863189456064092,-4.316946866855502,23.0,447.0],["CCDC7",0.1704318347419763,-3.6873115424292378,11.0,459.0],["CPED1",0.16038861516417868,-3.316856692777114,37.0,433.0],["CYP21A2",0.1747316704112351,-3.8524075546925998,15.0,455.0],["DNAH9",0.17247867280306223,-3.765413286729715,104.0,366.0],["GPR115",0.177598949940924,-3.9646815173586902,21.0,449.0],["H1FNT",0.15660689103912379,-3.1828167055915215,13.0,457.0],["KLHDC7B",0.15026375758890737,-2.964619455701847,10.0,460.0],["LINC00955",0.15690146770844698,-3.1931513237444173,10.0,460.0],["MAP1B",0.19246315149229568,-4.5750230650950705,57.0,413.0],["METTL13",0.172852636031226,-3.7797784919259807,19.0,451.0],["NEU4",0.15557281129967743,-3.1466801014301082,20.0,450.0],["NPHS2",0.17868590982070595,-4.007701902750163,14.0,456.0],["PCDHGB2",0.16503411274609656,-3.4855842889943776,35.0,435.0],["RBM43",0.16341638993879248,-3.42631628088367,16.0,454.0],["SCN1A",0.1627134407312,-3.400733015371227,53.0,417.0],["SLFN11",0.17849373519384273,-4.0000775219468,40.0,430.0],["SYNGR4",0.18259253550829746,-4.164409436987086,15.0,455.0]],"bottom":[["BCL2L11",-0.09044119105649771,-1.3005737383603082,9.0,461.0],["HIST2H2AC",-0.13258518685913068,-2.399709073783154,24.0,446.0],["IL19",-0.09433233726415412,-1.3879084886942124,8.0,462.0],["NPM1",-0.10976684312165481,-1.762283892882391,9.0,461.0],["SNRPN",-0.11415115658927114,-1.8768948571745003,14.0,456.0],["VBP1",-0.09749563146999364,-1.4609818090466238,9.0,461.0]]},"para":{"top":[["AP003062.1",0.1524664277244515,-3.3168152472016366,11.0,459.0],["APEX2",0.11608228091250603,-2.222406151000619,8.0,462.0],["BROX",0.15308321832760705,-3.3374422672183726,10.0,460.0],["CCDC7",0.16358923662933236,-3.701496862139571,11.0,459.0],["CCDC89",0.1409895313257555,-2.944494492684709,9.0,461.0],["CENPH",0.11702825629748674,-2.247798176289258,9.0,461.0],["CKB",0.14186994129391517,-2.9722464488950084,10.0,460.0],["CPXCR1",0.11960828835937987,-2.3177266956282265,10.0,460.0],["CSN2",0.14329908444526807,-3.0174605397370873,10.0,460.0],["CYP21A2",0.16444033042038056,-3.7321727188742178,15.0,455.0],["GTF2H2C",0.13280037898725264,-2.694328548322144,10.0,460.0],["H1FNT",0.14621424003656683,-3.111104443609354,13.0,457.0],["HLA-C",0.13939642430118904,-2.894906965493353,10.0,460.0],["IPPK",0.14175977465112172,-2.968924504095519,12.0,458.0],["KLHDC7B",0.14170504016106675,-2.96705438576162,10.0,460.0],["LCE3D",0.13699303516034778,-2.8206760056390694,8.0,462.0],["LINC00955",0.15440242739039434,-3.3819833483329953,10.0,460.0],["METTL13",0.1649590614063268,-3.750952430600816,19.0,451.0],["NIPAL3",0.11362940651393225,-2.157578912033114,8.0,462.0],["NPHS2",0.16974522094551026,-3.9248321260375536,14.0,456.0],["NUBPL",0.13076659834878895,-2.6341394963150666,10.0,460.0],["OR2L5",0.11933345313796585,-2.3102269857644018,10.0,460.0],["OSER1",0.14747180862808915,-3.1516004662520025,9.0,461.0],["PDGFA",0.11511829959233487,-2.1968871133288888,9.0,461.0],["PLSCR5",0.1099500949160715,-2.062426427949835,8.0,462.0],["PSAT1",0.14098953132575548,-2.944494492684709,9.0,461.0],["RBM43",0.1508643329745312,-3.263648022402625,16.0,454.0],["RNF40",0.17088583967651866,-3.9672830371942296,21.0,449.0],["RSRC2",0.11056331351571497,-2.0781114848209166,8.0,462.0],["SLC30A1",0.11604433920695396,-2.221486679677658,9.0,461.0],["SLC30A6",0.1541018340904002,-3.3715900036589996,8.0,462.0],["SMARCB1",0.14035287909070487,-2.924584062391388,9.0,461.0],["STMN4",0.1449830771638003,-3.0711418822323404,9.0,461.0],["SUMF1",0.13620221632251805,-2.7969488056289284,13.0,457.0],["SYNGR4",0.1747742589786317,-4.112595118065582,15.0,455.0],["TAF1A",0.1271937404704067,-2.5302858484607307,10.0,460.0],["THEM6",0.14133679618123765,-2.9553871234099502,9.0,461.0],["TM2D3",0.12337958224826315,-2.421882904742314,8.0,462.0],["TMEM255A",0.13190332078330713,-2.667496184066825,8.0,462.0],["ZIC5",0.129389124524769,-2.5936305958801227,8.0,462.0],["ZMPSTE24",0.11900365087226902,-2.301245905616481,10.0,460.0]],"bottom":[["BCL2L11",-0.08218601579744367,-1.4242045159104082,9.0,461.0],["CGRRF1",-0.10625129659865863,-1.969444900538006,10.0,460.0],["CIB2",-0.10197825312070652,-1.8648155166943663,8.0,462.0],["CKAP2L",-0.10548900347990472,-1.9507244455436021,13.0,457.0],["GPAT2",-0.10000034798444751,-1.8177984155357614,11.0,459.0],["HIST2H2AC",-0.13977452649692598,-2.907242943596271,24.0,446.0],["HMG20A",-0.09645928572391543,-1.7348177003219096,8.0,462.0],["IL19",-0.09995463174188313,-1.8165054146232693,8.0,462.0],["KATNB1",-0.11143795336776838,-2.1008318152107925,11.0,459.0],["KRT80",-0.10122824631880381,-1.8470873219359962,12.0,458.0],["LMO4",-0.09053072193377694,-1.6014669843356093,10.0,460.0],["NDUFS3",-0.08382698257126026,-1.4579967813468961,8.0,462.0],["NPBWR2",-0.10577581525109175,-1.9578594513767642,14.0,456.0],["NPM1",-0.1121086708448228,-2.118036284982047,9.0,461.0],["NPRL2",-0.13631826982135203,-2.800280559053279,10.0,460.0],["OR7E24",-0.10535180131042922,-1.9472894607886642,12.0,458.0],["SARS",-0.08765068720003731,-1.539001309063067,12.0,458.0],["SLC28A2",-0.1084788477172622,-2.0255212190599976,16.0,454.0],["SNRPN",-0.12219976186264198,-2.389366322036502,14.0,456.0],["SULT1A1",-0.10708860059203672,-1.9906504346164418,18.0,452.0],["TRMT12",-0.11349833678168916,-2.1544351149079883,12.0,458.0],["TRMT13",-0.13576859937852398,-2.7835715419991014,10.0,460.0],["VBP1",-0.08774225348515818,-1.540804622145724,9.0,461.0]]}}}
{"depmap_damaging":{"corr":{"top":[["ECD",0.1153193149915309,-1.9047744267625524,18.0,451.0],["SLFN11",0.16066148239326136,-3.3205554292921944,10.0,459.0],["USP40",0.11461561676949328,-1.8860072698432109,11.0,458.0]],"bottom":[["UBXN7",-0.06799423019219006,-0.8492894838427536,8.0,461.0]]},"para":{"top":[["KALRN",0.14179117736767546,-2.9651499179578433,12.0,457.0],["LRP2",0.13689342449483172,-2.8137052622487273,16.0,453.0],["SERPIND1",0.11030381073632264,-2.0685412847413964,9.0,460.0],["SLFN11",0.15002349722684027,-3.2301250404885473,10.0,459.0],["TCF20",0.1264429998861636,-2.504827619754107,9.0,460.0],["USP40",0.11014815648913305,-2.064706791467861,11.0,458.0]],"bottom":[]}}}
{"prism_primary_logfold":{"corr":{"top":[["dexfosfoserine_BRD-K30019776-003-01-5::2.5::HTS",0.21753319702452617,-3.160544540324907,240],["dianhydrogalactitol_BRD-K68502831-001-01-2::2.5::HTS",0.2146861550861568,-3.0888563671387437,240],["diacerein_BRD-K69122748-001-10-1::2.5::HTS",0.22918574093162877,-3.6510896879790677,255],["1-((Z)-3-Chloroallyl)-1,3,5,7-tetraazaadamantan-1-ium_BRD-K88956297-003-01-9::2.5::HTS",0.20003536340315817,-2.830640949357309,250],["raltitrexed_BRD-K89839824-001-05-3::2.5::HTS",0.23716640879556122,-3.8805381842471682,255],["16,16-dimethylprostaglandin-e2_BRD-K92301463-001-05-5::0.25::HTS",0.199045336811557,-2.863783177705407,256]],"bottom":[]},"para":{"top":[["triapine_BRD-K01669786-001-02-2::2.5::HTS",0.22036744840354275,-3.232820750023939,240],["TW-37_BRD-K28360340-001-08-3::2.31::HTS",0.2008771830918665,-2.754001021434278,240],["sodium-glucoheptonate_BRD-K35952844-236-01-6::2.5::HTS",0.21547692653658823,-3.219743072277989,250],["broxaldine_BRD-K36222532-001-01-8::2.5::HTS",0.22436064660516788,-3.3842567196514617,244],["diacerein_BRD-K69122748-001-10-1::2.5::HTS",0.21596134937070566,-3.2880671527438836,255],["dequalinium_BRD-K77685957-300-09-1::2.5::HTS",0.23584763069622094,-3.7760600307837353,250],["raltitrexed_BRD-K89839824-001-05-3::2.5::HTS",0.22058647258327696,-3.412617590093667,255],["16,16-dimethylprostaglandin-e2_BRD-K92301463-001-05-5::0.25::HTS",0.21203335726197173,-3.195048309992441,256]],"bottom":[["edrophonium_BRD-K81128206-003-24-4::2.5::HTS",-0.20588808789947294,-3.0459686661957326,257]]}}}
{"prism_secondary_logfold":{"corr":{"top":[["methocarbamol_BRD-A31521121-001-26-4::2.5::HTS002",0.2332405595818452,-2.4968945795306254,158],["prednisolone-tebutate_BRD-A53151380-001-01-2::0.625::HTS002",0.23384093458312122,-2.507881500671951,158],["tamibarotene_BRD-K36627727-001-05-4::0.625::MTS010::PROS005_PR500",0.251844481382915,-3.69028658197877,213],["Y-27632_BRD-K44084986-300-08-4::0.625::HTS002",0.28832519839616744,-4.081816282182795,181],["monobenzone_BRD-K54262262-001-09-0::0.00061034::HTS002",0.25002388647228524,-2.814321750416064,158],["BW-180C_BRD-K57927309-001-01-7::0.0024414::HTS002",0.23747932843232417,-3.419706931581105,220],["idasanutlin_BRD-K62627508-001-01-5::0.0024414::HTS002",0.25586455087628124,-3.874422694646768,218],["PF-03814735_BRD-K68747584-001-02-0::0.0024414::HTS002",0.2415960746494125,-3.3856995174034505,210],["vandetanib_BRD-K77625799-001-07-7::0.0390625::HTS002",0.268822221253223,-3.8221574568819676,194],["decitabine_BRD-K79254416-001-22-6::0.00976562::HTS002",0.3010802858513488,-4.135654163741132,168],["erdafitinib_BRD-K84868168-001-01-0::0.156250001::MTS006",0.2667029367259136,-4.209529896046618,220]],"bottom":[["piperine_BRD-K59522102-001-14-6::2.5::HTS002",-0.21528408610962568,-2.9146476146253155,223],["ONX-0914_BRD-K60446698-001-01-2::0.00061034::HTS002",-0.22407015915156214,-3.06406184693303,218]]},"para":{"top":[["TH-302_BRD-K20958582-001-01-4::0.0024414::HTS002",0.2358390569513135,-2.9905799162968463,191],["tamibarotene_BRD-K36627727-001-05-4::0.625::MTS010::PROS005_PR500",0.23289474324590811,-3.213218597511769,213],["Y-27632_BRD-K44084986-300-08-4::0.625::HTS002",0.3021513155916294,-4.447760456356074,181],["idasanutlin_BRD-K62627508-001-01-5::0.0024414::HTS002",0.23922767939915687,-3.436973819321366,218],["vandetanib_BRD-K77625799-001-07-7::0.0390625::HTS002",0.27004067008157273,-3.853422577807329,194],["decitabine_BRD-K79254416-001-22-6::0.00976562::HTS002",0.28562873778289694,-3.757668802538165,168],["erdafitinib_BRD-K84868168-001-01-0::0.156250001::MTS006",0.26321731292650286,-4.1103587286251955,220],["aphidicolin_BRD-K85140930-001-12-7::0.0390625::HTS002",0.276584762824536,-4.005583739661377,193],["istradefylline_BRD-K87774949-001-03-9::0.15625::HTS002",0.26162281622731703,-2.929942521395815,151]],"bottom":[["lafutidine_BRD-A67516570-001-02-8::0.15625::HTS002",-0.21564143637372848,-2.878222717490711,219],["ONX-0914_BRD-K60446698-001-01-2::0.00061034::HTS002",-0.2318443856914454,-3.2523178334580107,218]]}}}
{"ccle_proteomics":{"corr":{"top":[],"bottom":[["SLC25A33_Q9BSK2",-0.3082054724287274,-2.9536996963992905,109]]},"para":{"top":[["KAZN_Q674X7",0.3252096131188746,-4.233438340755678,147]],"bottom":[["ZNF407_Q9C0G0",-0.266665424531805,-2.6997711963875295,132],["SLC25A33_Q9BSK2",-0.30606246847847773,-2.9173253019379985,109],["TCHP_Q9BT92",-0.3278685133077522,-3.3532411044305004,111]]}}}
{"avana":{"corr":{"top":[["ANXA4_307",0.22499749931346102,-3.678138460360363,267],["GUCA2A_2980",0.20696852379790828,-3.176112607009307,267],["MT1A_4489",0.2289139092745475,-3.7926502271727283,267],["TEKT2_27285",0.1941294312433407,-2.8432680296486383,267],["UGT8_7368",0.2143038968374675,-3.3754310271701384,267]],"bottom":[["COL5A1_1289",-0.2121223684548572,-3.315451407710706,267],["HIGD1B_51751",-0.2443044742928719,-4.261939721109577,267],["KCNK9_51305",-0.2159512108020082,-3.421118996441826,267],["MVB12A_93343",-0.2237893181843957,-3.643209485644535,267],["NECAB1_64168",-0.2342654887236866,-3.9523247198832543,267],["OXT_5020",-0.24245037216031415,-4.2037584870681775,267],["UGCG_7357",-0.24073773139661656,-4.1504197092674895,267]]},"para":{"top":[["ANXA4_307",0.2322780316307181,-3.8925919713347956,267],["CSNK2A2_1459",0.2018674756830792,-3.012191496414096,264],["GPR183_1880",0.2153739784752307,-3.405070683214923,267],["GUCA2A_2980",0.21865487114253085,-3.496846293595111,267],["MT1A_4489",0.20704413472633482,-3.178132919961895,267],["RLN1_6013",0.24386154626051743,-4.247999397816002,267]],"bottom":[["HIGD1B_51751",-0.22559781405202808,-3.6955632638796554,267],["IL27RA_9466",-0.21631998190890445,-3.43139361563514,267],["KCNK9_51305",-0.2078390536423007,-3.1994159979327663,267],["NECAB1_64168",-0.2432366566742678,-4.228376351785858,267],["UGCG_7357",-0.2539911352701666,-4.57334747045543,267],["ZNRF4_148066",-0.22000832076872637,-3.535102682975121,267]]}}}
{"drive":{"corr":{"top":[["CITED2_10370",0.23522178853084863,-2.8028828229257723,178],["MRPL45_84311",0.24112921471037996,-2.8697912201347187,174]],"bottom":[["MRPL45P2_653479",-0.23516212185544838,-2.7479396838985592,174]]},"para":{"top":[["EXT1_2131",0.2522818056087133,-3.213152060867818,181],["PRR5L_79899",0.24380322020015016,-2.925366897543458,174],["MRPL45_84311",0.2514450803147681,-3.087539758075518,174]],"bottom":[["TBC1D21_161514",-0.22956635512453288,-2.6363654247229733,174],["JUP_3728",-0.2759431235608643,-3.6416186920175515,174],["MRPL45P2_653479",-0.22233255840868427,-2.49595032513559,174]]}}}
{"achilles":{"corr":{"top":[["FGFBP3_143282",0.33031406782015027,-3.53287118342259,116],["CMYA5_202333",0.2947894112547664,-2.88047735395832,116],["ZC3H7B_23264",0.3435674580400974,-3.797373758790875,116],["SLC46A3_283537",0.35990241332109324,-4.139985218395356,116],["DEXI_28955",0.29946577312681005,-2.9618018914779873,116],["LRRC36_55282",0.2993089867102864,-2.9590534281908605,116],["ELOC_6921",0.3051824630268663,-5.1982202109658555,211],["ZNF616_90317",0.3427527221453935,-3.780770352599071,116]],"bottom":[["ROPN1B_152015",-0.27500791594385,-2.551132743447938,116],["RPL21P44_402176",-0.26298909701737905,-2.362320474983989,116],["IER3IP1_51124",-0.3228264350789807,-3.3886186526597175,116]]},"para":{"top":[["RETREG3_162427",0.28993512708851427,-2.797476190687779,116],["RAB3GAP1_22930",0.2986600027453501,-2.9476929278492756,116],["ZC3H7B_23264",0.34037575942401616,-3.732589676960661,116],["SLC46A3_283537",0.37277345785925853,-4.423320761865932,116],["DEXI_28955",0.31645899287855267,-3.268828506587452,116],["GOLGA7_51125",0.29462504030812786,-2.8776433141230644,116],["PSPC1_55269",0.3003399918199451,-2.977154849097072,116],["LGALS14_56891",0.2944344737510831,-2.8743596885045606,116],["RTN4_57142",0.361942726921725,-4.184101008184208,116],["ELOC_6921",0.3102029890218918,-5.359598849609479,211],["UPP1_7378",0.2898251736050853,-2.7956127547866196,116],["SNX25_83891",0.30118917662433164,-2.9921135575462947,116],["FAM213A_84293",0.3152259300119092,-3.2459335708251027,116],["ZNF616_90317",0.321813897969228,-3.3693939460552937,116]],"bottom":[["ROPN1B_152015",-0.30837041067786575,-3.1204142153942276,116],["RPL21P44_402176",-0.24480945314063574,-2.092389402501965,116],["ACR_49",-0.24475532664220567,-3.478757967468159,211],["IER3IP1_51124",-0.3117871369679127,-3.1825980069954425,116],["SLC44A4_80736",-0.2918104900035361,-2.82937193141909,116],["PDLIM7_9260",-0.2605955418250117,-2.3257133835266397,116]]}}}
{"ccle_rrbs_tss1kb":{"corr":{"top":[["IQSEC2_23_53310796_53311796",0.7018367359876101,-69.33687245630104,464]],"bottom":[["MBOAT7_19_54693733_54694733",-0.19065045149493567,-4.447244591254056,464]]},"para":{"top":[["LOC101929622_8_37574096_37575096",0.3513910712729333,-10.414715530675176,334],["IQSEC2_23_53310796_53311796",0.7200854870616334,-74.61393636875499,464]],"bottom":[]}}}
{"ccle_rrbs_tss_clusters":{"corr":{"top":[],"bottom":[]},"para":{"top":[["LOC101929622",0.35498445608248375,-10.807239060735533,340],["IQSEC2_5",1.0,-323.0051853474518,470]],"bottom":[]}}}
{"ccle_rrbs_cgi_clusters":{"corr":{"top":[],"bottom":[]},"para":{"top":[],"bottom":[["23_65039896_65044304-1",-0.23282806480277193,-2.595417058285628,166]]}}}
