{"depmap_hotspot":{"corr":{"top":[["AC009365.3",0.13428072353770013,-4.036089110753404,8.0,835.0],["AL390778.1",0.15928291358575972,-5.4737551354914435,8.0,835.0],["C2orf91",0.13346189203170453,-3.9929374307651844,9.0,834.0],["CDC23",0.2061009397925355,-8.812461058350946,21.0,822.0],["CNPY2",0.12482464584036645,-3.5527129347938633,12.0,831.0],["CNTD2",0.14778554886825354,-4.783569749117167,10.0,833.0],["ERVW-1",0.15806631985196243,-5.398356186740753,36.0,807.0],["GJB6",0.15591836816475957,-5.266608596175087,13.0,830.0],["HIST1H2BH",0.1463358221571435,-4.700076054226605,13.0,830.0],["ITGB3BP",0.15810685328639326,-5.400859201248503,8.0,835.0],["LCE2C",0.24226555169222747,-11.998696756669364,8.0,835.0],["OR56B3P",0.16001134947717355,-5.519169895922925,10.0,833.0],["SOSTDC1",0.24762687363778457,-12.518125337852855,10.0,833.0],["TARM1",0.12236053579494614,-3.432101055505924,11.0,832.0],["TRIM77",0.1532862077271877,-5.1075447628202,32.0,811.0]],"bottom":[]},"para":{"top":[["AQP1",0.12157582054561343,-3.6779733864052275,18.0,825.0],["C14orf119",0.0852480168402189,-2.173893356988043,8.0,835.0],["C20orf173",0.09264775612307227,-2.4439602377349923,8.0,835.0],["C5orf55",0.09073489834927344,-2.372391037077587,8.0,835.0]],"bottom":[["BTNL8",-0.09389521739860619,-2.49164429757464,20.0,823.0]]}}}
{"depmap_damaging":{"corr":{"top":[["ERVW-1",0.139873640382734,-4.3329166921562345,11.0,831.0],["GPS2",0.18603770740980183,-7.268117822021111,11.0,831.0],["POT1",0.12836442028291933,-3.725996676114064,9.0,833.0],["RAB3C",0.18176032451124627,-6.9616228251521175,25.0,817.0],["RARS2",0.17307216349439752,-6.361115315800601,9.0,833.0],["SNAPC4",0.1626033167843751,-5.676350689452046,8.0,834.0],["ZNF521",0.11150439659687773,-2.923825211340307,11.0,831.0]],"bottom":[]},"para":{"top":[],"bottom":[]}}}
{"prism_secondary_logfold":{"corr":{"top":[],"bottom":[["iobenguane_BRD-K43860855-065-11-9::10::HTS002",-0.24379586103533926,-3.2550605621292727,197]]},"para":{"top":[],"bottom":[]}}}
{"ccle_proteomics":{"corr":{"top":[],"bottom":[["OAF_Q86UD1",-0.3499021357514788,-6.214617077781621,193]]},"para":{"top":[],"bottom":[["TRANK1_O15050",-0.3045781861550054,-4.045412221600662,160]]}}}
{"depmap_copy_number":{"corr":{"top":[["GJA9-MYCBP_100527950",0.3271840434297882,-21.731799584183484,842],["LINC01685_105378656",0.32860689456533787,-21.92434764657864,842],["LOC105378663_105378663",0.32683629275691056,-21.68489492235247,842],["MYCBP_26292",0.3271840434297882,-21.731799584183484,842],["HEYL_26508",0.263818404916038,-14.147029996033087,842],["NDUFS5_4725",0.3245406597502833,-21.376781613151,842],["RHBDL2_54933",0.3050594961846287,-18.86686957359096,842],["RRAGC_64121",0.3270243478816134,-21.710252279643193,842],["AKIRIN1_79647",0.3222103115453927,-21.066703348963784,842],["GJA9_81025",0.32683629275691056,-21.68489492235247,842],["NT5C1A_84618",0.263818404916038,-14.147029996033087,842]],"bottom":[]},"para":{"top":[],"bottom":[]}}}
{"depmap_gene_tpm":{"corr":{"top":[["MMP26_56547",0.3090288935151782,-19.297106550543116,839],["GRIK1_2897",0.38330093606503157,-30.02674942000042,839],["OR51L1_119682",0.33035860186853006,-22.086755037971223,839],["OR51T1_401665",0.32968872552283846,-21.995707675871575,839],["OR51H1_401663",0.32495202719166716,-21.35834069535745,839],["OR51A4_401666",0.36920316928479996,-27.76446682173777,839],["ZNF705B_100132396",0.3234519733990835,-21.158831756352004,839],["ZNF705G_100131980",0.3562965190723638,-25.789402648820918,839],["OR52R1_119695",0.34575816781359453,-24.242874863649643,839]],"bottom":[]},"para":{"top":[],"bottom":[]}}}
{"achilles":{"corr":{"top":[["SYCP2_10388",0.2572085596622325,-3.958354139612136,221]],"bottom":[]},"para":{"top":[],"bottom":[]}}}
{"ccle_rrbs_tss1kb":{"corr":{"top":[["UFSP2_4_186347139_186348139",0.4158602908707422,-30.627637732995154,717],["ITPRIP_10_106098251_106099251",0.6824605467911186,-113.28810695006331,824],["LOC100506476_14_74253062_74254062",0.43131733124582144,-38.338279082442504,833]],"bottom":[]},"para":{"top":[["ITPRIP_10_106098251_106099251",0.6718824172199671,-108.55787821630857,824]],"bottom":[]}}}
{"ccle_gene_tpm":{"corr":{"top":[["GRIK1_ENSG00000171189.12",0.3818476771964836,-29.68493736298529,836],["OR52R1_ENSG00000176937.8",0.3464065669047017,-24.25230222349077,836],["OR51A8P_ENSG00000197984.2",0.3421158720957076,-23.640042217010198,836],["OR51H2P_ENSG00000198217.3",0.3593798824183546,-26.16219338688868,836],["OR51A5P_ENSG00000225003.1",0.3522787861578144,-25.10578552718818,836],["RP4-694A7.3_ENSG00000225167.1",0.35623225431731886,-25.690621276945524,836],["AP000459.7_ENSG00000227716.1",0.38930164266667994,-30.916004059682862,836],["OR52Y1P_ENSG00000231070.1",0.3774668265910588,-28.976123229100864,836],["KCND3-IT1_ENSG00000232558.1",0.4180360782378943,-35.967152739593374,836],["RP5-951N9.1_ENSG00000249028.2",0.431950791362956,-38.59548339188225,836],["RP11-55C6.1_ENSG00000249729.2",0.444583285830909,-41.09005190923248,836],["RP11-272D12.1_ENSG00000259650.1",0.473984268468949,-47.31832247480307,836],["AC009134.1_ENSG00000262116.1",0.36642581330013946,-27.237113644499193,836],["RP11-157E16.1_ENSG00000270207.1",0.3414308331283684,-23.54317155112352,836]],"bottom":[]},"para":{"top":[],"bottom":[]}}}
{"ccle_rrbs_tss_clusters":{"corr":{"top":[["ITPRIP_2",0.5173851333318072,-42.882213867424454,618],["ELMSAN1_5",0.43702716499494176,-39.90925946234138,843]],"bottom":[["ATP6V0E1_1",-0.2635415068434988,-9.640414733361187,561],["FAM85B_1",-0.2122409923688485,-5.34727221978615,459],["BRMS1_2",-0.21014547394522753,-5.333309689233507,467],["LOC105374454_1",-0.21658998991981876,-4.77488080403862,388],["LOC105374454_2",-0.33630431788590326,-11.093395130743371,392]]},"para":{"top":[],"bottom":[]}}}
{"ccle_rrbs_cgi_clusters":{"corr":{"top":[["1_226067605_226070251-2",0.3765076785894041,-28.95617688701366,840],["10_106095595_106100556-3",1.0,-323.0051853474518,843],["10_106095595_106100556-2",0.5173851333318072,-42.882213867424454,618],["14_74251387_74256188-3",0.43702716499494176,-39.90925946234138,843]],"bottom":[["11_66110251_66114803-2",-0.21014547394522753,-5.333309689233507,467],["2_87567197_87571617-2",-0.21408879719174342,-8.978698583256188,796],["3_51428384_51432737-3",-0.21019492289289957,-9.075508853455027,836],["13_21560117_21562767-3",-0.22833247356158917,-9.89811928939199,775],["5_172408691_172413161-1",-0.2635415068434988,-9.640414733361187,561]]},"para":{"top":[["10_106095595_106100556-3",1.0,-323.0051853474518,843]],"bottom":[]}}}
