{"depmap_hotspot":{"corr":{"top":[["ABCD3",0.2868919835331669,-16.652898578646884,14.0,826.0],["APBA3",0.20378063298151486,-8.598125915612671,41.0,799.0],["AQP12B",0.21485990289863408,-9.502725995191835,10.0,830.0],["ATP5A1",0.20827981417473185,-8.959454573051083,27.0,813.0],["CACNB3",0.22660807466992525,-10.516978908316268,24.0,816.0],["CAPZA2",0.23502682888345136,-11.279194591459795,16.0,824.0],["CBLL1",0.24052296532825515,-11.792963766001613,26.0,814.0],["CCDC19",0.18710247631995755,-7.329569896844318,34.0,806.0],["CD8A",0.21111673529720995,-9.191511802006776,11.0,829.0],["CDK11B",0.1846606954784884,-7.153107749823043,31.0,809.0],["CNOT4",0.20974012231295652,-9.078497028088847,32.0,808.0],["COPS5",0.23612338444087277,-11.380674076398913,18.0,822.0],["ENC1",0.22134203554837317,-10.055279325422719,25.0,815.0],["FAM71F1",0.1993136423644939,-8.247465570473219,19.0,821.0],["FBXL5",0.18500903366673102,-7.178137996676508,30.0,810.0],["FOPNL",0.20386203842529693,-8.604590836452212,11.0,829.0],["GPR82",0.21432890851135142,-9.458228934149048,12.0,828.0],["GXYLT1",0.18878550258894017,-7.452565990414879,31.0,809.0],["HAPLN2",0.25191843366264816,-12.899422999724132,17.0,823.0],["HMX2",0.24827079102854252,-12.539152617987284,20.0,820.0],["HNRNPLL",0.2622225790736666,-13.948535648969097,16.0,824.0],["HSPA4L",0.21709973862682064,-9.691697364224488,25.0,815.0],["KLF8",0.23475216249790998,-11.253855646392571,21.0,819.0],["MAF",0.19179766013956637,-7.675490607386774,26.0,814.0],["MGARP",0.21956313498910152,-9.901915295433483,12.0,828.0],["NDUFA9",0.22981293030833072,-10.803628429662536,19.0,821.0],["NUPL2",0.2520312132480768,-12.91065409478007,23.0,817.0],["OR1B1",0.18562513389182858,-7.222525354080313,31.0,809.0],["OR5M1",0.19552018518416825,-7.95596294825605,29.0,811.0],["PALM2-AKAP2",0.19286364880818538,-7.755244142008041,35.0,805.0],["PCED1A",0.20282536404299253,-8.52246174011563,27.0,813.0],["PNPLA8",0.21020385831651425,-9.11648175514651,43.0,797.0],["PTPN2",0.28903519027146796,-16.900963947391954,14.0,826.0],["RBM25",0.21762268488986808,-9.73611464331332,44.0,796.0],["RORB",0.19004740568205075,-7.545520146003772,32.0,808.0],["RPL27A",0.1944732962211399,-7.876528146819125,11.0,829.0],["SENP8",0.2093975062725733,-9.05048951410287,13.0,827.0],["SLC25A4",0.1966848344046824,-8.044846707094205,14.0,826.0],["SOX18",0.24772583260801542,-12.485823054954546,17.0,823.0],["SPACA3",0.18586117821743045,-7.239570873620957,15.0,825.0],["SPRED2",0.21087772728423076,-9.171834715462007,30.0,810.0],["SULT1A2",0.19524448281679138,-7.935001104745832,13.0,827.0],["TMEM17",0.1874290808647328,-7.353350881950989,12.0,828.0],["TMIGD1",0.18931341927769407,-7.4913767270127956,12.0,828.0],["TMOD3",0.2258980264544074,-10.454051916672706,22.0,818.0],["TSC22D2",0.19112796263544993,-7.625616804838025,32.0,808.0],["TUBA3C",0.20181192757475197,-8.44259235089013,30.0,810.0],["UBL7",0.22969997360932773,-10.793452145761728,20.0,820.0],["UHRF2",0.1952364909801881,-7.934393931834152,33.0,807.0],["XRCC4",0.19290076633771092,-7.758029275632994,12.0,828.0],["YTHDF2",0.23065148175201095,-10.879341181321731,26.0,814.0]],"bottom":[]},"para":{"top":[["PGP",0.10616583724129734,-2.9772446802940293,18.0,822.0]],"bottom":[["ELF5",-0.09183242536157805,-2.4074216807802857,16.0,824.0]]}}}
{"depmap_damaging":{"corr":{"top":[["ANKHD1",0.1967451940721481,-8.040649824374945,12.0,827.0],["APBA1",0.3810044116966093,-29.650602675576838,8.0,831.0],["C12orf60",0.20484044657079473,-8.67294704623247,12.0,827.0],["C2CD5",0.211813669337661,-9.23880714900839,10.0,829.0],["DCLRE1A",0.24672408183078398,-12.374238323197043,9.0,830.0],["DOCK9",0.18299777480551982,-7.026632825550378,14.0,825.0],["IL1R2",0.23239224982862983,-11.025154000668785,11.0,828.0],["LPHN2",0.23267871873530332,-11.05126632392791,19.0,820.0],["PAXIP1",0.2645317145270148,-14.174053668824879,9.0,830.0],["RBM25",0.18844481141062416,-7.419481877866194,13.0,826.0],["RFX6",0.19432377296024442,-7.856614337977969,11.0,828.0],["RGL2",0.2636998670260273,-14.086877015350998,8.0,831.0],["SLC22A2",0.3526987925697773,-25.254829739665855,9.0,830.0],["WWP1",0.191822413945587,-7.668951609381887,12.0,827.0],["XPO4",0.1927016194065373,-7.734630366714764,32.0,807.0]],"bottom":[]},"para":{"top":[],"bottom":[["C6orf222",-0.09473013454923201,-2.514726938884322,11.0,828.0],["GMPS",-0.08666863378674186,-2.216928876219668,8.0,831.0],["LILRA1",-0.08814567980369305,-2.2698992852658733,9.0,830.0],["TARBP1",-0.08875877176809327,-2.292252913736217,14.0,825.0]]}}}
{"prism_secondary_logfold":{"corr":{"top":[],"bottom":[["rabeprazole_BRD-A39390670-236-10-7::0.625::HTS002",-0.2560077073375394,-5.102690220070612,297]]},"para":{"top":[],"bottom":[]}}}
{"avana":{"corr":{"top":[["S100A10_6281",0.21245850593806842,-5.493297409414726,472]],"bottom":[["SLIT1_6585",-0.2212548952715944,-5.91818023233971,472]]},"para":{"top":[["BRSK1_84446",0.20576547520518387,-5.1817575769560635,472]],"bottom":[]}}}
{"achilles":{"corr":{"top":[["NTS_4922",0.2959429602432675,-5.0548084223244185,218]],"bottom":[]},"para":{"top":[],"bottom":[["ZC3H7B_23264",-0.2526646862654433,-3.7879575119033944,218]]}}}
{"ccle_rrbs_tss1kb":{"corr":{"top":[["TMEM222_1_27647635_27648635",0.4800810445297053,-46.687226952472926,801],["DNMBP_10_101769710_101770710",0.5724173092040431,-72.26224412350425,825],["PDSS1_10_26985352_26986352",0.4935278910248529,-51.25918666832601,827],["TNS2_12_53439809_53440809",0.6765361427213494,-111.14701618831147,828]],"bottom":[["TRPV1_17_3512705_3513705",-0.31982665972894964,-19.378077307111827,784]]},"para":{"top":[],"bottom":[]}}}
{"ccle_rrbs_tss_clusters":{"corr":{"top":[["PHF2_2",0.6141793879458445,-87.521659768238,840],["FAM45A_1",0.527312162971505,-60.57077386832931,840],["STK39_1",0.6098133746661948,-85.96380311554583,840],["DYRK2_2",0.6689869920684381,-109.36299781126354,840],["PIAS2_1",0.5352620638044551,-62.20403393216263,833],["ACTR3B_2",0.5527971403612933,-67.26781638080088,835],["BCAP29",0.6348777986228755,-95.25130182779695,840],["DNMBP_1",0.7027529296730526,-125.17021576102024,839],["NDUFA5",0.5366040451703237,-62.19925396012927,828]],"bottom":[["SYNJ2BP_3",-0.23559783684790003,-7.801066312064095,562]]},"para":{"top":[],"bottom":[["UFC1_1",-0.17460867994395707,-6.332788487338764,823]]}}}
{"ccle_rrbs_cgi_clusters":{"corr":{"top":[["12_68040166_68043021-3",0.7180469463236784,-133.31269219925818,840],["7_152454740_152459511-2",0.5527971403612933,-67.26781638080088,835],["9_96338938_96341836-1",0.6340991008154927,-94.8378542421376,839],["7_107218344_107223075-1",0.6348777986228755,-95.25130182779695,840],["2_169100950_169103702-1",0.571598005221776,-73.13279066490567,838],["2_169103702_169106454-1",0.5893639069349607,-78.79421025009627,838],["12_68043021_68045876-1",0.5879099286196812,-78.50234728992555,840],["17_44300108_44304522-1",1.0,-323.0051853474518,840],["22_19159213_19161722-1",0.5678813723220106,-71.90686544561983,837]],"bottom":[["7_789984_794238-2",-0.2618260723076266,-11.615669141705363,694],["6_170065846_170070179-2",-0.26815741285013034,-12.976340463679161,743],["8_661998_666794-1",-0.2728251820518003,-12.875219854689993,711],["22_46643764_46646360-2",-0.24491487191681488,-9.139138631076147,616],["22_20760333_20762923-1",-0.23878181088603817,-10.001613834255116,715],["17_42255043_42259402-3",-0.29093309050392924,-14.804708286278894,721],["1_247461848_247466710-1",-0.3302162392923174,-22.042060479369738,838]]},"para":{"top":[["17_44300108_44304522-1",0.9999999999999999,-323.0051853474518,840]],"bottom":[]}}}
