{"depmap_hotspot":{"corr":{"top":[["ATP6V1B2",0.18018251047354425,-6.798505212573655,23.0,812.0],["C15orf59",0.18067260203195615,-6.832676510329386,24.0,811.0],["ERN2",0.15512852010315822,-5.174375631588291,47.0,788.0]],"bottom":[]},"para":{"top":[["CDRT15L2",0.11175169866203624,-3.203082473961267,8.0,827.0],["MRPS25",0.11035123643698397,-3.1420366548928085,8.0,827.0]],"bottom":[["UPK3A",-0.11732252560316267,-3.452677631086753,11.0,824.0],["ZC4H2",-0.10753504774827669,-3.0214891504294763,12.0,823.0],["ZNF491",-0.12114102155207353,-3.630095508390208,25.0,810.0]]}}}
{"depmap_damaging":{"corr":{"top":[],"bottom":[]},"para":{"top":[["SPATA31E1",0.12675290837063885,-3.8953945017656886,13.0,821.0]],"bottom":[["CRIPAK",-0.09385237203262059,-2.470674189021643,12.0,822.0]]}}}
{"ccle_proteomics":{"corr":{"top":[],"bottom":[["MR1_Q95460",-0.3683407660296161,-3.9225969779653673,104]]},"para":{"top":[],"bottom":[]}}}
{"avana":{"corr":{"top":[["GPR161_23432",0.2113156056567376,-5.397990408698123,468]],"bottom":[]},"para":{"top":[],"bottom":[]}}}
{"ccle_rrbs_tss1kb":{"corr":{"top":[["KIF6_6_39693199_39694199",0.9372049595712645,-323.0051853474518,819]],"bottom":[]},"para":{"top":[["KIF6_6_39693199_39694199",0.8207109133345972,-200.08355436461085,819]],"bottom":[]}}}
{"ccle_rrbs_tss_clusters":{"corr":{"top":[["KIF6_1",0.880408874903316,-271.09136998093237,834]],"bottom":[]},"para":{"top":[["KIF6_1",0.7333832438420232,-140.8747031410657,834]],"bottom":[]}}}
{"ccle_rrbs_cgi_clusters":{"corr":{"top":[["6_39690743_39694966-2",1.0,-323.0051853474518,835],["6_39690743_39694966-1",0.880408874903316,-271.09136998093237,834]],"bottom":[]},"para":{"top":[["6_39690743_39694966-2",0.9999999999999999,-323.0051853474518,835],["6_39690743_39694966-1",0.7333832438420232,-140.8747031410657,834]],"bottom":[]}}}
