{"depmap_hotspot":{"corr":{"top":[["AGRN",0.19485337211363024,-7.810144045343238,111.0,718.0],["CRTAC1",0.17900738193587687,-6.673045440904378,23.0,806.0],["HN1L",0.18111538326183277,-6.818700894283225,12.0,817.0],["KIAA1217",0.19662826674697972,-7.943616094754423,95.0,734.0],["NAT10",0.18689020385208222,-7.226511485055743,49.0,780.0],["ST3GAL3",0.20152531620353187,-8.318322281233728,24.0,805.0],["TMEM120B",0.17064634190110947,-6.1121038895484885,15.0,814.0],["TMEM26",0.22245891930611592,-10.028256978094712,21.0,808.0],["TRMT61B",0.18703133715862813,-7.236639984242529,12.0,817.0],["WNT1",0.2249611863677723,-10.244548201164141,28.0,801.0]],"bottom":[]},"para":{"top":[["ASB8",0.15335838072744654,-5.291391406170768,18.0,811.0],["BAX",0.1914093071722331,-7.739738536330513,31.0,798.0],["C5orf24",0.11848110465928247,-3.4861466108454593,10.0,819.0],["CNN2",0.14962212799651053,-5.078019125102136,16.0,813.0],["HSD17B8",0.1567761014257304,-5.490639631574526,15.0,814.0],["KRTCAP3",0.13261466565266256,-4.167652995538839,15.0,814.0],["LDB1",0.16544006231095548,-6.014217433619664,19.0,810.0],["LRG1",0.15219373179914,-5.2244086607224105,19.0,810.0],["MBLAC1",0.11962935878716342,-3.5390156310079854,11.0,818.0],["MMP7",0.135036124024576,-4.291092353960695,12.0,817.0],["MRPL42",0.11032467361234183,-3.123654937555249,8.0,821.0],["MSL3",0.1784120390655607,-6.8468251747813085,27.0,802.0],["MTF2",0.20832533766458697,-8.990310400912662,34.0,795.0],["NRTN",0.12709827962152212,-3.8933787041137515,9.0,820.0],["OGT",0.20035015788243932,-8.388249746596838,34.0,795.0],["OR11H4",0.12307582391895164,-3.700318237910189,13.0,816.0],["OR2AG1",0.14451672961697937,-4.794205777984737,13.0,816.0],["PIN1",0.10101120623069212,-2.737217247651096,8.0,821.0],["PROCR",0.1426266337880291,-4.691527004766624,15.0,814.0],["RSG1",0.12323135318242755,-3.707648731993919,12.0,817.0],["SLC25A21",0.14513400807885943,-4.8281721199996745,17.0,812.0],["SOX2",0.1813392256560183,-7.042747924378256,26.0,803.0],["TMEM26",0.16529098593458152,-6.005041988923976,21.0,808.0],["WNT8B",0.14709215090687922,-4.936196391277284,13.0,816.0],["ZNHIT1",0.12303257106916239,-3.698133085983616,10.0,819.0]],"bottom":[]}}}
{"depmap_damaging":{"corr":{"top":[["BCAR1",0.18167803233109922,-6.850332465061543,8.0,820.0],["NCOR1",0.16973864892826848,-6.0462181250223,21.0,807.0],["RAB3GAP2",0.15914122662567426,-5.37778160467815,9.0,819.0],["ZNF598",0.17211904563154687,-6.202195941553563,8.0,820.0]],"bottom":[]},"para":{"top":[["ABTB1",0.12519420505406118,-3.7975760928503584,9.0,819.0],["ACSL4",0.12091964894657163,-3.5953841216966933,9.0,819.0],["AKAP7",0.15769060829408096,-5.539091448443232,17.0,811.0],["BAX",0.1937294031887966,-7.896629159582167,18.0,810.0],["BCAS3",0.1422096780549544,-4.664161813828617,10.0,818.0],["CELSR1",0.16997458527636308,-6.291900669842946,15.0,813.0],["DENND6A",0.1304952776162924,-4.056867696064046,8.0,820.0],["EVC",0.12643247140938121,-3.8573675495280195,10.0,818.0],["KIAA0430",0.12767001221038404,-3.917447230480397,8.0,820.0],["MLK4",0.11954071080659118,-3.5314094110625454,8.0,820.0],["NOD2",0.14578750771308424,-4.858898183260727,9.0,819.0],["PLAGL2",0.12755778313702598,-3.9120387535498877,9.0,819.0],["PPP1R12C",0.14030601811642118,-4.562232840563464,9.0,819.0],["PYGO2",0.15232077169813946,-5.226109180566333,11.0,817.0],["RAE1",0.16243146427310934,-5.823201779466007,11.0,817.0],["RNF6",0.14887049141220352,-5.030474071782263,12.0,816.0],["SLC16A13",0.13862134012111657,-4.473125372999271,9.0,819.0],["TAF1C",0.14408260859692065,-4.765749338682886,13.0,815.0],["TARS",0.15312455733034247,-5.272341304602331,12.0,816.0],["TBCK",0.1425657475642951,-4.68346310772248,12.0,816.0],["TCHP",0.12588423124627227,-3.830723474926004,8.0,820.0],["TET2",0.15727317008227049,-5.5143910637839975,16.0,812.0],["TMEM185B",0.15152792534392315,-5.180881306741561,13.0,815.0],["USP13",0.13105286136609096,-4.084779835822138,9.0,819.0],["ZFAND4",0.13401222027859924,-4.23441910765799,11.0,817.0]],"bottom":[]}}}
{"prism_secondary_logfold":{"corr":{"top":[],"bottom":[["monensin_BRD-A06627858-236-03-0::0.00061034::HTS002",-0.24794983197335455,-3.838417256090963,230]]},"para":{"top":[["zolantidine_BRD-K08996725-332-01-7::0.15625::HTS002",0.25375408114134873,-3.7865548842467307,216],["NVP-BEZ235_BRD-K12184916-001-15-4::0.00061034::HTS002",0.2229058886590574,-4.2748984166666695,323]],"bottom":[]}}}
{"ccle_proteomics":{"corr":{"top":[],"bottom":[["RIT1_Q92963-3",-0.34222426828533004,-3.7412629482913746,115]]},"para":{"top":[["WDFY4_Q6ZS81",0.45380711758184455,-5.674263232237078,100]],"bottom":[["ZNF827_Q17R98",-0.3375871420334894,-8.461543166720858,291],["TRIM44_Q96DX7",-0.35467524503812076,-7.4956539315135595,230]]}}}
{"depmap_gene_tpm":{"corr":{"top":[],"bottom":[["KLF7_8609",-0.4716666637876058,-46.20111027180586,825]]},"para":{"top":[],"bottom":[["KLF7_8609",-0.37884971303245646,-28.825789348225396,825]]}}}
{"avana":{"corr":{"top":[],"bottom":[]},"para":{"top":[],"bottom":[["UQCRFS1_7386",-0.24167182685687533,-6.865219034905103,464]]}}}
{"achilles":{"corr":{"top":[["BTG1_694",0.2668018036875211,-6.7722568799760845,373]],"bottom":[]},"para":{"top":[],"bottom":[["CABP1_9478",-0.2828455152796887,-7.564577533126202,373]]}}}
{"ccle_rrbs_tss1kb":{"corr":{"top":[["KLF7_2_208030910_208031910",0.7014678560197608,-121.4281338807505,818],["KLF7_2_208030740_208031740",0.6987139900504464,-120.08640672590622,818],["KLF7_2_208031580_208032580",0.6299758073530379,-88.52497859388852,796],["MIR7845_2_208030123_208031123",0.7899799248259513,-174.59480242772023,817]],"bottom":[]},"para":{"top":[["KLF7_2_208030910_208031910",0.41987911859221233,-35.545501419115425,818],["MIR7845_2_208030123_208031123",0.6247357802113191,-88.9139345486888,817]],"bottom":[]}}}
{"ccle_gene_tpm":{"corr":{"top":[],"bottom":[["KLF7_ENSG00000118263.10",-0.4731675106609354,-46.36280718849743,822]]},"para":{"top":[],"bottom":[["KLF7_ENSG00000118263.10",-0.38195021508574883,-29.218644640205405,822]]}}}
{"ccle_rrbs_tss_clusters":{"corr":{"top":[["KLF7_3",0.48182091512480485,-45.22214054185269,769],["KLF7_5",0.6995857074341273,-121.97177575651786,828],["KLF7_6",0.9704361996859182,-323.0051853474518,829],["KLF7_2",0.8360056931169032,-217.03577281214046,829],["KLF7_1",0.5369737304066171,-61.706540823338635,820]],"bottom":[]},"para":{"top":[["KLF7_5",0.4280200117087143,-37.48690553471173,828],["KLF7_6",0.8667157592388556,-251.30812603617795,829],["KLF7_2",0.7276793230665625,-136.82250613505695,829],["KLF7_1",0.417019890633451,-35.112065929878,820]],"bottom":[["MIR2355_1",-0.3589814368944575,-17.930280107007768,566]]}}}
{"ccle_rrbs_cgi_clusters":{"corr":{"top":[["2_208028852_208033477-1",0.5369737304066171,-61.706540823338635,820],["2_208028852_208033477-2",0.8360056931169032,-217.03577281214046,829],["2_208028852_208033477-3",0.48182091512480485,-45.22214054185269,769]],"bottom":[]},"para":{"top":[["2_208028852_208033477-1",0.417019890633451,-35.112065929878,820],["2_208028852_208033477-2",0.7276793230665625,-136.82250613505695,829]],"bottom":[]}}}
