{"depmap_hotspot":{"corr":{"top":[],"bottom":[["BSND",-0.10639867273577741,-2.563267533733407,12.0,779.0],["CABP5",-0.12280171598627686,-3.269741754885339,10.0,781.0],["CDRT15L2",-0.10051723014446542,-2.3317162266731644,8.0,783.0],["KRTAP4-11",-0.09246305838320881,-2.032956116816379,10.0,781.0],["SAT1",-0.11585008937510488,-2.95934139823697,8.0,783.0]]},"para":{"top":[["GLRA2",0.1257683204686183,-3.6897781759753325,23.0,768.0],["RNASET2",0.11215489403015569,-3.0905891055857806,11.0,780.0],["RPL23",0.10111420886830184,-2.6484514133341284,9.0,782.0],["ZMYND19",0.10644070176224525,-2.857061698110686,14.0,777.0]],"bottom":[["KCNJ13",-0.11497489775816733,-3.2097423804656966,11.0,780.0],["KRTAP4-11",-0.09097700634115145,-2.276678935614254,10.0,781.0],["RPA2",-0.1050293468029868,-2.8008088527024753,10.0,781.0],["SAT1",-0.08916691830616622,-2.213585648715499,8.0,783.0]]}}}
{"depmap_damaging":{"corr":{"top":[],"bottom":[["CEP97",-0.11354258346011736,-2.8598965721051917,8.0,783.0],["MICALL2",-0.1346940179349759,-3.8387867533497415,8.0,783.0]]},"para":{"top":[["HKDC1",0.11195918273178625,-3.08231051453644,9.0,782.0],["KIF21B",0.10387710498258669,-2.7554785979777123,10.0,781.0]],"bottom":[["MICALL2",-0.10197697118703951,-2.681534893786268,8.0,783.0]]}}}
{"avana":{"corr":{"top":[],"bottom":[]},"para":{"top":[],"bottom":[["FBXO5_26271",-0.25451287390813765,-7.282585780038106,445]]}}}
{"ccle_rrbs_tss1kb":{"corr":{"top":[["LINC02090_17_16890642_16891642",1.0,-323.0051853474518,781],["TNFRSF13B_17_16875402_16876402",0.540354020327378,-58.93327530205751,771],["LOC284191_17_16884667_16885667",0.4663807828747868,-42.70491927605871,781]],"bottom":[]},"para":{"top":[["LINC02090_17_16890642_16891642",0.9999999999999999,-323.0051853474518,781]],"bottom":[]}}}
{"ccle_rrbs_tss_clusters":{"corr":{"top":[["TNFRSF13B_1",0.5352081947785783,-58.7323539050813,786],["LOC284191",0.46650359369967564,-43.265471523650476,791]],"bottom":[]},"para":{"top":[],"bottom":[]}}}
{"ccle_rrbs_cgi_clusters":{"corr":{"top":[],"bottom":[]},"para":{"top":[],"bottom":[]}}}
