{"depmap_hotspot":{"corr":{"top":[],"bottom":[]},"para":{"top":[["ALG14",0.08959855482936786,-2.3304534465675073,8.0,835.0],["PRKRIP1",0.112433448421162,-3.257115995216034,15.0,828.0]],"bottom":[["ADM",-0.10532057697934152,-2.9495068641227076,13.0,830.0],["BLACE",-0.09185632418808165,-2.4142512477296094,9.0,834.0],["CCDC12",-0.087905002650061,-2.2688084956461916,9.0,834.0],["CLEC3A",-0.08843308920420237,-2.288136711627184,15.0,828.0],["CTD-3074O7.11",-0.09888984187849309,-2.6863108456294538,14.0,829.0],["NAGK",-0.11849701587052879,-3.533033133913641,17.0,826.0],["NDUFA13",-0.12680422538563194,-3.931284223382434,10.0,833.0],["PRSS57",-0.10063968351054915,-2.756358321961606,9.0,834.0],["RPS9",-0.09531622204771421,-2.5461543163884075,17.0,826.0],["TMA16",-0.09485078716762159,-2.528141219744727,14.0,829.0]]}}}
{"depmap_damaging":{"corr":{"top":[["A2M",0.1738936996012333,-6.416640729734183,11.0,831.0]],"bottom":[]},"para":{"top":[["A2M",0.10881964295880747,-3.0957735142390166,11.0,831.0]],"bottom":[["HNRNPUL1",-0.08854029946888659,-2.2899276221575158,9.0,833.0],["MLLT6",-0.08458951011503255,-2.149110661222499,11.0,831.0],["MVK",-0.11422840568238192,-3.334101442103616,8.0,834.0],["SLC23A2",-0.09348681769979092,-2.473882962087579,15.0,827.0]]}}}
{"ccle_proteomics":{"corr":{"top":[["DDX11_Q96FC9-2",0.40098874974270154,-5.00810098424163,114],["SERPINB9_P50453",0.28703474325977185,-6.971132573245281,331]],"bottom":[]},"para":{"top":[],"bottom":[]}}}
{"achilles":{"corr":{"top":[],"bottom":[["SKIDA1_387640",-0.2477139044465303,-3.700301079480554,221]]},"para":{"top":[],"bottom":[]}}}
{"ccle_rrbs_tss1kb":{"corr":{"top":[["DBI_2_120123828_120124828",0.5864330865214423,-77.37718340925062,833],["LOC100289230_5_98263837_98264837",0.7204128045596523,-131.73169199291524,822]],"bottom":[]},"para":{"top":[["LOC100289230_5_98263837_98264837",0.6605881014197649,-103.47022598602256,822]],"bottom":[]}}}
{"ccle_rrbs_tss_clusters":{"corr":{"top":[["CHD1",0.9605084590705415,-323.0051853474518,843],["USP22_2",0.6331251722596309,-94.57390509994684,840]],"bottom":[]},"para":{"top":[["CHD1",0.9370537363006286,-323.0051853474518,843],["GTF2I_3",0.6110119272401843,-86.69426254790625,843],["TPT1_1",0.6165087066283504,-88.67510200660567,843]],"bottom":[]}}}
{"ccle_rrbs_cgi_clusters":{"corr":{"top":[["5_98261746_98264638-1",0.7376508949994253,-143.6898960764855,836],["5_98264638_98267531-1",0.8680449854348591,-256.9374832605188,842],["17_20943386_20947633-3",0.6149933168415134,-87.81478770190098,840]],"bottom":[["16_89346992_89350521-2",-0.17016907477906562,-5.775814190046861,783]]},"para":{"top":[["9_99180601_99183723-1",0.5807869928688205,-76.46555290022923,843],["7_74068951_74073154-3",0.6110119272401843,-86.69426254790625,843],["5_98261746_98264638-1",0.7004139081314789,-123.55385021168101,836],["5_98264638_98267531-1",0.8625057167066328,-249.97572068306985,842]],"bottom":[]}}}
