{"depmap_hotspot":{"corr":{"top":[],"bottom":[]},"para":{"top":[],"bottom":[["AC016251.1",-0.08496448723637672,-2.162176573833913,9.0,833.0],["BDNF",-0.10422445945821741,-2.901204708804289,19.0,823.0],["C15orf38-AP3S2",-0.08459747902231496,-2.1492554798720858,8.0,834.0],["C17orf49",-0.08976273933897203,-2.334655156458521,11.0,831.0],["CLTB",-0.10123290545005073,-2.778045992390199,11.0,831.0],["DAPL1",-0.11402610000787038,-3.3252017562219436,12.0,830.0],["DBP",-0.10260349715251674,-2.8339543587698808,10.0,832.0],["EBLN1",-0.10961113694270642,-3.130149178433754,14.0,828.0],["GSTA2",-0.08476515884870525,-2.1552921083416687,12.0,830.0],["HN1",-0.08340238388734386,-2.1076547788537066,8.0,834.0],["IER2",-0.1051491119147147,-2.93976096086028,16.0,826.0],["ISG15",-0.11916653561691291,-3.560800195954047,12.0,830.0],["MAGIX",-0.11834813014022395,-3.5228973298266206,20.0,822.0],["MC3R",-0.13830258704396103,-4.518454689683914,33.0,809.0],["PXMP2",-0.10140669584567313,-2.785105352847745,11.0,831.0],["RRAGA",-0.09897363030695948,-2.6872045759029923,11.0,831.0],["SIGLECL1",-0.08045278738401097,-2.007004831843968,8.0,834.0],["SMU1",-0.09456193329237399,-2.5149268159958664,16.0,826.0],["TBC1D28",-0.08962435969647271,-2.3295372919768758,10.0,832.0],["TCAIM",-0.12235305882823144,-3.7116948007972472,24.0,818.0]]}}}
{"depmap_damaging":{"corr":{"top":[["AGAP3",0.19158349676234757,-7.667886975888711,8.0,833.0]],"bottom":[]},"para":{"top":[],"bottom":[["AOC1",-0.08498110445145703,-2.1609334293991043,8.0,833.0],["AP4M1",-0.08597458858623121,-2.1959660466699256,8.0,833.0],["RGS7",-0.09339231692503293,-2.4680267388793733,10.0,831.0],["TANC2",-0.07270265950373452,-1.7548461775747104,8.0,833.0],["TCTN2",-0.12402882929198926,-3.788352226497372,10.0,831.0],["ZNF689",-0.09063632183401797,-2.3647360773127573,8.0,833.0]]}}}
{"prism_secondary_logfold":{"corr":{"top":[],"bottom":[]},"para":{"top":[],"bottom":[["CYC116_BRD-K64866502-001-03-9::0.15625::HTS002",-0.18620827189095202,-3.728026137324846,398]]}}}
{"ccle_proteomics":{"corr":{"top":[],"bottom":[]},"para":{"top":[],"bottom":[["GAS2L3_Q86XJ1",-0.4036079033072602,-5.6360514739454874,128]]}}}
{"achilles":{"corr":{"top":[],"bottom":[["ITGB1BP1_9270",-0.3015704928955228,-5.300348465418215,221]]},"para":{"top":[["PNOC_5368",0.2664968775198018,-4.220525192747309,221]],"bottom":[]}}}
{"ccle_rrbs_tss1kb":{"corr":{"top":[["FOXJ3_1_42800886_42801886",0.5534730719017227,-66.42731661904264,822],["LOC101060553_13_111805924_111806924",0.656318516052636,-102.80342416959408,831],["ARHGEF7_13_111804993_111805993",0.8817651285988404,-270.7361342428665,827]],"bottom":[]},"para":{"top":[["LOC101060553_13_111805924_111806924",0.8312261648929457,-212.8528961798801,831],["ARHGEF7_13_111804993_111805993",0.7978469082308152,-182.7799855166965,827]],"bottom":[]}}}
{"ccle_rrbs_tss_clusters":{"corr":{"top":[["FANCL",0.6186696218672493,-88.93946223236522,838],["ALDH18A1",0.5945809358163303,-80.71420515039345,840],["MORC2_3",0.5542585839728086,-68.17061232442215,841]],"bottom":[]},"para":{"top":[],"bottom":[["GCFC2_3",-0.1825586892285336,-6.820500913531083,816]]}}}
{"ccle_rrbs_cgi_clusters":{"corr":{"top":[["10_97413860_97418726-1",0.5945809358163303,-80.71420515039345,840],["13_111803638_111808531-1",1.0,-323.0051853474518,842],["2_58466113_58470632-1",0.6186696218672493,-88.93946223236522,838]],"bottom":[]},"para":{"top":[["13_111803638_111808531-1",1.0,-323.0051853474518,842]],"bottom":[]}}}
