{"depmap_hotspot":{"corr":{"top":[["APBA1",0.21043891929533032,-8.934055404831712,76.0,744.0],["CYFIP2",0.1935982316432137,-7.6396027886613584,66.0,754.0],["FAT3",0.18802629334772833,-7.23568061549413,241.0,579.0],["GBF1",0.2060669706677133,-8.587279791730339,75.0,745.0],["HIVEP1",0.18153862330841677,-6.7804292594260325,99.0,721.0],["LPHN2",0.18360180038731672,-6.923457853658211,100.0,720.0],["LTBP2",0.1832751317863021,-6.900703340118715,80.0,740.0],["MATN2",0.21631764641550846,-9.412337851823066,61.0,759.0],["ULK1",0.18336162297911615,-6.9067240204235105,63.0,757.0]],"bottom":[]},"para":{"top":[["BSX",0.1358844853262362,-4.296809176169706,16.0,804.0],["GPALPP1",0.11662712006039404,-3.373183004671647,10.0,810.0],["IL11",0.13896892705109712,-4.456182974073965,12.0,808.0],["MTHFD2",0.13412067488784493,-4.206892183733817,12.0,808.0],["POU2F3",0.15210240981181752,-5.17183750744392,20.0,800.0],["PRIMA1",0.11681488761130632,-3.3815855290179018,10.0,810.0],["RPS9",0.14474594854280268,-4.763816564582489,17.0,803.0],["SRP19",0.10931050413488654,-3.0548662667765014,9.0,811.0],["SYF2",0.12802818101897928,-3.904886339950432,12.0,808.0],["TGFBR3L",0.12501729235204,-3.76020933160686,11.0,809.0],["ZFAND2B",0.09878163120738313,-2.627973728897732,8.0,812.0],["ZNF620",0.14165048245112602,-4.597485488822047,12.0,808.0],["ZNF747",0.13663139524632043,-4.335039519836444,13.0,807.0]],"bottom":[]}}}
{"depmap_damaging":{"corr":{"top":[],"bottom":[]},"para":{"top":[["AP5B1",0.11874633875756369,-3.46540656972517,10.0,809.0],["ARSJ",0.13338635426142206,-4.1654864764783195,8.0,811.0],["INPP4B",0.14014338197951923,-4.513215213089475,11.0,808.0],["IQSEC1",0.1358646228398422,-4.2912968941335405,10.0,809.0],["MYO1A",0.1186518884728153,-3.4611713989582493,11.0,808.0],["PCDHB6",0.12497819449462168,-3.754724349444554,11.0,808.0],["RAI1",0.13200338464088818,-4.096332856969395,9.0,810.0],["TEAD2",0.1913456009157846,-7.653185683242926,27.0,792.0]],"bottom":[]}}}
{"ccle_proteomics":{"corr":{"top":[],"bottom":[]},"para":{"top":[["LARP4B_H0Y4V9",0.3361202068608126,-6.618469477530277,225]],"bottom":[]}}}
{"avana":{"corr":{"top":[],"bottom":[]},"para":{"top":[["ROPN1B_152015",0.2325644509752788,-6.3028938486799255,457]],"bottom":[]}}}
{"drive":{"corr":{"top":[],"bottom":[]},"para":{"top":[["SEPT9_10801",0.24891052983670744,-5.035492545478593,310]],"bottom":[["PITPNM2_57605",-0.270483971340025,-5.906742412284517,312]]}}}
{"achilles":{"corr":{"top":[["FAM114A1_92689",0.34296102285485797,-6.487270324744131,211]],"bottom":[]},"para":{"top":[["DZIP1L_199221",0.28351606473026325,-4.535223092943706,211]],"bottom":[]}}}
{"ccle_rrbs_tss1kb":{"corr":{"top":[["LOC100130207_3_3842559_3843559",0.9982614109033181,-323.0051853474518,810],["LRRN1_3_3840114_3841114",0.6622099343883082,-101.6383283760751,802]],"bottom":[]},"para":{"top":[["LOC100130207_3_3842559_3843559",0.9976002354002528,-323.0051853474518,810],["LRRN1_3_3840114_3841114",0.618514687202214,-85.10417350460018,802]],"bottom":[]}}}
{"ccle_rrbs_tss_clusters":{"corr":{"top":[["LOC100130207_1",0.6825714373769324,-112.79294093010395,820]],"bottom":[]},"para":{"top":[["LOC100130207_1",0.6384533135898506,-94.36769603294411,820]],"bottom":[]}}}
{"ccle_rrbs_cgi_clusters":{"corr":{"top":[["3_3838513_3841643-2",0.6835164284664033,-113.08641107069123,819],["3_3841643_3844772-2",1.0,-323.0051853474518,820],["3_3838513_3841643-3",0.6326973056899758,-84.94808912675374,755],["3_3838513_3841643-1",0.6349789644561361,-91.92010421192612,810],["3_3841643_3844772-1",0.6793699862601127,-45.95664565867072,335]],"bottom":[]},"para":{"top":[["3_3838513_3841643-2",0.6318221178505514,-91.74427958436581,819],["3_3841643_3844772-2",1.0,-323.0051853474518,820],["3_3838513_3841643-3",0.5737495454434544,-66.58141035058637,755],["3_3838513_3841643-1",0.6058662112794424,-81.58857287387556,810],["3_3841643_3844772-1",0.643980635225924,-39.903133751932664,335]],"bottom":[]}}}
