{"depmap_hotspot":{"corr":{"top":[],"bottom":[["ACBD6",-0.1182367030727883,-3.1036162383274526,11.0,792.0],["FUT9",-0.15409150745214958,-4.937488310394627,29.0,774.0],["NEK4",-0.1379046256298449,-4.053712252487169,37.0,766.0],["TBK1",-0.13222437877836207,-3.765518584138994,35.0,768.0],["UBL3",-0.14233900721609027,-4.2865741628390825,12.0,791.0]]},"para":{"top":[],"bottom":[["ATL1",-0.08356330057148767,-2.0460756040489785,14.0,789.0],["NIPSNAP3A",-0.11668058007365698,-3.321324643004447,10.0,793.0],["PITX3",-0.10026299099392184,-2.6450508972958873,12.0,791.0],["SERAC1",-0.11312164672350122,-3.167462781153841,15.0,788.0],["TAZ",-0.09806220858835812,-2.560879348507526,9.0,794.0],["TCF7",-0.1177475348605778,-3.3687079069253496,25.0,778.0],["TRAM1",-0.09923876449865743,-2.605663983539418,10.0,793.0]]}}}
{"depmap_damaging":{"corr":{"top":[],"bottom":[["HNRNPUL2",-0.09800479976989714,-2.261812023324912,9.0,793.0],["UBL3",-0.15714993513326478,-5.1093100151765505,8.0,794.0]]},"para":{"top":[],"bottom":[["ALPK3",-0.09690800086751289,-2.5151035524186107,8.0,794.0],["C2orf71",-0.10783457750608218,-2.9431574492659336,8.0,794.0],["CACNA1B",-0.11556280546192932,-3.2695807858152093,16.0,786.0],["UBL3",-0.12456847825230424,-3.6737861326002563,8.0,794.0]]}}}
{"ccle_proteomics":{"corr":{"top":[["ZNF865_P0CJ78",0.31638440948104274,-3.169006104773017,112]],"bottom":[["TNNI3K_Q59H18-1",-0.3557432129891913,-4.886319283595141,143]]},"para":{"top":[["ZNF865_P0CJ78",0.2684236763762279,-2.375155802746275,112]],"bottom":[["TNNI3K_Q59H18-1",-0.36140155992059736,-5.035134190712553,143]]}}}
{"avana":{"corr":{"top":[],"bottom":[["TLDC1_57707",-0.22641562315035546,-5.855206267951812,445]]},"para":{"top":[],"bottom":[]}}}
{"drive":{"corr":{"top":[],"bottom":[["CTSB_1508",-0.24612716154829453,-4.790595842334075,300],["KIF3C_3797",-0.35058857562516793,-9.318350809619751,298]]},"para":{"top":[],"bottom":[["G3BP2_9908",-0.23943182540560445,-4.7043566793165,311]]}}}
{"achilles":{"corr":{"top":[["PARD6A_50855",0.2652200270215493,-3.982811445012042,209],["LEMD1_93273",0.25430838727177457,-3.6933044867942564,209]],"bottom":[["G0S2_50486",-0.3013260319138982,-5.03300463645576,209]]},"para":{"top":[["LEMD1_93273",0.25134666413096607,-3.6168846110073964,209]],"bottom":[["SLC25A21_89874",-0.24514918944917594,-5.656202579092254,364]]}}}
{"ccle_rrbs_tss_clusters":{"corr":{"top":[["LOC101928253_1",0.6026033746161024,-79.8088705218188,803]],"bottom":[]},"para":{"top":[["LOC101928253_1",0.514177075192893,-54.66742084750627,803]],"bottom":[]}}}
{"ccle_rrbs_cgi_clusters":{"corr":{"top":[],"bottom":[]},"para":{"top":[],"bottom":[]}}}
