{"depmap_hotspot":{"corr":{"top":[],"bottom":[]},"para":{"top":[["CCDC71L",0.10932743434211323,-3.0868590672226506,15.0,816.0],["COMMD1",0.09995018778370839,-2.6998445900624164,8.0,823.0],["GDAP1L1",0.12974909130336218,-4.031935318404989,19.0,812.0],["METTL7A",0.09981640475930988,-2.6945978615231274,9.0,822.0],["NAE1",0.15677926368375808,-5.502248097595598,24.0,807.0],["PPP1R3E",0.12836471097392943,-3.9631381133986125,11.0,820.0],["RBP4",0.12291061057033738,-3.699362330397607,9.0,822.0],["SERP1",0.10534456954535805,-2.9187095192276873,8.0,823.0],["TRAPPC13",0.11369953102809867,-3.2772500118138423,14.0,817.0]],"bottom":[["PECR",-0.08684662319438777,-2.2087724425607393,16.0,815.0],["UBE2L6",-0.10170659159379056,-2.7700968460998263,9.0,822.0]]}}}
{"depmap_damaging":{"corr":{"top":[],"bottom":[]},"para":{"top":[["AGAP3",0.11106846946868797,-3.1587120898497627,8.0,822.0],["TM9SF3",0.13117413794755792,-4.0988921254148645,10.0,820.0]],"bottom":[]}}}
{"achilles":{"corr":{"top":[],"bottom":[]},"para":{"top":[["JAK2_3717",0.25451894802052805,-6.24494103705488,376]],"bottom":[]}}}
{"ccle_rrbs_tss1kb":{"corr":{"top":[["CAV3_3_8774485_8775485",0.4459508703714223,-39.623620750017444,800],["LOXL1_15_74217798_74218798",0.45196526350379157,-39.55414441105919,775]],"bottom":[]},"para":{"top":[["LOXL1_15_74217798_74218798",0.47668476861290987,-44.49062932846767,775]],"bottom":[]}}}
{"ccle_rrbs_tss_clusters":{"corr":{"top":[["LOXL1-AS1_1",0.7203410434137327,-91.09879415589808,567]],"bottom":[]},"para":{"top":[["ENG_1",0.4948555731368522,-51.57139620214267,827],["LOXL1-AS1_1",0.7133850124171752,-88.57737077447261,567]],"bottom":[]}}}
{"ccle_rrbs_cgi_clusters":{"corr":{"top":[["15_74216696_74219534-1",0.7203410434137327,-91.09879415589808,567]],"bottom":[]},"para":{"top":[["15_74216696_74219534-1",0.7133850124171752,-88.57737077447261,567]],"bottom":[]}}}
