{"depmap_hotspot":{"corr":{"top":[],"bottom":[["ASXL3",-0.13359129539949657,-3.933430252460296,129.0,698.0],["ATG9B",-0.11872242194431182,-3.205059526363049,45.0,782.0],["ATP2B2",-0.14328294799433988,-4.4509601247672395,79.0,748.0],["CTAG2",-0.11910664772605514,-3.2228927061201893,17.0,810.0],["CYP8B1",-0.13102540280950695,-3.802096966893407,31.0,796.0],["HIVEP1",-0.1234975414625269,-3.4303948426057196,100.0,727.0],["KIAA0947",-0.15689020223497763,-5.235566771874711,105.0,722.0],["KIF5A",-0.12622141848922933,-3.5625564188114276,60.0,767.0],["MED12L",-0.14801830247594427,-4.716270222750965,101.0,726.0],["NYNRIN",-0.11887660916632159,-3.2122096057971152,97.0,730.0],["OR5F1",-0.12302927812526233,-3.4079405652806796,39.0,788.0],["PIEZO2",-0.1327626413481522,-3.8907573182068935,122.0,705.0],["SVEP1",-0.14538187476320544,-4.567544298967193,140.0,687.0],["TRPC4",-0.12417009122619493,-3.4627813592587593,77.0,750.0]]},"para":{"top":[],"bottom":[["AC004899.1",-0.1084421311196773,-3.0377916287146496,10.0,817.0],["ACRV1",-0.1334487119536805,-4.201533457252944,9.0,818.0],["ADPRM",-0.11745232358815759,-3.4328336001548627,11.0,816.0],["AP2S1",-0.08220410199885593,-2.0413054516287445,8.0,819.0],["C4orf6",-0.1504132523421465,-5.11230041412359,11.0,816.0],["CALML3",-0.09219604628663827,-2.3940352995244183,9.0,818.0],["CCNO",-0.12647318103227534,-3.8559722494266713,19.0,808.0],["CD38",-0.09236118261603284,-2.4001845967860933,10.0,817.0],["CTAG2",-0.13896666917735864,-4.487266859525027,17.0,810.0],["EID2B",-0.09537435315322093,-2.513028343076475,8.0,819.0],["FAM89A",-0.09449461142581737,-2.4797432339922745,8.0,819.0],["GINS3",-0.09459811045257076,-2.483645871839665,8.0,819.0],["GZMB",-0.12650551533354198,-3.8574055925408395,14.0,813.0],["HINT2",-0.11589802164918145,-3.362643059879152,9.0,818.0],["LYNX1",-0.10514642149696632,-2.9002564042531485,14.0,813.0],["MRPS25",-0.10631937523238874,-2.9485831683097676,8.0,819.0],["NKX6-2",-0.13293247718322349,-4.175670132743766,16.0,811.0],["NSMCE1",-0.11536437517517378,-3.339010292533165,15.0,812.0],["NUDC",-0.10978607206090406,-3.0949787515891622,10.0,817.0],["PDC",-0.10241889450110934,-2.7889871769276007,12.0,815.0],["PIGM",-0.09505834583645355,-2.501185500785622,11.0,816.0],["PPP1R1A",-0.10527159136585859,-2.905317213982592,11.0,816.0],["PTPLAD1",-0.1045641804200989,-2.876207529624988,11.0,816.0],["SF3B4",-0.13090297582930757,-4.073607649241878,14.0,813.0],["SHFM1",-0.08960428241172115,-2.2993642634509377,8.0,819.0],["SLC35G6",-0.11733820346832674,-3.4275555713359784,9.0,818.0],["SPP2",-0.13905046402588206,-4.491456695197594,11.0,816.0],["TPT1",-0.09807882286992653,-2.6170108311420495,9.0,818.0]]}}}
{"depmap_damaging":{"corr":{"top":[["GOLGA8A",0.13737620445763554,-4.127115644835977,15.0,811.0]],"bottom":[["ADAM21",-0.11233453810992428,-2.9131962454543348,11.0,815.0],["PKN1",-0.11715937343271378,-3.129818313738086,14.0,812.0],["SSC5D",-0.10124837406513043,-2.4461228328539955,8.0,818.0]]},"para":{"top":[["GOLGA8A",0.125670722860263,-3.8134731488878684,15.0,811.0]],"bottom":[["ADAM21",-0.11952698957132778,-3.5243214090180297,11.0,815.0],["ATXN1L",-0.09774410528310044,-2.601722297465608,9.0,817.0],["CENPJ",-0.10172085660572701,-2.758418616998761,11.0,815.0],["CHPF2",-0.11895941194200693,-3.498409496703553,15.0,811.0],["CSTF2T",-0.10082535553720869,-2.7226041165430694,9.0,817.0],["CXorf22",-0.09290413967520915,-2.418124087003583,8.0,818.0],["DHX9",-0.08974166617064006,-2.3023606072376874,8.0,818.0],["EIF3M",-0.09165496787617224,-2.37205929942625,9.0,817.0],["GKAP1",-0.09268205129420834,-2.40994160903348,9.0,817.0],["ITIH2",-0.09026010445007762,-2.3211133690255448,8.0,818.0],["KCNH8",-0.10338187647192108,-2.825384339333958,11.0,815.0],["KCNT2",-0.11240928162703083,-3.205496127337592,13.0,813.0],["NRXN2",-0.12235920515423976,-3.655913396190958,10.0,816.0],["NWD1",-0.11914953406433712,-3.507125443648031,15.0,811.0],["PKN1",-0.12262616197116892,-3.6686281072832463,14.0,812.0],["PNPLA8",-0.09581221028250875,-2.527533369628893,9.0,817.0],["PRKCI",-0.08411661083874264,-2.104540404457328,8.0,818.0],["RGS7",-0.09598848668426892,-2.534298983964338,10.0,816.0],["ROBO3",-0.10973480621544264,-3.0900298175388823,12.0,814.0],["SALL4",-0.1323097934183102,-4.140047594580398,12.0,814.0],["SETDB2",-0.1040246407691446,-2.851390216362245,8.0,818.0],["SND1",-0.10998668098267647,-3.100597219663084,8.0,818.0],["SRRM3",-0.09405149585158977,-2.460990927841191,9.0,817.0],["SSC5D",-0.11307138874532992,-3.234201042738244,8.0,818.0],["TDRD9",-0.10262759362301155,-2.794817951917854,10.0,816.0],["TFEC",-0.1144193282718675,-3.293584653274322,8.0,818.0],["TTF2",-0.10334721710238577,-2.8239343524993434,10.0,816.0],["UBTF",-0.10031181382819064,-2.7022386676224106,9.0,817.0],["ZMYND8",-0.09896986754462846,-2.6493766131475054,8.0,818.0],["ZNF91",-0.09515279490176982,-2.5025394455964958,10.0,816.0]]}}}
{"prism_primary_logfold":{"corr":{"top":[["desonide_BRD-K21528677-001-02-8::2.44::HTS",0.22720873424978205,-5.869166622005255,443]],"bottom":[]},"para":{"top":[],"bottom":[]}}}
{"prism_secondary_logfold":{"corr":{"top":[],"bottom":[]},"para":{"top":[["PIK-75_BRD-K49371609-003-03-8::0.15625::HTS002",0.22249814290726067,-5.152423688579146,400]],"bottom":[]}}}
{"ccle_proteomics":{"corr":{"top":[],"bottom":[["NME3_Q13232",-0.3469238552738585,-9.611941869056992,315],["RPP25_Q9BUL9",-0.4156795081386764,-14.115545379200764,321]]},"para":{"top":[["SMG6_Q86US8",0.28360150831812725,-5.870034669151931,281]],"bottom":[["NME3_Q13232",-0.3421561261374398,-9.352846529918468,315],["COG4_Q9H9E3",-0.31708564159580016,-8.202982866657397,321],["RPP25_Q9BUL9",-0.40644523753489264,-13.47329845778197,321]]}}}
{"depmap_gene_tpm":{"corr":{"top":[],"bottom":[["RPP25_54913",-0.45496791778658235,-42.56275699681504,823]]},"para":{"top":[],"bottom":[["RPP25_54913",-0.4609137585591956,-43.79681768407704,823]]}}}
{"avana":{"corr":{"top":[],"bottom":[["NUFIP1_26747",-0.1932770313064639,-4.540278147591913,462]]},"para":{"top":[],"bottom":[]}}}
{"drive":{"corr":{"top":[],"bottom":[]},"para":{"top":[],"bottom":[["IQSEC3_440073",-0.24448220709280682,-4.900825680676822,312],["IKZF4_64375",-0.2609520016815616,-5.5573570793160725,314]]}}}
{"ccle_rrbs_tss1kb":{"corr":{"top":[["MAP2K7_19_7967664_7968664",0.9247426271860837,-323.0051853474518,817]],"bottom":[]},"para":{"top":[["MAP2K7_19_7967664_7968664",0.9663854427107186,-323.0051853474518,817],["CDPF1_22_46646193_46647193",0.4697573970093408,-45.351491711523494,817]],"bottom":[]}}}
{"ccle_gene_tpm":{"corr":{"top":[],"bottom":[["RPP25_ENSG00000178718.5",-0.4622282855909146,-43.96803726549927,821]]},"para":{"top":[],"bottom":[["RPP25_ENSG00000178718.5",-0.46806535658346143,-45.205805297346295,821]]}}}
{"ccle_rrbs_tss_clusters":{"corr":{"top":[["COASY_3",0.5068631125069925,-50.055152798253786,759],["RPP25_1",0.496229812114784,-51.772710753297666,825],["MAP2K7_2",0.7743186024002906,-165.40314873493972,827]],"bottom":[]},"para":{"top":[["COASY_3",0.4838706778271918,-45.0718219165715,759],["RPP25_1",0.4977824722547866,-52.14035410740843,825],["CDPF1_3",0.4805833738871775,-48.28607365387661,827],["MAP2K7_2",0.8146597217227813,-196.6770936681792,827],["TELO2_2",0.48419273849274036,-49.10231142045959,827]],"bottom":[["MAST4_5",-0.25121240460518357,-4.378362652055436,260]]}}}
{"ccle_rrbs_cgi_clusters":{"corr":{"top":[["17_40714685_40717282-3",0.5068631125069925,-50.055152798253786,759],["15_75246277_75249099-1",0.48401867257655806,-48.77159759727216,822],["19_7966325_7968873-2",0.805161453688655,-188.65882651289257,827],["19_7966325_7968873-1",0.9999999999999999,-323.0051853474518,827]],"bottom":[]},"para":{"top":[["19_54969878_54974090-3",0.48864547170593436,-49.706260388377025,820],["15_75246277_75249099-2",0.48929182018584766,-50.093128539818714,824],["15_75246277_75249099-1",0.48258397987218415,-48.448134027714225,822],["19_7966325_7968873-2",0.8416785832100177,-222.27095969953623,827],["19_7966325_7968873-1",0.9999999999999999,-323.0051853474518,827],["17_40714685_40717282-3",0.4838706778271918,-45.0718219165715,759]],"bottom":[]}}}
