{"depmap_hotspot":{"corr":{"top":[["ACACA",0.22840545416717617,-4.4299955724876146,33.0,287.0],["ASTN2",0.20090835482536373,-3.525461523199026,39.0,281.0],["BHMT",0.21501813587884394,-3.9752624642621543,10.0,310.0],["CACNA2D2",0.23629061627873638,-4.710834587097826,12.0,308.0],["CYP4F12",0.2832091368571147,-6.589401991074949,15.0,305.0],["DHX33",0.23124482393906856,-4.530002203529294,18.0,302.0],["DPY19L4",0.2011749953567288,-3.533685522417506,14.0,306.0],["EDEM3",0.2282388740341055,-4.424167372736828,13.0,307.0],["ENC1",0.24346096704341208,-4.974720057717901,10.0,310.0],["EXOC5",0.20910799423726423,-3.7832135416174877,13.0,307.0],["FAM102B",0.2125925506189853,-3.8958042692599997,9.0,311.0],["FAM13B",0.27681952399999266,-6.31204435728391,16.0,304.0],["FBXO11",0.2347503976508335,-4.655211909565151,15.0,305.0],["GLYATL3",0.2134184641649779,-3.9227596739371258,11.0,309.0],["GNB5",0.24834034544727937,-5.158979265511508,11.0,309.0],["KCNA2",0.2145833828251817,-3.960955003248065,19.0,301.0],["KCNT2",0.231224066743744,-4.529266542281988,30.0,290.0],["LIPN",0.20280440101107639,-3.584170876865657,11.0,309.0],["LMOD1",0.21898095250805377,-4.107003241968487,13.0,307.0],["MCM6",0.2238057610195172,-4.270645378093135,15.0,305.0],["MPPED1",0.24057755910468642,-4.867623154352713,9.0,311.0],["NOM1",0.22015956439593493,-4.146648126392727,15.0,305.0],["OR10X1",0.20265415284980437,-3.579499071908506,8.0,312.0],["OR4D6",0.2464528647536182,-5.087249750840994,9.0,311.0],["OR52E8",0.37727118342627947,-11.536466055503846,9.0,311.0],["OR52R1",0.21929195912332095,-4.117443889935301,12.0,308.0],["PGD",0.21771723532962667,-4.064731776177824,8.0,312.0],["PHGDH",0.2319570754111216,-4.555286101521332,16.0,304.0],["PPIB",0.2875804667876726,-6.783188680719728,8.0,312.0],["PPP1CC",0.21306732725976857,-3.9112869657179576,8.0,312.0],["PRPS1L1",0.21262896573201098,-3.8969905753485206,14.0,306.0],["PRSS54",0.22215429549487872,-4.214230193114356,8.0,312.0],["R3HCC1L",0.22370924735999037,-4.26733684192396,9.0,311.0],["RBFOX1",0.227946420771207,-4.41394563701483,25.0,295.0],["RGS7",0.2133623422183611,-3.9209247451856273,11.0,309.0],["RHOT1",0.22856257758396756,-4.435496860806835,13.0,307.0],["RIMS3",0.22227575912021613,-4.2183651649595975,10.0,310.0],["RING1",0.20910799423726428,-3.7832135416174877,13.0,307.0],["RPTN",0.20640973658054795,-3.6972849201448663,18.0,302.0],["RRAGC",0.24503633876890776,-5.033793507590487,12.0,308.0],["RXRB",0.20902692184221358,-3.780615773564539,11.0,309.0],["SLC16A10",0.22175053638564318,-4.200501377568866,10.0,310.0],["SMAD5",0.25017500311893254,-5.229251200282439,10.0,310.0],["SPATA16",0.24017706095301442,-4.852852260435246,13.0,307.0],["STRADA",0.20880371290039412,-3.7734686938943796,13.0,307.0],["TBK1",0.211543585370971,-3.8617179261951406,12.0,308.0],["THAP11",0.3399313623258906,-9.370046774473325,11.0,309.0],["TPP2",0.22313385589102275,-4.247641943400982,19.0,301.0],["TTC16",0.23894684948626643,-4.807639581016167,15.0,305.0],["USP9Y",0.2355637134850685,-4.6845370516025815,8.0,312.0],["YY1",0.22017541860704443,-4.147182864019155,13.0,307.0]],"bottom":[]},"para":{"top":[["DIMT1",0.24113137504378038,-5.075997361837469,8.0,312.0],["DUSP10",0.20223390101074404,-3.8134707628020217,8.0,312.0],["FAM13B",0.2576259760685453,-5.673624672796001,16.0,304.0],["GFI1B",0.18148000738780645,-3.221356322178808,9.0,311.0],["HNRNPM",0.22708275904610525,-4.598258583249752,14.0,306.0],["HNRNPR",0.2369998446218241,-4.933217535447164,11.0,309.0],["HP1BP3",0.22700724607630898,-4.595434309560653,12.0,308.0],["KRTAP4-11",0.24739452764232014,-5.297998352223482,8.0,312.0],["LHX4",0.21942227842698128,-4.347700378442319,12.0,308.0],["OR10G8",0.178526700597131,-3.141999726480914,11.0,309.0],["OR52E8",0.20062412480521652,-3.7657845792182614,9.0,311.0],["PPID",0.2245931823847382,-4.5151006298064305,9.0,311.0],["SHISA6",0.21549434875143647,-4.222392372173523,12.0,308.0],["SLC35E3",0.24360367212215137,-5.16300666424603,8.0,312.0]],"bottom":[]}}}
{"depmap_damaging":{"corr":{"top":[["BACH2",0.1832843986291191,-3.0050645608500353,10.0,310.0],["DOCK5",0.17113449089508095,-2.672464664678872,10.0,310.0],["NARS2",0.20265415284980434,-3.579499071908506,8.0,312.0],["RABL2A",0.10997358896424564,-1.3066915884436308,10.0,310.0],["RIN2",0.11614375931419398,-1.4220075661376315,8.0,312.0],["UBN2",0.24389969642122533,-4.991131724269055,11.0,309.0],["VWA8",0.3160444587971169,-8.127386358553924,11.0,309.0]],"bottom":[]},"para":{"top":[["NAV3",0.17836028103189627,-3.137361258041717,10.0,310.0],["RAPGEF6",0.24179065426467933,-5.099120471012408,8.0,312.0],["VWA8",0.24208446584136273,-5.110273039356152,11.0,309.0]],"bottom":[]}}}
{"ccle_rrbs_enhancer_clusters":{"corr":{"top":[],"bottom":[["8-144614040-144616569-0_enh",-0.2053894720419827,-3.6650780343805356,320]]},"para":{"top":[],"bottom":[["18-56473257-56476866-2_enh",-0.1745253589404634,-2.4105125706624047,272]]}}}
{"ccle_mirna":{"corr":{"top":[],"bottom":[["kshv-miR-K12-8_miR00797.1",-0.1825426772648615,-2.9523313747011097,316]]},"para":{"top":[],"bottom":[]}}}
{"prism_primary_logfold":{"corr":{"top":[["methoxyflurane_BRD-K06152156-001-01-8::2.5::HTS",0.24551677641299374,-2.4612443524616148,140],["benzoylpas_BRD-K20431737-001-08-1::2.5::HTS",0.197412927936328,-1.9960596210725743,169],["RN-1747_BRD-K45519571-001-01-8::2.5::HTS",0.19554537518450119,-1.974560187023891,170],["desogestrel_BRD-K46061689-001-01-9::2.5::HTS",0.19733229559767754,-2.0043982800978415,170],["procyanidin-b-2_BRD-K72093555-001-01-0::2.5::HTS",0.19062380172615961,-1.8936240957683523,170],["benproperine_BRD-A42423104-001-01-4::2.495664958::MTS004",0.22495218739539538,-2.447325329681188,166],["elbasvir_BRD-K09735259-001-01-3::2.500007896::MTS004",0.241261939820125,-2.759429005491539,166]],"bottom":[["hypoestoxide_BRD-A51571244-001-01-9::2.5::HTS",-0.30119335798716035,-4.138499916810171,168],["azacitidine_BRD-K03406345-001-27-8::2.5::HTS",-0.2611859441662565,-3.219186936562879,169],["ertugliflozin_BRD-K10071630-001-01-0::2.5::HTS",-0.22485255246330646,-2.5196897511704472,172],["mechlorethamine_BRD-K12829205-003-02-8::2.5::HTS",-0.23653482940836137,-2.571197402991728,159],["bergapten_BRD-K12968785-001-13-3::2.5::HTS",-0.24665574531369006,-2.8968446667346597,168],["arecaidine-propargyl-ester_BRD-K23922020-075-02-9::2.5::HTS",-0.23258063334829646,-2.6698157963569207,172],["NMS-873_BRD-K26253904-001-01-5::2.5::HTS",-0.25593102674786833,-3.121750815364838,170],["acamprosate_BRD-K26262077-238-01-5::2.5::HTS",-0.24520366179343686,-2.7356125084282197,159],["costunolide_BRD-K26833429-001-02-8::2.5::HTS",-0.2583607634795334,-3.1741320891789213,170],["MK-5108_BRD-K53665955-001-03-0::2.5::HTS",-0.250840783568963,-2.998387670781637,169],["CMPD-1_BRD-K54095730-001-03-1::2.5::HTS",-0.2268686833575064,-2.5206773856245484,169],["mycophenolic-acid_BRD-K63750851-001-20-7::2.5::HTS",-0.26056042085370806,-3.2547790195980673,172],["adefovir-dipivoxil_BRD-K96159438-001-06-3::2.5::HTS",-0.24500847754674324,-2.9215236651386904,172],["TMS_BRD-K96233303-001-01-9::2.5::HTS",-0.23094240491144913,-2.6375855107841115,172],["vinflunine_BRD-K64120610-001-01-4::2.5::MTS004",-0.23214120429725899,-2.582308141536231,166]]},"para":{"top":[["anamorelin_BRD-K01174345-001-01-9::2.5::HTS",0.22738518378907596,-2.5431112123500785,170],["indatraline_BRD-K01649396-003-07-1::2.5::HTS",0.2075724976035803,-2.1800803382903706,170],["pipemidic-acid_BRD-K08999871-213-01-5::2.5::HTS",0.23854285144118953,-2.7336375685456544,168],["benzoylpas_BRD-K20431737-001-08-1::2.5::HTS",0.24369503060447384,-2.8510847777313746,169],["dimethyl-fumarate_BRD-K31111078-001-04-2::2.5::HTS",0.2103696661173112,-2.251269831287897,172],["RN-1747_BRD-K45519571-001-01-8::2.5::HTS",0.2597327447805016,-3.203931236920571,170],["BYK-204165_BRD-K61665160-001-01-5::2.5::HTS",0.22490914034201884,-2.4960469956523754,170],["PYM50028_BRD-K62277907-001-01-6::1.2::HTS",0.2556620046619723,-3.147589087745737,172],["guanidine_BRD-K76037122-001-02-5::2.5::HTS",0.2249484547296188,-2.521523077885764,172],["pargyline_BRD-K83597974-003-22-2::2.5::HTS",0.21807741061189098,-2.310307936778148,165],["1-deoxymannojirimycin_BRD-K89665618-003-02-5::2.5::HTS",0.21148165114420117,-2.2712892063186705,172],["somatostatin_BRD-K14681867-001-01-6::2.5::MTS004",0.21228668179741386,-2.2192559769436806,166],["fanetizole_BRD-K60798049-001-03-8::2.665505334::MTS004",0.239295649256546,-2.7206845509504887,166],["zopolrestat_BRD-K84459715-001-01-6::2.403005639::MTS004",0.2042450012479141,-2.0807890708874326,166],["vorapaxar_BRD-K93442924-001-03-4::2.5::MTS004",0.2233600735020114,-2.4179766955797044,166]],"bottom":[["doramectin_BRD-A16350940-001-01-9::2.5::HTS",-0.26592182191034114,-3.323286789888398,169],["pralatrexate_BRD-A74914197-001-02-9::2.5::HTS",-0.25356849547611227,-3.102405011334152,172],["9-aminoacridine_BRD-K00535541-001-06-3::2.5::HTS",-0.25427659058051033,-2.913906132113392,159],["triapine_BRD-K01669786-001-02-2::2.5::HTS",-0.24208684873194347,-2.6758354685381067,159],["parbendazole_BRD-K02407574-001-09-7::2.5::HTS",-0.25077513224133896,-3.0579129667996154,173],["UK-383367_BRD-K06294530-001-01-5::2.5::HTS",-0.25508605939560225,-3.1036517580532252,170],["mechlorethamine_BRD-K12829205-003-02-8::2.5::HTS",-0.24336177052322397,-2.700196722828837,159],["D-64131_BRD-K26997899-001-02-2::2.5::HTS",-0.2580397945094445,-3.21544466982983,173],["azathioprine_BRD-K32821942-001-21-3::2.5::HTS",-0.24102455947318446,-2.8394400597234637,172],["tivantinib_BRD-K33379087-001-07-5::2.5::HTS",-0.2425831204285528,-2.8713944778627574,172],["CR8-(R)_BRD-K40331046-305-01-5::2.5::HTS",-0.27694827040744346,-3.59162167286687,170],["mycophenolic-acid_BRD-K63750851-001-20-7::2.5::HTS",-0.2565547609713711,-3.1669713426567365,172],["diphenyleneiodonium_BRD-K65814004-003-02-9::2.5::HTS",-0.2478036586142048,-2.950151683362267,170],["cyclocytidine_BRD-K67536197-003-11-4::2.5::HTS",-0.3324602353117403,-5.0246405190419985,170],["oxaliplatin_BRD-K78960041-001-05-7::2.54::HTS",-0.24795485896524047,-2.7890003560901846,159],["cladribine_BRD-K93034159-001-25-8::2.5::HTS",-0.25417753909219565,-3.115511376975675,172]]}}}
{"prism_secondary_logfold":{"corr":{"top":[["clofoctol_BRD-K02900412-001-11-3::0.000610352::MTS006",0.2217789585755634,-2.1951431848707466,150],["CCMI_BRD-K16338837-001-02-6::0.0390625::HTS002",0.22849789419584135,-2.334018575072707,152],["PD-168393_BRD-K17702546-001-03-2::0.15625::HTS002",0.2601193394878025,-2.9005563089458946,151],["gidazepam_BRD-K22588750-001-07-0::0.156250001::MTS006",0.2695226127382192,-3.0695096930589196,150],["acipimox_BRD-K63736853-001-04-8::0.15625::HTS002",0.2562617451896692,-2.8419400995616018,152],["mycophenolic-acid_BRD-K63750851-001-20-7::0.0390625::HTS002",0.29049627793107125,-2.702883269168254,111],["dimethisoquin_BRD-K73391359-003-10-2::0.00061034::HTS002",0.2283882756035428,-1.956198407009637,123],["entinostat_BRD-K77908580-001-09-6::0.00976562::HTS002",0.23426836721792157,-2.4214799000348495,151],["mebendazole_BRD-K77987382-001-13-2::0.00061034::HTS002",0.31003147578259943,-3.008613545041629,110],["litronesib_BRD-K83029223-001-01-3::0.000153::MTS010::PROS005_PR500",0.2369888805651001,-2.4282123803630538,148],["linsitinib_BRD-K86118762-001-01-8::0.00061::MTS010::PROS002_PR500",0.2442228247164688,-2.3803134882255086,136],["AM-251_BRD-K92000912-001-12-6::0.625::HTS002",0.22878421090445858,-2.3260778543063663,151],["SIB-1757_BRD-K98157055-001-10-9::0.15625::HTS002",0.2892681821012824,-2.909678957074813,122]],"bottom":[["norethindrone-acetate_BRD-A09349126-001-10-7::2.5::HTS002",-0.41150897275550224,-6.524000507129898,144],["ajmaline_BRD-A48300215-001-04-8::2.5::HTS002",-0.3076301087697207,-3.5237244473541356,134],["dabrafenib_BRD-K09951645-001-06-8::0.15625::HTS002",-0.3799118327197245,-5.153450956691099,132],["MK-0812_BRD-K14175878-001-01-6::2.5::HTS002",-0.35510365136201993,-5.176056109652426,153],["AZD3463_BRD-K24593301-001-02-3::0.0397619::HTS002",-0.32214405365116944,-4.159951776735701,147],["azathioprine_BRD-K32821942-001-21-3::0.00061034::HTS002",-0.30784191287613144,-3.8044186758586225,146],["RS-67506_BRD-K50018155-003-02-1::10::HTS002",-0.3337748129574362,-4.091040084902223,134],["Y-39983_BRD-K56751279-300-01-4::0.00061034::HTS002",-0.31057175577374907,-3.749190325699424,141],["thiostrepton_BRD-K58049875-001-04-7::0.00976562::HTS002",-0.3170203934149932,-3.476315223223998,124],["CB-10-277_BRD-K59929863-001-01-9::0.00976562::HTS002",-0.30934254667220057,-3.9773226348004487,152],["ACDPP_BRD-K68633617-003-02-9::10::HTS002",-0.31824166658418823,-3.5006416270911904,124],["tyrphostin-AG-1296_BRD-K76064317-001-07-3::10::HTS002",-0.3444451753291929,-4.770374142083557,149],["mebendazole_BRD-K77987382-001-13-2::10::HTS002",-0.31738879286608773,-3.1623046491182487,111],["pentagastrin_BRD-K78789465-001-01-6::10::HTS002",-0.42157714218345804,-6.3628533092566215,133],["PAC-1_BRD-K92991072-001-04-9::0.00976562::HTS002",-0.37882947225291624,-5.686803230870407,148],["cladribine_BRD-K93034159-001-25-8::0.625::HTS002",-0.341689257112638,-3.6156663724467917,111]]},"para":{"top":[["tiletamine_BRD-A30582499-003-05-1::0.00061034::HTS002",0.2869575093381408,-3.0504588038750176,131],["ecamsule-triethanolamine_BRD-A47953250-001-01-7::0.00061034::HTS002",0.24573622311177065,-2.2261202583324464,124],["LY2603618_BRD-K14109347-001-03-4::0.00244::MTS010::PROS004_PR500",0.24668473112036837,-2.6007888007649367,148],["forodesine_BRD-K16505263-003-02-9::0.009765627::MTS006",0.274479974187865,-3.169973016949833,150],["U-0126_BRD-K18787491-001-08-6::0.00976562::HTS002",0.2380535708191596,-2.488581406265121,151],["gidazepam_BRD-K22588750-001-07-0::0.156250001::MTS006",0.26184700229100766,-2.9176460302512233,150],["cyproterone-acetate_BRD-K41141507-001-16-2::0.15625::HTS002",0.3123412542715151,-2.9765136832884584,107],["famciclovir_BRD-K45033733-001-12-2::0.0024414::HTS002",0.2432006311758999,-1.9356322583214869,107],["acetylsalicylsalicylic-acid_BRD-K46585355-001-14-3::0.625::HTS002",0.233619294028789,-2.34290170581266,146],["naproxen_BRD-K59197931-001-04-5::0.0024414::HTS002",0.2503619625494478,-2.1258988360828455,113],["D-Serine_BRD-K71822263-001-03-2::0.15625::HTS002",0.23565702548136566,-1.8373202884052422,107],["mebendazole_BRD-K77987382-001-13-2::0.00061034::HTS002",0.29732645056924045,-2.7936686643496738,110],["linsitinib_BRD-K86118762-001-01-8::0.00977::MTS010::PROS002_PR500",0.23985212180605162,-2.4077520864723425,143],["hydrocortisone_BRD-K93568044-001-32-0::0.00061034::HTS002",0.30040699064977794,-2.666204772759053,102]],"bottom":[["K-858_BRD-A67748489-001-10-0::10::HTS002",-0.2766297496688762,-3.1397558557067424,146],["merimepodib_BRD-K09372874-001-01-0::2.5::HTS002",-0.28382062695217336,-3.168672076998543,140],["dabrafenib_BRD-K09951645-001-06-8::0.625::HTS002",-0.27445547925050384,-2.838838645713161,132],["ER-27319_BRD-K11927976-050-02-9::2.5::HTS002",-0.31119010555165405,-3.9740914127891425,150],["UNC0631_BRD-K13060017-001-01-3::0.625000001::MTS006",-0.28575143587677265,-3.425254046582031,151],["KX2-391_BRD-K29968218-001-03-2::2.5::HTS002",-0.2910243065515561,-3.334026538638342,141],["hyoscyamine_BRD-K40530731-001-11-6::10::HTS002",-0.2838430820849248,-3.403952638221013,152],["anguidine_BRD-K45724504-001-01-6::0.085288::HTS002",-0.29848368753137217,-3.661942976603253,149],["BMS-707035_BRD-K49555808-001-03-9::0.0024414::HTS002",-0.2871850619089953,-2.751089185852634,116],["anastrozole_BRD-K52172416-001-11-4::0.00976562::HTS002",-0.28014685968451564,-2.789086806155944,124],["cinalukast_BRD-K53720352-001-03-2::10::HTS002",-0.31467329636948155,-3.9361403742080308,145],["Y-39983_BRD-K56751279-300-01-4::0.00061034::HTS002",-0.2920414921935101,-3.3549164403783034,141],["vinorelbine_BRD-K69280563-001-01-8::2.5::HTS002",-0.28406219323926174,-3.2519953041954563,144],["homoharringtonine_BRD-K76674262-001-03-3::0.15625::HTS002",-0.29125205569443896,-3.194073829454546,134],["taltobulin_BRD-K87512222-019-01-7::0.00976562::HTS002",-0.28054747926237733,-2.9889207294596805,134],["RAF265_BRD-K93123848-001-04-1::10::HTS002",-0.3088949529775671,-3.8050453827362363,145]]}}}
{"ccle_proteomics":{"corr":{"top":[["RRP1_P56182",0.2982775022656952,-2.8533441546183322,112],["NOP14_P78316",0.2914193527657143,-2.7389221913156,112],["TOE1_Q96GM8",0.31409536516466674,-3.12799569960972,112],["TBC1D2B_Q9UPU7",0.31600159009803336,-2.965032650713426,104],["DDX55_Q8NHQ9",0.32064501968667625,-3.2462050556312856,112],["ATAD3B_Q5T9A4",0.3129045021326459,-3.1067881156308528,112],["ATAD3C_Q5T2N8",0.4142697356351433,-5.080473343988925,108],["PPAN_Q9NQ55",0.29977519331100017,-2.8787026964432796,112],["MORC3_Q14149",0.27729520677946085,-2.511916404219056,112],["OMA1_Q96E52",0.29872734021823955,-2.772801968301977,108],["POLR1C_O15160",0.3360374104035527,-3.534652189634069,112]],"bottom":[["TSEN15_Q8WW01",-0.3274074187350301,-3.1861255294222124,105]]},"para":{"top":[["POLR3E_Q9NVU0",0.2988556459916442,-2.8631173004998276,112],["RUVBL2_Q9Y230",0.2573666650606035,-2.2108471371270895,112],["ACADM_P11310-2",0.2818320962864653,-2.583580521320781,112],["ATAD3C_Q5T2N8",0.3116303908260795,-2.9884353247395885,108],["AK2_P54819",0.3352213626864184,-3.5189787627698177,112],["POLR1C_O15160",0.3217534200897804,-3.2664741889022277,112]],"bottom":[["WIPF2_Q8TF74",-0.32394440003060104,-3.3067672579901846,112],["CDC42EP4_Q9H3Q1",-0.36293449123355837,-4.075951672666804,112],["VPS13B_Q7Z7G8",-0.28993040072044457,-2.5269883107025386,103]]}}}
{"depmap_copy_number":{"corr":{"top":[["GIHCG_100506844",0.2787719333541113,-6.377847426482883,319],["MIR6757_102466193",0.27943517700722686,-6.406446377963185,319],["LINC02403_105369785",0.28422029192003834,-6.615002910196314,319],["KRT78_196374",0.2720180739421649,-6.0908605483812925,319],["EIF4B_1975",0.2804025326882995,-6.448292765459449,319],["TNS2_23371",0.27943517700722686,-6.406446377963185,319],["LOC283335_283335",0.2802008920850168,-6.439556942804192,319],["KRT79_338785",0.27321317079094615,-6.141083093926463,319],["IGFBP6_3489",0.27943517700722686,-6.406446377963185,319],["KRT6A_3853",0.2711578214216722,-6.054857727045676,319],["KRT8_3856",0.2720180739421649,-6.0908605483812925,319],["KRT18_3875",0.2804025326882995,-6.448292765459449,319],["CSAD_51380",0.27664428561182736,-6.286607519204932,319],["SOAT2_8435",0.27943517700722686,-6.406446377963185,319],["SPRYD3_84926",0.27943517700722686,-6.406446377963185,319],["ATP23_91419",0.2787719333541113,-6.377847426482883,319]],"bottom":[["LOC100996385_100996385",-0.25737869056945456,-5.494931153683937,319],["ADAMTS14_140766",-0.19815831809453407,-3.4319534385858703,319],["FAM153B_202134",-0.25737869056945456,-5.494931153683937,319]]},"para":{"top":[],"bottom":[]}}}
{"depmap_gene_tpm":{"corr":{"top":[["SLC32A1_140679",0.33896040651325093,-9.263105841241856,318],["CLEC4M_10332",0.32018497954027897,-8.28684370016855,318],["PRDM12_59335",0.309995964805632,-7.7844085622217865,318],["TRAPPC3L_100128327",0.3430458654016599,-9.484407695864988,318],["HES3_390992",0.3760855185844447,-11.395725820849176,318],["RTP1_132112",0.3252818695849248,-8.545330373791334,318],["PABPC1L2A_340529",0.3045418196253313,-7.5231744040666,318],["LIPI_149998",0.30710737589836723,-7.6453911875850515,318],["CENPVL1_389857",0.3578361913474471,-10.312855617964024,318],["TCP11X1_100996631",0.331304315685016,-8.85699818128743,318]],"bottom":[]},"para":{"top":[["DCANP1_140947",0.32026383086677634,-8.290806025368223,318]],"bottom":[]}}}
{"avana":{"corr":{"top":[["AFAP1L2_84632",0.24478906780897558,-3.0908806820263193,184],["CACNG7_59284",0.24835878024807082,-3.170420992796641,184],["CCDC166_100130274",0.24120540210856273,-3.0121821070022787,184],["EVA1C_59271",0.25040866639798626,-3.2166175243212085,184],["FAM229A_100128071",0.2818708423802843,-3.9744980606790508,184],["FAM3A_60343",0.24655328354504472,-2.9389787022044827,171],["FBXO22_26263",0.2589393930004962,-3.4129863806188063,184],["KIF17_57576",0.26736260501809905,-3.613477996609797,184],["LHCGR_3973",0.2680143444706449,-3.6292672730224655,184],["NAGA_4668",0.2786263227583466,-3.8920158280811075,184],["OXTR_5021",0.23735393928748055,-2.928881285146055,184],["RAB38_23682",0.23771198577946134,-2.936569639299437,184],["SHISA7_729956",0.279481610972994,-3.9136605388998182,184],["SHQ1_55164",0.24057953482202785,-2.9985557184873963,184],["TNFRSF13B_23495",0.24583679275567538,-3.1141069267883488,184],["YBX2_51087",0.24809469241670637,-3.149654047971597,183]],"bottom":[["CHKA_1119",-0.262376334467543,-3.493995498274919,184],["GLS_2744",-0.3204811687768047,-5.011520607629457,183],["GUCA1C_9626",-0.26060065516158215,-3.4520057878250943,184],["IFT172_26160",-0.3158533131718368,-4.900900730985255,184],["NDUFAF2_91942",-0.2741744187371868,-3.7804841478200073,184],["PHOX2A_401",-0.2782774695517891,-3.883207614608954,184],["SLC7A11_23657",-0.28433257821791025,-4.037759280593662,184],["SLTM_79811",-0.26360569355170277,-3.5232380721463494,184],["TCEAL2_140597",-0.2758908187918864,-3.567064033274853,170],["TLX2_3196",-0.2771821935332382,-3.855628824890812,184]]},"para":{"top":[["B4GALT7_11285",0.267271114611603,-3.6112647118998744,184],["CBR4_84869",0.2799378398110588,-3.9252350725430794,184],["COL23A1_91522",0.28756721562352405,-4.1217783606960845,184],["DIAPH3_81624",0.2558021175131953,-3.339993518022548,184],["DRC1_92749",0.3121685672273792,-4.794803335177382,184],["ERVV-2_100271846",0.2594595627216409,-3.425176565363053,184],["FBXW12_285231",0.26101160770995363,-3.4616976018647443,184],["FOSL2_2355",0.27890650470123013,-3.8990986234402305,184],["HAAO_23498",0.2521211895017495,-3.240190557196392,183],["INSIG1_3638",0.24880986667066946,-3.180554041718226,184],["LENG9_94059",0.24942780119282928,-3.194465041641477,184],["OR2A12_346525",0.2549102343824031,-3.319407935528195,184],["PGLS_25796",0.2507539582269569,-3.224436616508435,184],["SIAE_54414",0.26968591335762543,-3.6699460771604393,184],["TNFRSF25_8718",0.26179635787914135,-3.480248513948609,184],["ZNRF2_223082",0.29685349772341046,-4.368700323491078,184]],"bottom":[["AMER1_139285",-0.28769541761162276,-3.8667533377950054,171],["ARL5B_221079",-0.2611471343443487,-3.4648972670286864,184],["CCDC80_151887",-0.26703271983522237,-3.6055012917277134,184],["FAM149B1_317662",-0.2605962537550818,-3.451902070785307,184],["FLI1_2313",-0.3167698136240921,-4.927508837741501,184],["GIGYF2_26058",-0.2688319455964813,-3.6491312802283193,184],["GLOD5_392465",-0.2744855179765669,-3.5345803436398797,170],["SLTM_79811",-0.26068508221624037,-3.453995618627986,184],["TCEAL2_140597",-0.272939333776754,-3.4990402630119797,170],["TMEM273_170371",-0.2568556523529972,-3.364404316340457,184],["TRIP12_9320",-0.2819740297725001,-3.9580712703582983,183],["VXN_254778",-0.292177987537489,-4.243313745255968,184]]}}}
{"drive":{"corr":{"top":[["TBC1D3J_100510707",0.2852745827256145,-2.6789653579736963,114],["MRGPRX4_117196",0.31155339773772656,-3.2021589508461314,117],["BHLHE23_128408",0.26335643860222846,-2.3335180830568123,114],["TMEM71_137835",0.3273292596657304,-3.5275000129757696,118],["RBMX_27316",0.2961677842735011,-2.9474593494152495,118],["HBBP1_3044",0.27796877216742605,-2.560737581298939,114],["TNFSF12-TNFSF13_407977",0.27092049234913557,-2.5222938846595415,118],["POTEE_445582",0.26144234287802554,-2.3555957758917994,117],["CCNB1IP1_57820",0.30217724121173356,-2.9871147099402537,115],["LOC641746_641746",0.25882149963447193,-2.265461920086875,114],["SRD5A3_79644",0.26912149439139643,-2.4396658169848506,115],["SYDE2_84144",0.3192891952237929,-3.296710916472889,115]],"bottom":[["CSMD3_114788",-0.31928256735458044,-3.3716578985120678,118],["NACC2_138151",-0.31605922879721127,-3.2368568728954474,115],["GUCY2D_3000",-0.30926964057123724,-3.0896785886521823,114],["TRIM49D1_399939",-0.31317365074956804,-3.256199066209308,118],["PDCD1_5133",-0.3385229028497013,-3.6390058402850016,114],["MBD3_53615",-0.3178487984882491,-3.344339972400949,118],["PRKACA_5566",-0.31032024812840703,-3.2031027452510106,118],["DUSP21_63904",-0.33464308181201413,-3.5904698765914738,115],["SLC5A1_6523",-0.3424735039296425,-3.7462860336993034,115],["C6_729",-0.31590839849680047,-3.2095495642601426,114],["CIAO1_9391",-0.3119149939207616,-3.232712859538931,118],["HAND2_9464",-0.3869429147363527,-4.8232889289429295,118],["MED13_9969",-0.3078385312041417,-3.0875061014741743,115]]},"para":{"top":[["APPBP2_10513",0.26592947468555617,-2.372645963945608,114],["TMEM71_137835",0.34405409545805477,-3.865418454510018,118],["FAP_2191",0.2791946974610892,-2.599629883150005,115],["FOXD1_2297",0.32937463668896755,-3.5678030669784513,118],["HBP1_26959",0.26412133475857635,-2.4143426687994967,118],["SESN1_27244",0.2952038333884618,-2.9305074402859104,118],["RBMX_27316",0.31050707290159335,-3.2065630710905095,118],["HBBP1_3044",0.2972612394859948,-2.8797811882671893,114],["ADGRE2_30817",0.2795690367202549,-2.605688517999922,115],["SFTPA1_653509",0.259741208737858,-2.329485752712391,117],["GSTA7P_730152",0.26804827374131907,-2.458574530424474,117],["CALM2_805",0.27905588577734675,-2.578132665097885,114]],"bottom":[["ASCL4_121549",-0.37076133515178894,-4.310514399940827,114],["COL2A1_1280",-0.3922344921161402,-4.798983175941642,114],["COL16A1_1307",-0.34498482225946203,-3.797134301443419,115],["CYP7A1_1581",-0.3396895391593502,-3.662067635913897,114],["NIM1K_167359",-0.3552738605745288,-3.978940747979816,114],["XRCC6_2547",-0.33510424900166197,-3.5995328337865873,115],["MAGEA2B&MAGEA2_266740&4101",-0.34095162778521354,-3.7727608518317437,117],["HSPB1_3315",-0.34088647983829057,-3.7143730217219693,115],["KCNC4_3749",-0.32245601463251905,-3.3304976248426787,114],["SLC5A1_6523",-0.34618962980466106,-3.821681230423873,115],["C6_729",-0.4161516963664785,-5.384556909995926,114],["RPS6KL1_83694",-0.34274163332040464,-3.722830663668252,114],["TSSK6_83983",-0.401511373467194,-5.020773110373953,114],["CBFB_865",-0.34470474020909525,-3.8789543449236152,118],["MED23_9439",-0.3399998711249054,-3.6966185075986933,115]]}}}
{"achilles":{"corr":{"top":[["FOXN4_121643",0.24146784956314324,-2.3636290778770164,138],["DEFA5_1670",0.261893237290827,-2.717539656970819,138],["SP8_221833",0.24692312856331236,-2.4554123201925964,138],["LYN_4067",0.2412745866634086,-2.3604136320732154,138],["MTUS1_57509",0.2449663233452149,-2.4222625598187717,138],["PTPN2_5771",0.2555221673030015,-2.604126483445176,138],["GZF1_64412",0.271144140501578,-2.887191772547574,138],["SPOCK2_9806",0.2347971642864939,-2.2540635266800066,138]],"bottom":[["HSPE1-MOB4_100529241",-0.2524607903263257,-2.5506116146141884,138],["RASSF3_283349",-0.2586573456994014,-2.65959038788932,138],["HNRNPH2_3188",-0.26523487874174123,-2.778137827168383,138],["SMAD4_4089",-0.2592081838071726,-2.669404347514543,138],["MRNIP_51149",-0.264777776602337,-2.769803137571131,138],["CXCL5_6374",-0.296727779537372,-3.387922754538974,138],["SPOCK1_6695",-0.28274330521769464,-3.1083880786447486,138]]},"para":{"top":[["CHRM5_1133",0.26918407425820595,-2.8507497394876213,138],["HECTD1_25831",0.2849068444793974,-3.1507074603338587,138],["DKK4_27121",0.2654225990459754,-2.7815648592369535,138],["FFAR1_2864",0.25542996954422015,-2.602505541149302,138],["OR52A5_390054",0.2801294728486088,-3.0577084256515974,138],["MDFI_4188",0.2818129276137439,-3.0902929493902995,138],["PRSS2_5645",0.255202933974017,-2.598516453040879,138],["MOGS_7841",0.2784560857019045,-3.0255190752402044,138],["ABHD13_84945",0.25885451053578,-2.6631007770952504,138],["PAPSS2_9060",0.26721168005778273,-2.8143489115554536,138]],"bottom":[["RAD50_10111",-0.3575163934420363,-4.776972284781761,138],["SF3A1_10291",-0.35350069053925753,-4.67600533073444,138],["MICU1_10367",-0.2881964141054482,-3.2156988846894072,138],["CEBPA_1050",-0.31803754347710195,-3.841814945141631,138],["MBOAT2_129642",-0.3137342862049612,-3.7473769672979405,138],["POU5F2_134187",-0.31584185938599124,-3.7934508592420566,138],["CRMP1_1400",-0.29114050934885694,-3.2745302833966754,138],["GPM6B_2824",-0.3636424788325373,-4.933645595471809,138],["MPG_4350",-0.2923764788932557,-3.299416793868374,138],["TMED7_51014",-0.28826108343258744,-3.216984393985896,138],["PDE2A_5138",-0.29298158698042204,-3.311641520949498,138],["VAV1_7409",-0.2998957840874913,-3.4532394267573414,138],["BAG6_7917",-0.2858740198485017,-3.169734624580539,138],["PNPLA4_8228",-0.3070650996307086,-3.603817713512901,138]]}}}
{"ccle_rrbs_tss1kb":{"corr":{"top":[["QDPR_4_17513857_17514857",0.5839702823375865,-29.370573195108253,314],["TMEM263_12_107349562_107350562",0.48358389153045234,-19.140245911338596,315]],"bottom":[["ERGIC1_5_172260222_172261222",-0.19411087143914074,-2.8428014720366437,267],["EXOSC2_9_133568146_133569146",-0.23312027064954377,-2.3210229943265737,145],["RPL23AP64_11_118874303_118875303",-0.18815462413527076,-3.102195444019537,315]]},"para":{"top":[["PRXL2C_9_99417599_99418599",0.33978579334873266,-5.263658825553763,171]],"bottom":[]}}}
{"ccle_gene_tpm":{"corr":{"top":[["HES3_ENSG00000173673.7",0.37557125217440285,-11.364268433771477,318],["RP11-114H20.1_ENSG00000182776.4",0.36456142284196646,-10.703980760490255,318],["RPS20P2_ENSG00000219274.1",0.3846853336428545,-11.930049529172749,318],["ZNF299P_ENSG00000219368.3",0.38007482066040466,-11.641639264866809,318],["AC073072.6_ENSG00000228803.1",0.3946458591613245,-12.568761342447543,318],["RP11-368M16.9_ENSG00000230796.1",0.4264076303921889,-14.754186305048847,318],["AC084193.1_ENSG00000230975.1",0.367750062608369,-10.892639257413425,318],["RP11-167N24.3_ENSG00000257943.1",0.36935416978024876,-10.988336548013091,318],["RP11-267C16.2_ENSG00000266003.1",0.3861644451255381,-12.02353830084384,318]],"bottom":[]},"para":{"top":[["LL22NC03-23C6.12_ENSG00000249333.1",0.30267236315652024,-7.434857483582179,318],["C5orf20_ENSG00000251380.2",0.3199209718789786,-8.2735854986456,318]],"bottom":[]}}}
{"ccle_rrbs_tss_clusters":{"corr":{"top":[["LOC202181_1",0.5194678954358565,-10.107345065268667,137]],"bottom":[["NPY4R2_3",-0.22618698179006938,-1.8477385997943616,117],["MUC12_3",-0.26503926682824475,-3.6418348005543004,189],["CTAGE1_1",-0.2642124823277725,-4.188356547648072,223],["RBMX_3",-0.30067180869448484,-4.212362056376319,172]]},"para":{"top":[["ASCC3_1",0.3765236593410865,-6.206612128819011,165]],"bottom":[["LINC01063_2",-0.2410373930847464,-1.833603605802916,102]]}}}
{"ccle_rrbs_cgi_clusters":{"corr":{"top":[["5_177096634_177101525-1",0.5194678954358565,-10.107345065268667,137],["3_48127925_48132896-1",1.0,-323.0051853474518,320]],"bottom":[["23_146685_151461-2",-0.3324935000821376,-4.839020788052653,163],["23_135960102_135964951-3",-0.30067180869448484,-4.212362056376319,172],["17_78182303_78186946-3",-0.2908475176825958,-5.576296630996501,252],["19_9268906_9271412-2",-0.28212224913649847,-4.816073278311697,228],["16_89998351_90002687-3",-0.2906628747554144,-3.593010534414163,154],["16_88786033_88788737-1",-0.3087411665749732,-7.7238353597337825,318],["2_54854098_54858487-1",-0.2812151895108357,-6.465038482692867,318],["2_106495787_106500577-1",-0.31600729194455657,-8.125535976847754,320]]},"para":{"top":[["6_101326747_101331451-1",0.3765236593410865,-6.206612128819011,165],["3_48127925_48132896-1",1.0,-323.0051853474518,320]],"bottom":[["17_39017387_39022101-2",-0.23527815661381749,-1.9860179712314836,118],["16_89999271_90004256-3",-0.25598825209133,-3.8309128479390457,215],["3_196357201_196361684-2",-0.2410373930847464,-1.833603605802916,102],["16_89998351_90002687-3",-0.2872106451060771,-3.516591650717665,154]]}}}
