{"depmap_hotspot":{"corr":{"top":[],"bottom":[["C15orf60",-0.13317910912412276,-3.800782305106634,15.0,785.0],["CLEC17A",-0.12288656108330351,-3.3055335541859305,18.0,782.0],["OR6K3",-0.12775303093393464,-3.535136338043916,29.0,771.0],["TPRKB",-0.1001209165740897,-2.3382716490984983,10.0,790.0]]},"para":{"top":[["COMMD10",0.10313691548709783,-2.7493711703955506,9.0,791.0],["PRKCDBP",0.11840897259541341,-3.387899696394396,13.0,787.0]],"bottom":[["L1TD1",-0.09813816254928977,-2.5571501736022384,23.0,777.0],["RETNLB",-0.08903772404831478,-2.2266470688402533,9.0,791.0],["VCX2",-0.10179341943631465,-2.6969189253624424,11.0,789.0]]}}}
{"depmap_damaging":{"corr":{"top":[],"bottom":[["SLC23A3",-0.15101808083134352,-4.741472199859602,9.0,790.0]]},"para":{"top":[["FBXO40",0.08790029360310621,-2.1852808485457422,8.0,791.0],["PDGFRA",0.1103563728420078,-3.0389817658190186,12.0,787.0]],"bottom":[]}}}
{"ccle_proteomics":{"corr":{"top":[["FBXL17_Q9UF56",0.2972176188301759,-3.954038772073278,164]],"bottom":[]},"para":{"top":[],"bottom":[]}}}
{"achilles":{"corr":{"top":[["SUMO1_7341",0.30999284392976173,-5.21531238004858,205],["TMEM164_84187",0.2921237686443457,-4.670199827458536,205]],"bottom":[]},"para":{"top":[["ZNF404_342908",0.3563084129560362,-6.802506657594889,205],["SERINC1_57515",0.29785720681697736,-4.841195162361768,205]],"bottom":[["OR1J4_26219",-0.2668208908775233,-3.958386349108229,205]]}}}
{"ccle_rrbs_tss1kb":{"corr":{"top":[["TMEM86B_19_55740632_55741632",0.38271930600488896,-27.990449522422573,783]],"bottom":[]},"para":{"top":[],"bottom":[]}}}
{"ccle_rrbs_tss_clusters":{"corr":{"top":[["SNORD41_1",0.41655774549266666,-34.11248236956642,798],["C11orf72_3",0.404835945511296,-32.05912991678659,797],["HCFC1R1_2",0.40780411446905784,-23.00506504542621,557]],"bottom":[]},"para":{"top":[],"bottom":[]}}}
{"ccle_rrbs_cgi_clusters":{"corr":{"top":[["16_2110868_2115171-1",0.4557022385301895,-41.54519570766178,800],["16_1447295_1451545-2",0.45669218101287556,-41.7437732039587,800],["19_2349518_2353767-1",0.46123930841308797,-42.66432794382621,800],["11_1297275_1301478-1",0.45873601413638726,-42.15582503840667,800],["19_2352289_2356560-1",0.4652165272532071,-43.48096178294666,800]],"bottom":[]},"para":{"top":[],"bottom":[]}}}
