{"depmap_hotspot":{"corr":{"top":[["HERC1",0.18652626187366242,-6.365366919260162,134.0,590.0]],"bottom":[]},"para":{"top":[["ADPRHL1",0.15115645166119085,-4.617301980489517,18.0,706.0],["DDX6",0.13945044653395133,-4.051840659983915,18.0,706.0],["FAM24A",0.12401721234087923,-3.36821667621049,8.0,716.0],["GZMH",0.11986928982432304,-3.1968511271185163,12.0,712.0],["MAFG",0.1443137345960288,-4.281378021571589,9.0,715.0],["MAGEB3",0.13673870950806158,-3.9266539339007247,17.0,707.0],["OXER1",0.13488605351861094,-3.842304551532838,14.0,710.0],["RHOH",0.15481661725615228,-4.802551629094794,19.0,705.0],["SDF2",0.12215350243214745,-3.290625332849801,10.0,714.0]],"bottom":[["ALG9",-0.11823286011363705,-3.130617276973087,14.0,710.0]]}}}
{"depmap_damaging":{"corr":{"top":[],"bottom":[]},"para":{"top":[["LAMB1",0.10987838054586088,-2.8012078155585294,9.0,714.0],["NCAPD3",0.1317480440057738,-3.697809627908013,12.0,711.0],["NLRP2",0.12183732049070499,-3.2739920722126943,9.0,714.0],["OTOG",0.10731286279104245,-2.7051521892537016,8.0,715.0],["PRR14L",0.12026633499294101,-3.209697845006803,13.0,710.0],["PYGO2",0.13478534569414521,-3.8332778016859277,9.0,714.0],["RXFP1",0.1260634120501612,-3.4510972181229524,9.0,714.0],["TEX14",0.10755662962545505,-2.7143134102874398,10.0,713.0],["ULK1",0.14095534997153802,-4.117169820450597,8.0,715.0],["WWP1",0.14228790014342999,-4.180205343065743,11.0,712.0],["ZNF540",0.11461400087489686,-2.9834247191215435,9.0,714.0]],"bottom":[]}}}
{"prism_primary_logfold":{"corr":{"top":[],"bottom":[]},"para":{"top":[["linagliptin_BRD-K96550715-001-02-6::2.5::HTS",0.20936424277136778,-4.798068553983634,418]],"bottom":[]}}}
{"achilles":{"corr":{"top":[],"bottom":[["PLIN2_123",-0.27015264543340817,-3.71638254554321,186],["ALKAL1_389658",-0.25849679532810527,-3.4347687486382226,186],["PCDHGA5_56110",-0.22415527703686688,-4.353483584402044,326]]},"para":{"top":[],"bottom":[["ALKAL1_389658",-0.2675511203767629,-3.652413157650583,186],["SCN7A_6332",-0.2209503455305925,-4.242246813698634,326],["RGS6_9628",-0.2412174308384639,-4.973102812916251,326]]}}}
{"ccle_rrbs_tss1kb":{"corr":{"top":[["MIR219A1_6_33174611_33175611",0.7478673419831681,-128.2640150943857,715]],"bottom":[]},"para":{"top":[["MIR219A1_6_33174611_33175611",0.7589260111099962,-134.23804210001865,715]],"bottom":[]}}}
{"ccle_rrbs_tss_clusters":{"corr":{"top":[["MIR219A1_2",0.6166163643361747,-75.59036785165361,717]],"bottom":[]},"para":{"top":[["MIR219A1_2",0.621127474177292,-76.9985797026718,717]],"bottom":[]}}}
{"ccle_rrbs_cgi_clusters":{"corr":{"top":[["6_33173561_33178387-2",0.9999999999999998,-323.0051853474518,724],["6_33170289_33174823-3",0.6210238132681595,-75.90492577214468,707],["6_33170289_33174823-2",0.43983634665523585,-29.52147101242683,610],["6_33173561_33178387-1",0.6166163643361747,-75.59036785165361,717]],"bottom":[]},"para":{"top":[["6_33173561_33178387-2",1.0,-323.0051853474518,724],["6_33170289_33174823-3",0.6219018659999993,-76.17773856999649,707],["6_33170289_33174823-2",0.4579532238761203,-32.22842585911255,610],["6_33173561_33178387-1",0.621127474177292,-76.9985797026718,717]],"bottom":[]}}}
