{"depmap_hotspot":{"corr":{"top":[],"bottom":[["ACTR8",-0.1114143912794659,-2.7018614251852275,29.0,739.0],["ADSS",-0.10721385001777979,-2.5330596898076196,21.0,747.0],["ARHGEF39",-0.11013162921559025,-2.6497105263475853,15.0,753.0],["C1orf63",-0.12399689419948376,-3.2417202536321836,22.0,746.0],["C2CD2L",-0.11151427312311767,-2.7059444076983383,22.0,746.0],["CCDC134",-0.12228197336550237,-3.1650971299276063,11.0,757.0],["CCDC87",-0.11628954590489993,-2.904914815486443,42.0,726.0],["CLCNKB",-0.12961558225296074,-3.4995548979387565,24.0,744.0],["CPXM1",-0.11680291309564962,-2.926745642220122,43.0,725.0],["CYP2A7",-0.1350302059201239,-3.757931045999669,29.0,739.0],["DNAAF1",-0.13178303223965604,-3.6018103609187344,38.0,730.0],["DNAJA4",-0.11398772235286128,-2.808082860485089,26.0,742.0],["EIF4E1B",-0.1080350858209026,-2.5656156190955692,17.0,751.0],["FLII",-0.11809149051722445,-2.9819200657910563,48.0,720.0],["GDPGP1",-0.12176661972999138,-3.1422596665977958,19.0,749.0],["GGCT",-0.11711793127564775,-2.9401841769107193,10.0,758.0],["GTF2H3",-0.13282692735540952,-3.651616354457355,14.0,754.0],["LRRC15",-0.12019066064593284,-3.072962367380854,52.0,716.0],["LRRC72",-0.1434283480796959,-4.178089036255974,13.0,755.0],["NBPF20",-0.11186797447976288,-2.720428950876405,81.0,687.0],["NUDT13",-0.10393044426262554,-2.4050542165278617,11.0,757.0],["PLAU",-0.11672858268574102,-2.923579449649001,13.0,755.0],["PSAPL1",-0.10977306322778757,-2.6352277861734565,24.0,744.0],["RASSF7",-0.1087834480952951,-2.59547116659736,15.0,753.0],["RPS17",-0.11974570527132924,-3.0535441540333013,17.0,751.0],["SLC28A1",-0.13215515085061602,-3.6195231546059445,33.0,735.0],["TRADD",-0.13037705657487647,-3.5353017716590274,15.0,753.0],["UNKL",-0.12090109855408396,-3.104100715526579,49.0,719.0],["VENTX",-0.10997555619604917,-2.6434015360999603,14.0,754.0],["ZNF706",-0.12890859115640688,-3.466537867134395,27.0,741.0]]},"para":{"top":[["C7orf72",0.11770182628664154,-3.2529514990136796,25.0,743.0],["PDCL3",0.10721143650737211,-2.8250494586717148,13.0,755.0],["RFT1",0.13444489184585232,-4.006744036085839,24.0,744.0]],"bottom":[["ACTR8",-0.13268310227352847,-3.923345514722552,29.0,739.0],["ADM5",-0.09403395289282993,-2.3358956537446365,9.0,759.0],["C15orf61",-0.0837117145289194,-1.9898317776347176,8.0,760.0],["C1orf192",-0.10838966606556501,-2.871439034958747,15.0,753.0],["C8orf33",-0.10307086783173372,-2.6657093778140295,15.0,753.0],["CCNG1",-0.10211222506438136,-2.629583015763179,16.0,752.0],["CDT1",-0.12985163216989065,-3.7911587048100737,23.0,745.0],["FAM96A",-0.08177256219663866,-1.9284197280316386,8.0,760.0],["GDPGP1",-0.1250139355758031,-3.5712239021467016,19.0,749.0],["GGCT",-0.08362961445587651,-1.9873082693701953,10.0,758.0],["LRRC72",-0.12719324388095365,-3.669174014507557,13.0,755.0],["LSG1",-0.12202502868298716,-3.4390828183207427,20.0,748.0],["MLN",-0.08671613554708443,-2.087270097856826,9.0,759.0],["MNAT1",-0.09744773177980051,-2.457590306920121,12.0,756.0],["MUC7",-0.08635969412866529,-2.0756961644770864,12.0,756.0],["NPB",-0.10388041851381881,-2.696321905815821,11.0,757.0],["PAQR4",-0.1136865762408208,-3.0850265323339316,15.0,753.0],["PLAU",-0.10051952686992113,-2.5700602404186204,13.0,755.0],["RASSF7",-0.10639785273520022,-2.793372780715687,15.0,753.0],["ROM1",-0.08957933513068937,-2.1827031216398987,11.0,757.0],["RPS17",-0.1076937874344095,-2.844076676208061,17.0,751.0],["STRA13",-0.09934986653678078,-2.526937190769792,14.0,754.0],["TPPP2",-0.09901142221047173,-2.5144243630921124,11.0,757.0],["TRADD",-0.10799568101120709,-2.8558999776469287,15.0,753.0],["TRAPPC2",-0.08325424503352023,-1.9752958492677553,9.0,759.0],["VDAC1",-0.09100398301492493,-2.2310280402952833,10.0,758.0],["ZNF414",-0.1233815461851302,-3.498648509903649,17.0,751.0]]}}}
{"depmap_damaging":{"corr":{"top":[],"bottom":[["ARL13B",-0.09937574360475397,-2.2307832623079173,14.0,753.0],["C2orf73",-0.09308744883706344,-2.004528708108177,9.0,758.0],["FBXL19",-0.10826633814392553,-2.5720206252135855,8.0,759.0],["FLJ00104",-0.10410869822855165,-2.4093100117323614,12.0,755.0],["GMPS",-0.09135833079697807,-1.9444865806332832,8.0,759.0],["GPR19",-0.1430779108149594,-4.15533439235565,11.0,756.0],["GRAMD1B",-0.12889053992178187,-3.4618084052991214,8.0,759.0],["HMGN5",-0.09706356975621641,-2.146145345907493,8.0,759.0],["MKI67",-0.1693409339547788,-5.619500707497243,19.0,748.0],["MROH9",-0.12226697648819825,-3.1609124965555946,8.0,759.0],["MYLK2",-0.10995284922526748,-2.639600991574866,8.0,759.0],["PDIA3",-0.1312396009308996,-3.572001356401087,14.0,753.0],["POTEF",-0.12128373916035827,-3.1174746322381193,11.0,756.0],["REEP2",-0.12207856953317377,-3.1525644568395457,11.0,756.0],["RP11-770J1.4",-0.1395672394578091,-3.9774463674208076,12.0,755.0],["SCN10A",-0.11590534278427146,-2.8854506221644747,15.0,752.0],["SPTBN5",-0.10416008763018907,-2.4112874700893747,22.0,745.0],["TECPR1",-0.11149699398340766,-2.702278522360199,10.0,757.0],["ZCCHC14",-0.09623047392085476,-2.1160622750653992,8.0,759.0],["ZNF706",-0.1435807488081717,-4.181153712452556,24.0,743.0],["ZNF785",-0.09585117825597464,-2.102438194251101,8.0,759.0],["ZNF80",-0.09330896833604985,-2.0122882361187386,9.0,758.0]]},"para":{"top":[["CDH11",0.09250616564914099,-2.2806050274050857,10.0,757.0]],"bottom":[["ANKIB1",-0.08233182615661606,-1.9444192558951643,10.0,757.0],["BBS9",-0.10790949898718552,-2.8494911694130107,9.0,758.0],["FLJ00104",-0.09035832288713798,-2.2071074637401513,12.0,755.0],["GMPS",-0.08935741601090014,-2.173115626644951,8.0,759.0],["GRAMD1B",-0.1194322104260776,-3.322891575373789,8.0,759.0],["HDAC10",-0.12463963706920654,-3.550974348779443,23.0,744.0],["MATK",-0.0808671161958798,-1.898489680940703,8.0,759.0],["MDM1",-0.09721849130883675,-2.4469458309005723,10.0,757.0],["MKI67",-0.12082094134308057,-3.383193398963254,19.0,748.0],["MROH9",-0.09339329796522307,-2.3112944049304196,8.0,759.0],["OR6C65",-0.07802111916109894,-1.8113645502710638,10.0,757.0],["PDIA3",-0.11646094943483237,-3.197155605036446,14.0,753.0],["RP11-770J1.4",-0.11400028927635121,-3.0947786713658854,12.0,755.0],["TECPR1",-0.09879819138793929,-2.5042248200026767,10.0,757.0],["TM9SF3",-0.0939252182625721,-2.3299843942766265,10.0,757.0],["TMEM39A",-0.07988056727371196,-1.8679818638827765,8.0,759.0],["WDR66",-0.08404869497695053,-1.9989149835626112,9.0,758.0],["ZNF706",-0.12426061096149305,-3.534140722586863,24.0,743.0],["ZNF80",-0.09031004071013272,-2.2053430680265325,9.0,758.0]]}}}
{"prism_secondary_logfold":{"corr":{"top":[["tivantinib_BRD-K33379087-001-07-5::0.0391::MTS010::PROS004_PR500",0.21876294231310028,-4.739188804255356,377],["uracil_BRD-K80129304-001-08-1::0.0390625::HTS002",0.22911242118790914,-5.216117352226423,382]],"bottom":[]},"para":{"top":[["LY2109761_BRD-K47557313-001-02-7::0.0024414::HTS002",0.1841921794149144,-3.529451145399572,382],["uracil_BRD-K80129304-001-08-1::0.0390625::HTS002",0.20157805999494094,-4.139242232271958,382]],"bottom":[]}}}
{"ccle_proteomics":{"corr":{"top":[["FLNB_O75369",0.2895034244830639,-4.812822967019071,216],["EIF4G3_B1AN89",0.38092509831867133,-4.250466078030709,106]],"bottom":[["KDM2B_Q8NHM5",-0.27688236493244234,-5.233373737154777,260],["MED1_Q15648",-0.24603722529348304,-4.758945621718696,298]]},"para":{"top":[["GSTT2_P0CG29",0.26979292992083476,-3.515062271618544,175],["MT-CYB_P00156",0.3248190792442111,-3.7107870836648598,127]],"bottom":[]}}}
{"avana":{"corr":{"top":[["AQP9_366",0.2107029994763686,-4.946746763666204,427]],"bottom":[["DDX47_51202",-0.17304142459137853,-3.484558769264007,427]]},"para":{"top":[["AQP9_366",0.1900252548863751,-4.109290599081605,427]],"bottom":[["NDUFAF2_91942",-0.22232136572077402,-5.4552988772865,427]]}}}
{"drive":{"corr":{"top":[["RASA3_22821",0.24339894535639137,-4.596721296489544,293]],"bottom":[["HOXA1_3198",-0.22200771736377906,-3.9188415683747553,295]]},"para":{"top":[],"bottom":[["HOXA1_3198",-0.19702266194104853,-3.176236792360218,295]]}}}
{"achilles":{"corr":{"top":[],"bottom":[["ATAD1_84896",-0.2629115445563589,-3.771874093121749,200]]},"para":{"top":[["CSTF2T_23283",0.26222965159804706,-3.7543359404302925,200],["MYO1G_64005",0.23248772902612003,-3.034443941901169,200]],"bottom":[]}}}
{"ccle_rrbs_tss1kb":{"corr":{"top":[],"bottom":[["OMA1_1_59012471_59013471",-0.15416618507799013,-4.67879293141593,755],["POLD2_7_44163107_44164107",-0.15984296449173205,-5.015509046014079,759],["SMARCC2_12_56583358_56584358",-0.1686049513724896,-5.477307444225826,752]]},"para":{"top":[],"bottom":[]}}}
{"ccle_rrbs_tss_clusters":{"corr":{"top":[["FBXO31_2",0.2020708630194641,-7.736731627705156,762],["BREA2_2",0.2288548784301104,-9.630537051019497,749]],"bottom":[["C11orf94_3",-0.25703432691832473,-12.054838274806329,750],["LOC343052_3",-0.21438473110582998,-8.62478226966899,760],["ADGRF2_2",-0.17758921487764504,-5.861281405527069,730],["BREA2_3",-0.23868897411832915,-9.577024369095112,683]]},"para":{"top":[],"bottom":[["C11orf94_3",-0.19746374001897551,-7.303989234638172,750]]}}}
{"ccle_rrbs_cgi_clusters":{"corr":{"top":[["12_133292088_133296878-2",0.2343893129867441,-8.180385011216504,598],["22_43263990_43268283-3",0.23815812319755295,-10.24993105440588,738],["9_139407724_139412219-2",0.21530139438670717,-6.666400566955038,569],["7_5425455_5428246-2",0.2719145989210998,-6.380673814966079,336],["14_100793072_100797376-3",0.24948517189285163,-11.2363611694349,740],["1_1159959_1164281-2",0.21294275641971983,-8.256891136287207,735],["16_718682_723166-3",0.27649365361908174,-12.232021413548773,655],["19_945547_949981-2",0.2587514708985044,-9.337748267557034,563],["12_133361184_133365403-3",0.3183513154740101,-17.31889094630823,704],["19_3529568_3534102-3",0.22118681838566798,-8.658005546290642,716],["7_1533617_1538099-2",0.22887358755327963,-9.452573104031432,734]],"bottom":[["19_988183_992413-2",-0.22574973926747746,-7.410976268639541,580],["13_95653108_95657517-3",-0.20414134681539825,-6.645684319631503,632],["2_312828_317170-3",-0.20889691400234156,-7.815123482546657,720],["7_56434287_56438559-3",-0.2358788800901427,-6.019619948016632,422],["22_19958524_19963327-3",-0.19573816875486472,-7.03685584402295,733]]},"para":{"top":[["9_139407724_139412219-2",0.22486314681762934,-7.2286735265420035,569],["14_100793072_100797376-3",0.2207398871617168,-8.892143280339216,740],["19_3529568_3534102-3",0.21791412723885148,-8.417775961916258,716],["19_945547_949981-2",0.22304375117138853,-7.051068091793396,563],["16_718682_723166-3",0.22538932863089317,-8.262981430704862,655],["12_133361184_133365403-3",0.2881276762810493,-14.198816197219397,704]],"bottom":[["2_312828_317170-3",-0.19763412597345215,-7.047800104856197,720],["7_56434287_56438559-3",-0.20360816121645173,-4.6014268427248535,422]]}}}
