{"depmap_hotspot":{"corr":{"top":[["APH1A",0.23402225885385294,-11.211633406392705,13.0,829.0],["C12orf68",0.20404014624059774,-8.637704988827908,11.0,831.0],["C9orf85",0.20579404111147112,-8.778095616734635,15.0,827.0],["CAMK2N2",0.23143650612958105,-10.974894677041306,9.0,833.0],["CCNC",0.2365851156953981,-11.449070743102691,9.0,833.0],["FAM159A",0.22405851751234185,-10.314871168817126,9.0,833.0],["GOSR1",0.20643672756788092,-8.829851840057694,14.0,828.0],["H2AFX",0.3024834294599368,-18.54878020761412,9.0,833.0],["ID4",0.19645488941613254,-8.044838728282885,15.0,827.0],["ISCA2",0.20346345148127296,-8.591815580077045,12.0,830.0],["NFKBIA",0.25159376435014663,-12.896021651623641,19.0,823.0],["PGP",0.20767535011968186,-8.93007281410023,18.0,824.0],["RAB30",0.24641958215457588,-12.386221735512501,9.0,833.0],["RABIF",0.1994700181576455,-8.277729881236102,9.0,833.0],["RPS4X",0.21577602241095684,-9.6009694553688,9.0,833.0],["SH3BGRL",0.22930104054412262,-10.781509287657876,8.0,834.0],["SKP1",0.2613498958699544,-13.889100555128362,8.0,834.0],["SLC35B2",0.2186886222549944,-9.848779170980942,20.0,822.0],["STX3",0.22900391747703341,-10.75475425718081,15.0,827.0],["TSG101",0.21742316380645982,-9.740681263018798,15.0,827.0],["UBE2D2",0.2647448510779128,-14.244531780317509,8.0,834.0],["VDAC2",0.20590038232870067,-8.786647811316934,10.0,832.0],["YWHAH",0.2084109723876734,-8.989889812544972,16.0,826.0],["YWHAQ",0.24401871240689046,-12.15360577209809,9.0,833.0]],"bottom":[]},"para":{"top":[["APH1A",0.11111226637923009,-3.19571969547322,13.0,829.0],["FAM86C1",0.11563437445886197,-3.398092999186172,17.0,825.0],["UBE2D2",0.1288044433340122,-4.026835667745517,8.0,834.0]],"bottom":[["HRASLS2",-0.08836072023427147,-2.2834122852226924,9.0,833.0],["IL15",-0.08174497010630824,-2.05079977761199,9.0,833.0],["KLRB1",-0.09419424038566425,-2.5005785064068586,8.0,834.0],["KRTAP1-5",-0.1020256693048765,-2.8103381977745587,11.0,831.0],["LAIR2",-0.1110580205284484,-3.1933008477140317,12.0,830.0],["MOGAT2",-0.10618982228097194,-2.983497284073172,13.0,829.0],["RNF32",-0.10881898963505748,-3.0958789282949932,15.0,827.0],["SQSTM1",-0.1098800716338242,-3.1420008951955953,21.0,821.0],["TCN2",-0.10098949827394119,-2.768251960664695,13.0,829.0],["TRMT61B",-0.11041756660729853,-3.165267753181157,13.0,829.0]]}}}
{"depmap_damaging":{"corr":{"top":[],"bottom":[]},"para":{"top":[],"bottom":[["ABCB6",-0.11040496603277525,-3.1616738427542947,9.0,832.0],["ADCY2",-0.11865374993416596,-3.533466990514706,9.0,832.0],["CLIC1",-0.10375348999668275,-2.8787910070917095,9.0,832.0],["LRRC16A",-0.07502578883721524,-1.8279382324130458,9.0,832.0],["PLD2",-0.08213204040217123,-2.0622899166480577,8.0,833.0],["WDPCP",-0.10189427289278594,-2.8023486068209573,8.0,833.0]]}}}
{"ccle_rrbs_tss1kb":{"corr":{"top":[],"bottom":[]},"para":{"top":[["MPZL1_1_167690186_167691186",0.6831128276520698,-113.72312244724402,825]],"bottom":[]}}}
{"ccle_rrbs_tss_clusters":{"corr":{"top":[["SNX16_1",0.6458532112818002,-99.5949881608526,840],["KIAA0753",0.6792986119203097,-114.27690663004682,842],["TXNDC17_2",0.6833524463002795,-116.16005988056561,842]],"bottom":[]},"para":{"top":[],"bottom":[]}}}
{"ccle_rrbs_cgi_clusters":{"corr":{"top":[["8_82752054_82756476-1",0.6458532112818002,-99.5949881608526,840],["1_167688978_167693852-3",0.9999999999999999,-323.0051853474518,842]],"bottom":[]},"para":{"top":[["1_167688978_167693852-3",1.0,-323.0051853474518,842]],"bottom":[]}}}
