{"depmap_hotspot":{"corr":{"top":[],"bottom":[["ACTRT3",-0.13450905824369383,-2.571168783121193,9.0,487.0],["ADAT1",-0.10974654027839434,-1.8395509896826145,11.0,485.0],["BRE",-0.10426730788245332,-1.6946555860743273,21.0,475.0],["C4BPA",-0.116657281585615,-2.030992166593265,16.0,480.0],["CCDC91",-0.1271941167791351,-2.3417899527669155,11.0,485.0],["DUSP19",-0.1134891039002381,-1.9420174567477604,13.0,483.0],["KCNV2",-0.12111758987715997,-2.159749629382044,30.0,466.0],["MAB21L3",-0.1358199474436347,-2.613466259103599,9.0,487.0],["NRD1",-0.10480719303361477,-1.7086638127490403,26.0,470.0],["OR6C74",-0.11841803381029663,-2.0813309255918973,18.0,478.0],["SLC22A9",-0.15452825771569895,-3.257136139600169,16.0,480.0],["TAS2R19",-0.10917278653414078,-1.8240939784194197,8.0,488.0],["UHRF1BP1",-0.1293505184191186,-2.4082416885035407,33.0,463.0]]},"para":{"top":[["ASRGL1",0.1270680105754439,-2.627535185484012,10.0,486.0],["LANCL3",0.12042347055521736,-2.4314026252142997,9.0,487.0],["OR4N5",0.12502832685155538,-2.5665611741883043,12.0,484.0],["OR8D4",0.11677032462515928,-2.3274841921214278,11.0,485.0],["PRR23C",0.1238361616372378,-2.5312230992911746,12.0,484.0],["TROAP",0.12574771530087037,-2.5882151640661935,16.0,480.0],["ZRANB2",0.13646067764872888,-2.919990632148444,16.0,480.0]],"bottom":[["ACTRT3",-0.12911500309291593,-2.689608472702718,9.0,487.0],["ADAT1",-0.11179475819639081,-2.1899583268027047,11.0,485.0],["C10orf88",-0.1213955498521968,-2.4595381223729453,9.0,487.0],["C8orf74",-0.1376950822536796,-2.9594820281071903,12.0,484.0],["CAMK2A",-0.09725590040197435,-1.8157056750831437,10.0,486.0],["CENPL",-0.10887588051954991,-2.111303582419523,8.0,488.0],["CHODL",-0.10463474994839325,-2.0003245289409914,8.0,488.0],["CIAO1",-0.10754295376861497,-2.0760470927398047,8.0,488.0],["DCDC2",-0.09324428498585827,-1.719500435427506,8.0,488.0],["FAM98B",-0.0989233637514369,-1.8564716291487569,9.0,487.0],["FCN1",-0.11578691603936242,-2.300120010771092,15.0,481.0],["MAB21L3",-0.1344328486587446,-2.8549915395736547,9.0,487.0],["MYL1",-0.09850485948028001,-1.8462428927304921,10.0,486.0],["OR5P3",-0.11824110221528132,-2.369183517656417,13.0,483.0],["SERAC1",-0.12931289833101303,-2.695825862694368,11.0,485.0],["SLC22A9",-0.15646108719331936,-3.6009607400559474,16.0,480.0],["WDR55",-0.1203344920663178,-2.4289195764251925,10.0,486.0],["WIPI1",-0.11855011418964741,-2.3780661012597815,15.0,481.0],["WNT1",-0.1223496819286204,-2.4876106777777913,13.0,483.0],["ZDHHC2",-0.10960293147460531,-2.1306804647755855,8.0,488.0],["ZNF528",-0.12275989501591258,-2.499880963193116,20.0,476.0]]}}}
{"depmap_damaging":{"corr":{"top":[],"bottom":[["ANKAR",-0.1303951928721747,-2.4366897301944386,11.0,484.0],["ARHGEF17",-0.11954855588006796,-2.110500113593094,11.0,484.0],["FAM133A",-0.09557779640121472,-1.474874789024333,8.0,487.0],["KIF13A",-0.10655515742197479,-1.751590843585578,10.0,485.0],["PLEKHA7",-0.16645842953311923,-3.7008130473280567,13.0,482.0],["POR",-0.1193232678285681,-2.1039832826682647,13.0,482.0],["RABGAP1",-0.1363470598268877,-2.6261265075637774,9.0,486.0],["ZBTB10",-0.12916499484711058,-2.3984628040758498,11.0,484.0]]},"para":{"top":[],"bottom":[["ANKAR",-0.12647830891300957,-2.606014917974479,11.0,484.0],["COL6A3",-0.11237682403306958,-2.20245944537004,8.0,487.0],["HERC5",-0.10642388957077722,-2.0439058708376843,8.0,487.0],["HSPG2",-0.11031152024002938,-2.146668788489822,8.0,487.0],["KCNQ3",-0.12351640932055208,-2.5180511167542505,11.0,484.0],["KIF13A",-0.1382312805540003,-2.9721457541375464,10.0,485.0],["MYO16",-0.12181668139429039,-2.4684175299049285,12.0,483.0],["PLEKHA7",-0.15293899181886575,-3.469562310180841,13.0,482.0],["RABGAP1",-0.1128809943764423,-2.2162985355734666,9.0,486.0],["RNASEL",-0.12048279789917399,-2.4296824729746294,10.0,485.0],["SLC44A4",-0.09117708803980401,-1.6690716967304837,8.0,487.0],["ZBTB10",-0.11047365848359011,-2.151254289399105,11.0,484.0],["ZKSCAN1",-0.13210534166925078,-2.7783246580719148,20.0,475.0]]}}}
{"ccle_rppa":{"corr":{"top":[],"bottom":[]},"para":{"top":[],"bottom":[["PRKAA1_AMPK_pT172",-0.18998326508071456,-4.478275883751059,471]]}}}
{"ccle_mirna":{"corr":{"top":[],"bottom":[]},"para":{"top":[["hsa-miR-371-5p_miR00339.1",0.16519515276228924,-3.6261462888264333,491],["hsa-miR-548e_miR00488.1",0.19190960964994144,-4.7312435244859286,491],["hsa-miR-938_miR00676.1",0.1520355890929197,-3.1396923237765595,491]],"bottom":[]}}}
{"prism_primary_logfold":{"corr":{"top":[["eflornithine_BRD-A96292436-003-16-1::2.5::HTS",0.2043080994213692,-3.2945799273510112,286],["dizocilpine-(-)_BRD-K23163214-050-15-1::2.5::HTS",0.20929656256805168,-3.415896666994238,284],["AH6809_BRD-K59339270-001-02-6::2.5::HTS",0.2223510376600039,-3.8244852575859674,286]],"bottom":[]},"para":{"top":[["benzotript_BRD-A87983072-001-01-1::2.5::HTS",0.17529902652906967,-2.502945261952384,282],["tetrabenazine_BRD-K95739795-001-03-7::2.5::HTS",0.19132681679631247,-2.940141724493839,286]],"bottom":[["YM-155_BRD-K76703230-004-04-1::2.5::HTS",-0.20602216820754662,-3.3026553116024155,282],["chlorphenesin_BRD-A92262698-001-02-5::2.5::MTS004",-0.18769773799038633,-2.7688687381059114,277]]}}}
{"prism_secondary_logfold":{"corr":{"top":[["prednisolone-tebutate_BRD-A53151380-001-01-2::0.0390625::HTS002",0.24297375999482768,-2.9509624588007184,177],["mefexamide_BRD-K20655524-003-12-0::0.0024414::HTS002",0.22943792699989038,-3.5079233472616678,243],["ouabain_BRD-K33277808-331-01-3::0.00976562::HTS002",0.2461917124132555,-3.5150539409408035,211],["cytochlor_BRD-K48988407-001-01-2::0.0390625::HTS002",0.2216232190675276,-3.3237926031344176,245],["ranitidine_BRD-K70505054-003-12-4::0.625::HTS002",0.21748431427324977,-2.4389600822618864,177]],"bottom":[["idelalisib_BRD-K60866521-001-07-1::0.15625::HTS002",-0.24267138467901922,-3.0868748417945335,187]]},"para":{"top":[["prednisolone-tebutate_BRD-A53151380-001-01-2::0.0390625::HTS002",0.26448243348834755,-3.4263954879391347,177],["ouabain_BRD-K33277808-331-01-3::0.00976562::HTS002",0.22293145127785727,-2.953305559320405,211],["hesperadin_BRD-K58122457-001-02-2::0.0024414::HTS002",0.22068434666950218,-2.9019312032793443,211]],"bottom":[["methyldopa_BRD-K48578705-001-17-6::0.000610352::HTS002",-0.22949517760550275,-3.547101558691655,246],["idelalisib_BRD-K60866521-001-07-1::0.15625::HTS002",-0.24133163908599822,-3.057120480115444,187]]}}}
{"ccle_proteomics":{"corr":{"top":[["PPIL2_Q13356",0.28335859029562405,-4.185695107068101,193],["CNTROB_Q8N137-2",0.2837556880002065,-3.9262973404112786,179],["CSTF1_Q05048",0.2807044843595345,-4.114570426822143,193],["ABHD4_Q8TB40",0.29790774119824365,-3.390564264568147,137],["WDR5_P61964",0.31197142704524555,-4.9988950396128775,193],["SF3B14_Q9Y3B4",0.294435533152311,-4.49033305568447,193],["DCDC1_M0R2J8",0.285617766054056,-2.4215410280364704,101]],"bottom":[["COX6C_P09669",-0.31952175897966606,-5.228045447051385,193],["RPS27L_Q71UM5",-0.34959865886179203,-6.204235944344268,193]]},"para":{"top":[["CNTROB_Q8N137-2",0.28898544075837007,-4.058793404887774,179],["ABHD4_Q8TB40",0.3148784735537293,-3.748239578292508,137],["ZBTB43_O43298",0.28766335888682265,-3.3057977061404364,143],["MUC4_E9PDY6",0.29330722341083304,-2.6211383002422664,105]],"bottom":[["GCFC2_P16383",-0.26953772570223955,-3.6488838870004914,183],["COX6C_P09669",-0.2870958934133899,-4.287065839492181,193],["RPS5_P46782",-0.303547926494066,-4.75052436059813,193],["RPS27L_Q71UM5",-0.3559673517746516,-6.4243821896361935,193]]}}}
{"depmap_copy_number":{"corr":{"top":[],"bottom":[["LINC02246_107987295",-0.20304577027267628,-5.277856192192233,495],["NRIP1_8204",-0.19918382063301893,-5.096893375877672,495]]},"para":{"top":[],"bottom":[]}}}
{"depmap_gene_tpm":{"corr":{"top":[["TLR2_7097",0.2556502919482647,-8.06973918257215,493]],"bottom":[["APLNR_187",-0.23834567474458385,-7.0703422309626465,493],["TMEM50B_757",-0.23805196315991103,-7.054023886693955,493]]},"para":{"top":[["TLR2_7097",0.2550131299293433,-8.031604060036122,493]],"bottom":[["TMEM50B_757",-0.2312999205046116,-6.684736941573226,493]]}}}
{"avana":{"corr":{"top":[["DUSP1_1843",0.20013992648232298,-3.1879040760582535,287],["NEUROG2_63973",0.22693782792423475,-3.97841411936228,287]],"bottom":[["RXFP2_122042",-0.2631039645679435,-5.203927831207425,287]]},"para":{"top":[["NPNT_255743",0.20492479124205326,-3.3219589907738265,287]],"bottom":[["ACAA2_10449",-0.2320870339661848,-4.1415627278392115,287],["GEMIN8_54960",-0.2444489498931702,-4.266492440033032,267],["HGS_9146",-0.261986678638935,-5.163237867464249,287],["SLC25A24_29957",-0.2116966621042398,-3.516907711771247,287],["SUCLA2_8803",-0.28665420823802185,-6.105160785603413,287],["SUCLG1_8802",-0.22784231349366335,-4.006805214685446,287]]}}}
{"drive":{"corr":{"top":[["MAP4K1_11184",0.25047436044013865,-3.3388831250735542,192],["IRAK3_11213",0.30911448495727945,-4.890948610912553,192],["AEBP2_121536",0.24768223775275644,-3.273440504508056,192]],"bottom":[["TTC9B_148014",-0.2724531508680045,-3.8802248521500062,192],["LILRP2_79166",-0.26746097505126754,-3.753133953228818,192]]},"para":{"top":[["MAP4K1_11184",0.24968360362406983,-3.3202740848227403,192],["IRAK3_11213",0.22803091399769512,-2.833478103341665,192],["GRB14_2888",0.2683380065780291,-3.7752834944502487,192],["PAX7_5081",0.27659885642969245,-4.060852579385165,196],["ZNF142_7701",0.2667882731845023,-3.804376749788141,196],["CTTNBP2_83992",0.24801460499418648,-3.3107659264758715,194]],"bottom":[["GAN_8139",-0.24457126553954178,-3.2301762983468687,194]]}}}
{"achilles":{"corr":{"top":[["GPHN_10243",0.2967710485741126,-3.0013710028779794,120],["PARD3B_117583",0.28827181355706644,-2.851192828528291,120],["ICA1L_130026",0.35651067484616505,-4.192150740889338,120],["CCDC148_130940",0.3076434295948088,-3.200211423963244,120],["THAP6_152815",0.3336826887247222,-3.708199706644285,120],["TBC1D13_54662",0.33451557223876444,-3.7252092924166926,120],["KLHL42_57542",0.30067112572832294,-3.071821143720342,120],["EFHD2_79180",0.30553575722528326,-3.161067343831926,120],["DNAJC5_80331",0.2786299333916012,-2.6862977506373023,120]],"bottom":[["SMYD5_10322",-0.29964968299013833,-3.053275778100291,120],["GPR139_124274",-0.27034403768562454,-4.2624232523492385,217],["HAPLN4_404037",-0.3138475404036172,-3.3171251282816296,120],["OGN_4969",-0.26203141635031263,-2.4157298022951688,120],["CCDC189_90835",-0.2928930523245383,-2.93228181333091,120]]},"para":{"top":[["ICA1L_130026",0.3397222205532511,-3.832638677286612,120],["CCDC148_130940",0.29489657503347516,-2.9678566733777103,120],["THAP6_152815",0.3224568535487855,-3.4835964652913662,120],["KLHL42_57542",0.2906594468947551,-2.8929208452248525,120],["EFHD2_79180",0.3318448314755102,-3.670836107496722,120],["NKD2_85409",0.3137477378396189,-3.3152243067685707,120],["BSN_8927",0.29577319289236165,-2.9835021709783747,120]],"bottom":[["SMYD5_10322",-0.3046761888628928,-3.145186292042228,120],["EIF3M_10480",-0.27031630333729856,-2.5487026049962,120],["GPR139_124274",-0.2807741586292519,-4.567696788501046,217],["CMPK2_129607",-0.27072023482604857,-2.5552909744786545,120],["C11orf42_160298",-0.2709534360751199,-2.559099112551963,120],["STT3B_201595",-0.3266410022774011,-3.5663043630266325,120],["ERICH5_203111",-0.28322902406210054,-2.7642325119818465,120],["ETF1_2107",-0.2877930383881785,-2.842868438941059,120],["HAPLN4_404037",-0.27130934848529403,-2.5649174345939008,120],["ZDHHC18_84243",-0.2897062565770925,-2.876219264708984,120],["TM9SF2_9375",-0.29281564063491494,-4.9356492718485345,217],["CARTPT_9607",-0.2649571885131986,-2.462220223050698,120]]}}}
{"ccle_gene_tpm":{"corr":{"top":[["TLR2_ENSG00000137462.6",0.2467130744638245,-7.502050223309841,490]],"bottom":[["APLNR_ENSG00000134817.9",-0.23896528557896243,-7.065280069992908,490]]},"para":{"top":[["TLR2_ENSG00000137462.6",0.2487883323245216,-7.621568934628527,490]],"bottom":[]}}}
{"ccle_rrbs_tss_clusters":{"corr":{"top":[["MYOSLID-AS1_3",0.6007569846622056,-32.82928923842632,328],["MYOSLID-AS1_2",0.6532061108996308,-40.674327555638506,329]],"bottom":[["CCDC71L",-0.23770100137750272,-7.073685557130752,496]]},"para":{"top":[["MYOSLID-AS1_3",0.5209996763816704,-23.493540304924906,328],["MYOSLID-AS1_2",0.5508425486662017,-26.77468018222682,329],["DLGAP1-AS1_3",0.3743018316315329,-9.712775567812207,271],["SORBS2_10",0.4914106695770645,-11.11598784735557,172]],"bottom":[]}}}
{"ccle_rrbs_cgi_clusters":{"corr":{"top":[],"bottom":[["7_106298402_106300988-1",-0.2527132493986042,-7.939054533052403,496],["17_42390323_42395079-2",-0.25282351111439616,-7.945621006764063,496]]},"para":{"top":[],"bottom":[["20_44597805_44600506-1",-0.24645786962934402,-2.024795211538668,110]]}}}
