{"depmap_hotspot":{"corr":{"top":[],"bottom":[["HEPHL1",-0.1208756207831999,-3.0271532919124104,56.0,690.0]]},"para":{"top":[["ACY3",0.12177657233458919,-3.3517534129947344,15.0,731.0],["CLEC3A",0.12060770821020084,-3.3022189482223965,13.0,733.0],["GOLT1B",0.11958620345300514,-3.259130310881521,9.0,737.0],["L3HYPDH",0.11107685501315802,-2.914187630704892,10.0,736.0],["MS4A12",0.13093667874073134,-3.7538895321816934,18.0,728.0],["SGPL1",0.170856149109264,-5.807193811203459,18.0,728.0],["TMEM98",0.11121294525453654,-2.919533330922709,10.0,736.0]],"bottom":[]}}}
{"depmap_damaging":{"corr":{"top":[],"bottom":[]},"para":{"top":[["ADCY10",0.11858625134223957,-3.2142066904248354,10.0,735.0],["RASGEF1B",0.11382798145323925,-3.0201457136137306,8.0,737.0],["ST7L",0.11152265143991102,-2.9289330559099107,14.0,731.0],["SULT1B1",0.09440519030355338,-2.2990427353706577,9.0,736.0],["VWA3A",0.08301098914968705,-1.9279230949608621,8.0,737.0]],"bottom":[]}}}
{"prism_secondary_logfold":{"corr":{"top":[["nemorubicin_BRD-K51911221-001-01-2::0.15625::HTS002",0.31584203848503123,-3.1346996893634977,111]],"bottom":[["CHIR-98014_BRD-K42973005-001-04-0::0.15625::HTS002",-0.2101821481030814,-4.305805254472206,367]]},"para":{"top":[],"bottom":[["CHIR-98014_BRD-K42973005-001-04-0::0.15625::HTS002",-0.20691213878268735,-4.1866509650038575,367]]}}}
{"depmap_gene_tpm":{"corr":{"top":[["ZNF597_146434",0.27904179985084426,-14.011082466492864,742]],"bottom":[]},"para":{"top":[["ZNF597_146434",0.24016858313539996,-10.469175740073338,742]],"bottom":[]}}}
{"avana":{"corr":{"top":[["TEKT4_150483",0.19032975473990033,-4.0192563109086965,415]],"bottom":[]},"para":{"top":[["TEKT4_150483",0.2010054038911236,-4.430206065627745,415]],"bottom":[]}}}
{"achilles":{"corr":{"top":[["GBP4_115361",0.2757957850154435,-3.9302782097840767,190]],"bottom":[["ANGPTL7_10218",-0.2506808379949831,-3.3135385420724472,190]]},"para":{"top":[],"bottom":[["NCK2_8440",-0.2964320716681878,-4.483546412227457,190]]}}}
{"ccle_rrbs_tss1kb":{"corr":{"top":[],"bottom":[["NAA60_16_3492610_3493610",-0.23827967113333373,-10.195071843167002,733],["ZNF597_16_3493537_3494537",-0.1845863152814523,-6.330107598806003,735]]},"para":{"top":[],"bottom":[["NAA60_16_3492610_3493610",-0.19794846216473191,-7.185128807582898,733],["ZNF597_16_3493537_3494537",-0.160698455784043,-4.921129410214681,735]]}}}
{"ccle_gene_tpm":{"corr":{"top":[["ZNF597_ENSG00000167981.4",0.2798480621468573,-14.036855249481748,739]],"bottom":[]},"para":{"top":[["ZNF597_ENSG00000167981.4",0.22911036056909062,-9.53114629303011,739]],"bottom":[]}}}
{"ccle_rrbs_tss_clusters":{"corr":{"top":[],"bottom":[["NAA60_1",-0.22173822204661955,-9.024578967959876,745]]},"para":{"top":[],"bottom":[["NAA60_1",-0.1723285875974742,-5.651303708271285,745]]}}}
{"ccle_rrbs_cgi_clusters":{"corr":{"top":[["16_3491098_3495569-3",0.9999999999999996,-323.0051853474518,746]],"bottom":[["16_3491098_3495569-1",-0.22173822204661955,-9.024578967959876,745]]},"para":{"top":[["16_3491098_3495569-3",1.0,-323.0051853474518,746]],"bottom":[["16_3491098_3495569-1",-0.1723285875974742,-5.651303708271285,745]]}}}
