{"depmap_hotspot":{"corr":{"top":[],"bottom":[["PIGF",-0.12067812644083144,-3.2792843782570196,9.0,813.0],["PRPS2",-0.09672165706441324,-2.258517348725946,13.0,809.0],["ZNF460",-0.1407014741363595,-4.28687389367787,23.0,799.0]]},"para":{"top":[["C1orf35",0.11542553871467472,-3.32617379247298,17.0,805.0],["PATE1",0.11620766126826505,-3.3608250492574343,11.0,811.0]],"bottom":[["GOLT1B",-0.08777964779083308,-2.2246865723107434,9.0,813.0]]}}}
{"depmap_damaging":{"corr":{"top":[],"bottom":[["SDK2",-0.09065025180743709,-2.0289618153478903,10.0,811.0]]},"para":{"top":[["RPS6KA2",0.10371169119459289,-2.8258304636319074,8.0,813.0]],"bottom":[["DOCK4",-0.07749943412396519,-1.8775240310391874,10.0,811.0],["HMGCR",-0.09426824102072015,-2.4583804813036463,9.0,812.0]]}}}
{"ccle_mirna":{"corr":{"top":[],"bottom":[]},"para":{"top":[],"bottom":[["kshv-miR-K12-6-3p_miR00794.1",-0.1637042292374884,-5.592832889873548,817]]}}}
{"prism_primary_logfold":{"corr":{"top":[],"bottom":[]},"para":{"top":[["sodium-tetradecyl-sulfate_BRD-A55664972-236-02-6::2.5::HTS",0.20736127993641246,-5.21523748244404,468]],"bottom":[]}}}
{"prism_secondary_logfold":{"corr":{"top":[["acetylsalicylsalicylic-acid_BRD-K46585355-001-14-3::10::HTS002",0.22255337742975803,-5.17782131636112,402]],"bottom":[]},"para":{"top":[["acetylsalicylsalicylic-acid_BRD-K46585355-001-14-3::10::HTS002",0.19485880186444993,-4.075374859370813,402]],"bottom":[]}}}
{"drive":{"corr":{"top":[],"bottom":[]},"para":{"top":[["LOC440311_440311",0.2826685191249791,-6.453293519330101,314]],"bottom":[]}}}
{"achilles":{"corr":{"top":[],"bottom":[]},"para":{"top":[["FMO9P_116123",0.23127706413885957,-5.144555409341379,369]],"bottom":[]}}}
{"ccle_rrbs_tss1kb":{"corr":{"top":[["PHETA2_22_42469254_42470254",0.5801386229328297,-73.48756493470418,812]],"bottom":[]},"para":{"top":[],"bottom":[]}}}
{"ccle_rrbs_tss_clusters":{"corr":{"top":[["PHETA2_2",0.6762632906187812,-110.22682502906248,822]],"bottom":[]},"para":{"top":[["PHETA2_2",0.5505523976757619,-65.59924322815932,822]],"bottom":[]}}}
{"ccle_rrbs_cgi_clusters":{"corr":{"top":[["7_127225758_127228398-2",0.3579439824685057,-23.573134704164215,757],["22_42468035_42472669-2",0.6507492468895579,-99.3138063462793,821],["22_42468035_42472669-1",0.5926210793179287,-76.57332168626509,803]],"bottom":[]},"para":{"top":[["22_42468035_42472669-2",0.5151658217954878,-56.11936921008419,821],["22_42468035_42472669-1",0.49802583623521096,-50.83052041567951,803]],"bottom":[]}}}
