{"depmap_hotspot":{"corr":{"top":[["CCDC41",0.15903827874335674,-5.452746847360378,37.0,805.0],["GDE1",0.1421437448669476,-4.458393413229715,10.0,832.0],["IL19",0.13999608855080253,-4.339636097110376,11.0,831.0],["PMM1",0.17183954200205842,-6.278296152646569,14.0,828.0],["PTCHD1",0.1761637204513158,-6.571427275425569,33.0,809.0],["RIBC1",0.13023694679678027,-3.8214331258374394,9.0,833.0],["S100A7",0.15340103417023235,-5.109020755006478,8.0,834.0]],"bottom":[]},"para":{"top":[["DEFB110",0.10848746637628622,-3.0813966917287745,10.0,832.0],["FAM219A",0.1109115984870475,-3.1867194791411793,9.0,833.0],["PPCS",0.11090712913509716,-3.186698932039083,13.0,829.0],["PXDC1",0.14783136590789644,-5.0422213705624666,14.0,828.0],["RGS17",0.11031120680089485,-3.160640080563125,14.0,828.0],["RIBC1",0.11259938368141559,-3.2612722056763688,9.0,833.0],["S100A7",0.11235503857568682,-3.2503544577636485,8.0,834.0],["TRAM1",0.0916192674903531,-2.4033783561957276,10.0,832.0]],"bottom":[["FAM192A",-0.09906463364862655,-2.6906774559469278,8.0,834.0]]}}}
{"depmap_damaging":{"corr":{"top":[["ITGA2",0.1752649136438639,-6.50288376097375,18.0,823.0],["MYLK2",0.1512596244199923,-4.9763333689163325,8.0,833.0],["RSL1D1",0.15846033521865865,-5.411192156159489,9.0,832.0],["STON1",0.2092197901424665,-9.045947074231709,15.0,826.0],["THBS4",0.17468014254295575,-6.463068573923558,9.0,832.0]],"bottom":[]},"para":{"top":[["DHX9",0.12101200537448781,-3.643965513875585,8.0,833.0],["INO80",0.13472835669947894,-4.325606881235797,18.0,823.0],["RNF111",0.09752076641057479,-2.627371351198546,10.0,831.0]],"bottom":[["ZNF561",-0.09618473567553387,-2.575337472567132,15.0,826.0]]}}}
{"depmap_gene_tpm":{"corr":{"top":[["ABCB11_8647",0.21517294591133007,-9.507929304503895,838]],"bottom":[]},"para":{"top":[],"bottom":[]}}}
{"achilles":{"corr":{"top":[],"bottom":[]},"para":{"top":[["FAM118B_79607",0.24301747461463186,-3.57631883515299,221]],"bottom":[]}}}
{"ccle_gene_tpm":{"corr":{"top":[["RP3-522P13.2_ENSG00000213972.3",0.2832783885947703,-16.14736613674382,835],["AC007271.3_ENSG00000226925.1",0.32762495405004527,-21.61697980346353,835],["AC008154.5_ENSG00000229177.1",0.28305823899688126,-16.12251961166864,835],["AC006380.3_ENSG00000231418.1",0.2908417826798168,-17.014498775493845,835],["SALL4P5_ENSG00000231915.2",0.28790552907867023,-16.674733384093,835],["RP11-341B24.3_ENSG00000233292.1",0.2448702319531819,-12.1400795154585,835],["AC104772.1_ENSG00000233751.1",0.30348048513290704,-18.522874822945745,835],["RN7SL331P_ENSG00000240466.2",0.2217379408634765,-10.033604710848046,835],["KRTAP9-12P_ENSG00000248807.1",0.24518108627279842,-12.169925144284731,835],["NPM1P45_ENSG00000265593.1",0.3190100679606105,-20.48035681433408,835]],"bottom":[]},"para":{"top":[],"bottom":[]}}}
{"ccle_rrbs_tss_clusters":{"corr":{"top":[],"bottom":[]},"para":{"top":[],"bottom":[["INHBC_3",-0.16380165250294554,-5.148941653476461,744],["AP1G1_3",-0.15540274238501348,-5.140917537420095,826]]}}}
{"ccle_rrbs_cgi_clusters":{"corr":{"top":[["6_44230880_44235447-1",0.9999999999999998,-323.0051853474518,842]],"bottom":[]},"para":{"top":[["6_44230880_44235447-1",1.0,-323.0051853474518,842]],"bottom":[]}}}
