{"depmap_hotspot":{"corr":{"top":[["C16orf90",0.1521244747626015,-5.027529733835808,9.0,832.0],["CCDC68",0.16796040475510657,-6.0150345379443815,18.0,823.0],["CKS1B",0.23685446061493184,-11.461400292431543,13.0,828.0],["CSHL1",0.15381603476196598,-5.128478068860395,20.0,821.0],["CTD-3088G3.8",0.14692295680819709,-4.723846360456477,28.0,813.0],["ELAVL4",0.19129843914338074,-7.646635957947983,21.0,820.0],["FCAMR",0.15615182045107215,-5.26964568897454,15.0,826.0],["GGA2",0.17446522510004053,-6.448468867859128,35.0,806.0],["GPR75",0.16394823890077884,-5.755809178713943,28.0,813.0],["GSTA5",0.16061470049248958,-5.545110338119778,14.0,827.0],["HRG",0.16030129079119526,-5.525518751732322,34.0,807.0],["KRTAP4-16P",0.14841410218230772,-4.8098686859784605,10.0,831.0],["LRCH2",0.16821763885902719,-6.031865035281417,25.0,816.0],["OR51E1",0.18794770160237173,-7.399253106441781,24.0,817.0],["PEX26",0.18419397108493896,-7.127384246213526,13.0,828.0],["PLSCR5",0.16431707443000004,-5.779382293920974,18.0,823.0],["PPP2CA",0.21039834424762777,-9.142517016638804,13.0,828.0],["PRRG2",0.18730856473237437,-7.35257038193297,15.0,826.0],["REXO2",0.19190949289277104,-7.692229506813164,16.0,825.0],["SLC28A3",0.15123027332962566,-4.974600809637084,45.0,796.0]],"bottom":[]},"para":{"top":[["MLN",0.11854328494782831,-3.5283903482379215,10.0,831.0],["SBSPON",0.11123816726765849,-3.1982704950203247,11.0,830.0]],"bottom":[["C4orf46",-0.1077180529361527,-3.0455890155283116,9.0,832.0],["GJC3",-0.11427924604408797,-3.333634859913647,15.0,826.0],["IFIT1B",-0.1178223015946416,-3.4953415317932537,23.0,818.0]]}}}
{"depmap_damaging":{"corr":{"top":[["C6orf222",0.22979660184058817,-10.80215706469299,11.0,829.0],["EFCAB4B",0.14068481909555738,-4.36838290174076,10.0,830.0],["GPR75",0.2151639138388685,-9.528254028703476,12.0,828.0],["MAP4K5",0.16659413530075232,-5.919714659618928,23.0,817.0],["NSUN6",0.15475455317089812,-5.179449648115495,11.0,829.0],["PTK2B",0.15440930185869098,-5.1586599792334775,9.0,831.0],["PTPRB",0.16997021923093478,-6.140604442740362,10.0,830.0],["SPRY4",0.17557528204628892,-6.517028036927395,18.0,822.0],["XRN2",0.1446719682415561,-4.590732801344336,10.0,830.0],["ZNF800",0.1376775841277907,-4.2045700761504925,46.0,794.0]],"bottom":[]},"para":{"top":[["POT1",0.08491254769446964,-2.1568115693114165,9.0,831.0]],"bottom":[["PEG3",-0.09070113980205072,-2.365391971514603,15.0,825.0],["RAPGEF5",-0.11656978059049529,-3.43434076549136,13.0,827.0]]}}}
{"ccle_rrbs_enhancer_clusters":{"corr":{"top":[],"bottom":[["16-54141854-54144360-1_enh",-0.2181919416835266,-7.380575780518439,619]]},"para":{"top":[],"bottom":[]}}}
{"ccle_mirna":{"corr":{"top":[],"bottom":[["hsa-miR-1909_miR00202.1",-0.1928587121032631,-7.720968468542101,836]]},"para":{"top":[],"bottom":[]}}}
{"prism_secondary_logfold":{"corr":{"top":[],"bottom":[["minocycline_BRD-A69651145-003-07-2::0.0024414::HTS002",-0.7271619273428479,-31.3213920756599,187]]},"para":{"top":[],"bottom":[]}}}
{"ccle_proteomics":{"corr":{"top":[["LPHN3_Q9HAR2",0.3097601570311705,-3.7779545560188916,143],["ZBTB3_Q9H5J0",0.3320726466326675,-4.960482342726483,168],["XIRP2_A4UGR9-6",0.3619291775179374,-3.893291473811053,107]],"bottom":[["TRIM25_Q14258",-0.2756250953636638,-6.421045577915754,329]]},"para":{"top":[],"bottom":[["ZNF587_Q96SQ5",-0.34836721412228744,-4.134153137830486,124]]}}}
{"depmap_gene_tpm":{"corr":{"top":[["GUCA1A_2978",0.3057439294280593,-18.844094830812654,837],["WFIKKN2_124857",0.4616046880514365,-44.673924286123516,837],["NEUROG1_4762",0.2967338180634655,-17.748904298577838,837],["NPS_594857",0.3247169677682946,-21.278103240608612,837]],"bottom":[["PARP12_64761",-0.3663058012079721,-27.25012183801643,837],["DTX3L_151636",-0.3582858288883877,-26.02777355669294,837],["FAM111A_63901",-0.32658967455974547,-21.527937780695943,837],["PARP14_54625",-0.4437704247810998,-40.97423128015762,837],["TAPBP_6892",-0.33855311871350807,-23.165561252858357,837]]},"para":{"top":[],"bottom":[["PARP12_64761",-0.27566907799984575,-15.336181402145376,837],["PARP14_54625",-0.3293069709079688,-21.89356155898377,837]]}}}
{"avana":{"corr":{"top":[["AFTPH_54812",0.24846382044210813,-7.360308973400883,473],["HEATR5B_54497",0.2237498325401771,-6.053496149436635,473]],"bottom":[["NEUROG1_4762",-0.23763393563682125,-6.717682108162479,469],["SOX11_6664",-0.25765361040499785,-7.883430710575307,473]]},"para":{"top":[],"bottom":[["SLC25A51_92014",-0.2101315171447264,-5.394071466237499,473]]}}}
{"drive":{"corr":{"top":[],"bottom":[["SAE1_10055",-0.29586712402377086,-7.200731712533892,322]]},"para":{"top":[],"bottom":[]}}}
{"achilles":{"corr":{"top":[["THAP8_199745",0.2774079662867461,-4.5227291306161215,220],["ZDHHC2_51201",0.2854840092304463,-4.767750280005708,220]],"bottom":[["ANKS1A_23294",-0.2908041776444115,-4.933332771422774,220],["DNAJC22_79962",-0.27474887340336623,-4.443707585299691,220]]},"para":{"top":[],"bottom":[["PLVAP_83483",-0.25285107023186776,-3.823448631966487,220]]}}}
{"ccle_rrbs_tss1kb":{"corr":{"top":[["GCA_2_163174272_163175272",0.4652142786309997,-44.9707827208589,828],["GCA_2_163174491_163175491",0.5003908569648018,-52.887936653940486,827],["IFIH1_2_163175194_163176194",0.5018178002277437,-52.978225140859415,823],["DTX3L_3_122282184_122283184",0.5049695230283077,-53.6744411400999,822],["PARP14_3_122398671_122399671",0.9123669512313015,-318.8010110813783,820],["PARP9_3_122283147_122284147",0.5103132251129352,-55.50656082818139,830],["PARP9_3_122283194_122284194",0.5094399271346297,-55.22394810394846,829],["C5orf56_5_131745464_131746464",0.43277094354443385,-37.486022438345245,808],["CPQ_8_97656454_97657454",0.46556407466617283,-42.539707143883305,781],["CD274_9_5449502_5450502",0.5707716248561543,-71.07472788810115,817],["TRIM14_9_100881635_100882635",0.43386251120512315,-38.37418389468364,823],["TUBA1C_12_49657781_49658781",0.4496884708895861,-41.68451814272099,827],["PHF11_13_50069482_50070482",0.46565101615236454,-44.74426753575526,822],["TK2_16_66583728_66584728",0.471112154804354,-45.642421930927675,817]],"bottom":[["MX2_21_42732949_42733949",-0.18016062692292995,-6.552308269453196,802]]},"para":{"top":[["GCA_2_163174272_163175272",0.43434645149673884,-38.695253692296944,828],["GCA_2_163174491_163175491",0.438824990779454,-39.51953803112702,827],["PARP14_3_122398671_122399671",0.730792046937658,-137.07071828367623,820],["STK24_13_99229405_99230405",0.42424348104828113,-36.73436380346644,827]],"bottom":[]}}}
{"ccle_gene_tpm":{"corr":{"top":[["WFIKKN2_ENSG00000173714.7",0.4619597951177473,-44.592688897190854,834],["CTSLP6_ENSG00000204437.7",0.3369536684176743,-22.8631399560247,834],["NPS_ENSG00000214285.1",0.3298162878507844,-21.88671586810973,834],["GSTM5P1_ENSG00000236062.1",0.3672518066261639,-27.301455862922584,834],["RN7SL461P_ENSG00000243801.2",0.3193521338742489,-20.501176473388455,834],["RP11-1336O20.2_ENSG00000249690.1",0.41483976792773325,-35.29806490348648,834],["RP11-39E3.3_ENSG00000250592.1",0.32533915264902424,-21.287266845405924,834],["OR6R2P_ENSG00000273484.1",0.33210065018288076,-22.19643242855348,834]],"bottom":[["PARP12_ENSG00000059378.8",-0.36706792674497607,-27.27304633327317,834],["DTX3L_ENSG00000163840.5",-0.35881028334753357,-26.016097005272357,834],["FAM111A_ENSG00000166801.11",-0.32685020417043925,-21.488467296291983,834],["PARP14_ENSG00000173193.9",-0.4425960615916348,-40.59542512679933,834],["TAPBP_ENSG00000231925.7",-0.33927264387116174,-23.18594101453003,834]]},"para":{"top":[],"bottom":[["PARP14_ENSG00000173193.9",-0.32967426909216235,-21.867547189181014,834]]}}}
{"ccle_rrbs_tss_clusters":{"corr":{"top":[["CPQ_2",0.4748185417149584,-45.10720108356645,793],["CFLAR_1",0.4537516287346962,-43.16872672760459,840],["LGALS8_3",0.48045086668820586,-48.94327860553597,839],["TK2_1",0.46413282316929094,-45.428086436813885,841],["OAS3_3",0.48568732597724673,-41.106504753030066,685],["PHF11_1",0.46522911138193307,-45.18684841613297,832],["DDX60L_2",0.549928501644477,-65.50188012094804,823],["CD274_2",0.5461440293199168,-64.1332214347934,819],["HFE_3",0.4610718806281158,-31.509080907154807,587],["DTX3L",0.5092235357814657,-55.95559560953712,841],["CD274_1",0.5101868395081302,-49.426536004469725,738],["DDX60L_1",0.5380612872718198,-37.02200334843364,485],["GCA_3",0.5145175546432914,-57.09692275413967,838],["CKLF_1",0.47944508531128127,-48.71438842256522,839],["PARP12_1",0.5182510962470182,-58.25906568613897,841]],"bottom":[["SNORA98_2",-0.27252625944368103,-14.329937224335078,798],["PSMD4_1",-0.23479618021845283,-10.201526470018884,756],["CELF1_2",-0.23766230347625256,-11.098922576138559,807],["MX1_1",-0.26338015421244154,-13.275808585689363,790],["LCMT1-AS2_3",-0.26408485921510266,-13.824088708725881,820]]},"para":{"top":[["PARP14_2",0.46688197547953814,-45.32849404320764,828],["TMEM63A_1",0.4970986751510979,-52.96849253946667,841],["LGALS8_3",0.4340457914267923,-39.138695016149114,839],["DRAM1_3",0.4520499260053396,-42.864139609210206,841],["LOC100310756_1",0.44704541959061095,-41.78329918812576,840],["PARP12_1",0.4806809607498528,-49.11036750726547,841]],"bottom":[["MIR6870_1",-0.2096796026121148,-4.657415519737274,403]]}}}
{"ccle_rrbs_cgi_clusters":{"corr":{"top":[["1_236685071_236689608-3",0.48045086668820586,-48.94327860553597,839],["12_113374185_113378493-3",0.48568732597724673,-41.106504753030066,685],["9_5448409_5452629-1",0.5101868395081302,-49.426536004469725,738],["4_169399350_169403725-2",0.549928501644477,-65.50188012094804,823],["16_66581236_66586135-1",0.4588554750076165,-44.24400426036384,840],["8_97655174_97659943-2",0.4748185417149584,-45.10720108356645,793],["3_122397655_122402190-1",0.9999999999999999,-323.0051853474518,841],["9_100879098_100883660-2",0.4447456836402791,-41.074694137403846,835],["3_122281002_122285594-1",0.5092235357814657,-55.95559560953712,841],["13_50068022_50072719-1",0.46522911138193307,-45.18684841613297,832],["2_201979062_201983689-1",0.4537516287346962,-43.16872672760459,840],["7_139760255_139765245-1",0.5182510962470182,-58.25906568613897,841],["3_5017876_5021050-2",0.43880000484183546,-23.939091769864955,494],["9_5448409_5452629-2",0.5461440293199168,-64.1332214347934,819],["4_169399350_169403725-1",0.5380612872718198,-37.02200334843364,485]],"bottom":[["15_86282329_86286535-1",-0.23570703113405572,-10.873396515666608,803],["16_2625134_2629399-1",-0.3697220234138405,-11.303487464741501,327],["16_2625134_2629399-2",-0.4143989487186531,-14.274702891719652,327]]},"para":{"top":[["1_236685071_236689608-3",0.4340457914267923,-39.138695016149114,839],["8_144638396_144642772-2",0.44704541959061095,-41.78329918812576,840],["1_226067605_226070251-1",0.4658010866907273,-45.57675503551846,837],["3_122397655_122402190-2",0.46688197547953814,-45.32849404320764,828],["3_122397655_122402190-1",1.0,-323.0051853474518,841],["7_139760255_139765245-1",0.4806809607498528,-49.11036750726547,841]],"bottom":[]}}}
