{"depmap_hotspot":{"corr":{"top":[["IL25",0.16561398279484787,-5.818720392583059,11.0,823.0]],"bottom":[]},"para":{"top":[["DAD1",0.13816810357613946,-4.475716786068463,10.0,824.0],["IL25",0.11946358981814001,-3.5480403911514067,11.0,823.0],["NEURL2",0.15228463278734627,-5.255675520665665,10.0,824.0]],"bottom":[]}}}
{"depmap_damaging":{"corr":{"top":[],"bottom":[]},"para":{"top":[["TFDP2",0.10298207525101691,-2.82676744413815,9.0,824.0]],"bottom":[]}}}
{"ccle_rrbs_enhancer_clusters":{"corr":{"top":[["15-48010796-48014524-2_enh",0.6096625212038702,-81.66097375370538,798]],"bottom":[]},"para":{"top":[],"bottom":[]}}}
{"ccle_rrbs_tss1kb":{"corr":{"top":[["ARHGDIG_16_329605_330605",0.8361818666254495,-215.64490883683007,823],["WNT9B_17_44927951_44928951",0.7884448242866562,-174.7248336352853,823]],"bottom":[]},"para":{"top":[["ARHGDIG_16_329605_330605",0.7557905679517913,-152.40163330931668,823]],"bottom":[]}}}
{"ccle_rrbs_tss_clusters":{"corr":{"top":[["WNT9B_2",0.7616319824546347,-158.20449432834639,834],["TMEM151A_2",0.7561873141683694,-153.57369617360658,828]],"bottom":[]},"para":{"top":[],"bottom":[]}}}
{"ccle_rrbs_cgi_clusters":{"corr":{"top":[["11_66057287_66061935-1",0.7723318054099126,-165.41389133101342,834],["16_330514_334760-1",0.9611996624390727,-323.0051853474518,813],["16_328060_332994-3",1.0,-323.0051853474518,834]],"bottom":[]},"para":{"top":[["16_330514_334760-1",0.8703324970662872,-250.9764485563074,813],["16_328060_332994-3",1.0,-323.0051853474518,834]],"bottom":[]}}}
