{"depmap_hotspot":{"corr":{"top":[],"bottom":[["ACOT1",-0.12159363452729256,-3.3673052709561966,10.0,825.0]]},"para":{"top":[["DDIT3",0.11879428740778242,-3.5201819495137805,8.0,827.0],["HNRNPLL",0.13408536251339107,-4.267321488257767,15.0,820.0],["LIPM",0.13073657497565955,-4.096959932021182,17.0,818.0],["PGLYRP4",0.11610288029506093,-3.3974337354035122,20.0,815.0],["RAD18",0.15450564022454244,-5.390485388261247,20.0,815.0],["SP9",0.13478495876435873,-4.30355790749282,21.0,814.0],["SRGN",0.09880945549938208,-2.6643109017205093,11.0,824.0],["TNMD",0.11522228236182262,-3.357458769340245,12.0,823.0]],"bottom":[["ACOT1",-0.10793623837574351,-3.0384578663375583,10.0,825.0]]}}}
{"depmap_damaging":{"corr":{"top":[],"bottom":[["FLT3",-0.0965008069291369,-2.2770293281952383,9.0,825.0],["NLGN2",-0.1777412041528605,-6.622458482179444,11.0,823.0],["NSD1",-0.12215646687537043,-3.390766039785878,16.0,818.0],["XPO6",-0.15312642388979017,-5.049456834150153,8.0,826.0]]},"para":{"top":[["CTNNA3",0.10660728702367797,-2.9796829863170724,14.0,820.0],["PTPN4",0.07892781586745513,-1.9436488479578167,8.0,826.0],["ZNF560",0.10724054826060898,-3.006113466366508,8.0,826.0]],"bottom":[["NSD1",-0.10887592475965699,-3.075982150445875,16.0,818.0]]}}}
{"ccle_mirna":{"corr":{"top":[["hcmv-miR-UL112_miR00753.1",0.15798240669747993,-5.31870561445403,830]],"bottom":[]},"para":{"top":[],"bottom":[]}}}
{"ccle_proteomics":{"corr":{"top":[["BRCC3_P46736-2",0.28327640765212864,-6.705150202532536,326]],"bottom":[["SERPINF1_P36955",-0.3934004320386982,-7.706316525244368,190]]},"para":{"top":[],"bottom":[]}}}
{"achilles":{"corr":{"top":[],"bottom":[]},"para":{"top":[["TPR_7175",0.2242944391112256,-4.947210115239394,376]],"bottom":[]}}}
{"ccle_rrbs_tss1kb":{"corr":{"top":[["PLEKHB1_11_73358734_73359734",0.7295457566595542,-136.87326498829276,823]],"bottom":[]},"para":{"top":[["PLEKHB1_11_73358734_73359734",0.5650862171026433,-69.88613585780328,823]],"bottom":[]}}}
{"ccle_rrbs_tss_clusters":{"corr":{"top":[["PLEKHB1_1",0.46348467834771095,-35.46630299763945,655],["SLC12A4_3",0.4809868020033338,-24.746332690272588,416]],"bottom":[]},"para":{"top":[["PLEKHB1_1",0.5242475267262607,-46.79441665506664,655]],"bottom":[]}}}
{"ccle_rrbs_cgi_clusters":{"corr":{"top":[],"bottom":[]},"para":{"top":[],"bottom":[]}}}
