{"depmap_hotspot":{"corr":{"top":[],"bottom":[["DDX6",-0.09335915889332133,-1.8899088135616924,19.0,690.0],["METTL12",-0.10053162189625063,-2.131599850702982,8.0,701.0],["MRPL50",-0.11674804496878603,-2.7335832724987195,8.0,701.0],["PPP1R1B",-0.0921937417208631,-1.8520404029013136,11.0,698.0],["TAGLN",-0.09159449765133579,-1.8327207263812126,14.0,695.0],["TMEM184A",-0.10300811751751227,-2.2185222679751013,28.0,681.0]]},"para":{"top":[["APH1B",0.12827440234654242,-3.4921581342354786,10.0,699.0],["APOL1",0.09136154032444112,-2.1222697493960108,9.0,700.0],["CLEC18A",0.10766179490509184,-2.6793405074052474,9.0,700.0],["CRYGS",0.12412294336907022,-3.318696325094045,11.0,698.0],["DOK6",0.1238433017681903,-3.307379666621507,16.0,693.0],["DUPD1",0.12437935990997535,-3.329317822421755,12.0,697.0],["EXOSC1",0.11708308244319157,-3.035619638392396,8.0,701.0],["KCNMB3",0.12687025837558824,-3.4329123021985684,10.0,699.0],["LPGAT1",0.1273437354027939,-3.4530141073440843,14.0,695.0],["MAOB",0.11661823654268288,-3.017781273189737,15.0,694.0],["MSGN1",0.11494656490018543,-2.952887424767432,14.0,695.0],["NOL3",0.1013740273092515,-2.455507043210028,8.0,701.0],["PCNP",0.11422503540731978,-2.924908151761546,9.0,700.0],["PSPH",0.08968204864407366,-2.0690545499110047,8.0,701.0],["WDR86",0.13996658959172872,-4.008080857388686,20.0,689.0],["ZNF439",0.1336179769265177,-3.723165173534841,18.0,691.0],["ZNF705A",0.13198953326969196,-3.651665495418338,10.0,699.0],["ZNF891",0.1235181318085589,-3.2940244578693925,16.0,693.0]],"bottom":[["C1orf174",-0.07942707294333107,-1.761458660198765,8.0,701.0],["MRPL50",-0.10166795973379505,-2.465717884558973,8.0,701.0],["TAC4",-0.10208458114498258,-2.4802970411564114,9.0,700.0]]}}}
{"depmap_damaging":{"corr":{"top":[],"bottom":[["MYO18A",-0.10628137084939307,-2.336164885159707,14.0,695.0],["PAN2",-0.09002382053062301,-1.7825702867149749,8.0,701.0],["WDR49",-0.10850998445528091,-2.418065370758506,9.0,700.0]]},"para":{"top":[["ADAMTS19",0.11345470201503947,-2.8954485926029543,9.0,700.0],["ATRNL1",0.09621133028855071,-2.280292030112639,11.0,698.0],["C5",0.12201168016490355,-3.23251972300805,15.0,694.0],["SF3A2",0.11071454657808072,-2.7919635002719194,8.0,701.0]],"bottom":[["AHI1",-0.09348635611849192,-2.1908726418244044,15.0,694.0],["CACNA1F",-0.09062916423426962,-2.0989342802498148,8.0,701.0],["CSTF3",-0.10887966374773797,-2.7240372222809768,10.0,699.0],["MYO18A",-0.10416102656291609,-2.5535857075123904,14.0,695.0],["PAN2",-0.08713463429802933,-1.9899273231016616,8.0,701.0]]}}}
{"prism_secondary_logfold":{"corr":{"top":[],"bottom":[["domiphen_BRD-K30431096-004-01-3::0.15625::HTS002",-0.2278479975820627,-4.6784139050491165,342]]},"para":{"top":[],"bottom":[["AVL-292_BRD-K87782578-001-01-4::0.0024414::HTS002",-0.2841192420275785,-4.148271628590856,190]]}}}
{"avana":{"corr":{"top":[],"bottom":[]},"para":{"top":[["APOF_319",0.19629086422992803,-4.101750311333273,399]],"bottom":[]}}}
{"drive":{"corr":{"top":[],"bottom":[["ACTG1P20_644961",-0.32317790594937923,-7.279104581324699,271]]},"para":{"top":[],"bottom":[["CSNK1A1_1452",-0.29771643283000265,-6.265493906579632,273],["ACTG1P20_644961",-0.3340833621574193,-7.762051477465656,271],["VSNL1_7447",-0.23306254707610752,-3.9675414718617343,271]]}}}
{"achilles":{"corr":{"top":[],"bottom":[["THEG_51298",-0.27803487233935886,-3.9141612287359147,186]]},"para":{"top":[],"bottom":[["THEG_51298",-0.25285896242385103,-3.303124488703021,186]]}}}
{"ccle_rrbs_tss1kb":{"corr":{"top":[["PMEPA1_20_56285670_56286670",0.6038933147307952,-70.15830327371643,701],["PMEPA1_20_56286592_56287592",0.47623527381438446,-40.13004560751945,699],["PMEPA1_20_56265680_56266680",0.3757513934968764,-24.035065536276498,696]],"bottom":[]},"para":{"top":[["PMEPA1_20_56285670_56286670",0.6911839648801382,-99.95792429167032,701],["PMEPA1_20_56286592_56287592",0.43132200296516887,-32.31189617626039,699]],"bottom":[]}}}
{"ccle_rrbs_tss_clusters":{"corr":{"top":[["PMEPA1_1",0.6779684824934743,-95.85170006023866,709],["PMEPA1_6",0.8209354112899022,-173.4844752860458,709],["NKILA",0.4613914244571024,-37.73001407909161,705],["PMEPA1_3",0.4752293557213057,-40.38904241922027,707]],"bottom":[]},"para":{"top":[["PMEPA1_1",0.6780000971040386,-95.86390015891047,709],["PMEPA1_6",0.808500971983388,-164.22286690123985,709],["NKILA",0.4129353370678433,-29.67942926294287,705],["PMEPA1_3",0.42992017793281484,-32.44363353947008,707]],"bottom":[]}}}
{"ccle_rrbs_cgi_clusters":{"corr":{"top":[["20_56281891_56284643-1",0.49909311757326824,-45.20341932478578,709],["20_56284643_56287395-3",0.4613914244571024,-37.73001407909161,705],["20_56284643_56287395-2",0.9999999999999999,-323.0051853474518,709]],"bottom":[]},"para":{"top":[["20_56281891_56284643-1",0.4812618553322837,-41.65477527708083,709],["20_56284643_56287395-3",0.4129353370678433,-29.67942926294287,705],["20_56284643_56287395-2",0.9999999999999999,-323.0051853474518,709]],"bottom":[]}}}
