{"depmap_hotspot":{"corr":{"top":[],"bottom":[]},"para":{"top":[],"bottom":[["DEFB112",-0.10200437560423369,-2.8093197529407683,8.0,834.0],["HIST1H4K",-0.11511735433122114,-3.3743791902647393,10.0,832.0],["OR51H1P",-0.11987037037586173,-3.5937747279328405,12.0,830.0],["OSTC",-0.08580960683546277,-2.1919419788276455,8.0,834.0],["RBFOX3",-0.11755578293654909,-3.4860450601988817,13.0,829.0],["SERTAD3",-0.08964681143259288,-2.330324668355029,9.0,833.0],["SLC37A4",-0.08681936097924578,-2.227918610683404,9.0,833.0],["TMCO6",-0.11747637277927792,-3.4824425120509583,15.0,827.0],["VAMP1",-0.07707772496351216,-1.895411804101745,9.0,833.0],["ZDHHC24",-0.09979234101281974,-2.71996849422456,12.0,830.0]]}}}
{"depmap_damaging":{"corr":{"top":[["DIAPH2",0.17021012659871518,-6.163093175148835,8.0,833.0],["EFHB",0.14654174551984978,-4.701988082977765,11.0,830.0]],"bottom":[]},"para":{"top":[["AP2B1",0.10160858955501643,-2.790824367550779,10.0,831.0]],"bottom":[["ADAMTS7",-0.08326346746434318,-2.1011460062582996,8.0,833.0],["ATP2C2",-0.09731558710550499,-2.6193296238258443,10.0,831.0],["CAPRIN2",-0.09998197839443058,-2.7253001904239778,16.0,825.0],["DOPEY1",-0.10095939878579886,-2.7646567075724753,15.0,826.0],["DPP6",-0.10494176432608257,-2.9283906750329782,13.0,828.0],["KIFC2",-0.09663871865098128,-2.5928106785184664,9.0,832.0],["MAP4K3",-0.11249925892693506,-3.2539187024970677,10.0,831.0],["RASGEF1B",-0.09481942749424294,-2.5223694242022763,8.0,833.0],["TAF3",-0.08361658722857306,-2.1134866513687993,11.0,830.0],["TBX4",-0.08506923274953011,-2.164128940076976,10.0,831.0],["UBE3C",-0.10435077403101034,-2.903580085822058,9.0,832.0],["WNT16",-0.092712455429967,-2.4424459442401028,13.0,828.0]]}}}
{"ccle_proteomics":{"corr":{"top":[],"bottom":[["PRDX2_P32119",-0.5352565266906849,-25.205404145775454,331],["FUT3_P21217",-0.4616681995646344,-5.983056398824764,102]]},"para":{"top":[],"bottom":[]}}}
{"depmap_gene_tpm":{"corr":{"top":[],"bottom":[["PRDX2_7001",-0.7522876410579676,-152.93888896680426,838]]},"para":{"top":[],"bottom":[["PRDX2_7001",-0.4831457105570026,-49.50234367843563,838]]}}}
{"avana":{"corr":{"top":[],"bottom":[["PRDX1_5052",-0.3585694447341517,-15.101206498239439,474]]},"para":{"top":[["EFTUD2_9343",0.21732342899106263,-5.7479694676287085,474]],"bottom":[["GEMIN2_8487",-0.21045890174625737,-5.419691736362115,474],["NCAPD3_23310",-0.21551434021192398,-5.617389270247572,470],["PRDX1_5052",-0.30258841431182854,-10.766829979646218,474]]}}}
{"achilles":{"corr":{"top":[],"bottom":[["PRDX1_5052",-0.3530862149332019,-11.96057367635532,383],["RPL28_6158",-0.2947781742785208,-5.079859310047782,221],["RPL13AP6_644511",-0.28565444509132015,-4.792396673760211,221]]},"para":{"top":[["SETD9_133383",0.2902971179182574,-4.937436142569081,221],["FAAP24_91442",0.25690706646672706,-3.9500063474353277,221],["TIMM50_92609",0.2704669579246091,-7.1191748011502325,383]],"bottom":[["SNX11_29916",-0.2741453033436476,-4.443753472751231,221],["PRDX1_5052",-0.29420362864734034,-8.358768164825152,383]]}}}
{"ccle_rrbs_tss1kb":{"corr":{"top":[["PRDX2_19_12912724_12913724",0.9602172123257767,-323.0051853474518,825]],"bottom":[]},"para":{"top":[["RPS6KL1_14_75389145_75390145",0.4528531312359322,-42.43026009612434,829],["PRDX2_19_12912724_12913724",0.7521672011916911,-150.50493332929435,825]],"bottom":[]}}}
{"ccle_gene_tpm":{"corr":{"top":[["AC012078.2_ENSG00000218410.1",0.2807221226344398,-15.860223015411517,835]],"bottom":[["PRDX2_ENSG00000167815.7",-0.7554390856642915,-154.38722587938412,835]]},"para":{"top":[],"bottom":[["PRDX2_ENSG00000167815.7",-0.48137013580727195,-48.92315894765212,835]]}}}
{"ccle_rrbs_tss_clusters":{"corr":{"top":[["PRDX2_2",0.6952564871381376,-119.42919020191303,825]],"bottom":[["MICU2_1",-0.3358827639306927,-7.495475997943198,258]]},"para":{"top":[["PRDX2_2",0.6625675138318117,-104.6782081620386,825]],"bottom":[]}}}
{"ccle_rrbs_cgi_clusters":{"corr":{"top":[["20_62610644_62613163-1",0.4689975053841492,-46.54390944087526,842],["20_62610300_62614787-1",0.4704822728544602,-46.87174309779189,842],["19_12909931_12914918-2",0.6952564871381376,-119.42919020191303,825],["19_12909931_12914918-3",1.0,-323.0051853474518,842]],"bottom":[["19_12909931_12914918-1",-0.2869997828344242,-16.570728967331505,835]]},"para":{"top":[["20_62610644_62613163-1",0.4867607694408856,-50.57369591946956,842],["20_62610300_62614787-1",0.49922536446949434,-53.54628285618283,842],["5_175970401_175973053-1",0.4641777364991008,-45.437809864964876,841],["19_12909931_12914918-2",0.6625675138318117,-104.6782081620386,825],["19_12909931_12914918-3",1.0,-323.0051853474518,842]],"bottom":[]}}}
