{"depmap_hotspot":{"corr":{"top":[],"bottom":[["CCDC97",-0.11277992993574999,-2.7519143601511082,20.0,746.0],["GPR85",-0.10883214579690528,-2.591762297714307,33.0,733.0],["LTN1",-0.1253449785813554,-3.295255298761785,97.0,669.0],["PRR24",-0.11076848634095261,-2.6696888193965638,11.0,755.0],["RP11-683L23.1",-0.0977195660341293,-2.1676686920559836,14.0,752.0],["SLC35G5",-0.11843704931257064,-2.9901800545826758,19.0,747.0],["SRSF12",-0.09706046176606031,-2.143742946836906,9.0,757.0],["TCTE3",-0.1342473973974247,-3.711568092954412,8.0,758.0],["TNFRSF12A",-0.13055775010764867,-3.535842640870886,10.0,756.0]]},"para":{"top":[["WDR83",0.10376877032010316,-2.6869665270441536,12.0,754.0]],"bottom":[["AC022498.1",-0.13042372194128563,-3.809409222623191,11.0,755.0],["AWAT2",-0.0985815437729174,-2.494072380870908,12.0,754.0],["CCDC97",-0.10899086676721503,-2.889723628124072,20.0,746.0],["HIST1H2BI",-0.08137088295977671,-1.912583604064755,9.0,757.0],["KCNK6",-0.0932776365867742,-2.305404549673377,14.0,752.0],["MRGPRG",-0.11050573738032157,-2.9496938160521857,9.0,757.0],["MST1",-0.10067041505419506,-2.5707188440379865,11.0,755.0],["PPP1R3E",-0.1021464126893792,-2.62566478819464,10.0,756.0],["SLC35G5",-0.10648323166337709,-2.791390687580324,19.0,747.0],["TCTE3",-0.12450424017980678,-3.5408120788977784,8.0,758.0],["TNFRSF12A",-0.1161743078899715,-3.181806707787735,10.0,756.0],["WTIP",-0.11212971987819627,-3.0154834927044636,18.0,748.0]]}}}
{"depmap_damaging":{"corr":{"top":[],"bottom":[["HIVEP2",-0.10647085136289394,-2.495643474763368,14.0,751.0],["HOXB3",-0.09137633129115455,-1.9410047446645153,8.0,757.0]]},"para":{"top":[],"bottom":[["HIVEP2",-0.10008866904655919,-2.546920337291763,14.0,751.0],["HOXB3",-0.09411884326354208,-2.33235987335064,8.0,757.0],["LAMB1",-0.09580960092695903,-2.3919507455994378,8.0,757.0],["LRRC16A",-0.07846849064396376,-1.8217695715034046,9.0,756.0],["RABGAP1L",-0.08482096831021903,-2.0201727039210926,9.0,756.0],["TMEM168",-0.0878001605318723,-2.117469529740038,11.0,754.0]]}}}
{"ccle_proteomics":{"corr":{"top":[["KIF23_B4E1K0",0.37472030263241934,-4.570945206261136,119]],"bottom":[["ELK1_P19419",-0.35646607902109767,-5.2448046613109085,154]]},"para":{"top":[["TSR1_Q2NL82",0.2809111134712017,-6.100149759020058,299],["KIF23_B4E1K0",0.3502787653294355,-4.026240008802851,119]],"bottom":[["PPP1R2_P41236",-0.26564147383611625,-5.495990088524262,299]]}}}
{"avana":{"corr":{"top":[],"bottom":[]},"para":{"top":[["GKAP1_80318",0.17516758089049486,-3.5669276306639945,428]],"bottom":[]}}}
{"drive":{"corr":{"top":[],"bottom":[["TRMT5_57570",-0.2300579042347292,-4.139278192610504,292]]},"para":{"top":[],"bottom":[["TRMT5_57570",-0.21826397180561047,-3.768245824642118,292]]}}}
{"achilles":{"corr":{"top":[["BAAT_570",0.25686694670031274,-5.9376179119547645,349]],"bottom":[["TBCEL_219899",-0.31679633816317726,-5.336557642446664,201],["CXXC1_30827",-0.27596169490196,-4.13488656103627,201],["E2F8_79733",-0.2803332116722065,-6.996897170221032,349]]},"para":{"top":[["LIPA_3988",0.25912976765143564,-6.035403637297967,349]],"bottom":[["NCL_4691",-0.2501902442954174,-5.654413719219328,349],["SCP2_6342",-0.27364211868775,-4.072011261095488,201],["E2F8_79733",-0.24750990703552334,-5.542943747411955,349]]}}}
{"ccle_gene_tpm":{"corr":{"top":[],"bottom":[["PQBP1_ENSG00000102103.11",-0.25067607232031236,-11.613249099225973,759]]},"para":{"top":[],"bottom":[["FOXK2_ENSG00000141568.15",-0.2161676872792132,-8.750028357339,759]]}}}
{"ccle_rrbs_tss_clusters":{"corr":{"top":[["HNRNPF_6",0.48989855519261505,-45.92268175666742,752],["TMPO-AS1_2",0.5107955712936967,-50.88020032232518,758],["RNF10_3",0.4598028814605503,-29.18930614891416,546],["GRK4_1",0.5275787996094725,-53.744528486176314,743]],"bottom":[]},"para":{"top":[["HNRNPF_6",0.4667975076747165,-41.23353734620735,752],["TMPO-AS1_2",0.5070728110054141,-50.03754545731937,758],["TMPO-AS1_1",0.42198289479295253,-33.70062834963687,766]],"bottom":[]}}}
{"ccle_rrbs_cgi_clusters":{"corr":{"top":[["2_20548013_20550538-2",0.9677765595359621,-323.0051853474518,766],["16_9054372_9058844-1",0.4583837173110369,-34.82106427292618,659],["4_2962459_2965237-1",0.5275787996094725,-53.744528486176314,743],["12_120970167_120974447-3",0.4598028814605503,-29.18930614891416,546],["5_138941188_138943792-2",0.4482347274800177,-37.031119873745865,738],["12_98909656_98912261-3",0.5107955712936967,-50.88020032232518,758],["2_20548013_20550538-1",0.6263433468760219,-54.45592759714142,494],["6_136608148_136610716-1",0.4863549793638325,-42.764935262800265,711],["10_43892232_43894917-3",0.48989855519261505,-45.92268175666742,752]],"bottom":[]},"para":{"top":[["1_62902659_62905667-2",0.42804356914044056,-34.21907575620313,754],["2_20548013_20550538-2",0.9441403820925358,-323.0051853474518,766],["12_98909656_98912261-2",0.42198289479295253,-33.70062834963687,766],["5_138941188_138943792-2",0.44193852014844537,-35.908005147728076,738],["12_98909656_98912261-3",0.5070728110054141,-50.03754545731937,758],["2_20548013_20550538-1",0.5963906065605704,-48.18266673192228,494],["10_43892232_43894917-3",0.4667975076747165,-41.23353734620735,752]],"bottom":[]}}}
