{"depmap_hotspot":{"corr":{"top":[],"bottom":[]},"para":{"top":[["C10orf35",0.10761422318851964,-3.008291478036803,9.0,820.0],["TMEM126A",0.10589569518338762,-2.9364121116431274,10.0,819.0]],"bottom":[["ASB4",-0.11335512644890663,-3.256165926570393,23.0,806.0],["C12orf65",-0.08758047462059017,-2.230866032974637,10.0,819.0],["PCSK1N",-0.09766300969448735,-2.6054562620818302,9.0,820.0],["RIBC1",-0.09683576945292968,-2.5734533278114777,9.0,820.0]]}}}
{"depmap_damaging":{"corr":{"top":[],"bottom":[]},"para":{"top":[["MAN1A2",0.08870081866493676,-2.2688219319077327,8.0,820.0],["NFKB2",0.13378760240228446,-4.222809357067328,8.0,820.0]],"bottom":[["BICC1",-0.14187643299821603,-4.64669686558683,23.0,805.0]]}}}
{"ccle_proteomics":{"corr":{"top":[],"bottom":[["CLUAP1_Q96AJ1",-0.35108297469437205,-5.631697527981791,172]]},"para":{"top":[],"bottom":[["CLUAP1_Q96AJ1",-0.32696506307013407,-4.921187950347644,172]]}}}
{"depmap_gene_tpm":{"corr":{"top":[],"bottom":[["RAB36_9609",-0.6327035616971467,-92.74212760440489,825]]},"para":{"top":[],"bottom":[["RAB36_9609",-0.7169215738326935,-130.35240959931963,825],["OSCP1_127700",-0.421526482305295,-36.144803018490386,825],["ZDHHC1_29800",-0.40579750699521555,-33.32257816663549,825],["LRRC73_221424",-0.4414506544565635,-39.94098624190592,825],["TCTN1_79600",-0.3911162169740662,-30.821112013254623,825]]}}}
{"avana":{"corr":{"top":[],"bottom":[]},"para":{"top":[],"bottom":[["PRAMEF20_645425",-0.2548916248434677,-7.633894173656827,467]]}}}
{"drive":{"corr":{"top":[["METAP2_10988",0.2634789444097161,-5.706428568287613,317],["DDX54_79039",0.2262627870642957,-4.319257357786924,317]],"bottom":[["BTRC_8945",-0.2631399583676672,-5.725230574290942,319]]},"para":{"top":[["ARL2-SNX15_100528018",0.2830889468679201,-6.527774745914827,317],["METAP2_10988",0.2562085282495375,-5.418061285865132,317],["NOC2L_26155",0.2642944375053463,-5.739311977470219,317]],"bottom":[["LMAN2_10960",-0.277039382287985,-6.2675271837842494,317]]}}}
{"achilles":{"corr":{"top":[],"bottom":[]},"para":{"top":[],"bottom":[["C1orf174_339448",-0.2931484006882514,-4.946057216013702,217],["CD177_57126",-0.2993528446734142,-5.142509456471027,217]]}}}
{"ccle_rrbs_tss1kb":{"corr":{"top":[["RAB36_22_23486510_23487510",0.6011926965036575,-79.7353539202995,807]],"bottom":[]},"para":{"top":[["RAB36_22_23486510_23487510",0.5229265564163887,-57.11211046536466,807]],"bottom":[]}}}
{"ccle_gene_tpm":{"corr":{"top":[],"bottom":[["RAB36_ENSG00000100228.8",-0.6330756146742109,-92.5483648247229,822]]},"para":{"top":[],"bottom":[["RAB36_ENSG00000100228.8",-0.7175152143932222,-130.19420834938188,822],["OSCP1_ENSG00000116885.14",-0.4180954017783216,-35.390366547656,822],["ZDHHC1_ENSG00000159714.6",-0.40771065853401894,-33.53866257357946,822],["LRRC73_ENSG00000204052.4",-0.4415573999386748,-39.81994433064737,822],["TCTN1_ENSG00000204852.11",-0.3905878727210695,-30.62479768931635,822]]}}}
{"ccle_rrbs_tss_clusters":{"corr":{"top":[["RAB36_1",0.8023747842005685,-186.16558946619148,826],["RAB36_3",0.8905613949656839,-280.33083076218554,817]],"bottom":[]},"para":{"top":[["TUBG2_2",0.4455708317627997,-39.98491103621527,809],["RAB36_1",0.6752697330022464,-110.31596275860774,826],["RAB36_3",0.8864285114910803,-274.15587014642813,817]],"bottom":[]}}}
{"ccle_rrbs_cgi_clusters":{"corr":{"top":[["22_23485368_23489970-1",0.9266720739226653,-323.0051853474518,829],["22_23485368_23489970-2",0.8905613949656839,-280.33083076218554,817]],"bottom":[]},"para":{"top":[["22_23485368_23489970-1",0.9648309996689999,-323.0051853474518,829],["22_23485368_23489970-2",0.8864285114910803,-274.15587014642813,817],["17_40809232_40813597-2",0.4455708317627997,-39.98491103621527,809]],"bottom":[]}}}
