{"depmap_hotspot":{"corr":{"top":[],"bottom":[["AC136604.1",-0.15519000524948895,-4.439468432483086,13.0,689.0],["ACRV1",-0.16508005540824638,-4.958055096395106,8.0,694.0],["ADCK2",-0.14055837780420646,-3.728329928458564,25.0,677.0],["ADRB3",-0.16767289723132314,-5.099134518653971,17.0,685.0],["AIM1",-0.13591777308446817,-3.516568803721129,61.0,641.0],["AKR1B10",-0.1341290530665619,-3.4367003566448986,21.0,681.0],["AP5M1",-0.14286505463530894,-3.8360443157705175,19.0,683.0],["ASB13",-0.12976224570098085,-3.2457974829320397,14.0,688.0],["B4GALT6",-0.17851155024246526,-5.712176284006916,16.0,686.0],["BAG5",-0.13847055168164416,-3.632242799521594,18.0,684.0],["BRD2",-0.13528116634024215,-3.488031934844206,30.0,672.0],["CASP7",-0.14985037962516773,-4.1722489967834155,16.0,686.0],["CCL8",-0.1471974101152296,-4.042782623163756,8.0,694.0],["CHODL",-0.15171043637727188,-4.2643252475735025,15.0,687.0],["DCST1",-0.16528714809859046,-4.969244662302268,32.0,670.0],["EBF1",-0.13514707050207858,-3.482036621713037,49.0,653.0],["EFNA1",-0.13716624924264592,-3.572892383210166,9.0,693.0],["FAM173A",-0.1453499847637398,-3.953915335393907,11.0,691.0],["FAR2",-0.15319024035080184,-4.3383484720823535,21.0,681.0],["FCER1G",-0.13616653924154806,-3.5277536819507773,8.0,694.0],["FCRL1",-0.13860253960309663,-3.6382776988416503,31.0,671.0],["GLOD4",-0.15210570837278503,-4.284030793603573,11.0,691.0],["GOLGA8M",-0.1332873361610828,-3.3994533695674445,8.0,694.0],["GYPA",-0.13514606220037045,-3.4819915621205135,8.0,694.0],["HIST2H2AB",-0.15902860319129714,-4.637084029385714,13.0,689.0],["HPS4",-0.13747623142078363,-3.5869505900525938,23.0,679.0],["ITGAD",-0.13836200456580997,-3.6272836802594832,62.0,640.0],["LMBRD1",-0.14441618359763822,-3.9093977287495325,51.0,651.0],["LONRF2",-0.14483572983243728,-3.929365680066404,38.0,664.0],["LRRC3B",-0.13487491103166044,-3.4698854268045265,15.0,687.0],["MUC1",-0.1398566095626005,-3.6958837322425597,15.0,687.0],["NEU2",-0.14268696690727947,-3.827669916041972,28.0,674.0],["OR10Z1",-0.15650578475064766,-4.506685130181158,24.0,678.0],["PABPC3",-0.14327424512624873,-3.8553230858233722,49.0,653.0],["PDE4B",-0.1608181856555253,-4.730798526936139,33.0,669.0],["PPP1R36",-0.14816274500451684,-4.089638764052296,22.0,680.0],["PTPN11",-0.17328990328911778,-5.41212409250563,28.0,674.0],["PTPRG",-0.14234648546595535,-3.811686278607693,49.0,653.0],["RAC2",-0.12937297188874752,-3.2290598091333704,16.0,686.0],["SAP18",-0.135758415417041,-3.509413768515244,12.0,690.0],["SERPINA3",-0.141314480327974,-3.76345736870433,25.0,677.0],["SLC34A3",-0.1395588862832783,-3.6821641330983717,21.0,681.0],["SMYD2",-0.1343864194681903,-3.44813210901999,19.0,683.0],["ST6GALNAC4",-0.15278450512731756,-4.317984650761692,13.0,689.0],["TBC1D3F",-0.1457544453075498,-3.973280985801645,12.0,690.0],["TEKT1",-0.13723924318528513,-3.5762001385481335,26.0,676.0],["TM9SF4",-0.15359858351173158,-4.358895106791166,30.0,672.0],["TMEM106B",-0.1334628863605295,-3.407203916541756,10.0,692.0],["TPTE2",-0.13434829354522498,-3.4464373534473918,38.0,664.0],["UGT2B11",-0.1364988564660341,-3.5427245713964592,30.0,672.0],["VAT1L",-0.14571036042838767,-3.9711677382805153,28.0,674.0],["VAX2",-0.14679278103605464,-4.023228307190374,17.0,685.0],["YTHDC2",-0.1342910890963439,-3.443895357300713,46.0,656.0],["ZNF724P",-0.1559686570193505,-4.479180344741025,32.0,670.0]]},"para":{"top":[["COX5A",0.10715853491635108,-2.6418323795284806,12.0,690.0],["POLR2G",0.10574379807745186,-2.591015579341073,9.0,693.0]],"bottom":[["AMY2A",-0.10758439841780111,-2.656960674219206,8.0,694.0],["B4GALT6",-0.12102654390214994,-3.1685062878318253,16.0,686.0],["C4orf40",-0.10883877147356878,-2.7027308695525663,12.0,690.0],["C5orf45",-0.11571261285016902,-2.96011530876944,11.0,691.0],["C9orf66",-0.09721865401253449,-2.2975580790294647,8.0,694.0],["CD300E",-0.1236132653387591,-3.2726053051119246,12.0,690.0],["CRYZ",-0.1188541960375166,-3.0823937049794576,15.0,687.0],["CTC-360G5.8",-0.13549079962253954,-3.7758661517853604,12.0,690.0],["DCAKD",-0.09281623095543197,-2.1541013066301593,10.0,692.0],["DGCR6",-0.11810382136254526,-3.052747897233662,10.0,692.0],["FCER1G",-0.1183039224956024,-3.060433403334396,8.0,694.0],["IGFBPL1",-0.12714841430896973,-3.4179018182701473,8.0,694.0],["MED27",-0.12061082118090521,-3.151727009537228,11.0,691.0],["NECAP2",-0.11312049611252667,-2.86135098256469,9.0,693.0],["NEUROG2",-0.11434127155152399,-2.9078187402771634,14.0,688.0],["NME5",-0.11349251894913051,-2.875315903620441,8.0,694.0],["OR10Z1",-0.16211756964105536,-5.052380354273859,24.0,678.0],["P2RY1",-0.11446565351395531,-2.912585837649522,15.0,687.0],["POLR3G",-0.10248997113330148,-2.4765673938319797,8.0,694.0],["PTPN11",-0.16241431137382406,-5.067839449904417,28.0,674.0],["PYCR2",-0.10454216400838989,-2.548429802894106,9.0,693.0],["RASL11B",-0.12903353727559982,-3.4973787876315647,15.0,687.0],["TEPP",-0.11864549067783206,-3.0740267738009646,11.0,691.0],["TMEM200B",-0.11555714297479114,-2.954024445558793,9.0,693.0],["WNT4",-0.10507272401773592,-2.5673389885629634,12.0,690.0],["ZNF550",-0.10379806180191563,-2.522416636607603,12.0,690.0]]}}}
{"depmap_damaging":{"corr":{"top":[],"bottom":[["AKNA",-0.141807509552502,-3.786457366992091,8.0,694.0],["ANKRD17",-0.14241858215264278,-3.8150678251464263,11.0,691.0],["ATP2C1",-0.17168885910349177,-5.32188138266348,8.0,694.0],["ATRN",-0.11700155919688399,-2.720808439695878,12.0,690.0],["C10orf71",-0.12321550461959292,-2.9703727555224866,13.0,689.0],["C14orf39",-0.15964707286666957,-4.669357040737489,9.0,693.0],["C9orf114",-0.1688270530296133,-5.162622377121267,12.0,690.0],["CCDC18",-0.11739214614208388,-2.7361571302703305,14.0,688.0],["CHL1",-0.1298640804150343,-3.2501836391906265,11.0,691.0],["DDR1",-0.17647133285599476,-5.593891830919357,8.0,694.0],["FBXO38",-0.13127267647491211,-3.3111752878102,11.0,691.0],["FMO4",-0.13123465871302378,-3.3095212532012668,9.0,693.0],["G2E3",-0.10822276192724967,-2.387703206880766,9.0,693.0],["IL17RE",-0.12435674045181244,-3.017459051065301,10.0,692.0],["IPO11",-0.1285449473143143,-3.193609185380615,16.0,686.0],["L3MBTL1",-0.1260630066314763,-3.088585974676846,8.0,694.0],["LMBRD1",-0.13915672888219346,-3.6636751441500968,23.0,679.0],["MCM3AP",-0.1553617570660005,-4.448211589323309,14.0,688.0],["MME",-0.1322617116454233,-3.3543589437906545,12.0,690.0],["MTMR9",-0.12816895289955663,-3.1775798074758463,10.0,692.0],["MYO18A",-0.11657288102178771,-2.704014916597383,13.0,689.0],["NLRP6",-0.11367352445892537,-2.591858671728015,8.0,694.0],["NUCB2",-0.11931225726523882,-2.8122688272969105,9.0,693.0],["PCDHB2",-0.1313247021818763,-3.3134394735654937,13.0,689.0],["PLAG1",-0.11996410737011946,-2.8383567091353434,11.0,691.0],["PLXNB1",-0.13654389893447838,-3.5447563262595927,15.0,687.0],["POLE",-0.1122313672317189,-2.5369947460098747,15.0,687.0],["PSD3",-0.12697922342014642,-3.1271398381466127,10.0,692.0],["PTH2R",-0.14809032752626008,-4.086113687747511,8.0,694.0],["REPIN1",-0.1453268224976899,-3.9528078517089917,21.0,681.0],["ROS1",-0.14121444332451294,-3.7587997178835693,16.0,686.0],["SALL4",-0.16791876336803013,-5.11262351096495,8.0,694.0],["SEMA6B",-0.15010091026810393,-4.184587980520638,8.0,694.0],["STAG1",-0.14459550934910467,-3.9179259406860893,12.0,690.0],["TBC1D1",-0.1131074888142848,-2.5702520088922136,9.0,693.0],["TPP2",-0.20347780172710447,-7.269994640561178,9.0,693.0],["VWA3A",-0.1414046933579945,-3.767660258147137,10.0,692.0],["ZSCAN5A",-0.10835449035739052,-2.3925343804165666,8.0,694.0]]},"para":{"top":[],"bottom":[["ATRN",-0.11419814669917701,-2.902297621468287,12.0,690.0],["CHL1",-0.11773841506102904,-3.0385355384584245,11.0,691.0],["DDR1",-0.1192237496441926,-3.096571729371218,8.0,694.0],["FMO4",-0.09920156814589232,-2.364053799266115,9.0,693.0],["IL22RA2",-0.11823316656109545,-3.0576634930833952,8.0,694.0],["KCNQ3",-0.114690446212123,-2.9211171003195187,14.0,688.0],["KCNT2",-0.09693181490433088,-2.288105800423238,9.0,693.0],["LMBRD1",-0.12789288003800509,-3.44960853159759,23.0,679.0],["NUCB2",-0.10654488745682658,-2.619631405987815,9.0,693.0],["PLAG1",-0.09518246805652784,-2.2306518624720653,11.0,691.0],["PLCL1",-0.1214945133093637,-3.1869642565261227,10.0,692.0],["POR",-0.10430851293940563,-2.5401962949875694,9.0,693.0],["RNF103",-0.08689784408972714,-1.9695721372348165,11.0,691.0],["RP11-407N17.3",-0.11260806976779376,-2.8420005955283427,8.0,694.0],["TANC1",-0.11204202229173826,-2.8207948942669283,8.0,694.0],["USP6",-0.10029232736451807,-2.401169682332946,11.0,691.0],["ZNF90",-0.09300548657620064,-2.1602096473245718,11.0,691.0],["ZSCAN5A",-0.09746629978330879,-2.305794437054909,8.0,694.0]]}}}
{"avana":{"corr":{"top":[["EBF2_64641",0.17873465640729175,-3.3866915815833245,387]],"bottom":[]},"para":{"top":[],"bottom":[]}}}
{"drive":{"corr":{"top":[["PIPSL_266971",0.2932432358243299,-5.967265094759816,267]],"bottom":[]},"para":{"top":[],"bottom":[]}}}
{"achilles":{"corr":{"top":[["BAALC_79870",0.26034556523408536,-3.364443286391282,179]],"bottom":[]},"para":{"top":[["A2ML1_144568",0.21696474921066614,-3.9620370953751647,313],["BAALC_79870",0.2292855961309001,-2.694797861580755,179]],"bottom":[]}}}
{"ccle_rrbs_tss1kb":{"corr":{"top":[],"bottom":[["FXYD5_19_35644844_35645844",-0.1410560126648057,-3.709646107106167,693]]},"para":{"top":[["CDK11A_1_1656004_1657004",0.3122556358932074,-11.225489279826942,464]],"bottom":[]}}}
{"ccle_gene_tpm":{"corr":{"top":[],"bottom":[["None_ENSG00000239446.1",-0.21460560028848055,-7.968111295191337,696]]},"para":{"top":[],"bottom":[["TAF9P1_ENSG00000226353.1",-0.16107823688844275,-4.708542567207694,696],["TAF9P2_ENSG00000229302.1",-0.16107823688844275,-4.708542567207694,696]]}}}
{"ccle_rrbs_tss_clusters":{"corr":{"top":[],"bottom":[]},"para":{"top":[],"bottom":[]}}}
{"ccle_rrbs_cgi_clusters":{"corr":{"top":[["19_49138156_49143131-3",1.0,-323.0051853474518,702]],"bottom":[["8_80675581_80679996-2",-0.2517002966780112,-4.528477373184887,269],["1_212729668_212734457-1",-0.1571579542878627,-4.53448959557625,701]]},"para":{"top":[["19_49138156_49143131-3",1.0,-323.0051853474518,702],["1_1653395_1658231-2",0.2902537618340883,-8.615655075646135,407]],"bottom":[]}}}
