{"depmap_hotspot":{"corr":{"top":[],"bottom":[]},"para":{"top":[["HDDC2",0.1050094436448134,-2.87869856658806,9.0,812.0],["IDH3G",0.16668411900980273,-6.041437135210383,24.0,797.0],["LPAR4",0.11926854407779998,-3.4959840528847277,15.0,806.0],["NKX1-1",0.12853603230006141,-3.9335147736108755,15.0,806.0],["PDK4",0.14960158254466346,-5.0362125014732255,21.0,800.0],["RBM3",0.12542843462055045,-3.7833792485193056,10.0,811.0],["RPS17",0.1336163930660672,-4.185752206440823,19.0,802.0],["SDHAF2",0.143590837221991,-4.705971040225143,12.0,809.0],["STX1B",0.1361697231326773,-4.315588621430952,13.0,808.0],["TSC22D3",0.10858438447259079,-3.0270932242710304,10.0,811.0]],"bottom":[["DDT",-0.11457263582503859,-3.2853329338021005,17.0,804.0],["ICT1",-0.10209381328279946,-2.7609782927782884,12.0,809.0],["SSBP1",-0.09380191487125218,-2.4410426506808176,10.0,811.0],["ZNF93",-0.12700792958920382,-3.859693421468024,35.0,786.0]]}}}
{"depmap_damaging":{"corr":{"top":[],"bottom":[]},"para":{"top":[["ATG2A",0.1108571699267165,-3.120894101966711,15.0,805.0],["DZANK1",0.12537726153648843,-3.7772890345077226,10.0,810.0],["FMR1",0.10986406688624403,-3.0782595485360855,8.0,812.0],["ITPR1",0.1016594629063694,-2.7411935630882818,12.0,808.0],["KDM6B",0.1320662393608799,-4.103553057097522,10.0,810.0],["SLC9A2",0.11435034015848779,-3.2721794789189618,9.0,811.0]],"bottom":[]}}}
{"prism_primary_logfold":{"corr":{"top":[],"bottom":[]},"para":{"top":[["terodiline_BRD-A33479817-003-03-7::2.490825408::MTS004",0.1918696658524641,-4.464021313404875,460]],"bottom":[]}}}
{"prism_secondary_logfold":{"corr":{"top":[],"bottom":[]},"para":{"top":[],"bottom":[["PF-05212384_BRD-K07955840-001-02-3::0.15625::HTS002",-0.26301245197327094,-7.252109013531216,414]]}}}
{"ccle_proteomics":{"corr":{"top":[["AGGF1_Q8N302",0.296204121559502,-6.825024400332487,303]],"bottom":[["NPC1L1_Q9UHC9",-0.3650155309444334,-5.617726525886994,158]]},"para":{"top":[["EAPP_Q56P03",0.3012109083736339,-7.408847170509613,320]],"bottom":[["SIRPA_P78324-2",-0.38870407844174903,-12.257620196564847,320]]}}}
{"depmap_copy_number":{"corr":{"top":[["SNORD53B_109617012",0.19326818288063363,-7.615342082394694,820],["SNORD53_26796",0.19326818288063363,-7.615342082394694,820],["SNORD92_692209",0.19326818288063363,-7.615342082394694,820]],"bottom":[]},"para":{"top":[],"bottom":[]}}}
{"depmap_gene_tpm":{"corr":{"top":[["CCDC84_338657",0.28059551042620406,-15.52092889097069,817]],"bottom":[["SIRPB1_10326",-0.3033509198369895,-18.12507498261811,817]]},"para":{"top":[["GATA3_2625",0.2639162476663616,-13.759017073538518,817],["CCDC84_338657",0.2800773698356571,-15.464351975622554,817],["FAM120AOS_158293",0.25930601216322957,-13.293355554943584,817]],"bottom":[]}}}
{"avana":{"corr":{"top":[],"bottom":[["TXNRD2_10587",-0.19592536886231376,-4.652658381851176,462],["VPREB3_29802",-0.1855498893475528,-4.220971445723194,462]]},"para":{"top":[],"bottom":[["TXNRD2_10587",-0.1897848209563398,-4.394391100569873,462],["VPREB3_29802",-0.18411734832255566,-4.1631720889735595,462]]}}}
{"drive":{"corr":{"top":[["ZNF90_7643",0.2506681640125154,-5.32181763371539,325]],"bottom":[]},"para":{"top":[],"bottom":[]}}}
{"achilles":{"corr":{"top":[["DRAM2_128338",0.3075307380295376,-5.34091302609866,214]],"bottom":[]},"para":{"top":[["DRAM2_128338",0.32008348742680603,-5.759222812474182,214],["ASB7_140460",0.27159997231848043,-4.24584719786924,214],["ELP4_26610",0.28383300791292015,-7.539840337201725,369],["TRAPPC4_51399",0.2751006549733163,-4.346075267438479,214]],"bottom":[["RPP25_54913",-0.22830714925307818,-5.024574613748398,369]]}}}
{"ccle_rrbs_tss1kb":{"corr":{"top":[["SIRPA_20_1873812_1874812",0.6063388949321673,-81.24887886512477,805]],"bottom":[]},"para":{"top":[["SIRPA_20_1873812_1874812",0.6139683198623911,-83.84062799218157,805]],"bottom":[]}}}
{"ccle_gene_tpm":{"corr":{"top":[["CCDC84_ENSG00000186166.4",0.2781301178385415,-15.199565519641713,814],["RP11-110I1.11_ENSG00000254428.1",0.26047793715229867,-13.36431536559745,814]],"bottom":[["SIRPB1_ENSG00000101307.11",-0.3040545452530013,-18.145402107942576,814],["SIRPAP1_ENSG00000225774.1",-0.3475405141537185,-23.795053203828367,814]]},"para":{"top":[["GATA3_ENSG00000107485.11",0.2695404043444441,-14.289611274255277,814],["CCDC84_ENSG00000186166.4",0.27602672336159434,-14.973751516576748,814]],"bottom":[]}}}
{"ccle_rrbs_tss_clusters":{"corr":{"top":[["SIRPA_1",0.5905009342255618,-76.92772458124001,814],["SIRPA_4",0.9475627773332358,-323.0051853474518,821]],"bottom":[]},"para":{"top":[["SIRPA_4",0.9483306610723352,-323.0051853474518,821],["SIRPA_1",0.6017514205888006,-80.60508627953703,814]],"bottom":[]}}}
{"ccle_rrbs_cgi_clusters":{"corr":{"top":[["20_1872933_1877718-1",0.5905009342255618,-76.92772458124001,814],["20_1872933_1877718-3",0.9475627773332358,-323.0051853474518,821]],"bottom":[]},"para":{"top":[["20_1872933_1877718-1",0.6017514205888006,-80.60508627953703,814],["20_1872933_1877718-3",0.9483306610723352,-323.0051853474518,821]],"bottom":[]}}}
