{"depmap_hotspot":{"corr":{"top":[],"bottom":[["GPR128",-0.1221854457884014,-3.3396786505393643,43.0,776.0],["HIST1H4K",-0.11747113322669513,-3.1213559966490596,9.0,810.0],["HRCT1",-0.0996672303698527,-2.36622748368282,10.0,809.0],["HSD17B12",-0.13254308304666532,-3.846808371113614,15.0,804.0],["LEMD1",-0.15086664868599745,-4.837888984225232,9.0,810.0],["LOH12CR1",-0.1418643735058801,-4.335841567341474,11.0,808.0],["PTPN11",-0.14278508978835644,-4.385840579208972,33.0,786.0]]},"para":{"top":[["AARD",0.10346119616747268,-2.8106078120599682,8.0,811.0],["OR4K14",0.11203316436391723,-3.168667517719345,24.0,795.0]],"bottom":[["BUD31",-0.09129083696382943,-2.3444708244921535,8.0,811.0],["C9orf66",-0.096019020319124,-2.519908258647886,10.0,809.0],["CD59",-0.07925190712523632,-1.9307574109061258,8.0,811.0],["FAM159A",-0.10067927870118619,-2.6998330337318173,9.0,810.0],["RCAN2",-0.10149473476084037,-2.732360122099066,19.0,800.0],["RP11-542P2.1",-0.10159595531827133,-2.736203296289875,12.0,807.0],["ZFAND2B",-0.08737424188533516,-2.204741288712739,8.0,811.0]]}}}
{"depmap_damaging":{"corr":{"top":[],"bottom":[["AIM1",-0.13092417582756988,-3.761046961213324,9.0,809.0],["ATP2C1",-0.1233900350031429,-3.3931463799558856,8.0,810.0],["CGN",-0.10404743424226866,-2.539338254348763,10.0,808.0],["SEMA6C",-0.1347888913960262,-3.9575678703559634,8.0,810.0],["TNPO3",-0.10989050830584424,-2.7836397479613724,8.0,810.0],["UGT2B4",-0.12679683623471463,-3.557023354304217,9.0,809.0],["UMOD",-0.11286928570043112,-2.912696644694121,9.0,809.0]]},"para":{"top":[],"bottom":[["ATP2C1",-0.09258866966227643,-2.3897917991312796,8.0,810.0],["GNPTAB",-0.1196922442545157,-3.5052233890694824,12.0,806.0],["PLD2",-0.09603836127938627,-2.518312650715648,8.0,810.0],["PRR14",-0.10930512839269464,-3.049045268433538,10.0,808.0],["TNPO3",-0.09295733899540266,-2.4033417808832502,8.0,810.0],["UGT3A2",-0.11373864816353098,-3.239327360099141,10.0,808.0]]}}}
{"ccle_proteomics":{"corr":{"top":[["GPS1_Q13098-7",0.2999662723156615,-7.286991348504633,317],["ROGDI_Q9GZN7",0.32487236000249814,-5.59624043943863,201]],"bottom":[]},"para":{"top":[],"bottom":[]}}}
{"achilles":{"corr":{"top":[["DCAF6_55827",0.2549183421975593,-3.7557194602847446,212]],"bottom":[]},"para":{"top":[["WARS_7453",0.2637245341284116,-6.512619354480066,366]],"bottom":[]}}}
{"ccle_rrbs_tss1kb":{"corr":{"top":[["SLC6A6_3_14443075_14444075",0.46184260273633454,-43.25877695372749,809]],"bottom":[]},"para":{"top":[],"bottom":[]}}}
{"ccle_rrbs_tss_clusters":{"corr":{"top":[["PLBD2_1",0.4106806425332806,-30.34595712113586,730],["TFAP2E_3",0.4134056072026877,-34.25934541474086,815]],"bottom":[]},"para":{"top":[],"bottom":[]}}}
{"ccle_rrbs_cgi_clusters":{"corr":{"top":[["12_113794217_113798847-1",0.4106806425332806,-30.34595712113586,730],["3_14441629_14446577-1",0.9999999999999999,-323.0051853474518,819],["1_36039489_36042051-2",0.40348683057803436,-32.260076677591115,808],["12_49724591_49729114-1",0.4087917283303761,-33.528561718382626,817],["19_18258252_18262525-3",0.5219665162424048,-18.076898709643935,249],["11_732674_735598-3",0.4155576552526784,-17.155570661370493,394]],"bottom":[]},"para":{"top":[["3_14441629_14446577-1",1.0,-323.0051853474518,819]],"bottom":[]}}}
