{"depmap_hotspot":{"corr":{"top":[],"bottom":[]},"para":{"top":[["ATP6V1F",0.10458861126479342,-2.8849124447201446,9.0,821.0],["AURKA",0.12271226040956461,-3.6867463089918098,16.0,814.0],["BHMT",0.15270075253422752,-5.258882189917515,20.0,810.0],["CD300A",0.12794267001593554,-3.938737698382392,15.0,815.0],["KRTAP4-6",0.11575897606205486,-3.365829622595002,9.0,821.0],["NR1I3",0.10862441498623762,-3.0539953058841274,13.0,817.0],["PGA5",0.11631551060883578,-3.3909933356868223,11.0,819.0],["RP11-62N21.1",0.10111906178472811,-2.7441513684299443,11.0,819.0],["SHFM1",0.1298621612079677,-4.033222495213225,8.0,822.0],["STARD5",0.12323225232539656,-3.7111587285870953,10.0,820.0],["TMEM26",0.159826574345279,-5.677971572986531,21.0,809.0]],"bottom":[["OR2B6",-0.09425430275645581,-2.4774552253916178,18.0,812.0],["SCARB2",-0.11147493433178353,-3.1766308430357415,14.0,816.0]]}}}
{"depmap_damaging":{"corr":{"top":[],"bottom":[]},"para":{"top":[["HNRNPUL1",0.11234457388530386,-3.2114035928330202,9.0,820.0],["MLK4",0.12212975203196409,-3.655433442404536,8.0,821.0],["SMC5",0.1109822317160581,-3.1521362445371532,9.0,820.0]],"bottom":[["CCR5",-0.0833434136802092,-2.083400800078677,10.0,819.0],["FREM2",-0.10330407515882546,-2.829949000871608,14.0,815.0],["IFI27",-0.11161474772320795,-3.1795755645323758,9.0,820.0]]}}}
{"ccle_proteomics":{"corr":{"top":[["UNNAMED_C9J7I0",0.29505316855789027,-2.6268777234622758,104]],"bottom":[]},"para":{"top":[["SOX10_P56693",0.4104570280755187,-7.855747748902794,177],["SKAP2_O75563",0.3334841713841813,-3.731392866124184,121]],"bottom":[]}}}
{"depmap_gene_tpm":{"corr":{"top":[],"bottom":[["SMAD6_4091",-0.4466863975714819,-41.02979551876832,826]]},"para":{"top":[["COX17_10063",0.25728702382963864,-13.228454703777208,826]],"bottom":[["SMAD6_4091",-0.5295736955140128,-60.17187470052035,826],["SLC1A7_6512",-0.2804156345572238,-15.663647081119024,826]]}}}
{"avana":{"corr":{"top":[["GZF1_64412",0.23243342120028526,-6.408819445791969,466]],"bottom":[["DMC1_11144",-0.19893154400914578,-4.81884855280666,466]]},"para":{"top":[["MEFV_4210",0.20575463045221554,-5.122334618525692,466]],"bottom":[]}}}
{"drive":{"corr":{"top":[],"bottom":[["CYP3A7-CYP3A51P_100861540",-0.2549774825736017,-5.476677033841107,324]]},"para":{"top":[["TRIM66_9866",0.224854474077111,-4.306688469118825,320]],"bottom":[]}}}
{"achilles":{"corr":{"top":[["ADAP1_11033",0.2528320100722316,-3.731443637502455,214]],"bottom":[["USP9X_8239",-0.22551155633147862,-4.960582640749405,373]]},"para":{"top":[["AFDN_4301",0.24696890646168287,-3.578529846183438,214]],"bottom":[]}}}
{"ccle_rrbs_tss1kb":{"corr":{"top":[],"bottom":[["ZNF558_19_8932739_8933739",-0.2098321302508345,-8.805218482730586,812]]},"para":{"top":[],"bottom":[["MAGEB2_23_30232674_30233674",-0.15224532416912812,-3.822030383574892,615]]}}}
{"ccle_gene_tpm":{"corr":{"top":[],"bottom":[["SMAD6_ENSG00000137834.10",-0.4514188580685859,-41.837674016873756,823]]},"para":{"top":[["COX17_ENSG00000138495.2",0.25477612176837905,-12.933658501797314,823]],"bottom":[["SMAD6_ENSG00000137834.10",-0.5349535743015791,-61.38565288770194,823],["SLC1A7_ENSG00000162383.7",-0.27927676916417193,-15.484517036723412,823]]}}}
{"ccle_rrbs_tss_clusters":{"corr":{"top":[],"bottom":[["ZNF558_2",-0.2402126397880826,-11.395138582522593,812]]},"para":{"top":[["CDR2L_2",0.37999529185573644,-25.662812790805678,727]],"bottom":[["LOC102724264_1",-0.20695463397981642,-6.324353185753231,582],["SLC2A10_3",-0.19076194435981286,-6.525929762812646,711],["MIR4507_3",-0.22761047567305956,-5.599815900539832,419]]}}}
{"ccle_rrbs_cgi_clusters":{"corr":{"top":[["15_66995057_66998571-3",0.6510813245891386,-98.6073008121696,814],["15_66995057_66998571-2",1.0,-323.0051853474518,830]],"bottom":[["20_61198972_61203272-3",-0.24014733246502082,-11.573334329582165,826],["19_8667958_8672209-1",-0.22716247217899516,-10.366405109964088,823]]},"para":{"top":[["15_66995057_66998571-2",1.0,-323.0051853474518,830],["15_66995057_66998571-3",0.724386449406167,-132.57774593546947,814]],"bottom":[["20_45336071_45340663-3",-0.19076194435981286,-6.525929762812646,711],["19_8659080_8663287-3",-0.19992516915156067,-7.163779603992387,716],["19_8667958_8672209-2",-0.198418766026511,-7.9090220345650195,810]]}}}
