{"depmap_hotspot":{"corr":{"top":[["ANKRD35",0.1649905770872673,-5.778921096678768,60.0,774.0]],"bottom":[]},"para":{"top":[["ACER3",0.13070933607743246,-4.091522709387892,13.0,821.0],["AQP11",0.11714384398387327,-3.4413640317901417,12.0,822.0],["C17orf50",0.13485111510315353,-4.30249046370021,11.0,823.0],["DNASE1",0.12581447514641908,-3.849598155907319,11.0,823.0],["MAGEB5",0.13147324791547346,-4.130006764590401,13.0,821.0],["MPI",0.12436183898707791,-3.779556058290691,15.0,819.0],["PLEKHG7",0.11494469259471157,-3.3417947875228577,10.0,824.0],["RGS2",0.12884917766538384,-3.9987972333147286,18.0,816.0],["TMEM126B",0.160431831461106,-5.73752816601024,15.0,819.0],["TMEM86A",0.10698106137477606,-2.995357275812864,12.0,822.0],["TRNP1",0.11841355874909093,-3.4994028502937518,9.0,825.0],["USF1",0.15154670608045204,-5.2136527389936775,24.0,810.0],["ZNF605",0.10798944049503155,-3.037966099276595,10.0,824.0]],"bottom":[["SFTA3",-0.08998232961819053,-2.32683511909733,8.0,826.0]]}}}
{"depmap_damaging":{"corr":{"top":[],"bottom":[["HMGN5",-0.0910526279759747,-2.067922559190632,8.0,825.0]]},"para":{"top":[["BFSP1",0.11259159495752262,-3.234072946632404,8.0,825.0],["C10orf68",0.12124264271738683,-3.627529257484862,8.0,825.0],["MAD1L1",0.13362650644387383,-4.23530753917403,10.0,823.0],["SUSD2",0.10163701377047564,-2.772166975522852,8.0,825.0],["SYNCRIP",0.13093964769698413,-4.099183693244362,14.0,819.0],["UGT3A2",0.1016753314897126,-2.773820217413879,10.0,823.0],["USP35",0.11878041394361166,-3.5131705572887473,12.0,821.0],["ZNF595",0.11519895330585612,-3.350047965035316,9.0,824.0]],"bottom":[]}}}
{"ccle_rrbs_tss1kb":{"corr":{"top":[["SOX9-AS1_17_70112157_70113157",0.5904336288371416,-77.65291752288347,822]],"bottom":[]},"para":{"top":[["SOX9-AS1_17_70112157_70113157",0.5490175754990749,-65.16735691595954,822]],"bottom":[]}}}
{"ccle_rrbs_tss_clusters":{"corr":{"top":[["SOX9-AS1_1",0.6357583237709794,-94.69164637641151,832],["SOX9-AS1_3",0.7934965718538058,-177.88564835599234,820]],"bottom":[]},"para":{"top":[["SOX9-AS1_1",0.6157705098273991,-87.26529485266494,832],["SOX9-AS1_3",0.8421918405626891,-220.92329479548917,820]],"bottom":[]}}}
{"ccle_rrbs_cgi_clusters":{"corr":{"top":[["17_70110824_70113548-3",0.8279838639113613,-209.24177658321204,829],["17_70109979_70114308-1",0.6357583237709794,-94.69164637641151,832],["17_70109979_70114308-3",0.7934965718538058,-177.88564835599234,820],["17_70110824_70113548-2",0.5290803728054663,-60.47108530175792,832],["17_70113548_70116271-1",0.9776137916608078,-323.0051853474518,833],["17_70109979_70114308-2",1.0,-323.0051853474518,834]],"bottom":[]},"para":{"top":[["17_70110824_70113548-3",0.7780893207861181,-168.4478247050574,829],["17_70109979_70114308-1",0.6157705098273991,-87.26529485266494,832],["17_70109979_70114308-3",0.8421918405626891,-220.92329479548917,820],["17_70110824_70113548-2",0.5038596530543497,-54.04464085430841,832],["17_70113548_70116271-1",0.9510288924974779,-323.0051853474518,833],["17_70109979_70114308-2",1.0,-323.0051853474518,834]],"bottom":[]}}}
