{"depmap_hotspot":{"corr":{"top":[["HIST1H2BH",0.16647361323409743,-5.905566140221774,13.0,826.0]],"bottom":[]},"para":{"top":[["BSND",0.11980659219807512,-3.5807282041969954,12.0,827.0],["GOLGA8K",0.10616953050801102,-2.9745437727833752,11.0,828.0]],"bottom":[["B9D1",-0.08104359435527131,-2.022081941941871,9.0,830.0],["MARVELD2",-0.12072967730123783,-3.624326146826699,23.0,816.0],["OR5M9",-0.11414601281155297,-3.3217313419610677,27.0,812.0],["RPUSD4",-0.09521587067316659,-2.5335330647725396,17.0,822.0],["SP9",-0.10799384167005202,-3.0522168253621094,21.0,818.0]]}}}
{"depmap_damaging":{"corr":{"top":[["SLC38A4",0.14791228468254583,-4.765705366269877,10.0,828.0]],"bottom":[]},"para":{"top":[],"bottom":[["DPP7",-0.08379278187546046,-2.11441773872541,12.0,826.0],["KIF9",-0.10545568695358215,-2.941825211442589,9.0,829.0],["LRRN4",-0.10408304834852956,-2.8846552646934325,8.0,830.0],["PLK4",-0.10198949808375907,-2.798778960027767,8.0,830.0]]}}}
{"ccle_rrbs_enhancer_clusters":{"corr":{"top":[],"bottom":[["19-30563950-30566483-1_enh",-0.1884420183885075,-6.070971854478775,673]]},"para":{"top":[],"bottom":[["19-30563950-30566483-1_enh",-0.1556125151973125,-4.298295432914174,673]]}}}
{"prism_secondary_logfold":{"corr":{"top":[],"bottom":[["irinotecan_BRD-K08547377-394-03-5::10::HTS002",-0.23120968867886113,-4.967033797417635,355],["ribitol_BRD-K49313711-001-05-4::2.5::HTS002",-0.2218234916809831,-5.3414710903353555,419],["rubitecan_BRD-K79821389-001-03-5::0.156250003::MTS006",-0.22246385189671722,-5.323703496201871,415],["raltitrexed_BRD-K89839824-001-05-3::2.5::HTS002",-0.2388875823967693,-6.070068526402366,415],["exatecan-mesylate_BRD-K92150287-066-01-2::0.00976562::HTS002",-0.23242324247438953,-5.568818384498898,399],["exatecan-mesylate_BRD-K92150287-066-01-2::0.0390625::HTS002",-0.2476603633211178,-6.263592932032617,399]]},"para":{"top":[],"bottom":[]}}}
{"ccle_proteomics":{"corr":{"top":[],"bottom":[]},"para":{"top":[],"bottom":[["CLK4_Q9HAZ1",-0.2780453157030648,-3.074199977229582,141]]}}}
{"avana":{"corr":{"top":[],"bottom":[]},"para":{"top":[],"bottom":[["SLC35E1_79939",-0.1931991485245279,-4.632534621954045,473]]}}}
{"drive":{"corr":{"top":[],"bottom":[]},"para":{"top":[],"bottom":[["FOXD4L4_349334",-0.20563200241664112,-3.782510932136113,331]]}}}
{"ccle_rrbs_tss1kb":{"corr":{"top":[["KDM4A-AS1_1_44173012_44174012",0.9964538835095322,-323.0051853474518,828]],"bottom":[]},"para":{"top":[["KDM4A-AS1_1_44173012_44174012",0.9879503576488456,-323.0051853474518,828]],"bottom":[]}}}
{"ccle_rrbs_tss_clusters":{"corr":{"top":[],"bottom":[["GTF2A1L_3",-0.172634087064518,-3.266196556061111,398],["PASD1_1",-0.19125825696935372,-4.78732532206007,501]]},"para":{"top":[],"bottom":[]}}}
{"ccle_rrbs_cgi_clusters":{"corr":{"top":[["1_44170668_44173216-3",0.5728813702872555,-72.2306417280636,823],["1_44173216_44175763-1",0.8819536991617403,-273.9465980642685,836]],"bottom":[]},"para":{"top":[["1_44170668_44173216-3",0.5800122125293126,-74.43107370386426,823],["1_44173216_44175763-1",0.8756612798109512,-265.1450110358437,836]],"bottom":[["7_55409965_55414772-3",-0.14049191433589323,-2.383477603981088,415]]}}}
