{"depmap_hotspot":{"corr":{"top":[],"bottom":[]},"para":{"top":[["CH17-132F21.1",0.11242241817661884,-3.2505097848503763,10.0,831.0],["DNAJC30",0.10085114419174132,-2.7601925969903522,12.0,829.0],["RNF183",0.12020317357304042,-3.6061272407607934,14.0,827.0],["SLC35B2",0.13621539474936448,-4.403435071090234,20.0,821.0]],"bottom":[["FAM177B",-0.09239440563121434,-2.430331235644167,9.0,832.0],["KRTAP5-8",-0.08815124882765024,-2.2738759015099346,8.0,833.0],["MXRA7",-0.09017152081251487,-2.3478166905368827,14.0,827.0],["OR2T8",-0.13572568085843395,-4.3778394239477825,26.0,815.0],["SLC51B",-0.09958963410822663,-2.709397035795266,10.0,831.0]]}}}
{"depmap_damaging":{"corr":{"top":[],"bottom":[]},"para":{"top":[],"bottom":[["DUSP18",-0.0772171386851231,-1.897029904198005,11.0,829.0],["ELAVL2",-0.14461773164122843,-4.852775320754394,37.0,803.0],["HECW1",-0.11744519499675184,-3.474419879447476,11.0,829.0]]}}}
{"ccle_rrbs_enhancer_clusters":{"corr":{"top":[],"bottom":[]},"para":{"top":[],"bottom":[["14-95834414-95837948-0_enh",-0.28822998907366654,-16.6929945494782,834]]}}}
{"ccle_proteomics":{"corr":{"top":[],"bottom":[]},"para":{"top":[],"bottom":[["NRSN2_Q9GZP1",-0.42008857235062363,-6.2743999013447995,132],["STRN3_H0YJZ4",-0.37135838520316045,-4.085374314422186,107]]}}}
{"depmap_gene_tpm":{"corr":{"top":[],"bottom":[["SYNM_23336",-0.5362370293610861,-62.76474667029956,837]]},"para":{"top":[],"bottom":[["SYNM_23336",-0.5504044852541019,-66.73693429113385,837]]}}}
{"avana":{"corr":{"top":[["CCDC137_339230",0.21121089369519402,-5.444795447726672,473]],"bottom":[]},"para":{"top":[],"bottom":[]}}}
{"drive":{"corr":{"top":[["SFMBT2_57713",0.2735660891408934,-6.226066359612181,323]],"bottom":[]},"para":{"top":[],"bottom":[["FERMT1_55612",-0.3243501130523543,-8.572082093509337,321]]}}}
{"ccle_rrbs_tss1kb":{"corr":{"top":[["SYNM_15_99644285_99645285",0.9827917634921822,-323.0051853474518,831]],"bottom":[]},"para":{"top":[["SYNM_15_99644285_99645285",0.7634248633176968,-158.81545610489715,831]],"bottom":[["FGR_1_27952751_27953751",-0.30490792590923443,-17.94725045566867,800]]}}}
{"ccle_gene_tpm":{"corr":{"top":[],"bottom":[["SYNM_ENSG00000182253.10",-0.5357131742013195,-62.40033694261548,834]]},"para":{"top":[],"bottom":[["SYNM_ENSG00000182253.10",-0.5496474810190647,-66.28475852869012,834],["RP11-6O2.4_ENSG00000261054.1",-0.45458195716742184,-43.03927918906743,834]]}}}
{"ccle_rrbs_tss_clusters":{"corr":{"top":[],"bottom":[]},"para":{"top":[["STOX2_6",0.5885725097223092,-78.81234266701247,841]],"bottom":[]}}}
{"ccle_rrbs_cgi_clusters":{"corr":{"top":[["15_99643030_99645737-3",0.9960127928280909,-323.0051853474518,841],["15_99645737_99648444-1",0.801467836270439,-138.48518048306673,616]],"bottom":[]},"para":{"top":[["15_99643030_99645737-3",0.9420400591345965,-323.0051853474518,841],["15_99645737_99648444-1",0.7731802972783491,-122.81993689048788,616]],"bottom":[]}}}
