{"depmap_hotspot":{"corr":{"top":[["DACT3",0.15917390459898512,-5.2575965331204655,33.0,774.0]],"bottom":[["C14orf2",-0.10128720058741675,-2.4008727664282667,9.0,798.0]]},"para":{"top":[["AC022498.1",0.09748312835532028,-2.5481948948864166,9.0,798.0],["C19orf60",0.14846010729118025,-4.902020863765148,15.0,792.0],["CAMK2A",0.13904225201584136,-4.402503354887655,18.0,789.0],["COMMD9",0.11635164761349474,-3.3195733424892375,9.0,798.0],["INHBC",0.14246412542065306,-4.580576383966367,17.0,790.0],["MIP",0.14215857733585754,-4.564453021146196,15.0,792.0],["OMD",0.14516587451394836,-4.723984843840202,18.0,789.0],["RHOH",0.15462808621598348,-5.245525719939685,23.0,784.0],["THOC6",0.12805890406082304,-3.857101428785341,15.0,792.0]],"bottom":[["C14orf2",-0.10890554739617482,-3.001304984111952,9.0,798.0]]}}}
{"depmap_damaging":{"corr":{"top":[],"bottom":[]},"para":{"top":[["ANKRD28",0.1307709620836884,-3.983725076573329,8.0,798.0],["BLM",0.1041971836923507,-2.8067528315633345,8.0,798.0],["C9orf84",0.09844132481001637,-2.5821930704134393,8.0,798.0],["COL4A2",0.1464574317621491,-4.788428953091404,16.0,790.0],["CRAT",0.13340285393296597,-4.1131503780636365,11.0,795.0],["FAM184A",0.10468132135535074,-2.82613023798714,8.0,798.0],["FBXL19",0.104224080229184,-2.8078273587702283,8.0,798.0],["GPATCH8",0.13357215237542122,-4.121589987560877,12.0,794.0],["MAP7D1",0.14484443554934837,-4.701785534794986,12.0,794.0],["PCOLCE",0.12133027765518681,-3.5390212928995504,8.0,798.0],["RGL2",0.1462095742260243,-4.774663642269534,8.0,798.0]],"bottom":[["ULK4",-0.09668600988801741,-2.5159454551527802,10.0,796.0]]}}}
{"prism_secondary_logfold":{"corr":{"top":[["demecarium_BRD-K51471001-303-04-7::0.0390625::HTS002",0.21064949672870562,-4.6342553171594485,397]],"bottom":[]},"para":{"top":[],"bottom":[]}}}
{"ccle_proteomics":{"corr":{"top":[["PHLPP1_O60346",0.35679683630168585,-5.315854451119856,156]],"bottom":[["SLC25A21_Q9BQT8",-0.3871019235465023,-6.661980694669793,168]]},"para":{"top":[],"bottom":[["SLC25A21_Q9BQT8",-0.38698735054562683,-6.658100721827969,168]]}}}
{"avana":{"corr":{"top":[],"bottom":[]},"para":{"top":[["LEPROTL1_23484",0.2037009461238562,-4.866033344553285,449]],"bottom":[]}}}
{"drive":{"corr":{"top":[],"bottom":[]},"para":{"top":[["GPR176_11245",0.30172988350830154,-7.133906535136748,306]],"bottom":[["NOL11_25926",-0.27621403138866524,-6.071528537268729,308]]}}}
{"achilles":{"corr":{"top":[],"bottom":[["IPO7_10527",-0.28798130076344086,-4.687232760891456,212],["BMS1_9790",-0.31419649198066,-5.513622465750029,212]]},"para":{"top":[["SPAG5_10615",0.2711987161786218,-4.1994058361455275,212]],"bottom":[["IPO7_10527",-0.29175581843444903,-4.801311994821184,212],["SCHIP1_29970",-0.27766969367548705,-7.141559351389599,364]]}}}
{"ccle_rrbs_tss1kb":{"corr":{"top":[["FGF11_17_7341345_7342345",0.4737398241230679,-44.9903853916809,795],["FGF11_17_7340591_7341591",0.832333474461706,-205.20719375797114,797]],"bottom":[]},"para":{"top":[["FGF11_17_7341345_7342345",0.4747264565213106,-45.19917477362879,795],["FGF11_17_7340591_7341591",0.8738902360383914,-250.5265931173899,797]],"bottom":[]}}}
{"ccle_rrbs_tss_clusters":{"corr":{"top":[["FGF11_3",0.533467349860179,-59.309585367104965,800],["EPOP_1",0.5232576994318734,-56.428601094713294,796],["TMEM102_2",0.6233117573108183,-87.32708129681691,807],["FGF11_4",0.628982179326853,-89.37283029374613,807],["FGF11_2",0.7838841507250031,-168.05924254052152,807],["FGF11_5",0.7681417584196872,-157.30921063383718,807],["TMEM102_1",0.4950001985438214,-50.31822508771086,806]],"bottom":[]},"para":{"top":[["EPOP_1",0.5178503978302198,-55.092707385091785,796],["TMEM102_2",0.6114231688124957,-83.17201279667,807],["FGF11_4",0.655093189237481,-99.36710947826975,807],["FGF11_1",0.5846489023477495,-74.43378035210536,807],["FGF11_2",0.7932614574263217,-174.90213707801112,807],["FGF11_5",0.7870308577214656,-170.31679927325754,807],["TMEM102_1",0.5332217432013018,-59.683410638353934,806]],"bottom":[]}}}
{"ccle_rrbs_cgi_clusters":{"corr":{"top":[["17_36827692_36830596-2",0.5239164354464554,-55.47376176184986,780],["17_36827692_36830596-1",0.5050908372078303,-51.90558206973182,794],["17_7337808_7340352-3",0.6435166183173243,-94.81552162394667,807],["17_7340352_7342896-2",0.7681417584196872,-157.30921063383718,807],["17_7340352_7342896-1",0.5259704799840837,-57.67268536339583,804],["17_7340352_7342896-3",0.533467349860179,-59.309585367104965,800]],"bottom":[]},"para":{"top":[["17_36827692_36830596-2",0.5143357447870822,-53.165286146409315,780],["17_36827692_36830596-1",0.4974011716558753,-50.128297042212125,794],["17_7337808_7340352-3",0.6286107542517131,-89.23752907081733,807],["17_7340352_7342896-2",0.7870308577214656,-170.31679927325754,807],["17_7340352_7342896-1",0.6197774733603457,-85.75660756739794,804]],"bottom":[]}}}
