{"depmap_hotspot":{"corr":{"top":[],"bottom":[["ALS2",-0.14844977290257008,-4.740853295845058,72.0,755.0],["ARSA",-0.13335018309662922,-3.9209882636588373,29.0,798.0],["EGFL7",-0.14068992750530915,-4.309152393986411,17.0,810.0],["LSM4",-0.10966454360472147,-2.799668707185202,8.0,819.0],["LYPD5",-0.14291377110090825,-4.430620804263054,10.0,817.0],["NHLH1",-0.17270607435395993,-6.234171620063645,8.0,819.0],["PFKFB4",-0.12565821788821901,-3.535013538955789,19.0,808.0],["PLD4",-0.1287339411806625,-3.686808187182202,16.0,811.0],["RETSAT",-0.13245809065984718,-3.875136077586506,36.0,791.0],["SDC1",-0.13150993161553864,-3.826715946777567,16.0,811.0],["SFTA3",-0.11854140656103562,-3.19667605094596,8.0,819.0],["SLC1A5",-0.13583429681801779,-4.050179255142082,26.0,801.0],["STK4",-0.13125014533662982,-3.813505685220303,29.0,798.0],["STOX2",-0.13069087505201488,-3.7851487432074213,43.0,784.0],["TYW5",-0.15011526404675585,-4.836387353667238,13.0,814.0],["VSX2",-0.12219211634691456,-3.3679906606490966,22.0,805.0],["YPEL4",-0.13086029511059247,-3.7937270744998313,11.0,816.0]]},"para":{"top":[["DEFB113",0.11744381809082093,-3.4323990452550075,10.0,817.0]],"bottom":[["C21orf62",-0.1021518276072237,-2.7780421907067026,8.0,819.0],["CCDC86",-0.1064104421540395,-2.952728839663509,18.0,809.0],["EGFL7",-0.10882069224115143,-3.0540645222985088,17.0,810.0],["GFER",-0.09981325209859584,-2.6850951810148134,13.0,814.0],["HAGH",-0.12950898474836103,-4.004584467925393,24.0,803.0],["LYPD5",-0.11841749364546249,-3.4767162636982984,10.0,817.0],["MANSC1",-0.11846093356034032,-3.478749580968842,11.0,816.0],["NHLH1",-0.13011025989708722,-4.033837287389387,8.0,819.0],["PFKFB4",-0.13316464452170482,-4.187502745693905,19.0,808.0],["PLA2G12A",-0.11176404402207807,-3.1802456079029033,10.0,817.0],["PRR25",-0.1128951140889768,-3.2294758228510565,8.0,819.0],["TMED9",-0.09553611811138431,-2.519278934974804,10.0,817.0],["TMEM45B",-0.11405052153127344,-3.2806603686925704,16.0,811.0],["UBL3",-0.1243147512565712,-3.75207247278705,12.0,815.0]]}}}
{"depmap_damaging":{"corr":{"top":[],"bottom":[["MLK4",-0.12915024546446338,-3.7037263402093603,8.0,818.0],["OTUD4",-0.15149552087685367,-4.911051673114492,9.0,817.0],["PLEKHG2",-0.11096867435339904,-2.8533500385540185,9.0,817.0],["WDR27",-0.11044858627314982,-2.830732834229494,8.0,818.0]]},"para":{"top":[],"bottom":[["AGT",-0.11968005801022293,-3.5315629309774295,17.0,809.0],["ATXN1L",-0.09832865937115814,-2.6244130913241133,9.0,817.0],["C2orf73",-0.09167392054335147,-2.3727547742106085,9.0,817.0],["CLMN",-0.08900615261414764,-2.2759064801538833,8.0,818.0],["INTU",-0.10336864539515883,-2.824753167703688,9.0,817.0],["KCNA4",-0.13397868055626289,-4.2246009948798235,14.0,812.0],["LACTB",-0.0953081616716179,-2.508323400010001,8.0,818.0],["MAP1B",-0.14478984170567785,-4.795188092541836,30.0,796.0],["MED23",-0.10027960115299511,-2.701124253500095,13.0,813.0],["MLK4",-0.11112801979942388,-3.149658310649016,8.0,818.0],["MYO1E",-0.1191416856379354,-3.506447873294465,8.0,818.0],["OTUD4",-0.1275654715006765,-3.9049158355848173,9.0,817.0],["PLEKHG2",-0.09360673071760414,-2.4443431434274694,9.0,817.0],["TMC5",-0.10162645782293762,-2.7547099799277084,13.0,813.0],["UBL3",-0.11338429464716013,-3.247931233724373,8.0,818.0],["USP33",-0.09927609330039547,-2.6613732046708494,8.0,818.0]]}}}
{"prism_secondary_logfold":{"corr":{"top":[["adarotene_BRD-K00152668-001-01-5::0.15625::HTS002",0.20173451649901697,-4.287902816280668,397]],"bottom":[["nomegestrol-acetate_BRD-K27351809-001-09-5::0.15625::HTS002",-0.2441630370974464,-5.014970824673947,321]]},"para":{"top":[],"bottom":[]}}}
{"ccle_proteomics":{"corr":{"top":[],"bottom":[]},"para":{"top":[["TMEM101_Q96IK0",0.31443955396880774,-4.002664295408276,148]],"bottom":[["APOA1_P02647",-0.35441550910216524,-5.278802232726949,157]]}}}
{"depmap_gene_tpm":{"corr":{"top":[],"bottom":[]},"para":{"top":[["TRAF1_7185",0.2354046328835063,-11.099366134031197,823]],"bottom":[]}}}
{"drive":{"corr":{"top":[["POLR3G_10622",0.2746715143971672,-6.149666005992547,316]],"bottom":[]},"para":{"top":[["POLR3G_10622",0.25941246141445307,-5.528311497489242,316]],"bottom":[]}}}
{"achilles":{"corr":{"top":[],"bottom":[]},"para":{"top":[],"bottom":[["SOSTDC1_25928",-0.24180082464829308,-3.488709637287286,217],["TYRP1_7306",-0.3263599647613722,-6.051805141804089,217]]}}}
{"ccle_rrbs_tss1kb":{"corr":{"top":[["ZBTB20-AS1_3_114069657_114070657",0.4193934047691195,-33.47025076620542,771]],"bottom":[]},"para":{"top":[],"bottom":[["POP4_19_30096169_30097169",-0.17552998800647598,-6.2110352223828755,797]]}}}
{"ccle_gene_tpm":{"corr":{"top":[],"bottom":[["None_ENSG00000263585.1",-0.2269840938613288,-10.315629766493768,820]]},"para":{"top":[["TRAF1_ENSG00000056558.6",0.23563526397735923,-11.08230118372336,820]],"bottom":[["None_ENSG00000263585.1",-0.22295809353366297,-9.969276036504658,820]]}}}
{"ccle_rrbs_tss_clusters":{"corr":{"top":[],"bottom":[]},"para":{"top":[["CCSER2_1",0.3995421887886742,-31.747030750006175,812]],"bottom":[]}}}
{"ccle_rrbs_cgi_clusters":{"corr":{"top":[],"bottom":[]},"para":{"top":[["10_86086395_86090791-1",0.3995421887886742,-31.747030750006175,812]],"bottom":[["1_167424652_167427216-1",-0.14905982031657533,-4.775727647917541,827]]}}}
