{"depmap_hotspot":{"corr":{"top":[["CD22",0.1474350139183468,-1.5794513495723033,12.0,215.0],["CNNM3",0.1513069254361738,-1.6460028989581739,11.0,216.0],["FMO4",0.14813476907933906,-1.5913739612100173,10.0,217.0],["GRINA",0.14755081353671903,-1.581421182658563,14.0,213.0],["SPATA31D1",0.19794985433300688,-2.562469914300011,32.0,195.0],["XPO4",0.17792772606813662,-2.1426418143357986,16.0,211.0],["ZNF804A",0.16131330931761576,-1.8246150571980126,22.0,205.0]],"bottom":[["AASS",-0.1422703395747066,-1.492879094517227,12.0,215.0],["AGAP8",-0.14575521877026296,-1.5510189876605167,9.0,218.0],["ARHGEF26",-0.1599520360054771,-1.7997514777478887,20.0,207.0],["CD1B",-0.19169977131822777,-2.4270496151304903,11.0,216.0],["CD1C",-0.1815224883196715,-2.2150389313018946,8.0,219.0],["CDYL2",-0.16045402459459354,-1.8088994469831894,12.0,215.0],["CHUK",-0.15174668291326437,-1.653651449442312,12.0,215.0],["CPXM2",-0.13796661481658826,-1.4226437203668152,17.0,210.0],["CSMD2",-0.16082798755401093,-1.8157301555307794,46.0,181.0],["DAB1",-0.14380125088594145,-1.5182797986938152,18.0,209.0],["DARC",-0.19413999482195787,-2.479445709908252,8.0,219.0],["DPYSL4",-0.14578788808420193,-1.5515694182686814,11.0,216.0],["EMR3",-0.15447941968380058,-1.7015936327249501,8.0,219.0],["FBXW2",-0.14988151477195044,-1.6213374171735413,8.0,219.0],["FSD2",-0.15354827132021387,-1.6851779406312797,10.0,217.0],["GFI1",-0.15121616943555605,-1.6444266982461524,9.0,218.0],["GNAI1",-0.17994931271736736,-2.1831970340052087,9.0,218.0],["GPR141",-0.15926032652603958,-1.7871859503808185,11.0,216.0],["HCN1",-0.1459696018579804,-1.5546328643366543,27.0,200.0],["IQSEC1",-0.1439575401705414,-1.5208852793706276,19.0,208.0],["KDM3A",-0.1454522463439493,-1.545919122582595,10.0,217.0],["KRT6A",-0.1726906578753,-2.0394684431169257,10.0,217.0],["LCK",-0.13729786271299083,-1.4118844407245756,12.0,215.0],["LEPRE1",-0.16938129754821107,-1.9756681466448223,8.0,219.0],["LIPE",-0.15404398480521603,-1.6939068268808581,19.0,208.0],["MED25",-0.13934382211326096,-1.4449317581558425,11.0,216.0],["MFSD10",-0.164207314216546,-1.8780696991095625,10.0,217.0],["MT-CO3",-0.13071011729594348,-1.308102842181538,61.0,166.0],["NPR1",-0.20813394564976292,-2.791769759796726,13.0,214.0],["NUDT18",-0.15411003197418044,-1.6950716040876277,8.0,219.0],["OR11G2",-0.15645272771150787,-1.736655998354463,8.0,219.0],["OR2AK2",-0.18865094347381559,-2.3624381353977975,11.0,216.0],["OR2G6",-0.13738597311989853,-1.4132996426162208,10.0,217.0],["OR4A15",-0.1909610797334996,-2.4113083222275664,14.0,213.0],["PLEKHG1",-0.13823321567835323,-1.426944512933936,10.0,217.0],["POM121C",-0.15434534279905232,-1.6992248215584844,23.0,204.0],["REG3G",-0.15197147155006413,-1.6575682202552247,8.0,219.0],["RNF17",-0.16599905599563744,-1.9115722645081181,21.0,206.0],["RYR2",-0.159355783695237,-1.7889172734375731,76.0,151.0],["SEC24D",-0.14210493141152744,-1.4901477845962245,8.0,219.0],["SLC27A5",-0.18875471084486492,-2.364621679454611,8.0,219.0],["SLCO1B1",-0.13941228942298095,-1.4460443966158683,8.0,219.0],["SLFN12L",-0.1347759062678381,-1.3716819635729753,9.0,218.0],["SSH2",-0.1570007902710028,-1.7464603228855784,13.0,214.0],["TAF4B",-0.14217735454127783,-1.4913433602037212,9.0,218.0],["TBC1D31",-0.2055718336698566,-2.7330660928046364,11.0,216.0],["TCHH",-0.16741996312000426,-1.9383632665135546,34.0,193.0],["TGM2",-0.14448190249881188,-1.5296435971412077,10.0,217.0],["TTC26",-0.15374128096170137,-1.6885738088280011,12.0,215.0],["TTLL13",-0.19393008128351719,-2.474914558369002,9.0,218.0],["TXK",-0.18416352172437836,-2.269052400738847,11.0,216.0],["ULK4",-0.16786454810118914,-1.9467863499237996,9.0,218.0],["WHSC1L1",-0.18453005083612165,-2.2766038938245896,19.0,208.0],["WRN",-0.15080584164000319,-1.637310110682682,23.0,204.0],["ZNF354B",-0.14511515305590464,-1.5402550496941747,11.0,216.0],["ZNF521",-0.16480825848460146,-1.8892715340536266,24.0,203.0],["ZNF558",-0.13182212250406705,-1.3253411516740106,10.0,217.0],["ZP4",-0.16742783194735328,-1.9385121809630916,18.0,209.0]]},"para":{"top":[["ACTRT2",0.17114506087757944,-2.293816752367332,8.0,219.0],["ADAMTS8",0.16451289906558378,-2.1715832368574297,14.0,213.0],["ARHGAP6",0.20632274047757254,-3.0132940907870047,11.0,216.0],["C16orf96",0.17709146907310883,-2.4074760351492617,8.0,219.0],["CCDC158",0.1750472129187139,-2.3685477580611956,11.0,216.0],["CCDC57",0.14346446593760478,-1.8064299673679924,9.0,218.0],["CCKBR",0.1466161270710208,-1.8583517563415293,8.0,219.0],["CD22",0.16461537748091976,-2.1732593143270407,12.0,215.0],["CNNM3",0.183025663826586,-2.5245993389788577,11.0,216.0],["DNAJB11",0.15334582644930178,-1.972960731820905,11.0,216.0],["DPY19L4",0.14531535027824877,-1.8367472047139919,8.0,219.0],["FAM184B",0.16629234913453092,-2.2036016765654614,9.0,218.0],["FMO4",0.20236926011410072,-2.9267193015867625,10.0,217.0],["FOXO1",0.19898256564233022,-2.8539896072449937,11.0,216.0],["GANAB",0.19792931973242225,-2.831994749738382,15.0,212.0],["GPR144",0.1876757824820538,-2.618053228399115,10.0,217.0],["GRXCR1",0.16408370114538837,-2.1629650967215968,8.0,219.0],["IPO11",0.17377066077345435,-2.3441115555083756,11.0,216.0],["IPO5",0.15126175847377812,-1.9367279730782927,8.0,219.0],["KBTBD13",0.15645214251395412,-2.0268816522533317,10.0,217.0],["LMAN1L",0.15404913731543254,-1.9846687841071982,8.0,219.0],["MAP3K15",0.12803360145999157,-1.5637650488179486,8.0,219.0],["MKL1",0.1640369506658504,-2.1625918135183815,11.0,216.0],["MYH10",0.23475824056530062,-3.6780856534312685,20.0,207.0],["NCOA1",0.1662221239909405,-2.20291931833012,14.0,213.0],["NEFH",0.18867761050242066,-2.638475246336734,10.0,217.0],["NRAP",0.18245947789720476,-2.51384659101163,16.0,211.0],["NUMB",0.16631360421871186,-2.203804759799797,8.0,219.0],["OIT3",0.16413282400343318,-2.1642034977702873,10.0,217.0],["OR10AG1",0.15242002011486042,-1.9567413972604804,9.0,218.0],["PIK3C3",0.14125775087172376,-1.770615186891092,10.0,217.0],["R3HDM1",0.13583826221662387,-1.6838223381356365,8.0,219.0],["TCF20",0.19186745871749844,-2.704938186294565,18.0,209.0],["THBS1",0.18510184465568683,-2.566585053539654,15.0,212.0],["UST",0.17103352487543094,-2.291907838956872,9.0,218.0],["UTP14C",0.16129632230373395,-2.1125396138607013,8.0,219.0],["VSTM4",0.13766969558761588,-1.7129248308803398,9.0,218.0],["XPO4",0.22288703646283634,-3.391541205301896,16.0,211.0],["ZGPAT",0.15739399192541778,-2.0431063602766932,8.0,219.0],["ZNF7",0.15294681741940486,-1.965803681638945,9.0,218.0]],"bottom":[["ARMCX1",-0.13327971804974548,-1.6440404196012162,9.0,218.0],["C17orf104",-0.12489455987239881,-1.517244052056635,10.0,217.0],["C17orf80",-0.14364292297325618,-1.8091885188414616,8.0,219.0],["CAPN11",-0.11484000827616082,-1.3727642342028952,8.0,219.0],["CCDC41",-0.13415771355731956,-1.6576830279578232,9.0,218.0],["CD1B",-0.14792047983194873,-1.8806059067198355,11.0,216.0],["CD1C",-0.14828855437601343,-1.8863479289979561,8.0,219.0],["CDKL3",-0.11112350315395496,-1.3216474510459688,8.0,219.0],["CLCNKA",-0.11694900160886755,-1.40243823928167,9.0,218.0],["CPXM2",-0.17040303651042077,-2.280901817758286,17.0,210.0],["CYP2D6",-0.1380681652899474,-1.7190977585148248,8.0,219.0],["DARC",-0.1458728260465797,-1.8459880700773865,8.0,219.0],["DDN",-0.13758438146371202,-1.711707103089259,10.0,217.0],["EME2",-0.1326792328627489,-1.6345904933067132,8.0,219.0],["EMR3",-0.1527483605226605,-1.962210853080291,8.0,219.0],["FBXW2",-0.1378823400338371,-1.7161415637606896,8.0,219.0],["FSD2",-0.16563556603398344,-2.1916858451429047,10.0,217.0],["GABRG1",-0.1445180605466937,-1.823747154519568,9.0,218.0],["GFI1",-0.12590455578612317,-1.5320825726560021,9.0,218.0],["GNAI1",-0.189120232331457,-2.6473503604244817,9.0,218.0],["GPR141",-0.15398410252193157,-1.983997105004064,11.0,216.0],["JPH1",-0.11669826083726374,-1.3987634111047729,8.0,219.0],["KDM3A",-0.12439364586221538,-1.5098538144249216,10.0,217.0],["KRT6A",-0.1362486107698896,-1.6905782938641396,10.0,217.0],["LEPRE1",-0.18879846020805724,-2.640559509430041,8.0,219.0],["MBOAT7",-0.1215551331378427,-1.4683836453462744,10.0,217.0],["MED25",-0.15669677583060806,-2.0313045081189913,11.0,216.0],["NPR1",-0.14481205477905512,-1.829061191526555,13.0,214.0],["NRD1",-0.11554420879674904,-1.382725083724752,9.0,218.0],["NT5DC3",-0.1646337380136166,-2.1733418706244856,10.0,217.0],["NUDT18",-0.1278477762038813,-1.5609709074044016,8.0,219.0],["OR2AK2",-0.17760031720923294,-2.4178599761864707,11.0,216.0],["PCDHB2",-0.14302396517877125,-1.7995860760134088,12.0,215.0],["PFKL",-0.1635402940427415,-2.1537770413597594,13.0,214.0],["PLEKHG1",-0.1472687189939248,-1.869562051691818,10.0,217.0],["PPFIA1",-0.1593379042694844,-2.0785148406250067,17.0,210.0],["PTPRA",-0.11694900160886758,-1.40243823928167,9.0,218.0],["RAP1GDS1",-0.11688408609337406,-1.4013795293477906,8.0,219.0],["RFWD3",-0.14326140691245745,-1.803244892467609,10.0,217.0],["SLC22A11",-0.12673282466721952,-1.5442687276462657,8.0,219.0],["SLC27A5",-0.167056905243153,-2.217516739977475,8.0,219.0],["SLC6A12",-0.1174415618617049,-1.4092455760355738,8.0,219.0],["SLCO1B1",-0.13918311682660917,-1.7368982864024887,8.0,219.0],["SORBS3",-0.12783614590278616,-1.5609498054715878,9.0,218.0],["TBC1D31",-0.18127040462685415,-2.489775301352463,11.0,216.0],["TGM2",-0.13207432735169444,-1.625552612754125,10.0,217.0],["TMEFF1",-0.13620991272884447,-1.6896714522133038,8.0,219.0],["TTC26",-0.140267614672114,-1.754843619165872,12.0,215.0],["TTLL13",-0.1578635922618197,-2.0515707911467067,9.0,218.0],["TXK",-0.14808004885010617,-1.8832851393128893,11.0,216.0],["ULK4",-0.13275292074520104,-1.63588702786762,9.0,218.0],["WDR49",-0.13955476733882974,-1.7428559453742745,8.0,219.0],["WDR96",-0.19503279310219174,-2.7707563273874594,15.0,212.0],["ZMYND11",-0.12783614590278616,-1.5609498054715878,9.0,218.0],["ZNF131",-0.13706978659724267,-1.7036661527100478,11.0,216.0],["ZNF354B",-0.15669677583060804,-2.0313045081189913,11.0,216.0],["ZNF641",-0.10945107584896233,-1.29902721296194,8.0,219.0]]}}}
{"depmap_damaging":{"corr":{"top":[],"bottom":[["CLGN",-0.12413130311974976,-1.2084251651391202,8.0,219.0],["EYS",-0.11930782584812903,-1.1378313723182711,10.0,217.0],["GNAI1",-0.19846571931619308,-2.573826341629346,8.0,219.0],["PCDH15",-0.15525707801984284,-1.7153668331054728,8.0,219.0],["PDE4DIP",-0.15966146114347513,-1.7944673053243108,15.0,212.0],["SENP6",-0.1650264108663742,-1.8933466677257293,8.0,219.0]]},"para":{"top":[["C8orf37",0.142760492902274,-1.7950544561119421,10.0,217.0],["INVS",0.10511733290943794,-1.2420791403226747,14.0,213.0],["KIAA1109",0.1230949701618861,-1.4906682725500986,9.0,218.0],["LSM1",0.12097224172780044,-1.4596811912307543,8.0,219.0],["PLCH1",0.20282802447566345,-2.937206192998783,14.0,213.0],["REV3L",0.11205262943450639,-1.334316664390364,8.0,219.0],["VWA8",0.14735942809546204,-1.8707640800818857,8.0,219.0],["WDR87",0.132121757094418,-1.625992607209104,8.0,219.0],["XPO4",0.1624715493090752,-2.1343066357295175,12.0,215.0]],"bottom":[["GNAI1",-0.1951165189158072,-2.771509187978244,8.0,219.0],["PCDH15",-0.14921768065656493,-1.90200788378731,8.0,219.0],["PDE4DIP",-0.16841233407197742,-2.243539197118221,15.0,212.0],["SENP6",-0.18359535303696908,-2.535437396641881,8.0,219.0],["VCAN",-0.1380681652899474,-1.7190977585148248,8.0,219.0],["ZNF189",-0.13157341334151101,-1.6178513342153265,10.0,217.0]]}}}
{"ccle_rppa":{"corr":{"top":[],"bottom":[]},"para":{"top":[["FOXO3_FOXO3a_pS318_S321_Caution",0.21953206793854135,-2.9222512861280037,215]],"bottom":[]}}}
{"ccle_metabolomics":{"corr":{"top":[],"bottom":[]},"para":{"top":[],"bottom":[["adenosine",-0.2932227784140852,-5.030151386430132,221]]}}}
{"ccle_mirna":{"corr":{"top":[["hsa-miR-1285_miR00106.1",0.20230795010892513,-2.6394686205080125,225],["hsa-miR-622_miR00577.1",0.17367038508268878,-2.043673145153499,225],["hsa-miR-924_miR00667.1",0.1652836479067337,-1.884562943439508,225]],"bottom":[]},"para":{"top":[["hsa-miR-1243_miR00055.1",0.1728084296572115,-2.027004779710541,225],["hsa-miR-1285_miR00106.1",0.1786388729823213,-2.1411737672039757,225],["hsa-miR-580_miR00533.1",0.16143456554778907,-1.8138164758836024,225],["kshv-miR-K12-11_miR00787.1",0.1686705682863512,-1.9479962517486369,225]],"bottom":[]}}}
{"prism_primary_logfold":{"corr":{"top":[["PJ-34_BRD-K11853856-001-01-7::2.5::HTS",0.27290855280739573,-2.5359669102828235,117],["aminothiazole_BRD-K13421763-001-06-2::2.5::HTS",0.28502773958548727,-2.6749196854124917,114],["JNJ-10191584_BRD-K15086322-050-01-3::2.5::HTS",0.2724815929144445,-2.4739799736686994,114],["chloroxylenol_BRD-K17223896-001-10-0::2.5::HTS",0.27228499451947374,-2.4709037376324585,114],["INH1_BRD-K70177501-003-01-4::2.5::HTS",0.27910112123266206,-2.5788579738588657,114],["clodronic-acid_BRD-K72542090-304-02-4::2.5::HTS",0.28014161905376134,-2.5178528239133744,110],["puerarin_BRD-K89048337-001-06-9::2.5::HTS",0.27812087430508664,-2.563167261897295,114],["monoctanoin_BRD-A48938994-001-14-1::2.5::MTS004",0.2789827915538997,-2.538435915405662,112],["tolamolol_BRD-A60498477-001-01-2::2.508127434::MTS004",0.259357416629995,-2.22315799053141,111],["AMG-319_BRD-K21077415-001-01-5::2.656085278::MTS004",0.3504271115351975,-3.818204703363543,112],["chidamide_BRD-K28537285-001-01-8::2.499968715::MTS004",0.2976131056532456,-2.842137523070814,112],["bipenamol_BRD-K47690382-001-03-0::2.5::MTS004",0.26984066586466454,-2.396702639701583,112],["LTA_BRD-K52914072-001-01-5::2.5::MTS004",0.2706619021610895,-2.409241858551538,112],["NPC-01_BRD-K58277159-001-01-7::2.5::MTS004",0.27945891153323876,-2.5459472705753146,112],["VX-745_BRD-K91900765-001-07-6::2.500030257::MTS004",0.2999630366777063,-2.859699576824154,111],["hydroxyprogesterone-acetate_BRD-K92902018-001-01-9::2.507952536::MTS004",0.30527594495026866,-2.9729928079810763,112]],"bottom":[["granisetron_BRD-A10967948-003-06-3::2.5::HTS",-0.27130519124810587,-2.3642181980382153,109],["ciprofibrate_BRD-A49358627-001-14-6::2.5::HTS",-0.3178462610809069,-3.245062359734813,114],["mepazine_BRD-A82772293-001-03-2::2.5::HTS",-0.3667394059206616,-4.0569695529923,109],["DPCPX_BRD-K01824921-001-18-5::2.5::HTS",-0.29789993604705195,-2.781241931133387,109],["D-4476_BRD-K09132007-001-07-5::2.5::HTS",-0.30309883683489885,-2.867466924438201,109],["VX-765_BRD-K26712974-001-01-5::2.5::HTS",-0.274756948340106,-2.565764944651016,117],["cabaletta_BRD-K54028654-001-02-6::2.5::HTS",-0.2668464021474476,-2.298139695581624,109],["loperamide_BRD-K61250553-003-32-2::2.5::HTS",-0.27041439819317975,-2.4960780932891806,117],["para-toluenesulfonamide_BRD-K62412084-001-07-1::2.5::HTS",-0.3133557258753621,-3.2355062774401686,117],["EPZ004777_BRD-K69070623-003-01-7::2.5::HTS",-0.266247225272139,-2.430246905468161,117],["alpha-methylhistamine-dihydrobromide-(R)-(-)_BRD-K80028314-303-02-6::2.5::HTS",-0.27408276864405423,-2.5548730625201337,117],["XL-647_BRD-K03765900-001-01-9::2.499986292::MTS004",-0.344641117807727,-3.673314747299616,111],["pralidoxime_BRD-K84281997-003-08-4::2.500011105::MTS004",-0.28492383213561595,-2.6130116158765775,111]]},"para":{"top":[["amyleine_BRD-A09062839-003-10-0::2.5::HTS",0.2613335779107653,-2.336966014318865,116],["PSB-11_BRD-K10177585-003-02-4::2.5::HTS",0.30164446946146023,-2.955373291641763,114],["simvastatin_BRD-K22134346-001-22-3::2.5::HTS",0.2770495894002022,-2.450950054820396,109],["DAU-5884_BRD-K31633810-003-02-8::2.5::HTS",0.2525367762107456,-2.1730407966647123,114],["CAY10505_BRD-K40366680-001-03-3::2.5::HTS",0.2609894923401435,-2.3317159695635454,116],["AM-404_BRD-K55462201-001-07-3::2.5::HTS",0.2804009735028513,-2.5997508104710465,114],["ipidacrine_BRD-K66896231-001-08-1::2.5::HTS",0.2540013544099189,-2.2265467172508884,116],["atorvastatin_BRD-K69726342-238-02-4::2.5::HTS",0.30415438850526066,-3.044698913040621,116],["sinomenine_BRD-K83459933-001-05-4::2.5::HTS",0.25675667404219277,-2.234855625445514,114],["guanosine_BRD-K92976206-001-01-5::2.5::HTS",0.305344959678474,-3.020104237753889,114],["mevastatin_BRD-K94441233-001-13-0::2.6::HTS",0.2752365040222825,-2.4609962284718816,111],["mevastatin_BRD-K94441233-001-17-1::2.5::HTS",0.2714280862985181,-2.402681530308489,111],["PHA-665752_BRD-K95435023-001-10-1::2.5::HTS",0.2599910386131756,-2.282903079643859,114],["AMG-319_BRD-K21077415-001-01-5::2.656085278::MTS004",0.32280122598808436,-3.2857061188669676,112],["trepibutone_BRD-K37543758-001-01-3::2.588829083::MTS004",0.26880150399993225,-2.362933876333305,111],["VX-745_BRD-K91900765-001-07-6::2.500030257::MTS004",0.30611978110891097,-2.9645247834987742,111]],"bottom":[["ciprofibrate_BRD-A49358627-001-14-6::2.5::HTS",-0.3356386708744619,-3.5823789302384443,114],["mepazine_BRD-A82772293-001-03-2::2.5::HTS",-0.31935128850885713,-3.1472923846167236,109],["finasteride_BRD-K01095011-001-15-9::2.5::HTS",-0.2806565072933209,-2.5453922218583322,111],["DPCPX_BRD-K01824921-001-18-5::2.5::HTS",-0.2732732170127592,-2.393728552824983,109],["licochalcone-a_BRD-K26011976-001-01-0::2.5::HTS",-0.30238734130840944,-2.832985518414131,108],["EPZ-5676_BRD-K26531771-001-01-4::2.5::HTS",-0.2606348429753122,-2.3431810219308824,117],["fenspiride_BRD-K26739552-003-15-4::2.5::HTS",-0.27694039529325376,-2.449284460728023,109],["AP1903_BRD-K28383148-001-01-4::2.5::HTS",-0.2796515143228641,-2.645650295192099,117],["bromfenac_BRD-K47679368-236-01-7::2.5::HTS",-0.2955458107598098,-2.785875242050075,111],["ilomastat_BRD-K51662849-001-05-4::2.5::HTS",-0.2731582181039642,-2.3919983248606846,109],["alpha-methylhistamine-dihydrobromide-(R)-(-)_BRD-K80028314-303-02-6::2.5::HTS",-0.2661670606228291,-2.428990438097273,117],["lomitapide_BRD-K92213669-001-01-3::2.5::HTS",-0.2794500327493378,-2.4295299439829945,106],["UNC0638_BRD-K86856088-001-06-9::2.5::MTS004",-0.29161430890498935,-2.721130799283671,111]]}}}
{"prism_secondary_logfold":{"corr":{"top":[["ginkgolide-a_BRD-A95121829-001-08-9::10::HTS002",0.2819146361553647,-2.347842416212902,100],["MGCD-265_BRD-K56277358-001-07-5::10::HTS002",0.2544297427248534,-1.9732949265028596,100],["tyrphostin-AG-99_BRD-K60184833-001-05-6::2.5::HTS002",0.27689253191160634,-2.276596164197479,100],["oxyquinoline_BRD-K66808046-065-03-7::0.009765627::MTS006",0.24817979690582614,-1.8932688042437653,100],["tyrphostin-AG-1296_BRD-K76064317-001-07-3::2.5::HTS002",0.2861827226418491,-2.4094011554460373,100],["tofogliflozin_BRD-K96344439-002-02-7::0.625000001::MTS006",0.22935046590420413,-1.663286618195497,100]],"bottom":[["SB-218078_BRD-A06352508-001-03-7::0.15625::HTS002",-0.21745682191797083,-1.5264071906822585,100],["DMH1_BRD-K39381259-001-01-0::0.00061034::HTS002",-0.23403875332711474,-1.7190105095136867,100],["DMH1_BRD-K39381259-001-01-0::0.0024414::HTS002",-0.27144262598122715,-2.2007185235038182,100],["4-(4-fluorobenzoyl)-1-(4-phenylbutyl)-piperidine_BRD-K47337578-034-02-5::0.00976562::HTS002",-0.2550950431626982,-1.9819238063087203,100],["S-methylcysteine_BRD-K63123526-001-01-2::0.15625::HTS002",-0.2276689905727182,-1.6435462463134671,100],["BVT-948_BRD-K68567222-001-01-2::2.5::HTS002",-0.23198329202084372,-1.6944555037127333,100],["NVP-BVU972_BRD-K77943374-001-02-8::0.00976562::HTS002",-0.23848833767867084,-1.7728349867105297,100],["repsox_BRD-K80480517-001-02-4::0.00976562::HTS002",-0.20635142724501937,-1.4043039717625319,100]]},"para":{"top":[["MTPG_BRD-A28329383-001-02-1::0.625::HTS002",0.18160431218020134,-1.1514222864641372,100],["ginkgolide-a_BRD-A95121829-001-08-9::10::HTS002",0.2628354797506078,-2.083890418435569,100],["SR-27897_BRD-K35629949-001-02-0::0.0390625::HTS002",0.2159699914351065,-1.509742954164173,100],["M-344_BRD-K45528773-001-07-2::0.0404981::HTS002",0.27626214881992484,-2.267743278614169,100],["tyrphostin-AG-99_BRD-K60184833-001-05-6::2.5::HTS002",0.2524157163728615,-1.947302812226354,100],["oxyquinoline_BRD-K66808046-065-03-7::0.009765627::MTS006",0.2525547713748452,-1.9490911421531478,100],["SB-239063_BRD-K82091397-001-03-0::2.5::HTS002",0.23394597557676491,-1.7178979711921076,100]],"bottom":[["PJ-34_BRD-K11853856-001-01-7::0.0390625::HTS002",-0.24366905574182027,-1.8366653810238949,100],["SKI-II_BRD-K20755323-001-05-9::0.15625::HTS002",-0.2138987587562323,-1.4866927599003212,100],["DMH1_BRD-K39381259-001-01-0::0.00061034::HTS002",-0.2338902679822348,-1.7172301479911787,100],["DMH1_BRD-K39381259-001-01-0::0.0024414::HTS002",-0.2503545507302903,-1.9209034268447642,100],["STA-5326_BRD-K41783120-001-02-8::0.15625::HTS002",-0.28514333932716207,-2.3943241628368876,100],["S-methylcysteine_BRD-K63123526-001-01-2::0.15625::HTS002",-0.3109584060397539,-2.7855207894271254,100],["AZD1480_BRD-K65928735-001-04-3::0.00061034::HTS002",-0.25583065544562705,-1.991489432563185,100],["BVT-948_BRD-K68567222-001-01-2::2.5::HTS002",-0.2588681822799154,-2.0312650469445206,100],["NSC-632839_BRD-K81197548-003-01-4::0.00976562::HTS002",-0.2154749417900816,-1.5042163416403327,100],["oltipraz_BRD-K86972824-001-01-4::0.0024414::HTS002",-0.22557897519626985,-1.6191891344719416,100],["talazoparib_BRD-K95142244-001-01-5::0.000610352::MTS006",-0.23409736485663427,-1.7197135505056522,100]]}}}
{"depmap_copy_number":{"corr":{"top":[["RASGEF1B_153020",0.2379170373840991,-3.525504854962358,227],["FAM230E_642643",0.2368682533146346,-3.498030852809732,227],["FAM230A_653203",0.2614292716282464,-4.173818532531413,227],["GGTLC3_728226",0.24115323959702079,-3.6110485534141685,227],["TMEM191B_728229",0.24146618858110153,-3.619382531811166,227],["PI4KAP1_728233",0.24146618858110153,-3.619382531811166,227],["FAM230J_729461",0.2647710341179078,-4.271083563359832,227],["RIMBP3_85376",0.24146618858110153,-3.619382531811166,227]],"bottom":[["LOC101927691_101927691",-0.22435783211713806,-3.179606497574422,227],["IKBIP_121457",-0.22866756053245402,-3.287374130782278,227],["HUS1B_135458",-0.22435783211713806,-3.179606497574422,227],["LOC285766_285766",-0.2209048763055154,-3.094710337378331,227],["APAF1_317",-0.22866756053245402,-3.287374130782278,227],["IRF4_3662",-0.22708937760352396,-3.247676985660214,227],["LINC00266-3_441123",-0.2209048763055154,-3.094710337378331,227],["SLC25A3_5250",-0.22866756053245402,-3.287374130782278,227],["EXOC2_55770",-0.22435783211713806,-3.179606497574422,227],["ANKS1B_56899",-0.22866756053245402,-3.287374130782278,227],["DUSP22_56940",-0.23052218361677496,-3.3343710834630986,227],["SNORA53_677832",-0.22866756053245402,-3.287374130782278,227],["SULT1A1_6817",-0.2182958864362354,-3.031413066811238,227]]},"para":{"top":[["CECR7_100130418",0.24829361157095098,-3.8039247824937634,227],["HDHD5-AS1_100130717",0.24829361157095098,-3.8039247824937634,227],["LINC01664_100996342",0.24829361157095098,-3.8039247824937634,227],["LINC01665_101929350",0.24901528438671852,-3.8237372639850795,227],["GAB4_128954",0.24901528438671852,-3.8237372639850795,227],["XKR3_150165",0.24901528438671852,-3.8237372639850795,227],["IL17RA_23765",0.24829361157095098,-3.8039247824937634,227],["HSFY1P1_27437",0.24901528438671852,-3.8237372639850795,227],["TMEM121B_27439",0.24829361157095098,-3.8039247824937634,227],["HDHD5_27440",0.24829361157095098,-3.8039247824937634,227],["FAM230A_653203",0.2610500074025092,-4.162861416375585,227],["GGTLC3_728226",0.248437021560186,-3.8078572181983197,227],["TMEM191B_728229",0.24869448836985883,-3.814923019076981,227],["PI4KAP1_728233",0.24869448836985883,-3.814923019076981,227],["FAM230J_729461",0.2714973135237329,-4.470805548625897,227],["RIMBP3_85376",0.24869448836985883,-3.814923019076981,227]],"bottom":[["MIR4497_100616454",-0.22819913590311894,-3.275563279091195,227],["DAO_1610",-0.22561541757336384,-3.2108454253103393,227],["ISCU_23479",-0.22575811369436125,-3.2144008548625242,227],["IFT81_28981",-0.22819913590311894,-3.275563279091195,227],["C12orf76_400073",-0.22819913590311894,-3.275563279091195,227],["GLTP_51228",-0.22819913590311894,-3.275563279091195,227],["SSH1_54434",-0.22561541757336384,-3.2108454253103393,227],["SVOP_55530",-0.22561541757336384,-3.2108454253103393,227],["TRPV4_59341",-0.22819913590311894,-3.275563279091195,227],["MIR619_693204",-0.22561541757336384,-3.2108454253103393,227],["TCHP_84260",-0.22819913590311894,-3.275563279091195,227],["FAM222A_84915",-0.22819913590311894,-3.275563279091195,227],["FAM222A-AS1_84983",-0.22819913590311894,-3.275563279091195,227],["ANKRD13A_88455",-0.22819913590311894,-3.275563279091195,227],["WSCD2_9671",-0.22575811369436125,-3.2144008548625242,227],["GIT2_9815",-0.22819913590311894,-3.275563279091195,227]]}}}
{"depmap_gene_tpm":{"corr":{"top":[["GLUD1_2746",0.3370621714380602,-6.681332039147496,226]],"bottom":[["TSPY2_64591",-0.366921416017634,-7.883294029587692,226],["MAGEA11_4110",-0.4027930206795636,-9.498897497860641,226],["GAGE2A_729447",-0.38422648965498307,-8.638370156761903,226],["GAGE12J_729396",-0.42987186192387355,-10.852915279016221,226],["TSPY3_728137",-0.4458313114484158,-11.709193793871265,226],["TSPY4_728395",-0.4669799155249774,-12.914818540055071,226],["TSPY10_100289087",-0.41980151519688513,-10.335202589831885,226],["TSPY1_7258",-0.38688053699250863,-8.758128960226445,226]]},"para":{"top":[],"bottom":[["TSPY2_64591",-0.4017734951426627,-9.450248470429782,226],["TGIF2LY_90655",-0.3846831142212592,-8.658898425578677,226],["TSPY4_728395",-0.447112826245522,-11.779907929812982,226],["TSPY1_7258",-0.39267742764509556,-9.023441009785913,226],["GAGE2E_26749",-0.37422715716123084,-8.19667238455751,226]]}}}
{"avana":{"corr":{"top":[["ANKRD23_200539",0.26600405820874967,-2.635998443215052,129],["BCKDHB_594",0.2879348316900802,-3.028342427004367,129],["CC2D1A_54862",0.2707399530213322,-2.718048392483125,129],["CRK_1398",0.3010567683707046,-3.278534251668283,129],["GBP4_115361",0.2880466843752387,-3.030425479414598,129],["KMT2C_58508",0.2795174068265241,-2.816506088098945,126],["KRT20_54474",0.25997625310696093,-2.533657228519195,129],["MTIF3_219402",0.28857089630465765,-3.0401992365709263,129],["PATE2_399967",0.2671695061781915,-2.6560551914406147,129],["PGRMC2_10424",0.32644428411121335,-3.796868291271924,129],["SLC26A4_5172",0.2937730493358332,-3.1382023102820296,129],["SLC4A10_57282",0.2579570300671607,-2.499893680596602,129],["SOS1_6654",0.27054536238177307,-2.714648397486163,129],["TRIM56_81844",0.25873968844658163,-2.5129497842286233,129],["VTI1A_143187",0.26032023475089117,-2.539434841243949,129]],"bottom":[["C21orf58_54058",-0.2809836102738577,-2.9005385176576186,129],["C21orf91_54149",-0.2626429422968359,-2.578645474614954,129],["CHRNA7_1139",-0.2716363269501711,-2.733742202305241,129],["DEFB131A_644414",-0.2755771046134774,-2.8033611454995215,129],["DNAJC1_64215",-0.28598255005480056,-2.9320198891548666,126],["HLA-DRB5_3127",-0.25934054802283263,-2.5229995890783745,129],["MED25_81857",-0.25978169813574803,-2.48046653185415,126],["MIOS_54468",-0.26766090379455415,-2.6645382018295827,129],["PIK3R1_5295",-0.27420139072299343,-2.7789416993160363,129],["SLC35A1_10559",-0.2632007684173486,-2.588113799965171,129],["SMARCA5_8467",-0.2646398819086651,-2.5609029670521184,126],["UBE2T_29089",-0.2594503381947588,-2.524838390300106,129],["WDR24_84219",-0.2633314503928513,-2.590334830592419,129],["ZC3H4_23211",-0.26524476283108417,-2.622978526532591,129],["ZNF608_57507",-0.2673482058199791,-2.6591382804592905,129]]},"para":{"top":[["CC2D1A_54862",0.29180373424262884,-3.100885918510106,129],["CCL4_6351",0.3088689359805073,-3.4331459730718588,129],["CHD4_1108",0.2942179300891403,-3.0831395374952235,126],["CYP26B1_56603",0.3268798456102635,-3.8061670261698217,129],["DLX1_1745",0.28501608975634574,-2.97428428075539,129],["GMPR_2766",0.3033341165534692,-3.323164468325901,129],["HSPA1L_3305",0.27192575650725775,-2.738820761374251,129],["MEST_4232",0.2918604971146306,-3.101957811840152,129],["PATE2_399967",0.304385650226909,-3.343893942157148,129],["PTPRB_5787",0.2959237132569746,-3.179258078332624,129],["RWDD4_201965",0.2697918465954932,-2.701505807202827,129],["SLC26A4_5172",0.319776477565056,-3.656251937211973,129],["SOS1_6654",0.2790971164615143,-2.8664105411144973,129],["SSC4D_136853",0.28589977562223157,-2.9905905509575383,129],["TRIM56_81844",0.3140008553388853,-3.537055580306714,129],["VTI1A_143187",0.36604980220431205,-4.701298420062186,129]],"bottom":[["C18orf54_162681",-0.2834401211851125,-2.9453336440953626,129],["C6orf10_10665",-0.286901643113455,-3.0091410957131357,129],["CDK16_5127",-0.3000303085418222,-3.082264640047368,121],["DEFB131A_644414",-0.2778220080769504,-2.843476623505111,129],["ESD_2098",-0.2756459193737583,-2.8045859013798977,129],["FAM49B_51571",-0.2700181439683847,-2.7054489348886843,129],["HLA-DRB5_3127",-0.2970451966931507,-3.2007929517864144,129],["MIOS_54468",-0.3437521982519635,-4.17726192012545,129],["PIK3R1_5295",-0.3662870677290908,-4.707087107001668,129],["SMARCA5_8467",-0.2946765947887732,-3.091688464782045,126],["SPATA19_219938",-0.3019363288768995,-3.295728588322824,129],["TINAG_27283",-0.2782087737900771,-2.850421565944681,129],["WDR24_84219",-0.29274520546290483,-3.118692763372517,129],["WDR59_79726",-0.2724306699409551,-2.747693468938412,129]]}}}
{"ccle_rrbs_tss1kb":{"corr":{"top":[["RLIM_23_73834461_73835461",0.07596897070595095,-0.3619642587683318,108]],"bottom":[["PYCR2_1_226112040_226113040",-0.2564611556247153,-3.953341220439372,222],["PDE12_3_57540973_57541973",-0.2233657591366695,-3.095246765841499,222],["SHPRH_6_146285233_146286233",-0.2307158086658301,-3.2501118348975355,220],["EIF3H_8_117768062_117769062",-0.2869019966614448,-2.9688397124790917,127],["COX8A_11_63741078_63742078",-0.22450069409734508,-3.134815506179308,223],["NDUFA9_12_4757263_4758263",-0.22854786601247418,-3.1591900739195955,217],["LOC652276_16_2652384_2653384",-0.24420198282304614,-3.450558464419258,210],["PRPSAP2_17_18758611_18759611",-0.2234606350633317,-3.0855510699328557,221]]},"para":{"top":[],"bottom":[["ARL6IP6_2_153573837_153574837",-0.17629776992293358,-2.0642746520906368,221],["CALM2_2_47403762_47404762",-0.18045092717597208,-2.1533380081445452,222],["HCG25_6_33216312_33217312",-0.17663170915444842,-2.0784259021209794,222],["NDUFA4_7_10979813_10980813",-0.1998522162357652,-2.556073668717571,222],["CAPRIN1_11_34072229_34073229",-0.19098636417291243,-2.2961033624175977,214],["DDHD1_14_53620046_53621046",-0.24369191780928606,-2.1061005944115663,118],["LOC652276_16_2652384_2653384",-0.17673564490866583,-1.9877841824984963,210]]}}}
{"ccle_gene_tpm":{"corr":{"top":[["RPL35_ENSG00000136942.10",0.266638663068151,-4.275321779721634,224],["GLUD1_ENSG00000148672.7",0.3316126422979484,-6.422763058600991,224],["RPS17_ENSG00000184779.8",0.27498803207510614,-4.522672570976061,224],["RPL12L3_ENSG00000236992.1",0.26345932223188884,-4.183250882130253,224]],"bottom":[["MAGEA11_ENSG00000185247.10",-0.3906620418166461,-8.856838051153279,224],["GAGE12J_ENSG00000224659.2",-0.4132571845511099,-9.924644134519228,224],["TSPY3_ENSG00000228927.5",-0.4542650731665998,-12.077787498843819,224],["TSPY4_ENSG00000233803.4",-0.4610710630725925,-12.463886568506439,224],["TSPY10_ENSG00000236424.3",-0.4182285226981294,-10.170501696760006,224],["TSPY6P_ENSG00000238074.3",-0.4049154994817886,-9.521071244774081,224],["RP11-498E11.2_ENSG00000249351.2",-0.389059949915464,-8.784134702412548,224],["TSPY1_ENSG00000258992.1",-0.390644166554514,-8.856024713321103,224]]},"para":{"top":[["RPL35_ENSG00000136942.10",0.292325769638092,-5.06252451836005,224],["RPS17_ENSG00000184779.8",0.3108841380995388,-5.6807942246648055,224],["RPL39_ENSG00000198918.7",0.31204356214653317,-5.720843022967474,224],["RP4-612B15.2_ENSG00000230721.1",0.28982367704064,-4.982396508652411,224],["AC079781.8_ENSG00000232097.1",0.287921131061519,-4.921974024203789,224]],"bottom":[["TSPY2_ENSG00000168757.8",-0.42444021489710326,-10.483412256334455,224],["TSPY4_ENSG00000233803.4",-0.4249342576564141,-10.50857479745306,224],["RP11-51M18.1_ENSG00000253898.1",-0.45693240959658604,-12.228084693632253,224],["TSPY1_ENSG00000258992.1",-0.3931775696180121,-8.971782900472295,224],["CTD-2144E22.8_ENSG00000260854.1",-0.4049870301758915,-9.524484743043265,224],["AC006156.2_ENSG00000270073.1",-0.41580630698866927,-10.050207472884042,224]]}}}
{"ccle_rrbs_tss_clusters":{"corr":{"top":[["LRRC55_3",0.6067532693537075,-22.78716328137938,220],["MS4A13_2",0.591120966869694,-21.676544299273484,223]],"bottom":[["GGH_3",-0.2603240487997506,-2.472643834377475,125],["COPS7B_6",-0.2282880188201583,-2.2789870994261907,148],["FAM122C_1",0.05603847622431531,-0.245423497600727,106],["FIG4_1",-0.23452506844938972,-2.9084643224937157,187]]},"para":{"top":[["TTTY23B",1.0,-323.0051853474518,227]],"bottom":[["GGH_3",-0.26063301803047406,-2.4776880323213475,125],["CNOT11_1",-0.22946042887866347,-1.878729076112672,116],["SP110_1",-0.22530109929672038,-2.738265538321367,189],["CHD1L_4",-0.2851348228718946,-2.7568817356383066,118]]}}}
{"ccle_rrbs_cgi_clusters":{"corr":{"top":[["24_9743559_9747993-1",0.9999999999999999,-323.0051853474518,227],["24_9383471_9387777-3",0.6332308284830455,-20.724299940469994,179],["16_34257249_34259750-1",0.6264239091686052,-24.872201049817985,222],["2_2187200_2192138-1",0.6447664092244056,-21.689693179328117,179]],"bottom":[["8_63949122_63954104-3",-0.2603240487997506,-2.472643834377475,125],["23_133928787_133933355-1",0.05603847622431531,-0.245423497600727,106],["8_143357844_143362110-3",-0.26733715388792406,-2.4296607643340105,116],["11_73691702_73694252-3",-0.24994369653531995,-3.789791979988139,223],["20_823267_825771-2",-0.24011220859644702,-3.4043117743960787,214]]},"para":{"top":[["24_9743559_9747993-1",1.0,-323.0051853474518,227]],"bottom":[["2_101867023_101871876-1",-0.22946042887866347,-1.878729076112672,116],["8_63949122_63954104-3",-0.26063301803047406,-2.4776880323213475,125],["2_131795362_131800088-2",-0.24174717529994688,-1.9900757303584553,112],["8_143357844_143362110-3",-0.2433712121739045,-2.0718224634233153,116],["1_25564459_25568711-3",-0.25995611454876244,-4.115284618926155,226],["1_146712089_146714683-2",-0.2851348228718946,-2.7568817356383066,118]]}}}
