{"depmap_hotspot":{"corr":{"top":[["ALG6",0.21044432354695922,-9.12612933478235,22.0,817.0],["ARIH2OS",0.20437648024164318,-8.635996130956817,10.0,829.0],["ARL8A",0.30089838339458697,-18.29205478545249,9.0,830.0],["ATP6V1B2",0.1938543758388516,-7.821208763851644,23.0,816.0],["C9orf89",0.19352695274163206,-7.796563816640643,12.0,827.0],["CAAP1",0.18115596069734835,-6.896429629990906,20.0,819.0],["CHP1",0.19131564000551185,-7.631233565194518,12.0,827.0],["CX3CR1",0.1878279904824481,-7.374409943047021,13.0,826.0],["CYSTM1",0.19988731925786393,-8.282950218043014,10.0,829.0],["DARS",0.21552670145019087,-9.548190780262884,16.0,823.0],["DGKG",0.182810170171137,-7.013309838161634,44.0,795.0],["DRGX",0.18775118857028636,-7.36880842181297,23.0,816.0],["ETV4",0.24233221508057107,-11.951513893696461,18.0,821.0],["EXTL2",0.2019382815817797,-8.443240802758933,11.0,828.0],["FAM43B",0.23669031970022916,-11.420571553813232,20.0,819.0],["GJA4",0.22050863117164085,-9.972193969903858,15.0,824.0],["GMNC",0.1938408282563841,-7.820188200362035,21.0,818.0],["GNRHR",0.20968034411008948,-9.06359646995101,11.0,828.0],["GPM6B",0.3135545649651408,-19.870332637761557,8.0,831.0],["GSTK1",0.20461326856113532,-8.654843421761308,11.0,828.0],["GYG1",0.18413996796632578,-7.108044511024481,17.0,822.0],["KCNK12",0.200133268285079,-8.302083001960629,18.0,821.0],["LEFTY1",0.23628475614894962,-11.382926419744777,13.0,826.0],["LIX1L",0.20107074387819726,-8.375233303387544,22.0,817.0],["MAN1A1",0.22285418570831475,-10.175367012556832,32.0,807.0],["MED21",0.259031287260563,-13.60329559039174,11.0,828.0],["MLF1",0.19958272110614794,-8.2592886313233,10.0,829.0],["MS4A8",0.18869574073699397,-7.437860549270709,21.0,818.0],["MTFMT",0.18597598126846795,-7.239981413405096,18.0,821.0],["OR1B1",0.18450544204053418,-7.134202229945571,31.0,808.0],["PGBD1",0.18729045654851978,-7.335253866831578,28.0,811.0],["PPCS",0.20032473399871004,-8.316994229744834,11.0,828.0],["PRIM1",0.25840141526864624,-13.538787745464202,12.0,827.0],["PTHLH",0.1903126398759791,-7.556882261444599,11.0,828.0],["RAB27A",0.1991965181502921,-8.22934132238897,10.0,829.0],["RAMP1",0.2649905527330632,-14.222270832265128,9.0,830.0],["RGPD1",0.2747475129990632,-15.269852223214722,9.0,830.0],["RNF11",0.3229643546223767,-21.09421888368692,8.0,831.0],["SCGB1C1",0.28352201459122,-16.248688722775682,8.0,831.0],["SEC11A",0.23539155802233575,-11.300263811276718,8.0,831.0],["SLC25A40",0.1893243317519674,-7.484009149417367,15.0,824.0],["ST7-OT4",0.2097076951934146,-9.065831099197604,10.0,829.0],["TMEM150A",0.22802991372813225,-10.631776412484504,14.0,825.0],["TMEM9",0.1816953584241531,-6.934423954023124,14.0,825.0],["TSPAN7",0.2068321911461159,-8.83256046860036,16.0,823.0],["TUBB",0.20369982824657656,-8.582262325079899,20.0,819.0],["VHLL",0.22979441886048643,-10.789930860223942,8.0,831.0],["XK",0.22726275464716808,-10.563421391814092,16.0,823.0],["ZFAND3",0.18381394739988827,-7.0847547456142985,24.0,815.0]],"bottom":[]},"para":{"top":[["GGT2",0.11017133024544101,-3.145625009425861,8.0,831.0],["KCNAB3",0.11954872325750106,-3.568667086024175,13.0,826.0],["PBDC1",0.10739221058126984,-3.0262575026455076,11.0,828.0],["SOSTDC1",0.12960374186729332,-4.055361758040298,10.0,829.0]],"bottom":[]}}}
{"depmap_damaging":{"corr":{"top":[["ANKRD17",0.19551457464206484,-7.9381177822299405,12.0,826.0],["C12orf40",0.22372218582923561,-10.2397328197549,11.0,827.0],["CASP14",0.2367559242579754,-11.413891413611205,8.0,830.0],["CDH16",0.23545587245518712,-11.293569680063642,9.0,829.0],["CETN3",0.22291503024576045,-10.169351344828039,9.0,829.0],["CSNK1G1",0.23599148551021118,-11.343054880943864,8.0,830.0],["KIAA1407",0.17173828136249003,-6.2445477517807,14.0,824.0],["LPHN3",0.2209831715032291,-10.001994790615472,11.0,827.0],["MAML3",0.23230956116486787,-11.005326544432624,9.0,829.0],["MORC3",0.21509411465437187,-9.501321309382975,10.0,828.0],["NSD1",0.16757039824432177,-5.970287681086739,16.0,822.0],["PASK",0.25987949975730007,-13.675004545232113,13.0,825.0],["PLOD3",0.1837349723088929,-7.071417960044354,11.0,827.0],["PPFIBP1",0.18173607064502106,-6.929759339992059,15.0,823.0],["SGSM2",0.2204322439167767,-9.954550769369403,9.0,829.0],["SLC25A40",0.20939163958697246,-9.030044120890967,10.0,828.0],["SLC9C2",0.20016991385041483,-8.295809643235094,11.0,827.0],["WIF1",0.18549625598945058,-7.197532576465616,13.0,825.0],["XPO5",0.20777834738313578,-8.899115285329142,9.0,829.0],["ZNF311",0.26946322054877714,-14.680573974763,8.0,830.0]],"bottom":[]},"para":{"top":[["CFHR2",0.0766549678531678,-1.8756777770140556,8.0,830.0],["NUDCD1",0.10892931515395268,-3.0890790583715533,8.0,830.0],["WDR59",0.09526201164108014,-2.532871500552959,10.0,828.0],["ZNF311",0.10732781263860675,-3.0206268213804597,8.0,830.0]],"bottom":[["HLA-G",-0.09890862446852203,-2.6752344672533726,12.0,826.0]]}}}
{"prism_secondary_logfold":{"corr":{"top":[],"bottom":[]},"para":{"top":[],"bottom":[["odanacatib_BRD-K22822991-001-02-3::0.625::HTS002",-0.2164606619677573,-3.4910148844400015,272]]}}}
{"depmap_gene_tpm":{"corr":{"top":[["CD40LG_959",0.49934250254320683,-53.13704668549173,835],["CELA1_1990",0.49058714090166383,-51.05289509855514,835],["ERVFRD-1_405754",0.35581356970441114,-25.598642381856006,835]],"bottom":[]},"para":{"top":[],"bottom":[]}}}
{"avana":{"corr":{"top":[],"bottom":[["NRBP1_29959",-0.20034962153220026,-4.937015189666274,472]]},"para":{"top":[],"bottom":[]}}}
{"drive":{"corr":{"top":[["SETBP1_26040",0.2505338838518002,-5.257765653542762,321],["CYP4V2_285440",0.32039145856046414,-8.321392897393263,319],["SPAG1_6674",0.2512688656113234,-5.286198151116032,321],["OBSCN_84033",0.2766371397288039,-6.3221550579239985,321],["KALRN_8997",0.27543444906628883,-6.270607700423542,321]],"bottom":[["POU3F1_5453",-0.3061321820744477,-7.664841313162406,321]]},"para":{"top":[],"bottom":[]}}}
{"ccle_rrbs_tss1kb":{"corr":{"top":[["PHTF1_1_114301777_114302777",0.6069930534941769,-83.16935124949306,822],["ACY1_3_52016299_52017299",0.6185207988095452,-86.57593086139177,816],["UGDH-AS1_4_39528458_39529458",0.9215587819122009,-323.0051853474518,824],["UGDH_4_39529218_39530218",0.7041074154174426,-123.62244068357917,824],["NFKB1_4_103422054_103423054",0.6281281828117057,-91.46494340259704,829],["ZNF622_5_16465894_16466894",0.6429558874419515,-96.80579436860678,826],["MIR3939_6_167411400_167412400",0.6116817157208446,-85.50518766455995,829],["ACER3_11_76570916_76571916",0.6046411565726377,-80.78075816855738,806],["TBK1_12_64844839_64845839",0.6051885883055288,-68.54674131175666,681],["ZNF276_16_89786392_89787392",0.7809846599739584,-170.31102219959746,828],["ZNF276_16_89786949_89787949",0.8454848565076045,-226.53532210094318,828],["ZNF276_16_89786951_89787951",0.8350585047775273,-215.83395091379967,828],["TLCD1_17_27053230_27054230",0.6846745162975758,-114.71652647742248,827],["DPY19L3_19_32895654_32896654",0.7480519994746014,-148.15801132591162,826],["DPY19L3_19_32896021_32897021",0.6831623487948243,-114.01938841324224,827],["LOC400684_19_32896445_32897445",0.609716344695232,-84.61392081999325,827]],"bottom":[]},"para":{"top":[["UGDH-AS1_4_39528458_39529458",0.7987114228460858,-182.7994805283194,824],["UGDH_4_39529218_39530218",0.5497857419670891,-65.54006737251852,824],["SMG8_17_57286370_57287370",0.39982413869391337,-11.059312883481466,270]],"bottom":[]}}}
{"ccle_gene_tpm":{"corr":{"top":[["CD40LG_ENSG00000102245.3",0.49907242957392445,-52.88446897188229,832],["CELA1_ENSG00000139610.1",0.4897008365654652,-50.665873949636975,832],["RP5-1051J4.6_ENSG00000177590.6",0.6308661272231537,-92.82353515715151,832],["U8_ENSG00000212145.2",0.5328108683056053,-61.468369365065314,832],["RP11-449I17.9_ENSG00000235679.1",0.698243726701938,-121.89490827487128,832],["RP11-1057N3.2_ENSG00000253225.1",0.5179632582650109,-57.571759131133426,832],["IGHV3-50_ENSG00000253241.1",0.6381115833031764,-95.602345136003,832],["IGHV7-34-1_ENSG00000253325.1",0.4848555878257204,-49.54554182355322,832],["IGHVII-49-1_ENSG00000253386.1",0.6581311244542704,-103.68317220845975,832],["IGHVIII-47-1_ENSG00000253862.1",0.46035205212438796,-44.146980315282,832],["RP11-1033H12.1_ENSG00000258694.1",0.5867907109989755,-77.40096536150902,832],["GTSCR1_ENSG00000263417.2",0.5613150323255796,-69.51609693100188,832]],"bottom":[]},"para":{"top":[],"bottom":[]}}}
{"ccle_rrbs_tss_clusters":{"corr":{"top":[["LOC105377621",0.6208928913055533,-89.85934150772724,839],["RCC1L_2",0.6299512306934979,-93.24819167131203,839],["NEK8_2",0.6859128568414498,-116.95041148602316,839],["TLCD1_4",0.6546310951434812,-103.07825882420616,839],["ACY1",0.6317237314117595,-93.70283624647743,837],["ZSCAN22_1",0.6684991374916962,-108.63247389562595,836],["HPS6_1",0.6008715942526769,-82.45783967160686,836],["ZNF622_1",0.6267522945337592,-91.82142261726555,837],["ACER3_3",0.7327006020103468,-140.98567710406292,837],["SNX24_3",0.6215445959474011,-89.46171849305374,833],["ZNF276_4",0.7382848232863574,-144.57619663107215,839],["NECAB3_1",0.6367479066207931,-95.2999732392499,834],["DPY19L3_2",0.7081684962075548,-127.63543125607505,837],["FGFR1OP_2",0.6198861052495813,-89.48953251022155,839],["GYG1",0.6144917661633656,-86.49858404753378,829]],"bottom":[]},"para":{"top":[],"bottom":[]}}}
{"ccle_rrbs_cgi_clusters":{"corr":{"top":[["17_27053187_27058056-1",0.710976280442671,-129.39863925815493,839],["16_89784837_89787963-3",0.8162205655800123,-200.66278089019565,838],["3_52015056_52019592-1",0.6317237314117595,-93.70283624647743,837],["10_103822894_103827778-1",0.6008715942526769,-82.45783967160686,836],["19_32893975_32896604-3",0.6990957006334028,-122.75243534833464,835],["17_27053513_27056084-1",0.6334990925389127,-94.49473678660809,838],["4_39526728_39531723-1",1.0,-323.0051853474518,839],["3_149467909_149472388-1",0.5955480688044097,-74.17173903124213,768],["19_58836198_58840639-1",0.6684991374916962,-108.63247389562595,836],["20_32259944_32264410-1",0.6367479066207931,-95.2999732392499,834],["5_16465849_16468460-1",0.6260991636987395,-91.46847424999032,836],["3_148707076_148712069-1",0.6144917661633656,-86.49858404753378,829],["6_167409597_167412509-1",0.6164340038490772,-88.23168427962648,839],["11_76569963_76574291-3",0.7327006020103468,-140.98567710406292,837],["5_122178963_122183681-3",0.6215445959474011,-89.46171849305374,833]],"bottom":[["12_104657057_104661583-2",-0.3349414035804268,-13.163182589497492,474]]},"para":{"top":[["4_39526728_39531723-1",1.0,-323.0051853474518,839]],"bottom":[]}}}
