{"depmap_hotspot":{"corr":{"top":[["DFNB31",0.19415569308508573,-7.878281959513576,61.0,782.0],["EIF4G3",0.2179953749041689,-9.800298375783354,71.0,772.0],["SBNO1",0.21303785720994578,-9.381520124496179,98.0,745.0]],"bottom":[]},"para":{"top":[["XKRX",0.17197062553733797,-6.519150212689188,14.0,829.0]],"bottom":[["CSRP2",-0.0749891630623076,-1.8295699266772025,8.0,835.0],["PLAC1L",-0.09517565248203037,-2.5404280575641005,8.0,835.0]]}}}
{"depmap_damaging":{"corr":{"top":[],"bottom":[]},"para":{"top":[["SEMA5A",0.1433238587890533,-4.79031502886033,13.0,829.0],["SOX9",0.15839459544022308,-5.660471511239956,16.0,826.0],["ZNF91",0.1155119405107623,-3.3922901930195635,10.0,832.0]],"bottom":[]}}}
{"ccle_rrbs_enhancer_clusters":{"corr":{"top":[["22-19747356-19752055-1_enh",0.7275776279905269,-137.9134107566104,836],["4-145566248-145569102-1_enh",0.6554935823303573,-103.07197927658699,836]],"bottom":[]},"para":{"top":[["10-102412915-102417578-2_enh",0.7175658737648472,-133.36783434744018,842]],"bottom":[]}}}
{"depmap_gene_tpm":{"corr":{"top":[],"bottom":[["CHFR_55743",-0.4735836089677181,-47.395519683311655,839]]},"para":{"top":[],"bottom":[]}}}
{"ccle_rrbs_tss1kb":{"corr":{"top":[["KCNH1-IT1_1_211306716_211307716",0.8018205266155232,-187.06246332114515,832],["BOC_3_112930343_112931343",0.805997450657026,-190.71464673115355,833],["BARHL1_9_135456992_135457992",0.8035321452468852,-188.004524525813,830],["GRID1_10_88126250_88127250",0.8175289509312319,-199.6704675487247,829],["KCNC1_11_17756494_17757494",0.8202179996980915,-202.3153699444555,830],["PKNOX2-AS1_11_125034505_125035505",0.8238674956605929,-206.1382244715121,832],["ZDHHC22_14_77607087_77608087",0.976547825465543,-323.0051853474518,833],["INSYN1_15_74044711_74045711",0.8432208827594766,-224.95483176319982,831],["GSG1L_16_28074830_28075830",0.8160638267159226,-197.42489764974823,825],["NPTX1_17_78450404_78451404",0.8293776419014459,-210.8197226423662,830],["KCNJ4_22_38851205_38852205",0.8004143744466659,-185.70560809246905,831]],"bottom":[]},"para":{"top":[["MIR4281_5_176056501_176057501",0.7480702732823551,-148.34747319303943,827],["ZDHHC22_14_77607087_77608087",0.9405000320318898,-323.0051853474518,833],["NPTX1_17_78450404_78451404",0.7529423391457019,-151.89606099085026,830]],"bottom":[]}}}
{"ccle_gene_tpm":{"corr":{"top":[],"bottom":[["CHFR_ENSG00000072609.13",-0.4762065880895613,-47.81423192944797,836]]},"para":{"top":[],"bottom":[]}}}
{"ccle_rrbs_tss_clusters":{"corr":{"top":[["DPYSL5_4",0.8351077731170009,-219.78018355550356,843],["INSYN1_2",0.8379135481406197,-222.3735928742762,842],["ADAMTS8_2",0.8428523624561355,-226.45352418127825,838],["CAMK2B_2",0.8355850613779171,-220.26231071396464,843],["CERS1_1",0.8436963138770075,-228.43010838475507,842],["CABP7_3",0.8581184160034955,-243.80502910733102,839],["ZDHHC22_1",0.9630361522605749,-323.0051853474518,843],["ZDHHC22_3",0.8974782037099351,-300.49217762881824,843],["CRHR1_1",0.8545455393623518,-240.20236888039028,841],["NPTX1_2",0.8527555754890663,-238.43141179647216,842],["GRM4_1",0.8575658461562201,-244.3082504186778,843],["DLGAP4_1",0.8388353236371678,-223.0585373349084,841],["LINGO1_6",0.8405233759622125,-224.54409832641147,840],["IGDCC3_2",0.8566397038138263,-243.2152539383661,843],["DPYSL5_1",0.8361265552194131,-220.81117309132372,843],["LINGO1_15",0.8379267799394723,-221.86070017304908,840]],"bottom":[]},"para":{"top":[["CABP7_3",0.7919270167816166,-180.7707240566595,839],["ZDHHC22_1",0.8927555821851777,-292.72063881023587,843],["ZDHHC22_3",0.912050656089104,-323.0051853474518,843],["JPH3_3",0.7829957739756476,-174.24174286066648,840],["NPTX1_2",0.8096864378806369,-195.89822693163018,842]],"bottom":[]}}}
{"ccle_rrbs_cgi_clusters":{"corr":{"top":[["14_77607095_77610304-2",0.8543172310765784,-239.37001833170896,839],["17_43861806_43864928-1",0.8329708854094202,-217.1258483889185,841],["11_130297959_130300517-2",0.8300736485385047,-213.26390084505837,837],["14_77607095_77610304-1",0.9362245472234985,-323.0051853474518,842],["6_34112839_34115944-1",0.8444098833295473,-229.19452166471532,842],["22_30114081_30116621-3",0.8458480782053511,-229.65422418716665,838],["11_125032896_125035661-3",0.8271150415811658,-211.92892580610533,843],["20_34891891_34894553-2",0.8314875224997488,-214.89512003190984,838],["17_78447507_78451145-3",0.8352808700569976,-219.95485669906466,843],["15_65667310_65669964-3",0.8566524490262478,-243.23024307979122,843],["14_77607095_77610304-3",0.8550018312716764,-239.30317050929878,836],["6_34109735_34112839-3",0.8475176643834422,-231.7431994275811,839],["11_125032243_125036495-3",0.8292834857746785,-214.01849514526134,843],["15_74042561_74045223-3",0.83247611966569,-216.37920702960022,840],["14_77603885_77607095-3",0.8805614140752445,-273.25463995235424,840],["7_44362432_44367328-2",0.8355850613779171,-220.26231071396464,843]],"bottom":[]},"para":{"top":[["14_77607095_77610304-2",0.8643510859101502,-251.36434461969498,839],["14_77607095_77610304-1",0.8178930760756655,-203.11746675704555,842],["16_87634506_87639284-3",0.7910500351971248,-180.7358319405715,842],["5_175224144_175226679-2",0.7659103464653084,-161.42500362528793,836],["14_77607095_77610304-3",0.834493631859338,-217.34842991863283,836],["14_77603885_77607095-3",0.8725756625051474,-262.2479294935164,840],["7_44362432_44367328-2",0.7654382154238284,-162.45019787613685,843]],"bottom":[]}}}
