{"depmap_hotspot":{"corr":{"top":[],"bottom":[]},"para":{"top":[["ASB7",0.13918582218018585,-4.454407480238293,19.0,798.0],["C9orf129",0.11429233575722685,-3.260362295792282,8.0,809.0],["FAM101B",0.10254572376875055,-2.769028354756267,12.0,805.0],["INSL6",0.11369254948508081,-3.234435754589753,14.0,803.0],["OR10AD1",0.13524712267425992,-4.251512584165191,13.0,804.0],["SBK2",0.14070095730535367,-4.53378269391098,19.0,798.0],["TCEAL5",0.10002198593094161,-2.669355238488416,12.0,805.0],["UBE2C",0.11455153413870159,-3.2719696052996783,13.0,804.0]],"bottom":[]}}}
{"depmap_damaging":{"corr":{"top":[],"bottom":[["ZFP69B",-0.11879605160970771,-3.1719709696509875,8.0,808.0]]},"para":{"top":[["DPP6",0.12456929888018325,-3.7246140755867474,13.0,803.0],["FAR2",0.09789666480868559,-2.5845491364569937,8.0,808.0],["POGK",0.1156912581423032,-3.318804686730285,8.0,808.0],["PPP6R3",0.10927570001163692,-3.042045206298141,8.0,808.0],["RHBDF2",0.1262035951875381,-3.801940126980452,9.0,807.0]],"bottom":[["ZFP69B",-0.11590246993261318,-3.328148095178274,8.0,808.0]]}}}
{"ccle_proteomics":{"corr":{"top":[],"bottom":[["FKBP8_J3KQ73",-0.3235954542160576,-5.37934811986519,194]]},"para":{"top":[],"bottom":[]}}}
{"depmap_copy_number":{"corr":{"top":[],"bottom":[]},"para":{"top":[["SLC2A8_29988",0.18465221549906594,-6.9657697175001045,816],["GARNL3_84253",0.18394643474596886,-6.916609462773398,816]],"bottom":[]}}}
{"avana":{"corr":{"top":[["SLCO1C1_53919",0.21479395399431808,-5.454713689921918,458]],"bottom":[]},"para":{"top":[],"bottom":[]}}}
{"drive":{"corr":{"top":[],"bottom":[]},"para":{"top":[["PTGDS_5730",0.27711742744715623,-6.108813325832862,308]],"bottom":[]}}}
{"achilles":{"corr":{"top":[["PTCD2_79810",0.32928299794679544,-6.026266596455866,212]],"bottom":[["PRELP_5549",-0.3039517930521773,-5.18111798865674,212]]},"para":{"top":[["PTCD2_79810",0.32462110992342486,-5.864885897473947,212]],"bottom":[["PRELP_5549",-0.31774093046486335,-5.631577490269905,212]]}}}
{"ccle_rrbs_tss1kb":{"corr":{"top":[["ZNF410_14_74352317_74353317",1.0,-323.0051853474518,808],["TCF12_15_57209287_57210287",0.35394331377414623,-24.44192581506257,805]],"bottom":[]},"para":{"top":[["ZNF410_14_74352317_74353317",1.0,-323.0051853474518,808]],"bottom":[]}}}
{"ccle_gene_tpm":{"corr":{"top":[],"bottom":[]},"para":{"top":[["RP11-498E2.7_ENSG00000269979.1",0.24938783099071093,-12.222914625465439,810]],"bottom":[["RP4-647C14.2_ENSG00000258376.1",-0.2698741722969128,-14.257643694169424,810]]}}}
{"ccle_rrbs_tss_clusters":{"corr":{"top":[["CPLANE1_1",0.40414149642462444,-29.953364691425637,746],["BICRAL_3",0.3969435406650016,-31.049083663841955,805]],"bottom":[]},"para":{"top":[["CPLANE1_1",0.3933332599072606,-28.285947010701555,746],["DGAT1_3",0.40660313267299436,-32.83143057981086,809],["KTN1_1",0.3921840896749554,-10.596608027645498,269],["BICRAL_3",0.4124326880725213,-33.67980675996136,805]],"bottom":[]}}}
{"ccle_rrbs_cgi_clusters":{"corr":{"top":[["14_74351202_74355831-2",0.9894621697164175,-323.0051853474518,817],["14_74351202_74355831-1",0.9547271446135903,-323.0051853474518,817],["6_42711166_42715986-3",0.3969435406650016,-31.049083663841955,805],["5_37246983_37251783-1",0.40414149642462444,-29.953364691425637,746]],"bottom":[]},"para":{"top":[["14_74351202_74355831-2",0.9802136163909034,-323.0051853474518,817],["14_74351202_74355831-1",0.9520387924930359,-323.0051853474518,817],["6_42711166_42715986-3",0.4124326880725213,-33.67980675996136,805],["5_37246983_37251783-1",0.3933332599072606,-28.285947010701555,746],["14_56044634_56047310-1",0.3921840896749554,-10.596608027645498,269]],"bottom":[]}}}
