{"depmap_hotspot":{"corr":{"top":[["FAM136A",0.14300303757189722,-4.506388638158353,10.0,832.0],["NPIPB7",0.19591273699027617,-8.00334891033042,8.0,834.0],["OR2AJ1",0.15052834077925326,-4.938476902398233,18.0,824.0],["TCEAL1",0.15109955451454393,-4.972140935083203,8.0,834.0]],"bottom":[]},"para":{"top":[["BYSL",0.1440295508350312,-4.829468466648613,20.0,822.0],["RLN1",0.10497027511089517,-2.932142462648304,12.0,830.0]],"bottom":[["TSSK4",-0.08265794987706007,-2.0820976431044844,11.0,831.0]]}}}
{"depmap_damaging":{"corr":{"top":[["DCBLD2",0.16378158792916417,-5.745175190728857,8.0,833.0],["KIF23",0.10939542692412182,-2.827809496406348,8.0,833.0],["LILRA1",0.150148835964534,-4.910990362284981,9.0,832.0],["PRKACA",0.15282452204653316,-5.0691762594591445,9.0,832.0]],"bottom":[]},"para":{"top":[],"bottom":[["TBC1D9B",-0.09948448082883933,-2.7051232060704424,9.0,832.0],["WDPCP",-0.10279623432819032,-2.839235470211187,8.0,833.0]]}}}
{"ccle_proteomics":{"corr":{"top":[],"bottom":[["NDUFA4_O00483",-0.2449076414854337,-5.183491065391784,331]]},"para":{"top":[["WASH6P_Q9NQA3",0.3156181506062229,-3.350957696230722,120]],"bottom":[]}}}
{"ccle_rrbs_tss1kb":{"corr":{"top":[["ZNF644_1_91487065_91488065",1.0,-323.0051853474518,832],["CKS1B_1_154946117_154947117",0.5331850070527839,-61.058838548465836,825]],"bottom":[]},"para":{"top":[["ZNF644_1_91487065_91488065",1.0,-323.0051853474518,832]],"bottom":[]}}}
{"ccle_gene_tpm":{"corr":{"top":[["RP3-520B18.1_ENSG00000220446.2",0.21157652451346254,-9.178467167857066,835],["USP9YP19_ENSG00000225326.1",0.24448555398540403,-12.103203138756752,835],["UBE2V1P11_ENSG00000231124.1",0.2947696848305876,-17.475263942715284,835],["RP11-467I17.1_ENSG00000261472.1",0.24408036826713783,-12.064429184474374,835]],"bottom":[]},"para":{"top":[],"bottom":[]}}}
{"ccle_rrbs_tss_clusters":{"corr":{"top":[["MESD",0.5618910614088051,-70.51329329408507,842]],"bottom":[]},"para":{"top":[],"bottom":[["PWP1_2",-0.21335223144499355,-4.837733640618964,406]]}}}
{"ccle_rrbs_cgi_clusters":{"corr":{"top":[["15_81279878_81284417-1",0.5618910614088051,-70.51329329408507,842],["1_154944742_154949486-1",0.5415340169692551,-64.00086802348919,834],["1_91485158_91489807-1",1.0,-323.0051853474518,842]],"bottom":[]},"para":{"top":[["1_91485158_91489807-1",0.9999999999999999,-323.0051853474518,842]],"bottom":[["20_62703080_62707943-3",-0.23673605502163372,-3.104990800785036,198],["5_6753104_6757387-3",-0.1615526372605382,-5.226526581256371,778]]}}}
