{"ccle_chromatin":{"corr":{"top":[],"bottom":[]},"para":{"top":[],"bottom":[]}}}
{"ccle_rppa":{"corr":{"top":[],"bottom":[]},"para":{"top":[],"bottom":[]}}}
{"ccle_metabolomics":{"corr":{"top":[],"bottom":[]},"para":{"top":[],"bottom":[["adenosine",-0.1352440487562282,-4.713403158147231,28.0,899.0]]}}}
{"ccle_rrbs_enhancer_clusters":{"corr":{"top":[["2-162092895-162097451-2_enh",0.18164647004552845,-2.354629130713415,8.0,236.0],["1-54926936-54930826-0_enh",0.10255895267273034,-2.4890503582200254,23.0,799.0],["1-10779239-10783744-2_enh",0.11558994247715475,-2.9638346236794453,22.0,774.0]],"bottom":[]},"para":{"top":[["2-162092895-162097451-2_enh",0.15498011413726973,-2.102141440896443,8.0,236.0],["10-119726480-119729161-0_enh",0.11933967038982433,-2.4315640435871027,11.0,494.0],["16-72927878-72930583-0_enh",0.13985659466049494,-2.5490480758811374,10.0,383.0],["1-10779239-10783744-2_enh",0.12502379697244534,-3.6736500482693337,22.0,774.0],["7-42186555-42189508-1_enh",0.11322545826084925,-1.7623032538144134,8.0,342.0]],"bottom":[]}}}
{"ccle_mirna":{"corr":{"top":[["hsa-miR-629_miR00585.1",0.12146103750378283,-3.770755679201388,27.0,927.0]],"bottom":[]},"para":{"top":[["hsa-miR-629_miR00585.1",0.11970662378201909,-3.9589552415051505,27.0,927.0]],"bottom":[]}}}
{"prism_primary_logfold":{"corr":{"top":[["aminomethyltransferase_BRD-A28318179-003-08-5::2.5::HTS",0.12553740721453907,-2.519301638121321,17.0,539.0],["pentetic-acid_BRD-K40621224-001-06-7::2.5::HTS",0.117411129215523,-2.2538776648175527,18.0,538.0],["exherin_BRD-K81795818-019-01-4::2.5::HTS",0.10235562842952872,-1.7712038471419154,18.0,526.0],["pyridoxal_BRD-K76204040-001-03-8::2.5::MTS004",0.11582296847393182,-2.1516095697597053,18.0,522.0],["lamotrigine_BRD-K93460210-001-23-7::2.5::HTS",0.11151455926504045,-2.076957104634057,18.0,540.0],["methacholine_BRD-A18056626-003-22-3::2.5::HTS",0.10760777617396194,-1.9511901726173904,18.0,537.0]],"bottom":[["rosmarinic-acid_BRD-K20313525-001-04-6::2.5::HTS",-0.14693824958180576,-3.3133959118336374,18.0,542.0],["etosalamide_BRD-K60914966-001-01-4::2.5::HTS",-0.12544798703601442,-2.5162968940008543,18.0,538.0],["zanamivir_BRD-K23067689-001-02-1::2.4::HTS",-0.14421335327913887,-3.045893001678541,15.0,512.0],["SQ-109_BRD-A08772153-001-02-4::2.500028879::MTS004",-0.1275270437068699,-2.524271166027414,18.0,522.0],["3-bromopyruvate_BRD-K92980438-001-03-3::2.5::HTS",-0.10981462721061813,-1.9337140081238609,15.0,512.0],["ME0328_BRD-A63444178-001-01-5::2.5::HTS",-0.1252806362963058,-2.5144455083855397,17.0,540.0],["phenacaine_BRD-K81092066-311-01-6::2.5::HTS",-0.13159527240607763,-2.677657266087382,18.0,526.0],["valrubicin_BRD-K72951360-001-01-4::2.5::HTS",-0.15141365090862122,-3.4472785032607063,18.0,534.0],["tosufloxacin_BRD-A41450521-075-10-8::2.5::HTS",-0.11870893979250233,-2.2747708921439145,18.0,532.0],["SKF-96365_BRD-A72703248-003-04-9::2.5::HTS",-0.1387240360520217,-2.97855564355082,18.0,537.0],["norethisterone-enanthate_BRD-K07625016-001-01-2::2.50703254::MTS004",-0.1286494782137276,-2.5576787736150486,18.0,521.0],["acadesine_BRD-K53448858-001-07-0::2.5::HTS",-0.13480843109941087,-2.7068671227554137,15.0,510.0],["elbasvir_BRD-K09735259-001-01-3::2.500007896::MTS004",-0.10828768717636678,-1.9250888282591476,18.0,521.0],["betulinic-acid_BRD-K45401373-001-22-5::2.5::HTS",-0.1255149382518121,-2.4731439519137637,18.0,526.0],["glycerol-monolaurate_BRD-A10773072-001-03-4::2.496712929::MTS004",-0.11247010151637861,-2.047445166226529,18.0,521.0],["isobutyramide_BRD-K54057105-001-01-2::2.5::HTS",-0.1264477589309679,-2.434768965587758,15.0,511.0],["trimetozine_BRD-K53220666-001-02-6::2.5::HTS",-0.11185971700416619,-2.0813716032294804,18.0,538.0]]},"para":{"top":[["exherin_BRD-K81795818-019-01-4::2.5::HTS",0.10742476335835309,-2.2099831524056635,18.0,526.0],["perflubron_BRD-K92988025-001-01-9::2.5::HTS",0.13002420398809117,-2.842971338811009,15.0,512.0]],"bottom":[["SQ-109_BRD-A08772153-001-02-4::2.500028879::MTS004",-0.1300104721689108,-2.8948611547306187,18.0,522.0],["valrubicin_BRD-K72951360-001-01-4::2.5::HTS",-0.15112687863087784,-3.709881288345801,18.0,534.0],["SCH-23390_BRD-K45435259-003-11-1::2.5::HTS",-0.113236351146677,-2.420172961610128,17.0,540.0],["acadesine_BRD-K53448858-001-07-0::2.5::HTS",-0.14280788094274388,-3.2666029821440326,15.0,510.0],["betulinic-acid_BRD-K45401373-001-22-5::2.5::HTS",-0.125356139833466,-2.7573849471795033,18.0,526.0],["biperiden_BRD-A00546892-001-02-6::2.5::HTS",-0.11989253328720795,-2.6211828923643883,18.0,537.0],["GSK163090_BRD-K69669039-001-01-8::2.499979212::MTS004",-0.14509948235000844,-3.4217116266825474,18.0,522.0],["isobutyramide_BRD-K54057105-001-01-2::2.5::HTS",-0.139651217303651,-3.1613735056092924,15.0,511.0]]}}}
{"prism_secondary_logfold":{"corr":{"top":[["2'-MeCCPA_BRD-K63932022-001-01-5::0.0024414::HTS002",0.1383099957904707,-2.474606840876283,17.0,431.0],["AZD1480_BRD-K65928735-001-04-3::0.15625::HTS002",0.13911828397048046,-2.6382180696114337,17.0,461.0],["WZ-3146_BRD-K73293050-001-03-1::0.625::HTS002",0.1472782475191199,-2.7510084212070565,17.0,431.0],["gimeracil_BRD-K35687421-001-02-5::2.5::HTS002",0.1304031531341301,-2.330219683429594,17.0,452.0],["homoquinolinic-acid_BRD-K30519779-001-03-1::0.00976562::HTS002",0.13428853905140956,-2.35566828015587,17.0,431.0],["PTC-209_BRD-K83834509-001-01-1::0.0390625::HTS002",0.12670247892381162,-2.1943935063888973,18.0,444.0],["ADL5859_BRD-K39624409-003-02-6::0.0390625::HTS002",0.13445552061178956,-2.3561752317249742,15.0,432.0],["tyrphostin-A9_BRD-K40255344-001-17-6::0.0390625::HTS002",0.1755000965282457,-3.867905098907407,18.0,450.0],["SR-27897_BRD-K35629949-001-02-0::0.00061034::HTS002",0.12416376997064135,-2.1826288599325956,17.0,461.0],["mifepristone_BRD-K37270826-001-27-6::0.0103883::HTS002",0.12517146293620643,-2.192863716192193,18.0,455.0],["vincamine_BRD-K89704198-001-12-3::0.625::HTS002",0.14451007583349343,-2.7887669243564215,18.0,455.0],["ispinesib_BRD-K64881305-001-03-7::0.00061034::HTS002",0.1434473692401723,-2.724579360869095,18.0,449.0],["linsitinib_BRD-K86118762-001-01-8::0.625::HTS002",0.14973002592332754,-2.566376278516991,16.0,383.0],["picolinic-acid_BRD-K01029106-001-01-4::0.00983622::HTS002",0.13219282771608445,-2.197288007105077,15.0,410.0],["vismodegib_BRD-K44827188-001-06-0::0.625::HTS002",0.15084672465477791,-2.83820666100055,15.0,428.0],["cobimetinib_BRD-K03390685-001-01-7::0.00244::MTS010::PROS001_PR500",0.1658681519326161,-3.445144698558257,18.0,441.0],["L-798,106_BRD-K43905307-001-01-2::0.00976562::HTS002",0.1711672148762766,-3.660276274630479,18.0,444.0],["AVL-292_BRD-K87782578-001-01-4::0.0024414::HTS002",0.15720379899395515,-1.904285685995693,10.0,242.0],["bucladesine_BRD-A94624445-236-17-0::0.0024414::HTS002",0.2096056141097255,-3.08956825999273,10.0,242.0],["dimethisoquin_BRD-K73391359-003-10-2::0.15625::HTS002",0.16619631699979703,-2.086001751154036,10.0,242.0],["tiotidine_BRD-K15071410-001-01-1::0.00061034::HTS002",0.1259387772456259,-2.2343447862825885,17.0,461.0],["NVP-AEW541_BRD-K24696047-001-02-3::0.0024414::HTS002",0.13413375148286255,-2.4250015798249485,17.0,448.0],["7-aminocephalosporanic-acid_BRD-K65377893-001-07-4::0.161363::HTS002",0.12590320576029917,-2.113642220609215,14.0,433.0],["panobinostat_BRD-K02130563-001-11-4::0.0024414::HTS002",0.12673408338271894,-2.1326836843460377,15.0,431.0],["triclabendazole_BRD-K81916719-001-13-9::0.00061034::HTS002",0.12634279226106523,-2.2113120944068623,18.0,451.0],["WP1130_BRD-K43644456-001-04-0::0.00929035::HTS002",0.1462998599775151,-2.8120531664524635,18.0,448.0],["ornithine_BRD-A13561534-003-02-0::2.5::HTS002",0.12403212032936294,-2.137590639360961,18.0,449.0],["odanacatib_BRD-K22822991-001-02-3::0.0390625::HTS002",0.169380722941316,-2.117228646199554,8.0,239.0],["TMC-353121_BRD-K66097663-001-01-8::0.00061034::HTS002",0.1409325019739678,-2.644319954067526,18.0,449.0],["Y-320_BRD-K96259238-001-01-4::0.00976562::HTS002",0.13661112870416822,-2.419483949021044,17.0,430.0],["CNX-2006_BRD-K24869513-001-02-1::0.0024414::HTS002",0.13145121214196934,-2.2652160349360653,15.0,431.0],["CNX-774_BRD-K48443249-001-01-0::0.0390625::HTS002",0.1732891901574188,-3.7613979684494665,17.0,448.0],["GW-788388_BRD-K78086729-001-02-7::0.15625::HTS002",0.1313823040318621,-2.330166331575314,18.0,444.0],["oxyphencyclimine_BRD-A58193911-003-18-7::0.00976562::HTS002",0.1402581141488104,-2.6230132827419377,18.0,449.0],["INC-280_BRD-K81016934-001-02-0::0.00977::MTS010::PROS004_PR500",0.1274865782007855,-2.2365872542937173,18.0,449.0],["LY2784544_BRD-K25630527-001-03-8::0.00976562::HTS002",0.12582278495942711,-2.200168644424869,18.0,452.0],["neratinib_BRD-K85606544-001-09-1::0.00976562::HTS002",0.1274363532516033,-2.2509002052203617,18.0,453.0],["CGP-54626_BRD-A74208568-003-01-5::0.0024414::HTS002",0.13764364308324253,-1.5387960521963133,10.0,242.0],["SAR131675_BRD-K38904395-001-02-3::0.0390625::HTS002",0.15146965658455686,-2.885518279741405,17.0,431.0],["GDC-0152_BRD-K68938568-001-01-7::0.00061034::HTS002",0.13285524559352435,-2.309745639029075,15.0,432.0],["alpelisib_BRD-K54997624-001-06-0::0.0390625::HTS002",0.13079023292791778,-1.932395737936978,14.0,357.0],["eptifibatide_BRD-A90547603-001-02-5::0.15625::HTS002",0.1297869371257772,-2.299727881254432,18.0,448.0],["diazooxonorleucine_BRD-K38458514-001-01-8::0.00244141::HTS002",0.13180845733215696,-2.3847184078690553,18.0,454.0],["triapine_BRD-K01669786-001-02-2::0.0390625::HTS002",0.12814811876623908,-2.263779501299934,18.0,451.0],["adarotene_BRD-K00152668-001-01-5::0.00061034::HTS002",0.15751183374537991,-3.079578072003509,15.0,432.0],["adarotene_BRD-K00152668-001-01-5::0.0390625::HTS002",0.1346656572539339,-2.3623080340345446,15.0,432.0],["CHIR-124_BRD-K02241333-001-02-7::0.00976562::HTS002",0.1738753778619514,-3.6632273113942277,17.0,431.0],["crenolanib_BRD-K22127577-001-03-7::0.000628853::HTS002",0.156855528044842,-3.191538443901025,18.0,452.0]],"bottom":[["lapatinib_BRD-K19687926-379-07-4::0.0390625::HTS002",-0.14407667135339924,-2.769631979875694,18.0,454.0],["carmofur_BRD-K11630072-001-13-2::0.0390625::HTS002",-0.1455748871431991,-2.437690331381909,12.0,385.0],["ciclesonide_BRD-K35245662-001-01-2::0.0024414::HTS002",-0.19177073724508417,-4.0992699364709555,14.0,404.0],["bardoxolone-methyl_BRD-K69694239-001-02-2::0.0391::MTS010::PROS002_PR500",-0.13452553105969506,-2.318809004660759,17.0,421.0],["cidofovir_BRD-K96153583-001-05-1::0.629478::HTS002",-0.1665525682151826,-3.515626217640984,17.0,449.0],["noretynodrel_BRD-A00758722-001-04-9::0.0390625::HTS002",-0.17786280378298705,-3.5371258287072727,15.0,396.0],["creatine_BRD-K19615002-001-02-3::0.00976562::HTS002",-0.1547898357522077,-2.8405712699977848,16.0,405.0],["Ro-106-9920_BRD-A53134341-001-03-2::0.0024414::HTS002",-0.1427576126908373,-2.6975685283726754,18.0,448.0],["nobiletin_BRD-K06753942-001-14-5::10::HTS002",-0.1585061998050349,-3.23789831602729,17.0,451.0],["JTE-607_BRD-K81405859-300-01-4::0.0390625::MTS006",-0.1347651993204091,-2.461598865425677,18.0,451.0],["istradefylline_BRD-K87774949-001-03-9::0.0390625::HTS002",-0.15420125040890276,-2.434053039077956,10.0,343.0],["ciclesonide_BRD-K35245662-001-01-2::0.0390625::HTS002",-0.1470943423970575,-2.589758388975149,14.0,404.0],["epinastine_BRD-A98990573-003-01-3::2.5::HTS002",-0.13332809073925475,-2.392165470345591,17.0,446.0],["phenazone_BRD-K46937689-001-15-0::10::HTS002",-0.15296638478963573,-2.727933861096365,15.0,396.0],["IKK-2-inhibitor-V_BRD-K74305673-001-06-2::2.5::HTS002",-0.15479558508873262,-3.15368231798291,17.0,459.0],["XL-647_BRD-K03765900-001-01-9::0.00977::MTS010::PROS002_PR500",-0.14345317224097948,-2.581877792680626,17.0,421.0],["indibulin_BRD-K74057757-001-01-9::0.15625::HTS002",-0.1676034383540326,-3.534627882879727,18.0,445.0],["prednisolone-tebutate_BRD-A53151380-001-01-2::2.5::HTS002",-0.17622754710000968,-2.9429703517202506,14.0,324.0],["sobetirome_BRD-K85406984-001-01-0::0.00061034::HTS002",-0.15926461037872852,-2.8918009856884557,14.0,392.0],["AST-1306_BRD-K26838195-075-04-9::0.00976562::HTS002",-0.14346491265794728,-1.931256330562257,10.0,298.0],["quinethazone_BRD-A59303141-001-10-4::0.00061034::HTS002",-0.17091685139411794,-3.3344917950924424,14.0,402.0],["piperazine_BRD-K13249881-001-02-3::10::HTS002",-0.14482495702987697,-2.487550220677621,15.0,396.0],["ajmaline_BRD-A48300215-001-04-8::0.0390625::HTS002",-0.21650895477942095,-5.132020979842406,16.0,405.0],["VU0361737_BRD-K45462423-001-03-7::2.5::HTS002",-0.13610428195542268,-2.4759526727952896,17.0,446.0],["2-methoxyestradiol_BRD-K44408410-001-17-6::2.5::MTS010::PROS001_PR500",-0.15037252582148866,-2.9038053615356856,18.0,440.0],["sulfamethazine_BRD-K11640013-236-10-1::0.15625::HTS002",-0.15621523253772418,-3.1286880337196417,17.0,446.0]]},"para":{"top":[["LY2109761_BRD-K47557313-001-02-7::0.0390625::HTS002",0.12528909469811453,-2.4611249423825172,18.0,448.0],["AZD1480_BRD-K65928735-001-04-3::0.15625::HTS002",0.13028532949929975,-2.6529634994345557,17.0,461.0],["WZ-3146_BRD-K73293050-001-03-1::0.625::HTS002",0.1536579669307926,-3.2353540194376644,17.0,431.0],["ADL5859_BRD-K39624409-003-02-6::0.0390625::HTS002",0.12703005944800866,-2.436220718140278,15.0,432.0],["AM-404_BRD-K55462201-001-07-3::0.00061034::HTS002",0.1440505415767305,-1.946746731571746,10.0,242.0],["tyrphostin-A9_BRD-K40255344-001-17-6::0.0390625::HTS002",0.174069148307189,-4.072152289297966,18.0,450.0],["vincamine_BRD-K89704198-001-12-3::0.625::HTS002",0.14611209889734542,-3.123150214398028,18.0,455.0],["ispinesib_BRD-K64881305-001-03-7::0.00061034::HTS002",0.15846374228543636,-3.5041038568523573,18.0,449.0],["nafcillin_BRD-K18574842-236-17-7::0.0024414::HTS002",0.11919628113422279,-2.0517216372998406,12.0,385.0],["cobimetinib_BRD-K03390685-001-01-7::0.00244::MTS010::PROS001_PR500",0.16750973873928768,-3.771566501003597,18.0,441.0],["AVL-292_BRD-K87782578-001-01-4::0.0024414::HTS002",0.15466914620434513,-2.1439683307564277,10.0,242.0],["bucladesine_BRD-A94624445-236-17-0::0.0024414::HTS002",0.19225400546925991,-2.932339646561594,10.0,242.0],["WP1130_BRD-K43644456-001-04-0::0.00929035::HTS002",0.14830216055025777,-3.1585492781910856,18.0,448.0],["odanacatib_BRD-K22822991-001-02-3::0.0390625::HTS002",0.17448279805490313,-2.5048487800018995,8.0,239.0],["neratinib_BRD-K85606544-001-09-1::0.00976562::HTS002",0.136427034603123,-2.808458093743854,18.0,453.0],["acivicin_BRD-K13050541-001-01-9::0.174997::HTS002",0.11473907521685645,-1.8863002479084294,11.0,367.0],["bardoxolone_BRD-K20545304-001-01-6::0.0024414::HTS002",0.13358841885622832,-1.740255371531374,8.0,239.0],["CHIR-124_BRD-K02241333-001-02-7::0.00976562::HTS002",0.1370365610084209,-2.724040412945209,17.0,431.0],["adarotene_BRD-K00152668-001-01-5::0.00061034::HTS002",0.16188020474904666,-3.500614105789098,15.0,432.0],["crenolanib_BRD-K22127577-001-03-7::0.000628853::HTS002",0.17008454654801747,-3.9375577400922035,18.0,452.0]],"bottom":[["ciclesonide_BRD-K35245662-001-01-2::0.0024414::HTS002",-0.1977445671083885,-4.567395616497492,14.0,404.0],["bardoxolone-methyl_BRD-K69694239-001-02-2::0.0391::MTS010::PROS002_PR500",-0.14093200390487126,-2.792088121020718,17.0,421.0],["noretynodrel_BRD-A00758722-001-04-9::0.0390625::HTS002",-0.16994485801121853,-3.5363426809036813,15.0,396.0],["istradefylline_BRD-K87774949-001-03-9::0.0390625::HTS002",-0.11477877528658538,-1.8039940670218835,10.0,343.0],["chloropyramine_BRD-K83257731-003-23-5::0.00061034::HTS002",-0.11545291278428457,-1.7569223655109638,10.0,325.0],["ciclesonide_BRD-K35245662-001-01-2::0.0390625::HTS002",-0.14573259196966964,-2.8339225693699412,14.0,404.0],["epinastine_BRD-A98990573-003-01-3::2.5::HTS002",-0.13412881607238614,-2.7043485259701785,17.0,446.0],["phenazone_BRD-K46937689-001-15-0::10::HTS002",-0.13866801111316646,-2.6016181693542118,15.0,396.0],["abiraterone-acetate_BRD-K24048528-001-02-5::10::HTS002",-0.15664187484679426,-3.159329540256656,14.0,404.0],["halobetasol-propionate_BRD-K65877271-001-01-8::0.625::HTS002",-0.1488580121240814,-3.1765879345461934,17.0,449.0],["clofibrate_BRD-K45252063-001-13-6::2.5::HTS002",-0.1343351776229259,-2.3622873974781275,12.0,371.0],["proscillaridin-a_BRD-A11815689-001-01-1::0.00061034::HTS002",-0.1260077596080088,-1.698107796749118,9.0,258.0],["prednisolone-tebutate_BRD-A53151380-001-01-2::2.5::HTS002",-0.165869295827272,-2.9321895891499876,14.0,324.0],["AST-1306_BRD-K26838195-075-04-9::0.00976562::HTS002",-0.1349507966674586,-2.042364586124924,10.0,298.0],["flumethasone-pivalate_BRD-A50064262-001-04-7::0.15625::HTS002",-0.11956898487354514,-2.236623617525505,15.0,432.0],["quinethazone_BRD-A59303141-001-10-4::0.00061034::HTS002",-0.1512925866931452,-2.9864200586568383,14.0,402.0],["2-methoxyestradiol_BRD-K44408410-001-17-6::2.5::MTS010::PROS001_PR500",-0.1469463488435528,-3.073938162419576,18.0,440.0],["sulfamethazine_BRD-K11640013-236-10-1::0.15625::HTS002",-0.13786649636389076,-2.8163794261493265,17.0,446.0]]}}}
{"ccle_proteomics":{"corr":{"top":[["ATP5O_P48047",0.21090935482387835,-4.395051638053502,11.0,362.0],["UNG_P13051",0.1805611300607638,-3.2699352781462796,10.0,354.0],["FAM185A_Q8N0U4",0.21649474032872992,-4.01303185650692,10.0,309.0],["ABHD11_Q8NFV4",0.24242114005894608,-5.663859302904804,11.0,362.0],["CHCHD1_Q96BP2",0.16961460616586568,-2.5630358952905232,9.0,301.0],["ANK3_Q12955",0.2595824048816724,-6.432194794202465,11.0,362.0],["ATP5B_F8W0P7",0.18505571211705338,-3.047158790411764,9.0,310.0],["ATPAF1_Q5TC12",0.2122904663364928,-4.44691070475958,11.0,362.0],["SRCIN1_Q9C0H9-5",0.18660314078924414,-2.7999092794049627,10.0,274.0],["THNSL1_Q8IYQ7",0.2185450775951309,-4.686011199981199,11.0,362.0],["DLD_P09622",0.17813885355923378,-3.2619387619899887,11.0,362.0],["NUDT14_O95848",0.18804820945255996,-2.6841071921442383,9.0,257.0],["ECH1_Q13011",0.17744438325117634,-3.2399106008217116,11.0,362.0],["PURA_Q00577",0.16819136450184746,-2.9540937364611897,11.0,362.0],["ECHS1_P30084",0.1842550268854337,-3.4594467045797583,11.0,362.0],["OGDHL_Q9ULD0",0.17066624327252933,-3.0291456710637266,11.0,362.0],["LIPT2_A6NK58",0.17197465176602678,-2.17117456184042,10.0,237.0],["ATP5A1_P25705",0.18138520699065147,-3.365986424309271,11.0,362.0],["HYOU1_Q9Y4L1",0.18778902765896974,-3.576456133039124,11.0,362.0],["MBTPS2_O43462",0.18234880925805394,-2.1910930422680597,8.0,214.0],["CPT2_P23786",0.2158941815074926,-4.583821138900988,11.0,362.0],["NIPSNAP1_Q9BPW8",0.19838079638905545,-3.939948183054054,11.0,362.0],["ERLIN2_O94905",0.20829508771418304,-4.297812783173815,11.0,362.0],["GORAB_Q5T7V8",0.17066386240672957,-3.029072982455944,11.0,362.0],["FECH_P22830-2",0.21968697851163513,-4.730418443280906,11.0,362.0],["PDIA4_P13667",0.18178540394258816,-3.3789359390185147,11.0,362.0],["EPHX2_P34913",0.19767139369092276,-3.6666423030250415,10.0,336.0]],"bottom":[["MYL12A_P19105",-0.1584125223591214,-2.6674077926843087,11.0,362.0],["RUNX1_Q01196-8",-0.20082754028423033,-4.0266705464450645,11.0,362.0],["EHBP1L1_Q8N3D4",-0.21827284295760999,-4.675458818868659,11.0,362.0],["TBC1D22A_Q8WUA7",-0.19007563503593947,-3.576641014994089,11.0,353.0],["NR3C1_P04150",-0.22284372450862036,-4.854400539920756,11.0,362.0],["ARHGAP42_A6NI28",-0.20018141357293642,-3.0838875962464614,9.0,267.0],["STAMBPL1_Q96FJ0",-0.1658057560977737,-2.764435888231306,11.0,344.0],["SP100_P23497-4",-0.22689610966071713,-5.016197469009588,11.0,362.0],["AAMP_Q13685",-0.1798542954668107,-3.3166987166614716,11.0,362.0],["SMYD2_Q9NRG4",-0.16881296455555414,-2.911721655959803,11.0,353.0],["RAC2_B1AH77",-0.16479172935730646,-2.8526474017718493,11.0,362.0],["MLTK_Q9NYL2",-0.1798876704168573,-3.3177690129209787,11.0,362.0],["TCIRG1_Q13488",-0.16814783262360172,-2.9527826804248813,11.0,362.0],["RGS14_O43566",-0.29996400147785107,-4.862029562122864,8.0,195.0],["IFI27L2_Q9H2X8",-0.23056352532520177,-3.614325860703487,10.0,239.0],["CYB5R4_Q7L1T6",-0.17548712910995012,-2.6486664521879746,8.0,293.0],["RAP2B_P61225",-0.171282386318199,-3.04798834157136,11.0,362.0],["THBD_P07204",-0.20885617953718702,-3.5998660766664634,11.0,292.0],["CASP4_P49662",-0.17814745784861016,-3.262212192263466,11.0,362.0]]},"para":{"top":[["UNG_P13051",0.1617113329370033,-2.9843161698454064,10.0,354.0],["SPINT2_O43291",0.17454907987657198,-3.4173748801273964,11.0,362.0],["FAM185A_Q8N0U4",0.1937914922811651,-3.5589149635004875,10.0,309.0],["ABHD11_Q8NFV4",0.1895608894443716,-3.89027949085671,11.0,362.0],["NEBL_O76041",0.15905744719744522,-2.693753953409791,8.0,320.0],["NAGA_P17050",0.1624807717738001,-3.0620168597604818,11.0,362.0],["TJP3_O95049-2",0.1849044335052497,-3.66826023462066,10.0,354.0],["DPCD_Q9BVM2",0.15739269139388715,-2.8657222144935273,10.0,354.0],["ANK3_Q12955",0.2136976109118121,-4.722972365099114,11.0,362.0],["EXOG_Q9Y2C4",0.1669273738829872,-3.1313105080400074,11.0,353.0],["EXD2_Q9NVH0",0.16616014668226234,-3.1680236332862393,11.0,362.0],["THNSL1_Q8IYQ7",0.17396037140561052,-3.399528164329354,11.0,362.0],["SRCIN1_Q9C0H9-5",0.18909863270403046,-3.131659054428634,10.0,274.0],["NUDT6_P53370",0.16277517745762,-3.070423803417069,11.0,362.0],["DLD_P09622",0.16262791818166428,-3.0662170867870513,11.0,362.0],["NUDT14_O95848",0.18900789202263923,-2.9772215576209473,9.0,257.0],["RPP14_P86397",0.19198732557006457,-2.4221996368899106,8.0,187.0],["CASZ1_Q86V15",0.1646933409957799,-2.835999837391521,8.0,320.0],["IMMP1L_Q96LU5",0.21758194945464723,-3.199912922650773,8.0,213.0],["TCTN3_Q6NUS6",0.17717909441610163,-3.2327190059117608,9.0,328.0],["DHRS2_Q13268",0.1880892195215537,-3.8423989113124475,11.0,362.0],["ITPRIPL2_Q3MIP1",0.1519443950915895,-2.531455310924296,9.0,321.0],["CAMSAP3_Q9P1Y5",0.1775466998496513,-3.4426657598865362,10.0,354.0],["HYOU1_Q9Y4L1",0.17373965973186034,-3.3928508408824465,11.0,362.0],["DNAJC3_Q13217",0.16181849537391277,-3.043152900135918,11.0,362.0],["MPP2_Q14168",0.1543535952716042,-2.7839042783379977,10.0,354.0],["MBTPS2_O43462",0.17687384325873537,-2.365327689678941,8.0,214.0],["DLG3_Q92796-2",0.16539025663731868,-3.0875037989924894,10.0,354.0],["SELM_Q8WWX9",0.17231489442118214,-2.6677316588429925,9.0,267.0],["CPT2_P23786",0.18602872046623534,-3.7759169325203055,11.0,362.0],["PPIB_P23284",0.17808127036311308,-3.5255588907442426,11.0,362.0],["XPC_Q01831",0.16939794916479234,-3.263000482275145,11.0,362.0],["MARVELD2_Q8N4S9",0.17053789910863534,-2.987937060496058,8.0,320.0],["FN3K_Q9H479",0.16814699434018712,-3.2261172995041587,11.0,362.0],["COQ9_O75208",0.1604202808352351,-3.0035439531481747,11.0,362.0],["NIPSNAP1_Q9BPW8",0.1835268049635191,-3.6960640011792307,11.0,362.0],["ERLIN2_O94905",0.1982442139778631,-4.17953947568371,11.0,362.0],["SIRT3_Q9NTG7",0.16358458136465467,-3.0936042409543987,11.0,362.0],["FECH_P22830-2",0.18448340827944681,-3.726482859696205,11.0,362.0],["PHYH_O14832",0.1585070664099173,-2.949823029676456,11.0,362.0],["PDIA4_P13667",0.16586574949804775,-3.159466486778946,11.0,362.0],["SDR39U1_Q9NRG7-2",0.1664544959235064,-3.176592482220709,11.0,362.0],["TRMU_O75648",0.17079610773739487,-3.3045042297047136,11.0,362.0],["RAB3D_O95716",0.16071470430088228,-3.0118599665391907,11.0,362.0],["CBX8_Q9HC52",0.16674882588546042,-3.185173865372436,11.0,362.0],["GBAS_O75323",0.16233361593049517,-3.0578196290866777,11.0,362.0],["PDIA5_Q14554",0.17396035129253998,-3.3995275557572455,11.0,362.0],["THAP11_Q96EK4",0.18051097827322035,-3.119571346153795,8.0,302.0],["PQLC1_Q8N2U9",0.18954365280602067,-2.9982554391489127,8.0,259.0],["EPHX2_P34913",0.18990758479581044,-3.6754612358147667,10.0,336.0]],"bottom":[["CD38_P28907",-0.17499691525159106,-2.91134914436398,9.0,292.0],["MYL12A_P19105",-0.1735925553411939,-3.3884045083205714,11.0,362.0],["RUNX1_Q01196-8",-0.18882499459463822,-3.8662958667540117,11.0,362.0],["EHBP1L1_Q8N3D4",-0.20972378589038151,-4.579716575936726,11.0,362.0],["TBC1D22A_Q8WUA7",-0.17127998766636493,-3.256956931816157,11.0,353.0],["RASSF2_P50749",-0.18329941685223766,-2.9875396756972785,11.0,273.0],["BICD2_Q8TD16-2",-0.1510747480685052,-2.7463502322191014,11.0,362.0],["NR3C1_P04150",-0.19522710039724397,-4.077723199547006,11.0,362.0],["TTC7A_Q9ULT0",-0.17188156572570576,-2.9605402660372766,8.0,311.0],["CARD11_Q9BXL7",-0.17395576817564637,-2.5669313607802433,8.0,249.0],["LCP2_Q13094",-0.20687455437558355,-3.327408535744285,8.0,249.0],["RBMS1_P29558",-0.16344117079094156,-2.982010521838411,10.0,346.0],["NEK6_Q9HC98-2",-0.1776180455167215,-3.4449235801041107,11.0,353.0],["ARHGAP42_A6NI28",-0.19523052673529248,-3.2165660574097386,9.0,267.0],["IRF2_P14316",-0.1641019383426623,-3.051243784940028,11.0,353.0],["HMGA1_P17096",-0.15306156120494208,-2.7999312014311415,11.0,362.0],["STAMBPL1_Q96FJ0",-0.17846008570463615,-3.4033075106928994,11.0,344.0],["BOD1L1_Q8NFC6",-0.14923505668354464,-2.6972638195162073,11.0,362.0],["UGCG_Q16739",-0.16520111770173498,-2.8556639617651305,9.0,320.0],["KYNU_Q16719",-0.20220419365226802,-4.239998838557339,11.0,354.0],["SP100_P23497-4",-0.19677246777164287,-4.129699126437603,11.0,362.0],["AAMP_Q13685",-0.1723414807483873,-3.3507226150248637,11.0,362.0],["PYCARD_Q9ULZ3",-0.19471204559529967,-4.060481515357216,11.0,362.0],["RAC2_B1AH77",-0.19699325247869132,-4.137154762642405,11.0,362.0],["TCIRG1_Q13488",-0.1873532920518335,-3.818579766603417,11.0,362.0],["ANKRD44_Q8N8A2-2",-0.15291404708565634,-2.745620569099703,10.0,354.0],["AKAP2_Q9Y2D5-6",-0.16586579744101831,-3.159467878637622,11.0,362.0],["SHKBP1_Q8TBC3",-0.16391479824118663,-2.70062143391914,8.0,302.0],["TGFBR2_P37173-2",-0.16696885191616742,-2.96092584058264,9.0,329.0],["SUMO3_A8MUA9",-0.141353777059316,-2.3228835545226065,9.0,329.0],["PANX1_Q96RD7",-0.1753585401964043,-3.441999614900922,11.0,362.0],["FEM1B_Q9UK73",-0.1530793038500567,-2.4457163430544755,9.0,301.0],["RTN4_Q9NQC3",-0.16483551792244336,-3.129624171795084,11.0,362.0],["HPCAL1_P37235",-0.14679891735654793,-2.4927833714083953,9.0,337.0],["RGS14_O43566",-0.1961523718886069,-2.572154821022257,8.0,195.0],["IFI27L2_Q9H2X8",-0.23022077851852912,-3.837299765098105,10.0,239.0],["IFI16_Q16666",-0.19552151740528947,-4.087597201871804,11.0,362.0],["RAP2B_P61225",-0.1749906745000996,-3.430796372270964,11.0,362.0],["WAS_P42768",-0.1617185742141072,-2.484356064155393,10.0,274.0],["THBD_P07204",-0.19224529790004083,-3.376513029064505,11.0,292.0]]}}}
{"depmap_copy_number":{"corr":{"top":[["ZNF140_7699",0.08497442498025579,-3.3813800564839087,40.0,1682.0],["LOC105378430_105378430",0.0780485022618367,-2.924613055498185,40.0,1682.0],["PUS1_80324",0.07829445867203297,-2.9402456993472095,40.0,1682.0],["RPP30_10556",0.07903772250579431,-2.9877489064721727,40.0,1682.0],["ZNF268_10795",0.08329571546018925,-3.267506193699285,40.0,1682.0],["SLC16A12-AS1_101926906",0.0792160382030017,-2.9992040405691722,40.0,1682.0],["PNLIPRP2_5408",0.07876417482937458,-2.9702201523885177,40.0,1682.0],["LINC02370_338797",0.08007082841479518,-3.054432083645067,40.0,1682.0],["IFIT3_3437",0.07829061142496874,-2.940000841444061,40.0,1682.0],["ZNF84_7637",0.08357560071009487,-3.286351007964792,40.0,1682.0],["IFIT1_3434",0.0787990789344402,-2.9724538095737407,40.0,1682.0],["LINC02653_101926942",0.07965310128568683,-3.0273774238535527,40.0,1682.0],["ANHX_647589",0.08389331313564678,-3.307811069818104,40.0,1682.0],["LINC00865_643529",0.07910446693136605,-2.9920339578349964,40.0,1682.0],["IDE_3416",0.07879484477514374,-2.972182801941114,40.0,1682.0],["VAX1_11023",0.07911750245418653,-2.9928712215122713,40.0,1682.0],["GFRA1_2674",0.07859869812037663,-2.9596424564238277,40.0,1682.0],["EMX2_2018",0.07964321679350682,-3.026738753212253,40.0,1682.0],["LINC01375_101926924",0.07910391567729434,-2.991998553798167,40.0,1682.0],["PANK1_53354",0.07959735163195894,-3.0237761635383977,40.0,1682.0],["SNORD158_109623470",0.07883280015612508,-2.9746125955405947,40.0,1682.0],["KIF11_3832",0.07879829183292993,-2.972403430123103,40.0,1682.0],["ZNF10_7556",0.08340256968853119,-3.2746940906737763,40.0,1682.0],["LINC00502_100874184",0.0780485022618367,-2.924613055498185,40.0,1682.0],["EMX2OS_196047",0.07964321679350682,-3.026738753212253,40.0,1682.0],["MARK2P9_100507674",0.07879484477514374,-2.972182801941114,40.0,1682.0],["HSPA12A_259217",0.08003576673603124,-3.0521564668866206,40.0,1682.0],["PNLIPRP1_5407",0.07891136891052122,-2.979645609193589,40.0,1682.0],["RBP4_5950",0.07815581766049057,-2.9314285641870557,40.0,1682.0],["LIPA_3988",0.07869400537881784,-2.965732353362248,40.0,1682.0],["ANKRD1_27063",0.07866648844501167,-2.963973423735424,40.0,1682.0],["IFIT1B_439996",0.0787990789344402,-2.9724538095737407,40.0,1682.0],["MIR3663_100500893",0.0793180269917353,-3.0057660919498472,40.0,1682.0],["PDZD8_118987",0.0797334698321913,-3.03257290277833,40.0,1682.0],["LOC101928597_101928597",0.08357560071009487,-3.286351007964792,40.0,1682.0],["C10orf82_143379",0.08003576673603124,-3.0521564668866206,40.0,1682.0],["MIR3663HG_101927704",0.0793180269917353,-3.0057660919498472,40.0,1682.0],["PDE6C_5146",0.07815581766049057,-2.9314285641870557,40.0,1682.0],["KIF20B_9585",0.080170863763389,-3.0609295386934012,40.0,1682.0],["MIR107_406901",0.07959735698287694,-3.0237765090850184,40.0,1682.0],["KCNK18_338567",0.07894868124772243,-2.982037333904908,40.0,1682.0],["EP400_57634",0.07840088934046442,-2.947023663319452,40.0,1682.0],["SLC18A2_6571",0.07937027356378479,-3.00913056382399,40.0,1682.0],["FLJ37201_283011",0.080170863763389,-3.0609295386934012,40.0,1682.0],["LINC01374_105378425",0.07910446693136605,-2.9920339578349964,40.0,1682.0],["XLOC_008559_105378427",0.07804823799046876,-2.924596281990932,40.0,1682.0],["IFIT2_3433",0.07848490780306464,-2.9523800313739597,40.0,1682.0],["CEP55_55165",0.07918028793335526,-2.9969055953923975,40.0,1682.0],["HTR7_3363",0.07957647003416304,-3.0224278471685246,40.0,1682.0],["CCDC172_374355",0.07954461321704741,-3.02037146601239,40.0,1682.0],["SLC16A12_387700",0.07945936496079635,-3.0148721970301446,40.0,1682.0],["ZNF891_101060200",0.08340256968853119,-3.2746940906737763,40.0,1682.0],["MYOF_26509",0.07905158701446229,-2.988638758316609,40.0,1682.0],["IFIT5_24138",0.07902981748819787,-2.9872416081374897,40.0,1682.0]],"bottom":[["CCHCR1_54535",-0.07132000163218143,-2.5136328625863915,40.0,1682.0],["PSORS1C2_170680",-0.07132000163218143,-2.5136328625863915,40.0,1682.0]]},"para":{"top":[],"bottom":[]}}}
{"depmap_gene_tpm":{"corr":{"top":[["HAPLN2_60484",0.13919538477605806,-6.3241960849793415,33.0,1266.0],["GNRH2_2797",0.14688481723727423,-6.978547705944826,33.0,1266.0],["ZNF799_90576",0.13869824354478455,-6.283071892926561,33.0,1266.0],["CHRNA2_1135",0.20284233283109046,-12.802465850025584,33.0,1266.0],["CHRNA10_57053",0.13079136731003319,-5.648163167947524,33.0,1266.0],["ZNF557_79230",0.13494808462087293,-5.97745401198506,33.0,1266.0],["EFCAB12_90288",0.13919823234776044,-6.324432051877247,33.0,1266.0],["MAL_4118",0.12745475660967087,-5.39100252912673,33.0,1266.0],["ZSCAN5C_649137",0.15973336521796552,-8.149191249017225,33.0,1266.0],["KDM6B_23135",0.1278262619820707,-5.419320734264626,33.0,1266.0],["TBC1D26_353149",0.18412316912254065,-10.64234772962502,33.0,1266.0],["CT45A7_101060211",0.158315797017353,-8.015252964283043,33.0,1266.0],["ZNF709_163051",0.1266985293758339,-5.333601836118164,33.0,1266.0],["ZNF432_9668",0.12638496199096047,-5.309896392648709,33.0,1266.0],["CABP1_9478",0.15117136027054448,-7.3582993355414255,33.0,1266.0],["ZNF823_55552",0.12399142513956155,-5.130790502193281,33.0,1266.0],["ONECUT3_390874",0.19607770811480726,-11.99674159461528,33.0,1266.0],["POM121L2_94026",0.1382358136747234,-6.244947405094087,33.0,1266.0],["ZNF791_163049",0.12559266129504906,-5.25024855630871,33.0,1266.0],["NOX3_50508",0.1391346184073799,-6.319161737246429,33.0,1266.0],["ADGRL1_22859",0.12384068327683131,-5.119619634801648,33.0,1266.0],["USP17L7_392197",0.1400552553572254,-6.395663461454509,33.0,1266.0],["SHANK3_85358",0.13113329015651484,-5.674875715251085,33.0,1266.0],["ZNF443_10224",0.14240722599317412,-6.59333517750907,33.0,1266.0],["USP17L2_377630",0.15070674961592817,-7.316618194543336,33.0,1266.0],["NKD2_85409",0.12770251540876956,-5.409879337285581,33.0,1266.0],["FAM71E1_112703",0.144532546023433,-6.774722490165075,33.0,1266.0]],"bottom":[["SLC25A43_203427",-0.11721586406859635,-4.64138713376428,33.0,1266.0],["TLR1_7096",-0.09631005591037481,-3.2931831004277194,33.0,1266.0],["EDN1_1906",-0.09166381207088696,-3.0262578991643556,33.0,1266.0],["FAM107B_83641",-0.09804059269364675,-3.395614049088911,33.0,1266.0],["MILR1_284021",-0.10817464553164115,-4.02853847506037,33.0,1266.0],["EMB_133418",-0.10279584082573186,-3.685543640890766,33.0,1266.0],["GGH_8836",-0.09448530977846797,-3.186949220479329,33.0,1266.0],["PRDM5_11107",-0.09141641979922342,-3.0123746363839152,33.0,1266.0],["CD163L1_283316",-0.08970582850813072,-2.9172869747311494,33.0,1266.0],["OPN3_23596",-0.10841682176902481,-4.044359132398872,33.0,1266.0],["LYPLAL1_127018",-0.140649447270032,-6.445299461127443,33.0,1266.0],["TAGLN2_8407",-0.09393394636979117,-3.155207075353462,33.0,1266.0],["KYNU_8942",-0.09903194185102748,-3.4550315360936126,33.0,1266.0],["NR3C1_2908",-0.15855937520782337,-8.038182533912893,33.0,1266.0]]},"para":{"top":[["MYO1H_283446",0.12963093851791896,-5.822336374738761,33.0,1266.0],["PVALEF_388428",0.1319277607239726,-5.998676509551068,33.0,1266.0],["IGLON5_402665",0.13474212047724018,-6.21874648063436,33.0,1266.0],["VRTN_55237",0.15394856228375545,-7.835539456385479,33.0,1266.0],["ZNF432_9668",0.1197513234203672,-5.0962942519076675,33.0,1266.0],["TMEM269_100129924",0.15517593352915154,-7.9458895250191945,33.0,1266.0]],"bottom":[["KYNU_8942",-0.12407739717862877,-5.407707361920371,33.0,1266.0],["CD180_4064",-0.11130691570217187,-4.517503774076865,33.0,1266.0]]}}}
{"avana":{"corr":{"top":[["CXCL2_2920",0.11818903900650882,-2.982818023154741,18.0,749.0],["DCAF5_8816",0.10933422815028716,-2.61470608411469,18.0,749.0],["LSM12_124801",0.11421590347035933,-2.8145094012436735,18.0,749.0],["FANCB_2187",0.12276812368961282,-3.016166844219449,16.0,704.0],["CYB5B_80777",0.10905308026009261,-2.6034326041760956,18.0,749.0],["ZC3HC1_51530",0.10938685341077481,-2.616819074764127,18.0,749.0],["UBE2D3_7323",0.11596118438424592,-2.8878112669902514,18.0,749.0],["NXN_64359",0.12689734422719662,-3.3697409017286173,18.0,749.0],["C1orf115_79762",0.11780975110049399,-2.966529291736589,18.0,749.0],["S100A2_6273",0.11028301792320117,-2.652938185764846,18.0,749.0],["RUNDC3A_10900",0.10458107026951519,-2.4275185128810577,18.0,749.0],["AANAT_15",0.1077703134706161,-2.5523180550265154,18.0,749.0],["PABPN1L_390748",0.11155919735636835,-2.7048194758373474,18.0,749.0],["LPA_4018",0.1164624669493408,-2.909047790547031,18.0,749.0],["PARP1_142",0.10653734868074674,-2.473758684734999,17.0,739.0],["NKAPD1_55216",0.11707826199852416,-2.935247286625785,18.0,749.0],["NBPF10_100132406",0.12630110970700273,-3.3424551340778517,18.0,749.0],["OR2L13_284521",0.11603964067697965,-2.89112963401064,18.0,749.0],["CHI3L1_1116",0.1378412267388309,-3.8915076632324572,18.0,749.0],["UGT2B15_7366",0.10576280068220686,-2.4733822734966653,18.0,749.0],["GRAMD4_23151",0.1045777425025497,-2.4273899889124952,18.0,749.0],["DOLK_22845",0.11629734612472947,-2.9020435381602456,18.0,749.0],["HSBP1_3281",0.10413279629473704,-2.3815504726997014,17.0,739.0],["CELA3B_23436",0.13177354966003685,-3.5973038518552705,18.0,749.0],["HSF1_3297",0.11501369962797811,-2.847894372907619,18.0,749.0],["EDA_1896",0.10984331346824516,-2.4995953518837246,16.0,704.0],["SCNN1D_6339",0.11150712203172118,-2.702692159289083,18.0,749.0],["CFHR5_81494",0.11153478392649308,-2.7038220598511566,18.0,749.0],["FAM166A_401565",0.10564581162058148,-2.4688219714318924,18.0,749.0],["TNFSF4_7292",0.1094168940251594,-2.6180256536499384,18.0,749.0],["CHTOP_26097",0.10921386894528097,-2.6098768081379813,18.0,749.0],["PDE10A_10846",0.11150464981902475,-2.7025911892572663,18.0,749.0],["HYOU1_10525",0.15457492447438245,-4.767130095367021,18.0,749.0],["MYOM2_9172",0.13901203663428127,-3.949693577674801,18.0,749.0],["PEAK3_374872",0.11048121126914713,-2.6609610665751178,18.0,749.0]],"bottom":[["ALDOB_229",-0.13756750577845894,-3.8779707935788816,18.0,749.0],["COX5B_1329",-0.13189826980615293,-3.6032276716986353,18.0,749.0],["CA11_770",-0.12235510338332282,-3.16482126418234,18.0,749.0],["IDS_3423",-0.12695104021108106,-3.1942797254544604,16.0,704.0],["TSTD2_158427",-0.11346160201362405,-2.783134013040168,18.0,749.0],["POLRMT_5442",-0.11860370183283758,-3.0006795587136557,18.0,749.0],["MRPS18B_28973",-0.13763054129535604,-3.881085990136478,18.0,749.0],["SIGLEC10_89790",-0.1168006031964845,-2.92341881446658,18.0,749.0],["CLDN2_9075",-0.11965136466868347,-2.8869452052148423,16.0,704.0],["JAZF1_221895",-0.1195206233877217,-3.0032718818229127,17.0,739.0],["COQ4_51117",-0.11897123372095829,-3.0165577756595727,18.0,749.0],["C1QBP_708",-0.13215972609642723,-3.5707804611208966,17.0,739.0],["MRPS35_60488",-0.11474338057699178,-2.836559375927036,18.0,749.0],["MRPS18C_51023",-0.15030159869878706,-4.534475318762372,18.0,749.0],["GCSH_2653",-0.12709077127125576,-3.378617986702834,18.0,749.0],["RBFA_79863",-0.12750583245706895,-3.397708361241798,18.0,749.0],["CLEC4F_165530",-0.15163034668545072,-4.606148118207389,18.0,749.0],["MRPL34_64981",-0.1530183827673534,-4.68166313088136,18.0,749.0],["C2orf40_84417",-0.14581644010258818,-4.296985245321864,18.0,749.0],["MRPL53_116540",-0.16374943372663148,-5.287833113881086,18.0,749.0],["MALSU1_115416",-0.15040527607587512,-4.540046015347754,18.0,749.0],["CBLN1_869",-0.11404163585239614,-2.8072443375374627,18.0,749.0],["MRPS17_51373",-0.14851532377477725,-4.439072049270904,18.0,749.0],["TFAM_7019",-0.1704126634999042,-5.684319484187828,18.0,749.0],["MRPS22_56945",-0.1235332236907303,-3.2173200066545498,18.0,749.0],["TSFM_10102",-0.13461402121242033,-3.7335006993107194,18.0,749.0],["SLC30A9_10463",-0.14637891053177474,-4.326393417655269,18.0,749.0],["MRPL57_78988",-0.12788511066706673,-3.415202668132172,18.0,749.0],["C16orf78_123970",-0.14776474741395898,-4.399308491796635,18.0,749.0],["MARS2_92935",-0.12571446862786725,-3.315722759728316,18.0,749.0],["LGALS14_56891",-0.11591138522414157,-2.8857060111174744,18.0,749.0],["MRPS24_64951",-0.15238128339800522,-4.646920431657111,18.0,749.0],["MRPL48_51642",-0.12250368441511411,-3.1714171687626678,18.0,749.0],["EARS2_124454",-0.1418957192111869,-4.094968322453158,18.0,749.0],["CS_1431",-0.13444162509494748,-3.725157923393251,18.0,749.0],["MRPS14_63931",-0.1134421281011755,-2.782326426804497,18.0,749.0],["XCR1_2829",-0.12396045623464573,-3.236470639471686,18.0,749.0]]},"para":{"top":[["NCL_4691",0.12017313984502222,-3.355200563842482,18.0,749.0],["CYB5B_80777",0.13411761152801668,-3.986910020046143,18.0,749.0],["NXN_64359",0.14178040140094733,-4.360113079518367,18.0,749.0],["C1orf115_79762",0.10539202291532129,-2.7518609012773103,18.0,749.0],["HBE1_3046",0.10424463457276135,-2.7078556610541007,18.0,749.0],["SLC35A1_10559",0.10743415064029159,-2.831185982604728,18.0,749.0],["NKAPD1_55216",0.12452963496159207,-3.546006560507484,18.0,749.0],["NBPF10_100132406",0.1250352663204126,-3.568536987357451,18.0,749.0],["PIR_8544",0.11099731745320894,-2.83516162541524,16.0,704.0],["GRAMD4_23151",0.1082315625750993,-2.862510504628732,18.0,749.0],["HSBP1_3281",0.10999064990937041,-2.900706525928707,17.0,739.0],["HSF1_3297",0.1247435235441704,-3.555527444981622,18.0,749.0],["OR52B6_340980",0.10261092544084459,-2.645898250881621,18.0,749.0],["RTN4_57142",0.11070149076952197,-2.9607840970590047,18.0,749.0],["CHTOP_26097",0.10965136932783288,-2.9187710870793295,18.0,749.0],["E2F8_79733",0.10483959401091114,-2.7016991681490286,17.0,739.0],["HYOU1_10525",0.11859804690132056,-3.287674429333139,18.0,749.0],["PDE10A_10846",0.12486010990417667,-3.5607231243250426,18.0,749.0],["KITLG_4254",0.10397232754214605,-2.697471541370178,18.0,749.0],["TAAR6_319100",0.10764806536790955,-2.8395698533529417,18.0,749.0]],"bottom":[["ALDOB_229",-0.1220983765022943,-3.438790143230672,18.0,749.0],["POLRMT_5442",-0.12937235981354275,-3.7650878125396643,18.0,749.0],["SIGLEC10_89790",-0.11690561383066583,-3.2159802091047176,18.0,749.0],["MRPS18B_28973",-0.11871447061548163,-3.2926391593353452,18.0,749.0],["CLDN2_9075",-0.13078510005195793,-3.643586643527367,16.0,704.0],["COQ4_51117",-0.12521029819667545,-3.576354900633771,18.0,749.0],["DAP3_7818",-0.11233529877809094,-3.026828559967343,18.0,749.0],["GTSF1L_149699",-0.11200457745806389,-3.0133927777154925,18.0,749.0],["MIPEP_4285",-0.13123930369748996,-3.8515144559508925,18.0,749.0],["MRPS33_51650",-0.12806912120249755,-3.705406273407922,18.0,749.0],["ZP3_7784",-0.12466562540940511,-3.552058283965469,18.0,749.0],["UBASH3B_84959",-0.11040977849639118,-2.949079080598435,18.0,749.0],["DUSP27_92235",-0.11037086585925225,-2.947519695748062,18.0,749.0],["MRPS18C_51023",-0.14113863465027543,-4.328144572887703,18.0,749.0],["CLEC4F_165530",-0.1445031892091275,-4.497195150349083,18.0,749.0],["MRPL34_64981",-0.14428944154473775,-4.486348765758854,18.0,749.0],["C2orf40_84417",-0.1362569739804697,-4.089237587182732,18.0,749.0],["MRPL53_116540",-0.1405553367889103,-4.299201700075847,18.0,749.0],["MRPS11_64963",-0.12923619870456873,-3.758827374913678,18.0,749.0],["MALSU1_115416",-0.13166718301901967,-3.8714767876760403,18.0,749.0],["MRPL32_64983",-0.13514861427233116,-4.036043518405909,18.0,749.0],["MRPS17_51373",-0.15171864756424963,-4.871845500025493,18.0,749.0],["TFAM_7019",-0.15696994170866102,-5.154924338975149,18.0,749.0],["MRPS22_56945",-0.1335927149066784,-3.9620242871792035,18.0,749.0],["C16orf78_123970",-0.13024737719436616,-3.8054585931904943,18.0,749.0],["MARS2_92935",-0.12151515086854073,-3.413345439408819,18.0,749.0],["LGALS14_56891",-0.1227597174068195,-3.4677715335225785,18.0,749.0],["GPD1_2819",-0.12402378893837698,-3.523546720468785,18.0,749.0],["MRPS24_64951",-0.14996843671239546,-4.779448821943085,18.0,749.0],["MRPL48_51642",-0.1306752675843859,-3.8252878867317928,18.0,749.0],["NWD2_57495",-0.12081478186699475,-3.3829305747609615,18.0,749.0],["EARS2_124454",-0.13639327205246862,-4.09580578093511,18.0,749.0],["BIN1_274",-0.11704179847891052,-3.221716187837491,18.0,749.0],["MRPS14_63931",-0.11562215142067671,-3.1622055780879337,18.0,749.0]]}}}
{"drive":{"corr":{"top":[["PEX14_5195",0.1490880521800965,-2.419281058188856,10.0,365.0],["CTSL_1514",0.13039032385958496,-1.9395989134512688,10.0,365.0],["TMED9_54732",0.11746706319351671,-1.6782286376439652,11.0,375.0],["CDC73_79577",0.13553653092089207,-2.052585677113469,10.0,362.0],["FBXW4P1_26226",0.13811355572444323,-2.131015302867147,10.0,365.0],["CNOT6_57472",0.12656729365587133,-1.8363753621483059,10.0,362.0],["POLR2J4_84820",0.1818428775738553,-3.4198740898760396,11.0,367.0],["LRRC8B_23507",0.13999424622161716,-2.164706918652931,10.0,362.0],["PPARG_5468",0.14632064708301154,-2.344773439310807,10.0,365.0],["ATP8B4_79895",0.1356106374039585,-2.0544241705879847,11.0,361.0],["ESR2_2100",0.16417017486653898,-2.847178819266575,10.0,365.0],["GPR34_2857",0.13389364499925124,-2.0120478396032113,10.0,362.0],["SOX4_6659",0.12931395400009132,-1.9136643112859213,10.0,365.0],["CCDC144B_284047",0.1256710169646225,-1.8154534622744052,11.0,361.0],["CREB3L1_90993",0.12781448712835697,-1.877836484022546,10.0,365.0],["HLA-J_3137",0.13294110504008957,-1.9887368349931205,10.0,362.0],["P2RY2_5029",0.15336074698034616,-2.5820041584930333,11.0,372.0],["HTR1D_3352",0.1362941685742656,-2.071422244874566,10.0,362.0],["SFTPA2_729238",0.1567542994692052,-2.64983660460296,11.0,367.0],["TERF2_7014",0.1582133938296533,-2.6737402619228123,10.0,365.0],["TMEM68_137695",0.1314557608099608,-1.9994812125751207,11.0,372.0],["ARL8A_127829",0.13234397373803528,-1.9741955564036369,11.0,361.0],["KLHL9_55958",0.14534719727110257,-2.334223420619682,11.0,367.0]],"bottom":[["AFG3L2_10939",-0.14902169771069562,-2.4174801583821384,10.0,365.0],["AAMP_14",-0.21828480996442262,-4.698190930326623,10.0,365.0],["OXER1_165140",-0.15501768232834734,-2.5657513922082322,10.0,362.0],["SEMA7A_8482",-0.14599336213777855,-2.3205399165995853,10.0,362.0],["CSF1R_1436",-0.17192699240909456,-3.0607425738721608,11.0,361.0],["FBXW4_6468",-0.1544087840408258,-2.5660051451520727,10.0,365.0],["ATP8B3_148229",-0.1437570749099083,-2.2617841859840575,11.0,361.0],["DCAF7_10238",-0.1553266476171917,-2.5917803835569884,10.0,365.0],["CD84_8832",-0.20817448317880563,-4.283204814912343,11.0,361.0],["ALDH1L2_160428",-0.15854205991381745,-2.6650740736435496,10.0,362.0],["HES2_54626",-0.1641217656002397,-2.826445039388453,11.0,361.0],["FAM210B_116151",-0.16017908655263144,-2.7118929474620903,10.0,362.0],["YBX3_8531",-0.16091075547591058,-2.7515547770508033,10.0,365.0],["PAK1IP1_55003",-0.1528307978344622,-2.5220124791397267,10.0,365.0],["YIF1B_90522",-0.14949744087532194,-2.414205510125164,10.0,362.0],["LRIG2_9860",-0.1837246131653205,-3.4340933253425234,10.0,362.0],["UBE2V2_7336",-0.17131722028122534,-3.042076375313151,10.0,362.0],["CEBPZ_10153",-0.19871934211655162,-3.970432193388442,10.0,365.0],["GPR65_8477",-0.15010037892946984,-2.430519990190428,11.0,361.0],["NCK2_8440",-0.14674409099972577,-2.340442530181268,11.0,361.0],["SVEP1_79987",-0.1417211815824747,-2.2089825535959333,10.0,362.0],["RDM1_201299",-0.16831410738786695,-2.9510430719301364,11.0,361.0],["SFTPA1_653509",-0.15297876901773289,-2.543023486857834,11.0,367.0],["DOCK11_139818",-0.14201569477710435,-2.2313102799087874,10.0,365.0],["CD7_924",-0.15505756575776963,-2.566864139312177,11.0,361.0],["FZR1_51343",-0.14830898675737947,-2.3981814802074495,10.0,365.0],["TECPR1_25851",-0.148882126804585,-2.413694436514471,10.0,365.0],["NID2_22795",-0.14316081868277486,-2.246252172021451,10.0,362.0],["ATAD3B_83858",-0.19271188169023323,-3.786688587722891,11.0,367.0],["SYDE2_84144",-0.141551952844876,-2.204623033669436,10.0,362.0],["CCNG1_900",-0.1410356693078625,-2.205893619601812,10.0,365.0],["PNPT1_87178",-0.18939343653642535,-3.6471830875086733,10.0,365.0]]},"para":{"top":[["UBL4B_164153",0.14123036882043072,-2.484659298594522,10.0,362.0],["PEX14_5195",0.14701588907616933,-2.649002038402593,10.0,365.0],["GIP_2695",0.11972267916083341,-1.985562098302011,10.0,365.0],["MED28_80306",0.1535350912975732,-2.8070772003618405,10.0,362.0],["MEF2C_4208",0.16574633055846724,-3.1688402793467416,10.0,365.0],["CTSD_1509",0.13210776135503904,-2.272914709297854,10.0,365.0],["TYMS_7298",0.12492135088801905,-2.1034247853458043,10.0,365.0],["ACAP2_23527",0.1289259072563783,-2.1846831848472648,10.0,362.0],["CDC73_79577",0.16382764791605603,-3.0941502737192357,10.0,362.0],["POLR2J4_84820",0.1278644611941941,-2.184050371818279,11.0,367.0],["LINC01425&LOC105379039&WHAMM&MPI&C17orf75_101927821&105379039&123720&4351&64149",0.11979283354759818,-1.9476354044383546,9.0,355.0],["ASPSCR1_79058",0.13395759596805903,-2.3047406268136004,11.0,361.0],["PTPRD_5789",0.13672682929034974,-2.4358424293384977,11.0,375.0],["RSU1_6251",0.14201132347450912,-2.504542316207691,11.0,361.0],["DICER1_23405",0.1327194468645324,-2.287694270999375,10.0,365.0],["LRRC8B_23507",0.140688663296188,-2.470982293960144,10.0,362.0],["PKP2_5318",0.14385845479968498,-2.5517208028621416,11.0,361.0],["LOC102723414&LOC102723608&LOC102723819&LOC102723933&LOC105371747&LOC105379635_102723414&102723608&102723819&102723933&105371747&105379635",0.1353746713757035,-2.3836705606581843,10.0,372.0],["PPARG_5468",0.14755092240751336,-2.6631172475181293,10.0,365.0],["UHRF1_29128",0.18241267399368666,-3.6761860157543182,10.0,365.0],["ESR2_2100",0.1603947423946791,-3.014901252674773,10.0,365.0],["GPR34_2857",0.1773698245915536,-3.49616202059718,10.0,362.0],["SFTPA2_729238",0.16413961985767772,-3.1413219184702204,11.0,367.0],["HLA-J_3137",0.1463379633301875,-2.6157566722763357,10.0,362.0],["MLH3_27030",0.12401132990708064,-2.1243728597932345,11.0,375.0],["HTR1D_3352",0.13681930622943572,-2.3745516752972926,10.0,362.0],["OLIG2_10215",0.1300436071762425,-2.2234500475948704,10.0,365.0],["BCL3_602",0.1446457747124431,-2.5869904526166376,10.0,365.0],["AGO1_26523",0.14556318977404425,-2.6108937287157055,10.0,365.0],["ALX1_8092",0.13256651410946943,-2.283993900559135,10.0,365.0],["PRKCB_5579",0.14455802216689995,-2.569630820638218,10.0,362.0],["ZFHX4_79776",0.14877420173531491,-2.6955512379451023,10.0,365.0],["ZSCAN32_54925",0.13111393984875439,-2.249020296377915,10.0,365.0],["KLHL9_55958",0.14055717788756072,-2.496396786065523,11.0,367.0],["ARHGAP25_9938",0.12954497659959016,-2.1992432618098836,10.0,362.0],["SPTLC1_10558",0.13358815190064655,-2.2958049494063255,11.0,361.0]],"bottom":[["HIST1H2BO_8348",-0.1518323827232473,-2.7776201877625653,10.0,365.0],["AFG3L2_10939",-0.15404957706258038,-2.8380012543831423,10.0,365.0],["OXER1_165140",-0.1673095912367199,-3.194870443404147,10.0,362.0],["NSD1_64324",-0.1835595366734281,-3.712659699490846,10.0,365.0],["TRPC4_7223",-0.1391409899878262,-2.432146019159002,10.0,362.0],["RAD54L2_23132",-0.14411063232322538,-2.5731055502414573,10.0,365.0],["RRAS_6237",-0.17836642029836824,-3.6085509863463727,11.0,372.0],["ANKFY1_51479",-0.14962169433828987,-2.7021823148533857,11.0,361.0],["CSF1R_1436",-0.14940004998202785,-2.6963043694343463,11.0,361.0],["FBXW4_6468",-0.13883550301708195,-2.4385289051434738,10.0,365.0],["UBA2_10054",-0.21589850416703843,-4.824544817672968,10.0,365.0],["ATP8B3_148229",-0.1472572763863966,-2.6398561609818634,11.0,361.0],["TWIST2_117581",-0.14724510063362967,-2.655043819306229,10.0,365.0],["DCAF7_10238",-0.17583792682009475,-3.470976644786301,10.0,365.0],["CD84_8832",-0.18493972748386167,-3.7330955997107873,11.0,361.0],["TIAM2_26230",-0.1750734041349767,-3.447543603848457,10.0,365.0],["ALDH1L2_160428",-0.16289859928335845,-3.067584757740916,10.0,362.0],["GATA2_2624",-0.14724512576365678,-2.6550444817959673,10.0,365.0],["FAM210B_116151",-0.1564754917648941,-2.887467981563355,10.0,362.0],["SOCS6_9306",-0.1445579800449668,-2.569629735233369,10.0,362.0],["CALM3_808",-0.16986684220646756,-3.2701103406398624,11.0,361.0],["CHRM5_1133",-0.14681395292512303,-2.6282628338496297,11.0,361.0],["EVI2A_2123",-0.1607317676931697,-3.006130057922717,10.0,362.0],["UBE2V2_7336",-0.19640700301964484,-4.108353964683203,10.0,362.0],["FAM126B&ZYG11B_285172&79699",-0.1659252191139877,-3.1025549715280465,9.0,355.0],["LRIG2_9860",-0.15763632592773824,-2.9195617681927177,10.0,362.0],["CEBPZ_10153",-0.17339178202378772,-3.3963150172033036,10.0,365.0],["VDAC3_7419",-0.17571181884353,-3.546508465780061,11.0,375.0],["GPR65_8477",-0.1527249235084483,-2.7852489146491815,11.0,361.0],["WIPI2_26100",-0.1420464077951328,-2.519948523465831,10.0,365.0],["APOB_338",-0.13960524411194863,-2.443758472019966,10.0,362.0],["TFAM_7019",-0.14204648052349145,-2.5199503841014597,10.0,365.0],["LOC100287072_100287072",-0.15609708714565665,-2.940783735687148,11.0,372.0],["ANKRD11_29123",-0.1519122169945842,-2.7633555788928077,11.0,361.0],["HERPUD1_9709",-0.1553849727852156,-2.8575979930936457,11.0,361.0],["DGKH_160851",-0.14880891717296577,-2.6806635119792266,11.0,361.0],["SERPINI2_5276",-0.139450446733848,-2.4398829598869116,10.0,362.0],["CPEB2_132864",-0.15291573084338145,-2.790308763027332,10.0,362.0],["PARP15_165631",-0.1557312421445795,-2.884292678076565,10.0,365.0],["MSL3P1_151507",-0.1409761385261559,-2.492638336546154,10.0,365.0],["HKDC1_80201",-0.1563981417280113,-2.88533664687991,10.0,362.0],["ARHGAP21_57584",-0.14293289688566208,-2.52792801164399,10.0,362.0],["TECPR1_25851",-0.14541046098226584,-2.606905618844896,10.0,365.0],["NID2_22795",-0.14997500001143038,-2.711473987621489,10.0,362.0],["SIRPB1_10326",-0.15228160894749793,-2.7732943210392307,11.0,361.0],["ATAD3B_83858",-0.158658718769114,-2.983884436280964,11.0,367.0],["TLR9_54106",-0.15139503260754067,-2.749474623245678,11.0,361.0],["PNPT1_87178",-0.17629669463172268,-3.4850809988152704,10.0,365.0],["GPR171_29909",-0.1556242856724777,-2.864062837425978,10.0,362.0]]}}}
{"achilles":{"corr":{"top":[["PPP1CB_5500",0.17061452984956588,-3.8510950122138845,11.0,482.0],["LONRF3_79836",0.14823409191764989,-3.0165478047980967,11.0,482.0],["CERKL_375298",0.14905475899859058,-3.0452290862576676,11.0,482.0],["ABCA5_23461",0.14261344850792745,-2.823987736331802,11.0,482.0],["ABCD1_215",0.15379157195499774,-3.213608003843815,11.0,482.0],["GJD4_219770",0.1619998167823327,-3.5169020137186586,11.0,482.0],["DDX19A_55308",0.16374247321644017,-3.5831865621176133,11.0,482.0],["ATP9A_10079",0.16518533739436392,-3.6385728413667477,11.0,482.0],["SPRY1_10252",0.15781709105894573,-3.3605175628328285,11.0,482.0],["TRMT1_55621",0.1262594709248884,-2.301715662113917,11.0,482.0],["IGF2BP1_10642",0.14995260093183216,-3.0767732700712775,11.0,482.0],["DNAJC10_54431",0.12440550052901772,-2.246033605980377,11.0,482.0],["DYNLL2_140735",0.16146211858675827,-3.4965842636368185,11.0,482.0],["SLC25A32_81034",0.1262412610000866,-2.3011652856377345,11.0,482.0],["FBXW4_6468",0.124435736006744,-2.2469359943660625,11.0,482.0],["APAF1_317",0.1537936570209778,-3.213683187909218,11.0,482.0],["HAS2_3037",0.125124163590923,-2.2675334885743244,11.0,482.0],["JMJD6_23210",0.14499736029583793,-2.90483520475981,11.0,482.0],["PSMD14_10213",0.16024974273954784,-3.4510049552256947,11.0,482.0],["CACNA1D_776",0.14391185831417638,-2.867871547374408,11.0,482.0],["TH_7054",0.1254747739240208,-2.278061290344158,11.0,482.0],["EFHC1_114327",0.14633140407851508,-2.950606829011455,11.0,482.0],["DIRAS2_54769",0.14447901003262814,-2.887152918017328,11.0,482.0],["CDHR5_53841",0.15826451869162944,-3.377063703821974,11.0,482.0],["RAMP1_10267",0.1670961916893177,-3.712629160927265,11.0,482.0],["ZNF57_126295",0.13006691600702933,-2.4183042960090035,11.0,482.0],["STX3_6809",0.1544568116164937,-3.237643203236184,11.0,482.0],["CYP27B1_1594",0.13101053010374078,-2.4476656306165987,11.0,482.0],["SLC4A1AP_22950",0.1512560948846618,-3.122878063905189,11.0,482.0],["PPT1_5538",0.16212434089202782,-3.5216163799232523,11.0,482.0],["DAD1_1603",0.12816760798387786,-2.359768447838995,11.0,482.0],["DDX6_1656",0.14280088551796413,-2.8303005918943676,11.0,482.0],["PDCL2_132954",0.14628171990332398,-2.9488953225458294,11.0,482.0],["CERK_64781",0.16456536752743772,-3.6147183642858414,11.0,482.0],["TATDN2_9797",0.1540716102230498,-3.2237141479953704,11.0,482.0],["PAN2_9924",0.16628327171986193,-3.68102555423271,11.0,482.0],["SLC30A8_169026",0.14749817276224936,-2.990951250251229,11.0,482.0],["TMED8_283578",0.15707768063597202,-3.333269239240266,11.0,482.0],["RELB_5971",0.13650158375708152,-2.622222834878653,11.0,482.0],["MCM6_4175",0.14504196690137316,-2.9063595328905736,11.0,482.0],["CD300C_10871",0.14706522415251203,-2.9759467765106318,11.0,482.0],["HPGD_3248",0.1287018107147999,-2.376156443222434,11.0,482.0],["CYP2E1_1571",0.12899484702561378,-2.3851712757147663,11.0,482.0],["RAPGEF6_51735",0.12443527757696671,-2.2469223109590732,11.0,482.0]],"bottom":[["RAB11B_9230",-0.1452796572784714,-2.9144892183584608,11.0,482.0],["SKI_6497",-0.18208498353753486,-4.321678913172267,11.0,482.0],["ZNF695_57116",-0.1537113008950818,-3.2107142760659397,11.0,482.0],["ACVR1B_91",-0.13677184398614836,-2.630977806824733,11.0,482.0],["PMPCA_23203",-0.1382248343574991,-2.6783108770047312,11.0,482.0],["SIAH1_6477",-0.1527568693100191,-3.176414325819232,11.0,482.0],["GPR22_2845",-0.1374244427975697,-2.652181964442985,11.0,482.0],["SIX3_6496",-0.13193114848413712,-2.476490646957185,11.0,482.0],["TPST1_8460",-0.17023104855641089,-3.835869763176464,11.0,482.0],["HSPA1L_3305",-0.14519967761283886,-2.911752340017816,11.0,482.0],["YPEL2_388403",-0.1451014477318177,-2.9083928143623674,11.0,482.0],["CUL4B_8450",-0.1334556748090255,-2.5246142734222743,11.0,482.0],["JAG1_182",-0.14611025910450257,-2.9429929445106153,11.0,482.0],["PYHIN1_149628",-0.17650368630523258,-4.089021865586012,11.0,482.0],["ZNF320_162967",-0.14207750178386164,-2.8059783401896654,11.0,482.0],["LIMK2_3985",-0.14951214327696183,-3.0612768684285294,11.0,482.0],["PARN_5073",-0.1458722595337196,-2.934810451156986,11.0,482.0],["HIST1H3H_8357",-0.14064084337410632,-2.758003365771872,11.0,482.0],["OR1G1_8390",-0.14009044414634847,-2.739739648338146,11.0,482.0],["SCARA3_51435",-0.16612151164739178,-3.674754254448047,11.0,482.0],["CENPJ_55835",-0.13185636845026508,-2.474142636003715,11.0,482.0],["IL19_29949",-0.17016113558878862,-3.8330975450616678,11.0,482.0],["SLC30A10_55532",-0.13591055398952034,-2.6031302752203502,11.0,482.0],["ATP1A3_478",-0.15251800768329518,-3.1678610209131404,11.0,482.0],["ATP13A2_23400",-0.13548293448597756,-2.5893623483258437,11.0,482.0],["EVC2_132884",-0.16243734967050502,-3.5334816066045325,11.0,482.0],["APOC4-APOC2_100533990",-0.1490322829265672,-3.0444416496639652,11.0,482.0],["NOVA1_4857",-0.1319231396019348,-2.4762391209288284,11.0,482.0],["BTRC_8945",-0.14658054502000437,-2.959197130154594,11.0,482.0],["FLG2_388698",-0.1673219747102235,-3.7214327320334477,11.0,482.0],["SOX4_6659",-0.13423242186208023,-2.5493206012711065,11.0,482.0],["TLL2_7093",-0.18154852239782374,-4.299011772752222,11.0,482.0],["LHCGR_3973",-0.17908717348609263,-4.195843982751439,11.0,482.0],["PRSS38_339501",-0.16437515902084265,-3.6074166947439434,11.0,482.0],["KCTD5_54442",-0.1769334995058161,-4.1066899805057435,11.0,482.0],["SLC30A9_10463",-0.1830309378496263,-4.361806803866726,11.0,482.0],["APOBEC3F_200316",-0.14932554188400676,-3.0547243436205256,11.0,482.0],["TNFSF4_7292",-0.15928506581562088,-3.4149673881036224,11.0,482.0],["ZNF735_730291",-0.17511581220665826,-3.896056729065499,10.0,464.0],["CDH24_64403",-0.15747849727002255,-3.348025135628331,11.0,482.0],["C1S_716",-0.14359908180878464,-2.857267464719388,11.0,482.0],["PRDM11_56981",-0.16796164158372276,-3.746435318474718,11.0,482.0],["BLOC1S5-TXNDC5_100526836",-0.1340645676462014,-2.543970867815748,11.0,482.0],["ADAM8_101",-0.14775308867963605,-2.9998045258017965,11.0,482.0],["SMPDL3B_27293",-0.16904243700525282,-3.7888858436185124,11.0,482.0],["POP7_10248",-0.15903575031023442,-3.4056867080012196,11.0,482.0],["ACADS_35",-0.13456760997806097,-2.560021184415177,11.0,482.0],["RIDA_10247",-0.14412154777439604,-2.8749923371865083,11.0,482.0]]},"para":{"top":[["PPP1CB_5500",0.17234828335347135,-4.178875349992307,11.0,482.0],["LONRF3_79836",0.13157701181534553,-2.7533693898859037,11.0,482.0],["CERKL_375298",0.16544837978029497,-3.9141084857704556,11.0,482.0],["NINJ1_4814",0.13804247554224552,-2.957223204470526,11.0,482.0],["COLGALT1_79709",0.1321077886059696,-2.769792140826912,11.0,482.0],["ABCA5_23461",0.1268486018616589,-2.609527232635482,11.0,482.0],["APOBR_55911",0.12458078547043341,-2.54210433028291,11.0,482.0],["SLC39A7_7922",0.13070865740778118,-2.726621941425892,11.0,482.0],["ABCD1_215",0.1607681584223415,-3.740000927329522,11.0,482.0],["IL20RA_53832",0.12742753828550166,-2.6269016716030036,11.0,482.0],["DBNDD1_79007",0.13355526743598756,-2.814862257013818,11.0,482.0],["CYP2E1_1571",0.13268678548809948,-2.7877705178763343,11.0,482.0],["GJD4_219770",0.14672744151165573,-3.244155705478026,11.0,482.0],["CHRNG_1146",0.12356759387584978,-2.512309176973485,11.0,482.0],["ZFP69B_65243",0.1472099757100263,-3.2605395512130775,11.0,482.0],["ATP9A_10079",0.15724587961662786,-3.6118857814448506,11.0,482.0],["TRMT1_55621",0.13032252211629683,-2.714775963781691,11.0,482.0],["IGF2BP1_10642",0.15666697303840627,-3.5910685872204544,11.0,482.0],["CCNB1IP1_57820",0.14981545075297603,-3.3498111022861266,11.0,482.0],["INPP5B_3633",0.13283149480016893,-2.792274250662533,11.0,482.0],["SLC25A32_81034",0.12520808516510354,-2.560652761977608,11.0,482.0],["ETS2_2114",0.129840041065202,-2.700015712098977,11.0,482.0],["DHDDS_79947",0.12380895728783282,-2.5193886751356627,11.0,482.0],["APAF1_317",0.13094977517015283,-2.7340339930707693,11.0,482.0],["FUT10_84750",0.13591955891625798,-2.8893730573797165,11.0,482.0],["DYNLL2_140735",0.1556536345328575,-3.5547918838085915,11.0,482.0],["HAS2_3037",0.1408409739469001,-3.0480360694211575,11.0,482.0],["PSMD14_10213",0.1322526007395445,-2.7742824585991577,11.0,482.0],["CACNA1D_776",0.1333140087459037,-2.8073213446623275,11.0,482.0],["ATF3_467",0.12482217471966804,-2.549232721060807,11.0,482.0],["TH_7054",0.13905571637611505,-2.989923298852756,11.0,482.0],["UCP3_7352",0.13287975450658657,-2.793777141817036,11.0,482.0],["ITGA10_8515",0.1338447691991343,-2.823926318836965,11.0,482.0],["EFHC1_114327",0.14682394097993037,-3.247428495420751,11.0,482.0],["CDHR5_53841",0.1646280722676282,-3.8832724643142393,11.0,482.0],["UBXN6_80700",0.1292610280450052,-2.682363085862286,11.0,482.0],["STX3_6809",0.14069630224206733,-3.0433031388897165,11.0,482.0],["TMOD2_29767",0.12395359492969249,-2.5236365765212643,11.0,482.0],["ZNF57_126295",0.14190245033384957,-3.082889900142915,11.0,482.0],["STAM_8027",0.12554580822536274,-2.5706708887785577,11.0,482.0],["PPT1_5538",0.14711346148445306,-3.257258801711897,11.0,482.0],["SLC4A1AP_22950",0.16385607661807314,-3.854376822503202,11.0,482.0],["PSMB3_5691",0.14489473157900976,-3.182352891995207,11.0,482.0],["TALDO1_6888",0.12380881779641846,-2.5193845819589233,11.0,482.0],["NGF_4803",0.13350701435802415,-2.8133531091952606,11.0,482.0],["PDCL2_132954",0.14397721748010955,-3.1516647217588667,11.0,482.0],["PAN2_9924",0.12438784263477899,-2.536414842906976,11.0,482.0],["EFHB_151651",0.12829603664689027,-2.653090200604121,11.0,482.0],["TATDN2_9797",0.13413424075188035,-2.833006058790097,11.0,482.0],["PLD5_200150",0.14156470223716913,-3.071775481106293,11.0,482.0],["SLC30A8_169026",0.14677569124579312,-3.2457918674307384,11.0,482.0],["RELB_5971",0.1551711294456,-3.5375912268991945,11.0,482.0],["CSNK2A2_1459",0.13239725389870224,-2.7787719968197937,11.0,482.0],["SPNS1_83985",0.1279582757100671,-2.6428877274527025,11.0,482.0],["MCM6_4175",0.13563011132487687,-2.8801914745517805,11.0,482.0],["CASQ2_845",0.12757229386510097,-2.631256261742643,11.0,482.0],["CD300C_10871",0.13051554391239126,-2.7206938589158716,11.0,482.0],["TRIM11_81559",0.12926103128131594,-2.682363184307142,11.0,482.0],["ATF2_1386",0.12337458254491109,-2.5066561521343336,11.0,482.0],["HPGD_3248",0.13210774891495186,-2.769790911111074,11.0,482.0],["DNAJC10_54431",0.12405014411328104,-2.5264744447363086,11.0,482.0]],"bottom":[["RAB11B_9230",-0.14971895126778886,-3.34648046794926,11.0,482.0],["SKI_6497",-0.14600370281059133,-3.219669437583661,11.0,482.0],["CPNE2_221184",-0.13263859220282692,-2.7862715374481652,11.0,482.0],["ZNF695_57116",-0.13022601613432844,-2.7118199307365254,11.0,482.0],["MBD6_114785",-0.14079272773779325,-3.0464572325874886,11.0,482.0],["ZNF682_91120",-0.12998478702043012,-2.704439003313695,11.0,482.0],["SIAH1_6477",-0.14793374042240212,-3.2852014949981787,11.0,482.0],["FUT9_10690",-0.13963475156969735,-3.008702165199867,11.0,482.0],["AFG3L2_10939",-0.1300817945623953,-2.7074057697783678,11.0,482.0],["TPST1_8460",-0.1361125408956773,-2.8955038978301033,11.0,482.0],["HSPA1L_3305",-0.1612508133491219,-3.757751397796995,11.0,482.0],["YPEL2_388403",-0.15531595251784497,-3.542749053221963,11.0,482.0],["DHODH_1723",-0.13500278991696282,-2.8603492966550865,11.0,482.0],["NPC2_10577",-0.13949001631520347,-3.0040019514920653,11.0,482.0],["JAG1_182",-0.1265590558109087,-2.600862482298424,11.0,482.0],["PYHIN1_149628",-0.17041805243956998,-4.103835236385994,11.0,482.0],["ZNF320_162967",-0.13215603172855897,-2.7712875967656534,11.0,482.0],["OR2C1_4993",-0.13828377265976247,-2.9649919926635184,11.0,482.0],["LIMK2_3985",-0.1609610929322414,-3.7470907878565525,11.0,482.0],["ZNF24_7572",-0.12921283978148437,-2.6808969356471435,11.0,482.0],["CNOT4_4850",-0.14822317213671374,-3.2950931171315787,11.0,482.0],["PARN_5073",-0.14185424677664912,-3.081302252472543,11.0,482.0],["LMX1B_4010",-0.14006896417306489,-3.0228280712766264,11.0,482.0],["NOVA2_4858",-0.13355524068538602,-2.8148614205449163,11.0,482.0],["CD52_1043",-0.1325902627700844,-2.784768786170207,11.0,482.0],["OR2G3_81469",-0.13162527143116318,-2.7548602833376408,11.0,482.0],["SCARA3_51435",-0.13456852535502167,-2.846659276319699,11.0,482.0],["CENPJ_55835",-0.1338930088788408,-2.825438279542436,11.0,482.0],["IL19_29949",-0.15454392165782324,-3.5153021325722977,11.0,482.0],["HAS1_3036",-0.13958650881797474,-3.007135039356863,11.0,482.0],["SLC30A10_55532",-0.13061206955143506,-2.7236560231547267,11.0,482.0],["EVC2_132884",-0.14658269964923212,-3.239250264270628,11.0,482.0],["LARGE1_9215",-0.12834430887212536,-2.6545501607170547,11.0,482.0],["AKR7A2_8574",-0.13948999186829647,-3.004001158216528,11.0,482.0],["PP2D1_151649",-0.13756000924602613,-2.941724487962987,11.0,482.0],["MEOX2_4223",-0.12959884754352638,-2.692654283145228,11.0,482.0],["SLC27A2_11001",-0.1273310515764347,-2.624001419986868,11.0,482.0],["LOC494141_494141",-0.13702921750362568,-2.924726862929276,11.0,482.0],["FLG2_388698",-0.16515888130298917,-3.903210462200131,11.0,482.0],["ASAP2_8853",-0.14431495480478865,-3.1629414844305694,11.0,482.0],["TLL2_7093",-0.1570046859850028,-3.60320437468149,11.0,482.0],["SOX4_6659",-0.13751175262007784,-2.9401768429406303,11.0,482.0],["PPP2R3A_5523",-0.13466500797732034,-2.8496976186694907,11.0,482.0],["LHCGR_3973",-0.16366310229149922,-3.847172655806149,11.0,482.0],["PRSS38_339501",-0.14803020286454158,-3.288496332202911,11.0,482.0],["SLC30A9_10463",-0.15550897488778417,-3.5496300436708137,11.0,482.0],["KCTD5_54442",-0.14561772679317245,-3.2066535557047793,11.0,482.0],["APOBEC3F_200316",-0.15685993673547763,-3.5979999667628277,11.0,482.0],["TNFSF4_7292",-0.14841619335416117,-3.301699141433091,11.0,482.0],["ZNF735_730291",-0.14060209657739353,-2.9512319042190436,10.0,464.0],["CDH24_64403",-0.14856106159235638,-3.306662065041346,11.0,482.0],["PRB4_5545",-0.13876622495611607,-2.98055975140015,11.0,482.0],["TSHR_7253",-0.1338447658480598,-2.8239262138592176,11.0,482.0],["RAB3GAP2_25782",-0.13244550031075947,-2.780270321809576,11.0,482.0],["PRDM11_56981",-0.17630452412370612,-4.335043437382279,11.0,482.0],["ZKSCAN8_7745",-0.12699328435181637,-2.6138630957938647,11.0,482.0],["NTRK3_4916",-0.13032252211629683,-2.714775963781691,11.0,482.0],["ADAM8_101",-0.15546068231324311,-3.5479077748531065,11.0,482.0],["SMPDL3B_27293",-0.1345202453029642,-2.845139579224611,11.0,482.0],["ZNF544_27300",-0.12781360653119933,-2.638524711377233,11.0,482.0],["RIDA_10247",-0.12930929396311464,-2.683832057965105,11.0,482.0]]}}}
{"ccle_rrbs_tss1kb":{"corr":{"top":[["UBE2E2_3_23243783_23244783",0.20633486744008367,-8.6762029493016,23.0,804.0],["UBE2E2-AS1_3_23244069_23245069",0.20823754456691293,-8.857274775593313,23.0,807.0],["TAF12_1_28969604_28970604",0.16478391827297287,-5.616399153236223,23.0,787.0],["ALPL_1_21834850_21835850",0.19371515430779454,-7.690985109892374,23.0,802.0],["MEF2C_5_88179283_88180283",0.22537189865778173,-10.083542397849802,22.0,790.0],["ZNF879_5_178449804_178450804",0.19244109622942787,-6.589915461793682,16.0,690.0],["UBE2E2-AS1_3_23244484_23245484",0.2163842623736158,-9.535151201889379,23.0,808.0],["ZNF879_5_178449752_178450752",0.20680376458254804,-6.669769153601267,15.0,603.0],["NR3C1_5_142783254_142784254",0.29400716360112505,-17.285821095979646,23.0,807.0],["BASP1_5_17216669_17217669",0.183945897250104,-6.4679994138375765,18.0,740.0],["ZNF788P_19_12202077_12203077",0.16825175198828293,-5.833187015351878,23.0,787.0],["HSPA1B_6_31794511_31795511",0.28210701415038836,-15.97889269404545,23.0,810.0]],"bottom":[["RTEL1-TNFRSF6B_20_62288162_62289162",-0.10280139670563232,-2.259818132379263,19.0,709.0],["STRA6_15_74501371_74502371",-0.09912083917889696,-2.368422297296738,23.0,806.0],["DCPS_11_126172646_126173646",-0.08013379963699009,-1.6836107877213944,23.0,810.0],["PNPLA2_11_817900_818900",-0.11933392775087598,-2.93466346857334,22.0,716.0],["EPRS_1_220220000_220221000",-0.17342122333788634,-6.212777210283811,22.0,795.0],["ATE1_10_123687578_123688578",-0.07290342406482576,-1.4496479634273558,23.0,809.0]]},"para":{"top":[["UCMA_10_13276328_13277328",0.13118531686164026,-2.2042551772506473,10.0,354.0],["PPY_17_42019642_42020642",0.11946885455208846,-2.751020983084075,13.0,584.0],["ALPL_1_21834850_21835850",0.15090306188627742,-5.130067727336103,23.0,802.0],["ZNF879_5_178449804_178450804",0.14366930946677173,-4.165188761973048,16.0,690.0],["TNF_6_31542343_31543343",0.11187074819508357,-2.632259126406727,13.0,628.0],["MIR5089_17_45049382_45050382",0.12641525282153096,-3.29054643201747,17.0,659.0],["ZNF879_5_178449752_178450752",0.17157969821030672,-4.992659897568929,15.0,603.0],["OPN1LW_23_153408697_153409697",0.12016508496520051,-3.202342812522577,19.0,703.0],["GHR_5_42422876_42423876",0.14077784914637023,-2.6633415184902405,9.0,403.0],["LOC101928882_3_180587966_180588966",0.13890829186796383,-3.497873477824702,16.0,590.0],["APOA4_11_116694011_116695011",0.15413510026741786,-3.099385617305548,11.0,410.0]],"bottom":[["SRRM2_16_2801329_2802329",-0.1304415351320839,-4.058674863072426,23.0,806.0],["CFDP1_16_75467387_75468387",-0.0861869517477428,-2.180165010880566,23.0,805.0]]}}}
{"ccle_gene_tpm":{"corr":{"top":[["RP11-1101K5.2_ENSG00000255033.1",0.23204948820021715,-13.198233666537725,29.0,990.0],["HNRNPA1P13_ENSG00000213568.4",0.24386583904985398,-14.535610129592417,29.0,990.0],["TBC1D26_ENSG00000214946.9",0.2116096588780505,-11.053127233531232,29.0,990.0],["CHRNA2_ENSG00000120903.6",0.21555169562982004,-11.450472142396528,29.0,990.0],["RP5-892K4.1_ENSG00000271806.1",0.25066804616721855,-15.338473952981099,29.0,990.0]],"bottom":[["EMB_ENSG00000170571.7",-0.12524902090880777,-4.214950299919134,29.0,990.0],["OPN3_ENSG00000054277.8",-0.1169155448918035,-3.73583582077459,29.0,990.0],["FAM107B_ENSG00000065809.9",-0.1098151086385937,-3.3515869548876123,29.0,990.0],["GGH_ENSG00000137563.7",-0.11471874466352307,-3.6146082314491244,29.0,990.0],["SMYD2_ENSG00000143499.9",-0.103781906490711,-3.042251252314137,29.0,990.0],["AL136218.1_ENSG00000215462.1",-0.0958534906568743,-2.659463241229016,29.0,990.0],["LYPLAL1_ENSG00000143353.7",-0.15707642389861218,-6.330502323716572,29.0,990.0],["EDN1_ENSG00000078401.6",-0.09894142244117683,-2.805365217130061,29.0,990.0],["TLR1_ENSG00000174125.3",-0.09868863794241105,-2.793269075930823,29.0,990.0]]},"para":{"top":[["RP4-803J11.2_ENSG00000237481.1",0.14568205142792334,-5.775395707451303,29.0,990.0],["VRTN_ENSG00000133980.4",0.1766506581853097,-8.059961726993677,29.0,990.0],["AATK-AS1_ENSG00000225180.2",0.1367770662399658,-5.194203616908121,29.0,990.0],["CTD-3236F5.1_ENSG00000240808.1",0.13863566397960725,-5.3127034624757155,29.0,990.0],["CYP17A1_ENSG00000148795.5",0.13237746428412117,-4.919503212737721,29.0,990.0],["MYO1H_ENSG00000174527.5",0.14302670099188508,-5.598574544132348,29.0,990.0],["GPHA2_ENSG00000149735.2",0.1583815420751282,-6.662552759575447,29.0,990.0],["RP11-50B3.2_ENSG00000254833.1",0.1467730465611003,-5.848882256737305,29.0,990.0],["IGLON5_ENSG00000142549.9",0.14938749863192477,-6.027174210242635,29.0,990.0],["ZNF558_ENSG00000167785.4",0.1316952285547857,-4.877654944646611,29.0,990.0],["RP1-69M21.2_ENSG00000235643.1",0.16518546507427295,-7.166351047117305,29.0,990.0],["APOA1_ENSG00000118137.5",0.12801629218029165,-4.655289734729312,29.0,990.0],["CCDC13-AS1_ENSG00000173811.6",0.14274846277056003,-5.580222672052854,29.0,990.0]],"bottom":[["RPL7L1P8_ENSG00000228766.3",-0.11830187736599433,-4.095552673503871,29.0,990.0],["SMYD2_ENSG00000143499.9",-0.11061887370812423,-3.680916357685658,29.0,990.0]]}}}
{"ccle_rrbs_tss_clusters":{"corr":{"top":[["ARMC5_3",0.20215653712289858,-8.497624063722554,23.0,820.0],["BARD1_1",0.22725616620129055,-4.414138107381935,8.0,314.0],["LINC00628_1",0.17957860230910289,-3.635019353312749,11.0,405.0],["ARMC5_9",0.204469003187548,-8.681437152367744,23.0,820.0],["COL4A4_3",0.17864228535180476,-6.662569391982825,23.0,808.0],["EMB_2",0.225095887174447,-10.106184359313046,22.0,794.0],["LOC105371899_2",0.20374935438858874,-2.731837747964181,8.0,223.0],["LINC00621_1",0.1979999646767384,-7.89571151615363,22.0,790.0],["EBF1_2",0.1816344392473208,-6.937655558619713,23.0,817.0],["NR3C1_1",0.26896845722086965,-14.710451150803168,23.0,820.0],["GALNT14_3",0.1776483916791182,-6.652128792393995,23.0,816.0],["KCNK15-AS1",0.21009243864958507,-3.4911192352828615,10.0,279.0],["KLK1_2",0.19077646387967423,-6.693516687052651,22.0,709.0],["SPATA8-AS1_1",0.19930347705643708,-4.205327591800757,13.0,385.0],["ARMC5_6",0.20184586743138566,-8.473094411894062,23.0,820.0],["NREP_1",0.2250740846370686,-10.288987566224877,23.0,809.0],["RIN2_1",0.1845608627054739,-3.6621889158096432,9.0,388.0],["GGH_1",0.2415514102046051,-6.750819284821129,10.0,446.0],["C1orf61_3",0.18334443351843427,-7.07429306462303,23.0,819.0],["UBE2E2_3",0.2067082529304949,-8.842039777243306,23.0,818.0]],"bottom":[["TRNAU1AP_1",-0.12495845084560374,-2.8946600589966622,19.0,643.0],["ABRAXAS1_3",-0.1736948358875771,-3.8051712379763187,16.0,453.0],["MIR877_2",-0.09873063661728824,-2.2329705835124813,23.0,755.0],["WWP2_7",-0.10492113234809264,-2.506663460471669,23.0,769.0],["RBM6_1",-0.1255103394807129,-2.5410631488637163,14.0,548.0],["PEMT_2",-0.11737337787752997,-2.5083596495219225,17.0,616.0],["DYNLL1_3",-0.15663697492876455,-3.7318022334878727,14.0,551.0],["FASTKD1_1",-0.1393455317325826,-3.248996215695964,16.0,593.0],["EPRS_2",-0.1646221809146345,-5.749263109150599,23.0,810.0],["SUMO1_2",-0.1316957424812748,-3.6138638197175914,21.0,751.0]]},"para":{"top":[["LINC00628_1",0.1765477883045053,-3.7904057425857487,11.0,405.0],["MIR4798_2",0.13381612768092122,-3.170556076922152,10.0,565.0],["LOC101927793_3",0.13891860063443384,-4.360747802229139,22.0,777.0],["FLJ45513",0.14672766714624433,-2.4596144889823095,8.0,332.0],["CIDEA_2",0.13445306739561094,-4.273954231110469,22.0,810.0],["COL4A4_3",0.15089831366525847,-5.160909898736947,23.0,808.0],["IL17RD_2",0.12454439042463482,-2.522268151034058,10.0,478.0],["B4GALNT3_2",0.15652483086791152,-3.3109281993612236,10.0,435.0],["GADD45A_1",0.1644984519836979,-3.3103164925661472,8.0,395.0],["GBP4_2",0.15546857889383317,-3.27631080015774,8.0,437.0],["LOC105371899_2",0.20268975101387396,-2.972245945641752,8.0,223.0],["ABI3_2",0.11611512913237168,-2.067204469497404,8.0,415.0],["ATP6V0CP3_1",0.14396330207459462,-4.783250513764614,23.0,810.0],["RBSN_2",0.20335280344562476,-5.177563657093628,11.0,449.0],["ZNF746_1",0.14400126737845026,-3.381606938839716,16.0,524.0],["FLNB_1",0.16220941665565905,-3.4005546259969326,10.0,419.0],["TMCC2_5",0.1472105345513731,-2.9381499640561093,9.0,421.0],["TNRC6C-AS1_3",0.15427711832192806,-4.020190451569577,18.0,568.0],["LOC105373051_3",0.15209468654701733,-2.9663208483825825,12.0,396.0],["NDUFA1_2",0.1662772266290962,-2.8826872718230927,8.0,321.0],["HIST1H3G_3",0.1694965364229695,-4.24038192187732,11.0,508.0],["SLCO4C1_3",0.14274758623913542,-2.3402259868088477,8.0,327.0],["PCAT1_2",0.12034749565081494,-3.0147242245730324,10.0,655.0],["C19orf38_3",0.16430970477611223,-2.832986259812196,11.0,318.0],["KCNK15-AS1",0.2174597353633086,-3.9476759188490527,10.0,279.0],["CDH2_3",0.15445141756022834,-5.186625251156643,22.0,776.0],["LOC541472_1",0.15570434966290062,-5.383877673573714,23.0,798.0],["SPATA8-AS1_1",0.1849252853616463,-3.938921504890065,13.0,385.0],["LOC101929420_1",0.16971396926377252,-3.1229415834966967,9.0,342.0],["RIN2_1",0.1538922126768452,-2.9570976578216888,9.0,388.0],["LOC100287329_2",0.12783501593997462,-2.7171526176274408,8.0,505.0],["CCDC180_1",0.1269794554483773,-3.2525621446732584,15.0,645.0],["LOC101928882_2",0.1422451175050626,-3.0081585930754864,12.0,463.0],["GBP4_1",0.1326012278147128,-2.6081105317207913,8.0,443.0],["HS3ST3A1_1",0.13398132414956343,-3.659805371027686,16.0,674.0]],"bottom":[["ABRAXAS1_3",-0.21553148984100562,-5.803758766622198,16.0,453.0],["BOD1_1",-0.10451600598877969,-2.913387074209995,23.0,819.0],["SRRM2_3",-0.11561779064212424,-3.4005756037909785,23.0,820.0],["CACNG6_2",-0.0745805008258413,-1.4294865362793434,8.0,566.0],["KCNH6_1",-0.12410556659107007,-1.7012474478522077,9.0,267.0],["DYNLL1_3",-0.1431518359322962,-3.4704657491486084,14.0,551.0],["ONECUT3_3",-0.10863232614004649,-3.090762705958547,23.0,820.0],["ZMYND10_1",-0.10964209915351925,-1.9495610684270988,8.0,427.0]]}}}
{"ccle_rrbs_cgi_clusters":{"corr":{"top":[["5_158521906_158526598-3",0.20892259860135845,-8.991869655915755,23.0,815.0],["5_142783571_142787071-1",0.2694441250172678,-14.5788121508882,23.0,809.0],["19_1764144_1768364-1",0.22473466350663768,-10.37440923175223,23.0,819.0],["8_63949122_63954104-1",0.2415514102046051,-6.750819284821129,10.0,446.0],["2_130748104_130752424-1",0.23037992967162618,-3.6218490988320733,8.0,242.0],["2_215671995_215674523-1",0.22725616620129055,-4.414138107381935,8.0,314.0],["5_142780071_142783571-2",0.27069928749824274,-14.89712910473817,23.0,820.0],["2_31361071_31363821-1",0.19184700918028183,-7.553323192767918,22.0,803.0],["20_62691942_62694612-1",0.252584520565964,-12.8492972054018,23.0,809.0],["13_23487630_23492058-1",0.1979999646767384,-7.89571151615363,22.0,790.0],["10_116850261_116853177-1",0.21782529773344697,-6.8232686447317255,17.0,553.0],["2_91995040_91997758-2",0.19074601573161482,-7.057605744736654,21.0,754.0],["19_10524982_10529755-3",0.19228424194144225,-5.730912961206566,15.0,591.0],["5_111091438_111095980-1",0.2250740846370686,-10.288987566224877,23.0,809.0],["7_39451515_39456291-1",0.24852446890788202,-11.181265277990487,20.0,722.0],["5_49734607_49739300-2",0.225095887174447,-10.106184359313046,22.0,794.0],["12_130385609_130388374-1",0.19306137926672393,-2.6458975047840063,9.0,239.0],["17_74963089_74967303-3",0.20374935438858874,-2.731837747964181,8.0,223.0],["3_23244560_23247071-1",0.2107276334974309,-9.16960002250823,23.0,818.0],["16_31467982_31470642-3",0.20624079420086103,-8.814055347885933,23.0,819.0]],"bottom":[["7_929767_934014-2",-0.10539540928577983,-2.1559949935663467,19.0,635.0],["1_220217416_220221824-3",-0.16881914233724893,-5.966971324593523,22.0,803.0],["17_37072860_37077097-3",-0.12179362249644597,-3.1189959378691854,18.0,743.0],["14_93151278_93154018-1",-0.16188538616492318,-4.265346998507994,16.0,600.0],["3_57542587_57545244-2",-0.12837502286693372,-3.626634381069171,23.0,793.0],["19_18261187_18263914-2",-0.11124163450743133,-2.443273804792142,20.0,663.0],["7_933031_937648-2",-0.1092273581180259,-2.381624568083452,20.0,667.0],["1_220217416_220221824-2",-0.14648418711744585,-2.514936887928571,10.0,397.0],["19_50365561_50368286-1",-0.12898461375202183,-3.691572716045054,22.0,803.0],["1_28877402_28881704-1",-0.12495845084560374,-2.8946600589966622,19.0,643.0],["3_49975367_49980196-1",-0.1255103394807129,-2.5410631488637163,14.0,548.0],["17_80861327_80865743-1",-0.14179375289575805,-4.169062010765222,22.0,762.0],["17_70114274_70118136-1",-0.1448220776694851,-2.431836424275416,11.0,389.0],["4_39769679_39773944-3",-0.12025120766279387,-3.174382796091626,23.0,774.0],["2_131100166_131102863-2",-0.146099582636856,-3.0438620293532153,14.0,499.0],["12_120907286_120909894-3",-0.15663697492876455,-3.7318022334878727,14.0,551.0],["16_475868_478815-3",-0.1706994399140039,-5.815322525152979,21.0,763.0],["3_44618551_44622971-3",-0.11030432400712281,-1.5408225925889505,9.0,384.0],["19_8548539_8553215-1",-0.1301641682644887,-3.7861580157308423,23.0,811.0],["11_65357292_65359810-1",-0.12071568705936903,-3.1611704493271793,20.0,767.0]]},"para":{"top":[["1_68148913_68151591-1",0.1644984519836979,-3.3103164925661472,8.0,395.0],["17_71946478_71951255-1",0.1436734785732567,-3.306547391545186,11.0,516.0],["7_63922400_63926741-1",0.15961505445772411,-5.306710323768499,21.0,747.0],["17_13501829_13504694-1",0.13398132414956343,-3.659805371027686,16.0,674.0],["12_569532_572362-2",0.15652483086791152,-3.3109281993612236,10.0,435.0],["3_15138035_15142890-2",0.20335280344562476,-5.177563657093628,11.0,449.0],["11_27744018_27746564-3",0.18522872041272248,-4.344528099573893,9.0,439.0],["7_27239500_27242311-2",0.14413004138656124,-2.6082987901733197,8.0,374.0],["18_47823069_47827325-1",0.1499168060690103,-2.639673340623027,8.0,351.0],["2_130748104_130752424-1",0.21749796899158672,-3.5194613214578325,8.0,242.0],["11_75903717_75907918-2",0.12683558138838974,-3.193869144417267,13.0,633.0],["6_26271290_26275557-1",0.1694965364229695,-4.24038192187732,11.0,508.0],["20_61808560_61812867-3",0.13244526302351564,-3.6023234401992,15.0,677.0],["19_59074084_59076755-2",0.1519309899558629,-2.7744746747112776,8.0,366.0],["7_56889389_56893798-2",0.1645776588510603,-4.4747853520883645,14.0,574.0],["2_95523393_95526188-3",0.18282792703194933,-2.880291567775449,8.0,264.0],["7_56881836_56886245-2",0.16926435637488008,-4.039559311539068,12.0,478.0],["10_85954751_85957303-1",0.14403405271238223,-3.8177638534225466,15.0,615.0],["18_25756794_25760175-3",0.15445141756022834,-5.186625251156643,22.0,776.0],["4_4117800_4122035-2",0.14911402498052778,-2.72562008933515,8.0,371.0],["16_14377324_14381747-2",0.14851892497762356,-3.00359513259268,9.0,426.0],["18_77178182_77182841-3",0.16172911660373746,-3.366862920873116,12.0,414.0],["13_19749260_19753483-2",0.17428729986530542,-3.9887527547002057,12.0,443.0],["18_14484798_14489485-2",0.1471666110138319,-4.891208306083537,23.0,796.0],["4_4117800_4122035-3",0.1408219589024063,-2.4980501696388098,8.0,369.0],["16_34208724_34211248-3",0.16534948859141183,-4.17582718229888,14.0,521.0],["3_183945040_183947920-2",0.13853164652823552,-3.635256851015487,16.0,624.0],["2_228029206_228031733-3",0.15096289702912327,-5.159404407279402,23.0,807.0],["12_53105912_53110471-1",0.1464005860625873,-4.819824299619562,23.0,790.0],["7_56887542_56891951-2",0.18173670223347152,-4.0835526684326195,11.0,420.0],["12_130385609_130388374-1",0.1684158598541073,-2.3881618647431875,9.0,239.0],["1_154730822_154735436-1",0.136538589395492,-4.20170749252165,19.0,771.0],["15_63340860_63343464-3",0.16827604933510185,-3.0555978720675636,8.0,339.0],["20_59862748_59867069-1",0.12581385766951753,-2.471592704833737,9.0,456.0],["4_6470175_6473355-1",0.15624416006937608,-3.576083766525347,14.0,479.0],["11_118963017_118965741-1",0.1491647623194273,-2.8437141618249866,9.0,392.0],["17_74963089_74967303-3",0.20268975101387396,-2.972245945641752,8.0,223.0],["16_28329225_28331857-2",0.17615793667646457,-3.1455998608250004,8.0,321.0],["5_101630049_101634373-3",0.14274758623913542,-2.3402259868088477,8.0,327.0],["9_141067395_141072191-1",0.17044714350329312,-2.4009191893833846,8.0,236.0]],"bottom":[["7_929767_934014-2",-0.1319831635535068,-3.428160080410509,19.0,635.0],["6_166793368_166796334-1",-0.10165541775118157,-2.785636987887176,23.0,815.0],["17_2263492_2267876-1",-0.10071684860497397,-2.7549951904356442,23.0,818.0],["10_12391696_12394589-3",-0.0988986783075841,-1.7867684430690531,10.0,458.0],["7_933031_937648-2",-0.128410096375408,-3.4134291549753235,20.0,667.0],["19_54492608_54496816-2",-0.0745805008258413,-1.4294865362793434,8.0,566.0],["1_43387835_43392551-3",-0.1293927233567801,-2.170825998659689,10.0,356.0],["23_2846853_2849511-2",-0.1290987820830448,-2.2701890950351715,10.0,382.0],["16_2799913_2802661-3",-0.1285044036527878,-4.004710952787856,23.0,817.0],["9_140482219_140484970-1",-0.09769509376603365,-1.790332119267944,12.0,469.0],["2_173290099_173292641-1",-0.12082389924545232,-3.5232821204527283,23.0,785.0],["17_70114274_70118136-1",-0.12789256109327052,-2.272863240612614,11.0,389.0],["5_173041123_173045895-1",-0.10451600598877969,-2.913387074209995,23.0,819.0],["19_1754411_1757606-1",-0.10364719028019448,-2.8645441511708696,23.0,814.0],["12_120907286_120909894-3",-0.1431518359322962,-3.4704657491486084,14.0,551.0],["3_44618551_44622971-3",-0.14157150149513797,-2.594551710396347,9.0,384.0]]}}}
