{"ccle_chromatin":{"corr":{"top":[],"bottom":[]},"para":{"top":[],"bottom":[]}}}
{"ccle_rppa":{"corr":{"top":[],"bottom":[]},"para":{"top":[["RPS6_S6_pS240_S244",0.07756691653556994,-1.9970615768272686,10.0,889.0],["TP53_p53_Caution",0.06955684535755706,-1.730711213919706,10.0,889.0],["RPS6_S6_pS235_S236",0.08169455540284737,-2.1431163244912583,10.0,889.0],["MAP2K1_MEK1",0.07090548540709198,-1.7739871544635843,10.0,889.0]],"bottom":[["AR_AR",-0.09477222701427788,-2.645897713107242,10.0,889.0],["RB1_Rb_Caution",-0.0661239578456022,-1.6234014011886,10.0,889.0],["VAV1_VAV1_Caution",-0.07920162630594556,-2.0541853384042836,10.0,889.0],["IRS1_IRS1",-0.08774297743789118,-2.368053292618184,10.0,889.0],["PARP1_PARP_cleaved_Caution",-0.06510226719868248,-1.5922503256224254,10.0,889.0]]}}}
{"ccle_metabolomics":{"corr":{"top":[],"bottom":[]},"para":{"top":[["6-phosphogluconate",0.04973585665639334,-1.1860523718623006,10.0,917.0],["lactate",0.065307238285788,-1.6293643809526035,10.0,917.0],["phosphocreatine",0.07638884648809434,-1.9972115092762794,10.0,917.0],["2-aminoadipate",0.10874107708585931,-3.3287226240556342,10.0,917.0],["pipecolic acid",0.0912570586130197,-2.560922258406388,10.0,917.0],["malondialdehyde",0.0755712809242384,-1.9685595069246198,10.0,917.0]],"bottom":[["ornithine",-0.06944318496389378,-1.7614926489845169,10.0,917.0],["C58:8 TAG",-0.07508165823428653,-1.9515165396758294,10.0,917.0]]}}}
{"ccle_rrbs_enhancer_clusters":{"corr":{"top":[],"bottom":[["13-112266067-112268577-0_enh",-0.0973890897140594,-2.3323355179339096,10.0,833.0],["16-78207751-78210557-0_enh",-0.09083727427735756,-2.039810091978107,10.0,813.0],["14-95837948-95841481-0_enh",-0.11368498831495606,-2.966899542715457,9.0,815.0],["1-63465000-63467717-0_enh",-0.09814307329404669,-2.2740609319367224,10.0,795.0],["3-193658817-193661647-0_enh",-0.09282892201207388,-1.9384132165065118,10.0,730.0],["13-71723710-71726962-1_enh",-0.09395666691825538,-1.9377065643407192,9.0,713.0],["4-174434313-174438870-1_enh",-0.08805780111457222,-1.9547109968639107,10.0,821.0],["5-77145580-77148090-2_enh",-0.061758284500669114,-1.1116555324556685,9.0,810.0],["4-174434313-174438870-0_enh",-0.0810789749719699,-1.7087411008720979,10.0,819.0],["3-147123146-147125741-2_enh",-0.07905684056509633,-1.608648056952014,10.0,798.0],["12-54427214-54429789-1_enh",-0.09571348638067453,-2.23096099716485,10.0,817.0],["7-127175966-127179546-1_enh",-0.0633850955161006,-0.9730006577349307,9.0,641.0],["7-21082342-21084901-0_enh",-0.09332450681735407,-1.9188076893440513,8.0,715.0],["6-41435075-41437695-1_enh",-0.10508950348984365,-2.608417863002945,10.0,818.0],["7-127175966-127179546-0_enh",-0.08117152259836412,-1.6310830375268621,9.0,771.0],["9-92290484-92293186-2_enh",-0.07070874792698827,-1.3709402033823177,10.0,813.0],["23-25017911-25020756-1_enh",-0.07007435207792746,-1.3342540135349392,9.0,800.0],["2-220715584-220719300-0_enh",-0.09310290364695654,-2.0749544035397927,10.0,790.0],["12-54427214-54429789-0_enh",-0.0672506298300342,-1.2669519866152144,10.0,811.0]]},"para":{"top":[["11-109998895-110002065-1_enh",0.07151712483322732,-1.6249886470634176,9.0,761.0],["7-135454908-135458072-0_enh",0.07616198219257557,-1.8672053053366864,10.0,833.0],["10-125189531-125192075-1_enh",0.0918189876421155,-2.351498011658959,10.0,803.0]],"bottom":[["13-112266067-112268577-0_enh",-0.0976506008144659,-2.6370288925996603,10.0,833.0],["16-78207751-78210557-0_enh",-0.06983319296868686,-1.6445482156770395,10.0,813.0],["7-115453163-115456796-0_enh",-0.06700685251058874,-1.5093302520296608,8.0,770.0],["14-95837948-95841481-0_enh",-0.07895278946609766,-1.9289188919808367,9.0,815.0],["16-78830182-78832888-0_enh",-0.06719013615250374,-1.5909601372977324,10.0,833.0],["7-21082342-21084901-1_enh",-0.059843436763229826,-1.3609729183216763,9.0,810.0],["3-147125741-147128336-1_enh",-0.06449969292940853,-1.3952467188942677,8.0,728.0],["23-25019701-25022532-2_enh",-0.06851364550990784,-1.6045570269272207,9.0,813.0],["2-45104927-45109653-2_enh",-0.06465399963663633,-1.333962148524103,8.0,670.0],["13-71723710-71726962-1_enh",-0.10542410397443196,-2.633101887215002,9.0,713.0],["18-25498905-25502559-2_enh",-0.06292291582271085,-1.4361604605032718,9.0,803.0],["13-73222400-73225153-0_enh",-0.08091805546218003,-1.9443784044422485,8.0,786.0],["6-41378559-41383515-1_enh",-0.060818776749131186,-1.3669440942644062,9.0,790.0],["2-85999236-86003005-0_enh",-0.06547036340313482,-1.5264151648756739,10.0,820.0],["2-45028569-45031654-2_enh",-0.05485080434355197,-1.2391621469662037,9.0,817.0],["10-131404689-131407310-2_enh",-0.06780925080618302,-1.5996687592576264,10.0,825.0],["5-77145580-77148090-2_enh",-0.05758962294291853,-1.3024112912166974,9.0,810.0],["3-147123146-147125741-2_enh",-0.09363469616073418,-2.40721016989045,10.0,798.0],["9-974361-977288-1_enh",-0.07183864697029069,-1.7229483778718495,10.0,827.0],["12-54427214-54429789-1_enh",-0.1246221866773157,-3.7666503969983647,10.0,817.0],["5-76938836-76943396-1_enh",-0.06127850055293562,-1.3729193205626344,9.0,784.0],["7-127175966-127179546-1_enh",-0.061424160929015245,-1.2297465304759974,9.0,641.0],["17-32078098-32080677-2_enh",-0.06565216982170712,-1.4701561006654489,8.0,768.0],["7-69978613-69983299-1_enh",-0.06402442141340818,-1.4737575306321709,9.0,810.0],["6-41435075-41437695-1_enh",-0.08634082685580174,-2.1852810846989996,10.0,818.0],["12-54424638-54427214-2_enh",-0.06461932959137268,-1.5078436647580395,10.0,825.0],["7-69700231-69702923-1_enh",-0.06908495210020703,-1.6126395077491829,10.0,805.0],["7-127175966-127179546-0_enh",-0.09336287766160908,-2.3379207545666816,9.0,771.0],["5-77148090-77150599-1_enh",-0.06536354096291692,-1.283510174412774,8.0,612.0],["2-85995467-85999236-2_enh",-0.05899450683353458,-1.2608970169388283,8.0,729.0],["9-92290484-92293186-2_enh",-0.06840151795442363,-1.6025416894096436,10.0,813.0],["5-92739502-92743122-0_enh",-0.11220217859763558,-3.246543798900355,10.0,833.0],["1-10923202-10927728-2_enh",-0.07546209761823541,-1.839010359113223,10.0,829.0],["16-54540874-54543446-2_enh",-0.06518012252353873,-1.4790136808031027,8.0,787.0],["6-44519780-44523377-1_enh",-0.07639415559613584,-1.7773849580571357,9.0,768.0],["23-25017911-25020756-1_enh",-0.07299576589550036,-1.7205652675187972,9.0,800.0],["1-38736659-38739376-0_enh",-0.07003209979367983,-1.6756281934341624,10.0,833.0],["1-88644698-88647422-1_enh",-0.0719288054807493,-1.6273785247169317,9.0,754.0]]}}}
{"ccle_mirna":{"corr":{"top":[],"bottom":[["hsa-miR-1269_miR00086.1",-0.08411054066050863,-2.029352077624424,10.0,944.0],["hsa-miR-548m_miR00496.2",-0.08748257205245179,-2.1638613886197477,10.0,944.0],["hsa-miR-454_miR00380.1",-0.091980360089257,-2.350176960639717,10.0,944.0],["hsa-miR-711_miR00711.1",-0.0661220360986193,-1.38546886713653,10.0,944.0],["hsa-miR-26a_miR00263.1",-0.09847459503048482,-2.6332258843947747,10.0,944.0],["hsa-miR-30e_miR00291.1",-0.07644843537229039,-1.7400358529521274,10.0,944.0],["hsa-miR-34c-3p_miR00326.1",-0.1063410314503828,-2.9985220533911425,10.0,944.0],["hsa-miR-519c-3p_miR00448.1",-0.09611161110959704,-2.5283076357245915,10.0,944.0],["hsa-miR-1280_miR00101.2",-0.0902121792864925,-2.2759878685983064,10.0,944.0],["hsa-miR-1236_miR00051.1",-0.08802565834179114,-2.1859384378899205,10.0,944.0],["hsa-miR-212_miR00241.1",-0.08586645418196916,-2.0988437898433734,10.0,944.0],["hsa-miR-26b_miR00264.1",-0.07786952237627394,-1.791993514572246,10.0,944.0],["hsa-miR-367_miR00334.1",-0.07672130008497662,-1.7499524927872772,10.0,944.0],["hsa-miR-1260_miR00077.1",-0.08118680332439344,-1.9162896969054262,10.0,944.0],["hsa-miR-1278_miR00098.1",-0.09824313581615132,-2.622851125095698,10.0,944.0],["hsa-miR-1183_miR00025.1",-0.10268061674545527,-2.8254664089378467,10.0,944.0]]},"para":{"top":[["hsa-miR-1283_miR00104.1",0.06727426747560218,-1.722700424959317,10.0,944.0],["ebv-miR-BART10_miR00721.1",0.08005309811906655,-2.171204664259976,10.0,944.0],["hsa-miR-138_miR00146.1",0.060973935447824326,-1.5238023379846288,10.0,944.0],["ebv-miR-BART18-5p_miR00732.1",0.06964452838366733,-1.8013039296929167,10.0,944.0],["hsa-miR-125a-3p_miR00073.1",0.08528535563326292,-2.372513703663437,10.0,944.0],["hsa-miR-193a-3p_miR00212.1",0.07506711240279286,-1.9889631788429796,10.0,944.0],["hsa-miR-664_miR00622.1",0.07704781221478733,-2.060243109951656,10.0,944.0],["hsa-miR-296-3p_miR00269.1",0.07431610179128681,-1.9623199002451526,10.0,944.0],["ebv-miR-BART9_miR00749.1",0.0701678585709684,-1.8189386816226185,10.0,944.0],["ebv-miR-BART14_miR00726.1",0.07616975068316242,-2.028462928240787,10.0,944.0]],"bottom":[["hsa-miR-1183_miR00025.1",-0.06241283034844159,-1.5679487461665462,10.0,944.0],["hsa-miR-301a_miR00279.1",-0.0645618165982247,-1.635288085057705,10.0,944.0],["hsa-miR-1269_miR00086.1",-0.06450570965965521,-1.6335084732607945,10.0,944.0],["hsa-miR-103_miR00012.1",-0.059909097776101136,-1.4916170651716545,10.0,944.0],["hsa-miR-548m_miR00496.2",-0.0859207590540461,-2.3976662165358436,10.0,944.0],["hsa-miR-454_miR00380.1",-0.10249533302764834,-3.108265693565076,10.0,944.0],["hsa-miR-133b_miR00140.1",-0.055368336850602815,-1.358973271369896,10.0,944.0],["hsa-miR-208a_miR00234.1",-0.05947917238028475,-1.4787389404509153,10.0,944.0],["hsa-miR-23b_miR00260.1",-0.06678546576806296,-1.7067483684918818,10.0,944.0],["hsa-miR-140-3p_miR00149.1",-0.09059215564586193,-2.5872975903323296,10.0,944.0],["hsa-miR-1272_miR00089.1",-0.054620609803188655,-1.3378422505276706,10.0,944.0],["hsa-miR-181a_miR00183.1",-0.09524514830485832,-2.7844650434041847,10.0,944.0],["hsa-miR-23a_miR00259.1",-0.08614481638885534,-2.4065720975844487,10.0,944.0],["hsa-miR-711_miR00711.1",-0.05830179350814514,-1.4438139729063482,10.0,944.0],["hsa-miR-26a_miR00263.1",-0.09012522045317761,-2.567968706247335,10.0,944.0],["hsa-miR-508-5p_miR00418.1",-0.05688165718871229,-1.4023542763185612,10.0,944.0],["hsa-miR-30e_miR00291.1",-0.07934280268988364,-2.1446727279842768,10.0,944.0],["hsa-miR-655_miR00612.2",-0.07762379868628197,-2.081247071313408,10.0,944.0],["hsa-miR-34c-3p_miR00326.1",-0.08158525579973856,-2.2290830451385366,10.0,944.0],["hsa-miR-519c-3p_miR00448.1",-0.08274369267241366,-2.2734318589779097,10.0,944.0],["hsa-miR-1280_miR00101.2",-0.06555213773065706,-1.666889281662548,10.0,944.0],["hsa-miR-212_miR00241.1",-0.07422263839666014,-1.9590188671530124,10.0,944.0],["hsa-miR-300_miR00278.1",-0.06665506900508748,-1.7025077180596309,10.0,944.0],["hsa-miR-26b_miR00264.1",-0.08601396563641205,-2.4013686985982434,10.0,944.0],["hsa-miR-331-3p_miR00308.1",-0.06032011029712641,-1.5039913459106693,10.0,944.0],["hsa-miR-30a_miR00287.1",-0.07143840721609919,-1.8621749356677122,10.0,944.0],["hsa-miR-1915_miR00210.1",-0.0601892378474766,-1.5000445413868766,10.0,944.0],["hsa-miR-30d_miR00290.1",-0.05443371838523955,-1.3325919156036798,10.0,944.0],["hsa-miR-371-3p_miR00338.1",-0.08171597856634528,-2.2340621827878375,10.0,944.0],["hsa-miR-1260_miR00077.1",-0.08550976130913558,-2.3813793267310994,10.0,944.0],["hsa-miR-30c_miR00289.1",-0.06241302206343604,-1.5679546766144608,10.0,944.0],["hsa-miR-181b+hsa-miR-181d_miR00184.1",-0.09277838166498585,-2.6789050819932037,10.0,944.0],["hsa-miR-1231_miR00048.1",-0.068355166373322,-1.7582883332159212,10.0,944.0],["hsa-miR-34a_miR00324.1",-0.07069088896754933,-1.8366647000730316,10.0,944.0],["hsa-miR-339-3p_miR00315.1",-0.08136100009781133,-2.220556325587809,10.0,944.0],["hsa-miR-2276_miR00705.1",-0.07338176497331998,-1.929466557747907,10.0,944.0]]}}}
{"depmap_copy_number":{"corr":{"top":[["EFCAB6_64800",0.08881497846447194,-3.649553555537883,18.0,1704.0],["CELSR1_9620",0.09136451758155346,-3.833485236227684,18.0,1704.0],["C22orf46_79640",0.09434288238783962,-4.054348890846652,18.0,1704.0],["KIAA0930_23313",0.08989368376183235,-3.726798202944346,18.0,1704.0],["GTSE1-DT_150384",0.09191878756288648,-3.8740977130321372,18.0,1704.0],["MIR1249_100302149",0.08989368376183235,-3.726798202944346,18.0,1704.0],["TTLL12_23170",0.08828154384880123,-3.6116670270729347,18.0,1704.0],["SMC1B_27127",0.08962685102997252,-3.7076120166632482,18.0,1704.0],["TRMU_55687",0.09162115134714482,-3.8522614894625655,18.0,1704.0],["LOC730668_730668",0.09830935502150534,-4.358561991304335,18.0,1704.0],["SAMM50_25813",0.08749226819016441,-3.5559880370635626,18.0,1704.0],["MIR4763_100616143",0.09193699576945324,-3.8754356619211245,18.0,1704.0],["FBLN1_2192",0.08874376457594185,-3.644483741909461,18.0,1704.0],["ARHGAP8_23779",0.08870999060715642,-3.6420806131604793,18.0,1704.0],["UPK3A_7380",0.08946046522908503,-3.6956744861441813,18.0,1704.0],["LINC00229_414351",0.088696519787452,-3.6411223509298156,18.0,1704.0],["PHF21B_112885",0.08928127269268268,-3.6828406050566675,18.0,1704.0],["MIR4762_100616253",0.08854554662258537,-3.630391704427836,18.0,1704.0],["XRCC6_2547",0.09530981447989244,-4.127446089266588,18.0,1704.0],["PRR5-ARHGAP8_553158",0.08871413527661064,-3.642375475460344,18.0,1704.0],["MIR3619_100500828",0.09726689137462087,-4.277491154033421,18.0,1704.0],["TSPO_706",0.08749886742160357,-3.556451705434858,18.0,1704.0],["LOC339685_339685",0.09197725612772342,-3.8783948725721267,18.0,1704.0],["LOC105373051_105373051",0.08801759946828464,-3.5929969963527837,18.0,1704.0],["MEI1_150365",0.0950512085686877,-4.107829229143335,18.0,1704.0],["EFCAB6-AS1_100874197",0.08881497846447194,-3.649553555537883,18.0,1704.0],["LINC01656_101927526",0.08873746442437314,-3.6440354026684725,18.0,1704.0],["PARVG_64098",0.08943988022069058,-3.694198989753165,18.0,1704.0],["PKDREJ_10343",0.09173522603681829,-3.860623006057338,18.0,1704.0],["GTSE1_51512",0.09191878756288648,-3.8740977130321372,18.0,1704.0],["PRR34-AS1_150381",0.0977650128241481,-4.316129716471789,18.0,1704.0],["PARVB_29780",0.08843238811608078,-3.6223596292685976,18.0,1704.0],["PPARA_5465",0.09216601911759045,-3.8922850544917544,18.0,1704.0],["GRAMD4_23151",0.09063981538678222,-3.7807222614113867,18.0,1704.0],["LOC642648_642648",0.0977650128241481,-4.316129716471789,18.0,1704.0],["LINC00207_388910",0.08869586347046754,-3.641075666429862,18.0,1704.0],["MIRLET7BHG_400931",0.09726689137462087,-4.277491154033421,18.0,1704.0],["LOC101927551_101927551",0.08853422662467955,-3.6295877845785713,18.0,1704.0],["SHISAL1_85352",0.08945063825929332,-3.6949700682356963,18.0,1704.0],["TBC1D22A-AS1_642757",0.09137271408279063,-3.834084180421991,18.0,1704.0],["TTC38_55020",0.09155455472819216,-3.8473844317743735,18.0,1704.0],["NUP50-DT_100506714",0.09015527621225115,-3.7456578136512633,18.0,1704.0],["LINC00898_400932",0.09201095433647972,-3.8808726612545335,18.0,1704.0],["PNPLA5_150379",0.08789650123657429,-3.584448041628169,18.0,1704.0],["LINC00899_100271722",0.0977650128241481,-4.316129716471789,18.0,1704.0],["DESI1_27351",0.09530981447989244,-4.127446089266588,18.0,1704.0],["LOC105373064_105373064",0.09028285363289278,-3.7548736009289216,18.0,1704.0],["NUP50_10762",0.09015527621225115,-3.7456578136512633,18.0,1704.0],["LINC01644_101927722",0.09197102704825418,-3.8779369464914315,18.0,1704.0],["SULT4A1_25830",0.08871659219705232,-3.6425502728961003,18.0,1704.0],["SNU13_4809",0.09455358170758692,-4.070218850018564,18.0,1704.0],["RTL6_84247",0.08873746442437314,-3.6440354026684725,18.0,1704.0],["WNT7B_7477",0.09900984558767711,-4.4134868078688605,18.0,1704.0],["CERK_64781",0.09109640701387293,-3.8139205182936275,18.0,1704.0],["CDPF1_150383",0.09179753746814862,-3.86519435097308,18.0,1704.0],["PRR5_55615",0.08871413527661064,-3.642375475460344,18.0,1704.0],["TBC1D22A_25771",0.08890869736491218,-3.656231138347893,18.0,1704.0],["MIRLET7A3_406883",0.09726043703593573,-4.276991695963368,18.0,1704.0],["MIRLET7B_406884",0.09193699576945324,-3.8754356619211245,18.0,1704.0],["FAM118A_55007",0.08946046522908503,-3.6956744861441813,18.0,1704.0],["LOC284930_284930",0.09201095433647972,-3.8808726612545335,18.0,1704.0],["LINC01310_100128946",0.08878917335304302,-3.6477160295322477,18.0,1704.0],["MIR4535_100616415",0.08878917335304302,-3.6477160295322477,18.0,1704.0],["LOC101927447_101927447",0.08804665125685168,-3.595049493682216,18.0,1704.0]],"bottom":[["RAB26_25837",-0.07498408962176956,-2.7334553811442253,18.0,1704.0],["NTHL1_4913",-0.07558470460034156,-2.7703955774392677,18.0,1704.0],["MIR4516_100616258",-0.07409863482946516,-2.679463138101437,18.0,1704.0],["TRAF7_84231",-0.07509391148597316,-2.7401907307087674,18.0,1704.0],["MIR1225_100188847",-0.07440563366608112,-2.6981200145844295,18.0,1704.0],["MIR3180-5_100500916",-0.07510986704135214,-2.7411699932786937,18.0,1704.0],["SNHG19_100507303",-0.07509391148597316,-2.7401907307087674,18.0,1704.0],["CASKIN1_57524",-0.07527738844270929,-2.7514624254023103,18.0,1704.0],["ZNF598_90850",-0.07597312537333904,-2.794421402637874,18.0,1704.0],["NPW_283869",-0.073892208624929,-2.6669557847794705,18.0,1704.0],["PKD1_5310",-0.07440563366608112,-2.6981200145844295,18.0,1704.0],["TSC2_7249",-0.07543756764180616,-2.7613223873334634,18.0,1704.0],["LOC105371049_105371049",-0.07035860174611444,-2.4575245412942044,18.0,1704.0],["SLC9A3R2_9351",-0.07267148355468425,-2.5936085787802043,18.0,1704.0],["SNORD60_26788",-0.07509391148597316,-2.7401907307087674,18.0,1704.0]]},"para":{"top":[["CYP2D7_1564",0.06909152474201691,-2.6822824514680987,18.0,1704.0],["RBX1_9978",0.07035505935718814,-2.7547452553092686,18.0,1704.0],["TTLL1_25809",0.06901110661108402,-2.6777079144360303,18.0,1704.0],["EP300-AS1_101927279",0.0688618100483074,-2.6692271231015705,18.0,1704.0],["LINC01639_105373054",0.06967732150729729,-2.715740098741046,18.0,1704.0],["EFCAB6_64800",0.07006786394540324,-2.7381777605390147,18.0,1704.0],["C22orf46_79640",0.08084802717677489,-3.3994186511077324,18.0,1704.0],["KIAA0930_23313",0.06924083394899623,-2.690787674207902,18.0,1704.0],["MPPED1_758",0.06967732150729729,-2.715740098741046,18.0,1704.0],["MIR1249_100302149",0.06924083394899623,-2.690787674207902,18.0,1704.0],["TTLL12_23170",0.06933272924465582,-2.6960300453633774,18.0,1704.0],["LINC01589_100506737",0.06862056379182847,-2.6555556875398425,18.0,1704.0],["SMC1B_27127",0.06905704971100675,-2.6803208125835796,18.0,1704.0],["LOC101929829_101929829",0.06909152474201691,-2.6822824514680987,18.0,1704.0],["SAMM50_25813",0.06938441690222512,-2.6989812490520655,18.0,1704.0],["ARHGAP8_23779",0.0690742810559803,-2.6813011782341523,18.0,1704.0],["UPK3A_7380",0.06880434609797983,-2.6659669896763107,18.0,1704.0],["LINC00229_414351",0.06912023341118502,-2.6839166099227554,18.0,1704.0],["PHF21B_112885",0.06924083651188594,-2.6907878203200757,18.0,1704.0],["XRCC6_2547",0.08107201517809133,-3.4140194822600276,18.0,1704.0],["PRR5-ARHGAP8_553158",0.06908577416698107,-2.6819551850639405,18.0,1704.0],["TSPO_706",0.06912597156215984,-2.684243306020404,18.0,1704.0],["MEI1_150365",0.08100884048079486,-3.409897823336632,18.0,1704.0],["CYP2D6_1565",0.06909152474201691,-2.6822824514680987,18.0,1704.0],["LOC105373051_105373051",0.06922934965090768,-2.6901329374554868,18.0,1704.0],["SCUBE1_80274",0.06924083594235488,-2.6907877878507023,18.0,1704.0],["EFCAB6-AS1_100874197",0.07006786394540324,-2.7381777605390147,18.0,1704.0],["LINC01656_101927526",0.06914895028059291,-2.6855518052268863,18.0,1704.0],["PARVG_64098",0.06926955647294299,-2.692425586879389,18.0,1704.0],["EP300_2033",0.07041823483238484,-2.7583973363946273,18.0,1704.0],["PARVB_29780",0.06953374153521155,-2.7075176005538717,18.0,1704.0],["PACSIN2_11252",0.0689881330127221,-2.676401896148452,18.0,1704.0],["LINC00207_388910",0.06911449103627763,-2.6835896961510364,18.0,1704.0],["LOC101927551_101927551",0.06908002330905819,-2.681627925427455,18.0,1704.0],["SHISAL1_85352",0.06920063754042398,-2.68849641680683,18.0,1704.0],["NUP50-DT_100506714",0.06926380758903775,-2.6920977089758455,18.0,1704.0],["PNPLA5_150379",0.06964860570168067,-2.7140944687347903,18.0,1704.0],["BIK_638",0.06911448502650645,-2.683589354054756,18.0,1704.0],["DESI1_27351",0.08107201517809133,-3.4140194822600276,18.0,1704.0],["MCAT_27349",0.06911448502650645,-2.683589354054756,18.0,1704.0],["LOC105373064_105373064",0.06930975373005864,-2.694718808558897,18.0,1704.0],["NUP50_10762",0.06926380758903775,-2.6920977089758455,18.0,1704.0],["SULT4A1_25830",0.06977495963773349,-2.7213397612343857,18.0,1704.0],["SNU13_4809",0.08084802717677489,-3.3994186511077324,18.0,1704.0],["RTL6_84247",0.06914895028059291,-2.6855518052268863,18.0,1704.0],["PNPLA3_80339",0.06946482236412811,-2.7035758229743285,18.0,1704.0],["LOC100506679_100506679",0.06901110661108402,-2.6777079144360303,18.0,1704.0],["PRR5_55615",0.06908577416698107,-2.6819551850639405,18.0,1704.0],["FLJ30901_150378",0.06924083594235488,-2.6907877878507023,18.0,1704.0],["FAM118A_55007",0.06880434609797983,-2.6659669896763107,18.0,1704.0],["MIR1281_100302237",0.07041823483238484,-2.7583973363946273,18.0,1704.0],["NDUFA6-DT_100132273",0.06885607033809757,-2.668901386388353,18.0,1704.0],["LOC101927447_101927447",0.06920637649852274,-2.688823477927251,18.0,1704.0],["SNORD140_106635682",0.07041823483238484,-2.7583973363946273,18.0,1704.0]],"bottom":[["LINC01460_100129995",-0.0779254101401227,-3.2121310359992936,18.0,1704.0],["LOC105374454_105374454",-0.07521447564837554,-3.0437525153422955,18.0,1704.0],["CCDC121_79635",-0.07768419056274323,-3.196940481965703,18.0,1704.0],["FOXI3_344167",-0.08247405835340496,-3.506213712482923,18.0,1704.0],["NLRC4_58484",-0.07531784136556237,-3.050078550635779,18.0,1704.0],["FABP1_2168",-0.08315174764838575,-3.551272162213294,18.0,1704.0],["LBH_81606",-0.07683410111803239,-3.1437314013548443,18.0,1704.0],["WDCP_80304",-0.07455404057038227,-3.0035094053012847,18.0,1704.0],["BIRC6_57448",-0.07552460263683071,-3.0627548107961102,18.0,1704.0],["RBKS_64080",-0.07592673502473894,-3.0874944390354995,18.0,1704.0],["MFSD2B_388931",-0.07447363413020133,-2.9986306589647165,18.0,1704.0],["MIR4436A_100616399",-0.0868327880336648,-3.801671826803864,18.0,1704.0],["UBXN2A_165324",-0.07404286318339838,-2.9725698714070905,18.0,1704.0],["LTBP1_4052",-0.07560501323343041,-3.067692733089639,18.0,1704.0],["SPAST_6683",-0.07509959285601024,-3.03673037225366,18.0,1704.0],["ALK_238",-0.07696050601160444,-3.151611400844258,18.0,1704.0],["MRPL33_9553",-0.07580038066348137,-3.0797088198887894,18.0,1704.0],["SRD5A2_6716",-0.07545568581765778,-3.058526298162165,18.0,1704.0],["LOC101928371_101928371",-0.08251999472248467,-3.509257736460888,18.0,1704.0],["GPN1_11321",-0.07768419056274323,-3.196940481965703,18.0,1704.0],["BABAM2_9577",-0.07605309810354177,-3.095291741094387,18.0,1704.0],["LCLAT1_253558",-0.07697193680285008,-3.152324539879722,18.0,1704.0],["SLC30A6_55676",-0.0752374348139215,-3.045156984420398,18.0,1704.0],["YPEL5_51646",-0.07674223518199215,-3.1380115445346317,18.0,1704.0],["LINC01946_105374449",-0.07539824951225682,-3.055004724104288,18.0,1704.0],["LOC730268_730268",-0.08278416279338287,-3.526791940815087,18.0,1704.0],["MIR4765_100616219",-0.07545567925638633,-3.058525895772196,18.0,1704.0],["MEMO1_51072",-0.07539824951225682,-3.055004724104288,18.0,1704.0],["EHD3_30845",-0.07616210997353919,-3.1020273348768375,18.0,1704.0],["KLHL29_114818",-0.07255534661156768,-2.8835710757122786,18.0,1704.0],["TTC27_55622",-0.07545567925638633,-3.058525895772196,18.0,1704.0],["CAPN13_92291",-0.07669625167526826,-3.135150684387238,18.0,1704.0],["LOC105374389_105374389",-0.0767766973544584,-3.140156574528881,18.0,1704.0],["RASGRP3_25780",-0.07509960538714272,-3.0367311376513344,18.0,1704.0],["KRCC1_51315",-0.08274971607049415,-3.5245027493000483,18.0,1704.0],["CYTOR_112597",-0.08068206802909601,-3.388623194583126,18.0,1704.0],["LINC01936_285043",-0.07684558377981199,-3.1444467619880725,18.0,1704.0],["THNSL2_55258",-0.08253149236600775,-3.5100198726545653,18.0,1704.0],["SNORA10B_109616960",-0.07674223518199215,-3.1380115445346317,18.0,1704.0],["CAPN14_440854",-0.07628846188881797,-3.109844712460979,18.0,1704.0],["SUPT7L_9913",-0.07773013714891075,-3.1998307820828336,18.0,1704.0],["GALNT14_79623",-0.07653542180905301,-3.1251562866885947,18.0,1704.0],["BIRC6-AS2_103752586",-0.07583473424869541,-3.0818244937844597,18.0,1704.0],["LINC01884_102723362",-0.0727506188101814,-2.8951665557551918,18.0,1704.0],["RPIA_22934",-0.08246828470292958,-3.505831220346477,18.0,1704.0],["SLC4A1AP_22950",-0.0779254101401227,-3.2121310359992936,18.0,1704.0],["MIR4780_100616447",-0.08312877545375227,-3.5497394860755187,18.0,1704.0],["ANKRD36BP2_645784",-0.08229596523218746,-3.4944262090432865,18.0,1704.0],["LINC01804_101926966",-0.07227384870176883,-2.866902047593707,18.0,1704.0],["XDH_7498",-0.07616210997353919,-3.1020273348768375,18.0,1704.0],["MIR558_693143",-0.0760414931947501,-3.0945751896099143,18.0,1704.0],["BABAM2-AS1_100302650",-0.07605309810354177,-3.095291741094387,18.0,1704.0],["MIR4430_100616136",-0.07509960538714272,-3.0367311376513344,18.0,1704.0],["SMYD1_150572",-0.08312877545375227,-3.5497394860755187,18.0,1704.0],["DDX1_1653",-0.07146978309940957,-2.819592019650456,18.0,1704.0],["ATAD2B_54454",-0.07361786150097668,-2.946984741954919,18.0,1704.0],["EIF2AK3-DT_101928403",-0.08233046212876709,-3.4967077233601582,18.0,1704.0],["TEX37_200523",-0.08251999472248467,-3.509257736460888,18.0,1704.0],["LOC105374378_105374378",-0.0779254101401227,-3.2121310359992936,18.0,1704.0],["DPY30_84661",-0.07416342598836183,-2.9798506577531976,18.0,1704.0],["YIPF4_84272",-0.07563946908595089,-3.06981000818691,18.0,1704.0],["LINC00486_285045",-0.075627973611957,-3.0691035316293047,18.0,1704.0],["EIF2AK3_9451",-0.08251999472248467,-3.509257736460888,18.0,1704.0]]}}}
{"depmap_gene_tpm":{"corr":{"top":[["DEFB115_245929",0.1492853822114559,-7.189891129747302,12.0,1287.0],["CT47A6_728062",0.17619438887901565,-9.792432546973458,12.0,1287.0],["OR5K4_403278",0.13582614349302544,-6.04828376629905,12.0,1287.0],["XRCC6_2547",0.11760081964126667,-4.668498234450272,12.0,1287.0],["CDH9_1007",0.1615701346930697,-8.324512502011578,12.0,1287.0],["LURAP1_541468",0.10016282875978609,-3.5234711259674434,12.0,1287.0],["FRZB_2487",0.10764468928697125,-3.99403176094916,12.0,1287.0],["CT47B1_643311",0.1992502111727891,-12.371050372500672,12.0,1287.0],["ELOF1_84337",0.08698124416081526,-2.769101742588504,12.0,1287.0],["OR5K1_26339",0.10754295210219464,-3.9874252699079067,12.0,1287.0],["MOS_4342",0.1379775081392949,-6.223705523963107,12.0,1287.0],["OR5H8_79289",0.0910965595052903,-2.994473808669699,12.0,1287.0],["HIST1H1A_3024",0.1094479883868393,-4.112087531340087,12.0,1287.0],["SLC6A1_6529",0.1268272850106795,-5.34335188262259,12.0,1287.0],["C17orf49_124944",0.09122601712392227,-3.001712156263897,12.0,1287.0]],"bottom":[["PLGLB1_5343",-0.06058697618942484,-1.5376807924810076,12.0,1287.0],["ZFP36L2_678",-0.07161683312558138,-2.007782021809813,12.0,1287.0],["SPRY1_10252",-0.054971164565854956,-1.3223105387601386,12.0,1287.0],["MAP3K1_4214",-0.06953519497226636,-1.9142281678045832,12.0,1287.0],["ALG5_29880",-0.0710044560414904,-1.9800251108342508,12.0,1287.0],["DENND1B_163486",-0.05721752839049375,-1.4065414736832271,12.0,1287.0],["OVGP1_5016",-0.06134719199400664,-1.5680687078641073,12.0,1287.0],["NUDT7_283927",-0.06061074573606986,-1.5386264519178516,12.0,1287.0],["TMEM179B_374395",-0.06514403342659499,-1.724278090567986,12.0,1287.0],["TNFRSF10A_8797",-0.05397616033814014,-1.2858139947813305,12.0,1287.0]]},"para":{"top":[["UBA1_7317",0.07953663792931928,-2.6810775732422956,12.0,1287.0],["GTF2F1_2962",0.07817412521817789,-2.614235558230411,12.0,1287.0],["JOSD1_9929",0.08571685025705415,-2.9964446492089243,12.0,1287.0],["HMX3_340784",0.08601249563892321,-3.0119787445040593,12.0,1287.0],["POLR2F_5435",0.07900019292979625,-2.6546452684613793,12.0,1287.0],["EXOSC7_23016",0.08273407482482657,-2.8417415216678017,12.0,1287.0],["LRRC42_115353",0.07812036946017681,-2.6116182390716927,12.0,1287.0],["CBY1_25776",0.07856024297687972,-2.6330794955066295,12.0,1287.0],["L3MBTL2_83746",0.0962743474127978,-3.581674738227061,12.0,1287.0],["HPCAL4_51440",0.08147726511788458,-2.7779487159227076,12.0,1287.0],["C17orf49_124944",0.08160735480459179,-2.7845167100912853,12.0,1287.0],["NEUROG2_63973",0.07982771542100746,-2.6954753280688077,12.0,1287.0],["SLC25A17_10478",0.07974049232814517,-2.691161450886941,12.0,1287.0],["PSIP1_11168",0.08102789884045365,-2.7553453275815927,12.0,1287.0],["SAMM50_25813",0.08730479684529259,-3.0807101344850794,12.0,1287.0],["GCAT_23464",0.104868385604101,-4.101746719648302,12.0,1287.0],["ALDH4A1_8659",0.08567362783091072,-2.9941695573067797,12.0,1287.0],["PHOSPHO1_162466",0.08261923603799966,-2.8358780669974433,12.0,1287.0],["PCCB_5096",0.09617785524603366,-3.576058746353305,12.0,1287.0],["XRCC6_2547",0.10585661686070477,-4.164078055605019,12.0,1287.0],["NUDC_10726",0.07880705225302483,-2.6451653483782245,12.0,1287.0],["FOCAD_54914",0.07932189848622075,-2.6704786921109043,12.0,1287.0],["CHCHD6_84303",0.08350643894796748,-2.881352945725182,12.0,1287.0],["YBX1_4904",0.07816390690456802,-2.6137379184695453,12.0,1287.0],["ABHD10_55347",0.09801260905115,-3.6836917036814167,12.0,1287.0],["CRELD2_79174",0.08260510082786653,-2.8351574113404263,12.0,1287.0],["ELK1_2002",0.0818863035052751,-2.7986223339565424,12.0,1287.0],["ELOF1_84337",0.08867817450127792,-3.1546597258584206,12.0,1287.0],["ATPAF1_64756",0.09908556096801215,-3.747464470655592,12.0,1287.0],["PARP2_10038",0.09426799712596369,-3.4659191567203846,12.0,1287.0],["POLR3H_171568",0.07862457759949888,-2.636226801573445,12.0,1287.0],["CCNB1_891",0.07888219006962946,-2.648851026472504,12.0,1287.0],["SV2A_9900",0.07904795349881454,-2.6569924646673204,12.0,1287.0],["SPAG7_9552",0.08057741421593129,-2.7327879212609414,12.0,1287.0],["PHF5A_84844",0.07889298766306961,-2.64938091388057,12.0,1287.0],["POLDIP3_84271",0.09377451106232235,-3.4377748660799807,12.0,1287.0],["SNU13_4809",0.07992303066340996,-2.700209299507473,12.0,1287.0],["AGK_55750",0.09051274756193853,-3.254993992338133,12.0,1287.0],["PDK3_5165",0.09082372426482824,-3.2721776827034885,12.0,1287.0],["GPKOW_27238",0.08834554288629319,-3.136657962033932,12.0,1287.0],["UNC119_9094",0.09840950743990505,-3.707210643399048,12.0,1287.0],["PPP2R5D_5528",0.0898475396586579,-3.2184079763758437,12.0,1287.0],["PDXP_57026",0.0843324779472076,-2.9240631283752796,12.0,1287.0],["ENO2_2026",0.08160718570193613,-2.7845081725254786,12.0,1287.0],["NDUFS5_4725",0.08434408564466904,-2.924665845831653,12.0,1287.0],["CDK5_1020",0.08162876667158822,-2.785598004414646,12.0,1287.0],["MAP6D1_79929",0.08353942755620901,-2.8830517520342993,12.0,1287.0],["KDM1A_23028",0.09074874730257251,-3.2680299937157646,12.0,1287.0],["ABHD8_79575",0.08056647105601858,-2.7322412773908664,12.0,1287.0],["PSRC1_84722",0.07848502994766766,-2.62940274219958,12.0,1287.0]],"bottom":[["PLGLB1_5343",-0.08110551680766699,-2.7592426313537683,12.0,1287.0],["C14orf28_122525",-0.06199495942623797,-1.8938289939144721,12.0,1287.0],["USP25_29761",-0.05942975424191844,-1.7918889060483703,12.0,1287.0],["PKHD1_5314",-0.05945431421681437,-1.792824358937964,12.0,1287.0],["ZFP36L2_678",-0.07216542400750109,-2.3309624297485723,12.0,1287.0],["SPRY1_10252",-0.05697272601085752,-1.697356200179163,12.0,1287.0],["FBXL3_26224",-0.05652213682748994,-1.6803487476893373,12.0,1287.0],["FTCDNL1_348751",-0.07452727365637941,-2.44007780379422,12.0,1287.0],["LBHD1_79081",-0.06772349926925844,-2.133536070791015,12.0,1287.0],["CREBRF_153222",-0.06684383541876047,-2.0956394164950325,12.0,1287.0],["CD46_4179",-0.061554189217929725,-1.8760763324838565,12.0,1287.0],["PLGLB2_5342",-0.06425019632456887,-1.9862036256094595,12.0,1287.0],["CLN5_1203",-0.06351761274464553,-1.9559138062774761,12.0,1287.0],["MAP3K1_4214",-0.0732705456423158,-2.3816591899956348,12.0,1287.0],["ITM2B_9445",-0.0635927516262196,-1.9590079950756942,12.0,1287.0],["PQLC3_130814",-0.06712262170124031,-2.107606911290987,12.0,1287.0],["ALG5_29880",-0.06954765185478988,-2.213385584069306,12.0,1287.0],["AGMO_392636",-0.057595662327530966,-1.7210323370973561,12.0,1287.0],["NPC1L1_29881",-0.06268346811272328,-1.921754372261636,12.0,1287.0],["COLEC11_78989",-0.07407770901652887,-2.419085550669368,12.0,1287.0],["CD69_969",-0.05735374408963389,-1.711814026792014,12.0,1287.0],["LENG9_94059",-0.058271072746057535,-1.7469313906569706,12.0,1287.0],["DHRS12_79758",-0.07800220220767734,-2.605870068434825,12.0,1287.0],["ANKRD31_256006",-0.06297597141398253,-1.9336934363324214,12.0,1287.0],["CCDC122_160857",-0.07212340924966117,-2.329047462076341,12.0,1287.0],["DHRS7_51635",-0.06337817018790567,-1.950179218272358,12.0,1287.0],["CLK1_1195",-0.06184393176836139,-1.8877350608403438,12.0,1287.0],["TNFRSF10C_8794",-0.06010508364874155,-1.8184035062095578,12.0,1287.0],["TDRD6_221400",-0.057996989400781455,-1.7363890716907835,12.0,1287.0],["DOCK8_81704",-0.05994635535193674,-1.8121511427181198,12.0,1287.0],["LVRN_206338",-0.061264224973119584,-1.8644509174542596,12.0,1287.0],["ANXA11_311",-0.06083531259872944,-1.8473334193289794,12.0,1287.0],["AVIL_10677",-0.06473053649757854,-2.006212390846965,12.0,1287.0],["MT-CYB_4519",-0.05637220713477327,-1.6747121975327868,12.0,1287.0],["OVGP1_5016",-0.06452723082195769,-1.9977293099051585,12.0,1287.0],["SUN3_256979",-0.07301967665268426,-2.370088732162253,12.0,1287.0],["SIRPG_55423",-0.0682695045999301,-2.1572065911339386,12.0,1287.0],["UTP25_27042",-0.06346401431994189,-1.9537083971902869,12.0,1287.0],["NUDT7_283927",-0.059912851462186,-1.8108330453531305,12.0,1287.0],["TMEM179B_374395",-0.05845350681265831,-1.7539651457118541,12.0,1287.0],["C5_727",-0.05784204437447446,-1.7304560768625123,12.0,1287.0],["GOLT1A_127845",-0.05713464647696801,-1.7034907869380318,12.0,1287.0],["YIPF4_84272",-0.07917186066351518,-2.663087548709999,12.0,1287.0]]}}}
{"ccle_rrbs_tss1kb":{"corr":{"top":[["ELL2_5_95297775_95298775",0.15476256847488637,-4.948577834550838,9.0,789.0],["PUS10_2_61245394_61246394",0.24730907142821118,-11.411623238965733,9.0,757.0],["UGCG_9_114658045_114659045",0.16947552492944912,-6.04882614956487,10.0,821.0],["POLA2_11_65028322_65029322",0.28639583269356095,-16.40739519578433,10.0,820.0],["TRMT6_20_5931204_5932204",0.2496257411890265,-12.217064979658279,10.0,798.0],["MIR4466_6_157100865_157101865",0.2929282074861346,-16.94255079403036,10.0,809.0],["PUS10_2_61244566_61245566",0.17751832415328417,-6.49198178528249,10.0,808.0],["TMEM175_4_925174_926174",0.1810380509526365,-6.828291914219424,10.0,821.0],["CACUL1_10_120514758_120515758",0.16144387679618025,-5.537365656249911,10.0,821.0],["RPS6_9_19380235_19381235",0.21307468592790846,-8.401304551995798,9.0,739.0],["SH3BP5L_1_249120484_249121484",0.15551271589670318,-4.567787753008764,9.0,713.0],["RALGAPB_20_37100448_37101448",0.170197850625405,-6.042997270996951,10.0,813.0],["FAM13B_5_137368802_137369802",0.24663056387390486,-12.226359673765158,10.0,819.0],["WDR89_14_64108641_64109641",0.14880661792024108,-4.74592641510398,10.0,814.0],["MRPL1_4_78782804_78783804",0.15991456817055186,-5.378180438863412,10.0,810.0],["ZFP1_16_75181338_75182338",0.17414943006184874,-6.267596229876902,10.0,808.0],["BMF_15_40401085_40402085",0.199699133076109,-7.959326212209605,9.0,796.0],["ZFC3H1_12_72057749_72058749",0.15695543660463573,-4.967542545814354,8.0,771.0],["ALDH16A1_19_49955472_49956472",0.15635812911357452,-4.956178244823056,10.0,773.0],["DCXR_17_79995573_79996573",0.1489107980725566,-4.772305580983688,10.0,818.0],["SH2D6_2_85645053_85646053",0.17128881397900014,-6.174393377633,10.0,822.0],["EIF5A_17_7209855_7210855",0.18234565797738786,-5.747205784315178,9.0,668.0],["USP54_10_75385817_75386817",0.21699571214000563,-8.748980667199344,10.0,743.0],["SRRD_22_26878849_26879849",0.1604983410598798,-5.443295837521913,10.0,815.0],["TAOK2_16_29984187_29985187",0.16457533516109157,-5.615923342557863,9.0,803.0],["B4GALT4_3_118959752_118960752",0.16899005610016737,-5.834119338955855,10.0,793.0],["GCN1_12_120632513_120633513",0.21593577778994483,-9.16834265385228,9.0,791.0],["SEC24B_4_110353870_110354870",0.193160953365487,-7.556417033097069,10.0,804.0],["TRAM2-AS1_6_52441095_52442095",0.29654114284222544,-17.584206691028108,10.0,820.0],["TRAM2-AS1_6_52440999_52441999",0.25389232672284695,-12.875961512998751,10.0,815.0],["GNPTG_16_1400899_1401899",0.25965915008125295,-13.48284222851703,10.0,817.0],["ELP3_8_27949583_27950583",0.16661710350087747,-5.864001810183508,10.0,821.0],["UBR5-AS1_8_103250678_103251678",0.14280923113389057,-4.4531451697044995,10.0,823.0],["ANKHD1_5_139780398_139781398",0.1641457714947254,-5.700528042974077,10.0,820.0],["ANAPC4_4_25377847_25378847",0.26638373423452477,-14.19064861756809,10.0,818.0],["TIPARP_3_156391714_156392714",0.16320929834641135,-5.635487526305789,10.0,819.0],["MRPS25_3_15106844_15107844",0.1391601035787509,-3.903048236841514,10.0,745.0],["EIF2B3_1_45452394_45453394",0.1392983691100058,-4.229566821006038,10.0,816.0],["DSCC1_8_120868170_120869170",0.16221154921956313,-5.597263232416447,10.0,823.0],["EBNA1BP2_1_43637986_43638986",0.15439599549218255,-5.092111258722391,10.0,818.0],["KLF13_15_31618057_31619057",0.22521911085223378,-10.266988868552026,10.0,819.0],["C4orf33_4_130013828_130014828",0.20569469049992817,-8.162607044894637,9.0,770.0],["EBAG9_8_110551303_110552303",0.18934283980649938,-7.395453580382394,10.0,818.0],["RXRB_6_33168630_33169630",0.14178560585327232,-4.350178385927808,10.0,813.0],["CAPN10-DT_2_241525733_241526733",0.1412131916313446,-4.365240843371989,10.0,823.0],["TMEM250_9_139010729_139011729",0.16179296497130488,-5.499052191323383,10.0,811.0],["PPA2_4_106395227_106396227",0.20402254730118574,-8.000604494805462,9.0,766.0],["CHD1L_1_146643772_146644772",0.2208417749311425,-9.934271615327798,10.0,823.0],["GEMIN7_19_45581452_45582452",0.19280110307399034,-6.561598040665915,9.0,691.0],["GANC_15_42564855_42565855",0.14383406337957544,-4.462298877583134,9.0,814.0],["CENPBD1_16_90039240_90040240",0.14593150677902691,-4.573766187178847,10.0,812.0],["TMEM126A_11_85357962_85358962",0.16807503004254698,-5.783194334116037,10.0,794.0],["GPI_19_34855024_34856024",0.1458951083168965,-4.576648108172462,10.0,813.0],["IDH3A_15_78440718_78441718",0.15661827603336922,-4.937101249039334,10.0,767.0]],"bottom":[["PCDH10_4_134069444_134070444",-0.08357259619353063,-1.7656728336218797,10.0,803.0],["CDKN2A_9_21974826_21975826",-0.08442163983496641,-1.3902387549532091,9.0,579.0],["NINL_20_25566167_25567167",-0.08573618383330527,-1.8594695137235306,10.0,814.0],["ADORA2A-AS1_22_24891042_24892042",-0.10414544745048795,-2.5251766532153646,9.0,802.0],["ZNF853_7_6654247_6655247",-0.08528782343081459,-1.80606644776934,10.0,793.0],["CDKN2A_9_21975132_21976132",-0.08718624417944505,-1.4013233449927376,8.0,549.0],["DMTN_8_21905465_21906465",-0.1079138409513166,-2.7218489259268863,10.0,816.0],["AMPD3_11_10471223_10472223",-0.09921269956916527,-2.3649574804855114,10.0,816.0],["ESRRG_1_217311097_217312097",-0.08730507332639693,-1.8413350246258966,8.0,777.0],["LOC100128573_19_7538247_7539247",-0.17701925069749544,-6.17174336183841,10.0,768.0],["LY6G6D_6_31682132_31683132",-0.0974766994817104,-2.3129054052176534,10.0,823.0],["AFAP1-AS1_4_7754816_7755816",-0.0872263208621061,-1.8480673993053942,9.0,781.0],["HAGLR_2_177042857_177043857",-0.09250435829660884,-2.1158073989031143,10.0,820.0],["CCDC28B_1_32664986_32665986",-0.08967842185857144,-1.7616439194864635,9.0,695.0],["MIR6761_12_112236637_112237637",-0.13112927018067905,-3.7473142088852867,10.0,802.0],["PNPLA2_11_817900_818900",-0.13478339253682234,-3.61878105091792,8.0,730.0],["CILP2_19_19648073_19649073",-0.09202884779961197,-2.091868538353463,10.0,817.0],["DTNB_2_25873091_25874091",-0.08262547428501171,-1.767786430002625,10.0,823.0],["MSC_8_72756731_72757731",-0.08404812767050426,-1.794031087471242,10.0,810.0],["PTGS1_9_125131808_125132808",-0.09457975031025702,-1.9563651519923724,8.0,713.0],["GTF3C3_2_197664492_197665492",-0.08506960437493045,-1.739352355182412,8.0,762.0],["SLCO4C1_5_101632253_101633253",-0.09566568925258351,-1.5675891790706353,8.0,526.0],["ECT2L_6_139116247_139117247",-0.09771346924202716,-2.2853461572611304,10.0,807.0],["ATL3_11_63439446_63440446",-0.08914387099049931,-1.9978411907541793,10.0,823.0],["TMIE_3_46741822_46742822",-0.09400338249241523,-2.0410304385183538,9.0,760.0],["LONRF3_23_118107576_118108576",-0.08595860052637089,-1.8745292154004172,10.0,818.0],["LOC100132215_2_63274846_63275846",-0.09959498032355615,-2.3944031021426864,10.0,822.0],["H3.Y_5_17655747_17656747",-0.11094146959064893,-2.688435841562312,8.0,762.0],["LINC01209_3_176534789_176535789",-0.08503772031813928,-1.7022609668869133,10.0,740.0],["PLEKHG5_1_6545529_6546529",-0.08329983492533571,-1.7633712975084632,10.0,807.0],["PACSIN3_11_47208010_47209010",-0.08772321151534117,-1.9408127613956943,10.0,820.0],["MIR6745_11_47201288_47202288",-0.11495941909558464,-2.8612814677239666,10.0,762.0],["PTX4_16_1538910_1539910",-0.11332887116301592,-2.7287797191592946,8.0,743.0],["BAG2_6_57036103_57037103",-0.0845145582288066,-1.7461933655982198,10.0,774.0],["SCIN_7_12628147_12629147",-0.10676978006409771,-2.6462721507180342,10.0,806.0],["CACNA1C-AS1_12_2800323_2801323",-0.09126072354794203,-2.0512563661650765,10.0,811.0],["MIR6729_1_12088214_12089214",-0.10663620218893835,-2.496669031122887,8.0,755.0],["MIR5701-3_15_22155765_22156765",-0.10966551541186412,-2.079867847741928,8.0,570.0],["LINC00601_10_128110448_128111448",-0.10720558169520458,-2.236713057577498,9.0,652.0]]},"para":{"top":[["POC1A_3_52188706_52189706",0.08446390486218165,-2.12006786885502,10.0,818.0],["TEDC1_14_105956585_105957585",0.08872584312420521,-2.279426653647839,10.0,823.0],["RNF122_8_33424646_33425646",0.07776407242321787,-1.8904977199347768,9.0,815.0],["TMEM126A_11_85357962_85358962",0.12303928691485624,-3.6100001995571493,10.0,794.0],["APEX1_14_20922289_20923289",0.09236780846540235,-2.392087335732084,10.0,813.0],["RBKS_2_28113263_28114263",0.10397857067383157,-2.8495846713206934,10.0,816.0],["EFHB_3_19988517_19989517",0.09603765844549372,-2.495985447388492,10.0,798.0],["RASA2_3_141204888_141205888",0.09455359514116467,-2.466858951867642,10.0,810.0],["KLC3_19_45842997_45843997",0.0867785922327482,-2.1765788543494065,9.0,806.0],["VKORC1_16_31106320_31107320",0.08622462728785696,-2.181212813687601,10.0,818.0],["TUG1_22_31364196_31365196",0.08830761095767369,-2.25676424055102,10.0,819.0],["PIK3R2_19_18262987_18263987",0.08627669214243493,-2.17386388808041,10.0,813.0],["CTDP1_18_77438800_77439800",0.09713193005439993,-2.5894618581562634,10.0,821.0],["TM7SF2_11_64878325_64879325",0.08569850907863986,-2.164642386065846,10.0,819.0],["TBCCD1_3_186288332_186289332",0.09127763871565245,-2.3541883816095557,10.0,814.0],["NR4A1_12_52430498_52431498",0.0848222811710432,-2.1377495697868962,10.0,821.0],["PMVK_1_154909484_154910484",0.1143605353421868,-3.2970671499977087,10.0,818.0],["SH2D6_2_85645053_85646053",0.09580815629520821,-2.5406960826588807,10.0,822.0],["SLC38A7_16_58718611_58719611",0.08313015608833708,-2.0504617105901,10.0,804.0],["MXRA7_17_74684969_74685969",0.08039785156707122,-1.9536537852271685,9.0,801.0],["DCXR_17_79995573_79996573",0.0915947953876666,-2.3739716545060237,10.0,818.0],["RXYLT1_12_64172582_64173582",0.08923962471232046,-2.26091092334769,9.0,805.0],["NIPSNAP2_7_56031269_56032269",0.08325133369195058,-2.080261390567246,10.0,819.0],["RALGAPA2_20_20693266_20694266",0.09075087657581879,-2.3350363911213465,10.0,814.0],["MORC2_22_31364273_31365273",0.09047769869148353,-2.335087098327749,10.0,819.0],["NDUFB2-AS1_7_140396877_140397877",0.08949380249222003,-2.303286228390942,10.0,821.0],["MAP2K5_15_67834020_67835020",0.09587587813515584,-2.5366205156580275,10.0,819.0],["SLC25A24_1_108735431_108736431",0.09580442372740766,-2.266618302797464,8.0,701.0],["C8orf37-AS1_8_96280063_96281063",0.10090992995766751,-2.728449092605562,10.0,817.0],["C7orf25_7_42951689_42952689",0.1194888553408678,-3.4990860195107025,10.0,809.0],["FAM102A_9_130742812_130743812",0.0897335906234004,-2.308038815173789,10.0,819.0],["ZCCHC2_18_60189657_60190657",0.0830000854722549,-2.0699769382669406,10.0,818.0],["RSRP1_1_25574010_25575010",0.08367385414119548,-2.082472983328052,9.0,813.0],["TRAM2-AS1_6_52441095_52442095",0.09747157932196363,-2.6003563335725066,10.0,820.0],["CLIC1_6_31704341_31705341",0.09561736910304598,-2.48486826479329,10.0,800.0],["AKR1E2_10_4867368_4868368",0.07375362594915767,-1.7378831489189532,8.0,797.0],["JRK_8_143751412_143752412",0.08715471446704975,-2.2101962447962515,10.0,816.0],["MOB3A_19_2096269_2097269",0.09041216326334217,-2.3366750273238805,10.0,821.0],["ANKHD1_5_139780398_139781398",0.08141803321647714,-2.019961297224404,10.0,820.0],["USP4_3_49377536_49378536",0.10524908040206081,-2.9043443492827747,10.0,817.0],["ID2-AS1_2_8821993_8822993",0.08733485906755242,-2.2221442574304153,10.0,819.0],["MIR106B_7_99691697_99692697",0.08765256521326614,-2.2145985522428444,10.0,809.0],["EIF2B3_1_45452394_45453394",0.08482375135558792,-2.1289353579027535,10.0,816.0],["LOC100132831_23_40692449_40693449",0.08642970220348349,-2.197534320349155,10.0,823.0],["FOXO3_6_108880025_108881025",0.08809052516498862,-2.24327006296346,10.0,816.0],["SH3BP2_4_2793749_2794749",0.09967621689139664,-2.526844939437896,10.0,753.0],["RPL24_3_101405563_101406563",0.09638030191114492,-2.511159809110743,9.0,800.0],["TBL1X_23_9432200_9433200",0.08119743033737883,-1.9978267445113125,10.0,811.0],["RXRB_6_33168630_33169630",0.08263822323230045,-2.04925494844821,10.0,813.0],["NRM_6_30658906_30659906",0.14738608909410406,-4.378848877304129,8.0,706.0],["PLBD2_12_113795370_113796370",0.09497502959270207,-2.495813094023958,10.0,816.0],["RGS19_20_62710845_62711845",0.09105507344898103,-2.356186599635538,10.0,819.0],["RFC1_4_39368001_39369001",0.0953984172228284,-2.459053222533771,9.0,793.0],["MADD_11_47289926_47290926",0.08249435740045977,-2.0359917477077545,10.0,808.0],["RXYLT1_12_64172905_64173905",0.0935510772251629,-2.4422795139479727,10.0,816.0],["ZNF687_1_151253030_151254030",0.07820274472042345,-1.858443441826457,8.0,786.0]],"bottom":[["PCDH10_4_134069444_134070444",-0.09228110851139876,-2.3682812290348005,10.0,803.0],["FAM228B_2_24345349_24346349",-0.08719952037655967,-2.2229567994681365,10.0,822.0],["MIR762_16_30904223_30905223",-0.10507816464411524,-2.9025400002369532,10.0,819.0],["NINL_20_25566167_25567167",-0.09223821331320611,-2.3894457862496603,10.0,814.0],["MXRA5_23_3264684_3265684",-0.08860231025578494,-2.234624020522804,9.0,803.0],["HOXB13_17_46806111_46807111",-0.08883898525860567,-2.281580941455833,10.0,822.0],["ZNF853_7_6654247_6655247",-0.09543564180727364,-2.462678645271666,10.0,793.0],["LINC00601_10_128110448_128111448",-0.09962192226068448,-2.2792597036264053,9.0,652.0],["LMNA_1_156051336_156052336",-0.09752925875346583,-2.607164382988454,10.0,822.0],["GJB4_1_35224341_35225341",-0.09445657401756984,-2.417921894282379,9.0,790.0],["FRMD5_15_44486644_44487644",-0.09244270005090972,-2.4094160671058016,10.0,820.0],["PCDHB13_5_140592490_140593490",-0.08771771441290013,-2.1260003494975415,8.0,763.0],["DMTN_8_21905465_21906465",-0.10450624781939898,-2.87119165600128,10.0,816.0],["PFN2_3_149688741_149689741",-0.10656864859804768,-2.961758753456061,10.0,818.0],["HOXB7_17_46688383_46689383",-0.09950974692397181,-2.668276113173105,10.0,815.0],["HOXD8_2_176993467_176994467",-0.09042446140774088,-2.3231927135400405,10.0,814.0],["HOXC4_12_54409635_54410635",-0.1008693519329936,-2.709797411568254,10.0,810.0],["AMPD3_11_10471223_10472223",-0.09961671465843593,-2.674861259084496,10.0,816.0],["PPOX_1_161135170_161136170",-0.09072075598057937,-2.3439235394813926,10.0,819.0],["IGF2BP1_17_47073773_47074773",-0.08946303828859734,-2.2963210893546493,10.0,818.0],["LOC101929998_7_153757655_153758655",-0.08732712665627407,-2.229355406559331,10.0,823.0],["BAHCC1_17_79372520_79373520",-0.08913302776068908,-2.2689027439793996,10.0,810.0],["LY6G6D_6_31682132_31683132",-0.09524903129739123,-2.5214951350881956,10.0,823.0],["ANKRD18A_9_38620657_38621657",-0.0974356924324591,-2.5875618438899357,10.0,815.0],["HAGLR_2_177042857_177043857",-0.0936325542030793,-2.4538385986425517,10.0,820.0],["CTSB_8_11725659_11726659",-0.09541978391850701,-2.512660915599081,10.0,816.0],["ANKRD18B_9_33523410_33524410",-0.09312370254061289,-2.409567117174756,10.0,808.0],["KCNJ5_11_128760226_128761226",-0.08757467604456462,-2.2269038085513655,10.0,817.0],["GAS2_11_22687424_22688424",-0.0864740441021043,-2.107052978105775,9.0,774.0],["ZIC4_3_147124596_147125596",-0.0927890393837125,-2.3826273162981306,10.0,801.0],["PNPLA2_11_817900_818900",-0.09732960338639016,-2.3842680983607174,8.0,730.0],["CILP2_19_19648073_19649073",-0.09344943918052626,-2.4406318513180407,10.0,817.0],["ABCG1_21_43638266_43639266",-0.10812031293843234,-3.0020645545319833,10.0,809.0],["PDZD2_5_31638516_31639516",-0.1159489449580005,-3.339777677523261,10.0,809.0],["SLCO4C1_5_101632253_101633253",-0.10527444887411583,-2.1212117530098076,8.0,526.0],["ARL9_4_57370918_57371918",-0.0871702726344163,-2.1490943017114112,9.0,784.0],["STX5_11_62599563_62600563",-0.09076868046990509,-2.3537209515986377,10.0,823.0],["ZNF561_19_9731939_9732939",-0.105001290529955,-2.888834074237304,10.0,815.0],["ECT2L_6_139116247_139117247",-0.087749848321885,-2.2142487203223546,10.0,807.0],["NSD1_5_176559079_176560079",-0.09425714686286642,-2.4773444350509277,10.0,820.0],["PXDC1_6_3752246_3753246",-0.08742058631512721,-2.2214468626079813,10.0,817.0],["TMIE_3_46741822_46742822",-0.11205167557926862,-3.02091982763529,9.0,760.0],["NANS_9_100817958_100818958",-0.08850069666449681,-2.2368462221775074,10.0,805.0],["KIRREL2_19_36346809_36347809",-0.0871596012111698,-2.2122310271663674,10.0,817.0],["FCHSD1_5_141030986_141031986",-0.09449437573007513,-2.477657452410951,10.0,816.0],["CITED1_23_71525764_71526764",-0.11220631798970529,-3.2054141786056194,10.0,819.0],["DBN1_5_176900694_176901694",-0.08240283719439502,-1.9669286895674578,8.0,771.0],["PACSIN3_11_47208010_47209010",-0.08817394416728187,-2.253891781654754,10.0,820.0],["MIR6803_19_55756618_55757618",-0.10040418031144162,-2.6890598883634387,10.0,809.0],["C6orf99_6_159289898_159290898",-0.10762683367397838,-2.9814381076211305,10.0,809.0],["PTX4_16_1538910_1539910",-0.08558260439736515,-2.0192742103434997,8.0,743.0],["C6orf99_6_159289845_159290845",-0.10773028567316995,-2.9857492479413,10.0,809.0],["BAG2_6_57036103_57037103",-0.08977661047700164,-2.2209785248509077,10.0,774.0],["DLG3_23_69673945_69674945",-0.10126397253000648,-2.6590506745510987,9.0,784.0],["GPR173_23_53077505_53078505",-0.10112253650551342,-2.744248271234074,10.0,820.0],["CACNA1C-AS1_12_2800323_2801323",-0.09719779927690889,-2.5693055378866796,10.0,811.0],["ZNF554_19_2818871_2819871",-0.09542016580079267,-2.484091895794367,10.0,803.0],["ALK_2_30144477_30145477",-0.08675000462300342,-2.1515001312470634,9.0,793.0],["PTK2B_8_27182080_27183080",-0.0940308307730613,-2.4495699187478137,10.0,811.0],["LONRF3_23_118107576_118108576",-0.09177589586491615,-2.380637506780237,10.0,818.0],["ONECUT3_19_1752661_1753661",-0.08565056337944878,-2.1557085033277454,9.0,816.0],["DBN1_5_176900635_176901635",-0.08668249500735022,-2.171341591400892,8.0,806.0],["STS_23_7169284_7170284",-0.10733965004173628,-3.007635378247156,10.0,823.0]]}}}
{"ccle_gene_tpm":{"corr":{"top":[["AP000946.2_ENSG00000233480.1",0.27474021822104056,-18.37790014724365,10.0,1009.0],["RP11-557J10.5_ENSG00000248686.1",0.2205181959180729,-11.96214670311443,10.0,1009.0],["RP11-278L15.4_ENSG00000239408.1",0.2171586463905631,-11.614674452719958,10.0,1009.0],["OR10R1P_ENSG00000227445.1",0.2823937028160816,-19.41044496872072,10.0,1009.0],["RP11-554D14.5_ENSG00000257392.1",0.20152400226564912,-10.07158718515296,10.0,1009.0],["IGHV3-64_ENSG00000223648.2",0.20202180858584648,-10.118858710950805,10.0,1009.0],["RN7SKP278_ENSG00000222436.1",0.21090234689165172,-10.982651106355704,10.0,1009.0],["GS1-256O22.1_ENSG00000227675.1",0.2443880602767883,-14.596387947355026,10.0,1009.0],["DPYD-IT1_ENSG00000232542.1",0.20684977072549565,-10.583636951841049,10.0,1009.0],["PCYT1B-AS1_ENSG00000236836.1",0.31482679929763363,-24.154546524819054,10.0,1009.0],["RP11-214N1.1_ENSG00000258850.1",0.21534917102733814,-11.429869344894943,10.0,1009.0],["RP11-129O7.2_ENSG00000228667.1",0.21356419020154233,-11.249169488249503,10.0,1009.0],["CTD-2307P3.1_ENSG00000258394.1",0.20512171898462891,-10.41596267140384,10.0,1009.0],["RP11-69E9.1_ENSG00000225952.1",0.20555135020925863,-10.457512637129325,10.0,1009.0],["RP11-278L15.3_ENSG00000241929.1",0.2788685600379823,-18.930828519978842,10.0,1009.0],["None_ENSG00000237568.1",0.2970497902757125,-21.47935744926909,10.0,1009.0],["CTD-2272D18.1_ENSG00000254394.1",0.3179719582431551,-24.64720396932798,10.0,1009.0],["LINC00279_ENSG00000232348.2",0.276893425528568,-18.66511461133265,10.0,1009.0],["RP11-702M1.2_ENSG00000259217.1",0.3148267992976333,-24.15454652481898,10.0,1009.0],["RP11-410N8.1_ENSG00000228156.1",0.25582630765260156,-15.963581023973076,10.0,1009.0],["SNORA40_ENSG00000212149.1",0.3148267992976338,-24.15454652481908,10.0,1009.0],["RP11-560A7.1_ENSG00000250079.1",0.23711369928879078,-13.76255914912531,10.0,1009.0],["RP11-170L9.1_ENSG00000254437.1",0.282392158751721,-19.41023337481593,10.0,1009.0],["SNORA26_ENSG00000212187.1",0.2027240818054912,-10.18575297829246,10.0,1009.0],["RP11-20J1.1_ENSG00000254754.1",0.2200018807299937,-11.908376123121231,10.0,1009.0],["CTD-2141G3.1_ENSG00000250827.1",0.29996080653488,-21.904845973644026,10.0,1009.0],["RP11-375N15.1_ENSG00000249050.1",0.22101286469276987,-12.01378891540775,10.0,1009.0],["RGPD4_ENSG00000196862.8",0.20244985069686536,-10.159602601867388,10.0,1009.0],["DPRXP5_ENSG00000270652.1",0.23218068085301816,-13.212686655733654,10.0,1009.0],["AL163952.1_ENSG00000213622.1",0.2734464278293317,-18.206550505287716,10.0,1009.0],["IGHVIII-5-2_ENSG00000254053.1",0.28109927026339143,-19.23352645162763,10.0,1009.0],["DUX4L15_ENSG00000235950.4",0.20158235604561453,-10.077122157206096,10.0,1009.0],["RN7SL90P_ENSG00000264752.1",0.3148267992976336,-24.154546524819054,10.0,1009.0],["MTND2P25_ENSG00000228182.1",0.3148267992976338,-24.15454652481908,10.0,1009.0],["RP11-47J17.1_ENSG00000255067.1",0.22816701997265854,-12.774503702600853,10.0,1009.0],["LINC00322_ENSG00000237864.1",0.23475665597017367,-13.498262069779917,10.0,1009.0],["RP11-599B13.3_ENSG00000263427.1",0.24422657930405395,-14.577579041768987,10.0,1009.0],["RP11-664H7.1_ENSG00000254747.1",0.3148267992976335,-24.154546524819004,10.0,1009.0],["RP11-108B14.1_ENSG00000236777.1",0.31482679929763374,-24.154546524819054,10.0,1009.0],["RP11-812E19.13_ENSG00000270924.1",0.3148267992976335,-24.154546524819004,10.0,1009.0],["AC006007.1_ENSG00000230746.1",0.2559986331917574,-15.984708391158838,10.0,1009.0],["RN7SL353P_ENSG00000263608.1",0.2642061691936609,-17.009371980670704,10.0,1009.0],["IGHV3-6_ENSG00000253763.1",0.30713313502859485,-22.974103824673,10.0,1009.0],["RPS26P54_ENSG00000224161.3",0.22803401536295595,-12.76012401176769,10.0,1009.0],["RN7SL216P_ENSG00000244404.2",0.28868398781012744,-20.283532386232185,10.0,1009.0],["AC133041.1_ENSG00000221602.1",0.26064735800420585,-16.560635086604304,10.0,1009.0],["RP11-616M22.9_ENSG00000260991.2",0.2970930970073106,-21.485651691901474,10.0,1009.0],["RP11-44F14.4_ENSG00000259962.1",0.22989057912978134,-12.961660957191787,10.0,1009.0],["RP11-268E23.2_ENSG00000273370.1",0.23189309098457214,-13.18101551674924,10.0,1009.0],["CDH9_ENSG00000113100.5",0.21118960244365945,-11.01124309532353,10.0,1009.0],["LINC01015_ENSG00000224582.1",0.25532790882235357,-15.902565608348802,10.0,1009.0],["CTB-10G5.1_ENSG00000270453.1",0.2920782174643899,-20.763911879137602,10.0,1009.0],["RP11-664H7.2_ENSG00000255316.1",0.3234197778814191,-25.514565321236912,10.0,1009.0],["RP11-2O17.2_ENSG00000248529.1",0.2352791041100483,-13.556597485071082,10.0,1009.0],["RP11-10D7.5_ENSG00000253995.1",0.21041906571955882,-10.934640158729524,10.0,1009.0],["AC005588.2_ENSG00000226509.1",0.24514945842426283,-14.685257455529884,10.0,1009.0],["RP11-876F14.1_ENSG00000254511.1",0.2838249029931488,-19.607144964580144,10.0,1009.0],["RP11-876F14.2_ENSG00000270701.1",0.3148267992976335,-24.154546524819004,10.0,1009.0],["DEFB115_ENSG00000215547.1",0.20714580019530618,-10.612508743965419,10.0,1009.0],["SNORA73_ENSG00000201816.1",0.2474562852256432,-14.956361480484931,10.0,1009.0],["CT47B1_ENSG00000236446.2",0.2713874406695046,-17.93575276143728,10.0,1009.0],["KATNBL1P4_ENSG00000249270.1",0.2878903475638511,-20.172149589559925,10.0,1009.0]],"bottom":[["RP11-396C23.2_ENSG00000225518.2",-0.06727184747823613,-1.4979192163726618,10.0,1009.0],["RP11-2H8.2_ENSG00000257410.1",-0.0709002241427283,-1.626808013126279,10.0,1009.0],["SPRY1_ENSG00000164056.6",-0.07603484664865344,-1.8183062497911526,10.0,1009.0],["MAP3K1_ENSG00000095015.5",-0.08590045502825004,-2.2165821849661094,10.0,1009.0],["TMEM179B_ENSG00000185475.4",-0.07921536293046459,-1.9423218020909934,10.0,1009.0],["BCAP31_ENSG00000185825.11",-0.09020308238787084,-2.4029311902898183,10.0,1009.0],["PSMG3-AS1_ENSG00000230487.3",-0.11280464480922048,-3.510696481105276,10.0,1009.0],["LENG9_ENSG00000182909.5",-0.07617336585405485,-1.8236211300909149,10.0,1009.0],["ZNF101P2_ENSG00000234473.1",-0.07045232516780482,-1.6106105004404048,10.0,1009.0],["PLGLB1_ENSG00000183281.10",-0.07024268097659551,-1.6030569103279664,10.0,1009.0],["TLE1_ENSG00000196781.9",-0.07911096936551662,-1.9381853633081338,10.0,1009.0],["ATHL1_ENSG00000142102.11",-0.06628616961524965,-1.463819052775029,10.0,1009.0],["RP11-31F19.1_ENSG00000226403.1",-0.06623468259933116,-1.462048513520438,10.0,1009.0],["NUDT7_ENSG00000140876.7",-0.07334172002390005,-1.7165285168008304,10.0,1009.0],["METTL15P1_ENSG00000174912.6",-0.0724236338893411,-1.6825070261387387,10.0,1009.0],["SRD5A3_ENSG00000128039.6",-0.0779560198194395,-1.8927210617960328,10.0,1009.0]]},"para":{"top":[["PFN1_ENSG00000108518.7",0.09254504811212765,-2.802023158906943,10.0,1009.0],["ELOF1_ENSG00000130165.6",0.0961490026409163,-2.9664284232608362,10.0,1009.0],["HSP90AA1_ENSG00000080824.14",0.09726611446331258,-3.0184738927788506,10.0,1009.0],["HMX3_ENSG00000188620.9",0.10053231831578899,-3.1735284110340096,10.0,1009.0],["SAMM50_ENSG00000100347.10",0.09961797081087373,-3.129727851071961,10.0,1009.0],["ALDH1B1_ENSG00000137124.6",0.09978681053630768,-3.1378026525649263,10.0,1009.0],["RP11-60I3.4_ENSG00000254571.1",0.10709638294930142,-3.498635863477261,10.0,1009.0],["EIF5A_ENSG00000132507.13",0.10251223296013424,-3.269778114625829,10.0,1009.0],["ATPAF1_ENSG00000123472.8",0.10213914085344172,-3.2515298938006243,10.0,1009.0],["CRELD2_ENSG00000184164.10",0.09251057142221436,-2.8004761699766045,10.0,1009.0],["SPAG5_ENSG00000076382.12",0.09135995809550032,-2.7491268851879536,10.0,1009.0],["MYBBP1A_ENSG00000132382.10",0.09041236600445553,-2.7072452983751014,10.0,1009.0],["CDC27P1_ENSG00000233786.1",0.0941884928198146,-2.8763262322689376,10.0,1009.0],["RP11-723P16.3_ENSG00000270975.1",0.09513940419637447,-2.9198127103438876,10.0,1009.0],["CTC-246B18.10_ENSG00000269246.1",0.0960688028552092,-2.9627112999068452,10.0,1009.0],["TMEM11_ENSG00000178307.5",0.09230776333277807,-2.7913858916740746,10.0,1009.0],["RP11-424N24.2_ENSG00000271937.1",0.09312324241149003,-2.828039394702521,10.0,1009.0],["RP11-848P1.7_ENSG00000264148.1",0.1135866989887739,-3.8376566428442884,10.0,1009.0],["None_ENSG00000254870.1",0.09151213042710656,-2.755886856203243,10.0,1009.0],["ELAC2_ENSG00000006744.14",0.09608127014207896,-2.963289344344616,10.0,1009.0],["PARP2_ENSG00000129484.9",0.09345827962839519,-2.843178110273302,10.0,1009.0],["UNC119_ENSG00000109103.7",0.10020995765758861,-3.158091532978977,10.0,1009.0],["SCO1_ENSG00000133028.6",0.10259610189241676,-3.2738881558394235,10.0,1009.0],["DLGAP5_ENSG00000126787.8",0.09078458228851498,-2.7236526339986864,10.0,1009.0],["RP11-430G17.3_ENSG00000271200.1",0.09611741890352976,-2.9649577295212883,10.0,1009.0],["TXNDC17_ENSG00000129235.6",0.0923076233112058,-2.7913796225961347,10.0,1009.0],["RP11-54D18.4_ENSG00000234297.2",0.09487265305930706,-2.9075931115472198,10.0,1009.0],["None_ENSG00000111780.8",0.0921081269723436,-2.782449190193652,10.0,1009.0],["PRMT5_ENSG00000100462.11",0.09650420201914295,-2.982921163841519,10.0,1009.0],["SHMT1_ENSG00000176974.13",0.09641945185671336,-2.978981295648174,10.0,1009.0],["AP006621.1_ENSG00000177236.3",0.09746893260262277,-3.0279782234376973,10.0,1009.0],["PGAM1P3_ENSG00000230274.1",0.1278008647758219,-4.641704749980086,10.0,1009.0],["HIST1H2BH_ENSG00000197459.2",0.10710873510321628,-3.4993336334414145,10.0,1009.0],["MCAT_ENSG00000100294.8",0.10887387393680124,-3.589823726003107,10.0,1009.0],["CTA-29F11.1_ENSG00000260708.1",0.12249560352868297,-4.331925485983852,10.0,1009.0],["STK33_ENSG00000130413.11",0.09081380100089403,-2.72494289769979,10.0,1009.0],["XRCC6_ENSG00000196419.8",0.11552533064833105,-3.9424822792328236,10.0,1009.0],["CSNK1E_ENSG00000213923.6",0.0959796146389602,-2.9585816415483737,10.0,1009.0],["None_ENSG00000256861.1",0.10259084019116611,-3.273573862261041,10.0,1009.0],["RP1-40E16.12_ENSG00000272277.1",0.0983688253749999,-3.070353033947417,10.0,1009.0],["AC005523.3_ENSG00000268536.1",0.10467424593584396,-3.3766452707994783,10.0,1009.0],["AHSA1_ENSG00000100591.3",0.09924560083882791,-3.1119608127976934,10.0,1009.0],["OSBPL9_ENSG00000117859.14",0.09037855243344402,-2.7057576018774707,10.0,1009.0],["RP11-567M16.3_ENSG00000178412.4",0.09467585220198282,-2.898562014811341,10.0,1009.0],["GCAT_ENSG00000100116.12",0.09758694366153511,-3.0335161893303777,10.0,1009.0],["PDK3_ENSG00000067992.8",0.09220585051507188,-2.78682432102697,10.0,1009.0],["UBE2G1_ENSG00000132388.8",0.10090389256119135,-3.1915243150218937,10.0,1009.0],["L3MBTL2_ENSG00000100395.10",0.1014960259666077,-3.220209993400885,10.0,1009.0],["ABHD10_ENSG00000144827.4",0.0999224475664956,-3.144298057243262,10.0,1009.0],["HIST1H3A_ENSG00000198366.5",0.09129466220067592,-2.7462278724220437,10.0,1009.0],["RP11-398C13.6_ENSG00000272853.1",0.09021035746965206,-2.69836446863382,10.0,1009.0],["RNF167_ENSG00000108523.11",0.09958402635437584,-3.1281058729023647,10.0,1009.0],["RPSAP8_ENSG00000230592.2",0.0913174683874972,-2.747240846859662,10.0,1009.0],["CTC-543D15.3_ENSG00000267273.1",0.11799919935446246,-4.078195034369077,10.0,1009.0],["SNHG10_ENSG00000247092.2",0.1060308713670266,-3.4447173995183236,10.0,1009.0],["MRPL37_ENSG00000116221.11",0.0924262368423141,-2.7966940690266875,10.0,1009.0],["MRPL4_ENSG00000105364.9",0.09152934867420072,-2.7566523395837796,10.0,1009.0],["L2HGDH_ENSG00000087299.7",0.09569174332526983,-2.9452733011756185,10.0,1009.0],["RP4-555D20.4_ENSG00000272121.1",0.0958210662524713,-2.9512356908508615,10.0,1009.0],["RANGAP1_ENSG00000100401.15",0.09394912258798974,-2.8654395239206227,10.0,1009.0],["YBX1_ENSG00000065978.13",0.09807897800704647,-3.056668020639354,10.0,1009.0],["GPKOW_ENSG00000068394.9",0.09215548728881351,-2.7845716539611796,10.0,1009.0]],"bottom":[["CARF_ENSG00000138380.13",-0.07640129810075552,-2.130638661423939,10.0,1009.0],["CDO1_ENSG00000129596.4",-0.08452852022454457,-2.45539627350428,10.0,1009.0],["RP11-647K16.1_ENSG00000272979.1",-0.07250195354520879,-1.9842571236836115,10.0,1009.0],["DDX60_ENSG00000137628.12",-0.07228925994177941,-1.976447529576707,10.0,1009.0],["STAU2-AS1_ENSG00000253302.1",-0.07219772876372685,-1.9730885033403762,10.0,1009.0],["RP11-2H8.2_ENSG00000257410.1",-0.08640569996221512,-2.5342158859566983,10.0,1009.0],["CYP2R1_ENSG00000186104.6",-0.07861782210888466,-2.216566294473641,10.0,1009.0],["RP11-21A7A.3_ENSG00000256341.1",-0.09196398915655672,-2.7759630154710755,10.0,1009.0],["SPRY1_ENSG00000164056.6",-0.07775483629128313,-2.182876102190469,10.0,1009.0],["None_ENSG00000215298.3",-0.08278053863222057,-2.3832964857782746,10.0,1009.0],["RP11-535M15.1_ENSG00000224848.1",-0.08128218338509469,-2.322399311389778,10.0,1009.0],["FTCDNL1_ENSG00000226124.2",-0.0836217726144197,-2.417842304695526,10.0,1009.0],["MAP3K1_ENSG00000095015.5",-0.09041217887090874,-2.7072370653108817,10.0,1009.0],["PLGLA_ENSG00000240935.2",-0.07223572021919056,-1.974484090388539,10.0,1009.0],["AC130709.1_ENSG00000214525.4",-0.07727391036779997,-2.164207092923221,10.0,1009.0],["RNASEL_ENSG00000135828.7",-0.07215395512541908,-1.9714888018786083,10.0,1009.0],["PQLC3_ENSG00000162976.8",-0.08650327814775549,-2.5383520641366917,10.0,1009.0],["RP11-439E19.9_ENSG00000260698.1",-0.07327239950354814,-2.012697273253317,10.0,1009.0],["C5_ENSG00000106804.6",-0.07437082913069112,-2.0536553434383022,10.0,1009.0],["None_ENSG00000259357.1",-0.07601193675704938,-2.115748263526109,10.0,1009.0],["None_ENSG00000267580.1",-0.07463807963189668,-2.0636926358709546,10.0,1009.0],["UNC93B7_ENSG00000251624.1",-0.07299028903672494,-2.0022517579281227,10.0,1009.0],["RP11-50E11.3_ENSG00000226200.2",-0.07204755080526211,-1.9675942609001487,10.0,1009.0],["None_ENSG00000228830.1",-0.07342300629198231,-2.018284802547329,10.0,1009.0],["NPC1L1_ENSG00000015520.10",-0.07768080421627602,-2.179997097636733,10.0,1009.0],["CDC42EP5_ENSG00000167617.2",-0.07666358387396974,-2.1407032477461607,10.0,1009.0],["CTDSP2_ENSG00000175215.5",-0.09638571599591078,-2.977413803902229,10.0,1009.0],["GPR37_ENSG00000170775.2",-0.08224567530417971,-2.361480759229009,10.0,1009.0],["PSMG3-AS1_ENSG00000230487.3",-0.11508410092867874,-3.918515653462179,10.0,1009.0],["KRCC1_ENSG00000172086.7",-0.08372820270130768,-2.4222334954583893,10.0,1009.0],["LENG9_ENSG00000182909.5",-0.08017476183365455,-2.2781071258247008,10.0,1009.0],["BX088651.1_ENSG00000212952.5",-0.08116480488336422,-2.317741120960819,10.0,1009.0],["RP11-475I24.3_ENSG00000237357.1",-0.08378258632407001,-2.424478857165728,10.0,1009.0],["ZNF101P2_ENSG00000234473.1",-0.0886926546621021,-2.6321734019751304,10.0,1009.0],["USP25_ENSG00000155313.11",-0.0737613667782248,-2.0308703946653646,10.0,1009.0],["PLGLB1_ENSG00000183281.10",-0.0880440779271413,-2.6041779201521407,10.0,1009.0],["CTD-2047H16.2_ENSG00000262979.1",-0.07845110293592109,-2.210031462436113,10.0,1009.0],["RP11-95D17.1_ENSG00000269973.1",-0.07873897142748755,-2.221319843273961,10.0,1009.0],["C1orf21_ENSG00000116667.8",-0.0778226410339139,-2.18551228430799,10.0,1009.0],["YPEL5_ENSG00000119801.8",-0.09210441983148525,-2.7822885556121655,10.0,1009.0],["AC096772.6_ENSG00000244567.1",-0.07438818362084365,-2.0543063193794353,10.0,1009.0],["RP11-31F19.1_ENSG00000226403.1",-0.08504961125537744,-2.4771302420035495,10.0,1009.0],["TTYH1_ENSG00000167614.9",-0.08039870909097063,-2.2870394889968906,10.0,1009.0],["CDH12P3_ENSG00000253492.1",-0.07991011999895149,-2.267575206269757,10.0,1009.0],["RP1-145M24.1_ENSG00000254708.1",-0.07538462364402478,-2.0918602018535855,10.0,1009.0],["TPTE2P6_ENSG00000205822.6",-0.09971428045563882,-3.13431822563339,10.0,1009.0],["MFSD11_ENSG00000092931.7",-0.07643516851200245,-2.1319368496258355,10.0,1009.0],["CCDC33_ENSG00000140481.9",-0.07419007050463963,-2.0468624083996914,10.0,1009.0],["RP11-269G24.3_ENSG00000263644.1",-0.0834771529448933,-2.411855577067215,10.0,1009.0],["AP000254.8_ENSG00000273271.1",-0.07780601411863029,-2.1848656721388626,10.0,1009.0],["CCDC122_ENSG00000151773.8",-0.072069480672166,-1.9683966351874556,10.0,1009.0],["RP4-614O4.12_ENSG00000269202.1",-0.07938811881642743,-2.246890791295306,10.0,1009.0],["LINC00672_ENSG00000263874.1",-0.07659028858022336,-2.137888169575855,10.0,1009.0],["NUDT7_ENSG00000140876.7",-0.07289855050496676,-1.9988676528162246,10.0,1009.0],["PKHD1_ENSG00000170927.10",-0.08601472893063289,-2.5176467553673363,10.0,1009.0],["YIPF4_ENSG00000119820.6",-0.07646898344270436,-2.1332333713987746,10.0,1009.0],["DHRS12_ENSG00000102796.6",-0.0758257808296203,-2.108650576840878,10.0,1009.0],["MYO5BP2_ENSG00000238245.2",-0.07495669790510415,-2.0756748252175248,10.0,1009.0],["SRD5A3_ENSG00000128039.6",-0.08745088293859933,-2.5787209256486774,10.0,1009.0],["PLGLB2_ENSG00000125551.14",-0.07558237841970114,-2.099391100800878,10.0,1009.0]]}}}
{"ccle_rrbs_tss_clusters":{"corr":{"top":[["NBEAL2_3",0.1912588143086816,-7.652021061427787,10.0,832.0],["ELP3",0.30951762229192625,-19.402774816261743,10.0,831.0],["SREBF2_2",0.1208442350183447,-3.280202904749182,9.0,811.0],["CYB5R1_1",0.12641205974881065,-3.5830990466684094,10.0,820.0],["MKNK1",0.14468140582884914,-4.586436270993826,10.0,829.0],["CRYBB2P1_2",0.258056297510469,-13.305686968325269,10.0,816.0],["ALDH16A1_2",0.20086470036607276,-8.386691839229668,10.0,832.0],["FGGY",0.16314133618578497,-5.698321662552172,10.0,830.0],["PGAM1_2",0.26679065769924853,-14.37976833805197,10.0,827.0],["DRG2_3",0.20153726948760675,-8.208188011663712,10.0,807.0],["MCM8_3",0.21077578270368905,-9.11286986647656,10.0,825.0],["DDX56_2",0.25280189225829525,-13.03132336507747,10.0,833.0],["POLA2_3",0.14069291465863426,-4.377980518037552,10.0,832.0],["DDX21_1",0.250310013469513,-12.768452067402277,10.0,832.0],["ASCC2_2",0.1620049717385606,-5.590356883788952,10.0,824.0],["TRADD_1",0.22135900378175793,-10.090220948282001,10.0,833.0],["TRAM2_2",0.23378632795907714,-11.177461565781206,10.0,831.0],["UHRF1_9",0.11985973576358594,-3.3051994368454096,10.0,831.0],["PAM16_2",0.15881449720172977,-5.427299931755,10.0,830.0],["HPS4_3",0.16388025080925625,-5.72070770843354,10.0,826.0],["MRPL1",0.23110285859704527,-10.908050405926543,10.0,829.0],["TTLL1_1",0.2687025856842729,-14.632322438019427,10.0,830.0],["SH2D6_3",0.27115840382367046,-14.913203984982609,10.0,831.0],["ERGIC1_2",0.1449073565055609,-4.6185757281076105,10.0,833.0],["GAK_2",0.17047070800179703,-6.180368505826023,10.0,831.0],["EIF2AK4_2",0.19442409463644367,-7.85557957964061,10.0,828.0],["RPF2",0.1780787869625249,-6.696329210299799,10.0,831.0],["S100A2_5",0.13658980418753436,-4.15910495378967,10.0,833.0],["RYBP_1",0.1397226659560752,-4.297543328520929,10.0,826.0],["PUS10",0.1773837235794716,-6.554832979219026,10.0,818.0],["MKI67_1",0.12536721194881875,-3.5722270004825973,10.0,831.0],["C4orf33_1",0.1228546852424898,-3.3606908561320044,9.0,807.0],["ITFG2-AS1_2",0.13866527794106087,-3.8876913911219613,10.0,747.0],["YIPF4_1",0.14289695499079197,-4.476870776507774,10.0,827.0],["FBXW4_1",0.17278975153918372,-6.342088262489226,10.0,832.0],["PIH1D1_2",0.18059189807948067,-6.879148818300073,10.0,832.0],["GCN1_1",0.2054350172603273,-8.730036646790483,10.0,830.0],["HSF4_1",0.22192331698131865,-10.049598303460048,10.0,825.0],["PLIN3_2",0.17384452228707542,-6.344241310397251,10.0,822.0],["CFAP57",0.154461147193066,-5.150814658258768,10.0,828.0]],"bottom":[["SCIN_4",-0.1231278957547229,-3.3664958797276356,9.0,805.0],["MIR519A2_1",-0.10704392926812545,-2.572939687792524,10.0,775.0],["RIMS3_3",-0.11543501049699283,-2.925560948876024,10.0,776.0],["PRR20B_5",-0.10798175614461288,-1.7195895524999936,8.0,463.0],["RPL3L_1",-0.12054271977201697,-3.3070527432638555,10.0,822.0],["MIR6742_1",-0.1369546198720506,-4.12221813597243,10.0,820.0],["ADAM32_2",-0.1150100621753564,-2.7975240815663556,9.0,742.0],["BTBD18",-0.13740159499621188,-4.1415880189240655,10.0,819.0],["A2M-AS1_3",-0.10922712478967773,-2.5191243351633568,9.0,726.0],["SNORA6",-0.12006020799663263,-2.653555916190642,8.0,639.0],["USF1_2",-0.11280534816506363,-2.8707277378867384,10.0,795.0],["GLG1_3",-0.1606662342987432,-5.293588974171186,9.0,789.0],["PCDHA3_1",-0.10763898026063162,-2.6522390577932113,9.0,796.0],["LOC100129046_1",-0.16631031893281514,-5.470142956179564,9.0,763.0],["MIR6505",-0.11180154064843424,-2.940035751399585,10.0,833.0],["EGOT_3",-0.12762829550815508,-3.5596002505303486,9.0,799.0],["PRR30_1",-0.10797266345718393,-2.490570542597761,9.0,733.0],["PAFAH2_1",-0.15485843475255942,-4.937516193847532,9.0,786.0],["LOC101928697_2",-0.10889438192133097,-2.7777855324093284,10.0,821.0],["C3orf62_1",-0.13946696551646381,-4.094364862842618,9.0,785.0],["ZBTB6_3",-0.12685376210949814,-3.4280727268764593,9.0,774.0],["SNORD103B_3",-0.15528049297276492,-5.039380302666217,10.0,799.0],["MIR6761_2",-0.11748287067939046,-3.128389610501546,10.0,811.0],["CEACAM16_3",-0.11262631868157524,-1.722971935334681,8.0,426.0],["H3.Y_3",-0.11126725091509751,-2.7312062256370924,8.0,772.0],["SNORA50D_1",-0.11108523624006757,-2.7647457499977763,9.0,785.0],["MSANTD3-TMEFF1_2",-0.17832690518670014,-6.058928530726102,10.0,741.0],["PRR20B_4",-0.12216369161756191,-2.0959593172219333,8.0,462.0],["MSL1_1",-0.11126650209320277,-2.798827659938812,10.0,793.0],["CLDN17_1",-0.11577781815353058,-3.0637968641521893,10.0,815.0],["RCCD1_1",-0.18079503083184575,-6.550025082916056,9.0,787.0],["MIR711_2",-0.16964998548356947,-5.921853044518669,9.0,801.0],["HAAO_3",-0.11661926014867303,-2.8641638271475935,9.0,742.0],["GALNT6",-0.10972785088834379,-2.7423533341483686,9.0,797.0],["C3orf84_2",-0.16580511086565056,-5.679777132473755,9.0,801.0],["PRAME_5",-0.10626324783588649,-2.5551079933095133,9.0,781.0],["UCN_3",-0.13219516926295827,-3.8169575321185314,9.0,807.0],["STAT5A_1",-0.14909335572280324,-4.7520356834978905,10.0,812.0],["NAA60_4",-0.1366935400400074,-3.721719052483711,8.0,733.0],["SNORA62_2",-0.12839653258738673,-2.965450532120949,8.0,637.0],["USP7_6",-0.11271961693919517,-2.770567687737164,10.0,763.0],["MIR5701-3_4",-0.10982047238030694,-2.1023342844781117,8.0,576.0],["TOPAZ1_2",-0.10919287560574314,-2.770850303280972,10.0,814.0],["LOC145694_2",-0.13396176034112398,-3.618222390536143,9.0,738.0],["HCRT_3",-0.1185425982909564,-2.9049788783403763,8.0,731.0],["MIR6761_1",-0.1090839173459425,-2.7577018936809115,10.0,811.0],["PIGG_1",-0.13694492906467765,-4.147783888549599,10.0,826.0],["GYS1_2",-0.10933967331702467,-2.65199770146257,8.0,772.0],["MIR4707_3",-0.1187837948597587,-3.1714097443998037,10.0,806.0],["CRSP8P_2",-0.10674715524934231,-2.599117156676826,10.0,789.0],["KAT5_3",-0.12244455999851978,-3.239307175952361,10.0,777.0],["LOC101927502_2",-0.10728371882361289,-2.52480181353013,10.0,754.0],["SNORA62_3",-0.10968000190332176,-2.284892934048342,8.0,640.0],["ISOC1_1",-0.11761880219961819,-2.9648883835457407,8.0,761.0]]},"para":{"top":[["SREBF2_2",0.08925174117040985,-2.273066243840961,9.0,811.0],["KIFC2_1",0.1004005978726062,-2.7395313298543704,10.0,830.0],["RPL24_2",0.09083204581115303,-2.2392761579394374,9.0,766.0],["TBL1X_1",0.09669113494680551,-2.5544301345756724,10.0,813.0],["NIPSNAP2_1",0.0903263861944327,-2.319592876505103,9.0,815.0],["CTH",0.15492419813103372,-4.751490678657145,8.0,706.0],["ANKHD1_1",0.09971534497851096,-2.7168012459041577,10.0,832.0],["RALGAPA2_3",0.09108184230316985,-2.243821336552387,9.0,764.0],["TNK2_3",0.0902684085706989,-2.347295766410353,10.0,829.0],["RNU11_1",0.09084491761591558,-2.348492936623613,10.0,819.0],["FCHO1_6",0.10389815089720486,-2.671132973013795,10.0,748.0],["PMVK_2",0.11343714326596344,-3.2864606842679174,10.0,828.0],["GSN_6",0.09644288981584448,-2.226422593565469,8.0,674.0],["LINC01237_2",0.08774180790970286,-2.200705358746777,9.0,801.0],["LINC02544_2",0.09741442047604365,-2.508974838285648,9.0,782.0],["EIF4H_1",0.09414045633602236,-2.4407823347991506,10.0,805.0],["PPP1R26_1",0.10119451917192765,-2.57039717081271,10.0,748.0],["LOC101927699_3",0.10928588953972329,-2.7245363737325294,8.0,696.0],["AOC2_2",0.10528161280404383,-2.8477304764764493,10.0,795.0],["MCM5_1",0.09480553547104167,-2.5089324923382956,10.0,825.0],["TAF1_4",0.08458815229823562,-2.083614741212019,8.0,797.0],["AFF4_2",0.09194886958607819,-2.306731884209828,9.0,780.0],["ALDH8A1_1",0.0909141927517539,-2.298619992952895,9.0,794.0],["BABAM2_1",0.09670951757209896,-2.5843538146858025,10.0,826.0],["TRAM2_2",0.1253584660925706,-3.852927237496633,10.0,831.0],["PTGER3_1",0.08777563848809493,-2.1962122447916266,9.0,798.0],["TMEM126A",0.09733133188733913,-2.603990496792146,10.0,824.0],["RIC8A_2",0.0907838609052886,-2.3703022574621126,10.0,831.0],["LOC100506082_2",0.09289093393886949,-2.432351584488933,10.0,823.0],["SLC6A6_3",0.0976510030050414,-2.63478969808096,10.0,832.0],["WWP2_7",0.09308414028206233,-2.3532745476022003,8.0,784.0],["GAK_2",0.09025101223912345,-2.350614299434131,10.0,831.0],["CADPS_3",0.10111606815073289,-2.471224903335058,8.0,711.0],["MIR6871_1",0.10107012555947048,-2.7226204656264232,10.0,812.0],["MIR199A1_1",0.11041990966456203,-3.165251951451561,10.0,832.0],["PNMA6E_1",0.09297241677956444,-2.3556807650479223,9.0,786.0],["SNORA56_2",0.09468738009223743,-2.45026278324391,10.0,800.0],["USP4_2",0.09914593422972488,-2.566686622968948,10.0,778.0],["HSP90AA1_1",0.0899087167006928,-2.3419564244883033,10.0,833.0],["MIR2114_1",0.10306311794677193,-2.7236609640251523,9.0,782.0],["PRICKLE3_2",0.10280907230480249,-2.721373432664579,9.0,785.0],["CORO1A_2",0.0900607014357392,-2.2585111290663953,9.0,789.0],["PRICKLE3_5",0.11470806265984484,-3.325018939762461,10.0,822.0],["TBL1X_4",0.09228079141930619,-2.3392354178555963,9.0,790.0],["CASKIN2_1",0.09157204850319237,-2.3710982051633334,10.0,817.0],["SHISA5_1",0.09529151448690194,-2.4529086014777706,9.0,792.0],["RAB11FIP3_5",0.10044879024175885,-2.72941844640788,10.0,825.0],["RNF41_2",0.09552115477856847,-2.423733649634578,8.0,776.0],["TBC1D22A-AS1_2",0.09769835210048838,-2.616040425058379,10.0,823.0],["MAGI3_2",0.09481341718536788,-2.4440522610964845,10.0,795.0],["RNF122_3",0.09123384454712015,-2.391038518104131,10.0,833.0],["CYHR1_9",0.0956003935729166,-2.5349407276610143,10.0,823.0],["CTDP1_1",0.09945845141399427,-2.7088843214839535,10.0,833.0],["ZNF318_3",0.09286216410271442,-2.36220861890334,9.0,791.0],["PRICKLE3_3",0.09415291502449118,-2.4819792998242836,10.0,824.0],["NAV2_5",0.1028940038325999,-2.7196185867611407,9.0,783.0],["MIR1913_1",0.09834279849224525,-2.5388589064044997,8.0,781.0]],"bottom":[["LONRF3_2",-0.09776345728330894,-2.6392226733724056,10.0,832.0],["VAX1_3",-0.11278320696953736,-3.2695203073135493,10.0,832.0],["MAGEA5_3",-0.09361784333618403,-2.406478323449182,8.0,800.0],["GJB3_2",-0.09626612079553,-2.5738929133592667,10.0,829.0],["ADAM8_2",-0.0958963860592322,-2.561790284093402,10.0,830.0],["LOC105369332_2",-0.11027215570060424,-2.9230553193980042,9.0,751.0],["TEAD2_3",-0.0970496298883247,-2.511335804998055,8.0,790.0],["MIR519A2_1",-0.10331968666839621,-2.718401844905355,10.0,775.0],["HOXC5_3",-0.1246221866773157,-3.7666503969983647,10.0,817.0],["MXRA5_2",-0.10069583448518375,-2.7102359733286794,10.0,813.0],["NUDT10_1",-0.08910734718811536,-2.139339931706367,8.0,746.0],["ADAM32_2",-0.11513376891697337,-3.091516288978343,9.0,742.0],["SAMD4B_1",-0.09454869688972002,-2.3300197468091013,8.0,749.0],["NGF-AS1_3",-0.10030059158091856,-2.530249238405557,8.0,747.0],["GS1-600G8.3_2",-0.0937918885559345,-2.3123777682589823,8.0,753.0],["MIR3132_2",-0.09481376128968856,-2.511414353233735,10.0,826.0],["PGAM2_3",-0.0974717811570341,-2.5087770917807815,8.0,782.0],["LINC01362_1",-0.10196304676113536,-2.5562846028019517,9.0,732.0],["CLK2P1_3",-0.10912482823403162,-2.5071826274951023,9.0,621.0],["STX5_1",-0.11219471646575876,-3.0029226753945837,9.0,752.0],["RNVU1-8_3",-0.11320526919786043,-2.7087160100200425,9.0,642.0],["FOXB1_3",-0.10195816719586324,-2.807540032326811,10.0,832.0],["HAGLR_6",-0.09777225989567377,-2.605156367491445,10.0,817.0],["PDIA6_2",-0.09141695725152663,-2.3491078241426955,9.0,810.0],["ZBTB45_5",-0.0923291543041885,-2.361693281370894,9.0,800.0],["LOC100129046_1",-0.1544362314266098,-5.043954991579304,9.0,763.0],["C22orf24_1",-0.10328495448523183,-2.760211888671703,9.0,793.0],["C6orf99_2",-0.1087425527980921,-3.0532997927263996,10.0,818.0],["HTN1_1",-0.10032505427148013,-2.3140862963610407,8.0,658.0],["LINC00508_2",-0.09508301946260718,-2.3772325076299152,8.0,762.0],["PTGS1_5",-0.09398073235673376,-2.40058409951567,9.0,790.0],["PRR20B_4",-0.12400470745672174,-2.4394490650031164,8.0,462.0],["ARHGAP6_6",-0.08700680152296258,-2.197462714320625,8.0,814.0],["STEAP1B_1",-0.09843412461718398,-2.5376051489993072,8.0,779.0],["ARMCX4_2",-0.08752214639940359,-2.1647760195067085,8.0,787.0],["MIR615_3",-0.10982382468516563,-3.136411937965824,10.0,831.0],["TIRAP_3",-0.09865933228094163,-2.3788330953800987,8.0,708.0],["PCDHB13_1",-0.09100054749485374,-2.253108629367236,8.0,771.0],["LOC105369438_1",-0.09490830312491937,-2.5041608194330456,10.0,821.0],["CLDN17_1",-0.10712314148386645,-2.9768189915927183,10.0,815.0],["ZNF232_7",-0.10597316611277509,-2.872973155113879,10.0,794.0],["MIR100HG_3",-0.10895754172667821,-2.6072669510475626,8.0,659.0],["GALNT6",-0.09548994964380961,-2.471249207216025,9.0,797.0],["C3orf84_2",-0.11941156876306602,-3.4655772845523742,9.0,801.0],["LINC01356_3",-0.09504131768616834,-2.4480631055135897,9.0,794.0],["LINC01659_3",-0.10497796496277453,-2.46809805615548,8.0,658.0],["LINC02323_2",-0.09888985311023483,-2.4153022506394546,9.0,719.0],["OVOL2_1",-0.09367572771708609,-2.2783727032607453,8.0,739.0],["LINC02103_1",-0.09663843031935758,-2.4870083156864826,8.0,786.0],["TAS2R10_1",-0.10512601341174824,-2.767639041410154,9.0,768.0],["CACNA1C-AS1_2",-0.0983332327094293,-2.6339194554902567,10.0,820.0],["HAGLROS_3",-0.09443704816848561,-2.5078181921956335,10.0,831.0],["DPF3_2",-0.10108092315152643,-2.774284440858045,10.0,833.0],["CITED1_3",-0.09632657705553807,-2.578471172428297,10.0,830.0],["C7orf57_1",-0.10312242270131444,-2.852784229840223,10.0,831.0],["MYL12A_2",-0.10018632884878165,-2.7308931082496803,10.0,830.0],["GJB4_3",-0.0934122238529998,-2.401140269325877,9.0,800.0],["GPR148_2",-0.11269097597193206,-3.256467813189821,10.0,829.0],["MSX1_1",-0.10087620399046943,-2.763555307816362,10.0,832.0],["GYS1_2",-0.10211353724859451,-2.6593449283487307,8.0,772.0],["UNC5D_2",-0.09388133292257589,-2.441819241619625,9.0,811.0],["EHHADH_3",-0.09736640775119312,-2.5825972116800417,10.0,814.0],["CTSL_1",-0.10949705913107886,-2.720869253419478,8.0,692.0],["ZNF225_2",-0.10370936344048111,-2.456710281905361,8.0,670.0]]}}}
{"ccle_rrbs_cgi_clusters":{"corr":{"top":[["19_49954279_49958837-1",0.20086470036607276,-8.386691839229668,10.0,832.0],["7_44611211_44615875-3",0.25461865517207183,-13.214261062861524,10.0,833.0],["8_103820614_103825263-3",0.25604603676207355,-13.08942306168342,10.0,815.0],["17_7208224_7210982-2",0.17892766049657594,-5.6187609966399465,9.0,677.0],["3_156389811_156392709-1",0.16281126066671192,-5.671321662212247,10.0,829.0],["17_17989080_17993581-3",0.20153726948760675,-8.208188011663712,10.0,807.0],["8_27948470_27952868-1",0.30951762229192625,-19.402774816261743,10.0,831.0],["16_4398955_4403572-2",0.15881449720172977,-5.427299931755,10.0,830.0],["4_78781745_78786015-1",0.23110285859704527,-10.908050405926543,10.0,829.0],["12_53716632_53719205-3",0.22948338062365478,-10.797946837823828,10.0,832.0],["18_76829217_76831796-1",0.25225193218160646,-12.889067650499197,10.0,827.0],["16_67194792_67198390-1",0.19156298320936532,-7.599443680963604,10.0,823.0],["6_111301114_111305485-1",0.1780787869625249,-6.696329210299799,10.0,831.0],["10_99183778_99188294-2",0.26679065769924853,-14.37976833805197,10.0,827.0],["10_103452126_103456478-1",0.17278975153918372,-6.342088262489226,10.0,832.0],["11_94820597_94823104-3",0.1467533951760514,-4.6743972085683145,10.0,823.0],["19_7987497_7990348-3",0.1489703377558336,-4.719452520330779,10.0,807.0],["4_923580_928488-2",0.17047070800179703,-6.180368505826023,10.0,831.0],["11_65027040_65031926-3",0.14069291465863426,-4.377980518037552,10.0,832.0],["1_227125069_227127749-1",0.15845060628677754,-5.404830841976628,10.0,830.0],["1_43635503_43640052-1",0.154461147193066,-5.150814658258768,10.0,828.0],["10_70713938_70718494-1",0.250310013469513,-12.768452067402277,10.0,832.0],["7_5595597_5598540-1",0.1547364022646359,-5.194857126197271,10.0,833.0],["5_139778307_139781207-1",0.1637481087081324,-5.736898012746809,10.0,830.0],["22_30231923_30236399-2",0.1620049717385606,-5.590356883788952,10.0,824.0],["1_47067615_47072179-2",0.14468140582884914,-4.586436270993826,10.0,829.0],["16_90039056_90041583-1",0.16576058994814497,-5.846977197398311,10.0,827.0],["19_49952763_49957185-3",0.1823459055644434,-7.003157700959187,10.0,832.0],["15_40224210_40228631-2",0.18653002668750077,-7.272121000800714,10.0,828.0],["16_30823528_30827978-1",0.2127861573307423,-9.319293594142714,10.0,829.0],["16_67191546_67196039-1",0.22135900378175793,-10.090220948282001,10.0,833.0],["6_52439269_52443793-2",0.23378632795907714,-11.177461565781206,10.0,831.0],["16_67191005_67195219-2",0.22035704735396833,-10.003367997009386,10.0,833.0],["1_150532075_150536301-2",0.14871836489305512,-4.674603478726297,10.0,801.0],["1_222636761_222640973-2",0.21942458781193383,-9.890025685598735,10.0,830.0],["12_2919849_2924127-2",0.13866527794106087,-3.8876913911219613,10.0,747.0],["20_5928962_5933623-3",0.21077578270368905,-9.11286986647656,10.0,825.0],["1_146643986_146646501-1",0.18259024974968568,-7.012922524108667,10.0,831.0],["1_59760102_59764794-1",0.16314133618578497,-5.698321662552172,10.0,830.0],["19_1864391_1866942-1",0.21061693866239417,-9.120090166745769,10.0,827.0],["22_19154977_19159413-1",0.1755673908675155,-6.481280443477926,10.0,825.0],["22_43483057_43487545-1",0.2687025856842729,-14.632322438019427,10.0,830.0],["22_26877458_26881930-1",0.16388025080925625,-5.72070770843354,10.0,826.0],["15_31615763_31619335-3",0.23507203781802424,-11.270775225346751,10.0,829.0],["5_172259145_172263671-2",0.1449073565055609,-4.6185757281076105,10.0,833.0],["3_72493853_72498852-1",0.1397226659560752,-4.297543328520929,10.0,826.0],["2_32500965_32505471-1",0.14289695499079197,-4.476870776507774,10.0,827.0],["16_67193600_67197827-1",0.1865481225517471,-7.313107551140244,10.0,833.0],["2_85643343_85647879-3",0.28739849480863955,-16.730305065433985,10.0,831.0],["12_120630222_120634784-1",0.2054350172603273,-8.730036646790483,10.0,830.0]],"bottom":[["13_57719541_57723874-1",-0.12216369161756191,-2.0959593172219333,8.0,462.0],["19_34300168_34304568-1",-0.12016461385784384,-3.295986589663022,10.0,824.0],["2_45177364_45179879-1",-0.13217530513053616,-3.3259652053706645,8.0,688.0],["19_49963027_49967366-1",-0.13788974005574495,-4.154356061918487,9.0,817.0],["7_16888768_16893087-3",-0.12410696305074578,-3.380397079497047,10.0,795.0],["5_176956301_176960517-1",-0.12362043142203565,-3.379041412653088,9.0,802.0],["16_72819140_72823592-2",-0.12317602679907363,-3.212059087432854,8.0,762.0],["9_116811864_116814389-1",-0.12065594726395881,-3.2474828113019236,9.0,804.0],["2_213694349_213697199-1",-0.12177065693139717,-3.3062438438293595,10.0,805.0],["10_5681648_5685878-1",-0.11738435569017394,-2.6406150213241526,8.0,665.0],["23_103493010_103497309-2",-0.11375802517457086,-2.6445302061022002,8.0,710.0],["1_133124_137563-3",-0.11036494714291215,-2.574840108507653,9.0,730.0],["10_1145967_1150271-1",-0.17827272409853281,-6.550078696046573,10.0,809.0],["5_17653252_17657723-3",-0.11126725091509751,-2.7312062256370924,8.0,772.0],["8_145499984_145504298-1",-0.11045281060297352,-2.836700849198773,10.0,818.0],["5_137679061_137683274-1",-0.16507320642273837,-5.7467344370288655,10.0,818.0],["11_57518333_57522753-1",-0.13740159499621188,-4.1415880189240655,10.0,819.0],["22_47511202_47515585-3",-0.11831343832178672,-2.848990690412009,10.0,715.0],["17_80827533_80831871-2",-0.1162771105879645,-3.092783352662798,9.0,818.0],["5_112254980_112257556-2",-0.11991527776132523,-2.1456715054713227,8.0,494.0],["17_40333946_40338609-3",-0.1185425982909564,-2.9049788783403763,8.0,731.0],["21_15434119_15438962-2",-0.11570345746282228,-2.583818871093197,8.0,667.0],["19_455800_460028-2",-0.13241034941171007,-3.8155919581551045,10.0,803.0],["15_69704516_69709352-3",-0.13396176034112398,-3.618222390536143,9.0,738.0],["15_91495994_91500615-1",-0.1766667631705535,-6.277834589668613,9.0,787.0],["4_490839_495379-1",-0.13694492906467765,-4.147783888549599,10.0,826.0],["1_26322549_26326934-1",-0.15485843475255942,-4.937516193847532,9.0,786.0],["14_80326014_80330331-1",-0.14321122078069384,-3.0777091215430805,8.0,533.0],["5_128428003_128430533-1",-0.11761880219961819,-2.9648883835457407,8.0,761.0],["16_68674450_68678843-1",-0.13087893547132132,-3.722862955121629,10.0,799.0],["16_2631479_2635920-2",-0.11298735397401952,-2.6906077089361715,8.0,735.0],["11_65477349_65482024-3",-0.12244455999851978,-3.239307175952361,10.0,777.0],["3_39445890_39450644-2",-0.12006020799663263,-2.653555916190642,8.0,639.0],["1_41848234_41851204-3",-0.12519932938369935,-3.2223635331593288,8.0,740.0],["4_78032327_78036589-1",-0.11348705121829411,-2.9002330896665804,10.0,795.0],["1_113739473_113743745-3",-0.1549057676926543,-5.100333116530968,10.0,814.0],["17_17065576_17069940-2",-0.12583715667917528,-3.543752147579649,10.0,817.0],["9_130705654_130709856-1",-0.1303544386514288,-3.7681443180517453,10.0,817.0],["19_49965448_49969851-2",-0.18413965095710783,-7.038398029322192,10.0,820.0],["2_27530274_27533465-3",-0.13219516926295827,-3.8169575321185314,9.0,807.0],["10_43695777_43700177-1",-0.11339870348761501,-2.9450762433532582,9.0,812.0],["6_35451776_35456435-1",-0.1208232933556826,-3.124760293031138,9.0,766.0],["9_140710931_140713528-1",-0.17658830903188655,-6.215636908903543,9.0,779.0],["16_9055644_9059886-1",-0.11271961693919517,-2.770567687737164,10.0,763.0],["3_49312437_49316815-1",-0.13946696551646381,-4.094364862842618,9.0,785.0],["10_22765879_22769050-3",-0.12406827491801345,-3.418238528230412,9.0,807.0],["5_140602453_140607304-1",-0.11542852234649317,-2.9567926971889538,9.0,787.0],["19_1375844_1380266-3",-0.11160506614747852,-2.659220719730779,9.0,742.0],["7_72411249_72415793-1",-0.1224361959853948,-3.351508978360409,9.0,810.0],["5_74328736_74332954-1",-0.12145675691067549,-3.1042395913343244,8.0,753.0],["3_195769456_195773713-2",-0.1669224791573869,-5.787872845054582,10.0,806.0],["5_140226129_140230576-1",-0.10986927875351316,-2.4716350508690814,9.0,701.0],["10_131684365_131688595-2",-0.13915924955898232,-3.71351740198782,8.0,705.0],["8_38963013_38967423-2",-0.1150100621753564,-2.7975240815663556,9.0,742.0],["14_23423982_23428457-3",-0.1187837948597587,-3.1714097443998037,10.0,806.0]]},"para":{"top":[["3_101403309_101407688-2",0.09083204581115303,-2.2392761579394374,9.0,766.0],["19_50091657_50094582-1",0.0944859829481078,-2.4859866377750994,10.0,820.0],["6_169537501_169542033-2",0.10061418929956775,-2.6948915569146967,10.0,808.0],["3_14441629_14446577-2",0.09251048566294849,-2.436811873255162,10.0,832.0],["16_30192747_30197357-2",0.10043114621425038,-2.6563038168963637,10.0,795.0],["17_79892668_79897533-2",0.10040196411854153,-2.6696665290816415,10.0,801.0],["17_73509016_73512096-1",0.09644941907894557,-2.5474336547118233,10.0,814.0],["19_49296405_49300745-3",0.09273247424872579,-2.438923521417257,10.0,829.0],["23_40006053_40009066-1",0.09990754787417373,-2.6743673877306144,10.0,811.0],["23_40008919_40013561-2",0.09038362626904244,-2.2957177471603,8.0,803.0],["7_56030046_56034903-1",0.0903263861944327,-2.319592876505103,9.0,815.0],["19_54682476_54686876-2",0.09458671147335397,-2.4573698800417496,10.0,805.0],["3_48539298_48543911-2",0.09529151448690194,-2.4529086014777706,9.0,792.0],["6_43042044_43044550-2",0.09577695039705564,-2.4130530690975824,8.0,767.0],["5_180217007_180221883-3",0.10272353541932351,-2.7482895611687836,9.0,797.0],["2_28111060_28115764-1",0.09670951757209896,-2.5843538146858025,10.0,826.0],["20_20693267_20695786-2",0.09146139330120305,-2.256894844818579,9.0,764.0],["6_43337156_43339832-3",0.09286216410271442,-2.36220861890334,9.0,791.0],["19_3034216_3038618-1",0.09615731307615152,-2.4872186120552975,10.0,792.0],["16_372732_377328-1",0.09439458431813437,-2.5061940106752103,10.0,831.0],["22_35793856_35798650-1",0.0948290565602184,-2.514167236325748,10.0,827.0],["13_114811942_114816457-2",0.09059942338474733,-2.363478262260283,10.0,831.0],["23_152664147_152668652-1",0.09297241677956444,-2.3556807650479223,9.0,786.0],["1_70874622_70879091-1",0.15492419813103372,-4.751490678657145,8.0,706.0],["5_149107570_149110660-1",0.09468642424440286,-2.471865305307055,9.0,811.0],["16_75513131_75515716-3",0.09149757912705837,-2.3744650604724566,10.0,820.0],["23_49040676_49045059-2",0.10280907230480249,-2.721373432664579,9.0,785.0],["16_79621491_79625957-1",0.10151686265562027,-2.7625141082552584,10.0,821.0],["11_73071118_73075733-3",0.11513778077905651,-3.365991317328905,10.0,829.0],["8_33421939_33426895-3",0.09123384454712015,-2.391038518104131,10.0,833.0],["23_49040676_49045059-3",0.09415291502449118,-2.4819792998242836,10.0,824.0],["1_249139563_249142179-1",0.09457753144348122,-2.5002476096042696,10.0,825.0],["19_48683723_48688085-1",0.09785667340666696,-2.5854097544760353,10.0,807.0],["3_49375340_49379854-2",0.09914593422972488,-2.566686622968948,10.0,778.0],["6_52439269_52443793-2",0.1253584660925706,-3.852927237496633,10.0,831.0],["23_70710049_70714821-1",0.08458815229823562,-2.083614741212019,8.0,797.0],["23_9430830_9433675-1",0.09228079141930619,-2.3392354178555963,9.0,790.0],["1_211686461_211691104-3",0.09623693593195476,-2.5303982337753586,10.0,810.0],["18_77437094_77439746-1",0.09643778112020318,-2.5850226923705555,10.0,831.0],["23_40013561_40018203-3",0.09331927666543903,-2.448419018322281,10.0,823.0],["11_85356865_85361226-1",0.09733133188733913,-2.603990496792146,10.0,824.0],["19_17856371_17860891-2",0.10389815089720486,-2.671132973013795,10.0,748.0],["12_133410394_133415170-1",0.09046017190968644,-2.3344030054490976,9.0,820.0],["4_4862456_4866834-2",0.09118877914537876,-2.3671500937457095,10.0,822.0],["1_154906962_154911931-2",0.11343714326596344,-3.2864606842679174,10.0,828.0],["3_195636127_195638895-2",0.09451270095422203,-2.5064035346151896,10.0,829.0],["13_114866894_114871836-3",0.10196486646977274,-2.80285959854276,10.0,830.0],["3_62860403_62863190-3",0.10111606815073289,-2.471224903335058,8.0,711.0],["3_49395399_49397942-2",0.1114405684291127,-3.04316858963487,10.0,775.0],["5_180642239_180646683-2",0.10836942057315407,-3.0707849631286828,10.0,830.0],["5_180644688_180649049-1",0.1146733846083005,-3.345046207399269,10.0,829.0],["17_72997204_73001978-2",0.08884876665262526,-2.2239674412780164,9.0,793.0],["8_141557164_141561368-1",0.09201054105748759,-2.4057169635195175,10.0,826.0],["9_133803004_133807453-3",0.09251072949694066,-2.4015679993943424,10.0,815.0],["2_242821446_242825970-2",0.08774180790970286,-2.200705358746777,9.0,801.0],["5_132296789_132301740-3",0.09194886958607819,-2.306731884209828,9.0,780.0],["9_138964648_138969467-2",0.10939287545770504,-3.0951308145369936,10.0,823.0],["11_4206448_4211153-2",0.09289093393886949,-2.432351584488933,10.0,823.0]],"bottom":[["16_72819140_72823592-3",-0.10726441154353711,-2.791338672671843,9.0,746.0],["9_124977329_124981599-2",-0.11835588361578916,-3.362487223911177,10.0,783.0],["20_36032985_36037203-2",-0.10549356734659815,-2.9302795045462244,10.0,823.0],["7_22537545_22542022-1",-0.09843412461718398,-2.5376051489993072,8.0,779.0],["9_90338715_90343542-1",-0.10949705913107886,-2.720869253419478,8.0,692.0],["16_72819140_72823592-2",-0.11462263057636003,-3.129579250456608,8.0,762.0],["12_54427867_54430709-1",-0.1091057526409331,-3.012440355509168,9.0,799.0],["13_57719541_57723874-1",-0.12400470745672174,-2.4394490650031164,8.0,462.0],["4_1770006_1774265-3",-0.09434278560015584,-2.4481992873525766,8.0,807.0],["1_2038997_2043302-3",-0.10377793661432817,-2.7154564872787255,8.0,769.0],["23_71522832_71526066-3",-0.11010280876665508,-3.1285535685922228,10.0,824.0],["6_159288673_159293195-2",-0.1087425527980921,-3.0532997927263996,10.0,818.0],["12_54406426_54410713-3",-0.1006171835453853,-2.724056250015408,10.0,820.0],["2_131483149_131487460-2",-0.11269097597193206,-3.256467813189821,10.0,829.0],["1_146554312_146558676-3",-0.11320526919786043,-2.7087160100200425,9.0,642.0],["10_134163143_134165728-2",-0.09875429400368976,-2.559000924660283,9.0,782.0],["15_60294135_60297327-3",-0.10270888000967425,-2.833270735587279,10.0,830.0],["18_44774284_44777577-1",-0.11346272129460289,-2.652997448828631,8.0,622.0],["4_24469700_24473314-2",-0.10115112675095649,-2.7502773678085335,10.0,822.0],["10_118897247_118899788-1",-0.11150666929354307,-3.201264865801797,10.0,828.0],["16_88956260_88960558-3",-0.10437013621172297,-2.65490955409936,8.0,737.0],["3_149688707_149691537-1",-0.10578140090148129,-2.9555278418632085,10.0,828.0],["7_64405589_64410299-1",-0.11367213333816786,-3.2758803226884647,10.0,821.0],["19_49494448_49498773-2",-0.10211353724859451,-2.6593449283487307,8.0,772.0],["3_65362942_65367261-2",-0.11977741726509537,-3.2297411536202123,8.0,727.0],["19_455800_460028-2",-0.11513650437510264,-3.2851171915160062,10.0,803.0],["6_170062970_170067270-3",-0.09889791226222092,-2.5077489011621696,8.0,759.0],["1_201508548_201511317-1",-0.10745906141742625,-3.009999579921375,10.0,822.0],["1_201505779_201508548-1",-0.10571297394205387,-2.947369382285288,10.0,826.0],["12_53691441_53696028-2",-0.10324883469928609,-2.7562506799547313,8.0,793.0],["11_62599371_62602064-2",-0.11219471646575876,-3.0029226753945837,9.0,752.0],["21_38628052_38632507-3",-0.10052904898531625,-2.5215148668388854,8.0,740.0],["19_12863419_12867825-2",-0.09907157626306871,-2.4976151483977787,9.0,751.0],["16_2631479_2635920-2",-0.11208782514774426,-2.9448271664618315,8.0,735.0],["17_5023798_5026431-1",-0.11486975130999257,-3.2238144493411935,10.0,787.0],["4_17708710_17713065-2",-0.09356072151381724,-2.3512574920576736,8.0,775.0],["12_115118774_115121860-2",-0.13785160781249176,-4.336699058861285,9.0,797.0],["1_41848234_41851204-3",-0.11559314456218987,-3.1007543879529154,8.0,740.0],["1_41845264_41848234-3",-0.10870104539934891,-3.065509357647166,10.0,823.0],["7_44102746_44107116-3",-0.0974717811570341,-2.5087770917807815,8.0,782.0],["5_172108282_172113166-3",-0.10537202240920567,-2.4707301550602048,8.0,654.0],["10_134163143_134165728-3",-0.10449664501839025,-2.7797542121524215,9.0,782.0],["7_561434_564845-2",-0.09994882537182555,-2.6855537814123394,10.0,815.0],["7_1067588_1070245-1",-0.11248511941001214,-3.2473422141595827,10.0,829.0],["13_20690524_20694767-2",-0.1047206556162341,-2.89821069257407,10.0,823.0],["20_10150768_10155193-3",-0.13153564926018346,-4.133017932068244,10.0,824.0],["19_53538735_53543233-2",-0.1049203702617986,-2.867258393592592,10.0,808.0],["2_5844856_5849561-1",-0.09674422305900504,-2.5225846765946103,9.0,799.0],["15_100337821_100342420-1",-0.10461835308931032,-2.9199600580543437,10.0,833.0],["9_140710931_140713528-1",-0.11275359638043467,-3.1064241218151234,9.0,779.0],["19_59082201_59087059-1",-0.11028425287578246,-2.9637073226573785,8.0,766.0],["17_79672200_79676665-2",-0.10474582601987277,-2.67945049312067,9.0,740.0],["10_22765879_22769050-3",-0.10008355925390978,-2.6692304239323925,9.0,807.0],["16_2479327_2481968-1",-0.10120846037063888,-2.777011851566525,10.0,832.0],["19_1375844_1380266-3",-0.10497777837697717,-2.693464595155974,9.0,742.0],["3_128743899_128748335-3",-0.10065686545601545,-2.7498492554431704,10.0,830.0],["7_72411249_72415793-1",-0.11291080354786973,-3.206233098732642,9.0,810.0],["22_23906322_23911178-2",-0.11352984498855855,-3.284712165032159,10.0,826.0],["10_118897000_118900037-1",-0.11225624720074884,-3.234260770096364,10.0,828.0],["8_25042307_25044820-1",-0.10124083311886146,-2.7758865302318676,10.0,831.0],["4_4861734_4864241-1",-0.13347537080621058,-4.235780180153645,10.0,825.0],["4_81126229_81130691-3",-0.09746750475701382,-2.5636044387407018,9.0,805.0],["7_23623611_23628161-3",-0.10912482823403162,-2.5071826274951023,9.0,621.0],["8_38963013_38967423-2",-0.11513376891697337,-3.091516288978343,9.0,742.0]]}}}
