{"ccle_chromatin":{"corr":{"top":[],"bottom":[]},"para":{"top":[],"bottom":[]}}}
{"ccle_rppa":{"corr":{"top":[],"bottom":[]},"para":{"top":[],"bottom":[]}}}
{"ccle_metabolomics":{"corr":{"top":[],"bottom":[]},"para":{"top":[],"bottom":[]}}}
{"ccle_rrbs_enhancer_clusters":{"corr":{"top":[["18-53090352-53093079-1_enh",0.1070028006046426,-2.560336540649859,27.0,754.0]],"bottom":[]},"para":{"top":[],"bottom":[]}}}
{"ccle_mirna":{"corr":{"top":[["hsa-miR-1321_miR00135.1",0.08773365191094046,-2.1740537686799533,32.0,922.0],["hsa-miR-600_miR00554.1",0.08862470913796446,-2.210423928980206,32.0,922.0],["hsa-miR-448_miR00371.2",0.10056462471024812,-2.727871969472531,32.0,922.0],["hsa-miR-298_miR00272.1",0.09160370371794276,-2.3342704715106137,32.0,922.0]],"bottom":[]},"para":{"top":[],"bottom":[]}}}
{"prism_primary_logfold":{"corr":{"top":[["clotiapine_BRD-K10990317-001-04-5::2.5::HTS",0.11385397753977068,-2.129892657791462,22.0,530.0],["ku-0063794_BRD-K67566344-001-07-5::2.5::HTS",0.11545606123297165,-2.1793541835661583,22.0,530.0],["zalcitabine_BRD-K85925969-001-17-4::2.5::HTS",0.10141449560328113,-1.7452155235198825,22.0,522.0],["L-Cystine_BRD-A15397381-001-02-5::2.5::HTS",0.09685519055230515,-1.5415580780740894,19.0,491.0],["piperacillin_BRD-K86873305-236-14-7::2.448463554::MTS004",0.12871350294495779,-2.5598156821289404,22.0,517.0],["nialamide_BRD-K12102668-001-25-5::2.5::HTS",0.11738251473553742,-2.252970223348952,22.0,534.0],["PP242_BRD-K87112191-001-04-5::2.5::HTS",0.12231222153788732,-2.4193184798428744,22.0,536.0],["centpropazine_BRD-A28958257-001-01-2::2.5::HTS",0.11081981416860184,-2.061859679843441,22.0,538.0],["firocoxib_BRD-K09090523-001-02-1::2.5::HTS",0.1315181317529185,-2.7245476723998308,22.0,534.0],["WYE-354_BRD-K77008974-001-03-2::2.5::HTS",0.11614073163149433,-2.200671668880313,22.0,530.0],["flibanserin_BRD-K33637378-001-01-7::2.500021224::MTS004",0.13312620875189649,-2.7093582987759364,22.0,517.0],["GSK2636771_BRD-K49215523-001-04-2::2.5::HTS",0.12349426944460154,-2.429098213640765,22.0,528.0],["estradiol_BRD-K18910433-001-36-6::2.58::HTS",0.1303959948613645,-2.5674425560136824,19.0,508.0],["LY411575_BRD-K20013301-001-02-6::2.5::HTS",0.12944714619478084,-2.6485149466225515,22.0,533.0]],"bottom":[["nicaraven_BRD-A86871940-001-01-9::2.5::HTS",-0.12034900198873918,-2.2710039646549807,18.0,516.0],["pirenoxine_BRD-K65992024-001-01-5::2.5::HTS",-0.12157963554297563,-2.384541962199669,22.0,533.0],["orlistat_BRD-K63343048-001-12-2::2.5::HTS",-0.12841942957497743,-2.585574801440665,22.0,526.0],["cyclopenthiazide_BRD-A41250306-001-11-7::2.5::HTS",-0.11283399728873524,-2.123548393719911,22.0,538.0],["tiletamine_BRD-A30582499-003-05-1::2.5::HTS",-0.11008603230695553,-1.9712699132668925,18.0,519.0],["beta-amyloid-synthesis-inhibitor_BRD-K38687824-001-02-5::2.5::HTS",-0.10795282653248271,-1.9613526933921552,22.0,533.0],["meloxicam_BRD-A84174393-236-07-1::2.5::HTS",-0.12083513816724678,-2.296806555263973,18.0,519.0],["cisapride_BRD-A12896037-001-04-3::2.5::HTS",-0.1398266724156727,-2.9357329927923446,18.0,519.0],["DMP-777_BRD-K54936858-001-01-6::2.5::HTS",-0.14819912314086867,-3.24379603240074,18.0,519.0],["mephenytoin_BRD-A83937277-001-10-5::2.5::HTS",-0.09988383843677262,-1.6858976774207508,18.0,519.0],["APD668_BRD-K10859802-001-01-0::2.5::HTS",-0.14865498165009666,-3.2610395053864156,18.0,519.0],["nafcillin_BRD-K18574842-236-17-7::2.5::HTS",-0.1568068775935853,-3.57766523263322,18.0,519.0],["inositol-hexanicotinate_BRD-K82800842-001-01-9::2.5::HTS",-0.11249602767543532,-2.0822472995458594,22.0,528.0],["GR125487_BRD-K62594868-082-08-6::2.5::HTS",-0.10807105304075884,-1.97918504642833,22.0,538.0]]},"para":{"top":[],"bottom":[["nicaraven_BRD-A86871940-001-01-9::2.5::HTS",-0.12927170880212416,-2.846500449305618,18.0,516.0],["pirenoxine_BRD-K65992024-001-01-5::2.5::HTS",-0.1282776915095266,-2.896317906233533,22.0,533.0],["APD668_BRD-K10859802-001-01-0::2.5::HTS",-0.13595288884196693,-3.0833146008655343,18.0,519.0]]}}}
{"prism_secondary_logfold":{"corr":{"top":[["dacarbazine_BRD-K35520305-001-16-9::0.00244::MTS010::PROS002_PR500",0.1319737951664536,-2.246342427178843,18.0,420.0],["azodicarbonamide_BRD-K87036601-001-01-6::10::HTS002",0.12001147628539979,-2.028829301934868,19.0,449.0],["delanzomib_BRD-K59325863-001-02-8::0.625::HTS002",0.11861900377470752,-1.994051583391372,19.0,450.0],["pelitinib_BRD-K08799216-001-05-3::0.00061::MTS010::PROS002_PR500",0.13415832623828286,-2.308306533945278,18.0,420.0],["ku-0063794_BRD-K67566344-001-07-5::2.5::HTS002",0.11854418348929661,-2.012702916717147,19.0,456.0],["ku-0063794_BRD-K67566344-001-07-5::10::HTS002",0.10905556810240623,-1.7588611263027076,19.0,456.0],["paricalcitol_BRD-K60585088-001-01-5::0.0390625::HTS002",0.1641147592460725,-2.7811651838876674,16.0,349.0],["YO-01027_BRD-K04622161-001-02-3::2.5::HTS002",0.11214239963047329,-1.805194535276891,19.0,445.0],["evodiamine_BRD-A68631409-001-05-4::10::HTS002",0.11027723901955538,-1.7693820550684072,19.0,449.0],["clindamycin-phosphate_BRD-K27771035-001-02-5::2.5::HTS002",0.1576273798444803,-3.2539037480328763,19.0,457.0],["HMN-214_BRD-K70511574-001-06-9::2.5::HTS002",0.12337767564463951,-2.12652801737719,19.0,450.0],["torin-1_BRD-K40175214-001-11-6::0.15625::HTS002",0.10760131165124631,-1.7012427221133959,19.0,449.0],["SB-2343_BRD-K98795921-001-01-7::0.625::HTS002",0.13163390137438083,-2.3961892455022524,19.0,457.0],["temsirolimus_BRD-K42898655-001-01-8::0.00976562::HTS002",0.10858407030696883,-1.7349395166028345,19.0,452.0],["paricalcitol_BRD-K60585088-001-01-5::0.625::HTS002",0.13440888219237593,-1.993619663297581,16.0,349.0],["GDC-0349_BRD-K43187018-001-03-3::0.157782::HTS002",0.12273888523805662,-2.1048088467998483,19.0,449.0]],"bottom":[["LGX818_BRD-A56085258-001-01-8::0.0024414::HTS002",-0.1671719630970442,-3.3607788239257514,18.0,421.0],["vemurafenib_BRD-K56343971-001-14-8::0.0391::MTS010::PROS004_PR500",-0.12826548878997063,-2.2592318603189057,19.0,448.0],["AR-42_BRD-K13167095-001-02-9::0.0024414::HTS002",-0.13747267246769998,-2.554124777153915,19.0,452.0],["secnidazole_BRD-A70083328-001-23-5::2.5::HTS002",-0.13269025903886733,-2.3986329752470024,19.0,450.0],["secnidazole_BRD-A70083328-001-23-5::0.00061034::HTS002",-0.1186094644925957,-1.9937904460715878,19.0,450.0],["ONX-0914_BRD-K60446698-001-01-2::0.0024414::HTS002",-0.13523885603569874,-2.4408577415906607,18.0,443.0],["dabrafenib_BRD-K09951645-001-11-8::0.00244::MTS010::PROS001_PR500",-0.14274939059827313,-2.663187270073724,19.0,440.0],["CHIR-99021_BRD-K16189898-003-03-3::0.625::HTS002",-0.13392307561685465,-2.4056680745220165,18.0,444.0],["1-phenylbiguanide_BRD-K31491153-003-05-9::0.625::HTS002",-0.14483211549449349,-2.4321183851178647,17.0,383.0],["8-bromo-cGMP_BRD-A00077618-236-07-6::0.0024414::HTS002",-0.13498510290500984,-2.4507722501834013,19.0,446.0],["CR8-(R)_BRD-K40331046-305-01-5::0.625::HTS002",-0.12695994379121944,-2.252653740660288,19.0,456.0],["AP1903_BRD-K28383148-001-01-4::0.0390625::HTS002",-0.14862849753680446,-2.55062409200329,17.0,385.0],["P5091_BRD-K13606314-001-01-3::0.00061034::HTS002",-0.12296091377907732,-2.1110578332320786,19.0,449.0],["salvinorin-a_BRD-K19284129-001-02-6::0.625::HTS002",-0.12458588266324365,-2.187318830034417,19.0,457.0],["spermine_BRD-K18375018-376-02-3::0.625::HTS002",-0.11879844045480341,-2.0024320328926657,19.0,451.0],["azilsartan_BRD-K81074237-001-02-3::0.625::HTS002",-0.12835574251289242,-2.257866685180877,19.0,447.0],["2-methoxyestradiol_BRD-K44408410-001-17-6::0.0391::MTS010::PROS001_PR500",-0.11900648221957488,-1.9698734252010697,19.0,440.0],["PPT_BRD-K00312224-001-09-5::0.625::HTS002",-0.151381249372241,-2.9589358058692596,18.0,444.0],["WHI-P154_BRD-K07487750-001-03-3::0.15625::HTS002",-0.11832267576264233,-1.9618499644044232,18.0,444.0],["ARRY-334543_BRD-K46386702-001-02-1::0.00244::MTS010::PROS001_PR500",-0.12206225333532017,-2.0530136904005447,19.0,440.0],["epinephrine_BRD-K63126190-003-01-6::0.00061034::HTS002",-0.13298381221353942,-2.158743489056509,17.0,394.0],["nonoxynol-9_BRD-K88625236-001-04-2::0.00976562::HTS002",-0.11476731629963374,-1.8900449190691244,19.0,450.0]]},"para":{"top":[["zolantidine_BRD-K08996725-332-01-7::0.00061034::HTS002",0.15760345606815185,-2.200433660487743,10.0,242.0],["pelitinib_BRD-K08799216-001-05-3::0.00061::MTS010::PROS002_PR500",0.14599299429978765,-2.942893039536374,18.0,420.0],["ku-0063794_BRD-K67566344-001-07-5::10::HTS002",0.11685923337521836,-2.2604500413728394,19.0,456.0],["paricalcitol_BRD-K60585088-001-01-5::0.0390625::HTS002",0.18003209644886745,-3.5260299696121975,16.0,349.0],["clindamycin-phosphate_BRD-K27771035-001-02-5::2.5::HTS002",0.16018267188221225,-3.617469581744788,19.0,457.0],["torin-1_BRD-K40175214-001-11-6::0.15625::HTS002",0.12577879455779897,-2.4826095393534624,19.0,449.0],["SB-2343_BRD-K98795921-001-01-7::0.625::HTS002",0.1503422654629277,-3.2783145692268203,19.0,457.0],["temsirolimus_BRD-K42898655-001-01-8::0.00976562::HTS002",0.12777641235421308,-2.551427465860925,19.0,452.0],["paricalcitol_BRD-K60585088-001-01-5::0.625::HTS002",0.1428826514895468,-2.492566537870968,16.0,349.0],["GDC-0980_BRD-K23228615-001-02-8::10::HTS002",0.13454762395222922,-2.288286677355517,13.0,352.0]],"bottom":[["nadifloxacin_BRD-A24397426-001-10-4::0.00061034::HTS002",-0.14533394701878338,-1.8216277659528044,12.0,212.0],["dabrafenib_BRD-K09951645-001-11-8::0.00244::MTS010::PROS001_PR500",-0.14201382151262906,-2.9246698052228757,19.0,440.0],["CHIR-99021_BRD-K16189898-003-03-3::0.625::HTS002",-0.13201625892376045,-2.638030281324291,18.0,444.0],["1-phenylbiguanide_BRD-K31491153-003-05-9::0.625::HTS002",-0.14644764549425415,-2.762804029553515,17.0,383.0],["P5091_BRD-K13606314-001-01-3::0.00061034::HTS002",-0.14405056601884506,-3.032064059559981,19.0,449.0],["SR-27897_BRD-K35629949-001-02-0::0.0390625::HTS002",-0.13405991003928552,-2.766778989135902,19.0,459.0],["desoxycortone_BRD-K98521173-001-19-4::0.0024414::HTS002",-0.13759372796202923,-2.8036401551421806,18.0,444.0],["TG-101209_BRD-K39841531-001-02-1::0.00061034::HTS002",-0.12017106760560543,-2.3510833907266693,18.0,457.0],["amisulpride_BRD-A60197193-001-14-6::0.00061034::HTS002",-0.1280307802849263,-2.4638211677175006,17.0,430.0]]}}}
{"ccle_proteomics":{"corr":{"top":[["PSMA1_P25786-2",0.19070353881989843,-3.6745561074589994,15.0,358.0],["TRMT112_Q9UI30",0.15531565801505132,-2.579872238313316,15.0,358.0],["ID3_Q02535",0.1505686122216112,-1.3364993006600523,8.0,168.0],["GALM_Q96C23",0.15924932419690654,-2.6913281535501623,15.0,358.0],["EIF3F_O00303",0.14808254885023697,-2.3814562664714165,15.0,358.0],["CCT2_P78371",0.1614612703948121,-2.755107329466521,15.0,358.0],["GOT1_P17174",0.1782049494460031,-3.2640395003928058,15.0,358.0],["CCT5_P48643",0.14730656442636086,-2.360668661310302,15.0,358.0],["RPIA_P49247",0.1483212193260437,-2.3878693023478337,15.0,358.0],["CHORDC1_Q9UHD1",0.16657370151674344,-2.9055845503870144,15.0,358.0],["SDCBP2_Q9H190",0.1587047012769303,-1.631210817123135,10.0,194.0],["OIP5_O43482",0.2212748537739829,-3.056739700911384,8.0,215.0],["FSD1_Q9BTV5",0.14774633639967075,-1.8913994665062868,10.0,273.0],["TMEM238_C9JI98",0.1932008263514302,-2.093316243608494,11.0,176.0],["RASAL1_O95294-4",0.21836531680248691,-3.261461893617678,10.0,237.0],["PRMT7_Q9NVM4",0.1490931449571388,-2.116623441410391,13.0,306.0],["RNASEH1_O60930",0.15983002517071673,-2.492989987927535,14.0,324.0],["MAP4K2_Q12851",0.15046644028003428,-1.8585547196390835,13.0,254.0],["PSMA8_Q8TAA3",0.15777060214161703,-2.59532437822097,14.0,350.0],["XRCC4_Q13426",0.1865431115680419,-3.534961924455697,15.0,358.0]],"bottom":[["ITGB8_P26012",-0.15108461237016288,-2.413159895472295,15.0,349.0],["MT-ND5_P03915",-0.1744067441402615,-2.3708091604934394,10.0,257.0],["CYB5R3_P00387-3",-0.169915951730525,-3.0062855554062553,15.0,358.0],["ACVR1B_P36896-4",-0.1873744928996838,-2.301361646905185,11.0,212.0],["MT-ND4_P03905",-0.19800098490082674,-2.847432067627204,12.0,245.0],["ZMYM2_Q9UBW7",-0.18795781709788648,-3.582097870193933,15.0,358.0],["RAB24_Q969Q5",-0.17712816026449885,-3.2299070111705244,15.0,358.0],["NF1_P21359",-0.15880887782406547,-2.67872358417391,15.0,358.0],["FAM57A_Q8TBR7",-0.228490331778427,-3.9902178449572663,12.0,272.0],["SLC2A6_Q9UGQ3",-0.23210049953033585,-3.4261431372027342,11.0,220.0],["FAM208A_Q9UK61",-0.1762440782542768,-3.202028333232432,15.0,358.0],["ST3GAL1_Q11201",-0.21599704759843893,-3.6107447059173152,10.0,274.0],["LMF2_Q9BU23",-0.1598741234230614,-2.709262697448004,15.0,358.0],["ZNF777_Q9ULD5-2",-0.20596499588282874,-2.4020937272267577,10.0,184.0],["SCAP_Q12770",-0.1634894207003703,-2.583513334764079,13.0,324.0],["SLC25A26_Q70HW3",-0.17518638088031271,-1.974505218606727,9.0,203.0],["PLXNB2_O15031",-0.16514817974631024,-2.8631946896333864,15.0,358.0],["FAM120C_Q9NX05",-0.19486032499680753,-3.664996178135849,15.0,341.0],["KCTD12_Q96CX2",-0.16989608395693723,-2.943809453235095,15.0,349.0],["NDUFB7_P17568",-0.1499617348006346,-2.4321965771443987,15.0,358.0],["CD99_P14209",-0.1826663696709561,-3.4075374201589548,15.0,358.0],["CPQ_Q9Y646",-0.21052314130481503,-4.01663633328256,13.0,325.0]]},"para":{"top":[["ID3_Q02535",0.18871704973173775,-2.1982876633368473,8.0,168.0],["PSMA1_P25786-2",0.18123099404931442,-3.6239498310102602,15.0,358.0],["NFKBIB_Q15653-2",0.14186838205970315,-2.4622176740883797,14.0,350.0],["CLP1_Q92989",0.17077531041516922,-3.3041891296592096,15.0,358.0],["GALM_Q96C23",0.15448990837400897,-2.8390961942695423,15.0,358.0],["EIF3F_O00303",0.14416100132605675,-2.5647624639101547,15.0,358.0],["CCT2_P78371",0.16716339406511546,-3.1975819297880834,15.0,358.0],["DENND2A_Q9ULE3",0.23623788019886793,-1.9789343628852933,8.0,89.0],["TMEM238_C9JI98",0.16735553530883926,-1.9462659872159567,11.0,176.0],["FRA10AC1_Q70Z53",0.16591453307540022,-2.7496800933354604,11.0,299.0],["RPIA_P49247",0.1679237649121764,-3.219860515414996,15.0,358.0],["MLXIP_Q9HAP2",0.1639206437822013,-2.0007430039126617,10.0,193.0],["CHORDC1_Q9UHD1",0.17280312914085943,-3.36490721944341,15.0,358.0],["XRCC4_Q13426",0.17812598750791003,-3.5272564796258004,15.0,358.0],["OIP5_O43482",0.19664620025000246,-2.7669280819370736,8.0,215.0],["WDR77_Q9BQA1",0.14574519657925372,-2.605803608388884,15.0,358.0],["RPLP0_P05388",0.13928168174120295,-2.44070268255662,15.0,358.0],["CHTF8_P0CG13",0.2084014727383186,-3.089991098711853,10.0,220.0],["RASAL1_O95294-4",0.20252499981994151,-3.124246992370608,10.0,237.0],["PRMT7_Q9NVM4",0.14660691569332246,-2.3477867582478518,13.0,306.0],["SNAPC2_Q13487",0.1943730837931812,-2.9453477312250786,11.0,237.0],["PSMA8_Q8TAA3",0.17442937702616038,-3.3498634271886294,14.0,350.0]],"bottom":[["CYB5R3_P00387-3",-0.1841458449226277,-3.7160580116206723,15.0,358.0],["NDUFAF6_Q330K2",-0.14609811830482514,-2.194844491486938,8.0,284.0],["ACVR1B_P36896-4",-0.1968690262612734,-2.7721173542119915,11.0,212.0],["MT-ND4_P03905",-0.19812788207456242,-3.1150313190961474,12.0,245.0],["RAB24_Q969Q5",-0.17096543256833316,-3.3098553932915307,15.0,358.0],["MAP2_P11137-4",-0.16074028096106094,-2.349981197516113,10.0,256.0],["SLC25A21_Q9BQT8",-0.17111576644575552,-2.1352701082321888,8.0,197.0],["SLC9A6_Q92581-2",-0.1687253954846732,-2.7717502541736154,15.0,288.0],["DCDC1_M0R2J8",-0.16597356727918192,-1.986698113180137,10.0,186.0],["SLC2A6_Q9UGQ3",-0.2005861898049846,-2.926664033947685,11.0,220.0],["PIGQ_Q9BRB3-2",-0.1718189717541686,-2.1477389563167812,10.0,195.0],["BRI3_O95415",-0.1588058668513332,-2.142920064909674,8.0,231.0],["ST3GAL1_Q11201",-0.18968116680388505,-3.146362149067367,10.0,274.0],["LMF2_Q9BU23",-0.1586721526683279,-2.954722502399865,15.0,358.0],["ZNF777_Q9ULD5-2",-0.17775179015949993,-2.1661044129874125,10.0,184.0],["SCAP_Q12770",-0.16337584824852588,-2.8601224729157497,13.0,324.0],["ITGA11_Q9UKX5-2",-0.16163681916638686,-1.7387775807115933,8.0,161.0],["MFSD8_Q8NHS3",-0.24071316624018468,-2.9008463214404494,8.0,151.0],["KCTD12_Q96CX2",-0.20183647099201973,-4.218522674957182,15.0,349.0],["BMP1_P13497",-0.16691388206590968,-1.8829343948231667,8.0,171.0],["CPQ_Q9Y646",-0.1900771083973337,-3.613660044911583,13.0,325.0],["MAP3K11_Q16584",-0.15598960065666118,-2.043016756516956,10.0,221.0],["CLCN6_P51797",-0.17805592764302441,-2.456995355210313,8.0,223.0],["FAM120C_Q9NX05",-0.19680589450764513,-3.9790723794416705,15.0,341.0],["CD99_P14209",-0.20188875765852832,-4.304745424880262,15.0,358.0],["ITGA2B_P08514",-0.15525963624177955,-2.4554096530183687,12.0,291.0]]}}}
{"depmap_copy_number":{"corr":{"top":[["MS4A10_341116",0.06606500281907253,-2.21486496594526,47.0,1675.0],["MS4A18_728588",0.06506460486951497,-2.1601770966810525,47.0,1675.0],["LINC01247_101929390",0.07805056779317043,-2.9247441580797906,47.0,1675.0],["MS4A15_219995",0.064972055954836,-2.1551530338341114,47.0,1675.0],["PRPF19_27339",0.06301550515146903,-2.0503339444829214,47.0,1675.0],["IZUMO3_100129669",0.07306043116663442,-2.616864071774331,47.0,1675.0],["MIR7515_102466235",0.07813660065401096,-2.9302075047756833,47.0,1675.0],["LINC01246_102800315",0.07813660065401096,-2.9302075047756833,47.0,1675.0],["ELAVL2_1993",0.07703507660071547,-2.860656124091068,47.0,1675.0],["LINC01239_441389",0.07810306763656451,-2.9280774289058864,47.0,1675.0],["ZP1_22917",0.06310617865253847,-2.055132921685008,47.0,1675.0],["RNF144A-AS1_386597",0.07757521654786091,-2.8946530679238642,47.0,1675.0],["TMEM109_79073",0.0635243329322467,-2.0773378737907446,47.0,1675.0],["RNF144A_9781",0.07757521654786091,-2.8946530679238642,47.0,1675.0],["CD5_921",0.06304921009218295,-2.0521171436143586,47.0,1675.0],["PTGDR2_11251",0.06361321580244128,-2.0820733878415965,47.0,1675.0],["SRSF7_6432",0.06898498248793425,-2.37848658548562,47.0,1675.0],["NRIR_104326052",0.07813660065401096,-2.9302075047756833,47.0,1675.0],["DMRTA1_63951",0.07993244119556546,-3.0454554202007995,47.0,1675.0],["MIR7515HG_102800314",0.07813660065401096,-2.9302075047756833,47.0,1675.0],["LINC00487_400941",0.07813660065401096,-2.9302075047756833,47.0,1675.0],["CD6_923",0.0638951739903625,-2.09713187948138,47.0,1675.0],["RSAD2_91543",0.07747039355619428,-2.8880391499359046,47.0,1675.0],["MS4A8_83661",0.06546265142908422,-2.181853227109199,47.0,1675.0],["LOC101929563_101929563",0.07700029123062697,-2.858473820630846,47.0,1675.0],["CCDC86_79080",0.06444516761890137,-2.126664177844559,47.0,1675.0],["CMPK2_129607",0.07813660065401096,-2.9302075047756833,47.0,1675.0],["LINC00301_283197",0.06673667076094839,-2.251974042503736,47.0,1675.0],["SLC15A3_51296",0.0638951739903625,-2.09713187948138,47.0,1675.0]],"bottom":[["PM20D2_135293",-0.06434121918193088,-2.1210664844113154,47.0,1675.0],["BCKDHB_594",-0.06465820370473623,-2.1381597883889607,47.0,1675.0],["GABRR2_2570",-0.06423120254500682,-2.1151501944192637,47.0,1675.0],["LINC02535_101928820",-0.0648844056102517,-2.1504003882854823,47.0,1675.0],["GJA10_84694",-0.06404376248893065,-2.1050897273097915,47.0,1675.0],["CNR1_1268",-0.06401577211467038,-2.1035894947449303,47.0,1675.0],["SYNCRIP_10492",-0.06564065770302863,-2.1915824971153115,47.0,1675.0],["SNHG5_387066",-0.06510460476168092,-2.162350355489154,47.0,1675.0],["SNX14_57231",-0.06595317552343181,-2.208717173231494,47.0,1675.0],["PHIP_55023",-0.06401445756252624,-2.1035190505461583,47.0,1675.0],["GABRR1_2569",-0.06434121918193088,-2.1210664844113154,47.0,1675.0],["TBX18-AS1_102724201",-0.06777768337633701,-2.310111930795838,47.0,1675.0],["MRPL30_51263",-0.06923689467269666,-2.3928823582103953,47.0,1675.0],["CASP8AP2_9994",-0.06464973269413693,-2.137702082874239,47.0,1675.0],["TBX18_9096",-0.06405337032024834,-2.105604814841801,47.0,1675.0],["NT5E_4907",-0.0665754582270377,-2.2430384646913564,47.0,1675.0],["SNORD50A_26799",-0.06510460476168092,-2.162350355489154,47.0,1675.0],["SNORD50B_692088",-0.0648859951010885,-2.150486527307041,47.0,1675.0],["SRSF12_135295",-0.06429148122782395,-2.118390718476009,47.0,1675.0],["PNRC1_10957",-0.06488742214085019,-2.1505638641412017,47.0,1675.0]]},"para":{"top":[],"bottom":[]}}}
{"depmap_gene_tpm":{"corr":{"top":[["WDR74_54663",0.10862631205185873,-4.058070829875307,41.0,1258.0],["NIP7_51388",0.11285233917489479,-4.339900150334607,41.0,1258.0],["ABHD17C_58489",0.13064806336431892,-5.636987534488356,41.0,1258.0],["C11orf98_102288414",0.10902482751187695,-4.084222146804744,41.0,1258.0],["EPHX4_253152",0.11580234319089246,-4.542552832770338,41.0,1258.0],["FTSJ3_117246",0.10782930886712198,-4.00603506190709,41.0,1258.0],["LYPLA2_11313",0.11774127553245833,-4.678410838151016,41.0,1258.0]],"bottom":[["MUT_4594",-0.08570727463505587,-2.701186154485466,41.0,1258.0],["RAB24_53917",-0.08574677903319435,-2.7032790238554565,41.0,1258.0],["GOPC_57120",-0.07974823042688929,-2.395063493045837,41.0,1258.0],["RNF146_81847",-0.08560511079900128,-2.695777595336224,41.0,1258.0],["TBCK_93627",-0.08393676448775104,-2.608248426986851,41.0,1258.0],["ZNF546_339327",-0.0877426333371462,-2.810108902113724,41.0,1258.0],["SEC63_11231",-0.09094585766204226,-2.9860590845358628,41.0,1258.0],["ZNF175_7728",-0.10310386565813441,-3.7047535343453664,41.0,1258.0],["CLK1_1195",-0.08503160622130317,-2.6655203488759427,41.0,1258.0],["CLK4_57396",-0.10434754830656245,-3.7828485317746234,41.0,1258.0],["PPP1R3F_89801",-0.0885671793338987,-2.8548702989959485,41.0,1258.0],["RAPGEF4_11069",-0.08010553549630266,-2.412884182660245,41.0,1258.0]]},"para":{"top":[],"bottom":[["CLK4_57396",-0.10505176059837294,-4.113578977311589,41.0,1258.0]]}}}
{"avana":{"corr":{"top":[["TMEM125_128218",0.10999062258980495,-2.6411250740484413,30.0,737.0],["PALLD_23022",0.13109742446795175,-3.5652799288905697,30.0,737.0],["KCNA6_3742",0.1051479716726349,-2.449464737621845,30.0,737.0],["CELA2A_63036",0.10824477923300524,-2.5711626452285055,30.0,737.0],["SRSF10_10772",0.11131317951064836,-2.694777149059626,30.0,737.0],["S1PR5_53637",0.10852723835634126,-2.582415488246262,30.0,737.0],["KTI12_112970",0.12271302779038115,-3.141729193934776,30.0,726.0],["MSMP_692094",0.10807394969869581,-2.564369411106827,30.0,737.0],["ZNF491_126069",0.12615492400952308,-3.3357830582022503,30.0,737.0],["SLC6A14_11254",0.10492440029125213,-2.316255522346616,27.0,693.0],["FKBP4_2288",0.11899082237919821,-3.0174052864505816,30.0,737.0],["SLC10A3_8273",0.11154218668355334,-2.5646044061134115,27.0,693.0],["PRR32_100130613",0.11109674596886462,-2.547475074945818,27.0,693.0],["VSTM2A_222008",0.11888357868432028,-3.0127668794139897,30.0,737.0],["OR10A3_26496",0.14817906681149792,-4.421234357070345,30.0,737.0],["RPS29_6235",0.1169402639334434,-2.9293653338063415,30.0,737.0],["PIMREG_54478",0.1320592234616001,-3.5660627357354087,30.0,726.0],["SAMD4A_23034",0.10873709407586353,-2.5907924674048224,30.0,737.0],["ARMCX6_54470",0.1017756693253942,-2.2026881419735003,27.0,693.0],["NUBP1_4682",0.12634013423776874,-3.3442374476669396,30.0,737.0],["TMEM151B_441151",0.11805420918084021,-2.9770223152782798,30.0,737.0],["SAPCD2_89958",0.11592012866510243,-2.8860755811980434,30.0,737.0],["TMEM102_284114",0.1055590182064056,-2.465441537260992,30.0,737.0]],"bottom":[["F2RL2_2151",-0.11463898160171902,-2.83218806344412,30.0,737.0],["ZNF512B_57473",-0.11330069833323629,-2.776464990275944,30.0,737.0],["AMD1_262",-0.1410776472244011,-4.053471047487466,30.0,737.0],["TPR_7175",-0.11438291948460544,-2.7873164440491056,30.0,726.0],["FAM76B_143684",-0.10832084183164072,-2.574190373203597,30.0,737.0],["F3_2152",-0.12111466148241407,-3.110036934109356,30.0,737.0],["ATP4B_496",-0.1111493785504087,-2.688101690644056,30.0,737.0],["GLT8D1_55830",-0.1450291912471507,-4.256004803360106,30.0,737.0],["XPO4_64328",-0.12412979723008216,-3.244077913712607,30.0,737.0],["PINX1_54984",-0.11104010803456114,-2.683653343645869,30.0,737.0],["NFYA_4800",-0.10979081742395284,-2.6014207557598437,30.0,726.0],["SLPI_6590",-0.10895349601706619,-2.5994455583431457,30.0,737.0],["MRC1_4360",-0.10617767268186018,-2.489589468121792,30.0,737.0],["SLC38A4_55089",-0.12793654034451146,-3.4175785340225993,30.0,737.0],["TRPV1_7442",-0.10102107392212514,-2.292039494093499,30.0,737.0],["FIG4_9896",-0.14312892419627976,-4.157949894607678,30.0,737.0],["VAC14_55697",-0.11710447542701435,-2.936365292922189,30.0,737.0]]},"para":{"top":[["S1PR5_53637",0.14395736491424574,-4.4697423133382035,30.0,737.0]],"bottom":[]}}}
{"drive":{"corr":{"top":[["CYP2A13_1553",0.13567462948627929,-2.1191212103822727,16.0,370.0],["ARHGAP11A_9824",0.15780305920278848,-2.6440812169119545,15.0,357.0],["CLDN15_24146",0.14148664956682627,-2.2029419575896494,15.0,357.0],["PRODH_5625",0.17090747937550338,-3.1059241470530043,16.0,367.0],["ARHGAP24_83478",0.12485152311861153,-1.7964319418968198,15.0,357.0],["MAP3K2_10746",0.13481130094429022,-2.0346388631007075,15.0,357.0],["CA8_767",0.16803652160515328,-2.9427037753794933,15.0,357.0],["LOC642852_642852",0.14349371536459848,-2.254916932439627,15.0,357.0],["BCL6_604",0.15335190191626427,-2.536495636683169,16.0,359.0],["CTNND2_1501",0.13752584365116036,-2.1022361765977484,15.0,357.0],["TBC1D10B_26000",0.1384115129785408,-2.1245407482889345,15.0,357.0],["LRRC3B_116135",0.1377611175476031,-2.1081492780298587,15.0,357.0],["TWF2_11344",0.1275517159534131,-1.859497321614686,15.0,357.0],["MBD5_55777",0.16350539060752123,-2.827533437592305,16.0,359.0]],"bottom":[["CD28_940",-0.17879336002860144,-3.2752031181287915,15.0,357.0],["POLA2_23649",-0.15662801080925887,-2.610883727052169,15.0,357.0],["LOC101930665_101930665",-0.15449838579170952,-2.568515286257051,16.0,359.0],["ELF2_1998",-0.15655923199182673,-2.626609328070737,16.0,359.0],["MAGEA10-MAGEA5&MAGEA5_100533997&4104",-0.18655785564339564,-3.5764932440423647,15.0,363.0],["DUT_1854",-0.18383302664475912,-3.4376325492798268,15.0,357.0],["IKBKB_3551",-0.17946686135055848,-3.380468724773078,16.0,367.0],["MED1_5469",-0.16308052820952126,-2.8150162948412425,16.0,359.0]]},"para":{"top":[["CYP2A13_1553",0.15268060989571092,-2.862098797352174,16.0,370.0],["TNK1_8711",0.13737011525822093,-2.3884837096114113,15.0,357.0],["CLDN15_24146",0.1435419417619885,-2.543863637297921,15.0,357.0],["SDR16C5_195814",0.1514952763376886,-2.752437143759495,15.0,357.0],["MYO3B_140469",0.1671474942086301,-3.1905423155902075,15.0,357.0],["CA8_767",0.17732774454373315,-3.495292361757451,15.0,357.0],["OPN3_23596",0.1563309908400316,-2.8838660083533827,15.0,357.0],["LOC642852_642852",0.14875935237370258,-2.6796254011330087,15.0,357.0],["BCL6_604",0.17551583295886214,-3.461568904723291,16.0,359.0],["CTNND2_1501",0.15365863934604598,-2.8108024144027324,15.0,357.0],["TWF2_11344",0.13864268222489937,-2.420059964353592,15.0,357.0],["MBD5_55777",0.17880681586004638,-3.5633050689766685,16.0,359.0]],"bottom":[["CD28_940",-0.15696713969082143,-2.9014162543274953,15.0,357.0],["POLA2_23649",-0.1525133753381062,-2.77981727208974,15.0,357.0],["ELF2_1998",-0.1856323705530187,-3.7795934109795946,16.0,359.0],["STAG3L2_442582",-0.15734892757237226,-2.911978240317163,15.0,357.0],["AURKB_9212",-0.1492981921932434,-2.7685004841408043,16.0,370.0],["DUT_1854",-0.17013798159681853,-3.278438791664151,15.0,357.0]]}}}
{"achilles":{"corr":{"top":[["PNPLA1_285848",0.13213720499985093,-2.482966647376223,18.0,475.0],["CRLF3_51379",0.13233281996550023,-2.4891227074590367,18.0,475.0],["ZNF860_344787",0.15834135846899472,-2.2043861903518955,15.0,282.0],["HOXD12_3238",0.13360031878795878,-2.529205437334903,18.0,475.0],["MPL_4352",0.16082850748952016,-3.4727235309714066,18.0,475.0],["GTF2E1_2960",0.13737187937728673,-2.65047075451826,18.0,475.0],["KCTD20_222658",0.22008993685915326,-3.663872557077667,14.0,264.0],["CREBL2_1389",0.1479098640127059,-3.005256279775095,18.0,475.0],["PRAMEF13_400736",0.1736696618356938,-2.434631819961552,14.0,264.0],["LRTM1_57408",0.15737436435378632,-2.066743242447575,14.0,264.0]],"bottom":[["RBM6_10180",-0.18708758093043176,-2.7619203253133557,14.0,264.0],["DAZ3_57054",-0.14998100460544972,-3.0777740144523063,18.0,475.0],["NOL7_51406",-0.18066897427328407,-2.6025774002709072,14.0,264.0],["FAM71B_153745",-0.17897069760195472,-2.561273218771564,14.0,264.0],["IMPDH2_3615",-0.16094993754768638,-3.4772895796516172,18.0,475.0],["MYBBP1A_10514",-0.17147876176389146,-3.8855270751712103,18.0,475.0],["FAM214B_80256",-0.1796028361675184,-2.5766059413519415,14.0,264.0],["ARL2-SNX15_100528018",-0.15832920081801935,-3.379459295073843,18.0,475.0],["U2SURP_23350",-0.1679070071983429,-3.7442962984139703,18.0,475.0],["C1orf198_84886",-0.16172128680613534,-2.1617522934755127,14.0,264.0],["ITGA6_3655",-0.13716098728045426,-2.6436109912978365,18.0,475.0],["LOC105369252_105369252",-0.1751952632205624,-4.035491747104779,18.0,475.0],["VCPKMT_79609",-0.2012502807682027,-3.131835535469252,14.0,264.0]]},"para":{"top":[["PNPLA1_285848",0.14157108766637913,-3.072322517605662,18.0,475.0],["THAP7_80764",0.16622776683022816,-2.5455783577159528,14.0,264.0],["ZNF860_344787",0.1643611682401036,-2.628019420432758,15.0,282.0],["HOXD12_3238",0.14768839016562924,-3.2771792045052033,18.0,475.0],["GTF2E1_2960",0.13803749596967946,-2.9573929045289478,18.0,475.0],["NOMO2&NOMO3_283820&408050",0.1587465368237465,-2.382909437770993,14.0,264.0],["PRAMEF13_400736",0.166740252728946,-2.5569483625097407,14.0,264.0]],"bottom":[["RBM6_10180",-0.1916436832225747,-3.144724550860463,14.0,264.0],["FAM71B_153745",-0.18211266440031784,-2.911581854382401,14.0,264.0],["FAM214B_80256",-0.18774934582258923,-3.048231610285023,14.0,264.0],["U2SURP_23350",-0.1576054050185374,-3.625218204892056,18.0,475.0],["PCDHGA6_56109",-0.1297924817595445,-2.698876379447309,18.0,475.0],["LOC105369252_105369252",-0.18408807765475205,-4.652011116808231,18.0,475.0],["VCPKMT_79609",-0.19605054523048493,-3.2559743225227855,14.0,264.0]]}}}
{"ccle_rrbs_tss1kb":{"corr":{"top":[["C12orf75_12_105723413_105724413",0.15839771207292494,-5.292138531581475,27.0,794.0],["PRELID1_5_176729762_176730762",0.19380059597066304,-7.765802906848656,28.0,805.0],["TMEM184B_22_38668670_38669670",0.15926426604999214,-5.391121973742934,28.0,801.0],["PSRC1_1_109825790_109826790",0.17505236240698885,-6.067865173424493,27.0,754.0],["HIST1H3F_6_26250835_26251835",0.1894679761142707,-7.355418380256185,28.0,794.0],["AMD1_6_111134823_111135823",0.17649842994909337,-6.494793978677973,28.0,800.0],["BAP1_3_52444121_52445121",0.1988147152752194,-8.091730729407368,27.0,800.0],["KLHL24_3_183352410_183353410",0.16696232997346497,-5.54107785284614,27.0,750.0],["GSTM1_1_110229417_110230417",0.20777525588392803,-4.742514127143842,15.0,404.0],["LINC01058_13_30996381_30997381",0.17573826349765492,-3.6308644301807136,15.0,419.0],["ADIPOR2_12_1799246_1800246",0.18428083164060274,-7.009642694940619,28.0,797.0]],"bottom":[["DHRS11_17_34947225_34948225",-0.07747050365013108,-1.4437824583681322,26.0,707.0]]},"para":{"top":[["ANKRD20A11P_21_15352765_15353765",0.11937337202354226,-2.2382032701824484,10.0,439.0],["LINC01508_9_93195771_93196771",0.1468755761026114,-2.8820554719072597,9.0,412.0]],"bottom":[]}}}
{"ccle_gene_tpm":{"corr":{"top":[["RNU1-38P_ENSG00000199687.1",0.18443866598167838,-8.52219703458693,33.0,986.0],["RPS27P18_ENSG00000233135.1",0.1760821060349365,-7.815448452199005,33.0,986.0],["RP11-561B11.1_ENSG00000240023.1",0.18732208864975375,-8.773794377770013,33.0,986.0],["RP11-150D5.2_ENSG00000260983.1",0.18141229391143576,-8.262404954859583,33.0,986.0],["RP11-359E19.2_ENSG00000253665.1",0.1740044172855989,-7.64487251508735,33.0,986.0],["RP11-94B19.4_ENSG00000266614.1",0.17997870338336783,-8.14086605791772,33.0,986.0]],"bottom":[["SIRT2_ENSG00000068903.15",-0.09737805284985934,-2.730991265207653,33.0,986.0],["CTD-2240E14.4_ENSG00000267387.1",-0.10295401597457254,-3.0010250457339818,33.0,986.0],["ZNF546_ENSG00000187187.9",-0.09230399594371895,-2.496742274925745,33.0,986.0],["RP11-545I5.3_ENSG00000235652.3",-0.09558262749411515,-2.6468582181760283,33.0,986.0],["MUT_ENSG00000146085.7",-0.1071420450595613,-3.212597357789854,33.0,986.0],["RN7SKP70_ENSG00000252464.1",-0.12426125850629086,-4.1565630578882065,33.0,986.0],["AC005154.6_ENSG00000196295.7",-0.10705526216845118,-3.2081366627754244,33.0,986.0],["RAPGEF4_ENSG00000091428.13",-0.09610510783698556,-2.6712004723556237,33.0,986.0],["C6orf48_ENSG00000204387.8",-0.10457112225616955,-3.0818253286218953,33.0,986.0],["RAP2C-AS1_ENSG00000232160.2",-0.09216027651925268,-2.490265678188259,33.0,986.0],["APOM_ENSG00000204444.6",-0.09691401010749845,-2.709115333633637,33.0,986.0],["ZNF175_ENSG00000105497.3",-0.12464239810784482,-4.179041350963468,33.0,986.0],["CLK4_ENSG00000113240.8",-0.12210239921143874,-4.0304512728633535,33.0,986.0],["SEC63_ENSG00000025796.9",-0.10992002224995431,-3.357105082248658,33.0,986.0],["RAB24_ENSG00000169228.9",-0.11039279479955824,-3.3820305691378856,33.0,986.0]]},"para":{"top":[],"bottom":[["CLK4_ENSG00000113240.8",-0.12039852058880836,-4.213034967229684,33.0,986.0]]}}}
{"ccle_rrbs_tss_clusters":{"corr":{"top":[["HIST1H3F_2",0.1821844120458339,-6.915949049795735,29.0,803.0],["FAM156A_3",0.2670642685827422,-5.097807044603351,9.0,263.0],["VSTM4_1",0.17868073967904555,-3.3547277996720286,9.0,374.0],["YIPF6_2",0.21295850948106385,-3.575420993114394,11.0,278.0],["NPR3_3",0.17056147997127755,-3.8625988727201515,17.0,478.0],["EVL_2",0.1697821208819306,-2.1113587850022735,9.0,236.0],["ZNF433_2",0.19733485157944167,-6.054419219015333,22.0,589.0],["STUM_3",0.20370234095400055,-3.2775466156330513,13.0,273.0],["GSTM1_1",0.20478353440801336,-4.688471098125264,15.0,411.0],["NRXN1_4",0.18896117410742194,-5.863793612413012,26.0,618.0],["UBL4A_2",0.1722562496215281,-2.908299802451318,10.0,339.0]],"bottom":[["CREB1_2",-0.11551263820879001,-2.5159751172096056,21.0,635.0],["MYH16_3",-0.14694752751491783,-3.6531550396883063,20.0,607.0],["RANBP3L_2",-0.14808332749209896,-2.9384350261744787,16.0,463.0],["TMEM63A_3",-0.11518068192155034,-2.4625090468308453,20.0,623.0]]},"para":{"top":[["LOC155060_3",0.1542574604967222,-2.42662395641962,9.0,293.0],["SERPING1_3",0.1392129501486994,-2.9350652422808317,9.0,471.0],["FOXP1_6",0.15522723790956663,-3.786469704251026,15.0,522.0],["FAM156A_3",0.26966329693677454,-5.339836107616337,9.0,263.0],["NAT10_3",0.1576875158787811,-4.0547087307863405,17.0,550.0],["VSTM4_1",0.1412470498823712,-2.5377848420819,9.0,374.0],["NPR3_3",0.17232541372108545,-4.192012918219444,17.0,478.0],["EVL_2",0.19183002554566608,-2.8612260740563746,9.0,236.0],["FILNC1_5",0.16589327478229218,-3.4121210403235884,10.0,402.0],["SMURF2P1-LRRC37BP1_1",0.16102444430616653,-2.575337995751865,10.0,291.0],["NPR3_4",0.1713386597058925,-4.867517488456237,21.0,580.0],["LOC102724064_3",0.17614794337518094,-3.9350525378731906,11.0,427.0],["FOXP1_7",0.14525831030057063,-3.3384534921200713,15.0,507.0],["CMC4_3",0.12672929042807257,-2.0816769682995937,8.0,351.0],["MCRIP1_1",0.15601627704816337,-2.330488547286292,9.0,270.0],["LINC01204_1",0.15704185463981327,-3.7654591677889395,18.0,503.0]],"bottom":[["UBXN6_3",-0.16380603549065542,-3.338998191534457,12.0,399.0],["GATAD1_3",-0.10967410687312365,-2.1920565296991605,11.0,505.0],["MYH16_3",-0.15086123531420897,-4.094995404691616,20.0,607.0],["TMEM63A_3",-0.140999932518792,-3.751675818030939,20.0,623.0]]}}}
{"ccle_rrbs_cgi_clusters":{"corr":{"top":[["6_26248436_26252827-2",0.1821844120458339,-6.915949049795735,29.0,803.0],["23_53022599_53026966-3",0.2670642685827422,-5.097807044603351,9.0,263.0],["9_110916_113878-3",0.20173259922088718,-3.810281415862904,12.0,335.0],["3_52444391_52447104-1",0.22247238062556282,-10.10832484407155,28.0,808.0],["23_67716427_67721071-2",0.21295850948106385,-3.575420993114394,11.0,278.0],["19_12144030_12148649-2",0.19733485157944167,-6.054419219015333,22.0,589.0],["1_110228238_110232614-1",0.20478353440801336,-4.688471098125264,15.0,411.0]],"bottom":[["19_56669076_56673619-3",-0.18284186672437389,-5.760410223423096,24.0,651.0],["2_208391955_208394489-2",-0.11551263820879001,-2.5159751172096056,21.0,635.0],["1_226070251_226072898-2",-0.11518068192155034,-2.4625090468308453,20.0,623.0]]},"para":{"top":[["11_34124828_34129573-3",0.1576875158787811,-4.0547087307863405,17.0,550.0],["12_125021589_125025809-1",0.18144114410688686,-7.049705457602115,29.0,800.0],["23_117627624_117630200-2",0.1807963354781626,-3.3034833290078627,9.0,324.0],["14_100435381_100438122-2",0.19183002554566608,-2.8612260740563746,9.0,236.0],["19_49620023_49622829-1",0.16238366083266237,-3.375404400631158,10.0,414.0],["12_114836312_114840889-3",0.1902343305016497,-2.808591359431079,9.0,234.0],["14_75723748_75728029-1",0.16343099307361786,-2.6569607612347457,9.0,296.0],["11_66110251_66114803-3",0.17614794337518094,-3.9350525378731906,11.0,427.0],["2_91755196_91759540-2",0.16425619902944566,-5.347963121897218,22.0,710.0],["7_148980079_148984675-2",0.1542574604967222,-2.42662395641962,9.0,293.0],["23_53022599_53026966-3",0.26966329693677454,-5.339836107616337,9.0,263.0],["23_150149106_150151782-1",0.2014511936057826,-2.9259169011064534,9.0,220.0],["8_684830_688163-3",0.19590949925321322,-5.4182557037451335,18.0,505.0],["7_339613_343824-2",0.15936262680962004,-2.7805826472941013,11.0,330.0],["10_122216818_122219377-1",0.15908345840373883,-4.287548478354425,20.0,577.0],["9_110916_113878-3",0.19343506188142692,-3.7926336501230398,12.0,335.0],["11_55638068_55640576-1",0.17061952773492167,-3.1691987686164595,12.0,342.0],["2_162284129_162286677-1",0.1766636913302232,-2.8194075137821653,9.0,274.0]],"bottom":[["8_145652517_145656810-2",-0.1989802882293101,-3.7921715884604463,13.0,315.0],["14_70191467_70195955-1",-0.11632028368240556,-2.068855125383279,10.0,412.0],["16_84690966_84693499-2",-0.13420950432449918,-2.4678116297594768,12.0,396.0],["8_54505107_54509358-3",-0.1274680264004904,-2.6321556018743597,14.0,480.0],["2_23849840_23854089-3",-0.11125272293598687,-1.9667267925016996,8.0,420.0],["7_92074699_92079395-3",-0.10967410687312365,-2.1920565296991605,11.0,505.0],["19_4455493_4460040-3",-0.16380603549065542,-3.338998191534457,12.0,399.0],["1_226070251_226072898-2",-0.140999932518792,-3.751675818030939,20.0,623.0]]}}}
