{"ccle_chromatin":{"corr":{"top":[],"bottom":[]},"para":{"top":[],"bottom":[]}}}
{"ccle_rppa":{"corr":{"top":[],"bottom":[]},"para":{"top":[],"bottom":[]}}}
{"ccle_metabolomics":{"corr":{"top":[],"bottom":[]},"para":{"top":[],"bottom":[]}}}
{"ccle_rrbs_enhancer_clusters":{"corr":{"top":[["8-49492150-49494942-2_enh",0.18236429508809998,-2.191402555073622,23.0,199.0],["15-97392320-97395001-2_enh",0.15963592305549404,-2.277846023812226,37.0,267.0],["10-77165102-77167639-1_enh",0.09119431992271496,-2.0711463282567353,81.0,751.0],["1-243893796-243898468-1_enh",0.11527425126628899,-2.079777799931933,52.0,471.0]],"bottom":[["1-163439941-163444842-0_enh",-0.11146470313849748,-1.793881543805739,52.0,414.0]]},"para":{"top":[],"bottom":[]}}}
{"ccle_mirna":{"corr":{"top":[["hsa-miR-432_miR00369.1",0.06155024339171901,-1.2412397272398268,88.0,866.0],["hsa-miR-516a-5p_miR00434.1",0.11605532794846016,-3.483982176844163,88.0,866.0],["hsa-miR-576-5p_miR00529.1",0.07516869213923069,-1.6939051670444105,88.0,866.0],["hsa-miR-548j_miR00493.1",0.06715180285184111,-1.4190272537972939,88.0,866.0]],"bottom":[]},"para":{"top":[],"bottom":[]}}}
{"prism_primary_logfold":{"corr":{"top":[["betazole_BRD-K20075662-300-04-0::2.5::HTS",0.1092431704662511,-2.00837568470151,52.0,506.0],["TG-100713_BRD-K46392623-001-02-5::2.5::HTS",0.11839735977691754,-2.298835888542394,53.0,507.0],["pyroxamide_BRD-K11663430-001-02-3::2.5::HTS",0.09778994852235616,-1.6781156840887772,51.0,506.0],["tafenoquine_BRD-A78965079-036-01-8::2.640168331::MTS004",0.10870030828139268,-1.9398961039653861,53.0,487.0]],"bottom":[["7-aminocephalosporanic-acid_BRD-K65377893-001-07-4::2.58::HTS",-0.15360911756680887,-3.396118042631383,47.0,480.0],["pirinixic-acid_BRD-K01902415-001-11-7::2.5::HTS",-0.13780315401032484,-2.92235260099033,52.0,498.0],["luliconazole_BRD-K71058253-001-01-9::2.5::HTS",-0.13242180840063933,-2.76465127252237,52.0,506.0],["trans-2-Undecenoic-acid_BRD-K42959922-001-01-5::2.5::HTS",-0.13426560846524938,-2.770178602520057,52.0,492.0],["dofetilide_BRD-K86887724-001-10-6::2.59::HTS",-0.1328693760307206,-2.6921025383116444,48.0,489.0],["chenodeoxycholic-acid_BRD-K18135438-001-16-7::2.5::HTS",-0.11570302188524428,-2.1967895182711654,52.0,503.0],["RU-28318_BRD-K37687387-237-01-7::2.5::HTS",-0.14875628913406966,-3.3430470018029164,51.0,501.0],["tiletamine_BRD-A30582499-003-05-1::2.5::HTS",-0.11941349892407388,-2.252271689842467,48.0,489.0],["lithium-acetoacetate_BRD-K73234506-235-02-1::2.5::HTS",-0.12102169875394128,-2.3593038982069996,51.0,502.0],["blebbistatin-(+\/-)_BRD-A75817871-001-06-7::2.5::HTS",-0.12981809525652832,-2.649239072836217,51.0,501.0],["m-3M3FBS_BRD-K09635314-001-03-4::2.5::HTS",-0.1299551940391211,-2.645883401963581,51.0,499.0],["levodropropizine_BRD-K83551379-001-01-8::2.5::HTS",-0.15595714186790977,-3.4067803787356747,46.0,467.0],["UNNAMED_BRD-K28042756-001-01-9::5::HTS",-0.12115259594222362,-2.306813390308574,48.0,489.0],["glutathione_BRD-K69346723-001-04-8::2.5::HTS",-0.12004612135504303,-2.2371014649370022,47.0,480.0]]},"para":{"top":[],"bottom":[]}}}
{"prism_secondary_logfold":{"corr":{"top":[["norfloxacin_BRD-K11196887-001-22-0::0.0389835::HTS002",0.13579845801600496,-2.50657675284505,47.0,425.0],["benzethonium_BRD-K72723676-003-17-8::0.00976562::HTS002",0.2279786121820977,-3.232678952115241,20.0,204.0],["LB42708_BRD-K18834913-001-01-1::0.0390625::HTS002",0.13108673717426875,-2.3464047541558983,48.0,420.0],["PF-05212384_BRD-K07955840-001-02-3::0.0024414::HTS002",0.11812443752338903,-1.9186890990502026,47.0,404.0],["indirubin_BRD-K17894950-001-14-3::10::MTS010::PROS002_PR500",0.13590637777429262,-2.3585266612442175,45.0,393.0],["phlorizin_BRD-K24601397-001-01-1::0.625::HTS002",0.14220289267655564,-2.6992082436719094,46.0,424.0],["uric-acid_BRD-K01295354-001-02-8::2.5::HTS002",0.13167629490369864,-2.3597964304121217,48.0,419.0],["ecamsule-triethanolamine_BRD-A47953250-001-01-7::0.625::HTS002",0.1284519233269432,-2.067650685067234,42.0,376.0],["U-0126_BRD-K91701654-001-03-1::2.66738::HTS002",0.12235994107518222,-2.0905065814686026,47.0,420.0],["GW-3965_BRD-K33818169-003-04-6::0.0390625::HTS002",0.1415719082963361,-2.678989043132127,46.0,424.0],["lovastatin_BRD-K09416995-001-39-9::0.625::HTS002",0.14173712882156445,-1.4686314636310576,20.0,204.0],["buparlisib_BRD-K42191735-001-05-3::0.625::HTS002",0.11931901438650556,-1.9151708230191435,44.0,397.0],["triciribine_BRD-K80431395-001-07-3::0.00971627::HTS002",0.12067442166484896,-2.054296778895706,46.0,424.0],["demecarium_BRD-K51471001-303-04-7::0.15625::HTS002",0.12344146254802635,-2.1097367486994916,46.0,418.0],["rifampin_BRD-K01507359-001-22-9::0.0390625::HTS002",0.13106661616196172,-2.3624130628926485,47.0,425.0],["SDZ-WAG-994_BRD-K39558284-001-01-2::0.625::HTS002",0.11672542004283713,-1.945916240181416,46.0,424.0],["orotic-acid_BRD-K32572029-001-04-4::0.0390625::HTS002",0.11953508642711272,-1.9419333968628352,45.0,402.0],["CMPD-1_BRD-K54095730-001-03-1::0.00976562::HTS002",0.1255571260780245,-2.2116804882267314,46.0,429.0],["imidapril_BRD-K34332569-001-01-3::2.5::MTS006",0.12588468864497535,-2.198100450426078,48.0,421.0],["prednisolone-acetate_BRD-A01643550-001-04-9::0.00061034::HTS002",0.126969337536791,-2.0287599358375172,42.0,376.0],["YO-01027_BRD-K04622161-001-02-3::0.15625::HTS002",0.1326844106906503,-2.377207129240289,48.0,416.0],["lidocaine_BRD-K52662033-003-21-2::2.5::HTS002",0.12259917910621596,-2.1192324357449674,48.0,425.0],["alisertib_BRD-K75295174-001-05-0::2.5::HTS002",0.12162256828661258,-2.109685220672996,48.0,430.0],["SRT1720_BRD-K95926480-003-03-6::0.00976562::HTS002",0.1241557714321135,-2.129814645403021,45.0,419.0],["adapalene_BRD-K33127281-001-05-6::2.5::MTS006",0.12976035791098361,-2.3071020362099888,48.0,420.0],["digitoxin_BRD-A93236127-001-04-5::0.0390625::HTS002",0.15763962823362837,-2.260994468938834,33.0,276.0],["alogliptin_BRD-K83003151-057-02-4::2.34747::HTS002",0.17366579870436602,-3.2930038589655646,39.0,358.0],["DU-728_BRD-K08859203-001-01-9::0.15625::HTS002",0.14580728456429476,-2.6893567263030915,45.0,400.0],["CHIR-98014_BRD-K42973005-001-04-0::0.00976562::HTS002",0.13132941471514226,-2.3119097543425107,44.0,414.0],["idazoxan_BRD-A18696154-003-22-6::0.15625::HTS002",0.15110702722901623,-2.976890636703577,48.0,419.0]],"bottom":[["talmapimod_BRD-K17555800-003-02-3::0.00061::MTS010::PROS002_PR500",-0.14259082790290656,-2.5558166095269566,45.0,393.0],["lomefloxacin_BRD-A75850590-213-01-0::10::HTS002",-0.15798115363946127,-2.643141904696939,41.0,330.0],["fenretinide_BRD-K89085489-001-23-2::0.156249998::MTS006",-0.14016810540753405,-2.6248830492585893,48.0,420.0],["TH-302_BRD-K20958582-001-01-4::0.625::HTS002",-0.13797419909723843,-2.25274188369564,42.0,360.0],["norepinephrine_BRD-K87349682-347-03-8::0.147636::HTS002",-0.16590129179866211,-3.530522200893841,47.0,425.0],["vanoxerine_BRD-K32501161-300-06-2::2.5::HTS002",-0.13320890023479334,-2.452776068434606,48.0,430.0],["hydrocortisone_BRD-K93568044-001-32-0::0.15625::HTS002",-0.14160756275114872,-2.0392512368872167,36.0,302.0],["fexinidazole_BRD-K37069697-001-01-3::0.00244141::HTS002",-0.17198928666776137,-3.0133997532301744,40.0,325.0],["pitavastatin_BRD-K75958547-238-01-0::10::HTS002",-0.13879479863949903,-1.8351409138268555,33.0,276.0],["RITA_BRD-K00317371-001-06-1::0.002348::HTS002",-0.16253119319079712,-3.356765077658914,46.0,418.0],["dirithromycin_BRD-K52756523-001-24-7::0.0024414::HTS002",-0.14717770770813846,-2.8562896085812084,47.0,422.0],["itraconazole_BRD-A23067620-300-01-3::0.15625::HTS002",-0.1364373809069966,-2.2611601066656424,41.0,372.0],["S-methylcysteine_BRD-K63123526-001-01-2::0.00976562::HTS002",-0.13173903229589487,-2.3993803044532824,48.0,428.0],["torasemide_BRD-K30480208-001-18-5::0.625::HTS002",-0.13813258500038547,-2.4601035443075623,42.0,404.0],["nitisinone_BRD-K01109406-001-03-7::0.00976562::HTS002",-0.13797316440634239,-2.5469280412991333,47.0,419.0],["eprinomectin_BRD-A91366704-001-01-9::0.0024414::HTS002",-0.155067563308258,-2.5555719920888422,41.0,329.0],["hydrocortisone_BRD-K93568044-001-32-0::0.625::HTS002",-0.14291304947637956,-1.9242397313821618,33.0,276.0],["gastrodin_BRD-K81613478-001-01-8::10::HTS002",-0.15295854186597133,-3.0396675049957995,48.0,419.0],["proscillaridin-a_BRD-A11815689-001-01-1::0.625::HTS002",-0.15047436717105575,-2.2540288312217567,36.0,302.0]]},"para":{"top":[],"bottom":[]}}}
{"ccle_proteomics":{"corr":{"top":[["MDM4_O15151",0.33800018013360256,-1.8757807305809835,9.0,44.0],["PRSS57_Q6UWY2",0.20544810788946094,-0.8538912440199166,8.0,45.0],["NUP43_Q8NFH3",0.2153370760359023,-4.5625047885663,39.0,334.0],["PTPN22_Q9Y2R2",0.21848914205105743,-1.0423387325047917,10.0,51.0],["TRIM58_Q8NG06",0.2078798281728278,-1.2728809598143005,11.0,76.0],["SESN1_Q9Y6P5-2",0.36445723036194977,-2.102348746172418,8.0,44.0],["FBXW5_Q969U6",0.21807587984592308,-1.3846919445505979,12.0,76.0],["ZNF600_Q6ZNG1",0.2997293487790843,-1.9545225465636544,10.0,61.0],["SEZ6L_Q9BYH1",0.273161939166977,-1.6935169405633872,9.0,63.0],["ARSK_Q6UWY0",0.23876156607114085,-2.501246713740347,18.0,133.0],["PPIL4_Q8WUA2",0.2101004219338856,-4.364834014341125,39.0,334.0],["PRR14L_Q5THK1",0.21008259357697967,-4.084689569438371,38.0,308.0],["C1QTNF6_Q9BXI9-2",0.32357279674546857,-2.2547953336635738,8.0,64.0],["JSRP1_Q96MG2",0.296826406518297,-3.0887980710179384,12.0,112.0],["SPA17_Q15506",0.21353382037879384,-1.2304732979973403,8.0,71.0],["KIAA1551_Q9HCM1",0.20562731644686627,-3.311728885122016,30.0,254.0],["WBP4_O75554",0.199789282385882,-3.989743480573505,39.0,334.0],["SF3B2_E9PJ04",0.23601440958413145,-2.2048290385575524,13.0,120.0],["ZNF845_Q96IR2",0.21108852624898894,-3.846982407726432,36.0,284.0],["ZNF33A_Q06730-2",0.25261063163594843,-2.6314997991186684,16.0,127.0],["SLFN13_Q68D06",0.2654817993523049,-2.8515665844969993,11.0,131.0],["SELL_P14151-2",0.2686460156763958,-1.4780640107817222,9.0,54.0],["ATP8B2_P98198",0.22303706903784723,-0.8368573224302206,8.0,36.0],["HNRNPH3_P31942-2",0.24806683692664727,-1.8762461464858422,11.0,88.0],["ZNF561_Q8N587",0.2673546207683742,-1.9282383090285413,10.0,78.0],["LYRM9_A8MSI8",0.29822838017925696,-3.3104452812110554,10.0,123.0],["ABTB2_Q8N961",0.19768196162548937,-1.6466737314207534,10.0,123.0],["ZNF776_Q68DI1",0.20523584305973402,-1.6425929919091327,13.0,110.0],["MED11_Q9P086",0.20133573787443776,-3.3560836720457083,34.0,267.0],["GNG7_O60262",0.22686772351155698,-3.0692658333423335,27.0,186.0],["MESDC1_Q9H1K6",0.35134607768086984,-3.4098579781295917,11.0,87.0],["ZNF433_Q8N7K0",0.2845000433737538,-1.7907571292073883,11.0,60.0],["POU4F1_Q01851",0.20044839002718445,-0.938494189988293,11.0,52.0],["CYP11A1_P05108",0.19855110450576402,-0.9141472262243125,9.0,53.0],["LRRC4B_Q9NT99",0.2276204612023114,-1.1379182330049822,8.0,55.0],["C17orf53_Q8N3J3",0.2603831432339457,-2.1703647061390283,17.0,90.0],["TET2_Q6N021",0.22536446766805732,-2.267668040233264,16.0,135.0],["THAP1_Q9NVV9",0.31113807904943164,-3.313193428851642,17.0,105.0],["ZFP37_G3V3L7",0.20273251924567834,-1.0459332952391789,8.0,63.0]],"bottom":[["TCP11L2_Q8N4U5",-0.1976687577084506,-1.465801054967445,12.0,103.0],["AR_P10275",-0.2138231871239503,-1.14686724408496,10.0,62.0],["DENND5A_Q6IQ26",-0.24747801095231434,-1.822205176527596,10.0,86.0],["LFNG_Q8NES3",-0.2520355239981911,-1.3005549526762503,8.0,53.0],["SHF_H0YLW6",-0.228358903639097,-1.6114384225336125,14.0,83.0],["SLITRK5_O94991",-0.2038898192913878,-2.105686292438262,13.0,156.0],["PRR15L_Q9BU68",-0.20295656452202315,-1.443362242440413,8.0,99.0],["ORMDL3_Q8N138",-0.23432800202393989,-1.9312824400641224,15.0,100.0],["CCDC64B_A1A5D9",-0.2063234856780628,-2.6163430080664165,22.0,192.0],["NRBP2_Q9NSY0",-0.1975952783349513,-2.4027492810017743,21.0,190.0],["HLA-DQB2_P05538",-0.27823341433218945,-1.3598699270495882,9.0,44.0],["ETV5_P41161",-0.27706476651826967,-3.2417337134545288,18.0,133.0],["NLGN1_Q8N2Q7",-0.3418531874237301,-2.9527831288304998,12.0,76.0],["KLHDC3_Q9BQ90",-0.1847667595119283,-1.5572645289521045,10.0,132.0],["CROT_Q9UKG9",-0.22846665263712357,-4.872460761205251,36.0,320.0],["ABI3BP_D3YTG3",-0.21476733791826977,-1.3395319243995498,14.0,73.0],["KIF16B_Q96L93",-0.20424811441652094,-1.6511752562203599,11.0,114.0],["ZNF513_Q8N8E2",-0.3235790711784055,-2.4668213398203576,10.0,70.0],["FADS2_O95864",-0.20383160028965064,-4.046834029254304,37.0,327.0],["CDH19_Q9H159",-0.22668675441175573,-0.9743429384759054,8.0,44.0],["TMEM163_Q8TC26",-0.24532618984285412,-1.1321070873504993,8.0,46.0],["MAPK11_Q15759",-0.25946444887555703,-1.5393240834337951,9.0,62.0]]},"para":{"top":[["MDM4_O15151",0.3613575753266617,-2.323843975950663,9.0,44.0],["PRSS57_Q6UWY2",0.28941438070815306,-1.7209491549133913,8.0,45.0],["PRPH_H7C5W5",0.29975060859058705,-1.8009898651084113,8.0,45.0],["SESN1_Q9Y6P5-2",0.2557043019123723,-1.4573725859570608,8.0,44.0],["ZNF600_Q6ZNG1",0.35561735086211976,-2.822927710352521,10.0,61.0],["SEZ6L_Q9BYH1",0.263705386475838,-1.8718808118453796,9.0,63.0],["ARSK_Q6UWY0",0.25882163875352343,-3.113501943291148,18.0,133.0],["C1QTNF6_Q9BXI9-2",0.2721917813074197,-1.9519842312392308,8.0,64.0],["JSRP1_Q96MG2",0.25757287569735643,-2.6636297196636014,12.0,112.0],["ZNF33A_Q06730-2",0.2106635604622409,-2.2156998415949882,16.0,127.0],["ZBTB18_Q99592-2",0.26481134739767853,-1.7037075942095055,9.0,53.0],["SPA17_Q15506",0.25760375898147675,-1.9319609420328145,8.0,71.0],["SF3B2_E9PJ04",0.2591680788618246,-2.832517850330946,13.0,120.0],["FAM53C_Q9NYF3",0.21130316702429733,-2.115179926499757,16.0,117.0],["C2orf42_Q9NWW7",0.2688497237966195,-2.0645174080779976,8.0,72.0],["SLFN13_Q68D06",0.2657403370805762,-3.090614483507787,11.0,131.0],["ATP8B2_P98198",0.24130845634984038,-1.2325489122928588,8.0,36.0],["HNRNPH3_P31942-2",0.30704537043266455,-2.918449676610045,11.0,88.0],["ZNF561_Q8N587",0.24385675770938003,-1.9330966510270318,10.0,78.0],["ABTB2_Q8N961",0.21686132542788164,-2.1913710500177688,10.0,123.0],["ZNF776_Q68DI1",0.21300930712147373,-2.0259137401572684,13.0,110.0],["MESDC1_Q9H1K6",0.36623564242059786,-3.8006043340013065,11.0,87.0],["ZNF433_Q8N7K0",0.30389741833479095,-2.2496378381214637,11.0,60.0],["CYP11A1_P05108",0.28527985734146044,-1.8770151203637087,9.0,53.0],["LRRC4B_Q9NT99",0.24644313829868458,-1.5719839018443351,8.0,55.0],["EPN1_Q9Y6I3",0.18633897151317672,-1.928082557794565,13.0,136.0],["THAP1_Q9NVV9",0.334028388413803,-3.917274154673899,17.0,105.0],["ZFP37_G3V3L7",0.2097447219196745,-1.3933335665375444,8.0,63.0],["ZIC5_Q96T25",0.18760985993621346,-1.6504261558501176,11.0,105.0]],"bottom":[["TOP1MT_Q969P6",-0.23065018098300588,-2.1818948338762034,11.0,106.0],["AR_P10275",-0.28020260987323764,-2.03085770146017,10.0,62.0],["DENND5A_Q6IQ26",-0.23626258770091751,-1.9659766730963717,10.0,86.0],["LFNG_Q8NES3",-0.26479708475991487,-1.684997288529382,8.0,53.0],["PRR15L_Q9BU68",-0.1691143873398606,-1.3835119518756205,8.0,99.0],["SLC16A6_O15403",-0.1857559749179084,-1.4665845052373483,8.0,90.0],["SCGN_O76038",-0.2890782177753027,-2.097616741522383,8.0,63.0],["CD200_P41217-3",-0.2350478834589721,-1.700352844623046,10.0,68.0],["NLGN4X_Q8N0W4-2",-0.20686998748600272,-1.2539638025149338,8.0,53.0],["HLA-DQB2_P05538",-0.25295030272866315,-1.4562152168178875,9.0,44.0],["RASA4_O43374",-0.24385597699157996,-2.4603990950546253,12.0,112.0],["USP35_Q9P2H5",-0.2545802978587984,-1.6207860049437484,9.0,53.0],["NLGN1_Q8N2Q7",-0.2672344448668327,-2.1904394777631193,12.0,76.0],["ZNF513_Q8N8E2",-0.2258731634245087,-1.6433569044822878,10.0,70.0],["CDH19_Q9H159",-0.301866691011723,-1.7944329587112868,8.0,44.0],["TMEM163_Q8TC26",-0.24917931295861995,-1.4463316665977863,8.0,46.0],["PCSK1_P29120",-0.21888146528748628,-2.220552325510774,14.0,119.0],["MAPK11_Q15759",-0.2809293819289735,-2.017912214777293,9.0,62.0]]}}}
{"depmap_copy_number":{"corr":{"top":[["TMEM229B_161145",0.0792442120882149,-3.001016030763027,135.0,1587.0],["FAM71D_161142",0.07892483638264965,-2.980508760866402,135.0,1587.0],["RHOJ_57381",0.07307880224809803,-2.6179651384824663,135.0,1587.0],["PLEK2_26499",0.07882094251050013,-2.9738533928912414,135.0,1587.0],["MPP5_64398",0.07736022878399682,-2.8810966250389183,135.0,1587.0],["MIR5694_100847064",0.07951487731000031,-3.0184526460000227,135.0,1587.0],["EIF2S1_1965",0.07961236550451295,-3.024745795950784,135.0,1587.0]],"bottom":[["LOC100507387_100507387",-0.07186330623659615,-2.5456287104464934,135.0,1587.0],["GABRP_2568",-0.07638462540621123,-2.819991778037613,135.0,1587.0],["SQSTM1_8878",-0.08344513772024709,-3.2775598558845545,135.0,1587.0],["FOXI1_2299",-0.07505461365992017,-2.737779620819184,135.0,1587.0],["C5orf58_133874",-0.07505461365992017,-2.737779620819184,135.0,1587.0],["INSYN2B_100131897",-0.07578122589025847,-2.7825380338507038,135.0,1587.0],["MIR378E_100616498",-0.07458325252828082,-2.708944738052748,135.0,1587.0],["LOC105377716_105377716",-0.07649342002214234,-2.8267723398045903,135.0,1587.0],["LCP2_3937",-0.07505461365992017,-2.737779620819184,135.0,1587.0],["DOCK2_1794",-0.07492952861368339,-2.7301123490099393,135.0,1587.0],["LINC01187_100507267",-0.07505461365992017,-2.737779620819184,135.0,1587.0]]},"para":{"top":[],"bottom":[]}}}
{"depmap_gene_tpm":{"corr":{"top":[["KIAA0753_9851",0.11207415982280211,-4.287255120387486,107.0,1192.0],["CCDC173_129881",0.11945620471058388,-4.800337800320912,107.0,1192.0],["HHLA3_11147",0.11119539444320502,-4.228212271410443,107.0,1192.0],["CFAP53_220136",0.1408301965627114,-6.460439008490653,107.0,1192.0],["IQCH_64799",0.11613202259721206,-4.565503780708875,107.0,1192.0],["ARMS2_387715",0.1262160154583454,-5.2971473858329015,107.0,1192.0],["ELMSAN1_91748",0.10851059607819202,-4.050493892383757,107.0,1192.0],["WWP2_11060",0.11492633251664568,-4.481865133297129,107.0,1192.0],["ZNF765_91661",0.1151402942339323,-4.496648069763773,107.0,1192.0],["GABPB2_126626",0.1301998000939516,-5.602105401829412,107.0,1192.0],["ZNF160_90338",0.10984267856260872,-4.138168011560822,107.0,1192.0]],"bottom":[["PLPPR5_163404",-0.07115024564684182,-1.9866154415649293,107.0,1192.0],["TMEM126A_84233",-0.09852074174470736,-3.4243249355444076,107.0,1192.0],["NOX4_50507",-0.08159984016055248,-2.488150090854251,107.0,1192.0],["UNC5D_137970",-0.06965321587434341,-1.9194717878502048,107.0,1192.0],["GABRA2_2555",-0.07083967337920828,-1.9725895965417986,107.0,1192.0]]},"para":{"top":[],"bottom":[]}}}
{"avana":{"corr":{"top":[["ACTR5_79913",0.11869773822199872,-2.968114282569925,57.0,699.0],["SYT8_90019",0.12060390900575549,-3.0876257985888924,58.0,709.0],["RNMT_8731",0.13410934802790536,-3.6629532656515122,57.0,699.0],["N4BP3_23138",0.10329840698734052,-2.378241243276612,58.0,709.0],["INTS13_55726",0.10364172732865505,-2.391379564500143,58.0,709.0],["IL17REL_400935",0.11006751314312291,-2.6442288772424307,58.0,709.0],["MTSS1L_92154",0.11244747792709182,-2.741241099999935,58.0,709.0],["CD28_940",0.10651558384387008,-2.502830792827925,58.0,709.0],["ADM2_79924",0.11277927985403334,-2.754911090914605,58.0,709.0],["GABRD_2563",0.10319626642025641,-2.374339724136994,58.0,709.0],["SPRYD7_57213",0.10444865136505418,-2.4224069958475596,58.0,709.0],["CPSF4L_642843",0.11347874706511166,-2.783845122534932,58.0,709.0],["COG8_84342",0.10256604013106141,-2.350339998012685,58.0,709.0],["TSC22D4_81628",0.10803805251695843,-2.5629431076842093,58.0,709.0],["CRYBG1_202",0.10982589075577236,-2.6028152171351366,57.0,699.0],["TRIO_7204",0.14719824560988262,-4.369423505525126,58.0,709.0],["ARID1A_8289",0.14361871382694172,-4.13048566718695,57.0,699.0],["RNF151_146310",0.11150869675149609,-2.702756474970785,58.0,709.0],["RPP40_10799",0.13278909835598515,-3.6456896297523733,58.0,709.0],["MDFIC_29969",0.127653740447945,-3.4045250047866253,58.0,709.0],["NPEPL1_79716",0.10552812631685235,-2.4642389387956665,58.0,709.0],["DOK6_220164",0.10248000807134938,-2.347073591676671,58.0,709.0],["SLC7A7_9056",0.12011925637894841,-3.0664387304843306,58.0,709.0],["ARID3C_138715",0.10243021756431753,-2.3173583535762914,57.0,699.0],["TMEM25_84866",0.10905211525059208,-2.603393952895883,58.0,709.0],["PAX9_5083",0.102962225369605,-2.365412440369546,58.0,709.0],["NALCN_259232",0.10960916237201639,-2.6257549629002326,58.0,709.0],["ERP27_121506",0.10234087286017497,-2.341795976844857,58.0,709.0],["UTP23_84294",0.12531468292517997,-3.2975700544132462,58.0,709.0],["PRSS3_5646",0.13787817516018352,-3.8933368705392914,58.0,709.0],["KCNIP1_30820",0.10286632544441626,-2.3617594544646883,58.0,709.0],["SERPINB10_5273",0.10424600896531726,-2.4145955924019207,58.0,709.0],["METRNL_284207",0.11172453983074067,-2.7115796357774045,58.0,709.0],["HLA-G_3135",0.10516322594650894,-2.4500566863848423,58.0,709.0],["WWP2_11060",0.10362609439710546,-2.390780502151041,58.0,709.0],["HP_3240",0.11023231049699776,-2.650887575806788,58.0,709.0],["ABCA7_10347",0.1362470062467416,-3.8130179269222073,58.0,709.0],["FGR_2268",0.10856203616669009,-2.5838035631274976,58.0,709.0],["CRISP3_10321",0.117466189803296,-2.951815274887442,58.0,709.0],["CHST5_23563",0.12820945039363668,-3.4302006198959845,58.0,709.0],["PSMB11_122706",0.10329186877779775,-2.37799140030322,58.0,709.0],["BFSP2_8419",0.10595350355963587,-2.4808253536852267,58.0,709.0],["ALPL_249",0.11401445874078532,-2.8061122335318585,58.0,709.0],["ICA1L_130026",0.10906813919346192,-2.604035794544637,58.0,709.0],["MMP2_4313",0.11361334365895664,-2.7894309632849206,58.0,709.0]],"bottom":[["MAP3K12_7786",-0.12142089907491195,-3.085292850755963,57.0,699.0],["KLK10_5655",-0.13418521714599885,-3.7127678915170246,58.0,709.0],["ACP1_52",-0.11425925362401367,-2.8163181577117435,58.0,709.0],["CBX1_10951",-0.11294804753697618,-2.728510432261229,57.0,699.0],["AP4E1_23431",-0.12163704256528554,-3.133046583375121,58.0,709.0],["PAIP2B_400961",-0.1211403437216523,-3.111166089057812,58.0,709.0],["CCL16_6360",-0.12602748784338966,-3.3299724770765224,58.0,709.0],["FBXL5_26234",-0.13954787499750737,-3.976476658374584,58.0,709.0],["ZNF280D_54816",-0.12012303484590446,-3.066603613105289,58.0,709.0],["FBXW7_55294",-0.13712421957505033,-3.8561013080735824,58.0,709.0],["UPF1_5976",-0.13693943161138414,-3.79897378058348,57.0,699.0],["FBXO41_150726",-0.11634614304903947,-2.9041125308548352,58.0,709.0],["AMMECR1L_83607",-0.11392152453469756,-2.8022427234826566,58.0,709.0],["DNAJC22_79962",-0.1523095584852893,-4.643017780359253,58.0,709.0],["LRRC71_149499",-0.14405023233656117,-4.205337483821246,58.0,709.0],["VGLL3_389136",-0.13805130427242407,-3.9019140770209604,58.0,709.0],["GCNT4_51301",-0.12811227021282356,-3.42570321610019,58.0,709.0],["MRFAP1L1_114932",-0.14396489978994179,-4.200936342148631,58.0,709.0],["KLHL32_114792",-0.1259401779262813,-3.32599458180303,58.0,709.0],["CNOT6L_246175",-0.14386366770126321,-4.19571835205271,58.0,709.0],["THAP9_79725",-0.1224644363394897,-3.169674139791331,58.0,709.0],["PSMC3_5702",-0.11947150433477101,-3.001167175062688,57.0,699.0],["KCNC3_3748",-0.12665366532080674,-3.3585751413294016,58.0,709.0],["TACR1_6869",-0.1175327118958582,-2.9546612797806637,58.0,709.0],["TEX261_113419",-0.1243199625378222,-3.252631906067008,58.0,709.0],["ALDOC_230",-0.1436374141883594,-4.1840686751758875,58.0,709.0],["WDR54_84058",-0.13472620476490985,-3.738934929701838,58.0,709.0],["ZNF740_283337",-0.11941265349534938,-3.0356863337688877,58.0,709.0],["FAM178B_51252",-0.1167587727185995,-2.9216389767006192,58.0,709.0],["LACTB_114294",-0.1524851180327381,-4.652573334497551,58.0,709.0],["JMY_133746",-0.11553962071203976,-2.8351999705182753,57.0,699.0],["SEBOX_645832",-0.13478101825986888,-3.741591651279734,58.0,709.0],["ST3GAL5_8869",-0.1212899105286541,-3.1177462865864025,58.0,709.0],["VAX2_25806",-0.13778897360071996,-3.8889215455749273,58.0,709.0],["TSSK6_83983",-0.11467867342505747,-2.833849592546186,58.0,709.0],["TBK1_29110",-0.11418454596494579,-2.8132014092306776,58.0,709.0],["SEMA4F_10505",-0.13244891776552642,-3.6294435424987057,58.0,709.0],["ACOX3_8310",-0.12356347919499595,-3.218674233102389,58.0,709.0],["SBSPON_157869",-0.11262527936437226,-2.748561965530701,58.0,709.0],["ZNF284_342909",-0.12115034686449366,-3.111605949365363,58.0,709.0],["USP39_10713",-0.11550966370102823,-2.868752690491806,58.0,709.0],["SF1_7536",-0.12351014664203858,-3.176813837072199,57.0,699.0],["MCEE_84693",-0.12091800653263857,-3.063473543865585,57.0,699.0],["METTL7B_196410",-0.12647217960057652,-3.3502718966731573,58.0,709.0],["MRPL1_65008",-0.13903939575436777,-3.951058746923307,58.0,709.0],["NLRP11_204801",-0.12311293079993571,-3.198538910218922,58.0,709.0],["TCEAL3_85012",-0.12092609186859651,-2.904811394050816,55.0,655.0]]},"para":{"top":[],"bottom":[]}}}
{"drive":{"corr":{"top":[["GNB5_10681",0.12986309374908883,-1.926872967393451,40.0,335.0],["GEMIN5_25929",0.17349683905804592,-3.1305247306851376,40.0,335.0],["SMPD2_6610",0.13124914553058076,-2.007065152820755,40.0,346.0],["OGT_8473",0.1886693912003252,-3.6897829943279556,40.0,343.0],["AKR1B10_57016",0.15330102224575695,-2.5520491182180156,38.0,340.0],["CTDP1_9150",0.15477629876183085,-2.5763091603893877,40.0,335.0],["CFAP44_55779",0.12395543886026678,-1.7872355620062146,40.0,335.0],["BRMS1_25855",0.14083354285620323,-2.20067054199681,40.0,335.0],["KTN1_3895",0.15378424147260164,-2.594041677021387,40.0,343.0],["EDN2_1907",0.13531851192626923,-2.060657829408709,40.0,335.0],["AFDN_4301",0.15443768050314027,-2.549598345415319,37.0,335.0],["CHKA_1119",0.13391105311187268,-2.0124751740189155,37.0,335.0],["VASN_114990",0.14869428112672126,-2.3925636544796256,37.0,335.0],["ABCE1_6059",0.19142256737232743,-3.6903526304192344,37.0,335.0],["PDHB_5162",0.14755054360209938,-2.3619223974472834,37.0,335.0],["SERPINA5_5104",0.14270702123046133,-2.2493316401102024,40.0,335.0],["POLR2A_5430",0.2232712492623406,-4.9876653096291514,40.0,343.0],["AVPR1A_552",0.13107264999446605,-1.9434209420746038,37.0,335.0],["ATP13A3_79572",0.13899707156014254,-2.1393549965709915,37.0,335.0],["MAPKBP1_23005",0.12802845566038343,-1.8829275732965578,40.0,335.0],["ASAP2_8853",0.1409370945183886,-2.1888216392099853,37.0,335.0],["ELL_8178",0.13391943027677616,-2.025902411616315,40.0,335.0],["IFNA13_3447",0.13786513645085624,-2.1107663361848066,37.0,335.0],["LOC105378669&DNAJC18&RIPOR2_105378669&202052&9750",0.2327152796809031,-4.645829431150337,35.0,290.0],["MAP1LC3A_84557",0.13498265682737362,-2.088011349430669,40.0,343.0],["MCRS1_10445",0.14819890921526796,-2.3952081086790487,40.0,335.0],["RAB25_57111",0.1469189011534519,-2.345089805661138,37.0,335.0],["TEX15_56154",0.15048521771839568,-2.4573658498931583,40.0,335.0],["UBE2E2_7325",0.1471179675368941,-2.4079995749972753,40.0,343.0],["PPRC1_23082",0.166066069563283,-2.8838715472654135,37.0,335.0]],"bottom":[["GPR135_64582",-0.13972537775560495,-2.157855870013884,37.0,335.0],["BNIP3_664",-0.15360244943859727,-2.54347484232458,40.0,335.0],["NFIC_4782",-0.1390393557417701,-2.1545920838272377,40.0,335.0],["TRA2A_29896",-0.13612718450600972,-2.0672629352354166,37.0,335.0],["DCLRE1C_64421",-0.13095197204670164,-1.9996540050538083,40.0,346.0],["MRM2_29960",-0.14897638740327374,-2.4162508173216932,40.0,335.0],["ARHGAP44_9912",-0.14315757894966963,-2.2461679332125026,37.0,335.0],["TCFL5_10732",-0.14075440997241262,-2.1841382738786312,37.0,335.0],["ABCA8_10351",-0.14948801000570217,-2.4139507886996707,37.0,335.0],["GLS2_27165",-0.1576504172524132,-2.6397561362553175,37.0,335.0],["MFN1_55669",-0.18482641014121948,-3.470154656038281,37.0,335.0],["CACNB4_785",-0.15999531134532008,-2.706615282995811,37.0,335.0],["CDKN1B_1027",-0.13420433615627014,-2.0329549582740523,40.0,335.0],["HBBP1_3044",-0.14479561947643882,-2.288971980223674,37.0,335.0],["ORM2_5005",-0.15919555771646432,-2.7201496852539258,38.0,340.0],["NRP2_8828",-0.13430055426897422,-2.0220490019378397,37.0,335.0],["HS3ST2_9956",-0.14844134005718407,-2.3857692683901726,37.0,335.0],["MT1DP_326343",-0.19522163155377095,-3.820547620635913,37.0,335.0],["TFPT_29844",-0.13163995705767328,-1.9699352908093524,40.0,335.0],["IL6_3569",-0.13224213340523147,-1.9846411222827207,40.0,335.0],["ASGR1_432",-0.16213968065455486,-2.837654344989215,40.0,343.0],["PLEKHG6_55200",-0.17989155052206507,-3.33320840185562,40.0,335.0],["OR2T27_403239",-0.13044772215073464,-1.9283853959961161,37.0,335.0],["EGOT_100126791",-0.1460305608722372,-2.3215239832936962,37.0,335.0]]},"para":{"top":[],"bottom":[]}}}
{"achilles":{"corr":{"top":[["ZXDC_79364",0.2096434902516315,-3.3631540634014385,21.0,257.0],["COL19A1_1310",0.14864978221952538,-1.8828266530859366,21.0,257.0],["PROM1_8842",0.16813845525562912,-2.306157890184133,21.0,257.0],["ZDHHC11B&ZDHHC11_653082&79844",0.17950237932716667,-2.5741660286865895,21.0,257.0],["BIN3_55909",0.19071915667361553,-2.854355628055602,21.0,257.0],["FBXO33_254170",0.19691789453607686,-3.01597630071149,21.0,257.0],["GSTA3_2940",0.16890339605038787,-2.323703411850058,21.0,257.0],["SORBS3_10174",0.20709667279365487,-3.2920010964219117,21.0,257.0],["SHE_126669",0.15935901450237608,-2.109840854181743,21.0,257.0],["TBC1D15_64786",0.17318093971340276,-2.423129911164353,21.0,257.0],["CYP2F1_1572",0.17621313399541874,-4.0771017177051965,43.0,450.0],["ADIPOR2_79602",0.16388075518175393,-3.5884748701032065,43.0,450.0],["POP1_10940",0.16346840461578316,-3.5727177873085387,43.0,450.0],["ATP6AP1_537",0.17191714989666054,-3.90305644687272,43.0,450.0],["LINC00115_79854",0.1970804306114276,-3.0202796997389534,21.0,257.0],["SCAI_286205",0.17668557208861638,-2.5062579952562487,21.0,257.0],["COL25A1_84570",0.19636370155334645,-3.0013284371049482,21.0,257.0],["TNIP2_79155",0.14981862988657196,-1.906945298030754,21.0,257.0],["SPRR4_163778",0.17209747593184216,-2.397735084470601,21.0,257.0],["FAM19A1_407738",0.1727487056482806,-2.412981771280586,21.0,257.0],["WASHC2C_253725",0.1556458787937371,-2.029590553830603,21.0,257.0],["ADAMTS16_170690",0.18257346595322474,-4.342375344794913,43.0,450.0],["ALDH16A1_126133",0.16193534757810255,-3.514462604839292,43.0,450.0],["LINC01951_441116",0.16841066140364977,-2.312393372139296,21.0,257.0],["KRTAP19-3_337970",0.21783646217723165,-3.597789144434822,21.0,257.0],["RSBN1_54665",0.1704884684435272,-2.3602866174611976,21.0,257.0],["REEP6_92840",0.14803860567430616,-3.009737123440924,43.0,450.0],["FRMD3_257019",0.18276408146456433,-2.654025209668979,21.0,257.0],["GTF2H5_404672",0.16111840342117997,-3.4836296246710843,43.0,450.0],["IPPK_64768",0.15940089414777497,-2.110755355034515,21.0,257.0],["PCBP4_57060",0.16493461193797737,-3.628915533209921,43.0,450.0],["SAMD8_142891",0.17723003805008866,-2.5193078251198036,21.0,257.0],["ZNF184_7738",0.20823196863978313,-3.323615019606894,21.0,257.0],["FLJ34503_285759",0.17779957793699913,-2.532997691207949,21.0,257.0],["TRPM5_29850",0.17204956594254595,-3.9083596340805458,43.0,450.0],["C11orf80_79703",0.17900829375828772,-2.562183744889617,21.0,257.0],["LGALS3_3958",0.16046011312810918,-3.4588907888260505,43.0,450.0],["STARD6_147323",0.1737702890921077,-2.437003676711392,21.0,257.0],["NLGN4X_57502",0.15224062881918868,-3.157943929211635,43.0,450.0],["RGMA_56963",0.16292485464062717,-2.1884582038306353,21.0,257.0],["KIRREL3_84623",0.195139220126536,-4.893424985938595,43.0,450.0],["POTEM_641455",0.1516954876596392,-1.9460095372552695,21.0,257.0]],"bottom":[["OSBPL11_114885",-0.17597179470467653,-2.489205322960673,21.0,257.0],["TNFRSF17_608",-0.15753052622361394,-3.349943122787427,43.0,450.0],["LYZ_4069",-0.1654178483786749,-3.647540942529127,43.0,450.0],["SPDYE18&SPDYE16_100505767&102723555",-0.19281513810837494,-2.9084604373324154,21.0,257.0],["CYP2S1_29785",-0.1901287692158275,-2.8392155660016423,21.0,257.0],["LDLRAD3_143458",-0.15656524937495425,-2.049307608153307,21.0,257.0],["BPIFA2_140683",-0.15702637048668172,-2.0592347679400076,21.0,257.0],["LPCAT4_254531",-0.22116192201644214,-3.6955444857263773,21.0,257.0],["ZNF423_23090",-0.16271133042815353,-3.5438850274128253,43.0,450.0],["NUFIP2_57532",-0.15285676072407195,-1.9703878086920477,21.0,257.0],["HIRIP3_8479",-0.182751828422648,-2.6537227379139137,21.0,257.0],["WASHC2A_387680",-0.17048160287567451,-2.3601275023264394,21.0,257.0],["RNLS_55328",-0.15693814470899556,-2.0573334587169656,21.0,257.0],["A4GALT_53947",-0.15547978224610576,-3.274790343293644,43.0,450.0],["CRAMP1_57585",-0.16429288259034458,-2.2190247711545106,21.0,257.0],["TMEM237_65062",-0.15268315787222794,-1.9667332910690052,21.0,257.0],["DACH1_1602",-0.1565872969109263,-2.049781678675249,21.0,257.0],["GORAB_92344",-0.16634310911859504,-2.265256401233481,21.0,257.0],["MRPS18A_55168",-0.15150878670636206,-1.9421050260050374,21.0,257.0],["MIF4GD_57409",-0.18570958221378994,-2.7272784332382805,21.0,257.0],["ACER3_55331",-0.16162154983242655,-3.5026020138302667,43.0,450.0],["KRTAP9-3_83900",-0.15822519334979845,-2.0851618647749786,21.0,257.0],["UGT1A9_54600",-0.18778547372112747,-4.566567962766063,43.0,450.0],["SH2D6_284948",-0.1696712711755051,-2.341387695107694,21.0,257.0],["PLAC8_51316",-0.1679416664305475,-2.3016556044344583,21.0,257.0],["NDEL1_81565",-0.164550594979006,-2.224808198027713,21.0,257.0],["CRTC1_23373",-0.2140584642497712,-3.4885002478993767,21.0,257.0],["GNG2_54331",-0.18448111085804283,-2.6965955159107207,21.0,257.0],["PLA2G16_11145",-0.18043214962470266,-2.596796125157531,21.0,257.0],["PARD6A_50855",-0.18095349894666202,-2.609532295861986,21.0,257.0],["DEFB107A&DEFB107B_245910&503614",-0.1862466034534361,-2.740750527261326,21.0,257.0],["C10orf99_387695",-0.1687323940479504,-2.3197749594602595,21.0,257.0],["LGALS14_56891",-0.16728727339962152,-2.286717651199542,21.0,257.0],["SRRD_402055",-0.1645138666860741,-2.2239834746359404,21.0,257.0],["ATP2B2_491",-0.1648227472375496,-3.6246112524789105,43.0,450.0],["LOC105369252_105369252",-0.1566603506217957,-3.317942535795156,43.0,450.0],["GPN2_54707",-0.1518729270887725,-1.9497241705087383,21.0,257.0],["CT45A8_102723737",-0.16057669501320054,-2.1365162121742785,21.0,257.0],["RNF212_285498",-0.15719178351199073,-3.337466330594078,43.0,450.0]]},"para":{"top":[["WASHC2C_253725",0.17462207422810874,-2.735896671798531,21.0,257.0],["FLJ34503_285759",0.18513835919502122,-2.9849197193731904,21.0,257.0]],"bottom":[]}}}
{"ccle_rrbs_tss1kb":{"corr":{"top":[["LOC91370_22_30641198_30642198",0.16456741818104678,-5.720966041939548,79.0,750.0],["FREM1_9_14779531_14780531",0.15224131741992689,-2.6116017065494974,33.0,361.0],["SNORD111B_16_70562401_70563401",0.1516189763059345,-1.6107026122206416,21.0,199.0],["SNORD1A_17_74556714_74557714",0.1825001002749924,-3.260214847158938,33.0,322.0]],"bottom":[["ZNF787_19_56632742_56633742",-0.09301313583459046,-2.1222624488313087,79.0,745.0],["LOC101929054_3_52272253_52273253",-0.09245193370146382,-2.1159264053400224,79.0,752.0],["HEATR5B_2_37311488_37312488",-0.0852344374627615,-1.8420016979017535,79.0,745.0],["TXNL1_18_54305920_54306920",-0.08550127746035262,-1.6421006070568138,74.0,635.0],["ANKRD13D_11_67055761_67056761",-0.08388880285082762,-1.809515149977268,79.0,753.0],["AGTPBP1_9_88356944_88357944",-0.08541951744520358,-1.8556425100678806,78.0,750.0],["SURF2_9_136222420_136223420",-0.0809750511593643,-1.7052575854487553,79.0,750.0],["EBNA1BP2_1_43638241_43639241",-0.10659019301758693,-1.2305913392424452,25.0,290.0],["SMPD4_2_130939330_130940330",-0.08104803509763527,-1.7142557140768193,79.0,754.0],["TRAF2_9_139779964_139780964",-0.08329644722451765,-1.7890877493907864,78.0,754.0],["MIR330_19_46142345_46143345",-0.08676260749737935,-1.8991716722839633,78.0,748.0],["RBM17_10_6129948_6130948",-0.08745291942844999,-1.9255109414824831,79.0,748.0],["USP36_17_76836609_76837609",-0.08486645677174319,-1.841707007891475,79.0,752.0],["OGFRP1_22_42664758_42665758",-0.08053874871244365,-1.692291750703591,79.0,751.0],["BICD2_9_95527083_95528083",-0.08386691365676277,-1.8087582110028846,79.0,753.0],["CDT1_16_88869185_88870185",-0.08620349235371032,-1.8886343097358287,79.0,752.0],["GNA13_17_63051892_63052892",-0.0854307309952396,-1.8596375341927238,79.0,751.0],["LOC102723701_8_37594944_37595944",-0.08080276473114742,-1.0487574542157247,42.0,401.0],["ARPC4_3_9833800_9834800",-0.08608729913887841,-1.8863585395668325,79.0,753.0],["ALG3_3_183967313_183968313",-0.08889456748804243,-1.986843455591261,79.0,753.0],["ESRRA_11_64071999_64072999",-0.10114938023472177,-2.4495079068635466,79.0,750.0],["TNIP2_4_2757752_2758752",-0.09154424835549814,-2.080046092324619,79.0,751.0],["BFAR_16_14725667_14726667",-0.08079122531339855,-1.6844338258595435,77.0,743.0],["PRPF40A_2_153574526_153575526",-0.08016438468013226,-1.6798134295130724,79.0,751.0],["RFX3_9_3526001_3527001",-0.08817202949084933,-1.9511881295859903,79.0,748.0],["MKRN2_3_12597512_12598512",-0.07962953768517927,-1.6493623480143298,78.0,744.0],["MRPS10_6_42185633_42186633",-0.08230003639000905,-1.7314003356774685,78.0,740.0],["XRCC4_5_82372227_82373227",-0.08204943606445718,-1.7196510258190423,79.0,737.0],["PTAR1_9_72374876_72375876",-0.09157082604454178,-2.068765389199888,78.0,746.0],["RPA1_17_1732264_1733264",-0.08760270840791413,-1.9421566307345577,79.0,754.0],["PCNA_20_5107268_5108268",-0.09742399279611091,-2.3062589836534135,79.0,752.0],["PRDM15_21_43299591_43300591",-0.095942467546644,-2.237529886571132,78.0,748.0],["MIR4479_9_139780184_139781184",-0.08996397098711943,-2.025822152637576,78.0,754.0],["SGO1_3_20227725_20228725",-0.09769340984494156,-2.3006982980680655,78.0,746.0],["MIR762HG_16_30885780_30886780",-0.09219253599802445,-2.1103652023749007,79.0,754.0]]},"para":{"top":[],"bottom":[["EBNA1BP2_1_43638241_43639241",-0.15941349404429878,-2.6239978260391643,25.0,290.0]]}}}
{"ccle_gene_tpm":{"corr":{"top":[["HHLA3_ENSG00000197568.9",0.1600501401011855,-6.55173939953091,89.0,930.0],["CLEC18B_ENSG00000140839.7",0.14293347026879122,-5.333875595738251,89.0,930.0],["CTD-2017C7.2_ENSG00000259088.1",0.14776953758194553,-5.664386632030877,89.0,930.0],["CCNB1IP1P3_ENSG00000231001.2",0.161716579744878,-6.677508085569896,89.0,930.0],["MESTP2_ENSG00000259558.1",0.16821223021267576,-7.180075783793869,89.0,930.0],["CTD-2353N24.1_ENSG00000251648.2",0.16828401531468823,-7.185739836908967,89.0,930.0],["ZNF18_ENSG00000154957.9",0.14891251878935508,-5.744056235002402,89.0,930.0],["RP11-8J23.1_ENSG00000235110.4",0.1558384291663318,-6.239602325116827,89.0,930.0],["None_ENSG00000267335.2",0.15612177067791497,-6.260344390344887,89.0,930.0],["CGB2_ENSG00000104818.14",0.15329447835239,-6.055026844011054,89.0,930.0],["AC004069.2_ENSG00000251259.1",0.14472880306209163,-5.4553340712257485,89.0,930.0]],"bottom":[["AC007272.3_ENSG00000224672.4",-0.08056806859790203,-1.9963264121163538,89.0,930.0]]},"para":{"top":[],"bottom":[]}}}
{"ccle_rrbs_tss_clusters":{"corr":{"top":[["MIR378C_3",0.2026380922940251,-4.638627492242685,41.0,389.0],["LRP4_1",0.24310990472793756,-4.809086440140193,33.0,276.0],["ZNF451-AS1_3",0.19066577569116652,-7.607871622498972,81.0,761.0]],"bottom":[["LOC101927746_1",-0.12638382182051663,-2.1386004945934074,45.0,405.0],["NR1D1_3",-0.104050954763672,-0.9641664955507491,23.0,216.0],["CPNE9_1",-0.10591285433506592,-2.1951942470839043,62.0,600.0],["THOC2_2",-0.10490054595666717,-0.9969555287976818,23.0,223.0],["LINC02092_1",-0.13456890102135083,-1.4803500006171226,19.0,232.0],["USP11_3",-0.09786316713688127,-0.9878179936204863,31.0,248.0],["MIR510_3",-0.10692995962430173,-1.4528896513383058,40.0,348.0],["MMEL1_2",-0.1257355470402026,-2.1321832684514157,42.0,411.0],["LIN54_2",-0.10524380705886058,-1.0590615284194216,27.0,238.0],["CASC3_3",-0.09773300152143137,-0.7980901535456233,22.0,187.0],["H2AFV_3",-0.12868742571297923,-1.5080713114019515,35.0,246.0],["MIR762HG_1",-0.10104006564066798,-2.4793756622333336,81.0,762.0]]},"para":{"top":[],"bottom":[["NR1D1_3",-0.14548698743098326,-1.903788853056994,23.0,216.0],["SRY_3",-0.12315961897478131,-1.5162773825553382,22.0,211.0]]}}}
{"ccle_rrbs_cgi_clusters":{"corr":{"top":[["6_57034954_57039731-3",0.19066577569116652,-7.607871622498972,81.0,761.0],["11_46937358_46942118-1",0.1871061362093384,-4.030695188105135,47.0,384.0],["16_1581809_1586641-3",0.1840548569767101,-4.081520873630996,42.0,410.0]],"bottom":[["4_83931332_83933851-1",-0.10524380705886058,-1.0590615284194216,27.0,238.0],["9_4298999_4302182-2",-0.12895853223773412,-1.2506305651472123,22.0,198.0],["5_176234761_176237421-1",-0.13249489102456602,-1.3312571690593902,16.0,210.0],["4_10458741_10461353-2",-0.1306697703950342,-2.9708913438494897,64.0,560.0],["23_299585_303280-2",-0.11244272885166884,-2.665793146079625,72.0,670.0],["17_25287487_25292432-3",-0.13547776027320718,-1.5988198451445763,23.0,250.0],["22_22467166_22471909-1",-0.15791610949094895,-2.5153154587081192,37.0,313.0],["7_44885267_44890070-3",-0.12868742571297923,-1.5080713114019515,35.0,246.0],["7_805336_810261-2",-0.10688401371769245,-1.5392340020890323,39.0,379.0],["23_122864199_122869097-2",-0.10490054595666717,-0.9969555287976818,23.0,223.0],["22_41631520_41634181-1",-0.13366301553832086,-1.5786137892469987,32.0,244.0]]},"para":{"top":[],"bottom":[["24_2655802_2660099-3",-0.12315961897478131,-1.5162773825553382,22.0,211.0]]}}}
