{"ccle_chromatin":{"corr":{"top":[],"bottom":[]},"para":{"top":[],"bottom":[]}}}
{"ccle_rppa":{"corr":{"top":[],"bottom":[]},"para":{"top":[],"bottom":[]}}}
{"ccle_metabolomics":{"corr":{"top":[],"bottom":[]},"para":{"top":[],"bottom":[]}}}
{"ccle_rrbs_enhancer_clusters":{"corr":{"top":[],"bottom":[]},"para":{"top":[],"bottom":[]}}}
{"ccle_mirna":{"corr":{"top":[],"bottom":[]},"para":{"top":[],"bottom":[]}}}
{"prism_primary_logfold":{"corr":{"top":[["tofogliflozin_BRD-K96344439-002-02-7::2.500011072::MTS004",0.09781055196923298,-1.6354853478865348,25.0,514.0],["piribedil_BRD-K47936004-003-11-4::2.5::HTS",0.09842283005902099,-1.663898955680611,27.0,517.0],["oxiconazole_BRD-K56104152-008-04-1::2.5::HTS",0.09332537341900266,-1.5651339620679845,27.0,533.0],["RGFP966_BRD-K61688984-001-02-9::2.5::HTS",0.10216500646860605,-1.797054527379119,27.0,529.0],["2-ethyl-1,3-hexanediol_BRD-A55455283-001-01-3::2.5::HTS",0.12412035437566137,-2.36430435675408,25.0,502.0],["brinzolamide_BRD-K74913225-001-12-4::2.5::HTS",0.10869889192959185,-1.951483196459536,27.0,517.0],["PRE-084_BRD-K57304726-003-06-9::2.5::HTS",0.09935640296783618,-1.7285222231778021,27.0,533.0],["travoprost_BRD-K23976833-001-01-0::2.5::HTS",0.10597902307918786,-1.9035853144807056,27.0,528.0],["citalopram_BRD-A47598013-004-16-0::2.5::HTS",0.12125159472193674,-2.373849980077373,27.0,528.0],["AM-281_BRD-K59419204-001-02-7::2.5::HTS",0.09486085240223291,-1.5946190328713783,27.0,528.0],["D-4476_BRD-K09132007-001-07-5::2.5::HTS",0.11703249937219763,-2.1786983110047493,26.0,511.0],["eticlopride_BRD-K50417881-003-17-4::2.5::HTS",0.1262638970569032,-2.5284890800081934,27.0,525.0],["L-655,708_BRD-K13474508-001-01-2::2.5::HTS",0.13729669704147668,-2.9040727067540657,27.0,523.0],["flumecinol_BRD-A44181516-001-01-8::2.666476303::MTS004",0.12268381242375476,-2.3626646577345762,25.0,514.0]],"bottom":[["aloe-emodin_BRD-K04851519-001-06-8::2.5::HTS",-0.11234425607220146,-2.1023049254021084,27.0,531.0],["YS-035_BRD-K06208435-003-08-2::2.5::HTS",-0.11732060787292796,-2.264346889937413,27.0,533.0],["dehydrocholate_BRD-A64125466-236-04-6::2.5::HTS",-0.10729546373419141,-1.9420152262999923,27.0,528.0],["AR-12_BRD-K90497590-001-04-2::2.5::HTS",-0.13961584869110744,-2.99751383209726,27.0,525.0],["ganciclovir_BRD-K22662435-001-19-1::2.5::HTS",-0.11165957246462777,-2.0173195395739856,26.0,511.0]]},"para":{"top":[],"bottom":[]}}}
{"prism_secondary_logfold":{"corr":{"top":[["CID-5458317_BRD-A08840375-001-01-3::0.00244141::HTS002",0.13396775826236731,-2.4632338437173558,22.0,453.0],["BIX-01294_BRD-K26818574-305-04-3::0.0024414::HTS002",0.13677257809039295,-2.55028721597145,22.0,453.0],["sulfasalazine_BRD-K10670311-001-15-5::0.15625::HTS002",0.1561873421413505,-1.4340024510134317,12.0,167.0],["7-nitroindazole_BRD-K04430056-236-02-1::10::HTS002",0.1516558535372035,-2.979047387850002,21.0,443.0],["SR-33805_BRD-K43002771-034-01-6::0.0390625::HTS002",0.1267561127842963,-1.9599843818843847,19.0,383.0],["homoharringtonine_BRD-K76674262-001-03-3::0.0024414::HTS002",0.13189148295088793,-2.2651396576894136,19.0,424.0],["KI-8751_BRD-K47150025-001-05-3::0.15625::HTS002",0.12772444220433127,-2.231606120798716,21.0,443.0],["epothilone-a_BRD-K71823332-001-03-7::0.0024414::HTS002",0.1392421467559878,-2.5817870167191916,21.0,444.0],["temsirolimus_BRD-K42898655-001-01-8::0.0391::MTS010::PROS005_PR500",0.1287815212674178,-2.2582101621163564,22.0,441.0],["dirithromycin_BRD-K52756523-001-24-7::0.0390625::HTS002",0.1256396157880544,-2.1910495157444556,21.0,448.0],["lorazepam_BRD-A11990600-001-03-4::0.0024414::HTS002",0.1354259063643254,-2.4685870981700955,21.0,445.0],["sulfabenzamide_BRD-K59983611-001-21-9::0.625::HTS002",0.1448734739755013,-2.4434105889456768,19.0,383.0],["ONX-0914_BRD-K60446698-001-01-2::0.0390625::HTS002",0.13014276874886518,-2.2978929196962903,19.0,444.0],["IKK-16_BRD-K14618467-001-04-6::10::HTS002",0.1320449368705406,-2.358164674873294,21.0,443.0],["DPI-201106_BRD-A64553394-001-04-4::0.000654078::HTS002",0.12559081027133426,-2.166608239434666,21.0,442.0],["zaleplon_BRD-K92657060-001-05-7::0.15625::HTS002",0.1342229800148653,-2.4580789754927386,22.0,450.0],["everolimus_BRD-K13514097-001-04-6::0.00977::MTS010::PROS003_PR500",0.1331076471070066,-2.3641793271840874,22.0,436.0],["cyclovirobuxin-d_BRD-K27799744-001-02-8::0.630136::HTS002",0.12632901719178735,-2.222548886626513,22.0,450.0],["P22077_BRD-K97714174-001-01-3::0.0390625::HTS002",0.1419304444052258,-2.7145394764254087,22.0,453.0],["sulconazole_BRD-A70649075-008-30-8::0.00976562::HTS002",0.15218376290452115,-3.0243002348214674,21.0,448.0],["crizotinib-(S)_BRD-K40308497-001-01-2::2.53691::HTS002",0.14270635907388637,-2.598402016582956,19.0,427.0],["CGP-54626_BRD-A74208568-003-01-5::0.625::HTS002",0.19018763375985015,-2.614280271795717,14.0,238.0],["SGI-1776_BRD-K80700417-001-04-2::0.00061034::HTS002",0.12929181092036152,-2.2080940965100875,19.0,428.0],["oxcarbazepine_BRD-K04196797-001-24-4::0.625::HTS002",0.14003506674370486,-2.6253821366057295,21.0,448.0],["ouabain_BRD-K33277808-331-01-3::0.00061034::HTS002",0.16414706655719216,-3.0453927895705983,19.0,387.0],["FPH1-(BRD-6125)_BRD-K61250484-001-02-3::0.0390625::HTS002",0.14569362642213238,-2.466619797652209,19.0,383.0],["FLI-06_BRD-A44500574-001-01-8::0.00061034::HTS002",0.14252231249234526,-2.6803376986134118,21.0,443.0],["mesoridazine_BRD-A14395271-074-17-8::0.00976562::HTS002",0.13528589326527338,-2.464318330804762,21.0,445.0],["Y-27632_BRD-K44084986-300-08-4::0.0024414::HTS002",0.14759681559781979,-2.5209246882645213,19.0,383.0]],"bottom":[["trifluridine_BRD-K03243820-001-23-8::0.148331::HTS002",-0.15967204340968574,-3.267160045883207,21.0,445.0],["ramatroban_BRD-K08586861-001-01-1::0.15625::HTS002",-0.1418429799358312,-2.5768189006743842,19.0,428.0],["doxercalciferol_BRD-K82928892-001-02-5::0.614878::HTS002",-0.12847755069386851,-1.9832355790241352,17.0,380.0],["selamectin_BRD-A58564983-001-04-6::0.0024414::HTS002",-0.1492039952691775,-2.3631866135982342,17.0,347.0],["merimepodib_BRD-K09372874-001-01-0::2.5::HTS002",-0.1374688772860632,-2.440365900205494,18.0,428.0],["floxuridine_BRD-K47832606-001-30-1::0.0390625::HTS002",-0.14525050383556498,-2.762773217555066,19.0,444.0],["fdcyd_BRD-K18157228-001-01-7::0.0390625::HTS002",-0.16002305941899217,-2.915380873744731,19.0,387.0],["bindarit_BRD-K36467523-001-02-8::2.5::HTS002",-0.13346973253961744,-2.413595040856894,20.0,447.0],["norepinephrine_BRD-K87349682-347-03-8::0.00230681::HTS002",-0.13764885825048742,-2.5641746824247806,22.0,450.0],["phenazone_BRD-K46937689-001-15-0::10::HTS002",-0.15497655238679675,-2.7891023387415554,18.0,393.0],["pentagastrin_BRD-K78789465-001-01-6::0.000610352::HTS002",-0.134061990695355,-2.1876720913232477,18.0,393.0],["ZLN005_BRD-K73073971-001-01-7::0.0024414::HTS002",-0.13126678453955914,-2.2599559769943895,19.0,427.0],["PSI-7976_BRD-K05674516-001-01-7::0.0024414::HTS002",-0.1335127630615798,-2.436379266208515,22.0,450.0],["tamibarotene_BRD-K36627727-001-05-4::0.00061::MTS010::PROS005_PR500",-0.14548638447748735,-2.7703905308279486,22.0,441.0],["teprenone_BRD-K11510141-001-01-8::0.00244141::HTS002",-0.13591750633275423,-2.394556618236132,19.0,427.0],["levonorgestrel_BRD-K35189033-001-26-1::0.00061034::HTS002",-0.1933121534231623,-3.455001980695416,16.0,322.0],["noretynodrel_BRD-A00758722-001-04-9::0.00976562::HTS002",-0.14385654195782496,-2.459737414447929,18.0,393.0],["genipin_BRD-K28824103-001-02-8::0.000610352::HTS002",-0.14390586051242898,-2.764063757810114,22.0,450.0],["SB-657510_BRD-K95292280-001-01-3::0.00061034::HTS002",-0.12770994082360534,-2.167708291064089,19.0,429.0],["amoxicillin_BRD-K55044200-001-15-3::0.00061034::HTS002",-0.13451730342074253,-2.4409544711101723,21.0,445.0]]},"para":{"top":[["sulconazole_BRD-A70649075-008-30-8::0.00976562::HTS002",0.15808758972946463,-3.5029263024173964,21.0,448.0],["crizotinib-(S)_BRD-K40308497-001-01-2::2.53691::HTS002",0.15870926396041385,-3.3889581631544115,19.0,427.0],["ouabain_BRD-K33277808-331-01-3::0.00061034::HTS002",0.14338308360944418,-2.7077424812163926,19.0,387.0],["Y-27632_BRD-K44084986-300-08-4::0.0024414::HTS002",0.15581713680567827,-3.042565458183048,19.0,383.0]],"bottom":[]}}}
{"ccle_proteomics":{"corr":{"top":[["GPANK1_O95872",0.17757787232978886,-2.428348004420385,13.0,252.0],["COX5B_P10606",0.1973241718237385,-3.9028184090814264,17.0,356.0],["RLIM_Q9NVW2",0.21172074025708737,-3.197546230633521,13.0,244.0],["FXN_Q16595",0.18572093074898563,-3.5077245622496913,17.0,356.0],["MICAL2_O94851-4",0.17179170224617285,-1.53270053255636,8.0,153.0],["UQCRB_P14927",0.17175350461386538,-3.0624384442610864,17.0,356.0],["SRSF10_O75494",0.21171966952234275,-4.425436994247574,17.0,356.0],["NDUFV2_P19404",0.16838318581614425,-2.9598745778774975,17.0,356.0],["FGFR1OP2_Q9NVK5",0.17203594989133172,-3.0711192673365666,17.0,356.0],["PPIG_Q13427",0.16685172519211922,-2.9138909771703174,17.0,356.0],["C19orf25_Q9UFG5",0.19033062928191155,-3.6619232578742698,17.0,356.0],["NDUFAF2_Q8N183",0.181844948196018,-3.380864974228293,17.0,356.0],["ISCU_Q9H1K1",0.19843312415004316,-3.941792008836838,17.0,356.0],["MTIF3_Q9H2K0",0.1960125009501323,-3.775656071651382,16.0,348.0],["COX7C_P15954",0.1986722905695425,-3.950225344808428,17.0,356.0],["ABCB1_P08183",0.21778810389453473,-3.2577239711594275,12.0,236.0],["C6orf203_Q9P0P8",0.23832464363590242,-4.075921249010979,11.0,256.0],["PYURF_Q96I23",0.18043454138030426,-2.862869741273118,13.0,299.0],["SLFN13_Q68D06",0.2565185596822429,-2.686193922257435,9.0,133.0],["MRPS31_Q92665",0.1626407410065446,-2.7894429325931775,17.0,356.0],["CHCHD3_Q9NX63",0.18880872251525033,-3.6106131443317366,17.0,356.0],["GRPEL1_Q9HAV7",0.169827008192578,-3.0035817826758366,17.0,356.0],["MSANTD3_Q96H12",0.19337881891377687,-1.8264028063333484,9.0,149.0],["ING1_Q9UK53",0.17865668753689506,-3.210338090055588,17.0,347.0],["MDM1_Q8TC05",0.19866225076289035,-2.3572471364120196,8.0,196.0],["PDE3B_Q13370",0.18454410685990136,-2.3018698169082032,11.0,219.0],["ARGLU1_Q9NWB6",0.15422186033088547,-2.549326499093954,17.0,356.0],["MYPOP_Q86VE0",0.1841664117900306,-1.9259665701567377,10.0,176.0],["BOLA3_Q53S33",0.18505663341262388,-3.4858015006643766,17.0,356.0],["NDUFV3_P56181-2",0.16448083898720595,-2.8434652745024596,17.0,356.0],["COX6B1_P14854",0.1902773321947139,-3.660119686652383,17.0,356.0],["DCHS2_Q6V1P9",0.20879659877168444,-2.266041878776122,10.0,166.0]],"bottom":[["FBXL8_Q96CD0",-0.17689129038773127,-1.6058164216068,9.0,152.0],["ABCC5_O15440",-0.18051714984563397,-2.7166055588795865,12.0,281.0],["FAIM_Q9NVQ4-2",-0.16018091667744197,-2.058475181142215,12.0,255.0],["DSCR3_O14972",-0.17978967192379086,-3.115275632941149,15.0,332.0],["TMEM167A_Q8TBQ9",-0.18498810992295164,-2.6019841791695186,15.0,250.0],["GSTM3_P21266",-0.15635656444515897,-2.60912076224626,17.0,356.0],["ABCA3_Q99758",-0.18948986126477524,-2.641378135023361,13.0,244.0],["ALG12_Q9BV10",-0.18883394061851422,-2.78903455278167,11.0,265.0],["C7orf10_Q9HAC7",-0.16855898169266859,-1.8610706847126235,12.0,201.0],["SGCD_Q92629-2",-0.1965317871058837,-2.2296683966879214,9.0,186.0],["DNAL4_O96015",-0.16395405710775343,-1.718557052835849,9.0,195.0],["PLXNB3_Q9ULL4-2",-0.2460916249574689,-3.2801788031774595,8.0,187.0],["GET4_Q7L5D6",-0.17889597333192442,-3.1494353914656346,16.0,339.0],["DYNC2H1_Q8NCM8",-0.20338954484204697,-3.5926153239532144,11.0,308.0],["SCAP_Q12770",-0.17858924484791353,-3.0034973843354713,15.0,322.0],["ZNF532_Q9HCE3",-0.16446853262909214,-2.6682268068631845,17.0,329.0],["FBXL19_Q6PCT2",-0.20210319563315945,-2.9497764320309594,12.0,245.0],["ARL6IP1_Q15041",-0.17146326824792205,-2.808093164633718,15.0,323.0],["RANBP17_Q9H2T7",-0.1525142519762627,-1.5786660493971656,12.0,200.0],["IFT122_Q9HBG6-5",-0.16898747904137967,-2.109113417284047,11.0,236.0],["CSDE1_O75534-3",-0.15409809157259094,-2.5458822757345887,17.0,356.0],["SLC26A11_Q86WA9",-0.24238369401991194,-2.681496450175518,10.0,149.0],["EXTL3_O43909",-0.16115030245691395,-2.3013226896168884,12.0,290.0],["MKNK1_Q9BUB5",-0.23105495671023776,-4.19671945902304,14.0,280.0]]},"para":{"top":[["GPANK1_O95872",0.1836250569440631,-2.8436718857607928,13.0,252.0],["RLIM_Q9NVW2",0.1993606800811236,-3.1446875255642395,13.0,244.0],["SOD2_P04179",0.1499421148839408,-2.7164399244145527,17.0,356.0],["OTX1_P32242",0.1937481484051259,-2.2897419952832685,8.0,169.0],["MICAL2_O94851-4",0.16359274969004536,-1.7112598669508692,8.0,153.0],["UQCRB_P14927",0.15065839016277668,-2.73556854756319,17.0,356.0],["UBE2J1_Q9Y385",0.14856927159447664,-2.6799916748871504,17.0,356.0],["NDUFAF2_Q8N183",0.1815779910338169,-3.6349624743987223,17.0,356.0],["SMCR8_Q8TEV9",0.1682076158345523,-2.3220523329166007,9.0,230.0],["UNNAMED_P01620",0.13873760192600312,-1.6557663302792152,8.0,204.0],["MTIF3_Q9H2K0",0.17868151100184543,-3.477426774758176,16.0,348.0],["C6orf203_Q9P0P8",0.24033661635466005,-4.349842986838847,11.0,256.0],["SLFN13_Q68D06",0.19990329198848172,-2.050353010321751,9.0,133.0],["HNRNPU_Q00839-2",0.1452809315225513,-2.0007152762897165,11.0,247.0],["AFF3_P51826-2",0.15910913181869438,-2.7017125091392686,14.0,315.0],["PYURF_Q96I23",0.17960040884214856,-3.1115368638011573,13.0,299.0],["CHCHD3_Q9NX63",0.1807423263808013,-3.608749957598203,17.0,356.0],["MDM1_Q8TC05",0.1929768937962404,-2.5211057909903936,8.0,196.0],["ING1_Q9UK53",0.1761981773673096,-3.402728991633788,17.0,347.0],["MIA2_Q96PC5-2",0.16992019008422296,-1.9719415246390353,11.0,174.0],["PDE3B_Q13370",0.16309921390214194,-2.1652579422878664,11.0,219.0],["SP140_Q13342",0.14132467836457163,-1.8877419505046455,9.0,241.0],["NDUFV3_P56181-2",0.17459427261381466,-3.4191690915052773,17.0,356.0],["ICAM5_Q9UMF0",0.1743049391540561,-2.8947536160381326,15.0,286.0],["ARGLU1_Q9NWB6",0.16086548290362174,-3.016516935707064,17.0,356.0],["DCHS2_Q6V1P9",0.18647397393826554,-2.162599320061007,10.0,166.0]],"bottom":[["FBXL8_Q96CD0",-0.16841441776752578,-1.776605012176312,9.0,152.0],["ABCC5_O15440",-0.18711015739645934,-3.1563302710880436,12.0,281.0],["FAIM_Q9NVQ4-2",-0.15737806984394626,-2.287259385417865,12.0,255.0],["STK11_Q15831",-0.1912635551094843,-2.2489145618397273,9.0,168.0],["ADCY6_O43306",-0.1457767372513424,-1.8715453930379586,10.0,222.0],["ABCA3_Q99758",-0.2077370323844289,-3.3496253723656997,13.0,244.0],["ALG12_Q9BV10",-0.2012021216854003,-3.3695096152000317,11.0,265.0],["CHN1_P15882",-0.19162136339652855,-2.6376204799141663,11.0,209.0],["SGCD_Q92629-2",-0.18670357196874135,-2.32828511913265,9.0,186.0],["DNAL4_O96015",-0.14612769561441133,-1.7257601412919177,9.0,195.0],["ADCY9_O60503",-0.15347509190489275,-2.300594779307991,12.0,271.0],["EPHA4_P54764",-0.16086517302328932,-2.3022495391334865,11.0,247.0],["PLXNB3_Q9ULL4-2",-0.21862653832844897,-2.9298199152973523,8.0,187.0],["DYNC2H1_Q8NCM8",-0.1788226846687423,-3.143704700266845,11.0,308.0],["SCAP_Q12770",-0.17674907283308328,-3.2212828338100947,15.0,322.0],["FLCN_Q8NFG4",-0.15897201599162641,-2.6922444752883563,14.0,314.0],["SLC7A1_P30825",-0.15155379766375227,-2.7595890109601195,17.0,356.0],["TMEM120B_A0PK00",-0.15919217480266082,-2.1002544837002257,9.0,222.0],["ATG14_Q6ZNE5",-0.1338733460606242,-1.7497417517075424,9.0,239.0],["SLC26A11_Q86WA9",-0.18231041360411634,-1.955968397781641,10.0,149.0],["MKNK1_Q9BUB5",-0.19421491146201866,-3.351081159606838,14.0,280.0]]}}}
{"depmap_copy_number":{"corr":{"top":[["LINC00519_161342",0.08378488798331782,-3.300479264750999,54.0,1668.0],["LINC02310_105370496",0.08378488798331782,-3.300479264750999,54.0,1668.0],["FRMD6-AS2_100874185",0.08378488798331782,-3.300479264750999,54.0,1668.0],["FRMD6_122786",0.08489533167963108,-3.375969242299511,54.0,1668.0],["FRMD6-AS1_145438",0.08489533167963108,-3.375969242299511,54.0,1668.0],["GNG2_54331",0.08280717796964673,-3.2347477361042265,54.0,1668.0],["TMX1_81542",0.08392612816496652,-3.3100317198524842,54.0,1668.0],["LINC00640_283553",0.08378488798331782,-3.300479264750999,54.0,1668.0]],"bottom":[["LOC101929633_101929633",-0.08562886610520114,-3.4263238930352498,54.0,1668.0],["POTEKP_440915",-0.07427285315924907,-2.690042506235903,54.0,1668.0],["LOC101929512_101929512",-0.07894718095954785,-2.981941146085966,54.0,1668.0],["GRB14_2888",-0.0904035241680661,-3.7636013457381776,54.0,1668.0],["COBLL1_22837",-0.08981893761832341,-3.7214184843126623,54.0,1668.0],["TANK_10010",-0.07792733865214241,-2.9169279317613204,54.0,1668.0],["HRC_3270",-0.07618560859534902,-2.8076099544596236,54.0,1668.0],["SLC38A11_151258",-0.08545407149597878,-3.4142895955184493,54.0,1668.0],["CHRNA1_1134",-0.066572614064065,-2.2428809832999477,54.0,1668.0],["PSMD14_10213",-0.0792081218672068,-2.9986950072443888,54.0,1668.0],["FEM1B_10116",-0.06798652823907232,-2.3218666853609347,54.0,1668.0],["SCN2A_6326",-0.07765174870381981,-2.8994868915347776,54.0,1668.0],["LINC01087_101927994",-0.07427285315924907,-2.690042506235903,54.0,1668.0],["LINC01806_100996579",-0.0792081218672068,-2.9986950072443888,54.0,1668.0],["GALNT3_2591",-0.0778250762527762,-2.9104498144608515,54.0,1668.0],["CSRNP3_80034",-0.07837542720824937,-2.945401389285227,54.0,1668.0],["CHN1_1123",-0.06720252096332782,-2.2778969104752598,54.0,1668.0],["ATF2_1386",-0.06875970447520151,-2.3656505631318696,54.0,1668.0],["SNORA70F_100337591",-0.08981893761832341,-3.7214184843126623,54.0,1668.0],["TBR1_10716",-0.0761525882732225,-2.805558320454326,54.0,1668.0],["SCN3A_6328",-0.08059182638131873,-3.0883502392213136,54.0,1668.0]]},"para":{"top":[],"bottom":[]}}}
{"depmap_gene_tpm":{"corr":{"top":[["STOML3_161003",0.15729839558795433,-7.919858554802793,44.0,1255.0],["SLC5A5_6528",0.14937435041851763,-7.197788647682262,44.0,1255.0],["KLK1_3816",0.14148478554880023,-6.515425924831879,44.0,1255.0],["KRTAP5-1_387264",0.1327864919536416,-5.80497670966055,44.0,1255.0]],"bottom":[["PHGDH_26227",-0.09824539176530042,-3.407844708786684,44.0,1255.0],["RAP1A_5906",-0.09136979694977332,-3.009761955373111,44.0,1255.0]]},"para":{"top":[],"bottom":[]}}}
{"avana":{"corr":{"top":[["MTHFD2L_441024",0.11583938000060581,-2.882663418680463,20.0,747.0],["FBXO34_55030",0.1158009728008182,-2.8810412042534455,20.0,747.0],["RRP8_23378",0.11645856194590228,-2.87354567801086,20.0,736.0],["SLC25A17_10478",0.1190512626133968,-3.020021044878024,20.0,747.0],["NAXE_128240",0.1095269755635295,-2.6224495476802736,20.0,747.0],["GABBR1_2550",0.12069363718217817,-3.0915567753186486,20.0,747.0],["NGLY1_55768",0.1287420651578014,-3.454904958941515,20.0,747.0],["C1orf162_128346",0.11075721436061421,-2.672154751056693,20.0,747.0],["HAPLN4_404037",0.11557664973180333,-2.871575976029609,20.0,747.0],["REP15_387849",0.11589159899458848,-2.884869773119192,20.0,747.0],["CD82_3732",0.12255017981212739,-3.1734827086956416,20.0,747.0],["TTC17_55761",0.1531234603506818,-4.687406631636686,20.0,747.0],["CNEP1R1_255919",0.11306058927773156,-2.7665286794227466,20.0,747.0],["BCL2L11_10018",0.12290350598205363,-3.1892022434827494,20.0,747.0],["LMAN2L_81562",0.14123899507335994,-4.061637685738549,20.0,747.0],["DNAH6_1768",0.11478873775387805,-2.8384596364574874,20.0,747.0],["B4GALT5_9334",0.11077885606447307,-2.673033496850112,20.0,747.0],["GAB3_139716",0.12478420156308541,-3.1013410572123434,20.0,700.0],["NUDT22_84304",0.11474812543050042,-2.8367581326114295,20.0,747.0],["MEGF10_84466",0.11118057408489132,-2.6893723507220972,20.0,747.0],["SOCS1_8651",0.11488966142947628,-2.842690273434537,20.0,747.0],["ABHD10_55347",0.11859562697862817,-3.0003312008303626,20.0,747.0],["AOC2_314",0.12252808099260673,-3.172500888870685,20.0,747.0],["EIF2A_83939",0.1330834468168308,-3.6597779719386985,20.0,747.0],["LRIG2_9860",0.13746844910088735,-3.8730781312826594,20.0,747.0],["OR5K1_26339",0.11272370820410878,-2.7526191021937865,20.0,747.0],["UHRF1BP1_54887",0.1159129807281326,-2.8857734484525643,20.0,747.0],["SIRT1_23411",0.11064846149908027,-2.6356310883318264,20.0,736.0],["SLC5A12_159963",0.1141301891807591,-2.810934819628883,20.0,747.0],["ARL14EP_120534",0.1164665723897181,-2.90922205184703,20.0,747.0],["SYNDIG1_79953",0.11498431247656567,-2.8466609660700337,20.0,747.0],["PITX1_5307",0.1282224443495999,-3.4308022040643524,20.0,747.0],["TRAK1_22906",0.11093584400447534,-2.6794123936101735,20.0,747.0],["MGAT4A_11320",0.1093577987212382,-2.6156523712595408,20.0,747.0],["LIG4_3981",0.1140502808851014,-2.807604509657324,20.0,747.0],["AMOTL1_154810",0.11504809534490999,-2.849338349528544,20.0,747.0],["SMYD1_150572",0.11616006555629817,-2.8610603726028208,20.0,736.0],["RGS3_5998",0.13913068398030082,-3.955615677762906,20.0,747.0],["FAM9A_171482",0.1175696464286074,-2.8022903057192727,20.0,700.0],["TP53I11_9537",0.11995096474832448,-3.0590996433304776,20.0,747.0],["FBXO3_26273",0.12265379684199215,-3.1780884043442383,20.0,747.0],["DCK_1633",0.11349650790914889,-2.7845818729114415,20.0,747.0]],"bottom":[["ADGRL4_64123",-0.1428745544270547,-4.144916857343843,20.0,747.0],["NAT14_57106",-0.12487967255573507,-3.277877696117156,20.0,747.0],["DHX30_22907",-0.13255082719643094,-3.634306417506254,20.0,747.0],["CLPP_8192",-0.11318967959668019,-2.771868442653267,20.0,747.0],["CNTN4_152330",-0.1174133274916753,-2.9495547008862557,20.0,747.0],["FAM104B_90736",-0.13071903024886705,-3.3593498405825435,20.0,700.0],["PANX2_56666",-0.13062834601112983,-3.5431517056841106,20.0,747.0],["SNX22_79856",-0.1261483849069794,-3.3354847709425237,20.0,747.0],["PADI2_11240",-0.11611033334490681,-2.8589829765827144,20.0,736.0],["TNFRSF1A_7132",-0.11230409233667099,-2.7353447190955538,20.0,747.0],["CHRND_1144",-0.10646810243859095,-2.500967990877292,20.0,747.0],["FSTL5_56884",-0.12571199616237277,-3.3156103330129785,20.0,747.0],["NUFIP2_57532",-0.12042199912531087,-3.0796644314864805,20.0,747.0],["OGFR_11054",-0.11770817802921191,-2.962175128946771,20.0,747.0],["ARC_23237",-0.13609682418346986,-3.805667702529561,20.0,747.0],["C9orf152_401546",-0.11240489860641929,-2.739489437115927,20.0,747.0],["ETS2_2114",-0.11178643594312675,-2.7141125754982123,20.0,747.0],["IQUB_154865",-0.1089887871794781,-2.6008581433753606,20.0,747.0],["QDPR_5860",-0.1508557272185861,-4.564291812205857,20.0,747.0],["ERGIC1_57222",-0.11374596601118685,-2.79494060206218,20.0,747.0],["GPR20_2843",-0.13416284128953113,-3.7116876952018583,20.0,747.0],["GSG1_83445",-0.12084837649703475,-3.098342062537819,20.0,747.0],["LIMA1_51474",-0.11864223197936469,-3.0023420832006598,20.0,747.0],["COL6A1_1291",-0.11070381347880394,-2.669987091781196,20.0,747.0],["EMP1_2012",-0.12083885837272929,-3.097924468785076,20.0,747.0],["SIGLEC6_946",-0.13808034816311285,-3.9033539609677437,20.0,747.0],["RHOH_399",-0.13425154988232177,-3.715971090725094,20.0,747.0],["SIX4_51804",-0.11889405179135434,-3.0132196875315804,20.0,747.0],["PSENEN_55851",-0.122496391316942,-3.1710932400040432,20.0,747.0],["DUSP8_1850",-0.1569972713633148,-4.901790782261252,20.0,747.0],["MUC5B_727897",-0.12467069985637783,-3.2684399067342826,20.0,747.0],["COL6A2_1292",-0.10976462147166566,-2.6320132028464114,20.0,747.0],["EPHA1_2041",-0.10760502905313037,-2.5457703157282325,20.0,747.0],["TRPV5_56302",-0.11763603605827298,-2.959084636972783,20.0,747.0],["ZFAND2A_90637",-0.1083950045054178,-2.577144259730396,20.0,747.0],["MIEN1_84299",-0.11480507677182449,-2.8391443306864734,20.0,747.0],["DCHS1_8642",-0.11359278991882539,-2.788577591552785,20.0,747.0],["NPRL2_10641",-0.15306945990301798,-4.684454515580195,20.0,747.0],["THRB_7068",-0.13481373192454127,-3.6965613692961803,20.0,736.0],["NCOA6_23054",-0.11994499826760084,-3.021488258431824,20.0,736.0],["MRPL51_51258",-0.1110458938704712,-2.683888785646453,20.0,747.0],["SERPINA3_12",-0.11900793075910981,-3.0181455894043494,20.0,747.0],["CYC1_1537",-0.1497314875935719,-4.503908123560728,20.0,747.0]]},"para":{"top":[["CYP4F2_8529",0.10898562543721357,-2.892351571966422,20.0,747.0],["NGLY1_55768",0.12489275514655954,-3.5622221305068056,20.0,747.0],["HSPBAP1_79663",0.10395436276690248,-2.668369347290887,20.0,736.0],["LMAN2L_81562",0.1338347532262866,-3.9735348521641547,20.0,747.0],["MPPED2_744",0.10347990858701636,-2.6787885933532958,20.0,747.0],["PHYHIPL_84457",0.10482858902902605,-2.730238433792763,20.0,747.0],["TFDP1_7027",0.10975173815134993,-2.8913589439968153,20.0,736.0],["ABHD10_55347",0.11414011988807081,-3.100789047953169,20.0,747.0],["RGS3_5998",0.11722551616200517,-3.2295044452701274,20.0,747.0]],"bottom":[["NAT14_57106",-0.12269417804009401,-3.464936084433122,20.0,747.0],["PADI2_11240",-0.11777717966979682,-3.2169717152029342,20.0,736.0],["OGFR_11054",-0.1156552583575612,-3.163626850467717,20.0,747.0],["ARC_23237",-0.11692989880720871,-3.217043631757353,20.0,747.0],["QDPR_5860",-0.12892034203294797,-3.7443719389292576,20.0,747.0],["GSG1_83445",-0.12997341525231282,-3.7928378481347105,20.0,747.0],["HYAL2_8692",-0.11672668650657685,-3.208493648993927,20.0,747.0],["THYN1_29087",-0.10710107157107948,-2.8181979094074494,20.0,747.0],["DUSP8_1850",-0.11694841449658691,-3.217823302573329,20.0,747.0],["MUC5B_727897",-0.11827858781815116,-3.2741146500465024,20.0,747.0],["ZNF292_23036",-0.10715647882185701,-2.820362422634517,20.0,747.0],["KANSL1L_151050",-0.11914695969766427,-3.3111607452963727,20.0,747.0],["TRPV5_56302",-0.10416350690826016,-2.7047966966282395,20.0,747.0],["ASIC3_9311",-0.10610339422674821,-2.779385300589992,20.0,747.0],["C12orf73_728568",-0.1155812020040242,-3.1605388924237428,20.0,747.0],["DCHS1_8642",-0.1206618894021613,-3.376353426844752,20.0,747.0],["NPRL2_10641",-0.1320980695172761,-3.8916832703991737,20.0,747.0],["CYC1_1537",-0.1476174216650225,-4.656917967998776,20.0,747.0]]}}}
{"drive":{"corr":{"top":[["DMXL1_1657",0.11906626774519233,-1.6757521572920264,15.0,360.0],["NAB2_4665",0.18209552503574286,-3.404665182316909,15.0,360.0],["ZBTB17_7709",0.1297095183466527,-1.9231742236009473,15.0,360.0],["NRBP2_340371",0.13930632748167293,-2.1472007120437517,17.0,355.0],["MAP3K6_9064",0.1737330837550622,-3.11639208594068,17.0,355.0],["MSANTD3-TMEFF1_100526694",0.15126344144098877,-2.5393516605975712,17.0,369.0],["HOXB3_3213",0.1303108075694705,-1.9376768196288108,15.0,360.0]],"bottom":[["GLUD1P7_414212",-0.12209109706761388,-1.7331161234807704,17.0,355.0],["WDR5B_54554",-0.14800209440925935,-2.442829968585316,17.0,368.0],["PI4KAP1_728233",-0.18108437067978528,-3.4569954726630376,17.0,369.0],["CSDE1_7812",-0.1472879494228731,-2.3706764275499506,15.0,360.0],["KIF23_9493",-0.16075991778576368,-2.728609417236998,16.0,356.0],["HERC2P3_283755",-0.13685439435698754,-2.0991667032653254,15.0,360.0],["DUT_1854",-0.1799254281290504,-3.311317989697173,16.0,356.0]]},"para":{"top":[["MAGEA6_4105",0.15365713108482268,-2.844590460686977,17.0,361.0],["NTSR1_4923",0.15793357253192142,-2.928248252014144,16.0,356.0]],"bottom":[["PEX14_5195",-0.1336909571596005,-2.3116132082806784,15.0,360.0],["PI4KAP1_728233",-0.17970938918116092,-3.6742617594082936,17.0,369.0],["KIF23_9493",-0.13831541472018927,-2.4119646695124723,16.0,356.0],["HERC2P3_283755",-0.1534899450316165,-2.823062251095026,15.0,360.0]]}}}
{"achilles":{"corr":{"top":[["MRPL4_51073",0.14192804360689212,-1.747227853890876,11.0,267.0],["CD47_961",0.17560862344521183,-4.052361728179589,22.0,471.0],["CLDN9_9080",0.2476991201287542,-4.52891542837267,11.0,267.0],["ZNF799_90576",0.13166152204529383,-2.468030165831102,22.0,471.0],["GSTA3_2940",0.155031223514379,-2.0164644859803733,11.0,267.0],["PIGO_84720",0.14023727419211188,-2.744605582240017,22.0,471.0],["TFB1M_51106",0.16171137352390974,-3.5059948703452117,22.0,471.0],["ZNF208_7757",0.1363439016095242,-2.617121893337468,22.0,471.0],["RTCB_51493",0.14854893950123121,-3.02753423706327,22.0,471.0],["COL1A2_1278",0.1416000286066258,-2.7899852477328664,22.0,471.0],["LPXN_9404",0.13525526685479425,-2.5820478987538054,22.0,471.0],["EPB41L4A-AS1_114915",0.15239900111660548,-3.163604159289853,22.0,471.0],["POU2AF1_5450",0.1369966620657306,-2.6382724276388383,22.0,471.0],["RGMA_56963",0.17247638049344993,-2.406599752620706,11.0,267.0],["ERICH6_131831",0.1522440418527924,-1.9575053392139468,11.0,267.0],["SDR42E1_93517",0.13187361791773075,-2.4746841465703375,22.0,471.0],["PLA2G4D_283748",0.13071020853829765,-2.438300715787087,22.0,471.0],["KIAA0232_9778",0.1504086789645203,-1.9191816752121176,11.0,267.0],["C2orf83_56918",0.1688572922033259,-2.3226439123224503,11.0,267.0],["PIAS2_9063",0.1387917530186929,-2.696899893665942,22.0,471.0],["SLC5A1_6523",0.14531380833206411,-2.915658272612463,22.0,471.0],["CLDN8_9073",0.13695624373997037,-2.6369601978646684,22.0,471.0],["DPH3_285381",0.17482869531264628,-2.4620261978533957,11.0,267.0],["MLST8_64223",0.16445241124356272,-3.6103812713655934,22.0,471.0],["UMODL1-AS1_150147",0.17668964065812992,-2.506355375975632,11.0,267.0],["C1QL2_165257",0.15363693593274144,-1.986855274958349,11.0,267.0],["CST9_128822",0.17431366592780803,-2.449832883497059,11.0,267.0]],"bottom":[["MND1_84057",-0.15908742067561102,-2.103915307187231,11.0,267.0],["MTHFD1_4522",-0.18863774462580396,-4.603815559174475,22.0,471.0],["TOMM7_54543",-0.17415238636754934,-2.4460212755571904,11.0,267.0],["MCMDC2_157777",-0.18555806601132682,-2.7234839067746246,11.0,267.0],["CCT7_10574",-0.1950567966953787,-2.966940224804186,11.0,267.0],["KTI12_112970",-0.15301780920053368,-1.973781228155874,11.0,267.0],["TCHP_84260",-0.1462154460230531,-1.8331093653081554,11.0,267.0],["SUN1_23353",-0.1731925533812708,-2.423402895972146,11.0,267.0],["ITGAX_3687",-0.16074716800633218,-3.46966678352547,22.0,471.0],["DHX37_57647",-0.1399844930657993,-2.7362312767001002,22.0,471.0],["TBC1D29_26083",-0.17086754325066889,-2.369080892739431,11.0,267.0],["HPN_3249",-0.154556559807742,-3.241255380757832,22.0,471.0],["CRELD2_79174",-0.14000675215851605,-2.7369681475512184,22.0,471.0],["GTF2IP4&GTF2IP1_100093631&2970",-0.14386057215112938,-1.7856737727149907,11.0,267.0],["HM13_81502",-0.1452181842047326,-2.9123855081369285,22.0,471.0],["MAP3K8_1326",-0.15793001503249304,-3.364689445684774,22.0,471.0],["SPATS1_221409",-0.17353123934419717,-2.4313711273414453,11.0,267.0],["HTR1D_3352",-0.18077060207861162,-4.266257600203398,22.0,471.0],["NME1_4830",-0.1445027172863632,-2.8879603835218477,22.0,471.0],["FAM157A_728262",-0.17111437987021105,-2.374816742727492,11.0,267.0],["EML4_27436",-0.16180415359148298,-2.1635854463927107,11.0,267.0],["NPNT_255743",-0.1481517633842257,-3.0136785044302603,22.0,471.0],["ARAP3_64411",-0.14527732864293955,-2.9144095138931623,22.0,471.0],["TCL1A_8115",-0.13993620530940618,-2.7346331069319993,22.0,471.0],["CCDC50_152137",-0.14727324490431118,-1.8546279306338112,11.0,267.0],["FAM74A4&FAM74A3_401508&728495",-0.16651894689187427,-2.269245095669708,11.0,267.0],["OCIAD2_132299",-0.1360676091505873,-1.6332816358390168,11.0,267.0],["STIM2_57620",-0.15473731831332066,-2.0102039291357316,11.0,267.0]]},"para":{"top":[["PRIMA1_145270",0.17762171594798776,-2.804961388653652,11.0,267.0],["MRPL4_51073",0.1501448747323233,-2.2032501669435463,11.0,267.0],["CLDN9_9080",0.17003375473344173,-2.6304315514884333,11.0,267.0],["GSTA3_2940",0.16497530230772423,-2.517638866173601,11.0,267.0],["CFHR1_3078",0.13301498587385224,-1.870088328335999,11.0,267.0],["RGMA_56963",0.19486624342764622,-3.2255455704284355,11.0,267.0],["MYRFL_196446",0.1557780511587651,-2.319814057851386,11.0,267.0],["PARD6A_50855",0.15347880842346803,-2.2718162634016945,11.0,267.0],["RTL10_79680",0.15876719463418934,-2.383083831177197,11.0,267.0],["C2orf83_56918",0.17762166634359006,-2.8049602274824434,11.0,267.0],["INO80B-WBP1_100532735",0.18727863589650146,-3.036377991290408,11.0,267.0],["TMEM63B_55362",0.14014278293596918,-2.0048411225248297,11.0,267.0],["DPH3_285381",0.19923495399124722,-3.337403232305955,11.0,267.0],["UMODL1-AS1_150147",0.15750259740835298,-2.3561965643536205,11.0,267.0],["CST9_128822",0.155088172427628,-2.3053514624255658,11.0,267.0]],"bottom":[["MND1_84057",-0.16440040660244765,-2.5049994529683715,11.0,267.0],["UBXN2B_137886",-0.14060264440581655,-2.0137241351886352,11.0,267.0],["ADD3_120",-0.15623789074818362,-2.3294832109330237,11.0,267.0],["TOMM7_54543",-0.16738966851804274,-2.5711199568423937,11.0,267.0],["MCMDC2_157777",-0.19590093144584605,-3.2518435142037143,11.0,267.0],["TCEAL8_90843",-0.14129259444541636,-2.0270948265796624,11.0,267.0],["TCHP_84260",-0.13600418163460332,-1.9259298985377584,11.0,267.0],["SMN1&SMN2_6606&6607",-0.1689996329284822,-2.607141903164158,11.0,267.0],["HSPH1_10808",-0.16692969024540733,-2.560881057124185,11.0,267.0],["SGCD_6444",-0.1545134107178504,-2.2933421513234507,11.0,267.0],["KRT78_196374",-0.16727467972900173,-2.568558160294993,11.0,267.0],["SUN1_23353",-0.1952112757249793,-3.234301606500802,11.0,267.0],["FAM198B_51313",-0.16692994664679198,-2.560886754036059,11.0,267.0],["GTF2IP4&GTF2IP1_100093631&2970",-0.13611909010954884,-1.9280958119261855,11.0,267.0],["SLC35G5_83650",-0.1547434278187176,-2.298143862761216,11.0,267.0],["SPATS1_221409",-0.16543525617957655,-2.527777576120754,11.0,267.0],["HTR1D_3352",-0.18254354169351067,-4.588356071362937,22.0,471.0],["NME1_4830",-0.15427690889126192,-3.506323856502299,22.0,471.0],["FAM157A_728262",-0.18566914622841083,-2.997083122142092,11.0,267.0],["EML4_27436",-0.15025971429114834,-2.2055917006254204,11.0,267.0],["LRIT1_26103",-0.1389936338787954,-1.9827437776202932,11.0,267.0],["CCDC50_152137",-0.14600601667652244,-2.119824123219003,11.0,267.0],["FAM74A4&FAM74A3_401508&728495",-0.14462655343630407,-2.092434592881245,11.0,267.0],["OCIAD2_132299",-0.1509495907107761,-2.219688422223228,11.0,267.0],["STIM2_57620",-0.1472706974108943,-2.1451172243400394,11.0,267.0],["C1QTNF8_390664",-0.14382161444731612,-2.0765482891539606,11.0,267.0]]}}}
{"ccle_rrbs_tss1kb":{"corr":{"top":[["SLCO3A1_15_92395937_92396937",0.20047376016073618,-8.25537272299559,34.0,797.0],["ZFAND1_8_82633539_82634539",0.15627210649026338,-4.483405770847321,29.0,671.0],["SLCO3A1_15_92396529_92397529",0.2011936734586613,-8.311089655588635,34.0,797.0]],"bottom":[["C22orf39_22_19435755_19436755",-0.08034429047158906,-1.4939177700472868,29.0,683.0],["DNMT3L_21_45682099_45683099",-0.13659081871035267,-1.6527030479661617,11.0,269.0]]},"para":{"top":[["P3H2_3_189838908_189839908",0.16101585242308541,-3.252770527235172,13.0,398.0],["GUSBP2_6_26924333_26925333",0.18572278998108807,-3.6208406667576756,11.0,344.0]],"bottom":[["TXNL1_18_54305920_54306920",-0.10328277699611407,-2.5225081305280166,25.0,684.0],["CASZ1_1_10856733_10857733",-0.09619980701723917,-1.7146792158241828,17.0,447.0],["DNMT3L_21_45682099_45683099",-0.16015820139306403,-2.4252716309621922,11.0,269.0]]}}}
{"ccle_gene_tpm":{"corr":{"top":[["RP11-331O9.5_ENSG00000220733.1",0.22046498479371524,-11.956598935763235,40.0,979.0],["OR4F1P_ENSG00000220212.1",0.21844198247089577,-11.74673837123927,40.0,979.0]],"bottom":[["RAP1A_ENSG00000116473.10",-0.10606662936667413,-3.157549392010006,40.0,979.0],["HEXA_ENSG00000213614.5",-0.13981389157248864,-5.126298883713147,40.0,979.0]]},"para":{"top":[],"bottom":[]}}}
{"ccle_rrbs_tss_clusters":{"corr":{"top":[["CD207_2",0.17929989286279618,-2.429123083844887,12.0,248.0],["IDH2_4",0.1848579649402582,-6.026026761850018,34.0,660.0],["TYRO3_4",0.2243741562612211,-4.726925133137826,15.0,342.0],["NBPF8",0.35561114892931245,-8.169048211221943,15.0,236.0],["STAG2_1",0.24379186276590117,-3.9078950247230066,13.0,230.0],["HTR1A_3",0.17525532523368412,-3.9733616894391703,18.0,466.0],["ANGPTL4_1",0.17734221498087996,-4.460326914526981,22.0,517.0]],"bottom":[["ZNF767P_3",-0.1219837800504466,-1.5091507354525586,16.0,297.0],["MIR4506_3",-0.12325334442241437,-2.311220371495779,23.0,497.0],["SGCE_2",-0.1310957982812664,-2.995575098996232,28.0,598.0],["CFAP36_1",-0.12313816571018917,-1.971127773364282,21.0,408.0],["GABARAPL1_1",-0.13661705348273723,-2.3836152522545526,22.0,417.0],["C16orf47_1",-0.1282606962130795,-2.263082722882662,23.0,445.0],["YIPF4_2",-0.1886746798851761,-6.8919071018365505,34.0,738.0]]},"para":{"top":[["ZFY",0.1782857688702256,-2.8205252723004417,13.0,265.0],["CD207_2",0.18610998141991314,-2.859983814084061,12.0,248.0],["P3H2_3",0.17154090013965867,-3.622685923358303,15.0,401.0],["TYRO3_4",0.20525145586724983,-4.266652261584509,15.0,342.0],["MBNL3_2",0.19124573618028295,-2.934019349588081,8.0,247.0],["LOC105371458_2",0.17558825259782065,-2.6762906889868323,10.0,257.0]],"bottom":[["ZNF155_3",-0.2353224491566345,-3.625616621099112,14.0,208.0],["UBR3_2",-0.25112499772917785,-3.5956484540708007,12.0,181.0],["BHMT_3",-0.0992338231570061,-1.3479560632451786,10.0,284.0]]}}}
{"ccle_rrbs_cgi_clusters":{"corr":{"top":[["15_92394013_92396847-1",0.18853818194792046,-7.426317660785552,37.0,802.0],["12_109747602_109750378-3",0.209530918177687,-4.199581971984318,19.0,340.0],["1_144591334_144596233-1",0.35561114892931245,-8.169048211221943,15.0,236.0],["15_90645581_90648164-2",0.1848579649402582,-6.026026761850018,34.0,660.0],["1_149135542_149140399-3",0.18690763413392358,-3.9903993886037172,12.0,415.0],["22_49932661_49937380-3",0.19731692508761664,-4.0487775996129,20.0,369.0],["18_74959556_74962689-3",0.1818132957392738,-6.3837583621500915,35.0,730.0],["5_167954219_167956795-2",0.18529536622378245,-3.201016530033909,18.0,319.0],["1_205425693_205428556-2",0.2148197674690306,-5.691092938329289,21.0,459.0],["23_150064792_150067482-3",0.209783099730069,-4.753924068365542,15.0,397.0],["18_55017707_55020656-3",0.21319053975119248,-3.668414130576432,13.0,284.0],["23_123091923_123096582-1",0.24379186276590117,-3.9078950247230066,13.0,230.0],["1_21752797_21755396-2",0.18741248257190413,-5.533685763830117,29.0,585.0],["1_230559103_230561903-3",0.2140009846450666,-3.57379401303236,12.0,274.0]],"bottom":[["2_55744675_55748999-1",-0.12313816571018917,-1.971127773364282,21.0,408.0],["10_81442163_81446474-3",-0.19860634814897377,-4.382001618913931,23.0,397.0],["7_94285692_94288527-1",-0.131888842528232,-2.778989451261696,25.0,541.0],["14_24783147_24787869-2",-0.20799314621704365,-2.1981423429239877,9.0,162.0],["13_111088637_111092860-3",-0.117127809006668,-3.1122223035040752,37.0,784.0],["9_130328540_130333180-1",-0.14923562661902612,-2.223343156299081,13.0,325.0],["7_149321711_149324234-2",-0.12150034200651895,-1.499761505695595,16.0,297.0],["13_111036079_111040401-2",-0.11856255479509557,-2.76571240291318,34.0,663.0],["2_32500965_32505471-2",-0.1886746798851761,-6.8919071018365505,34.0,738.0],["12_10363369_10367721-1",-0.13661705348273723,-2.3836152522545526,22.0,417.0],["19_48683723_48688085-3",-0.1460149716340309,-4.208556642414588,32.0,715.0],["3_171525617_171530458-1",-0.16572567564206717,-5.214379957706022,35.0,702.0]]},"para":{"top":[["23_131621144_131626115-2",0.19124573618028295,-2.934019349588081,8.0,247.0],["1_149135542_149140399-3",0.1707905831769657,-3.672283014423755,12.0,415.0],["12_77716453_77721440-2",0.19228741291724566,-3.713684331264073,9.0,333.0],["6_34112839_34115944-2",0.21148193295901113,-3.67209792791141,9.0,270.0],["11_44976615_44981030-2",0.1783909488846448,-2.471464436809705,9.0,223.0],["5_5301263_5305489-3",0.17929697147266088,-2.5979760724020577,9.0,237.0],["18_55017707_55020656-3",0.2189973656963968,-4.081401300994826,13.0,284.0],["1_230559103_230561903-3",0.1763507072435084,-2.834586638662159,12.0,274.0],["18_77204921_77209546-3",0.14731276596164175,-2.714125102076211,12.0,374.0],["3_189836080_189840879-3",0.17154090013965867,-3.622685923358303,15.0,401.0]],"bottom":[["8_974015_978416-2",-0.10883563413688839,-1.3036242261011346,8.0,223.0],["14_24783147_24787869-2",-0.2373650342554928,-3.0016958522637456,9.0,162.0],["7_139165480_139168096-3",-0.11391171340144265,-1.3212242001428596,8.0,208.0],["2_170681860_170686629-1",-0.25112499772917785,-3.5956484540708007,12.0,181.0],["1_205236112_205240546-2",-0.18271598124013302,-3.6002252664848204,15.0,349.0]]}}}
