{"ccle_chromatin":{"corr":{"top":[],"bottom":[]},"para":{"top":[],"bottom":[]}}}
{"ccle_rppa":{"corr":{"top":[["CDKN1B_p27",0.11315903663929353,-3.169981674134715,21.0,878.0]],"bottom":[["NF2_NF2_Caution",-0.10364710661426302,-2.730522994912652,21.0,878.0]]},"para":{"top":[["CDKN1B_p27",0.10726699185925236,-3.1841020377286258,21.0,878.0]],"bottom":[["NF2_NF2_Caution",-0.10119421201036206,-2.9155700215729,21.0,878.0]]}}}
{"ccle_metabolomics":{"corr":{"top":[],"bottom":[]},"para":{"top":[],"bottom":[]}}}
{"ccle_rrbs_enhancer_clusters":{"corr":{"top":[["20-21486551-21489286-1_enh",0.11191966435281603,-2.9334741557969553,19.0,820.0]],"bottom":[]},"para":{"top":[["23-139170462-139173545-1_enh",0.1274452349014762,-2.883215259280562,10.0,549.0],["20-21486551-21489286-1_enh",0.12068685732693636,-3.6222539682764396,19.0,820.0],["18-72505962-72509128-1_enh",0.10361900978011526,-2.547243958779782,13.0,701.0]],"bottom":[["10-131446736-131449685-0_enh",-0.0873465456441626,-2.0610417607342724,15.0,728.0]]}}}
{"ccle_mirna":{"corr":{"top":[],"bottom":[]},"para":{"top":[],"bottom":[]}}}
{"prism_primary_logfold":{"corr":{"top":[["salinomycin_BRD-A28301258-001-04-8::2.5::HTS",0.12423577551507811,-2.3679614158728444,13.0,514.0],["atomoxetine_BRD-K20141153-003-13-7::2.5::HTS",0.10473190350201446,-1.8675419069482095,13.0,542.0],["estradiol-benzoate_BRD-A74765037-001-01-1::2.5::HTS",0.09549582865281665,-1.6115189394414708,13.0,542.0],["IKK-2-inhibitor-V_BRD-K74305673-001-06-2::2.5::HTS",0.1138386996318424,-2.1231069632357027,13.0,537.0],["gossypol_BRD-K19295594-015-14-3::2.29::HTS",0.10623904420728872,-1.833049793899854,13.0,514.0],["metazosin_BRD-A78277353-001-01-9::2.492599937::MTS004",0.10709634335726954,-1.8937754315695394,13.0,527.0],["mibefradil_BRD-K09549677-300-03-4::2.5::HTS",0.10947173203800845,-1.9504932379171773,10.0,526.0],["cintriamide_BRD-K24507548-001-01-8::2.5::HTS",0.09901622073363048,-1.7190879485983397,13.0,547.0],["vancomycin_BRD-K91065602-003-05-5::2.5::HTS",0.11174275317238574,-2.04117536697341,12.0,532.0],["doramectin_BRD-A16350940-001-01-9::2.5::HTS",0.12234290670714545,-2.409516685612521,13.0,542.0],["idebenone_BRD-K37516142-001-10-5::2.5::HTS",0.11507923945871971,-2.1773295413857383,13.0,542.0],["rubitecan_BRD-K79821389-001-03-5::2.562009205::MTS004",0.12481630201059993,-2.4314452427492856,13.0,526.0],["decamethonium_BRD-K49783248-303-08-4::2.5::HTS",0.10180018586701434,-1.7867722033962092,13.0,543.0],["C646_BRD-K73383190-001-02-3::2.56::HTS",0.10647231767312532,-1.8395332083009714,13.0,514.0],["narasin_BRD-A25608658-001-01-1::2.5::HTS",0.14732803129168628,-3.3081758547312057,13.0,543.0],["tiludronate_BRD-K10845183-304-01-6::2.5::HTS",0.14293369537309505,-3.0481494243705933,11.0,526.0],["zafirlukast_BRD-K71289571-001-11-4::2.5::HTS",0.11150786880213824,-2.0767533514902476,13.0,545.0],["rifampin_BRD-K01507359-001-22-9::2.5::HTS",0.1005202369811956,-1.6777522809146284,13.0,514.0],["PP-1_BRD-K47598052-001-15-8::2.5::HTS",0.1039723106957307,-1.824343232694382,13.0,534.0],["cisapride_BRD-A12896037-001-04-3::2.5::HTS",0.11445767900040346,-2.100561005538306,11.0,526.0],["BI-2536_BRD-K64890080-001-13-8::2.5::HTS",0.1141314819073105,-2.1320713278411962,13.0,537.0],["baclofen-(R)_BRD-K62353271-001-04-7::2.5::HTS",0.1131134382689668,-1.9536539569718416,12.0,491.0],["satraplatin_BRD-K42497885-001-01-1::2.5::HTS",0.10367503851818427,-1.8079671871695995,12.0,532.0],["clioquinol_BRD-K09255212-001-16-6::2.5::HTS",0.1320687284837187,-2.6647794981399144,11.0,526.0],["vinblastine_BRD-K06519765-001-01-1::2.5::MTS004",0.1150665427186947,-2.1285880325930098,13.0,527.0],["dextran_BRD-K67117832-001-01-9::2.5::MTS004",0.12796633544841188,-2.5349363061194032,13.0,526.0],["potassium-p-aminobenzoate_BRD-K58497451-237-10-7::2.5::HTS",0.11995452601468054,-2.3318193935945373,13.0,542.0],["zibotentan_BRD-K31553034-001-03-0::2.5::HTS",0.10583199103978469,-1.9020800752142473,13.0,543.0],["diphencyprone_BRD-K51730347-001-06-4::2.5::MTS004",0.1141417177322436,-2.100615440410498,13.0,527.0],["topotecan_BRD-K55696337-003-24-4::2.50001813::MTS004",0.11124698015327178,-2.014295082235227,13.0,527.0],["SB-756050_BRD-K45168550-001-01-9::2.5::HTS",0.09686208840183834,-1.6364068243626018,13.0,537.0]],"bottom":[["RHC-80267_BRD-K56047318-001-06-3::2.5::HTS",-0.1311525469361841,-2.6953405342805192,13.0,539.0],["synephrine_BRD-A04327189-003-03-3::2.5::HTS",-0.10395615148828428,-1.797077845930451,11.0,526.0],["L-798,106_BRD-K43905307-001-01-2::2.5::HTS",-0.12074851129460058,-2.251700903543894,10.0,515.0],["isoflurane_BRD-A31564021-001-01-8::2.5::HTS",-0.12029989418580399,-2.237897238073265,13.0,512.0],["DUP-697_BRD-K06221026-001-06-8::2.5::HTS",-0.16939164019904124,-4.2378523209088685,13.0,545.0],["MK-0812_BRD-K14175878-001-01-6::2.5::HTS",-0.1127731442948028,-2.050239325355859,11.0,526.0],["dazoxiben_BRD-K82767007-001-01-1::2.5::HTS",-0.12640213043454482,-2.5024538943105563,12.0,532.0],["tilmicosin_BRD-K26634012-001-04-9::2.5::HTS",-0.13046095388483017,-2.6388562953215624,12.0,532.0],["ML-9_BRD-K68402494-003-03-5::2.5::HTS",-0.10390166048676114,-1.8464139399174386,13.0,543.0],["PSB-11_BRD-K10177585-003-02-4::2.5::HTS",-0.11856298916992558,-2.276954628498773,12.0,540.0],["articaine_BRD-A70514680-003-11-2::2.5::HTS",-0.12490541844244941,-2.4531121605250896,12.0,532.0],["sphingosylphosphorylcholine_BRD-A35379661-001-04-6::2.5::HTS",-0.09771234510750029,-1.6448758980599048,12.0,532.0],["firocoxib_BRD-K09090523-001-02-1::2.5::HTS",-0.11826814841590125,-2.281144077183215,13.0,543.0],["nicotinyl-alcohol-tartrate_BRD-K76600340-045-04-9::2.5::HTS",-0.09847251039887238,-1.6919420208371616,13.0,542.0],["AMPA-(S)_BRD-K92493880-001-03-0::2.5::HTS",-0.10659182099048052,-1.9354138633365197,13.0,547.0],["benzydamine_BRD-K28542495-003-13-5::2.5::HTS",-0.1603673333567257,-3.763022709146879,12.0,532.0],["ZD-7155_BRD-K11373525-003-02-1::2.5::HTS",-0.10951276705670408,-2.0076351821016742,13.0,542.0],["telmesteine_BRD-A05523972-001-01-5::2.5::HTS",-0.10377288749873352,-1.840064705968021,13.0,542.0],["niguldipine-(S)-(+)_BRD-K59333713-003-02-0::2.5::HTS",-0.12212772479444374,-2.4024620426801753,13.0,542.0],["oxatomide_BRD-K02079473-001-01-3::2.5::HTS",-0.12846067637475225,-2.614619424002303,13.0,542.0],["isamoltane_BRD-A26845397-051-01-9::2.5::HTS",-0.11262353279859029,-2.107779143561305,13.0,544.0],["DMeOB_BRD-K36775483-001-01-4::2.5::HTS",-0.12365688129295486,-2.4417945307599465,13.0,539.0],["BMS-626529_BRD-K97883416-001-01-4::2.5::HTS",-0.12954588793808403,-2.5434367977780883,13.0,515.0],["pazufloxacin_BRD-K66412701-066-01-6::2.5::HTS",-0.11353553346714701,-2.145255184649087,13.0,547.0],["amantadine_BRD-K70330367-003-07-9::2.5::HTS",-0.1225428771489134,-2.426928613329369,13.0,545.0],["N-methylquipazine_BRD-K62056274-332-01-8::2.5::HTS",-0.13229222879412242,-2.7684095805554354,13.0,547.0],["hordenine_BRD-K93631643-001-02-4::2.5::HTS",-0.11784687683645088,-2.254261839228104,12.0,540.0]]},"para":{"top":[["salinomycin_BRD-A28301258-001-04-8::2.5::HTS",0.11322187723236068,-2.3261744927294097,13.0,514.0],["IKK-2-inhibitor-V_BRD-K74305673-001-06-2::2.5::HTS",0.10301008799142974,-2.101440408356184,13.0,537.0],["gossypol_BRD-K19295594-015-14-3::2.29::HTS",0.10268779002202953,-2.032379597672128,13.0,514.0],["mibefradil_BRD-K09549677-300-03-4::2.5::HTS",0.11192408678208933,-2.3160692406751706,10.0,526.0],["CX-4945_BRD-K81458380-001-04-9::2.5::HTS",0.10371808772901799,-2.0866318386173313,11.0,526.0],["hydroxyprogesterone-acetate_BRD-K92902018-001-01-9::2.507952536::MTS004",0.11594510888959318,-2.4482198243590725,13.0,527.0],["cyt387_BRD-K87737963-001-06-0::2.5::HTS",0.10648775305550214,-2.2165201734893514,13.0,543.0],["litronesib_BRD-K83029223-001-01-3::2.500025378::MTS004",0.11292866320646414,-2.3549326301519717,13.0,526.0],["doramectin_BRD-A16350940-001-01-9::2.5::HTS",0.10640616818678139,-2.2113827962858172,13.0,542.0],["SB-218795_BRD-K61097567-001-08-5::2.5::HTS",0.10056015001203031,-2.0336954979567525,13.0,537.0],["dabigatran_BRD-K38168441-001-03-7::2.422985058::MTS004",0.10445697638279576,-2.1124658563695506,13.0,526.0],["equol_BRD-K54847683-001-03-2::2.5::HTS",0.10924079806413498,-2.2386466163045537,11.0,525.0],["idebenone_BRD-K37516142-001-10-5::2.5::HTS",0.1317622406877171,-3.01494749405976,13.0,542.0],["rubitecan_BRD-K79821389-001-03-5::2.562009205::MTS004",0.10877061286419647,-2.2340149558144757,13.0,526.0],["narasin_BRD-A25608658-001-01-1::2.5::HTS",0.1398949754241439,-3.3076820685878667,13.0,543.0],["C646_BRD-K73383190-001-02-3::2.56::HTS",0.10550219513476707,-2.108617183313956,13.0,514.0],["acadesine_BRD-K53448858-001-07-0::2.5::HTS",0.10105594842604296,-1.9838368689846904,13.0,512.0],["TG-100713_BRD-K46392623-001-02-5::2.5::HTS",0.11322562622102979,-2.429025173645829,13.0,547.0],["rifampin_BRD-K01507359-001-22-9::2.5::HTS",0.10103927585679745,-1.9884844785349736,13.0,514.0],["PP-1_BRD-K47598052-001-15-8::2.5::HTS",0.10337149405845772,-2.103629001415325,13.0,534.0],["zafirlukast_BRD-K71289571-001-11-4::2.5::HTS",0.11586800695221586,-2.504284771404517,13.0,545.0],["demecarium_BRD-K51471001-303-04-7::2.5::HTS",0.10442580251987835,-2.1465078269616313,12.0,540.0],["SDZ-220-581_BRD-K27168049-001-02-8::2.5::HTS",0.10320006458102585,-2.101487523924355,13.0,535.0],["exalamide_BRD-K12609457-001-03-1::2.5::HTS",0.11652382562180312,-2.455795854622269,11.0,526.0],["irinotecan_BRD-K08547377-394-03-5::2.5::HTS",0.10045307491095144,-1.9980643552389656,11.0,526.0],["BI-2536_BRD-K64890080-001-13-8::2.5::HTS",0.11039757788860811,-2.3135911592566267,13.0,537.0],["UNNAMED_BRD-K28042756-001-01-9::5::HTS",0.09727280434262014,-1.9139501541291692,11.0,526.0],["baclofen-(R)_BRD-K62353271-001-04-7::2.5::HTS",0.11941813517714629,-2.4270222469099827,12.0,491.0],["satraplatin_BRD-K42497885-001-01-1::2.5::HTS",0.11496404874759733,-2.431434058612116,12.0,532.0],["L-655,708_BRD-K13474508-001-01-2::2.5::HTS",0.11231977532963304,-2.3707393538642303,13.0,537.0],["clioquinol_BRD-K09255212-001-16-6::2.5::HTS",0.11800792633760392,-2.5008392922812894,11.0,526.0],["vinblastine_BRD-K06519765-001-01-1::2.5::MTS004",0.10362205207982976,-2.0920500605363306,13.0,527.0],["abiraterone-acetate_BRD-K24048528-001-02-5::2.5::HTS",0.0970433398924423,-1.8440092764972325,11.0,499.0],["potassium-p-aminobenzoate_BRD-K58497451-237-10-7::2.5::HTS",0.11558938012566937,-2.4859426521079286,13.0,542.0],["ramifenazone_BRD-K85333151-003-13-4::2.5::HTS",0.13115291869621643,-2.9204666591145485,11.0,526.0],["molidustat_BRD-K01291782-001-01-1::2.50002964::MTS004",0.10162017480405247,-2.0346827501385403,13.0,526.0],["zibotentan_BRD-K31553034-001-03-0::2.5::HTS",0.09684746136147224,-1.947573075277153,13.0,543.0],["diphencyprone_BRD-K51730347-001-06-4::2.5::MTS004",0.12071154361629793,-2.5947193613998247,13.0,527.0],["colforsin_BRD-A55416093-001-06-4::2.5::MTS004",0.10212536701115388,-2.0484101229519664,13.0,526.0],["topotecan_BRD-K55696337-003-24-4::2.50001813::MTS004",0.11567389321732655,-2.4400309570129455,13.0,527.0],["SB-756050_BRD-K45168550-001-01-9::2.5::HTS",0.11770963175493714,-2.5352938355997883,13.0,537.0],["E-2012_BRD-K50564936-001-01-6::2.5::HTS",0.10040935439017513,-2.0295680740520448,13.0,537.0]],"bottom":[["RHC-80267_BRD-K56047318-001-06-3::2.5::HTS",-0.12996012799468692,-2.9410974820485785,13.0,539.0],["dimesna_BRD-K30126819-304-02-7::2.5::HTS",-0.10956373364346865,-2.3095463599431545,13.0,544.0],["L-798,106_BRD-K43905307-001-01-2::2.5::HTS",-0.106794267475794,-2.13839574259517,10.0,515.0],["isoflurane_BRD-A31564021-001-01-8::2.5::HTS",-0.11565426430830897,-2.3908093914168167,13.0,512.0],["medetomidine_BRD-A21607826-003-05-1::2.5::HTS",-0.09626125451750137,-1.9225925303336644,13.0,539.0],["CRT0044876_BRD-K02816415-001-01-9::2.5::HTS",-0.11403797876903372,-2.4445487149694025,13.0,544.0],["DUP-697_BRD-K06221026-001-06-8::2.5::HTS",-0.14415277393822415,-3.474458552365977,13.0,545.0],["tilmicosin_BRD-K26634012-001-04-9::2.5::HTS",-0.10547999711220042,-2.154588771682816,12.0,532.0],["zalcitabine_BRD-K85925969-001-17-4::2.5::HTS",-0.11217460133665488,-2.3479948467584832,12.0,532.0],["ML-9_BRD-K68402494-003-03-5::2.5::HTS",-0.1144223895142151,-2.4531876554102716,13.0,543.0],["PSB-11_BRD-K10177585-003-02-4::2.5::HTS",-0.11187080734020138,-2.3633584693033245,12.0,540.0],["saclofen_BRD-A24122750-001-03-7::2.5::HTS",-0.11706264751069796,-2.544928872465626,13.0,546.0],["articaine_BRD-A70514680-003-11-2::2.5::HTS",-0.12727735113156174,-2.819949082696953,12.0,532.0],["sorbinil_BRD-A89164055-001-03-3::2.5::HTS",-0.10024544761441322,-2.042548429808636,13.0,544.0],["protriptyline_BRD-K42098891-003-20-5::2.5::HTS",-0.10986337644787002,-2.280133491199261,12.0,532.0],["AMPA-(S)_BRD-K92493880-001-03-0::2.5::HTS",-0.09899446991497882,-2.015463111188005,13.0,547.0],["benzydamine_BRD-K28542495-003-13-5::2.5::HTS",-0.13134205038587482,-2.9554702594399784,12.0,532.0],["ZD-7155_BRD-K11373525-003-02-1::2.5::HTS",-0.11607270250458847,-2.5009085361913086,13.0,542.0],["mdivi-1_BRD-K61128465-001-09-9::2.5::HTS",-0.0998756867983134,-2.0323463666783965,13.0,544.0],["rifaximin_BRD-K92838188-001-01-9::2.5::HTS",-0.12767254816614088,-2.8756622505638427,13.0,542.0],["matrine_BRD-K25312248-001-01-5::2.5::HTS",-0.0910948116363207,-1.7882606922700492,12.0,540.0],["niguldipine-(S)-(+)_BRD-K59333713-003-02-0::2.5::HTS",-0.1348108942651388,-3.1212180614912532,13.0,542.0],["nateglinide_BRD-K44353683-001-08-3::2.5::HTS",-0.09735084827004259,-1.9326489487473475,12.0,532.0],["S-14506_BRD-K46766488-003-02-0::2.5::HTS",-0.09832291241218845,-1.9777843583083399,13.0,539.0],["cefaclor_BRD-K20338176-001-17-7::2.5::HTS",-0.11112789932666838,-2.350232707782483,13.0,542.0],["isamoltane_BRD-A26845397-051-01-9::2.5::HTS",-0.12350415350671484,-2.7448322404794183,13.0,544.0],["DMeOB_BRD-K36775483-001-01-4::2.5::HTS",-0.1155284787798154,-2.474387106639896,13.0,539.0],["BMS-626529_BRD-K97883416-001-01-4::2.5::HTS",-0.1445699528452924,-3.343432579983164,13.0,515.0],["pazufloxacin_BRD-K66412701-066-01-6::2.5::HTS",-0.11700348557996255,-2.546366070117719,13.0,547.0],["amantadine_BRD-K70330367-003-07-9::2.5::HTS",-0.12180523029010523,-2.693018727479918,13.0,545.0],["N-methylquipazine_BRD-K62056274-332-01-8::2.5::HTS",-0.11902080128793421,-2.6103311707580055,13.0,547.0]]}}}
{"prism_secondary_logfold":{"corr":{"top":[["nemorubicin_BRD-K51911221-001-01-2::0.0024414::HTS002",0.14406204225350527,-2.7642032556990417,11.0,460.0],["AM-580_BRD-K06854232-001-19-9::0.00976562::HTS002",0.14131162398858324,-2.343957179772325,11.0,391.0],["nadide_BRD-A11132253-001-08-2::0.00976562::HTS002",0.17489790167534047,-3.499706807973293,9.0,411.0],["carboplatin_BRD-K90947825-001-02-7::0.625::HTS002",0.15806864089120518,-3.216567112882047,11.0,456.0],["ZSTK-474_BRD-K63068307-001-08-9::10::HTS002",0.15795404191476375,-3.2361185974831033,11.0,460.0],["cyclophosphamide_BRD-A09722536-002-18-0::0.00061034::HTS002",0.16338786719544604,-2.587230114154939,9.0,329.0],["baicalin_BRD-K49962337-001-02-9::10.238::HTS002",0.15192573200996637,-2.8948683702865994,11.0,436.0],["ambazone_BRD-K11244467-001-08-5::2.5::HTS002",0.14117963551437054,-2.547006470482904,8.0,437.0],["fluorometholone_BRD-A13133631-001-04-0::0.00061034::HTS002",0.14338122470614215,-2.6240738441830764,11.0,436.0],["AZD2014_BRD-K99113996-001-02-0::0.00244::MTS010::PROS001_PR500",0.15662085084201938,-3.119464597833502,11.0,448.0],["cetylpyridinium_BRD-K87700323-003-05-1::0.15625::HTS002",0.14005120411670405,-2.6164944049781327,10.0,457.0],["XL388_BRD-K03549949-001-01-0::0.15625::HTS002",0.1549797298847579,-2.995095370580904,8.0,439.0],["methotrexate_BRD-A55424491-001-19-9::0.0024414::HTS002",0.16637775046125608,-2.667872927544793,9.0,329.0],["CH5132799_BRD-K28352084-001-02-3::0.15625::HTS002",0.15171300941383417,-2.6405202804011934,11.0,391.0],["benzocaine_BRD-K75466013-001-14-4::0.00061034::HTS002",0.19522608405878022,-3.5151619703467154,9.0,329.0],["indirubin_BRD-K17894950-001-14-3::0.00061034::HTS002",0.14916933902175883,-2.9330960166812745,11.0,460.0],["BGT226_BRD-K29415052-050-04-8::0.625::HTS002",0.13977978653057865,-2.5141493920792803,8.0,439.0],["5-hydroxymethyl-tolterodine_BRD-K24603946-001-02-1::2.5::HTS002",0.15279163127692827,-2.672346603653407,11.0,391.0],["JTC-801_BRD-K17705806-003-04-4::0.0390625::HTS002",0.15398786045614488,-3.0973367702458336,11.0,460.0],["saracatinib_BRD-K19540840-001-09-4::0.0024414::HTS002",0.16615099908650305,-3.5333129590030268,11.0,460.0],["clocortolone-pivalate_BRD-K38003476-001-09-1::0.0024414::HTS002",0.16629291917540023,-2.4723027981669734,8.0,301.0],["saracatinib_BRD-K19540840-001-09-4::10::HTS002",0.14384978376691504,-2.757299112308428,11.0,460.0],["ciprofibrate_BRD-A49358627-001-14-6::2.5::HTS002",0.16927121590106964,-3.312835554481059,9.0,412.0],["naproxen_BRD-K59197931-001-04-5::0.00976562::HTS002",0.15285571726805508,-2.567687963612293,11.0,372.0],["amprolium_BRD-K90027121-003-01-7::0.15625::HTS002",0.14631308567519644,-2.7971751448357898,11.0,452.0],["narasin_BRD-A25608658-001-01-1::10::HTS002",0.14607214456551995,-2.8046175068240022,11.0,455.0],["ponatinib_BRD-K44227013-001-06-4::2.5::MTS010::PROS003_PR500",0.1627107194362945,-3.3257437096750166,11.0,447.0],["BAY-11-7082_BRD-K15025317-001-15-1::10::HTS002",0.14769970097097562,-2.837211719304639,11.0,451.0],["monensin_BRD-A06627858-236-03-0::2.5::HTS002",0.16184446181309683,-2.5334910341971004,9.0,327.0],["monobenzone_BRD-K54262262-001-09-0::10::HTS002",0.16191377159713055,-2.5479578158676106,9.0,329.0],["propranolol_BRD-A10070317-003-28-3::2.5::HTS002",0.14146655478760456,-2.4401188278268937,9.0,412.0],["methotrexate_BRD-A55424491-001-19-9::2.5::HTS002",0.15166136685334905,-2.12084463499941,8.0,301.0],["ZSTK-474_BRD-K63068307-001-08-9::0.625::HTS002",0.16282143203265706,-3.410900344411039,11.0,460.0],["RS-67506_BRD-K50018155-003-02-1::10::HTS002",0.16204015217455722,-2.9536041943787477,11.0,391.0],["dacinostat_BRD-K56957086-001-06-3::10::HTS002",0.1453217832114179,-2.7852267486411963,10.0,457.0],["buparlisib_BRD-K42191735-001-05-3::0.15625::HTS002",0.16800777879756387,-3.429956874293094,8.0,437.0],["PI-103_BRD-K67868012-001-07-6::10::HTS002",0.15027453986814246,-2.9542566704463096,10.0,458.0],["darapladib_BRD-K19085898-001-01-8::0.0024414::HTS002",0.14008391475229026,-2.617524411316801,10.0,457.0],["itraconazole_BRD-A23067620-300-01-3::2.5::HTS002",0.15443532897947104,-2.8124264418354263,10.0,408.0],["PF-04691502_BRD-K07310275-001-02-5::0.625::HTS002",0.14655600430328386,-2.7230418694512104,11.0,436.0],["neratinib_BRD-K85606544-001-09-1::0.0024414::HTS002",0.15321907711297314,-3.0708122468637296,11.0,460.0],["GDC-0941_BRD-K52911425-001-09-8::0.15625::HTS002",0.1512148651618438,-2.9913831423677073,11.0,458.0],["clocortolone-pivalate_BRD-K38003476-001-09-1::0.0390625::HTS002",0.14961226462264843,-2.0738943122342315,8.0,301.0],["difluprednate_BRD-K33720171-001-01-0::10::HTS002",0.19987185281233716,-4.897184085214061,11.0,459.0],["tryptanthrin_BRD-K76973696-001-12-6::8.05684::HTS002",0.14343965572977968,-2.763626364734236,11.0,464.0],["IDRA-21_BRD-A14344385-001-03-2::10::HTS002",0.18307359696832534,-3.6815129815957586,8.0,398.0],["levobunolol_BRD-K31812033-003-11-0::10::HTS002",0.1495106483750987,-2.8168958927561913,11.0,436.0],["narasin_BRD-A25608658-001-01-1::2.5::MTS006",0.16643430163131798,-3.5308130647827944,11.0,458.0],["chicago-sky-blue-6b_BRD-K56483981-342-06-4::10::HTS002",0.16070088731205617,-3.3341472788703372,11.0,460.0],["homoquinolinic-acid_BRD-K30519779-001-03-1::10::HTS002",0.14155832147914948,-2.572933965713888,10.0,438.0],["sunitinib_BRD-K42828737-001-03-3::10::MTS010::PROS001_PR500",0.142283303196094,-2.164266959634259,9.0,351.0],["frentizole_BRD-K07202345-001-19-4::10::HTS002",0.1400453427598452,-2.6679572814970287,11.0,467.0],["xanomeline_BRD-K72815923-034-01-2::0.0024414::HTS002",0.14194943321230077,-2.695893716008478,11.0,460.0],["saracatinib_BRD-K19540840-001-09-4::0.15625::HTS002",0.15169499509751727,-3.0185884391729614,11.0,460.0],["narasin_BRD-A25608658-001-01-1::10::MTS006",0.1803222635744349,-4.065346678546944,11.0,458.0],["VU0361737_BRD-K45462423-001-03-7::10::HTS002",0.18128971596708232,-4.073400148970431,11.0,454.0],["ZSTK-474_BRD-K63068307-001-08-9::0.00061034::HTS002",0.1458219017042358,-2.8217992123783433,11.0,460.0],["trolox_BRD-A17846016-001-13-9::0.15625::HTS002",0.15483315232405562,-2.967464092676496,11.0,432.0],["clocortolone-pivalate_BRD-K38003476-001-09-1::0.625::HTS002",0.14256550881568247,-1.9166357052723095,8.0,301.0],["salinomycin_BRD-A28301258-001-03-0::2.5::HTS002",0.13972915998795554,-2.507926371368616,11.0,435.0],["brefeldin-a_BRD-K77841042-001-14-1::0.00976562::HTS002",0.14407271102626953,-2.764550521076319,11.0,460.0]],"bottom":[["aztreonam_BRD-K62607865-001-09-7::0.00256225::HTS002",-0.11519703880449104,-1.9146064242149647,11.0,462.0],["motesanib_BRD-K99616396-001-05-1::0.00061::MTS010::PROS005_PR500",-0.13249763097529693,-2.367395810765041,11.0,452.0],["CHIR-98014_BRD-K42973005-001-04-0::2.5::HTS002",-0.1520757386474961,-2.998672708110161,11.0,454.0],["acesulfame-potassium_BRD-K50850824-237-04-8::0.00244141::HTS002",-0.10222089810444732,-1.589464921300582,11.0,465.0],["nitrocaramiphen_BRD-K28453807-003-11-2::0.0390625::HTS002",-0.10741504744326802,-1.6821039969589984,11.0,452.0],["CP-724714_BRD-K76908866-001-07-6::2.5::MTS010::PROS002_PR500",-0.12281862550792119,-1.9962038476685744,11.0,427.0],["nafcillin_BRD-K18574842-236-17-7::0.00061034::HTS002",-0.1428772877740296,-2.362717193726487,10.0,387.0],["oxiracetam_BRD-K50677762-001-01-5::0.0024414::HTS002",-0.12298086022321003,-2.1300754399988984,11.0,462.0],["afatinib_BRD-K66175015-001-12-4::0.00061::MTS010::PROS003_PR500",-0.16274592078695285,-3.326991471375703,11.0,447.0],["oxazepam_BRD-A50049929-001-01-9::0.625::HTS002",-0.11671080371361711,-1.6986462848704025,10.0,387.0]]},"para":{"top":[["nemorubicin_BRD-K51911221-001-01-2::0.0024414::HTS002",0.15080028733583925,-3.2665925420619724,11.0,460.0],["nadide_BRD-A11132253-001-08-2::0.00976562::HTS002",0.18070401791250337,-3.963158377804525,9.0,411.0],["ZSTK-474_BRD-K63068307-001-08-9::10::HTS002",0.1729783753125584,-4.051663680857548,11.0,460.0],["palbociclib_BRD-K51313569-003-03-3::2.5::HTS002",0.14472035023789553,-2.8193362246713196,9.0,412.0],["PF-573228_BRD-K79239947-001-06-8::0.15625::HTS002",0.16082491820443248,-3.5916456495830453,11.0,457.0],["tanaproget_BRD-K99604664-001-01-1::0.625::HTS002",0.14641446517913234,-3.1124120156626662,11.0,458.0],["TG-101209_BRD-K39841531-001-02-1::10::HTS002",0.14714916852838109,-3.1668042267642074,11.0,464.0],["PR-619_BRD-K54395039-001-01-7::10::HTS002",0.1338429213636596,-2.6266305317042744,8.0,439.0],["benzocaine_BRD-K75466013-001-14-4::0.00061034::HTS002",0.15547980993536534,-2.6637738811842975,9.0,329.0],["methotrexate_BRD-A55424491-001-19-9::0.0024414::HTS002",0.15830500333213152,-2.735183192845289,9.0,329.0],["ribociclib_BRD-K36788280-001-01-2::10::HTS002",0.1431400557660627,-2.9978836914837537,10.0,457.0],["XL388_BRD-K03549949-001-01-0::0.15625::HTS002",0.15626982129261774,-3.313871445286001,8.0,439.0],["xilobam_BRD-K79633074-001-01-8::10::HTS002",0.12965819533454548,-2.5084021142596855,8.0,439.0],["gastrodin_BRD-K81613478-001-01-8::0.0024414::HTS002",0.13962886142522274,-2.8882525157359984,10.0,457.0],["I-BET-762_BRD-K08109215-001-06-4::0.0024414::HTS002",0.1341697242592536,-2.635995238033194,8.0,439.0],["nanchangmycin_BRD-A73871920-236-03-6::0.625::HTS002",0.148871427485403,-3.1871335104121865,11.0,457.0],["BGT226_BRD-K29415052-050-04-8::0.625::HTS002",0.14842391698281907,-3.0631188013062562,8.0,439.0],["saracatinib_BRD-K19540840-001-09-4::0.0024414::HTS002",0.14640614759819234,-3.122253619044193,11.0,460.0],["PQ-401_BRD-K67537649-001-04-5::10::HTS002",0.1499948455314398,-3.1922392861259006,11.0,451.0],["JTC-801_BRD-K17705806-003-04-4::0.0390625::HTS002",0.15555643356409765,-3.4269857982833676,11.0,460.0],["saracatinib_BRD-K19540840-001-09-4::10::HTS002",0.14873259760642604,-3.19821345788952,11.0,460.0],["AZD3463_BRD-K24593301-001-02-3::0.000621279::HTS002",0.14701173253599856,-3.1011555593696665,11.0,452.0],["ciprofibrate_BRD-A49358627-001-14-6::2.5::HTS002",0.18458260931928133,-4.108105682799474,9.0,412.0],["2'-MeCCPA_BRD-K63932022-001-01-5::0.625::HTS002",0.14376684161645445,-2.9246583476183345,10.0,438.0],["CEP-33779_BRD-K37237504-001-02-7::10::HTS002",0.1308351141881912,-2.5413368210939282,8.0,439.0],["propoxycaine_BRD-K18250272-003-11-0::2.5::HTS002",0.1411394898867746,-2.716836060743151,9.0,412.0],["buparlisib_BRD-K42191735-001-05-3::10::HTS002",0.14827026819389827,-3.053124820522273,8.0,438.0],["monensin_BRD-A06627858-236-03-0::10::MTS006",0.1548955457170356,-3.3932074963741488,11.0,458.0],["ponatinib_BRD-K44227013-001-06-4::2.5::MTS010::PROS003_PR500",0.18110353811321914,-4.264969953230565,11.0,447.0],["floxuridine_BRD-K47832606-001-30-1::2.5::HTS002",0.15500063068431244,-3.346127522917122,11.0,449.0],["monensin_BRD-A06627858-236-03-0::2.5::HTS002",0.1744622786586006,-3.150079736220892,9.0,327.0],["PR-619_BRD-K54395039-001-01-7::0.00976562::HTS002",0.13554161102541742,-2.666713699827655,8.0,437.0],["propranolol_BRD-A10070317-003-28-3::2.5::HTS002",0.1710699800829647,-3.640682501779232,9.0,412.0],["lanoconazole_BRD-A54275602-001-01-0::0.00244141::HTS002",0.1567982700663786,-2.6969646131256773,9.0,329.0],["methotrexate_BRD-A55424491-001-19-9::2.5::HTS002",0.16551818467532967,-2.7330512167901975,8.0,301.0],["ZSTK-474_BRD-K63068307-001-08-9::0.625::HTS002",0.16377620391841968,-3.714422317727602,11.0,460.0],["RS-67506_BRD-K50018155-003-02-1::10::HTS002",0.17896105882626093,-3.7689355957200457,11.0,391.0],["dacinostat_BRD-K56957086-001-06-3::10::HTS002",0.15257711425976328,-3.3040812517136358,10.0,457.0],["buparlisib_BRD-K42191735-001-05-3::0.15625::HTS002",0.16720527856402842,-3.6690266529811963,8.0,437.0],["PI-103_BRD-K67868012-001-07-6::10::HTS002",0.1470532680607985,-3.1279067013399158,10.0,458.0],["OSI-420_BRD-K73309154-003-02-8::0.00061034::HTS002",0.1468195893914255,-3.1356772295962374,11.0,460.0],["xilobam_BRD-K79633074-001-01-8::2.5::HTS002",0.14446492126648913,-2.935868966241416,8.0,438.0],["itraconazole_BRD-A23067620-300-01-3::2.5::HTS002",0.1602333607680549,-3.2705553682705313,10.0,408.0],["GDC-0941_BRD-K52911425-001-09-8::0.15625::HTS002",0.1605147781348051,-3.586811021318078,11.0,458.0],["practolol_BRD-A41304429-001-14-8::0.00061034::HTS002",0.15466604410984505,-2.476232049781162,8.0,301.0],["clocortolone-pivalate_BRD-K38003476-001-09-1::0.0390625::HTS002",0.15752178472304193,-2.5424051473379503,8.0,301.0],["difluprednate_BRD-K33720171-001-01-0::10::HTS002",0.17835851396640617,-4.249100190282782,11.0,459.0],["IDRA-21_BRD-A14344385-001-03-2::10::HTS002",0.16512116191326928,-3.3490026368351193,8.0,398.0],["MK-8745_BRD-K25279140-001-01-5::2.5::HTS002",0.1371774921374013,-2.7230824067905885,8.0,439.0],["levobunolol_BRD-K31812033-003-11-0::10::HTS002",0.1533084011245209,-3.218217268869056,11.0,436.0],["narasin_BRD-A25608658-001-01-1::2.5::MTS006",0.18033853575499628,-4.318234913838023,11.0,458.0],["chicago-sky-blue-6b_BRD-K56483981-342-06-4::10::HTS002",0.14837051758692865,-3.186323446357724,11.0,460.0],["homoquinolinic-acid_BRD-K30519779-001-03-1::10::HTS002",0.17315099209508947,-3.8985604511184375,10.0,438.0],["sunitinib_BRD-K42828737-001-03-3::10::MTS010::PROS001_PR500",0.15708015063852537,-2.8336443296079965,9.0,351.0],["caffeic-acid-phenethyl-ester_BRD-K96188950-001-16-9::0.15625::HTS002",0.14573410640148785,-3.100503395113788,11.0,460.0],["AVN-944_BRD-K62196610-001-01-6::10::HTS002",0.14062522210095618,-2.631102056312603,8.0,398.0],["VU0361737_BRD-K45462423-001-03-7::10::HTS002",0.19291489781688176,-4.787582509993452,11.0,454.0],["narasin_BRD-A25608658-001-01-1::10::MTS006",0.19766480579156623,-5.019719567518498,11.0,458.0],["GSK1070916_BRD-K36740062-001-06-6::10::HTS002",0.12933139262571136,-2.4993007362787343,8.0,439.0],["GSK1070916_BRD-K36740062-001-06-6::2.5::HTS002",0.1449242334955927,-2.9498835808886175,8.0,438.0],["AZD2014_BRD-K99113996-001-02-0::0.00244::MTS010::PROS001_PR500",0.1592742161823623,-3.4843320138850453,11.0,448.0],["diaveridine_BRD-K97464279-001-03-5::0.15625::HTS002",0.16168399598861002,-3.6155912809741864,10.0,457.0],["trolox_BRD-A17846016-001-13-9::0.15625::HTS002",0.1517203803200839,-3.1457234063339126,11.0,432.0],["indirubin_BRD-K17894950-001-14-3::0.00061034::HTS002",0.149921506402014,-3.237431131184014,11.0,460.0]],"bottom":[["ecamsule-triethanolamine_BRD-A47953250-001-01-7::0.0390625::HTS002",-0.10533827408735588,-1.742466333912805,10.0,387.0],["aztreonam_BRD-K62607865-001-09-7::0.00256225::HTS002",-0.11167161946671955,-2.116115648082496,11.0,462.0],["parthenolide-(-)_BRD-K34851558-001-02-3::0.0024414::HTS002",-0.13790489055911131,-2.848926861354122,11.0,459.0],["CHIR-98014_BRD-K42973005-001-04-0::2.5::HTS002",-0.11775188376560451,-2.2504748983935174,11.0,454.0],["primaquine_BRD-A55913614-316-09-6::0.0024414::HTS002",-0.10745394682203775,-1.9822759479384506,11.0,453.0],["Ro-90-7501_BRD-K58299615-001-03-5::0.0024414::HTS002",-0.10177430414280547,-1.8731777265986027,11.0,464.0],["clindamycin-phosphate_BRD-K27771035-001-02-5::0.625::HTS002",-0.11885157198983425,-2.3178598944089375,11.0,465.0],["sodium-glucoheptonate_BRD-K35952844-236-01-6::0.15625::HTS002",-0.10768719792508953,-1.8543410681370056,10.0,408.0],["acesulfame-potassium_BRD-K50850824-237-04-8::0.00244141::HTS002",-0.10068807620820187,-1.8495027344144843,11.0,465.0],["dianhydrogalactitol_BRD-K68502831-001-01-2::0.625::HTS002",-0.11374332034208047,-2.1512609617193963,11.0,456.0],["lappaconite_BRD-A05906449-004-01-1::0.00061034::HTS002",-0.1261780668350164,-2.524331888490348,11.0,465.0],["NH125_BRD-K31086665-005-04-6::0.00976562::HTS002",-0.10768022235824795,-2.016741825063139,11.0,463.0],["CP-724714_BRD-K76908866-001-07-6::2.5::MTS010::PROS002_PR500",-0.12261297855873447,-2.2836518291332593,11.0,427.0],["nitrocaramiphen_BRD-K28453807-003-11-2::0.0390625::HTS002",-0.10414429729000917,-1.8985441994908587,11.0,452.0],["dacarbazine_BRD-K35520305-001-16-9::0.0391::MTS010::PROS002_PR500",-0.10097543736839175,-1.7583361182252593,11.0,427.0],["IDRA-21_BRD-A14344385-001-03-2::0.0024414::HTS002",-0.13503036440345123,-2.4808715451201095,8.0,398.0],["nafcillin_BRD-K18574842-236-17-7::0.00061034::HTS002",-0.1282013144235043,-2.268445763383526,10.0,387.0],["equol_BRD-K54847683-001-04-0::0.00976562::HTS002",-0.11269407806242589,-2.1208723772575184,11.0,455.0],["oxiracetam_BRD-K50677762-001-01-5::0.0024414::HTS002",-0.10499392968341704,-1.9467009732598126,11.0,462.0],["afatinib_BRD-K66175015-001-12-4::0.00061::MTS010::PROS003_PR500",-0.15796674490497248,-3.434128711027814,11.0,447.0],["tranilast_BRD-K17849083-001-32-9::0.00950768::HTS002",-0.10346754457212767,-1.9010775818065988,11.0,459.0],["cetrimonium_BRD-K47079459-004-04-6::0.0390625::HTS002",-0.11783563961912846,-2.279861121316085,11.0,462.0],["oleanolic-acid_BRD-K90647725-001-07-3::0.00244293::HTS002",-0.11133440494438503,-2.0889859765594965,11.0,456.0],["tioxolone_BRD-K41876534-001-13-7::0.0024414::HTS002",-0.12467973102736947,-2.4587337138386673,11.0,459.0],["lorlatinib_BRD-K99879819-001-02-1::0.625000002::MTS006",-0.10281272510107678,-1.882526885683864,11.0,458.0],["motesanib_BRD-K99616396-001-05-1::0.00061::MTS010::PROS005_PR500",-0.12372115065384706,-2.4057617304754184,11.0,452.0],["rociletinib_BRD-K33610132-001-02-9::0.0391::MTS010::PROS002_PR500",-0.11609289455901396,-2.116893715280273,11.0,427.0]]}}}
{"ccle_proteomics":{"corr":{"top":[["PHLDB3_Q6NSJ2",0.26111271933914343,-5.515759299232553,9.0,302.0],["FBLL1_A6NHQ2",0.17140072686288518,-3.0516146057874125,9.0,364.0],["SLC9A7_Q96T83",0.13493552061083822,-1.6805916547821977,8.0,285.0],["ARMCX3_Q9UH62",0.13632253787401938,-2.0766837965127816,9.0,364.0],["IDS_P22304",0.1273831110415393,-1.7869568476120408,8.0,347.0],["MSRA_Q9UJ68",0.12355515031117167,-1.7703588439352567,9.0,364.0],["MPG_P29372",0.12597675928791818,-1.7949433912998471,9.0,356.0]],"bottom":[["ACN9_Q9NRP4",-0.123445574068107,-1.664827632273643,8.0,338.0],["IFT74_Q96LB3",-0.1553874606041155,-2.581884190351178,9.0,364.0],["CCT5_P48643",-0.12498632246088233,-1.8034409706142989,9.0,364.0],["IAH1_Q2TAA2",-0.22371622680341202,-4.888985240420252,9.0,364.0],["PRUNE2_Q8WUY3-3",-0.2253531276776587,-4.012903254142969,8.0,286.0],["PECR_Q9BY49",-0.13193775030751093,-1.9686245836804193,9.0,364.0],["PSAT1_Q9Y617",-0.125123815924795,-1.8066357731071925,9.0,364.0]]},"para":{"top":[["LAMTOR3_Q9UHA4",0.14471099083998532,-2.5331281137124204,9.0,355.0],["PHLDB3_Q6NSJ2",0.20467911093677776,-3.801424964783466,9.0,302.0],["CPSF1_Q10570",0.12980805525338368,-2.209485387601976,9.0,364.0],["BAG5_Q9UL15-2",0.13970593561908476,-2.4509028906582686,9.0,364.0],["SEC16A_O15027-5",0.13719087253407958,-2.388184957970216,9.0,364.0],["FBLL1_A6NHQ2",0.13629839498145135,-2.3661546722563074,9.0,364.0],["USP20_Q9Y2K6",0.12948799044446738,-2.0571962568855127,9.0,329.0],["PHF6_Q8IWS0",0.13118726584045087,-2.2422579033457684,9.0,364.0],["WWOX_Q9NZC7",0.12169357937453272,-1.8554537826824558,8.0,320.0],["SLC9A7_Q96T83",0.1408869235267604,-2.0926831156516337,8.0,285.0],["ARMCX3_Q9UH62",0.13702861248377318,-2.384170889903342,9.0,364.0],["UTP23_Q9BRU9",0.12331763823288054,-2.059014732786089,9.0,364.0],["NELFCD_Q8IXH7",0.12137051762920348,-2.0150771403344545,9.0,364.0],["ING1_Q9UK53",0.13519826781600452,-2.299070870223396,9.0,355.0],["HIST2H2AB_Q8IUE6",0.15325458207621231,-2.804963418339875,9.0,364.0],["UBE4A_Q14139-2",0.11780081695243917,-1.935962272843388,9.0,364.0],["MECP2_P51608-2",0.13743425466455095,-2.3942131764244663,9.0,364.0],["DBN1_Q16643-3",0.1332155013015723,-2.2909617896721337,9.0,364.0],["BRPF1_P55201-2",0.1568242842256819,-2.902818784251015,9.0,364.0],["WWP2_O00308",0.1395436271296636,-2.4468270945743975,9.0,364.0],["FMR1_Q06787-7",0.12429120571991635,-2.081191619156371,9.0,364.0],["MSRA_Q9UJ68",0.12412893130859676,-2.077485536046422,9.0,364.0],["TMEM55B_Q86T03-2",0.1246157186353319,-2.088614532608458,9.0,364.0],["TERF2IP_Q9NYB0",0.14603407060219734,-2.612864684456258,9.0,364.0],["NELFB_Q8WX92",0.1472510382155372,-2.6446956014823706,9.0,364.0],["FUBP3_Q96I24",0.15414702996881444,-2.8292485893469905,9.0,364.0]],"bottom":[["CCT3_P49368",-0.11893662375025939,-1.960933625480736,9.0,364.0],["DHRSX_Q8N5I4",-0.13702046960791697,-1.8882791584643048,8.0,258.0],["SULT1A3_P50224-3",-0.12055925919441197,-1.9969341841891843,9.0,364.0],["TPM1_P09493-8",-0.11098585516152498,-1.7900644806701294,9.0,364.0],["PDCD6IP_Q8WUM4-2",-0.12250629548928076,-2.0406390997722585,9.0,364.0],["CMBL_Q96DG6",-0.12704965611324034,-2.144780520964123,9.0,364.0],["CCT7_Q99832",-0.11398769851937754,-1.8534999698284782,9.0,364.0],["IFT74_Q96LB3",-0.12047809431728185,-1.9951243011990383,9.0,364.0],["CCT8_P50990",-0.10952552762523246,-1.7596752271404401,9.0,364.0],["CCT5_P48643",-0.12656286118857102,-2.133477632295117,9.0,364.0],["MAP4_P27816-2",-0.13586998144461843,-1.9184154015694046,8.0,269.0],["TBCE_Q15813",-0.1332966313267255,-2.2929225858097686,9.0,364.0],["CBR1_P16152",-0.12461571143137558,-2.0886143677612448,9.0,364.0],["APPL2_Q8NEU8",-0.12591380631678212,-2.1184613242584613,9.0,364.0],["QTRT1_Q9BXR0",-0.11147267389301063,-1.8002635216782878,9.0,364.0],["CCT6A_P40227",-0.11780076247252419,-1.9359610803963552,9.0,364.0]]}}}
{"depmap_copy_number":{"corr":{"top":[["TIMP4_7079",0.10266190875035901,-4.705697725733031,41.0,1681.0],["ZNF821_55565",0.07951952929980423,-3.0187527912270857,41.0,1681.0],["DHODH_1723",0.07920127340507212,-2.9982546760727584,41.0,1681.0],["TSEN2_80746",0.08960736580168302,-3.7062129883459933,41.0,1681.0],["PPARG_5468",0.10339716798932935,-4.765718747066508,41.0,1681.0],["ATXN1L_342371",0.07951952929980423,-3.0187527912270857,41.0,1681.0],["TXNL4B_54957",0.07881708026462542,-2.9736061287797,41.0,1681.0],["MKRN2OS_100129480",0.08873812233964494,-3.644082220709063,41.0,1681.0],["PMFBP1_83449",0.07944437275572412,-3.0139056040228627,41.0,1681.0],["HP_3240",0.07920933023081715,-2.998772704102302,41.0,1681.0],["IST1_9798",0.07912586972549135,-2.993408710225441,41.0,1681.0],["DHX38_9785",0.07971860168701995,-3.0316113932199777,41.0,1681.0],["PKD1L3_342372",0.07909717924102293,-2.9915659268461154,41.0,1681.0]],"bottom":[["SETD4_54093",-0.06974171217820742,-2.421864762679663,41.0,1681.0],["DHRS4L1_728635",-0.06454998156199449,-2.1323160848582896,41.0,1681.0],["PPP1R2P2_54036",-0.07021473432227734,-2.4491842474361767,41.0,1681.0],["IFNA4_3441",-0.06525295722990239,-2.170420311545157,41.0,1681.0],["IFNA7_3444",-0.06522969462909563,-2.169153878599658,41.0,1681.0],["CTAGE15_441294",-0.09063150565279227,-3.7801194754148555,41.0,1681.0],["LINC01426_100506385",-0.07381839296011834,-2.6624906222743197,41.0,1681.0],["KCNE2_9992",-0.07746405796786675,-2.887639650195617,41.0,1681.0],["IFNA10_3446",-0.06519267950296294,-2.1671395249502736,41.0,1681.0],["RCAN1_1827",-0.07512328274507106,-2.7419935138059905,41.0,1681.0],["KCNE1_3753",-0.07512294939533731,-2.741973049645923,41.0,1681.0],["CLIC6_54102",-0.07317698078516471,-2.623853493111468,41.0,1681.0],["CBR3-AS1_100506428",-0.06996634331845178,-2.4348187651501862,41.0,1681.0],["LOC101928269_101928269",-0.0689219527909667,-2.37489165556873,41.0,1681.0],["LOC100133286_100133286",-0.06902411239722496,-2.3807197815847405,41.0,1681.0],["LOC105369306_105369306",-0.06996634331845178,-2.4348187651501862,41.0,1681.0],["CBR1_873",-0.06902411239722496,-2.3807197815847405,41.0,1681.0],["CBR3_874",-0.06996634331845178,-2.4348187651501862,41.0,1681.0],["LINC01436_100996609",-0.07022427332842747,-2.449736792823026,41.0,1681.0],["LINC00160_54064",-0.07370816977833228,-2.6558303242212213,41.0,1681.0],["IFNA16_3449",-0.06407282140763935,-2.1066478076124002,41.0,1681.0]]},"para":{"top":[],"bottom":[]}}}
{"depmap_gene_tpm":{"corr":{"top":[["TEX26_122046",0.13635417298164665,-6.0910918740486295,31.0,1268.0],["LAG3_3902",0.10902607217680735,-4.084303962487204,31.0,1268.0],["DNAH12_201625",0.123912291139992,-5.124924594159105,31.0,1268.0],["MYCBPAP_84073",0.13651308937748716,-6.104006929234025,31.0,1268.0],["SYCE2_256126",0.13824156738636226,-6.245421003466473,31.0,1268.0],["FGR_2268",0.10903909188886331,-4.085159840200033,31.0,1268.0],["METTL21C_196541",0.13041787181455186,-5.619060540517187,31.0,1268.0],["TSHR_7253",0.13773360924171535,-6.203683772461127,31.0,1268.0]],"bottom":[["DET1_55070",-0.12113558262278583,-4.921346071880695,31.0,1268.0],["TFB2M_64216",-0.09331006029634527,-3.1194894862836,31.0,1268.0],["AQP11_282679",-0.07909814340462976,-2.362814412439566,31.0,1268.0],["HEATR1_55127",-0.08125636329180053,-2.470744279195286,31.0,1268.0],["DDB1_1642",-0.07945836107163745,-2.380656086645918,31.0,1268.0],["ECHDC3_79746",-0.08627207065183384,-2.731187772404272,31.0,1268.0],["BZW2_28969",-0.09071598101935636,-2.9732472024465126,31.0,1268.0],["SYNCRIP_10492",-0.08633773122766188,-2.734686756984732,31.0,1268.0],["RRP15_51018",-0.07941399591408621,-2.378454943956926,31.0,1268.0],["MRPS23_51649",-0.0837043890333298,-2.596175403566121,31.0,1268.0],["FAM98A_25940",-0.07915287981916429,-2.3655210770709587,31.0,1268.0],["MPDU1_9526",-0.10120089544106849,-3.5869123364606477,31.0,1268.0],["IPO7_10527",-0.09005122465768278,-2.9363589911554997,31.0,1268.0],["TMX2_51075",-0.08326211201123149,-2.5732769091584964,31.0,1268.0],["PROS1_5627",-0.08326169510234704,-2.573255373494996,31.0,1268.0],["TOMM20_9804",-0.08754752846040145,-2.7995710925804222,31.0,1268.0],["STIP1_10963",-0.08935807594103898,-2.8981500632189796,31.0,1268.0],["ZNF608_57507",-0.08748015774587418,-2.795937101179611,31.0,1268.0],["TTC27_55622",-0.08835216169671421,-2.8431624506378776,31.0,1268.0],["RPF2_84154",-0.08380480441509923,-2.6013889154990966,31.0,1268.0],["COQ2_27235",-0.08513591994146764,-2.6710106388638515,31.0,1268.0],["NHP2_55651",-0.08579914576174436,-2.706054608844593,31.0,1268.0],["NOL10_79954",-0.08232085552545092,-2.524892704927216,31.0,1268.0],["NME1_4830",-0.08403277270819579,-2.6132449649758493,31.0,1268.0],["FAM69B_138311",-0.08246407191087135,-2.532224013835242,31.0,1268.0],["ARHGEF26_26084",-0.07947331784596083,-2.3813983912490704,31.0,1268.0],["HSP90AB1_3326",-0.09412706537371486,-3.166306138915844,31.0,1268.0],["MMP17_4326",-0.10496616545766406,-3.8220121035219137,31.0,1268.0],["WRB_7485",-0.0842413354728058,-2.6241161861901094,31.0,1268.0],["SLITRK5_26050",-0.0889153779267896,-2.8738829055717945,31.0,1268.0],["PCMT1_5110",-0.09300520966173995,-3.1021137889339716,31.0,1268.0]]},"para":{"top":[["GATA3_2625",0.08238945393417889,-2.82437191074086,31.0,1268.0]],"bottom":[["PPP1R14A_94274",-0.10223534864922607,-3.9384646014396933,31.0,1268.0],["HEATR1_55127",-0.09639387374184334,-3.5888716123980147,31.0,1268.0],["TIMM8A_1678",-0.08307781205350136,-2.859537087030343,31.0,1268.0],["IPO7_10527",-0.08761743386892284,-3.097671565468356,31.0,1268.0],["TOMM20_9804",-0.09053624202572462,-3.256511421694002,31.0,1268.0],["FAM69B_138311",-0.08112742560899434,-2.7605444724777666,31.0,1268.0],["HSP90AB1_3326",-0.08964912301216935,-3.2077595171608952,31.0,1268.0],["DDX1_1653",-0.09707334412946597,-3.6286024868852356,31.0,1268.0],["CA10_56934",-0.09436065221065532,-3.4713880337754177,31.0,1268.0],["SLITRK5_26050",-0.10546697661853043,-4.139687569278828,31.0,1268.0]]}}}
{"avana":{"corr":{"top":[["KMO_8564",0.10795331413861983,-2.5595778344203715,20.0,747.0],["TLE2_7089",0.10798275944798466,-2.5300622167331963,20.0,736.0],["ATG4A_115201",0.10890852700372583,-2.46419524387453,20.0,700.0],["KIR3DL2_3812",0.11393990865232875,-2.8030079629472535,20.0,747.0],["GEMIN2_8487",0.12622132131369584,-3.338812631120296,20.0,747.0],["GKN2_200504",0.14397220646308997,-4.201313097353384,20.0,747.0],["CDO1_1036",0.11542534018357888,-2.830450125719512,20.0,736.0],["TET1_80312",0.12171323719691769,-3.0980141680714235,20.0,736.0],["TMEM99_147184",0.11275867298909217,-2.7540610681486655,20.0,747.0],["HPX_3263",0.12056326821891532,-3.0858461982558776,20.0,747.0],["KCNH5_27133",0.10908802299946106,-2.6048323582650466,20.0,747.0],["GNAS_2778",0.11419883894658356,-2.813797562138803,20.0,747.0],["CCR3_1232",0.16172869517244015,-5.170646900583164,20.0,747.0],["SERINC3_10955",0.11097767484684448,-2.6811134468311724,20.0,747.0],["MEGF9_1955",0.1115209789894077,-2.703258141178222,20.0,747.0],["PDGFRL_5157",0.11438929628571372,-2.8217477514336164,20.0,747.0],["NINL_22981",0.11900276636696143,-3.0179221090497728,20.0,747.0],["NEIL2_252969",0.12855612605654512,-3.4462698640266174,20.0,747.0],["BMP15_9210",0.14869591094137824,-4.208008103101519,20.0,700.0],["DVL1_1855",0.11285783628738486,-2.7581527620729767,20.0,747.0],["GINS3_64785",0.11384683139604816,-2.7991347439083847,20.0,747.0],["MAL_4118",0.11259654170196058,-2.7473780183295236,20.0,747.0],["CRTAP_10491",0.1154065608531514,-2.864410019632808,20.0,747.0],["OR2C1_4993",0.14949412798744513,-4.491214461409658,20.0,747.0],["NAF1_92345",0.10786268540367301,-2.5559811803557233,20.0,747.0],["SPATA5L1_79029",0.11887925585746076,-3.0125799910438635,20.0,747.0],["DNAJB4_11080",0.11974481456210258,-3.0501221718167533,20.0,747.0],["ACAD8_27034",0.12380754149901275,-3.229609372555037,20.0,747.0],["LCAT_3931",0.13420271754200638,-3.71361284090379,20.0,747.0],["BTNL3_10917",0.13454032281419742,-3.7299329950829754,20.0,747.0],["UGT1A5_54579",0.11028629370573767,-2.653070686960502,20.0,747.0],["A4GALT_53947",0.11965292970465276,-3.0461252206276996,20.0,747.0],["TROVE2_6738",0.11158419584829703,-2.7058409937483328,20.0,747.0],["HBQ1_3049",0.12087249743925947,-3.0994004661753647,20.0,747.0],["RIPOR3_140876",0.10872090425375276,-2.5901457022479635,20.0,747.0],["XIRP1_165904",0.1275547294924548,-3.3999610821780357,20.0,747.0],["KIAA1755_85449",0.13224229228933182,-3.6195944675798946,20.0,747.0],["TERF2IP_54386",0.11102934452179763,-2.6508987884661894,20.0,736.0],["KIAA1841_84542",0.12299531300855435,-3.1932934525817185,20.0,747.0],["CAMTA1_23261",0.11044281027467824,-2.6594056043754226,20.0,747.0],["ZCCHC3_85364",0.11651974802624353,-2.911479662631782,20.0,747.0],["EIF5A2_56648",0.12125504748011834,-3.1162118312712708,20.0,747.0],["SLC5A12_159963",0.1357848840523745,-3.790424793186961,20.0,747.0],["PCDHB13_56123",0.12807197353363797,-3.4238392406164553,20.0,747.0],["CMTM7_112616",0.11299097121247252,-2.7636511942882986,20.0,747.0],["SPRED2_200734",0.11948941501517431,-3.039019217876745,20.0,747.0],["SRGAP3_9901",0.11751953330902971,-2.954097347890264,20.0,747.0],["NARF_26502",0.11908613949428554,-3.021531003523559,20.0,747.0],["HS3ST2_9956",0.1361021218119556,-3.805926851248425,20.0,747.0],["SPATA25_128497",0.10950946976587232,-2.6217457743290216,20.0,747.0],["DSG1_1828",0.11091653869365956,-2.678627532258502,20.0,747.0],["PLD6_201164",0.11488193835888527,-2.8079217652489072,20.0,736.0],["PDE1A_5136",0.11536505407423686,-2.862662735843734,20.0,747.0],["RIN2_54453",0.11078305088751171,-2.673203842063951,20.0,747.0],["MMP26_56547",0.1133262796898374,-2.7775247088631803,20.0,747.0],["DRD5_1816",0.13448022124422299,-3.7270248479830945,20.0,747.0],["ORM1_5004",0.11202652384747168,-2.723949248379032,20.0,747.0],["ARFGEF2_10564",0.11616418780360095,-2.896401550566661,20.0,747.0],["APOL2_23780",0.11440845230015671,-2.822548023739387,20.0,747.0],["DDX27_55661",0.12100450794942925,-3.105196329668441,20.0,747.0]],"bottom":[["BIN2_51411",-0.13273285689061168,-3.643001036252642,20.0,747.0],["POU6F1_5463",-0.13589093405467517,-3.7956032624660554,20.0,747.0],["TRMO_51531",-0.1344397326257637,-3.7250663960218797,20.0,747.0],["ENPP6_133121",-0.12606761145332002,-3.331801376544567,20.0,747.0],["AQP5_362",-0.1378766506293617,-3.893261386467697,20.0,747.0],["CBX1_10951",-0.14189258299100446,-4.0433956415879475,20.0,736.0],["ZDHHC17_23390",-0.12903268901142534,-3.468424568843271,20.0,747.0],["PRKAG1_5571",-0.13340035381614318,-3.674978269003365,20.0,747.0],["PLA2G4A_5321",-0.13633201552121346,-3.817181801154151,20.0,747.0],["OR10C1_442194",-0.12967875972432882,-3.498579458666218,20.0,747.0],["PPIL2_23759",-0.13366730595976686,-3.6878084562042828,20.0,747.0],["DCST2_127579",-0.1575164037766246,-4.930912447764097,20.0,747.0],["HMGB3_3149",-0.12615936922137116,-3.1226544677073145,20.0,690.0],["ZNF827_152485",-0.17152581811091178,-5.752070126101709,20.0,747.0],["DAPP1_27071",-0.12764045468615445,-3.4039124078406418,20.0,747.0],["ALAS1_211",-0.133557087322719,-3.6825082786361096,20.0,747.0],["ZNF34_80778",-0.14395025524732366,-4.200181277489411,20.0,747.0],["RSPH3_83861",-0.14335581867618133,-4.169593625629336,20.0,747.0],["KLHL26_55295",-0.13269002910508113,-3.640954382427496,20.0,747.0],["COL25A1_84570",-0.12892156221322948,-3.463251731312221,20.0,747.0],["RITA1_84934",-0.15036255589195163,-4.537750170015372,20.0,747.0],["CFAP221_200373",-0.1480515852304965,-4.41448179124737,20.0,747.0],["FUCA2_2519",-0.1689559291821962,-5.596313636695594,20.0,747.0],["HUS1B_135458",-0.13332471509014696,-3.6713472545766304,20.0,747.0],["MTUS2_23281",-0.13434569240980793,-3.720519739739269,20.0,747.0],["NCF2_4688",-0.125996816710151,-3.3285747945993234,20.0,747.0],["FAM186A_121006",-0.13259030626989116,-3.6361911930080004,20.0,747.0],["CAND2_23066",-0.13853944145567287,-3.926151604705083,20.0,747.0],["PHETA1_144717",-0.13679784329992453,-3.8400416146577125,20.0,747.0],["CBX5_23468",-0.13682658700936554,-3.7934997247091897,20.0,736.0],["PRPF40B_25766",-0.135393442775573,-3.771343071098952,20.0,747.0],["AGBL2_79841",-0.1383973404893758,-3.919087605180356,20.0,747.0],["ARHGAP9_64333",-0.14354179343824303,-4.179150411751763,20.0,747.0],["UGT1A9_54600",-0.1315321636331875,-3.5858534444040147,20.0,747.0],["HPS3_84343",-0.12895870582915359,-3.4649802735661295,20.0,747.0],["ATXN7L2_127002",-0.1271556016182061,-3.381596054311604,20.0,747.0],["PRPH_5630",-0.1468322377409005,-4.350173239226634,20.0,747.0],["PLXNA3_55558",-0.14050430690620652,-3.8086820195087183,20.0,700.0],["DEPTOR_64798",-0.12988883269262644,-3.508414245334339,20.0,747.0],["C2orf50_130813",-0.12908803545908196,-3.4710024132362984,20.0,747.0],["GRHPR_9380",-0.12687964935254972,-3.3689294345266045,20.0,747.0],["MDM1_56890",-0.1252510722228753,-3.2946865929790494,20.0,747.0],["SPATS1_221409",-0.12770467049757997,-3.406873892920716,20.0,747.0],["TDG_6996",-0.1556637307745684,-4.765941175306145,20.0,736.0],["TICAM2_353376",-0.16075070877779127,-5.114440033944025,20.0,747.0],["SERPINA7_6906",-0.1274943941611396,-3.217812130475031,20.0,700.0],["ITGA7_3679",-0.138050019759402,-3.9018504023552874,20.0,747.0],["RHBDF1_64285",-0.13367134031127403,-3.6880025362794777,20.0,747.0],["C9orf50_375759",-0.13583440879476785,-3.792842640876278,20.0,747.0],["SUPT16H_11198",-0.1371528972173685,-3.809340412937073,20.0,736.0],["NPAP1_23742",-0.14568621505846452,-4.290191854977162,20.0,747.0],["OR9K2_441639",-0.13246826733738784,-3.630366592274708,20.0,747.0],["CCDC28A_25901",-0.14759680766924746,-4.390437703551394,20.0,747.0],["LHPP_64077",-0.12799783311382112,-3.4204111806270765,20.0,747.0],["LUZP4_51213",-0.1477640884524132,-4.161510193816596,20.0,700.0],["SNCAIP_9627",-0.12522435043837463,-3.293475696617397,20.0,747.0],["ZNF419_79744",-0.12907388851831045,-3.4703434016582424,20.0,747.0],["CEACAM7_1087",-0.1432276254042926,-4.163012889540978,20.0,747.0],["OR2AP1_121129",-0.13710025724446825,-3.8549210031752636,20.0,747.0],["TRAFD1_10906",-0.13045265193540193,-3.5348823348923464,20.0,747.0],["FAM133A_286499",-0.1386926909171804,-3.723231663938346,20.0,700.0]]},"para":{"top":[["TPX2_22974",0.10102302463463862,-2.586500641391809,20.0,747.0],["SLC2A4RG_56731",0.10312888420930576,-2.6654894424992825,20.0,747.0],["GEMIN2_8487",0.11593230201209244,-3.1751939922345986,20.0,747.0],["INKA1_389119",0.10952137189635947,-2.9136326767205976,20.0,747.0],["NINL_22981",0.10067170783442371,-2.573455637491358,20.0,747.0],["SPINT3_10816",0.11277295408314246,-3.044700512157428,20.0,747.0],["OR2C1_4993",0.13486935679226264,-4.022748569219657,20.0,747.0],["BTNL3_10917",0.12749772776149726,-3.6794518664879,20.0,747.0],["RIPOR3_140876",0.10238990456607547,-2.6376158179020712,20.0,747.0],["ZFP64_55734",0.1123664932522955,-3.0281372122243524,20.0,747.0],["TLR8_51311",0.10551940826531053,-2.631596325638711,20.0,700.0],["CDC26_246184",0.10148471521765737,-2.6037016238053736,20.0,747.0],["DDX27_55661",0.1048473856451817,-2.7309594484817112,20.0,747.0]],"bottom":[["ATXN2_6311",-0.1085421409861324,-2.874802506843133,20.0,747.0],["ENPP6_133121",-0.12369182955220163,-3.508894134063422,20.0,747.0],["AQP5_362",-0.11576594763754416,-3.168245490939548,20.0,747.0],["CBX1_10951",-0.1462161245063356,-4.530776802150437,20.0,736.0],["WDR34_89891",-0.12354403408664369,-3.5023623812143927,20.0,747.0],["TMEM116_89894",-0.11203394538886942,-3.0146239999737134,20.0,747.0],["NTN4_59277",-0.11694836628823889,-3.217821272765883,20.0,747.0],["KRT75_9119",-0.1224909453327905,-3.456019529639428,20.0,747.0],["HMGB3_3149",-0.13265648481910317,-3.685185157131222,20.0,690.0],["RBMS2_5939",-0.12391361252216919,-3.5187085627418884,20.0,747.0],["ZNF827_152485",-0.14116942134312838,-4.32972357857775,20.0,747.0],["ALAS1_211",-0.12792267561355378,-3.698777506058942,20.0,747.0],["FUCA2_2519",-0.1372157086215327,-4.13561061268624,20.0,747.0],["COQ5_84274",-0.11395549008710568,-3.093180622569035,20.0,747.0],["TULP1_7287",-0.10650994545551509,-2.7951642606015934,20.0,747.0],["MTUS2_23281",-0.13165477020032465,-3.870942339791258,20.0,747.0],["INHBC_3626",-0.1088007779608888,-2.885029603505483,20.0,747.0],["PHETA1_144717",-0.11920234109913401,-3.313531382639331,20.0,747.0],["CBX5_23468",-0.13730290114699745,-4.0919936714196785,20.0,736.0],["ZNF850_342892",-0.12053256181685247,-3.370760032335393,20.0,747.0],["DEPTOR_64798",-0.12310062304189258,-3.482807067133889,20.0,747.0],["PRPH_5630",-0.12221385875043676,-3.443883555101271,20.0,747.0],["IFITM2_10581",-0.11103646766558478,-2.974296838485411,20.0,747.0],["LY6G5B_58496",-0.10985387042967906,-2.9268849719901437,20.0,747.0],["TCTN2_79867",-0.11498999457416319,-3.1359482476519878,20.0,747.0],["TDG_6996",-0.1618704783376239,-5.361605149697953,20.0,736.0],["TICAM2_353376",-0.15151560025404687,-4.861127897132964,20.0,747.0],["C9orf50_375759",-0.13651366532151182,-4.101659367974405,20.0,747.0],["NPAP1_23742",-0.14322017461744949,-4.432356536655106,20.0,747.0],["OR2AP1_121129",-0.13553449298285394,-4.054565864753504,20.0,747.0],["PRKAB1_5564",-0.10617729595600481,-2.7822497625447373,20.0,747.0],["TRAFD1_10906",-0.1326708315149744,-3.918573084227766,20.0,747.0]]}}}
{"achilles":{"corr":{"top":[["FFAR2_2867",0.1473059841177422,-2.9842857121692195,11.0,482.0],["EPHA1_2041",0.11521876248313877,-1.9805555561043624,11.0,482.0],["SRPRB_58477",0.12515646362956437,-2.2685023005269267,11.0,482.0],["MKRN9P_400058",0.14069737050501616,-2.759882723572897,11.0,482.0],["UTS2R_2837",0.18022514709250903,-4.243372698755011,11.0,482.0],["SRSF2_6427",0.1213401178432075,-2.1555248774192757,11.0,482.0],["PGM2L1_283209",0.11519984223226053,-1.9800266096979438,11.0,482.0],["CELA2A_63036",0.1460806872106366,-2.9419755953719315,11.0,482.0],["GLUD1P7_414212",0.15114455210982516,-3.11891845899829,11.0,482.0],["SLC29A2_3177",0.12390900031499386,-2.2312423946282527,11.0,482.0],["ZNF384_171017",0.11794474851350248,-2.0575272858197637,11.0,482.0],["HES6_55502",0.12019730240858537,-2.1222768624347466,11.0,482.0],["TRIM6-TRIM34_445372",0.12342322986984201,-2.2168200878145794,11.0,482.0],["LGSN_51557",0.12002654511356646,-2.1173320311925425,11.0,482.0],["ALK_238",0.14199264360466515,-2.8031324534215254,11.0,482.0],["RITA1_84934",0.1158949845145018,-1.9995082801636752,11.0,482.0],["B4GALT5_9334",0.12418758410548761,-2.239535400244998,11.0,482.0],["TRPM4_54795",0.14643371117113035,-2.954132738210848,11.0,482.0],["PTBP1_5725",0.11648601758479839,-2.01614965860807,11.0,482.0],["LAMC2_3918",0.13257555341234706,-2.496772734460621,11.0,482.0],["MEIS3_56917",0.13124546103623821,-2.455004602464046,11.0,482.0],["THBS3_7059",0.14957139453213233,-3.0633590472989884,11.0,482.0],["HOXC12_3228",0.11866364432638914,-2.078079049555593,11.0,482.0],["C4B_2&LOC110384692&C4A&C4B_100293534&110384692&720&721",0.12653136720378197,-2.309941625685345,11.0,482.0],["MAPK8IP2_23542",0.13555992737950728,-2.591838423759089,11.0,482.0],["VPS8_23355",0.12850995857243705,-2.370264071906261,11.0,482.0],["CYP26A1_1592",0.13380284971638837,-2.535641371649847,11.0,482.0],["TSC22D3_1831",0.12045727423812201,-2.1298166781255157,11.0,482.0],["GLS2_27165",0.12327555385117599,-2.212445303158743,11.0,482.0],["RCVRN_5957",0.12368499171712614,-2.2245856293602033,11.0,482.0],["ZNF100_163227",0.15223279544631924,-3.1576641047992244,11.0,482.0],["KIF1C_10749",0.13073650608572646,-2.439119998855995,11.0,482.0],["EHMT2_10919",0.1816921362770798,-4.305073534312458,11.0,482.0],["S100A14_57402",0.1327487580275625,-2.502239020859749,11.0,482.0],["ZNF521_25925",0.12986294799285267,-2.411982077044945,11.0,482.0],["NDUFAB1_4706",0.13801371529769432,-2.6714057276104692,11.0,482.0],["NR0B2_8431",0.12167956516394422,-2.165452137228454,11.0,482.0],["CD14_929",0.12302924186559205,-2.2051585126738193,11.0,482.0],["ISY1-RAB43_100534599",0.12740379199555815,-2.336439538819798,11.0,482.0],["RPS3A_6189",0.15617955415479431,-3.3003319100868493,11.0,482.0],["POLE2_5427",0.12724447093841346,-2.331588736879104,11.0,482.0]],"bottom":[["EIF5B_9669",-0.15268788606127923,-3.173942865277388,11.0,482.0],["GJA5_2702",-0.11551123937432525,-1.9887414899482463,11.0,482.0],["OR1E1_8387",-0.11677580042587067,-2.0243349246680595,11.0,482.0],["ARSG_22901",-0.12430038354216005,-2.242897822618267,11.0,482.0],["RASGRF1_5923",-0.11994700239786485,-2.115030655931851,11.0,482.0],["RCN1_5954",-0.1385341260752852,-2.688443997915314,11.0,482.0],["ADAMDEC1_27299",-0.15097646529953376,-3.1129566884104913,11.0,482.0],["CREB3_10488",-0.15417853504743798,-3.2275773761911797,11.0,482.0],["PSAT1_29968",-0.1778959538453449,-4.146403298564895,11.0,482.0],["RASL11A_387496",-0.13908218794680563,-2.706449449348512,11.0,482.0],["TRIP13_9319",-0.12086182932420961,-2.141577354256673,11.0,482.0],["NEDD4_4734",-0.1771299568563946,-4.114779438916197,11.0,482.0],["SSX6_280657",-0.12891784998063832,-2.3828008434762884,11.0,482.0],["ALG5_29880",-0.118573131267249,-2.075485648689866,11.0,482.0],["PSMC3_5702",-0.14204972746700362,-2.805046705111691,11.0,482.0],["TSG101_7251",-0.1702085378949164,-3.8349770426940974,11.0,482.0],["USP51_158880",-0.12063205835040397,-2.1348936413520354,11.0,482.0],["DICER1_23405",-0.11493936281412995,-1.97275188579656,11.0,482.0],["RPSAP9_653162",-0.11543964627430661,-1.9867361109341153,11.0,482.0],["YWHAZ_7534",-0.1256582166215718,-2.2835796752672888,11.0,482.0],["RIDA_10247",-0.11691737240245219,-2.028340024257876,11.0,482.0],["OR10J1_26476",-0.12133601661921134,-2.1554050804872813,11.0,482.0],["C1RL_51279",-0.12033686552070899,-2.126322807947826,11.0,482.0],["LRRK2_120892",-0.14514113890603828,-2.909750030196745,11.0,482.0],["PI3_5266",-0.16307829527557186,-3.5578449759486643,11.0,482.0],["LSS_4047",-0.120541509760796,-2.132262688800767,11.0,482.0],["EIF3G_8666",-0.1345531567868196,-2.5595592923822927,11.0,482.0],["TOLLIP_54472",-0.12758781315587864,-2.342048937058109,11.0,482.0],["HIST1H2AD_3013",-0.1319731211244749,-2.477809054236794,11.0,482.0],["SNX6_58533",-0.12503035746025204,-2.2647210776455706,11.0,482.0],["PTPN9_5780",-0.13528940650487953,-2.5831440343284564,11.0,482.0],["COL2A1_1280",-0.12944710310580293,-2.39911935694106,11.0,482.0],["C11orf24_53838",-0.11808648515218151,-2.061570882421865,11.0,482.0],["AFG3L1P_172",-0.12135749867701155,-2.1560326107116046,11.0,482.0],["CFTR_1080",-0.12173465517681215,-2.1670654995665886,11.0,482.0],["APOE_348",-0.1665839117122902,-3.6926964392291164,11.0,482.0],["HAT1_8520",-0.13262291844320545,-2.4982669367849204,11.0,482.0],["LOC107987545&OR2A7&OR2A4_107987545&401427&79541",-0.13350050197880328,-2.5260366695088785,11.0,482.0]]},"para":{"top":[["FFAR2_2867",0.14542471325395456,-3.2001559318171857,11.0,482.0],["IFI27_3429",0.12322981173084858,-2.502420831603289,11.0,482.0],["MCM8_84515",0.12795828852484134,-2.6428881139651663,11.0,482.0],["PCDHGB5_56101",0.12612480819280036,-2.58789848569871,11.0,482.0],["PPP3R2_5535",0.12636606003335718,-2.5950962100886033,11.0,482.0],["GAD2_2572",0.1312392932827748,-2.742949091803964,11.0,482.0],["PDLIM5_10611",0.13408601452478658,-2.831492211390631,11.0,482.0],["MKRN9P_400058",0.1572941175350298,-3.6136234398954907,11.0,482.0],["UTS2R_2837",0.16704067577412504,-3.974352834629751,11.0,482.0],["CELA2A_63036",0.13905572333919564,-2.989923524194816,11.0,482.0],["PGM2L1_283209",0.12038309872880451,-2.419975855996801,11.0,482.0],["HIST2H2BE_8349",0.12515981975315146,-2.5592228649391995,11.0,482.0],["VN1R10P_387316",0.1253527967349716,-2.564942696337256,11.0,482.0],["GABRP_2568",0.12047959519029273,-2.4227444859607505,11.0,482.0],["GLUD1P7_414212",0.15382017168584047,-3.4896805450423334,11.0,482.0],["SSX7_280658",0.11748808497511815,-2.337762067390102,11.0,482.0],["ZNF384_171017",0.12245784670243255,-2.4799062918250243,11.0,482.0],["TNFRSF21_27242",0.12076908152206796,-2.4310612474867357,11.0,482.0],["ALK_238",0.1298882777936926,-2.7014893179571446,11.0,482.0],["NUP93_9688",0.11690987271092752,-2.3215382948349808,11.0,482.0],["B4GALT5_9334",0.1371257341186655,-2.927813461088068,11.0,482.0],["TRPM4_54795",0.15309642941625767,-3.4641645404161228,11.0,482.0],["KIF2C_11004",0.15410961996710582,-3.4999147109485635,11.0,482.0],["TULP1_7287",0.12993653728508472,-2.702964079419758,11.0,482.0],["LOC101929540_101929540",0.11951458846590586,-2.3951391495436005,11.0,482.0],["VAMP7_6845",0.12197538897722225,-2.465894767902316,11.0,482.0],["MEIS3_56917",0.1291163305764805,-2.6779619799779746,11.0,482.0],["THBS3_7059",0.14228848378342018,-3.0956211415907275,11.0,482.0],["HOXC12_3228",0.13683622888364405,-2.9185606476445227,11.0,482.0],["C4B_2&LOC110384692&C4A&C4B_100293534&110384692&720&721",0.11753635530132432,-2.3391194165457687,11.0,482.0],["IREB2_3658",0.1181153846553059,-2.3554371051797487,11.0,482.0],["DRG1_4733",0.11618535398484836,-2.3013016501658385,11.0,482.0],["TBX10_347853",0.12197532179140229,-2.4658928206485364,11.0,482.0],["VPS8_23355",0.13070853959571604,-2.726618323987043,11.0,482.0],["MAPK8IP2_23542",0.14291576260940383,-3.116372003998821,11.0,482.0],["CYP26A1_1592",0.14421846255811546,-3.1597173641289165,11.0,482.0],["GLS2_27165",0.11801884083541729,-2.352711836627896,11.0,482.0],["HAS3_3038",0.11739162079097222,-2.3350508838397204,11.0,482.0],["RCVRN_5957",0.126703801844659,-2.605191983070958,11.0,482.0],["ZNF100_163227",0.14527994221278173,-3.195287237965209,11.0,482.0],["ZNF12_7559",0.12187880401906988,-2.463095244479672,11.0,482.0],["KIF1C_10749",0.12578712618143673,-2.5778430455220933,11.0,482.0],["S100A14_57402",0.1251115480884455,-2.557793241684528,11.0,482.0],["EHMT2_10919",0.14508692149063468,-3.188802412400605,11.0,482.0],["SLC6A18_348932",0.11840482385700611,-2.363618418870975,11.0,482.0],["ZNF521_25925",0.13254203294910863,-2.783269592564127,11.0,482.0],["NDUFAB1_4706",0.131191299744779,-2.7414700819200344,11.0,482.0],["RPS3A_6189",0.1309985267153862,-2.7355340265580796,11.0,482.0],["CD14_929",0.13181825386120033,-2.760826736709434,11.0,482.0],["NR0B2_8431",0.1345685085090457,-2.8466587461731776,11.0,482.0],["HPGDS_27306",0.11628191458670835,-2.3039927757864387,11.0,482.0],["ISY1-RAB43_100534599",0.12385706132853233,-2.52080099991875,11.0,482.0],["POMGNT1_55624",0.11772933360956402,-2.344550471508949,11.0,482.0],["NONO_4841",0.11763284593648683,-2.3418340750684448,11.0,482.0],["POLE2_5427",0.14156493970972156,-3.0717832850597087,11.0,482.0],["HIST1H3C_8352",0.14103396935237897,-3.0543564043887534,11.0,482.0],["RPL34_6164",0.14040770362165828,-3.033874099742167,11.0,482.0],["ZNF443_10224",0.11806712012641939,-2.3540744511638594,11.0,482.0],["PLG_5340",0.11633012356793017,-2.3053370334730836,11.0,482.0]],"bottom":[["MAP3K12_7786",-0.11724697724543612,-2.330989000159401,11.0,482.0],["HPS5_11234",-0.11743983524822897,-2.336405752686257,11.0,482.0],["GJA5_2702",-0.12511157001539006,-2.5577938907228117,11.0,482.0],["SERPINB8_5271",-0.1156063369431288,-2.2852027511773705,11.0,482.0],["SULT2B1_6820",-0.11715046887637239,-2.328281126154044,11.0,482.0],["ARSG_22901",-0.1195628681338178,-2.3965159169362296,11.0,482.0],["EFNA4_1945",-0.1194180770405568,-2.392388349680625,11.0,482.0],["CAND1_55832",-0.13973339757190262,-2.9240093895090697,11.0,463.0],["RCN1_5954",-0.1184048416440274,-2.363618921939251,11.0,482.0],["ADAMDEC1_27299",-0.13524409621194977,-2.8679725657520607,11.0,482.0],["LOC101060521&POLR3E_101060521&55718",-0.13741524282314876,-2.937083053249785,11.0,482.0],["PTPN7_5778",-0.11864609327317824,-2.3704506934532024,11.0,482.0],["SLC25A32_81034",-0.11821187231387424,-2.358162611610442,11.0,482.0],["CREB3_10488",-0.12400191918608576,-2.5250567405644975,11.0,482.0],["PSAT1_29968",-0.1240983130941905,-2.5278909617085104,11.0,482.0],["SARS_6301",-0.12062457090981724,-2.426907490181759,11.0,482.0],["RASL11A_387496",-0.14383245026114325,-3.146838046483624,11.0,482.0],["SDHB_6390",-0.1371258405485898,-2.927816864538267,11.0,482.0],["PDE7B_27115",-0.11613710134540037,-2.2999575404541557,11.0,482.0],["SSX6_280657",-0.12689681666680064,-2.6109716813832446,11.0,482.0],["NOVA2_4858",-0.12815127140909874,-2.6487146349073276,11.0,482.0],["TBC1D9B_23061",-0.12318156508443433,-2.5010102746922933,11.0,482.0],["ALG5_29880",-0.12004535356159693,-2.4102998160693123,11.0,482.0],["PSMC3_5702",-0.1374160306971698,-2.9371082935589317,11.0,482.0],["TSG101_7251",-0.12376092750097606,-2.517978983786805,11.0,482.0],["PTPRD_5789",-0.11367637362757674,-2.232014811693017,11.0,482.0],["USP51_158880",-0.1253046034762396,-2.563513561873447,11.0,482.0],["CELF4_56853",-0.13784948352770424,-2.9510179836424575,11.0,482.0],["YWHAZ_7534",-0.11686083267386665,-2.320165321610018,11.0,482.0],["RIDA_10247",-0.1145448745777739,-2.255859966804374,11.0,482.0],["OR10J1_26476",-0.12762054040279228,-2.63270855070051,11.0,482.0],["LRRK2_120892",-0.1255458490881922,-2.570672101815877,11.0,482.0],["PRPF40B_25766",-0.12255430629848052,-2.4827131551073855,11.0,482.0],["TACC3_10460",-0.11748821734512635,-2.337765787449792,11.0,482.0],["NEUROD6_63974",-0.11633012939305155,-2.3053371958605786,11.0,482.0],["TAS2R16_50833",-0.12303683437212487,-2.496781619491491,11.0,482.0],["MINK1_50488",-0.11946632078649409,-2.3937631805090547,11.0,482.0],["PI3_5266",-0.1643386520754995,-3.8724254038141637,11.0,482.0],["SYT2_127833",-0.11425537901906817,-2.247895374167747,11.0,482.0],["MBD4_8930",-0.11628186509369635,-2.303991396531215,11.0,482.0],["SUPV3L1_6832",-0.1324458882891179,-2.7802823682193156,11.0,482.0],["EIF3G_8666",-0.1374641499221841,-2.9386506166355457,11.0,482.0],["SNX6_58533",-0.11657141021064431,-2.312071883547734,11.0,482.0],["PTPN9_5780",-0.14334999601261486,-3.1307827948075846,11.0,482.0],["ST6GALNAC3_256435",-0.13104630744610543,-2.737004656478587,11.0,482.0],["ANAPC4_29945",-0.12569094135342307,-2.57498297849178,11.0,482.0],["GRM5_2915",-0.12216851953625552,-2.4714981696996436,11.0,482.0],["RASA4B_100271927",-0.13423075700934597,-2.8360371416774037,11.0,482.0],["COL2A1_1280",-0.11874258382015596,-2.3731863065069856,11.0,482.0],["FPR1_2357",-0.13442378286563317,-2.842104643751697,11.0,482.0],["AFG3L1P_172",-0.12342292807835255,-2.5080714345659163,11.0,482.0],["CFTR_1080",-0.12993652427219082,-2.7029636818443987,11.0,482.0],["APOE_348",-0.16380789661142295,-3.852577448426336,11.0,482.0],["LOC107987545&OR2A7&OR2A4_107987545&401427&79541",-0.13963474108158075,-3.008701824569455,11.0,482.0]]}}}
{"ccle_rrbs_tss1kb":{"corr":{"top":[["SIRT6_19_4182601_4183601",0.19469973821030154,-7.798649060825615,19.0,810.0],["CCDC69_5_150603654_150604654",0.2675837707208579,-13.430896168187248,18.0,756.0],["SLC3A2_11_62648170_62649170",0.238960018881137,-11.554426553200598,19.0,814.0],["ABCB8_7_150724508_150725508",0.23454173654805902,-10.180383965023005,17.0,739.0],["IZUMO4_19_2095867_2096867",0.17301809934967424,-6.295889085390125,19.0,814.0],["CARMIL3_14_24520205_24521205",0.1827137974035045,-6.899806217936072,19.0,806.0],["LRCH3_3_197517096_197518096",0.2948631962268293,-8.800484299040486,11.0,392.0],["PIGZ_3_196695742_196696742",0.22572323135090275,-10.357356263109724,19.0,814.0],["SLC3A2_11_62647343_62648343",0.18059031871374961,-6.722682196249428,19.0,802.0],["RAB6A_11_73472201_73473201",0.16681072406381603,-5.704295185312649,18.0,786.0],["GIHCG_12_58329947_58330947",0.24114053216061743,-11.519937939459508,17.0,798.0],["TMEM18_2_676704_677704",0.277509729579742,-15.450622821377095,19.0,813.0],["ROCK1_18_18691812_18692812",0.1967712778820676,-7.945600929846303,19.0,809.0],["LINC01570_16_5666251_5667251",0.19718758437806871,-2.7899667874435643,8.0,245.0],["NUS1_6_117995622_117996622",0.17359077176969945,-6.32726574232444,19.0,813.0]],"bottom":[["ZP3_7_76053271_76054271",-0.09293117744777311,-2.1192037370175183,19.0,805.0],["BCAP31_23_152990201_152991201",-0.10372830014450045,-2.546920680808548,19.0,807.0],["BCAP31_23_152989838_152990838",-0.09730182713104356,-2.2900562410339367,19.0,807.0],["NALT1_9_139441293_139442293",-0.1061255284018933,-2.627571673709715,19.0,800.0],["LOC100129931_4_7047958_7048958",-0.11145661881880128,-2.8422776211804024,19.0,796.0],["KRT7_12_52625953_52626953",-0.0851481602960716,-1.8372144766877656,19.0,804.0]]},"para":{"top":[["SLCO4C1_5_101632253_101633253",0.1468252052290755,-3.4546869873970154,13.0,521.0],["SLC22A31_16_89266945_89267945",0.1320550211987395,-4.127450231396848,19.0,807.0],["SNX22_15_64442915_64443915",0.1177244939049222,-3.4454266245748397,19.0,808.0],["HOTAIRM1_7_27134712_27135712",0.1275978993190395,-3.880456453111875,19.0,800.0],["CD164L2_1_27709823_27710823",0.12135884237213572,-2.82622883081548,13.0,587.0],["CELF6_15_72612287_72613287",0.11961874750522826,-3.5421340751165324,19.0,811.0],["SULF1_8_70404027_70405027",0.14942386951588515,-3.727210296255876,14.0,554.0],["ADAM19_5_157002831_157003831",0.13956268326651,-4.39799187799017,18.0,782.0],["ATP6V1B2_8_20053703_20054703",0.11771522706836815,-3.4644353571195703,19.0,814.0],["DMRT2_9_1049619_1050619",0.12134101716337668,-3.587989540490356,19.0,801.0],["DEPDC7_11_33036409_33037409",0.11902937753389577,-3.5049974381920803,18.0,809.0],["DMRT2_9_1049345_1050345",0.13121661156083875,-4.057613907272201,19.0,800.0],["DEPDC7_11_33036727_33037727",0.1214354526372338,-3.630119231424024,18.0,813.0],["NLGN3_23_70363680_70364680",0.1448546507766524,-2.5670733385760154,9.0,361.0],["CCNA1_13_37005408_37006408",0.14412159255026663,-4.777594990366203,19.0,811.0],["IGDCC4_15_65715410_65716410",0.1426795542594661,-4.46119088458557,17.0,762.0],["ETV1_7_14031050_14032050",0.14566607838862256,-4.828403963495665,19.0,804.0]],"bottom":[["ZP3_7_76053271_76054271",-0.09246138869886686,-2.3979049548881624,19.0,805.0],["DDX3X_23_41192414_41193414",-0.09064683113555295,-2.3474666569230176,19.0,813.0],["EZH1_17_40897114_40898114",-0.10399109638660783,-2.8349500385151325,19.0,801.0],["CYBRD1_2_172377756_172378756",-0.11383021612565439,-1.8956191521989116,8.0,379.0],["BCAP31_23_152990201_152991201",-0.10646651942975466,-2.9523977873521323,19.0,807.0],["BCAP31_23_152989838_152990838",-0.10289372487830149,-2.805819589376285,19.0,807.0],["NALT1_9_139441293_139442293",-0.12000814613891453,-3.5232180304171052,19.0,800.0],["SLC16A1_1_113498685_113499685",-0.1115999082074351,-3.179239579870169,19.0,810.0],["DR1_1_93810477_93811477",-0.08994848642502537,-2.2764904539408457,18.0,791.0]]}}}
{"ccle_gene_tpm":{"corr":{"top":[["RP11-114N19.2_ENSG00000258915.1",0.2626876970548263,-16.81707049146198,22.0,997.0],["CENPIP1_ENSG00000224778.1",0.19286709951888967,-9.268871290012365,22.0,997.0],["RP11-3G20.2_ENSG00000248478.2",0.210990232034403,-10.991394404840197,22.0,997.0],["WI2-925H4.1_ENSG00000235702.1",0.21099023203440342,-10.991394404840223,22.0,997.0],["RNU1-88P_ENSG00000238554.1",0.21099023203440342,-10.991394404840223,22.0,997.0],["OR13D2P_ENSG00000237443.1",0.20698830222368042,-10.59714255955655,22.0,997.0],["RP11-183E24.1_ENSG00000259266.1",0.21099023203440342,-10.991394404840223,22.0,997.0],["FOXJ1_ENSG00000129654.7",0.18046085237950107,-8.181633165273063,22.0,997.0],["RP11-293N14.1_ENSG00000260223.1",0.21099023203440337,-10.991394404840197,22.0,997.0],["OR13C2_ENSG00000257019.1",0.1947665555466879,-9.441877577868894,22.0,997.0],["None_ENSG00000204850.3",0.19713504146419164,-9.660057567968256,22.0,997.0],["AL022345.7_ENSG00000272319.1",0.23646526323479924,-13.68956371598656,22.0,997.0],["AC092106.1_ENSG00000224061.1",0.20203457854825765,-10.1200729404601,22.0,997.0],["RP11-245A18.1_ENSG00000254000.1",0.21099023203440337,-10.991394404840197,22.0,997.0],["GULOP_ENSG00000234770.1",0.22202903137197855,-12.12026129129886,22.0,997.0],["RPS3P1_ENSG00000230935.1",0.24068646493995735,-14.16865336713923,22.0,997.0],["SNORA25_ENSG00000200652.1",0.21099023203440287,-10.991394404840197,22.0,997.0],["RP11-669M2.1_ENSG00000225006.1",0.19869140463395227,-9.804913162715037,22.0,997.0],["RP11-63B13.1_ENSG00000261501.1",0.19501586010323152,-9.46471463397536,22.0,997.0],["LINC00363_ENSG00000232849.1",0.21099023203440298,-10.991394404840197,22.0,997.0],["BMS1P19_ENSG00000231099.1",0.21099023203440315,-10.991394404840221,22.0,997.0],["TUBA3GP_ENSG00000249680.1",0.23205244302426392,-13.198559090986414,22.0,997.0],["NMNAT1P1_ENSG00000259167.2",0.19095022326125877,-9.096048822581025,22.0,997.0]],"bottom":[["TOMM20_ENSG00000173726.6",-0.08611939724692977,-2.2258779842585694,22.0,997.0],["TFB2M_ENSG00000162851.6",-0.09096892471296471,-2.4369130754176407,22.0,997.0],["SLITRK5_ENSG00000165300.6",-0.08685990426053072,-2.2574663294688593,22.0,997.0],["UTP20_ENSG00000120800.4",-0.07798449478662542,-1.893835386553185,22.0,997.0],["HSP90AB1_ENSG00000096384.15",-0.10359693054988782,-3.0330145673784545,22.0,997.0],["SYNCRIP_ENSG00000135316.13",-0.07871900213694658,-1.9226942434580612,22.0,997.0],["RPS26P6_ENSG00000212994.4",-0.08792183490759231,-2.3031652532351363,22.0,997.0],["TTC27_ENSG00000018699.7",-0.08897308894130729,-2.3488690287506078,22.0,997.0],["RPF2_ENSG00000197498.8",-0.08288583186875624,-2.0906146177103855,22.0,997.0],["NPM1P40_ENSG00000236523.2",-0.08477933643222495,-2.1692946898038477,22.0,997.0],["USMG5P1_ENSG00000231549.1",-0.07925987677015865,-1.94408695946025,22.0,997.0],["POLR3B_ENSG00000013503.5",-0.08218404186163548,-2.061830892506692,22.0,997.0],["None_ENSG00000011052.17",-0.08040851819761531,-1.9899174033593485,22.0,997.0],["HSP90AB3P_ENSG00000183199.6",-0.08349367393572034,-2.115709948502272,22.0,997.0],["KDM1B_ENSG00000165097.9",-0.0768381326907464,-1.8492369340896775,22.0,997.0]]},"para":{"top":[["CTD-2330K9.2_ENSG00000230698.1",0.14750354373818123,-5.898028767513315,22.0,997.0],["None_ENSG00000255872.3",0.1254536222261484,-4.503653422697924,22.0,997.0],["LHFPL3-AS1_ENSG00000226869.2",0.11901320437224668,-4.1350934021481525,22.0,997.0],["TP53I13_ENSG00000167543.11",0.11185506627126351,-3.7458884704667526,22.0,997.0],["HIST1H4E_ENSG00000198518.5",0.09776316803137125,-3.042052673816543,22.0,997.0],["RP11-330M2.3_ENSG00000227257.1",0.13688573804505835,-5.200828276690971,22.0,997.0],["ATXN1L_ENSG00000224470.3",0.1323989509762314,-4.920752827076106,22.0,997.0],["RP11-214O1.2_ENSG00000266709.1",0.09369580505302971,-2.854183490838882,22.0,997.0],["PLEKHM1_ENSG00000225190.4",0.10220278965546656,-3.2549049575400204,22.0,997.0],["VN1R20P_ENSG00000233121.1",0.11571533411162788,-3.9530898638222287,22.0,997.0],["RP11-1399P15.1_ENSG00000273445.1",0.09435740587696541,-2.8842779952990796,22.0,997.0]],"bottom":[["TOMM20_ENSG00000173726.6",-0.09707291081924652,-3.0096903752251354,22.0,997.0],["MEIOB_ENSG00000162039.10",-0.0968415917206899,-2.998886391297438,22.0,997.0],["AC018735.1_ENSG00000226553.1",-0.08078952236288683,-2.3028820758655293,22.0,997.0],["RGS22_ENSG00000132554.15",-0.10461976534850985,-3.374198140768931,22.0,997.0],["TFB2M_ENSG00000162851.6",-0.08125742844135998,-2.321697694571299,22.0,997.0],["CA10_ENSG00000154975.9",-0.09541923387194069,-2.9328811890202826,22.0,997.0],["HSP90AB1_ENSG00000096384.15",-0.08654908990612836,-2.540526267603868,22.0,997.0],["CHL1_ENSG00000134121.5",-0.09387611116903927,-2.862365121767748,22.0,997.0],["NPM1P40_ENSG00000236523.2",-0.09183055301228388,-2.7702740446134793,22.0,997.0],["HEATR1_ENSG00000119285.6",-0.08738604676853294,-2.576180036415163,22.0,997.0],["None_ENSG00000011052.17",-0.08791393893827494,-2.5988147429508537,22.0,997.0],["DDX11L1_ENSG00000223972.4",-0.09117609640935789,-2.741200040323055,22.0,997.0]]}}}
{"ccle_rrbs_tss_clusters":{"corr":{"top":[["C2orf88_3",0.2196247485872369,-4.287381325364281,9.0,325.0],["SLC35E3",0.21139412385491518,-9.194028362032808,19.0,819.0],["MIR3190_2",0.18514048750377401,-7.203230985695349,19.0,823.0],["XRRA1_2",0.16833506240039667,-3.160402134505471,8.0,395.0],["CCDC69_3",0.20535497524800225,-8.656404642378567,18.0,815.0],["GDF11_1",0.24539992599887994,-12.245913810369853,19.0,820.0],["LINC00461_6",0.1688815746270106,-6.088471195911747,19.0,824.0],["SMYD3_2",0.19628526328954937,-8.031844942698427,19.0,823.0],["TMEM18",0.27874727672563837,-15.765141419564861,19.0,823.0],["SH2D3C_12",0.2595998986807501,-9.070467971164073,14.0,528.0],["MIR3191_3",0.20442751195216358,-8.630539436313306,19.0,819.0],["SLC3A2_1",0.23903201072795538,-11.69139613796327,19.0,824.0],["DCAF5_2",0.16815594703676084,-5.904855791183527,18.0,804.0],["PIGZ_3",0.21913534175566082,-9.89803039576967,19.0,824.0],["ZMYM5_1",0.20331505183676016,-8.5235468699611,19.0,817.0],["TSPAN5_3",0.18876154872083473,-3.3902104640198747,9.0,338.0],["BMP2K",0.22756481929275268,-10.625692586608489,19.0,823.0]],"bottom":[["TULP4_3",-0.12485925962767896,-2.960918676148312,15.0,666.0],["ZDHHC7_3",-0.14297760225679385,-4.330141013878031,18.0,787.0],["GNE_2",-0.12771061732571268,-3.269379455683436,14.0,717.0],["PDLIM7_3",-0.1717282464841246,-6.07523041762288,19.0,794.0],["ARHGEF18_5",-0.11797198035859993,-2.1974343287100497,13.0,521.0],["ZNF783_1",-0.13606115894847823,-4.001939297982891,19.0,794.0],["TUBA3FP_1",-0.12752588991690267,-3.4100639229110254,19.0,751.0],["SLC38A7_3",-0.15586783511774072,-2.495924387223094,10.0,346.0],["MIR6716_1",-0.18935687788896582,-2.2721941449553995,8.0,207.0],["AKAP9_2",-0.12980417028742017,-2.9254363648233417,15.0,606.0],["LOC100129931_1",-0.17281226909373038,-6.275338809163772,19.0,813.0],["GPBP1_4",-0.15889211794026672,-3.0663268064656966,11.0,426.0],["MIR4269_1",-0.1641320282302559,-5.7366948048186455,19.0,817.0],["SNORD153_2",-0.12586935747682554,-3.482367207303472,18.0,792.0],["LINC02199_2",-0.11737344128007615,-3.055224173492702,17.0,783.0],["FAM177B_2",-0.15889466236280583,-3.4360877445373834,12.0,487.0],["MIR1301_1",-0.17031526049362714,-6.150158741932088,19.0,819.0],["LINC01090_3",-0.15623147759827188,-4.76331774521231,17.0,733.0],["RHOH_2",-0.1485374475573076,-2.3936871903701333,10.0,363.0],["CREM_1",-0.2380026501955825,-4.799671547786565,13.0,309.0],["ZPR1_3",-0.14147772975521583,-4.407505841427174,19.0,820.0],["HDAC5_3",-0.14086009294700486,-4.244906123614285,19.0,792.0],["PCED1A_4",-0.13085909107897373,-3.7896800920932594,19.0,807.0],["HTT_1",-0.11776476305306148,-2.6119808581358117,17.0,643.0],["MCOLN1_1",-0.1296862981795434,-3.769746185322485,19.0,817.0],["RPEL1_2",-0.12158936716375872,-2.9739381227900075,17.0,705.0],["LOC102724152_1",-0.15148510104775065,-3.0277614340362216,13.0,461.0]]},"para":{"top":[["TIMM10_1",0.1252924723082887,-2.9901559562845366,12.0,595.0],["CCDC177_3",0.14059057503198838,-4.6276353902625385,19.0,820.0],["POPDC3_1",0.1360861341344182,-4.388112468184147,19.0,820.0],["VASH1_3",0.1284296471281221,-4.008542724051271,19.0,823.0],["NPR2_1",0.158611183059646,-2.3855140539186346,9.0,270.0],["CR1_2",0.1339684952493162,-2.9554408482471506,9.0,514.0],["TTC28_1",0.1630778771582536,-3.1415630067903364,9.0,374.0],["MFN1_1",0.13304258346406178,-4.01790080853782,18.0,769.0],["HOXA1_1",0.12392824978626626,-3.7909260531435685,19.0,824.0],["ZNF432_1",0.1418522470703493,-3.908489603698133,14.0,655.0],["MEF2C-AS2_1",0.14031600680174153,-4.603812500187449,19.0,818.0],["MIR3142HG_3",0.16133214138397553,-3.047707777371185,11.0,365.0],["RERE-AS1_3",0.13085035896955013,-2.816783011014812,12.0,502.0],["THSD1_3",0.17972555384789296,-3.8014186259726777,11.0,392.0],["KCTD1_7",0.16256782336888423,-3.0394299569294434,11.0,358.0],["ZEB2-AS1_3",0.1783908567613259,-3.1163034941871888,8.0,309.0],["LINC00461_6",0.14865840827969046,-5.094411229841695,19.0,824.0],["MIR4507_1",0.1441492275576909,-3.966896267694852,13.0,647.0],["HBZ_2",0.1710010666765719,-3.0411882705988695,8.0,326.0],["EPB41L3_6",0.132737618422041,-4.1293183152719655,19.0,799.0],["LOC389895_2",0.1274452349014762,-2.883215259280562,10.0,549.0],["EPB41L3_2",0.14070834820935785,-4.552327802824744,19.0,802.0],["SAMD3_2",0.1264331832566367,-3.846604248506657,18.0,807.0],["CCNA1_2",0.1470816753686443,-5.0000014287650805,19.0,823.0],["ANKRD36BP2_2",0.15510143068901622,-5.370750071989922,19.0,806.0],["MYLK_3",0.13047230199124615,-4.0797909289124545,19.0,815.0],["MIR3648-2_3",0.14678115581949172,-3.058232832611964,12.0,444.0],["NCF4_2",0.13852087184384473,-4.1990039650152795,16.0,751.0],["DNMT3B_5",0.12468734692947626,-3.7953194274649853,19.0,815.0],["HBZ_3",0.14032338294113558,-4.595185603545959,19.0,816.0],["WFDC10B_2",0.16108751693095905,-4.85081937639411,16.0,661.0],["PHACTR3_4",0.12417223103640511,-3.576842906961234,17.0,763.0],["TSPAN5_3",0.17135160969719804,-3.1413212933764267,9.0,338.0],["ITGA9_2",0.13362655491170186,-4.243827957465073,18.0,817.0]],"bottom":[["GNE_2",-0.1721918581126143,-5.783141765279591,14.0,717.0],["BCAP31_5",-0.10488261098891088,-2.905176337815505,19.0,814.0],["MLLT10P1_1",-0.09775940469894759,-2.0361857353371438,11.0,572.0],["LINC00395_3",-0.15052833635348567,-1.9526108821671653,8.0,224.0],["TNP2_3",-0.09705058979867372,-1.6812100911638084,11.0,431.0],["ARHGEF18_5",-0.11798265243840103,-2.49003832436648,13.0,521.0],["BCAP31_7",-0.11192108937872491,-3.1814491791321227,19.0,806.0],["TTC14_1",-0.16871585217220042,-2.2346465915017455,12.0,213.0],["FRMD4A_6",-0.09831109256603587,-2.2660134981719864,16.0,657.0],["SLC38A7_3",-0.14973645401037894,-2.618926868091091,10.0,346.0],["MIR6716_1",-0.16747070410267165,-2.141551754243447,8.0,207.0],["NUBPL_3",-0.13521614339551213,-2.493847622896,9.0,399.0],["GPBP1_4",-0.14649993330997732,-2.952450901664371,11.0,426.0],["NAIF1_1",-0.16306074783114063,-1.9851910994574526,8.0,195.0],["CYTH3_3",-0.128440247577467,-1.4963181683163207,8.0,202.0],["BCAP31_3",-0.08725957898402603,-2.2197134196319634,19.0,810.0],["RHOH_2",-0.11691194968483969,-1.9164781272301097,10.0,363.0],["FADS2_1",-0.14151916750207305,-3.875118863749236,13.0,652.0],["TM7SF3_2",-0.08428925351058988,-2.1177784166581612,19.0,811.0],["FADS2_4",-0.11872336399323757,-3.0703302433898716,14.0,686.0],["LOC100129138_3",-0.09557450362506785,-1.7751632551105188,10.0,486.0],["LUNAR1_3",-0.10306690436519887,-2.7367761193604996,17.0,779.0],["LOC105376351_1",-0.11868241834417852,-1.4043162115020535,8.0,213.0],["PRDM2_8",-0.09718646665564173,-2.614501715466948,19.0,822.0],["LOC102723376_1",-0.07288935970541839,-1.2807225616619227,8.0,489.0],["LINC02575_3",-0.09915955292069645,-1.8475342316226562,9.0,481.0],["CYBRD1_2",-0.11367120240654152,-1.914816433118895,8.0,386.0],["MIR635_3",-0.13804971608952804,-2.9116512340439833,8.0,475.0]]}}}
{"ccle_rrbs_cgi_clusters":{"corr":{"top":[["10_21784809_21788420-1",0.17754800323661285,-6.6596036731630885,19.0,822.0],["3_197389889_197394481-1",0.1869947414303125,-7.265915651779696,19.0,814.0],["12_69137815_69142206-1",0.21139412385491518,-9.194028362032808,19.0,819.0],["11_64507433_64511629-3",0.19902218129977076,-8.251929098248144,19.0,824.0],["3_37491418_37493978-3",0.1795502685381375,-5.876529053149347,17.0,699.0],["1_90226744_90231173-2",0.20387632684369988,-8.397422423656161,18.0,800.0],["7_149321711_149324234-1",0.21451849281833732,-9.453147166787877,19.0,819.0],["11_62646237_62651161-1",0.23903201072795538,-11.69139613796327,19.0,824.0],["4_99579651_99582160-3",0.18876154872083473,-3.3902104640198747,9.0,338.0],["13_20434776_20437932-1",0.24926540995443827,-12.537551046405317,19.0,814.0],["12_56134783_56137283-1",0.24657017458446293,-12.359284338012047,19.0,820.0],["2_674651_677165-1",0.27021893805424,-14.795038944905622,19.0,821.0],["2_191042979_191047829-3",0.2196247485872369,-4.287381325364281,9.0,325.0],["12_94493833_94498230-2",0.2589202156336073,-13.62254651069166,19.0,822.0],["19_47727420_47732033-3",0.20442751195216358,-8.630539436313306,19.0,819.0],["5_141014320_141017002-1",0.19758714435508792,-8.122974753140443,19.0,822.0],["5_150601213_150605753-3",0.20535497524800225,-8.656404642378567,18.0,815.0],["13_44451207_44453751-3",0.18260036712283287,-6.434661897682128,17.0,748.0],["4_79697333_79699958-1",0.2317250556533749,-11.001172805161119,19.0,823.0],["6_108167396_108171790-1",0.17944818606384882,-6.725421925853009,19.0,813.0],["18_18691500_18694059-1",0.20539282088752245,-8.755475250979192,19.0,824.0],["3_196696192_196699065-1",0.22933167088224835,-10.796249474275847,19.0,824.0],["1_246668148_246672768-2",0.19628526328954937,-8.031844942698427,19.0,823.0],["5_129237553_129240583-1",0.2589392985926532,-5.383905324370451,9.0,299.0]],"bottom":[["21_43234025_43238510-2",-0.1376231229013717,-3.050464282526348,12.0,568.0],["6_160387832_160390361-1",-0.14010765914908443,-4.118469914224643,19.0,773.0],["6_164090861_164095113-1",-0.15148510104775065,-3.0277614340362216,13.0,461.0],["5_14459130_14463463-2",-0.13591405596334527,-2.6563019216402624,10.0,495.0],["19_36363453_36367824-2",-0.13188098343930982,-2.757997100487181,16.0,545.0],["21_37665809_37670088-1",-0.13377881331706215,-3.7849390644585466,17.0,772.0],["17_42201032_42203543-3",-0.14086009294700486,-4.244906123614285,19.0,792.0],["22_21366197_21370771-1",-0.12752588991690267,-3.4100639229110254,19.0,751.0],["12_123442211_123446565-2",-0.16823302295871134,-4.278715198955232,13.0,559.0],["14_31344056_31346757-3",-0.1411080390628388,-1.4276753149077754,8.0,210.0],["1_16808605_16812957-1",-0.1385826424267505,-4.057675837783511,18.0,778.0],["22_47012288_47016698-1",-0.12744175296983026,-3.6567212797534983,19.0,817.0],["8_8173699_8176237-1",-0.1297908342954662,-3.7593658302809567,19.0,813.0],["5_419224_423751-2",-0.12737937640309555,-2.4882031376322553,11.0,521.0],["19_56087679_56090269-1",-0.1378341886483787,-4.1646119766070795,19.0,810.0],["10_35413788_35418685-1",-0.2380026501955825,-4.799671547786565,13.0,309.0],["19_7582325_7587281-1",-0.14829854775161722,-4.798107108522888,19.0,821.0],["2_241717465_241721701-3",-0.18673369882054539,-2.6522428798562325,8.0,258.0],["9_136916498_136920708-3",-0.13503569542632005,-3.7581979551104068,18.0,750.0],["16_58716309_58720703-3",-0.15586783511774072,-2.495924387223094,10.0,346.0],["19_5220662_5225351-1",-0.12582035750014117,-3.5909906352451677,19.0,821.0],["1_1016099_1020390-1",-0.14685893569295688,-4.730112851716911,19.0,824.0],["16_89485760_89490158-1",-0.2484601778216204,-5.293668254834365,11.0,318.0],["11_119533559_119537992-1",-0.13083524412216282,-3.6807894677516195,19.0,780.0],["22_45662580_45666820-1",-0.13029638619770753,-3.3047407100855035,18.0,693.0],["7_791118_795767-1",-0.14744450111055152,-4.723778887994606,19.0,816.0],["11_116659034_116663410-3",-0.14147772975521583,-4.407505841427174,19.0,820.0],["8_142220146_142224399-1",-0.1304009388781471,-3.8179847579431834,19.0,820.0],["2_239972439_239976724-1",-0.1750615465985686,-2.363398736435885,10.0,254.0],["1_1014863_1019439-2",-0.15100212022212461,-4.971635589570882,19.0,824.0],["2_220410341_220414678-2",-0.14951554471514425,-4.729742023264689,19.0,794.0],["7_792217_796582-1",-0.12844661968636156,-3.726316083527196,19.0,822.0],["16_85042730_85047436-3",-0.14297760225679385,-4.330141013878031,18.0,787.0],["22_50613278_50616589-1",-0.12401026460254669,-3.5018242211101516,19.0,821.0]]},"para":{"top":[["1_207667637_207672015-2",0.1339684952493162,-2.9554408482471506,9.0,514.0],["18_24128959_24133138-3",0.16256782336888423,-3.0394299569294434,11.0,358.0],["23_83002829_83007105-2",0.13139477601587052,-2.829756624272977,8.0,505.0],["3_37491418_37493978-1",0.12793144703582807,-3.949627251843529,18.0,815.0],["4_4145121_4147667-1",0.12052789117213598,-2.511774141530852,9.0,509.0],["12_132310439_132314089-2",0.13227668270248996,-4.203129960855216,19.0,823.0],["21_9823442_9828296-3",0.14678115581949172,-3.058232832611964,12.0,444.0],["13_37003581_37008453-2",0.1470816753686443,-5.0000014287650805,19.0,823.0],["3_37491418_37493978-3",0.1660524176571278,-5.3460996009945685,17.0,699.0],["13_52977999_52982586-3",0.17972555384789296,-3.8014186259726777,11.0,392.0],["18_2847370_2850175-3",0.15415856910472783,-3.6623225069908467,12.0,510.0],["3_123600588_123605540-3",0.13047230199124615,-4.0797909289124545,19.0,815.0],["4_99579651_99582160-3",0.17135160969719804,-3.1413212933764267,9.0,338.0],["3_42052781_42055355-2",0.1343741357265539,-4.269826747009461,19.0,813.0],["16_89265823_89270087-3",0.13245004420919096,-4.1675498221036555,19.0,812.0],["14_106031298_106035520-1",0.12486299002358583,-2.7336501900323293,11.0,531.0],["6_117589533_117594279-2",0.15328408543894925,-4.724449466831213,17.0,707.0],["23_139171387_139175767-2",0.1274452349014762,-2.883215259280562,10.0,549.0],["18_5540847_5545054-2",0.14070834820935785,-4.552327802824744,19.0,802.0],["23_118109530_118112559-2",0.14108378380066083,-3.8105494173254515,16.0,639.0],["14_102980950_102985946-2",0.13863052516786714,-4.531360102035339,19.0,822.0],["4_4117800_4122035-2",0.13922380903794174,-2.466812443860764,8.0,371.0],["23_54384674_54387477-1",0.1621788646254174,-4.126916028357311,15.0,533.0],["1_150532075_150536301-2",0.1306522559045979,-3.9980469516067254,17.0,794.0],["17_8026781_8031012-3",0.14494920892788546,-4.331652917524901,17.0,711.0],["7_42276927_42279850-3",0.14398080061406654,-3.2639852523770547,12.0,504.0],["16_212343_215531-3",0.13105387053523995,-4.11695212771331,19.0,817.0],["19_16020512_16024935-1",0.14664370801117782,-3.372521634670261,12.0,507.0],["5_87966635_87970907-3",0.14031600680174153,-4.603812500187449,19.0,818.0],["16_204309_206866-1",0.14032338294113558,-4.595185603545959,19.0,816.0],["2_90445597_90449236-1",0.14362023830136064,-4.333874337637173,16.0,726.0],["4_4142575_4145121-1",0.14575043386223024,-3.569201033629283,11.0,554.0],["3_179063560_179067979-1",0.13304258346406178,-4.01790080853782,18.0,769.0],["6_105625406_105629830-1",0.12771402522572328,-3.2735910653904776,11.0,647.0],["8_57067687_57072047-2",0.13820610170368536,-4.425430531499437,19.0,803.0],["16_201753_204309-3",0.1882906926044836,-3.5095552963018615,8.0,324.0],["6_105625406_105629830-2",0.13154870686828055,-4.1539445825552095,19.0,820.0],["22_29073100_29075660-1",0.1630778771582536,-3.1415630067903364,9.0,374.0],["14_70039213_70043662-3",0.14059057503198838,-4.6276353902625385,19.0,820.0],["18_25756794_25760175-2",0.18587637920920874,-2.927601846201706,8.0,261.0],["5_129237553_129240583-1",0.22451204770610717,-4.37501044859211,9.0,299.0],["9_19788751_19791288-3",0.15509733969344233,-3.8372396746033632,14.0,533.0],["22_17850104_17852733-3",0.13898062468128097,-4.350497539418942,18.0,778.0]],"bottom":[["5_14459130_14463463-2",-0.14313659056367914,-3.181298152214558,10.0,495.0],["21_43234025_43238510-2",-0.13638773638428817,-3.2862313321592285,12.0,568.0],["1_249104095_249108517-1",-0.11886376486128028,-3.50072138741198,19.0,809.0],["9_139347523_139351805-3",-0.15139321127017424,-3.2910480998378553,13.0,459.0],["7_158787486_158792019-3",-0.1006162599820651,-1.755221978383145,8.0,432.0],["9_130827535_130830242-1",-0.16306074783114063,-1.9851910994574526,8.0,195.0],["1_1165001_1167993-3",-0.1242954990797519,-2.485010134086665,9.0,471.0],["14_31344056_31346757-3",-0.1604937742996827,-2.040581018209214,8.0,210.0],["23_152990296_152993719-2",-0.10488261098891088,-2.905176337815505,19.0,814.0],["23_48691328_48696090-3",-0.11053157415749322,-2.421348501173008,13.0,572.0],["9_136756461_136760902-1",-0.12383834545562573,-3.375319736554445,14.0,714.0],["7_157692387_157696661-2",-0.118291879147547,-1.6158922544333159,8.0,272.0],["19_7502923_7507186-2",-0.11798265243840103,-2.49003832436648,13.0,521.0],["19_2729691_2733967-3",-0.09400513117089342,-1.9827952670944584,14.0,592.0],["16_58716309_58720703-3",-0.14973645401037894,-2.618926868091091,10.0,346.0],["21_43174662_43178894-3",-0.11456524851006919,-1.8657401328670873,9.0,364.0],["15_93616404_93619185-1",-0.1074403677242887,-2.79282897295424,15.0,738.0],["2_172376822_172379506-2",-0.11367120240654152,-1.914816433118895,8.0,386.0],["10_2541463_2546121-1",-0.11868241834417852,-1.4043162115020535,8.0,213.0],["19_47246749_47249349-1",-0.1601177415360013,-2.756262246948513,9.0,325.0],["6_149775792_149780189-3",-0.11588606713202765,-1.7517167175371604,10.0,321.0],["1_204043377_204046510-3",-0.10049872903793843,-1.8880571851274552,11.0,482.0],["4_874455_878740-2",-0.1022056086439711,-2.6682076379944974,18.0,764.0],["15_99558574_99561170-3",-0.10306690436519887,-2.7367761193604996,17.0,779.0],["2_240876212_240880587-2",-0.10439660618394553,-2.303141132926788,11.0,600.0]]}}}
