{"ccle_chromatin":{"corr":{"top":[],"bottom":[]},"para":{"top":[],"bottom":[]}}}
{"ccle_rppa":{"corr":{"top":[],"bottom":[["STAT3_STAT3_Caution",-0.09627485209662819,-2.413352515305433,39.0,860.0]]},"para":{"top":[],"bottom":[]}}}
{"ccle_metabolomics":{"corr":{"top":[["C18:0 LPE",0.11550494067836337,-3.3711914893403696,39.0,888.0]],"bottom":[["oleylcarnitine",-0.11011486637499839,-3.105593687542071,39.0,888.0],["lauroylcarnitine",-0.10382516879541921,-2.810069163769823,39.0,888.0]]},"para":{"top":[],"bottom":[]}}}
{"ccle_rrbs_enhancer_clusters":{"corr":{"top":[["10-102976822-102981600-0_enh",0.11394257957416078,-2.8985287252764698,38.0,760.0],["10-103527793-103530393-0_enh",0.11809524922285505,-3.2055732063618256,39.0,797.0],["4-4817733-4822560-1_enh",0.1235516933991891,-3.2001972016368567,38.0,724.0],["7-27250458-27253057-2_enh",0.12837723125466755,-3.108779474851918,34.0,648.0],["5-153869627-153873976-1_enh",0.1299643473730785,-3.5632858708144575,38.0,742.0],["18-44770777-44773284-2_enh",0.19417300705930762,-4.621995799303386,24.0,443.0]],"bottom":[]},"para":{"top":[],"bottom":[]}}}
{"ccle_mirna":{"corr":{"top":[["hsa-miR-194_miR00215.1",0.17772127645774483,-7.484906899491293,39.0,915.0],["hsa-miR-215_miR00243.1",0.16632617130881758,-6.622690712213808,39.0,915.0]],"bottom":[]},"para":{"top":[],"bottom":[]}}}
{"prism_primary_logfold":{"corr":{"top":[["flecainide_BRD-A09472452-015-23-4::2.5::HTS",0.11863958781784902,-2.2282184425453444,24.0,513.0],["IOWH032_BRD-K84892605-001-01-1::2.5::HTS",0.12030275407603475,-2.2800757102128837,24.0,513.0],["pyridoxamine_BRD-K96669468-300-01-1::2.5::MTS004",0.15504377523068652,-3.524780267740343,26.0,514.0],["oxytocin_BRD-K25243230-001-01-2::2.5::MTS004",0.1333561370425697,-2.7215157432829233,26.0,514.0],["estradiol_BRD-K18910433-001-43-2::2.5::HTS",0.10463874056701082,-1.8567418839011895,26.0,526.0],["tyrphostin-AG-835_BRD-K17415526-001-03-5::2.5::HTS",0.10970111965557963,-2.0044103539960387,26.0,526.0],["LY303511_BRD-K22385716-001-02-5::2.5::HTS",0.10321341115507732,-1.8162085785759448,26.0,526.0],["mequinol_BRD-K45216060-001-10-0::2.5::HTS",0.11482635435426877,-2.169465914294995,26.0,529.0],["nateglinide_BRD-K44353683-001-08-3::2.5::HTS",0.1268895812526273,-2.5186347106137603,25.0,519.0],["terbinafine_BRD-K68132782-003-13-8::2.5::HTS",0.13229677411921117,-2.760232196201687,25.0,533.0],["halopemide_BRD-K50055394-001-03-6::2.701086832::MTS004",0.10672902888178176,-1.8832936519052779,26.0,514.0],["ZM-336372_BRD-K73789395-001-10-7::2.5::HTS",0.128329441112169,-2.5904185003416123,26.0,524.0],["VER-49009_BRD-K38548312-001-01-0::2.5::HTS",0.09978746411900509,-1.7330673025233863,26.0,531.0],["tryptophan_BRD-K83776863-001-08-9::2.5::MTS004",0.13201784279383694,-2.675539959094106,26.0,514.0]],"bottom":[["ondansetron_BRD-A19736161-001-06-7::2.5::HTS",-0.11865078588239664,-2.3069927067877893,25.0,535.0],["L-732,138_BRD-K37952347-001-01-4::2.5::HTS",-0.11808765450913171,-2.2551211392141677,26.0,524.0],["5-HMF_BRD-K86799112-001-02-0::2.5::HTS",-0.10806558353090713,-1.9503245351450051,26.0,524.0],["Ro-19-4605_BRD-K80778372-001-02-5::2.5::HTS",-0.1473790451688946,-3.2896983047674193,26.0,526.0],["raclopride_BRD-K04111260-001-10-0::2.5::HTS",-0.10162064019929706,-1.7714533204876532,26.0,526.0],["guvacine_BRD-K01980392-003-11-6::2.5::HTS",-0.13604557136391895,-2.9031358942244214,26.0,534.0],["tiotidine_BRD-K15071410-001-01-1::2.5::HTS",-0.12691968908755047,-2.542822103322276,26.0,524.0],["RS-0481_BRD-A00055058-001-01-0::2.325889319::MTS004",-0.12193140829204559,-2.3422337977619363,26.0,514.0],["eupatilin_BRD-K47031502-001-01-6::2.5::HTS",-0.13062871328455822,-2.6445759664252404,25.0,519.0],["4-iodo-L-phenylalanine_BRD-K66664625-001-01-2::2.5::HTS",-0.1203591736986801,-2.3448897070021784,26.0,529.0],["MEK1-2-inhibitor_BRD-K12244279-001-05-8::2.5::HTS",-0.13010677763234973,-2.659176747613888,26.0,526.0],["irbesartan_BRD-K60038276-001-09-0::2.5::HTS",-0.11636290173626783,-2.2174733733355776,26.0,529.0]]},"para":{"top":[],"bottom":[]}}}
{"prism_secondary_logfold":{"corr":{"top":[["imidapril_BRD-K34332569-001-01-3::0.00061034::HTS002",0.1490115142034413,-2.7956257093410324,22.0,424.0],["oxazepam_BRD-A50049929-001-01-9::0.15625::HTS002",0.13377257273358142,-2.1842471526220932,18.0,394.0],["pibenzimol_BRD-K17026858-001-01-2::0.625::HTS002",0.13461962416178627,-2.487683260682813,24.0,452.0],["tanshinone-i_BRD-K34073885-001-09-3::0.159022::HTS002",0.14298516623274196,-2.523501050980142,19.0,410.0],["ingenol-mebutate_BRD-K93779381-001-01-9::0.0024414::HTS002",0.1370963688754394,-2.5333641708880172,23.0,446.0],["ingenol-mebutate_BRD-K93779381-001-01-9::0.15625::HTS002",0.12395634028777791,-2.1429388920827135,23.0,446.0],["usniacin-(+)_BRD-A12417644-001-07-6::0.000564918::HTS002",0.12868072164586278,-2.271352247302526,24.0,443.0],["flutamide_BRD-K28307902-001-21-7::0.15625::HTS002",0.1535336137743994,-3.0704804131334313,23.0,446.0],["teriflunomide_BRD-A42699921-001-03-6::0.0406498::HTS002",0.13443916121974223,-2.4516481910585544,23.0,446.0],["I-BET151_BRD-K36363294-001-04-2::0.0024414::HTS002",0.14429479130837566,-2.7668170333244397,24.0,446.0],["TG-02_BRD-K14560436-001-01-4::0.0390625::HTS002",0.1342857938331811,-2.473024810993583,23.0,452.0],["scriptaid_BRD-K22503835-001-11-0::0.15625::HTS002",0.127082043528526,-2.2562385674122662,23.0,452.0],["isoetharine_BRD-A24587114-066-22-5::0.0390625::HTS002",0.13076181657587047,-2.0788385499676574,17.0,389.0],["GSK461364_BRD-K92428232-001-10-6::0.0024414::HTS002",0.12467265439812862,-2.1898299542441877,24.0,452.0],["CP-724714_BRD-K76908866-001-07-6::2.5::HTS002",0.12730976570262942,-2.2235891520475297,23.0,442.0],["taselisib_BRD-K44844162-001-01-6::0.0024414::HTS002",0.13830216736495837,-2.5663217576117274,23.0,445.0],["vatalanib_BRD-K70163715-300-05-7::0.000590328::HTS002",0.1537347078724236,-3.0829909624972998,23.0,447.0],["12-O-tetradecanoylphorbol-13-acetate_BRD-K68552125-001-05-3::8.10603::HTS002",0.12624233180534727,-2.1463283898604333,20.0,433.0],["tosedostat_BRD-K92241597-001-06-0::2.5::HTS002",0.12327572268120585,-2.123643431565263,23.0,446.0],["tanaproget_BRD-K99604664-001-01-1::0.0390625::HTS002",0.13422913275748624,-2.4452493447039094,23.0,446.0],["ribociclib_BRD-K36788280-001-01-2::2.5::HTS002",0.13653406809216417,-2.48905949711947,19.0,444.0],["GSK-J4_BRD-K98203492-003-04-1::0.0390625::HTS002",0.1939362313246891,-4.638119478422609,23.0,447.0],["LDN-57444_BRD-K94485812-001-02-9::0.00062313::HTS002",0.13462010264833366,-2.4309706755535365,23.0,440.0],["dacarbazine_BRD-K35520305-001-16-9::0.0391::MTS010::PROS002_PR500",0.12975073664042808,-2.1841900218851817,24.0,414.0],["pyrimethamine_BRD-K88429204-001-35-1::0.00976562::HTS002",0.1302402098492855,-2.3253851829648795,23.0,446.0],["SR-57227A_BRD-K09397065-003-06-1::0.15625::HTS002",0.1630891469377081,-3.4206570844234507,24.0,447.0],["albendazole_BRD-K79131256-001-17-9::0.0390625::HTS002",0.12763599332763712,-2.157701725093067,22.0,424.0],["tetramethylthiuram-monosulfide_BRD-K36889451-001-01-1::10::HTS002",0.18159565277299317,-3.9545062269971987,18.0,430.0],["danazol_BRD-A92537424-001-04-7::0.0024414::HTS002",0.1259407213670474,-2.199714212314336,23.0,446.0],["bisacodyl_BRD-K39987650-001-24-1::0.00061034::HTS002",0.13610849990486257,-2.400171696562209,22.0,424.0],["domperidone_BRD-K38305202-001-17-4::0.625::HTS002",0.13520331492022516,-2.4750035132147397,23.0,446.0],["bephenium-hydroxynaphthoate_BRD-K47878171-086-06-0::0.15625::HTS002",0.18741696283661177,-4.165774891801098,22.0,424.0],["clofoctol_BRD-K02900412-001-11-3::0.625::HTS002",0.1352294484953328,-2.219223226695788,19.0,392.0],["AZ-628_BRD-K05804044-001-18-5::0.00061::MTS010::PROS002_PR500",0.13091013928862458,-2.216491030913731,24.0,414.0],["nilotinib_BRD-K81528515-001-13-8::10::HTS002",0.12625342579293639,-2.2087315391684457,23.0,446.0],["SB-200646_BRD-K77677632-003-02-6::0.00061034::HTS002",0.16509519364701436,-3.48783281934009,23.0,447.0],["maprotiline_BRD-K25433859-003-25-4::0.625::HTS002",0.1290049674766637,-2.1797612516081486,22.0,420.0],["pirenperone_BRD-K25224017-001-25-0::0.0390625::HTS002",0.16097694504444196,-3.1911028614470727,21.0,425.0],["oridonin_BRD-K23925186-001-02-8::0.00244901::HTS002",0.1629115653296088,-3.4016819962839655,23.0,446.0]],"bottom":[["GDC-0068_BRD-K71480163-001-01-4::0.625::MTS006",-0.23532784775939866,-6.583759775854251,24.0,444.0],["bexarotene_BRD-K92441787-001-04-1::0.00061034::HTS002",-0.13122965954185306,-2.371465524911287,24.0,449.0],["AS-703026_BRD-K89014967-001-04-3::0.00976562::HTS002",-0.1353687511467642,-2.3828885545581757,17.0,430.0],["selumetinib_BRD-K57080016-001-15-9::0.00061::MTS010::PROS002_PR500",-0.15806141921700503,-3.0447666481707114,24.0,414.0],["AP1903_BRD-K28383148-001-01-4::10::HTS002",-0.14768166958734116,-2.523360457518382,20.0,382.0],["lapatinib_BRD-K19687926-001-04-1::0.00244::MTS010::PROS004_PR500",-0.15958442003025902,-3.2700714344206614,24.0,443.0],["voreloxin_BRD-K23677682-003-01-2::0.00061034::HTS002",-0.15369221048818968,-2.9862886346206854,20.0,433.0],["dimethisoquin_BRD-K73391359-003-10-2::0.0390625::HTS002",-0.1390612280647246,-2.1362560348709203,18.0,353.0],["oltipraz_BRD-K86972824-001-01-4::0.00244::MTS010::PROS005_PR500",-0.1291495340395296,-2.2689027536223785,24.0,439.0],["diazooxonorleucine_BRD-K38458514-001-01-8::10::HTS002",-0.14081519020641162,-2.6643363731612837,22.0,450.0],["uprosertib_BRD-K38332599-001-01-3::0.15625::MTS010::PROS002_PR500",-0.22755458824015165,-5.825631900171852,24.0,414.0],["erteberel_BRD-K80608265-001-01-6::2.5::HTS002",-0.1393504525368878,-2.6363524068218176,24.0,452.0],["AEE788_BRD-K40718343-001-02-6::0.00976562::HTS002",-0.16304698947724353,-3.3376735606086214,22.0,436.0],["GW-501516_BRD-K14880289-001-02-2::0.00976562::HTS002",-0.15137481639502995,-2.90969944012185,20.0,433.0],["nomegestrol-acetate_BRD-K27351809-001-09-5::10::HTS002",-0.18114622399456948,-3.296136637385401,16.0,349.0],["AZ-628_BRD-K05804044-001-18-5::0.0391::MTS010::PROS004_PR500",-0.1657953151423966,-3.49426680163838,24.0,443.0],["itraconazole_BRD-A23067620-300-01-3::0.00061034::HTS002",-0.14305771248978563,-2.367693120950441,18.0,379.0],["alpelisib_BRD-K54997624-001-06-0::0.625::HTS002",-0.14491983125337665,-2.225846730885863,18.0,341.0],["mepivacaine_BRD-A03216249-003-24-3::0.00976562::HTS002",-0.1440365388815355,-2.738612174722796,23.0,443.0],["spermidine_BRD-K40438880-305-06-6::0.00976562::HTS002",-0.15906337320076078,-3.2755191700234882,24.0,447.0],["FK-866_BRD-K58550667-001-08-7::0.00244::MTS010::PROS005_PR500",-0.12990139557504998,-2.2908301093262797,24.0,439.0],["tyrphostin-AG-1296_BRD-K76064317-001-07-3::0.15625::HTS002",-0.1408168644075641,-2.640660018446282,23.0,444.0],["PD-198306_BRD-K88677950-001-03-9::0.625::HTS002",-0.12916670068415073,-2.3179031892799644,24.0,451.0],["dioscin_BRD-K37723606-001-01-5::0.0024414::HTS002",-0.15556044364589988,-3.1462492418706924,24.0,446.0],["bosutinib_BRD-K99964838-001-11-9::0.625::HTS002",-0.15350918965084195,-3.0696415110515587,23.0,446.0],["primaquine_BRD-A55913614-316-09-6::0.00061034::HTS002",-0.1492192576634841,-2.897717638639321,23.0,441.0],["VE-821_BRD-K26756394-001-02-2::0.625::HTS002",-0.1428754324672305,-2.7452205375701086,23.0,452.0],["BMS-754807_BRD-K13049116-001-04-0::0.625006::MTS010::PROS002_PR500",-0.1746692506135837,-3.6209553422164436,24.0,414.0],["capecitabine_BRD-K61192372-001-08-9::0.15625::MTS010::PROS003_PR500",-0.158767109700806,-3.1875471701403852,24.0,434.0]]},"para":{"top":[["oxazepam_BRD-A50049929-001-01-9::0.15625::HTS002",0.13538496037570882,-2.5174307470529587,18.0,394.0],["tanshinone-i_BRD-K34073885-001-09-3::0.159022::HTS002",0.15155051625776297,-3.064915408135743,19.0,410.0],["tetramethylthiuram-monosulfide_BRD-K36889451-001-01-1::10::HTS002",0.17898980960620603,-4.111434384886105,18.0,430.0],["bephenium-hydroxynaphthoate_BRD-K47878171-086-06-0::0.15625::HTS002",0.16602667521999467,-3.635761238906132,22.0,424.0],["pirenperone_BRD-K25224017-001-25-0::0.0390625::HTS002",0.15349603597308964,-3.2191925970095583,21.0,425.0]],"bottom":[["fenbendazole_BRD-K51318897-001-15-3::0.0390625::HTS002",-0.1784253709425931,-2.059133894523147,8.0,171.0],["uprosertib_BRD-K38332599-001-01-3::0.15625::MTS010::PROS002_PR500",-0.20692814478747837,-5.117490904062522,24.0,414.0],["DU-728_BRD-K08859203-001-01-9::2.5::HTS002",-0.15514387682243863,-3.266548472977076,17.0,428.0],["itraconazole_BRD-A23067620-300-01-3::0.00061034::HTS002",-0.1669707456169968,-3.349231372127897,18.0,379.0],["oxyquinoline_BRD-K66808046-065-03-7::0.625::HTS002",-0.16600800654765893,-2.0485860844173613,8.0,197.0]]}}}
{"ccle_proteomics":{"corr":{"top":[["RGN_Q15493",0.13613285688360718,-1.7833401396418262,8.0,302.0],["FANCI_Q9NVI1",0.13867822715464825,-2.135982053382317,12.0,361.0],["TERF1_P54274",0.16127201954566228,-1.9596715656100636,9.0,239.0],["CWC25_Q9NXE8",0.1452452856186454,-2.3059166337847667,12.0,361.0],["HPS4_Q9NQG7-4",0.16889394746828099,-1.9946172408414353,8.0,223.0],["CTU2_Q2VPK5",0.1513667600856749,-2.4705041400159766,12.0,361.0],["HBA1_P69905",0.14240145311530802,-2.2314885372284463,12.0,361.0],["YTHDC1_Q96MU7",0.17569701632941478,-3.1848427956027705,12.0,361.0],["MLXIP_Q9HAP2",0.17712728919392207,-1.940522607259949,9.0,194.0],["GLTSCR2_Q9NZM5",0.15380471367374718,-2.537728072974257,12.0,361.0],["AIF1_P55008",0.15275923286621892,-1.8002041919822551,11.0,238.0],["HIST1H4A_P62805",0.1334376829919238,-2.0052509849424163,12.0,361.0],["DTWD1_Q8N5C7",0.19165544292647974,-2.2195822335870425,9.0,195.0],["ARRB2_P32121-3",0.16296346564070255,-2.798877463181876,12.0,361.0],["SMARCAD1_Q9H4L7-2",0.18455286765886042,-3.469226230326434,12.0,361.0],["DIS3L_Q8TF46",0.191359049353602,-3.002292661378621,9.0,284.0],["NARF_Q9UHQ1",0.1825045792627044,-2.903505400454787,10.0,300.0]],"bottom":[["OAS1_P00973",-0.1715297361038355,-2.355882387791732,8.0,266.0],["FAM89B_Q8N5H3",-0.1443105550256008,-1.8724553534291504,8.0,285.0],["SLC35E1_Q96K37",-0.1455261503318696,-2.0808949317191323,11.0,317.0],["TUFT1_Q9NNX1",-0.15739068083481766,-2.638352462060497,12.0,361.0],["SYTL2_Q9HCH5-6",-0.19188745373286437,-3.3233361311383067,11.0,317.0],["PC_P11498",-0.14224927819111538,-2.227542038858134,12.0,361.0],["ADCY9_O60503",-0.19632080114322076,-3.0462644979725133,9.0,274.0],["KCTD1_J3KQT5",-0.13473746679276727,-1.5527253845242361,11.0,255.0],["PIGH_Q14442",-0.1693995919748914,-2.3071785155427875,10.0,264.0],["GUK1_Q16774-2",-0.13889365879055354,-2.141448553297907,12.0,361.0],["EFNA1_P20827",-0.1632433016106061,-1.8269272911999972,8.0,214.0]]},"para":{"top":[["CHD1_O14646",0.14237393717927824,-2.518730992448432,12.0,361.0],["EWSR1_H7BY36",0.18749658836442912,-3.6844974553261993,12.0,344.0],["IFRD2_Q12894",0.15338029293219704,-1.99663009020297,8.0,223.0],["RGN_Q15493",0.12753985971466453,-1.9014548934493896,8.0,302.0],["RMND1_Q9NWS8",0.13785861711139882,-2.405007871973707,12.0,361.0],["BYSL_Q13895",0.13588318454680748,-2.356205409047227,12.0,361.0],["NAF1_Q96HR8",0.14684122482859543,-2.072470570300863,10.0,256.0],["DUS3L_Q96G46",0.13651812113077472,-2.3718283044913333,12.0,361.0],["TUBE1_Q9UJT0",0.1926999444985554,-2.578530229479687,8.0,203.0],["NDNL2_Q96MG7",0.13665920933157716,-2.375307946382714,12.0,361.0],["TERF1_P54274",0.1570640353256303,-2.1655868560469744,9.0,239.0],["HABP2_Q14520",0.1498908961889583,-1.992271284824838,9.0,232.0],["RRP1B_Q14684",0.1523923565010925,-2.781899844596997,12.0,361.0],["ANKRD46_Q86W74",0.1741513292710385,-2.5199599686366545,8.0,242.0],["HPS4_Q9NQG7-4",0.1402434183474021,-1.774005571944153,8.0,223.0],["CWC25_Q9NXE8",0.14378496056672907,-2.5548905633339456,12.0,361.0],["CTU2_Q2VPK5",0.14089234516700627,-2.4810817448535465,12.0,361.0],["HBA1_P69905",0.13538928912142467,-2.3440941473352113,12.0,361.0],["CASP8AP2_Q9UKL3",0.1501258057116123,-2.280010445801124,10.0,282.0],["YTHDC1_Q96MU7",0.1499935272292968,-2.7175208086630946,12.0,361.0],["MLXIP_Q9HAP2",0.18295983035117108,-2.3282719206604954,9.0,194.0],["KRI1_Q8N9T8",0.1746867332498632,-3.421647651497211,12.0,361.0],["APLF_Q8IW19",0.14662663078037147,-2.2112971922511537,9.0,284.0],["AIF1_P55008",0.16123704095516944,-2.2525891076440265,11.0,238.0],["DTWD1_Q8N5C7",0.21199662914379228,-2.8948552993281935,9.0,195.0],["RFK_Q969G6",0.19765445936709033,-3.9971427661495094,11.0,344.0],["ARRB2_P32121-3",0.1484413920669274,-2.6763238462411154,12.0,361.0],["DIS3L_Q8TF46",0.16323040115461676,-2.5755117611574376,9.0,284.0],["SMARCAD1_Q9H4L7-2",0.19176035975943886,-3.9625565259948696,12.0,361.0],["PAPD4_Q6PIY7",0.1292721616491046,-1.8265639275768415,8.0,276.0],["ZCRB1_Q8TBF4",0.14767701606266523,-2.5144014851123404,10.0,336.0],["NARF_Q9UHQ1",0.18116895931409166,-3.1371985310547115,10.0,300.0]],"bottom":[["PIK3R3_Q92569",-0.14000437894220558,-2.2487161307982193,10.0,319.0],["OAS1_P00973",-0.1677294011081911,-2.551179569328425,8.0,266.0],["FAM89B_Q8N5H3",-0.15722881623812454,-2.4400088930729327,8.0,285.0],["RBBP8NL_Q8NC74",-0.19618843859790633,-2.179716373766268,8.0,153.0],["SFXN5_Q8TD22",-0.15880612565477686,-2.3098489642769686,8.0,258.0],["SLC35E1_Q96K37",-0.16606380726514053,-2.871607437538917,11.0,317.0],["ZNF516_Q92618",-0.13726966652433484,-2.3076154296176297,9.0,346.0],["KIAA1109_Q2LD37",-0.1524970896136913,-2.1312902731670635,9.0,248.0],["SYTL2_Q9HCH5-6",-0.17062449670805516,-2.9906166433579644,11.0,317.0],["COL17A1_Q9UMD9",-0.16022789339249746,-2.4576397194810315,9.0,276.0],["ATP8B1_O43520",-0.13659030156564156,-2.0482018628469714,8.0,294.0],["PC_P11498",-0.16085859852893095,-3.016014887180299,12.0,361.0],["SIDT2_Q8NBJ9-2",-0.12137694459323085,-1.785748472976312,8.0,303.0],["FAM69A_Q5T7M9",-0.13554146203726042,-1.7356666704507737,8.0,231.0],["ADCY9_O60503",-0.15874368588386709,-2.412913846243711,9.0,274.0],["GOLGA4_Q13439-5",-0.14046899256138176,-2.4703837153905175,12.0,361.0],["C1orf43_Q9BWL3",-0.18295947004468185,-3.0582797738418064,10.0,284.0],["RASSF3_Q86WH2",-0.1462575287870498,-2.1141737753632106,10.0,266.0],["SUN1_O94901-9",-0.13179113709162132,-2.2569485696400124,12.0,361.0],["ZDHHC3_Q9NYG2-2",-0.13928571944912263,-1.978448269596219,9.0,267.0],["POP5_Q969H6",-0.15593956423414887,-2.2515428159188806,8.0,258.0],["PIGH_Q14442",-0.16855116190026495,-2.5696253028786034,10.0,264.0],["THBD_P07204",-0.15091258153370615,-2.35772174566413,9.0,294.0],["MAP3K11_Q16584",-0.16053403587906157,-2.1245743528881604,9.0,222.0],["GUK1_Q16774-2",-0.15620211123392452,-2.885917468666571,12.0,361.0],["PXMP4_Q9Y6I8",-0.18986896468574996,-3.3883443500068493,11.0,301.0],["DHRS1_Q96LJ7",-0.13327274451272256,-2.292600864659002,12.0,361.0],["EFNA1_P20827",-0.15914857140386515,-2.042817382680846,8.0,214.0],["AIDA_Q96BJ3",-0.14138620099764912,-2.4935950286027526,12.0,361.0]]}}}
{"depmap_copy_number":{"corr":{"top":[["DNAJB14_79982",0.07875924130211069,-2.9699045058752747,47.0,1675.0],["MTTP_4547",0.07830044322396869,-2.9406266069363127,47.0,1675.0],["LOC101929353_101929353",0.07923236172389615,-3.000253811023101,47.0,1675.0],["DDIT4L_115265",0.07923236172389615,-3.000253811023101,47.0,1675.0],["DAPP1_27071",0.07875924130211069,-2.9699045058752747,47.0,1675.0],["C4orf17_84103",0.07852807165939356,-2.9551337846083827,47.0,1675.0],["LINC01216_100874275",0.07909142106543435,-2.9911961513892393,47.0,1675.0],["ADH7_131",0.0775038449863102,-2.8901489527411424,47.0,1675.0],["LOC256880_256880",0.07922947624943105,-3.000068231451216,47.0,1675.0],["SNORA101A_107399301",0.07860042004462459,-2.959752425575753,47.0,1675.0],["EMCN_51705",0.07860042004462459,-2.959752425575753,47.0,1675.0],["TRMT10A_93587",0.07830044322396869,-2.9406266069363127,47.0,1675.0],["C4orf54_285556",0.0783850305583017,-2.946013195143593,47.0,1675.0],["LAMTOR3_8649",0.07875924130211069,-2.9699045058752747,47.0,1675.0],["H2AFZ_3015",0.07941127305017405,-3.011772134479616,47.0,1675.0]],"bottom":[["MTG2_26164",-0.09264519899935864,-3.9276623244021245,47.0,1675.0],["PTK6_5753",-0.0949947403624726,-4.103552277448248,47.0,1675.0],["LINC01749_63930",-0.09260503650403061,-3.924690746761239,47.0,1675.0],["MIR1257_100302168",-0.09276422872365246,-3.9364761104884503,47.0,1675.0],["LINC01056_100144597",-0.09303139178720701,-3.956296356162385,47.0,1675.0],["LINC00659_100652730",-0.09410379088227937,-4.036379736420067,47.0,1675.0],["MHENCR_100505771",-0.09207588650045476,-3.8856493787730497,47.0,1675.0],["CYP24A1_1591",-0.0922967724258758,-3.901921803090362,47.0,1675.0],["PPDPF_79144",-0.09499429071282711,-4.10351822995326,47.0,1675.0],["MIR124-3_406909",-0.09294758471260911,-3.9500732851730507,47.0,1675.0],["HRH3_11255",-0.09274765132716277,-3.9352479855995246,47.0,1675.0],["DPH3P1_100132911",-0.09326127805001022,-3.9733928144735935,47.0,1675.0],["GID8_54994",-0.09273448826234973,-3.9342729519003807,47.0,1675.0],["SLC17A9_63910",-0.09273448826234973,-3.9342729519003807,47.0,1675.0],["CHRNA4_1137",-0.09426213113317397,-4.048275277986993,47.0,1675.0],["LOC100130587_100130587",-0.09407174870735557,-4.033974751048292,47.0,1675.0],["ARFGAP1_55738",-0.09420853963023552,-4.044247086530129,47.0,1675.0],["SUMO1P1_391257",-0.09230232571671322,-3.9023313663111545,47.0,1675.0],["OGFR_11054",-0.09357871707300969,-3.9970639277309985,47.0,1675.0],["LOC105369209_105369209",-0.09205976088077149,-3.8844628150035123,47.0,1675.0],["PFDN4_5203",-0.0920676610580846,-3.8850441062952235,47.0,1675.0],["APCDD1L-DT_149773",-0.09610425010060164,-4.188015281633942,47.0,1675.0],["SRMS_6725",-0.09530550809217406,-4.127119022232184,47.0,1675.0],["PSMA7_5688",-0.09270439459047279,-3.9320442844672496,47.0,1675.0],["LINC01718_100506470",-0.12782016988476996,-6.989059423595166,47.0,1675.0],["DIDO1_11083",-0.0928927317464385,-3.9460029687369276,47.0,1675.0],["BIRC7_79444",-0.09352506467775089,-3.993057954039034,47.0,1675.0],["LOC105372672_105372672",-0.09327756273247464,-3.974605356581779,47.0,1675.0],["TCFL5_10732",-0.09326127805001022,-3.9733928144735935,47.0,1675.0],["SLCO4A1_28231",-0.0929861272214233,-3.952934611821323,47.0,1675.0],["APCDD1L_164284",-0.09596293958722255,-4.177207706016069,47.0,1675.0],["EEF1A2_1917",-0.09447539187644635,-4.064325771394985,47.0,1675.0],["NTSR1_4923",-0.09361317452781148,-3.999637813662931,47.0,1675.0],["ZNF217_7764",-0.09293544591676062,-3.9491723472468054,47.0,1675.0],["LOC100128310_100128310",-0.09217674858434173,-3.8930753656423525,47.0,1675.0],["FLJ16779_100192386",-0.09432849301448167,-4.053266261566881,47.0,1675.0],["MIR4326_100422945",-0.09419713412502508,-4.043390065658864,47.0,1675.0],["ZFP64_55734",-0.09735550813549375,-4.284351704582948,47.0,1675.0],["OGFR-AS1_101409261",-0.09416614798047362,-4.041062216427975,47.0,1675.0],["NKAIN4_128414",-0.09394131087858482,-4.024192240780102,47.0,1675.0],["CDH4_1002",-0.12786105828468936,-6.993159362803909,47.0,1675.0],["MIR548AG2_100616440",-0.10853467638160377,-5.196291987922975,47.0,1675.0],["LINC00029_100144596",-0.09303139178720701,-3.956296356162385,47.0,1675.0],["TAF4_6874",-0.09256145837043192,-3.9214677808070544,47.0,1675.0],["LOC101927770_101927770",-0.09350449990786619,-3.9915230361128473,47.0,1675.0],["STMN3_50861",-0.09221824133792025,-3.896132429020629,47.0,1675.0],["COL20A1_57642",-0.09419713412502508,-4.043390065658864,47.0,1675.0],["YTHDF1_54915",-0.09332058057337506,-3.9778093557508503,47.0,1675.0],["SNORA117_109623463",-0.0928927317464385,-3.9460029687369276,47.0,1675.0],["TSHZ2_128553",-0.09671483338809203,-4.234881614200098,47.0,1675.0],["LINC01716_105372682",-0.09195986690200565,-3.8771165874678735,47.0,1675.0],["WFDC3_140686",-0.1191810352166323,-6.151292472811504,47.0,1675.0],["BHLHE23_128408",-0.09260503650403061,-3.924690746761239,47.0,1675.0],["LOC101928048_101928048",-0.10850161339567421,-5.193458263146,47.0,1675.0],["KCNQ2_3785",-0.09351624600973278,-3.992399706482999,47.0,1675.0],["MIR4533_100616362",-0.10850161339567421,-5.193458263146,47.0,1675.0],["MIR3196_100423014",-0.09299587302152047,-3.953658294244325,47.0,1675.0],["LINC01524_101927700",-0.09835487347535705,-4.362120088787079,47.0,1675.0],["MIR3195_100422838",-0.09242119188396103,-3.9111033095479795,47.0,1675.0],["SLCO4A1-AS1_100127888",-0.09316955648507087,-3.9665669293580343,47.0,1675.0],["BCAS1_8537",-0.09204220442962603,-3.883171182543627,47.0,1675.0],["MIR646_693231",-0.10850161339567421,-5.193458263146,47.0,1675.0],["LSM14B_149986",-0.09233667684112351,-3.904865311072739,47.0,1675.0],["SPINT4_391253",-0.11972231995396398,-6.2021226736762145,47.0,1675.0]]},"para":{"top":[],"bottom":[]}}}
{"depmap_gene_tpm":{"corr":{"top":[["LRTM1_57408",0.16485843899238767,-8.643401970651192,45.0,1254.0],["POF1B_79983",0.14758707084790587,-7.040024537705993,45.0,1254.0],["HNF4A_3172",0.16454824747520003,-8.613044952240072,45.0,1254.0],["SPINK4_27290",0.17588601542313062,-9.760149481372983,45.0,1254.0],["FUT10_84750",0.1709170155680364,-9.247884701080322,45.0,1254.0],["BCL2L14_79370",0.18396448854045797,-10.624961825858481,45.0,1254.0],["AGR3_155465",0.1583007392005445,-8.013836630155627,45.0,1254.0],["PHGR1_644844",0.18562261988628834,-10.807397717125129,45.0,1254.0],["MRRF_92399",0.1646379821815968,-8.621820965765252,45.0,1254.0],["PDZD8_118987",0.1754779612936717,-9.717519612813673,45.0,1254.0],["SULT1C3_442038",0.19770785475159242,-12.188290653762172,45.0,1254.0],["FAM3D_131177",0.1814266056430942,-10.348991316489505,45.0,1254.0],["OR5A1_219982",0.1830708942731293,-10.527342679091625,45.0,1254.0],["FUT2_2524",0.15219133050404784,-7.450247755014019,45.0,1254.0],["CDH17_1015",0.16094840892225312,-8.264943673435491,45.0,1254.0],["SLC5A1_6523",0.17439252776436792,-9.604614022811921,45.0,1254.0],["SLC12A2_6558",0.17838034070509406,-10.022930273175097,45.0,1254.0],["MLXIPL_51085",0.17757804610809794,-9.937995243769087,45.0,1254.0],["PLA2G2A_5320",0.18455225034239667,-10.689437453152511,45.0,1254.0],["GAL3ST2_64090",0.2141682968231214,-14.215995399150973,45.0,1254.0],["GP1BA_2811",0.1865446033673759,-10.90956882755758,45.0,1254.0],["OR4D10_390197",0.14306463484971121,-6.649161611216454,45.0,1254.0],["ACADS_35",0.14205064231404915,-6.563159552084194,45.0,1254.0],["SFXN4_119559",0.14648515668827491,-6.943689222549341,45.0,1254.0],["GPA33_10223",0.19943388851905186,-12.392914052646008,45.0,1254.0],["REG4_83998",0.15988189318898546,-8.163293867903914,45.0,1254.0],["RNF43_54894",0.1553899796776977,-7.7425721733587025,45.0,1254.0],["RAD51AP2_729475",0.15096600654199258,-7.339861012799356,45.0,1254.0]],"bottom":[["TIMP2_7077",-0.11043496401249346,-4.177468185946723,45.0,1254.0],["PFDN4_5203",-0.10687590363086143,-3.94425167711646,45.0,1254.0],["WWC3_55841",-0.10280638784846245,-3.6862005374186015,45.0,1254.0],["ZNF568_374900",-0.10558294270710172,-3.8612701138055314,45.0,1254.0],["ZNF512B_57473",-0.14087898242266408,-6.464528555508054,45.0,1254.0],["HSPA1A_3303",-0.1606170588387894,-8.23329024949676,45.0,1254.0],["TBCB_1155",-0.1184546764974435,-4.728930343402661,45.0,1254.0],["AP1M1_8907",-0.12154458752469283,-4.951058571339593,45.0,1254.0],["DCLK1_9201",-0.10554380009237627,-3.858772415379571,45.0,1254.0],["LIFR_3977",-0.11087738786716514,-4.206952196090613,45.0,1254.0],["SLFN13_146857",-0.11098377579113784,-4.214058391584759,45.0,1254.0],["TCEA2_6919",-0.1518049883622577,-7.415347776654379,45.0,1254.0],["DDX27_55661",-0.10332596448502175,-3.7186371783124326,45.0,1254.0],["MED10_84246",-0.10411953066678714,-3.7684665341928354,45.0,1254.0],["RTF2_51507",-0.13304146151538454,-5.825181481812032,45.0,1254.0],["DYNLRB1_83658",-0.15278026029709912,-7.503617298918108,45.0,1254.0],["ELOC_6921",-0.10690293352317444,-3.945996338520806,45.0,1254.0],["ATP5F1E_514",-0.1019163999315047,-3.6309856368819893,45.0,1254.0],["CHFR_55743",-0.13661939930421405,-6.112654815490511,45.0,1254.0],["C2orf74_339804",-0.1874961092147391,-11.015559318546273,45.0,1254.0]]},"para":{"top":[],"bottom":[["DYNLRB1_83658",-0.1595512957337083,-8.345508849717556,45.0,1254.0]]}}}
{"avana":{"corr":{"top":[["HSD17B1_3292",0.13127917819032714,-3.57387357511853,25.0,742.0],["CARD14_79092",0.11274901968237387,-2.75366292129417,25.0,742.0],["REG3G_130120",0.1038976646173923,-2.4011982810039565,25.0,742.0],["SYNJ1_8867",0.1201879083369686,-3.069435253446046,25.0,742.0],["APPBP2_10513",0.11692084718734681,-2.9285382219895726,25.0,742.0],["WIPF1_7456",0.11446303759239036,-2.8248290609026534,25.0,742.0],["ZG16B_124220",0.09898327211151384,-2.216297857938207,25.0,742.0],["PRKCD_5580",0.11794208857578325,-2.9722072789297593,25.0,742.0],["ADAMTS1_9510",0.10143377832494077,-2.307539099958775,25.0,742.0],["AIF1_199",0.09951916116447809,-2.2360886827681257,25.0,742.0],["GPR183_1880",0.11722914697313368,-2.9416856094804555,25.0,742.0],["MRNIP_51149",0.13263303116128813,-3.6382315116415014,25.0,742.0],["DCLK1_9201",0.12752163503776792,-3.398436310944642,25.0,742.0],["SLC45A1_50651",0.12489608933403483,-3.2786197320554433,25.0,742.0],["ADI1_55256",0.11994161641220867,-3.021342862707466,25.0,731.0],["CACUL1_143384",0.11159680176274563,-2.706356187923094,25.0,742.0],["AGPAT3_56894",0.09908816641495469,-2.220164550661997,25.0,742.0],["TDRD10_126668",0.1189866156236678,-3.017223269014466,25.0,742.0],["CYP27B1_1594",0.0998653108789847,-2.248920521541725,25.0,742.0],["BORCS7_119032",0.10442829921618844,-2.4216218757232992,25.0,742.0],["TARBP2_6895",0.09718091918857186,-2.1504003749056144,25.0,742.0],["TMEM186_25880",0.1180626431246039,-2.9773846777849817,25.0,742.0],["ACSL4_2182",0.11047445162170189,-2.523644996423811,24.0,696.0],["DCAF13_25879",0.12525708554633838,-3.2949591188301053,25.0,742.0],["CLK4_57396",0.12187201635769361,-3.1434257457569252,25.0,742.0],["GALNTL6_442117",0.11593561224254345,-2.886730106024971,25.0,742.0],["MAPK3_5595",0.09773002540774321,-2.1448466594269067,25.0,731.0],["PAQR9_344838",0.09914452394395099,-2.2222434793345287,25.0,742.0],["SUN2_25777",0.10040062866051765,-2.2688394794467426,25.0,742.0],["ADAD2_161931",0.1031351932050657,-2.3720084621955397,25.0,742.0],["UQCR11_10975",0.13012653254482978,-3.5195600468775163,25.0,742.0]],"bottom":[["C10orf71_118461",-0.12807838992702583,-3.424136003345406,25.0,742.0],["FGF1_2246",-0.10376169616099207,-2.3959794236054672,25.0,742.0],["FBXO33_254170",-0.11252010882947618,-2.7442303999906095,25.0,742.0],["TNC_3371",-0.12247154953148331,-3.169990003162477,25.0,742.0],["PGR_5241",-0.1108633475853492,-2.6442391432065446,25.0,731.0],["FAM172A_83989",-0.09812294437527681,-2.1847148619794963,25.0,742.0],["PRRG3_79057",-0.10350163735393869,-2.2645743683138724,24.0,696.0],["NAV1_89796",-0.10059521809751353,-2.2761025484639386,25.0,742.0],["OR10G9_219870",-0.09322684187985492,-2.0094096684632166,25.0,742.0],["CYB5R4_51167",-0.09573957532358483,-2.0984380856271643,25.0,742.0],["TIPRL_261726",-0.1127949227377077,-2.755556443530574,25.0,742.0],["KDELC2_143888",-0.10833213720258807,-2.574640152012895,25.0,742.0],["TFDP3_51270",-0.10941960746968632,-2.48351717720543,24.0,696.0],["ALOX12B_242",-0.10452532939886575,-2.4253661721315325,25.0,742.0],["ZNF165_7718",-0.10128210931705464,-2.3018367145810106,25.0,742.0],["CPEB2_132864",-0.1002022780519946,-2.2614483597356188,25.0,742.0],["ACOT8_10005",-0.09592814682116664,-2.1051992056535407,25.0,742.0],["KCNS1_3787",-0.11185657094570375,-2.7169841636997183,25.0,742.0]]},"para":{"top":[["SYNJ1_8867",0.1276355984718321,-3.685801823506245,25.0,742.0],["TDRD10_126668",0.13275888153336216,-3.9228051719707557,25.0,742.0]],"bottom":[["TNC_3371",-0.1358759968154028,-4.071047244579077,25.0,742.0],["TIPRL_261726",-0.12942632105846505,-3.767702453358595,25.0,742.0]]}}}
{"drive":{"corr":{"top":[["NSF_4905",0.1546559410184154,-2.5901835496770196,17.0,361.0],["MRPL45P2_653479",0.13959478768910397,-2.1545324037807707,16.0,356.0],["ULK4P2&ULK4P1_100288380&89838",0.12834713184441196,-1.8782890350469517,17.0,355.0]],"bottom":[["ZNF197&ZNF660-ZNF197_10168&110354863",-0.16522644007181042,-2.87854316801757,16.0,359.0],["DLST_1743",-0.19214265527349364,-3.7409109236160254,16.0,359.0],["SCAF8_22828",-0.15435829641875007,-2.547391719129361,16.0,356.0],["WRN_7486",-0.5032092645552717,-24.54688815153081,16.0,356.0],["OGDH_4967",-0.22301391778124338,-4.977208065410949,17.0,366.0],["RPA3_6119",-0.2434289362242704,-5.693635639572645,17.0,355.0],["RAD52_5893",-0.2186848013698998,-4.680256076433298,16.0,356.0],["ATP6V1G2-DDX39B_100532737",-0.21374952099746036,-4.491375912715753,17.0,355.0],["WDR24_84219",-0.18489212264677699,-3.4965241945627685,16.0,359.0],["CDX2_1045",-0.19895346778849723,-3.978741637358437,16.0,359.0],["HSD17B10_3028",-0.18007667390731144,-3.316159269033927,16.0,356.0],["DDX27_55661",-0.3330476522603641,-10.43814710710102,16.0,359.0]]},"para":{"top":[["ACADL_33",0.1706350975123626,-3.2932905289675265,17.0,355.0],["RAB28_9364",0.14180716253386627,-2.5675595522722494,17.0,369.0]],"bottom":[["DLD_1738",-0.18232243295841483,-3.6506672353506833,17.0,355.0],["ZNF197&ZNF660-ZNF197_10168&110354863",-0.19379873222541025,-4.04776799983766,16.0,359.0],["DLST_1743",-0.20958296859219672,-4.595254606306398,16.0,359.0],["WRN_7486",-0.22974391346004142,-5.314734867320084,16.0,356.0],["OGDH_4967",-0.20054816475828896,-4.35124706827096,17.0,366.0],["SRPX_8406",-0.1972462727921134,-4.1372040501224765,17.0,355.0],["RPA3_6119",-0.2042587935040615,-4.377575326942007,17.0,355.0],["ATP6V1G2-DDX39B_100532737",-0.18645803858423984,-3.782092983685666,17.0,355.0],["NRXN1_9378",-0.1705805571312473,-3.2916190858321963,16.0,356.0],["WDR24_84219",-0.2122036502804588,-4.689886589734701,16.0,359.0],["MYB_4602",-0.18112259903787967,-3.6358874822926195,16.0,359.0],["INO80D_54891",-0.16539930477416065,-3.1591778430413657,16.0,359.0],["DDX27_55661",-0.2429802012341935,-5.8811834621239205,16.0,359.0]]}}}
{"achilles":{"corr":{"top":[["WASHC4_23325",0.1567092505471086,-2.052404994387364,11.0,267.0],["TSPAN31_6302",0.1595991488787169,-2.1150873699901336,11.0,267.0],["KBTBD4_55709",0.17783391358759232,-2.533824284679069,11.0,267.0],["TBC1D13_54662",0.15928136922501687,-2.108145914957863,11.0,267.0],["ZNF446_55663",0.15650884810208285,-3.312387877970662,22.0,471.0],["HIRIP3_8479",0.15764120599771028,-2.072510507435631,11.0,267.0],["ORMDL3_94103",0.18136171410642496,-2.619528190298777,11.0,267.0],["GCSAML_148823",0.1757439735075838,-2.4837756874592913,11.0,267.0],["PHC1_1911",0.1762231418179186,-2.4952030479327854,11.0,267.0],["PIWIL3_440822",0.14843532671562204,-1.878418871429646,11.0,267.0],["MAPK1IP1L_93487",0.1630481542153403,-2.1912039191595545,11.0,267.0],["CLEC12B_387837",0.15736741980095553,-2.066593262618052,11.0,267.0],["ZBTB46_140685",0.1858735674099825,-2.7313884602404985,11.0,267.0],["SDC2_6383",0.14997139275932095,-1.9101093507790763,11.0,267.0],["CATSPERD_257062",0.16204161499408318,-2.168843056168457,11.0,267.0],["FAM210B_116151",0.14436703707678136,-1.795821239138256,11.0,267.0],["LIN28A_79727",0.1504566581572885,-3.0945584736585476,22.0,471.0],["GSTTP1_25774",0.17577358813856103,-2.48448112891531,11.0,267.0],["UBR4_23352",0.14927088920244969,-1.8956229393116297,11.0,267.0],["FMOD_2331",0.1738942055993259,-2.4399261809569848,11.0,267.0],["OS9_10956",0.1484854183342165,-1.8794479397650845,11.0,267.0],["TMTC3_160418",0.15550487456334572,-2.0265754214391927,11.0,267.0],["CTAGE10P_220429",0.18024041740143745,-2.592120715488287,11.0,267.0],["CBWD5&CBWD3&CBWD6_220869&445571&644019",0.2135124263347764,-3.4728595877973656,11.0,267.0],["TNFRSF11B_4982",0.1612412079888389,-3.4882551652490346,22.0,471.0],["GOLGA6A_342096",0.2023951186006427,-3.1628526917363486,11.0,267.0],["CRYGS_1427",0.1674025215201608,-2.2893446781652584,11.0,267.0],["LOC107986810_107986810",0.18913253418979048,-2.8137672510576355,11.0,267.0],["GBF1_8729",0.18157723195177536,-2.624813871114093,11.0,267.0],["POSTN_10631",0.1647279439898212,-2.2287928080230484,11.0,267.0],["KIAA0586_9786",0.15199529569409573,-1.9522880789462995,11.0,267.0],["ICK_22858",0.1474323839385593,-2.9886686536770415,22.0,471.0],["C6orf163_206412",0.16965388801959064,-2.340986565637552,11.0,267.0],["ARF1_375",0.18433435609289672,-4.417430149216346,22.0,471.0],["EVA1A_84141",0.15348250579164566,-1.983589942938449,11.0,267.0],["NANOS1_340719",0.15419399691179625,-1.998657446729468,11.0,267.0],["STATH_6779",0.1620110277219323,-2.168165446672371,11.0,267.0],["EMILIN2_84034",0.15049430309457074,-1.920960742555418,11.0,267.0],["CCDC73_493860",0.14901058904893974,-1.8902546226845316,11.0,267.0],["UBE2D4_51619",0.1483225024306665,-3.0196306926748995,22.0,471.0],["ZNF616_90317",0.14393715681864536,-1.7872062974200622,11.0,267.0]],"bottom":[["MSR1_4481",-0.14660946900279218,-2.9601952804783664,22.0,471.0],["BECN1_8678",-0.15636560778356856,-3.307140730596706,22.0,471.0],["ARPP19_10776",-0.20392065978449914,-3.204445961467468,11.0,267.0],["SAMM50_25813",-0.1800903500392874,-2.588464481522333,11.0,267.0],["EMX2_2018",-0.14479344551152143,-2.8978722951075273,22.0,471.0],["FKBP11_51303",-0.17528547560332897,-2.4728676834800996,11.0,267.0],["CCDC155_147872",-0.16349023681507652,-3.573551121167897,22.0,471.0],["RAD52_5893",-0.14293564968766195,-2.8348440517001507,22.0,471.0],["PCDH9_5101",-0.14124080221007268,-2.777984779670957,22.0,471.0],["TCF15_6939",-0.1469933087554747,-2.9734583308616447,22.0,471.0],["ARL6IP1_23204",-0.1691382724814571,-2.3291050480015634,11.0,267.0],["ELOA_6924",-0.16107855506405572,-3.482129410859353,22.0,471.0],["TBC1D29_26083",-0.17928445390764441,-2.568877306929402,11.0,267.0],["BMS1_9790",-0.18908346728195136,-2.8125170849165393,11.0,267.0],["DLX5_1749",-0.14319127133838544,-2.8434727378398805,22.0,471.0],["FANCD2OS_115795",-0.14054822577855683,-1.7200426935539723,11.0,267.0],["SPOP_8405",-0.1402284269014508,-1.7137734757812697,11.0,267.0],["TMEM92_162461",-0.15613683943444126,-2.0401073236561995,11.0,267.0],["PDZD2_23037",-0.1528780344720461,-1.9708358877738072,11.0,267.0],["NOP53_29997",-0.16080971104383177,-3.472017029756956,22.0,471.0],["TMSB4X_7114",-0.1606756675773794,-2.1386921702493735,11.0,267.0],["NXPH4_11247",-0.16127937927116356,-2.151990460846638,11.0,267.0],["MGAM_8972",-0.1983218305284439,-2.456000748216733,11.0,204.0],["CCDC42_146849",-0.1553180240249244,-2.022583580518699,11.0,267.0],["KNL1_57082",-0.1578203202134503,-2.076386471870249,11.0,267.0],["KRBA2_124751",-0.17088329626248652,-2.369446730569549,11.0,267.0],["PGBD1_84547",-0.14015384056321326,-2.7418400392459126,22.0,471.0],["ARHGAP4_393",-0.15823670261043052,-3.37603377738982,22.0,471.0],["PDLIM2_64236",-0.17901975092013175,-2.562461255965115,11.0,267.0],["NOXA1_10811",-0.16128447813841437,-3.4898857592744346,22.0,471.0],["PRPF6_24148",-0.15456622658290695,-3.241605557888741,22.0,471.0],["KANTR_102723508",-0.14936601208723504,-1.8975866972390334,11.0,267.0],["ZXDB_158586",-0.14558883417137697,-1.8204240093721582,11.0,267.0],["P4HA2_8974",-0.13924868692117245,-2.7119320133545575,22.0,471.0],["OSBP_5007",-0.21664438343421114,-3.5631023150845627,11.0,267.0]]},"para":{"top":[["WASHC4_23325",0.15255902131932203,-2.252777965522916,11.0,267.0],["KBTBD4_55709",0.17681671046655403,-2.7861412727614483,11.0,267.0],["OR9G1_390174",0.15060458931576196,-2.212632249879908,11.0,267.0],["CNOT10_25904",0.1635958778038373,-2.4873728532685293,11.0,267.0],["TBC1D13_54662",0.15715759148639583,-2.3488918158755645,11.0,267.0],["HIRIP3_8479",0.1585371974552945,-2.378180623955722,11.0,267.0],["GCSAML_148823",0.15888204909051204,-2.3855345484040327,11.0,267.0],["PHC1_1911",0.16497518712649833,-2.5176363319490687,11.0,267.0],["ORMDL3_94103",0.1795760042755376,-2.8509515084110895,11.0,267.0],["MAPK1IP1L_93487",0.14979987380276288,-2.196224432181652,11.0,267.0],["PIWIL3_440822",0.16152636383854888,-2.4423604245478376,11.0,267.0],["CLEC12B_387837",0.1454311289175499,-2.1083843636530752,11.0,267.0],["SEL1L_6400",0.14600597590154019,-2.1198233111928486,11.0,267.0],["ZBTB46_140685",0.15899703659523434,-2.3879895600437453,11.0,267.0],["SDC2_6383",0.15370865337036166,-2.276588244056562,11.0,267.0],["EMP1_2012",0.14704060232389637,-2.140502410600142,11.0,267.0],["CATSPERD_257062",0.1712984453565299,-2.6590754150384908,11.0,267.0],["ARGLU1_55082",0.14830542756868076,-2.1659414614486345,11.0,267.0],["MT1B_4490",0.145661201931566,-2.112958280819344,11.0,267.0],["OS9_10956",0.14623604950958288,-2.1244116827903503,11.0,267.0],["MYO5C_55930",0.14681071274917878,-2.1358974949028764,11.0,267.0],["LOC102723502&POTEB3_102723502&102724631",0.15416851471178383,-2.2861531887568205,11.0,267.0],["TMTC3_160418",0.15807746855240984,-2.3683973463905117,11.0,267.0],["LRP2BP_55805",0.14899515784031053,-2.1798875468532755,11.0,267.0],["CTAGE10P_220429",0.1696888823736592,-2.6226514162940133,11.0,267.0],["CBWD5&CBWD3&CBWD6_220869&445571&644019",0.19739559105849785,-3.2900453159433987,11.0,267.0],["MYRFL_196446",0.15554812045594774,-2.314987979611701,11.0,267.0],["CRYGS_1427",0.17992074983142559,-2.8591086579088216,11.0,267.0],["SERAC1_84947",0.16405548773672987,-2.4974337771584616,11.0,267.0],["LOC107986810_107986810",0.1837147085098891,-2.949757041355136,11.0,267.0],["GOLGA6A_342096",0.18543911182220524,-2.9914906824151526,11.0,267.0],["ABI2_10152",0.16106668222856366,-2.432426495817622,11.0,267.0],["GBF1_8729",0.18888825699192968,-3.0759668350271974,11.0,267.0],["POSTN_10631",0.15819238980576186,-2.3708407480797926,11.0,267.0],["KIAA0586_9786",0.15819230144922786,-2.3708388702916063,11.0,267.0],["C6orf163_206412",0.158307509941993,-2.373289835014315,11.0,267.0],["ARF1_375",0.18651270457217792,-4.753290156465,22.0,471.0],["EVA1A_84141",0.15635292158037475,-2.33190562930608,11.0,267.0],["DZIP1L_199221",0.1617562946055789,-2.4473380920512304,11.0,267.0],["STATH_6779",0.15163925615988005,-2.2338329976627107,11.0,267.0],["ZNF616_90317",0.1557779859027814,-2.3198126883618424,11.0,267.0]],"bottom":[["TSPAN13_27075",-0.1450863747731936,-2.1015413637860045,11.0,267.0],["PMS2P5_5383",-0.14428181821925604,-2.0856222321236753,11.0,267.0],["SAMM50_25813",-0.18245126103892095,-2.9193907908051795,11.0,267.0],["TCEAL8_90843",-0.139683077502995,-1.9959840911258977,11.0,267.0],["SPATA5L1_79029",-0.15738763200878486,-2.353760965099006,11.0,267.0],["C2orf71_388939",-0.16382555713023134,-2.4923976444315628,11.0,267.0],["TCP11_6954",-0.14336179320662737,-2.0675049424934557,11.0,267.0],["SPDYE7P_441251",-0.1571575695417728,-2.348891352002558,11.0,267.0],["ARL6IP1_23204",-0.17371288854201267,-2.7142539920772486,11.0,267.0],["ELOA_6924",-0.1628707147842305,-3.8181802925506503,22.0,471.0],["SPSB4_92369",-0.14830553111181932,-2.16594354952432,11.0,267.0],["TBC1D29_26083",-0.15497342353688504,-2.3029509454471815,11.0,267.0],["BMS1_9790",-0.20567355933467577,-3.50618812303388,11.0,267.0],["TMEM41A_90407",-0.1452012591042897,-2.10382025381823,11.0,267.0],["ARGFX_503582",-0.15221429530026748,-2.245666551164571,11.0,267.0],["PDZD2_23037",-0.1615262736198874,-2.4423584739806574,11.0,267.0],["NXPH4_11247",-0.19222204071446874,-3.1588875445765408,11.0,267.0],["MGAM_8972",-0.20373828691165438,-2.838352378893916,11.0,204.0],["CCDC42_146849",-0.1472706974108943,-2.1451172243400394,11.0,267.0],["DOCK7_85440",-0.16106647981402203,-2.432422129809214,11.0,267.0],["ARMCX6_54470",-0.14704064338778364,-2.140503233022813,11.0,267.0],["KRBA2_124751",-0.1592269894674277,-2.392903485948472,11.0,267.0],["HYI_81888",-0.13853319041538856,-1.973930016718743,11.0,267.0],["PDLIM2_64236",-0.16152634128386933,-2.442359936905652,11.0,267.0],["NOXA1_10811",-0.17816036363928583,-4.409949854751181,22.0,471.0],["KANTR_102723508",-0.15393864852656008,-2.281369151565556,11.0,267.0],["ZXDB_158586",-0.14129247606924505,-2.0270925299712883,11.0,267.0],["CCDC151_115948",-0.14324704788009834,-2.0652518249536724,11.0,267.0],["PDZRN3_23024",-0.13945295178627423,-1.9915589427938876,11.0,267.0],["OSBP_5007",-0.17900105214331904,-2.837376910792191,11.0,267.0],["TMEM106C_79022",-0.14485642368284687,-2.0969842946242507,11.0,267.0]]}}}
{"ccle_rrbs_tss1kb":{"corr":{"top":[["ZNF785_16_30597092_30598092",0.1801488757660271,-6.766526440845864,38.0,793.0],["ZNF850_19_37263716_37264716",0.18788919391868628,-7.306422825865001,38.0,792.0],["TLE3_15_70387124_70388124",0.19544217710383457,-7.802046175228791,38.0,785.0],["LOC374443_12_9799514_9800514",0.18594670847035477,-7.158999898467964,38.0,791.0],["ADAMTS3_4_73434516_73435516",0.18249236338062616,-6.899566479793761,38.0,789.0],["NTRK3_15_88799962_88800962",0.19131367408077504,-7.5643424328607045,38.0,793.0],["GTF3C6_6_111278762_111279762",0.20690947911956406,-8.59498919097655,38.0,776.0],["ATP10A_15_26108349_26109349",0.18116424869071895,-6.717169323296398,37.0,778.0],["FIGNL1_7_50518104_50519104",0.1834767987337745,-6.999266017850247,38.0,793.0],["CCDC181_1_169396712_169397712",0.190082762572132,-7.300932968984902,38.0,772.0],["ZNF331_19_54023176_54024176",0.19697631591131792,-7.899191856238309,38.0,783.0],["NTRK3_15_88799400_88800400",0.19106015360700887,-7.479098851916192,38.0,785.0],["ZNF582-AS1_19_56904044_56905044",0.17179104293192024,-5.842709315563085,38.0,740.0],["BTBD10_11_13484844_13485844",0.17897861585889224,-6.385530297431766,36.0,754.0],["LINC01530_19_52097633_52098633",0.19917747734207578,-8.083249960647107,38.0,785.0],["ZNF829_19_37406923_37407923",0.1803070170043899,-6.673544634503024,38.0,779.0]],"bottom":[["NUB1_7_151037846_151038846",-0.09022567557950736,-1.9876242173114136,38.0,770.0],["LAMB3_1_209824679_209825679",-0.13133178440954418,-3.801598803716611,37.0,786.0],["NDUFA13_19_19626018_19627018",-0.09955037371031043,-2.380706866347567,38.0,789.0],["LAMB3_1_209825674_209826674",-0.14025523502182188,-4.271961276475488,38.0,786.0],["MIR6811_2_238418573_238419573",-0.10554404842146849,-2.3657951361513345,33.0,697.0],["LOC105371049_16_2140436_2141436",-0.148702428105327,-4.5358959782217285,37.0,747.0],["MIR617_12_81226408_81227408",-0.10603903765995702,-2.6615033327751303,38.0,795.0]]},"para":{"top":[],"bottom":[]}}}
{"ccle_gene_tpm":{"corr":{"top":[["MRRF_ENSG00000148187.13",0.1864311281669601,-8.695626657485455,40.0,979.0],["RN7SKP248_ENSG00000252087.1",0.19841207641172898,-9.778828246943284,40.0,979.0],["SULT1C3_ENSG00000196228.2",0.1935491680196124,-9.3307942634018,40.0,979.0],["GAL3ST2_ENSG00000154252.11",0.20811331505106692,-10.707172594500875,40.0,979.0],["RPL31P35_ENSG00000232612.1",0.19658371689842574,-9.609027111884973,40.0,979.0],["BCL2L14_ENSG00000121380.8",0.20556717733765092,-10.459045027673634,40.0,979.0],["RP11-789C1.1_ENSG00000250266.1",0.2095007221611946,-10.843727816802057,40.0,979.0],["RP11-231E6.1_ENSG00000243081.2",0.2012852914601465,-10.048962361319083,40.0,979.0],["GPA33_ENSG00000143167.7",0.20475253700875404,-10.38033141916559,40.0,979.0],["AC016735.1_ENSG00000224739.2",0.20420521072814019,-10.327630181924787,40.0,979.0],["RBMY2TP_ENSG00000237269.1",0.21714378517318794,-11.613149971247992,40.0,979.0],["CTD-2385L22.1_ENSG00000261583.1",0.1939672227861482,-9.368859614965281,40.0,979.0],["SLC25A5P3_ENSG00000213673.3",0.1886853036112815,-8.894133188457138,40.0,979.0],["FAM3D_ENSG00000198643.2",0.20613701053583097,-10.514298816767472,40.0,979.0],["SLC5A1_ENSG00000100170.5",0.18942773121864265,-8.960047601282929,40.0,979.0],["MRRFP1_ENSG00000224236.2",0.2301756069663889,-12.992757613581176,40.0,979.0],["AC144836.1_ENSG00000262213.1",0.2688557956348369,-17.605969637222525,40.0,979.0],["RN7SL607P_ENSG00000264361.1",0.21070864592952193,-10.96339420957737,40.0,979.0],["GP1BA_ENSG00000185245.6",0.19143892859254766,-9.139941045828145,40.0,979.0],["RP11-498E2.7_ENSG00000269979.1",0.1822946574485027,-8.337697934175958,40.0,979.0],["PDZD8_ENSG00000165650.7",0.18054239704030534,-8.188538940426454,40.0,979.0],["RP11-234B24.2_ENSG00000255474.1",0.20019521419727437,-9.94600027589924,40.0,979.0]],"bottom":[["SLFN13_ENSG00000154760.9",-0.12344556871306006,-4.108672097141621,40.0,979.0],["CHFR_ENSG00000072609.13",-0.159079728274062,-6.479093742072433,40.0,979.0],["HSPA1A_ENSG00000204389.8",-0.1721573554048218,-7.494941040770317,40.0,979.0],["PACS1_ENSG00000175115.7",-0.1316312443714201,-4.602636691859762,40.0,979.0],["WWC3_ENSG00000047644.13",-0.13106409272097308,-4.5674517278367155,40.0,979.0],["COPS8_ENSG00000198612.6",-0.11623730397593758,-3.698183074510614,40.0,979.0],["TBCB_ENSG00000105254.7",-0.1379038554035327,-5.001372857881144,40.0,979.0],["ZNF568_ENSG00000198453.8",-0.11948078649343036,-3.880066827353487,40.0,979.0],["SPATC1L_ENSG00000160284.10",-0.12595390976463647,-4.256880581902217,40.0,979.0],["KIAA1841_ENSG00000162929.9",-0.14322886366432452,-5.3537592241251675,40.0,979.0],["RTFDC1_ENSG00000022277.8",-0.1548714029439572,-6.169089396418756,40.0,979.0],["ZNF512B_ENSG00000196700.3",-0.17923470671068825,-8.078175866103637,40.0,979.0],["DDX27_ENSG00000124228.10",-0.13220457978954192,-4.638351163279272,40.0,979.0],["CADM1_ENSG00000182985.12",-0.11973952032157568,-3.894774328843737,40.0,979.0],["ATP5E_ENSG00000124172.5",-0.12539041074307272,-4.223343238616558,40.0,979.0],["ELMO2_ENSG00000062598.13",-0.11629619493300143,-3.7014444532585684,40.0,979.0],["MAPRE1_ENSG00000101367.8",-0.11625324209226108,-3.6990655771802206,40.0,979.0],["LIFR_ENSG00000113594.5",-0.12709376431712735,-4.325150410866326,40.0,979.0],["ZSCAN23_ENSG00000187987.5",-0.12037734505369371,-3.931156478017813,40.0,979.0],["RP11-15A1.3_ENSG00000267058.1",-0.14185520395359377,-5.26163024299018,40.0,979.0],["ZNF829_ENSG00000185869.9",-0.12371834488981402,-4.124654700898129,40.0,979.0],["DYNLRB1_ENSG00000125971.12",-0.14745747643863513,-5.642738445151614,40.0,979.0],["ZNF404_ENSG00000176222.7",-0.13890420223542668,-5.066595621902227,40.0,979.0]]},"para":{"top":[["MRRFP1_ENSG00000224236.2",0.18320571338790034,-8.59666413703461,40.0,979.0]],"bottom":[["DYNLRB1_ENSG00000125971.12",-0.1585280836464697,-6.67340548878948,40.0,979.0]]}}}
{"ccle_rrbs_tss_clusters":{"corr":{"top":[["PCNT_4",0.2365864910968978,-11.347135662334823,39.0,795.0],["SLC44A2_5",0.2568805522363182,-13.413897144699098,39.0,802.0],["FAM218A_2",0.21137131844032003,-5.710882506238297,19.0,479.0],["BICRAL_2",0.25706408026459304,-13.462788322485446,39.0,804.0],["CALM2_2",0.23861165508247908,-10.924534654814524,37.0,750.0],["TRIP12_1",0.21728794685415037,-3.7830793655776525,16.0,280.0],["JUN_1",0.3360049783951369,-22.88948405116124,39.0,801.0],["ZNF426_1",0.209976651076268,-7.608655856515169,38.0,654.0],["ZNF512B_2",0.21045194403219655,-9.157006060185992,39.0,803.0],["CCDC106_2",0.22707548654542625,-10.582006043191633,39.0,803.0],["ZEB2-AS1_3",0.25934382824941826,-5.541361630909401,18.0,299.0],["CALM2_3",0.23528019092825225,-10.646186795247779,37.0,751.0],["RBFA_1",0.22864952144216788,-9.888565741616041,37.0,735.0],["GTF3C6_1",0.25472360161427127,-13.195237805627064,39.0,802.0],["BEND5_3",0.2124156256143373,-9.26803440555227,39.0,798.0],["DSE_2",0.21766427806175803,-9.696500010500547,39.0,797.0],["C2orf74_3",0.2214685958868691,-9.216523980242028,34.0,730.0],["JAM2_2",0.20862389912230542,-8.908137746262398,39.0,793.0],["KCNQ5_3",0.22414812388860644,-10.334191854490665,39.0,804.0],["ZKSCAN7-AS1_1",0.2210172801124339,-9.782399644037792,39.0,779.0],["PNMA1_1",0.23872591581422237,-11.519623506041272,39.0,793.0],["SETBP1_2",0.22450987063664313,-7.508626864190357,32.0,563.0],["PRPF40B_1",0.21974184205467426,-9.917262993405599,39.0,801.0],["ARPP21_1",0.25836421396141723,-7.167132297300184,23.0,401.0],["PNMA1_2",0.21872647053115832,-9.797555316764045,39.0,798.0],["SH3BGRL3_2",0.21544710565019215,-2.940803041230257,12.0,213.0]],"bottom":[["GPX2_1",-0.19493955965576726,-6.0339004255817,30.0,594.0],["MIR7108_3",-0.15191165847898944,-3.8396624243504096,32.0,589.0],["MIR1225_2",-0.1653439666346316,-5.826507552428608,39.0,799.0],["PRKD1_3",-0.1563971710700091,-3.23904478726082,25.0,456.0],["MBTPS2_1",-0.135259640738005,-3.5598494380327472,37.0,682.0],["NF2_2",-0.13149592717583236,-3.8179567114106945,39.0,786.0],["LRRIQ4_3",-0.16896889494176617,-2.9707646725167307,16.0,356.0],["LOC651337_2",-0.13897550596711938,-4.274862362292305,39.0,801.0],["MIR1225_3",-0.16757427779440098,-5.8805405901018295,39.0,785.0],["ZBTB46-AS1_3",-0.16359702367607457,-3.104108166562581,18.0,400.0],["AGR3_1",-0.13963202056236965,-4.242972873977411,39.0,786.0],["SCN4A_3",-0.17233889382518805,-2.2514969150159927,8.0,249.0],["PKD2L1_1",-0.14440520898747236,-3.033091416989065,28.0,495.0],["GLIS3-AS1_3",-0.1670639427449283,-5.624048339682812,37.0,752.0],["ZNF331_4",-0.1311762857075407,-3.613220034754147,36.0,742.0],["ZNF420_1",-0.14865873394748158,-4.011107135440454,33.0,649.0],["PRR15_1",-0.1358848437833467,-3.9284865014371833,36.0,762.0],["PCAT7_3",-0.13994321828550513,-4.282367707767662,39.0,791.0],["LAMB3_2",-0.14070091376889926,-4.291425090929914,38.0,785.0],["AGR3_2",-0.1335334042009245,-3.922154474006049,39.0,786.0],["MIR548Q_3",-0.1345419116527693,-3.8227762751209844,36.0,753.0],["SLC16A5_1",-0.1494000651363133,-4.851787406195414,39.0,799.0]]},"para":{"top":[["IQUB_4",0.21136578594883682,-3.13529627332352,8.0,220.0],["CDK2AP1_2",0.1750605308715975,-2.6278862663015965,11.0,251.0],["EVL_2",0.1748354495765573,-2.497689759250402,10.0,235.0],["USP49_2",0.21616611175439165,-6.161295632321247,24.0,476.0],["MEST_5",0.21046539455147237,-4.596606540251447,17.0,355.0],["GOLGA2P9_3",0.17465058317709692,-2.4932931384814196,8.0,237.0]],"bottom":[["LPCAT2_2",-0.15178080622299683,-1.9743558691131096,11.0,221.0],["SCN4A_3",-0.17075000361936307,-2.4987949522251207,8.0,249.0]]}}}
{"ccle_rrbs_cgi_clusters":{"corr":{"top":[["12_50014973_50019466-1",0.21974184205467426,-9.917262993405599,39.0,801.0],["20_62598653_62601165-3",0.2141894788329206,-9.467454120476617,39.0,803.0],["19_56157257_56161937-2",0.22707548654542625,-10.582006043191633,39.0,803.0],["6_116598494_116603174-2",0.21766427806175803,-9.696500010500547,39.0,797.0],["14_74178518_74183264-1",0.23872591581422237,-11.519623506041272,39.0,793.0],["17_18087309_18090360-2",0.3370005279317527,-23.054664885460685,39.0,802.0],["16_75681922_75684579-2",0.3167476007320313,-13.97629156765526,27.0,541.0],["2_12857822_12861019-3",0.24306020184648122,-11.630155354955384,39.0,771.0],["18_77791336_77795925-1",0.22864952144216788,-9.888565741616041,37.0,735.0],["19_10711015_10715555-2",0.2568805522363182,-13.413897144699098,39.0,802.0],["2_230783912_230786788-1",0.21728794685415037,-3.7830793655776525,16.0,280.0],["2_47400809_47403457-1",0.23861165508247908,-10.924534654814524,37.0,750.0],["3_44724928_44729237-1",0.2210172801124339,-9.782399644037792,39.0,779.0],["16_58497814_58500595-2",0.22816432312820834,-4.629212974337813,14.0,323.0],["2_47400809_47403457-2",0.23528019092825225,-10.646186795247779,37.0,751.0],["16_75681922_75684579-3",0.3164918334446525,-13.930536877226752,27.0,540.0],["6_73328942_73332026-3",0.23546842580972796,-11.332636144463944,39.0,802.0],["6_111277644_111282210-1",0.25472360161427127,-13.195237805627064,39.0,802.0],["6_42711166_42715986-2",0.25706408026459304,-13.462788322485446,39.0,804.0],["14_74178518_74183264-2",0.21872647053115832,-9.797555316764045,39.0,798.0],["1_59245461_59249201-1",0.3360049783951369,-22.88948405116124,39.0,801.0],["21_47740779_47745269-1",0.2365864910968978,-11.347135662334823,39.0,795.0],["8_97506677_97509607-3",0.21442890242831789,-6.933495881543327,28.0,571.0],["2_145274417_145277378-3",0.21911577967606757,-7.395079465960691,26.0,589.0],["23_30324439_30327053-3",0.2130641013549148,-3.330458253157881,18.0,248.0]],"bottom":[["14_102971317_102974991-3",-0.14053586161791637,-4.177318788631221,39.0,761.0],["16_2140987_2144170-3",-0.15857792280822047,-5.429994422017899,39.0,804.0],["10_81442163_81446474-3",-0.19957611116666646,-4.420411168865539,26.0,394.0],["10_3158888_3163107-1",-0.15144177020396832,-4.997643106311697,39.0,804.0],["16_2140987_2144170-2",-0.1683485089378814,-5.85877615021678,38.0,775.0],["19_37566952_37571549-1",-0.14865873394748158,-4.011107135440454,33.0,649.0],["19_3188998_3193418-1",-0.14887924155256582,-4.683632086751974,39.0,772.0],["14_30396815_30399420-3",-0.1563971710700091,-3.23904478726082,25.0,456.0],["20_62437107_62441833-3",-0.16359702367607457,-3.104108166562581,18.0,400.0],["19_58513977_58516498-3",-0.14247330827340102,-3.9074524408246756,35.0,686.0],["19_2434025_2437203-3",-0.15191165847898944,-3.8396624243504096,32.0,589.0],["16_2140987_2144170-1",-0.17651879747374402,-4.118725156950072,33.0,464.0],["4_151175347_151179559-2",-0.168353991519665,-2.6129461371351512,18.0,304.0],["17_73081866_73086495-1",-0.1494000651363133,-4.851787406195414,39.0,799.0],["22_29997396_30002153-1",-0.142592485921479,-4.436454645490248,39.0,793.0],["19_11469905_11474299-3",-0.16364900070587104,-5.595551025121073,39.0,779.0],["9_34575866_34580258-1",-0.16714987570595494,-2.962753264243817,21.0,358.0],["1_1157168_1161528-2",-0.14906514426637468,-4.355223085694218,35.0,710.0]]},"para":{"top":[["6_41860841_41865335-2",0.21616611175439165,-6.161295632321247,24.0,476.0],["7_123172472_123176682-1",0.21136578594883682,-3.13529627332352,8.0,220.0],["14_100435381_100438122-2",0.1748354495765573,-2.497689759250402,10.0,235.0],["7_130128739_130131925-3",0.21046539455147237,-4.596606540251447,17.0,355.0],["12_123755827_123758408-2",0.1750605308715975,-2.6278862663015965,11.0,251.0],["1_160051721_160054229-3",0.18060865372636928,-4.636180952843578,21.0,489.0],["7_63248057_63252948-2",0.23229899421631955,-3.8175348479539455,12.0,231.0]],"bottom":[["16_55540920_55545274-2",-0.15178080622299683,-1.9743558691131096,11.0,221.0],["5_177822858_177825865-1",-0.10872054891279215,-1.391576209870608,8.0,251.0],["1_156184237_156188647-1",-0.16209205838920016,-2.5176121521750963,10.0,278.0]]}}}
