{"ccle_chromatin":{"corr":{"top":[["H3K27ac1K36me2",0.0739794164085951,-1.5580224974098829,118.0,768.0]],"bottom":[]},"para":{"top":[],"bottom":[]}}}
{"ccle_rppa":{"corr":{"top":[["SCD_SCD1",0.11161369648152317,-3.0962495569390245,115.0,784.0]],"bottom":[["GAB2_Gab2",-0.0860381151837377,-2.006382492715412,115.0,784.0]]},"para":{"top":[],"bottom":[]}}}
{"ccle_metabolomics":{"corr":{"top":[["acetylglycine",0.09852051149607514,-2.5727810531213122,122.0,805.0],["C14:0 CE",0.10906578165621274,-3.055227540902182,122.0,805.0]],"bottom":[["C32:1 PC",-0.07064694480145806,-1.501745525494919,122.0,805.0],["C34:1 PC",-0.07625362392550146,-1.6938463593106374,122.0,805.0]]},"para":{"top":[],"bottom":[]}}}
{"ccle_rrbs_enhancer_clusters":{"corr":{"top":[["10-102976822-102981600-0_enh",0.12112991588714979,-3.2177536168763936,109.0,689.0],["4-4817733-4822560-1_enh",0.12605786396326527,-3.312712276709329,102.0,660.0],["19-30841917-30845536-1_enh",0.12059897997528998,-1.7430389525105465,61.0,323.0],["1-204421958-204426935-2_enh",0.15548912707476822,-3.0464079687223142,67.0,386.0],["12-115121533-115126174-2_enh",0.12374414300016529,-3.492394820563234,110.0,731.0],["12-103343263-103345971-2_enh",0.14838546651622692,-4.661029646176291,108.0,704.0],["7-27250458-27253057-0_enh",0.12143917965665992,-3.370294554403404,109.0,729.0],["12-115122394-115127300-1_enh",0.1258686740785989,-3.585990594774507,110.0,728.0],["2-60442005-60444515-2_enh",0.1424572879503223,-4.27878680779533,107.0,693.0],["6-108437847-108440452-0_enh",0.12226837639017296,-3.3891305123503273,109.0,723.0],["20-54126635-54129805-0_enh",0.17105977440068823,-6.232897418776965,110.0,733.0],["1-38792666-38795333-2_enh",0.11503297299151703,-2.259379199057024,70.0,511.0],["18-76062036-76064671-1_enh",0.17684884541620965,-4.161571033235082,62.0,439.0],["18-76062036-76064671-2_enh",0.17743467511418112,-4.266772179555251,63.0,449.0],["6-108435918-108438506-2_enh",0.12374234324373695,-3.4600781841392587,109.0,723.0]],"bottom":[["1-87793192-87795964-0_enh",-0.04688561616020759,-0.7586169804120579,109.0,732.0],["13-95359140-95362017-1_enh",-0.0975508551622682,-1.009222999904681,41.0,248.0],["15-64751430-64753997-0_enh",-0.06541821045452482,-1.2316012390811468,109.0,727.0]]},"para":{"top":[],"bottom":[]}}}
{"ccle_mirna":{"corr":{"top":[],"bottom":[["hsa-miR-487a_miR00390.1",-0.10864362401044113,-3.11014068969014,120.0,834.0]]},"para":{"top":[],"bottom":[]}}}
{"prism_primary_logfold":{"corr":{"top":[["dimaprit_BRD-K23541596-300-07-2::2.5::HTS",0.13840900356145625,-2.9533861168850497,80.0,472.0],["thioperamide_BRD-K63874012-001-02-9::2.5::HTS",0.14394705816394826,-3.1978648973060757,79.0,481.0],["JNJ-16259685_BRD-K25596805-001-01-8::2.5::HTS",0.14455901350895406,-3.181888319430193,80.0,472.0],["MR-16728_BRD-A30590053-003-02-9::2.5::HTS",0.09676928311019518,-1.6574305584991929,79.0,481.0],["ketanserin_BRD-K49671696-045-08-5::2.5::HTS",0.12059583976386944,-2.3349930341544582,81.0,469.0],["moxifloxacin_BRD-K66615216-003-14-8::2.5::HTS",0.1031901986613748,-1.8076287420840298,81.0,468.0],["promazine_BRD-K06980535-003-25-9::2.5::HTS",0.09782043321002527,-1.6309375449425731,77.0,460.0],["furaltadone_BRD-A67514145-003-05-8::2.5::HTS",0.12348596732457102,-2.406792286676641,80.0,464.0],["bicuculline-(+)_BRD-A07870296-001-07-4::2.5::HTS",0.1031292802642149,-1.8138303479320603,80.0,472.0],["nalidixic-acid_BRD-K47886988-001-21-4::2.5::HTS",0.1314538591562351,-2.705807952239431,80.0,472.0]],"bottom":[["delanzomib_BRD-K59325863-001-02-8::2.5::HTS",-0.18858991363106345,-5.137583818230453,80.0,478.0],["parecoxib_BRD-K13800121-001-01-5::2.5::HTS",-0.13945212525420236,-2.9915070229563274,80.0,472.0],["ABT-751_BRD-K91623615-001-05-0::2.46::HTS",-0.15719651554876435,-3.535223162376478,80.0,447.0],["azeliragon_BRD-K51899933-001-02-6::2.500004375::MTS004",-0.14940758925234013,-3.300131732616215,81.0,458.0],["rigosertib_BRD-K55187425-236-05-2::2.5::HTS",-0.1663999957084427,-4.093180278262869,80.0,476.0],["daunorubicin_BRD-K43389675-003-20-9::2.5::HTS",-0.18158173883873371,-4.775295808373484,79.0,476.0],["filanesib_BRD-K37379014-001-01-2::2.5::HTS",-0.14549270189239707,-3.2173713984911787,80.0,472.0],["taltobulin_BRD-K87512222-019-01-7::2.5::HTS",-0.1587548993079243,-3.779516638879705,80.0,478.0],["vinflunine_BRD-K64120610-001-01-4::2.5::MTS004",-0.1695112516457491,-4.122758655224704,80.0,460.0],["harringtonine_BRD-K96358241-001-01-9::0.94::HTS",-0.1374294668606638,-2.9312689656935804,79.0,476.0],["brilliant-green_BRD-K60348325-065-09-9::2.5::HTS",-0.151385042951565,-3.403061148521506,80.0,464.0],["XL888_BRD-A03506276-001-01-5::2.5::HTS",-0.16030330133917384,-3.8264706605255467,80.0,475.0],["napabucasin_BRD-K22064724-001-01-8::2.499989634::MTS004",-0.16270851050188698,-3.8352990822001716,80.0,460.0],["PD-160170_BRD-K12079898-001-02-6::2.5::HTS",-0.13267351892240256,-2.7609801403145617,80.0,475.0],["combretastatin-A-4_BRD-K61195623-001-01-4::2.5::HTS",-0.17534206052321855,-4.520934134677992,79.0,481.0],["idarubicin_BRD-K69650333-003-13-2::2.48::HTS",-0.1851810202205409,-4.7246324127162,80.0,447.0],["BIIB021_BRD-K51967704-001-03-6::2.5::HTS",-0.15063154633624218,-3.4324189100186677,80.0,475.0],["digoxin_BRD-A94756469-001-04-7::2.5::HTS",-0.14115566146131403,-3.0920166968530007,80.0,480.0],["paliperidone_BRD-A99888680-001-03-8::2.38::HTS",-0.14346707752160304,-2.8037847245033345,78.0,405.0],["vesnarinone_BRD-K13414800-001-01-3::2.499970601::MTS004",-0.14169157404904228,-3.017206170556124,80.0,460.0],["BGT226_BRD-K29415052-050-04-8::2.5::HTS",-0.13722850406456477,-2.9462990247486123,79.0,481.0],["ryuvidine_BRD-K06426971-001-02-7::2.5::HTS",-0.1360810921156609,-2.8868406066306105,80.0,476.0],["nocodazole_BRD-K12539581-001-23-7::2.5::HTS",-0.16348811160954427,-3.992444296592832,80.0,480.0],["SNX-2112_BRD-K71281111-001-04-3::2.5::HTS",-0.16371910620452662,-3.9899037959542745,80.0,478.0],["caspofungin-acetate_BRD-K49793107-402-02-6::2.5::MTS004",-0.16208408248511558,-3.8094739209011115,80.0,460.0],["MK-1775_BRD-K54256913-001-08-7::2.5::HTS",-0.1381152563957629,-2.9562688486982673,80.0,475.0],["ixabepilone_BRD-K03601870-001-01-2::2.5::HTS",-0.13622630507772845,-2.8876801377578514,80.0,475.0],["AMG-232_BRD-K64925568-001-01-8::2.5::HTS",-0.16967390075497474,-4.230309304828087,80.0,475.0],["A-674563_BRD-K78177893-001-02-4::2.5::HTS",-0.1283039510985325,-2.613194118091773,80.0,476.0],["SB-939_BRD-K86797399-001-04-4::2.5::HTS",-0.14555217244917878,-3.144633896440899,77.0,460.0],["AZD5438_BRD-K72414522-001-06-7::2.5::HTS",-0.17401705928527297,-4.446029797682515,80.0,478.0],["anguidine_BRD-K45724504-001-01-6::1.36::HTS",-0.14810202316573085,-3.333134250489431,79.0,476.0],["carboxyamidotriazole_BRD-K68408772-001-05-4::2.420640995::MTS004",-0.13523266539060314,-2.782322646526717,81.0,458.0],["maytansinol-isobutyrate_BRD-K15898725-001-01-7::2.5::HTS",-0.1509719905844349,-3.4566068957336102,80.0,477.0],["bardoxolone-methyl_BRD-K69694239-001-02-2::2.5::HTS",-0.1430471469062708,-3.163533850933773,80.0,480.0],["mericitabine_BRD-K69726595-001-01-2::2.5::HTS",-0.15597371324174886,-3.6643225245234343,80.0,478.0],["oxibendazole_BRD-K52075715-001-06-7::2.5::HTS",-0.16222689669390655,-3.938299667507484,80.0,480.0],["YM-155_BRD-K76703230-004-04-1::2.5::HTS",-0.1361790520033224,-2.885975276133036,79.0,476.0],["UNC0737_BRD-K02988401-001-01-2::2.5::MTS004",-0.13664077343809616,-2.831668482778936,81.0,458.0],["R306465_BRD-K86687746-001-01-3::2.5::HTS",-0.13598730419682617,-2.8307114352718092,80.0,464.0],["bortezomib_BRD-K88510285-001-11-1::2.5::HTS",-0.1310563466069175,-2.712496543241612,80.0,477.0],["entinostat_BRD-K77908580-001-09-6::2.5::HTS",-0.18060418434780717,-4.751877622213574,80.0,478.0]]},"para":{"top":[],"bottom":[]}}}
{"prism_secondary_logfold":{"corr":{"top":[["idelalisib_BRD-K60866521-001-07-1::2.5::MTS010::PROS003_PR500",0.14803283330568967,-2.827232644026488,66.0,392.0],["stemregenin-1_BRD-K36739687-001-03-0::0.00061034::HTS002",0.13581605887749829,-2.400483579769494,59.0,389.0],["rociletinib_BRD-K33610132-001-02-9::0.00061034::HTS002",0.1417544823361875,-2.5692907564159806,59.0,387.0],["dihydromyricetin_BRD-K01614093-001-02-6::0.625::HTS002",0.1262435404897982,-2.19294268647598,66.0,399.0],["golvatinib_BRD-K69001009-001-02-8::2.5::HTS002",0.19216843458589494,-2.211370397149542,27.0,175.0],["resiquimod_BRD-K76210423-001-01-6::0.0391::MTS010::PROS001_PR500",0.12413584280923903,-2.110445440010619,69.0,390.0],["triamcinolone_BRD-K77554836-001-11-6::0.0100511::HTS002",0.1492966687525429,-2.905584190221975,68.0,397.0],["CP-724714_BRD-K76908866-001-07-6::0.15625::HTS002",0.15312981479447618,-3.062183964010377,67.0,403.0],["birinapant_BRD-K71221037-001-01-6::0.0390625::HTS002",0.10769146360868616,-1.7093168749042684,67.0,403.0],["mexiletine_BRD-A64092382-003-18-3::0.00976562::HTS002",0.11280783913023344,-1.831923050620295,67.0,400.0],["tivantinib_BRD-K33379087-001-07-5::0.625::HTS002",0.1602738836511371,-3.28850297915486,62.0,404.0],["SB-525334_BRD-K37720887-001-07-8::0.0024414::HTS002",0.13965818768255361,-2.289065853741073,47.0,353.0]],"bottom":[["uprosertib_BRD-K38332599-001-01-3::10::MTS010::PROS002_PR500",-0.1953332768022933,-4.369566832864596,64.0,369.0],["vinflunine_BRD-K64120610-001-01-4::2.5::MTS006",-0.15911907060565986,-3.2894540074582808,68.0,405.0],["filanesib_BRD-K37379014-001-01-2::0.00061034::HTS002",-0.1717543543574447,-3.6199790996633356,59.0,394.0],["hexylresorcinol_BRD-K99946902-001-07-5::0.00976562::HTS002",-0.23712756864566956,-3.343482110166001,22.0,193.0],["theophylline_BRD-K97799481-001-16-0::10::HTS002",-0.17080996272988455,-3.544055715072497,62.0,385.0],["BMS-387032_BRD-K43389698-001-09-9::0.0375268::HTS002",-0.16583086375114722,-3.4696912863076053,64.0,399.0],["ABT-751_BRD-K91623615-001-05-0::9.84272::HTS002",-0.19832793368301035,-4.765062874729291,64.0,399.0],["inosine_BRD-K79612754-001-19-1::10.4832::HTS002",-0.17817646806689966,-3.9578108315750726,66.0,400.0],["colchicine_BRD-K00259736-001-16-4::2.5::HTS002",-0.17693905942513097,-3.231352871010764,47.0,327.0],["GW-501516_BRD-K14880289-001-02-2::0.0390625::HTS002",-0.1723475187912626,-3.641906107972292,59.0,394.0],["ispinesib_BRD-K64881305-001-03-7::0.0390625::HTS002",-0.20063843380917737,-4.884459309122039,62.0,403.0],["litronesib_BRD-K83029223-001-01-3::0.00244::MTS010::PROS005_PR500",-0.2001537172276978,-4.844533768511746,66.0,397.0],["rimexolone_BRD-K31627533-001-09-5::10::HTS002",-0.2050150916143016,-5.0694344807573986,61.0,403.0],["oxiracetam_BRD-K50677762-001-01-5::2.5::HTS002",-0.20582804413382086,-5.194448313434266,69.0,404.0],["uprosertib_BRD-K38332599-001-01-3::2.5::HTS002",-0.17349083365472323,-3.80436229972165,67.0,403.0],["iobenguane_BRD-K43860855-065-11-9::0.00244141::HTS002",-0.18528642528597922,-2.8814919912317647,37.0,261.0],["litronesib_BRD-K83029223-001-01-3::0.002441406::MTS006",-0.17211151230803196,-3.7305028821697888,68.0,399.0],["SR-33805_BRD-K43002771-034-01-6::2.5::HTS002",-0.16927525748750918,-3.184175670242867,57.0,345.0],["idasanutlin_BRD-K62627508-001-01-5::10::MTS010::PROS003_PR500",-0.1633682507995624,-3.3490924104751145,66.0,392.0],["CYT-997_BRD-K23363278-001-02-1::2.5::HTS002",-0.1858752367246402,-4.298626801239429,68.0,402.0],["uprosertib_BRD-K38332599-001-01-3::2.5::MTS010::PROS002_PR500",-0.17679991665743647,-3.6987889558187725,64.0,374.0],["fosbretabulin_BRD-K06814349-304-02-7::2.5::MTS010::PROS002_PR500",-0.21506824913177938,-4.865392189431105,59.0,343.0],["ramatroban_BRD-K08586861-001-01-1::10::HTS002",-0.17217583703622386,-3.593758720593274,62.0,385.0],["chlormidazole_BRD-K60443845-001-08-6::10::HTS002",-0.1682139071401131,-3.5837401085317526,67.0,400.0],["pelitinib_BRD-K08799216-001-05-3::10::MTS010::PROS002_PR500",-0.18678242307893428,-3.5593699386333495,56.0,319.0],["vinorelbine_BRD-K69280563-001-01-8::10::HTS002",-0.16847360528141175,-3.606753385339379,67.0,402.0],["difluprednate_BRD-K33720171-001-01-0::10::HTS002",-0.15893329251790977,-3.2649229710088785,69.0,401.0],["colchicine_BRD-K00259736-001-16-4::10::HTS002",-0.1676612117117445,-3.0985864572345636,48.0,349.0],["NMS-873_BRD-K26253904-001-01-5::2.5::HTS002",-0.17378890095164956,-3.759251259674295,63.0,399.0],["CID-5458317_BRD-A08840375-001-01-3::2.5::HTS002",-0.18233563720766746,-4.185040446761629,68.0,406.0],["CYT-997_BRD-K23363278-001-02-1::10::HTS002",-0.17632970145827118,-3.9220401154448368,68.0,403.0],["oxiracetam_BRD-K50677762-001-01-5::2.5::MTS006",-0.21019564365217264,-5.356117855385489,68.0,401.0],["melphalan_BRD-K87827419-001-16-8::0.00976562::HTS002",-0.1762871848682313,-3.905827477242844,67.0,402.0],["ispinesib_BRD-K64881305-001-03-7::0.00977::MTS010::PROS001_PR500",-0.20167598758868327,-4.8735474614704515,69.0,390.0],["aripiprazole_BRD-K70358946-001-15-7::2.5::HTS002",-0.2711456260829099,-2.2150439310132617,16.0,85.0],["filanesib_BRD-K37379014-001-02-0::0.00975::MTS010::PROS005_PR500",-0.17247868133340874,-3.7165870539068857,66.0,397.0]]},"para":{"top":[],"bottom":[]}}}
{"ccle_proteomics":{"corr":{"top":[["CLCA4_Q14CN2",0.2166189378531582,-0.801767954977376,10.0,34.0],["PRRX2_Q99811",0.2656328910903874,-1.43277063296312,10.0,52.0],["ZNF813_Q6ZN06",0.31884590127801515,-1.9114110393130572,10.0,51.0],["IL8_P10145-2",0.2889128014073664,-2.5530850985162252,19.0,86.0],["UNNAMED_Q9UF83",0.28713980376998166,-1.6046627250414724,10.0,51.0],["NINL_Q9Y2I6",0.3121769143225806,-1.869462634808673,8.0,54.0],["CECR1_Q9NZK5",0.23731905032827494,-1.0445038932343034,8.0,44.0],["ISPD_A4D126",0.20293790233026626,-0.955946224117921,8.0,55.0],["RPGRIP1L_Q68CZ1",0.3034567569634687,-2.2067026212240695,14.0,66.0],["KAT2B_Q92831",0.2785133985772279,-2.912893081391595,15.0,117.0],["MYH4_Q9Y623",0.3068324031932424,-3.069518825597651,14.0,101.0],["FBF1_Q8TES7-6",0.33167292296306666,-2.101298605740819,10.0,53.0],["TCF25_Q9BQ70",0.2121709620213315,-4.4424101006919745,55.0,318.0],["ZNF394_Q53GI3",0.2419145364159693,-1.0917772620583774,8.0,45.0],["KAZN_Q674X7",0.21335404141156658,-3.9099230408238217,47.0,272.0],["CTSK_P43235",0.2136669952993172,-1.648736016221074,14.0,100.0],["CACNA1A_O00555-8",0.28648196538828846,-1.0444259628200692,9.0,27.0],["DEPDC7_Q96QD5",0.23655177961616985,-1.4604483213471904,10.0,70.0],["C2orf42_Q9NWW7",0.2872497274518543,-2.009641526150955,12.0,68.0],["ZNF606_Q8WXB4",0.21115272379690073,-1.6289566633432582,13.0,102.0],["SPRED2_Q7Z698",0.2143158657222194,-2.502588461422782,27.0,161.0],["SLC9A3_P48764",0.20823397918320705,-0.8585395742399344,9.0,43.0],["BIRC7_Q96CA5",0.3103759172408668,-2.5121859850232915,18.0,71.0],["WDR25_Q64LD2",0.20491822634571208,-1.9354325470705516,19.0,132.0],["SPRY4_Q9C004",0.206268456683662,-4.053569425646973,52.0,304.0],["RPUSD1_Q9UJJ7",0.25126809877790784,-1.157749781068841,9.0,44.0],["FAR2_Q96K12",0.2570228933589915,-2.695348565973124,19.0,123.0],["OLFM2_O95897",0.30866129386820595,-1.8094130791518575,11.0,50.0],["PLD6_Q8N2A8",0.222782222915279,-1.087339513713625,10.0,52.0],["PAPPA2_Q9BXP8",0.2556902378438277,-1.520375771323643,18.0,54.0],["CCNE1_P24864",0.28030645661967746,-2.285593684557325,20.0,78.0],["B9D2_Q9BPU9",0.26201777567178275,-2.0384096995887404,17.0,81.0],["TSPAN10_Q9H1Z9",0.22117636744853703,-3.3470680773322985,35.0,213.0],["CCDC8_Q9H0W5",0.23477635717427278,-3.1398101396231737,35.0,169.0]],"bottom":[["TMEM184A_Q6ZMB5",-0.23807904681465472,-1.4903716819843489,10.0,71.0],["ETS2_P15036",-0.28420639176146983,-1.9738395042473944,10.0,70.0],["PPP1R3F_Q6ZSY5",-0.38388099491466754,-2.721902632556985,8.0,55.0],["OSBPL7_Q9BZF2",-0.24855038415455322,-2.130990163322808,17.0,98.0],["PHACTR3_Q96KR7",-0.2227572530259744,-0.7025331425860416,9.0,26.0],["FAM83A_Q86UY5",-0.21136898441452687,-1.824534992734217,16.0,116.0],["ZKSCAN3_Q9BRR0",-0.225888469952423,-1.4376524954539738,11.0,75.0],["RWDD3_Q9Y3V2",-0.32846165313650194,-2.0108208783203607,14.0,47.0],["CLRN3_Q8NCR9",-0.22986641325022988,-2.003725772719535,14.0,111.0],["AGT_P01019",-0.21170693908671862,-1.6358603423354987,16.0,99.0],["PDZRN3_Q9UPQ7",-0.21091568432250377,-1.2071499644291621,9.0,70.0],["ANKRD18B_A2A2Z9",-0.2561079734501707,-1.6267212657846346,11.0,67.0],["RBP2_P50120",-0.19788453090836702,-0.7968127410955013,9.0,43.0],["AMDHD1_Q96NU7",-0.28815537051807777,-1.614003169537339,11.0,50.0],["DGKK_Q5KSL6",-0.218337145081675,-0.9480157220951875,10.0,44.0],["ZNF526_Q8TF50",-0.1952046579143142,-1.256859738781964,11.0,86.0],["PSMB8_P28062",-0.23637925258022427,-5.406526408942218,55.0,318.0],["RDH16_O75452",-0.2272584337357133,-0.8752569582398502,8.0,37.0],["MAP3K9_J3KPI6",-0.27667437560335195,-0.9898767061715407,9.0,27.0],["COL6A5_A8TX70",-0.2572387800135212,-1.3257248115562072,11.0,49.0],["LIPG_Q9Y5X9",-0.22335830060442186,-1.3333138702405762,10.0,70.0],["SLC25A28_Q96A46",-0.23364195306694252,-2.0588613749437172,13.0,112.0],["NLGN1_Q8N2Q7",-0.31164404972154847,-2.5058465881074894,9.0,79.0],["DOCK3_Q8IZD9",-0.25998777160176395,-1.7020495746957591,8.0,72.0],["COL21A1_Q96P44",-0.2880393152245554,-1.997886699311886,11.0,68.0],["IRX2_Q9BZI1",-0.2658105064379099,-1.110187075189962,8.0,37.0],["HIST2H3A_Q71DI3",-0.27009803774194674,-2.4368330177272908,15.0,99.0],["HOXA10_P31260",-0.23891505092785625,-0.9269510148064294,9.0,35.0],["HLA-DQA1_P01909",-0.3880675903973671,-2.0341887649702266,8.0,36.0],["SLC12A8_A0AV02-4",-0.2654779279628664,-1.92359721216242,9.0,80.0],["PLEC_E9PKG0",-0.23165380601497199,-1.1692315178589858,12.0,51.0],["ZBTB47_H7BXD3",-0.3087172036583993,-0.931203624497146,8.0,19.0],["PCSK1_P29120",-0.19984740110513252,-1.6758597577162262,16.0,117.0],["SLC1A6_P48664",-0.25074144119681546,-1.8780696123520482,17.0,80.0],["MADD_Q8WXG6-4",-0.2467900624069179,-2.9143680761585715,17.0,152.0],["DSE_Q9UL01",-0.2779616913012319,-3.745388074662846,25.0,152.0]]},"para":{"top":[["CLCA4_Q14CN2",0.2989569952312875,-1.5883130349183794,10.0,34.0],["PRRX2_Q99811",0.21809677006298708,-1.3453452530124221,10.0,52.0],["DNAH1_Q9P2D7",0.21760143615265853,-1.3538205113122899,8.0,55.0],["ZNF813_Q6ZN06",0.32946202291224624,-2.2590937063656096,10.0,51.0],["IL8_P10145-2",0.28403729247392573,-2.7186984874343594,19.0,86.0],["UNNAMED_Q9UF83",0.2603035892445151,-1.6497879981741257,10.0,51.0],["SHQ1_Q6PI26",0.23170669934685842,-1.4589495117621145,10.0,53.0],["FGL2_Q14314",0.19297980389611136,-1.2767218726796634,9.0,63.0],["CHPT1_Q8WUD6",0.16888830610655908,-1.644975668898655,13.0,129.0],["ARHGEF39_Q8N4T4",0.2580980898644412,-1.6484959438767337,8.0,54.0],["HIST1H2AB_P04908",0.23538148474243312,-2.3534552517652356,15.0,110.0],["RPGRIP1L_Q68CZ1",0.3476089531485815,-2.989850337397747,14.0,66.0],["KAT2B_Q92831",0.2515224243634689,-2.694922603655772,15.0,117.0],["APLP1_F5GZ08",0.1898183825558512,-1.3126857163049772,9.0,69.0],["FBF1_Q8TES7-6",0.3415882268721728,-2.4343639090384834,10.0,53.0],["MYH4_Q9Y623",0.3196378865418101,-3.4860116822344924,14.0,101.0],["SNAPC1_Q16533",0.26509814258523273,-2.79605081995586,13.0,112.0],["SERPINB7_O75635-2",0.25956774699949153,-1.33962161936522,9.0,35.0],["ZNF394_Q53GI3",0.23773324129598286,-1.3527401391257527,8.0,45.0],["SPA17_Q15506",0.21839267431706633,-1.5628677348064368,9.0,70.0],["DEPDC7_Q96QD5",0.25533488039292285,-1.9265467890792036,10.0,70.0],["SLC9A3_P48764",0.32345620681266785,-1.967168007493882,9.0,43.0],["ZC3H13_Q5T200-2",0.2156652250262147,-1.6481923053255116,10.0,78.0],["IFI6_P09912-3",0.2000526517768728,-1.5015819373823969,9.0,79.0],["CARD6_Q9BX69",0.19900422352396308,-1.596109005262923,10.0,88.0],["OLFM2_O95897",0.2930374852163722,-1.924607493395668,11.0,50.0]],"bottom":[["IRX5_P78411",-0.23259435608956422,-1.677433308758493,9.0,69.0],["TMEM184A_Q6ZMB5",-0.23434861153403183,-1.736165361893016,10.0,71.0],["ETS2_P15036",-0.2504245942315205,-1.8774981865931961,10.0,70.0],["PPP1R3F_Q6ZSY5",-0.19400377146619735,-1.1897687684753835,8.0,55.0],["CLRN3_Q8NCR9",-0.1841920829179159,-1.692052949728591,14.0,111.0],["PDZRN3_Q9UPQ7",-0.2498412194187238,-1.8555732421787294,9.0,70.0],["RBP2_P50120",-0.2286208791607861,-1.2794003538745669,9.0,43.0],["AMDHD1_Q96NU7",-0.2881938904194073,-1.8824229751876485,11.0,50.0],["DGKK_Q5KSL6",-0.2691706339641813,-1.5904031580733529,10.0,44.0],["NIPAL3_Q6P499",-0.21551566447866585,-1.872987828293802,16.0,91.0],["PSD3_E5RIH3",-0.22706970478208346,-1.5195477381556433,9.0,61.0],["COL6A5_A8TX70",-0.2872680334359814,-1.8535499446519172,11.0,49.0],["CLEC3B_P05452",-0.17862585648299417,-1.1719539990056722,8.0,64.0],["LIPG_Q9Y5X9",-0.21768935315550475,-1.5693930987303855,10.0,70.0],["SLC25A28_Q96A46",-0.28289327057617564,-3.0823610831762704,13.0,112.0],["ASB3_Q9Y575-3",-0.2233996584764789,-1.7361345466475877,9.0,80.0],["DOCK3_Q8IZD9",-0.21742672195593074,-1.5663068256932755,8.0,72.0],["KLHL41_O60662",-0.2308392343030823,-1.2929713999342225,8.0,44.0],["TTC8_Q8TAM2",-0.18232446307117145,-1.5142478394826397,11.0,96.0],["HLA-DQA1_P01909",-0.3341076278338227,-1.8300389119813898,8.0,36.0],["NALCN_Q8IZF0",-0.2123554795778646,-1.3162351465521078,8.0,55.0],["SLC12A8_A0AV02-4",-0.26401777819947514,-2.170213907873837,9.0,80.0],["SCG3_Q8WXD2",-0.254962747084668,-2.197915247892197,12.0,85.0],["C1orf210_Q8IVY1",-0.23030730947950842,-1.7920749728565715,8.0,80.0],["ZBTB47_H7BXD3",-0.3957188479127656,-1.6339902273943823,8.0,19.0],["IKZF1_C9JTB0",-0.22157901960124887,-1.2625567737029828,9.0,45.0],["DSE_Q9UL01",-0.30082378979317137,-4.478756858559241,25.0,152.0]]}}}
{"depmap_copy_number":{"corr":{"top":[["HPSE2_60495",0.07785766107208802,-2.912513187736492,184.0,1538.0],["TAF5_6877",0.07773992115354257,-2.905061099944322,184.0,1538.0],["PCGF6_84108",0.07704294011009151,-2.8611495705314764,184.0,1538.0],["HPS1_3257",0.0815251376455781,-3.14959715950376,184.0,1538.0],["MIR4685_100616482",0.08069804285267937,-3.0952890282282652,184.0,1538.0],["TAS2R43_259289",0.08841245703093352,-3.6209458676489064,184.0,1538.0],["GDF2_2658",0.0774115877330866,-2.8843321625129614,184.0,1538.0],["INA_9118",0.07652073374884488,-2.828475974366137,184.0,1538.0],["SFRP5_6425",0.07560250856273519,-2.771494500322433,184.0,1538.0],["LOC101927278_101927278",0.07785766107208802,-2.912513187736492,184.0,1538.0],["RPEL1_729020",0.07652073374884488,-2.828475974366137,184.0,1538.0],["RBP3_5949",0.0774115877330866,-2.8843321625129614,184.0,1538.0]],"bottom":[["LINC01133_100505633",-0.09064462827450713,-3.7810714100360325,184.0,1538.0],["APCS_325",-0.08962170973159596,-3.7072428475808903,184.0,1538.0],["LRRC52_440699",-0.09276048420823799,-3.936198683139347,184.0,1538.0],["NR1I3_9970",-0.09194693711216277,-3.8761662591363306,184.0,1538.0],["MIR4259_100422852",-0.0918083759527195,-3.865989782030277,184.0,1538.0],["LOC440700_440700",-0.08936608855560016,-3.688912264186151,184.0,1538.0],["KCNJ9_3765",-0.09280680385899923,-3.939631178479165,184.0,1538.0],["ALDH9A1_223",-0.09097378997103626,-3.80499027394264,184.0,1538.0],["KCNJ10_3766",-0.09280680385899923,-3.939631178479165,184.0,1538.0],["PCP4L1_654790",-0.09159729612799149,-3.8505141333576267,184.0,1538.0],["DUSP23_54935",-0.09115414069000066,-3.8181290723390697,184.0,1538.0],["SNHG28_284677",-0.09159011437114072,-3.8499881624960324,184.0,1538.0],["FCGR2A_2212",-0.09166787806233759,-3.8556853467061,184.0,1538.0],["LOC100505795_100505795",-0.0972467421707557,-4.275932043296658,184.0,1538.0],["MIR5187_100847090",-0.09194693711216277,-3.8761662591363306,184.0,1538.0],["APOA2_336",-0.0955411817829868,-4.145038232205157,184.0,1538.0],["LOC729867_729867",-0.09386011636020075,-4.01810913415145,184.0,1538.0],["PEA15_8682",-0.09386011636020075,-4.01810913415145,184.0,1538.0],["CRP_1401",-0.09056509386493834,-3.775303785838488,184.0,1538.0],["MIR3658_100500832",-0.0897924190485485,-3.719510833667489,184.0,1538.0],["LRRC52-AS1_400794",-0.09276048420823799,-3.936198683139347,184.0,1538.0],["ATP1A2_477",-0.09309238211523349,-3.960828398688314,184.0,1538.0],["LINC01363_101928484",-0.08802852249891499,-3.5937686323872544,184.0,1538.0],["CASQ1_844",-0.09400234270453475,-4.0287679268572925,184.0,1538.0],["VSIG8_391123",-0.09159011437114072,-3.8499881624960324,184.0,1538.0],["SDHC_6391",-0.09166650416455606,-3.855584652910867,184.0,1538.0],["TOMM40L_84134",-0.09194693711216277,-3.8761662591363306,184.0,1538.0],["OR10J5_127385",-0.09054370514065059,-3.773753517339741,184.0,1538.0],["LOC100287049_100287049",-0.09365924386535958,-4.003080433188021,184.0,1538.0],["PEX19_5824",-0.09273276583059181,-3.934145374780316,184.0,1538.0],["TMCO1_54499",-0.08990598463237988,-3.727683924863036,184.0,1538.0],["TMCO1-AS1_100147773",-0.08990598463237988,-3.727683924863036,184.0,1538.0],["POU2F1_5451",-0.08802852249891499,-3.5937686323872544,184.0,1538.0],["UCK2_7371",-0.08797757336726789,-3.5901701699157895,184.0,1538.0],["FAM78B_149297",-0.0908130793076078,-3.79330222478862,184.0,1538.0],["OR10J3_441911",-0.08723605591659526,-3.538010688652226,184.0,1538.0],["FCER1G_2207",-0.08779453974038115,-3.5772582871602037,184.0,1538.0],["NDUFS2_4720",-0.08775102535702249,-3.574192188950355,184.0,1538.0],["NCSTN_23385",-0.08979590579582687,-3.719761628570211,184.0,1538.0],["COPA_1314",-0.09393363052536066,-4.023616621161695,184.0,1538.0],["IGSF8_93185",-0.09280680385899923,-3.939631178479165,184.0,1538.0],["OR10J1_26476",-0.08757787812932225,-3.5620055228283816,184.0,1538.0],["MGST3_4259",-0.09190340925952735,-3.8729678951537134,184.0,1538.0],["CD48_962",-0.09043650345408713,-3.765988482655884,184.0,1538.0],["DCAF8_50717",-0.09346094031825566,-3.9882728456364864,184.0,1538.0],["ATP1A4_480",-0.09338221453099849,-3.9824022512161927,184.0,1538.0],["MIR921_100126349",-0.08994643535841293,-3.730597347176079,184.0,1538.0],["FCER1A_2205",-0.08700035456206044,-3.521514463791212,184.0,1538.0],["LY9_4063",-0.09089007548551889,-3.7988996021980044,184.0,1538.0],["SLAMF9_89886",-0.09011378540266382,-3.7426631989639763,184.0,1538.0],["RXRG_6258",-0.09308653068950376,-3.9603934757673644,184.0,1538.0],["CFAP126_257177",-0.08750931370329974,-3.5571857357322116,184.0,1538.0],["TAGLN2_8407",-0.0918083759527195,-3.865989782030277,184.0,1538.0],["PIGM_93183",-0.09280680385899923,-3.939631178479165,184.0,1538.0],["IGSF9_57549",-0.09110398856035128,-3.814473044325215,184.0,1538.0],["CFAP45_25790",-0.09159011437114072,-3.8499881624960324,184.0,1538.0],["MPZ_4359",-0.09166650416455606,-3.855584652910867,184.0,1538.0],["NHLH1_4807",-0.0910544660430699,-3.810864710669432,184.0,1538.0],["LMX1A_4009",-0.09221979504572346,-3.8962469259950745,184.0,1538.0],["OR10J4_391121",-0.08757787812932225,-3.5620055228283816,184.0,1538.0],["SLAMF8_56833",-0.09159011437114072,-3.8499881624960324,184.0,1538.0],["SLAMF7_57823",-0.0913526896328923,-3.8326210169455144,184.0,1538.0],["FCRL6_343413",-0.09131028349767588,-3.8295234133257923,184.0,1538.0],["SUMO1P3_474338",-0.08943020748078456,-3.693505771404922,184.0,1538.0]]},"para":{"top":[],"bottom":[]}}}
{"depmap_gene_tpm":{"corr":{"top":[["CPOX_1371",0.12167210090465608,-4.9603412460746314,148.0,1151.0],["MRPS2_51116",0.14091863178238717,-6.467853238684547,148.0,1151.0],["EIF5A_1984",0.11965191609003735,-4.814357840374218,148.0,1151.0],["NOTCH1_4851",0.12545895718344285,-5.240217962647829,148.0,1151.0],["C1QBP_708",0.1504318843789971,-7.292019162349766,148.0,1151.0],["COQ3_51805",0.15426004537410662,-7.638618555332888,148.0,1151.0],["TNFAIP8L1_126282",0.12356325342522811,-5.09909415122628,148.0,1151.0],["CARNMT1_138199",0.15149621178166292,-7.3875177314979785,148.0,1151.0],["PPP1CC_5501",0.1288413140498949,-5.49709528723252,148.0,1151.0],["BCL2L12_83596",0.12296029078755667,-5.054634923577298,148.0,1151.0],["BMS1_9790",0.12231667101772911,-5.007405338297549,148.0,1151.0],["CEP83_51134",0.13872103844067052,-6.284954389613128,148.0,1151.0],["EIF5AL1_143244",0.15696927829938914,-7.88913080028956,148.0,1151.0],["DNAAF3_352909",0.14166986646608073,-6.531018221753494,148.0,1151.0],["SLC35G1_159371",0.1274463570577826,-5.390363178673479,148.0,1151.0],["PPP4R2_151987",0.13328145275447043,-5.844233425913016,148.0,1151.0]],"bottom":[["MAGI2_9863",-0.10321303090822308,-3.7115741709640133,148.0,1151.0],["SCN9A_6335",-0.12142778980609113,-4.942564047512394,148.0,1151.0],["FAM218A_152756",-0.09892349105651417,-3.4485051645687053,148.0,1151.0],["CNRIP1_25927",-0.1197441708898266,-4.820974133333327,148.0,1151.0],["EYA2_2139",-0.1022287021429198,-3.6503111302909885,148.0,1151.0],["ZFP3_124961",-0.11092613459752622,-4.210207456221328,148.0,1151.0],["GPR173_54328",-0.10323888033671498,-3.7131902049748255,148.0,1151.0],["ARHGEF2_9181",-0.10223161731388611,-3.6504917765857923,148.0,1151.0],["ZNF626_199777",-0.11418810240468454,-4.431056892806073,148.0,1151.0],["ADAM23_8745",-0.1054628527648623,-3.853609842483773,148.0,1151.0],["ZNF528_84436",-0.1162505431067941,-4.573769626808324,148.0,1151.0],["MAP3K7CL_56911",-0.10520812332530688,-3.837387661894058,148.0,1151.0],["LRCH2_57631",-0.10104137047504821,-3.5771244385023193,148.0,1151.0],["NEGR1_257194",-0.10904881020137366,-4.085798755096084,148.0,1151.0],["ZSCAN12_9753",-0.11735726187029283,-4.651335601701715,148.0,1151.0],["RIOK3_8780",-0.09883450847784221,-3.4431551760297894,148.0,1151.0],["CALHM6_441168",-0.10281694467321639,-3.6868581059252103,148.0,1151.0],["UCHL1_7345",-0.12022975158603019,-4.855878055547269,148.0,1151.0]]},"para":{"top":[],"bottom":[]}}}
{"avana":{"corr":{"top":[["ALG9_79796",0.10311773720489902,-2.371342356813812,99.0,668.0],["L3MBTL3_84456",0.1066396308617233,-2.4777212622230977,96.0,660.0],["ENHO_375704",0.10754638530550843,-2.5434492480977626,99.0,668.0],["RNF44_22838",0.09816455345354128,-2.1862369755293227,99.0,668.0],["GFRA1_2674",0.1116383570033573,-2.7080548819100647,99.0,668.0],["RLN1_6013",0.11775338154949172,-2.9641124669386554,99.0,668.0],["UGT1A3_54659",0.12316952173578785,-3.2010643407265125,99.0,668.0],["C9orf85_138241",0.13266224635216403,-3.6396270268005555,99.0,668.0],["TLE1_7088",0.10467433690068612,-2.4021586127653847,96.0,660.0],["NUDT10_170685",0.13131288442442227,-3.3857673125519114,91.0,629.0],["CCDC92_80212",0.10081625434036165,-2.284367291860383,99.0,668.0],["MMP16_4325",0.09797844552948876,-2.1794331478831634,99.0,668.0],["CCDC134_79879",0.1085197525966104,-2.582116934165119,99.0,668.0],["DHRS4_10901",0.1118046229308746,-2.714857066172332,99.0,668.0],["ASB13_79754",0.11382037854369031,-2.7980344741962284,99.0,668.0],["VASH2_79805",0.10645681708938871,-2.50052534736266,99.0,668.0],["MFN1_55669",0.1062948509977558,-2.4941770619401176,99.0,668.0],["SLC22A14_9389",0.11023172296296216,-2.6508638207587696,99.0,668.0],["C10orf62_414157",0.09896590144702949,-2.215657862773702,99.0,668.0],["SLC17A8_246213",0.10215945665276344,-2.334923811859437,99.0,668.0],["EGLN3_112399",0.09811657738788479,-2.158774845441006,96.0,660.0],["CHRD_8646",0.12112734526995818,-3.1105945672979414,99.0,668.0],["TLE3_7090",0.12859952059810908,-3.4482841030115163,99.0,668.0],["PCDHB8_56128",0.136660323449095,-3.8332854782114003,99.0,668.0],["CCL4_6351",0.120777738665189,-3.0952436369932204,99.0,668.0],["RIC1_57589",0.11975004810341766,-3.0503499115327832,99.0,668.0],["SLC7A2_6542",0.11421714418992318,-2.8145611609904155,99.0,668.0],["ZNF800_168850",0.09968621565476757,-2.242276696508673,99.0,668.0],["ARAP3_64411",0.10055390503787928,-2.274559532229613,99.0,668.0],["F7_2155",0.09796145826441918,-2.1788126626705173,99.0,668.0],["EMILIN2_84034",0.12338124148819699,-3.2105218789458774,99.0,668.0],["ANKRD33B_651746",0.10722396212260055,-2.530707697836841,99.0,668.0]],"bottom":[["TPX2_22974",-0.11050418131336143,-2.661891712932678,99.0,668.0],["SLURP1_57152",-0.13018132999857984,-3.522132168308301,99.0,668.0],["ARHGEF7_8874",-0.10946651667041948,-2.620019378241257,99.0,668.0],["PSD4_23550",-0.17997698254701966,-6.280682121879719,99.0,668.0],["STARD9_57519",-0.09992165737537521,-2.2510128829149796,99.0,668.0],["TXNDC17_84817",-0.09847854398166936,-2.1977407590725613,99.0,668.0],["ORAI3_93129",-0.13575732189757483,-3.789079536076495,99.0,668.0],["ZG16_653808",-0.1233478791528114,-3.209030604413868,99.0,668.0],["RPL36AL_6166",-0.12841502532251442,-3.4397247132215534,99.0,668.0],["AHSP_51327",-0.12582167420478244,-3.320599494399202,99.0,668.0],["FKBPL_63943",-0.10264887214867041,-2.3534871291827466,99.0,668.0],["PTPRG_5793",-0.10480650798842849,-2.436233518040685,99.0,668.0],["MDK_4192",-0.11701594955050404,-2.9325905489151776,99.0,668.0],["BPIFB2_80341",-0.10000150619898278,-2.253979695569615,99.0,668.0],["ACSL3_2181",-0.106591593889809,-2.5058143380724793,99.0,668.0],["SOGA1_140710",-0.10148060958945415,-2.3093013152216777,99.0,668.0],["TBX22_50945",-0.12002924663815845,-2.902453937190749,91.0,629.0],["PRRG2_5639",-0.10211149725415197,-2.3331088247379315,99.0,668.0],["SNTN_132203",-0.12816834825962747,-3.4282980724011534,99.0,668.0],["RPL27A_6157",-0.10188533367883201,-2.3245596749950486,99.0,668.0],["DEFB124_245937",-0.12949968654654304,-3.490207501158878,99.0,668.0],["ZNF514_84874",-0.10715328798994529,-2.527919238222027,99.0,668.0],["FRG2C_100288801",-0.096765910217061,-2.1353718037596185,99.0,668.0],["PRDM2_7799",-0.13219520225391046,-3.5724465482440118,96.0,660.0],["ZNRD1_30834",-0.10506908332738009,-2.4172385714392397,96.0,660.0]]},"para":{"top":[],"bottom":[]}}}
{"drive":{"corr":{"top":[["CCNA2_890",0.19150655560061455,-3.6932041957167137,53.0,319.0],["NCF1C_654817",0.1821153405130077,-3.381790914110092,53.0,319.0],["WDR88_126248",0.15033935500097245,-2.4533751064094416,55.0,320.0],["SH2D1A_4068",0.1534968509868721,-2.523511547731919,53.0,319.0],["CLCN3_1182",0.1668820434163815,-2.9081567941122333,53.0,319.0],["SLC37A3_84255",0.15513169305294394,-2.568932971610507,55.0,317.0],["CA1_759",0.1680703988658753,-2.9437208437256155,53.0,319.0],["RAB6A_5870",0.14948370951776005,-2.489345388893355,56.0,330.0],["ALPP_250",0.15624481740481133,-2.6177014388752884,55.0,320.0],["RAB34_83871",0.16364281526355395,-2.9018783418704457,56.0,330.0],["MFSD3_113655",0.17764883586032046,-3.321100949545151,56.0,327.0],["RNF123_63891",0.190859829703434,-3.697014114045661,55.0,320.0],["BMPER_168667",0.15977218402084492,-2.7002148856411514,53.0,319.0],["CAMK1G_57172",0.1602963265255547,-2.715262720742876,55.0,317.0],["ALG5_29880",0.16810424845196573,-3.038892158806596,56.0,330.0],["ABCF2_10061",0.1519839695326539,-2.5597468990643675,56.0,330.0],["CAPRIN2_65981",0.19485379254056576,-3.8078333382713834,53.0,319.0],["FMOD_2331",0.1521077994337006,-2.485257074526879,53.0,319.0],["S100A11_6282",0.1653163178650531,-2.861653619565253,55.0,317.0],["POLR2A_5430",0.17285077509950939,-3.167152908987587,56.0,327.0],["NKIRAS2_28511",0.1603261400800811,-2.7161199943639605,53.0,319.0],["FOXM1_2305",0.19705764342181836,-3.9117308295019493,55.0,320.0],["FANCD2_2177",0.20352711760827782,-4.113848753237941,55.0,317.0],["VPS4B_9525",0.20623109091569078,-4.211925053945249,53.0,319.0],["TUBB8_347688",0.1699315364874425,-2.999887017981331,55.0,317.0],["PDE3A_5139",0.2129962460428972,-4.462927817482535,55.0,317.0],["VPS28_51160",0.165679774379365,-2.892060885446344,55.0,320.0],["TTC34_100287898",0.14450020954581477,-2.2812211135558336,55.0,317.0],["DAD1_1603",0.15858551472333104,-2.750656975675363,56.0,330.0],["GUCA1C_9626",0.17105479287355585,-3.034061966606732,53.0,319.0],["DBF4_10926",0.16252994313603025,-2.7798902017225413,55.0,317.0],["COPZ1_22818",0.16988628973899328,-2.9985147615259935,53.0,319.0],["CCL4_6351",0.1784939065262017,-3.2656859859851006,53.0,319.0],["PNPLA6_10908",0.1749901239938475,-3.1554441367084007,55.0,317.0],["RAB21_23011",0.16737178489850843,-2.92278518758677,55.0,317.0],["RAP1A_5906",0.15192360261664437,-2.48020757808427,55.0,317.0],["RAB38_23682",0.17144478906701094,-3.0459763848920987,53.0,319.0],["CACNB2_783",0.15391960951936176,-2.597895693486026,56.0,327.0],["BHLHA15_168620",0.176563571927397,-3.204696922871021,53.0,319.0],["WNT6_7475",0.15274022862002876,-2.5026357083949713,55.0,317.0],["RAB23_51715",0.1720924728316328,-3.1642584425950067,56.0,330.0],["RBM14_10432",0.1694653516783901,-2.9857646391625723,53.0,319.0],["UBE2F_140739",0.15062812784888296,-2.4448477345989708,53.0,319.0]],"bottom":[["OPHN1_4983",-0.1695454143444653,-2.988187466149725,55.0,317.0],["AGT_183",-0.23205071487584664,-5.213758411097224,55.0,317.0],["RALGAPA1_253959",-0.16541976346668844,-2.936491441977377,56.0,327.0],["PRF1_5551",-0.15635344302869936,-2.6031588404398454,55.0,317.0],["BRIX1_55299",-0.18221046890889483,-3.384870504170231,55.0,317.0],["STIL_6491",-0.19701195214569378,-3.8827623438131216,55.0,317.0],["SRSF2_6427",-0.1978185837837868,-4.012038559081219,56.0,327.0],["WDR74_54663",-0.18894334608508995,-3.631962271134624,55.0,320.0],["PHF12_57649",-0.1578272931484315,-2.662699358428481,55.0,320.0],["RPS10-NUDT3_100529239",-0.19028544475765655,-3.703027432935834,55.0,323.0],["DUSP18_150290",-0.15665428252805505,-2.6116235135704495,55.0,317.0],["UBA2_10054",-0.2590715730693601,-6.439779729537962,55.0,320.0],["SLIT3_6586",-0.18246511026648463,-3.3931215095682083,53.0,319.0],["MDM4_4194",-0.29378228508535303,-8.396161786368625,56.0,330.0],["TAAR5_9038",-0.20862953516279376,-4.2999910244519866,55.0,317.0],["UBQLN1_29979",-0.1755637845766563,-3.2756068955885675,56.0,330.0],["TRIP13_9319",-0.20591646630206945,-4.2004475208838175,53.0,319.0],["ATOH1_474",-0.2012700054123647,-4.061475013675513,55.0,320.0],["TIAM2_26230",-0.19890096295775195,-3.976877336176187,55.0,320.0],["LOC101928058&LOC102724624&LOC388436&CENPH&LOC79999_101928058&102724624&388436&64946&79999",-0.19589843982307723,-3.7446702637910025,52.0,309.0],["SPRY4_81848",-0.22987211330611115,-5.161569927236645,55.0,320.0],["SRCAP_10847",-0.16590135823112398,-2.898680542944917,55.0,320.0],["BCS1L_617",-0.20464218823893587,-4.154138879458593,55.0,317.0],["PPM1D_8493",-0.18852283320187477,-3.6847410123256368,56.0,327.0],["AK1_203",-0.1569821566862593,-2.6208655302565775,55.0,317.0],["RPS18_6222",-0.18064529588943512,-3.3575534928401365,55.0,320.0],["CEBPZ_10153",-0.2309965618502878,-5.207842045389127,55.0,320.0],["TBL3_10607",-0.1761078663903518,-3.2124508021496014,55.0,320.0],["HIST1H2BN_8341",-0.17451516358591518,-3.1406577897407093,55.0,317.0],["SOX4_6659",-0.1714162025491718,-3.066058896920775,55.0,320.0],["DYRK3_8444",-0.1778390494736419,-3.244925867964037,55.0,317.0],["SHMT2_6472",-0.18711443586901538,-3.5704712746372738,55.0,320.0],["UTP4_84916",-0.20025048133359805,-4.024947858353654,55.0,320.0],["ADSL_158",-0.23229350558862513,-5.3621157627335085,56.0,327.0],["LOC407835_407835",-0.16389432098034407,-2.8197677594265453,55.0,317.0],["SMG1P3&SMG1P1_100271836&641298",-0.19219742193334244,-3.7167062576642333,53.0,319.0],["WDR75_84128",-0.18625438898146646,-3.541753204941597,55.0,320.0],["WDR43_23160",-0.21240965927593733,-4.472513464516295,55.0,320.0],["ELAVL4_1996",-0.1572536718280458,-2.6937807782258596,56.0,327.0],["DDX27_55661",-0.29854096725529294,-8.43142303925237,55.0,320.0],["PARP3_10039",-0.16617417227096132,-2.906841831711906,55.0,320.0]]},"para":{"top":[],"bottom":[]}}}
{"achilles":{"corr":{"top":[["CFAP57_149465",0.14422293075789094,-1.7929309040695949,39.0,239.0],["CCNA2_890",0.14747027460933348,-2.9899831879514442,64.0,429.0],["TTC14_151613",0.1522415014409785,-1.957452019110196,39.0,239.0],["SHE_126669",0.165075471843628,-2.2366119290143733,39.0,239.0],["SLC7A10_56301",0.14936184764739774,-3.055998637372565,64.0,429.0],["METTL1_4234",0.15785140833771036,-2.077059596559806,39.0,239.0],["MFSD8_256471",0.15414274393583993,-1.9975700409557653,39.0,239.0],["CHST8_64377",0.1799347283969014,-4.231215343770906,64.0,429.0],["DNAJB7_150353",0.18775252061196981,-2.778721418480366,39.0,239.0],["GPBP1L1_60313",0.14634015601355288,-1.8356395107974697,39.0,239.0],["BDH1_622",0.1559733025975495,-3.2927927120803813,64.0,429.0],["ZNF302_55900",0.14325225264908992,-2.8455332592046965,64.0,429.0],["MST1R_4486",0.16279818859882175,-3.5471865867985,64.0,429.0],["RANBP9_10048",0.14303702444521837,-2.838264362856231,64.0,429.0],["TMEM233_387890",0.15160171113377852,-1.9440478578278155,39.0,239.0],["PAIP1_10605",0.1678413455251858,-2.2993621924971075,39.0,239.0],["CRACR2B_283229",0.14787125806806975,-1.8668511089445086,39.0,239.0],["OGG1_4968",0.14125034110433277,-2.7783030859280475,64.0,429.0],["FAM200B_285550",0.17053027097516507,-2.3612555490707083,39.0,239.0],["SFTA2_389376",0.1644788056694976,-2.223196341144571,39.0,239.0],["LRRC28_123355",0.1401073601500887,-2.7403000102896127,64.0,429.0],["KRTAP17-1_83902",0.15540264499482825,-2.024390894183009,39.0,239.0],["FBRSL1_57666",0.16201925152204735,-2.168347620075786,39.0,239.0],["JMY_133746",0.17299852163549637,-2.4188442512604684,39.0,239.0],["ITIH5_80760",0.17962090339339182,-2.577044893530823,39.0,239.0],["THOP1_7064",0.21844766083593295,-2.897324924774238,25.0,190.0],["IFT81_28981",0.1680013990992069,-2.303021717979456,39.0,239.0],["LINC01879_400661",0.1483214399212516,-1.8760803076812482,39.0,239.0],["LRBA_987",0.2169117441469818,-3.5708656311302516,39.0,239.0],["PUSL1_126789",0.15131994687668512,-1.9381599644082923,39.0,239.0],["THAP10_56906",0.15673489948337577,-2.0529569477076914,39.0,239.0],["RTP4_64108",0.17533356613389253,-2.4740105812800333,39.0,239.0],["OCSTAMP_128506",0.1605454315013086,-2.135829113008876,39.0,239.0],["FERMT2_10979",0.20025461529018188,-3.1049965392812933,39.0,239.0],["SBDS_51119",0.1431793574865939,-1.772072105277924,39.0,239.0],["LIN7A_8825",0.14712914202856797,-1.8516887784279115,39.0,239.0],["EARS2_124454",0.15529162235374283,-2.022019874099867,39.0,239.0],["NUDCD3_23386",0.16944299508505634,-2.3361229777324533,39.0,239.0],["RPL3L_6123",0.18151931961443987,-2.6233929767133657,39.0,239.0],["IGFN1_91156",0.15785685830222423,-2.0771776118676013,39.0,239.0],["DNAH1_25981",0.1474173948836086,-1.8575704751616586,39.0,239.0],["ZNF253_56242",0.1403925303094515,-2.749755724854868,64.0,429.0],["WRB_7485",0.15278806350368462,-1.9689412361877343,39.0,239.0],["LRRCC1_85444",0.15843238141983,-2.0896601077293404,39.0,239.0],["GUCY2F_2986",0.14857701369128473,-3.028514903527088,64.0,429.0],["WASL_8976",0.18293296854467678,-2.65819616297889,39.0,239.0]],"bottom":[["RBM48_84060",-0.20046003569955995,-3.110523423145279,39.0,239.0],["RIN1_9610",-0.17317091824942477,-3.9534256112951356,64.0,429.0],["RABGEF1_27342",-0.14753905192632,-2.9923700532369524,64.0,429.0],["HSPD1_3329",-0.1458691216841354,-2.934702651877018,64.0,429.0],["BIN3_55909",-0.14375945552881292,-1.7836513879121072,39.0,239.0],["BTBD3_22903",-0.15711746012272904,-2.0611987666678195,39.0,239.0],["CTAGE7P_119437",-0.1441120031653615,-1.7907076803290876,39.0,239.0],["RNF150_57484",-0.18404280390924746,-2.685693687797593,39.0,239.0],["FUNDC2_65991",-0.17126139717108477,-2.378236575949124,39.0,239.0],["SPRR2F_6705",-0.15964452976001622,-2.1160796371004467,39.0,239.0],["EXOC8_149371",-0.14903791073841505,-1.8908177195925244,39.0,239.0],["MIS18A_54069",-0.17409166929808484,-2.4445871414883475,39.0,239.0],["TMEM145_284339",-0.18219611951610504,-2.640024423582642,39.0,239.0],["CHRNA1_1134",-0.15106536032405332,-3.1161088944055524,64.0,429.0],["WNT2B_7482",-0.15433252839415812,-3.2331455550315065,64.0,429.0],["AMZ1_155185",-0.16241690694102387,-2.1771661601973853,39.0,239.0],["WEE1_7465",-0.17215825807251642,-3.912715606854781,64.0,429.0],["RBM45_129831",-0.15410422627839684,-1.9967530380708287,39.0,239.0],["USP47_55031",-0.14974279067112856,-3.0693864171264305,64.0,429.0],["ZC3H12A_80149",-0.19357099242246462,-2.9281078711263566,39.0,239.0],["ERLIN2_11160",-0.157719338316402,-2.074200791453034,39.0,239.0],["QPCT_25797",-0.14593819819731618,-2.9370762284005805,64.0,429.0],["DEPDC5_9681",-0.16509183366592517,-2.2369804170509062,39.0,239.0],["C16orf78_123970",-0.17466141816261116,-2.4580623478820804,39.0,239.0],["SEPT5-GP1BB_100526833",-0.1537824483040207,-3.213279030991752,64.0,429.0],["TXN_7295",-0.1526570003379666,-3.172836656672732,64.0,429.0],["SYN1_6853",-0.15968928028561102,-2.117058362362956,39.0,239.0],["INSC_387755",-0.15191038682571562,-1.9505088519706222,39.0,239.0],["ABI1_10006",-0.1479014970328479,-1.8674702952504314,39.0,239.0],["PYURF&PIGY_100996939&84992",-0.145855276491633,-1.825812361275488,39.0,239.0],["TSPAN33_340348",-0.1436153210319995,-1.7807706793609677,39.0,239.0],["KRTAP13-3_337960",-0.1725980956085247,-2.409451061646579,39.0,239.0]]},"para":{"top":[],"bottom":[]}}}
{"ccle_rrbs_tss1kb":{"corr":{"top":[["ZFP3_17_4980753_4981753",0.17245523905240737,-6.197191144417333,106.0,718.0],["TNFRSF10C_8_22959326_22960326",0.2171053242622857,-3.217357626741581,37.0,209.0],["LOC101929089_11_118401490_118402490",0.17735205471100457,-6.54549402364564,107.0,720.0],["REXO1L2P_8_86815790_86816790",0.24820018877669295,-2.9733228239620444,19.0,152.0],["C11orf97_11_94244694_94245694",0.18606008085200376,-6.4629995098582125,97.0,643.0],["MIR9-2_5_87962757_87963757",0.17514515198905395,-6.193131756221251,105.0,693.0],["DUSP15_20_30458044_30459044",0.195564972310663,-7.828639480402212,107.0,718.0],["GALC_14_88459615_88460615",0.17789188596749408,-6.234859962759557,103.0,676.0],["IRAK3_12_66581977_66582977",0.18073185166501524,-6.7771569131787714,107.0,720.0],["FBXO10_9_37576250_37577250",0.18534073602323198,-6.935484079024165,105.0,701.0],["FAM57B_16_30042186_30043186",0.1730567039813266,-6.271076002878025,107.0,722.0],["LOC643327_6_3454936_3455936",0.17796636114088654,-6.181640676936352,100.0,671.0],["KATNAL2_18_44525759_44526759",0.17671908673344183,-4.0030618413395676,66.0,414.0],["LINC00526_18_5238028_5239028",0.2472574061913392,-12.31453277603102,107.0,724.0],["LRIF1_1_111506566_111507566",0.22137115545343983,-9.968518502248324,107.0,725.0],["FRZB_2_183731498_183732498",0.17213264845800816,-5.863909689534022,102.0,676.0],["LINC00667_18_5237098_5238098",0.2636598621489132,-13.97140414826574,107.0,725.0],["OXCT2P1_1_39979537_39980537",0.20192534038899976,-5.828041926960819,76.0,483.0]],"bottom":[["DZANK1_20_18447829_18448829",-0.0974530118533933,-2.295936947076282,106.0,720.0],["RPS12_6_133134707_133135707",-0.08796479976718864,-1.9418706285019682,107.0,719.0],["EHBP1_2_62931856_62932856",-0.08619640390561868,-1.8682354926171585,107.0,713.0],["FLYWCH1_16_2960979_2961979",-0.08333221803978863,-1.7558391187836007,107.0,705.0],["GABPB1-IT1_15_50647076_50648076",-0.08579678753170089,-1.8615850385637829,107.0,717.0],["DHX35_20_37589980_37590980",-0.08514752766680285,-1.8443591332045095,107.0,720.0],["ACTB_7_5570340_5571340",-0.0917425167979992,-2.0771488824747277,107.0,718.0],["GART_21_34915198_34916198",-0.09515189779519256,-2.21385014311743,107.0,722.0],["PIGN_18_59854289_59855289",-0.08627209312581906,-1.8928915334875507,107.0,725.0],["HIST1H2BF_6_26198786_26199786",-0.08175311777475745,-1.6713770163448307,101.0,692.0],["ELP6_3_47555199_47556199",-0.08610863110742686,-1.5392769171319602,88.0,556.0],["EHBP1_2_62931758_62932758",-0.08646734119093913,-1.8684830522764855,107.0,708.0],["TTLL5_14_76126550_76127550",-0.08878412966723882,-1.9828401402602733,107.0,725.0],["TMTC3_12_88535072_88536072",-0.08262845977129797,-1.7628011438246642,107.0,723.0],["BFAR_16_14725667_14726667",-0.08768996729144514,-1.920725465474741,107.0,713.0],["MINDY1_1_150980225_150981225",-0.08490054716190773,-1.8232923299937334,106.0,714.0],["GARS_7_30633508_30634508",-0.0856658366447865,-1.8678813331374664,106.0,724.0],["RAB3IP_12_70132169_70133169",-0.08453467770290597,-1.830155023111843,107.0,724.0],["DDX39A_19_14530195_14531195",-0.08147388876759881,-1.7170485059363862,107.0,719.0],["MIR548Q_10_12767352_12768352",-0.11054074206474553,-2.683752388877942,103.0,671.0],["BIRC2_11_102217104_102218104",-0.08332654294583562,-1.7659995976392973,107.0,711.0],["STK4-AS1_20_43595099_43596099",-0.08289534424690052,-1.775322338127556,107.0,725.0],["SGO1_3_20227725_20228725",-0.08811927566798766,-1.9435791224058445,107.0,717.0],["C19orf57_19_14016978_14017978",-0.08870212560396469,-1.9760136783888955,107.0,723.0],["MRPL48_11_73497916_73498916",-0.09032235393652421,-2.0409640565851697,107.0,726.0],["EHBP1_2_62931786_62932786",-0.08383055178819218,-1.7866007024105424,107.0,713.0]]},"para":{"top":[],"bottom":[]}}}
{"ccle_gene_tpm":{"corr":{"top":[["PPP4R2_ENSG00000163605.10",0.14623301210883682,-5.558223791591328,124.0,895.0],["AL136115.1_ENSG00000212673.1",0.17619982783636476,-7.825174364351692,124.0,895.0],["RP11-132A1.4_ENSG00000232445.1",0.1622410790544572,-6.71735940687807,124.0,895.0],["DNAAF3_ENSG00000167646.9",0.15331692013848852,-6.056642096169676,124.0,895.0],["CYB5D1_ENSG00000182224.7",0.17848297302506622,-8.015100848058497,124.0,895.0],["AC068538.4_ENSG00000234988.1",0.1511945539996487,-5.904906478934506,124.0,895.0],["RP11-104O19.2_ENSG00000261868.1",0.16770178266097,-7.139869546407109,124.0,895.0],["RP11-524O24.2_ENSG00000226493.1",0.17244860577667606,-7.518475964089921,124.0,895.0],["RP11-503N18.5_ENSG00000251229.1",0.19333333555023732,-9.31117510712836,124.0,895.0],["THAP5P1_ENSG00000224324.1",0.15380214162231706,-6.091622569181176,124.0,895.0],["None_ENSG00000256950.2",0.15652479437466688,-6.289911547209987,124.0,895.0],["COQ3_ENSG00000132423.6",0.17889757618558466,-8.049855380908735,124.0,895.0],["WRAP53_ENSG00000141499.12",0.1531689278450394,-6.045994585393421,124.0,895.0],["RP11-252I14.2_ENSG00000253908.1",0.16076088320424206,-6.605222772152403,124.0,895.0],["RP11-818O24.3_ENSG00000262777.1",0.18591616252376147,-8.650620258821968,124.0,895.0],["C9orf41_ENSG00000156017.8",0.1586447822036744,-6.446674809043355,124.0,895.0],["RP11-498E2.7_ENSG00000269979.1",0.15895577451287374,-6.4698458697871715,124.0,895.0],["RP11-152H18.4_ENSG00000254900.1",0.15292076494617796,-6.028162723806713,124.0,895.0],["C1QBP_ENSG00000108561.4",0.1652585983531706,-6.949114803988899,124.0,895.0]],"bottom":[["ARHGEF2_ENSG00000116584.13",-0.12178963195487662,-4.012351076253504,124.0,895.0],["ZSCAN12_ENSG00000158691.10",-0.13463077146857647,-4.791110748343541,124.0,895.0],["RGL1_ENSG00000143344.11",-0.13560347523828856,-4.853094863741512,124.0,895.0],["IRAK3_ENSG00000090376.4",-0.12068513919950025,-3.9487772968096087,124.0,895.0],["RP11-674N23.1_ENSG00000265962.1",-0.11694398854600872,-3.7374192724057314,124.0,895.0],["FADS2_ENSG00000134824.9",-0.1144189081109326,-3.598225454940051,124.0,895.0],["SCN9A_ENSG00000169432.10",-0.13366658197484044,-4.730087500674655,124.0,895.0],["CTSS_ENSG00000163131.6",-0.13077958583399749,-4.549855507172439,124.0,895.0],["UCHL1_ENSG00000154277.8",-0.13786354629051184,-4.998754138298069,124.0,895.0],["SEC14L1_ENSG00000129657.10",-0.12072051478369733,-3.950805171539723,124.0,895.0],["ZFP3_ENSG00000180787.5",-0.12200000040109141,-4.024520594046316,124.0,895.0],["LINC00526_ENSG00000264575.1",-0.11592364578750934,-3.680838219721289,124.0,895.0],["FAM26F_ENSG00000188820.8",-0.1326850289405863,-4.668392554013527,124.0,895.0],["KRBOX1_ENSG00000240747.3",-0.11800657977285156,-3.7968271003605785,124.0,895.0],["HIC1_ENSG00000177374.8",-0.12307115765916656,-4.08678792667506,124.0,895.0],["NEURL2_ENSG00000124257.6",-0.11684524368826925,-3.7319236869053722,124.0,895.0],["RBMS1P1_ENSG00000225422.3",-0.11446704917968155,-3.6008531954765743,124.0,895.0],["DPYSL3_ENSG00000113657.8",-0.1447192004459189,-5.4546805424443985,124.0,895.0],["TSPAN31_ENSG00000135452.5",-0.13364824081164944,-4.728930727236434,124.0,895.0],["FGF14_ENSG00000102466.11",-0.12183230032932064,-4.014817806118873,124.0,895.0],["TMEM217_ENSG00000172738.7",-0.12458795453793847,-4.175826527772223,124.0,895.0],["NAGK_ENSG00000124357.8",-0.11658107003898491,-3.717242220964424,124.0,895.0]]},"para":{"top":[],"bottom":[]}}}
{"ccle_rrbs_tss_clusters":{"corr":{"top":[["LRIF1_1",0.20359023972388257,-8.592454642798621,110.0,731.0],["FAM218A_2",0.22700963074157066,-6.515383003040716,66.0,432.0],["PBX3_2",0.2268911678000908,-6.0329508047826685,57.0,401.0],["MARCH3_2",0.20647438501098428,-7.578151074987995,103.0,610.0],["TNFRSF10C_1",0.21470216867710928,-3.1664983069725774,37.0,210.0],["PDE4DIP_8",0.2395474547733558,-11.700836461681789,110.0,730.0],["OXCT2P1_2",0.21061060242246374,-6.358952462377754,79.0,486.0],["IRAK3_3",0.19807732439883063,-8.142892992829307,110.0,729.0],["SH3GL3_1",0.2098263546334935,-3.504240267139517,34.0,257.0],["LINC00667_1",0.25943723405502744,-13.691107941170179,110.0,732.0],["GSTM1_2",0.2136917419760445,-4.307379926625252,52.0,303.0],["LOC101929710_1",0.2187661741220212,-9.77914160507685,110.0,725.0],["ABHD17C_1",0.25238176035552645,-5.865429406207144,46.0,311.0]],"bottom":[["ZNF891_1",-0.15713648093674237,-5.165294032613827,106.0,706.0],["USP39_2",-0.1159775009411714,-2.770420201029123,102.0,628.0],["LOC641367_3",-0.12408173915279047,-2.882152193077995,92.0,576.0],["ZNF398_3",-0.15545620641150257,-3.7279319715031654,68.0,505.0],["SNORD83B_1",-0.1324215028366855,-3.5297932262499416,101.0,642.0],["ASMTL_1",-0.12351377239040155,-3.4276036287110685,109.0,717.0],["NSMF_3",-0.1140266500696859,-2.979026669680086,109.0,714.0],["PPIL3_2",-0.11363870408032166,-1.9811040489289877,71.0,436.0],["FAM222A-AS1_3",-0.150221943901115,-1.9376611607771592,39.0,243.0]]},"para":{"top":[],"bottom":[]}}}
{"ccle_rrbs_cgi_clusters":{"corr":{"top":[["1_144929339_144931983-1",0.22059012652041418,-9.835143594624881,110.0,716.0],["5_95294368_95296903-2",0.22189477618573727,-9.912550655863734,110.0,713.0],["1_27899660_27902174-2",0.24492599220850744,-3.712246774170712,34.0,193.0],["17_1878789_1883116-1",0.21248870657406643,-8.7287665594608,104.0,680.0],["1_144929339_144931983-2",0.26176481171089944,-13.85394124420842,109.0,728.0],["16_68676686_68679418-2",0.21689247508216003,-3.054138781971631,30.0,202.0],["2_30454610_30457655-3",0.20746176703134317,-5.817357817670499,71.0,457.0],["15_32606236_32609825-1",0.23238945510886264,-2.188445112798048,16.0,120.0],["1_39978365_39981067-2",0.21061060242246374,-6.358952462377754,79.0,486.0],["8_22958384_22962927-1",0.21470216867710928,-3.1664983069725774,37.0,210.0],["18_76637260_76641744-1",0.21696329506546289,-3.224931452569398,33.0,214.0],["1_110228238_110232614-2",0.2136917419760445,-4.307379926625252,52.0,303.0],["6_87859526_87864513-3",0.2132449887745509,-8.860086145050253,105.0,686.0],["15_84113762_84116342-1",0.2098263546334935,-3.504240267139517,34.0,257.0],["15_80985196_80987930-1",0.25238176035552645,-5.865429406207144,46.0,311.0],["12_130621142_130625492-3",0.22558327672897716,-3.161264336892702,26.0,197.0],["1_111506444_111509007-1",0.2095602595069108,-9.073786747275372,110.0,731.0],["2_227653903_227658647-2",0.21057900619583994,-9.076593713576981,110.0,723.0],["18_5235723_5240674-1",0.25943723405502744,-13.691107941170179,110.0,732.0],["4_165876036_165880446-2",0.22700963074157066,-6.515383003040716,66.0,432.0],["9_128509495_128512670-2",0.2268911678000908,-6.0329508047826685,57.0,401.0],["9_86150353_86153065-1",0.21880727530174598,-3.009263288451693,34.0,190.0]],"bottom":[["2_85841208_85845677-2",-0.1159775009411714,-2.770420201029123,102.0,628.0],["7_148844905_148847556-2",-0.15545620641150257,-3.7279319715031654,68.0,505.0],["23_1569573_1573949-1",-0.11429371374494779,-3.009426940386602,109.0,720.0],["23_1570351_1574610-1",-0.11268211357793266,-2.9195191197191734,109.0,714.0],["19_1991000_1995273-3",-0.13901237438087702,-4.061919220927196,107.0,685.0],["16_2720923_2725674-1",-0.11889958541428464,-3.18668827425941,107.0,712.0],["17_58466980_58471903-1",-0.16816844431359118,-2.8589586432995007,46.0,313.0],["2_103233376_103235965-1",-0.12496937634422246,-1.3354166598652657,29.0,226.0],["9_140354314_140358987-1",-0.12248222208581827,-3.416938442487219,110.0,727.0],["19_21931434_21935853-3",-0.12408173915279047,-2.882152193077995,92.0,576.0],["12_133704528_133707061-1",-0.15713648093674237,-5.165294032613827,106.0,706.0]]},"para":{"top":[],"bottom":[]}}}
