{"ccle_chromatin":{"corr":{"top":[["H3K79me2",0.10448637346843923,-2.747181407072704,41.0,850.0]],"bottom":[]},"para":{"top":[],"bottom":[]}}}
{"ccle_rppa":{"corr":{"top":[],"bottom":[]},"para":{"top":[],"bottom":[]}}}
{"ccle_metabolomics":{"corr":{"top":[["lactate",0.08475091624456278,-2.0071885974176884,43.0,884.0],["C34:3 PC",0.07774896155526381,-1.7470386824572128,43.0,884.0]],"bottom":[]},"para":{"top":[],"bottom":[]}}}
{"ccle_rrbs_enhancer_clusters":{"corr":{"top":[["20-30189716-30194554-0_enh",0.12938194688795424,-2.0594556863902787,22.0,388.0],["16-54250374-54253153-2_enh",0.10340478183681606,-2.4670658221266923,40.0,760.0]],"bottom":[]},"para":{"top":[["17-35009848-35014557-2_enh",0.188251423132777,-2.6890852600809727,9.0,225.0]],"bottom":[]}}}
{"ccle_mirna":{"corr":{"top":[],"bottom":[["hsa-miR-132_miR00134.1",-0.0842004107182888,-2.032879737619814,43.0,911.0]]},"para":{"top":[],"bottom":[]}}}
{"prism_primary_logfold":{"corr":{"top":[["imiloxan_BRD-A10903566-003-07-7::2.5::HTS",0.11236344161646822,-2.0380956034337054,28.0,509.0],["flucytosine_BRD-K82143716-001-19-9::2.5::HTS",0.1314802740940536,-2.6902226921507375,29.0,519.0],["glasdegib_BRD-K34341643-001-01-4::2.5::HTS",0.09305460955059022,-1.5360699206028063,29.0,521.0],["cloranolol_BRD-A04971881-003-01-3::2.65294603::MTS004",0.09588174350154326,-1.5847776346642424,29.0,510.0],["CC-930_BRD-K48213016-001-01-8::2.5::HTS",0.10426895637540672,-1.8407999045921803,29.0,521.0],["LCL-161_BRD-K08248804-001-01-8::2.5::HTS",0.08304130210149614,-1.2639389532125551,28.0,509.0],["ditolylguanidine_BRD-K33459542-001-07-4::2.5::HTS",0.12324010070132956,-2.428081448358958,29.0,523.0],["rilmenidine_BRD-K01638814-011-01-4::2.587084236::MTS004",0.13053607916196255,-2.6210398628765064,29.0,510.0],["PPT_BRD-K00312224-001-09-5::2.5::HTS",0.11487451530049912,-2.1549091802014484,29.0,521.0],["talc_BRD-M92352362-002-02-3::2.5::HTS",0.11465811212661904,-2.074487451153117,26.0,501.0]],"bottom":[["apafant_BRD-K28115081-001-02-7::2.5::HTS",-0.13223886461446271,-2.733178991017283,29.0,523.0],["chlormadinone-acetate_BRD-A01593789-001-03-1::2.5::HTS",-0.12114720721490119,-2.3739928622670945,28.0,528.0],["phenprocoumon_BRD-A49838158-001-01-1::2.5::HTS",-0.12266631687852844,-2.4201398666683533,28.0,527.0],["pefloxacin_BRD-K55034111-066-17-1::2.5::HTS",-0.11079046507732696,-2.0459576800777866,28.0,527.0],["mestinon_BRD-K69688083-004-23-1::2.5::HTS",-0.12572848602964157,-2.514349273737767,28.0,525.0],["carbazochrome_BRD-A11070335-236-02-1::2.5::HTS",-0.1435705966534115,-3.1786153687514163,29.0,530.0],["fluocinolone-acetonide_BRD-K94353609-001-21-6::2.5::HTS",-0.1089109064240044,-1.9897125745721942,28.0,527.0],["sal003_BRD-A45869167-001-10-0::2.5::HTS",-0.11864717212194008,-2.296662774138889,29.0,528.0],["N-acetyltryptamine_BRD-K73700643-001-11-2::2.5::HTS",-0.14215320699213546,-3.129625637946347,29.0,531.0],["darglitazone_BRD-K82908348-001-01-9::2.434467427::MTS004",-0.1227024598208287,-2.3668948540479207,29.0,511.0],["dihydroergotamine_BRD-K72166146-066-05-4::2.5::HTS",-0.12455087484915776,-2.471345323266413,29.0,523.0],["alpha-tochopheryl-acetate_BRD-A61850409-001-10-7::2.5::HTS",-0.13438073917202656,-2.8257838682609235,28.0,528.0],["SB-228357_BRD-K15424032-001-03-6::2.5::HTS",-0.13153777199590486,-2.700469214532119,29.0,521.0],["LE-135_BRD-K06593056-001-04-8::2.5::HTS",-0.10427102639912439,-1.8462411496185491,29.0,523.0],["bazedoxifene_BRD-K90195324-003-02-5::2.5::HTS",-0.11997994586676922,-2.339593017451341,29.0,528.0],["methicillin_BRD-K34388247-236-08-2::2.5::HTS",-0.12497821366244255,-2.4967915798476863,28.0,527.0],["nutlin-3_BRD-A12230535-001-06-7::2.5::HTS",-0.13530515650036815,-2.7761304963557754,28.0,509.0],["amprolium_BRD-K90027121-003-01-7::2.5::HTS",-0.1497617485859778,-3.408647044480827,29.0,528.0],["UB-165_BRD-A14574269-051-02-2::2.5::HTS",-0.1155505419436107,-2.1757970148837784,29.0,521.0],["orotic-acid_BRD-K32572029-001-04-4::2.5::HTS",-0.11918039041697208,-2.2966142897845963,29.0,523.0],["MK-3207_BRD-K66911501-003-01-2::2.5::HTS",-0.12758155471242713,-2.584605658424472,29.0,526.0],["AGN-194310_BRD-K70262971-001-01-9::2.499966077::MTS004",-0.13301066351885174,-2.709607811183356,29.0,511.0],["medroxyprogesterone-acetate_BRD-A61221616-001-04-3::2.5::HTS",-0.14633624554592847,-3.2899686249194304,29.0,531.0],["zimelidine_BRD-K46914825-300-01-0::2.5::HTS",-0.12532885237363411,-2.4934403400288696,29.0,522.0]]},"para":{"top":[["flucytosine_BRD-K82143716-001-19-9::2.5::HTS",0.1473134792474524,-3.543978688909151,29.0,519.0]],"bottom":[]}}}
{"prism_secondary_logfold":{"corr":{"top":[["thioproperazine_BRD-K08619574-334-05-4::0.00976562::HTS002",0.13325436434168592,-1.8471752519113618,21.0,317.0],["propoxycaine_BRD-K18250272-003-11-0::0.00061034::HTS002",0.1333669356452312,-2.1690000307473336,19.0,392.0],["JTE-607_BRD-K81405859-300-01-4::0.009765625::MTS006",0.12179128531644429,-2.0818739720989234,25.0,444.0],["olaparib_BRD-K02113016-001-19-6::2.5::MTS010::PROS004_PR500",0.12376986621487059,-2.1301702583199478,24.0,443.0],["resiquimod_BRD-K76210423-001-01-6::0.00244::MTS010::PROS001_PR500",0.10661814682792715,-1.6508796171013547,23.0,436.0],["lidamidine_BRD-K68693535-001-03-4::0.00244141::HTS002",0.18956116703437348,-1.2394543253496142,10.0,91.0],["ponatinib_BRD-K44227013-001-06-4::0.15625::MTS010::PROS003_PR500",0.11778638982571867,-1.9337542590472645,24.0,434.0],["exemestane_BRD-K33425534-001-12-5::0.15625::HTS002",0.15524705512722606,-2.3743368594480434,21.0,317.0],["lidamidine_BRD-K68693535-001-03-4::0.000610352::HTS002",0.19194285288596338,-2.9211868562868313,18.0,264.0],["JTE-607_BRD-K81405859-300-01-4::0.15625::MTS006",0.15026264302116185,-2.959219690385103,25.0,444.0],["methyldopa_BRD-K48578705-001-17-6::0.0390625::HTS002",0.1152168876024195,-1.9053138261579243,25.0,445.0],["AMG900_BRD-K21728777-001-02-3::0.00061034::HTS002",0.16256014992807052,-3.3764890448782983,24.0,443.0]],"bottom":[["narlaprevir_BRD-K38287497-001-01-2::0.625::HTS002",-0.145252967229481,-2.300999034795383,20.0,352.0],["isoetharine_BRD-A24587114-066-22-5::0.625::HTS002",-0.1507871942495296,-2.6024481998077023,20.0,380.0],["cobimetinib_BRD-K03390685-001-01-7::0.0390625::HTS002",-0.15164433330380023,-2.6385007547838986,21.0,381.0],["Y-320_BRD-K96259238-001-01-4::0.15625::HTS002",-0.1420035409444975,-2.5865684557612827,23.0,425.0],["nutlin-3_BRD-A12230535-001-06-7::10::HTS002",-0.15676254172268442,-3.153404649886402,24.0,440.0],["golvatinib_BRD-K69001009-001-02-8::0.15625::HTS002",-0.19638011243811848,-2.761135981493616,15.0,237.0],["A61603_BRD-A83650191-004-02-8::0.15625::HTS002",-0.16477593286012607,-3.3353547399717507,23.0,425.0],["CYC116_BRD-K64866502-001-03-9::0.00976562::HTS002",-0.141054726932035,-2.5527795488862095,24.0,423.0],["R547_BRD-K52233191-001-02-4::0.0390625::HTS002",-0.13556251082837384,-2.2059113879120003,21.0,385.0],["BMS-707035_BRD-K49555808-001-03-9::0.0024414::HTS002",-0.1698758790915414,-3.0942444870345023,20.0,366.0],["naloxone_BRD-K67511046-001-02-3::0.0024414::HTS002",-0.20069377138365113,-2.1508708476442493,8.0,171.0],["semaxanib_BRD-K63504947-001-15-4::0.625::HTS002",-0.14022350260716188,-2.2376193617749616,20.0,366.0],["A-803467_BRD-K28570407-001-02-0::10::HTS002",-0.13628585122121425,-2.4814853945971724,25.0,438.0],["proscillaridin-a_BRD-A11815689-001-01-1::0.15625::HTS002",-0.14407274616300836,-1.8674554655937787,17.0,276.0],["anastrozole_BRD-K52172416-001-11-4::2.5::HTS002",-0.15291839041259178,-2.698502192696883,21.0,385.0],["puromycin_BRD-A28970875-300-04-9::0.15625::HTS002",-0.15651483710031813,-3.139027753894027,25.0,438.0],["flufenamic-acid_BRD-K44067360-001-30-3::0.00976562::HTS002",-0.17239554600415105,-3.713442754173758,25.0,438.0],["PF-3845_BRD-K68997413-001-05-1::0.00061034::HTS002",-0.16748105479143505,-3.530123597335493,25.0,438.0],["3-amino-benzamide_BRD-K08703257-001-12-1::2.5::HTS002",-0.15032042814377086,-2.4310300219546233,21.0,350.0],["rimexolone_BRD-K31627533-001-09-5::2.5::HTS002",-0.1685978519645701,-3.5780216813507812,24.0,440.0],["SKF-96365_BRD-A72703248-003-04-9::0.0024414::HTS002",-0.15714097917702124,-2.7909471839102635,20.0,380.0],["CX-4945_BRD-K81458380-001-04-9::0.15625::HTS002",-0.142998085051911,-2.4105381678423896,21.0,385.0],["eprobemide_BRD-K17979676-001-01-2::0.00976562::HTS002",-0.16383129673299054,-3.060826051407473,23.0,387.0],["tiludronate_BRD-K10845183-304-01-6::2.5::HTS002",-0.1520394203262285,-2.6224058750175017,20.0,377.0],["MK-2206_BRD-K68065987-300-09-1::0.00976562::HTS002",-0.14262979443463072,-2.257207754544239,20.0,357.0],["everolimus_BRD-K13514097-001-05-3::0.00061034::HTS002",-0.1630487360343008,-2.934573567372141,22.0,372.0],["sulfasalazine_BRD-K10670311-001-15-5::0.00061034::HTS002",-0.14761273561971466,-1.313179740066181,8.0,171.0],["4-hydroxy-phenazone_BRD-K49759007-001-11-9::0.00976562::HTS002",-0.1578600637001018,-3.1856784078949856,25.0,438.0],["oleoylethanolamide_BRD-K66956375-001-11-3::0.15625::HTS002",-0.13708756027413832,-2.5105108213752905,24.0,440.0],["triamcinolone-acetonide_BRD-A92439610-001-05-7::0.00061034::HTS002",-0.13701370669792326,-2.0571841540982736,19.0,346.0]]},"para":{"top":[["lidamidine_BRD-K68693535-001-03-4::0.00244141::HTS002",0.20352798673696462,-1.67368717331729,10.0,91.0]],"bottom":[["isoetharine_BRD-A24587114-066-22-5::0.625::HTS002",-0.17771975936009166,-3.7135886000518203,20.0,380.0],["A61603_BRD-A83650191-004-02-8::0.15625::HTS002",-0.1741318426682709,-3.9344881837128485,23.0,425.0],["BMS-707035_BRD-K49555808-001-03-9::0.0024414::HTS002",-0.1702425861969989,-3.37691547756491,20.0,366.0],["naloxone_BRD-K67511046-001-02-3::0.0024414::HTS002",-0.1943844417933377,-2.318768575998611,8.0,171.0],["ubenimex_BRD-K59574735-001-11-8::2.5::HTS002",-0.22171978681557997,-1.8696605976190095,10.0,91.0]]}}}
{"ccle_proteomics":{"corr":{"top":[["ZNF668_Q96K58",0.16300977136326994,-2.2876342735133797,14.0,279.0],["P4HTM_Q9NXG6-3",0.1452394354634197,-2.305762204995745,21.0,352.0],["MTA1_Q13330-3",0.17588103003253674,-1.716727940518404,9.0,168.0],["WWP2_O00308",0.14527362850709813,-2.3066648890396353,21.0,352.0],["CISD2_Q8N5K1",0.15202561383315036,-2.4885768915568094,21.0,352.0]],"bottom":[["SZT2_Q5T011",-0.16058748016065777,-1.9524849680062306,12.0,237.0],["CDC42EP3_Q9UKI2",-0.2200369630476219,-4.233601265562016,20.0,308.0],["ITIH4_Q14624",-0.23197696675827925,-2.93195874316357,8.0,185.0],["PTPRD_P23468-2",-0.333696920501598,-3.352681787975363,8.0,99.0],["MUC19_Q7Z5P9",-0.19499146906442383,-1.6882501583061507,9.0,132.0],["ANO2_Q9NQ90",-0.16678662606987504,-1.2595443345744355,9.0,124.0],["ARHGAP26_Q9UNA1",-0.16169649017799823,-2.422194524349833,17.0,302.0],["XAGE1A_Q9HD64",-0.3099483777307051,-2.697936157261538,8.0,89.0],["CLOCK_O15516",-0.1792653050326536,-2.2009734502841924,8.0,223.0],["ENPP1_P22413",-0.1858185832039465,-3.372230475582361,21.0,335.0],["RANBP17_Q9H2T7",-0.15816674993269267,-1.6730258877039992,12.0,200.0],["SLIT2_O94813",-0.23664718809771043,-3.411971372895099,14.0,207.0],["ARHGEF26_Q96DR7",-0.2379594641908111,-2.459099267131338,9.0,140.0],["ARHGAP22_Q7Z5H3-2",-0.24424052040716476,-1.9193021015558336,8.0,97.0]]},"para":{"top":[["SH3BP2_P78314-3",0.14371436365770904,-1.5449017340605025,8.0,169.0],["HEMGN_Q9BXL5",0.16048112624188487,-1.775394688602458,8.0,169.0],["MTA1_Q13330-3",0.21793990570635688,-2.7124803426288406,9.0,168.0],["CPLX2_Q6PUV4",0.1706822464049161,-1.9832850228622143,8.0,177.0]],"bottom":[["TCTEX1D2_Q8WW35",-0.2066187573322996,-1.8467448316701291,8.0,106.0],["PURG_Q9UJV8",-0.13708042539812854,-1.674542268041369,8.0,213.0],["ANO2_Q9NQ90",-0.1855652588752324,-1.777566220409878,9.0,124.0],["MUC19_Q7Z5P9",-0.16893649844267367,-1.6375245022346752,9.0,132.0],["TENM2_Q9NT68",-0.12853663157137535,-1.545532157683374,8.0,213.0],["CFI_P05156",-0.15684047297280104,-1.7364987736776445,9.0,170.0],["ATG13_O75143-2",-0.15176650970475936,-2.071711222899569,9.0,240.0],["XAGE1A_Q9HD64",-0.20210653054553734,-1.6160162091856247,8.0,89.0],["MAP3K6_O95382",-0.1823105496730631,-1.9559703488181923,10.0,149.0],["SLC7A8_Q9UHI5",-0.1800400059888271,-2.012761978339761,11.0,159.0],["PSCA_O43653",-0.1756753017794872,-1.7991521045356889,8.0,143.0],["CNN1_P51911",-0.19992473290740154,-4.071518591851738,19.0,336.0],["BOK_Q9UMX3",-0.1737519389010299,-1.9113618406223938,10.0,159.0],["FAM50B_Q9Y247",-0.14573785546752946,-1.9561297775252986,10.0,238.0],["RANBP17_Q9H2T7",-0.1621027486133654,-2.030119954592054,12.0,200.0],["ARHGEF26_Q96DR7",-0.16931295849448244,-1.7011240812023631,9.0,140.0],["ARHGAP22_Q7Z5H3-2",-0.25582687300190654,-2.335166607203448,8.0,97.0],["RNF4_P78317",-0.17671685865787098,-1.5970950690898587,9.0,115.0]]}}}
{"depmap_copy_number":{"corr":{"top":[["FRY_10129",0.09186772534578415,-3.870346922365544,69.0,1653.0],["ZNF133_7692",0.06572290205766011,-2.196085176028839,69.0,1653.0],["RXFP2_122042",0.0936654980927014,-4.003547911832367,69.0,1653.0],["ZAR1L_646799",0.08768233505907258,-3.5693549437485186,69.0,1653.0],["N4BP2L2_10443",0.08282667109195052,-3.2360515433993937,69.0,1653.0],["FRY-AS1_100507099",0.09186772534578415,-3.870346922365544,69.0,1653.0],["B3GLCT_145173",0.07742800813348653,-2.885367019829577,69.0,1653.0],["MICOS10P1_100462953",0.07757785079760479,-2.894819379576485,69.0,1653.0],["N4BP2L2-IT2_116828",0.07684179265887901,-2.848541121119074,69.0,1653.0],["BRCA2_675",0.08567389429072596,-3.4294275764006965,69.0,1653.0],["EEF1DP3_196549",0.08974005810319496,-3.71574567559349,69.0,1653.0],["N4BP2L1_90634",0.08485675554166543,-3.373331865310168,69.0,1653.0]],"bottom":[["GPR141_353345",-0.08788350918361591,-3.583531496038438,69.0,1653.0],["POU6F2_11281",-0.08749245913009582,-3.5560014522444967,69.0,1653.0],["UPP1_7378",-0.08808075236379445,-3.597459503618234,69.0,1653.0],["POU6F2-AS2_100689074",-0.08749245913009582,-3.5560014522444967,69.0,1653.0],["IKZF1_10320",-0.08477918669946444,-3.3680318798878353,69.0,1653.0],["POLM_27434",-0.08441575390419377,-3.3432576672723755,69.0,1653.0],["VWC2_375567",-0.08764719443586055,-3.566881624253403,69.0,1653.0],["ELMO1-AS1_100861514",-0.08848674068281734,-3.6262164561871773,69.0,1653.0],["VPS41_27072",-0.08654648748773429,-3.489862499140737,69.0,1653.0],["ZPBP_11055",-0.08583899670063633,-3.4408202098683516,69.0,1653.0],["HUS1_3364",-0.09002077615506363,-3.735954767800943,69.0,1653.0],["YAE1_57002",-0.08701300017941317,-3.5223984825343635,69.0,1653.0],["LOC100506725_100506725",-0.08750515792318078,-3.5568937115011887,69.0,1653.0],["AMPH_273",-0.08740035214189935,-3.5495332047145225,69.0,1653.0],["KIAA0895_23366",-0.08819606061356525,-3.6056148665571746,69.0,1653.0],["CDC14C_168448",-0.08713879766042683,-3.5311989232361642,69.0,1653.0],["RALA_5898",-0.08665867009307224,-3.497672074225071,69.0,1653.0],["LINC00525_84847",-0.08566298381362472,-3.428675409354134,69.0,1653.0],["POU6F2-AS1_100861520",-0.08769312832747647,-3.5701147911094058,69.0,1653.0],["LINC01447_101929086",-0.08647325377642355,-3.4847692542124262,69.0,1653.0],["C7orf69_80099",-0.08564089938770263,-3.427153174611967,69.0,1653.0],["AOAH_313",-0.088611557745307,-3.635081511308207,69.0,1653.0],["ABCA13_154664",-0.08785685329319676,-3.5816513955377465,69.0,1653.0],["LOC101930085_101930085",-0.08750515792318078,-3.5568937115011887,69.0,1653.0],["SEPTIN7-AS1_101928545",-0.08750515792318078,-3.5568937115011887,69.0,1653.0],["FAM183BP_340286",-0.08663555397298225,-3.496062104669242,69.0,1653.0],["LOC112267983_112267983",-0.09245431443229882,-3.9135494832205335,69.0,1653.0],["SNORD151_109623468",-0.08592878653308476,-3.4470242811338516,69.0,1653.0],["EPDR1_54749",-0.0896328085886695,-3.7080398210369028,69.0,1653.0],["SEPTIN7_989",-0.08762954360734417,-3.5656396348535284,69.0,1653.0],["GRB10_2887",-0.08579351833805136,-3.4376800822638343,69.0,1653.0],["LOC101928618_101928618",-0.08878595118896662,-3.6474866201429346,69.0,1653.0],["STARD3NL_83930",-0.08992632276533699,-3.7291486095467063,69.0,1653.0],["LOC401324_401324",-0.0874629521378523,-3.55392864408518,69.0,1653.0],["SNORA20B_109616963",-0.08759749793002101,-3.5633853376485862,69.0,1653.0],["LOC730338_730338",-0.08552955863749998,-3.419484044947581,69.0,1653.0],["DDC_1644",-0.08502450301841685,-3.3848082541334095,69.0,1653.0],["C7orf57_136288",-0.08932117573880789,-3.6856964684537816,69.0,1653.0],["MIR1200_100302113",-0.08848674068281734,-3.6262164561871773,69.0,1653.0],["SPATA48_100130988",-0.08551019582777619,-3.4181512518134887,69.0,1653.0],["DBNL_28988",-0.08441575390419377,-3.3432576672723755,69.0,1653.0],["DAZAP1_26528",-0.09340053271411232,-3.983767837004374,69.0,1653.0],["SFRP4_6424",-0.08964573537792647,-3.708968165248042,69.0,1653.0],["MPLKIP_136647",-0.08596604648525492,-3.4496004849331383,69.0,1653.0],["ELMO1_9844",-0.088253727086325,-3.609697036036328,69.0,1653.0],["TMED4_222068",-0.08481118870790104,-3.370217930248735,69.0,1653.0],["HERPUD2_64224",-0.08781260658304932,-3.5785317108766383,69.0,1653.0],["C7orf65_401335",-0.08647325377642355,-3.4847692542124262,69.0,1653.0],["SUGCT_79783",-0.08596604648525492,-3.4496004849331383,69.0,1653.0],["TNS3_64759",-0.08535731502582947,-3.4076375676809274,69.0,1653.0],["LOC107986794_107986794",-0.08590599940216063,-3.4454492420727156,69.0,1653.0],["EEPD1_80820",-0.08878595118896662,-3.6474866201429346,69.0,1653.0],["CDK13_8621",-0.09245431443229882,-3.9135494832205335,69.0,1653.0],["COBL_23242",-0.08576309245321473,-3.4355801114190094,69.0,1653.0],["SUN3_256979",-0.08936920617760524,-3.6891355429198223,69.0,1653.0],["PGAM2_5224",-0.08441575390419377,-3.3432576672723755,69.0,1653.0],["MIR6837_102466985",-0.08441575390419377,-3.3432576672723755,69.0,1653.0],["DDC-AS1_100129427",-0.08574070530897722,-3.434035395089134,69.0,1653.0],["AOAH-IT1_100874264",-0.08860375598767314,-3.634527065252325,69.0,1653.0],["PKD1L1_168507",-0.08566298381362472,-3.428675409354134,69.0,1653.0],["AEBP1_165",-0.08445361972792909,-3.3458344332210133,69.0,1653.0],["ANLN_54443",-0.08801119009342377,-3.5925442589079353,69.0,1653.0],["FIGNL1_63979",-0.08502450301841685,-3.3848082541334095,69.0,1653.0],["NME8_51314",-0.0872281039100505,-3.537453489722718,69.0,1653.0]]},"para":{"top":[],"bottom":[]}}}
{"depmap_gene_tpm":{"corr":{"top":[["PRSS8_5652",0.11443543108942156,-4.4480450914778675,55.0,1244.0],["TBC1D3D_101060389",0.10461160934466883,-3.7995398705723096,55.0,1244.0],["KCNJ18_100134444",0.12070092703964996,-4.889873884351941,55.0,1244.0]],"bottom":[["TMEM158_25907",-0.09541037074789656,-3.240577632379058,55.0,1244.0],["MED19_219541",-0.10315365114644653,-3.7078633116749318,55.0,1244.0],["FAM220A_84792",-0.09003050398406261,-2.9352130201272706,55.0,1244.0],["AP1M1_8907",-0.12939804133921284,-5.540002345081479,55.0,1244.0],["PRDM8_56978",-0.11172510213260285,-4.263750834691213,55.0,1244.0],["ARHGDIA_396",-0.10346189598194218,-3.7271478470006483,55.0,1244.0],["F8A1_8263",-0.10057474633830546,-3.548574417698508,55.0,1244.0],["NUDCD3_23386",-0.09470021747232343,-3.1993664010633895,55.0,1244.0],["CNIH3_149111",-0.12641284814500392,-5.312002294595475,55.0,1244.0],["XRCC1_7515",-0.09104232466853887,-2.9914440847638,55.0,1244.0],["ABHD8_79575",-0.09700186613437925,-3.333934862186402,55.0,1244.0]]},"para":{"top":[],"bottom":[]}}}
{"avana":{"corr":{"top":[["ARL2_402",0.12263007376974545,-3.177033621732542,30.0,737.0],["HIST1H3G_8355",0.1274371776636999,-3.3945467188516956,30.0,737.0],["XPNPEP3_63929",0.11115444953068955,-2.6883082210540903,30.0,737.0],["CGNL1_84952",0.10819122357687112,-2.569031935727922,30.0,737.0],["TUT4_23318",0.15469461833752238,-4.773736666162652,30.0,737.0],["TMEM158_25907",0.11034288978519241,-2.6553604707372402,30.0,737.0],["GABRD_2563",0.10827137984722845,-2.572221291384365,30.0,737.0],["SPINK7_84651",0.1287946145755669,-3.457347450030692,30.0,737.0],["PROM1_8842",0.14790647540248256,-4.406802199236142,30.0,737.0],["CADM4_199731",0.10850948284877929,-2.5817073757109554,30.0,737.0],["CPLX3_594855",0.11696936073304949,-2.930605024595281,30.0,737.0],["EEF2_1938",0.12250199179491882,-3.1713419881362714,30.0,737.0],["PKD1_5310",0.12459395201133687,-3.2649773657636367,30.0,737.0],["CPA5_93979",0.12089331295748057,-3.100313983925467,30.0,737.0],["MAPT_4137",0.13075119390062265,-3.548939854007199,30.0,737.0],["GJB3_2707",0.11431133424692476,-2.8184919916674454,30.0,737.0],["C3orf18_51161",0.12290120000669838,-3.1890995175769774,30.0,737.0],["BAG2_9532",0.12646154970135232,-3.3497858994725367,30.0,737.0],["SLC35E4_339665",0.1283784198814607,-3.438027795136385,30.0,737.0],["TMEM203_94107",0.11505606027067328,-2.849672782074695,30.0,737.0],["ANGPTL8_55908",0.117515006837043,-2.9539036662658793,30.0,737.0],["PPP1CC_5501",0.10813529604337518,-2.5360424691291428,30.0,726.0],["FRS3_10817",0.12350048291260536,-3.215854878705153,30.0,737.0],["HIC2_23119",0.11734782944523062,-2.9467550402976666,30.0,737.0],["CTLA4_1493",0.13957271185156075,-3.977720429890591,30.0,737.0],["ARVCF_421",0.11446429087639408,-2.8248814450839776,30.0,737.0],["LMF2_91289",0.10741041426058827,-2.538071872176697,30.0,737.0],["MAN1C1_57134",0.12636573422459416,-3.345406913237974,30.0,737.0],["CLCNKA_1187",0.1122126233123281,-2.731586746190241,30.0,737.0],["NAA50_80218",0.1255089447761049,-3.2656936113580226,30.0,726.0],["MSRB2_22921",0.1352395754462446,-3.7638564598253814,30.0,737.0],["SLC27A6_28965",0.12203338139310044,-3.1505639646826005,30.0,737.0],["PNPLA3_80339",0.12103246122858193,-3.1064243372696327,30.0,737.0],["AXIN1_8312",0.12202894320567678,-3.150367520901194,30.0,737.0],["SORCS3_22986",0.1206700203314232,-3.0905218697703902,30.0,737.0],["PPP2R2C_5522",0.12391921077096271,-3.234619203776054,30.0,737.0],["HIST1H3D_8351",0.13137057387821402,-3.5781990732905875,30.0,737.0],["SLC26A11_284129",0.10834352159503083,-2.5750935170377045,30.0,737.0],["ZNF805_390980",0.11537718978375493,-2.8631735470975457,30.0,737.0],["TMEM235_283999",0.12291476078095381,-3.1897036439519906,30.0,737.0],["ARHGEF25_115557",0.10828221287242164,-2.5726524870675345,30.0,737.0]],"bottom":[["OR4C15_81309",-0.11558824979606225,-2.8720650361618105,30.0,737.0],["CDK14_5218",-0.13873105876946223,-3.9356878435868143,30.0,737.0],["EXOSC10_5394",-0.11054805229003829,-2.663669646079608,30.0,737.0],["ZMYM2_7750",-0.10682112753006696,-2.5148352045740117,30.0,737.0],["GNAQ_2776",-0.10496103124354914,-2.4422164618723077,30.0,737.0],["UNC5D_137970",-0.11706338288243585,-2.934612789688319,30.0,737.0],["ZIC4_84107",-0.10373728646222623,-2.39504313283023,30.0,737.0],["DLAT_1737",-0.14513618423554991,-4.2615620263307,30.0,737.0],["A4GNT_51146",-0.11311765822086099,-2.768888646616519,30.0,737.0],["PCLO_27445",-0.1104448425048443,-2.6594879095499255,30.0,737.0],["SLFN13_146857",-0.10758399540233472,-2.5449376957474383,30.0,737.0],["LYG1_129530",-0.11434645162086836,-2.819958278934902,30.0,737.0],["TSGA10_80705",-0.14664594138551723,-4.340392401766735,30.0,737.0],["ZNF679_168417",-0.10813888760148942,-2.5669506396356674,30.0,737.0],["RTN3_10313",-0.13060832595328192,-3.5422089073323306,30.0,737.0],["SCN7A_6332",-0.10896038656474623,-2.5997213320859576,30.0,737.0],["C19orf53_28974",-0.11145153114280827,-2.7004221938660247,30.0,737.0],["UXS1_80146",-0.14652097353086535,-4.333838001477454,30.0,737.0],["CACYBP_27101",-0.12072114805352467,-3.0927625492451143,30.0,737.0],["CABS1_85438",-0.11719613617146661,-2.9402763926178945,30.0,737.0],["DTD2_112487",-0.11978284655692775,-3.051777353404951,30.0,737.0],["ANXA2R_389289",-0.1331573872802215,-3.663321501418651,30.0,737.0],["PPIA_5478",-0.12491663052228706,-3.27954831556824,30.0,737.0],["EGF_1950",-0.12063720757870099,-3.089084296525581,30.0,737.0],["IL12RB1_3594",-0.11158224340892424,-2.7057612036116114,30.0,737.0]]},"para":{"top":[["TUT4_23318",0.16060229926130604,-5.35611601061308,30.0,737.0]],"bottom":[["DLAT_1737",-0.14251459726203614,-4.397059457308789,30.0,737.0]]}}}
{"drive":{"corr":{"top":[["MTMR7_9108",0.16488491234086247,-2.848911269879303,21.0,351.0],["RPS6KA1_6195",0.16197323487346252,-2.7637062891186113,21.0,351.0],["USP35_57558",0.13274738692284913,-1.9970238322906748,21.0,354.0],["F2RL2_2151",0.14606736705938572,-2.3793473429543988,21.0,362.0],["GPR37_2861",0.16736125240438668,-3.0158382800290675,22.0,364.0],["HCRTR1_3061",0.17978889761757116,-3.306951034837935,22.0,350.0],["SNRPF_6636",0.15496482775055015,-2.581603474692482,21.0,354.0],["NUDT11_55190",0.17658095728144854,-3.2052434345961514,22.0,350.0],["FKBP8_23770",0.1380364108052523,-2.1150792028594667,22.0,350.0],["ADCY5_111",0.17278021989110437,-3.086964844768539,21.0,351.0],["HNRNPA1L2_144983",0.14311881309356,-2.2750345531505247,22.0,356.0],["ANTXR1_84168",0.14073867316898558,-2.1837350857704503,21.0,351.0],["CEACAM21_90273",0.1411460218786394,-2.262063462051224,22.0,364.0],["GNG3_2785",0.14417466838469928,-2.2726957043218947,21.0,351.0],["SLC25A15_10166",0.17247760216174285,-3.176509510798559,22.0,364.0],["RAPGEF1_2889",0.14909316516964033,-2.4194198572132986,21.0,354.0],["RHOA_387",0.16838398698438461,-2.973403742013546,21.0,354.0],["UBE2J2_118424",0.14780185583138203,-2.3686372796751236,21.0,351.0],["WBP2_23558",0.16933764728769582,-3.0023795581836272,21.0,354.0],["UBE2NL_389898",0.21634331482233032,-4.655742545158795,22.0,356.0],["ZNF609_23060",0.13074272654052263,-1.9481291984823916,21.0,354.0]],"bottom":[["COL4A6_1288",-0.15215351742166405,-2.486511212725066,21.0,351.0],["MTSS1L_92154",-0.1519596413834562,-2.4811951015018003,22.0,350.0],["BRIX1_55299",-0.16326233677602672,-2.8012585113924406,21.0,351.0],["FRMD4B_23150",-0.15986499584867264,-2.7028762054243427,21.0,351.0],["TIGAR_57103",-0.1560308208464901,-2.675909994301281,22.0,364.0],["NFKBID_84807",-0.19513914264649615,-3.817694383504585,21.0,351.0],["ALDH18A1_5832",-0.18471605159917132,-3.466533418380367,22.0,350.0],["KCNH2_3757",-0.1723805659544161,-3.0746672309197836,22.0,350.0],["WDR36_134430",-0.1502836243575641,-2.4518512463031854,21.0,354.0],["ADSL_158",-0.2538393026916923,-6.31886445990108,21.0,362.0],["ANKRD20A9P_284232",-0.15681116979749238,-2.6514634120237117,22.0,356.0],["FOSB_2354",-0.1450807328930425,-2.3117897950291164,21.0,354.0],["ADAMTS10_81794",-0.1800970054402314,-3.339834814043248,21.0,354.0],["CD300C_10871",-0.16477273562270994,-2.845602924179913,21.0,351.0],["AP2M1_1173",-0.1832560141731388,-3.442621796252987,21.0,354.0],["MPG_4350",-0.15370610046198363,-2.608844743261136,22.0,364.0]]},"para":{"top":[["USP35_57558",0.1518167339880379,-2.7778159560625215,21.0,354.0],["CEACAM21_90273",0.1418052579538759,-2.567680495665357,22.0,364.0]],"bottom":[]}}}
{"achilles":{"corr":{"top":[["GRASP_160622",0.13537928796501067,-2.5860310667911706,21.0,472.0],["PLIN1_5346",0.13755870453811855,-1.661897970781778,9.0,269.0],["SPATA3_130560",0.20135822953593369,-3.1347530176013376,9.0,269.0],["ASPRV1_151516",0.14955031940906055,-1.9013946420749739,9.0,269.0],["BAALC_79870",0.17319762419128368,-2.423522092955789,9.0,269.0],["FLT3_2322",0.13511595862993522,-2.577577613254186,21.0,472.0],["NFIA_4774",0.1463648814501658,-2.9517603458629336,21.0,472.0],["ZMAT1_84460",0.15053491205677802,-1.9218048025927745,9.0,269.0],["FRG2_448831",0.1544221785098764,-2.003502424550635,9.0,269.0],["CDRT1_374286",0.16645359470133683,-2.267762213610029,9.0,269.0],["LINC01558_26238",0.1979094147111283,-3.042280699269168,9.0,269.0],["ZNF592_9640",0.17118610759278327,-2.376484903286879,9.0,269.0],["OPRK1_4986",0.13450624216730422,-2.558060307216257,21.0,472.0],["GFRAL_389400",0.161251501904866,-2.1513754289361313,9.0,269.0],["PKP1_5317",0.16949663881444532,-2.3373595904165883,9.0,269.0],["ZNF280A_129025",0.14867639685619788,-1.8833740496675746,9.0,269.0],["IL20RB_53833",0.1451182258192839,-1.8109269765598992,9.0,269.0],["EAF1_85403",0.1552594756103039,-2.021333615365335,9.0,269.0],["PIGB_9488",0.19835409742044996,-3.0541185434643965,9.0,269.0],["GALNT1_2589",0.13554546768696177,-2.591373307954241,21.0,472.0],["LRFN2_57497",0.1570262264720927,-2.0592316635994736,9.0,269.0],["FBXO11_80204",0.1477046729567102,-2.9981219674753867,21.0,472.0],["PAPD4_167153",0.15589108586361985,-2.0348395066290657,9.0,269.0],["TBC1D22A_25771",0.16210123165242352,-2.170164085552338,9.0,269.0],["ARFGEF2_10564",0.1367309058588946,-2.629650643402988,21.0,472.0],["CD200R1L_344807",0.16472564796975656,-2.228741197691528,9.0,269.0],["CABIN1_23523",0.18649087337797188,-2.746890381287493,9.0,269.0],["LSM14B_149986",0.17101534235598623,-2.3725144731069396,9.0,269.0]],"bottom":[["SFMBT1_51460",-0.17040385278494613,-2.358325981006797,9.0,269.0],["TMEM131L_23240",-0.1786400748990599,-2.5532735167005427,9.0,269.0],["ITIH4_3700",-0.20443531543949858,-3.2185454145547374,9.0,269.0],["CCDC112_153733",-0.1716077011755314,-2.38630251762142,9.0,269.0],["CEP120_153241",-0.19035205884383752,-2.844936508994216,9.0,269.0],["HUS1_3364",-0.15399569786905834,-3.220972912644896,21.0,472.0],["KIAA0895_23366",-0.19404440621122535,-2.9404504542297896,9.0,269.0],["ZNF536_9745",-0.16449966803207045,-2.2236646914674028,9.0,269.0],["CHRNA3_1136",-0.15605867594325046,-3.295912278689425,21.0,472.0],["FAM92A_137392",-0.17128545176351434,-2.378796371060117,9.0,269.0],["OSBPL3_26031",-0.17969090156245995,-2.578745914672833,9.0,269.0],["RHPN1_114822",-0.15150192336129548,-3.13161408318738,21.0,472.0],["TMBIM6_7009",-0.20094900262070614,-3.1237009305388868,9.0,269.0],["ERCC2_2068",-0.15952120929212432,-3.4237702511697177,21.0,472.0],["FAM9B_171483",-0.1582289422502787,-2.0852432113609396,9.0,269.0],["GOLGA8A&GOLGA8B_23015&440270",-0.19538700658324115,-2.9756084656087327,9.0,269.0],["FBXO18_84893",-0.1636338779586549,-3.5790365057307625,21.0,472.0],["RNASEH2C_84153",-0.15765713923569233,-2.0728551418372354,9.0,269.0],["HELB_92797",-0.16456068693501627,-2.2250348385113345,9.0,269.0],["KRTAP9-3_83900",-0.17429033183066067,-2.4492812188560515,9.0,269.0],["TEX28_1527",-0.1784484117183054,-2.5486422381851686,9.0,269.0],["PORCN_64840",-0.18715639715348217,-2.763656542589206,9.0,269.0],["LRRN1_57633",-0.16685814908734428,-2.276950104464769,9.0,269.0],["FADS3_3995",-0.16510441265004183,-3.6354543132632946,21.0,472.0],["TTC12_54970",-0.18125049937475612,-2.6168028472381897,9.0,269.0],["SMARCA4_6597",-0.15920808290082286,-3.4121002795978743,21.0,472.0],["SPICE1_152185",-0.16499110014598603,-2.234712288937022,9.0,269.0],["LGALS14_56891",-0.1571849882432247,-2.0626553891114363,9.0,269.0],["LRRC31_79782",-0.19266693659604722,-2.904616604813883,9.0,269.0],["LINC00311_197196",-0.16928103882282258,-2.332391630994215,9.0,269.0]]},"para":{"top":[["NECAP2_55707",0.1362492321969732,-1.9303305762225287,9.0,269.0],["TSEN54_283989",0.14447980055621867,-2.0893025627273656,9.0,269.0],["PTCD2_79810",0.1475190001548844,-2.1498693922915444,9.0,269.0],["MINDY2_54629",0.14207387462997123,-2.0420705642432626,9.0,269.0],["HSPA12B_116835",0.1376420185842329,-1.956714853288001,9.0,269.0],["LINC00661_126536",0.13169065253390588,-1.8454425445050688,9.0,269.0],["SPATA3_130560",0.16119435620165773,-2.4349314060205614,9.0,269.0],["ASPRV1_151516",0.1353629280391171,-1.9136502443797037,9.0,269.0],["FAM72C&FAM72B&FAM72D&FAM72A_554282&653820&728833&729533",0.1391615256891186,-1.9857395867085272,9.0,269.0],["RTN4IP1_84816",0.13890837148706284,-1.9808865871512145,9.0,269.0],["FLT3_2322",0.15290540193861246,-3.457902833950251,21.0,472.0],["BAALC_79870",0.14030133233614756,-2.0076760372909024,9.0,269.0],["ZMAT1_84460",0.14815198410064404,-2.1626108510231417,9.0,269.0],["FRG2_448831",0.14169407710138524,-2.03467217546911,9.0,269.0],["NFIA_4774",0.1722435246062156,-4.175289484675884,21.0,472.0],["SELENOF_9403",0.14637916399773473,-2.127035881839288,9.0,269.0],["HORMAD2_150280",0.15612952943575226,-2.326957242153013,9.0,269.0],["LINC01558_26238",0.16018146344087936,-2.4131117341268906,9.0,269.0],["CDRT1_374286",0.18778577926685175,-3.0485334761676754,9.0,269.0],["ZNF592_9640",0.16068780902895827,-2.4240052375128425,9.0,269.0],["TAX1BP3_30851",0.1296646787062929,-1.8084354544512977,9.0,269.0],["C12orf4_57102",0.13814871385603408,-1.9663656066258892,9.0,269.0],["MRPL27_51264",0.14030135192711807,-2.0076764152058755,9.0,269.0],["GFRAL_389400",0.14929159390129337,-2.185660796248891,9.0,269.0],["PKP1_5317",0.1791753128607465,-2.841212154616958,9.0,269.0],["FAM107A_11170",0.12852494006187237,-1.787810813107377,9.0,269.0],["ZNF280A_129025",0.1297914674797658,-1.8107384508798365,9.0,269.0],["APOF_319",0.14169401774521206,-2.0346710214806434,9.0,269.0],["EAF1_85403",0.15410338859015713,-2.2845544435188447,9.0,269.0],["MORN1_79906",0.13878164891289718,-1.9784599140810808,9.0,269.0],["XAGE5_170627",0.13080425487704503,-1.8291969141359932,9.0,269.0],["GOLGA8DP&GOLGA8EP&GOLGA8CP_100132979&390535&729786",0.14751891775973403,-2.1498677380172615,9.0,269.0],["DMRTA1_63951",0.14498640415012487,-2.0993283916491716,9.0,269.0],["PIGB_9488",0.197915883319086,-3.3031028314766937,9.0,269.0],["GOLGA6L3&GOLGA6L19&LOC102724093&LOC102724117&GOLGA6L5P&GOLGA6L9&GOLGA6L17P&GOLGA6L4&GOLGA6L10_100133220&101927601&102724093&102724117&374650&440295&642402&643707&647042",0.13105748779639473,-1.833829451605348,9.0,269.0],["LRFN2_57497",0.1497981172573179,-2.195951470438113,9.0,269.0],["ICA1L_130026",0.15866208841577517,-2.3805938064975845,9.0,269.0],["LMNTD1_160492",0.15916836923678082,-2.3914010238761945,9.0,269.0],["TBC1D22A_25771",0.14878509146227298,-2.1753986403680257,9.0,269.0],["CD200R1L_344807",0.16499323862724574,-2.5177770501653227,9.0,269.0],["CABIN1_23523",0.18474673883569068,-2.974411565304804,9.0,269.0],["LSM14B_149986",0.1480253378037422,-2.1600580564119234,9.0,269.0],["REG3G_130120",0.130044519377232,-1.8153400776907052,9.0,269.0],["UPB1_51733",0.14334021025805904,-2.066852038201315,9.0,269.0],["TEX19_400629",0.15030472470584166,-2.206271965333613,9.0,269.0]],"bottom":[["SFMBT1_51460",-0.1376420185842329,-1.956714853288001,9.0,269.0],["ITIH4_3700",-0.1681588097548072,-2.588032288144016,9.0,269.0],["CCDC112_153733",-0.15486322885189366,-2.3004033609395003,9.0,269.0],["CEP120_153241",-0.17436341593847812,-2.7289629646045497,9.0,269.0],["PMS2P5_5383",-0.13460330509920498,-1.899421708777471,9.0,269.0],["KIAA0895_23366",-0.15435655363095807,-2.2898279671026014,9.0,269.0],["PYGB_5834",-0.13460302316969885,-1.899416444484606,9.0,269.0],["LARP6_55323",-0.13637593404876444,-1.9327220640112655,9.0,269.0],["FAM92A_137392",-0.1556228526587141,-2.316311235190667,9.0,269.0],["OGN_4969",-0.14270698248671074,-2.054438297097586,9.0,269.0],["OSBPL3_26031",-0.1837338880327863,-2.949938296725579,9.0,269.0],["RAI14_26064",-0.14903834268178318,-2.180526207372416,9.0,269.0],["TMBIM6_7009",-0.1623342357135066,-2.4596221657698445,9.0,269.0],["CPEB1_64506",-0.13586929823930863,-1.9231697703093458,9.0,269.0],["FAM9B_171483",-0.14346679581962823,-2.0693388511827653,9.0,269.0],["TCHP_84260",-0.14156760961599096,-2.0322120927775384,9.0,269.0],["GOLGA8A&GOLGA8B_23015&440270",-0.1637268676895078,-2.4899827506183647,9.0,269.0],["LOC105374013&LOC107986062&LOC107986113_105374013&107986062&107986113",-0.1444797803818472,-2.0893021643776946,9.0,269.0],["ZNF181_339318",-0.14194730853549611,-2.0396033343339526,9.0,269.0],["FBXO18_84893",-0.183077102753097,-4.610308653949438,21.0,472.0],["TMIGD1_388364",-0.14688572782627957,-2.1371659768627183,9.0,269.0],["LINC00597_81698",-0.14169409688679283,-2.0346725601323397,9.0,269.0],["DCTPP1_79077",-0.16144787787506615,-2.440410480774249,9.0,269.0],["GALP_85569",-0.13738874821586694,-1.95190138278006,9.0,269.0],["KRTAP9-3_83900",-0.17031134999523156,-2.636439928798674,9.0,269.0],["SCAMP2_10066",-0.1346030043744614,-1.8994160935332294,9.0,269.0],["XKR8_55113",-0.17411023772511586,-2.723128471611636,9.0,269.0],["ARHGEF35_445328",-0.15410343162652193,-2.284555338647526,9.0,269.0],["PDCD7_10081",-0.17866873536448263,-2.82927328342987,9.0,269.0],["LRRN1_57633",-0.17335041134333812,-2.7056611440659677,9.0,269.0],["PORCN_64840",-0.19247089995219316,-3.164834987229453,9.0,269.0],["ARID5B_84159",-0.16271393125583555,-2.467878589407904,9.0,269.0],["TEX28_1527",-0.1503047666814144,-2.2062728208946627,9.0,269.0],["TTC12_54970",-0.16904518902309304,-2.6079034029720964,9.0,269.0],["LOC644762_644762",-0.15828223321084914,-2.372503870406752,9.0,269.0],["SPICE1_152185",-0.14688570731594608,-2.1371655664902485,9.0,269.0],["LGALS14_56891",-0.158661822559139,-2.3805881433964293,9.0,269.0],["KIAA1211L_343990",-0.1505578499988447,-2.2114391179950577,9.0,269.0],["LINC00311_197196",-0.15802876097439714,-2.367114419135896,9.0,269.0],["NEK8_284086",-0.15893505299530736,-2.502750327296818,10.0,287.0],["SCP2_6342",-0.14232720523856746,-2.0470141267710042,9.0,269.0],["EID2B_126272",-0.14093428397815197,-2.0199186484963114,9.0,269.0],["COPS7A_50813",-0.1725908024948648,-2.6882630738096256,9.0,269.0],["SHCBP1_79801",-0.14245379108303768,-2.0494869768095745,9.0,269.0],["NPLOC4_55666",-0.16955176248801393,-2.619299095593683,9.0,269.0],["SCGB2B2_284402",-0.17980846628225094,-2.856174447890275,9.0,269.0]]}}}
{"ccle_rrbs_tss1kb":{"corr":{"top":[["LETM2_8_38243648_38244648",0.2407851911430919,-11.579805105021189,39.0,783.0],["CNKSR2_23_21391415_21392415",0.15714887230116986,-5.239799659002694,39.0,786.0],["LRIF1_1_111506566_111507566",0.1900198657436915,-7.4776328373031955,39.0,793.0]],"bottom":[["SLC38A7_16_58718611_58719611",-0.0885828890902799,-1.9409002494935361,38.0,776.0]]},"para":{"top":[],"bottom":[]}}}
{"ccle_gene_tpm":{"corr":{"top":[["RP11-110I1.11_ENSG00000254428.1",0.15100125189087693,-5.891189168436947,45.0,974.0],["RN7SL448P_ENSG00000264322.1",0.1854039450062429,-8.605980163597268,45.0,974.0],["AP001439.2_ENSG00000224541.1",0.16490159403350838,-6.921474551431041,45.0,974.0],["RP11-96D1.10_ENSG00000263276.1",0.15256821968618123,-6.002879005423741,45.0,974.0],["AC079112.1_ENSG00000235968.1",0.15938433587882375,-6.5018499303156965,45.0,974.0],["RP4-657M3.2_ENSG00000270241.1",0.1981413711403522,-9.75358489771158,45.0,974.0],["KLF3P2_ENSG00000241879.1",0.1693494650783836,-7.270090707562194,45.0,974.0],["RP11-96D1.5_ENSG00000260891.1",0.155419195258815,-6.2089800660068155,45.0,974.0],["RP11-38G5.3_ENSG00000259229.2",0.1555597454625729,-6.219237308750418,45.0,974.0],["CTD-2355J17.2_ENSG00000270969.1",0.145971522455739,-5.540263732147492,45.0,974.0],["UCHL1-AS1_ENSG00000251173.1",0.15005739146065358,-5.824455497491543,45.0,974.0],["CACYBPP1_ENSG00000225928.2",0.15812560235352985,-6.4080919710074244,45.0,974.0],["None_ENSG00000231198.1",0.15975770678706686,-6.529801762604055,45.0,974.0],["CTD-2336H13.1_ENSG00000260797.1",0.17286236714351383,-7.551979246020394,45.0,974.0],["RP11-697N18.2_ENSG00000254065.1",0.14618327933956857,-5.554805569434897,45.0,974.0],["RGR_ENSG00000148604.9",0.1847852034149276,-8.552224047547572,45.0,974.0],["EIF1AX-AS1_ENSG00000225037.1",0.15283516134517067,-6.022018192660577,45.0,974.0],["RN7SKP8_ENSG00000222969.1",0.15896245748073337,-6.470344287634814,45.0,974.0],["SLC9A3P4_ENSG00000237393.1",0.1708222451041136,-7.387566173509299,45.0,974.0],["RP11-605F20.1_ENSG00000264488.1",0.15870744532631234,-6.451340043923616,45.0,974.0],["CTD-2158P22.1_ENSG00000213663.4",0.17893194491240236,-8.052740037837696,45.0,974.0]],"bottom":[["CNIH3_ENSG00000143786.3",-0.12472769642326761,-4.184080741757029,45.0,974.0],["MAD1L1_ENSG00000002822.11",-0.10260420438991952,-2.983693863563418,45.0,974.0],["MED19_ENSG00000156603.10",-0.10737655377422034,-3.224667497301901,45.0,974.0],["PRDM8_ENSG00000152784.11",-0.11861332468252186,-3.8309710232340506,45.0,974.0],["FMNL1_ENSG00000184922.9",-0.10733306427929451,-3.2224273061458546,45.0,974.0],["VOPP1_ENSG00000154978.8",-0.11029870575013978,-3.3770622957339294,45.0,974.0],["IK_ENSG00000113141.11",-0.10870878200327541,-3.2936875279316906,45.0,974.0],["F8A1_ENSG00000197932.3",-0.11607861656485612,-3.6894025140952125,45.0,974.0],["NUDCD3_ENSG00000015676.13",-0.11371123491290379,-3.5597141977078945,45.0,974.0],["IKBKGP1_ENSG00000224882.2",-0.16176367210377832,-6.68108093148758,45.0,974.0],["RBM42_ENSG00000126254.7",-0.10425409550238827,-3.0658963534215564,45.0,974.0],["WDR70_ENSG00000082068.4",-0.10336122438034988,-3.0212659551107928,45.0,974.0]]},"para":{"top":[],"bottom":[]}}}
{"ccle_rrbs_tss_clusters":{"corr":{"top":[["LRIF1_1",0.19225832569466766,-7.718324039827761,40.0,801.0],["ZBTB45_3",0.20395830066133183,-5.1379617435422835,23.0,453.0],["ADGRG2_3",0.18715323116504765,-2.5184577766125953,14.0,235.0],["SCML1_3",0.17831125702629563,-3.7620041953887915,24.0,415.0],["BTBD16_1",0.18277928848736402,-3.2847187417916097,15.0,342.0],["CAMK4_2",0.1850986537068642,-7.18458545980416,40.0,800.0],["TACC1_2",0.20685616450279423,-8.67856226122598,39.0,784.0],["LETM2_2",0.23829742558570968,-11.518650774403564,40.0,795.0],["LOC105376805_2",0.1776631919829785,-5.146899697854997,33.0,598.0],["ZNF773_3",0.19393712646666406,-7.733154004511321,39.0,789.0],["LOC105374988_2",0.225011795222138,-5.341712401416053,20.0,387.0],["MIR4487_3",0.18438973477333637,-5.685644327328477,35.0,619.0],["STARD3_2",0.2245977693111854,-10.35085178486408,40.0,801.0],["DPYSL2_3",0.2292453074922486,-4.088285692880003,15.0,275.0]],"bottom":[["SYTL3_2",-0.17911415611447806,-2.190018926506737,9.0,221.0],["OGFRP1_2",-0.1228085897764015,-2.8929565779807076,33.0,652.0],["LMTK2_3",-0.10602956724984612,-1.4999124919495288,21.0,390.0],["MCOLN2_1",-0.1010845004573037,-1.5098473432390165,23.0,433.0],["LINC01554",-0.22989256964080745,-3.557976676872164,10.0,236.0],["GOT1_1",-0.10346767811958461,-2.2270707150004623,34.0,672.0],["LOC100132831_1",-0.11384399867161446,-1.6098645941955583,22.0,368.0],["BFSP2-AS1_1",-0.2719841344207526,-4.221538639972655,9.0,203.0]]},"para":{"top":[["KTN1_1",0.21098484986228594,-3.5865785113932924,11.0,261.0],["HIST1H2AA_2",0.19940828221020024,-2.9008024650325255,11.0,220.0],["NOS3_3",0.1447992063276565,-3.1302319177296134,23.0,460.0],["DPYSL2_3",0.22239986478109833,-4.1040250371514455,15.0,275.0]],"bottom":[["SYTL3_2",-0.16359138762813738,-2.173930030570947,9.0,221.0],["LINC01554",-0.26735913013580626,-4.838559147367156,10.0,236.0],["BFSP2-AS1_1",-0.21731693105500668,-3.0934268472453,9.0,203.0]]}}}
{"ccle_rrbs_cgi_clusters":{"corr":{"top":[["12_50098442_50101014-3",0.23594363735707308,-11.36400467383834,40.0,800.0],["23_19137937_19142629-3",0.18715323116504765,-2.5184577766125953,14.0,235.0],["23_153626709_153629324-2",0.24451804798040522,-3.815109015196699,10.0,225.0],["19_59047778_59052304-3",0.20395830066133183,-5.1379617435422835,23.0,453.0],["19_58009124_58013743-3",0.19393712646666406,-7.733154004511321,39.0,789.0],["17_37791265_37795722-2",0.2245977693111854,-10.35085178486408,40.0,801.0],["8_26435578_26438785-3",0.2292453074922486,-4.088285692880003,15.0,275.0],["8_38241741_38246695-1",0.23829742558570968,-11.518650774403564,40.0,795.0],["1_111506444_111509007-1",0.18834244003835005,-7.428165508519647,40.0,801.0],["11_119610091_119614476-1",0.18992595676221427,-3.0411898357843423,18.0,284.0],["8_38645117_38647760-2",0.20685616450279423,-8.67856226122598,39.0,784.0],["19_42442020_42444638-2",0.19507971354998419,-7.8704602289688985,40.0,794.0]],"bottom":[["7_97734035_97738854-2",-0.10602956724984612,-1.4999124919495288,21.0,390.0],["23_40689960_40694446-1",-0.11384399867161446,-1.6098645941955583,22.0,368.0],["19_46178162_46182769-3",-0.13627050975230398,-2.1480575994243942,21.0,368.0],["19_6209767_6212447-3",-0.13518841931303804,-2.6586631538352274,29.0,482.0],["17_71304975_71307829-1",-0.11507151563406429,-1.5067460447976562,17.0,334.0]]},"para":{"top":[["23_153626709_153629324-2",0.17688154444427925,-2.4637236648315453,10.0,225.0],["17_35012272_35016596-3",0.188251423132777,-2.6890852600809727,9.0,225.0],["15_21965418_21970306-1",0.149148491074226,-2.389169905984145,9.0,307.0],["23_11776360_11778936-2",0.180831778774695,-2.677163367705677,9.0,243.0],["8_26435578_26438785-3",0.22239986478109833,-4.1040250371514455,15.0,275.0],["14_56044634_56047310-1",0.21098484986228594,-3.5865785113932924,11.0,261.0],["15_21965418_21970306-2",0.15710840317409097,-2.580435252791781,9.0,308.0]],"bottom":[["24_7142373_7145224-1",-0.13960704472243132,-1.877048996505425,14.0,240.0],["12_54770687_54775028-2",-0.13279796059625346,-1.9542255391271974,9.0,289.0]]}}}
