{"depmap_copy_number":{"corr":{"top":[["COG6_57511",0.1157647764406549,-5.835579175766428,11.0,1711.0],["MIR3168_100422878",0.11534366381883775,-5.797270096791478,11.0,1711.0],["LINC01048_103695431",0.11524060446106515,-5.787914966744498,11.0,1711.0],["FREM2_341640",0.11864492838636806,-6.101166468047011,11.0,1711.0],["MRPS31_10240",0.11194514090354822,-5.4929726377001105,11.0,1711.0],["AKAP11_11215",0.11192981271572013,-5.491619780548334,11.0,1711.0],["KBTBD7_84078",0.11552600885483238,-5.813841868316233,11.0,1711.0],["LINC00332_100874127",0.11092494872927748,-5.403314351564503,11.0,1711.0],["TPTE2P5_100616668",0.11107779651138534,-5.4166976337127934,11.0,1711.0],["TRPC4_7223",0.11651510767753631,-5.904167995246067,11.0,1711.0],["SUPT20H_55578",0.11705573746900676,-5.953850213110413,11.0,1711.0],["STOML3_161003",0.11441718894770082,-5.713456509381981,11.0,1711.0],["RFXAP_5994",0.11602705313277956,-5.859506128130516,11.0,1711.0],["PROSER1_80209",0.11471349599783646,-5.7401918485262,11.0,1711.0],["LINC00428_104355147",0.1102847060225196,-5.347444646193528,11.0,1711.0],["LINC00548_400123",0.11092494872927748,-5.403314351564503,11.0,1711.0],["VWA8_23078",0.11334377847774098,-5.617155745848728,11.0,1711.0],["LINC00366_100874147",0.11861297451948453,-6.098185627062281,11.0,1711.0],["VWA8-AS1_100507240",0.11266167093007579,-5.556409378464568,11.0,1711.0],["LOC101929140_101929140",0.11524560135926475,-5.788368372111073,11.0,1711.0],["WBP4_11193",0.11545994206498177,-5.807834740376239,11.0,1711.0],["SMAD9_4093",0.11605453620207118,-5.862016344222426,11.0,1711.0],["EXOSC8_11340",0.11690810533200835,-5.940261441463508,11.0,1711.0],["MIR621_693206",0.11098217515327141,-5.408323026743555,11.0,1711.0],["LINC02341_105370177",0.11229989538016667,-5.5243321816024125,11.0,1711.0],["LINC00437_101929121",0.11863651349706249,-6.100381403947421,11.0,1711.0],["MIR5006_100847026",0.11334377847774098,-5.617155745848728,11.0,1711.0],["ALG5_29880",0.11691399364541681,-5.940803116030609,11.0,1711.0],["RGCC_28984",0.11087983264483833,-5.399367344486534,11.0,1711.0],["TNFSF11_8600",0.1107404426223164,-5.387182333619965,11.0,1711.0],["LINC00547_400121",0.1161391660034132,-5.869749727917912,11.0,1711.0],["EPSTI1_94240",0.1102847060225196,-5.347444646193528,11.0,1711.0],["MTRF1_9617",0.11541638150942506,-5.80387578747267,11.0,1711.0],["LINC00598_646982",0.11092494872927748,-5.403314351564503,11.0,1711.0],["MIR320D1_100313896",0.11194514090354822,-5.4929726377001105,11.0,1711.0],["MIR4305_100422940",0.11080067804323813,-5.392446132284013,11.0,1711.0],["NHLRC3_387921",0.11537161709553666,-5.799808908448839,11.0,1711.0],["LINC01050_103689845",0.11074638987054818,-5.387701925795807,11.0,1711.0],["DGKH_160851",0.11272190968639934,-5.561760025183304,11.0,1711.0],["FREM2-AS1_100874073",0.1184761834109,-6.085433667557563,11.0,1711.0],["SLC25A15_10166",0.11107779651138534,-5.4166976337127934,11.0,1711.0],["FAM216B_144809",0.11074638987054818,-5.387701925795807,11.0,1711.0],["LHFPL6_10186",0.11552824583745269,-5.814045323534687,11.0,1711.0],["POSTN_10631",0.11628580178143798,-5.883161903749256,11.0,1711.0],["LINC00571_100874188",0.11657931601657685,-5.91005703541855,11.0,1711.0],["CSNK1A1L_122011",0.1166899061703603,-5.920207380110119,11.0,1711.0],["UFM1_51569",0.1183347315715393,-6.072262063908666,11.0,1711.0],["KBTBD6_89890",0.11524560135926475,-5.788368372111073,11.0,1711.0],["ELF1_1997",0.11502109743049825,-5.7680159836702245,11.0,1711.0],["NAA16_79612",0.1139933512007933,-5.6753287769220275,11.0,1711.0],["SUGT1P3_283507",0.11081112650010708,-5.393359468468249,11.0,1711.0],["OR7E37P_100506759",0.11087983264483833,-5.399367344486534,11.0,1711.0],["FOXO1_2308",0.11092494872927748,-5.403314351564503,11.0,1711.0]],"bottom":[["HBA2_3040",-0.08604534453372452,-3.4550865983321093,11.0,1711.0],["ENPP7P13_104644205",-0.0925635172246574,-3.9216200190512716,11.0,1711.0],["LRRN3_54674",-0.06934757346352378,-2.3992212924436154,11.0,1711.0],["UGT2B15_7366",-0.09474095495130004,-4.084359156187895,11.0,1711.0],["DOCK4_9732",-0.07027822173849606,-2.4528629502425625,11.0,1711.0]]},"para":{"top":[["CHST7_56548",0.08067112408857735,-3.3878087636992986,11.0,1711.0],["FUNDC1_139341",0.08119901034527208,-3.422209601980477,11.0,1711.0],["MIR548AJ2_100616252",0.08082508272458205,-3.397821594541186,11.0,1711.0],["HYPM_25763",0.08063445293415629,-3.3854262780439788,11.0,1711.0],["NDP_4693",0.08059780811928167,-3.3830464465233394,11.0,1711.0],["MIR3937_100500822",0.08034119286036695,-3.366407443061325,11.0,1711.0],["SLC9A7_84679",0.08072977581868307,-3.391621266499255,11.0,1711.0],["CFAP47_286464",0.08061245729433633,-3.3839976977733075,11.0,1711.0],["DUSP21_63904",0.08130165177868234,-3.4289211783134674,11.0,1711.0],["MED14_9282",0.08149227636559127,-3.4414054850948403,11.0,1711.0],["USP9X_8239",0.08136030478102788,-3.432759737256835,11.0,1711.0],["ATP6AP2_10159",0.08163891109291345,-3.4510262013453206,11.0,1711.0],["PINCR_101927501",0.08158026154447513,-3.4471763865209155,11.0,1711.0],["ZNF674_641339",0.08042184477397606,-3.3716319547383815,11.0,1711.0],["MIR221_407006",0.08075910410237896,-3.3935285808995164,11.0,1711.0],["FAM47A_158724",0.08048048464240096,-3.3754334251212503,11.0,1711.0],["DYNLT3_6990",0.0808177464755066,-3.3973440977474283,11.0,1711.0],["SRPX_8406",0.08081041848839032,-3.3968671763807103,11.0,1711.0],["PRRG1_5638",0.0803631775947737,-3.3678311291149443,11.0,1711.0],["ACOT1_641371",0.08370391315100703,-3.588117120057479,11.0,1711.0],["MID1IP1_58526",0.08057580570625006,-3.3816179924362073,11.0,1711.0],["NDP-AS1_100873919",0.08059780811928167,-3.3830464465233394,11.0,1711.0],["FAM47C_442444",0.0806124567259982,-3.3839976608684332,11.0,1711.0],["LANCL3_347404",0.08043649639012437,-3.372581554836071,11.0,1711.0],["NYX_60506",0.08141895959980769,-3.4366008322137014,11.0,1711.0],["DDX3X_1654",0.08131631492189759,-3.429880584435731,11.0,1711.0],["GPR82_27197",0.08184420045138703,-3.464520640836579,11.0,1711.0],["EFHC2_80258",0.08056848121014715,-3.3811425423668737,11.0,1711.0],["LINC02601_105373185",0.08134564182926603,-3.431799890488088,11.0,1711.0],["LOC100132831_100132831",0.0815069391248142,-3.4423668299880834,11.0,1711.0],["XK_7504",0.08049514972573249,-3.3763845016287073,11.0,1711.0],["LINC01186_101927574",0.08059780594104736,-3.383046305102721,11.0,1711.0],["MID1IP1-AS1_100874211",0.08057580570625006,-3.3816179924362073,11.0,1711.0],["DIPK2B_79742",0.08077376568194863,-3.3944822978991307,11.0,1711.0],["MPC1L_347411",0.08146294936267276,-3.4394831512555504,11.0,1711.0],["MIR1587_100616251",0.08034119286036695,-3.366407443061325,11.0,1711.0],["SSX6P_280657",0.08026054519627833,-3.361187771188344,11.0,1711.0],["KRBOX4_55634",0.08059780594104736,-3.383046305102721,11.0,1711.0],["BCOR_54880",0.08044383720240428,-3.373057383903085,11.0,1711.0],["OTC_5009",0.08064912124293873,-3.3863791490792807,11.0,1711.0],["LINC01204_101927528",0.08068578652365258,-3.388761630653747,11.0,1711.0],["LINC01281_286442",0.08076643090628302,-3.3940051612802176,11.0,1711.0],["PPP1R2C_80316",0.08166824135869921,-3.452952375975308,11.0,1711.0],["LINC01282_101927449",0.08051715468418487,-3.37781187513707,11.0,1711.0],["LINC02595_401585",0.08097905636485656,-3.40785204724277,11.0,1711.0],["MAOB_4129",0.0816535789839685,-3.451989394201508,11.0,1711.0],["GPR34_2857",0.08184420045138703,-3.464520640836579,11.0,1711.0],["MED14OS_100873985",0.08144828559803716,-3.438522193724025,11.0,1711.0],["MIR222_407007",0.08099371998545196,-3.408808161841897,11.0,1711.0],["CYBB_1536",0.08055380362843821,-3.380189899931184,11.0,1711.0],["LOC101928627_101928627",0.08050981234998725,-3.3773355695892193,11.0,1711.0],["CASK_8573",0.08155093089857365,-3.4452520004749467,11.0,1711.0],["MAOA_4128",0.08158026144861487,-3.4471763802310926,11.0,1711.0],["SYTL5_94122",0.08082508272458205,-3.397821594541186,11.0,1711.0],["LOC392452_392452",0.08062713261250407,-3.3849507975359696,11.0,1711.0],["TMEM47_83604",0.08031918532783054,-3.3649826205023747,11.0,1711.0],["FTH1P18_441490",0.0806124567259982,-3.3839976608684332,11.0,1711.0],["RP2_6102",0.08034119465404871,-3.3664075591920173,11.0,1711.0],["KDM6A_7403",0.08143362484767556,-3.437561584752016,11.0,1711.0],["CXorf38_159013",0.08146294936267276,-3.4394831512555504,11.0,1711.0],["ZNF674-AS1_401588",0.08067112408857735,-3.3878087636992986,11.0,1711.0],["TSPAN7_7102",0.08045849826901369,-3.3740078227998187,11.0,1711.0],["RPGR_6103",0.08066378429300333,-3.3873318294999,11.0,1711.0],["MAGEB16_139604",0.08053913849661655,-3.3792382165073396,11.0,1711.0]],"bottom":[["MKRN7P_7686",-0.05792102185128508,-2.089338349629597,11.0,1711.0],["LOC101927377_101927377",-0.058551559688716906,-2.1205338323651244,11.0,1711.0],["SLC2A10_81031",-0.05812631110502577,-2.0994653145232607,11.0,1711.0],["CD40_958",-0.0577890499367158,-2.0828432280998643,11.0,1711.0],["LINC01754_102723442",-0.05839025939120271,-2.112527930165458,11.0,1711.0],["SEMG2_6407",-0.057547101296662524,-2.0709661435827087,11.0,1711.0],["SDC4_6385",-0.057356475586989704,-2.0616363852416133,11.0,1711.0],["NCOA5_57727",-0.057642414336672554,-2.0756402588311365,11.0,1711.0],["MATN4_8785",-0.05737113910322179,-2.0623531855708293,11.0,1711.0],["RIMS4_140730",-0.05788436219449736,-2.0875329264112543,11.0,1711.0],["EYA2_2139",-0.05844890950801152,-2.1154368998633672,11.0,1711.0],["SLC35C2_51006",-0.05792102212352638,-2.0893383630386833,11.0,1711.0],["LINC01430_101927242",-0.05759109390865057,-2.0731227600379714,11.0,1711.0],["KCNB1_3745",-0.05970997689579723,-2.178549214233759,11.0,1711.0],["WFDC12_128488",-0.05741512978674632,-2.064504466466193,11.0,1711.0],["SERINC3_10955",-0.05759109414550483,-2.0731227716511476,11.0,1711.0],["SULF2_55959",-0.059050118623299445,-2.14539071448458,11.0,1711.0],["TTPAL_79183",-0.05759109390865057,-2.0731227600379714,11.0,1711.0],["MIR3646_100500813",-0.05756176667272054,-2.071684927555419,11.0,1711.0],["SNORD12C_26765",-0.05985661559921089,-2.1859581531499424,11.0,1711.0],["CSE1L_1434",-0.058639538687231804,-2.124907980861734,11.0,1711.0],["CYP21A1P_1590",-0.06267941539930327,-2.3314368634494937,11.0,1711.0],["KCNK15-AS1_106144538",-0.05781837143137931,-2.0842852932682714,11.0,1711.0],["ZMYND8_23613",-0.058463577797965016,-2.1161647927824716,11.0,1711.0],["SLC12A5-AS1_109729184",-0.05731981630801858,-2.059844997309859,11.0,1711.0],["ELMO2_63916",-0.05789169498970406,-2.087893980727209,11.0,1711.0],["ZFAS1_441951",-0.05985661559921089,-2.1859581531499424,11.0,1711.0],["KCNK15_60598",-0.05775239017989661,-2.0810410781197706,11.0,1711.0],["MMP9_4318",-0.05731981637537245,-2.0598450005999096,11.0,1711.0],["ZNF334_55713",-0.05792102185128508,-2.089338349629597,11.0,1711.0],["HCG4B_80868",-0.06377920638873867,-2.389590689000057,11.0,1711.0],["TNXA_7146",-0.058998854153157566,-2.1428270127993714,11.0,1711.0],["TNXB_7148",-0.058998854153157566,-2.1428270127993714,11.0,1711.0],["LOC105372633_105372633",-0.05789169526180754,-2.087893994124098,11.0,1711.0],["LOC105372631_105372631",-0.057312484802481745,-2.05948684598602,11.0,1711.0],["LINC01522_101927457",-0.05884482880993921,-2.135135047749186,11.0,1711.0],["SEMG1_6406",-0.057547101330472986,-2.0709661452394594,11.0,1711.0],["ZNFX1_57169",-0.059841951204298326,-2.1852165744623755,11.0,1711.0],["NCOA3_8202",-0.059182090718581847,-2.1519987628688857,11.0,1711.0],["PI3_5266",-0.057547101330472986,-2.0709661452394594,11.0,1711.0],["WFDC2_10406",-0.057312484802481745,-2.05948684598602,11.0,1711.0],["CDH22_64405",-0.05778905017438416,-2.0828432397848275,11.0,1711.0],["LINC01620_140834",-0.05759109390865057,-2.0731227600379714,11.0,1711.0],["LINC01523_101060004",-0.05884482880993921,-2.135135047749186,11.0,1711.0],["SNORD12_692057",-0.05991526966281233,-2.1889257530917186,11.0,1711.0],["SNORD12B_100113393",-0.05991526966281233,-2.1889257530917186,11.0,1711.0],["LINC01260_79015",-0.0576497453325539,-2.0760000229004723,11.0,1711.0],["MIR3616_100500814",-0.05878617681774983,-2.1322102252898585,11.0,1711.0],["OCSTAMP_128506",-0.057891694853652365,-2.087893974028766,11.0,1711.0],["CSE1L-AS1_102723483",-0.05869818947527929,-2.1278269048742424,11.0,1711.0],["LOC100131496_100131496",-0.0585515596887169,-2.1205338323651244,11.0,1711.0],["SLPI_6590",-0.057385802720583724,-2.063070136393631,11.0,1711.0],["LINC00494_284749",-0.05951935280484476,-2.168939771600639,11.0,1711.0],["RBPJL_11317",-0.057341811834911376,-2.0609197189330772,11.0,1711.0],["SLC13A3_64849",-0.057891694853652365,-2.087893974028766,11.0,1711.0],["STAU1_6780",-0.05972464160408015,-2.1792894922005694,11.0,1711.0],["CCN5_8839",-0.05781837143137931,-2.0842852932682714,11.0,1711.0],["ZNF663P_100130934",-0.05792102185128508,-2.089338349629597,11.0,1711.0],["PKIG_11142",-0.05759109414550483,-2.0731227716511476,11.0,1711.0],["ARFGEF2_10564",-0.058800834392319236,-2.1329409415754363,11.0,1711.0],["TP53RK_112858",-0.058038330590962084,-2.0951217180408412,11.0,1711.0],["PREX1_57580",-0.05951935262999859,-2.168939762798986,11.0,1711.0],["ADA_100",-0.057429794990021585,-2.0652219315534883,11.0,1711.0],["DDX27_55661",-0.05987127844679316,-2.186699799884608,11.0,1711.0]]}}}
{"depmap_gene_tpm":{"corr":{"top":[["EBI3_10148",0.15254813129351716,-7.482557114396136,10.0,1289.0],["S100G_795",0.2760550156456229,-23.424208639091187,10.0,1289.0],["LIPN_643418",0.13351319494317765,-5.862661914203004,10.0,1289.0],["UTS2B_257313",0.1374635446160829,-6.181554161090306,10.0,1289.0],["AQP9_366",0.1320525252823135,-5.747022693296113,10.0,1289.0],["HYAL4_23553",0.10780542613592253,-4.004481225879137,10.0,1289.0],["NAPSA_9476",0.12649594750626525,-5.318280404922136,10.0,1289.0],["IFNA6_3443",0.20895917674785575,-13.555781852298756,10.0,1289.0],["CROCC2_728763",0.11149132832298199,-4.248047418510924,10.0,1289.0],["IQCF1_132141",0.16233264097226116,-8.397883900644272,10.0,1289.0],["SPIC_121599",0.1549612801555453,-7.703043237796099,10.0,1289.0],["PRR18_285800",0.12043967591852076,-4.871008828033248,10.0,1289.0],["ETDB_100129515",0.12095743855657058,-4.9084342388831494,10.0,1289.0],["TNFRSF4_7293",0.11888765001262638,-4.759731269655116,10.0,1289.0],["CCL22_6367",0.15079889426360094,-7.324874595757297,10.0,1289.0],["PTPN5_84867",0.11654834396691482,-4.5945736766091745,10.0,1289.0],["CD300H_100130520",0.13275667083306034,-5.802616007318731,10.0,1289.0],["KIR2DL4_3805",0.12635737937134037,-5.307813848660617,10.0,1289.0],["TNF_7124",0.11655165571266296,-4.594805311990673,10.0,1289.0],["KCNS2_3788",0.11650718038553709,-4.5916950627895865,10.0,1289.0],["SPP2_6694",0.22074146472490352,-15.073832265159187,10.0,1289.0],["CAPN14_440854",0.11020827491833464,-4.162403479775179,10.0,1289.0],["OR5H6_79295",0.16899107039601263,-9.053338721069618,10.0,1289.0],["BPIFB3_359710",0.23201107305823757,-16.60954678031382,10.0,1289.0],["IGSF22_283284",0.11235775801446851,-4.306401749535493,10.0,1289.0],["C20orf204_284739",0.13196771812848326,-5.740346240918295,10.0,1289.0],["C9orf135_138255",0.11081403605470695,-4.2027236043567395,10.0,1289.0],["SERPINB10_5273",0.14095019711178483,-6.470500710630027,10.0,1289.0],["APOBEC3H_164668",0.11006930058731472,-4.153182059518274,10.0,1289.0],["IFNA2_3440",0.17625016093971488,-9.798277380614927,10.0,1289.0],["DTHD1_401124",0.1646943044895108,-8.627331719234414,10.0,1289.0],["CXCR3_2833",0.11635590240495942,-4.581124214842394,10.0,1289.0],["FIGLA_344018",0.14473507999766747,-6.79214516710781,10.0,1289.0],["ZBTB32_27033",0.11361859339060963,-4.392069561021368,10.0,1289.0],["LRRC72_100506049",0.19417207569171396,-11.774918790339413,10.0,1289.0],["NOD2_64127",0.12184247076917845,-4.972758138100947,10.0,1289.0],["IFNA13_3447",0.19629575856031836,-12.022267514906469,10.0,1289.0],["ACOT12_134526",0.13271448229404093,-5.799277146351855,10.0,1289.0],["GAS2L2_246176",0.13540406646570433,-6.014180945076431,10.0,1289.0],["CRTAM_56253",0.1413007539294986,-6.499941740590446,10.0,1289.0],["FCER2_2208",0.11263015501285088,-4.324834499501701,10.0,1289.0],["DPYS_1807",0.13031155974165903,-5.6107913460851275,10.0,1289.0],["TNP1_7141",0.16390186458916137,-8.549971086573038,10.0,1289.0],["EFCAB8_388795",0.14548847442103097,-6.857164678133692,10.0,1289.0],["LILRA4_23547",0.2033624285770105,-12.865600572062204,10.0,1289.0],["CEACAM3_1084",0.2439694382407923,-18.330213174564584,10.0,1289.0]],"bottom":[["THRA_7067",-0.09323764544608179,-3.1153574478753057,10.0,1289.0],["ARL15_54622",-0.091246711620649,-3.0028700878233483,10.0,1289.0],["DPH1_1801",-0.09661608310177269,-3.311177643894198,10.0,1289.0],["SNX30_401548",-0.09819956765505979,-3.405106082779208,10.0,1289.0],["LRIG3_121227",-0.08885218387337743,-2.870427469424435,10.0,1289.0],["CAMKK1_84254",-0.08802984483446051,-2.8256588473863427,10.0,1289.0],["BZW2_28969",-0.08571351116268482,-2.7015164983203976,10.0,1289.0],["SLC35C2_51006",-0.09615909168009727,-3.284325192902525,10.0,1289.0],["FOXP1_27086",-0.09115287517451846,-2.997621462521338,10.0,1289.0],["CHPT1_56994",-0.1103145269847764,-4.169460931011335,10.0,1289.0],["PI4K2A_55361",-0.10218061074628021,-3.6473316958182553,10.0,1289.0],["SCAMP1_9522",-0.09348014129229897,-3.12920564214658,10.0,1289.0],["COPS6_10980",-0.09002807394992016,-2.935078640656724,10.0,1289.0],["PHC1_1911",-0.09408591253512084,-3.163939271954324,10.0,1289.0],["FAT1_2195",-0.08573401032174706,-2.702602469556752,10.0,1289.0],["TRUB2_26995",-0.0830555514041801,-2.562618301757171,10.0,1289.0],["MTFR1_9650",-0.08751972135545516,-2.7980708745043943,10.0,1289.0],["SYS1_90196",-0.0845130254301632,-2.6383128665531204,10.0,1289.0],["EIF6_3692",-0.0843979668327241,-2.6322958485473507,10.0,1289.0],["G6PD_2539",-0.09138240988152617,-3.0104686505180167,10.0,1289.0],["FOXO3_2309",-0.08783914583745037,-2.815329229511808,10.0,1289.0],["TOMM34_10953",-0.09468711783819914,-3.1986087947163724,10.0,1289.0],["PEX19_5824",-0.0870540001581822,-2.77300675733677,10.0,1289.0],["RGL2_5863",-0.10901192580281666,-4.083374128298333,10.0,1289.0],["DHCR24_1718",-0.08396458624267758,-2.609695840957996,10.0,1289.0],["SETD7_80854",-0.0912222725934536,-3.0015026611312132,10.0,1289.0],["EIF5A2_56648",-0.09006780422774642,-2.9372761030422594,10.0,1289.0],["ARPC1A_10552",-0.08522426034477636,-2.675664783994438,10.0,1289.0],["SNX16_64089",-0.09630968858092258,-3.293161532053389,10.0,1289.0],["PIGT_51604",-0.09817596511679304,-3.4036959530434108,10.0,1289.0],["SORD_6652",-0.10746267998982437,-3.982216711611175,10.0,1289.0],["SLC36A1_206358",-0.08832528352503179,-2.8417006724931193,10.0,1289.0],["NIPAL3_57185",-0.08922545655330255,-2.8908692148036623,10.0,1289.0],["ACOT8_10005",-0.11423199134623954,-4.434068977563612,10.0,1289.0],["GLUL_2752",-0.09891118402877246,-3.447764957888225,10.0,1289.0],["AP5S1_55317",-0.09675960173986943,-3.3196342511407857,10.0,1289.0],["PRKCA_5578",-0.08577935188497435,-2.7050053039594055,10.0,1289.0],["PPT2_9374",-0.09349017828369525,-3.1297795137755253,10.0,1289.0],["PRKAR2B_5577",-0.08402357043062442,-2.612765838447022,10.0,1289.0],["LPCAT2_54947",-0.09737780208164969,-3.3561895641045556,10.0,1289.0],["OSBPL1A_114876",-0.12867471541367934,-5.484289933940709,10.0,1289.0],["LAMB2_3913",-0.08571441362999231,-2.701564303017143,10.0,1289.0],["OAT_4942",-0.09566785825899919,-3.255588010377299,10.0,1289.0],["APBB2_323",-0.08777402373964191,-2.8118062466115807,10.0,1289.0],["C11orf49_79096",-0.10856355133951476,-4.0539604122022395,10.0,1289.0],["C17orf58_284018",-0.09376769347152375,-3.1456683523408255,10.0,1289.0],["DPCD_25911",-0.0888857108672554,-2.872260448880791,10.0,1289.0],["TTI1_9675",-0.09049580640924404,-2.9610029056686633,10.0,1289.0]]},"para":{"top":[["C1QL3_389941",0.0677210737969028,-2.1333868796962863,10.0,1289.0],["EBI3_10148",0.08452153441066852,-2.933834862084969,10.0,1289.0],["NFKB2_4791",0.06833987066913288,-2.1602816478391613,10.0,1289.0],["HMGN3_9324",0.06828120402090185,-2.1577234189604173,10.0,1289.0],["ZNF33B_7582",0.06950253346838457,-2.211345123637754,10.0,1289.0],["SHISA8_440829",0.07975293948975051,-2.69169073192527,10.0,1289.0],["CAPN8_388743",0.06840248688372749,-2.1630134021438527,10.0,1289.0],["ZC3H12D_340152",0.07169037643251704,-2.3093168675465074,10.0,1289.0],["DNAH7_56171",0.06957832399062722,-2.2146977631440397,10.0,1289.0],["KIAA1551_55196",0.06750602369394058,-2.1240863543244926,10.0,1289.0],["HIST1H2AJ_8331",0.07361928026697236,-2.397730425953143,10.0,1289.0],["VPREB3_29802",0.07539624259631048,-2.480901212294547,10.0,1289.0],["LRG1_116844",0.07811103880996371,-2.6111144376797433,10.0,1289.0],["BMP8B_656",0.08081311095576796,-2.7445260623665972,10.0,1289.0],["FAM129C_199786",0.07336447048415425,-2.385949699243511,10.0,1289.0],["SLC4A1_6521",0.07238240971012315,-2.340783808685177,10.0,1289.0],["LY86_9450",0.08649160359086899,-3.037266295428419,10.0,1289.0],["INSL3_3640",0.08450368436579171,-2.9328932091400133,10.0,1289.0],["USP3_9960",0.08332571165471524,-2.8720040064250854,10.0,1289.0],["FAM9B_171483",0.07309427095897458,-2.373438264361541,10.0,1289.0],["OSM_5008",0.07704101593174867,-2.5593253987474034,10.0,1289.0],["FCAR_2204",0.12243411205004406,-5.28744847785769,10.0,1289.0],["VRK2_7444",0.08417126052717241,-2.915646699175654,10.0,1289.0],["HCG22_285834",0.09228374835551276,-3.353383525521509,10.0,1289.0],["PHF11_51131",0.06943210107063028,-2.208232030211335,10.0,1289.0],["ISX_91464",0.08388603769273355,-2.9008407954838713,10.0,1289.0],["TNF_7124",0.07212100484826803,-2.328890704001698,10.0,1289.0],["LTK_4058",0.07623611393283286,-2.520776366540737,10.0,1289.0],["CDKN1A_1026",0.06732982417851884,-2.116483523373651,10.0,1289.0],["ODF1_4956",0.1349422277789013,-6.233499939367525,10.0,1289.0],["MITD1_129531",0.0709120959022775,-2.2741835756767204,10.0,1289.0],["MDM2_4193",0.09408330540188853,-3.455312864175965,10.0,1289.0],["KIF21B_23046",0.07323838199832011,-2.3801279503084243,10.0,1289.0],["FSCN2_25794",0.0745206829411103,-2.439721784058204,10.0,1289.0],["RGPD1_400966",0.0719523851049072,-2.3212150523163713,10.0,1289.0],["APOBEC3H_164668",0.06943140852076027,-2.2081972794684646,10.0,1289.0],["RXFP1_59350",0.07279426848066499,-2.359661097498505,10.0,1289.0],["CACNA1E_777",0.07673882391512828,-2.5447868593381995,10.0,1289.0],["CRIP1_1396",0.07228597177706161,-2.3364155147465926,10.0,1289.0],["MAP3K8_1326",0.07482270978036182,-2.4538820668417434,10.0,1289.0],["NPR1_4881",0.08613326675705207,-3.0183588773932803,10.0,1289.0],["SOX18_54345",0.08266357381465131,-2.8380876304032405,10.0,1289.0],["UTS2_10911",0.07839612017746614,-2.6249441293875724,10.0,1289.0],["MUCL3_135656",0.0848455018867109,-2.950705740359301,10.0,1289.0],["RHOF_54509",0.08622634067092508,-3.0232829318242507,10.0,1289.0],["HSH2D_84941",0.07783319543781508,-2.5976119305994145,10.0,1289.0],["ITGB7_3695",0.0703739468028967,-2.250072221524762,10.0,1289.0],["PLCG2_5336",0.07734799926772534,-2.5741292160604847,10.0,1289.0],["IFITM1_8519",0.08462914790495635,-2.93943688223773,10.0,1289.0],["RPAP2_79871",0.07613809336338259,-2.516103949735807,10.0,1289.0],["TLE6_79816",0.0852401437284156,-2.9713534020399117,10.0,1289.0],["SLC25A45_283130",0.09947405596503932,-3.7706456680310776,10.0,1289.0],["JAK3_3718",0.07292582335128488,-2.36573088058187,10.0,1289.0],["FCER2_2208",0.07340168671323291,-2.387646686093995,10.0,1289.0],["ASZ1_136991",0.10441845857390408,-4.0732104370694415,10.0,1289.0],["ERAP2_64167",0.07213326370878355,-2.3294502828556727,10.0,1289.0],["KLF13_51621",0.06973745742920637,-2.2217471247170386,10.0,1289.0],["PRKAB1_5564",0.06743570006811889,-2.121050054488366,10.0,1289.0],["RAB9A_9367",0.07367181601361825,-2.4001762891318057,10.0,1289.0],["ARRDC5_645432",0.08363663239815565,-2.8878779043647036,10.0,1289.0],["SERPINB9_5272",0.06961121295788276,-2.2161534418284567,10.0,1289.0]],"bottom":[["DPYSL3_1809",-0.09532915384491415,-3.5268174269374604,10.0,1289.0],["C1QTNF5_114902",-0.09403955010758404,-3.4528049242493815,10.0,1289.0],["PRKD1_5587",-0.0876826453095546,-3.1009016842948762,10.0,1289.0],["MAGI2_9863",-0.08938115532811287,-3.19284098679419,10.0,1289.0],["PRR16_51334",-0.08377802109193135,-2.89530210288261,10.0,1289.0],["ANGPTL1_9068",-0.0830882624448308,-2.859812737843092,10.0,1289.0],["MUM1L1_139221",-0.08609701337836671,-3.0164219075904826,10.0,1289.0],["ZNF804A_91752",-0.08447322668811835,-2.9313204628290004,10.0,1289.0],["ZNF595_152687",-0.08829373680298876,-3.1338046941673032,10.0,1289.0],["DPH1_1801",-0.0864848682210329,-3.036980617417268,10.0,1289.0],["LRIG3_121227",-0.09246413637493325,-3.363611232446305,10.0,1289.0],["NID1_4811",-0.0874815176032052,-3.090115532447549,10.0,1289.0],["CAMKK1_84254",-0.09166401131488196,-3.318808567997914,10.0,1289.0],["SNX30_401548",-0.08589755035968281,-3.0059132420892323,10.0,1289.0],["SLC35C2_51006",-0.09686699446294503,-3.616216774159067,10.0,1289.0],["CNRIP1_25927",-0.0858947038388275,-3.0057627927152843,10.0,1289.0],["CHPT1_56994",-0.09790020365878012,-3.676986174262523,10.0,1289.0],["GJA1_2697",-0.08829648591426234,-3.133953138659612,10.0,1289.0],["JAZF1_221895",-0.10304435306409906,-3.9880075478739245,10.0,1289.0],["EYA1_2138",-0.10610678612982719,-4.179874598792021,10.0,1289.0],["GNG4_2786",-0.09932402903094296,-3.7616607225371883,10.0,1289.0],["MAP2_4133",-0.08750767982529391,-3.0915174423534686,10.0,1289.0],["RBM24_221662",-0.08821336638004972,-3.129465658498417,10.0,1289.0],["DAB2_1601",-0.09419104827796052,-3.461464158549854,10.0,1289.0],["ADAMTS1_9510",-0.09076181075636855,-3.2686962966983217,10.0,1289.0],["PCYT1B_9468",-0.08363194514066202,-2.8877594381821208,10.0,1289.0],["G6PD_2539",-0.09013722280271304,-3.234255849947127,10.0,1289.0],["CACNA2D3_55799",-0.0964229334859495,-3.5902713125125776,10.0,1289.0],["ADAMTS3_9508",-0.09298656359644594,-3.3930460277264745,10.0,1289.0],["RGL2_5863",-0.0824683124956305,-2.828132188057569,10.0,1289.0],["EPHA4_2043",-0.0944030591246741,-3.4735863517470302,10.0,1289.0],["TOX_9760",-0.097373356635398,-3.645927951134238,10.0,1289.0],["SERTAD4_56256",-0.0928604525818439,-3.3859281142739444,10.0,1289.0],["CCDC89_220388",-0.09257902686834213,-3.370069701643821,10.0,1289.0],["RERG_85004",-0.09088773260129189,-3.275663740263414,10.0,1289.0],["ARPC1A_10552",-0.08603861883880393,-3.013358798788919,10.0,1289.0],["APLN_8862",-0.09036416742555167,-3.2467458811853116,10.0,1289.0],["KCNT2_343450",-0.08555996312635085,-2.9881319236391386,10.0,1289.0],["RGS7_6000",-0.08390977081898753,-2.9021059721237696,10.0,1289.0],["PDLIM3_27295",-0.08612629835492511,-3.0179914785845288,10.0,1289.0],["SSPN_8082",-0.0841195255809733,-2.912965602264966,10.0,1289.0],["ACOT8_10005",-0.10071907087031884,-3.8456708160561046,10.0,1289.0],["ZNF521_25925",-0.09592441200414684,-3.5612712059858795,10.0,1289.0],["SOGA3_387104",-0.08249660871026825,-2.8295736299437966,10.0,1289.0],["AKT3_10000",-0.08679090190353649,-3.0532407724009962,10.0,1289.0],["KIAA1324L_222223",-0.08418402116602366,-2.9163081988523607,10.0,1289.0],["MAP1B_4131",-0.08269301643176005,-2.8395927141297417,10.0,1289.0],["C11orf49_79096",-0.0888220503096426,-3.1624091503565097,10.0,1289.0],["AP5S1_55317",-0.08249171117848049,-2.829324354989507,10.0,1289.0],["ANO4_121601",-0.08810911891942715,-3.1238392636668477,10.0,1289.0],["PLXNA2_5362",-0.08503168040369675,-2.960441877873229,10.0,1289.0],["PRKAR2B_5577",-0.09563450308124007,-3.5444683803730053,10.0,1289.0],["COPS7A_50813",-0.08715433015784746,-3.072614423005871,10.0,1289.0],["BHLHE41_79365",-0.10216561856977238,-3.9338785774520715,10.0,1289.0],["OSBPL1A_114876",-0.10242179089183157,-3.949615904102605,10.0,1289.0],["MEIS2_4212",-0.10856393161136677,-4.337452117814398,10.0,1289.0],["CRISPLD1_83690",-0.09937704333581714,-3.7648340214854756,10.0,1289.0],["LPCAT2_54947",-0.09838305515019855,-3.705580313972501,10.0,1289.0],["TMSB15A_11013",-0.08946255733380795,-3.1972846675914113,10.0,1289.0],["MPDZ_8777",-0.08412873682784111,-2.9134428698702366,10.0,1289.0],["NIPAL3_57185",-0.09616203829926054,-3.5750796126630524,10.0,1289.0],["OBSL1_23363",-0.08259744652218963,-2.8347151593858086,10.0,1289.0],["UCHL1_7345",-0.08259816540299947,-2.834751825579604,10.0,1289.0],["ARHGEF26_26084",-0.088270614244533,-3.132556128124179,10.0,1289.0]]}}}
{"avana":{"corr":{"top":[["SLC11A1_6556",0.11194228576747915,-2.720495801824454,8.0,759.0],["TTC14_151613",0.11251198400769873,-2.7438959187557557,8.0,759.0],["GKN2_200504",0.11893417777584013,-3.0149548782071904,8.0,759.0],["TBC1D28_254272",0.11887258049702355,-3.012291407776149,8.0,759.0],["CALCA_796",0.1180936737685843,-2.978718101829015,8.0,759.0],["ANKRD50_57182",0.11544416832128875,-2.865993639095649,8.0,759.0],["IMP4_92856",0.14914417857235218,-4.472534656588777,8.0,759.0],["GALC_2581",0.11333897682739891,-2.778050771743388,8.0,759.0],["SFI1_9814",0.1279756449596636,-3.419385611277756,8.0,759.0],["ZHX1_11244",0.12138109064514098,-3.0835626877263556,8.0,748.0],["PLXNC1_10154",0.13127420902903406,-3.5736384783297592,8.0,759.0],["RXYLT1_10329",0.1261778381296178,-3.336828418360746,8.0,759.0],["PITX3_5309",0.11128985572917643,-2.693826096075715,8.0,759.0],["ZCCHC24_219654",0.11388583275634685,-2.800757364329698,8.0,759.0],["DAXX_1616",0.12127552231999622,-3.078976926430955,8.0,748.0],["REV1_51455",0.123088477962175,-3.1974480014929045,8.0,759.0],["SLC2A13_114134",0.14566257182772832,-4.288959085736383,8.0,759.0],["KIAA1614_57710",0.12493655714422648,-3.280449249668054,8.0,759.0],["SRA1_10011",0.15394281243185207,-4.672163471722534,8.0,748.0],["RBBP4_5928",0.12783446546300456,-3.370732521804953,8.0,748.0],["CACNG1_786",0.12175127376759502,-3.1380900975315273,8.0,759.0],["ADGRL2_23266",0.11145424566867249,-2.7005330140759978,8.0,759.0],["XRCC6_2547",0.12936373144944865,-3.483858474598756,8.0,759.0],["AHCYL2_23382",0.13353222239155352,-3.681313136911777,8.0,759.0],["CD59_966",0.139733164118742,-3.9857604980153467,8.0,759.0],["SPATA5L1_79029",0.11534024744281896,-2.8616187339764854,8.0,759.0],["DNAJB4_11080",0.11967884526886834,-3.0472522573455953,8.0,759.0],["LRRTM3_347731",0.1218996138354572,-3.144645956144218,8.0,759.0],["SOX1_6656",0.11693829837694973,-2.9292815997329056,8.0,759.0],["PTGER3_5733",0.12019838552218906,-3.069892697375588,8.0,759.0],["TMEM171_134285",0.12993251035355466,-3.5104608969083873,8.0,759.0],["C6orf58_352999",0.15242963736292883,-4.649552430391803,8.0,759.0],["FAM91A1_157769",0.12556894013565836,-3.309108788738483,8.0,759.0],["C1QTNF7_114905",0.11344315498680202,-2.7823690088519935,8.0,759.0],["OCA2_4948",0.11482118465825453,-2.8398194239054058,8.0,759.0],["RAMAC_83640",0.11852238641869092,-2.9971724947284506,8.0,759.0],["EPHA6_285220",0.12102827231484947,-3.106240299006612,8.0,759.0],["STAC3_246329",0.12702800051923754,-3.3757358508739324,8.0,759.0],["BPIFC_254240",0.14136523506713397,-4.068033448706956,8.0,759.0],["MED18_54797",0.12062871417163741,-3.050958750677676,8.0,748.0],["FXN_2395",0.13371364268906363,-3.690037898322081,8.0,759.0],["POP5_51367",0.11621098734334155,-2.8983838153779224,8.0,759.0],["FEZF2_55079",0.13336917995434788,-3.6734815462976265,8.0,759.0],["TTC28_23331",0.11233264413731903,-2.736518312792673,8.0,759.0],["C3orf36_80111",0.11533514736769622,-2.8614041190039874,8.0,759.0],["PLA2G7_7941",0.11114061084459605,-2.687744619885961,8.0,759.0],["ANKS1A_23294",0.11910328206859556,-3.0222733190262665,8.0,759.0],["TMBIM1_64114",0.16421536158858138,-5.315054229419686,8.0,759.0],["TSPAN19_144448",0.11411954158705703,-2.810490944274077,8.0,759.0],["SAE1_10055",0.15521607293230535,-4.802576015680675,8.0,759.0],["CELF3_11189",0.11931239846547151,-3.0313362874262895,8.0,759.0],["FOXN1_8456",0.11257799960326213,-2.7466142540962495,8.0,759.0],["PPM1K_152926",0.11152129405556724,-2.703271010649047,8.0,759.0],["DCHS1_8642",0.1327229725552466,-3.6425286295585866,8.0,759.0],["APOBEC4_403314",0.1369382072782908,-3.846944004765789,8.0,759.0],["SERPINA6_866",0.11413478230371558,-2.8111263084060396,8.0,759.0],["DOPEY2_9980",0.17118756956266987,-5.731437089265352,8.0,759.0],["NHSL1_57224",0.1354749260434895,-3.775310945599738,8.0,759.0],["PTPMT1_114971",0.12600515716910185,-3.3289548383423244,8.0,759.0],["RBM26_64062",0.11138150098638681,-2.6975640415972952,8.0,759.0],["C17orf49_124944",0.1145986515357195,-2.7962146317969507,8.0,748.0]],"bottom":[["RPAIN_84268",-0.11952623814382718,-3.0406187120036505,8.0,759.0],["HEPACAM_220296",-0.13644416478378565,-3.82267872743305,8.0,759.0],["ZNF268_10795",-0.13058865237353892,-3.5412825550739346,8.0,759.0],["TMEM131L_23240",-0.12037054373589795,-3.0774144253760536,8.0,759.0],["EIF5B_9669",-0.12024898722002852,-3.072102520707227,8.0,759.0],["CGREF1_10669",-0.14657117723821572,-4.336470483471112,8.0,759.0],["RPL9_6133",-0.1823114398977789,-6.431161700562723,8.0,759.0],["TCF19_6941",-0.13588587524353588,-3.7953561530784725,8.0,759.0],["CMTM2_146225",-0.14361912665352566,-4.18312781498175,8.0,759.0],["SON_6651",-0.1534187630007625,-4.703568003429114,8.0,759.0],["DOCK2_1794",-0.12301401582186654,-3.194127247578431,8.0,759.0],["PSMB4_5692",-0.1499890237173244,-4.5177025132398105,8.0,759.0],["VPS39_23339",-0.11921262458682785,-3.027010373382299,8.0,759.0],["ADIPOR2_79602",-0.1304651142244011,-3.5354685585535788,8.0,759.0],["VIRMA_25962",-0.1260425221875993,-3.33065770482168,8.0,759.0],["TRAPPC10_7109",-0.12248758429608733,-3.1707020924027933,8.0,759.0],["PSMA7_5688",-0.14590870514340318,-4.301801871948709,8.0,759.0],["SLC1A5_6510",-0.12897794545924976,-3.4658758024214498,8.0,759.0],["DBP_1628",-0.12533873057065925,-3.298660476660279,8.0,759.0],["PTGIS_5740",-0.1610391366624122,-5.1309821427503435,8.0,759.0],["RPS27L_51065",-0.1212029802708732,-3.113920895839272,8.0,759.0],["BOD1_91272",-0.16438065952213288,-5.324729641360619,8.0,759.0],["SYK_6850",-0.15552755074645877,-4.819847013548096,8.0,759.0],["DNAJB1_3337",-0.13268252304104167,-3.640595745552527,8.0,759.0],["HNRNPK_3190",-0.12568351363721686,-3.2735175616791734,8.0,748.0],["GRIN2C_2905",-0.125570797656475,-3.309193165305015,8.0,759.0],["PTPRN2_5799",-0.12413615417514114,-3.244363669053201,8.0,759.0],["ZNF468_90333",-0.13968295878710396,-3.9832438400136647,8.0,759.0],["SHISA3_152573",-0.1367258859991074,-3.8365056750894824,8.0,759.0],["NAPA_8775",-0.12671826584242088,-3.3615333335422077,8.0,759.0],["LRRN4_164312",-0.12269416561773207,-3.1798837175239685,8.0,759.0],["ATXN7L2_127002",-0.12008810824501129,-3.065079683349581,8.0,759.0],["ATP6V0B_533",-0.14827244950386817,-4.426184246849733,8.0,759.0],["ARRDC4_91947",-0.1416242161001708,-4.081171141671963,8.0,759.0],["SNRPC_6631",-0.12165898045303142,-3.1340148493701263,8.0,759.0],["PAX5_5079",-0.11921705912408154,-3.027202573460799,8.0,759.0],["FAM110C_642273",-0.11941241639027787,-3.0356760419572986,8.0,759.0],["SORD_6652",-0.13384293106553746,-3.6962622527297766,8.0,759.0],["GRHPR_9380",-0.12517535670151259,-3.2912561582159525,8.0,759.0],["NEDD9_4739",-0.1228298189882162,-3.185920519653508,8.0,759.0],["C6orf10_10665",-0.12126073990492314,-3.1164623493657437,8.0,759.0],["C6orf136_221545",-0.14223674049362445,-4.1123334639711135,8.0,759.0],["CCDC97_90324",-0.13313366255493644,-3.662184317239443,8.0,759.0],["MON1A_84315",-0.12179500743442563,-3.140022148901247,8.0,759.0],["SLC27A4_10999",-0.15133312382709108,-4.590063552391476,8.0,759.0],["JUND_3727",-0.12118906360177589,-3.113308718424602,8.0,759.0],["ZNF222_7673",-0.1256392691538751,-3.3123042273551024,8.0,759.0],["ZNF746_155061",-0.11819540018383505,-2.98309160685368,8.0,759.0],["ADNP2_22850",-0.12218582362140244,-3.157315304604667,8.0,759.0],["SLC17A7_57030",-0.1922498354515025,-7.09361776528376,8.0,759.0],["EBF1_1879",-0.15855857040254187,-4.989654963332867,8.0,759.0],["PLEKHG6_55200",-0.14167142438482133,-4.083568377099971,8.0,759.0],["CHFR_55743",-0.13583529359985114,-3.7928858454018353,8.0,759.0],["KRT3_3850",-0.13447252635634882,-3.726652600852355,8.0,759.0],["MUC21_394263",-0.13401242970311922,-3.704430895317144,8.0,759.0],["CD19_930",-0.1468699687661373,-4.352155608776669,8.0,759.0],["UBAP1_51271",-0.12681647995972728,-3.366033399227559,8.0,759.0],["IGF2R_3482",-0.12103054987641343,-3.1063403620584977,8.0,759.0],["ACR_49",-0.1664018723440976,-5.443806720049274,8.0,759.0]]},"para":{"top":[["ANXA3_306",0.1013144453934204,-2.596958795746031,8.0,759.0],["CFAP57_149465",0.11157342538898384,-2.995542427373071,8.0,759.0],["TTC14_151613",0.10406757677190676,-2.700737827945038,8.0,759.0],["TMPRSS11A_339967",0.10299526817278806,-2.6600401558002162,8.0,759.0],["PAFAH2_5051",0.10047400833397392,-2.565742518384477,8.0,759.0],["TBC1D28_254272",0.11363110464919497,-3.079407130612528,8.0,759.0],["ZFPM2_23414",0.10170539777258206,-2.584215914374205,8.0,748.0],["INCA1_388324",0.10137237999069228,-2.599118642705662,8.0,759.0],["POLB_5423",0.10261857670561239,-2.645827417451589,8.0,759.0],["IMP4_92856",0.13470010076101901,-4.014173520939074,8.0,759.0],["APPBP2_10513",0.10751616702976384,-2.8340252697076025,8.0,759.0],["RXYLT1_10329",0.11852859201415054,-3.2843085749254737,8.0,759.0],["SUPT3H_8464",0.10123147508997876,-2.5667626246148596,8.0,748.0],["GPR179_440435",0.10053203069673493,-2.5678906723851345,8.0,759.0],["SLC2A13_114134",0.10276343832093328,-2.6512879483279455,8.0,759.0],["MNAT1_4331",0.10448978709100758,-2.688130700781458,8.0,748.0],["KIAA1614_57710",0.10299526748800444,-2.660040129930644,8.0,759.0],["ZNF322_79692",0.10244467968645478,-2.639280923776318,8.0,759.0],["SLC2A2_6514",0.11678979402832243,-3.2107056278069726,8.0,759.0],["RBBP4_5928",0.10105406677768224,-2.5602466228355425,8.0,748.0],["TM4SF1_4071",0.10534265470728972,-2.749592070470399,8.0,759.0],["PSMC3IP_29893",0.1139964809740498,-3.0606873346971826,8.0,748.0],["XRCC6_2547",0.10035868979695912,-2.5614761538541577,8.0,759.0],["FAM19A3_284467",0.10711046059977755,-2.818154329208378,8.0,759.0],["ADGRL2_23266",0.10890722191566335,-2.8888285156380795,8.0,759.0],["FBXO42_54455",0.11510894070420684,-3.140450605534301,8.0,759.0],["AHCYL2_23382",0.12264377133236413,-3.4622623181085177,8.0,759.0],["DCAKD_79877",0.12249897021026025,-3.4559108034096955,8.0,759.0],["DNAJB4_11080",0.10896517487415958,-2.891124665204777,8.0,759.0],["PRR11_55771",0.10143035097514749,-2.601280877304575,8.0,759.0],["RAB11FIP4_84440",0.10328514949766639,-2.671007219808565,8.0,759.0],["CCL1_6346",0.11612331586118242,-3.1827434664962224,8.0,759.0],["PTGER3_5733",0.10056099878032851,-2.56896354073651,8.0,759.0],["TPRA1_131601",0.1057194001932172,-2.764122860222268,8.0,759.0],["SPATA31A1_647060",0.10137242380029912,-2.599120275884652,8.0,759.0],["TCP11_6954",0.10600920399987859,-2.77533016013663,8.0,759.0],["C6orf58_352999",0.10937088972540861,-2.9072285610320905,8.0,759.0],["SOX1_6656",0.11876046515458924,-3.2941949459905775,8.0,759.0],["DYTN_391475",0.10612513004265582,-2.7798205091373775,8.0,759.0],["TCTEX1D1_200132",0.1141526324536692,-3.100871842268611,8.0,759.0],["TEX30_93081",0.11742743581471297,-3.2375874526743464,8.0,759.0],["BPIFC_254240",0.10705248687040388,-2.8158905903315192,8.0,759.0],["MED18_54797",0.10922836789712043,-2.87038751298808,8.0,748.0],["FOXD4L1_200350",0.11452939818197198,-3.116431115873965,8.0,759.0],["POP5_51367",0.11409502271004651,-3.0984966210157645,8.0,759.0],["FEZF2_55079",0.10270547811883461,-2.649102375465696,8.0,759.0],["EEF1AKMT4_110599564",0.1136309852804019,-3.079402228631028,8.0,759.0],["ANKS1A_23294",0.12675898137375377,-3.6455157542962957,8.0,759.0],["PVRIG_79037",0.10099564544203518,-2.585092121317325,8.0,759.0],["TMBIM1_64114",0.11218197116196632,-3.0202080559047637,8.0,759.0],["PDK4_5166",0.11661591886908168,-3.203397341905499,8.0,759.0],["RCN2_5955",0.10064790834293295,-2.5721838871733,8.0,759.0],["C4orf19_55286",0.1048790338118219,-2.7317706139739895,8.0,759.0],["SAE1_10055",0.1482918692057793,-4.6913579631161815,8.0,759.0],["SLC25A45_283130",0.10247363049728446,-2.640370155798143,8.0,759.0],["TEFM_79736",0.10198107865484625,-2.621873704234633,8.0,759.0],["S100A13_6284",0.1061830923626904,-2.7820672112204874,8.0,759.0],["SRGAP1_57522",0.10406752833798327,-2.700735982238938,8.0,759.0],["OR4D10_390197",0.11119665585872433,-2.980328735153228,8.0,759.0],["PTPMT1_114971",0.11392090371496442,-3.0913240637327166,8.0,759.0],["HPGD_3248",0.10824077601265902,-2.862497970739764,8.0,759.0],["MCOLN3_55283",0.104560222660899,-2.719554038124371,8.0,759.0],["JADE1_79960",0.11837983504052701,-3.2417689317686778,8.0,748.0],["RBM26_64062",0.11644204911296736,-3.1960986975491115,8.0,759.0]],"bottom":[["DPYSL5_56896",-0.11626815922567331,-3.1888086229970387,8.0,759.0],["ZNF324_25799",-0.11881844669174355,-3.2966697248842274,8.0,759.0],["UQCRH_7388",-0.10983507444273959,-2.925715757157312,8.0,759.0],["HEPACAM_220296",-0.1268748638358387,-3.6507529439855495,8.0,759.0],["THEG_51298",-0.11423954542423002,-3.1044571676911685,8.0,759.0],["EIF5B_9669",-0.11029826679377722,-2.944229935630193,8.0,759.0],["ZNF268_10795",-0.10699454303336836,-2.813629055407493,8.0,759.0],["CGREF1_10669",-0.11965888496720523,-3.3326592739193432,8.0,759.0],["RPL9_6133",-0.14768326558695616,-4.659783158179191,8.0,759.0],["CCDC142_84865",-0.10731331275869221,-2.8260834032029254,8.0,759.0],["CMTM2_146225",-0.11954290649604629,-3.3276796915901823,8.0,759.0],["SON_6651",-0.12018080825862759,-3.355120231800565,8.0,759.0],["PRPF4B_8899",-0.10308234211247291,-2.663331702240835,8.0,759.0],["EML2_24139",-0.1031402303799084,-2.665521271716235,8.0,759.0],["PSMB4_5692",-0.12913592270078433,-3.753782867808867,8.0,759.0],["DBNDD2_55861",-0.10966079861202653,-2.9187670143674365,8.0,759.0],["BRD9_65980",-0.10999815713710488,-2.9006407219114485,8.0,748.0],["ZNF324B_388569",-0.1032850993677247,-2.671005321543223,8.0,759.0],["PSG2_5670",-0.10592226158862177,-2.7719652010294054,8.0,759.0],["PSMA7_5688",-0.12751298466331124,-3.6796676598331364,8.0,759.0],["SNAP23_8773",-0.10939990764641846,-2.9083823104413025,8.0,759.0],["SLC1A5_6510",-0.13551106332619064,-4.052939201933128,8.0,759.0],["EIF2S2_8894",-0.10554566907162512,-2.7574167425021208,8.0,759.0],["EIF3CL_728689",-0.11032777504214411,-2.9454116499104375,8.0,759.0],["C5orf52_100190949",-0.10789290401177282,-2.8488084786841705,8.0,759.0],["BOD1_91272",-0.12983092434710922,-3.7857748308499044,8.0,759.0],["DNAJB1_3337",-0.11606540810815918,-3.180320470211632,8.0,759.0],["HMGCS1_3157",-0.10650214609942286,-2.794452743915414,8.0,759.0],["HNRNPK_3190",-0.1101465871152917,-2.906494889678562,8.0,748.0],["FAM50B_26240",-0.1032850945607478,-2.671005139517964,8.0,759.0],["LGALS7B_653499",-0.10577736461037744,-2.7663623891342572,8.0,759.0],["NAPA_8775",-0.12333968892851209,-3.4928793764452846,8.0,759.0],["ZNF468_90333",-0.11357321234195286,-3.0770296458303243,8.0,759.0],["EIF4A3_9775",-0.12533931537640924,-3.581697319399567,8.0,759.0],["LRRN4_164312",-0.11241381645478986,-3.029635450219605,8.0,759.0],["IL33_90865",-0.10473415830855101,-2.726215224020679,8.0,759.0],["KIAA0319_9856",-0.11450039903913858,-3.115231972622798,8.0,759.0],["RICTOR_253260",-0.10612518013981292,-2.7798224499968676,8.0,759.0],["ATP6V0B_533",-0.1252236119254039,-3.5765239376091498,8.0,759.0],["ARRDC4_91947",-0.12003557136362016,-3.3488614265959535,8.0,759.0],["SNRPC_6631",-0.1198332397010644,-3.3401531618242704,8.0,759.0],["HIST1H2AM_8336",-0.11565971093959126,-3.163374422367232,8.0,759.0],["NTM_50863",-0.10476305902450195,-2.72732293408984,8.0,759.0],["MAGOHB_55110",-0.10473410956435857,-2.7262133564831834,8.0,759.0],["FAM110C_642273",-0.1117762430587839,-3.003750289216499,8.0,759.0],["RPL19_6143",-0.1062414573148438,-2.784330563028345,8.0,759.0],["POLR3E_55718",-0.10976154674114866,-2.8913225481290263,8.0,748.0],["PRB4_5545",-0.11151552374121008,-2.9932015361623994,8.0,759.0],["C6orf10_10665",-0.11754327344440552,-3.2424845561687548,8.0,759.0],["ELMO1_9844",-0.10467610689525272,-2.7239910027985794,8.0,759.0],["ZSCAN5B_342933",-0.10389372166700339,-2.6941154130848055,8.0,759.0],["CCDC97_90324",-0.12855571286974893,-3.7271912273052705,8.0,759.0],["NPAP1_23742",-0.11392076586356618,-3.091318390335667,8.0,759.0],["HSD17B13_345275",-0.10398061224369602,-2.697424049285084,8.0,759.0],["NUS1_116150",-0.12586107676107033,-3.6050786615986916,8.0,759.0],["JUND_3727",-0.10618315166494789,-2.7820695097637707,8.0,759.0],["ADNP2_22850",-0.10369079466043095,-2.68639737293902,8.0,759.0],["SLC17A7_57030",-0.14243719760449053,-4.392487567404054,8.0,759.0],["UBAP1_51271",-0.10615428235589411,-2.78095036294812,8.0,759.0],["CHFR_55743",-0.12122374656977301,-3.4002579439132012,8.0,759.0],["MUC21_394263",-0.10606715926244019,-2.7775745159479213,8.0,759.0],["C9orf66_157983",-0.10792188697970337,-2.84994759095305,8.0,759.0],["OCIAD2_132299",-0.10812477211171442,-2.8579288176840025,8.0,759.0],["ACR_49",-0.11438446948881496,-3.110440781798673,8.0,759.0]]}}}
