{"ccle_chromatin":{"corr":{"top":[],"bottom":[]},"para":{"top":[],"bottom":[]}}}
{"ccle_rppa":{"corr":{"top":[],"bottom":[["RPS6_S6_pS240_S244",-0.09696108966316619,-2.442019620528567,39.0,860.0]]},"para":{"top":[],"bottom":[]}}}
{"ccle_metabolomics":{"corr":{"top":[],"bottom":[]},"para":{"top":[],"bottom":[]}}}
{"ccle_rrbs_enhancer_clusters":{"corr":{"top":[["10-103264649-103267311-0_enh",0.11653173526123721,-2.4718516966409663,27.0,604.0],["8-37493309-37498204-1_enh",0.13651714265498813,-2.9644967728101865,25.0,545.0],["14-97877188-97882071-2_enh",0.1821687990781576,-3.6418036157057903,14.0,391.0]],"bottom":[]},"para":{"top":[],"bottom":[]}}}
{"ccle_mirna":{"corr":{"top":[["hcmv-miR-US25-1_miR00759.1",0.09582587739711733,-2.515770671265335,40.0,914.0],["hsa-miR-888_miR00655.1",0.10536474312159197,-2.9518400694997906,40.0,914.0],["hsa-miR-1470_miR00163.1",0.0930881324112861,-2.3972820772665546,40.0,914.0]],"bottom":[]},"para":{"top":[],"bottom":[]}}}
{"prism_primary_logfold":{"corr":{"top":[["diosgenin_BRD-K28690501-001-02-1::2.5::HTS",0.13245725785181217,-2.740819592856068,24.0,528.0],["relcovaptan_BRD-K96720755-001-02-6::2.5::HTS",0.1067367998425199,-1.9340738133915398,24.0,534.0],["benztropine-mesylate_BRD-K48061146-066-01-7::2.5::HTS",0.10585709778151803,-1.86961279006527,24.0,520.0],["ZK-200775_BRD-K67525671-001-02-5::2.5::HTS",0.11413881566046803,-2.1132414643935706,24.0,520.0],["tibolone_BRD-A82522119-001-01-7::2.5::HTS",0.1088279663359952,-2.001777035751548,24.0,536.0],["PNU-74654_BRD-K30707190-001-04-1::2.5::HTS",0.10981499553725474,-2.0077988465691585,24.0,528.0],["novobiocin_BRD-K85307935-236-10-3::2.5::HTS",0.10600289798348173,-1.826498450542241,22.0,505.0],["lupanine_BRD-A92826379-001-01-5::2.5::HTS",0.1611407267701725,-3.8798641646036023,24.0,534.0],["afalanine_BRD-K53205568-001-02-6::2.5::HTS",0.15195230603000298,-3.490298509232902,24.0,532.0],["moxifloxacin_BRD-K66615216-003-14-8::2.5::HTS",0.10931392702134704,-1.9841128361710039,24.0,525.0],["glycitein_BRD-K78303961-001-02-3::2.5::HTS",0.1194117406027995,-2.331575324113076,24.0,536.0],["N6022_BRD-K82522873-001-01-1::2.5::HTS",0.12300607071923084,-2.3912365499233244,24.0,520.0],["tesaglitazar_BRD-K15507868-001-03-7::2.5::HTS",0.10294987934208615,-1.824531674297068,24.0,534.0],["lucitanib_BRD-K31309378-001-01-5::2.5::HTS",0.10984474957693302,-2.0027676166850408,24.0,526.0],["GGTI-298_BRD-K19669037-001-01-1::2.5::HTS",0.14534951939009805,-3.1670478723773443,24.0,519.0],["PMPA_BRD-A74387232-001-02-5::2.5::HTS",0.12310417641731546,-2.3322346188288607,22.0,505.0],["CTS21166_BRD-K89071957-001-01-1::0.25::HTS",0.13141759863403898,-2.6715599927450406,24.0,520.0],["N20C_BRD-K41143549-003-02-4::2.5::HTS",0.12368593666158283,-2.453791623294343,24.0,531.0],["T-5224_BRD-K84925803-001-01-9::2.5::HTS",0.11922615276029848,-2.270549401891256,24.0,520.0],["endo-IWR-1_BRD-K61314889-001-04-4::2.5::HTS",0.11792131939695234,-2.283554598827456,24.0,536.0],["lactulose_BRD-K77258318-001-04-6::2.5::HTS",0.14865001967960248,-3.3545112718474943,24.0,531.0],["zafirlukast_BRD-K71289571-001-11-4::2.5::HTS",0.15630386968169638,-3.6778971785427594,24.0,534.0],["xylometazoline_BRD-K08356259-003-24-7::2.5::HTS",0.11128347971317208,-2.0608447294172376,24.0,531.0],["aceclidine_BRD-A32673558-003-03-9::2.5::HTS",0.11325713253004975,-2.1209991866764644,24.0,531.0],["thiothixene_BRD-K97309399-001-09-4::2.5::HTS",0.12359740916558443,-2.469224678164339,24.0,536.0],["nefopam_BRD-A78877355-001-03-0::2.5::HTS",0.130080488825437,-2.690598803540035,24.0,536.0],["barbital_BRD-K83359602-001-02-3::2.5::HTS",0.1023813214975764,-1.8031654764912046,24.0,532.0],["enzalutamide_BRD-K56851771-001-06-8::2.5::HTS",0.11793757281793774,-2.2773419910851165,24.0,534.0],["naltrexone_BRD-K88172511-003-20-3::2.42::HTS",0.1190608363954741,-2.206889130627779,22.0,505.0],["isodibut_BRD-K60241851-001-11-9::2.5::MTS004",0.13191765140030415,-2.672114582437752,23.0,517.0],["purmorphamine_BRD-K73397362-001-06-6::2.5::HTS",0.11987598934012902,-2.2910659846616372,24.0,520.0],["L-Quisqualic-acid_BRD-K92404805-001-07-0::2.5::HTS",0.1314505523545449,-2.738660987852819,24.0,536.0],["bemegride_BRD-K14993104-001-05-9::2.5::HTS",0.13581212433578502,-2.8683726974260613,24.0,530.0],["cabozantinib_BRD-K51544265-001-04-2::2.5::HTS",0.12391623951425718,-2.4133878636368085,24.0,518.0],["NXY-059_BRD-K46133855-304-03-8::2.5::HTS",0.1445426967745355,-3.141807643832717,24.0,520.0],["pikamilone_BRD-K56691760-001-01-2::2.5::HTS",0.10147943904361956,-1.7751966736551055,24.0,531.0]],"bottom":[["isoetharine_BRD-A24587114-066-22-5::2.5::HTS",-0.10432795001393308,-1.8586343748855776,24.0,532.0],["trequinsin_BRD-K84663978-003-02-9::2.5::HTS",-0.10560472551084396,-1.8844723937438208,24.0,528.0],["sivelestat_BRD-K02152879-414-02-1::2.500013375::MTS004",-0.13043762543723741,-2.6177131586424793,22.0,517.0],["NMDA_BRD-K62414032-001-12-0::2.5::HTS",-0.139669374070538,-3.0364290582560582,24.0,536.0],["PSI-6130_BRD-K07798980-001-01-9::2.5::HTS",-0.11861891534788546,-2.2889485158224057,24.0,531.0],["halofantrine_BRD-A51964809-003-12-6::2.5::HTS",-0.12405350153250609,-2.4844730145311575,24.0,536.0],["isovaleramide_BRD-K90069354-001-03-7::2.5::MTS004",-0.12367023462042777,-2.394352205630131,23.0,516.0]]},"para":{"top":[["lupanine_BRD-A92826379-001-01-5::2.5::HTS",0.15464295699092867,-3.880737574146542,24.0,534.0],["afalanine_BRD-K53205568-001-02-6::2.5::HTS",0.16116992195612242,-4.134025404135245,24.0,532.0],["PMPA_BRD-A74387232-001-02-5::2.5::HTS",0.13068073748410608,-2.864578706399298,22.0,505.0],["zafirlukast_BRD-K71289571-001-11-4::2.5::HTS",0.14309957067369994,-3.435444710749313,24.0,534.0]],"bottom":[]}}}
{"prism_secondary_logfold":{"corr":{"top":[["rucinol_BRD-K61036791-001-01-6::0.00244141::HTS002",0.13609462808512288,-2.502392475684208,24.0,445.0],["tucatinib_BRD-K26026438-001-01-0::0.002441407::MTS006",0.1283548780783343,-2.285803321196326,24.0,449.0],["selinexor_BRD-K21361524-001-01-1::0.002441406::MTS006",0.12506184953233798,-2.1744734139200963,23.0,446.0],["tosedostat_BRD-K92241597-001-06-0::0.002441404::MTS006",0.1523944177854599,-3.053505146044178,24.0,449.0],["PF-05212384_BRD-K07955840-001-02-3::0.00061034::HTS002",0.13416720230172677,-2.473703523638747,23.0,453.0],["clebopride_BRD-K17294426-050-12-3::2.5::HTS002",0.2136438746358903,-1.4957103571849222,8.0,93.0],["bucladesine_BRD-A94624445-236-17-0::0.15625::HTS002",0.14042284264031782,-1.588277543054084,14.0,238.0],["tamibarotene_BRD-K36627727-001-05-4::0.00244::MTS010::PROS005_PR500",0.15900515628998027,-3.2256793802403094,24.0,439.0],["RN-1734_BRD-K95581532-001-01-5::0.00976562::HTS002",0.16329519094063477,-3.3904936468649596,23.0,442.0],["ketoconazole_BRD-A38350138-001-04-9::0.15625::HTS002",0.1448743245690038,-2.117067419996008,21.0,317.0],["AM-404_BRD-K55462201-001-07-3::0.0390625::HTS002",0.15538263148409845,-1.868545083320301,14.0,238.0],["levonorgestrel_BRD-K35189033-001-26-1::0.625::HTS002",0.1938488573340435,-1.2832307095144884,8.0,93.0],["MRS-1220_BRD-K37618799-001-03-0::0.00976562::HTS002",0.16192138398672154,-1.9985259686375307,14.0,238.0],["carfilzomib_BRD-K15179879-001-03-2::0.0390625::HTS002",0.14986359713380404,-1.6664401071002772,10.0,225.0],["norethindrone_BRD-K92073408-001-15-7::0.000610351478725::MTS005",0.1651013301728227,-3.3532238147765234,23.0,426.0],["ipsapirone_BRD-K90574421-001-03-5::0.625::HTS002",0.1513843483102833,-2.630862938181202,22.0,380.0],["tyrphostin-AG-1296_BRD-K76064317-001-07-3::0.0024414::HTS002",0.12231312980958595,-2.0891963332683594,24.0,443.0],["valrubicin_BRD-K72951360-001-01-4::0.00976562::HTS002",0.1301000814446682,-2.296643020649127,23.0,440.0],["bendamustine_BRD-K17068645-003-04-2::0.00061034::HTS002",0.13574303252669886,-2.5048621351352827,23.0,449.0],["GSK-J4_BRD-K98203492-003-04-1::0.0390625::HTS002",0.16143517221020678,-3.354475625764729,24.0,446.0],["canertinib_BRD-K50168500-001-07-9::0.00977::MTS010::PROS001_PR500",0.1507910368887536,-2.923023589933659,24.0,435.0],["etomoxir_BRD-K32405725-001-02-8::0.15625::HTS002",0.13229038478828714,-2.416152087358101,23.0,453.0],["endo-IWR-1_BRD-K61314889-001-04-4::0.625::HTS002",0.15082260515515183,-3.010499537688682,23.0,452.0],["desoxycortone_BRD-K98521173-001-19-4::0.00061034::HTS002",0.1282827270557295,-2.2397643630068265,22.0,440.0],["gambogic-acid_BRD-K08542803-001-02-3::0.00244::MTS010::PROS005_PR500",0.14291237120481148,-2.6878687454737578,24.0,439.0],["dorzolamide_BRD-K71075609-003-01-0::0.625::HTS002",0.14408507121352201,-2.270352244327945,15.0,357.0],["vinflunine_BRD-K64120610-001-01-4::0.000610352::MTS006",0.138237758825566,-2.5872328028376628,24.0,449.0],["tucatinib_BRD-K26026438-001-01-0::0.039062501::MTS006",0.12492851609679798,-2.1858534514776196,24.0,449.0],["SB-200646_BRD-K77677632-003-02-6::0.00061034::HTS002",0.15865972384195678,-3.2552096651910567,24.0,446.0],["BIBX-1382_BRD-K70914287-300-02-8::0.00061034::HTS002",0.1412055303263162,-2.633876304330407,22.0,441.0],["CGP-54626_BRD-A74208568-003-01-5::0.0390625::HTS002",0.19142280335784748,-2.6432236152290436,14.0,238.0],["bafetinib_BRD-A75975749-001-01-4::0.000610351::MTS006",0.17508939508209972,-3.8519643085766346,24.0,444.0]],"bottom":[["indirubin_BRD-K17894950-001-14-3::0.00244::MTS010::PROS002_PR500",-0.16692202358974453,-3.3454815944798857,23.0,415.0],["butamben_BRD-K27217864-001-22-3::10::HTS002",-0.1417303264880949,-2.5733760183191223,21.0,426.0],["carfilzomib_BRD-K15179879-001-03-2::0.625::HTS002",-0.23138577317618997,-3.009431001479418,10.0,190.0],["PP242_BRD-K87112191-001-04-5::2.5::HTS002",-0.16050685795609054,-3.2846248561892044,23.0,441.0],["amsacrine_BRD-K68346641-001-01-4::10::HTS002",-0.14818932357150544,-2.63814951561671,20.0,401.0],["k-strophanthidin_BRD-A55312468-001-04-7::1.2361::HTS002",-0.175233253478241,-2.277490354444791,14.0,238.0],["CUDC-101_BRD-K41278234-001-03-0::0.15625::HTS002",-0.17772431298118233,-2.2933384394578527,15.0,232.0],["decitabine_BRD-K79254416-001-22-6::2.5::HTS002",-0.1846953236115477,-3.4094288018217536,15.0,350.0],["lucitanib_BRD-K31309378-001-01-5::0.0024414::HTS002",-0.15885269232520277,-3.2441836338292047,23.0,444.0],["ku-0063794_BRD-K67566344-001-07-5::2.5::HTS002",-0.14063583168395474,-2.672803274439554,23.0,452.0],["adarotene_BRD-K00152668-001-01-5::0.15625::HTS002",-0.1745697308113299,-3.7246907622707663,22.0,431.0],["azacitidine_BRD-K03406345-001-27-8::10::HTS002",-0.15487236372992083,-3.1336808251490362,23.0,449.0],["OTX015_BRD-K43471985-001-03-0::0.168131::HTS002",-0.15054223811640136,-2.5299363705357076,22.0,366.0],["decitabine_BRD-K79254416-001-22-6::10::HTS002",-0.15659095624987487,-2.5685721760618496,15.0,350.0],["obatoclax_BRD-K15600710-066-04-1::0.00061034::HTS002",-0.1944740926566283,-3.7858361495172166,18.0,353.0],["SGI-1776_BRD-K80700417-001-04-2::0.15625::HTS002",-0.1397251400103391,-2.5125005701077856,21.0,426.0],["radezolid_BRD-K84683831-001-01-0::0.625::HTS002",-0.15524268484035844,-2.716592814355769,19.0,378.0],["azacitidine_BRD-K03406345-001-21-1::0.15625::MTS010::PROS001_PR500",-0.1502405072999677,-2.904824956427324,24.0,435.0],["dabrafenib_BRD-K09951645-001-11-8::0.625::MTS010::PROS001_PR500",-0.14546674711304275,-2.7495528987224223,24.0,435.0],["decitabine_BRD-K79254416-001-22-6::0.625::HTS002",-0.20719775056388812,-4.176849823224193,15.0,350.0],["AST-1306_BRD-K26838195-075-04-9::10::HTS002",-0.1668274285617081,-3.1315280685151787,19.0,387.0],["NVP-BEZ235_BRD-K12184916-001-15-4::10::HTS002",-0.13748409094904115,-1.924517391895252,17.0,317.0],["JNJ-26481585_BRD-K83837640-001-04-8::0.0390625::HTS002",-0.16248834764294887,-2.772363483830835,18.0,353.0],["hypoestoxide_BRD-A51571244-001-01-9::2.5::HTS002",-0.17088840265493604,-2.764068569521521,17.0,317.0],["adefovir-dipivoxil_BRD-K96159438-001-06-3::10::HTS002",-0.14107842899309705,-2.2457529694272895,16.0,367.0],["exatecan-mesylate_BRD-K92150287-066-01-2::0.15625::HTS002",-0.13579232489342358,-2.1221446829599464,17.0,369.0],["adefovir-dipivoxil_BRD-K96159438-001-06-3::2.5::HTS002",-0.13888718570116826,-2.1883570695098147,16.0,367.0],["clotrimazole_BRD-K15916496-001-27-9::0.00976562::HTS002",-0.13593536261227995,-2.4974868036540783,24.0,445.0],["lestaurtinib_BRD-A27376179-001-01-3::0.00976562::HTS002",-0.16657300668482797,-3.096968363210909,22.0,380.0]]},"para":{"top":[["clebopride_BRD-K17294426-050-12-3::2.5::HTS002",0.2181755492140789,-1.8298107318241723,8.0,93.0],["bucladesine_BRD-A94624445-236-17-0::0.15625::HTS002",0.15729469351182948,-2.1948515945024036,14.0,238.0],["levonorgestrel_BRD-K35189033-001-26-1::0.625::HTS002",0.17101845464147133,-1.3545761963789174,8.0,93.0],["AM-404_BRD-K55462201-001-07-3::0.0390625::HTS002",0.18742033710186343,-2.823445600724334,14.0,238.0],["carfilzomib_BRD-K15179879-001-03-2::0.0390625::HTS002",0.15289797770480867,-2.0117855760239407,10.0,225.0],["methocarbamol_BRD-A31521121-001-26-4::2.5::HTS002",0.1817001079978272,-3.3691745303465903,21.0,317.0],["bendamustine_BRD-K17068645-003-04-2::0.00061034::HTS002",0.14906392006670238,-3.214850558673821,23.0,449.0]],"bottom":[["decitabine_BRD-K79254416-001-22-6::2.5::HTS002",-0.18737347361707038,-3.754369867991132,15.0,350.0],["lucitanib_BRD-K31309378-001-01-5::0.0024414::HTS002",-0.15657068310708225,-3.439361620291761,23.0,444.0],["decitabine_BRD-K79254416-001-22-6::10::HTS002",-0.17113157297163986,-3.259815774093999,15.0,350.0],["obatoclax_BRD-K15600710-066-04-1::0.00061034::HTS002",-0.1929836278228509,-3.9862104577081587,18.0,353.0],["radezolid_BRD-K84683831-001-01-0::0.625::HTS002",-0.17833103542694934,-3.7115456010783365,19.0,378.0],["talazoparib_BRD-K95142244-001-01-5::0.00977::MTS010::PROS003_PR500",-0.1566399921657574,-3.390064752920107,23.0,435.0],["dabrafenib_BRD-K09951645-001-11-8::0.625::MTS010::PROS001_PR500",-0.1591016167875502,-3.4790290807393816,24.0,435.0],["decitabine_BRD-K79254416-001-22-6::0.625::HTS002",-0.17623974980086723,-3.411127712199822,15.0,350.0],["AST-1306_BRD-K26838195-075-04-9::10::HTS002",-0.16975139482681412,-3.496618306186805,19.0,387.0],["adefovir-dipivoxil_BRD-K96159438-001-06-3::10::HTS002",-0.1428781272180979,-2.580996360241331,16.0,367.0]]}}}
{"ccle_proteomics":{"corr":{"top":[["THOC6_Q86W42",0.17160333373290718,-3.0578284114257155,18.0,355.0],["UNNAMED_A6NP81",0.21073946000503918,-1.8156541783209617,8.0,124.0],["XAB2_Q9HCS7",0.1618235881219454,-2.765630550401065,18.0,355.0],["IL27RA_Q6UWB1",0.22174705791840194,-2.5087988182204026,10.0,166.0],["SUPT20H_Q8NEM7",0.1760990934006935,-3.1312355823513975,17.0,347.0],["HCFC1_P51610-4",0.1848076810283886,-3.477604904728715,18.0,355.0],["TCEANC2_Q96MN5",0.16915461153111105,-1.7356185649538698,11.0,183.0],["SF3B3_Q15393",0.16607335994641598,-2.890668092304961,18.0,355.0],["TAF6_P49848-3",0.16162056660726679,-2.7597313128928143,18.0,355.0],["TAF5_Q15542",0.17415358453868177,-3.1366267038992,18.0,355.0],["KDM1A_O60341",0.17628848549682669,-3.2034255508485048,18.0,355.0],["SART1_O43290",0.16307069022003257,-2.8020158430679603,18.0,355.0],["HDAC1_Q13547",0.16631789779929446,-2.8979532362015576,18.0,355.0],["AAAS_Q9NRG9",0.17860991762209366,-3.2769267007271488,18.0,355.0],["ARID4A_P29374",0.17044735500362085,-3.0224668716236294,18.0,355.0],["GPATCH8_Q9UKJ3",0.19265211954016792,-3.7409548460339344,18.0,355.0],["SAP130_Q9H0E3-3",0.179365086347172,-3.3010318568486987,18.0,355.0],["BANP_Q8N9N5",0.1801388836530348,-3.32583115122059,18.0,355.0],["SERPINA3_P01011",0.19756651904866357,-2.4211942884250317,10.0,203.0]],"bottom":[["TYW5_A2RUC4",-0.15097753073359077,-2.1720716603222296,15.0,306.0],["HLA-C_P10321",-0.22192738573093032,-3.916314590108446,11.0,284.0],["CLN8_Q9UBY8",-0.19772469430230583,-2.0788696389553536,11.0,166.0],["FAM188A_Q9H8M7",-0.1528652073699124,-2.1544040118612826,16.0,294.0],["RIPK2_O43353",-0.15264531280882052,-2.5056393922698517,18.0,355.0],["GPRIN3_Q6ZVF9",-0.17951532558006894,-1.7744230988480976,9.0,168.0],["KIAA0513_O60268",-0.18137823097777994,-2.0907627352121136,11.0,201.0],["CHMP4C_Q96CF2",-0.16139682945498826,-2.6970801589029976,17.0,347.0],["OGFOD3_Q6PK18-2",-0.16973668662454414,-2.877210019498376,16.0,339.0],["MMP1_P03956",-0.20629513416837028,-2.3252838100394886,13.0,173.0],["PRUNE2_Q8WUY3-3",-0.219555788418828,-3.8307288267342434,14.0,280.0],["SELK_Q9Y6D0",-0.1552434048408613,-2.0565982180729865,14.0,270.0]]},"para":{"top":[["E2F6_O75461",0.15188962581470275,-1.9128500596997609,8.0,213.0],["GPANK1_O95872",0.15066096184208974,-2.1411261469136096,10.0,255.0],["INCENP_Q9NQS7",0.16764843554807984,-3.211938073214662,18.0,355.0],["KCTD2_Q14681",0.1694223132873641,-1.8627996718173572,8.0,163.0],["IL27RA_Q6UWB1",0.20628090852007658,-2.4936568968801494,10.0,166.0],["KRAS_P01116-2",0.17570307566109836,-2.0702928475335876,8.0,178.0],["GRAP_Q13588",0.197380358370003,-2.1020740877821074,8.0,143.0],["HNRNPK_Q5T6W1",0.20161765782945074,-2.3436228450273813,8.0,161.0],["KDM1A_O60341",0.17339933933550997,-3.383037212433483,18.0,355.0],["MIS12_Q9H081",0.1686359696452099,-3.2409626770310638,18.0,355.0],["TRANK1_O15050",0.17448925650065672,-1.975063103132239,8.0,168.0],["CCHCR1_Q8TD31-2",0.2328579884014127,-2.0627895324504983,8.0,98.0],["MECP2_P51608-2",0.1598062252971484,-2.9866778707161807,18.0,355.0],["SMC1B_Q8NDV3-3",0.15032531765170926,-2.3890806963181914,13.0,298.0],["SERPINA3_P01011",0.15774297703019216,-1.9629282865212088,10.0,203.0]],"bottom":[["LY6D_Q14210",-0.16167347190853387,-1.9112504816339477,8.0,187.0],["TYW5_A2RUC4",-0.15960599315809534,-2.665404310838167,15.0,306.0],["HLA-C_P10321",-0.1632439770384224,-2.5888885655735185,11.0,284.0],["FAM188A_Q9H8M7",-0.16243994051449182,-2.6658246154582304,16.0,294.0],["PLEKHA5_Q9HAU0",-0.18898123966308064,-1.9729134347677482,9.0,141.0],["HSH2D_Q96JZ2-2",-0.14158522587689656,-1.7552716459860418,8.0,215.0],["SLC2A8_Q9NY64",-0.15628831804689344,-2.0968513425536743,11.0,228.0],["TNFRSF19_Q9NS68-2",-0.15967888079545198,-1.5269169177891273,8.0,133.0],["GPRIN3_Q6ZVF9",-0.22423147342305313,-2.8291248423703843,9.0,168.0],["KIAA0513_O60268",-0.1704528907100118,-2.1745202393654215,11.0,201.0],["PPP1R12C_Q9BZL4-3",-0.16775488083921072,-1.945110385848478,9.0,177.0]]}}}
{"depmap_copy_number":{"corr":{"top":[],"bottom":[["KIR3DL2_3812",-0.07493359296833657,-2.730361305112368,52.0,1670.0],["LOC100128398_100128398",-0.07091937265218702,-2.4901726267486195,52.0,1670.0]]},"para":{"top":[],"bottom":[]}}}
{"depmap_gene_tpm":{"corr":{"top":[],"bottom":[["ZNF34_80778",-0.1035856611130137,-3.734905657937096,45.0,1254.0],["RAMP1_10267",-0.09706590480707411,-3.3377203644695914,45.0,1254.0],["SEC22B_9554",-0.0923846720088111,-3.066900908961473,45.0,1254.0],["LYSMD1_388695",-0.08567976139288183,-2.6997290498572384,45.0,1254.0]]},"para":{"top":[],"bottom":[]}}}
{"avana":{"corr":{"top":[["SYCP2_10388",0.10890445439741302,-2.5974832531819723,26.0,741.0],["BCO2_83875",0.10164592995131859,-2.288093674362611,26.0,730.0],["SYNJ1_8867",0.10429708786500137,-2.4165633344174173,26.0,741.0],["FGF6_2251",0.12482595803885585,-3.2754504274758176,26.0,741.0],["CCR3_1232",0.1029594956895533,-2.3653084219429106,26.0,741.0],["REL_5966",0.11516528386064824,-2.8542609535737893,26.0,741.0],["PABPC1_26986",0.10153974891792696,-2.311527664739565,26.0,741.0],["EIF6_3692",0.12907025421178764,-3.4701741142598586,26.0,741.0],["TSR1_55720",0.13261628303223605,-3.637431635732906,26.0,741.0],["RABEPK_10244",0.10290917662911642,-2.363391365280229,26.0,741.0],["ST8SIA1_6489",0.12947456690776085,-3.4890339672063355,26.0,741.0],["EFCAB2_84288",0.11554448654161663,-2.8702202002671533,26.0,741.0],["RPS27A_6233",0.12259249620244773,-3.175363213843548,26.0,741.0],["SMARCD3_6604",0.11948038833571542,-3.001547788983249,26.0,730.0],["CDH15_1013",0.10122843041348882,-2.29982026578663,26.0,741.0],["TRAK1_22906",0.11014066693836637,-2.6471836055054037,26.0,741.0],["CDK7_1022",0.10589212490044143,-2.4488375991773896,26.0,730.0],["PIK3CD_5293",0.10110341958305552,-2.2951277723596393,26.0,741.0],["CYHR1_50626",0.10832234418963116,-2.5742501943589393,26.0,741.0],["CER1_9350",0.1389906636294694,-3.9486272792682233,26.0,741.0],["B3GNTL1_146712",0.1090308867417165,-2.602543768460182,26.0,741.0],["SPATA33_124045",0.12034577757692806,-3.0763317760925846,26.0,741.0],["BCL6B_255877",0.10123913416441552,-2.3002222794386418,26.0,741.0],["FAM151B_167555",0.10819076862674336,-2.5690138394958297,26.0,741.0],["EEF1G_1937",0.10586867789543687,-2.4775131972398037,26.0,741.0]],"bottom":[["UGDH_7358",-0.10906666560846905,-2.6039767664148874,26.0,741.0],["OR6C74_254783",-0.12591086284815053,-3.324659531398138,26.0,741.0],["PTN_5764",-0.11911971473819911,-3.0229849838773433,26.0,741.0],["KRT38_8687",-0.1111531692318432,-2.6882560763808314,26.0,741.0],["CREG2_200407",-0.10821075959627212,-2.569809068877174,26.0,741.0],["NADK2_133686",-0.11877190085151709,-3.0079406762354863,26.0,741.0],["AVL9_23080",-0.12512302755437588,-3.2888863898034355,26.0,741.0],["HARBI1_283254",-0.1276177094074599,-3.402863774684786,26.0,741.0],["ITIH3_3699",-0.1099313600928338,-2.638734151227075,26.0,741.0],["NUPR1_26471",-0.11605761296091051,-2.8918900663347356,26.0,741.0],["MARCH4_57574",-0.1161292482690558,-2.8949220976963934,26.0,741.0],["CMTR2_55783",-0.11282546639918714,-2.756816760738843,26.0,741.0],["DMPK_1760",-0.11405547503463784,-2.8078209216087506,26.0,741.0],["EFR3B_22979",-0.10606256087882436,-2.485087052209566,26.0,741.0],["KRTCAP3_200634",-0.12149774149181466,-3.1269019696078013,26.0,741.0],["DHRS11_79154",-0.11704069308505921,-2.9336453568686056,26.0,741.0],["PIWIL1_9271",-0.11154525149083869,-2.704249690940882,26.0,741.0],["LGI4_163175",-0.11981468009095804,-3.053163136241798,26.0,741.0],["PHKA1_5255",-0.11011376582624227,-2.5098863145574515,23.0,697.0],["PKDCC_91461",-0.12680593315072297,-3.3655500032436163,26.0,741.0],["STK10_6793",-0.1081013521059639,-2.565458469513597,26.0,741.0],["TACC3_10460",-0.1184868022630506,-2.9956384583485653,26.0,741.0],["DHRS4L2_317749",-0.11922970087476464,-3.0277505227632173,26.0,741.0],["SLC7A9_11136",-0.10870268113281284,-2.589417809714246,26.0,741.0],["TBC1D10A_83874",-0.10755958816383139,-2.543971709460081,26.0,741.0],["PRPH_5630",-0.1252900268554565,-3.296452241251681,26.0,741.0],["UROC1_131669",-0.13781122762428766,-3.8900228321259074,26.0,741.0],["CORIN_10699",-0.15581386317564394,-4.835752023096545,26.0,741.0],["TGM7_116179",-0.1277829641595134,-3.410486458621298,26.0,741.0],["DERL3_91319",-0.10683276223350702,-2.515292907063555,26.0,741.0],["HACE1_57531",-0.11106467086337894,-2.6846529487852915,26.0,741.0],["GRAMD1A_57655",-0.12683043834481622,-3.3666732157154584,26.0,741.0],["DCAF4L1_285429",-0.1329016789325012,-3.6510746466220843,26.0,741.0],["GLYCTK_132158",-0.13820472759179622,-3.9095234115135344,26.0,741.0],["ABCB11_8647",-0.11647670262300408,-2.90965206753637,26.0,741.0],["CHRM1_1128",-0.10834384885618942,-2.575106550298911,26.0,741.0],["BCKDHA_593",-0.12773934076717747,-3.4084733719478675,26.0,741.0],["TBC1D23_55773",-0.15017797866114493,-4.527837872752152,26.0,741.0],["LTF_4057",-0.10667727617015359,-2.5091797530542084,26.0,741.0],["ENDOU_8909",-0.14060343881698104,-4.02951966388433,26.0,741.0],["FBH1_84893",-0.1049246650774277,-2.4408077249983386,26.0,741.0],["FILIP1L_11259",-0.11305110919480858,-2.7661367522782085,26.0,741.0]]},"para":{"top":[["EIF6_3692",0.1405188249728658,-4.297551011342166,26.0,741.0],["CER1_9350",0.1389727106526402,-4.22137096194026,26.0,741.0]],"bottom":[["PIWIL1_9271",-0.12847897546982562,-3.7242632969814635,26.0,741.0],["HACE1_57531",-0.12602231020512236,-3.6128924849146573,26.0,741.0],["TBC1D23_55773",-0.15760111340982597,-5.189715098492498,26.0,741.0]]}}}
{"drive":{"corr":{"top":[["ATG4A_115201",0.11497625657258011,-1.6220122594604955,21.0,365.0],["CCR10_2826",0.11943349774898901,-1.6732582093862134,21.0,351.0],["YTHDC2_64848",0.13523195128843726,-2.0450384302386513,21.0,351.0],["ITLN1_55600",0.12486833153447047,-1.851054869004139,21.0,365.0],["MIR141_406933",0.14112952154158073,-2.1937604568711127,21.0,351.0],["TSPAN4_7106",0.1561758485600553,-2.6157495922911727,20.0,355.0],["LOC102723414&LOC102723608&LOC102723819&LOC102723933&LOC105371747&LOC105379635_102723414&102723608&102723819&102723933&105371747&105379635",0.13323123435731085,-2.039442358036074,21.0,361.0],["ANTXR2_118429",0.13603722876275612,-2.065024087375112,21.0,351.0],["LYL1_4066",0.10919934300033199,-1.486246595520317,21.0,362.0],["SLC20A2_6575",0.1575882520717293,-2.6558759727829098,20.0,355.0]],"bottom":[["GPR158_57512",-0.17552869223421277,-3.2744708173418906,21.0,365.0],["L3MBTL3_84456",-0.15656592520262025,-2.626799133145799,20.0,355.0],["BTN1A1_696",-0.16007175565897333,-2.7088099468422744,21.0,351.0],["IL17REL_400935",-0.1640211725626743,-2.823490801960105,21.0,351.0],["DMRT2_10655",-0.1465769855943855,-2.3516231928212097,20.0,355.0],["DMXL1_1657",-0.15145475838159206,-2.483979458751163,20.0,355.0],["OR4N5_390437",-0.16637715060514152,-2.893117125435416,21.0,351.0],["DUSP2_1844",-0.1639039912664009,-2.8200514856701386,21.0,351.0],["EMX2_2018",-0.18485475389054923,-3.495287969342408,20.0,355.0],["ELL2_22936",-0.20324605752383945,-4.103727619947055,21.0,351.0],["PHC1_1911",-0.1846240923697411,-3.487662548566493,20.0,355.0],["ALAS1_211",-0.16591117577552109,-2.8792739067493884,21.0,351.0],["SFTA3_253970",-0.15623702488125307,-2.5998871291017545,21.0,351.0],["MAGEE1_57692",-0.15285416948563874,-2.505773543029006,21.0,351.0],["SPP1_6696",-0.1513075895852598,-2.4799299341551206,20.0,355.0],["NOTCH3_4854",-0.1547190013385068,-2.574701266562715,20.0,355.0],["MAP4K5_11183",-0.1590063231636801,-2.696491271492222,20.0,355.0],["KIF21B_23046",-0.17737390005687487,-3.252587792251982,20.0,355.0],["SRGAP2_23380",-0.14705374491854373,-2.34867791107403,21.0,351.0],["EN1_2019",-0.16569311975602147,-2.892459338920959,20.0,355.0],["CD2AP_23607",-0.17706099005075948,-3.220353293842086,21.0,351.0],["RAB27B_5874",-0.15705826117028723,-2.623013227953667,21.0,351.0],["EIF2AK4_440275",-0.16314722039201765,-2.7978940707477817,21.0,351.0],["SCGB3A1_92304",-0.1703672826856715,-3.0131197747284033,21.0,351.0],["SLC6A3_6531",-0.1654103458533924,-2.884022850745819,20.0,355.0],["VIM_7431",-0.16272899611824704,-2.8046820772191436,20.0,355.0],["FXYD5_53827",-0.17044129948906364,-3.0361017147331393,20.0,355.0],["SLIT2_9353",-0.20046400675168263,-4.004286068408313,21.0,351.0],["IL1RAP_3556",-0.1732224692299344,-3.1006040501012766,21.0,351.0]]},"para":{"top":[["PABPC5_140886",0.1540733903063699,-2.822327447013586,21.0,351.0]],"bottom":[["SRGAP2_23380",-0.17430187142581674,-3.403358390976602,21.0,351.0],["CD2AP_23607",-0.20629881648539075,-4.449118055903548,21.0,351.0]]}}}
{"achilles":{"corr":{"top":[["VSIG10L_147645",0.16345220285914677,-2.2002143486974433,14.0,264.0],["NT5C1B_93034",0.18049260211953433,-2.098025502099854,11.0,204.0],["OR2W3_343171",0.17925163273058817,-2.5680812948476537,14.0,264.0],["LRGUK_136332",0.16752918525131139,-2.2922337742008936,14.0,264.0],["INTS6L_203522",0.16658575667061104,-2.270761585224554,14.0,264.0],["MESD_23184",0.15449798265608758,-2.0051133383132957,14.0,264.0],["HEXIM2_124790",0.15953543066771247,-2.1136945669096208,14.0,264.0],["DCAF6_55827",0.1773622195073308,-2.522481472247933,14.0,264.0],["CXCL17_284340",0.17215188434517617,-2.3990069195537718,14.0,264.0],["ATRAID_51374",0.18934273300446555,-2.819126288529478,14.0,264.0],["ZNF510_22869",0.1595089793187435,-3.423314048224757,25.0,468.0],["KATNAL1_84056",0.16615948189265148,-2.2610950013674715,14.0,264.0],["GOLGA6D_653643",0.16763803434441274,-2.294718085641237,14.0,264.0],["HSBP1L1_440498",0.16713110231538067,-2.2831603707571344,14.0,264.0],["TMEM165_55858",0.17587846460167691,-2.4869802267227055,14.0,264.0],["CPSF7_79869",0.15611821641739082,-2.039707881245075,14.0,264.0],["NABP2_79035",0.16152021208048167,-2.1573076059783087,14.0,264.0],["RNF151_146310",0.1744886387420116,-2.453971716076043,14.0,264.0],["CHADL_150356",0.18537337910590684,-2.7188625394601065,14.0,264.0],["PALB2_79728",0.1680960286457764,-2.3051868246169227,14.0,264.0],["ZNHIT6_54680",0.15103678143068108,-1.9322522176777337,14.0,264.0],["FAM9B_171483",0.17437664672489564,-2.4513222083246204,14.0,264.0],["PHIP_55023",0.17511692963271944,-2.4688643366067877,14.0,264.0],["FAM19A1_407738",0.19450799137366057,-2.9525642980574336,14.0,264.0],["KRTAP4-8_728224",0.15915811218291231,-2.1054567836025257,14.0,264.0],["GMFG_9535",0.17025558312625674,-3.8368428751885784,25.0,468.0],["NIPSNAP2_2631",0.17134047742311034,-2.380077185754937,14.0,264.0],["ARHGAP18_93663",0.16468618064462395,-3.619360235832095,25.0,468.0],["ZNF71_58491",0.15079917709119106,-3.1066751552572116,25.0,468.0],["VGLL2_245806",0.1716765404379401,-2.387907630298905,14.0,264.0],["PRMT8_56341",0.1602502132246226,-3.4510225807903265,25.0,468.0],["NOL4L_140688",0.16429247357774274,-2.21901559869982,14.0,264.0],["TIGD7_91151",0.15381834651078716,-1.9906946965334422,14.0,264.0],["ZNF784_147808",0.16314407836730405,-3.560350596597838,25.0,468.0],["PLEKHD1_400224",0.15403381081394074,-1.9952599009447558,14.0,264.0],["C6orf52_347744",0.1575127894859417,-2.0697339747797345,14.0,264.0],["ERP27_121506",0.18546008282304857,-2.7210315713507134,14.0,264.0],["BCAR3_8412",0.17037429711388818,-3.841553301821295,25.0,468.0],["POM121L2_94026",0.16823175257546263,-2.308294058727625,14.0,264.0],["VNN1_8876",0.16873820330873546,-2.319908358153482,14.0,264.0],["PF4V1_5197",0.16394024530420148,-2.211124061721892,14.0,264.0],["RER1_11079",0.16877346083096362,-2.320718068387406,14.0,264.0],["OR8D1_283159",0.1610421145557287,-2.1467588914548332,14.0,264.0],["APH1B_83464",0.16269563354987354,-2.183358615374088,14.0,264.0],["PLET1_349633",0.1667766157821364,-2.2750967972488496,14.0,264.0],["APOOL_139322",0.15389884204102897,-1.9923995728681558,14.0,264.0],["ENOX1_55068",0.17174213674333275,-2.38943766540048,14.0,264.0],["KBTBD6_89890",0.15419437073130166,-1.9986653789920275,14.0,264.0],["ASPM_259266",0.15469790857943452,-2.009365230096916,14.0,264.0],["MFSD5_84975",0.16095603368546815,-2.144862518624865,14.0,264.0],["COMMD8_54951",0.16252416865399302,-2.1795480836637475,14.0,264.0],["ZNF727_442319",0.1542399613795817,-1.9996329137981086,14.0,264.0],["TM7SF3_51768",0.21636542220128657,-3.5550121856212815,14.0,264.0],["SPX_80763",0.15746122335122367,-2.0686196003622537,14.0,264.0],["CD99L2_83692",0.16890858639098238,-2.323822705768517,14.0,264.0]],"bottom":[["KATNAL2_83473",-0.1564878677061206,-2.0476441895110127,14.0,264.0],["PPP1R8_5511",-0.15751856240102588,-3.3495020381592027,25.0,468.0],["RABGEF1_27342",-0.17478567475612708,-4.018813369217324,25.0,468.0],["ASB8_140461",-0.16154711965409657,-2.157902107586276,14.0,264.0],["YPEL4_219539",-0.1771570736053489,-2.517556886717997,14.0,264.0],["RRP1_8568",-0.18017098363980247,-2.590428688293011,14.0,264.0],["KLHL11_55175",-0.16735881480760856,-2.2883482147741834,14.0,264.0],["SEC23B_10483",-0.14453119633171763,-2.8889305340558145,25.0,468.0],["LOC100652833_100652833",-0.14457378158783035,-1.7999721297541644,14.0,264.0],["C3orf67_200844",-0.17877308839216519,-2.556490270695331,14.0,264.0],["TMEM220_388335",-0.16135104439418949,-2.1535719681030976,14.0,264.0],["FAM57B_83723",-0.18039234458066697,-2.595825100868565,14.0,264.0],["GDAP2_54834",-0.16284343250118774,-2.18664604439299,14.0,264.0],["ARHGAP42&TMEM133_143872&83935",-0.1540999722203825,-1.9966628154838695,14.0,264.0],["ZZZ3_26009",-0.14554433637636652,-1.8195249230588657,14.0,264.0],["FUT7_2529",-0.14510216009164162,-2.9084171701136916,25.0,468.0],["CCT7_10574",-0.1713421929731062,-2.3801171239976977,14.0,264.0],["BAIAP3_8938",-0.17170020046654044,-2.3884594404055193,14.0,264.0],["CCDC115_84317",-0.20633431969541824,-3.2708659715856157,14.0,264.0],["RAB6B_51560",-0.16811271849053022,-3.7523536469584347,25.0,468.0],["CYTH1_9267",-0.15736829514778336,-2.0666121669556663,14.0,264.0],["FMOD_2331",-0.1777616882996979,-2.5320857080056074,14.0,264.0],["MRPL34_64981",-0.15523470765019723,-2.0208049602449005,14.0,264.0],["WDR12_55759",-0.1975954249847549,-3.033937201965232,14.0,264.0],["CEP85_64793",-0.19163400984793622,-2.8779031139615423,14.0,264.0],["TBC1D31_93594",-0.15008215417204226,-1.9124051775559403,14.0,264.0],["AIF1L_83543",-0.14559193239576373,-2.925188254495707,25.0,468.0],["WDR3_10885",-0.21161007901460427,-3.4186735554357504,14.0,264.0],["PRIMPOL_201973",-0.1527804378521479,-1.9687806955477412,14.0,264.0],["RGPD3_653489",-0.1500897191726254,-3.081605949690739,25.0,468.0],["ANKRD13A_88455",-0.18837461772389041,-2.7944901724386426,14.0,264.0],["FAM133DP&FAM133CP_728066&728640",-0.18320683622797745,-2.664967327755153,14.0,264.0],["MEPE_56955",-0.15304053815266788,-1.974260392095396,14.0,264.0],["MMACHC_25974",-0.22801440388133246,-3.901615557783991,14.0,264.0],["NRDE2_55051",-0.16920544520113887,-2.3306511034797674,14.0,264.0],["SFMBT2_57713",-0.17235866066483052,-2.4038437590171267,14.0,264.0],["NIFK_84365",-0.1742549951036802,-3.997259904998524,25.0,468.0],["RFPL4B_442247",-0.17536563726185767,-2.4747729269726393,14.0,264.0],["TRNAU1AP_54952",-0.15501812692834233,-2.016185293883242,14.0,264.0],["HJURP_55355",-0.19188051615870047,-2.8842660104032674,14.0,264.0],["PLEKHH1_57475",-0.16890339073536637,-2.323703289692166,14.0,264.0],["MPDZ_8777",-0.16766149117660814,-2.295253639396217,14.0,264.0],["SPACA7_122258",-0.14742962932830073,-1.8578203297984586,14.0,264.0],["CDCA7_83879",-0.14950108253513186,-1.9003769760416864,14.0,264.0],["MSH3_4437",-0.16401220311329995,-3.5935057198171774,25.0,468.0],["ASIC5_51802",-0.14428433539936777,-1.7941621990275454,14.0,264.0]]},"para":{"top":[["CCDC169_728591",0.15874680282240572,-2.382915107953551,14.0,264.0],["OR2W3_343171",0.1729919244109587,-2.6979954037430662,14.0,264.0],["INTS6L_203522",0.15372483665970166,-2.277183794537585,14.0,264.0],["DCAF6_55827",0.16622783646364495,-2.5455798996728913,14.0,264.0],["ATRAID_51374",0.15628711367847448,-2.330782465558055,14.0,264.0],["KATNAL1_84056",0.1585415703462465,-2.3785397499020577,14.0,264.0],["GOLGA6D_653643",0.1715569656227754,-2.6652364617502027,14.0,264.0],["MAIP1_79568",0.15802935274982127,-2.3676400145012813,14.0,264.0],["TMEM165_55858",0.16171859591050533,-2.4467919044557607,14.0,264.0],["NABP2_79035",0.1708397021270428,-2.648947783999343,14.0,264.0],["RNF151_146310",0.16151378724625054,-2.442358378309671,14.0,264.0],["PALB2_79728",0.19369351056171435,-3.1961997375794446,14.0,264.0],["FAM9B_171483",0.1721718651411366,-2.679246062417117,14.0,264.0],["FAM19A1_407738",0.1759637700749922,-2.7665694623798,14.0,264.0],["RABEPK_10244",0.15167534160388213,-2.2348310492137533,14.0,264.0],["GMFG_9535",0.17026245179175353,-4.098428479510829,25.0,468.0],["NIPSNAP2_2631",0.1721718651411366,-2.679246062417117,14.0,264.0],["ZNF71_58491",0.17010008793496506,-4.092155449508832,25.0,468.0],["VGLL2_245806",0.17319667348749618,-2.702688345558958,14.0,264.0],["PRMT8_56341",0.15525648980629184,-3.541192482404485,25.0,468.0],["TIGD7_91151",0.15659438880999654,-2.33725867463486,14.0,264.0],["ERP27_121506",0.17360670340849005,-2.712100444542508,14.0,264.0],["BCAR3_8412",0.18507357749094602,-4.693202083470164,25.0,468.0],["VNN1_8876",0.1698148451688743,-2.625773069926458,14.0,264.0],["PLET1_349633",0.1713520469700026,-2.6605770285093877,14.0,264.0],["APOOL_139322",0.16561302944653036,-2.531978206833846,14.0,264.0],["TM7SF3_51768",0.1885695542627464,-3.0684128868027267,14.0,264.0]],"bottom":[["ASB8_140461",-0.1702248259486812,-2.635029805230821,14.0,264.0],["YPEL4_219539",-0.1807804836414014,-2.8798058001942466,14.0,264.0],["RRP1_8568",-0.1625389386674731,-2.4645964594276384,14.0,264.0],["KLHL11_55175",-0.16233347284735736,-2.4601300920482534,14.0,264.0],["C3orf67_200844",-0.20865604890861375,-3.5862984919088823,14.0,264.0],["FAM57B_83723",-0.17022473087151574,-2.635027657662849,14.0,264.0],["NSUN5_55695",-0.17114700871249622,-2.6559195516245078,14.0,264.0],["ZZZ3_26009",-0.16694526585773584,-2.5615049359422684,14.0,264.0],["CCT7_10574",-0.1860090782854495,-3.0056622614073665,14.0,264.0],["CYTH1_9267",-0.15608214697201098,-2.326468316186026,14.0,264.0],["PKP1_5317",-0.14931818310866019,-2.1866902059311117,14.0,264.0],["WDR12_55759",-0.22607887703142532,-4.072533054039522,14.0,264.0],["TBC1D31_93594",-0.15495478681229072,-2.302822233885532,14.0,264.0],["EAF1_85403",-0.19963743271385478,-3.3481399840676342,14.0,264.0],["WDR3_10885",-0.2246436357564321,-4.031172048012872,14.0,264.0],["ANKRD13A_88455",-0.18446985550836068,-2.968293883167137,14.0,264.0],["FAM133DP&FAM133CP_728066&728640",-0.18385564915165925,-2.9534566333266037,14.0,264.0],["TRNAU1AP_54952",-0.15772174848305945,-2.3611082525573117,14.0,264.0],["MCFD2_90411",-0.15147020572202607,-2.230617309032651,14.0,264.0],["HJURP_55355",-0.1928735361229336,-3.175551822934486,14.0,264.0],["ZFYVE28_57732",-0.1583365817594927,-2.374174224436958,14.0,264.0],["MPDZ_8777",-0.17442644799654147,-2.730973551655211,14.0,264.0],["PLEKHH1_57475",-0.17370913819284323,-2.7144547245586503,14.0,264.0],["ASIC5_51802",-0.1549547435381564,-2.3028213295041637,14.0,264.0]]}}}
{"ccle_rrbs_tss1kb":{"corr":{"top":[["AHCYL1_1_110526386_110527386",0.2020411042207027,-8.349042053674498,33.0,795.0],["ZEB1_10_31607100_31608100",0.1809838849685096,-6.83947531561736,34.0,799.0],["UBXN2A_2_24162375_24163375",0.21920682417942122,-9.696256307772128,33.0,791.0],["PRELID1_5_176729762_176730762",0.18586515716922455,-7.184703803087638,34.0,799.0],["PTPRU_1_29562027_29563027",0.16610786871340993,-5.831400111782012,34.0,797.0],["YTHDF2_1_29062451_29063451",0.16533359828117525,-5.788280027331848,34.0,798.0],["CASC3_17_38295506_38296506",0.18979066288447194,-7.428008010566537,33.0,795.0],["TRRAP_7_98475112_98476112",0.18559047585233124,-7.141457846885882,34.0,796.0],["MRPL22_5_154319632_154320632",0.1793695099684435,-6.675902155814471,32.0,794.0],["GUSBP2_6_26924333_26925333",0.25785412245967465,-6.073274080230432,10.0,345.0],["USP42_7_6143549_6144549",0.2690042086490619,-14.515531048833319,34.0,797.0],["ANKRD46_8_101572014_101573014",0.20009294602994898,-8.198618110042952,33.0,795.0],["MTMR14_3_9690116_9691116",0.18449121003560257,-7.001155731380396,34.0,788.0],["FBXL5_4_15657035_15658035",0.19203695685405528,-7.491569313428825,34.0,782.0],["SRFBP1_5_121296655_121297655",0.22510267400927225,-10.233767536534849,34.0,793.0],["LOC101929188_6_33601522_33602522",0.17186549046108723,-6.158453549361988,34.0,790.0]],"bottom":[["ALS2CL_3_46735203_46736203",-0.11017526630576865,-2.8332765476345587,34.0,797.0],["PKNOX1_21_44393619_44394619",-0.11357876559997974,-2.9804695746774876,33.0,797.0],["HIST1H2BO_6_27860202_27861202",-0.08363812357775746,-1.472481982936836,27.0,618.0],["MYCBP2-AS1_13_77648648_77649648",-0.12348741212259165,-3.451319831888971,34.0,799.0],["FNDC11_20_62183372_62184372",-0.10105724816113533,-2.4359907183026848,33.0,792.0],["MIR635_17_66420689_66421689",-0.1066747686064361,-2.6884003750195147,34.0,799.0],["SETMAR_3_4343987_4344987",-0.11125400387665811,-2.886316461262178,34.0,799.0],["SNORD105B_19_10219424_10220424",-0.12957507822584025,-3.7523738393579285,34.0,799.0],["RPL11_1_24017295_24018295",-0.08186421611015877,-1.7318413205561076,34.0,793.0]]},"para":{"top":[["EID3_12_104696509_104697509",0.1427581651056892,-2.045534366584675,11.0,265.0]],"bottom":[["CCNJ_10_97802158_97803158",-0.11448971234550763,-2.9477821054568656,27.0,686.0]]}}}
{"ccle_gene_tpm":{"corr":{"top":[["CTD-2161F6.2_ENSG00000248311.1",0.16284079579880054,-6.7630823223080085,42.0,977.0],["CTD-2017C7.3_ENSG00000259161.2",0.1611508093429605,-6.634664159809722,42.0,977.0]],"bottom":[["RP11-361F15.2_ENSG00000225135.1",-0.10162956177274174,-2.9356821426258337,42.0,977.0],["RAMP1_ENSG00000132329.6",-0.10454735992303692,-3.0806298964610903,42.0,977.0],["ZNF34_ENSG00000196378.7",-0.1127241492195361,-3.506361506285866,42.0,977.0],["KIFAP3_ENSG00000075945.8",-0.11897817274396831,-3.8515801432092758,42.0,977.0],["ZNF211_ENSG00000121417.9",-0.10885465049809613,-3.301291239948549,42.0,977.0],["DMPK_ENSG00000104936.13",-0.10526147066909429,-3.1166611868366045,42.0,977.0],["ZNF264_ENSG00000083844.6",-0.09719188768362544,-2.7222040737307363,42.0,977.0],["TANK_ENSG00000136560.9",-0.09964519601069355,-2.8391852553162,42.0,977.0],["ZNF615_ENSG00000197619.9",-0.11545118440507542,-3.654792862537583,42.0,977.0],["SNTA1_ENSG00000101400.5",-0.10557537404819409,-3.132568906610449,42.0,977.0],["TMEM65_ENSG00000164983.6",-0.10638933680506034,-3.1740156976732186,42.0,977.0],["ZNF234_ENSG00000263002.3",-0.13913009648709548,-5.081386336690085,42.0,977.0],["AP2A1_ENSG00000196961.8",-0.11318472730604391,-3.53120333914462,42.0,977.0],["SCAF1_ENSG00000126461.10",-0.10050420573904831,-2.8807513442872983,42.0,977.0],["PDE4DIP_ENSG00000178104.15",-0.10636810377080425,-3.1729308934470244,42.0,977.0],["IRF2BPL_ENSG00000119669.3",-0.1098732236721539,-3.354643034943314,42.0,977.0],["SEC22B_ENSG00000223380.3",-0.11470215186249445,-3.613700592723964,42.0,977.0]]},"para":{"top":[],"bottom":[]}}}
{"ccle_rrbs_tss_clusters":{"corr":{"top":[["MGAT1_4",0.18693337174169888,-4.4156516142426145,18.0,461.0],["CMTM3_3",0.2205674373990942,-10.021570716941296,35.0,808.0],["GADD45A_1",0.22093117095220172,-5.120553134668971,20.0,383.0],["NMU_1",0.20965360171005618,-3.8836399638501327,11.0,317.0],["SLC27A1_2",0.1813333229117835,-6.848870185596418,33.0,798.0],["MLLT10_5",0.18070186684312375,-4.582322671396261,15.0,520.0],["ANKRD44_1",0.18719554979133704,-7.112508985962675,30.0,782.0],["HIST1H4C_3",0.18280611255351353,-3.5225355393198714,18.0,369.0],["CEP164_3",0.19082698490772992,-6.638442973098013,28.0,696.0],["ABI3_1",0.17972601527817006,-4.665533369483927,16.0,536.0],["ZEB1-AS1_1",0.19446309750413904,-7.901603708860691,35.0,808.0],["C11orf97_1",0.2037354094787667,-4.014191343920456,18.0,343.0],["ZNF433_2",0.19101849108447927,-5.704217173140722,21.0,590.0],["VWA5A_2",0.18554024104493372,-5.805937731432833,27.0,634.0],["ZNF514_1",0.23004889872919226,-6.128002885041453,21.0,432.0],["EIF4G3_1",0.2140251722823621,-9.443257159918147,35.0,806.0],["ZEB1_4",0.19025480324922903,-7.585608080057822,35.0,808.0],["NUDT10_2",0.26374220028572437,-4.50503574598321,13.0,230.0],["GOLGA2P9_2",0.1938838853856007,-2.78289063799478,9.0,252.0]],"bottom":[["TPD52L1_2",-0.10935250030641415,-2.4723703796850423,30.0,687.0],["SH3YL1_4",-0.12290795862104371,-2.7965456474542814,22.0,635.0],["GRAMD4_5",-0.10495330079445772,-1.9742838877166902,20.0,572.0],["SCN4A_3",-0.14382600469879978,-1.6760403468955893,8.0,249.0],["CYCSP52_2",-0.17078924279673974,-3.5913112044361886,14.0,440.0],["MIR3198-1",-0.10898145343834569,-2.815358771482182,35.0,808.0],["TACC1_7",-0.11628308643938377,-3.143996955944526,35.0,808.0],["MRPL37",-0.13947517050768318,-2.2131570762478887,16.0,369.0],["HOXA10-AS_3",-0.12635933386515977,-3.1160880617989757,28.0,678.0],["LGALS12_1",-0.14363166522636212,-2.725583337698778,20.0,446.0],["MYCBP2-AS1",-0.11698453998059094,-3.1765714796745086,35.0,808.0]]},"para":{"top":[["PGPEP1L_4",0.1696574466330202,-2.6565640013322764,12.0,271.0],["LSP1P5_5",0.15684670233076656,-2.8040174268947413,10.0,346.0],["TOX2_1",0.17671830187361282,-4.280204173834674,20.0,463.0],["NMU_1",0.20423546905894632,-3.952975689717236,11.0,317.0],["LOC102724927_1",0.18961469503066122,-2.6664196008858507,11.0,217.0],["MAPK4_1",0.14467240800676046,-3.2637064044752373,15.0,496.0],["MIR4508_1",0.17385707330710254,-2.5285624386627727,10.0,242.0],["ASB9_2",0.16688777186117704,-2.813217538691309,10.0,306.0],["POU6F1_1",0.16117956960970126,-5.565353043901453,29.0,768.0],["CAPN5_2",0.1697816260813869,-2.4365592294317353,8.0,243.0],["SAP25_3",0.15742801217116278,-3.358062259188962,14.0,434.0]],"bottom":[["SCN4A_3",-0.14821836041285827,-2.049774907116754,8.0,249.0],["CYCSP52_2",-0.17819816417675963,-4.124630603038826,14.0,440.0]]}}}
{"ccle_rrbs_cgi_clusters":{"corr":{"top":[["1_68148913_68151591-1",0.22093117095220172,-5.120553134668971,20.0,383.0],["7_5519368_5523615-2",0.21412155960735132,-3.490310062864277,10.0,268.0],["9_32551545_32554532-1",0.19127418361395068,-7.569775534459146,33.0,799.0],["2_228029206_228031733-2",0.30609325572211804,-5.316525775713924,8.0,207.0],["11_94243546_94247891-1",0.2037354094787667,-4.014191343920456,18.0,343.0],["5_180234992_180237600-1",0.19395533063861764,-4.708910524595775,18.0,460.0],["1_21501115_21505836-1",0.2140251722823621,-9.443257159918147,35.0,806.0],["6_87859526_87864513-2",0.19566846694331286,-7.827653717520531,34.0,790.0],["23_138771796_138776673-2",0.22077437591147922,-4.384984941899983,20.0,319.0],["11_117196423_117200950-3",0.19082698490772992,-6.638442973098013,28.0,696.0],["5_180477585_180480272-2",0.19586834265910288,-4.837469285405977,19.0,464.0],["4_56499912_56504523-1",0.20965360171005618,-3.8836399638501327,11.0,317.0],["2_95822802_95827721-1",0.21725285657834933,-5.471121883028389,21.0,428.0],["16_66638908_66641561-1",0.2263812116162189,-10.461832100833993,35.0,802.0],["19_12144030_12148649-2",0.19101849108447927,-5.704217173140722,21.0,590.0],["6_108167396_108171790-1",0.19029507916226304,-7.49779729125364,34.0,798.0],["11_77184849_77187504-2",0.21166827547945896,-6.253024286634044,24.0,525.0],["1_150532075_150536301-1",0.2053171613825846,-8.739800321128564,35.0,807.0],["23_51073272_51075802-2",0.26374220028572437,-4.50503574598321,13.0,230.0],["2_95822802_95827721-2",0.19127472300940718,-4.285687439648921,20.0,422.0]],"bottom":[["19_40374867_40379136-3",-0.11634831780667403,-1.7612959693982093,18.0,400.0],["19_5709703_5713980-3",-0.16613455916229286,-3.2725037050609505,18.0,413.0],["17_79043454_79047696-3",-0.13404858312603243,-4.0071502286109,35.0,804.0],["1_5935157_5939392-3",-0.11622920154672067,-2.399420968754961,24.0,588.0],["4_3308005_3312235-1",-0.11960116836647028,-3.2593580398464908,34.0,797.0],["2_261400_264319-2",-0.12290795862104371,-2.7965456474542814,22.0,635.0],["22_47012288_47016698-1",-0.11731733488170361,-3.169433012935027,35.0,801.0]]},"para":{"top":[["24_14098002_14102593-2",0.2084083508766771,-3.263658325034874,8.0,239.0],["2_228029206_228031733-2",0.26963742085359815,-4.3923238996114415,8.0,207.0],["24_14098002_14102593-1",0.17011587790372887,-2.4084061102303207,8.0,238.0],["7_100169148_100171717-2",0.15742801217116278,-3.358062259188962,14.0,434.0],["20_42541097_42544117-1",0.17671830187361282,-4.280204173834674,20.0,463.0],["12_51608892_51613724-1",0.16117956960970126,-5.565353043901453,29.0,768.0],["11_76775569_76780453-2",0.1697816260813869,-2.4365592294317353,8.0,243.0],["4_56499912_56504523-1",0.20423546905894632,-3.952975689717236,11.0,317.0],["3_3841643_3844772-1",0.18852841737017448,-3.5422396304885964,10.0,325.0]],"bottom":[["16_88600570_88603530-1",-0.14356181681179922,-3.230217093985444,17.0,495.0]]}}}
