{"ccle_chromatin":{"corr":{"top":[],"bottom":[]},"para":{"top":[],"bottom":[]}}}
{"ccle_rppa":{"corr":{"top":[],"bottom":[]},"para":{"top":[],"bottom":[]}}}
{"ccle_metabolomics":{"corr":{"top":[],"bottom":[["NAD",-0.09389318765841871,-2.374647050340337,26.0,901.0],["glucuronate",-0.1109567123667489,-3.1463225907952572,26.0,901.0],["C22:0 SM",-0.09284761852173581,-2.331013588373208,26.0,901.0]]},"para":{"top":[],"bottom":[["glucuronate",-0.12239690448380386,-4.008911034348295,26.0,901.0]]}}}
{"ccle_rrbs_enhancer_clusters":{"corr":{"top":[],"bottom":[["10-77019198-77022022-2_enh",-0.15251163069924817,-4.7988769646825515,21.0,773.0],["11-109998895-110002065-1_enh",-0.1275725637589055,-3.4122224527999365,22.0,748.0],["9-81871423-81874224-0_enh",-0.09872464320354059,-2.3034138022279427,22.0,786.0],["6-22146574-22149980-1_enh",-0.0876626569560269,-1.9103073119633613,23.0,792.0],["5-141931165-141934276-1_enh",-0.11871022108021306,-1.9584391546963995,14.0,444.0],["1-44987824-44990486-1_enh",-0.1027845384554852,-2.310255021310166,22.0,726.0],["11-109998895-110002065-2_enh",-0.1321425889822167,-3.651533052521782,22.0,754.0],["6-22146574-22149980-0_enh",-0.09150125151191449,-2.047813152814228,23.0,792.0],["8-49494942-49497734-0_enh",-0.09748129998040608,-2.313085908449498,24.0,809.0],["18-25661863-25666359-0_enh",-0.1325388948303041,-3.727979737782235,23.0,767.0],["1-113538056-113541038-1_enh",-0.23776601838728198,-7.7549191045877635,17.0,531.0],["11-109998895-110002065-0_enh",-0.11345233784215919,-2.7919201996076106,22.0,748.0],["3-193675518-193678844-2_enh",-0.10605568525201219,-2.292653092461443,20.0,676.0],["9-81871423-81874224-2_enh",-0.0818986215162034,-1.6978870963636221,23.0,783.0]]},"para":{"top":[],"bottom":[["10-77019198-77022022-2_enh",-0.12112620983296019,-3.489095474637395,21.0,773.0],["6-22146574-22149980-1_enh",-0.08966543365013814,-2.2784071606510032,23.0,792.0],["9-81871423-81874224-2_enh",-0.12555422028453195,-3.7348486607154543,23.0,783.0]]}}}
{"ccle_mirna":{"corr":{"top":[],"bottom":[["hsa-miR-1254_miR00066.1",-0.07376984847945635,-1.6441938360284356,26.0,928.0]]},"para":{"top":[],"bottom":[]}}}
{"prism_primary_logfold":{"corr":{"top":[["potassium-canrenoate_BRD-K46556543-001-01-4::2.5::HTS",0.0971773760804473,-1.6614434419435118,14.0,543.0]],"bottom":[["lenvatinib_BRD-K39974922-001-04-3::2.5::HTS",-0.10380712664430787,-1.8116688200570943,14.0,530.0],["ivabradine_BRD-K31385749-003-01-3::2.5::HTS",-0.12676905217824072,-2.5377636432817727,15.0,535.0],["adatanserin_BRD-K67789209-001-01-0::2.5::HTS",-0.11671418454634219,-2.238436875019756,15.0,543.0],["cibenzoline_BRD-K34251960-036-01-6::2.459743274::MTS004",-0.11821040604728521,-2.2251127560133157,14.0,526.0],["istradefylline_BRD-K87774949-001-03-9::2.5::HTS",-0.1289013334577477,-2.6495921532689226,14.0,546.0],["capreomycin_BRD-A31362467-065-01-3::2.499984736::MTS004",-0.13393545986665373,-2.7372684943924765,14.0,525.0],["fruquintinib_BRD-K70504253-001-01-3::2.500017504::MTS004",-0.16668644756590892,-4.002030295792162,14.0,526.0],["MD-920_BRD-K92758126-001-18-8::1.44::HTS",-0.10532746273952684,-1.8929248864023624,15.0,543.0],["trans-2-Undecenoic-acid_BRD-K42959922-001-01-5::2.5::HTS",-0.1324867859229254,-2.708362089481437,14.0,530.0],["tivozanib_BRD-K53414658-001-08-2::2.5::HTS",-0.18707090802744622,-4.892837200883416,14.0,523.0],["stavudine_BRD-K93880783-001-26-6::2.5::HTS",-0.10965337547589438,-2.020673473697413,14.0,544.0],["trovafloxacin_BRD-K00494077-066-01-9::2.5::HTS",-0.15485711449432327,-3.500505169806485,14.0,523.0],["erdafitinib_BRD-K84868168-001-01-0::2.500006364::MTS004",-0.11743856852271854,-2.197859064789746,15.0,524.0],["diarylpropionitrile_BRD-A27143604-001-02-0::2.5::HTS",-0.10806666764419283,-1.956099853633254,14.0,538.0],["tazemetostat_BRD-K11215326-001-03-7::2.31::HTS",-0.15402615699983144,-3.412135545638866,14.0,513.0],["endo-IWR-1_BRD-K61314889-001-04-4::2.5::HTS",-0.12013851618828153,-2.35518052318785,14.0,546.0],["mabuterol_BRD-A13116749-003-01-6::2.713967431::MTS004",-0.13276805067234185,-2.6970539427303204,15.0,524.0],["tonabersat_BRD-K36970462-001-01-6::2.5::HTS",-0.12484275451766906,-2.4885223308766773,14.0,540.0],["medica-16_BRD-K92908289-001-01-8::2.501017998::MTS004",-0.11682453493804111,-2.1789708879492267,15.0,524.0],["UNC0224_BRD-K77428767-001-01-7::2.5::MTS004",-0.10664410232635184,-1.8780652622244955,15.0,524.0],["tolamolol_BRD-A60498477-001-01-2::2.508127434::MTS004",-0.14359692900531085,-3.0821920792745887,15.0,524.0],["everolimus_BRD-K13514097-001-05-3::2.5::HTS",-0.11926821828378378,-2.3097383272846446,14.0,541.0],["alfaxalone_BRD-K41445866-001-18-8::2.5::HTS",-0.1229848421000976,-2.4451841136102983,14.0,545.0],["pazopanib_BRD-K74514084-001-03-9::2.5::HTS",-0.16045637216831832,-3.766688276129756,14.0,530.0],["L-NAME_BRD-K33141550-003-05-7::2.5::HTS",-0.13689708392249259,-2.9252804238010324,15.0,543.0],["sufentanil_BRD-K21547160-001-01-4::2.5::HTS",-0.1577394977017171,-3.6148920912852995,14.0,523.0],["BIX-02188_BRD-K20290250-001-02-1::2.38::HTS",-0.14805358240789074,-3.176229748296344,14.0,511.0]]},"para":{"top":[["potassium-canrenoate_BRD-K46556543-001-01-4::2.5::HTS",0.11698122877307014,-2.535817211996343,14.0,543.0],["tenidap_BRD-A87479750-001-02-7::2.5::HTS",0.11250755882332521,-2.3948412863291164,14.0,542.0],["iopanic-acid_BRD-A42628519-001-12-4::2.5::HTS",0.1282192684357115,-2.8198245880074877,14.0,522.0]],"bottom":[["nitrendipine_BRD-A02006392-001-16-4::2.5::HTS",-0.11889993018381008,-2.6065144534976015,14.0,546.0],["ivabradine_BRD-K31385749-003-01-3::2.5::HTS",-0.11889122479050568,-2.5722995603977634,15.0,535.0],["tropanyl-3,5-dimethylbenzoate_BRD-A84389633-001-05-7::2.5::HTS",-0.12226067767222917,-2.7150132246424197,14.0,546.0],["MD-920_BRD-K92758126-001-18-8::1.44::HTS",-0.125572211238472,-2.816935688039065,15.0,543.0],["istradefylline_BRD-K87774949-001-03-9::2.5::HTS",-0.126152095951741,-2.8438163174450066,14.0,546.0],["fruquintinib_BRD-K70504253-001-01-3::2.500017504::MTS004",-0.12405610699996837,-2.7004893729881285,14.0,526.0],["alogliptin_BRD-K83003151-057-02-4::2.35::HTS",-0.12363645885237796,-2.6394784075855124,14.0,513.0],["tetrahydrozoline_BRD-A28856712-003-26-0::2.5::HTS",-0.11754791700344838,-2.546949273946528,14.0,541.0],["tivozanib_BRD-K53414658-001-08-2::2.5::HTS",-0.13121286416755062,-2.922622803951651,14.0,523.0],["trovafloxacin_BRD-K00494077-066-01-9::2.5::HTS",-0.1330598554070002,-2.9846001049372224,14.0,523.0],["bucladesine_BRD-A94624445-236-17-0::2.5::HTS",-0.10457971066313483,-2.0915170012840183,12.0,518.0],["tazemetostat_BRD-K11215326-001-03-7::2.31::HTS",-0.15481703682224898,-3.714964278959543,14.0,513.0],["lisadimate_BRD-A76533773-001-01-9::2.5::MTS004",-0.11628155549883057,-2.4584418361964073,14.0,526.0],["UNC0224_BRD-K77428767-001-01-7::2.5::MTS004",-0.12642643866759617,-2.7731137838759965,15.0,524.0],["PJ-34_BRD-K11853856-001-01-7::2.5::HTS",-0.11408876535172707,-2.455593729516755,14.0,546.0],["tyloxapol_BRD-U25960968-000-01-9::2.5::HTS",-0.13064488460899462,-2.996772086948345,14.0,546.0],["tolamolol_BRD-A60498477-001-01-2::2.508127434::MTS004",-0.153756015955208,-3.740933952499648,15.0,524.0],["pazopanib_BRD-K74514084-001-03-9::2.5::HTS",-0.11672737183048125,-2.485136598166974,14.0,530.0],["everolimus_BRD-K13514097-001-05-3::2.5::HTS",-0.10890569855101201,-2.284313807849805,14.0,541.0],["oxfendazole_BRD-A33447119-001-10-8::2.5::HTS",-0.1318663058964046,-3.0309632936326287,15.0,543.0],["firategrast_BRD-K17513304-001-01-9::2.5::HTS",-0.12247675397911896,-2.7149421622513095,15.0,543.0],["BIX-02188_BRD-K20290250-001-02-1::2.38::HTS",-0.14502310235825003,-3.344895383204264,14.0,511.0]]}}}
{"prism_secondary_logfold":{"corr":{"top":[["bardoxolone_BRD-K20545304-001-01-6::0.625::HTS002",0.1072393880290589,-1.2208854616622817,9.0,299.0],["MEK162_BRD-K82244583-001-01-3::10::HTS002",0.1252035194451122,-2.0944071129224344,12.0,435.0],["AZD5438_BRD-K72414522-001-06-7::10::HTS002",0.1327742616391243,-2.3330155405622843,12.0,441.0],["resatorvid_BRD-K61567297-001-01-9::2.5::HTS002",0.10414815603912571,-1.6371566531372044,14.0,462.0],["decitabine_BRD-K79254416-001-22-6::0.00061034::HTS002",0.152219228123764,-2.4323815266222812,13.0,349.0],["SB-431542_BRD-K67298865-001-09-0::2.5::HTS002",0.13872138397991152,-1.9670217356903859,10.0,327.0],["3-amino-benzamide_BRD-K08703257-001-13-9::10::MTS010::PROS001_PR500",0.14234561471878504,-2.6504785911564,14.0,445.0],["norethindrone_BRD-K92073408-001-15-7::0.000610351478725::MTS005",0.1566155226155524,-3.0611630333331084,13.0,436.0],["neratinib_BRD-K85606544-001-09-1::0.625::MTS010::PROS004_PR500",0.12019829791790686,-2.0304460729215252,13.0,454.0],["AVL-292_BRD-K87782578-001-01-4::10::HTS002",0.1296374130683799,-1.4007120756136637,9.0,243.0],["mycophenolic-acid_BRD-K63750851-001-20-7::10::HTS002",0.13720872495575082,-1.80141069280215,9.0,300.0],["cyclovirobuxin-d_BRD-K27799744-001-02-8::0.0393835::HTS002",0.14610296954906557,-2.8361405863068447,14.0,458.0],["proflavine-hemisulfate_BRD-K68408467-065-01-8::10::HTS002",0.11548153500746414,-1.6869452228547765,12.0,390.0],["raltitrexed_BRD-K89839824-001-05-3::0.0390625::HTS002",0.11793212223681952,-1.982130851447768,13.0,458.0],["INC-280_BRD-K81016934-001-02-0::0.00061::MTS010::PROS004_PR500",0.13449818754410184,-2.4447333511097735,13.0,454.0],["pepstatin_BRD-K13571841-001-14-4::2.5::HTS002",0.12121892582998041,-1.8378489974782264,12.0,394.0],["MEK1-2-inhibitor_BRD-K12244279-001-05-8::10::HTS002",0.13140474869779467,-2.355879608450617,14.0,454.0],["imatinib_BRD-K92723993-001-17-4::0.0391::MTS010::PROS003_PR500",0.1049534466123633,-1.6074246716924845,13.0,445.0],["NVP-TAE226_BRD-K21025364-001-05-6::9.74516::HTS002",0.1721018703951494,-3.695397784074619,13.0,449.0]],"bottom":[["dehydrocholate-acid_BRD-A11551002-001-04-6::0.00061034::HTS002",-0.14637348672577388,-2.8042456026674296,12.0,452.0],["demecarium_BRD-K51471001-303-04-7::0.00976562::HTS002",-0.14297760584604008,-2.6948317196684277,12.0,452.0],["nelarabine_BRD-K84466663-001-05-4::0.15625::HTS002",-0.14027878813866343,-2.6330915101508614,13.0,456.0],["lovastatin_BRD-K09416995-001-39-9::0.00976562::HTS002",-0.18615856180481696,-2.9131081259400724,8.0,291.0],["ecamsule-triethanolamine_BRD-A47953250-001-01-7::0.00061034::HTS002",-0.1554717898569817,-2.7233971326887065,11.0,386.0],["cyromazine_BRD-K36711084-001-02-0::0.00976562::HTS002",-0.14203163466546662,-2.6888895681392864,13.0,456.0],["trometamol_BRD-K47978074-001-02-4::0.625::HTS002",-0.15149983093735175,-3.0010445520280755,13.0,456.0],["tosedostat_BRD-K92241597-001-06-0::0.00976562::HTS002",-0.14016846523327017,-2.629600306283507,13.0,456.0],["elacridar_BRD-K88807631-001-01-3::0.039062499::MTS006",-0.1549770672780125,-3.1145910825173413,13.0,455.0],["dolutegravir_BRD-K36386086-001-01-1::0.00061034::HTS002",-0.18270438011310378,-3.487606682461007,13.0,370.0],["temsirolimus_BRD-K42898655-001-01-8::0.00061034::HTS002",-0.15579894804000285,-3.166045827468985,14.0,458.0],["azithromycin_BRD-K74501079-001-18-1::0.625::HTS002",-0.1434809087440966,-2.627151815332697,13.0,434.0],["xylazine_BRD-K21565985-001-22-5::0.625::HTS002",-0.14556945404334276,-2.80339736196377,13.0,456.0],["2-methoxyestradiol_BRD-K44408410-001-17-6::0.625::HTS002",-0.14320066597426284,-2.7264474379215966,13.0,456.0],["PD-198306_BRD-K88677950-001-03-9::0.15625::HTS002",-0.17618525588351128,-3.945414038792967,14.0,461.0],["azacitidine_BRD-K03406345-001-27-8::0.00976562::HTS002",-0.14342637410035042,-2.7484648324694385,14.0,458.0],["fludarabine-phosphate_BRD-K71106091-001-06-1::0.00061034::HTS002",-0.14015254016199424,-2.6149796179901457,13.0,453.0],["R306465_BRD-K86687746-001-01-3::0.000610352::HTS002",-0.16084759039999186,-2.9164914658934085,12.0,390.0],["lenvatinib_BRD-K39974922-001-04-3::2.5::MTS010::PROS003_PR500",-0.15311609222994654,-2.9949857985972903,13.0,445.0],["UNC0631_BRD-K13060017-001-01-3::0.15625::MTS006",-0.13604743745328038,-2.514286685872819,13.0,459.0],["narasin_BRD-A25608658-001-01-1::0.00976562::HTS002",-0.15016478397241748,-2.939853490402951,13.0,453.0],["riociguat_BRD-K84783599-001-01-0::0.625::HTS002",-0.15732068310166028,-2.9026274073167397,12.0,406.0],["sulconazole_BRD-A70649075-008-30-8::0.00976562::HTS002",-0.1443515535826762,-2.7636920984662336,13.0,456.0],["mericitabine_BRD-K69726595-001-01-2::0.00061034::HTS002",-0.14559335634604306,-2.7232347317086534,12.0,441.0],["dorzolamide_BRD-K71075609-003-01-0::0.625::HTS002",-0.15462778676920733,-2.554886827225568,12.0,360.0],["PP-1_BRD-K47598052-001-15-8::0.0024414::HTS002",-0.15310481246782343,-3.0168597140050806,13.0,449.0],["carvedilol_BRD-A10977446-001-12-1::0.0390625::HTS002",-0.15412748155042316,-2.9669428361436836,13.0,434.0],["quinethazone_BRD-A59303141-001-10-4::0.00061034::HTS002",-0.17173995642936804,-3.362447061750464,12.0,404.0],["cinacalcet_BRD-K73838513-003-05-5::2.5::HTS002",-0.15972263479664026,-2.851295110925402,11.0,386.0],["felbamate_BRD-K99107520-001-24-1::0.0024414::HTS002",-0.13791662016521097,-2.572566508681643,14.0,458.0],["colfosceril-palmitate_BRD-A95886749-001-03-5::10::HTS002",-0.1470892849470363,-2.853367913301824,14.0,455.0],["AZD7762_BRD-K86525559-001-07-8::0.0024626::HTS002",-0.1636237596296558,-3.427579630667824,13.0,456.0],["levobunolol_BRD-K31812033-003-11-0::2.5::HTS002",-0.1585191956357468,-3.1135382337189843,13.0,434.0],["ciclopirox_BRD-K13044802-213-20-7::0.0024414::HTS002",-0.16588358460848915,-3.51045471682047,14.0,455.0],["4E1RCat_BRD-K67173685-001-06-9::0.00932747::HTS002",-0.15102536512157644,-2.6203360964474927,12.0,390.0],["KI-8751_BRD-K47150025-001-05-3::0.0024414::HTS002",-0.14334845459782852,-2.706668081079275,12.0,452.0],["k-strophanthidin_BRD-A55312468-001-04-7::0.309026::HTS002",-0.20571846316805614,-2.9909288812910573,9.0,243.0],["I-BET-762_BRD-K08109215-001-06-4::0.00061034::HTS002",-0.14888945707533988,-2.791735063324466,12.0,434.0],["7-nitroindazole_BRD-K04430056-236-02-1::0.15625::HTS002",-0.14281836016878682,-2.6897575127649835,12.0,452.0],["L-798,106_BRD-K43905307-001-01-2::0.0390625::HTS002",-0.16605445313781175,-3.4583765727932607,13.0,447.0],["RS-67506_BRD-K50018155-003-02-1::0.0390625::HTS002",-0.13556682577497403,-2.1881241599391723,12.0,390.0],["metatinib_BRD-K27182532-001-02-3::0.0390625::HTS002",-0.14825856458103684,-2.886903385422639,14.0,454.0],["oxprenolol_BRD-A43671941-003-11-9::0.00061034::HTS002",-0.14393971547702097,-2.7354934011254013,13.0,453.0]]},"para":{"top":[["bardoxolone-methyl_BRD-K69694239-001-02-2::0.15625::MTS010::PROS002_PR500",0.10917910103375267,-1.9481221956575872,12.0,426.0],["bardoxolone_BRD-K20545304-001-01-6::0.625::HTS002",0.12325824905919085,-1.810418023810791,9.0,299.0],["AZD5438_BRD-K72414522-001-06-7::10::HTS002",0.13124231673938672,-2.57798960202309,12.0,441.0],["alectinib_BRD-K11267252-001-05-1::2.5::MTS010::PROS003_PR500",0.14081145383759147,-2.882751061109436,13.0,445.0],["SB-431542_BRD-K67298865-001-09-0::2.5::HTS002",0.11576446579600684,-1.7698510561580432,10.0,327.0],["vemurafenib_BRD-K56343971-001-14-8::0.00244::MTS010::PROS004_PR500",0.12016285577930493,-2.322549873729729,13.0,454.0],["3-amino-benzamide_BRD-K08703257-001-13-9::10::MTS010::PROS001_PR500",0.17277988406239178,-3.9616138206864733,14.0,445.0],["odanacatib_BRD-K22822991-001-02-3::10::HTS002",0.11350167107793369,-1.629455447543767,9.0,299.0],["brigatinib_BRD-K56981171-001-01-0::10::MTS006",0.15033146836124317,-3.2352185663184985,13.0,455.0],["panobinostat_BRD-K02130563-001-11-4::0.625::HTS002",0.1602272661317947,-1.6732664552399525,8.0,154.0],["tacedinaline_BRD-K52313696-001-12-3::0.0391::MTS010::PROS004_PR500",0.12619752892463992,-2.4904262692021146,13.0,454.0],["2-methoxyestradiol_BRD-K44408410-001-17-6::0.00244::MTS010::PROS001_PR500",0.12726626048861153,-2.489645036332494,14.0,445.0],["AVL-292_BRD-K87782578-001-01-4::10::HTS002",0.14212382632566478,-1.9120216343667964,9.0,243.0],["neratinib_BRD-K85606544-001-09-1::0.625::MTS010::PROS004_PR500",0.1340667822464718,-2.7195285106225615,13.0,454.0],["ipsapirone_BRD-K90574421-001-03-5::0.00061034::HTS002",0.1282303789030675,-2.2893928432472452,12.0,390.0],["cyclovirobuxin-d_BRD-K27799744-001-02-8::0.0393835::HTS002",0.14939659760066248,-3.2255196414858083,14.0,458.0],["alvocidib_BRD-K87909389-003-03-4::2.5::HTS002",0.10442117613059283,-1.9244639102956436,13.0,457.0],["proflavine-hemisulfate_BRD-K68408467-065-01-8::10::HTS002",0.11544536982894334,-1.981740660683938,12.0,390.0],["INC-280_BRD-K81016934-001-02-0::0.00061::MTS010::PROS004_PR500",0.1428532938358054,-2.989050365286789,13.0,454.0],["NVP-TAE226_BRD-K21025364-001-05-6::9.74516::HTS002",0.15707662222768154,-3.427399113558238,13.0,449.0],["MEK1-2-inhibitor_BRD-K12244279-001-05-8::10::HTS002",0.14028752612735815,-2.913570150470721,14.0,454.0],["imatinib_BRD-K92723993-001-17-4::0.0391::MTS010::PROS003_PR500",0.11510537571352294,-2.157738862614991,13.0,445.0]],"bottom":[["dehydrocholate-acid_BRD-A11551002-001-04-6::0.00061034::HTS002",-0.1277275717266963,-2.5222134921313226,12.0,452.0],["eprosartan_BRD-K67977190-066-02-3::0.0024414::HTS002",-0.1478317224635376,-3.158514915080049,13.0,456.0],["isoxsuprine_BRD-A16700644-003-04-4::0.15625::HTS002",-0.13590868072175605,-2.020580605617272,8.0,291.0],["ixabepilone_BRD-K03601870-001-01-2::0.00976562::HTS002",-0.1328467877674947,-2.670515833509847,12.0,452.0],["zolantidine_BRD-K08996725-332-01-7::0.00061034::HTS002",-0.156233151448179,-2.1738187571529894,9.0,243.0],["nelarabine_BRD-K84466663-001-05-4::0.15625::HTS002",-0.13718336135489115,-2.8224315341973294,13.0,456.0],["lovastatin_BRD-K09416995-001-39-9::0.00976562::HTS002",-0.1510365288078692,-2.3381177566114872,8.0,291.0],["D-4476_BRD-K09132007-001-07-5::0.00976562::HTS002",-0.13806742277123837,-2.8267750695512257,12.0,452.0],["PF-573228_BRD-K79239947-001-06-8::0.0024414::HTS002",-0.13773431172067224,-2.834831290358008,14.0,454.0],["cyromazine_BRD-K36711084-001-02-0::0.00976562::HTS002",-0.1448578875958349,-3.0624921271345995,13.0,456.0],["evacetrapib_BRD-K16551357-001-03-2::0.00244141::HTS002",-0.15152505305082348,-3.24775572098596,13.0,450.0],["trometamol_BRD-K47978074-001-02-4::0.625::HTS002",-0.14370662804049017,-3.025769551816719,13.0,456.0],["vemurafenib_BRD-K56343971-001-10-6::0.0390625::HTS002",-0.14496542806294027,-2.5398463070238355,12.0,352.0],["tosedostat_BRD-K92241597-001-06-0::0.00976562::HTS002",-0.15919964353188296,-3.5410995261516054,13.0,456.0],["elacridar_BRD-K88807631-001-01-3::0.039062499::MTS006",-0.1575496102845038,-3.478238977909931,13.0,455.0],["everolimus_BRD-K13514097-001-05-3::0.15625::HTS002",-0.13832094864729286,-2.6241535681128307,12.0,406.0],["dolutegravir_BRD-K36386086-001-01-1::0.00061034::HTS002",-0.16497262942228455,-3.197850816696195,13.0,370.0],["quinidine_BRD-K59632282-052-03-1::0.0390625::HTS002",-0.13619208217072315,-2.7700595216416177,12.0,452.0],["2-methoxyestradiol_BRD-K44408410-001-17-6::0.625::HTS002",-0.13967742556383012,-2.899224315391845,13.0,456.0],["PD-198306_BRD-K88677950-001-03-9::0.15625::HTS002",-0.14846846762554822,-3.2104693876299244,14.0,461.0],["danusertib_BRD-K07881437-001-04-6::0.000587755::HTS002",-0.1401091209038282,-2.912635631134189,13.0,456.0],["fludarabine-phosphate_BRD-K71106091-001-06-1::0.00061034::HTS002",-0.14167104586110166,-2.9471814486192973,13.0,453.0],["FR-139317_BRD-K19318328-001-01-3::0.0390625::HTS002",-0.14731871433807653,-3.1111293637015156,13.0,450.0],["dihydroartemisinin_BRD-K62213621-001-01-6::0.625::HTS002",-0.15103597439612243,-3.231699212048911,13.0,450.0],["cinnarazine_BRD-K07220430-001-18-4::0.15625::HTS002",-0.13968867829315687,-2.871756983225926,13.0,450.0],["UNC0631_BRD-K13060017-001-01-3::0.15625::MTS006",-0.1319220984766223,-2.6767893960360993,13.0,459.0],["tiludronate_BRD-K10845183-304-01-6::0.00976562::HTS002",-0.13748987518450403,-2.6012196789840307,12.0,406.0],["torin-1_BRD-K40175214-001-11-6::0.0024414::HTS002",-0.13813475921664833,-2.842559483943107,14.0,453.0],["ranitidine_BRD-K70505054-003-12-4::0.15625::HTS002",-0.14012028148739963,-2.294497570123049,10.0,328.0],["carvedilol_BRD-A10977446-001-12-1::0.00061034::HTS002",-0.14312220475838452,-2.895535882087267,13.0,433.0],["sulconazole_BRD-A70649075-008-30-8::0.00976562::HTS002",-0.1321467824604641,-2.670930297978033,13.0,456.0],["BMS-626529_BRD-K97883416-001-01-4::2.5::HTS002",-0.13905551031759522,-2.8661769445269845,13.0,453.0],["mericitabine_BRD-K69726595-001-01-2::0.00061034::HTS002",-0.13933619680079873,-2.814695616360636,12.0,441.0],["nomegestrol-acetate_BRD-K27351809-001-09-5::0.00061034::HTS002",-0.15206167115019134,-2.828157006426399,13.0,370.0],["BNTX_BRD-A55484088-050-02-5::0.0024414::HTS002",-0.13470002407938642,-2.7167868544698006,13.0,449.0],["dorzolamide_BRD-K71075609-003-01-0::0.625::HTS002",-0.16569451666962662,-3.1481144841966553,12.0,360.0],["tepoxalin_BRD-K89714990-001-01-5::0.002441406::MTS006",-0.14395396570190722,-3.053229857400478,13.0,460.0],["octenidine_BRD-K04568635-300-01-4::0.0390625::HTS002",-0.13278710324934823,-1.9584019234564172,8.0,291.0],["carvedilol_BRD-A10977446-001-12-1::0.0390625::HTS002",-0.16471641255089053,-3.5967971150285747,13.0,434.0],["quinethazone_BRD-A59303141-001-10-4::0.00061034::HTS002",-0.18340083620876307,-4.02742859872802,12.0,404.0],["lidamidine_BRD-K68693535-001-03-4::0.00976562::HTS002",-0.14410932478202532,-2.102530691959369,9.0,273.0],["cinacalcet_BRD-K73838513-003-05-5::2.5::HTS002",-0.1680565056102945,-3.382512776487771,11.0,386.0],["vincamine_BRD-K89704198-001-12-3::0.0024414::HTS002",-0.14827879328011734,-3.193851856553435,14.0,459.0],["imatinib_BRD-K92723993-001-17-4::0.00061::MTS010::PROS002_PR500",-0.13257464635023083,-2.5527475862149474,12.0,426.0],["AZD7762_BRD-K86525559-001-07-8::0.0024626::HTS002",-0.148934892299345,-3.1945627213718377,13.0,456.0],["tacedinaline_BRD-K52313696-001-12-3::0.00061034::HTS002",-0.13838832553461017,-2.5292862326054313,12.0,385.0],["dequalinium_BRD-K77685957-300-09-1::0.15625::HTS002",-0.13261378976657823,-2.6721433298824375,13.0,453.0],["lacitol_BRD-K40787673-001-02-1::0.625::HTS002",-0.1594405545426382,-2.5262134136299617,8.0,291.0],["iproniazid_BRD-K88568253-011-19-9::0.00976562::HTS002",-0.1385925105749783,-2.645494959204661,12.0,409.0],["ciclopirox_BRD-K13044802-213-20-7::0.0024414::HTS002",-0.14154643126054062,-2.957595218431938,14.0,455.0],["k-strophanthidin_BRD-A55312468-001-04-7::0.309026::HTS002",-0.17857296848041967,-2.6287864178209204,9.0,243.0],["I-BET-762_BRD-K08109215-001-06-4::0.00061034::HTS002",-0.14696485275670187,-3.012971155695682,12.0,434.0],["bumetanide_BRD-K38197229-001-29-9::2.5::HTS002",-0.14821449270189796,-2.7229717850085415,13.0,370.0],["parthenolide_BRD-K98548675-001-05-9::0.0024414::HTS002",-0.13800873781359013,-2.537643632730467,12.0,389.0],["diclazuril_BRD-A06426627-001-03-5::0.625::HTS002",-0.14275448693966242,-2.7727022799992596,11.0,412.0],["pitavastatin_BRD-K75958547-238-01-0::0.0024414::HTS002",-0.16088764261310634,-2.789186981673497,10.0,326.0],["oxprenolol_BRD-A43671941-003-11-9::0.00061034::HTS002",-0.14089610983963002,-2.923047280589789,13.0,453.0]]}}}
{"ccle_proteomics":{"corr":{"top":[["UNG_P13051",0.17760760304615722,-3.177762144954417,12.0,352.0],["IVD_P26440",0.15063863921972961,-2.4506125658974676,12.0,361.0],["SERINC5_Q86VE9-4",0.18626248527643077,-2.565442124447784,11.0,246.0],["ATP5B_F8W0P7",0.18423406327750358,-3.023858873364562,9.0,310.0],["ALDH7A1_P49419-2",0.1622119310179777,-2.441524754883963,11.0,309.0],["MCOLN1_Q9GZU1",0.1651742583659721,-1.7460603796447873,10.0,195.0],["RAB21_Q9UL25",0.14833341334607947,-2.388197198408485,12.0,361.0],["DECR2_Q9NUI1",0.15853301510758938,-2.6708451083820868,12.0,361.0],["MCCC1_Q96RQ3",0.1677461499370765,-2.9406999156360465,12.0,361.0],["PRCP_P42785",0.15723746879993858,-2.634010614862341,12.0,361.0],["PRKAR2A_P13861",0.16036634969768798,-2.723436628581149,12.0,361.0],["DECR1_Q16698",0.17238203227627388,-3.0817740307147505,12.0,361.0],["PPFIA3_O75145",0.2663289234575486,-3.945223992201239,8.0,197.0],["PPP1CB_P62140",0.15860204501844402,-2.6728153999299473,12.0,361.0],["STRN3_H0YJT2",0.313855042730947,-4.914000755051791,8.0,179.0]],"bottom":[["DTWD2_Q8NBA8",-0.2120753405735761,-3.2068929582740684,9.0,248.0],["MID1IP1_Q9NPA3",-0.1836194171874437,-3.4386269059958736,12.0,361.0],["MRFAP1_Q9Y605",-0.15520089374823515,-2.0022618633898714,11.0,264.0],["HNF1A_P20823",-0.15922495639410061,-1.697398430665365,10.0,203.0],["MUC1_P15941-2",-0.14516218956325347,-2.165214438797136,11.0,335.0],["CDC42_P60953",-0.13739278402990912,-2.0618918481786292,11.0,353.0],["TNFAIP8_O95379",-0.20566936679635014,-3.763773591694086,11.0,318.0],["C15orf40_Q8WUR7",-0.1636888182285296,-2.7624755865734913,12.0,352.0],["CHD7_Q9P2D1",-0.13428076978369186,-2.025992241300182,12.0,361.0]]},"para":{"top":[["EPB41L1_Q9H4G0-2",0.1301875834667674,-2.1435020720213407,9.0,346.0],["UNG_P13051",0.19138353193922428,-3.873799300808089,12.0,352.0],["OSBPL1A_Q9BXW6",0.14533712960567127,-2.595009668330766,12.0,361.0],["FAM185A_Q8N0U4",0.1647796968760238,-2.780125746309731,9.0,310.0],["C1orf226_A1L170-2",0.19176057457746198,-3.2768162447050724,9.0,284.0],["ATP5B_F8W0P7",0.1841051102018197,-3.2866987497027145,9.0,310.0],["ITPKB_P27987",0.16713860560496227,-2.9657774149128215,12.0,326.0],["ALDH7A1_P49419-2",0.1553221262525363,-2.555718545141222,11.0,309.0],["MCOLN1_Q9GZU1",0.1767937474238918,-2.234475233903225,10.0,195.0],["PDSS2_Q86YH6",0.14826010610498214,-2.624096725363867,12.0,352.0],["OGDHL_Q9ULD0",0.14491379244556504,-2.5840320154629355,12.0,361.0],["RAB21_Q9UL25",0.15831870761596056,-2.944648616797621,12.0,361.0],["GTF2IRD1_Q9UHL9-3",0.15521861525823816,-2.5007411793786853,9.0,302.0],["ERBB2_P04626",0.18287075379978238,-3.675379020172456,12.0,361.0],["DECR2_Q9NUI1",0.18470510549684813,-3.7336493402935456,12.0,361.0],["ATP5A1_P25705",0.1556377042918233,-2.8703700388262092,12.0,361.0],["MPP5_Q8N3R9",0.20079098205554363,-4.266674995733932,12.0,361.0],["MCCC1_Q96RQ3",0.1648094257274675,-3.1289581259802626,12.0,361.0],["SUCLA2_Q9P2R7",0.17539225317413568,-3.443119902351256,12.0,361.0],["PRCP_P42785",0.15338004040363729,-2.8086575054877874,12.0,361.0],["PRKAR2A_P13861",0.1717235495679188,-3.3322891938808192,12.0,361.0],["DECR1_Q16698",0.1600120020767444,-2.9921191700381167,12.0,361.0],["PPFIA3_O75145",0.19878380785541327,-2.6414993701479457,8.0,197.0],["CLN6_Q9NWW5",0.16224956583500172,-2.1686855481508305,8.0,225.0],["ACP2_P11117",0.14300888038277734,-2.5349656860657834,12.0,361.0],["PPP1CB_P62140",0.1652327662646121,-3.141199986072643,12.0,361.0],["STRN3_H0YJT2",0.2863782176910795,-4.322086510991265,8.0,179.0]],"bottom":[["TBC1D22A_Q8WUA7",-0.15600758573445542,-2.828362379960748,11.0,353.0],["MID1IP1_Q9NPA3",-0.15958863454758657,-2.98020983992383,12.0,361.0],["ATXN7L3B_Q96GX2",-0.1317914811719281,-1.8690502107128364,8.0,275.0],["EMB_Q6PCB8",-0.1635674084343205,-2.9220478895554103,10.0,336.0],["CDC42_P60953",-0.15768754994696546,-2.873830563275644,11.0,353.0],["TNFAIP8_O95379",-0.18140998841748632,-3.290751841381672,11.0,318.0],["CHD2_O14647",-0.13856412914772176,-2.4225774607325694,12.0,361.0],["C15orf40_Q8WUR7",-0.14657608210003026,-2.5808361988552497,12.0,352.0],["DHRS9_Q9BPW9",-0.17436000824623138,-2.325326073613054,8.0,215.0],["CHD7_Q9P2D1",-0.1358125932736899,-2.3544721656892573,12.0,361.0],["SLC15A1_P46059",-0.20348310628727825,-2.120820910904062,8.0,136.0]]}}}
{"depmap_copy_number":{"corr":{"top":[["KRTAP4-9_100132386",0.1255656511909188,-6.764966762369246,38.0,1684.0],["KRTAP2-2_728279",0.09550419712747031,-4.142223450791148,38.0,1684.0],["TMEM99_147184",0.0829460121864767,-3.2440396881656794,38.0,1684.0],["KRT28_162605",0.08304579566836388,-3.250726596540259,38.0,1684.0],["KRTAP9-8_83901",0.09670332913581789,-4.233996059081207,38.0,1684.0],["KRTAP29-1_100533177",0.11721040881469326,-5.968104506379187,38.0,1684.0],["KRT20_54474",0.09234542676412671,-3.9055108953089634,38.0,1684.0],["KRTAP3-3_85293",0.09380038631541106,-4.013637224725124,38.0,1684.0],["KRT25_147183",0.08114256971619546,-3.124416287018526,38.0,1684.0],["KRT34_3885",0.10947190622893918,-5.276957863884681,38.0,1684.0],["KRTAP1-5_83895",0.0954944559196642,-4.141482245935171,38.0,1684.0],["ETFDH_2110",0.08646194581454023,-3.4839831556853436,38.0,1684.0],["KRT23_25984",0.09432518107308613,-4.0530170987830765,38.0,1684.0],["KRTAP9-2_83899",0.11387077751915255,-5.664327372518229,38.0,1684.0],["KRTAP1-1_81851",0.09547826337332203,-4.14025031491336,38.0,1684.0],["MSL1_339287",0.08785993733244035,-3.58186889349929,38.0,1684.0],["STAC2_342667",0.09530008364891222,-4.126707059010872,38.0,1684.0],["FBXL20_84961",0.09536090289430282,-4.13132725345823,38.0,1684.0],["KRTAP9-6_100507608",0.11709447106194623,-5.957418156090632,38.0,1684.0],["KRTAP4-7_100132476",0.11246763984745008,-5.539193232899911,38.0,1684.0],["KRTAP4-1_85285",0.12525131528509276,-6.734029938822534,38.0,1684.0],["KRT40_125115",0.0941929960375963,-4.043079149212942,38.0,1684.0],["KRTAP4-3_85290",0.12587447257995513,-6.795434021185998,38.0,1684.0],["TNS4_84951",0.08297550863857231,-3.246015623391652,38.0,1684.0],["KRTAP9-1_728318",0.12493635114445502,-6.703106619881144,38.0,1684.0],["C4orf46_201725",0.08646194581454023,-3.4839831556853436,38.0,1684.0],["KRTAP3-1_83896",0.09533338337272582,-4.1292363701545955,38.0,1684.0],["KRT33B_3884",0.1085334879287808,-5.196190115251321,38.0,1684.0],["CDK12_51755",0.09821438429290226,-4.351143200708767,38.0,1684.0],["KRTAP4-4_84616",0.12587447257995513,-6.795434021185998,38.0,1684.0],["CASC3_22794",0.08785993733244035,-3.58186889349929,38.0,1684.0],["KRTAP4-8_728224",0.11302285769225062,-5.588532129480894,38.0,1684.0],["KRTAP4-6_81871",0.12600790427891922,-6.808620378791121,38.0,1684.0],["KRTAP9-9_81870",0.09738268334704114,-4.2864567158046745,38.0,1684.0],["KRTAP4-5_85289",0.12600790427891922,-6.808620378791121,38.0,1684.0],["ARL5C_390790",0.09840791900292185,-4.366268486337247,38.0,1684.0],["KRTAP2-4_85294",0.09554571765345948,-4.145383511467655,38.0,1684.0],["KRTAP9-3_83900",0.09738268334704114,-4.2864567158046745,38.0,1684.0],["KRTAP17-1_83902",0.1165132869052526,-5.9040010434507515,38.0,1684.0],["KRTAP3-2_83897",0.09349254904517242,-3.990631186832123,38.0,1684.0],["KRTAP1-3_81850",0.0954944559196642,-4.141482245935171,38.0,1684.0],["RPL19_6143",0.09341015615319459,-3.98448534430183,38.0,1684.0],["RXFP1_59350",0.08532264685040893,-3.4052557674339683,38.0,1684.0],["KRT26_353288",0.08147300320352956,-3.1461594586164825,38.0,1684.0],["KRTAP2-3_730755",0.0955125785698344,-4.14286124722416,38.0,1684.0],["KRTAP1-4_728255",0.0954944559196642,-4.141482245935171,38.0,1684.0],["KRT10_3858",0.0829460121864767,-3.2440396881656794,38.0,1684.0],["MED1_5469",0.09876050507242883,-4.393894879040067,38.0,1684.0],["KRTAP2-1_81872",0.09550419712747031,-4.142223450791148,38.0,1684.0],["CACNB1_782",0.09429154989370227,-4.050487424203503,38.0,1684.0],["KRT33A_3883",0.11027850032974208,-5.346904614703976,38.0,1684.0],["LOC100996750_100996750",0.11246763984745008,-5.539193232899911,38.0,1684.0],["KRTAP4-11_653240",0.12554911169358873,-6.763337078644347,38.0,1684.0],["KRTAP4-2_85291",0.12525131528509276,-6.734029938822534,38.0,1684.0],["KRTAP16-1_100505753",0.1165132869052526,-5.9040010434507515,38.0,1684.0],["KRT12_3859",0.08435288391135998,-3.338981651836854,38.0,1684.0],["KRT27_342574",0.08147300320352956,-3.1461594586164825,38.0,1684.0],["TMEM144_55314",0.088711576480058,-3.642193434710337,38.0,1684.0],["KRT31_3881",0.09157972978402484,-3.8492276921488573,38.0,1684.0],["KRT39_390792",0.09371464023917811,-4.0072220863636066,38.0,1684.0],["KRTAP9-4_85280",0.11672385773931238,-5.923325418098997,38.0,1684.0],["KRTAP4-12_83755",0.12600790427891922,-6.808620378791121,38.0,1684.0],["PPID_5481",0.08658782383404462,-3.4927390638885285,38.0,1684.0]],"bottom":[["MED13_9969",-0.06526525213015946,-2.1710898070906772,38.0,1684.0],["EFCAB3_146779",-0.06841126595032065,-2.3458671232874146,38.0,1684.0],["CDH3_1001",-0.06726440542734448,-2.28135196923783,38.0,1684.0],["TLK2_11011",-0.06642266042429974,-2.2345860443227057,38.0,1684.0],["CDH1_999",-0.06613613032005666,-2.218779794135825,38.0,1684.0]]},"para":{"top":[],"bottom":[]}}}
{"depmap_gene_tpm":{"corr":{"top":[["CFAP100_348807",0.15415693326509133,-7.629169777110465,29.0,1270.0],["CHRNA10_57053",0.13937705675504558,-6.339259918713368,29.0,1270.0],["USP17L8_392188",0.17319203895981922,-9.480570491071507,29.0,1270.0],["RNF151_146310",0.12839176639959218,-5.462577810426089,29.0,1270.0],["FAM71B_153745",0.1475996457801142,-7.041128002837165,29.0,1270.0],["VIP_7432",0.1329923194385511,-5.821284369644883,29.0,1270.0],["METTL2B_55798",0.12532301529992498,-5.230029915903574,29.0,1270.0],["DECR2_26063",0.12847396144402534,-5.468880344410518,29.0,1270.0],["ZNF556_80032",0.11869133142292801,-4.7457524321058,29.0,1270.0],["C5orf47_133491",0.1245568922007198,-5.172809970558363,29.0,1270.0],["GOT1L1_137362",0.13073141180857187,-5.643486075788558,29.0,1270.0],["DNAH10_196385",0.13098590836942145,-5.663353376192375,29.0,1270.0],["DRICH1_51233",0.13034040455681373,-5.613034321767999,29.0,1270.0],["DEFB128_245939",0.18915883731384425,-11.202112411733433,29.0,1270.0],["DHRS2_10202",0.14236825821649707,-6.59003396330891,29.0,1270.0],["FGF22_27006",0.18755359168320457,-11.021980265512422,29.0,1270.0],["PPID_5481",0.16114452397121248,-8.283709033966405,29.0,1270.0]],"bottom":[["ANKRD18B_441459",-0.10464962467807883,-3.801946002489745,29.0,1270.0],["LACC1_144811",-0.08845804628381004,-2.8489248139941417,29.0,1270.0],["ZDBF2_57683",-0.09986695060546749,-3.505497145814289,29.0,1270.0],["PIM1_5292",-0.09715233953894539,-3.34283331892959,29.0,1270.0],["NOVA1_4857",-0.10375465151280322,-3.745511934707043,29.0,1270.0],["SYT14_255928",-0.09284329841365441,-3.0929058235066322,29.0,1270.0],["MLF1_4291",-0.10184625935567447,-3.6266526800498555,29.0,1270.0],["ADTRP_84830",-0.09096346390113459,-2.987041527033832,29.0,1270.0]]},"para":{"top":[["SPAG5_10615",0.11499427386822474,-4.765500399708343,29.0,1270.0],["PRDX2_7001",0.12811187845209138,-5.707231831726472,29.0,1270.0],["METTL2B_55798",0.12324163068482126,-5.34672452833383,29.0,1270.0],["DECR2_26063",0.13128693793592638,-5.9491867990991025,29.0,1270.0],["PPID_5481",0.1363244448680502,-6.344315384147844,29.0,1270.0],["NCAPD3_23310",0.12426263767081182,-5.4212370026525605,29.0,1270.0]],"bottom":[["THSD7B_80731",-0.0966266946587403,-3.602429074300893,29.0,1270.0],["MLF1_4291",-0.10175226422844755,-3.908852341012282,29.0,1270.0]]}}}
{"avana":{"corr":{"top":[["PPP1R21_129285",0.1066636195935153,-2.5086431949112034,17.0,750.0],["MCUB_55013",0.11089162429383964,-2.6776148096362964,17.0,750.0],["RPL28_6158",0.13044537315313187,-3.534539966208447,17.0,750.0],["SEC23IP_11196",0.10348100041025352,-2.385224133160385,17.0,750.0],["PKD1_5310",0.16283726717893646,-5.234759526486516,17.0,750.0],["ZNF611_81856",0.10981902752653867,-2.6342052354204477,17.0,750.0],["RGP1_9827",0.10691348863650006,-2.518469829707455,17.0,750.0],["SLC6A9_6536",0.11860980280138636,-3.0009427751410147,17.0,750.0],["C3orf18_51161",0.11671569020832621,-2.919806460809171,17.0,750.0],["SSFA2_6744",0.10033141618294163,-2.266259007147008,17.0,750.0],["RANBP6_26953",0.10130822878989904,-2.3028182233237398,17.0,750.0],["GPR32_2854",0.11655863605643343,-2.9131312640542046,17.0,750.0],["HMGB1_3146",0.11605006520837809,-2.8564665375908556,16.0,740.0],["ATL3_25923",0.10851234488768893,-2.5818215106758373,17.0,750.0],["EEFSEC_60678",0.10990954265613113,-2.6378542194561967,17.0,750.0],["MOB4_25843",0.10706425064300286,-2.5244085308521944,17.0,750.0],["POMT1_10585",0.1049307812074898,-2.4410446195049915,17.0,750.0],["TMEM169_92691",0.11469304379934582,-2.834451272873641,17.0,750.0],["CCDC90B_60492",0.12584438438469964,-3.3216330564096967,17.0,750.0],["GYG1_2992",0.1286024799535805,-3.4484214897259413,17.0,750.0],["UFM1_51569",0.12370411984807285,-3.224973208038879,17.0,750.0],["TSPOAP1_9256",0.10621358042277293,-2.4909948090479883,17.0,750.0],["HLA-C_3107",0.1396197439315525,-3.9800762541472015,17.0,750.0],["PPP4R2_151987",0.10670173488576079,-2.4801288806950286,16.0,740.0],["MLLT11_10962",0.11961807972515168,-3.044609982518999,17.0,750.0],["RPL34_6164",0.12893337968620402,-3.463801628291759,17.0,750.0],["CKAP2L_150468",0.11726335440865686,-2.9431462839873817,17.0,750.0],["CDCA5_113130",0.1237768689909503,-3.1885993019612315,16.0,740.0],["WDFY3_23001",0.11346601018484533,-2.7833168376176545,17.0,750.0],["TPP1_1200",0.1266051985014934,-3.356356648510788,17.0,750.0]],"bottom":[["SHISA9_729993",-0.10278329842292903,-2.3585991796282184,17.0,750.0],["PROX1_5629",-0.10304042802277359,-2.3683934722232274,17.0,750.0],["SIAH1_6477",-0.13848536277335946,-3.923462493998595,17.0,750.0],["ZC4H2_55906",-0.11026752971294296,-2.5157469867650497,16.0,704.0],["SMDT1_91689",-0.10782312608312662,-2.5544120709460794,17.0,750.0],["PLXNB2_23654",-0.09928226437044323,-2.2273287003162547,17.0,750.0],["UPF3B_65109",-0.14217177657187385,-3.8411785177396847,15.0,695.0],["SLC7A6OS_84138",-0.11599643712213072,-2.8893020604812256,17.0,750.0],["OCA2_4948",-0.11665284117435597,-2.9171342568691565,17.0,750.0],["TCF7_6932",-0.16893156504299664,-5.594848041964547,17.0,750.0],["GEMIN4_50628",-0.10012893841602884,-2.2587186646715223,17.0,750.0],["FSCN2_25794",-0.1061034725022282,-2.4866867605488476,17.0,750.0],["AKT1_207",-0.14362969238816994,-4.183671388907303,17.0,750.0],["NOV_4856",-0.14229937405727003,-4.115527089204708,17.0,750.0],["CSNK2A1_1457",-0.12462157658239223,-3.2260756635467955,16.0,740.0],["KRTAP3-2_83897",-0.10322876249080137,-2.375580634425584,17.0,750.0],["TEX46_729059",-0.09651210322639299,-2.126207482788486,17.0,750.0],["INTS6_26512",-0.12768770501045537,-3.4060913514140436,17.0,750.0],["MOS_4342",-0.11462476028351576,-2.831592872709459,17.0,750.0],["HAVCR2_84868",-0.1206502866328374,-3.0896572662587163,17.0,750.0],["KCTD15_79047",-0.11928728526494652,-3.0302471440618497,17.0,750.0]]},"para":{"top":[["SLC16A1_6566",0.11039508597358853,-2.9484681759932467,17.0,750.0],["PTPRF_5792",0.11009513665834322,-2.9364615491585258,17.0,750.0],["C9orf85_138241",0.12157457783133914,-3.41590925039901,17.0,750.0],["PKD1_5310",0.1298142612702276,-3.7854203835125757,17.0,750.0],["USP32_84669",0.12975424062974433,-3.782651698593574,17.0,750.0],["ZNF611_81856",0.11829515511832156,-3.2747544218648814,17.0,750.0],["RGP1_9827",0.12011472999178494,-3.352658910718664,17.0,750.0],["LPAR5_57121",0.11159502143084628,-2.9967790381745765,17.0,750.0],["DYTN_391475",0.10691524584817226,-2.8108860228462946,17.0,750.0],["GPR32_2854",0.10793519403566064,-2.850823750498221,17.0,750.0],["RANBP6_26953",0.10951512659962877,-2.913323433515782,17.0,750.0],["DDIAS_220042",0.1050753786618001,-2.7396551084061844,17.0,750.0],["MOB4_25843",0.10907533618338656,-2.895848454893003,17.0,750.0],["IRF4_3662",0.13283410480776656,-3.9261855466991333,17.0,750.0],["POMT1_10585",0.11091509822494791,-2.9693497127935813,17.0,750.0],["CCDC90B_60492",0.12429449040825682,-3.5355315991032508,17.0,750.0],["GYG1_2992",0.13053419559502816,-3.818718441964675,17.0,750.0],["UFM1_51569",0.12429458379110632,-3.535535745190943,17.0,750.0],["HLA-C_3107",0.13301427546277353,-3.9346746749913937,17.0,750.0],["PKP4_8502",0.11595483001139766,-3.1760719331196716,17.0,750.0],["MLLT11_10962",0.12659434890157947,-3.638487876211579,17.0,750.0],["ATN1_1822",0.10468748803815801,-2.695922016102956,16.0,740.0],["SAPCD1_401251",0.13263409428284254,-3.916773596715437,17.0,750.0],["RPL34_6164",0.1439939580313939,-4.471350780549519,17.0,750.0],["TPP1_1200",0.12597442850581567,-3.610573034891949,17.0,750.0]],"bottom":[["CLEC3A_10143",-0.11193503900890617,-3.0105497231976344,17.0,750.0],["GNB5_10681",-0.11069506599646044,-2.960503905166479,17.0,750.0],["ZC4H2_55906",-0.11294667157500723,-2.909728975902848,16.0,704.0],["SMDT1_91689",-0.10271541757505848,-2.64981571734144,17.0,750.0],["PRSS57_400668",-0.09787566798098656,-2.4709273512973713,17.0,750.0],["FAHD1_81889",-0.11265499960964086,-3.0398264429745656,17.0,750.0],["JUP_3728",-0.11106722187720629,-2.9432957357020224,16.0,740.0],["SLC7A6OS_84138",-0.11327535468329253,-3.0651818009446816,17.0,750.0],["FSCN2_25794",-0.10651534295104863,-2.7953148487109427,17.0,750.0],["AKT1_207",-0.13071417281707653,-3.827068134761432,17.0,750.0],["LY6D_8581",-0.11349496383560417,-3.0741863819804136,17.0,750.0],["CSNK2A1_1457",-0.12525857458519757,-3.538221006767984,16.0,740.0],["POM121L2_94026",-0.10795518668532679,-2.851609807024761,17.0,750.0],["NODAL_4838",-0.10741522361588728,-2.8304233104826952,17.0,750.0],["POLDIP3_84271",-0.10789519796872236,-2.8492515849308377,17.0,750.0],["DOCK11_139818",-0.11328664390182996,-2.922846705815684,16.0,704.0],["SMG5_23381",-0.119875053747872,-3.3423381572511786,17.0,750.0],["TMEM47_83604",-0.10512672045587282,-2.6172455932961234,16.0,704.0],["KCTD15_79047",-0.1191946887284106,-3.313138522173658,17.0,750.0],["ARSE_415",-0.10843601176720226,-2.738860492017103,16.0,704.0]]}}}
{"drive":{"corr":{"top":[["ITGA2B_3674",0.12586117481883577,-1.8198820187439821,12.0,360.0],["CEP126_57562",0.12023080626550965,-1.7019726917624547,12.0,363.0],["GPR179_440435",0.13214698528208413,-1.969410673701991,12.0,360.0],["PHF23_79142",0.13304061352533766,-2.0042285658871415,12.0,363.0],["CSNK1D_1453",0.12191756004978863,-1.729174640448083,12.0,360.0],["CYP11B2_1585",0.14185246190222353,-2.280876443684911,12.0,374.0],["CNOT6_57472",0.1499080137452418,-2.425308596705307,12.0,360.0],["PEX19_5824",0.1615232633814597,-2.7693909554824323,12.0,363.0],["RAPGEF3_10411",0.1264005121832819,-1.844371778791222,12.0,363.0],["HECW1_23072",0.1313544416152238,-1.962982523259015,12.0,363.0],["AMIGO2_347902",0.14807166966967114,-2.3758577227579645,12.0,360.0],["ADGRF5_221395",0.15299786759211537,-2.588593049017915,12.0,374.0],["HTR7_3363",0.1408115060855156,-2.185601444706311,12.0,360.0],["TRIM49D1_399939",0.14344605146538564,-2.2686808304664026,12.0,363.0],["TNIK_23043",0.1335671375855618,-2.065362621679188,12.0,374.0],["WDTC1_23038",0.1306247699258492,-1.945271771056421,12.0,363.0],["TADA2A_6871",0.1407853498808698,-2.1994261636084342,12.0,363.0],["RIOK3_8780",0.1175994011844479,-1.643020035894327,12.0,363.0]],"bottom":[["KCTD11_147040",-0.15040967456116477,-2.4389115822927385,12.0,360.0],["LOC102724334_102724334",-0.15101451600970567,-2.466373888691724,12.0,362.0],["CKMT2_1160",-0.13590005448937476,-2.0616124856439364,12.0,360.0],["SERPINB6_5269",-0.18493922937701898,-3.4738587676714525,12.0,360.0],["EIF2S2_8894",-0.12396569722442055,-1.7759866537194633,12.0,360.0],["ZFYVE1_53349",-0.136348518719382,-2.086441881487935,12.0,363.0],["OLIG1_116448",-0.13507635211844352,-2.0546201457353015,12.0,363.0],["TM4SF4_7104",-0.13349503300999735,-2.063536096118487,12.0,374.0],["TMED10P1_286102",-0.22210019041134554,-4.813515229412874,12.0,360.0],["VSTM4_196740",-0.1408375463813013,-2.186268935747932,12.0,360.0],["SMIM3_85027",-0.13279304676423706,-1.9851261653984786,12.0,360.0],["DHX9_1660",-0.30453621196971586,-8.761750778882893,12.0,363.0],["ZNF493_284443",-0.1535586221837847,-2.5422532630944428,12.0,363.0],["DARS_1615",-0.17127272659310364,-3.0407167563676687,12.0,360.0],["SRSF1_6426",-0.18859574235901883,-3.595078897153494,12.0,360.0],["TRPV1_7442",-0.1358395661401932,-2.060109040982991,12.0,360.0],["BMPR1A_657",-0.18970232288225908,-3.6576489176541935,12.0,363.0]]},"para":{"top":[["CACNA1B_774",0.1565561244716866,-2.8898712304127874,12.0,360.0],["ABCA5_23461",0.12404056386722281,-2.0719016473791303,12.0,360.0],["DTX2P1-UPK3BP1-PMS2P11_441263",0.1316455837015672,-2.2746464498203305,12.0,366.0],["RAF1_5894",0.1581928375969802,-3.0004293144336316,12.0,371.0],["MTMR10_54893",0.13473734079419109,-2.323740328703248,12.0,360.0],["CYP11B2_1585",0.15097409197910974,-2.8144144373401523,12.0,374.0],["CNOT6_57472",0.17469102057037314,-3.4146378303982106,12.0,360.0],["PEX19_5824",0.15270097615515696,-2.8013623411800492,12.0,363.0],["LIFR_3977",0.1321163366867107,-2.260478871600368,12.0,360.0],["RAPGEF3_10411",0.15025158501508523,-2.7351959628963196,12.0,363.0],["KCTD9_54793",0.13436290901266587,-2.376139261154307,12.0,374.0],["RAB5B_5869",0.12813374804205555,-2.2227190885948005,12.0,374.0],["AMIGO2_347902",0.1571227610646848,-2.9055193051250856,12.0,360.0],["REV3L_5980",0.12793674028222396,-2.161688043040584,12.0,360.0],["KIF7_374654",0.13091202094118012,-2.231750030530674,12.0,360.0],["PSEN1_5663",0.16434840540278411,-3.1092859708862393,12.0,360.0],["SETD3_84193",0.12848717148043162,-2.186721980134311,12.0,363.0],["PRDM4_11108",0.17068640898516166,-3.3149980131584207,12.0,363.0],["WDTC1_23038",0.13632518438011268,-2.376105745759533,12.0,363.0],["HTR7_3363",0.1387044112233137,-2.4214180178186635,12.0,360.0],["PBK_55872",0.12400830172020105,-2.0825849532395204,12.0,363.0]],"bottom":[["COL11A1_1301",-0.13686258329943363,-2.3757792960265993,12.0,360.0],["KCTD11_147040",-0.15761872260158497,-2.919255129192921,12.0,360.0],["CP_1356",-0.13643756012316585,-2.365318800877544,12.0,360.0],["CKMT2_1160",-0.1511722234681059,-2.743588426819093,12.0,360.0],["RRN3P3&LOC101060405_100131998&101060405",-0.12588250980758886,-2.114072125874693,12.0,360.0],["ZBTB7A_51341",-0.138844525172754,-2.4389180260708962,12.0,363.0],["ZFYVE1_53349",-0.13450568732468113,-2.331329752543798,12.0,363.0],["OLIG1_116448",-0.12960691488611847,-2.213219819263942,12.0,363.0],["KIR2DS2&LOC105379650&KIR2DL1_100132285&105379650&3802",-0.13027446239763546,-2.216627412299258,12.0,360.0],["PPP5C_5536",-0.1848920207276547,-3.7316728803618133,12.0,360.0],["DUSP15_128853",-0.1295660715666194,-2.1998946844608365,12.0,360.0],["CDK11B_984",-0.1332360104428195,-2.3133619614975696,12.0,366.0],["SMIM3_85027",-0.15124305449643918,-2.74548480962153,12.0,360.0],["DHX9_1660",-0.23598010984087178,-5.596879811160059,12.0,363.0],["MERTK_10461",-0.13779183456478727,-2.4493481646362754,12.0,371.0],["ZNF493_284443",-0.15305098250962273,-2.8108910017933324,12.0,363.0],["DARS_1615",-0.1475595548976794,-2.6478577342864074,12.0,360.0],["G3BP1_10146",-0.14628545558224298,-2.6863921433213664,12.0,374.0],["HOXA1_3198",-0.14948188387857916,-2.714590193428793,12.0,363.0],["TRPV1_7442",-0.15542265023626983,-2.858713873215952,12.0,360.0]]}}}
{"achilles":{"corr":{"top":[["UMPS_7372",0.1284061733685442,-2.3670796992736505,9.0,484.0],["PADI2_11240",0.11584422872235295,-1.9980824970558175,9.0,484.0],["RNF216_54476",0.13124830930079967,-2.455093649708491,9.0,484.0],["NSD1_64324",0.12775142773070847,-2.3470422011149217,9.0,484.0],["RMND5A_64795",0.14493710341409763,-2.9027767389212182,9.0,484.0],["KLF9_687",0.12711329970081897,-2.3275989591918598,9.0,484.0],["DPP6_1804",0.1480115864812445,-3.0087964277623622,9.0,484.0],["ZNF345_25850",0.11039717668295655,-1.8481093401120994,9.0,484.0],["NAPA_8775",0.1299876590257458,-2.4158466059453008,9.0,484.0],["MED18_54797",0.12981234387321147,-2.410414888047533,9.0,484.0],["VN1R5_317705",0.1366049355900449,-2.6255690586708824,9.0,484.0],["ZNF600_162966",0.13895126222149054,-2.702142378278203,9.0,484.0],["RPS6KL1_83694",0.1064651957498565,-1.7435738592344074,9.0,484.0],["RTEL1_51750",0.1557915599356329,-3.2861570525495845,9.0,484.0],["TCF20_6942",0.10860675496410692,-1.800123786640189,9.0,484.0],["KRT5_3852",0.15811164474088737,-3.371405430182267,9.0,484.0],["NAPG_8774",0.12548985347861744,-2.278514655803643,9.0,484.0],["TUBB8_347688",0.1086478986768565,-1.8012192448664799,9.0,484.0],["TPI1P2_286016",0.11564849911526966,-1.9925891609742248,9.0,484.0],["MERTK_10461",0.1214007172699199,-2.157295392336476,9.0,484.0],["ZNF521_25925",0.11159779255638563,-1.8806494815970776,9.0,484.0],["HTR1D_3352",0.1296636419320042,-2.405812738099514,9.0,484.0],["TRPM2_7226",0.1335964688477486,-2.529083179034752,9.0,484.0]],"bottom":[["TNFRSF13B_23495",-0.1433566065808881,-2.849061151790614,9.0,484.0],["HOXB6_3216",-0.11282214457165562,-1.9141330791807325,9.0,484.0],["FFAR4_338557",-0.14296387072073785,-2.835795989307166,9.0,484.0],["SEMA3G_56920",-0.13628412425947378,-2.61518949388497,9.0,484.0],["EPS15L1_58513",-0.12061489087865142,-2.1343946991373883,9.0,484.0],["S100A7_6278",-0.15423809342639658,-3.229730312917444,9.0,484.0],["LTB4R_1241",-0.11598958455530017,-2.002167094383672,9.0,484.0],["SMC2_10592",-0.11827799087136034,-2.0670408623059666,9.0,484.0],["B4GALT2_8704",-0.11198385202952221,-1.8911746956965394,9.0,484.0],["UBE4A_9354",-0.12037768262685102,-2.127506854500691,9.0,484.0],["CAVIN3_112464",-0.1093043037756779,-1.8187422021859772,9.0,484.0],["DMRTB1_63948",-0.17937582876996097,-4.207872406458346,9.0,484.0],["CD27_939",-0.11829317168853921,-2.067474792969216,9.0,484.0],["TBXA2R_6915",-0.1112198452981901,-1.8703746223808917,9.0,484.0],["SSR4_6748",-0.1082257056570263,-1.7899944588457857,9.0,484.0],["PPIE_10450",-0.15359413330327792,-3.20649295103303,9.0,484.0],["RGS16_6004",-0.11988867569760162,-2.1133439391753686,9.0,484.0]]},"para":{"top":[["UMPS_7372",0.11306428748492107,-2.2151621924143265,9.0,484.0],["CD47_961",0.1095509821876869,-2.1206224526672637,9.0,484.0],["GTPBP6_8225",0.11668403057267032,-2.3150799805255273,9.0,484.0],["ARHGEF7_8874",0.1183874352211054,-2.3629855028226423,9.0,484.0],["HOXC8_3224",0.11652432944050911,-2.3106177323658708,9.0,484.0],["LIN54_132660",0.11178668013357367,-2.180505351322433,9.0,484.0],["MMP7_4316",0.1188133160772183,-2.3750514417400255,9.0,484.0],["RNF216_54476",0.1280223934768501,-2.6446723661160547,9.0,484.0],["TPK1_27010",0.14042538052790648,-3.034288525890556,9.0,484.0],["BACH2_60468",0.11412887438368845,-2.2442833139035456,9.0,484.0],["SMAD7_4092",0.11155561654435019,-2.1159483794476865,8.0,466.0],["EMP3_2014",0.12041024211786892,-2.420611537710296,9.0,484.0],["AZI2_64343",0.12253955548787386,-2.482138802826746,9.0,484.0],["NSD1_64324",0.13063072376955048,-2.724075743064977,9.0,484.0],["TAB2_23118",0.11173350712807852,-2.1790698434644633,9.0,484.0],["JPH3_57338",0.11189315204287335,-2.183381417019999,9.0,484.0],["TRPC5_7224",0.11561943578396477,-2.2854279764273095,9.0,484.0],["RMND5A_64795",0.13345201340222815,-2.811477744523795,9.0,484.0],["CHST13_166012",0.13302618599531657,-2.798184783687465,9.0,484.0],["SLC7A10_56301",0.1372314681096706,-2.931037482050344,9.0,484.0],["NINL_22981",0.11359656256080713,-2.2296946495698995,9.0,484.0],["CCL24_6369",0.12163455129045156,-2.4558796144408848,9.0,484.0],["SPIC_121599",0.1295128893663887,-2.6898816984641623,9.0,484.0],["KRT40_125115",0.12722388834249582,-2.620632803905774,9.0,484.0],["SLC35A1_10559",0.11375625212590591,-2.234065341842598,9.0,484.0],["KLF9_687",0.12658510731316114,-2.6014924350164477,9.0,484.0],["ZNF610_162963",0.11199964359712986,-2.1862602184555944,9.0,484.0],["DPP6_1804",0.12903379377057744,-2.6753020237076557,9.0,484.0],["TGFBR1_7046",0.11253194439004394,-2.2006830578589347,9.0,484.0],["SDR16C5_195814",0.13137600779359146,-2.747011008204462,9.0,484.0],["GJA9-MYCBP_100527950",0.11008328059228688,-2.1347919640369333,9.0,484.0],["ZNF345_25850",0.11141408576122215,-2.1704580225820678,9.0,484.0],["NAPA_8775",0.1202509773711261,-2.4160452872547586,9.0,484.0],["MED18_54797",0.11077532121286289,-2.1532959681658066,9.0,484.0],["ZNF600_162966",0.12647865647486267,-2.5983105767459453,9.0,484.0],["RPS6KL1_83694",0.1283950029694126,-2.655933115468642,9.0,484.0],["PSME3_10197",0.11354340756232315,-2.2282409021752825,9.0,484.0],["RTEL1_51750",0.14149006530493155,-3.0691587405035246,9.0,484.0],["COX17_10063",0.11732282351159457,-2.3329785008268815,9.0,484.0],["KRT5_3852",0.14393866942146988,-3.1502129476988774,9.0,484.0],["IL10RB_3588",0.11130760829562261,-2.1675917244245912,9.0,484.0],["NOS1_4842",0.1326535603043314,-2.786582102176923,9.0,484.0],["NAPG_8774",0.16597676203356618,-3.9338546626603024,9.0,484.0],["TPI1P2_286016",0.1170034475320691,-2.32401984273286,9.0,484.0],["GTF2IRD2B_389524",0.1150338314332092,-2.269211571400127,9.0,484.0],["ZNF542P_147947",0.12328476952842357,-2.5038824241848308,9.0,484.0],["IL18R1_8809",0.1179083936582629,-2.349455858474243,9.0,484.0],["EHD1_10938",0.12818207593297903,-2.6494948229237623,9.0,484.0],["SLCO1A2_6579",0.1271707170855837,-2.619036513597386,9.0,484.0],["CR2_1380",0.12839503511570374,-2.6559340877514996,9.0,484.0],["FBXO5_26271",0.11476783642410918,-2.26186780494541,9.0,484.0],["LINC01587_10141",0.11391595308347109,-2.2384413154470284,9.0,484.0],["MCM6_4175",0.1284483472872922,-2.657547493348811,9.0,484.0],["P2RX4_5025",0.11545967394301342,-2.280997253834983,9.0,484.0]],"bottom":[["TNFRSF13B_23495",-0.12445588707144324,-2.53827361720896,9.0,484.0],["OR2H2_7932",-0.1049730578720642,-2.0010262081973793,9.0,484.0],["THRA_7067",-0.10859278586225586,-2.095254265320548,9.0,484.0],["AQR_9716",-0.1343580129018525,-2.8398797810066565,9.0,484.0],["SEMA3G_56920",-0.14175617095646434,-3.0779094632254025,9.0,484.0],["PLXNC1_10154",-0.12317831216491591,-2.5007695601828086,9.0,484.0],["GLIS3_169792",-0.11460797449090036,-2.257460874199247,9.0,484.0],["RBKS_64080",-0.11104143281920435,-2.1604361073825116,9.0,484.0],["EPS15L1_58513",-0.10710232345976774,-2.056147924871578,9.0,484.0],["EMX2_2018",-0.10880573741089987,-2.1008767600076217,9.0,484.0],["CPNE6_9362",-0.11881328038044404,-2.3750504293543035,9.0,484.0],["PHF1_5252",-0.11460798883811148,-2.2574612693032674,9.0,484.0],["UGT8_7368",-0.12722392338087501,-2.620633855559903,9.0,484.0],["ACTR1B_10120",-0.11434183001591434,-2.250135093587799,9.0,484.0],["DAPK1_1612",-0.11679049410421471,-2.3180574729784635,9.0,484.0],["S100A7_6278",-0.11615170128257735,-2.300225417441303,9.0,484.0],["CNOT6_57472",-0.10843311230766366,-2.0910442178915103,9.0,484.0],["SMC2_10592",-0.111786982405668,-2.1805135094213854,9.0,484.0],["SRGN_5552",-0.1060376800730975,-2.0284772862206664,9.0,484.0],["IP6K3_117283",-0.11130761944286632,-2.167592024241743,9.0,484.0],["IGFBP2_3485",-0.10987045533122844,-2.129120066124964,9.0,484.0],["KRT17_3872",-0.10656999507595163,-2.042285037811575,9.0,484.0],["B4GALT2_8704",-0.12637223409110548,-2.595131802352117,9.0,484.0],["RGS4_5999",-0.10555858624053427,-2.0160968581448104,9.0,484.0],["PRSS48_345062",-0.10827341700235046,-2.0868385381539425,9.0,484.0],["SLC35A2_7355",-0.11066884658204851,-2.150442961546052,9.0,484.0],["UBQLN4_56893",-0.12179428008680185,-2.460502540796027,9.0,484.0],["RCVRN_5957",-0.12307183630262998,-2.4976583845406974,9.0,484.0],["SKIL_6498",-0.10832665690732043,-2.0882400965612167,9.0,484.0],["RPA2_6118",-0.1127986058971178,-2.2079290493387496,9.0,484.0],["CAVIN3_112464",-0.11354334786374821,-2.228239270542092,9.0,484.0],["EPX_8288",-0.10667644258233365,-2.045052758617896,9.0,484.0],["KCTD5_54442",-0.12030380871747723,-2.41755945700964,9.0,484.0],["NELFE_7936",-0.1193456845986342,-2.3901843145130073,9.0,484.0],["ZNF175_7728",-0.11955854293097931,-2.396250471876303,9.0,484.0],["GALNT15_117248",-0.1219540303447175,-2.4651310994875444,9.0,484.0],["DHRS2_10202",-0.11444829067934881,-2.2530638273522126,9.0,484.0],["PPIE_10450",-0.136912300383088,-2.9208311762132495,9.0,484.0],["DMRTB1_63948",-0.16629601545457914,-3.945926271079547,9.0,484.0],["RIT2_6014",-0.11785514712411266,-2.3479547819686246,9.0,484.0],["TRPA1_8989",-0.1138094810275686,-2.2355233173725573,9.0,484.0],["CD27_939",-0.1306307401225687,-2.724076244899837,9.0,484.0],["TBXA2R_6915",-0.11136083726658787,-2.16902433538399,9.0,484.0],["BCL9_607",-0.11774869242080839,-2.344955373197815,9.0,484.0],["FZD2_2535",-0.11647122015334695,-2.3091348955745685,9.0,484.0],["AZGP1_563",-0.11034950570225525,-2.14189936966379,9.0,484.0],["PGLS_25796",-0.12307183938398225,-2.4976584745052133,9.0,484.0],["GLUD1_2746",-0.11460808352984012,-2.257463876994533,9.0,484.0],["RGS16_6004",-0.11450151957567857,-2.2545289835110816,9.0,484.0]]}}}
{"ccle_rrbs_tss1kb":{"corr":{"top":[["ZEB1_10_31608041_31609041",0.18731878588277678,-7.281302317081638,23.0,809.0],["KLHL5_4_39045450_39046450",0.27560576625029715,-11.788345739525713,17.0,617.0],["CEP128_14_81408082_81409082",0.18933316762238114,-6.9446786701167325,22.0,751.0],["RERE_1_8483747_8484747",0.17852358127819667,-6.654415810212899,23.0,808.0],["RERE-AS1_1_8483704_8484704",0.1823997104996243,-6.923470322692048,23.0,808.0]],"bottom":[["HOXA11_7_27224835_27225835",-0.1169996534778489,-3.1418513581609506,23.0,809.0],["PRKAG3_2_219696512_219697512",-0.11396832440710795,-2.9242315680636475,23.0,783.0],["MIR4725_17_29901287_29902287",-0.09476465679169639,-2.179459272725663,23.0,797.0],["CNOT6_5_179920398_179921398",-0.09724616640034241,-2.267335337723925,23.0,794.0],["MIR6777_17_17716859_17717859",-0.10402548960150698,-2.5643143565036914,23.0,805.0],["MIR24-1_9_97847302_97848302",-0.17019440962850643,-5.876958273361225,22.0,776.0],["UTS2_1_7913104_7914104",-0.1544270286209959,-3.8353204007322295,19.0,581.0],["LOC286177_8_58172784_58173784",-0.1722557261928034,-1.6149906765514939,8.0,163.0],["HOXB-AS3_17_46672319_46673319",-0.1206994479591922,-3.1227088163035774,22.0,754.0],["TNRC18P1_4_141564234_141565234",-0.10829802270573548,-2.693570625687246,23.0,787.0],["KIAA1549L_11_33562876_33563876",-0.11012445051747558,-2.8224371804226838,23.0,805.0],["UTS2_1_7913551_7914551",-0.10381297400383266,-2.252374165776564,22.0,689.0],["FAM136A_2_70529220_70530220",-0.09395366489547939,-2.1339326975797808,23.0,790.0],["MIR23B_9_97846489_97847489",-0.16452927155040528,-5.569611335523912,23.0,782.0],["HOXA-AS3_7_27178982_27179982",-0.14371906875219567,-4.441646013802546,23.0,797.0],["HOXA10_7_27213955_27214955",-0.12582028434210385,-3.5503242044521497,23.0,806.0],["KCNH6_17_61599694_61600694",-0.1340610381536062,-2.183267976469962,9.0,401.0],["PF4V1_4_74718012_74719012",-0.11648938985107672,-2.4214289112178156,19.0,597.0],["MIR27B_9_97846726_97847726",-0.15878815597324886,-5.25201120705218,23.0,787.0],["ECH1_19_39322497_39323497",-0.09463131729341705,-2.1548623299247835,23.0,788.0],["DNASE1L2_16_2285467_2286467",-0.11782361597714416,-3.166812036820519,23.0,805.0],["FAM169A_5_74162663_74163663",-0.15363212877160598,-5.025193070561979,23.0,801.0],["FAM169A_5_74162212_74163212",-0.1433334469131304,-4.463238959507178,23.0,806.0],["LGALS8_1_236685738_236686738",-0.1071215035544673,-2.4303547731335287,21.0,711.0],["GPR1_2_207078352_207079352",-0.15348610509008478,-3.8439091701540065,16.0,593.0]]},"para":{"top":[],"bottom":[["SLC25A19_17_73285530_73286530",-0.10903561231431169,-3.0661012990437864,23.0,805.0],["MAFA-AS1_8_144498848_144499848",-0.10401367330174828,-1.5549757221123628,8.0,332.0],["PRKAG3_2_219696512_219697512",-0.12261065158057562,-3.598109300079088,23.0,783.0],["CYBRD1_2_172377756_172378756",-0.11957940031668432,-2.0249164420706913,9.0,378.0],["WDR76_15_44118111_44119111",-0.12582644143356803,-2.908127594338927,15.0,565.0],["UTS2_1_7913104_7914104",-0.11352384034233058,-2.5627589412247023,19.0,581.0],["LOC286177_8_58172784_58173784",-0.1777690403332247,-1.9858984960449662,8.0,163.0],["TGFA_2_70781147_70782147",-0.10557691962509656,-2.928787475103176,23.0,808.0],["LOC101928118_1_95699538_95700538",-0.10961772463315993,-3.0653825902460166,23.0,796.0],["CSNK1G2-AS1_19_1954548_1955548",-0.10336664494317663,-2.822494893898924,23.0,802.0],["FAM222A-AS1_12_110211292_110212292",-0.16572145015340786,-2.5337457700969224,9.0,269.0],["RUVBL1_3_127842671_127843671",-0.1108545667750212,-3.138297826753174,22.0,804.0],["MIR1306_22_20072580_20073580",-0.13249053255862098,-4.07246873837099,22.0,785.0],["MRPS26_20_3025674_3026674",-0.12001784664543058,-3.4866046959133397,22.0,786.0],["KCNH6_17_61599694_61600694",-0.13209424806388476,-2.4210771832688103,9.0,401.0],["PF4V1_4_74718012_74719012",-0.10931219030100171,-2.473371751627005,19.0,597.0],["SLC7A11-AS1_4_139009167_139010167",-0.11604593479727217,-3.3033719445240552,22.0,784.0],["FAM169A_5_74162212_74163212",-0.14806678564141962,-4.9908389578746375,23.0,806.0],["TEAD1_11_12694968_12695968",-0.1108808543041628,-3.153931370733399,23.0,808.0]]}}}
{"ccle_gene_tpm":{"corr":{"top":[["CTC-239J10.1_ENSG00000267417.1",0.19615326553617174,-9.569287465170554,26.0,993.0],["PRR23A_ENSG00000206260.2",0.18568654233196136,-8.63059315725331,26.0,993.0],["LINC00659_ENSG00000228705.1",0.19769817850781948,-9.712334184014368,26.0,993.0],["KRTAP10-13P_ENSG00000236382.1",0.20037270293054096,-9.962725155370533,26.0,993.0],["TRIM60_ENSG00000176979.8",0.21818629327074837,-11.720360309491664,26.0,993.0],["LINC00624_ENSG00000234610.1",0.20060609713224203,-9.984741499088454,26.0,993.0],["PPID_ENSG00000171497.4",0.18665976543785612,-8.715649624363543,26.0,993.0],["OR13Z3P_ENSG00000272480.1",0.2131907750008458,-11.211568408635026,26.0,993.0],["RP11-15E1.3_ENSG00000269225.1",0.19422121798064215,-9.392028140263978,26.0,993.0],["USP17L8_ENSG00000237038.3",0.1858270349528821,-8.642843695052159,26.0,993.0],["REXO1L3P_ENSG00000272628.1",0.27063162550347714,-17.836930501968652,26.0,993.0],["OR7A18P_ENSG00000269678.1",0.19369306043940973,-9.343886613189461,26.0,993.0],["OR7A3P_ENSG00000269787.1",0.19404937706661804,-9.37635000953211,26.0,993.0],["FAM27C_ENSG00000154537.4",0.205820526352068,-10.4835912120062,26.0,993.0],["CTD-2309H9.2_ENSG00000253916.1",0.1913460458185046,-9.1315900622635,26.0,993.0],["AC005592.3_ENSG00000261757.1",0.18594080077430203,-8.652770668736135,26.0,993.0],["AC007562.1_ENSG00000235583.2",0.1904825423994465,-9.05415284254251,26.0,993.0],["RP11-31I22.4_ENSG00000265697.1",0.20973561883162847,-10.866941844497099,26.0,993.0],["CCNB1IP1P1_ENSG00000229815.1",0.2015016514562237,-10.069467608345548,26.0,993.0],["IFNA20P_ENSG00000226393.1",0.18156266994101386,-8.27521045681952,26.0,993.0],["RP11-470F18.1_ENSG00000236376.1",0.22057248349762942,-11.967808170994024,26.0,993.0],["RP11-805L22.3_ENSG00000263567.1",0.1968419808029136,-9.632913530523961,26.0,993.0],["LA16c-306A4.2_ENSG00000260316.1",0.19800405909802068,-9.740794168444413,26.0,993.0],["OR7A15P_ENSG00000176923.4",0.18141531199820468,-8.262661858709016,26.0,993.0],["RP11-561N12.4_ENSG00000223974.1",0.18454118150359428,-8.531073883821948,26.0,993.0],["DEFB128_ENSG00000185982.6",0.19382474943814934,-9.355877402730016,26.0,993.0]],"bottom":[["LACC1_ENSG00000179630.6",-0.11499307210993692,-3.62963154754446,26.0,993.0],["NOVA1_ENSG00000139910.15",-0.10738238025658864,-3.224967687708174,26.0,993.0],["HCG4_ENSG00000176998.3",-0.09830307795136824,-2.7748717873751816,26.0,993.0],["PIM1_ENSG00000137193.9",-0.1002010944705319,-2.8660483429573222,26.0,993.0],["MME_ENSG00000196549.6",-0.10397456353589751,-3.0518870949519923,26.0,993.0],["TLR6_ENSG00000174130.8",-0.10240445586896248,-2.973820961462078,26.0,993.0],["None_ENSG00000214670.3",-0.1013102250359063,-2.9200397146322996,26.0,993.0],["CCDC122_ENSG00000151773.8",-0.09882567959102408,-2.7998233611564984,26.0,993.0],["C21orf49_ENSG00000205930.4",-0.11266717642592092,-3.5032950203037783,26.0,993.0],["ADTRP_ENSG00000111863.8",-0.10161183028216185,-2.93481243810309,26.0,993.0]]},"para":{"top":[["DECR2_ENSG00000242612.2",0.14387895578451762,-5.654968999612507,26.0,993.0],["ACTL7B_ENSG00000148156.6",0.12879797010485303,-4.701989791875298,26.0,993.0],["PPID_ENSG00000171497.4",0.15174987817026878,-6.190708582038864,26.0,993.0],["E4F1_ENSG00000167967.11",0.13973261976999582,-5.383351919959484,26.0,993.0],["METTL2B_ENSG00000165055.11",0.1325074238772117,-4.927483591696693,26.0,993.0]],"bottom":[["ITPR1-AS1_ENSG00000231249.1",-0.10805279498261877,-3.547895605454073,26.0,993.0],["None_ENSG00000261611.3",-0.10599427958470392,-3.443191496358591,26.0,993.0],["RP11-222K16.2_ENSG00000272282.1",-0.12189904642414072,-4.298130143940154,26.0,993.0],["RP11-423O2.2_ENSG00000236055.1",-0.11136476596444032,-3.720056207290189,26.0,993.0],["TM4SF19-AS1_ENSG00000235897.1",-0.11039875644910081,-3.6693720722120196,26.0,993.0],["C21orf49_ENSG00000205930.4",-0.12638199632604943,-4.558310086236175,26.0,993.0]]}}}
{"ccle_rrbs_tss_clusters":{"corr":{"top":[["ZNF274_3",0.21775507158145602,-5.318214661915187,13.0,420.0],["GTF3C6_2",0.173530354463877,-4.444848783704605,12.0,549.0],["CYTH1_11",0.1868253554446053,-3.5608043830293266,8.0,367.0],["TTC29_3",0.16942843077820258,-5.776207684760914,23.0,767.0],["FAM120C_3",0.2507523412485683,-6.1762901621057935,11.0,372.0]],"bottom":[["HOXA10_3",-0.14389003445429357,-4.560997468002657,24.0,819.0],["FAM9C_2",-0.13260881768731642,-1.6789182193887813,8.0,295.0],["ADRA1D_2",-0.2385725291098041,-4.0027096325636915,8.0,253.0],["NOS2_3",-0.18493720414361098,-3.5867411111724445,16.0,370.0],["DSG2_1",-0.16145682709718953,-2.2832450721007826,8.0,290.0],["TBC1D2_5",-0.15056923113019896,-2.948016140056602,9.0,456.0],["ZNF354B_3",-0.14229901227779604,-1.462204955568491,8.0,213.0],["KCND2_3",-0.17506853393308147,-4.664693816246501,15.0,567.0],["HOXA-AS3_1",-0.13986258744169117,-4.314212503686325,24.0,814.0],["PARVG_3",-0.2056487637377602,-6.036654393573238,12.0,548.0],["STK31_3",-0.15676740300477351,-5.205595129004795,24.0,799.0],["SLC30A8_3",-0.1484079105206158,-2.6130367637161376,13.0,402.0],["HIPK2_3",-0.14760668280867156,-2.7874242008491934,15.0,438.0],["ZC3H12C_1",-0.13317272481152692,-3.3652738296839617,20.0,675.0],["EHF_3",-0.19245687129379552,-5.073322034782941,17.0,511.0],["SNORD146_1",-0.14626697313698617,-2.3174059912548284,13.0,357.0],["PCDHGC5_1",-0.13241803350124506,-3.9097671138373578,23.0,813.0],["DNMBP_3",-0.14998328248486092,-4.745844200848333,23.0,788.0],["SNORD146_2",-0.2401168243753194,-5.524597040818171,13.0,357.0],["MIR6886_2",-0.13841516897429537,-4.191202653088609,24.0,804.0],["PTN_3",-0.1435255547911155,-2.8645796118784173,14.0,481.0],["DNMBP_4",-0.13130295737476824,-2.7868507093557207,16.0,557.0],["GPR1_2",-0.1521924910691184,-3.8305144874930974,17.0,600.0],["MIR24-1_1",-0.16130668177040744,-5.469154658992551,24.0,797.0],["LAMC1_1",-0.16027667122330966,-5.311747126258835,24.0,781.0],["ENPP2_5",-0.15513179022711035,-2.458727502490612,10.0,343.0],["RPS24_1",-0.1379557900534333,-4.215178000310478,24.0,815.0],["TMEM167B_1",-0.16739399018058815,-5.586391808724899,23.0,757.0],["PRMT3_1",-0.22316657760341893,-3.4713664977254357,8.0,246.0],["YY2_3",-0.14880974113810053,-3.073367147058689,17.0,483.0],["TXLNG_1",-0.13399496090804228,-3.87084516799983,24.0,783.0],["SNORD62B_4",-0.16737719955615346,-5.880774577822809,24.0,802.0],["UTS2_3",-0.14574573172113237,-3.481769470042772,20.0,583.0],["NUDCD1_2",-0.1633592083459563,-5.375474188897195,22.0,763.0]]},"para":{"top":[["WNT10A_1",0.14454655002846065,-3.5283416117069937,15.0,551.0],["GBP4_2",0.14585479751347255,-2.973266820302581,8.0,437.0],["PGAP1_3",0.1940563026132141,-4.962644377704316,11.0,469.0],["L3MBTL2_1",0.12563518785924221,-2.2669845855554844,8.0,405.0],["CELF2_7",0.1949140416396709,-4.2510574292133985,10.0,384.0],["CCND3_5",0.14355402493647243,-3.1619038984129757,13.0,485.0],["FAM120C_3",0.21321827567011523,-4.809023674378101,11.0,372.0],["POLE4_3",0.12705015477538684,-2.4637227219373936,9.0,445.0]],"bottom":[["FAM118A_7",-0.12162375766570181,-2.1376744051706456,8.0,397.0],["PGPEP1L_4",-0.12294497679175932,-1.7082024390702177,9.0,274.0],["FDPS_1",-0.12098721477789097,-3.605817658588438,24.0,806.0],["BTN3A3_1",-0.16609416667726357,-5.492111683904275,21.0,718.0],["SNORD59B",-0.1366051890309528,-4.363963644848424,24.0,803.0],["FAM9C_2",-0.1234889654115666,-1.7953751988962192,8.0,295.0],["CHD7_5",-0.12677896694913596,-3.13881591625982,18.0,614.0],["REXO5_3",-0.14726305932626021,-2.959858897341488,10.0,424.0],["LINC01988_1",-0.12631232754237498,-2.7309375007834538,12.0,517.0],["ADRA1D_2",-0.20455482401609526,-3.3091302761740073,8.0,253.0],["UBA1_2",-0.14324273133861473,-2.639202852052171,8.0,385.0],["PTN_2",-0.13665075486904882,-2.9260482920585487,14.0,482.0],["YOD1_3",-0.11815173457797812,-2.147849955746166,8.0,424.0],["NOS2_3",-0.18271030953103243,-3.771429296482443,16.0,370.0],["ZNF354B_3",-0.16021007988249067,-2.054898660828892,8.0,213.0],["KCND2_3",-0.16601664865360957,-4.50090959291151,15.0,567.0],["PARVG_3",-0.1794500183081995,-4.955133667214186,12.0,548.0],["SLC30A8_3",-0.13626750721273656,-2.5543240905213285,13.0,402.0],["LOC100129540_2",-0.20736070802188458,-3.055704487836987,9.0,220.0],["EHF_3",-0.17614431226089766,-4.578275220407926,17.0,511.0],["GDF5OS_3",-0.13865726836445233,-3.122380505844858,13.0,512.0],["ECH1_2",-0.1139139318039636,-2.1107223985242105,9.0,444.0],["SNORD146_2",-0.19015570789772757,-3.8842113786575854,13.0,357.0],["ABCD4_1",-0.12596166808503087,-3.8386987977958564,24.0,805.0],["PTN_3",-0.1366126127053735,-2.920426148353104,14.0,481.0],["GPR1_2",-0.1260604296084101,-3.0555217701029904,17.0,600.0],["REEP1_3",-0.11921488951952929,-2.5957966415003884,9.0,545.0],["LOC101928994_2",-0.11028438520256954,-2.723952645272825,16.0,675.0],["PRMT3_1",-0.20071735490709486,-3.148002945416005,8.0,246.0],["FAM222A-AS1_3",-0.162015662513061,-2.478003993856375,9.0,273.0],["MATN1-AS1_1",-0.1164150368348493,-2.168173388128222,10.0,441.0],["C22orf31_2",-0.13545594436837677,-2.5100717241242614,12.0,398.0]]}}}
{"ccle_rrbs_cgi_clusters":{"corr":{"top":[["6_111277644_111282210-2",0.173530354463877,-4.444848783704605,12.0,549.0],["17_76775510_76780390-2",0.1868253554446053,-3.5608043830293266,8.0,367.0],["17_47267331_47269883-2",0.22107416746636077,-9.809462039360797,23.0,797.0],["12_5542092_5544973-1",0.17261843825014397,-3.2868301649247367,9.0,392.0],["23_54206939_54211723-3",0.2507523412485683,-6.1762901621057935,11.0,372.0],["3_48632392_48634901-2",0.24224754420041664,-7.61410739872355,16.0,501.0],["19_58692501_58697107-3",0.21775507158145602,-5.318214661915187,13.0,420.0],["5_142780071_142783571-1",0.2926946169044675,-17.07332035741565,24.0,803.0],["17_47335772_47339993-3",0.1815850813297001,-4.545984151540655,12.0,513.0],["2_145274417_145277378-2",0.18478748623907026,-6.045327291568938,23.0,674.0],["13_47127838_47130706-1",0.17365949806204645,-6.311178434519108,24.0,805.0],["7_23050971_23053487-2",0.2034572866522381,-8.600751534720933,24.0,819.0]],"bottom":[["1_109631188_109635632-1",-0.16739399018058815,-5.586391808724899,23.0,757.0],["1_249165408_249170010-1",-0.152208917360945,-4.899271310196367,24.0,792.0],["19_19746266_19751131-1",-0.17994520419225316,-6.826340983026046,24.0,817.0],["18_19754794_19759080-3",-0.1670100854918428,-5.614357334527496,23.0,765.0],["7_139477951_139480496-3",-0.14760668280867156,-2.7874242008491934,15.0,438.0],["3_10274025_10278415-3",-0.21842779746526653,-8.978223338593073,22.0,742.0],["5_1052619_1056880-3",-0.1447059346173359,-4.466949650454524,23.0,791.0],["7_2472906_2475567-3",-0.2176526963435595,-7.052815191827698,15.0,577.0],["13_114784335_114788537-3",-0.23488610852104783,-2.445911835620928,9.0,143.0],["6_160390361_160392890-3",-0.23911427433730864,-4.531757954978696,13.0,286.0],["6_150241902_150246210-3",-0.15778353214640808,-2.3370796182631377,13.0,308.0],["16_2046194_2050754-1",-0.15513940006607344,-5.213733625040976,24.0,818.0],["23_21872261_21876825-3",-0.14880974113810053,-3.073367147058689,17.0,483.0],["19_9962944_9967433-2",-0.20887621401863446,-8.998033588688283,24.0,815.0],["13_114525036_114529361-1",-0.1520231493335761,-5.026831863125278,24.0,818.0],["17_79942613_79947337-1",-0.19162861423370955,-7.612665851993539,24.0,810.0],["9_97846140_97850525-1",-0.16130668177040744,-5.469154658992551,24.0,797.0],["20_36029537_36033810-2",-0.16531375352631528,-3.8610803626309376,13.0,514.0],["11_59663579_59667857-1",-0.15833732690115507,-3.178606234445024,12.0,447.0],["17_80048625_80052881-2",-0.15288759279933586,-5.0621894523745645,24.0,815.0],["15_45442487_45446705-2",-0.21533957155765254,-5.984441701236087,14.0,491.0],["13_114527356_114531729-1",-0.17442421428077148,-6.459586519161098,24.0,819.0],["7_119913062_119917485-3",-0.17506853393308147,-4.664693816246501,15.0,567.0],["15_51198258_51200764-1",-0.14543292984783765,-4.29658836566666,24.0,747.0],["19_17629780_17633992-2",-0.1451819654828391,-4.580694836521425,23.0,809.0],["10_134163143_134165728-1",-0.14495204824063035,-4.349295115829206,24.0,763.0],["1_182989804_182992587-1",-0.16027667122330966,-5.311747126258835,24.0,781.0],["19_1358038_1362347-1",-0.17430080545255322,-6.444252905501904,24.0,818.0],["18_29075552_29080526-1",-0.16145682709718953,-2.2832450721007826,8.0,290.0],["16_2284600_2287336-1",-0.1556509286992157,-5.194679147692967,24.0,809.0],["7_927476_932013-2",-0.19253683810090427,-4.741903405749192,15.0,474.0],["10_17656665_17661639-2",-0.16255446954179917,-5.412651008348811,23.0,776.0],["8_59058791_59061414-3",-0.14704392092047688,-4.406324037341297,23.0,753.0],["20_57554341_57558726-3",-0.1574332704309126,-5.171490803552491,24.0,786.0],["19_15290399_15294632-2",-0.18895377198056804,-4.318433975930288,11.0,446.0],["6_158244318_158247035-3",-0.1456581256671602,-4.155948449702486,24.0,716.0],["11_20406755_20409268-2",-0.2228279072470025,-3.4620875014558745,8.0,246.0],["7_27188274_27193115-3",-0.15476077476723044,-5.14129997439309,24.0,809.0],["19_7617492_7620064-1",-0.18780147355028734,-7.25986574696556,24.0,801.0],["19_15290399_15294632-3",-0.1595537795981857,-3.172722702500811,11.0,440.0]]},"para":{"top":[["2_75183567_75188177-3",0.12705015477538684,-2.4637227219373936,9.0,445.0],["13_112893427_112897708-3",0.17171662724810113,-3.593460082171656,11.0,400.0],["10_11205178_11209980-1",0.1949140416396709,-4.2510574292133985,10.0,384.0],["22_41599069_41603476-1",0.12563518785924221,-2.2669845855554844,8.0,405.0],["2_219742986_219747780-1",0.14454655002846065,-3.5283416117069937,15.0,551.0],["2_197789390_197793599-3",0.1940563026132141,-4.962644377704316,11.0,469.0],["12_5542092_5544973-1",0.14711659792374196,-2.785859062705678,9.0,392.0],["20_19190459_19193181-1",0.22793432509854628,-3.498213295440261,8.0,218.0],["23_54206939_54211723-3",0.21321827567011523,-4.809023674378101,11.0,372.0],["3_48632392_48634901-2",0.21732657768945143,-6.398876171966022,16.0,501.0],["5_142780071_142783571-1",0.18585384054428392,-7.335221161938833,24.0,803.0]],"bottom":[["21_43272625_43276913-1",-0.11915945509249475,-3.361604419186192,21.0,761.0],["20_49455137_49459342-1",-0.13258831274613792,-2.7548820838934733,10.0,476.0],["11_43594990_43599336-1",-0.12992953519914371,-2.4509842271845206,11.0,420.0],["19_47931295_47935827-1",-0.14757997278720306,-2.2899657978834487,10.0,294.0],["23_47048088_47052340-2",-0.14324273133861473,-2.639202852052171,8.0,385.0],["5_178287408_178289942-2",-0.16021007988249067,-2.054898660828892,8.0,213.0],["6_36924928_36929262-3",-0.10513350123067809,-1.8805061154029123,8.0,440.0],["7_2472906_2475567-3",-0.19138435655968306,-5.783582981490357,15.0,577.0],["13_114784335_114788537-3",-0.19497380724125205,-2.0767640527029294,9.0,143.0],["6_160390361_160392890-3",-0.21687070901923144,-4.039130525075058,13.0,286.0],["2_86562242_86567068-3",-0.11921488951952929,-2.5957966415003884,9.0,545.0],["15_45442487_45446705-2",-0.1746835732614263,-4.354775876613509,14.0,491.0],["19_7617492_7620064-3",-0.15123558603298026,-4.105894289181904,18.0,608.0],["7_119913062_119917485-3",-0.16601664865360957,-4.50090959291151,15.0,567.0],["3_196752626_196756831-1",-0.1445262725826075,-4.713836641322896,24.0,788.0],["7_5398611_5403610-2",-0.15761270372310773,-3.491917210599306,17.0,453.0],["10_134163143_134165728-1",-0.15072535253381655,-4.923173402289094,24.0,763.0],["14_102974991_102978666-1",-0.15636066717822686,-2.462155676131459,8.0,292.0],["16_2284600_2287336-1",-0.11874595345818637,-3.5118594193242836,24.0,809.0],["1_207224281_207228842-2",-0.11815173457797812,-2.147849955746166,8.0,424.0],["19_39320264_39324574-2",-0.1139139318039636,-2.1107223985242105,9.0,444.0],["18_19754794_19759080-2",-0.1331385390549373,-2.9283212812496187,12.0,511.0],["8_144897819_144900354-2",-0.11804544953349244,-3.332880388903608,21.0,767.0],["12_103352137_103354695-3",-0.12418112089737557,-2.0021553357712816,10.0,343.0],["14_74767366_74771815-1",-0.12596166808503087,-3.8386987977958564,24.0,805.0],["19_13976293_13978918-3",-0.18172955604517402,-5.5558428535336875,19.0,607.0],["16_20818007_20820514-3",-0.14726305932626021,-2.959858897341488,10.0,424.0],["19_15290399_15294632-2",-0.14328177146458104,-2.953696449725016,11.0,446.0],["1_4724576_4728867-3",-0.127870118676958,-2.2559686200509153,9.0,387.0],["11_20406755_20409268-2",-0.21010718427055586,-3.3762198134751613,8.0,246.0],["5_7287733_7292153-1",-0.10459537293933016,-2.0213708049218733,11.0,493.0],["12_113547885_113552165-2",-0.13820147367844512,-2.408653340170583,10.0,362.0],["6_15494804_15499336-1",-0.12264574050737538,-3.69774510514419,24.0,810.0]]}}}
