{"ccle_chromatin":{"corr":{"top":[],"bottom":[]},"para":{"top":[],"bottom":[]}}}
{"ccle_rppa":{"corr":{"top":[],"bottom":[]},"para":{"top":[],"bottom":[]}}}
{"ccle_metabolomics":{"corr":{"top":[["C18:1 LPC",0.09531629248133702,-2.4347073917031214,42.0,885.0]],"bottom":[["palmitoylcarnitine",-0.12583350266261664,-3.9123101208151723,42.0,885.0],["C56:7 TAG",-0.10063375650669218,-2.6660065200430467,42.0,885.0],["myristoylcarnitine",-0.10916779799045821,-3.0601063732174243,42.0,885.0],["stearoylcarnitine",-0.11658566290454504,-3.42582419566115,42.0,885.0],["lauroylcarnitine",-0.10320153836695635,-2.7816075788123564,42.0,885.0]]},"para":{"top":[],"bottom":[]}}}
{"ccle_rrbs_enhancer_clusters":{"corr":{"top":[],"bottom":[["7-115453163-115456796-0_enh",-0.09730603799438224,-2.180229057585416,38.0,740.0]]},"para":{"top":[],"bottom":[]}}}
{"ccle_mirna":{"corr":{"top":[],"bottom":[["hsa-let-7i_miR00008.1",-0.09761108197264395,-2.59462868196549,43.0,911.0]]},"para":{"top":[],"bottom":[]}}}
{"prism_primary_logfold":{"corr":{"top":[["dibenzothiophene_BRD-K46863940-001-06-2::2.5::HTS",0.11478357437434168,-2.078201758521608,26.0,501.0],["rifamycin-sv_BRD-K13277760-001-01-2::2.5::MTS004",0.10572511567279584,-1.852032243346284,30.0,509.0],["ethenzamide_BRD-K88308881-001-06-8::2.5::HTS",0.13275065352874818,-2.763699074105381,31.0,524.0],["indoramin_BRD-K76953762-001-08-5::2.5::HTS",0.10858116124288184,-1.9625507177912254,31.0,518.0],["TRV130_BRD-K35626314-003-01-1::2.499986242::MTS004",0.120707104073368,-2.303352699019878,29.0,511.0],["minaprine_BRD-K02867583-300-08-9::2.5::HTS",0.1051836469232402,-1.8723586460203783,31.0,521.0],["isbufylline_BRD-K06762493-001-08-1::2.5::HTS",0.1209003558908434,-2.3624296808660397,31.0,524.0],["RS-100329_BRD-K08640512-003-02-3::2.5::HTS",0.10941517299583717,-1.9900397959481595,31.0,519.0],["PF-03049423_BRD-K07070922-001-01-4::2.5::MTS004",0.1354525760144214,-2.7943677504681474,29.0,511.0],["promethazine_BRD-A46335897-003-27-8::2.499949994::MTS004",0.1184939314778118,-2.23392694545565,29.0,511.0],["brigatinib_BRD-K56981171-001-01-0::2.500008954::MTS004",0.15287682612624365,-3.4340457743907544,30.0,509.0],["chlorobutanol_BRD-K39495750-001-01-2::2.5::HTS",0.08746025303390943,-1.3490646131546666,26.0,501.0],["ZD-2079_BRD-K64157027-003-02-7::2.5::HTS",0.1136513601751879,-2.129974818342735,31.0,523.0],["demecarium_BRD-K51471001-303-04-7::2.5::HTS",0.12396841620501754,-2.4520711523388177,31.0,521.0],["FPA-124_BRD-M17926088-001-01-3::2.5::HTS",0.12733383326891445,-2.4672267217279447,26.0,501.0],["naltrexone_BRD-K88172511-003-20-3::2.42::HTS",0.1067500615208789,-1.8472678579965658,26.0,501.0],["TAK-285_BRD-K80343549-001-02-6::2.5::HTS",0.10932638030957015,-1.949234455608265,27.0,510.0],["olmutinib_BRD-K60421517-001-01-4::2.499975038::MTS004",0.11668407007040683,-2.1746619570376104,30.0,509.0]],"bottom":[["fosaprepitant-dimeglumine_BRD-K23848629-401-03-7::2.5::MTS004",-0.1536335361965223,-3.469178154318721,29.0,511.0],["scriptaid_BRD-K22503835-001-11-0::2.5::HTS",-0.13187216006965236,-2.741107916438546,30.0,527.0],["spironolactone_BRD-K90027355-001-19-0::2.5::HTS",-0.1594623018587905,-3.8210058926012977,31.0,529.0],["oritavancin_BRD-A33352494-316-01-6::2.499995956::MTS004",-0.11576512021907355,-2.146581113954926,30.0,509.0],["colforsin-daproate_BRD-K19388745-003-01-7::2.5::HTS",-0.12829198003066639,-2.608845913591626,31.0,524.0],["pifithrin-mu_BRD-K96799727-001-06-6::2.5::HTS",-0.1246026990773572,-2.487985857903492,31.0,525.0],["eslicarbazepine-acetate_BRD-K61237927-001-01-7::2.5::HTS",-0.14384127272298589,-3.179173884457847,30.0,527.0],["velneperit_BRD-K06357403-001-01-4::2.49996939::MTS004",-0.14110985200227472,-2.991327175621146,30.0,509.0],["quinestrol_BRD-A16439188-001-01-1::2.5::HTS",-0.15151208988038414,-3.472736256899383,31.0,525.0],["BS-181_BRD-K31313613-003-04-2::2.5::HTS",-0.12492072459138337,-2.494870345002042,31.0,524.0],["ticagrelor_BRD-K44974079-001-01-3::2.5::HTS",-0.11936222135635553,-2.292081100726727,31.0,518.0],["JQ1-(+)_BRD-K54606188-001-13-1::2.5::HTS",-0.1478684364997818,-3.349768980044415,31.0,529.0],["palomid-529_BRD-A50998626-001-02-1::2.5::HTS",-0.1464116475276752,-3.257550770860341,31.0,522.0],["AY-9944_BRD-K77012840-300-01-6::2.5::HTS",-0.11552729994994475,-2.1977834674656496,30.0,527.0],["BF2.649_BRD-K21673112-003-01-3::2.5::HTS",-0.1162377133944367,-2.2036999365255254,31.0,521.0],["axitinib_BRD-K29905972-001-06-3::2.5::HTS",-0.13362120016288997,-2.7817304739924493,31.0,521.0],["isopropamide-iodide_BRD-K14127446-005-22-7::2.5::HTS",-0.12533856207699637,-2.5088517545353426,31.0,524.0],["ACY-1215_BRD-K82928847-001-04-7::2.5::HTS",-0.15607223557564248,-3.5884766886310757,31.0,513.0],["BMY-45778_BRD-K84895041-001-02-4::2.5::HTS",-0.12191271962962431,-2.4061670518489793,31.0,527.0],["misoprostol_BRD-A72351335-001-04-5::2.463310717::MTS004",-0.12135410027345081,-2.320297887671225,30.0,509.0],["resminostat_BRD-K28822270-001-01-1::2.5::HTS",-0.1440839203738042,-3.163913680728008,31.0,521.0],["I-BET151_BRD-K36363294-001-04-2::2.5::HTS",-0.1395421177672832,-2.925549352327437,27.0,510.0],["PRT062070_BRD-K25835157-001-01-4::2.5::HTS",-0.1387621118711636,-2.9890771305024186,30.0,527.0],["benperidol_BRD-K79425933-001-09-3::2.5::HTS",-0.11609976340690713,-2.1993930799394548,31.0,521.0],["fluocinonide_BRD-K57886322-001-16-6::2.5::MTS004",-0.13588166462931547,-2.8050092784228537,30.0,509.0],["dichlorisone-acetate_BRD-K54187111-001-08-4::2.51::HTS",-0.12498622986856688,-2.391811203053863,26.0,501.0],["methoxamine_BRD-A39189014-003-22-7::2.5::HTS",-0.12340492674343699,-2.4444928593194235,31.0,524.0]]},"para":{"top":[],"bottom":[]}}}
{"prism_secondary_logfold":{"corr":{"top":[["RI-1_BRD-K79555887-001-01-0::0.00976562::HTS002",0.1300809833925859,-2.2919843571057563,28.0,434.0],["FERb-033_BRD-K61642990-001-01-0::0.0390625::HTS002",0.13120197915307993,-2.3789465821144735,29.0,446.0],["A61603_BRD-A83650191-004-02-8::0.0390625::HTS002",0.14532850146658327,-2.689599005483096,28.0,420.0],["brigatinib_BRD-K56981171-001-01-0::2.5::MTS006",0.18589286075113182,-4.283238759792271,30.0,438.0],["tagatose_BRD-A73556557-001-06-4::0.000610352::HTS002",0.13780598752942858,-2.5873164540193296,30.0,446.0],["AZD4547_BRD-K28392481-001-05-1::0.625::HTS002",0.13895360283992697,-2.586687419021966,29.0,439.0],["vismodegib_BRD-K44827188-001-06-0::0.00977::MTS010::PROS003_PR500",0.15382083501502072,-3.018650327076084,29.0,429.0],["vatalanib_BRD-K70163715-300-05-7::0.151124::HTS002",0.14149175817576665,-2.6716378256002407,29.0,440.0],["JNJ-7706621_BRD-K11636097-001-03-1::0.0390625::HTS002",0.14843149004740253,-2.7824206131495273,27.0,420.0],["doxifluridine_BRD-K58262659-001-09-7::0.00976562::HTS002",0.1384140163830002,-2.5744088297038386,29.0,440.0],["lucitanib_BRD-K31309378-001-01-5::0.15625::HTS002",0.13759598803394812,-2.539793966924534,30.0,437.0],["BMS-754807_BRD-K13049116-001-05-7::0.625::HTS002",0.14209811294187136,-2.6958451212791927,29.0,441.0],["cetylpyridinium_BRD-K87700323-003-05-1::0.00061034::HTS002",0.13031981691218655,-2.31952746775463,30.0,437.0],["eltrombopag_BRD-K40496271-396-01-1::0.586003::HTS002",0.13606389183676218,-2.389919562031443,27.0,417.0],["piperazine_BRD-K13249881-001-02-3::0.0024414::HTS002",0.1315278355924783,-2.1622206995779534,26.0,395.0],["ZSTK-474_BRD-K63068307-001-08-9::0.0390625::HTS002",0.1400851870466664,-2.636365666970785,30.0,441.0],["nilotinib_BRD-K81528515-001-13-8::0.15625::HTS002",0.20876477663475068,-5.2898073935898795,29.0,440.0],["2'-MeCCPA_BRD-K63932022-001-01-5::0.00061034::HTS002",0.16631855340986867,-3.3897717712239004,28.0,420.0],["ritodrine_BRD-K14003026-003-09-0::0.615101::HTS002",0.13522219067022284,-2.493177600990378,29.0,444.0],["barasertib_BRD-K31928526-001-02-1::0.0390625::HTS002",0.14113379226143283,-2.583872020740841,27.0,426.0],["finafloxacin_BRD-K98384930-003-01-5::0.000610352::HTS002",0.16085458153657986,-3.315270829238272,30.0,437.0],["D-4476_BRD-K09132007-001-07-5::0.00061034::HTS002",0.15003672433546178,-2.924869717623888,29.0,435.0],["PD-173074_BRD-K97764662-001-17-3::0.00061034::HTS002",0.17433290653965547,-3.673016387286711,28.0,419.0],["MTPG_BRD-A28329383-001-02-1::2.5::HTS002",0.13488357856315983,-2.4914833375453767,30.0,445.0],["vorinostat_BRD-K81418486-001-44-2::0.00061::MTS010::PROS001_PR500",0.13439569574494728,-2.406781493625597,28.0,431.0],["GW-842166_BRD-K26823213-001-02-9::0.15625::HTS002",0.1296512264241855,-2.3120234233061443,29.0,441.0],["SID-7969543_BRD-A43885598-001-08-1::0.15625::HTS002",0.13722725119020643,-2.351337732450715,25.0,403.0],["VS-4718_BRD-K09877029-001-01-2::0.15625::HTS002",0.16245983847971893,-3.3417612565789994,28.0,434.0],["carmustine_BRD-K36234266-001-09-8::0.00061034::HTS002",0.16507633741767122,-3.467904069060349,28.0,439.0],["idazoxan_BRD-A18696154-003-22-6::0.00061034::HTS002",0.1355348315178171,-2.476331924141588,30.0,437.0],["stemregenin-1_BRD-K36739687-001-03-0::0.15625::HTS002",0.14227073824119355,-2.5947694473606964,28.0,420.0],["astemizole_BRD-K37249724-001-25-7::0.00061034::HTS002",0.1377650978854526,-2.5313628597324263,29.0,435.0],["GSK1838705A_BRD-K06749501-001-02-1::0.15625::HTS002",0.16594001659064123,-3.3763746874465186,28.0,420.0],["phenylmercuric-acetate_BRD-K74193284-001-04-8::0.00061034::HTS002",0.13805523197274053,-2.5540491453070095,28.0,439.0],["FK-3311_BRD-K38350380-001-01-8::0.00976562::HTS002",0.1299531373914178,-2.308704348385728,30.0,437.0],["odanacatib_BRD-K22822991-001-02-3::0.00061034::HTS002",0.20868748273294993,-3.013942586538248,15.0,232.0],["homoquinolinic-acid_BRD-K30519779-001-03-1::0.00061034::HTS002",0.13350226802589635,-2.332772904383635,28.0,420.0],["SB-525334_BRD-K37720887-001-07-8::0.0390625::HTS002",0.13992126704631397,-2.296229597602414,23.0,377.0],["GSK2126458_BRD-K07972848-001-02-0::0.00976562::HTS002",0.17080121045512875,-3.233998595393812,25.0,377.0],["gamma-aminobutyric-acid_BRD-K77245796-003-01-6::0.0390625::HTS002",0.14095293532537087,-2.5544555609493194,28.0,420.0],["elesclomol_BRD-K82135108-001-04-3::2.5::MTS010::PROS001_PR500",0.23246442811336218,-2.759490516594895,13.0,166.0],["rociletinib_BRD-K33610132-001-02-9::0.625::HTS002",0.1311651364380093,-2.2654094090991608,28.0,420.0],["AZ-628_BRD-K05804044-001-18-5::0.00061::MTS010::PROS004_PR500",0.12993709916936025,-2.308231559632606,29.0,438.0],["XL388_BRD-K03549949-001-01-0::0.00976562::HTS002",0.131451193559213,-2.256828841326038,24.0,420.0],["clopamide_BRD-A85651701-001-19-7::0.00061034::HTS002",0.13179427213130424,-2.3549208391589915,29.0,436.0],["SB-505124_BRD-K40109029-001-02-9::0.15625::HTS002",0.13632542293400324,-2.5050425170141506,29.0,439.0],["atenolol-(+\/-)_BRD-A20239487-001-24-9::0.15625::HTS002",0.131389260323503,-2.263448394421311,28.0,418.0]],"bottom":[["mitoxantrone_BRD-K21680192-300-14-4::2.5::HTS002",-0.17746694496627705,-3.5233706853864977,26.0,385.0],["givinostat_BRD-K13810148-311-03-2::2.5::HTS002",-0.16671739107185,-3.364596758443535,24.0,418.0],["podophyllotoxin_BRD-K47869605-001-32-0::0.625::HTS002",-0.16633796297358666,-3.514235334562247,28.0,439.0],["cycloheximide_BRD-K36055864-001-19-2::2.5::HTS002",-0.17898041142852125,-3.959476878924843,28.0,434.0],["9-aminoacridine_BRD-K00535541-001-06-3::2.5::HTS002",-0.15527465963307377,-3.096346294846716,28.0,435.0],["ACY-1215_BRD-K82928847-001-04-7::10::HTS002",-0.17507562732034945,-3.880133183421106,30.0,442.0],["vorinostat_BRD-K81418486-001-47-5::2.5::HTS002",-0.1526415249601624,-3.0288692185453034,28.0,439.0],["pirenperone_BRD-K25224017-001-25-0::0.15625::HTS002",-0.16555451954746836,-3.5369861492828782,29.0,446.0],["LY2606368_BRD-K20463415-300-01-4::10::MTS006",-0.1537606760865352,-3.0782852468631763,30.0,439.0],["oxprenolol_BRD-A43671941-003-11-9::2.5::HTS002",-0.15468669583185926,-3.0932262503624566,29.0,437.0],["anguidine_BRD-K45724504-001-01-6::0.085288::HTS002",-0.17977644809082322,-3.9982358755224547,29.0,434.0],["UNC2250_BRD-K01773560-001-02-4::0.00253231::HTS002",-0.17011740054313565,-3.62784011329488,28.0,435.0],["metoxibutropate_BRD-A71725768-001-01-3::10::HTS002",-0.16365303293940783,-3.3907962321255884,28.0,435.0],["cycloheximide_BRD-K36055864-001-19-2::10::HTS002",-0.18416389200063998,-4.172961500215373,28.0,435.0],["IEM1754_BRD-K80060353-303-03-9::0.0384672::HTS002",-0.14977358428949203,-2.921447938322889,29.0,436.0],["PCI-24781_BRD-K12867552-001-04-7::0.625::HTS002",-0.15706423583228904,-3.0704015665946187,28.0,420.0],["bentazepam_BRD-K89490285-001-08-1::0.039062503::MTS006",-0.16227991944313663,-3.3725959461230843,30.0,438.0],["pentagastrin_BRD-K78789465-001-01-6::10::HTS002",-0.16005946013507835,-2.9531033284569768,26.0,386.0],["etofylline-clofibrate_BRD-K49840922-001-05-1::0.15625::HTS002",-0.17401475755524554,-2.8799015098549248,23.0,315.0],["VTP-27999_BRD-K81694556-003-01-9::10::HTS002",-0.16571705258724725,-2.62353096825362,21.0,313.0],["estramustine_BRD-A70858459-001-01-7::10::HTS002",-0.16478727198532334,-3.4381578029307236,29.0,435.0],["scriptaid_BRD-K22503835-001-11-0::2.5::HTS002",-0.16281261958265938,-3.4355441641315214,29.0,446.0],["R306465_BRD-K86687746-001-01-3::0.625::HTS002",-0.1748533092112446,-3.3538869358123895,25.0,375.0],["fenbendazole_BRD-K51318897-001-15-3::0.625::HTS002",-0.18357106272213933,-3.817842643166017,26.0,395.0],["CUDC-907_BRD-K77638923-001-02-0::0.0390625::HTS002",-0.15468600823783785,-3.115865987818503,30.0,440.0],["anguidine_BRD-K45724504-001-01-6::0.341152::HTS002",-0.1697257537817196,-3.606466043727273,29.0,433.0],["puromycin_BRD-A28970875-300-04-9::0.15625::HTS002",-0.17731463358154267,-3.9019760544138506,28.0,435.0],["cromakalim_BRD-M89827113-001-01-5::0.15625::HTS002",-0.2132271953763682,-4.066379900994263,21.0,313.0],["bruceantin_BRD-A36057565-001-01-0::0.00061034::HTS002",-0.15510804825161495,-3.1305105585719253,30.0,440.0],["naloxone_BRD-K67511046-001-02-3::0.00061034::HTS002",-0.17337511702870134,-1.6927339714531167,9.0,170.0],["secnidazole_BRD-A70083328-001-23-5::10::HTS002",-0.155435228931778,-3.1361720301214486,28.0,441.0],["CID-5458317_BRD-A08840375-001-01-3::2.5::HTS002",-0.15518915667816738,-3.156120116079657,30.0,444.0],["SMI-4a_BRD-K70159787-001-01-1::10::HTS002",-0.17905288176832493,-3.8422063854170436,27.0,419.0],["KI-16425_BRD-A25569250-001-03-3::10::HTS002",-0.15757353855724546,-3.2461201717045207,30.0,445.0],["A-674563_BRD-K78177893-001-02-4::0.625::HTS002",-0.15385991700608867,-2.9468805691444095,27.0,418.0],["fluorometholone_BRD-A13133631-001-04-0::2.5::HTS002",-0.15222730965306136,-2.9046846737333527,28.0,419.0],["obatoclax_BRD-K15600710-066-04-1::2.5::HTS002",-0.1618467124391595,-2.753766379764036,23.0,348.0],["bruceantin_BRD-A36057565-001-01-0::0.15625::HTS002",-0.17056360747184002,-3.5351308969602053,29.0,418.0],["terfenadine_BRD-A06352418-001-25-9::2.5::HTS002",-0.1900361366648657,-3.974415344508794,26.0,385.0]]},"para":{"top":[["carfilzomib_BRD-K15179879-001-03-2::0.15625::HTS002",0.22779063102445765,-2.0150547638770346,8.0,99.0],["odanacatib_BRD-K22822991-001-02-3::0.00061034::HTS002",0.22799560411713898,-3.7551969092704724,15.0,232.0],["elesclomol_BRD-K82135108-001-04-3::2.5::MTS010::PROS001_PR500",0.22996299386582722,-2.96368151419896,13.0,166.0]],"bottom":[["naloxone_BRD-K67511046-001-02-3::0.00061034::HTS002",-0.17514714070565698,-2.0082349414858056,9.0,170.0]]}}}
{"ccle_proteomics":{"corr":{"top":[["WDR18_Q9BV38",0.2114594642038249,-4.415667081998992,19.0,354.0],["RANGAP1_P46060",0.19184476246146534,-3.7133647597486887,19.0,354.0],["STX3_Q13277",0.19774382901679619,-3.834808941175473,19.0,345.0],["REV1_Q9UBZ9",0.20019627733695025,-3.5793964278334167,16.0,312.0],["SLC25A22_Q9H936",0.19133917302539535,-3.696144046465662,19.0,354.0],["CYSTM1_Q9H1C7",0.21902935314602484,-3.187107105865455,10.0,229.0],["PTGES2_Q9H7Z7",0.1852281835307979,-3.491455799516535,19.0,354.0],["TRAP1_Q12931",0.18447625512656235,-3.4667092403049207,19.0,354.0],["LSG1_Q9H089",0.19114379335211523,-3.6895010279284226,19.0,354.0],["CLTC_J3KRF5",0.18834149331898564,-1.3768227531946198,8.0,109.0],["CCDC51_Q96ER9",0.2644477326659836,-6.660260526972541,19.0,354.0],["PGAM5_Q96HS1",0.20679618148482426,-4.242603880732645,19.0,354.0],["TIMM23_O14925",0.21655678335248954,-4.609246178423102,19.0,354.0],["TTC19_Q6DKK2",0.27336417842909444,-7.090186754804254,19.0,354.0],["CYB5A_P00167",0.20178444634016893,-4.060870415055447,19.0,354.0],["SCO1_O75880",0.1895238144141274,-3.634672688876102,19.0,354.0],["MRPS27_Q92552",0.1879559808690275,-3.5820364686484694,19.0,354.0],["TIMM22_Q9Y584",0.1869416958868604,-3.5482076883798923,19.0,354.0],["CCSMST1_Q4G0I0",0.22081477318139184,-3.86988868170511,16.0,278.0],["POLDIP2_Q9Y2S7",0.19409891014021896,-3.7906767922502467,19.0,354.0],["PRKCZ_Q05513",0.19338521675895987,-2.887420443501272,13.0,261.0],["BMS1_Q14692",0.18385257032748836,-3.446256035346379,19.0,354.0],["C2orf47_Q8WWC4",0.20584935504923838,-4.207933232538367,19.0,354.0],["POLR2L_P62875",0.19697329376989,-3.7262001483644505,19.0,336.0],["QPCT_Q16769",0.22059526297183943,-2.187582314615861,8.0,143.0],["NIPSNAP1_Q9BPW8",0.19349696992127277,-3.7699461291620135,19.0,354.0],["FYCO1_Q9BQS8",0.19567002261040856,-3.845079644878655,19.0,354.0],["ZNF611_Q8N823",0.2879300781416224,-2.7840390398506707,11.0,106.0],["DTNA_Q9Y4J8-2",0.2509214112106486,-2.2907101083792942,9.0,114.0],["TTC31_Q49AM3",0.31315856565889444,-2.7230435066220546,8.0,88.0],["PELP1_Q8IZL8-2",0.21929822874636923,-4.715274134819789,19.0,354.0],["GOT2_P00505",0.22427477398636417,-4.911197467104686,19.0,354.0],["AATF_Q9NY61",0.18537140006251565,-3.496180049331621,19.0,354.0],["SLMO2_Q9Y3B1",0.20382836447670474,-2.903709429193461,12.0,236.0]],"bottom":[["DYNC1I1_O14576",-0.37526020066653665,-7.834773693396614,10.0,204.0],["IRF2_P14316",-0.18868072875311068,-3.530736199690887,19.0,345.0],["POTEI_P0CG38",-0.23590346251179678,-2.681690968850089,13.0,155.0],["EVI2B_B7Z4A7",-0.23531501994157936,-3.0458042150674647,9.0,187.0],["THUMPD2_Q9BTF0",-0.16163907407426933,-1.9669711827287322,11.0,237.0],["FYB_O15117-3",-0.19693156154653874,-2.0746743310155145,9.0,169.0],["FAM63A_Q8N5J2-3",-0.24657793867358974,-4.319536843238164,15.0,251.0],["ANKRD49_Q8WVL7",-0.1811176147656614,-1.8823039191690487,10.0,177.0],["IRF2BP2_Q7Z5L9",-0.16725024033294447,-2.925819520264771,19.0,354.0],["NDE1_Q9NXR1-2",-0.18764136210286836,-3.496742394478473,19.0,345.0],["SUMO3_A8MUA9",-0.1708193737897447,-2.7901258603653574,15.0,323.0],["MYB_P10242-4",-0.21349109911031078,-1.877579391454561,11.0,123.0],["ARHGDIB_P52566",-0.16078963641996907,-2.735657026726033,19.0,354.0],["TPM3_P06753-4",-0.16901182391475017,-2.9788622284068884,19.0,354.0],["FKBPL_Q9UIM3",-0.19111318577071545,-3.2219453986344653,17.0,302.0],["HBS1L_Q9Y450-2",-0.17431002702662035,-1.8220234941644329,11.0,183.0],["PLEK_P08567",-0.21460665661329095,-4.5346408070731234,19.0,354.0],["CARHSP1_Q9Y2V2",-0.1629569315379353,-2.7986862759938176,19.0,354.0],["ITGA4_P13612",-0.17765316906551729,-3.05166339282485,18.0,329.0]]},"para":{"top":[["REV1_Q9UBZ9",0.20463751478741077,-3.9659065719085813,16.0,312.0],["CYSTM1_Q9H1C7",0.22050094146314267,-3.471486912234272,10.0,229.0],["SLC25A22_Q9H936",0.19692674537801105,-4.135481189405313,19.0,354.0],["MAGEA2_P43356",0.18774038066621507,-2.1914178438653784,9.0,168.0],["CLTC_J3KRF5",0.2707236186615806,-2.743539537094887,8.0,109.0],["CCDC51_Q96ER9",0.2471492794373019,-6.026521464679172,19.0,354.0],["ARSK_Q6UWY0",0.1933104918111448,-2.0431646769384826,8.0,143.0],["SART3_F8VV04",0.21003488758469077,-2.0962793880362964,8.0,125.0],["TIMM23_O14925",0.20519331806337776,-4.419957729088133,19.0,354.0],["PGAM5_Q96HS1",0.21770662518249345,-4.870594002497058,19.0,354.0],["MRPS27_Q92552",0.18311126627455107,-3.683431070053301,19.0,354.0],["MRPL24_Q96A35",0.17909125004231985,-3.557368143324306,19.0,354.0],["LSM10_Q969L4",0.18222053120364895,-2.17676503162817,9.0,177.0],["DDX12P_Q92771",0.19167917580535895,-2.823482089371839,13.0,228.0],["NDUFA11_Q86Y39",0.18182648343589994,-3.4346133644973484,19.0,327.0],["SLC25A26_Q70HW3",0.20902645938145878,-2.9180663469173016,11.0,201.0],["ULBP1_Q9BZM6",0.17274178786905728,-2.0230394169117387,8.0,178.0],["DSTYK_Q6XUX3",0.18476170399133596,-2.804921308501323,13.0,244.0],["MRPS17_I3L0E3",0.189600340861759,-3.8171254461565844,19.0,345.0],["PRKCZ_Q05513",0.21389858161696013,-3.686323413585896,13.0,261.0],["C2orf47_Q8WWC4",0.20383445726787783,-4.372474042609,19.0,354.0],["DCDC2_Q9UHG0",0.2195035983830555,-2.6491203161525956,10.0,159.0],["FYCO1_Q9BQS8",0.1935861137219096,-4.023496418381581,19.0,354.0],["QPCT_Q16769",0.22417234225818725,-2.514415893946961,8.0,143.0],["ZNF611_Q8N823",0.3000180944565885,-3.203218190207397,11.0,106.0],["DTNA_Q9Y4J8-2",0.2523527730426971,-2.569065906271269,9.0,114.0],["TTC31_Q49AM3",0.2808524084084069,-2.5004218816754453,8.0,88.0],["PELP1_Q8IZL8-2",0.2128938034015564,-4.694413443887929,19.0,354.0],["GOT2_P00505",0.2156115218502601,-4.793459915008645,19.0,354.0],["GLB1L2_Q8IW92",0.17218693688525097,-2.4653624589671432,12.0,236.0],["SLMO2_Q9Y3B1",0.20210958726640496,-3.1244230061357112,12.0,236.0],["PEO1_Q96RR1",0.1906228126035536,-3.31541842418082,10.0,291.0]],"bottom":[["DYNC1I1_O14576",-0.2727414621550026,-4.458906884355354,10.0,204.0],["ZNF518A_Q6AHZ1",-0.1897248048501052,-1.838446208996617,8.0,126.0],["CD36_P16671",-0.1808744099587499,-2.529264490267522,10.0,223.0],["IRF2_P14316",-0.2076434710453527,-4.417207654739031,19.0,345.0],["POTEI_P0CG38",-0.25379558743192127,-3.27986940947022,13.0,155.0],["EVI2B_B7Z4A7",-0.2556932219343217,-3.744329740783686,9.0,187.0],["CLIC6_Q96NY7",-0.22131336759077513,-2.786365897330245,9.0,169.0],["FYB_O15117-3",-0.1953641466699988,-2.3262312780375733,9.0,169.0],["ANKRD49_Q8WVL7",-0.1783299197191529,-2.1210005642080314,10.0,177.0],["IRF2BP2_Q7Z5L9",-0.178468401791688,-3.538056520957171,19.0,354.0],["MSANTD2_Q6P1R3",-0.23436603976486106,-3.2434275992461234,10.0,184.0],["FKBPL_Q9UIM3",-0.1963413622343756,-3.633200325252411,17.0,302.0],["NADK_O95544",-0.15882778924361013,-2.031430559647539,11.0,210.0],["SLC15A1_P46059",-0.22119662592081263,-2.3837260294238285,9.0,135.0],["HBS1L_Q9Y450-2",-0.19879628668686655,-2.5377650805791627,11.0,183.0],["CCDC92_Q53HC0",-0.18470096944761843,-2.4345568173954724,11.0,201.0]]}}}
{"depmap_copy_number":{"corr":{"top":[],"bottom":[["TTYH1_57348",-0.07511999718194066,-2.741791818301888,64.0,1658.0],["MIR8061_102466251",-0.07314121480542833,-2.6217076039099103,64.0,1658.0],["LILRB4_11006",-0.07346084288634044,-2.640916754808278,64.0,1658.0]]},"para":{"top":[],"bottom":[]}}}
{"depmap_gene_tpm":{"corr":{"top":[["CCDC197_256369",0.12893931481663246,-5.504635375828294,52.0,1247.0],["VWA8_23078",0.13191282554545408,-5.7360270156174975,52.0,1247.0],["SPATA5L1_79029",0.14897487577358093,-7.162364480721292,52.0,1247.0],["PLK5_126520",0.1394285574648264,-6.343533717985747,52.0,1247.0],["STRBP_55342",0.13054575985439157,-5.629016535686403,52.0,1247.0],["TAF4B_6875",0.13089664566470133,-5.656380849831444,52.0,1247.0],["RCL1_10171",0.12840593217505086,-5.463663735575211,52.0,1247.0],["SLC16A10_117247",0.13094215294013065,-5.659934963175258,52.0,1247.0],["ZNF215_7762",0.12600714850116085,-5.281408379625054,52.0,1247.0],["C12orf66_144577",0.12863301357096055,-5.481087065603655,52.0,1247.0]],"bottom":[["IFIT3_3437",-0.1039877457349495,-3.760167434313162,52.0,1247.0],["C1R_715",-0.10746679487861328,-3.9824836243622737,52.0,1247.0],["RARRES3_5920",-0.09291687507185188,-3.097088393595029,52.0,1247.0],["GCNT4_51301",-0.09745283072407351,-3.3606403814713386,52.0,1247.0],["DACT1_51339",-0.10868724454863575,-4.062063608244391,52.0,1247.0],["DYNLRB1_83658",-0.10280270474151686,-3.68597113678035,52.0,1247.0],["EDIL3_10085",-0.12121166980556598,-4.926866321470353,52.0,1247.0],["TSPAN2_10100",-0.11200139300122476,-4.282349646488663,52.0,1247.0]]},"para":{"top":[],"bottom":[]}}}
{"avana":{"corr":{"top":[["BRPF3_27154",0.11743224537747517,-2.914470464350175,33.0,723.0],["CASKIN2_57513",0.1170816126708784,-2.9353901808053076,33.0,734.0],["ADAMTS18_170692",0.11632486368601899,-2.9032101894330995,33.0,734.0],["SBK2_646643",0.13268280434763327,-3.6406091859360292,33.0,734.0],["TUBB2A_7280",0.1304770209419625,-3.536028696351582,33.0,734.0],["SLC17A2_10246",0.13258022635684208,-3.6357099173037466,33.0,734.0],["ZNF418_147686",0.11870337175424638,-3.0049811759763494,33.0,734.0],["PCARE_388939",0.12068752169631028,-3.0912887733121273,33.0,734.0],["PRSS37_136242",0.12103295388811411,-3.106445982447905,33.0,734.0],["FTCD_10841",0.11832334638164733,-2.988597159168661,33.0,734.0],["TTC33_23548",0.13953452016913392,-3.975807965499688,33.0,734.0],["ZNF138_7697",0.11798981851897732,-2.9742565482709975,33.0,734.0],["DAZL_1618",0.1317031725914738,-3.5939634404687397,33.0,734.0],["ONECUT2_9480",0.1303999493092887,-3.532403782984832,33.0,734.0],["SIRT7_51547",0.178853822506175,-6.128383533211172,33.0,723.0],["KRTAP9-1_728318",0.13940281730860232,-3.9692166480682944,33.0,734.0],["TM2D3_80213",0.13647185113806914,-3.8240364042646906,33.0,734.0],["OPRK1_4986",0.12017611977864007,-3.0689205965810054,33.0,734.0],["EDEM3_80267",0.13611766736501513,-3.806687360802709,33.0,734.0],["PPL_5493",0.12732702605057258,-3.3894773453559535,33.0,734.0],["XKR3_150165",0.1292478994307332,-3.478454012592373,33.0,734.0],["GMPPA_29926",0.16782406259334604,-5.528446832087517,33.0,734.0],["ARHGAP25_9938",0.12695884940894744,-3.372562264245053,33.0,734.0],["DPP3_10072",0.12880242457751215,-3.457710536024063,33.0,734.0],["GCGR_2642",0.12012965930924417,-3.0668926989736636,33.0,734.0],["TRAF3IP1_26146",0.14877420023950377,-4.452831080256354,33.0,734.0],["AKR1C4_1109",0.12651181790661908,-3.3520844818161986,33.0,734.0],["PA2G4_5036",0.12150026333313911,-3.1270131523645994,33.0,734.0],["CLEC18B_497190",0.11795064067632922,-2.9725744060030856,33.0,734.0],["EPM2AIP1_9852",0.12017876045678676,-3.0690358775670066,33.0,734.0],["FN3KRP_79672",0.12033360895093607,-3.075799899678411,33.0,734.0],["MAP2K6_5608",0.1172316699821412,-2.941793330221686,33.0,734.0],["ATXN1_6310",0.1451819665703183,-4.263941147903995,33.0,734.0],["RTN1_6252",0.12228289748470471,-3.16161846579711,33.0,734.0],["CRTC1_23373",0.12064507321516287,-3.051665724355726,33.0,723.0],["CABP7_164633",0.1195267082756222,-3.040639136079729,33.0,734.0],["UBE2Q2_92912",0.1219564517941554,-3.1471598074080496,33.0,734.0],["PRB1_5542",0.1384108529752288,-3.9197590347150966,33.0,734.0],["CDR2L_30850",0.1257294128537031,-3.3164023389564234,33.0,734.0],["BMP10_27302",0.16091419132395868,-5.123812659647181,33.0,734.0],["TACC1_6867",0.11580411614273259,-2.8811739523817836,33.0,734.0],["ADAM21_8747",0.13364843853645603,-3.686900875256608,33.0,734.0],["DISP2_85455",0.14080276572316697,-4.039578075021437,33.0,734.0],["NEXMIF_340533",0.1177334910337067,-2.8089052955414453,33.0,687.0],["TMED8_283578",0.14738315957299208,-4.379166391342826,33.0,734.0],["PLA2G4B_100137049",0.11768987782577961,-2.961391005688714,33.0,734.0],["PSG3_5671",0.13228081790983148,-3.6214297652561482,33.0,734.0],["GNRH1_2796",0.12236484599626105,-3.1652535428617727,33.0,734.0],["RAC2_5880",0.12244978806166527,-3.169023730968713,33.0,734.0],["PELI1_57162",0.11711497120153318,-2.936813001768938,33.0,734.0],["RGL3_57139",0.12412448443931731,-3.2438391050438393,33.0,734.0],["SLC23A1_9963",0.13291156909461438,-3.65154791989633,33.0,734.0],["SNTB2_6645",0.12405839064784437,-3.2408689802988295,33.0,734.0],["SF3B2_10992",0.12018578558299556,-3.069342576345212,33.0,734.0],["GLYATL3_389396",0.12186566555528981,-3.1431449831124443,33.0,734.0]],"bottom":[["S100G_795",-0.13187567512418766,-3.410904096962186,33.0,687.0],["FXYD1_5348",-0.13688238950598708,-3.8441983795318375,33.0,734.0],["CD109_135228",-0.1123167494535121,-2.7358649449765142,33.0,734.0],["LAMP1_3916",-0.12509271457150994,-3.287514053629695,33.0,734.0],["SSH2_85464",-0.13365555569638546,-3.687243218555252,33.0,734.0],["GSE1_23199",-0.1111166998312444,-2.6867709535263926,33.0,734.0],["TTLL1_25809",-0.10992171209156804,-2.638345013183281,33.0,734.0],["DGKE_8526",-0.11815016620491722,-2.9811464546666735,33.0,734.0],["TNFAIP8L3_388121",-0.1303704980473891,-3.531019120672883,33.0,734.0],["PET100_100131801",-0.10953611318484634,-2.622816940198584,33.0,734.0],["CFAP299_255119",-0.1609474854473353,-5.125722580246469,33.0,734.0],["HOOK1_51361",-0.11494436002942406,-2.8449845725540612,33.0,734.0],["HIBCH_26275",-0.11452081629619422,-2.827244597059416,33.0,734.0],["PRDM6_93166",-0.11186920188108841,-2.684727139239558,33.0,723.0],["PIGG_54872",-0.15999942493305452,-5.071487007081192,33.0,734.0],["LFNG_3955",-0.12815050977168704,-3.4274725330543174,33.0,734.0],["CACNA1D_776",-0.12292881092095627,-3.1903296349671257,33.0,734.0],["COL4A5_1287",-0.1140011551520019,-2.660241732704123,33.0,687.0],["LAMP5_24141",-0.12542077913005062,-3.3023823390333207,33.0,734.0],["TMEM39B_55116",-0.12090334184544516,-3.1007541660917264,33.0,734.0],["SLC12A9_56996",-0.11492792528564232,-2.8442951254508584,33.0,734.0],["GPR32_2854",-0.1104859628227516,-2.6611535649468308,33.0,734.0],["DLX1_1745",-0.14359709767090664,-4.181994614179414,33.0,734.0],["IL4_3565",-0.15427489737217578,-4.7505915271775,33.0,734.0],["THNSL2_55258",-0.11604868305922901,-2.8915122166719525,33.0,734.0],["HINT3_135114",-0.11160299683087795,-2.706609394438668,33.0,734.0],["FAM131C_348487",-0.10976197717307108,-2.631906687688963,33.0,734.0],["MTIF3_219402",-0.14957378222262102,-4.495472119433632,33.0,734.0],["C17orf53_78995",-0.13009810963645424,-3.518226304417196,33.0,734.0],["TRO_7216",-0.11381697920216315,-2.6530151861242097,33.0,687.0],["ZNF566_84924",-0.11177662274835458,-2.713710913256644,33.0,734.0],["WDR62_284403",-0.11083535942242972,-2.6753284857935036,33.0,734.0],["WDR83OS_51398",-0.11649233055955491,-2.910315519206256,33.0,734.0],["ADGRV1_84059",-0.15250552286634014,-4.65368463575729,33.0,734.0],["HHIPL1_84439",-0.12146237073688894,-3.1253427656634054,33.0,734.0],["CPEB2_132864",-0.1122050379372031,-2.731275224934302,33.0,734.0],["ACOT8_10005",-0.1098782772116604,-2.63659350136969,33.0,734.0],["ADAM30_11085",-0.12353279032809417,-3.217300611668058,33.0,734.0],["TENT5D_169966",-0.11924175990905095,-2.8701837953164344,33.0,687.0],["KPNA7_402569",-0.12111614929914444,-3.110102342129603,33.0,734.0],["IDH2_3418",-0.111233859839,-2.6591157753201458,33.0,723.0],["GYS2_2998",-0.11886757464955579,-3.0120750089451485,33.0,734.0],["DNM1L_10059",-0.13066099166078757,-3.544689362241912,33.0,734.0],["IL17B_27190",-0.12796801707859776,-3.419033076891322,33.0,734.0],["CCDC7_79741",-0.1265481865257798,-3.353748006041563,33.0,734.0],["CXorf57_55086",-0.12026819247304421,-2.912283084669038,33.0,687.0],["TGM4_7047",-0.11339208755183298,-2.7802517995889997,33.0,734.0],["XDH_7498",-0.11723309388819694,-2.941854125296425,33.0,734.0],["IKBIP_121457",-0.11125179741815569,-2.692274602712893,33.0,734.0],["TBXA2R_6915",-0.13779629535931423,-3.8892838596788883,33.0,734.0],["SIK2_23235",-0.11088574359749576,-2.677375799753965,33.0,734.0],["ZNF800_168850",-0.10931673422841945,-2.614003871432886,33.0,734.0],["LGALS7_3963",-0.12428899871027595,-3.2512382850389296,33.0,734.0],["SYP_6855",-0.11660472093781446,-2.7634985802971093,33.0,687.0],["C1QB_713",-0.12217563842419667,-3.1568639866984083,33.0,734.0],["CDK16_5127",-0.1444905621964896,-4.000349458909784,33.0,687.0],["EDNRA_1909",-0.13404136266095176,-3.705826217182623,33.0,734.0],["PUSL1_126789",-0.11117769885990873,-2.6892552236132756,33.0,734.0],["APOE_348",-0.12775999998485846,-3.40942665355824,33.0,734.0],["PHF13_148479",-0.12036316084057692,-3.0394946273210497,33.0,723.0],["AMER1_139285",-0.13282197567149107,-3.4533923319141584,33.0,687.0]]},"para":{"top":[],"bottom":[]}}}
{"drive":{"corr":{"top":[["PPEF2_5470",0.13357846880748445,-2.0043190592467104,18.0,354.0],["WDCP_80304",0.13788100252997262,-2.1111656671611683,17.0,355.0],["COL11A2_1302",0.1298787502160673,-1.9147487505321674,18.0,354.0],["DENND5B_160518",0.13173493495602123,-1.959421395332898,18.0,354.0],["PTOV1_53635",0.12296317763931773,-1.7529930176445239,18.0,354.0],["CTDP1_9150",0.15012576997311558,-2.4475377072763,17.0,358.0],["RIPK2_8767",0.14771940248686613,-2.3822786036890315,17.0,358.0],["ATP13A3_79572",0.14421720527495463,-2.2738087239979228,18.0,354.0],["ADCY2_108",0.11940153250522566,-1.7225627206127394,19.0,367.0],["DCAF1_9730",0.15137868178053024,-2.4818856830880436,17.0,358.0],["MCM2_4171",0.13082419898369843,-1.950104088963472,17.0,358.0],["SAMD7_344658",0.14619461584164012,-2.341409559541472,17.0,358.0]],"bottom":[["POTEB_100996331",-0.12581549368396555,-1.8188176508089193,17.0,355.0]]},"para":{"top":[["SNRNP200_23020",0.15487278313321287,-2.8439661564256467,17.0,355.0],["ATP13A3_79572",0.17300263672869448,-3.364062717031209,18.0,354.0],["SAMD7_344658",0.16169138347418865,-3.0522930376827095,17.0,358.0]],"bottom":[]}}}
{"achilles":{"corr":{"top":[["SPATA31D1_389763",0.15067965250581147,-1.9248148215252256,12.0,266.0],["CMTM6_54918",0.1743825069739323,-2.451460812018145,12.0,266.0],["KRTAP4-7&LOC100996750_100132476&100996750",0.18281193933698653,-2.655206781160989,12.0,266.0],["CCDC81_60494",0.15438639053404324,-2.0027421309421034,12.0,266.0],["SLC44A1_23446",0.160128994253724,-2.126687950340345,12.0,266.0],["PSG11_5680",0.17503062274481226,-2.466815702807971,12.0,266.0],["MGME1_92667",0.21281701441994028,-3.452996775888943,12.0,266.0],["WDR5B_54554",0.17035741425129508,-2.357250320305465,12.0,266.0],["ARC_23237",0.17966251537188102,-2.578056030609174,12.0,266.0],["FAM71F1_84691",0.14989846112953722,-1.9085984351776057,12.0,266.0],["GVINP1_387751",0.15816928850954248,-3.373538382277463,18.0,475.0],["LST1_7940",0.15282414341787137,-1.9697009093623477,12.0,266.0],["PARP16_54956",0.15414920344699076,-3.226517369691516,18.0,475.0],["SLC38A11_151258",0.15683897981747097,-2.0551975117487773,12.0,266.0],["UNC45A_55898",0.17676492803795263,-2.5081577378052056,12.0,266.0],["NDST1_3340",0.15994819916821115,-3.43971831685583,18.0,475.0],["GFRAL_389400",0.17490633822066048,-2.4638672136598814,12.0,266.0],["NEO1_4756",0.154311880057671,-2.001159688376306,12.0,266.0],["FHL3_2275",0.19105296426548815,-2.8629353083176996,12.0,266.0],["CTAGE4_100128553",0.17146607821784193,-2.3830021383403106,12.0,266.0],["C11orf74_119710",0.2156021332583849,-3.532928425319447,12.0,266.0],["GOLGA2P11_255180",0.2081255126841075,-3.3206435030219135,12.0,266.0],["BPIFB3_359710",0.14970606208675363,-1.9046155285987456,12.0,266.0],["OLFM4_10562",0.17233603213710624,-2.4033141859806317,12.0,266.0],["TMEM81_388730",0.17149686946528872,-2.383719489013116,12.0,266.0],["TP53AIP1_63970",0.17969571623981465,-2.578862938113209,12.0,266.0],["WASH2P_375260",0.16746836514981622,-2.2908462749318708,12.0,266.0],["NODAL_4838",0.14984794834431497,-3.0730875514363882,18.0,475.0],["EMBP1_647121",0.16632661435728366,-2.2648824267607064,12.0,266.0],["ARG2_384",0.15648918311608287,-3.3116672506037523,18.0,475.0],["POPDC2_64091",0.21215156614808647,-3.434049010086503,12.0,266.0],["SETDB2_83852",0.15443954729045015,-2.00387146834212,12.0,266.0],["ITGA11_22801",0.15487510148943529,-3.252805153160877,18.0,475.0],["PLIN2_123",0.14847195024715412,-1.8791712261914786,12.0,266.0],["CRYM_1428",0.14688505566525054,-1.8467158853665755,12.0,266.0],["MEDAG_84935",0.182600618920582,-2.6499916002382253,12.0,266.0],["RPL13_6137",0.21300161974893242,-3.458263426601801,12.0,266.0],["FAM84A_151354",0.20199747450647856,-3.1520602319223308,12.0,266.0],["ZBTB47_92999",0.15690272891157486,-2.0565704912666574,12.0,266.0],["SPP2_6694",0.16541525952305702,-2.244270989005707,12.0,266.0]],"bottom":[["RIBC1_158787",-0.17409262140529233,-2.444609626726884,12.0,266.0],["LOC107987373&MRPL23_107987373&6150",-0.16146523585513778,-2.1560932195708196,12.0,266.0],["ABRAXAS1_84142",-0.1615747345145123,-2.158512326419022,12.0,266.0],["PSTK_118672",-0.17904662797686072,-2.5631123255702284,12.0,266.0],["PMS2P5_5383",-0.16048711016796668,-2.134547658707417,12.0,266.0],["ASB12_142689",-0.19881509231776293,-3.0664172648599375,12.0,266.0],["CLEC19A_728276",-0.15708707491567248,-2.0605435164196466,12.0,266.0],["RBM12B_389677",-0.16461432332815937,-2.2262395858487447,12.0,266.0],["CNTD1_124817",-0.22824546740696514,-3.908673648562807,12.0,266.0],["CADM1_23705",-0.2223926900997591,-3.7320956659696463,12.0,266.0],["SALL1_6299",-0.15767327922018126,-3.3552085724865015,18.0,475.0],["SHQ1_55164",-0.19836252849287314,-3.05434322963983,12.0,266.0],["KLHL26_55295",-0.18489672728960027,-2.7069550883672346,12.0,266.0],["PGBD2_267002",-0.21371321163500842,-3.4786063242141148,12.0,266.0],["SLF2_55719",-0.17676733652082144,-2.508215407818868,12.0,266.0],["FAM186B_84070",-0.1735357509542468,-2.4314773662650486,12.0,266.0],["LAMA5_3911",-0.17901415288175576,-2.562325660354615,12.0,266.0],["SH3TC1_54436",-0.1534411416459958,-3.2009854236237243,18.0,475.0],["NCOA1_8648",-0.1596857919580357,-3.429912696451147,18.0,475.0],["DNAH12_201625",-0.15838472748507024,-2.088625043719709,12.0,266.0],["PENK_5179",-0.1714891409773099,-2.383539425808475,12.0,266.0],["ABCA8_10351",-0.19502363916131457,-2.966070580717061,12.0,266.0],["STAU2_27067",-0.16562626937724464,-2.24903431785654,12.0,266.0],["MUC4_4585",-0.15971513926557365,-2.117624025462445,12.0,266.0],["KREMEN2_79412",-0.20481504049899477,-3.228970209111119,12.0,266.0],["MAL2_114569",-0.17795556343544505,-2.536754042010069,12.0,266.0],["MRPL21_219927",-0.19626755246379107,-2.998791098728881,12.0,266.0],["CLDN10_9071",-0.18042848706336664,-4.251896115976459,18.0,475.0],["KIF13A_63971",-0.20212034086635366,-3.155392780760303,12.0,266.0],["MAGEA8_4107",-0.1808461968493294,-2.6069082352268103,12.0,266.0],["PBOV1_59351",-0.1764694020904921,-2.501086920471293,12.0,266.0],["SPATA7_55812",-0.15772894268831453,-2.0744086188768662,12.0,266.0],["TCTE3_6991",-0.16464432737153994,-2.226913669286366,12.0,266.0],["CHSY1_22856",-0.15641026598206637,-3.3087761615187894,18.0,475.0],["CLGN_1047",-0.15973707594614078,-3.431827891963665,18.0,475.0],["LOC100131257_100131257",-0.1902643138246715,-2.8426876299982204,12.0,266.0],["SLCO5A1_81796",-0.15987188165620608,-3.4368649368909074,18.0,475.0],["CSNK2A3_283106",-0.15477564092183804,-3.2491965234719196,18.0,475.0],["FMO4_2329",-0.17292480475113287,-3.9435105833528405,18.0,475.0]]},"para":{"top":[["KRTAP4-7&LOC100996750_100132476&100996750",0.19916138040930695,-3.335622752015138,12.0,266.0],["PSG11_5680",0.1838328169995974,-2.9527179109133876,12.0,266.0],["CPA4_51200",0.142482982297602,-3.1023858850656802,18.0,475.0],["MGME1_92667",0.200043601363501,-3.3584658682459305,12.0,266.0],["WDR5B_54554",0.1553812523438085,-2.3115874287724774,12.0,266.0],["PARP16_54956",0.15277972570893333,-3.4533921915065373,18.0,475.0],["STAC_6769",0.14931597989603743,-2.18648731938587,12.0,266.0],["UNC45A_55898",0.18328153119601773,-2.9394385078113405,12.0,266.0],["ZBED8_63920",0.1495364517358916,-2.1909640199183773,12.0,266.0],["NDST1_3340",0.14932213927781848,-3.3331573343423364,18.0,475.0],["GFRAL_389400",0.1497570487969584,-2.195448589678944,12.0,266.0],["NEO1_4756",0.15527097466293993,-2.30927681228868,12.0,266.0],["FHL3_2275",0.2025799866068089,-3.4246295888633322,12.0,266.0],["CTAGE4_100128553",0.17059945319570052,-2.643328165252393,12.0,266.0],["C11orf74_119710",0.1720330860678399,-2.67590277896727,12.0,266.0],["GOLGA2P11_255180",0.18195819884081182,-2.907700900777379,12.0,266.0],["PIAS3_10401",0.15053797877091765,-3.375163687492628,18.0,475.0],["OLFM4_10562",0.15846949209342712,-2.376838188533082,12.0,266.0],["TMEM81_388730",0.18692064297161337,-3.0277273287231603,12.0,266.0],["TP53AIP1_63970",0.18989811342294718,-3.101069195142378,12.0,266.0],["POPDC2_64091",0.21592400064567746,-3.78471807979648,12.0,266.0],["PLIN2_123",0.15747644032363803,-2.3557416158576436,12.0,266.0],["KRTAP10-12_386685",0.1506519726691123,-3.3791172977612907,18.0,475.0],["ZBTB47_92999",0.17291525873215638,-2.6960609054389693,12.0,266.0]],"bottom":[["LOC107987373&MRPL23_107987373&6150",-0.1751212017494054,-2.7468471814982003,12.0,266.0],["LOC102724159&PWP2_102724159&5822",-0.18603909706420974,-3.0062037746371684,12.0,266.0],["POC5_134359",-0.14975700697444008,-2.195447739580213,12.0,266.0],["FKBP3_2287",-0.16904185252092446,-4.051189001649506,18.0,475.0],["PSTK_118672",-0.18570751085784767,-2.9981304428482862,12.0,266.0],["PMS2P5_5383",-0.20202907808503312,-3.410196865300159,12.0,266.0],["ASB12_142689",-0.1685043198962185,-2.5961339938969634,12.0,266.0],["GCAT_23464",-0.14856221901341707,-3.307053189578308,18.0,475.0],["RBM12B_389677",-0.15361691670120414,-2.274780271221885,12.0,266.0],["CNTD1_124817",-0.19486055325761095,-3.2255201502499085,12.0,266.0],["CADM1_23705",-0.21691622855750112,-3.81230073069095,12.0,266.0],["LRG1_116844",-0.1640933036980559,-2.498365365419698,12.0,266.0],["KNSTRN_90417",-0.15405789866155978,-2.283947857649579,12.0,266.0],["SALL1_6299",-0.16421636597328784,-3.8682311572366586,18.0,475.0],["SHQ1_55164",-0.2121741098568376,-3.681486587879618,12.0,266.0],["KLHL26_55295",-0.21195370262938248,-3.675468649874417,12.0,266.0],["SLF2_55719",-0.17401820470957646,-2.7213856953592703,12.0,266.0],["TNPO2_30000",-0.13777155536446303,-2.9488438379099438,18.0,475.0],["PENK_5179",-0.1602335150503471,-2.4145816260672603,12.0,266.0],["STAU2_27067",-0.1786497432242953,-2.829211042080322,12.0,266.0],["MUC4_4585",-0.15670451887008274,-2.3394178342358973,12.0,266.0],["KREMEN2_79412",-0.1929858337299486,-3.1781791291877552,12.0,266.0],["MAL2_114569",-0.17534143912979003,-2.751947367064399,12.0,266.0],["MRPL21_219927",-0.2093074474610741,-3.60364649448473,12.0,266.0],["CLDN10_9071",-0.15597138300361849,-3.5665114916690825,18.0,475.0],["LOC90768_90768",-0.17115105630254113,-2.655834483361131,12.0,266.0],["KIF13A_63971",-0.1879130370041846,-3.052061648062427,12.0,266.0],["FAM81A_145773",-0.16133613447014214,-2.438347977597699,12.0,266.0],["MAGEA8_4107",-0.16585751622904557,-2.5372097169088805,12.0,266.0],["FSIP2_401024",-0.14843386208170908,-2.1686290871291827,12.0,266.0],["C6orf136_221545",-0.15935118210223057,-2.3956601163543576,12.0,266.0],["SPATA7_55812",-0.16475478620119893,-2.512889463568432,12.0,266.0],["TCTE3_6991",-0.1606746707685582,-2.424074377654802,12.0,266.0],["CLGN_1047",-0.14563659470020324,-3.207634574619962,18.0,475.0],["DDX21_9188",-0.14457292092786936,-3.1719133757838374,18.0,475.0],["CALCOCO2_10241",-0.1524037549603572,-2.249670047576487,12.0,266.0],["DBN1_1627",-0.14597853921256448,-3.219166112243913,18.0,475.0],["FMO4_2329",-0.16341855138561073,-3.8384359515143927,18.0,475.0],["TBX15_6913",-0.14468670822289958,-3.175723873377942,18.0,475.0]]}}}
{"ccle_rrbs_tss1kb":{"corr":{"top":[["DMXL2_15_51914967_51915967",0.18423455065717212,-6.990891599257611,40.0,783.0],["PABPN1_14_23789665_23790665",0.15533599650093116,-5.16467087174073,40.0,791.0],["PFKP_10_3110380_3111380",0.15904835950343763,-5.383722418883077,40.0,790.0]],"bottom":[["MLEC_12_121125112_121126112",-0.07131180477286693,-1.3903626892586471,40.0,784.0],["CA5B_23_15755411_15756411",-0.10043250745043263,-2.4013037835905218,40.0,781.0],["TRPV1_17_3512705_3513705",-0.11660463181044838,-2.9729708649807285,39.0,746.0],["SLC25A42_19_19173769_19174769",-0.07406228538753006,-1.4745676936138135,40.0,784.0]]},"para":{"top":[],"bottom":[]}}}
{"ccle_gene_tpm":{"corr":{"top":[["DNM1P42_ENSG00000259637.1",0.17281563955724033,-7.548191558919476,44.0,975.0],["RP11-882I15.1_ENSG00000254684.1",0.1590942503222243,-6.48017765994346,44.0,975.0],["VWA8_ENSG00000102763.11",0.15956376887023885,-6.5152748482705825,44.0,975.0],["RP11-822E23.5_ENSG00000263375.1",0.16236352435276136,-6.72668116362326,44.0,975.0],["ADIPOR1P1_ENSG00000232497.1",0.1563583580112668,-6.277692148011995,44.0,975.0],["AL590762.11_ENSG00000213018.2",0.1738704347438635,-7.633942660006448,44.0,975.0],["RP11-189E14.3_ENSG00000263110.1",0.18831040539475757,-8.860949684047048,44.0,975.0],["RP11-744K17.2_ENSG00000266885.1",0.16331973514304698,-6.799717138736483,44.0,975.0],["IGLV3-4_ENSG00000226420.1",0.24017353053325854,-14.109944350472391,44.0,975.0],["RN7SL841P_ENSG00000239555.2",0.15938042758156273,-6.50155768295583,44.0,975.0],["RN7SL139P_ENSG00000264065.1",0.19081341075667438,-9.0837819047692,44.0,975.0],["AACSP1_ENSG00000250420.4",0.15953619460448226,-6.513210812389269,44.0,975.0],["SLC16A10_ENSG00000112394.12",0.158733160300236,-6.453255034911528,44.0,975.0],["AC121251.1_ENSG00000228171.1",0.16760026019976929,-7.131887499912904,44.0,975.0],["BCRP7_ENSG00000215544.6",0.19097472256442793,-9.09824643926948,44.0,975.0],["ZNF215_ENSG00000149054.10",0.16180436825959385,-6.684169333690493,44.0,975.0],["SLC2A4_ENSG00000181856.10",0.16994972139338463,-7.317846914765195,44.0,975.0],["DEFB115_ENSG00000215547.1",0.18078576904226254,-8.209168211943698,44.0,975.0],["NOS2P2_ENSG00000167494.8",0.15640962373717204,-6.281454606263405,44.0,975.0],["SMPDL3B_ENSG00000130768.10",0.15664397351179934,-6.298669269244967,44.0,975.0]],"bottom":[["TSPAN2_ENSG00000134198.5",-0.11237060580389244,-3.4873552800470313,44.0,975.0],["SLFN13_ENSG00000154760.9",-0.1180729554957646,-3.8005544664530118,44.0,975.0],["RARRES3_ENSG00000133321.6",-0.11132022752347553,-3.431207986225795,44.0,975.0],["DHRS3_ENSG00000162496.4",-0.10480755999039078,-3.093733218674683,44.0,975.0],["AC002456.2_ENSG00000223969.1",-0.11581199497400875,-3.6746744568070606,44.0,975.0],["GCNT4_ENSG00000176928.4",-0.10503157090936925,-3.10503740642341,44.0,975.0],["IFIT3_ENSG00000119917.9",-0.11522408186888942,-3.6423080613242917,44.0,975.0]]},"para":{"top":[],"bottom":[]}}}
{"ccle_rrbs_tss_clusters":{"corr":{"top":[["ATXN7L2",0.1895324784880699,-3.9726099569908278,17.0,396.0],["INHBA_1",0.20725644759455017,-3.592116856558337,12.0,295.0],["HEBP1_3",0.3244975813127966,-5.6595201800516355,9.0,195.0],["SCHIP1_2",0.24903695975106427,-2.719454061555297,8.0,145.0],["DMXL2",0.19062381177568527,-7.555057652041056,40.0,796.0],["DPYD_2",0.2929088182879047,-8.668266609488029,16.0,386.0],["ENOX2_3",0.1985310165128017,-2.8321285686998077,8.0,246.0],["MMP16_1",0.20127706652490884,-4.978462681436082,22.0,450.0],["BATF3_2",0.2435136643912466,-12.104988800864055,40.0,802.0],["VGLL4_8",0.18638502326182635,-3.840339659456689,22.0,389.0]],"bottom":[["SYNJ2BP_3",-0.1141660541063522,-2.1712023238102405,25.0,537.0],["NPM3_1",-0.14508660334624984,-4.3564549643881705,40.0,747.0],["ACIN1_2",-0.1099375204489572,-2.5754949518872507,38.0,707.0],["SETD1A_1",-0.15676665221991695,-3.6739603213094405,25.0,529.0],["LOC645752_2",-0.11446399645766936,-2.1039482965244716,25.0,513.0],["UBXN6_3",-0.18963752447216414,-3.9596551148833434,25.0,386.0],["DDR1_2",-0.15944486018075144,-1.8350030723431534,16.0,218.0],["LOC100507564_1",-0.10917046849924657,-2.5939064113231227,38.0,724.0],["NMNAT3_1",-0.1731322935107874,-3.0194148002736676,18.0,343.0]]},"para":{"top":[["INHBA_1",0.20936046300301203,-3.900318775952889,12.0,295.0],["HEBP1_3",0.2508114411080643,-3.749200764803712,9.0,195.0],["SCHIP1_2",0.17557123140941994,-1.813257948245119,8.0,145.0],["ZNF729_1",0.16776742548973028,-2.251396142809606,8.0,222.0],["MEN1_2",0.19781698927202912,-3.1064878882275644,9.0,248.0]],"bottom":[["EIF4B_3",-0.2009686194182207,-2.362444882995582,10.0,162.0],["BPIFB6_1",-0.10681697440607739,-1.295316512304489,9.0,228.0],["LINC02092_1",-0.1133680421397586,-1.4351345000480993,9.0,242.0],["EXOSC3_2",-0.1782219993652133,-2.598837074572508,15.0,234.0],["ETS1_1",-0.20392436213070764,-4.2315871715976785,18.0,340.0]]}}}
{"ccle_rrbs_cgi_clusters":{"corr":{"top":[["1_212870460_212873254-3",0.2513820697277039,-12.874935596106345,40.0,802.0],["12_13150819_13155084-3",0.3244975813127966,-5.6595201800516355,9.0,195.0],["8_28267236_28271990-2",0.22001098135300104,-3.096167228082602,10.0,219.0],["17_38334200_38336795-1",0.2004900922074308,-2.72552682251314,12.0,226.0],["4_154168368_154172600-1",0.22126966001697826,-6.631152388023721,31.0,504.0],["10_112833990_112837646-3",0.2513250823616037,-5.628227375768091,17.0,327.0],["2_145271456_145274417-3",0.28571661734639653,-6.221211966892215,9.0,286.0],["23_130034747_130039158-3",0.1985310165128017,-2.8321285686998077,8.0,246.0],["5_87971015_87974070-2",0.21914147715329732,-3.212931276728654,8.0,233.0],["1_98384189_98388724-2",0.2929088182879047,-8.668266609488029,16.0,386.0],["7_150817919_150822764-2",0.2622125278803419,-9.784732209730807,30.0,546.0],["8_89337965_89342481-1",0.20127706652490884,-4.978462681436082,22.0,450.0],["1_156625342_156629576-3",0.22720956250603663,-10.511653587703796,40.0,795.0]],"bottom":[["4_117845087_117849522-2",-0.11362615596349573,-1.2194297075869511,13.0,261.0],["19_6106821_6111073-1",-0.16293474276389966,-4.9653981930951545,34.0,688.0],["10_523719_528041-3",-0.18947869966795883,-3.6500703733932003,22.0,353.0],["10_103540711_103545290-1",-0.14508660334624984,-4.3564549643881705,40.0,747.0],["6_37624026_37628446-3",-0.1478367456762797,-3.7531142406121614,34.0,605.0],["15_99510665_99514891-3",-0.1409727727981455,-2.7974708164643283,20.0,479.0],["23_1549125_1553374-1",-0.11985534474755109,-3.2510451682134365,40.0,785.0],["6_30850102_30854676-1",-0.15944486018075144,-1.8350030723431534,16.0,218.0],["1_42128006_42130632-2",-0.13079286657911723,-1.4246382654440508,11.0,242.0],["10_135448883_135453867-1",-0.11175040548795685,-1.7702126143324337,20.0,436.0],["4_81117095_81121391-1",-0.11804165506829425,-2.148729941807256,27.0,492.0],["12_120125973_120130291-1",-0.15273714803677943,-3.3847148670302536,31.0,500.0],["19_56087274_56091504-2",-0.11352302601727068,-2.1730881594178806,26.0,543.0],["3_139394338_139398882-1",-0.1731322935107874,-3.0194148002736676,18.0,343.0],["23_62181_66793-1",-0.23796143312647655,-2.9966685264658466,10.0,178.0],["19_4455493_4460040-3",-0.18963752447216414,-3.9596551148833434,25.0,386.0]]},"para":{"top":[["19_22467367_22471687-1",0.16776742548973028,-2.251396142809606,8.0,222.0],["12_13150819_13155084-3",0.2508114411080643,-3.749200764803712,9.0,195.0],["8_28267236_28271990-2",0.2505259548655413,-4.104091541803223,10.0,219.0],["17_38334200_38336795-1",0.18639108712899913,-2.68385344720653,12.0,226.0],["2_145271456_145274417-3",0.23539353997748255,-4.561937464760915,9.0,286.0],["5_87971015_87974070-2",0.20272561265208913,-3.0699098565805416,8.0,233.0]],"bottom":[["12_53400384_53402896-2",-0.2009686194182207,-2.362444882995582,10.0,162.0],["9_37782749_37787345-2",-0.1782219993652133,-2.598837074572508,15.0,234.0],["6_150241902_150246210-3",-0.11582251208978352,-1.7159386171743776,8.0,313.0],["1_42128006_42130632-2",-0.16076930042461868,-2.2683690278153072,11.0,242.0],["23_62181_66793-1",-0.20543264856971027,-2.600974481246644,10.0,178.0]]}}}
