{"ccle_chromatin":{"corr":{"top":[],"bottom":[]},"para":{"top":[],"bottom":[]}}}
{"ccle_rppa":{"corr":{"top":[],"bottom":[]},"para":{"top":[],"bottom":[]}}}
{"ccle_metabolomics":{"corr":{"top":[],"bottom":[]},"para":{"top":[],"bottom":[]}}}
{"ccle_rrbs_enhancer_clusters":{"corr":{"top":[["20-38860746-38863386-2_enh",0.1549622591151701,-3.19926864583025,24.0,459.0]],"bottom":[["11-8228364-8232683-2_enh",-0.10969718201010381,-2.4276108615259284,33.0,664.0],["16-72840343-72843124-1_enh",-0.1386931075402705,-2.527732647388131,22.0,435.0],["13-78974015-78976677-0_enh",-0.10047763341624247,-2.4564208244333847,42.0,801.0],["23-139332755-139335376-0_enh",-0.08462010178580673,-1.8543548854582868,42.0,801.0],["11-109998895-110002065-0_enh",-0.11352572842468489,-2.7949757069548395,39.0,731.0]]},"para":{"top":[],"bottom":[]}}}
{"ccle_mirna":{"corr":{"top":[],"bottom":[["hsv1-miR-H1_miR00771.1",-0.08243424850860234,-1.964125363953796,48.0,906.0]]},"para":{"top":[],"bottom":[]}}}
{"prism_primary_logfold":{"corr":{"top":[["fluoxetine_BRD-A31159102-003-30-4::2.5::HTS",0.13020335061207414,-2.6544039746327277,33.0,517.0],["5'-Chloro-5'-deoxy-ENBA-(+\/-)_BRD-A13598753-001-01-2::2.5::HTS",0.10680236719189083,-1.933191476904717,34.0,523.0],["myricetin_BRD-K43149758-001-22-7::2.5::HTS",0.12229162799590455,-2.3970248054949406,34.0,518.0],["12-O-tetradecanoylphorbol-13-acetate_BRD-K68552125-001-05-3::2.03::HTS",0.10668993919216209,-1.9326983147053582,34.0,524.0],["ifenprodil_BRD-A24191444-046-03-9::2.4::HTS",0.10113339591587936,-1.6940686887885192,30.0,497.0],["eugenol_BRD-K32977963-001-05-0::2.5::HTS",0.10057506840894444,-1.7423827674374432,34.0,518.0],["CTS-1027_BRD-K53508936-001-01-0::2.5::HTS",0.09517021946174924,-1.5914274073642305,33.0,517.0],["efaroxan_BRD-A10739734-003-10-6::2.5::HTS",0.09008665322633096,-1.4724866167219914,34.0,522.0]],"bottom":[["RS-127445_BRD-K90825648-001-02-0::2.5::HTS",-0.1177098186754784,-2.276782256823021,34.0,526.0],["2-aminobenzenesulfonamide_BRD-K32681104-001-11-6::2.5::HTS",-0.13214230078927394,-2.7630980556486513,34.0,526.0],["fenspiride_BRD-K26739552-003-15-4::2.5::HTS",-0.142708376851604,-3.0399216490323173,33.0,504.0],["zolmitriptan_BRD-K54314721-001-10-2::2.5::HTS",-0.14125235215562504,-3.0956515096988895,34.0,526.0]]},"para":{"top":[],"bottom":[]}}}
{"prism_secondary_logfold":{"corr":{"top":[["lovastatin_BRD-K09416995-001-39-9::0.0024414::HTS002",0.12316113997608341,-1.4779863135279965,15.0,284.0],["brequinar_BRD-K96123349-236-02-8::2.5::MTS010::PROS002_PR500",0.1388774514205427,-2.4451867914719942,29.0,409.0],["thiamine_BRD-K95785345-300-14-8::10::HTS002",0.14948142571618486,-2.9170370740368745,28.0,438.0],["SDZ-WAG-994_BRD-K39558284-001-01-2::2.5::HTS002",0.14382287300675015,-2.7514875172360647,29.0,441.0],["meclizine_BRD-A50311610-300-10-4::2.5::HTS002",0.12113192956835027,-1.8539155166046863,24.0,387.0],["parachlorophenol_BRD-K40992116-001-09-7::2.5::HTS002",0.15258230635165212,-2.6438282579317036,27.0,371.0],["drospirenone_BRD-K04394237-001-03-7::0.00243525::HTS002",0.12834612763780878,-2.257586816806179,28.0,438.0],["terconazole_BRD-K86204871-001-16-2::0.00061034::HTS002",0.18433897264001892,-3.245042357272861,26.0,320.0],["octenidine_BRD-K04568635-300-01-4::0.00976562::HTS002",0.13643612615673614,-1.738573881423929,15.0,284.0],["AZD5363_BRD-K99023089-001-03-7::0.0390625::HTS002",0.1181784109697268,-1.8925240398575656,25.0,418.0],["theophylline_BRD-K97799481-001-16-0::0.15625::HTS002",0.1224621153230772,-2.0199219041731844,26.0,421.0],["GS-39783_BRD-K75478907-001-02-3::0.15625::HTS002",0.12225227328148705,-2.080185090792037,28.0,437.0],["AZD4547_BRD-K28392481-001-05-1::0.00976562::HTS002",0.1341809129132383,-2.3307497222952667,25.0,418.0],["delanzomib_BRD-K59325863-001-02-8::0.00976562::HTS002",0.13171874702626182,-2.3736363049163973,28.0,442.0],["balapiravir_BRD-K47976015-001-01-2::0.0390625::HTS002",0.11652382699779044,-1.9672004350200263,29.0,449.0],["lanoconazole_BRD-A54275602-001-01-0::10::HTS002",0.11620867426591353,-1.4855058032778048,22.0,316.0],["GTP-14564_BRD-K16664969-001-03-3::0.00976562::HTS002",0.12826031429333734,-2.259081033641123,29.0,438.0],["XBD173_BRD-K45875383-001-01-2::0.0024414::HTS002",0.13871382600164187,-2.4820896096614473,27.0,420.0],["enzalutamide_BRD-K56851771-001-06-8::10::HTS002",0.13021289946401138,-1.6137200111640366,15.0,284.0],["MLN0128_BRD-K59317601-001-05-5::10::HTS002",0.14317700830687932,-2.056321577235186,19.0,315.0],["baricitinib_BRD-K53581288-001-02-9::0.0390625::HTS002",0.14290471017124975,-2.721791766717141,29.0,441.0],["ixazomib-citrate_BRD-A66419424-001-02-4::0.15625::HTS002",0.13020727992366884,-2.2339808219764645,27.0,420.0],["BMS-345541_BRD-K13566078-001-02-3::0.00061034::HTS002",0.12307975200535953,-2.0885005771667036,28.0,433.0],["tanespimycin_BRD-K81473043-001-19-5::0.00061::MTS010::PROS005_PR500",0.13228067981276623,-2.360947199448466,29.0,434.0],["oxyquinoline_BRD-K66808046-065-03-7::0.625::HTS002",0.1815452053313054,-2.036960546224181,12.0,193.0],["ethinyl-estradiol_BRD-K48195008-001-19-9::10::HTS002",0.1185571451422705,-0.9432582514806845,8.0,171.0],["LGX818_BRD-A56085258-001-01-8::0.0390625::HTS002",0.11893142958732933,-1.8736347289223845,25.0,407.0],["imatinib_BRD-K92723993-001-17-4::0.0391::MTS010::PROS004_PR500",0.11632912778496016,-1.925200777026553,29.0,438.0],["XL388_BRD-K03549949-001-01-0::0.0390625::HTS002",0.1265221689505362,-2.130734377979304,27.0,420.0],["naloxone_BRD-K67511046-001-02-3::0.00061034::HTS002",0.16185036102225422,-1.516789842183567,8.0,171.0],["amoxicillin_BRD-K55044200-001-15-3::0.625::HTS002",0.13013935160870843,-2.3100973914112735,28.0,438.0],["linsitinib_BRD-K86118762-001-01-8::0.00977::MTS010::PROS002_PR500",0.16924828275765494,-3.4269614130807495,29.0,409.0],["tosedostat_BRD-K92241597-001-06-0::0.00061034::HTS002",0.12404953690578346,-2.1455880695544427,28.0,441.0],["canrenone_BRD-A20644369-001-08-6::2.5::HTS002",0.1367483748375067,-2.509098770190937,28.0,438.0],["eprinomectin_BRD-A91366704-001-01-9::0.00061034::HTS002",0.12871879039867357,-1.8706894153728544,21.0,347.0],["tideglusib_BRD-K81330143-001-04-8::0.000581683::HTS002",0.1303555976238691,-2.337028456775206,29.0,442.0],["BIX-01294_BRD-K26818574-305-04-3::10::HTS002",0.1416001762533986,-2.7038596580590912,29.0,446.0],["NVP-BEZ235_BRD-K12184916-001-15-4::2.5::HTS002",0.14784527852250356,-2.167815954438569,19.0,315.0],["venetoclax_BRD-K62391742-001-03-0::0.0024414::HTS002",0.13395785250230005,-2.4283476065094134,29.0,438.0]],"bottom":[["STA-5326_BRD-K41783120-001-02-8::0.009765627::MTS006",-0.11332772105882627,-1.8550871542630074,29.0,441.0],["piperazine_BRD-K13249881-001-02-3::0.0024414::HTS002",-0.12052582798543977,-1.874961715929175,24.0,397.0],["belinostat_BRD-K17743125-001-08-4::0.0391::MTS010::PROS003_PR500",-0.12263459211214792,-2.065102885189394,29.0,429.0],["napabucasin_BRD-K22064724-001-01-8::0.002441405::MTS006",-0.11970790258263685,-2.020461845348943,29.0,439.0],["fulvestrant_BRD-A85667082-001-12-7::0.15625::HTS002",-0.13818034407342927,-2.539601823075681,28.0,435.0],["cyclosporine_BRD-K13533483-001-16-2::0.00244140583424::MTS005",-0.15317365702838154,-2.9467582638032646,27.0,422.0],["stattic_BRD-K17061841-001-03-5::0.625::HTS002",-0.13987247484152937,-2.516947334304951,27.0,420.0],["tyrphostin-AG-99_BRD-K60184833-001-05-6::0.625::HTS002",-0.13869700629635742,-2.610937686731706,29.0,446.0],["TPCA-1_BRD-K51575138-001-13-2::0.0390625::HTS002",-0.11466668160206596,-1.9068475171188994,29.0,446.0],["crizotinib-(S)_BRD-K40308497-001-01-2::0.0099098::HTS002",-0.13442197976471307,-2.350827872125306,26.0,420.0]]},"para":{"top":[["enzalutamide_BRD-K56851771-001-06-8::10::HTS002",0.1534554286422187,-2.3920909052227555,15.0,284.0],["ethinyl-estradiol_BRD-K48195008-001-19-9::10::HTS002",0.11877651688533632,-1.2447521390330791,8.0,171.0],["naloxone_BRD-K67511046-001-02-3::0.00061034::HTS002",0.18470436624407044,-2.1591477260653424,8.0,171.0],["linsitinib_BRD-K86118762-001-01-8::0.00977::MTS010::PROS002_PR500",0.16001850232596815,-3.3847121478203106,29.0,409.0]],"bottom":[["iobenguane_BRD-K43860855-065-11-9::2.5::HTS002",-0.1418548608090201,-1.765125124796434,11.0,213.0]]}}}
{"ccle_proteomics":{"corr":{"top":[["PREP_P48147",0.15089637268311512,-2.4576438567653938,24.0,349.0],["KIF1B_O60333-2",0.151124243502289,-2.4638693497718487,24.0,349.0],["NUDT12_Q9BQG2",0.1481371367100303,-2.335082892329028,23.0,341.0],["SERPING1_P05155",0.16534962237028725,-1.3076851963944403,8.0,134.0],["GPX3_P22352",0.19627896087597715,-2.224877096939476,12.0,183.0],["GMDS_O60547",0.17803775378710912,-3.258726907213016,24.0,349.0],["SIAH1_Q8IUQ4-2",0.23946081562046267,-2.8910312041025303,8.0,170.0],["SDCBP2_Q9H190",0.15536703825889808,-1.5769060512941195,17.0,187.0],["ISG20_Q96AZ6",0.17674041170992857,-3.0841718529949453,21.0,334.0],["PRR15_Q8IV56",0.1889620471015456,-2.1678563300028704,12.0,192.0],["DVL3_Q92997",0.19409826210605316,-3.6309199242269092,20.0,335.0]],"bottom":[["CORO2B_Q9UQ03",-0.20503256667228084,-3.104535658943052,14.0,251.0],["RASA3_Q14644",-0.194619150160041,-3.648081982617078,24.0,331.0],["RHBDD1_Q8TEB9",-0.16731921556120002,-1.7265544159444486,12.0,185.0],["SLCO3A1_Q9UIG8",-0.33901429431642177,-5.628189539409791,10.0,175.0],["SHPRH_Q149N8",-0.17587851454082964,-2.3292211095737807,13.0,244.0],["POU3F3_P20264",-0.1533011975178931,-1.483636383353175,8.0,186.0],["PADI3_Q9ULW8",-0.19187128584474022,-2.0695078537965,13.0,174.0],["FAM102B_Q5T8I3",-0.2145604657545978,-2.3724041513506604,10.0,166.0]]},"para":{"top":[["PLLP_Q9Y342",0.22033675570831415,-2.02405372553452,8.0,107.0],["ADAM22_Q9P0K1",0.19289588622650466,-1.525811140043833,9.0,88.0],["SERPING1_P05155",0.18031540907849603,-1.7875173754899778,8.0,134.0],["PRSS2_P07478",0.2413702415151714,-2.55089462302685,10.0,123.0],["CST4_P01036",0.17770698298470405,-1.7541440056072164,8.0,134.0],["SIAH1_Q8IUQ4-2",0.23114398304902026,-2.9729116790593677,8.0,170.0],["PRR15_Q8IV56",0.20058924721698754,-2.667786807253153,12.0,192.0],["DVL3_Q92997",0.21458492726284376,-4.566168131242627,20.0,335.0],["RNF4_P78317",0.18019040870520017,-1.6364203035346896,9.0,115.0]],"bottom":[["PSG6_Q00889",-0.219269323072558,-2.1187645931111274,10.0,114.0],["RHBDD1_Q8TEB9",-0.18361941852360822,-2.2912832966028085,12.0,185.0],["TRIM58_Q8NG06",-0.21541722675468622,-1.6330907548917286,8.0,79.0],["SFRP1_Q8N474",-0.19213157181021526,-2.1728461204569047,10.0,157.0],["SLCO3A1_Q9UIG8",-0.27394163833444396,-3.989474181065392,10.0,175.0],["TMEM128_Q5BJH2",-0.21585310596224735,-2.596521531714056,11.0,159.0],["KDM8_Q8N371-3",-0.19280868735806897,-2.0454659641769055,9.0,143.0],["HLA-DMA_P28067",-0.19665609046967272,-1.7418327277386163,8.0,107.0],["POU3F3_P20264",-0.18122823292934867,-2.224733744226853,8.0,186.0],["PADI3_Q9ULW8",-0.20877279954039818,-2.6530244927647817,13.0,174.0]]}}}
{"depmap_copy_number":{"corr":{"top":[],"bottom":[["CD28_940",-0.06365700351310909,-2.0844083311824435,69.0,1653.0],["CTLA4_1493",-0.07280492639258913,-2.601575185122129,69.0,1653.0],["MDH1B_130752",-0.061028974834747916,-1.946622859271623,69.0,1653.0],["ICOS_29851",-0.07207681345698717,-2.5582593901213784,69.0,1653.0],["PARD3B_117583",-0.06527803821531945,-2.1717861608398605,69.0,1653.0]]},"para":{"top":[],"bottom":[]}}}
{"depmap_gene_tpm":{"corr":{"top":[["OR10AG1_282770",0.14336643362881576,-6.674874195790202,57.0,1242.0],["CTRB1_1504",0.11832842577493867,-4.71996900759299,57.0,1242.0],["CDRT15L2_256223",0.1431495531931962,-6.656391108919326,57.0,1242.0],["ZIC5_85416",0.13006601319554587,-5.591716902933515,57.0,1242.0],["PREP_5550",0.11845504554743866,-4.728956551916916,57.0,1242.0],["PBX4_80714",0.12548026627476566,-5.241815907117094,57.0,1242.0],["SUPT16H_11198",0.11592828197111245,-4.551312972467121,57.0,1242.0],["SDHAF1_644096",0.11507909002954035,-4.492416755625781,57.0,1242.0],["FOXD2_2306",0.1563573951970297,-7.83217318687563,57.0,1242.0]],"bottom":[["NCKAP5_344148",-0.09881173955856946,-3.441786915726761,57.0,1242.0],["PRICKLE2_166336",-0.0925207871210662,-3.0746069403888248,57.0,1242.0],["CFAP58_159686",-0.08438256655595137,-2.6314910261381903,57.0,1242.0],["COL8A1_1295",-0.11625507748286841,-4.5740860196581075,57.0,1242.0]]},"para":{"top":[],"bottom":[]}}}
{"avana":{"corr":{"top":[["IGFL1_374918",0.11017902406877293,-2.648733562201047,30.0,737.0],["TMCO4_255104",0.11379112597424751,-2.7968180177011797,30.0,737.0],["CLEC6A_93978",0.11319595018309361,-2.772127959796476,30.0,737.0],["CCDC183_84960",0.09896655374134389,-2.215681893823244,30.0,737.0],["GAS7_8522",0.10885019513389885,-2.5953130737344146,30.0,737.0],["MAP9_79884",0.10503839717156546,-2.445214833132027,30.0,737.0],["NAALADL1_10004",0.10465721997726095,-2.43046050755759,30.0,737.0],["HIST1H2BK_85236",0.10585319286148813,-2.4769088069232224,30.0,737.0],["CUBN_8029",0.10098701282567683,-2.290762700477524,30.0,737.0],["NUP58_9818",0.09687573091386083,-2.1393434283228037,30.0,737.0],["RIOK1_83732",0.10365354529743,-2.3918324870471674,30.0,737.0],["FAM129C_199786",0.10390962563605548,-2.4016576607008666,30.0,737.0],["FAM183A_440585",0.11443553987959935,-2.8236798523037674,30.0,737.0],["ZNF747_65988",0.1177060736220713,-2.9620849542077297,30.0,737.0],["BTNL3_10917",0.12059154335799953,-3.0870842679072217,30.0,737.0],["ZFAND6_54469",0.11207619499871109,-2.72598665281279,30.0,737.0],["JAK2_3717",0.12462323361177692,-3.2261494064554803,29.0,727.0],["MTOR_2475",0.11593208592422227,-2.886581033962067,30.0,737.0],["LEMD2_221496",0.09717792852365599,-2.150291881135001,30.0,737.0],["ZNF618_114991",0.09713703199230019,-2.1488085407430515,30.0,737.0],["GADD45B_4616",0.10278514702909723,-2.35866951966297,30.0,737.0],["TMEM59_9528",0.104181026070666,-2.4120934201046076,30.0,737.0],["RANBP6_26953",0.10736961239234168,-2.536459396892691,30.0,737.0],["FGF8_2253",0.10556286821826322,-2.465591436733552,30.0,737.0],["KCTD12_115207",0.10569327515446503,-2.4706716008478113,30.0,737.0],["MAP3K7CL_56911",0.0962724810783803,-2.117573928168699,30.0,737.0],["AGTRAP_57085",0.10449555442025787,-2.4242168667772535,30.0,737.0],["CYP4F12_66002",0.10434704727923992,-2.4184887539826274,30.0,737.0],["BBS1_582",0.09694276912334421,-2.1417697052375066,30.0,737.0],["CLEC4M_10332",0.09547036413360914,-2.088805024072444,30.0,737.0],["COL22A1_169044",0.09919472059979162,-2.2240959890971252,30.0,737.0],["MYO1G_64005",0.11382195331664532,-2.798099968356741,30.0,737.0],["AKIRIN1_79647",0.11554833755673295,-2.8703825145215394,30.0,737.0]],"bottom":[["ADAMTS18_170692",-0.10922924737030322,-2.610493590659055,30.0,737.0],["R3HDM2_22864",-0.125777105723302,-3.3185716340002824,30.0,737.0],["GOLGA6L6_727832",-0.12278302308064931,-3.1838373416702983,30.0,737.0],["PSMB2_5690",-0.10626633349267899,-2.493060182275991,30.0,737.0],["SUPT6H_6830",-0.10788443610272598,-2.5262113078484063,29.0,727.0],["GPX2_2877",-0.10133672512361114,-2.3038892956426524,30.0,737.0],["ARHGEF28_64283",-0.1191042338903108,-3.022314538048725,30.0,737.0],["CCDC8_83987",-0.10676967243167597,-2.5128115101008,30.0,737.0],["EXOC3L4_91828",-0.10320603595834561,-2.3747127530236223,30.0,737.0],["PPP1R3E_90673",-0.12034807289735355,-3.0764321072880714,30.0,737.0],["ITCH_83737",-0.17011870966118434,-5.666500936055027,30.0,737.0],["COL6A1_1291",-0.11202612461675152,-2.72393287601269,30.0,737.0],["HSPH1_10808",-0.10585308514753512,-2.4769046030501793,30.0,737.0],["GSTT2B_653689",-0.10782058352188972,-2.5543112381156514,30.0,737.0],["KLHL13_90293",-0.12985961277284894,-3.321312755573566,29.0,691.0],["ISL1_3670",-0.10245929874122545,-2.346287665110226,30.0,737.0],["PCBP2_5094",-0.1296138716964386,-3.4955446126025236,30.0,737.0],["ATR_545",-0.1332435757625718,-3.6674543032959694,30.0,737.0],["AMBRA1_55626",-0.11228750950864749,-2.734663219026526,30.0,737.0],["PPWD1_23398",-0.11628122824621764,-2.901360308967213,30.0,737.0],["THBS4_7060",-0.13758795021819714,-3.8789810058756857,30.0,737.0],["PIK3R1_5295",-0.12822631425468942,-3.430981380736188,30.0,737.0],["WDR33_55339",-0.10351108608005448,-2.3863757122826432,30.0,737.0],["LIPA_3988",-0.11397554026673846,-2.8044914413636515,30.0,737.0],["CCAR2_57805",-0.11520205801462828,-2.8211818794812644,29.0,727.0],["SDF2L1_23753",-0.10091589399874742,-2.288097968281274,30.0,737.0],["ASCC3_10973",-0.14768880104842216,-4.395295722419811,30.0,737.0],["POLR1C_9533",-0.10153853019532588,-2.2841011560494424,29.0,727.0],["CENPK_64105",-0.10385583059910847,-2.371046203073161,29.0,727.0],["MYBL2_4605",-0.10021511508880601,-2.261926328182615,30.0,737.0]]},"para":{"top":[],"bottom":[["ASCC3_10973",-0.14371442104112478,-4.45745724269694,30.0,737.0]]}}}
{"drive":{"corr":{"top":[["TBX21_30009",0.14586213128764708,-2.332547492555818,21.0,354.0],["SDHAP3_728609",0.13932068039197437,-2.1617833132368607,21.0,354.0],["CCNL1_57018",0.1679132828999721,-2.939005478834741,23.0,349.0],["CHML_1122",0.1296969404594273,-1.910401851212877,23.0,349.0],["RBMY1D&RBMY1A1_378949&5940",0.15974000014120504,-2.7359648295424805,23.0,355.0],["PRL_5617",0.18299914728146546,-3.410461126341285,23.0,349.0],["SPRYD4_283377",0.12620810170258256,-1.839841974826626,21.0,354.0],["NUDT12_83594",0.14764446717360302,-2.364430789410961,23.0,349.0],["CNGA4_1262",0.16135041162278493,-2.7456602940023127,23.0,349.0],["CDHR2_54825",0.17620456354871333,-3.1934227110339135,23.0,349.0],["PABPC1L_80336",0.18683777461842893,-3.536515766014769,23.0,349.0],["ARL9_132946",0.12997203529916063,-1.916981094440544,23.0,349.0],["SLC1A3_6507",0.1429544645061771,-2.2955129593133448,23.0,360.0],["GTF2H4_2968",0.1488612480546712,-2.397054240944992,23.0,349.0],["CHD7_55636",0.14144677252161644,-2.21653684166665,21.0,354.0],["FOXP4_116113",0.21338982677476998,-4.509734229422331,21.0,354.0],["MIF4GD_57409",0.15158067201432973,-2.470821127214233,23.0,349.0],["LGALS9B_284194",0.14358888167013098,-2.2573971817798277,23.0,349.0],["SULT1A1_6817",0.12906885150636158,-1.9201341260754152,23.0,355.0],["TERC_7012",0.16606637136810515,-2.883880509443835,23.0,349.0],["GLI3_2737",0.1505953003934303,-2.460379941712691,21.0,354.0],["PBX3_5090",0.16973135246370238,-3.0143859574290732,21.0,354.0],["ZSCAN12_9753",0.1775136833421583,-3.2570358916128677,21.0,354.0],["ZNF607_84775",0.1292888293576265,-1.9130611045620003,21.0,354.0]],"bottom":[["SLC9C1_285335",-0.16357457638978798,-2.810395068951542,23.0,349.0],["LGALS9C_654346",-0.17748052289598917,-3.2335903497356338,23.0,349.0],["RAD50_10111",-0.17121456763934226,-3.0389400544373903,23.0,349.0],["ZBTB22_9278",-0.19074640204520674,-3.6674394238837915,23.0,349.0],["LIMK1_3984",-0.18871026815014075,-3.5989123290507075,23.0,349.0],["IRAK3_11213",-0.1772851437621732,-3.227422107036182,23.0,349.0],["SFT2D2_375035",-0.1646096849988451,-2.9119128927132256,23.0,360.0],["CHRNB2_1141",-0.19215220960021467,-3.7151657152072097,23.0,349.0],["CDH12_1010",-0.1486895817614107,-2.4511995847558525,23.0,360.0],["ACTRT3_84517",-0.26027112286639215,-6.495757490001817,21.0,354.0],["HSD17B6_8630",-0.1783801527781064,-3.2620746392286923,23.0,349.0],["VRK2_7444",-0.1646995381841511,-2.8628744913204174,21.0,354.0],["CALM3_808",-0.23263716522283637,-5.237909379227742,23.0,349.0],["TIAM1_7074",-0.14711794305019987,-2.366113013823982,21.0,354.0],["COLEC11_78989",-0.14748473767130038,-2.360165773627717,23.0,349.0],["RAD54L_8438",-0.17297236333202767,-3.114206232910826,21.0,354.0],["TTC8_123016",-0.1514236655951054,-2.4665299576590733,23.0,349.0],["CHRNA6_8973",-0.1616099829777698,-2.7531735575133327,23.0,349.0],["PARD6A_50855",-0.19977793062166027,-3.97996964918256,23.0,349.0],["LOC100288778_100288778",-0.16725855938858109,-2.959396404737377,23.0,355.0],["HTR2B_3357",-0.18718610909711475,-3.5480780987728284,23.0,349.0],["CD2AP_23607",-0.16291818069743833,-2.7912065008268847,23.0,349.0],["WDTC1_23038",-0.15061327765050486,-2.4608723495664915,21.0,354.0],["PDE6A_5145",-0.16155999853751185,-2.7517259095666766,23.0,349.0],["NTN3_4917",-0.16729157945355344,-2.9203867791985925,23.0,349.0],["ZDHHC20_253832",-0.1759286682290342,-3.1847731799619514,23.0,349.0]]},"para":{"top":[["GTF2H4_2968",0.15367184447914006,-2.8114772598812623,23.0,349.0],["FOXP4_116113",0.22145748804656148,-5.032847870607953,21.0,354.0],["GLI3_2737",0.17356605156604218,-3.4022986532292014,21.0,354.0],["ZNF607_84775",0.14854916381214145,-2.690175758934564,21.0,354.0]],"bottom":[["LGALS9C_654346",-0.17903259412366523,-3.548222541760294,23.0,349.0]]}}}
{"achilles":{"corr":{"top":[["CCDC82_79780",0.18085597404147957,-2.6071472762900565,18.0,260.0],["ENPP6_133121",0.16151599309129,-3.498617140279956,25.0,468.0],["SMIM14_201895",0.19918414903142534,-3.076282754350932,18.0,260.0],["ITIH4_3700",0.15300525037571805,-1.9735164935287615,18.0,260.0],["KRT9_3857",0.17159908258102807,-2.3861016001209108,18.0,260.0],["LOC646670&LOC732265_646670&732265",0.20414185705940482,-3.2105016775769504,18.0,260.0],["WDR72_256764",0.1691099671573736,-2.328453733362728,18.0,260.0],["RABGGTB_5876",0.16943217888008777,-3.804257216868521,25.0,468.0],["CCDC189_90835",0.1778407934700927,-2.533989927847422,18.0,260.0],["DRAM2_128338",0.17358099494076118,-2.432542904684711,18.0,260.0],["NLRP1_22861",0.1578415012636381,-2.0768450746149045,18.0,260.0],["LIN7C_55327",0.1520226180285067,-1.9528607870217793,18.0,260.0],["KIRREL2_84063",0.17790777032944555,-2.535602797921198,18.0,260.0],["DNAJA1_3301",0.15641464822087459,-2.046070897922072,18.0,260.0],["NMNAT2_23057",0.1403137058276781,-2.7471403274668966,25.0,468.0],["SCFD2_152579",0.14367373322325297,-1.7819378290022336,18.0,260.0],["SH3BP2_6452",0.18973183799897675,-2.8290612072330905,18.0,260.0],["OLA1_29789",0.1821591164856391,-2.6391136548129785,18.0,260.0],["EHD1_10938",0.13988959086886843,-2.733090787063689,25.0,468.0],["IPPK_64768",0.15623901341041002,-2.0422995719049055,18.0,260.0],["NFIL3_4783",0.13691900704467855,-2.635751568383431,25.0,468.0],["SIL1_64374",0.14298685364922953,-1.7682381981890967,18.0,260.0],["SLC16A3_9123",0.14306160110446708,-2.839093891008071,25.0,468.0],["RAD23A_5886",0.13708261729261656,-2.64106421307167,25.0,468.0],["CT45A7&CT45A10&CT45A3&CT45A5&CT45A6_101060211&102723631&441519&441521&541465",0.18261163871696454,-2.650263420886643,18.0,260.0]],"bottom":[["SCAF4_57466",-0.16875051455417897,-2.3201910761741424,18.0,260.0],["ZBTB1_22890",-0.13894519418000506,-2.701942845479874,25.0,468.0],["LOC441728_441728",-0.14820814093298074,-1.8737553230235708,18.0,260.0],["UBE2C_11065",-0.1634776849681763,-3.5730720050648506,25.0,468.0],["ANGEL1_23357",-0.16831220228579097,-2.310136911480402,18.0,260.0],["TSKU_25987",-0.14361714021606245,-2.8578791331292486,25.0,468.0],["IAPP_3375",-0.14059946757555766,-1.7210483181259266,18.0,260.0],["UGT1A4_54657",-0.15121607495613618,-3.12145710667444,25.0,468.0],["CA14_23632",-0.15591320455180632,-2.035313334924264,18.0,260.0],["FAM157B_100132403",-0.17705294499565202,-2.515059232424465,18.0,260.0],["FAM106A_80039",-0.1649409980506495,-2.233584639900674,18.0,260.0],["KMT5A_387893",-0.1630825656387391,-2.1919705414027195,18.0,260.0],["PIK3R1_5295",-0.1438602200688928,-2.8661194157912546,25.0,468.0],["CPLX1_10815",-0.13437770995040701,-1.6011583985596352,18.0,260.0],["IGFL3_388555",-0.1676475364046861,-2.29493502352889,18.0,260.0],["MARCH9_92979",-0.1762487221612181,-4.078560735724084,25.0,468.0],["PUF60_22827",-0.14091243720487745,-2.7670392412098064,25.0,468.0],["EIF3E_3646",-0.14137045551995792,-2.782312873111962,25.0,468.0],["RAPGEFL1_51195",-0.1618359112351566,-3.5107018820880014,25.0,468.0],["ITGB1BP1_9270",-0.20359350594697884,-3.19550102423232,18.0,260.0],["OLFM1_10439",-0.1578780650070054,-3.362769850090041,25.0,468.0]]},"para":{"top":[["CCDC82_79780",0.18825073322282293,-3.0608401454378877,18.0,260.0],["OLA1_29789",0.20355111453958394,-3.4506606097122985,18.0,260.0]],"bottom":[["MARCH9_92979",-0.1809484793866001,-4.523063108160407,25.0,468.0],["RAPGEFL1_51195",-0.1722112521536919,-4.174138889691629,25.0,468.0]]}}}
{"ccle_rrbs_tss1kb":{"corr":{"top":[["ZNF229_19_44952665_44953665",0.1980958780417252,-5.681659293252938,24.0,541.0],["GDA_9_74728510_74729510",0.14379724379585204,-2.3330909214119977,16.0,370.0]],"bottom":[["MLST8_16_2254177_2255177",-0.10866481810668872,-2.703335427062229,40.0,768.0],["GNB1L_22_19842462_19843462",-0.09929425165933164,-2.3824136737234376,41.0,791.0],["SEC13_3_10362872_10363872",-0.09804833742625339,-2.3238048459511598,41.0,787.0],["ZNF665_19_53696678_53697678",-0.0997179640141359,-2.284319484069492,37.0,747.0],["ZFYVE21_14_104181080_104182080",-0.10025461673736163,-2.4208105524341748,41.0,791.0],["C19orf57_19_14016978_14017978",-0.09836056428095909,-2.3407268363252554,40.0,790.0],["LIME1_20_62366811_62367811",-0.12809728751025715,-3.6398005854574302,41.0,782.0],["IDH3B_20_2644869_2645869",-0.10908708919153477,-2.7634912464640675,40.0,783.0],["MEF2A_15_100105695_100106695",-0.10453839110032147,-2.5933534975606687,41.0,790.0],["YY1AP1_1_155649620_155650620",-0.11643575676527251,-3.1191615686757004,41.0,792.0],["SF3A2_19_2235815_2236815",-0.10016254354938348,-2.4195252110745016,41.0,792.0],["SLC35G3_17_33521412_33522412",-0.11619466109291726,-1.3147446859579814,16.0,273.0],["RAB35_12_120554643_120555643",-0.1000387714425624,-2.409748653565213,41.0,790.0],["SNORD159_21_47614073_47615073",-0.13023029514764523,-3.7026100940530733,39.0,773.0],["ZNF83_19_53193834_53194834",-0.12795313740686562,-2.554129081844054,24.0,520.0],["PICK1_22_38452261_38453261",-0.11312183261677115,-2.866219337898588,39.0,760.0],["NR1D2_3_23986611_23987611",-0.10373169549227168,-2.562493195097775,41.0,791.0],["NCL_2_232329205_232330205",-0.11338536442069713,-2.9779072707739425,41.0,791.0],["DUS4L_7_107203401_107204401",-0.10181950656721526,-2.4790899968269295,41.0,789.0],["LINC01800_2_65090765_65091765",-0.11710307673593046,-2.330386725657325,29.0,553.0],["SNRPG_2_70520590_70521590",-0.10182680557649548,-2.484355747500547,41.0,791.0],["SEC13_3_10362725_10363725",-0.10485109700215861,-2.6011260388739528,41.0,788.0],["LINC01910_18_68051827_68052827",-0.14663205106097232,-2.332254424818404,17.0,354.0]]},"para":{"top":[["GDA_9_74728510_74729510",0.17818667361758175,-3.6253902954562784,16.0,370.0]],"bottom":[["NTPCR_1_233085587_233086587",-0.14855723763578063,-5.01848888558949,39.0,790.0],["SF3A2_19_2235815_2236815",-0.1335961927379156,-4.234333334646838,41.0,792.0],["REPIN1_7_150064878_150065878",-0.1731131904720659,-6.47287065140107,41.0,784.0]]}}}
{"ccle_gene_tpm":{"corr":{"top":[["IFIT1P1_ENSG00000215515.2",0.14931975373994405,-5.7725859089165255,48.0,971.0],["RP11-334G22.1_ENSG00000273063.1",0.14495324514684732,-5.470620933491408,48.0,971.0],["FOXD2-AS1_ENSG00000237424.1",0.14387238478703326,-5.397213054298758,48.0,971.0],["RP11-589F5.3_ENSG00000197284.4",0.14636101540671811,-5.5670268616757435,48.0,971.0],["RP11-63P12.7_ENSG00000235523.1",0.16222926816891406,-6.716460612827931,48.0,971.0],["RN7SL481P_ENSG00000240322.2",0.17279919972088068,-7.54685920832727,48.0,971.0],["GRPEL2-AS1_ENSG00000253618.1",0.14850855876601618,-5.7158307834680375,48.0,971.0],["FAM99A_ENSG00000205866.2",0.160315887144295,-6.571709449119287,48.0,971.0],["RP11-186F10.2_ENSG00000257761.1",0.1594327461951569,-6.505470452670728,48.0,971.0],["RP3-355L5.4_ENSG00000231628.1",0.16371458140909714,-6.829999785344038,48.0,971.0],["RP11-472D17.2_ENSG00000233742.1",0.24106274007751677,-14.211807683352331,48.0,971.0],["OR10AG1_ENSG00000174970.2",0.16766880256473005,-7.137276008571355,48.0,971.0],["FMR1-AS1_ENSG00000268066.1",0.17063476498719587,-7.372555366188985,48.0,971.0],["KYNUP3_ENSG00000263206.1",0.15433816363388458,-6.130391084177438,48.0,971.0],["FOXD2_ENSG00000186564.5",0.15723879908893282,-6.342477182838642,48.0,971.0]],"bottom":[["COPS8P2_ENSG00000214552.4",-0.09557154373175435,-2.64634308048522,48.0,971.0],["NCKAP5_ENSG00000176771.11",-0.1084869078324986,-3.282139485319563,48.0,971.0],["None_ENSG00000261487.1",-0.13560775448133053,-4.853368489452018,48.0,971.0]]},"para":{"top":[],"bottom":[]}}}
{"ccle_rrbs_tss_clusters":{"corr":{"top":[["SH2B2_6",0.1698509906484745,-6.1525223279533465,42.0,801.0],["NIN_3",0.18052400143899455,-6.874372736961524,42.0,800.0],["AKAP7_2",0.24346218475151288,-3.8561886262545206,9.0,231.0],["GDA_4",0.16661664779016586,-3.0126389827302997,16.0,373.0],["GPR42_3",0.1645265932382714,-2.310070865751235,10.0,281.0],["SH2B2_1",0.17659666406490213,-6.608297849674692,42.0,801.0],["MAPK12_2",0.1993869616000794,-8.253156423243963,42.0,798.0],["MUC3A_1",0.22021456184551327,-7.653753028167287,20.0,612.0]],"bottom":[["DDIT4_1",-0.22439432755174404,-6.00419772613526,23.0,443.0],["MIR4529_2",-0.15722306668365804,-4.606425432860581,36.0,677.0],["ZNF83_5",-0.18155972421082558,-3.736714909646534,17.0,403.0],["C11orf72_3",-0.17926991644268123,-6.705770546481478,42.0,789.0],["PLAC1_2",-0.1232946730727493,-2.543061134247935,24.0,559.0],["MIR6885_2",-0.12628622117682425,-2.1397769982693844,20.0,431.0],["UQCRHL_2",-0.13017653092134823,-1.8715649365834928,18.0,342.0],["ABCD4_1",-0.14042858866538938,-4.3041218929712555,41.0,788.0],["NALT1_3",-0.13824869625533331,-2.720183941993478,23.0,479.0],["LINC01800_1",-0.17270745173523594,-3.5781463448538497,24.0,418.0],["VARS2_1",-0.12699517933278615,-3.630688785079328,42.0,793.0],["NDUFV1",-0.1588681019554129,-5.366904793364129,42.0,787.0],["TPSB2_3",-0.1242961930594524,-2.088496701432378,20.0,432.0],["TBC1D22A-AS1_1",-0.12828536238327456,-2.1115762917251586,17.0,413.0],["HKR1_6",-0.13340462326211383,-1.863793084213398,14.0,327.0],["FAM222B_5",-0.13687130403331393,-4.0047942527738165,40.0,764.0],["FOXQ1_2",-0.16016482054418524,-2.3838917223469105,9.0,310.0]]},"para":{"top":[["SLC51B_3",0.1378747352086181,-2.1684011564208943,11.0,311.0],["AKAP7_2",0.2230199325524429,-3.544537007115107,9.0,231.0],["LINC01975_1",0.16307571276820942,-2.738053058046543,12.0,307.0],["GDA_4",0.1790878408462294,-3.6765879504597816,16.0,373.0],["GPR42_3",0.16652081165148205,-2.6383021418228023,10.0,281.0]],"bottom":[["C2orf69",-0.15153252799401126,-5.239126989111865,41.0,798.0],["HLA-DQB2_2",-0.15745369334821538,-2.3667942321943323,8.0,272.0],["GPATCH4_1",-0.14951655429373753,-5.1437744688171065,42.0,801.0],["TMEM147_3",-0.15135171851468068,-5.244357932933316,42.0,800.0],["ZNF83_5",-0.1631911289474382,-3.376920037061395,17.0,403.0],["RPARP-AS1_1",-0.15473513177850676,-5.4422785532785065,42.0,800.0],["LINC01429_1",-0.15265642419477674,-1.8082496681309779,8.0,193.0],["NTPCR",-0.12991124238875063,-4.071434069268582,40.0,799.0],["MAN1C1_3",-0.10468795739674919,-1.8067398277910092,12.0,413.0],["NALT1_3",-0.1413461542196403,-3.107499305207385,23.0,479.0],["EPHB6_6",-0.12577089190202723,-1.9502089479798663,11.0,320.0],["HKR1_6",-0.1556251372382267,-2.6850908943272187,14.0,327.0],["LINC02609_1",-0.14078853790717785,-2.0171265646920618,10.0,268.0],["SERPINB6_2",-0.1529119751752682,-1.9882705113520818,10.0,221.0],["FOXQ1_2",-0.17178399761683086,-2.9581036764587,9.0,310.0]]}}}
{"ccle_rrbs_cgi_clusters":{"corr":{"top":[["7_148034494_148038848-1",0.17917355315125977,-2.674552850597474,11.0,281.0],["14_51294727_51297602-3",0.18118024560410706,-6.905629054464297,41.0,799.0],["13_23731808_23734312-1",0.2524799820219706,-4.989306120619678,19.0,279.0],["6_131454364_131459157-2",0.24346218475151288,-3.8561886262545206,9.0,231.0],["1_111503881_111506444-1",0.16638589940742016,-5.544557045964435,38.0,745.0],["13_23731808_23734312-2",0.23171200514794252,-4.268806388628096,19.0,279.0],["12_130621142_130625492-3",0.23144760259774855,-3.306706036479809,10.0,213.0],["1_23943941_23948295-2",0.16898665734816076,-2.2838786262406847,18.0,254.0],["22_24181079_24183666-3",0.18281570685234252,-3.6252232732882392,16.0,384.0],["22_50697469_50702358-2",0.1993869616000794,-8.253156423243963,42.0,798.0]],"bottom":[["19_6753086_6755657-1",-0.12860619245816748,-2.583976314684145,25.0,521.0],["9_139440287_139443532-3",-0.13824869625533331,-2.720183941993478,23.0,479.0],["10_74031167_74033933-1",-0.22439432755174404,-6.00419772613526,23.0,443.0],["19_53191139_53195945-2",-0.18155972421082558,-3.736714909646534,17.0,403.0],["19_10250705_10254917-2",-0.28602846560575823,-5.211477353325448,9.0,233.0],["5_114515468_114518220-1",-0.13291278801071135,-1.4835662621075678,9.0,249.0],["2_65090220_65094640-1",-0.1286841200115242,-2.760591958681191,30.0,560.0],["19_5243885_5248095-3",-0.1286094761762378,-3.382867516260552,39.0,711.0],["16_2214870_2217518-1",-0.15140369669530526,-4.958474094440233,42.0,794.0],["6_1312644_1316220-2",-0.16016482054418524,-2.3838917223469105,9.0,310.0],["18_19754794_19759080-2",-0.1515523222611604,-3.2960671437136133,21.0,502.0],["20_60858732_60862999-2",-0.16810223753582976,-5.025011795236547,30.0,657.0],["19_37801516_37805822-1",-0.13340462326211383,-1.863793084213398,14.0,327.0],["14_74767366_74771815-1",-0.14042858866538938,-4.3041218929712555,41.0,788.0],["1_28855037_28859311-2",-0.12975387643040787,-3.2929237846346986,36.0,678.0],["17_27137185_27141671-2",-0.13687130403331393,-4.0047942527738165,40.0,764.0],["1_32252004_32256353-1",-0.13262189832330354,-3.9203253547015224,42.0,794.0],["24_13583173_13588108-3",-0.15223058300557862,-1.8248718338068524,14.0,241.0],["11_67372150_67376726-3",-0.1588681019554129,-5.366904793364129,42.0,787.0]]},"para":{"top":[["13_25590046_25592577-1",0.19752245704039423,-3.09010570697542,8.0,248.0],["7_148034494_148038848-1",0.17764730815072965,-2.9105338859009855,11.0,281.0],["6_131454364_131459157-2",0.2230199325524429,-3.544537007115107,9.0,231.0],["7_157692387_157696661-2",0.15224333429408893,-2.257256076985023,9.0,271.0],["9_137976821_137979537-1",0.14330447586689052,-2.749602684762099,16.0,399.0],["23_65039896_65044304-1",0.13872047859496917,-1.8952215494127194,8.0,253.0],["20_57416144_57419153-3",0.16306505940027305,-2.430583147569787,10.0,261.0],["3_128213212_128216058-3",0.21781309596747833,-2.9137190223238263,9.0,186.0],["12_130621142_130625492-3",0.2413995408342145,-3.788670500337246,10.0,213.0],["12_131387263_131391783-2",0.18993967653977686,-3.6432629969847437,15.0,327.0]],"bottom":[["6_32727342_32731877-2",-0.15745369334821538,-2.3667942321943323,8.0,272.0],["13_21518328_21522564-2",-0.12119780689776383,-1.4823411167042864,8.0,224.0],["9_139440287_139443532-3",-0.1413461542196403,-3.107499305207385,23.0,479.0],["24_14098002_14102593-3",-0.1302366987718609,-1.4368170059150516,8.0,183.0],["6_2969086_2973962-2",-0.1529119751752682,-1.9882705113520818,10.0,221.0],["10_74853858_74856422-1",-0.14653950293950663,-4.969752950350822,42.0,800.0],["19_53191139_53195945-2",-0.1631911289474382,-3.376920037061395,17.0,403.0],["2_200773746_200778548-1",-0.15153252799401126,-5.239126989111865,41.0,798.0],["7_142552533_142555186-3",-0.12577089190202723,-1.9502089479798663,11.0,320.0],["1_91314249_91316819-1",-0.14180320683949849,-2.0368185161306562,10.0,268.0],["8_41557255_41561609-1",-0.12710057119859391,-2.05831672470514,12.0,339.0],["19_10250705_10254917-2",-0.1989983402807571,-2.99468575085825,9.0,233.0],["5_114515468_114518220-1",-0.1302303135203209,-1.7324712734807135,9.0,249.0],["19_33790061_33793503-3",-0.16475075018766003,-6.014936659574134,42.0,794.0],["6_1312644_1316220-2",-0.17178399761683086,-2.9581036764587,9.0,310.0],["19_36034002_36038607-3",-0.15135171851468068,-5.244357932933316,42.0,800.0],["7_150063169_150065760-3",-0.16413456812749191,-5.964460937046728,41.0,793.0],["1_25253527_25257266-1",-0.16615454950070138,-2.603450587459001,13.0,274.0],["6_21588298_21591175-1",-0.1360838616918314,-4.4052854514628015,42.0,801.0],["10_104208095_104212985-1",-0.15473513177850676,-5.4422785532785065,42.0,800.0],["24_13583173_13588108-3",-0.15987789234739375,-2.263952472951961,14.0,241.0],["19_37801516_37805822-1",-0.1556251372382267,-2.6850908943272187,14.0,327.0]]}}}
