{"ccle_chromatin":{"corr":{"top":[["H3K27ac1K36me0",0.10382793346239919,-2.712935428299954,108.0,781.0],["H3K18ac1K23ac1",0.08508467161945242,-1.9668861524112957,109.0,788.0]],"bottom":[]},"para":{"top":[],"bottom":[]}}}
{"ccle_rppa":{"corr":{"top":[["ERBB2_HER2",0.13072413521400192,-4.07261232813134,109.0,790.0]],"bottom":[]},"para":{"top":[],"bottom":[]}}}
{"ccle_metabolomics":{"corr":{"top":[["sucrose",0.08935426419349585,-2.1882506557287353,112.0,815.0]],"bottom":[]},"para":{"top":[],"bottom":[]}}}
{"ccle_rrbs_enhancer_clusters":{"corr":{"top":[["1-218223181-218226086-2_enh",0.0944768994308732,-2.0054437950664616,88.0,657.0]],"bottom":[["11-121797771-121800471-0_enh",-0.16116499147002086,-2.5406552782170233,36.0,304.0],["19-30566483-30569016-0_enh",-0.0753976567457088,-1.5436804685106806,101.0,742.0],["1-38560900-38563606-0_enh",-0.12125146907526303,-2.994631966579341,86.0,646.0],["5-158486809-158489498-0_enh",-0.11889123354469917,-1.6824723395623185,38.0,340.0],["16-22682122-22684702-1_enh",-0.08429074549058507,-1.798814067641517,98.0,720.0],["8-37493309-37498204-0_enh",-0.14986251054097893,-3.5549343803379627,69.0,515.0],["16-54250374-54253153-0_enh",-0.07861247445200918,-1.5975163357724476,98.0,712.0],["15-97392320-97395001-0_enh",-0.07270433685650331,-1.4380924683286485,98.0,730.0],["14-97763144-97765744-0_enh",-0.08871576717827323,-1.930146001728086,95.0,711.0],["8-49492150-49494942-0_enh",-0.08591508592797095,-1.790860748648622,92.0,691.0],["16-79027363-79030162-0_enh",-0.1019104167918921,-2.2602974562613793,88.0,653.0],["1-38560900-38563606-1_enh",-0.1043117209240215,-2.325442663733661,86.0,646.0]]},"para":{"top":[],"bottom":[]}}}
{"ccle_mirna":{"corr":{"top":[["hsa-miR-345_miR00322.1",0.1252194741129504,-3.977212390311937,113.0,841.0],["hsa-miR-600_miR00554.1",0.08667689344029073,-2.1313213360659624,113.0,841.0],["hsa-miR-491-3p_miR00396.1",0.13213207348648773,-4.372189770473448,113.0,841.0]],"bottom":[["hcmv-miR-UL112_miR00753.1",-0.09354940736263989,-2.417038924538384,113.0,841.0],["hsa-miR-625_miR00580.1",-0.08102926676214924,-1.9102912987043685,113.0,841.0],["ebv-miR-BART19-3p_miR00733.1",-0.07665482929865292,-1.747534148024212,113.0,841.0]]},"para":{"top":[],"bottom":[]}}}
{"prism_primary_logfold":{"corr":{"top":[["mezlocillin_BRD-K45114938-236-01-8::2.35::HTS",0.10730565007940031,-1.854245148447563,60.0,464.0],["estrone_BRD-K81839095-001-30-1::2.5::HTS",0.09884164175208966,-1.6187507304623245,64.0,457.0],["sucrose-octaacetate_BRD-K01294196-001-01-5::2.5::HTS",0.10658933027455514,-1.8905360190356089,68.0,476.0],["levodopa_BRD-K34730807-001-17-6::2.5::HTS",0.13919714938243694,-2.8579858292212386,61.0,464.0],["BL-5583_BRD-K75282704-001-02-4::2.5::HTS",0.1113024546741509,-2.0614188090580203,68.0,487.0],["CGP-54626_BRD-A74208568-003-01-5::2.5::HTS",0.12114410951736583,-2.3703521189376806,68.0,487.0],["1-EBIO_BRD-K70586315-001-02-4::2.5::HTS",0.11203942157868077,-2.083779281914396,68.0,487.0],["lidamidine_BRD-K68693535-001-03-4::2.5::HTS",0.12835922057838245,-2.622970462977419,68.0,490.0],["ginsenoside-rd_BRD-A84810646-001-01-6::2.500007302::MTS004",0.11176861574779585,-2.0266522673261003,67.0,472.0],["bimatoprost_BRD-A45153512-001-01-0::2.5::HTS",0.15233295769699923,-3.434681156844168,68.0,475.0],["RS-100329_BRD-K08640512-003-02-3::2.5::HTS",0.10962062385095186,-1.9961218403789451,68.0,482.0],["glasdegib_BRD-K34341643-001-01-4::2.5::HTS",0.10024738881546931,-1.7283092807974,68.0,482.0],["docosanol_BRD-K50050533-001-02-1::2.5::HTS",0.1279773918768271,-2.488114881543232,61.0,466.0],["FGIN-1-43_BRD-K66093087-001-03-1::2.5::HTS",0.1347917982277036,-2.857755534777584,68.0,492.0],["bismuth-subcitrate-potassium_BRD-A03880619-001-01-0::2.5::HTS",0.11299421366722123,-2.0192946586801366,61.0,464.0],["SNAP_BRD-A67006024-001-04-8::2.5::HTS",0.10653916858753816,-1.835771009740627,61.0,464.0],["dimercaprol_BRD-A56152450-001-02-0::2.5::HTS",0.14209748253555204,-2.969819490110216,61.0,466.0],["taltirelin_BRD-K93869735-001-01-1::2.5::HTS",0.10641267057710713,-1.8658940387634322,64.0,473.0]],"bottom":[["NU-7441_BRD-K00337317-001-06-6::2.5::HTS",-0.13573335505264644,-2.874297849495157,68.0,488.0],["ulipristal_BRD-K64381438-001-03-8::2.5::HTS",-0.13090077656330637,-2.670242490433662,68.0,480.0],["pacritinib_BRD-K19034817-001-01-4::2.5::HTS",-0.15185714692937682,-3.48649815807326,68.0,488.0],["vinorelbine_BRD-K69280563-001-01-8::2.5::HTS",-0.12773952849646353,-2.5782630451102664,68.0,484.0],["taselisib_BRD-K44844162-001-01-6::2.5::HTS",-0.11801025208883939,-2.2526792956573822,68.0,482.0],["WZ8040_BRD-K81728688-001-04-4::2.5::HTS",-0.13626918645485178,-2.875996234547399,68.0,484.0],["PI-103_BRD-K67868012-001-07-6::2.5::HTS",-0.12041041568100241,-2.3640435009067993,68.0,492.0],["guanfacine_BRD-K32830106-003-20-4::2.5::HTS",-0.11736527170535388,-2.2390667502666664,68.0,484.0],["saracatinib_BRD-K19540840-001-09-4::2.5::HTS",-0.1286858191408576,-2.6421331531358314,68.0,492.0],["afatinib_BRD-K66175015-001-09-0::2.5::HTS",-0.1668133365970771,-4.033370965734903,68.0,476.0],["clopidogrel_BRD-K27721098-065-08-6::2.5::HTS",-0.12142067675823943,-2.382912608661498,68.0,488.0],["quinine_BRD-K07940445-310-02-9::2.5::HTS",-0.11442075456424645,-2.1632555119050907,68.0,489.0],["BMS-690514_BRD-K76239644-001-01-8::2.5::HTS",-0.12695486191548647,-2.5710441127823636,68.0,489.0],["avibactam_BRD-K85882401-323-01-5::2.500009065::MTS004",-0.12892552383597983,-2.570881986632279,67.0,473.0],["vortioxetine_BRD-K53963539-004-02-0::2.5::HTS",-0.11688518022503618,-2.1741877754569976,62.0,475.0],["rolziracetam_BRD-K38564664-001-01-1::2.5::MTS004",-0.12289874862803989,-2.373194417853937,67.0,473.0],["amprenavir_BRD-K47827687-001-02-2::2.5::HTS",-0.12287179534880062,-2.4050871087091594,68.0,481.0],["fluorometholone_BRD-A13133631-001-04-0::2.5::HTS",-0.13572096365946143,-2.856343762278027,68.0,484.0]]},"para":{"top":[],"bottom":[]}}}
{"prism_secondary_logfold":{"corr":{"top":[["gidazepam_BRD-K22588750-001-07-0::0.000610354::MTS006",0.15395323354680512,-3.079297622907168,62.0,406.0],["PD-407824_BRD-K82823804-001-04-1::0.0024414::HTS002",0.1583527716712354,-3.09603101882921,61.0,384.0],["disulfiram_BRD-K32744045-001-31-2::0.156249997::MTS006",0.12859961757652613,-2.272992272082862,62.0,406.0],["methylprednisolone_BRD-K35240538-001-26-2::0.00061034::HTS002",0.13213599047018695,-2.1361367819993657,51.0,360.0],["Ro-106-9920_BRD-A53134341-001-03-2::0.0024414::HTS002",0.130832739651331,-2.3305710401658484,61.0,405.0],["cisplatin_BRD-K69172251-001-08-9::2.5::HTS002",0.13421607745191708,-2.4361710964476364,61.0,406.0],["AR-12_BRD-K90497590-001-04-2::0.00061034::HTS002",0.1402256757436181,-2.5276243054439904,61.0,386.0],["danazol_BRD-A92537424-001-04-7::0.625::HTS002",0.14171583963568074,-2.6787912124329973,61.0,408.0],["niclosamide_BRD-K35960502-001-20-0::0.0024414::HTS002",0.12694006817959713,-2.2403381232983595,62.0,410.0],["tivantinib_BRD-K33379087-001-07-5::0.0390625::HTS002",0.1378369027912218,-2.5472668456244874,62.0,405.0],["brilliant-green_BRD-K60348325-065-09-9::0.00244141::HTS002",0.133244539684838,-2.3209958487670357,58.0,389.0],["RG108_BRD-K89391146-001-08-0::0.00976562::HTS002",0.13883125547675412,-2.5736091553392417,61.0,405.0],["amisulpride_BRD-A60197193-001-14-6::0.00976562::HTS002",0.13339628494794023,-2.325388893882095,58.0,389.0],["tirapazamine_BRD-K92968657-001-01-6::0.15625::HTS002",0.14099357055885603,-2.655770350367576,62.0,407.0],["birinapant_BRD-K71221037-001-01-6::0.00976562::HTS002",0.1265609354819241,-2.221509887509511,61.0,409.0],["bafetinib_BRD-A75975749-001-01-4::0.039062501::MTS006",0.14194808217714822,-2.681397428081592,62.0,406.0],["tyrphostin-A9_BRD-K40255344-001-17-6::0.0024414::HTS002",0.177340526103355,-3.939777900534587,61.0,407.0],["XBD173_BRD-K45875383-001-01-2::0.0024414::HTS002",0.13660731288545647,-2.419371101668392,61.0,386.0],["cinalukast_BRD-K53720352-001-03-2::2.5::HTS002",0.1347691570169968,-2.4529723436482587,62.0,405.0],["methyldopa_BRD-K48578705-001-17-6::0.15625::HTS002",0.14332520289636821,-2.735370393217696,62.0,408.0],["sevoflurane_BRD-K05638300-001-01-2::0.0390625::HTS002",0.12581977624713,-2.188529280817789,61.0,406.0],["lenvatinib_BRD-K39974922-001-04-3::0.00976562::HTS002",0.14245028611767865,-2.6877546243392607,61.0,405.0],["carmustine_BRD-K36234266-001-09-8::0.00061034::HTS002",0.1419630349864259,-2.677054796029401,61.0,406.0],["carvedilol_BRD-A10977446-001-12-1::0.0024414::HTS002",0.13052489837477446,-2.242998943917376,58.0,389.0],["acetophenazine_BRD-K42938903-332-01-1::0.00976562::HTS002",0.13045057183898573,-2.083235687527964,58.0,351.0],["IDRA-21_BRD-A14344385-001-03-2::0.0024414::HTS002",0.13392328762863756,-2.162079068299501,54.0,352.0],["sulconazole_BRD-A70649075-008-30-8::0.00976562::HTS002",0.14548028601796606,-2.8004801617728297,61.0,408.0],["adapalene_BRD-K33127281-001-05-6::10::MTS006",0.15781472065198363,-3.213536093943129,62.0,406.0],["sulmazole_BRD-A22081593-001-11-1::0.0390625::HTS002",0.12597700689718766,-2.235465572903362,62.0,416.0],["felbamate_BRD-K99107520-001-24-1::0.002441405::MTS006",0.15273424277443168,-3.037556899553286,62.0,406.0],["fluroxene_BRD-K56908511-001-01-2::0.0390625::HTS002",0.13101930031047818,-2.3402472956684215,61.0,406.0],["azithromycin_BRD-K74501079-001-18-1::0.00976562::HTS002",0.1352182535591529,-2.3784754002622113,58.0,389.0],["CD-437_BRD-K28907958-001-04-3::0.00976562::HTS002",0.13486017800226974,-2.460122747142259,61.0,407.0],["thiostrepton_BRD-K58049875-001-04-7::10::HTS002",0.13523496205771357,-2.1703766039735024,54.0,346.0],["doxercalciferol_BRD-K82928892-001-02-5::0.00240187::HTS002",0.13764038162019698,-2.2206854869728696,55.0,342.0],["D-7193_BRD-K32372024-001-01-0::0.625::HTS002",0.19979959769655892,-4.866165866862518,61.0,406.0],["sodium-stibogluconate_BRD-A60786380-412-01-5::0.15625::HTS002",0.13853008419516513,-2.5688330571656683,61.0,406.0],["racecadotril_BRD-A08187463-001-12-9::0.00061034::HTS002",0.13094617435188,-2.2549895000333633,58.0,389.0],["thiostrepton_BRD-K58049875-001-04-7::0.00976562::HTS002",0.14686993051629585,-2.5208822319283737,54.0,352.0],["ML133_BRD-K33743361-003-02-6::0.625::HTS002",0.1587757520693699,-3.2474219217588836,61.0,407.0],["acetylcysteine_BRD-K59058747-001-18-3::0.0024414::HTS002",0.17058355247978405,-3.672588531227764,61.0,406.0],["fluroxene_BRD-K56908511-001-01-2::0.00061034::HTS002",0.13590698261011092,-2.4877277547024725,61.0,406.0],["fluroxene_BRD-K56908511-001-01-2::0.15625::HTS002",0.14187100830241425,-2.6741229086906397,61.0,406.0]],"bottom":[["ambazone_BRD-K11244467-001-08-5::0.15625::HTS002",-0.14193333777401956,-2.579582148897512,61.0,386.0],["pyrimethamine_BRD-K88429204-001-35-1::0.15625::HTS002",-0.14458626766399374,-2.7713207364145616,61.0,408.0],["venetoclax_BRD-K62391742-001-03-0::0.00061034::HTS002",-0.14251698623748557,-2.680168384976348,62.0,402.0],["amoxicillin_BRD-K55044200-001-15-3::0.00976562::HTS002",-0.15854708782762578,-3.227465874242719,61.0,405.0],["PF-05212384_BRD-K07955840-001-02-3::2.5::HTS002",-0.17258836171904055,-3.81149483899906,60.0,416.0],["trifluridine_BRD-K03243820-001-23-8::0.0370827::HTS002",-0.1423807502747944,-2.6855367527261262,61.0,405.0],["indiplon_BRD-K90948141-001-01-4::0.00976562::HTS002",-0.13421539603667507,-2.475190728642294,60.0,416.0],["SR-33805_BRD-K43002771-034-01-6::2.5::HTS002",-0.17441621662812465,-3.353699353820382,55.0,347.0],["I-BET-762_BRD-K08109215-001-06-4::0.15625::MTS010::PROS002_PR500",-0.15090906093723558,-2.8130575129738897,59.0,379.0],["prednisolone-tebutate_BRD-A53151380-001-01-2::10::HTS002",-0.16418894214354623,-2.6087067355505,45.0,293.0],["erastin_BRD-A25004090-001-08-4::0.0024414::HTS002",-0.14337906003184037,-2.4014184550486366,55.0,347.0],["CID-5458317_BRD-A08840375-001-01-3::0.15625::HTS002",-0.1490425248261518,-2.9499484138899486,62.0,413.0],["indiplon_BRD-K90948141-001-01-4::0.00061034::HTS002",-0.14132498660879558,-2.6758759444760436,59.0,412.0],["TG-02_BRD-K14560436-001-01-4::0.625::HTS002",-0.17010864300222053,-3.708998636252984,62.0,413.0],["vandetanib_BRD-K77625799-001-07-7::2.5::MTS010::PROS002_PR500",-0.13655049285358262,-2.3094961723070413,58.0,365.0],["7-hydroxystaurosporine_BRD-K45293975-001-02-0::0.00244141::HTS002",-0.14311557503019817,-2.394054502986336,55.0,347.0],["RU-58841_BRD-K62762455-001-01-3::2.5::HTS002",-0.16798970978521316,-2.684808419108832,46.0,288.0],["oxymatrine_BRD-A57833392-001-01-7::0.00976562::HTS002",-0.1407319276789392,-2.6237426330292273,61.0,403.0],["scriptaid_BRD-K22503835-001-11-0::10::HTS002",-0.14639559948576442,-2.861120717686494,62.0,413.0],["acetazolamide_BRD-K43457670-001-27-8::2.5::HTS002",-0.1616125700338115,-3.336244259854388,61.0,405.0],["aripiprazole_BRD-K70358946-001-15-7::2.5::HTS002",-0.286828916354958,-2.4393106493755616,10.0,91.0]]},"para":{"top":[],"bottom":[["aripiprazole_BRD-K70358946-001-15-7::2.5::HTS002",-0.26663303290401213,-2.408984982684484,10.0,91.0]]}}}
{"ccle_proteomics":{"corr":{"top":[["CYP4X1_Q8N118",0.2940131173957786,-2.6964139786362784,14.0,94.0],["MTHFD2L_Q9H903",0.24953642618435848,-3.361700837785948,35.0,160.0],["FAM188B_Q4G0A6",0.2310582283736929,-2.0076755164959716,11.0,113.0],["STX1A_Q16623",0.2620818205759017,-2.3313458523863573,17.0,98.0],["NPTX1_Q15818",0.3407603558103517,-3.711844129326108,14.0,101.0],["FOXD2_O60548",0.23636924061721323,-1.2064152138557216,8.0,55.0],["ZNF701_Q9NV72",0.2866297501544807,-1.7919931223075012,11.0,59.0],["CTAG2_O75638",0.3314527692209578,-2.295464534155258,8.0,62.0],["ATG4A_Q8WYN0",0.2655640173271284,-3.4683619975192075,21.0,157.0],["FMO4_P31512",0.24502013338135037,-0.8245373945801824,11.0,25.0],["LMTK3_Q96Q04",0.2538006572016951,-1.1935050726753298,9.0,45.0],["CCSER1_Q9C0I3",0.23241835774472816,-1.0419224731425618,9.0,45.0],["TPGS1_Q6ZTW0",0.3001307222183613,-1.72652906288915,10.0,51.0],["F10_P00742",0.24042376225039652,-1.7375883715408604,14.0,82.0],["PPP1R14C_Q8TAE6",0.23962421111215876,-3.8438079781811045,35.0,212.0],["RNFT2_Q96EX2",0.24650008214005173,-1.4174823137994395,17.0,54.0],["SLC4A8_Q2Y0W8",0.33000973254037264,-1.772547363566268,11.0,41.0],["UST_Q9Y2C2",0.26711597297054024,-1.235769919692793,8.0,43.0],["DOPEY1_Q5JWR5",0.26817305209213166,-2.2638943813078614,13.0,93.0],["GAS2_O43903",0.23462020775725426,-2.305639203838235,15.0,127.0],["COL15A1_P39059",0.28091459307332767,-1.9556395406895242,9.0,72.0],["VWA3B_Q502W6-6",0.26501916780979246,-0.6980126247356432,10.0,15.0],["SCNN1A_P37088-2",0.2449873575025314,-1.2759945963985444,9.0,54.0],["CPE_P16870",0.2715759312256897,-5.136385294967275,38.0,227.0],["CHN2_P52757",0.23421037599773983,-1.4086276677254603,8.0,70.0],["FAM20C_Q8IXL6",0.431239502616323,-5.312108806378193,10.0,94.0],["SPARCL1_Q14515",0.3605778029338854,-1.512248569070077,9.0,27.0],["IER5_Q5VY09",0.23402023721951576,-0.6197022429148342,8.0,19.0],["CHL1_O00533-2",0.2543620325666058,-3.3690547400477135,28.0,160.0],["RFX3_P48380-2",0.2524675340293488,-2.2989428222966097,21.0,101.0],["TP73_O15350",0.3124205166044144,-2.4923150901901097,10.0,77.0],["GCH1_P30793",0.2924131999295706,-1.6311674052745075,9.0,51.0],["CELF4_Q9BZC1",0.3861438805102859,-2.3285754266843792,8.0,44.0],["MT-ATP8_P03928",0.25783449547005766,-2.267353054637181,10.0,105.0],["CHGA_P10645",0.39380090559753295,-3.128449927733742,8.0,62.0],["REM1_O75628",0.4070211669092698,-2.1704639124109595,10.0,33.0],["GUCY1A3_Q02108",0.3393161625495961,-1.88826875339423,10.0,43.0],["AP3B2_Q13367",0.2705505266408965,-2.5886471655911922,18.0,104.0],["HACE1_Q8IYU2",0.24597599663194583,-1.507877418765132,11.0,66.0],["SCG3_Q8WXD2",0.3360399001300161,-3.1162853004241464,13.0,84.0],["LRRC25_Q8N386",0.4369160220202636,-2.112763007742857,8.0,28.0],["SPON2_Q9BUD6",0.2303828224192513,-1.0132753509178045,10.0,43.0],["GPM6A_P51674",0.2818847201903122,-1.7224157909939817,10.0,59.0],["PHYHIPL_Q96FC7",0.26758665510242696,-2.398044786324537,10.0,104.0],["CYP4F3_Q08477-2",0.27016147659581524,-1.8134181674274388,9.0,71.0],["VWA5B2_Q8N398",0.2952595548061009,-2.2598496852667673,11.0,76.0],["DLX2_Q07687",0.3490405124944302,-2.544911090556482,14.0,57.0],["TTC39A_Q5SRH9-4",0.23731651160654904,-2.239334805354966,14.0,120.0],["IGFBPL1_Q8WX77",0.2859433751357564,-1.5936989861467352,9.0,52.0]],"bottom":[["PAX3_P23760-8",-0.35480101817188936,-2.3314707295592703,11.0,51.0],["GLT8D2_Q9H1C3",-0.2589612466196239,-1.7083018285756255,11.0,70.0],["KLHL4_Q9C0H6",-0.27502592145233196,-2.022000172885179,10.0,78.0],["RWDD3_Q9Y3V2",-0.3253739186296439,-1.9785656014999304,9.0,52.0],["SHQ1_Q6PI26",-0.21758323065680268,-1.061936000714321,14.0,49.0],["DET1_Q7L5Y6-2",-0.40028913768310115,-2.5675002268729044,9.0,45.0],["TMEM35_Q53FP2",-0.22551365426145423,-1.1078377842718503,11.0,51.0],["ISPD_A4D126",-0.3565590994788285,-2.384457374620274,8.0,55.0],["ADAMTSL4_Q6UY14",-0.2228600850569676,-2.8798106193136457,35.0,170.0],["MYBPH_Q13203",-0.2925509260886528,-1.2678631945127403,8.0,36.0],["TIE1_P35590",-0.20226792893597637,-0.738265879433518,8.0,37.0],["GAS1_P54826",-0.23385118093902324,-1.5621028566814272,12.0,77.0],["JPH3_Q8WXH2",-0.2278873079329382,-0.9966922366075739,8.0,45.0],["KLHDC8B_Q8IXV7",-0.20694969769888144,-1.0791557289786637,15.0,56.0],["PCDH7_F5GWJ1",-0.22681581536851067,-1.5006975932457314,13.0,77.0],["LRRN1_Q6UXK5",-0.22405157187413693,-1.1105856961461364,14.0,49.0],["NRK_Q7Z2Y5",-0.22103064003905956,-1.5416343663037246,13.0,85.0],["RYK_P34925-2",-0.22751256139230053,-1.0086824833046053,9.0,45.0],["TUBA8_Q9NY65",-0.20755743940581597,-0.9887620897816374,12.0,51.0],["TFF3_Q07654-2",-0.2243841913999215,-0.7251625426391125,10.0,26.0],["RNF26_Q9BY78",-0.22140431296871232,-1.3020089803685435,8.0,71.0],["TP53INP2_Q8IXH6",-0.2089384220816039,-0.5292869207056526,11.0,16.0],["HEMK1_Q9Y5R4",-0.2514749447769291,-1.2959865395778125,10.0,51.0],["SPANXC_Q9NY87",-0.3585734053856972,-1.807581537100715,14.0,31.0],["SEMA3D_O95025",-0.3088050387180212,-1.8601980283521773,8.0,55.0],["EYA1_Q99502",-0.2596519632246757,-1.363503638199451,8.0,53.0],["CXorf67_Q86X51",-0.19478537574236635,-0.8885989395420422,9.0,53.0],["GPRASP1_Q5JY77",-0.26760981409857004,-1.2973650354344273,12.0,42.0],["ZC4H2_Q9NQZ6",-0.21552556648287904,-1.7782888778469437,27.0,96.0],["NALCN_Q8IZF0",-0.22433609381307307,-1.1127518759106707,10.0,53.0],["SORCS2_Q96PQ0",-0.2380562733330025,-1.9968043766177486,21.0,95.0],["FAM3D_Q96BQ1",-0.2004474246971607,-0.6177601970154689,10.0,26.0],["SPIRE2_Q8WWL2",-0.20514106460614637,-0.9597307600174265,13.0,49.0],["KPNA5_O15131",-0.22445849517933822,-1.222878769788476,12.0,59.0],["TDRD1_Q9BXT4-3",-0.2105600185775043,-1.2158952633444249,13.0,67.0],["ANKRD24_Q8TF21-2",-0.2649668853059416,-1.7560538530392549,9.0,71.0],["CD46_P15529",-0.22349170809497176,-2.223685671575693,19.0,131.0],["CD14_P08571",-0.19554252659297677,-2.463373613334028,30.0,192.0],["WASH6P_Q9NQA3",-0.2439406509665108,-2.3315320616620037,18.0,115.0],["MASP1_P48740-2",-0.21094341798221722,-1.728445197472874,17.0,107.0]]},"para":{"top":[["TCTEX1D2_Q8WW35",0.22408475081516635,-2.060280631688103,16.0,98.0],["CLCA4_Q14CN2",0.33874801155373696,-1.8636494296989474,8.0,36.0],["FOXD2_O60548",0.22808551510215092,-1.4308608719667901,8.0,55.0],["ZNF701_Q9NV72",0.28655657287460284,-2.0535432853446216,11.0,59.0],["CTAG2_O75638",0.21555981356923645,-1.4268023083827457,8.0,62.0],["HPD_P32754",0.24504472564481042,-1.3854387948391347,8.0,44.0],["FMO4_P31512",0.3337776376684205,-1.5995434786159872,11.0,25.0],["F10_P00742",0.23644219566309213,-1.9689081000665758,14.0,82.0],["SLC4A8_Q2Y0W8",0.2682535289642199,-1.546347300275337,11.0,41.0],["HIVEP3_Q5T1R4",0.2389803403806078,-1.996752496801668,11.0,85.0],["DOPEY1_Q5JWR5",0.2702277077444201,-2.5446712813566656,13.0,93.0],["COL15A1_P39059",0.2486654041596298,-1.875344636364163,9.0,72.0],["MACROD2_A1Z1Q3",0.2876611996699948,-1.6862576608833768,8.0,44.0],["SCNN1A_P37088-2",0.29435313387721446,-1.9787341977425743,9.0,54.0],["CD83_Q01151",0.24581527002202727,-1.6929286636504852,9.0,62.0],["FAM20C_Q8IXL6",0.29117107398951636,-2.7982798945914937,10.0,94.0],["C5orf30_Q96GV9",0.2382309221225374,-2.736084921415534,17.0,133.0],["TP73_O15350",0.2941782354384211,-2.488132497355771,10.0,77.0],["CELF4_Q9BZC1",0.2628015898219706,-1.5064863904901367,8.0,44.0],["CHGA_P10645",0.3177868351118866,-2.3702953691728648,8.0,62.0],["REM1_O75628",0.35487275379946664,-1.953005334964878,10.0,33.0],["C8orf76_Q96K31",0.2168940081069281,-1.4502945872441368,9.0,62.0],["SCG2_P13521",0.25232835231433504,-2.708504399650488,24.0,108.0],["AP3B2_Q13367",0.2743275717417427,-2.889691247120475,18.0,104.0],["LRRC25_Q8N386",0.37304371136661996,-1.8435320512884967,8.0,28.0],["FKBP1B_P68106",0.28058659755740073,-1.2987556168409797,10.0,26.0],["SCG3_Q8WXD2",0.30909834704156697,-2.902941934679392,13.0,84.0],["NBPF1_Q3BBV0",0.3009798362649914,-2.0397749676461956,10.0,53.0],["GPM6A_P51674",0.3266015396953561,-2.4401268277260413,10.0,59.0],["PHYHIPL_Q96FC7",0.17997789941374692,-1.5500006576638659,10.0,104.0],["CARD14_Q9BXL6",0.2457565379819016,-1.6775909577753514,11.0,59.0],["DLX2_Q07687",0.37310207148514885,-3.0354146890029887,14.0,57.0],["VWA5B2_Q8N398",0.3442999275199333,-3.142681525768266,11.0,76.0],["TTC39A_Q5SRH9-4",0.2500849472695461,-2.7021673566307456,14.0,120.0],["UNNAMED_O00370",0.25542103531536736,-2.187590528292686,13.0,83.0],["IGFBPL1_Q8WX77",0.22841321191733063,-1.405837681899379,9.0,52.0]],"bottom":[["PHYHD1_Q5SRE7",-0.24276948843284984,-1.788557300928856,14.0,65.0],["GREM1_O60565",-0.2124660556142408,-1.3186723760212475,13.0,50.0],["RWDD3_Q9Y3V2",-0.359680417533537,-2.560285337631305,9.0,52.0],["DET1_Q7L5Y6-2",-0.3299773889025792,-2.0752602237419673,9.0,45.0],["TMEM35_Q53FP2",-0.20879364252051305,-1.2802266034930554,11.0,51.0],["ISPD_A4D126",-0.3250913022039719,-2.26803657123654,8.0,55.0],["LPPR3_Q6T4P5-3",-0.2684418580080212,-1.3933199002150374,9.0,35.0],["GCSAML_Q5JQS6",-0.21345765111605344,-1.0804015625920558,8.0,36.0],["TMEM40_Q8WWA1",-0.16120392882247941,-1.3661128613666993,11.0,104.0],["JPH3_Q8WXH2",-0.25151994867260585,-1.4457925032279864,8.0,45.0],["NRK_Q7Z2Y5",-0.2897827477915881,-2.6587087833817216,13.0,85.0],["RYK_P34925-2",-0.25664908025756156,-1.4993822316708676,9.0,45.0],["UNNAMED_C9JNC2",-0.23693048600064096,-2.0854827254605826,11.0,93.0],["TUBA8_Q9NY65",-0.26675362276109194,-1.7391157708132847,12.0,51.0],["RNF26_Q9BY78",-0.24104351733266757,-1.7702422699192086,8.0,71.0],["HEMK1_Q9Y5R4",-0.29928229562257486,-1.9793925135089998,10.0,51.0],["PCDH19_Q8TAB3",-0.17643762776884994,-1.4556344057542538,12.0,95.0],["SPANXC_Q9NY87",-0.41026406892987255,-2.4719783719483517,14.0,31.0],["SEMA3D_O95025",-0.24905889580119922,-1.592741769548333,8.0,55.0],["EYA1_Q99502",-0.23445265248413644,-1.449678174097702,8.0,53.0],["CXorf67_Q86X51",-0.23922570996795117,-1.5009369727438189,9.0,53.0],["GPRASP1_Q5JY77",-0.2943698319705209,-1.7831200342814395,12.0,42.0],["NALCN_Q8IZF0",-0.20065322417666098,-1.2354899060807067,10.0,53.0],["SORCS2_Q96PQ0",-0.28115338852693883,-2.8860500383169807,21.0,95.0],["SPIRE2_Q8WWL2",-0.20922690131747548,-1.2837343723277048,13.0,49.0],["KPNA5_O15131",-0.26590959603074416,-1.8758692877018226,12.0,59.0],["ANKRD24_Q8TF21-2",-0.30236314125462,-2.4338257636651854,9.0,71.0],["PLD6_Q8N2A8",-0.2695578056958268,-1.7434639391263553,10.0,52.0],["MCOLN3_Q8TDD5",-0.23183414890721252,-1.5442324530760216,8.0,61.0]]}}}
{"depmap_copy_number":{"corr":{"top":[["ADAM20_8748",0.10223427873331356,-4.6709731024904935,171.0,1551.0],["DCAF5_8816",0.0966377595726889,-4.228950608306724,171.0,1551.0],["ACOT4_122970",0.09745010489532309,-4.291681578377664,171.0,1551.0],["SYNJ2BP_55333",0.10163758491529817,-4.62274589405292,171.0,1551.0],["ACTN1_87",0.0976265225161267,-4.305368934324335,171.0,1551.0],["TTC9_23508",0.10244930165336599,-4.68841660357511,171.0,1551.0],["MIR7843_102465832",0.10264731494804073,-4.704510444614596,171.0,1551.0],["LOC100996664_100996664",0.10150182990054844,-4.611810342756355,171.0,1551.0],["SLC39A9_55334",0.1049377462421468,-4.8927778063238465,171.0,1551.0],["LOC145474_145474",0.10338122920462628,-4.764413383616917,171.0,1551.0],["LOC100506358_100506358",0.10222791335294895,-4.670457238651145,171.0,1551.0],["ADAM21P1_145241",0.10342512126259207,-4.768008533798833,171.0,1551.0],["MED6_10001",0.10223514675295223,-4.671043450951102,171.0,1551.0],["CCDC177_56936",0.09946568458291725,-4.449422631441435,171.0,1551.0],["ERH_2079",0.1049377462421468,-4.8927778063238465,171.0,1551.0],["ZFYVE26_23503",0.09639738827419243,-4.2104814711328356,171.0,1551.0],["RBM25_58517",0.1097034301953618,-5.296985638497028,171.0,1551.0],["ALKBH3-AS1_100507300",0.09692912740845688,-4.251394930817131,171.0,1551.0],["SUSD6_9766",0.09946568458291725,-4.449422631441435,171.0,1551.0],["ZFP36L1_677",0.1004851573865491,-4.530346067036028,171.0,1551.0],["ADAM20P1_317760",0.10253357766378653,-4.695262725400536,171.0,1551.0],["RDH11_51109",0.09721503711450288,-4.273479364023117,171.0,1551.0],["SEC14L1P1_729799",0.09632867000820754,-4.205209231391108,171.0,1551.0],["C11orf96_387763",0.09629858188585218,-4.202901884158756,171.0,1551.0],["RDH12_145226",0.09832839804331531,-4.3600503655003315,171.0,1551.0],["SNORD56B_319139",0.10338122920462628,-4.764413383616917,171.0,1551.0],["SMOC1_64093",0.10344095164128987,-4.769305532562385,171.0,1551.0],["ZFYVE1_53349",0.10885943852104019,-5.224169621040311,171.0,1551.0],["ELK2AP_2003",0.0956169669593555,-4.150809124309969,171.0,1551.0],["SLC10A1_6554",0.10222791335294895,-4.670457238651145,171.0,1551.0],["RGS6_9628",0.10367790030422853,-4.788741140998799,171.0,1551.0],["MIR8071-1_102465871",0.09628374838243824,-4.201764601711006,171.0,1551.0],["GALNT16_57452",0.10614176320199263,-4.993304075666491,171.0,1551.0],["DCAF4_26094",0.10926935332041635,-5.259468992426353,171.0,1551.0],["EXD2_55218",0.1051432723588725,-4.909861540471526,171.0,1551.0],["DPF3_8110",0.10628298716554473,-5.005165720650198,171.0,1551.0],["LOC646548_646548",0.10319742351963147,-4.749373548079874,171.0,1551.0],["PLEKHD1_400224",0.10493039940487027,-4.892167702716788,171.0,1551.0],["NUMB_8650",0.10962720495424029,-5.2903874268211215,171.0,1551.0],["LOC101928143_101928143",0.11114668364564942,-5.4227350669810646,171.0,1551.0],["LINC01269_103695436",0.10244930165336599,-4.68841660357511,171.0,1551.0],["RAD51B_5890",0.09862647357669259,-4.383382255331032,171.0,1551.0],["SRSF5_6430",0.10222791335294895,-4.670457238651145,171.0,1551.0],["HEATR4_399671",0.10905518003786384,-5.241010065736303,171.0,1551.0],["CRIP1_1396",0.09631031286957561,-4.2038014111301125,171.0,1551.0],["LOC100289511_100289511",0.10222791335294895,-4.670457238651145,171.0,1551.0],["PSEN1_5663",0.10964994559590317,-5.292355449285104,171.0,1551.0],["VTI1B_10490",0.09572890539998594,-4.159340712412126,171.0,1551.0],["LOC101928075_101928075",0.10244930165336599,-4.68841660357511,171.0,1551.0],["ADAM21_8747",0.10253357766378653,-4.695262725400536,171.0,1551.0],["SYNJ2BP-COX16_100529257",0.10319244690735842,-4.748966686123516,171.0,1551.0],["COQ6_51004",0.09569521233023488,-4.156771769343199,171.0,1551.0],["SNORD169_109623479",0.1007746155367894,-4.553462223827515,171.0,1551.0],["PAPLN_89932",0.11042172135679244,-5.359375313330017,171.0,1551.0],["MAP3K9_4293",0.1021453126690894,-4.66376582027946,171.0,1551.0],["PCNX1_22990",0.10233128539559729,-4.678838432117223,171.0,1551.0],["SLC8A3_6547",0.10091305591078396,-4.564539930548213,171.0,1551.0],["ENTPD5_957",0.09567671472540554,-4.155361764853012,171.0,1551.0],["RIOX1_79697",0.09729318781961728,-4.279526376028253,171.0,1551.0],["LOC101928123_101928123",0.11042172135679244,-5.359375313330017,171.0,1551.0],["TEDC1_283643",0.09572167233893754,-4.158789154357339,171.0,1551.0],["MIR8071-2_102466889",0.09628374838243824,-4.201764601711006,171.0,1551.0],["SIPA1L1_26037",0.10366542499627343,-4.787716822897507,171.0,1551.0],["COX16_51241",0.10319244690735842,-4.748966686123516,171.0,1551.0]],"bottom":[["RUFY1_80230",-0.07699066094639367,-2.857869805049204,171.0,1551.0],["LOC285626_285626",-0.0805718799330858,-3.0870481016238216,171.0,1551.0],["SFXN1_94081",-0.09034596936981353,-3.7594372559370006,171.0,1551.0],["MIR218-2_407001",-0.07720901132279337,-2.8715810613277286,171.0,1551.0],["LINC01845_285627",-0.07956336699513482,-3.021581948428234,171.0,1551.0],["LTC4S_4056",-0.07912541104271492,-2.993379244507093,171.0,1551.0],["NKX2-5_1482",-0.08440259596738753,-3.342362512752693,171.0,1551.0],["CTD-2270F17.1_101928033",-0.0837647530420392,-3.2991186539938755,171.0,1551.0],["GABRP_2568",-0.08855743673482919,-3.631236212528552,171.0,1551.0],["LINC01366_257358",-0.08414885054392349,-3.32512422406756,171.0,1551.0],["SAP30L-AS1_386627",-0.07708328934169256,-2.8636822350404545,171.0,1551.0],["KCNMB1_3779",-0.08340500984456588,-3.274858331640955,171.0,1551.0],["SLIT3_6586",-0.07817156413378629,-2.9324293003501403,171.0,1551.0],["ZNF354C_30832",-0.07687122926987831,-2.850384485836978,171.0,1551.0],["MSX2_4488",-0.09014815617707829,-3.745143833514815,171.0,1551.0],["CREBRF_153222",-0.08480583437080412,-3.369852125183398,171.0,1551.0],["RNF145_153830",-0.07914596023402154,-2.9946994692296522,171.0,1551.0],["HRH2_3274",-0.08863228358964943,-3.6365546454250794,171.0,1551.0],["LOC100128059_100128059",-0.08352742108759899,-3.283103033267882,171.0,1551.0],["LOC100996419_100996419",-0.07953794264502989,-3.019940967531716,171.0,1551.0],["MRNIP_51149",-0.079708023584682,-3.030927413134074,171.0,1551.0],["TBC1D9B_23061",-0.07953794264502989,-3.019940967531716,171.0,1551.0],["FOXI1_2299",-0.08106019055862837,-3.119007768919314,171.0,1551.0],["SNORA74B_677841",-0.08459545828086329,-3.355495719538241,171.0,1551.0],["HNRNPH1_3187",-0.08001747456717782,-3.0509695949752773,171.0,1551.0],["CPLX2_10814",-0.08795606149861764,-3.5886513828812845,171.0,1551.0],["CANX_821",-0.0798110594183701,-3.037593117179167,171.0,1551.0],["LOC101927969_101927969",-0.07841370919886625,-2.947840632709173,171.0,1551.0],["LINC01951_441116",-0.0912402949435635,-3.8244138846263733,171.0,1551.0],["C5orf58_133874",-0.08106019055862837,-3.119007768919314,171.0,1551.0],["INSYN2B_100131897",-0.07689830561980966,-2.852080592093256,171.0,1551.0],["LINC02202_101927740",-0.07918137699762556,-2.9969755996841743,171.0,1551.0],["MIR378E_100616498",-0.07799578494468111,-2.921268032906329,171.0,1551.0],["LINC01932_105377682",-0.0814488554104187,-3.1445678342952124,171.0,1551.0],["IL12B_3593",-0.08039961981417051,-3.0758145288242003,171.0,1551.0],["LOC101928445_101928445",-0.07687519607108322,-2.8506329400374475,171.0,1551.0],["LOC105377716_105377716",-0.08461947146827437,-3.357132805243033,171.0,1551.0],["CBY3_646019",-0.08008586946780766,-3.0554085664733632,171.0,1551.0],["KCNIP1_30820",-0.08414885054392349,-3.32512422406756,171.0,1551.0],["MIR1294_100302181",-0.07694073522665072,-2.854739500864696,171.0,1551.0],["BNIP1_662",-0.08421055782663524,-3.3293120621787615,171.0,1551.0],["DRD1_1812",-0.09097806882239401,-3.8053017200094756,171.0,1551.0],["MAML1_9794",-0.0792730071272479,-3.0028685563859314,171.0,1551.0],["MIR4634_100616202",-0.09106398136259304,-3.811557881957776,171.0,1551.0],["MFAP3_4238",-0.08998759567790435,-3.7335630976789016,171.0,1551.0],["LOC105377763_105377763",-0.08140562968745013,-3.1417197938812813,171.0,1551.0],["LCP2_3937",-0.08106019055862837,-3.119007768919314,171.0,1551.0],["GALNT10_55568",-0.07911387351163704,-2.99263812455054,171.0,1551.0],["UBLCP1_134510",-0.0814488554104187,-3.1445678342952124,171.0,1551.0],["RANBP17_64901",-0.08725837235490883,-3.5395746510645796,171.0,1551.0],["MGAT4B_11282",-0.07912541104271492,-2.993379244507093,171.0,1551.0],["MIR1229_100302156",-0.07912541104271492,-2.993379244507093,171.0,1551.0],["LINC01187_100507267",-0.08106019055862837,-3.119007768919314,171.0,1551.0]]},"para":{"top":[],"bottom":[]}}}
{"depmap_gene_tpm":{"corr":{"top":[["FLVCR1_28982",0.1417248105761171,-6.535650862320304,135.0,1164.0],["MTHFD2L_441024",0.15066694335685307,-7.313052991646556,135.0,1164.0],["FBXO34_55030",0.1358356958319814,-6.049056760558974,135.0,1164.0],["SNX27_81609",0.14386558458996845,-6.717517053879853,135.0,1164.0],["SLC39A9_55334",0.1491909208930598,-7.181511077507152,135.0,1164.0],["METAP1_23173",0.13985873729338041,-6.3792922892029855,135.0,1164.0],["WDR20_91833",0.14744841845287754,-7.027863757697815,135.0,1164.0],["INPP5J_27124",0.15053088175623172,-7.300873811025286,135.0,1164.0],["GAN_8139",0.15361141411788778,-7.579284900931077,135.0,1164.0],["POLRMT_5442",0.1379407199941842,-6.220683370093724,135.0,1164.0],["BCAT2_587",0.13805101503065464,-6.229746473246826,135.0,1164.0],["TSSK2_23617",0.14936874465661898,-7.197290899208238,135.0,1164.0],["CNNM4_26504",0.13650096658417132,-6.103021202722255,135.0,1164.0],["RDH11_51109",0.14489666947141727,-6.8060628001869645,135.0,1164.0],["RAD54B_25788",0.136013567832893,-6.0634601243513,135.0,1164.0],["LRRC8B_23507",0.1400890614734534,-6.398481975921295,135.0,1164.0],["GSR_2936",0.13545848978222652,-6.018572455592688,135.0,1164.0],["MYO5C_55930",0.15676912489107342,-7.870474991804137,135.0,1164.0],["EIF4A3_9775",0.1383266119899003,-6.252423410067021,135.0,1164.0],["CIPC_85457",0.1388622746143302,-6.29662495704795,135.0,1164.0],["PARP2_10038",0.1385266073811529,-6.26890712006854,135.0,1164.0],["TMEM170A_124491",0.16338736795799455,-8.499944907501154,135.0,1164.0],["UBQLN4_56893",0.139698079465176,-6.365925116676406,135.0,1164.0],["LPCAT3_10162",0.1382665925880732,-6.24748109554841,135.0,1164.0],["ZBTB42_100128927",0.13548823597151152,-6.020973447667293,135.0,1164.0],["TEDC1_283643",0.14880122915910587,-7.146995194795384,135.0,1164.0],["ECHS1_1892",0.1524688486949123,-7.475371369648927,135.0,1164.0],["TUBGCP4_27229",0.14418015799410658,-6.744465808399725,135.0,1164.0],["HID1_283987",0.14277014803550067,-6.624123050930844,135.0,1164.0],["SLC27A4_10999",0.13637961159091813,-6.0931582777535285,135.0,1164.0],["MAP3K9_4293",0.1426922632844725,-6.617509378850073,135.0,1164.0],["SMPDL3B_27293",0.15424178155362048,-7.6369444755037765,135.0,1164.0],["L2HGDH_79944",0.1566503683254193,-7.859417185974622,135.0,1164.0],["SAPCD2_89958",0.1373826607744933,-6.17493458211,135.0,1164.0],["PRMT5_10419",0.14897655540699925,-7.1625132296292575,135.0,1164.0]],"bottom":[["MAF_4094",-0.10349406617925819,-3.7291635162166945,135.0,1164.0],["CARD16_114769",-0.1106934216169695,-4.194679052090953,135.0,1164.0],["CRYAB_1410",-0.09244261213644021,-3.070179904901622,135.0,1164.0],["ORAI3_93129",-0.11727197429142688,-4.6453335904769935,135.0,1164.0],["PDLIM4_8572",-0.12272190040970865,-5.037114174051101,135.0,1164.0],["C4B_721",-0.10052365577460265,-3.545455760404536,135.0,1164.0],["PSMB9_5698",-0.115635900003079,-4.5309889286974405,135.0,1164.0],["C19orf66_55337",-0.09726450062647292,-3.3494741853674674,135.0,1164.0],["MSRA_4482",-0.09744140698578531,-3.359962508346771,135.0,1164.0],["GAS1_2619",-0.11827841560463123,-4.716421746579879,135.0,1164.0],["TOX2_84969",-0.10601499860885118,-3.8888961044124493,135.0,1164.0],["CARD11_84433",-0.10455494506367921,-3.795954861690444,135.0,1164.0],["APOL3_80833",-0.12508516803116426,-5.212229940778063,135.0,1164.0],["TIMP3_7078",-0.11538730637386677,-4.513746468066611,135.0,1164.0],["C4A_720",-0.09756578071104956,-3.367346566890801,135.0,1164.0],["RTP4_64108",-0.1121810099823023,-4.2944636396783595,135.0,1164.0],["HEXA_3073",-0.14112247711278014,-6.48496049900062,135.0,1164.0],["ERAP1_51752",-0.1142138798872635,-4.4328258627517725,135.0,1164.0],["RPS14_6208",-0.09990400320907138,-3.5077453782936527,135.0,1164.0],["KLHL4_56062",-0.09351738743458293,-3.131335490845375,135.0,1164.0],["ADAMTS12_81792",-0.1162694354333497,-4.575087943299179,135.0,1164.0]]},"para":{"top":[],"bottom":[]}}}
{"avana":{"corr":{"top":[["NR1D2_9975",0.12176834599191018,-3.138844234056711,80.0,687.0],["MPP2_4355",0.11246502871087513,-2.7419632888110375,80.0,687.0],["SLC16A2_6567",0.09875381617240392,-2.096464203706231,71.0,649.0],["PLCL1_5334",0.10007950548273299,-2.2568797351647873,80.0,687.0],["OR4F15_390649",0.1081870144203159,-2.5688645135938497,80.0,687.0],["PPP6C_5537",0.1371423120975509,-3.85699261306631,80.0,687.0],["SCML2_10389",0.1313473559314123,-3.346829753036992,71.0,639.0],["PCOLCE2_26577",0.11844412967407812,-2.9937993829274077,80.0,687.0],["PSMB9_5698",0.10299572510004432,-2.3666891892173836,80.0,687.0],["HENMT1_113802",0.11250810112680651,-2.7437360765235805,80.0,687.0],["PGAP2_27315",0.1178544560929511,-2.968446737993098,80.0,687.0],["UGT1A4_54657",0.12040690942229619,-3.0790045096123233,80.0,687.0],["E2F6_1876",0.113698353698685,-2.759178762694228,80.0,676.0],["C9orf129_445577",0.1122171742426032,-2.7317736557477934,80.0,687.0],["SHOX_6473",0.11463806258984788,-2.6853113829693274,71.0,649.0],["C10orf82_143379",0.11041941247283674,-2.6584580908266475,80.0,687.0],["RABEP2_79874",0.10440475985549444,-2.420713967892379,80.0,687.0],["OR52E4_390081",0.11521883324433241,-2.856511823175685,80.0,687.0],["DIRAS3_9077",0.09767222677334579,-2.168262007491833,80.0,687.0],["EPC2_26122",0.1209999889141305,-3.0670250047518373,80.0,676.0],["NKX6-1_4825",0.09672532566211917,-2.1339050385476264,80.0,687.0],["SLC22A3_6581",0.10220324794537176,-2.3365816979575658,80.0,687.0],["TBX18_9096",0.11665884723210432,-2.881939054887507,80.0,676.0],["CHSY1_22856",0.11448399534387341,-2.82570511010372,80.0,687.0],["ESPN_83715",0.12266007084274458,-3.178367391766201,80.0,687.0]],"bottom":[["EML2_24139",-0.12089622820400063,-3.1004419348537513,80.0,687.0],["CCDC120_90060",-0.12298652606901692,-3.025333478149762,71.0,649.0],["TMEM106A_113277",-0.12484893772280432,-3.276488724577152,80.0,687.0],["GJB1_2705",-0.17156660927021078,-5.436891988381435,71.0,649.0],["POGZ_23126",-0.10819848927458255,-2.5693209472816414,80.0,687.0],["SCPEP1_59342",-0.11203077763884575,-2.724123698645143,80.0,687.0],["ESYT1_23344",-0.11685038619687614,-2.9255377638116666,80.0,687.0],["SALL1_6299",-0.13216402461193502,-3.570982312826253,80.0,676.0],["ETHE1_23474",-0.11724658672465989,-2.90664364088704,80.0,676.0],["DNAJC22_79962",-0.11697170728772126,-2.930705013294208,80.0,687.0],["TCERG1_10915",-0.15493166580283213,-4.725926513055399,80.0,676.0],["CTSO_1519",-0.14652695983656536,-4.334151854551657,80.0,687.0],["SIGLEC5_8778",-0.11369392984588106,-2.7927781429984915,80.0,687.0],["PCDHA1_56147",-0.11621686539605126,-2.898632839397355,80.0,687.0],["PTH2_113091",-0.1268024512169699,-3.365390422480977,80.0,687.0],["SLAMF6_114836",-0.12124081985836524,-3.1155857337993367,80.0,687.0],["ATR_545",-0.13597027943303128,-3.7994801910004603,80.0,687.0],["PGBD4_161779",-0.12167745792637333,-3.134830506321741,80.0,687.0],["POLR1B_84172",-0.11766494369855059,-2.9242959380985893,80.0,676.0],["CEP85_64793",-0.11169627929960749,-2.7104235567581125,80.0,687.0],["MYBPC2_4606",-0.11232129923216375,-2.736051960118581,80.0,687.0],["C15orf41_84529",-0.11726499841561158,-2.9432164934854885,80.0,687.0],["PCDHB7_56129",-0.12596994708829162,-3.3273506015587198,80.0,687.0],["PIK3R1_5295",-0.1357568279509876,-3.789055429784776,80.0,687.0],["HIST3H2BB_128312",-0.12247991617291194,-3.1703615475471816,80.0,687.0],["TTC13_79573",-0.1165260257622755,-2.91174624915346,80.0,687.0],["GYS1_2997",-0.11222604569395721,-2.7321380310248014,80.0,687.0],["PAGE1_8712",-0.11849508008191881,-2.839760716498274,71.0,649.0],["OR6C4_341418",-0.12373164133059428,-3.2262065924284506,80.0,687.0],["LYRM9_201229",-0.15863614784950203,-4.994042651096093,80.0,687.0],["TBC1D32_221322",-0.10953755700530785,-2.622874993738463,80.0,687.0],["GRIN2D_2906",-0.12548748611328134,-3.305409914653041,80.0,687.0],["AADACL4_343066",-0.11165296092492023,-2.7086519928168378,80.0,687.0],["PPIA_5478",-0.11218281886088109,-2.730362823897942,80.0,687.0],["LRRC32_2615",-0.1331216086296662,-3.661606614867067,80.0,687.0],["INTS2_57508",-0.10848992725491277,-2.5809275904453117,80.0,687.0],["OR2AP1_121129",-0.12767660104733547,-3.4055792270803815,80.0,687.0],["ANAPC5_51433",-0.11660430307560554,-2.915071401003029,80.0,687.0],["HAUS2_55142",-0.10982497522172766,-2.634444927135742,80.0,687.0],["FTL_2512",-0.12707675763460727,-3.377974434104091,80.0,687.0]]},"para":{"top":[],"bottom":[]}}}
{"drive":{"corr":{"top":[["KCTD18_130535",0.1669418873523102,-2.9099421940450685,46.0,326.0],["GRAPL_400581",0.1970339496899722,-3.883530208050804,46.0,326.0],["TDRD7_23424",0.1636319052225752,-2.8312665175551515,47.0,328.0],["KATNAL1_84056",0.14408686192873066,-2.2703990689417037,46.0,326.0],["ERV3-1-ZNF117&ZNF117_109504726&51351",0.15725853502158552,-2.646479576482658,47.0,328.0],["CFLAR_8837",0.13304318874581786,-1.9912283176781127,46.0,326.0],["CLCN3_1182",0.16534510329874566,-2.862504936098827,46.0,326.0],["CHRM4_1132",0.19316299356189018,-3.7760285510826908,46.0,329.0],["PARP14_54625",0.12704031403447993,-1.8594755679521031,47.0,328.0],["RDH13_112724",0.15903991225049488,-2.679266558876915,46.0,326.0],["PLAA_9373",0.14600565960540016,-2.336370932079417,47.0,328.0],["KLHL8_57563",0.13787456263904746,-2.1110035777464815,46.0,326.0],["ACIN1_22985",0.1456291900776481,-2.3109176155573152,46.0,326.0],["CPA6_57094",0.14098087690047206,-2.189944841418993,46.0,326.0],["TFG_10342",0.14901728485957388,-2.401254886542802,46.0,326.0],["RAB2A_5862",0.15478323646037306,-2.559215543751884,46.0,326.0],["GTF2H2B_653238",0.13932988815171463,-2.1477990545097922,46.0,326.0],["ARL5C_390790",0.15548562482224682,-2.578823144479974,46.0,326.0],["METTL2A_339175",0.14181877969017215,-2.2261910724124028,47.0,328.0],["LRWD1_222229",0.13741600778440877,-2.1133409037147217,47.0,328.0],["LRRC34_151827",0.13273095453643968,-1.996620478964995,47.0,328.0],["ID1_3397",0.17824217395230338,-3.2802708383788612,47.0,328.0],["UGT3A2_167127",0.18104713877670464,-3.347314665492632,46.0,326.0],["DLL4_54567",0.12678976192065672,-1.8415876102390665,46.0,326.0]],"bottom":[["RAB3C_115827",-0.15484369018557995,-2.5609000157238397,46.0,326.0],["RREB1_6239",-0.18298246197602858,-3.4336539749421027,47.0,328.0],["ZBTB21_49854",-0.14852542710258304,-2.3880268422607305,46.0,326.0],["MAPK8IP1P2_644172",-0.14608631983426074,-2.3385210833339514,47.0,328.0],["TBC1D3C_414060",-0.16358754386599644,-2.849128916715737,47.0,331.0],["SUSD5_26032",-0.17302752973378713,-3.094588009354203,46.0,326.0],["NARS2_79731",-0.18670806516607727,-3.556886258910962,47.0,328.0],["CCL4L1&CCL4L2_388372&9560",-0.1436637774163375,-2.2593501430191063,46.0,326.0],["PFKFB3_5209",-0.1480230117595296,-2.374554738311491,46.0,326.0],["LRP1_4035",-0.14138181673406874,-2.2002446954554897,46.0,326.0],["AK4_205",-0.14616384486906875,-2.3250517254993968,46.0,326.0],["LINC00881&LOC105373218_100498859&105373218",-0.15564405086459,-2.513273453176315,43.0,317.0],["CYP4V2_285440",-0.1505024828050951,-2.4414325782902933,46.0,326.0],["FXYD5_53827",-0.1775368019274307,-3.257771874857826,47.0,328.0],["PDK2_5164",-0.1708441947269154,-3.0276386445132975,46.0,326.0]]},"para":{"top":[],"bottom":[]}}}
{"achilles":{"corr":{"top":[["INO80B_83444",0.15377542512134734,-1.9897859451334603,43.0,235.0],["SPTSSA_171546",0.1789391649971964,-2.5605096779493715,43.0,235.0],["GIGYF2_26058",0.20342847909520467,-3.1909941396740398,43.0,235.0],["VPS13C_54832",0.209499900083294,-3.359120038768289,43.0,235.0],["MAP1LC3C_440738",0.15251840676727105,-1.9632684043719153,43.0,235.0],["SYNCRIP_10492",0.14794387701172856,-3.0064397540953482,65.0,428.0],["ZNF687_57592",0.14564495784007428,-2.927007058795029,65.0,428.0],["CSGALNACT1_55790",0.15363412454262337,-3.2079334253192653,65.0,428.0],["HAP1_9001",0.1699535030885257,-2.347905551052317,43.0,235.0],["CDRT1_374286",0.1558901796205363,-2.0348200942570016,43.0,235.0],["GMPR2_51292",0.16048001779138657,-3.4596374254635425,65.0,428.0],["MYLK4_340156",0.1486805737242788,-3.032133847840281,65.0,428.0],["TMC8_147138",0.1638777072385483,-2.2097244826653366,43.0,235.0],["ZNF74_7625",0.16118732388571566,-3.486225167422225,65.0,428.0],["E2F6_1876",0.1629099399445025,-3.5514367932193758,65.0,428.0],["NRIP2_83714",0.14567444018983886,-2.92801858085183,65.0,428.0],["MYO5C_55930",0.15626497695831387,-2.042856844351033,43.0,235.0],["SPAG16_79582",0.1716376735205399,-2.387001306340295,43.0,235.0],["PRPSAP1_5635",0.14359550997411416,-2.8571464889437794,65.0,428.0],["RAD51L3-RFFL_100529207",0.14885895044925543,-3.0383726885778755,65.0,428.0],["CPNE8_144402",0.19193462771045952,-2.8856637806214636,43.0,235.0],["LY6G5B_58496",0.22740411510162253,-3.8830080699492004,43.0,235.0],["DRICH1_51233",0.16036480063712244,-2.131861558337907,43.0,235.0],["PSG7_5676",0.16325825079015674,-2.1958866976304408,43.0,235.0],["C6orf48_50854",0.1470149093309813,-1.8493605911212065,43.0,235.0],["FAM86B3P_286042",0.18198290635610534,-2.6347788641119467,43.0,235.0],["MBLAC2_153364",0.18320676412801798,-2.6649655439125453,43.0,235.0],["LIMD2_80774",0.15312939940437742,-1.9761343204745438,43.0,235.0],["CLSPN_63967",0.17694907206753763,-2.512569040714589,43.0,235.0],["PMCHL2_5370",0.16742386241313637,-2.2898313103424712,43.0,235.0],["LRRIQ1_84125",0.16202342513605525,-2.168440076968339,43.0,235.0],["MS4A5_64232",0.1666652220728154,-3.6958563439392114,65.0,428.0]],"bottom":[["APCDD1_147495",-0.15538038951037073,-2.02391548471365,43.0,235.0],["CD247_919",-0.1602246769401146,-3.4500659967180285,65.0,428.0],["KCTD4_386618",-0.15442500916448582,-3.2364919953459195,65.0,428.0],["ACSM2B_348158",-0.14623808472177305,-2.9473926256324887,65.0,428.0],["C3orf67_200844",-0.19848839512150837,-3.057698625187152,43.0,235.0],["CYP7B1_9420",-0.1728716004136054,-3.9413689457262335,65.0,428.0],["SETD6_79918",-0.20653853075725323,-3.2765200511386916,43.0,235.0],["FBXO25_26260",-0.15783335200818815,-3.3611181390425364,65.0,428.0],["FAM47A_158724",-0.1561498646540745,-2.0403867242087665,43.0,235.0],["YTHDC2_64848",-0.14594330173104872,-1.8275943463278488,43.0,235.0],["LYZL4_131375",-0.14681383918436988,-1.8452662698231161,43.0,235.0],["SPIN3_169981",-0.1643496625601635,-2.220298305780475,43.0,235.0],["CHCHD6_84303",-0.17117440248917493,-2.376212636686119,43.0,235.0],["DAG1_1605",-0.14793753657918357,-3.006219121419013,65.0,428.0],["FAM189A2_9413",-0.15987894870562097,-2.12120920111719,43.0,235.0],["KDM8_79831",-0.22315626051418228,-3.7548732633788076,43.0,235.0],["IFNA10_3446",-0.14857575850513882,-3.0284710546968387,65.0,428.0],["BANF1_8815",-0.14510254015533544,-1.8106108794878109,43.0,235.0],["DEFA1&DEFA1B_1667&728358",-0.14400704346681764,-2.87110275356335,65.0,428.0],["ZMYM1_79830",-0.14395092586619465,-2.8691975217809578,65.0,428.0],["SNX13_23161",-0.20968280782274726,-3.3642591194933167,43.0,235.0],["LRIG2_9860",-0.14510880261115613,-1.8107370768862154,43.0,235.0],["RSPH9_221421",-0.21061041258899374,-3.3903886484342323,43.0,235.0],["COX14_84987",-0.1465092969903951,-1.8390739864891896,43.0,235.0],["ZC3H8_84524",-0.1799025596562248,-2.5838930904021997,43.0,235.0],["PPP4R3B_57223",-0.18273615130719148,-2.653335768597447,43.0,235.0],["SNTG1_54212",-0.15167519663739015,-1.945584988305111,43.0,235.0],["COMMD9_29099",-0.17520673350172128,-2.47099694713891,43.0,235.0],["NXPE1_120400",-0.14384309245772306,-1.7853240847535197,43.0,235.0],["POM121L12_285877",-0.19569849943149872,-2.983798057476857,43.0,235.0],["MRPL28_10573",-0.18922330980803687,-2.8160809025512,43.0,235.0],["SAMD1_90378",-0.16674331798756464,-2.274340147149483,43.0,235.0]]},"para":{"top":[],"bottom":[]}}}
{"ccle_rrbs_tss1kb":{"corr":{"top":[["COA7_1_53164038_53165038",0.152653712211204,-3.545709372434912,56.0,505.0],["MAEA_4_1302578_1303578",0.15959112519289229,-5.399456868774812,100.0,727.0],["MIR3166_11_87908669_87909669",0.13641674081058253,-4.059209125409257,98.0,724.0],["PIGQ_16_618967_619967",0.15356535657026796,-4.994143650518162,95.0,724.0],["MAEA_4_1302230_1303230",0.1315234169646606,-3.851545242946862,100.0,733.0]],"bottom":[["LINC00659_20_61408208_61409208",-0.11700870674480772,-3.145489853552079,100.0,733.0],["RPS26_12_56434701_56435701",-0.10202312455738483,-2.4674051680417115,99.0,723.0],["FSD1L_9_108209314_108210314",-0.09530859824108008,-2.2154515632417033,99.0,728.0],["DDX11L2_2_114359153_114360153",-0.1635634307439687,-5.614780319007211,98.0,724.0],["BTBD8_1_92544861_92545861",-0.09523647400517486,-2.2017074602191657,98.0,724.0],["MIR10A_17_46657309_46658309",-0.13703565097271656,-2.218295242395853,44.0,356.0],["REPS1_6_139309398_139310398",-0.09376274638867643,-2.161018176792841,100.0,729.0],["LOC102724264_10_44274273_44275273",-0.11219266148591359,-2.5264879698584957,83.0,616.0],["OIP5-AS1_15_41575187_41576187",-0.10192588115840201,-2.4385623671363974,98.0,714.0],["ZNF598_16_2059822_2060822",-0.09759509621277944,-2.3037689295211865,99.0,728.0],["LOC101929633_2_165696258_165697258",-0.10303062411590881,-2.0954743210078512,76.0,585.0],["FAM151A_1_55089200_55090200",-0.11621195120267556,-2.987861602622211,94.0,701.0],["PTGS1_9_125131808_125132808",-0.09728988554026288,-2.0482870012241152,84.0,637.0],["DDX11L5_9_10986_11986",-0.13230102316091757,-3.8630223791074383,99.0,727.0],["PICK1_22_38452261_38453261",-0.12247914414449612,-3.2831589476688325,91.0,708.0],["ZNF200_16_3285186_3286186",-0.11850024142746177,-3.178261092366212,98.0,724.0],["EXOC2_6_693141_694141",-0.10506624272531821,-2.599545519806748,99.0,726.0],["LINC01229_16_79828145_79829145",-0.11629875862378221,-3.0395590937559844,98.0,712.0],["ANO8_19_17445638_17446638",-0.10463876715468151,-2.5923013144207405,100.0,729.0],["AIMP1_4_107235766_107236766",-0.0982692963390767,-1.8210220782269588,68.0,543.0]]},"para":{"top":[],"bottom":[]}}}
{"ccle_gene_tpm":{"corr":{"top":[["INPP5J_ENSG00000185133.9",0.1608861202403627,-6.61467111352034,116.0,903.0],["EXD2_ENSG00000081177.14",0.1486453032736279,-5.725377043730961,116.0,903.0],["ZNF410_ENSG00000119725.13",0.14110397850300097,-5.211607921596967,116.0,903.0],["AC092569.2_ENSG00000230118.1",0.15833510179359672,-6.423645925104385,116.0,903.0],["NUP54_ENSG00000138750.10",0.1469173661672352,-5.605374959927732,116.0,903.0],["None_ENSG00000206203.3",0.14859033517259204,-5.721538644377777,116.0,903.0],["PRMT5_ENSG00000100462.11",0.1628779184257792,-6.765918076721534,116.0,903.0],["AC003029.1_ENSG00000248594.2",0.1601614018509539,-6.560096386814085,116.0,903.0],["RNA5SP44_ENSG00000222378.1",0.14152434952446835,-5.239567994785565,116.0,903.0],["RCHY1_ENSG00000163743.9",0.16146451804647813,-6.6584019388672635,116.0,903.0],["FTLP14_ENSG00000260459.2",0.1414394034746224,-5.233911552174606,116.0,903.0],["SLC2A13P1_ENSG00000254954.1",0.14576405102226836,-5.526035961929582,116.0,903.0],["ZNF774_ENSG00000196391.6",0.14115502386763826,-5.214998834243562,116.0,903.0],["ENOPH1_ENSG00000145293.10",0.14357887035440808,-5.377370178623087,116.0,903.0],["ECHS1_ENSG00000127884.4",0.14674390640619342,-5.593403625958892,116.0,903.0],["RAD54B_ENSG00000197275.8",0.14702868248554157,-5.6130646771906365,116.0,903.0],["SLC39A9_ENSG00000029364.7",0.17307668397355427,-7.569364712584835,116.0,903.0],["RDH11_ENSG00000072042.8",0.16185661285936156,-6.688135266158218,116.0,903.0],["ZBTB42_ENSG00000179627.9",0.141241453827343,-5.22074300860562,116.0,903.0],["TMEM170A_ENSG00000166822.8",0.16936699044445241,-7.271482625376156,116.0,903.0],["SMPDL3B_ENSG00000130768.10",0.15494633385627674,-6.174537772415677,116.0,903.0]],"bottom":[["TAP2_ENSG00000204267.9",-0.12737958406039337,-4.34235946406129,116.0,903.0],["LINC00312_ENSG00000237697.2",-0.11247550790166164,-3.492989069820741,116.0,903.0],["P2RX5_ENSG00000083454.17",-0.10742546404810145,-3.2271878933070433,116.0,903.0],["CTD-2023M8.1_ENSG00000248693.1",-0.1141378416027502,-3.582903829391425,116.0,903.0],["APOL3_ENSG00000128284.15",-0.13800860917041458,-5.008181703829917,116.0,903.0],["TOX2_ENSG00000124191.13",-0.11377901769618419,-3.563393462133825,116.0,903.0],["ERAP1_ENSG00000164307.8",-0.13626618174618937,-4.895567898739438,116.0,903.0],["C4B_ENSG00000224389.4",-0.10449275450113983,-3.077883733415468,116.0,903.0],["TRAF1_ENSG00000056558.6",-0.10857959886741154,-3.286961254488796,116.0,903.0],["JAZF1-AS1_ENSG00000234336.2",-0.10658719546327423,-3.184133711523916,116.0,903.0],["TAP1_ENSG00000168394.9",-0.11282225468195323,-3.511645211141584,116.0,903.0],["GAS1_ENSG00000180447.5",-0.10678118486723369,-3.1940702349859005,116.0,903.0],["RASSF4_ENSG00000107551.16",-0.10501446424488257,-3.104173398015081,116.0,903.0],["TAPSAR1_ENSG00000204261.4",-0.12140881432393785,-3.9903708707727708,116.0,903.0],["HEXA_ENSG00000213614.5",-0.13777009554743894,-4.992685834341854,116.0,903.0],["CARD11_ENSG00000198286.5",-0.1218068655474747,-4.013347282477034,116.0,903.0],["PSMB9_ENSG00000240065.3",-0.13971167291891684,-5.119571627531683,116.0,903.0],["ORAI3_ENSG00000175938.6",-0.12719606946821446,-4.331305985281004,116.0,903.0],["ADAMTS12_ENSG00000151388.6",-0.13282628191427567,-4.67724439690994,116.0,903.0]]},"para":{"top":[],"bottom":[]}}}
{"ccle_rrbs_tss_clusters":{"corr":{"top":[["ZCWPW1_2",0.15239987428489482,-5.00115889871931,98.0,735.0],["LOC407835_3",0.15036385624711954,-1.6239393566493252,23.0,203.0],["MAEA_1",0.15501367524966067,-5.189562247870825,101.0,738.0],["TMEM109_3",0.15434404268413504,-3.6088755413554288,64.0,496.0],["TYRO3_4",0.19779452473169945,-3.7720935695568283,45.0,312.0],["NAB2_2",0.3180896180562155,-5.5950078887737975,21.0,189.0],["LOC105376351_2",0.16389787247611903,-1.912407221913078,30.0,203.0],["MIDN_3",0.184602111359586,-7.17222013335716,101.0,742.0]],"bottom":[["DDX11L5_3",-0.1292760843378698,-3.6944398069552924,100.0,722.0],["EFCAB10_1",-0.13858707100625922,-3.3360828056419978,71.0,564.0],["ANKRD40CL_2",-0.17971703287610585,-2.2102083222226834,21.0,210.0],["ING5_5",-0.14681504801672263,-1.3303785106500294,18.0,166.0],["IBA57_1",-0.13753841811787507,-4.175161532093192,101.0,734.0],["VTRNA1-2_3",-0.13506350593566888,-3.7680514723963787,89.0,681.0],["LOC101929208_1",-0.1391041259434575,-4.0576591100711905,93.0,697.0],["SPATA31C2",-0.13250806973477772,-3.942982473838178,101.0,742.0],["RGMA_6",-0.1398213391918857,-3.940198841839346,89.0,667.0],["ABLIM1_9",-0.14610857889691098,-3.0795583265366377,61.0,459.0],["ZDHHC9_1",-0.14363069711115303,-1.1604643872448597,22.0,139.0],["SIRT3_2",-0.14602875798914364,-3.82258371215234,78.0,591.0],["DDX11L2_4",-0.17007731571142826,-6.094751042751396,99.0,733.0],["FIGNL2_3",-0.1586342570860959,-2.8482777214414603,51.0,351.0],["TXNRD2_5",-0.1340145867732568,-3.746403935159695,91.0,686.0],["RPL7L1_1",-0.12747042350840893,-3.605081648091875,97.0,725.0],["PLP2_1",-0.17003029706564493,-2.4689084386091342,35.0,260.0],["AHCY_5",-0.15795192061688412,-3.4594299494578222,52.0,457.0],["LPIN2_2",-0.1558519757938915,-2.0100522740208673,27.0,247.0],["MS4A15_1",-0.1423571653974441,-3.523366006427669,78.0,563.0],["DDX11L2_1",-0.1714985885325027,-6.188240572394385,99.0,733.0],["RANBP3L_2",-0.13786426939669247,-2.6028255220904075,58.0,421.0],["MIR1178_1",-0.1285994817753015,-3.394043542733314,91.0,662.0]]},"para":{"top":[["NAB2_2",0.3098854303984839,-5.422686003397108,21.0,189.0]],"bottom":[]}}}
{"ccle_rrbs_cgi_clusters":{"corr":{"top":[["10_2541463_2546121-2",0.16389787247611903,-1.912407221913078,30.0,203.0],["11_60679552_60684268-3",0.15434404268413504,-3.6088755413554288,64.0,496.0],["22_46546446_46549412-2",0.15565806546456798,-5.18954152895121,99.0,733.0],["4_1301490_1305835-1",0.15501367524966067,-5.189562247870825,101.0,738.0],["11_31820738_31823416-1",0.16543592239310984,-2.3779651865430553,33.0,265.0],["7_71801763_71804768-3",0.1819691551322135,-2.1591065772743647,21.0,198.0],["17_25287487_25292432-2",0.16426931737997563,-2.1855011867736396,31.0,242.0]],"bottom":[["20_1714330_1718653-1",-0.15228525609354346,-1.7214483344095561,28.0,209.0],["23_118205507_118209779-3",-0.137678099178442,-1.7877317201343712,31.0,273.0],["18_3010547_3015173-2",-0.1558519757938915,-2.0100522740208673,27.0,247.0],["8_145652517_145656810-2",-0.13543075063814947,-1.8507872079123133,35.0,293.0],["10_133949698_133954012-3",-0.15846141710771194,-5.272912879708461,97.0,720.0],["17_60757730_60760288-1",-0.12995745542534604,-3.755998571654767,101.0,728.0],["16_33354833_33359721-1",-0.17053734884252056,-1.7658834673996038,17.0,178.0],["11_70330266_70332840-3",-0.13069647646543342,-2.2312825962427167,48.0,395.0],["7_708146_712630-2",-0.16096120298342576,-4.2102181407127075,74.0,540.0],["8_1777620_1781821-2",-0.1332485902805974,-1.6874163165910112,39.0,263.0],["20_62419090_62421737-3",-0.13484668330993296,-1.824338876294693,36.0,289.0],["1_228360442_228364691-1",-0.13753841811787507,-4.175161532093192,101.0,734.0],["20_32888559_32893378-2",-0.15795192061688412,-3.4594299494578222,52.0,457.0],["23_49026091_49028601-1",-0.17003029706564493,-2.4689084386091342,35.0,260.0],["14_75420068_75424507-1",-0.19332552982621726,-3.437730753049506,42.0,294.0],["16_88496982_88499763-3",-0.1302360577070639,-3.770069565564749,100.0,729.0],["18_13385385_13389686-1",-0.13302339051176137,-3.512180328881183,88.0,644.0],["6_170530130_170532672-2",-0.14869293971720254,-3.703481184125407,70.0,552.0],["5_140012110_140014739-3",-0.13532294688818347,-3.729498644649444,92.0,666.0],["23_128975325_128979998-1",-0.14363069711115303,-1.1604643872448597,22.0,139.0],["11_233918_236604-2",-0.14602875798914364,-3.82258371215234,78.0,591.0],["19_5041658_5046441-2",-0.22500144414673287,-3.3650449429412976,27.0,214.0],["6_108276909_108281704-3",-0.13338625294389747,-2.286305844957357,40.0,398.0]]},"para":{"top":[],"bottom":[["16_33354833_33359721-1",-0.17171761537705496,-2.0738728569970744,17.0,178.0],["14_75420068_75424507-1",-0.24240701106611906,-5.33868237704213,42.0,294.0]]}}}
