{"ccle_chromatin":{"corr":{"top":[],"bottom":[]},"para":{"top":[],"bottom":[["H3K9me1K14ac0",-0.06642016821158371,-1.6290100481836516,8.0,888.0],["H3K27me0K36me2",-0.08229181502885327,-2.157999783083837,8.0,887.0]]}}}
{"ccle_rppa":{"corr":{"top":[["PXN_Paxillin_Caution",0.06876527612389068,-1.4047661650103167,8.0,890.0],["SMAD3_Smad3",0.06360243448084026,-1.2460290455247738,8.0,890.0]],"bottom":[["PCNA_PCNA_Caution",-0.057184645831581914,-1.0615927481420888,8.0,890.0],["SYK_Syk",-0.06112704344644554,-1.1732097500399001,8.0,890.0],["MAPK14_p38 alpha MAPK",-0.0745574419244231,-1.594011592951122,8.0,890.0]]},"para":{"top":[["PXN_Paxillin_Caution",0.06473480157878446,-1.5799733829252964,8.0,890.0],["FOSL1_FRA1_Caution",0.05239130040956069,-1.2336607984148165,8.0,890.0],["BRCA2_BRCA2_Caution",0.057328700210657335,-1.3659977758063422,8.0,890.0],["MTOR_mTOR",0.06427763356952489,-1.5662223437283969,8.0,890.0]],"bottom":[["PCNA_PCNA_Caution",-0.06564913629426962,-1.6076909190958364,8.0,890.0],["CHEK1_Chk1_Caution",-0.053488500196546315,-1.2623626544844517,8.0,890.0],["SYK_Syk",-0.05911165021720888,-1.4158045813933122,8.0,890.0],["MAPK14_p38 alpha MAPK",-0.08786743365620685,-2.370851844150837,8.0,890.0],["BRAF_B-Raf_pS445",-0.053899950198058225,-1.2732295979608046,8.0,890.0]]}}}
{"ccle_metabolomics":{"corr":{"top":[["sarcosine",0.1101958598261833,-3.106642124625154,8.0,918.0],["F1P\/F6P\/G1P\/G6P",0.08947312376208136,-2.191091983307836,8.0,918.0],["homocysteine",0.09378892039916406,-2.368161410160278,8.0,918.0],["erythrose-4-phosphate",0.06646908583074372,-1.3649362638921607,8.0,918.0]],"bottom":[["C56:7 TAG",-0.09181381451170037,-2.286247050560409,8.0,918.0],["oxalate",-0.09454499013285557,-2.39991209058811,8.0,918.0],["C38:4 PC",-0.0955688732092691,-2.443257809886768,8.0,918.0],["C22:6 LPE",-0.08574601394430209,-2.043856382661199,8.0,918.0],["trimethylamine-N-oxide",-0.09055413932160086,-2.234779525787953,8.0,918.0],["C56:8 TAG",-0.09999400889463912,-2.635219715053666,8.0,918.0],["C54:5 TAG",-0.08417141300606792,-1.9832263445530964,8.0,918.0],["C56:5 TAG",-0.10878535119609115,-3.0390477268116887,8.0,918.0],["C56:6 TAG",-0.08520053521826211,-2.0227472214774243,8.0,918.0],["C58:7 TAG",-0.09912755230216198,-2.5970399476435517,8.0,918.0],["C58:6 TAG",-0.09903731237830495,-2.5930802262431576,8.0,918.0],["C58:8 TAG",-0.097894799739589,-2.5432179125679135,8.0,918.0],["adipate",-0.07711717228596365,-1.7229824946373729,8.0,918.0]]},"para":{"top":[["alanine",0.08634625839969315,-2.363847119120438,8.0,918.0],["NMMA",0.08713249478279132,-2.3944655909156363,8.0,918.0],["sarcosine",0.09902853289122102,-2.8856527738833067,8.0,918.0],["beta-alanine",0.08263580431103178,-2.2224170226020337,8.0,918.0],["carnitine",0.09154160478294839,-2.5703962649228416,8.0,918.0],["F1P\/F6P\/G1P\/G6P",0.10169093446064349,-3.002797972630764,8.0,918.0],["homocysteine",0.09289424451910283,-2.6258105886191365,8.0,918.0],["butyrobetaine",0.11144763875413485,-3.4548305526724223,8.0,918.0],["uracil",0.08826739882124611,-2.4390639756918415,8.0,918.0],["phosphocreatine",0.08608394853086267,-2.353682592899741,8.0,918.0],["C18:1 LPC",0.06436767854139787,-1.5990550710940081,8.0,918.0],["acetylcarnitine",0.11873719269491032,-3.816011787982429,8.0,918.0],["creatinine",0.07290197810009456,-1.87528470622026,8.0,918.0],["SDMA\/ADMA",0.08571464844087476,-2.3394150737863035,8.0,918.0],["proline",0.09627872894331814,-2.7674412136247803,8.0,918.0],["erythrose-4-phosphate",0.07244335616840991,-1.8597763184643041,8.0,918.0]],"bottom":[["C56:7 TAG",-0.0968010925439983,-2.789680235957247,8.0,918.0],["oxalate",-0.10009896580895215,-2.9324329679222365,8.0,918.0],["choline",-0.07545556153309364,-1.9630232488834602,8.0,918.0],["C38:4 PC",-0.10184504714709375,-3.009660103993403,8.0,918.0],["C54:7 TAG",-0.07002006887117515,-1.7790891572080914,8.0,918.0],["C38:5 PC",-0.0666155058923359,-1.6692857363529807,8.0,918.0],["C22:6 LPE",-0.07552023782500496,-1.9652760929664725,8.0,918.0],["trimethylamine-N-oxide",-0.07713679492137201,-2.022077432797318,8.0,918.0],["C52:5 TAG",-0.07626242575252938,-1.991236842222053,8.0,918.0],["C56:8 TAG",-0.08678299321021432,-2.3808268164005186,8.0,918.0],["serine",-0.07986397487885265,-2.120055398967363,8.0,918.0],["C56:4 TAG",-0.06838284794864649,-1.7257683839750004,8.0,918.0],["C34:4 PC",-0.0745827519220789,-1.9327692330512178,8.0,918.0],["C54:5 TAG",-0.07591299720985584,-1.978989425039009,8.0,918.0],["C56:5 TAG",-0.09664823969218916,-2.783162187256575,8.0,918.0],["C56:6 TAG",-0.09136631099435698,-2.5632645501467386,8.0,918.0],["C58:7 TAG",-0.09418167805480086,-2.679184117989157,8.0,918.0],["UMP",-0.06606947574982251,-1.652060401708754,8.0,918.0],["glutamine",-0.07772495761581913,-2.0429792018913853,8.0,918.0],["C58:6 TAG",-0.10035874521961691,-2.9438504921854873,8.0,918.0],["C58:8 TAG",-0.10400369529174375,-3.1067134079806564,8.0,918.0],["alpha-hydroxybutyrate",-0.06611430076258752,-1.6534704607992416,8.0,918.0],["adipate",-0.08604260229395067,-2.3520827099221577,8.0,918.0],["C36:4 PC-B",-0.06397498051702145,-1.586969865873599,8.0,918.0]]}}}
{"ccle_mirna":{"corr":{"top":[["hsv1-miR-H2-3p_miR00772.1",0.06889027544819619,-1.4753732036134137,8.0,945.0],["hsa-miR-561_miR00513.1",0.08224990121201506,-1.9553592704635787,8.0,945.0],["hsa-miR-31_miR00292.1",0.09711605542762201,-2.5703836766069905,8.0,945.0],["hsa-miR-593_miR00548.1",0.07275379320768871,-1.607220904404895,8.0,945.0],["hsa-miR-1305_miR00128.1",0.07895876596289535,-1.8308003414938756,8.0,945.0],["kshv-miR-K12-4-3p_miR00791.1",0.0977557858723434,-2.5987966516245553,8.0,945.0],["hsa-miR-1290_miR00111.1",0.09154035498660329,-2.329582424691493,8.0,945.0],["hsa-miR-2117_miR00704.1",0.0617558749149432,-1.2465638885295116,8.0,945.0]],"bottom":[["hsv1-miR-H2-5p_miR00773.1",-0.07673969484396136,-1.7491583576852276,8.0,945.0],["hsa-miR-614_miR00568.1",-0.08039622763195452,-1.8846918979832037,8.0,945.0],["hsa-miR-92a_miR00668.1",-0.08253220589767797,-1.966237619920703,8.0,945.0],["hsa-miR-409-5p_miR00357.1",-0.07951876843857626,-1.8517010644428593,8.0,945.0],["hsa-miR-26a_miR00263.1",-0.06747745698140847,-1.4285581096123081,8.0,945.0],["hsa-miR-626_miR00581.1",-0.06137879779212931,-1.2349949604251045,8.0,945.0],["hsa-miR-1291_miR00112.1",-0.08642598393539846,-2.1194231261443583,8.0,945.0],["hsa-miR-1203_miR00032.1",-0.07127622864354975,-1.556133408490603,8.0,945.0],["hsa-miR-323-5p_miR00299.1",-0.06431050744059819,-1.3263227312671282,8.0,945.0],["hsa-miR-192_miR00211.1",-0.07809970743795878,-1.7989714388123308,8.0,945.0],["hsa-miR-615-5p_miR00570.1",-0.0946073794156378,-2.4605244593186257,8.0,945.0],["hsa-miR-335_miR00310.1",-0.06279387977709838,-1.2786809974372517,8.0,945.0],["hsv1-miR-H1_miR00771.1",-0.08274941781540608,-1.974628598941609,8.0,945.0],["hsa-miR-922_miR00665.1",-0.06900324182725542,-1.4791487126641825,8.0,945.0]]},"para":{"top":[["hsa-miR-665_miR00623.1",0.06634602395751167,-1.6912835163231683,8.0,945.0],["hsv1-miR-H2-3p_miR00772.1",0.0759614163409669,-2.019452838716385,8.0,945.0],["hsa-miR-561_miR00513.1",0.07654704460059605,-2.0405507251642576,8.0,945.0],["hsa-miR-29b_miR00276.1",0.07313947548242627,-1.919584093587616,8.0,945.0],["hsa-miR-219-2-3p_miR00249.1",0.06509181806001793,-1.6509950705863283,8.0,945.0],["hsa-miR-31_miR00292.1",0.09604913973469545,-2.817082545307316,8.0,945.0],["ebv-miR-BART13_miR00725.1",0.06588614082422296,-1.6764438275890492,8.0,945.0],["hsa-miR-383_miR00354.1",0.078469801799005,-2.110722884640531,8.0,945.0],["hsa-miR-593_miR00548.1",0.06895888481847597,-1.7770729692936824,8.0,945.0],["ebv-miR-BART7_miR00747.1",0.07071479082683192,-1.8361408346097008,8.0,945.0],["hsa-miR-636_miR00592.1",0.07196899249542492,-1.8790305464301855,8.0,945.0],["hsa-miR-1537_miR00174.1",0.08137550498521745,-2.2194016695419263,8.0,945.0],["hsa-miR-1305_miR00128.1",0.06841557109032112,-1.7590269148602518,8.0,945.0],["hsa-miR-494_miR00400.1",0.07178098128419592,-1.8725639840772919,8.0,945.0],["hsa-miR-1258_miR00071.2",0.0578803226713834,-1.4304791857632724,8.0,945.0],["hsa-miR-875-3p_miR00645.2",0.05499571382722122,-1.3475399698337425,8.0,945.0],["kshv-miR-K12-4-3p_miR00791.1",0.10004156681941057,-2.993942195168119,8.0,945.0],["hsa-miR-1290_miR00111.1",0.08856592156468085,-2.50204224947001,8.0,945.0],["hsa-miR-508-3p_miR00417.1",0.08083180536601464,-2.1988247124185416,8.0,945.0],["ebv-miR-BART22_miR00741.1",0.08603660415984991,-2.400386467240355,8.0,945.0],["hsa-miR-520c-3p_miR00454.1",0.07679769111998042,-2.0496197375410095,8.0,945.0],["hsa-miR-2117_miR00704.1",0.06812282709829828,-1.7493486253455988,8.0,945.0],["hsa-miR-1299_miR00122.1",0.06540550211268358,-1.6610173344673107,8.0,945.0],["hsa-miR-302c_miR00283.1",0.08267128724817918,-2.2688913686956385,8.0,945.0],["hsa-miR-296-3p_miR00269.1",0.06519634980942819,-1.654330873404793,8.0,945.0],["hsa-miR-609_miR00563.1",0.06306426982951831,-1.5870831024346221,8.0,945.0],["hsa-miR-550_miR00501.1",0.0691888167249721,-1.7847429232570982,8.0,945.0]],"bottom":[["bkv-miR-B1-3p+jcv-miR-J1-3p_miR00717.1",-0.06902166883723741,-1.7791653490097816,8.0,945.0],["hsa-miR-16_miR00181.1",-0.06475767259398037,-1.6403587115417662,8.0,945.0],["hsa-miR-505_miR00414.1",-0.06181008715894296,-1.548300215448892,8.0,945.0],["hsv1-miR-H2-5p_miR00773.1",-0.08221136867895515,-2.2512532319100442,8.0,945.0],["hsv1-miR-H3_miR00774.1",-0.057336988355617576,-1.414628387995917,8.0,945.0],["hsa-miR-19b_miR00225.1",-0.05602004517713255,-1.3766497163312383,8.0,945.0],["hsa-miR-614_miR00568.1",-0.06845741295194792,-1.760412812536589,8.0,945.0],["hsa-miR-92a_miR00668.1",-0.09312281744286921,-2.6913366080741166,8.0,945.0],["hsa-miR-181a_miR00183.1",-0.10505852339553083,-3.224899160709666,8.0,945.0],["hsa-miR-409-5p_miR00357.1",-0.09153426386090281,-2.624447981812801,8.0,945.0],["hsa-miR-26a_miR00263.1",-0.07654696765658166,-2.040547945507804,8.0,945.0],["hsa-miR-626_miR00581.1",-0.06745396291809896,-1.7273540886350893,8.0,945.0],["hsa-miR-199a-3p+hsa-miR-199b-3p_miR00221.1",-0.0699413654326522,-1.809982654126621,8.0,945.0],["hsa-miR-1250_miR00062.1",-0.06231181247370871,-1.5637462187843347,8.0,945.0],["hsa-miR-136_miR00144.1",-0.05403412533234935,-1.3205550464663616,8.0,945.0],["hsa-miR-1291_miR00112.1",-0.08060211234436285,-2.190165154585168,8.0,945.0],["hsa-miR-1203_miR00032.1",-0.07915977285403815,-2.136241770153179,8.0,945.0],["hsa-miR-323-5p_miR00299.1",-0.08005852320562096,-2.169750641961078,8.0,945.0],["hsa-miR-1201_miR00030.1",-0.06642974727705317,-1.6939934888013553,8.0,945.0],["hsa-miR-192_miR00211.1",-0.06594893040601889,-1.6784653689064315,8.0,945.0],["hsa-miR-1286_miR00107.1",-0.054849562621361585,-1.343417238871976,8.0,945.0],["hsa-miR-146b-5p_miR00161.1",-0.0631061698315177,-1.58838866593826,8.0,945.0],["hsa-miR-409-3p_miR00356.1",-0.08308927139941642,-2.284990565200655,8.0,945.0],["kshv-miR-K12-7_miR00796.1",-0.06507117041719891,-1.65033663672016,8.0,945.0],["hsa-miR-379_miR00350.1",-0.07658849474972038,-2.0420488753531605,8.0,945.0],["hsa-miR-26b_miR00264.1",-0.05340715919889197,-1.303138430422281,8.0,945.0],["hsa-miR-124_miR00054.1",-0.07447730140047276,-1.9665597265382144,8.0,945.0],["hiv1-miR-TAR-3p_miR00769.1",-0.06810187076626513,-1.7486570088910458,8.0,945.0],["hsa-miR-1225-3p_miR00042.1",-0.0647784454229571,-1.6410187514654113,8.0,945.0],["hsa-miR-615-5p_miR00570.1",-0.10071059628446338,-3.024179625162162,8.0,945.0],["hsa-miR-566_miR00517.1",-0.06400515564123296,-1.6165546152843517,8.0,945.0],["hsa-miR-181c_miR00185.1",-0.09264201529297138,-2.670989858629678,8.0,945.0],["hsa-miR-639_miR00595.1",-0.07027594048111704,-1.8212712130025737,8.0,945.0],["hsa-miR-891b_miR00659.1",-0.056061916666370074,-1.3778476358660914,8.0,945.0],["hsa-miR-335_miR00310.1",-0.06525901618146286,-1.6563325944086802,8.0,945.0],["hsa-miR-1243_miR00055.1",-0.06195662464336593,-1.5528020106523663,8.0,945.0],["hsa-miR-188-5p_miR00197.1",-0.06086988785039,-1.5196019864532937,8.0,945.0],["hsa-miR-342-5p_miR00321.1",-0.07370405225515618,-1.939327025082477,8.0,945.0],["ebv-miR-BART6-5p_miR00746.1",-0.0714466852164905,-1.8610984145866158,8.0,945.0],["hsa-miR-190b_miR00203.1",-0.09358254891897218,-2.7108743890008395,8.0,945.0],["hsv1-miR-H1_miR00771.1",-0.08085299363339125,-2.19962451987997,8.0,945.0],["hsa-miR-922_miR00665.1",-0.06433939690517235,-1.627101977245358,8.0,945.0]]}}}
{"depmap_copy_number":{"corr":{"top":[["KIAA1671_85379",0.08784763355171138,-3.5792068695188033,11.0,1710.0],["C22orf31_25770",0.07494193944755437,-2.729541337675016,11.0,1710.0],["LOC100128531_100128531",0.08912739206849694,-3.6699939409167843,11.0,1710.0],["KREMEN1_83999",0.06869654767636862,-2.3609252985087514,11.0,1710.0],["RCC2_55920",0.06965269162929842,-2.4155786250083535,11.0,1710.0],["IGLL3P_91353",0.0746900269092165,-2.7141397759995014,11.0,1710.0],["SGSM1_129049",0.08049711710872395,-3.080648287755075,11.0,1710.0],["CHEK2_11200",0.08561961569791357,-3.423977245844927,11.0,1710.0],["MIR3199-1_100423034",0.08669374829529332,-3.498365912204013,11.0,1710.0],["POM121L10P_646074",0.08872213618377195,-3.641116348534656,11.0,1710.0],["GGT1_2678",0.0914857663777333,-3.840412204205806,11.0,1710.0],["CRYBB2P1_1416",0.08733862167771568,-3.543426882537444,11.0,1710.0],["BCRP3_644165",0.0894412364685536,-3.692439608655924,11.0,1710.0],["SPECC1L_23384",0.08043911429223939,-3.0768685492984447,11.0,1710.0],["LRP5L_91355",0.08102235733115228,-3.1149850901248644,11.0,1710.0],["GGT5_2687",0.08013434023686088,-3.057047586477138,11.0,1710.0],["SPECC1L-ADORA2A_101730217",0.08043911429223939,-3.0768685492984447,11.0,1710.0],["TMEM211_255349",0.08686278352963435,-3.5101482879433865,11.0,1710.0],["JPH3_57338",0.07111053658859891,-2.5001451156695027,11.0,1710.0],["MIR6817_102466198",0.08728343084045713,-3.5395586171202664,11.0,1710.0],["SLC2A11_66035",0.06787522450728221,-2.314489943449427,11.0,1710.0],["MIR4507_100616135",0.07215981354635238,-2.5619373071414233,11.0,1710.0],["MIR4538_100616276",0.07237930889680148,-2.5749616271501434,11.0,1710.0],["GRK3_157",0.06736978455761307,-2.286148407266074,11.0,1710.0],["GUCD1_83606",0.09167327905426154,-3.8541355834433286,11.0,1710.0],["PIWIL3_440822",0.08399123285064933,-3.3127913917025658,11.0,1710.0],["SNRPD3_6634",0.09163922190593819,-3.8516411609159094,11.0,1710.0],["GSTT4_25774",0.06937298312600595,-2.399524077000495,11.0,1710.0],["FAM30A_9834",0.07033844957138162,-2.455171856435279,11.0,1710.0],["ADORA2A-AS1_646023",0.08051738743840169,-3.0819697663175774,11.0,1710.0],["ZNRF3-AS1_100874123",0.07616082302170302,-2.8046979953965274,11.0,1710.0],["LINC01638_105372978",0.0690193994944345,-2.379307850937556,11.0,1710.0],["MIR3199-2_100422998",0.08669374829529332,-3.498365912204013,11.0,1710.0],["ADORA2A_135",0.08052282857512455,-3.082324539058803,11.0,1710.0],["DDTL_100037417",0.0692947029574184,-2.395040830767198,11.0,1710.0],["TOP1P2_7152",0.08408391090266362,-3.3190681775157644,11.0,1710.0],["LINC02554_100507657",0.06900128680448783,-2.378274614798637,11.0,1710.0],["TTC28_23331",0.08584804827039998,-3.439727519302179,11.0,1710.0],["MIF_4282",0.06765835568490487,-2.3023075741767753,11.0,1710.0],["ACTL8_81569",0.07008206802577331,-2.440330621126382,11.0,1710.0],["FAM49A_81553",0.08231292860090907,-3.2001939913517745,11.0,1710.0],["SUSD2_56241",0.08019561371844286,-3.0610271663333655,11.0,1710.0],["PITPNB_23760",0.0693669066882611,-2.399175914533755,11.0,1710.0],["DERL3_91319",0.0675716135385835,-2.297444138900447,11.0,1710.0],["MIR4539_100616374",0.07215981354635238,-2.5619373071414233,11.0,1710.0],["TTC28-AS1_284900",0.08669374829529332,-3.498365912204013,11.0,1710.0],["PADI6_353238",0.06994997952143908,-2.4327024045523915,11.0,1710.0],["ZNRF3_84133",0.07619393148357148,-2.806754187694166,11.0,1710.0],["LOC101928737_101928737",0.07110588203532961,-2.499872735924079,11.0,1710.0],["MIF-AS1_284889",0.06765835568490487,-2.3023075741767753,11.0,1710.0],["XBP1_7494",0.08686961259305567,-3.510624732773146,11.0,1710.0],["KLHDC4_54758",0.07110710814465247,-2.49994448512063,11.0,1710.0],["CRYBB2_1415",0.0891948817524338,-3.674814668099839,11.0,1710.0],["LRRC75B_388886",0.0914857663777333,-3.840412204205806,11.0,1710.0],["ARHGEF10L_55160",0.06920570579010737,-2.389949025391593,11.0,1710.0],["HSCB_150274",0.08805638625969393,-3.5939349598734767,11.0,1710.0],["MIR4537_100616422",0.07237930889680148,-2.5749616271501434,11.0,1710.0],["CABIN1_23523",0.06998215428351548,-2.43455939341959,11.0,1710.0],["CCDC117_150275",0.08761125459782579,-3.5625677572460135,11.0,1710.0],["MN1_4330",0.06930893504096312,-2.395855608019254,11.0,1710.0],["CRYBB3_1417",0.08912739206849694,-3.6699939409167843,11.0,1710.0],["UPB1_51733",0.0903564437188434,-3.758302069067682,11.0,1710.0],["MIR5739_102466081",0.08563991761660475,-3.4253755249705673,11.0,1710.0],["POM121L9P_29774",0.08043911429223939,-3.0768685492984447,11.0,1710.0]],"bottom":[["LINC00184_100302691",-0.05748328734599043,-1.7674519213713866,11.0,1710.0],["LOC102724738_102724738",-0.06112109123095096,-1.950456584227478,11.0,1710.0],["MIR1182_100302132",-0.05712462369278584,-1.7499001778076142,11.0,1710.0],["EGLN1_54583",-0.057400402882884984,-1.7633880345828703,11.0,1710.0],["MARC1_64757",-0.08518120008406685,-3.393854244960349,11.0,1710.0],["ZNF722P_100419780",-0.058805308666579986,-1.8329071948658004,11.0,1710.0],["LOC101927787_101927787",-0.05748328734599043,-1.7674519213713866,11.0,1710.0],["EQTN_54586",-0.061698722832303016,-1.9803527784456711,11.0,1710.0],["PP2672_100130249",-0.05748876743726645,-1.7677207798510286,11.0,1710.0],["TEK_7010",-0.059877224156451116,-1.8868592454869875,11.0,1710.0],["LINC01737_101927553",-0.057075666938693655,-1.747511223418904,11.0,1710.0],["ZNF733P_643955",-0.061318626461078565,-1.9606544121019127,11.0,1710.0],["TRIM67_440730",-0.057161142411574266,-1.7516832565665155,11.0,1710.0],["ARV1_64801",-0.05719994262899855,-1.7535787310180178,11.0,1710.0],["NBPF9_400818",-0.06665230405736469,-2.246223719779688,11.0,1710.0],["LINC01005_100506050",-0.058805308666579986,-1.8329071948658004,11.0,1710.0],["IRF2BP2_359948",-0.05743701836825178,-1.7651827399218918,11.0,1710.0],["EXOC8_149371",-0.05740350354785197,-1.7635399779302239,11.0,1710.0],["MAP3K21_84451",-0.07406039578366798,-2.6758416966881478,11.0,1710.0],["PGBD2_267002",-0.059259697891860176,-1.855681331745626,11.0,1710.0],["TMEM63A_9725",-0.05687401565899834,-1.737688454288852,11.0,1710.0],["COA6-AS1_101927765",-0.057249109448576835,-1.7559821139228713,11.0,1710.0],["TOMM20_9804",-0.05724146364469058,-1.7556082616559343,11.0,1710.0],["H3F3A_3020",-0.0569025770028563,-1.7390780370265018,11.0,1710.0],["MIR3124_100422879",-0.05908712283667055,-1.847015123944086,11.0,1710.0],["C1orf131_128061",-0.0570094297260929,-1.7442816361426738,11.0,1710.0],["LYPD8_646627",-0.06154866950060857,-1.9725644012385808,11.0,1710.0],["LOC100287704_100287704",-0.06112109123095096,-1.950456584227478,11.0,1710.0],["LEFTY1_10637",-0.056962853581487886,-1.7420124754106678,11.0,1710.0],["MIR4671_100616380",-0.05710440386557246,-1.7489133076319512,11.0,1710.0],["LINC00582_100287814",-0.056956470127975785,-1.741701592960177,11.0,1710.0],["LINC01348_731656",-0.05730191288223788,-1.7585651022119302,11.0,1710.0],["DISC1_27185",-0.056956470127975785,-1.741701592960177,11.0,1710.0],["SNRPD2P2_645339",-0.056956470127975785,-1.741701592960177,11.0,1710.0],["RBM34_23029",-0.05710182697673813,-1.7487875573462615,11.0,1710.0],["ZNF672_79894",-0.059266293776094284,-1.8560129632002011,11.0,1710.0],["SPRTN_83932",-0.05740350354785197,-1.7635399779302239,11.0,1710.0],["SDE2_163859",-0.05698133437194781,-1.742912670719574,11.0,1710.0],["ZNF692_55657",-0.059266293776094284,-1.8560129632002011,11.0,1710.0],["NDFIP1_80762",-0.10364693934345456,-4.7837384641507485,11.0,1710.0],["TTC13_79573",-0.05707157362569652,-1.7473115552126468,11.0,1710.0],["FAM89A_375061",-0.05712462369278584,-1.7499001778076142,11.0,1710.0],["ARID4B_51742",-0.05710182697673813,-1.7487875573462615,11.0,1710.0],["LINC00032_158035",-0.059766621122836074,-1.8812558082267443,11.0,1710.0],["MIR549A_693132",-0.06024999240824109,-1.9058066212885012,11.0,1710.0],["OR14I1_401994",-0.061067449274678554,-1.9476919453736339,11.0,1710.0],["ZNF735_730291",-0.05860128108384327,-1.822727346721345,11.0,1710.0],["TARBP1_6894",-0.05734357405640023,-1.7606043887949443,11.0,1710.0],["TSNAX_7257",-0.056956470127975785,-1.741701592960177,11.0,1710.0],["COA6_388753",-0.057249109448576835,-1.7559821139228713,11.0,1710.0],["SH3BP5L_80851",-0.05816513906622113,-1.8010619637921923,11.0,1710.0],["LYPD9P_101928226",-0.061305677051567614,-1.959985069668282,11.0,1710.0],["GNPAT_8443",-0.057373873764845755,-1.7620882843628236,11.0,1710.0],["LINC01703_105373113",-0.0569025770028563,-1.7390780370265018,11.0,1710.0],["LOC149373_149373",-0.0572735202040365,-1.757175979290731,11.0,1710.0],["LINC01132_100506810",-0.05748876743726645,-1.7677207798510286,11.0,1710.0],["PGBD5_79605",-0.057346445367682276,-1.7607449812558653,11.0,1710.0],["CRPPA_729920",-0.08457987196958637,-3.352763120549183,11.0,1710.0],["TSNAX-DISC1_100303453",-0.056956470127975785,-1.741701592960177,11.0,1710.0],["ZNF727_442319",-0.058805308666579986,-1.8329071948658004,11.0,1710.0],["MOB3B_79817",-0.06247236703241713,-2.0207549107744325,11.0,1710.0],["LOC101927851_101927851",-0.05730191288223788,-1.7585651022119302,11.0,1710.0]]},"para":{"top":[["KIAA1671_85379",0.06588952171614286,-2.5024535908353025,11.0,1710.0],["SH2D5_400745",0.05578503279041315,-1.98488658781341,11.0,1710.0],["LOC100128531_100128531",0.06625643081360201,-2.522560169820071,11.0,1710.0],["UBXN10-AS1_101928017",0.05563093022795195,-1.9775297901905264,11.0,1710.0],["SGSM1_129049",0.06522907665124145,-2.466494454107034,11.0,1710.0],["POM121L10P_646074",0.06632245804282116,-2.52618828484982,11.0,1710.0],["GGT1_2678",0.06643987316242474,-2.5326475099979904,11.0,1710.0],["RCC2_55920",0.0702559985978179,-2.747754223056297,11.0,1710.0],["BCRP3_644165",0.06646922161450257,-2.5342635050168085,11.0,1710.0],["SPECC1L_23384",0.06553727436149204,-2.4832375468226546,11.0,1710.0],["AKR7A3_22977",0.055748334088704804,-1.9831331536711523,11.0,1710.0],["GGT5_2687",0.06569137321540643,-2.491633563141408,11.0,1710.0],["SPECC1L-ADORA2A_101730217",0.06553727436149204,-2.4832375468226546,11.0,1710.0],["TMEM211_255349",0.06555196514816682,-2.4840372649494573,11.0,1710.0],["MIR6084_102464833",0.05601985672836954,-1.9961277807640956,11.0,1710.0],["MIR4507_100616135",0.0661239926881354,-2.5152918997941547,11.0,1710.0],["MIR4538_100616276",0.06644687271125925,-2.533032869905445,11.0,1710.0],["UBXN10_127733",0.05563093022795195,-1.9775297901905264,11.0,1710.0],["PINK1-AS_100861548",0.055873092661887,-1.9890977204522937,11.0,1710.0],["TOP3B_8940",0.06056195114119498,-2.22090126179448,11.0,1710.0],["GUCD1_83606",0.06633713853852867,-2.526995367518752,11.0,1710.0],["PIWIL3_440822",0.06484748242994945,-2.4458544065681633,11.0,1710.0],["SNRPD3_6634",0.06648390215849534,-2.535072072753191,11.0,1710.0],["HP1BP3_50809",0.05578503279041315,-1.98488658781341,11.0,1710.0],["KIF17_57576",0.05587309249746485,-1.989097712585574,11.0,1710.0],["FAM30A_9834",0.0655589418282232,-2.484417106648882,11.0,1710.0],["ADORA2A-AS1_646023",0.06643987007326489,-2.5326473399515375,11.0,1710.0],["PPM1F_9647",0.06081145006394333,-2.2336539887234497,11.0,1710.0],["LINC01141_339505",0.05576301623969349,-1.9838345459379547,11.0,1710.0],["POM121L9P_29774",0.06553727436149204,-2.4832375468226546,11.0,1710.0],["LOC100286925_100286925",0.060664685471980805,-2.2261472237907807,11.0,1710.0],["EIF4G3_8672",0.055682297399041666,-1.979980260832,11.0,1710.0],["ADORA2A_135",0.06652792563359114,-2.5374976652290138,11.0,1710.0],["PLA2G2F_64600",0.05580704687924512,-1.9859388388004688,11.0,1710.0],["DDOST_1650",0.055873092661887,-1.9890977204522937,11.0,1710.0],["ADAM6_8755",0.060789143561696936,-2.2325121045128014,11.0,1710.0],["TOP1P2_7152",0.06506763681941596,-2.457750136846359,11.0,1710.0],["ACTL8_81569",0.07044678299556946,-2.7587724140323178,11.0,1710.0],["MUL1_79594",0.05579236902498506,-1.9852372160544545,11.0,1710.0],["PINK1_65018",0.05601985672836954,-1.9961277807640956,11.0,1710.0],["FAM43B_163933",0.05579236899214817,-1.9852372144851704,11.0,1710.0],["CAMK2N1_55450",0.05579236902498506,-1.9852372160544545,11.0,1710.0],["SUSD2_56241",0.06605828213640401,-2.5116901463769836,11.0,1710.0],["MIR4539_100616374",0.0661239926881354,-2.5152918997941547,11.0,1710.0],["PADI6_353238",0.07044679725845936,-2.7587732385996313,11.0,1710.0],["CRYBB2_1415",0.06635916463616959,-2.528206563947221,11.0,1710.0],["LRRC75B_388886",0.06643987316242474,-2.5326475099979904,11.0,1710.0],["ARHGEF10L_55160",0.07007988120537648,-2.7376054458836636,11.0,1710.0],["MIR4537_100616422",0.06644687271125925,-2.533032869905445,11.0,1710.0],["CRYBB3_1417",0.06625643081360201,-2.522560169820071,11.0,1710.0],["CDA_978",0.056019857058077646,-1.9961277965714987,11.0,1710.0],["UPB1_51733",0.06630778281739386,-2.5253816400735976,11.0,1710.0],["PLA2G2D_26279",0.05566028288316567,-1.9789298407037343,11.0,1710.0]],"bottom":[["LINC00184_100302691",-0.068912948972259,-2.6709029000889624,11.0,1710.0],["CEP170_9859",-0.06847268823804828,-2.645981817179224,11.0,1710.0],["ZNF695_57116",-0.06836992378510874,-2.6401840710460935,11.0,1710.0],["OR14A2_388761",-0.06831854997576448,-2.637288405632541,11.0,1710.0],["OR2G2_81470",-0.06819380475736955,-2.63026476927594,11.0,1710.0],["LOC101927787_101927787",-0.068912948972259,-2.6709029000889624,11.0,1710.0],["SLC35F3_148641",-0.06832591748149014,-2.6377035602634376,11.0,1710.0],["PP2672_100130249",-0.068912948972259,-2.6709029000889624,11.0,1710.0],["OR2B11_127623",-0.06812042385420787,-2.626138157836796,11.0,1710.0],["SCCPDH_51097",-0.0684139565538486,-2.642667411259407,11.0,1710.0],["AHCTF1_25909",-0.06848733451561535,-2.646808721916357,11.0,1710.0],["SNORA100_106635532",-0.07050534843205296,-2.762159744373991,11.0,1710.0],["MIR4753_100616224",-0.06831855130266522,-2.6372884803912493,11.0,1710.0],["OR2W5_441932",-0.06812042385420787,-2.626138157836796,11.0,1710.0],["IRF2BP2_359948",-0.06888359681753792,-2.669237248308072,11.0,1710.0],["MAP3K21_84451",-0.07818110855035301,-3.2267407517920343,11.0,1710.0],["HNRNPU_3192",-0.07050534843205296,-2.762159744373991,11.0,1710.0],["PGBD2_267002",-0.06894956708384702,-2.6729817091837353,11.0,1710.0],["LOC339529_339529",-0.06895698923678478,-2.6734031768910382,11.0,1710.0],["COA6-AS1_101927765",-0.06870749750594914,-2.659256605028977,11.0,1710.0],["TOMM20_9804",-0.06888359908787207,-2.66923737710638,11.0,1710.0],["COX20_116228",-0.07016779135372309,-2.7426685919056784,11.0,1710.0],["ZBTB18_10472",-0.06926519350020381,-2.6909382147277996,11.0,1710.0],["ADSS_159",-0.06923584024354963,-2.689265356258174,11.0,1710.0],["MIR3124_100422879",-0.0688761860244633,-2.6688168012931293,11.0,1710.0],["OR2G3_81469",-0.06819380475736955,-2.63026476927594,11.0,1710.0],["LYPD8_646627",-0.08070532882195856,-3.3885073454005212,11.0,1710.0],["MIR4671_100616380",-0.06866346806734103,-2.656764529688756,11.0,1710.0],["LINC01348_731656",-0.0689863333967076,-2.675069862712532,11.0,1710.0],["OR6F1_343169",-0.06831854997576448,-2.637288405632541,11.0,1710.0],["RBM34_23029",-0.06861207951871624,-2.653857620264746,11.0,1710.0],["ZNF672_79894",-0.06900827356289428,-2.676316406535071,11.0,1710.0],["EFCAB2_84288",-0.07015310642304322,-2.741822447943098,11.0,1710.0],["MIR4427_100616390",-0.0682818899294087,-2.635223189390907,11.0,1710.0],["ZNF692_55657",-0.06900827356289428,-2.676316406535071,11.0,1710.0],["KIF26B-AS1_111216275",-0.07038793947334018,-2.7553713931004498,11.0,1710.0],["SMYD3_64754",-0.0699843467701692,-2.732109248041,11.0,1710.0],["OR2C3_81472",-0.06812042385420787,-2.626138157836796,11.0,1710.0],["OR2T11_127077",-0.07633171085444763,-3.1110507102136506,11.0,1710.0],["ZNF670-ZNF695_100533111",-0.06836992378510874,-2.6401840710460935,11.0,1710.0],["DESI2_51029",-0.06987426421064682,-2.7257839107889374,11.0,1710.0],["ARID4B_51742",-0.06861207951871624,-2.653857620264746,11.0,1710.0],["OR14I1_401994",-0.07997151473492163,-3.341019961636248,11.0,1710.0],["CATSPERE_257044",-0.06938260191656856,-2.6976353408627207,11.0,1710.0],["C1orf100_200159",-0.06936792826868886,-2.696797816200552,11.0,1710.0],["TARBP1_6894",-0.06878087647702363,-2.6634128447756766,11.0,1710.0],["ZNF670_93474",-0.06832589435874925,-2.637702257391322,11.0,1710.0],["OR2T10_127069",-0.07640509171902544,-3.115595569730708,11.0,1710.0],["COA6_388753",-0.06870749750594914,-2.659256605028977,11.0,1710.0],["SH3BP5L_80851",-0.06843589016834342,-2.6439049132000982,11.0,1710.0],["LYPD9P_101928226",-0.08025036440112088,-3.359020699966231,11.0,1710.0],["LINC01354_100506795",-0.0690010088040074,-2.6759036177382627,11.0,1710.0],["KIF26B_55083",-0.07057873247024456,-2.766407510150558,11.0,1710.0],["LINC01347_731275",-0.0687808829945042,-2.6634132140563995,11.0,1710.0],["LINC01132_100506810",-0.068912948972259,-2.6709029000889624,11.0,1710.0],["PLD5_200150",-0.06847266893441709,-2.6459807275427054,11.0,1710.0],["LINC01341_149134",-0.06841395450031965,-2.6426672954266253,11.0,1710.0],["OR13G1_441933",-0.06831854997576448,-2.637288405632541,11.0,1710.0],["OR2T35_403244",-0.07725637159657969,-3.168594591851966,11.0,1710.0],["OR2T27_403239",-0.076478532987369,-3.1201479334581044,11.0,1710.0],["CRPPA_729920",-0.07370456215295876,-2.9508109669102778,11.0,1710.0],["KCNK1_3775",-0.0682818899294087,-2.635223189390907,11.0,1710.0],["LOC101927851_101927851",-0.0689863333967076,-2.675069862712532,11.0,1710.0],["LOC101928068_101928068",-0.07015310642304322,-2.741822447943098,11.0,1710.0]]}}}
{"depmap_gene_tpm":{"corr":{"top":[["CCDC36_339834",0.09146972647154117,-3.015363315000312,11.0,1288.0],["RLBP1_6017",0.09908437104403345,-3.4581889445751735,11.0,1288.0],["MORC1_27136",0.10946433996154958,-4.113166293185981,11.0,1288.0],["USP17L3_645836",0.11857784449905864,-4.73768152587797,11.0,1288.0],["OR5AU1_390445",0.2056274238644375,-13.142534563300018,11.0,1288.0],["BEST2_54831",0.11122415773046154,-4.230138002317205,11.0,1288.0],["TSPY8_728403",0.11205619142971919,-4.286043530986225,11.0,1288.0],["OR5AP2_338675",0.31746106959700277,-31.077643535490928,11.0,1288.0],["ZC3H11B_643136",0.1312899006656624,-5.687133196959538,11.0,1288.0],["OR5M1_390168",0.15003844360872393,-7.256885384064676,11.0,1288.0],["MAGEB17_645864",0.09484372316673276,-3.207672061420619,11.0,1288.0],["TSPY10_100289087",0.11371203733225112,-4.398454063398862,11.0,1288.0],["NEURL1_9148",0.11671411086438771,-4.606175581018739,11.0,1288.0],["MT1B_4490",0.12767453880685736,-5.407746038888978,11.0,1288.0],["TSPY4_728395",0.09312340794547641,-3.1088447833486437,11.0,1288.0],["CAGE1_285782",0.1870628334015481,-10.967226654116564,11.0,1288.0],["LPAR3_23566",0.11483478777296185,-4.475548017085699,11.0,1288.0],["M1AP_130951",0.12967014297928983,-5.56103772175694,11.0,1288.0],["OR5AR1_219493",0.29393008919879055,-26.574426072356733,11.0,1288.0],["CCNA1_8900",0.09504882412183127,-3.219562165269855,11.0,1288.0],["ATP6V0D2_245972",0.09049231064887256,-2.960808712150023,11.0,1288.0],["OR10H5_284433",0.11026888903126666,-4.166428805615272,11.0,1288.0],["PSG7_5676",0.08909584184152305,-2.883762513783645,11.0,1288.0],["DCDC2C_728597",0.09403974368980729,-3.1612850124220686,11.0,1288.0],["IFNA13_3447",0.10231509446316596,-3.6556666480398907,11.0,1288.0],["TSPY2_64591",0.09010299772839497,-2.939223352363015,11.0,1288.0],["CTAG1A_246100",0.09647628668675155,-3.302951194609278,11.0,1288.0],["TSPY1_7258",0.09877612601979757,-3.439647349883926,11.0,1288.0],["PASD1_139135",0.08729539658417203,-2.7859836011841246,11.0,1288.0],["PNLIPRP3_119548",0.09879845898487825,-3.4409889731194525,11.0,1288.0],["PRDM7_11105",0.11821260702501092,-4.711756039865159,11.0,1288.0],["VEGFD_2277",0.12309581935847723,-5.064610105134064,11.0,1288.0],["ACOT7_11332",0.09892049530890318,-3.4483249775528524,11.0,1288.0],["CTAG1B_1485",0.10307907252963211,-3.7032053785230294,11.0,1288.0],["KDM1A_23028",0.09148984862179162,-3.016491879371404,11.0,1288.0],["TSPY3_728137",0.0983356147520674,-3.4132401484830663,11.0,1288.0]],"bottom":[["NFYB_4801",-0.05252726686652273,-1.2335572422254208,11.0,1288.0],["CHIC2_26511",-0.06090999221711155,-1.5505565223385391,11.0,1288.0],["FBXW4_6468",-0.06682786975582379,-1.795933756119479,11.0,1288.0],["PRKAR1B_5575",-0.05612184965679716,-1.365138953607721,11.0,1288.0],["PYCR2_29920",-0.054853607159970945,-1.317972622473136,11.0,1288.0],["SLC10A7_84068",-0.055272233984076845,-1.3334518514634006,11.0,1288.0],["ISCU_23479",-0.05740255223647158,-1.4135929483906524,11.0,1288.0],["IKBKB_3551",-0.055404206995450504,-1.338350011733451,11.0,1288.0],["ERCC5_2073",-0.06064616404955066,-1.5400360872342223,11.0,1288.0],["GUSB_2990",-0.05591035237815565,-1.3572169477190232,11.0,1288.0]]},"para":{"top":[["RPH3A_22895",0.07890171959646598,-2.6497592046753584,11.0,1288.0],["ELOVL3_83401",0.0971932357352078,-3.6353750717456816,11.0,1288.0],["KREMEN1_83999",0.08818267410831736,-3.1278393964953377,11.0,1288.0],["RBP7_116362",0.07482572935065941,-2.4540475501128687,11.0,1288.0],["SLC6A8_6535",0.07668927996322156,-2.542469721774371,11.0,1288.0],["SIX3_6496",0.07492864202737765,-2.458876660729176,11.0,1288.0],["SLC7A5_8140",0.08646871342528697,-3.0361524116487435,11.0,1288.0],["C9orf85_138241",0.07286947528044811,-2.36316570912234,11.0,1288.0],["PIGA_5277",0.08230158188307621,-2.819673110081802,11.0,1288.0],["DAG1_1605",0.073675967255541,-2.400393914514685,11.0,1288.0],["RET_5979",0.07583956652576519,-2.5019289862078624,11.0,1288.0],["MRAP2_112609",0.08515830866227539,-2.9670939873464883,11.0,1288.0],["AKNAD1_254268",0.08111010121638387,-2.759445226250342,11.0,1288.0],["TEKT3_64518",0.074147703528356,-2.4223198608012453,11.0,1288.0],["MAPK4_5596",0.0920584693247613,-3.340871261696151,11.0,1288.0],["NEURL1_9148",0.09746071440684032,-3.6510993201236066,11.0,1288.0],["CAGE1_285782",0.0745898386680368,-2.442982362473618,11.0,1288.0],["TEX10_54881",0.07558043969077584,-2.4896412570994193,11.0,1288.0],["NMNAT1_64802",0.08073329313875291,-2.7405577003275283,11.0,1288.0],["PPEF1_5475",0.0753564586409586,-2.479041842981779,11.0,1288.0],["PANX3_116337",0.0958308078465743,-3.5557558717161237,11.0,1288.0],["GBX1_2636",0.08740928698355624,-3.0861792267226007,11.0,1288.0],["M1AP_130951",0.07259935017771983,-2.350770493397362,11.0,1288.0],["NAA35_60560",0.07758572940062855,-2.5856460552148404,11.0,1288.0],["AGTRAP_57085",0.08258167536294833,-2.8339383661125246,11.0,1288.0],["ADRA1B_147",0.07622816205813188,-2.52042082507379,11.0,1288.0],["MOCS1_4337",0.07796750162632876,-2.604160401658276,11.0,1288.0],["BMX_660",0.09296675905957535,-3.3919168964366264,11.0,1288.0],["IFNA13_3447",0.1292297853876804,-5.790970312700818,11.0,1288.0],["ITGA6_3655",0.08770089086696287,-3.101910507096737,11.0,1288.0],["FAM210A_125228",0.08216716597046403,-2.8128418411471916,11.0,1288.0],["ACOT7_11332",0.0940973865279213,-3.456147385025463,11.0,1288.0],["TLX3_30012",0.09960214158778954,-3.7782707697168734,11.0,1288.0]],"bottom":[["MT3_4504",-0.06998176660338534,-2.2325779604631646,11.0,1288.0],["NFYB_4801",-0.058810977176476605,-1.767777619114147,11.0,1288.0],["CHIC2_26511",-0.06490475587675472,-2.0134787803602117,11.0,1288.0],["COP1_64326",-0.07311616923140292,-2.374517583139851,11.0,1288.0],["SHARPIN_81858",-0.060424044026808746,-1.8309883674728413,11.0,1288.0],["LRCH4_4034",-0.06587936389321707,-2.054523798681149,11.0,1288.0],["FBXW4_6468",-0.05985271346728608,-1.8084498071247355,11.0,1288.0],["FAM111A_63901",-0.061723393498758654,-1.882860623906549,11.0,1288.0],["RELN_5649",-0.07922690373862308,-2.6657731360865804,11.0,1288.0],["CTSO_1519",-0.08188719654370546,-2.7986436178566563,11.0,1288.0],["MSMP_692094",-0.06576122807888231,-2.0495047250248,11.0,1288.0],["LILRB1_10859",-0.06527666288239928,-2.0290442585027857,11.0,1288.0],["CTDSP2_10106",-0.07857136721811656,-2.633600427591148,11.0,1288.0],["ACBD6_84320",-0.06744788996752399,-2.1215995881683543,11.0,1288.0],["DACH2_117154",-0.06797195407323979,-2.1442136226945285,11.0,1288.0],["PYCR2_29920",-0.058855762823844075,-1.7695149309158178,11.0,1288.0],["SOST_50964",-0.07904407304866656,-2.656744169022837,11.0,1288.0],["MDP1_145553",-0.0625972061049843,-1.9182252367477173,11.0,1288.0],["RABGAP1L_9910",-0.06338126405133561,-1.9502869215959484,11.0,1288.0],["SLC10A7_84068",-0.06023349589493008,-1.8234530818710062,11.0,1288.0],["AES_166",-0.06732466355864228,-2.11628445473503,11.0,1288.0],["GTF2IRD2B_389524",-0.07269017199684279,-2.354934609745508,11.0,1288.0],["PEX11B_8799",-0.06936340109861222,-2.2052218990607417,11.0,1288.0],["LEFTY2_7044",-0.06666546456504871,-2.087950408235613,11.0,1288.0],["CD27_939",-0.06515309014245609,-2.0238911554808623,11.0,1288.0],["TSPAN32_10077",-0.07918825159723074,-2.6638691900173685,11.0,1288.0],["ENDOU_8909",-0.07064137305566277,-2.2620580357622018,11.0,1288.0],["MRPS14_63931",-0.07676805527349674,-2.546247094985333,11.0,1288.0],["ERCC5_2073",-0.06940811640055095,-2.2071964435990354,11.0,1288.0],["CLECL1_160365",-0.0654998729309634,-2.0384615738816705,11.0,1288.0]]}}}
{"ccle_gene_tpm":{"corr":{"top":[["KB-1568E2.1_ENSG00000253656.1",0.2267464098327837,-12.621381231806494,8.0,1011.0],["NUP210P2_ENSG00000225275.4",0.2727931127955806,-18.120374844776684,8.0,1011.0],["RP11-152P17.3_ENSG00000253526.1",0.25287072546591705,-15.603680794810003,8.0,1011.0],["AC037445.1_ENSG00000233635.2",0.19716857977289398,-9.663166639504043,8.0,1011.0],["RP1-166H4.2_ENSG00000261080.1",0.3146446456560415,-24.1261943645876,8.0,1011.0],["OR2AH1P_ENSG00000232511.3",0.26281772770206674,-16.833489063938924,8.0,1011.0],["AL669914.1_ENSG00000252901.1",0.3523357369225705,-30.42381819469375,8.0,1011.0],["RP11-398K14.1_ENSG00000234304.2",0.31367312841984046,-23.97531058256417,8.0,1011.0],["RP11-10G12.2_ENSG00000251516.1",0.35233573692257103,-30.423818194693876,8.0,1011.0],["RP11-1081L13.3_ENSG00000255511.1",0.28178619588762244,-19.327296738100483,8.0,1011.0],["RP11-476K15.1_ENSG00000266602.1",0.21920159503641232,-11.82529714998187,8.0,1011.0],["OR5AR1_ENSG00000172459.2",0.3456678885015386,-29.245253673038203,8.0,1011.0],["GS1-542M4.4_ENSG00000229012.1",0.2793699490760773,-18.99862410253937,8.0,1011.0],["RP11-44N21.2_ENSG00000258154.1",0.30922920542622356,-23.29225106758155,8.0,1011.0],["RBMY3AP_ENSG00000231436.1",0.20586618513704674,-10.488018311996436,8.0,1011.0],["RN7SL755P_ENSG00000263714.1",0.28627933750300594,-19.947145072617342,8.0,1011.0],["RP11-476H20.1_ENSG00000231714.1",0.21796884542247794,-11.697953221893169,8.0,1011.0],["LINC00112_ENSG00000232401.1",0.21164736425360708,-11.056891153851547,8.0,1011.0],["RP11-648C16.1_ENSG00000244130.1",0.26198498984256363,-16.728499430881943,8.0,1011.0],["RPSAP51_ENSG00000244131.2",0.27984326137661525,-19.06275129254407,8.0,1011.0],["AP000867.14_ENSG00000248903.1",0.19603951081478868,-9.558800583322903,8.0,1011.0],["U66059.29_ENSG00000186163.5",0.28432673835377625,-19.676386990359475,8.0,1011.0],["RP5-1125N11.1_ENSG00000229607.1",0.19684379104140518,-9.633081071172077,8.0,1011.0],["RP11-370F5.4_ENSG00000203364.2",0.28466555981738784,-19.72321650422586,8.0,1011.0],["CTC-233O10.1_ENSG00000235219.1",0.3523357369225709,-30.423818194693826,8.0,1011.0],["SNORA43_ENSG00000201733.1",0.28588120127142597,-19.89176365104769,8.0,1011.0],["RP11-295J3.3_ENSG00000234016.1",0.19509391772759938,-9.47187115238372,8.0,1011.0],["OR5M12P_ENSG00000197866.2",0.3454974855600679,-29.215505736966044,8.0,1011.0],["OR5AP1P_ENSG00000254795.1",0.3450369930997491,-29.135207773499367,8.0,1011.0],["RN7SL841P_ENSG00000239555.2",0.21034140409747937,-10.92693577621014,8.0,1011.0],["RP11-438C19.1_ENSG00000250242.1",0.35233573692257103,-30.423818194693876,8.0,1011.0],["OR2C3_ENSG00000196242.6",0.18689968430963888,-8.736687555863826,8.0,1011.0],["OR5M1_ENSG00000255012.1",0.1894701780300996,-8.96382414809215,8.0,1011.0],["LINC00499_ENSG00000251372.1",0.2085496168264927,-10.75001278210524,8.0,1011.0],["RPL7P2_ENSG00000227663.1",0.2972370105053729,-21.506575948228388,8.0,1011.0],["RP11-158I3.3_ENSG00000269826.1",0.2696541501760357,-17.70958916502676,8.0,1011.0],["RBMY2DP_ENSG00000215507.6",0.20615391638581385,-10.515940535381976,8.0,1011.0],["RP11-640A1.4_ENSG00000267487.1",0.20521982263145483,-10.425442339683384,8.0,1011.0],["OR5AP2_ENSG00000172464.2",0.37228970511246073,-34.123546542697945,8.0,1011.0],["RP3-419C19.3_ENSG00000228687.1",0.32361678592502324,-25.546266435743618,8.0,1011.0],["CTD-2377D24.2_ENSG00000244559.1",0.19025709035723723,-9.03399400468776,8.0,1011.0],["CAGE1_ENSG00000164304.11",0.22335176686227415,-12.259636550166999,8.0,1011.0],["AP000688.15_ENSG00000236119.1",0.232507674843131,-13.248748739803329,8.0,1011.0],["RP11-157D23.1_ENSG00000236747.1",0.3160190991677706,-24.340614699424325,8.0,1011.0],["LINC00904_ENSG00000271649.1",0.24566262686355111,-14.745325031492586,8.0,1011.0],["RP11-226P1.2_ENSG00000258718.1",0.35233573692257103,-30.423818194693876,8.0,1011.0],["ZC3H11B_ENSG00000215817.3",0.20312677491331224,-10.224220247380156,8.0,1011.0],["RPL31P3_ENSG00000237929.1",0.2867699274193017,-20.015509492796507,8.0,1011.0],["RP11-131K5.2_ENSG00000265494.1",0.22048286089458696,-11.958462530738416,8.0,1011.0],["RP11-80N2.2_ENSG00000256157.1",0.19278002783147186,-9.260982522923848,8.0,1011.0],["RP11-583F24.5_ENSG00000255536.1",0.19255262122431632,-9.240396600629378,8.0,1011.0],["RP11-128P17.1_ENSG00000267425.1",0.3045348505182306,-22.583295289127882,8.0,1011.0],["AC125238.3_ENSG00000233031.1",0.19846323233246269,-9.783602567688913,8.0,1011.0],["RN7SL756P_ENSG00000244610.2",0.2622217319764699,-16.75830932466394,8.0,1011.0],["RN7SL346P_ENSG00000240470.2",0.2477610420159409,-14.99238610423473,8.0,1011.0]],"bottom":[["CTC-444N24.6_ENSG00000267871.1",-0.06896890974332653,-1.557543312242593,8.0,1011.0],["AC008746.5_ENSG00000235681.1",-0.07161909359657129,-1.6529742786315496,8.0,1011.0],["ARAP1-AS1_ENSG00000256007.1",-0.09171891972072009,-2.470430658716726,8.0,1011.0],["TRAPPC6B_ENSG00000182400.10",-0.07231061925111043,-1.678342691111618,8.0,1011.0],["JTB_ENSG00000143543.10",-0.06877443675001614,-1.5506520334197864,8.0,1011.0],["LRRC41_ENSG00000132128.12",-0.0848428578135891,-2.1719599765870066,8.0,1011.0],["TAZ_ENSG00000102125.11",-0.07756531414789014,-1.877464975107072,8.0,1011.0],["RPS6KB2_ENSG00000175634.10",-0.08378206788652287,-2.1276701436222565,8.0,1011.0],["MDP1_ENSG00000213920.4",-0.0815143833273015,-2.0345549876407403,8.0,1011.0],["RN7SK_ENSG00000202198.1",-0.09824028279378492,-2.7718814573581536,8.0,1011.0],["CREBZF_ENSG00000137504.9",-0.07061129280917489,-1.6163500192801121,8.0,1011.0],["CTD-2358C21.4_ENSG00000261731.2",-0.06875864636765612,-1.550093158752571,8.0,1011.0],["RBM4B_ENSG00000173914.7",-0.0778641477426642,-1.889128055096258,8.0,1011.0],["LMBRD2_ENSG00000164187.6",-0.07983315156258698,-1.966892535018615,8.0,1011.0],["SCARNA7_ENSG00000238741.1",-0.07292426777485377,-1.7010165760736007,8.0,1011.0],["None_ENSG00000273221.1",-0.07570250319157522,-1.8055864479286594,8.0,1011.0],["RP11-661A12.14_ENSG00000271912.1",-0.0809820416694905,-2.0130043338987256,8.0,1011.0],["CWC15_ENSG00000150316.7",-0.076600434744226,-1.840056831569827,8.0,1011.0],["P4HTM_ENSG00000178467.13",-0.06894406339946764,-1.556662017636965,8.0,1011.0],["HNRNPUL2_ENSG00000214753.2",-0.08312407113697556,-2.100432303850178,8.0,1011.0],["ERCC5_ENSG00000134899.13",-0.0783080960588433,-1.9065224104827112,8.0,1011.0],["ANKRD13D_ENSG00000172932.10",-0.07468273990642335,-1.7668384102293324,8.0,1011.0],["UQCRH_ENSG00000173660.7",-0.11933584077899047,-3.87184035345161,8.0,1011.0],["SPCS2_ENSG00000118363.7",-0.07311792301035407,-1.7082037310361853,8.0,1011.0],["ARV1_ENSG00000173409.9",-0.12941435847592445,-4.465920395948361,8.0,1011.0],["RP11-196G18.22_ENSG00000261716.1",-0.07193976086095596,-1.6647137694621892,8.0,1011.0],["RPPH1_ENSG00000259001.2",-0.08814992811144631,-2.313042442811998,8.0,1011.0],["ANKRD49_ENSG00000168876.4",-0.08275337052486122,-2.0851661415771807,8.0,1011.0],["RP11-658F2.8_ENSG00000258297.1",-0.07890007765665606,-1.929842765098208,8.0,1011.0],["CTD-3074O7.12_ENSG00000269990.1",-0.0723385278299811,-1.6793705778182977,8.0,1011.0]]},"para":{"top":[["TTPA_ENSG00000137561.4",0.09702509893730768,-3.007102346548136,8.0,1011.0],["XYLB_ENSG00000093217.5",0.10293072010506554,-3.290218023725899,8.0,1011.0],["RP11-431J24.2_ENSG00000238178.2",0.1112489995385397,-3.7134643206437095,8.0,1011.0],["C9orf171_ENSG00000188523.4",0.09367028444657241,-2.852673034270589,8.0,1011.0],["RP11-545E17.3_ENSG00000223478.1",0.0934615457622273,-2.843236376708788,8.0,1011.0],["FAM210A_ENSG00000177150.8",0.10026577910395619,-3.160678476487998,8.0,1011.0],["RP11-381O7.3_ENSG00000182021.5",0.090946808068751,-2.7307312101904215,8.0,1011.0],["BMX_ENSG00000102010.10",0.1019601932652812,-3.242642405852066,8.0,1011.0],["C2orf69_ENSG00000178074.5",0.0930080596184554,-2.8227569120661844,8.0,1011.0],["RSPO4_ENSG00000101282.4",0.09181970688570347,-2.769482345904285,8.0,1011.0],["RP11-476K15.1_ENSG00000266602.1",0.13077247088196992,-4.820415168640319,8.0,1011.0],["ACOT7_ENSG00000097021.15",0.09452007337831808,-2.8913682526257136,8.0,1011.0],["PRKAR2A_ENSG00000114302.11",0.09784651106644186,-3.045624136063958,8.0,1011.0],["NRBF2P2_ENSG00000226933.1",0.13182505726466123,-4.884801017167913,8.0,1011.0],["RPF2P1_ENSG00000225357.3",0.11006246456008287,-3.651382301190008,8.0,1011.0],["POMGNT2_ENSG00000144647.5",0.11357144612595539,-3.8368640014975504,8.0,1011.0],["ELOVL3_ENSG00000119915.4",0.09538483843672432,-2.93103085169924,8.0,1011.0],["HOXB13_ENSG00000159184.7",0.09576221551226836,-2.9484336133893554,8.0,1011.0],["ITGA6_ENSG00000091409.10",0.09090998628166616,-2.72910576245062,8.0,1011.0],["FYCO1_ENSG00000163820.10",0.10361099839759577,-3.323756928351573,8.0,1011.0],["MICA_ENSG00000204520.8",0.09191174718404078,-2.7735959815150046,8.0,1011.0],["CMTM7_ENSG00000153551.9",0.09841341205191236,-3.0723677093098196,8.0,1011.0],["RP11-136C24.2_ENSG00000227245.1",0.1048251783795852,-3.3839847424891327,8.0,1011.0],["RP11-77K12.4_ENSG00000203472.3",0.10016375965553072,-3.1557426994754727,8.0,1011.0],["RP11-80K21.3_ENSG00000231422.2",0.10623593718740605,-3.454818463090906,8.0,1011.0],["RP11-950K24.2_ENSG00000248885.1",0.10566790014278886,-3.426299234428861,8.0,1011.0],["AGPAT9_ENSG00000138678.6",0.09092911825991339,-2.729951599452502,8.0,1011.0],["LINC00552_ENSG00000227208.1",0.10664454149108525,-3.475576113052734,8.0,1011.0],["CTC-455F18.3_ENSG00000253966.1",0.0979436605685509,-3.050170097156707,8.0,1011.0],["NMNAT1_ENSG00000173614.9",0.09115578664317604,-2.7399841885476293,8.0,1011.0],["CDPF1_ENSG00000205643.6",0.09516266462709522,-2.9208119296678814,8.0,1011.0],["RP11-883A18.3_ENSG00000265728.1",0.11353414397550164,-3.8348330252405955,8.0,1011.0],["SPATA12_ENSG00000186451.1",0.09698705539412335,-3.0053301420417196,8.0,1011.0],["CHST6_ENSG00000183196.4",0.1028181770151844,-3.2846874310776744,8.0,1011.0],["RP11-557L19.1_ENSG00000272002.1",0.10417978027891728,-3.351834492010384,8.0,1011.0],["GPR3_ENSG00000181773.6",0.09119391365973736,-2.7416737960199105,8.0,1011.0],["MRPL48P1_ENSG00000238076.1",0.10545519104425849,-3.415521014007828,8.0,1011.0],["TUFMP1_ENSG00000265646.2",0.09362775662512135,-2.850761572430217,8.0,1011.0],["DUSP18_ENSG00000167065.9",0.09385864367140323,-2.8612386934326985,8.0,1011.0],["A2M-AS1_ENSG00000245105.1",0.09382907116484583,-2.8598934714432804,8.0,1011.0],["RP11-248B24.4_ENSG00000268295.1",0.1056595230110398,-3.4257941568697023,8.0,1011.0],["AC144836.1_ENSG00000262213.1",0.15061507374033395,-6.110503243140126,8.0,1011.0],["RP1-117O3.2_ENSG00000236065.2",0.09069068072837787,-2.7194172449331817,8.0,1011.0],["CTC-548K16.1_ENSG00000267147.1",0.11406749649894327,-3.86345694504049,8.0,1011.0],["MOCS1_ENSG00000124615.13",0.09233931110428249,-2.792710087347001,8.0,1011.0],["WDR96_ENSG00000197748.8",0.09368326139503658,-2.8532796782266168,8.0,1011.0],["ZNF280A_ENSG00000169548.3",0.09396407640782568,-2.8660137524871443,8.0,1011.0],["TEX10_ENSG00000136891.9",0.09221437103733778,-2.7871170044347555,8.0,1011.0],["RP11-27I1.4_ENSG00000214654.5",0.09349943340303242,-2.8449512062307245,8.0,1011.0],["HSP90AB2P_ENSG00000205940.7",0.09400521195886774,-2.867899387861444,8.0,1011.0],["SLC17A7_ENSG00000104888.5",0.09447732178986658,-2.889415089096544,8.0,1011.0],["IFNA13_ENSG00000233816.2",0.15968631089027796,-6.75616741777059,8.0,1011.0],["RP11-109N23.1_ENSG00000239544.1",0.157738724295829,-6.61492713684993,8.0,1011.0],["PRSS33_ENSG00000103355.8",0.10534750698542361,-3.4101963798560178,8.0,1011.0],["C2orf78_ENSG00000187833.7",0.10206552753802962,-3.247803776537442,8.0,1011.0],["GRIN2B_ENSG00000273079.1",0.12364038602671192,-4.397576776417729,8.0,1011.0],["TTYH2_ENSG00000141540.6",0.09561679124107805,-2.941722553157381,8.0,1011.0],["ZNF280B_ENSG00000198477.3",0.09396664080219833,-2.8661454467963576,8.0,1011.0],["CBWD6_ENSG00000204790.8",0.0949548713889096,-2.9112722159586757,8.0,1011.0],["NT5DC3_ENSG00000111696.7",0.09062659909234926,-2.7165945515240453,8.0,1011.0],["AC068491.3_ENSG00000223973.2",0.09392829743137103,-2.864394958729677,8.0,1011.0]],"bottom":[["RP11-24B19.4_ENSG00000269965.1",-0.07736789253196175,-2.167790820924124,8.0,1011.0],["AC004017.1_ENSG00000268948.1",-0.08280208504922601,-2.38404461235167,8.0,1011.0],["KB-1592A4.15_ENSG00000197210.7",-0.0789072207662355,-2.2278252448969655,8.0,1011.0],["GLYR1_ENSG00000140632.12",-0.07919227162248078,-2.239080570483818,8.0,1011.0],["CTC-444N24.6_ENSG00000267871.1",-0.08416735833587757,-2.440318725963172,8.0,1011.0],["TMEM79_ENSG00000163472.14",-0.07522288583425854,-2.085684131036798,8.0,1011.0],["RASA4DP_ENSG00000233297.4",-0.08048008649252955,-2.290211096320605,8.0,1011.0],["ENDOU_ENSG00000111405.4",-0.07770144323585587,-2.1807228626081816,8.0,1011.0],["SOST_ENSG00000167941.2",-0.09078794159551691,-2.7236721035107645,8.0,1011.0],["ARAP1-AS1_ENSG00000256007.1",-0.08338848182774719,-2.4081519688982267,8.0,1011.0],["ACBD6_ENSG00000135847.5",-0.07858743316680253,-2.2152972775664654,8.0,1011.0],["TRAPPC6B_ENSG00000182400.10",-0.07730198023403588,-2.165240386495779,8.0,1011.0],["HOPX_ENSG00000171476.17",-0.08133865275769277,-2.324669857952748,8.0,1011.0],["TAZ_ENSG00000102125.11",-0.08571270134916399,-2.5048693468302816,8.0,1011.0],["AHSA2_ENSG00000173209.18",-0.07832258273874337,-2.2049293132319643,8.0,1011.0],["AC078941.1_ENSG00000236780.1",-0.08820103560956914,-2.610810934931223,8.0,1011.0],["RPS6KB2_ENSG00000175634.10",-0.08249978005553096,-2.371750083609413,8.0,1011.0],["VAMP4_ENSG00000117533.10",-0.07994793717024512,-2.2690019602012055,8.0,1011.0],["MDP1_ENSG00000213920.4",-0.07509066837395587,-2.080683500977859,8.0,1011.0],["RN7SK_ENSG00000202198.1",-0.07526071060558785,-2.087115999726981,8.0,1011.0],["GTF2IRD1P1_ENSG00000230583.2",-0.08216772877629787,-2.3582266338033264,8.0,1011.0],["TSPAN32_ENSG00000064201.11",-0.07655030022619956,-2.136275478095371,8.0,1011.0],["MRPS14_ENSG00000120333.4",-0.07611160307941264,-2.1194784259454735,8.0,1011.0],["AES_ENSG00000104964.10",-0.08826458497179827,-2.613592274238052,8.0,1011.0],["CTDSP2_ENSG00000175215.5",-0.08210271629950762,-2.3555895058577256,8.0,1011.0],["CTD-2358C21.4_ENSG00000261731.2",-0.07670821960509171,-2.142339620223827,8.0,1011.0],["CDH26_ENSG00000124215.12",-0.07565233403008784,-2.1019746141233453,8.0,1011.0],["SCARNA7_ENSG00000238741.1",-0.08582045801389347,-2.5094058479232233,8.0,1011.0],["None_ENSG00000273221.1",-0.0803833355765937,-2.286346683567561,8.0,1011.0],["TAPBPL_ENSG00000139192.7",-0.07565753818329642,-2.1021726111979238,8.0,1011.0],["RP11-661A12.14_ENSG00000271912.1",-0.09191257589766462,-2.773632948994027,8.0,1011.0],["None_ENSG00000272936.1",-0.08779756876785964,-2.59345444797593,8.0,1011.0],["CWC15_ENSG00000150316.7",-0.07991054365017097,-2.267515900398129,8.0,1011.0],["C11orf89_ENSG00000184682.5",-0.08225549524978498,-2.361745579046302,8.0,1011.0],["RP11-128A17.1_ENSG00000259460.1",-0.07691397946827522,-2.1502565236835394,8.0,1011.0],["HNRNPUL2_ENSG00000214753.2",-0.08737606587252043,-2.575435724167123,8.0,1011.0],["HIST1H1D_ENSG00000124575.5",-0.08166533354004328,-2.3378611474967532,8.0,1011.0],["CSTF2T_ENSG00000177613.7",-0.07690507541909966,-2.1499188099451465,8.0,1011.0],["ERCC5_ENSG00000134899.13",-0.08467317525568548,-2.4613404075175183,8.0,1011.0],["RP11-396C23.4_ENSG00000272562.1",-0.08842310926751373,-2.62042313195876,8.0,1011.0],["ANKRD13D_ENSG00000172932.10",-0.07957018203446174,-2.254015538132315,8.0,1011.0],["CFH_ENSG00000000971.11",-0.10086317186636098,-3.1894612701641982,8.0,1011.0],["SPCS2_ENSG00000118363.7",-0.07773688764098441,-2.1821016989047948,8.0,1011.0],["ARV1_ENSG00000173409.9",-0.08507009692518169,-2.477909182658739,8.0,1011.0],["RP11-196G18.22_ENSG00000261716.1",-0.08013700595931933,-2.2765243863204474,8.0,1011.0],["GTF2IRD2B_ENSG00000174428.12",-0.08947363817828752,-2.6660315254222144,8.0,1011.0],["RPPH1_ENSG00000259001.2",-0.08920897642711427,-2.6545015167615,8.0,1011.0],["GTF2IRD2_ENSG00000196275.9",-0.080212508887011,-2.27953243414491,8.0,1011.0],["CTD-2012K14.6_ENSG00000261386.2",-0.07555110102080388,-2.098127861458574,8.0,1011.0],["ANKRD49_ENSG00000168876.4",-0.09191179669774714,-2.7735981902277587,8.0,1011.0],["INPPL1_ENSG00000165458.9",-0.08788624477103874,-2.5973054654834806,8.0,1011.0],["RCOR3_ENSG00000117625.9",-0.08123339822010454,-2.3204309268889522,8.0,1011.0],["ARAP1_ENSG00000186635.10",-0.07720759899738157,-2.161591280450961,8.0,1011.0],["RP11-477H21.2_ENSG00000269887.1",-0.07734632044708613,-2.166947956109767,8.0,1011.0]]}}}
