{"depmap_hotspot":{"corr":{"top":[["ANKS1A",0.0830513292180023,-1.2911464834102822,36.0,516.0],["C3orf72",0.11407325830482704,-2.1366278461739836,10.0,542.0],["CEBPZ",0.10853119923936258,-1.9697686714149323,26.0,526.0],["EDA",0.09733184087292271,-1.6537619553575609,8.0,544.0],["FRRS1L",0.08756163452265307,-1.4008554622677847,9.0,543.0],["GID4",0.09227934079552141,-1.5203531646766162,8.0,544.0],["LAT2",0.10016398325208724,-1.731020104084261,20.0,532.0],["MATR3",0.10917647394964453,-1.9888370283368297,27.0,525.0],["MRPS27",0.1076467444472044,-1.9437857014866653,11.0,541.0],["OR4D6",0.09128729073190713,-1.4948199050135729,20.0,532.0],["PRSS3",0.1273066118577188,-2.563607733111666,18.0,534.0],["REEP1",0.09335506292064571,-1.5482846480288885,8.0,544.0],["SNAI2",0.08928699609331986,-1.4439932274315135,12.0,540.0],["USP17L2",0.10436327721934237,-1.8488726767898398,22.0,530.0],["ZNF727",0.09483575816885638,-1.587148748447666,32.0,520.0]],"bottom":[["ACOX1",-0.13691202196923402,-2.899131135423049,21.0,531.0],["ADAMTS18",-0.14743933663149264,-3.292024163334859,63.0,489.0],["AMPD3",-0.1255906040024485,-2.5059474556792063,22.0,530.0],["ANO4",-0.1455023561164551,-3.2177393838066233,61.0,491.0],["APLP1",-0.15393168910300006,-3.547626110566498,29.0,523.0],["ARID1B",-0.14302470461642663,-3.12403433771515,77.0,475.0],["ATOH1",-0.14415362463429907,-3.1665474750294496,20.0,532.0],["BRD1",-0.13469042099337372,-2.8195939839831654,38.0,514.0],["BRF1",-0.12802749301099767,-2.5880356522598444,29.0,523.0],["C1orf87",-0.12936871443685233,-2.6338084062146514,18.0,534.0],["C4orf17",-0.13143880483727322,-2.705284466522954,11.0,541.0],["CBWD1",-0.13320942858580098,-2.7672207564311235,13.0,539.0],["CDH11",-0.1318156216130886,-2.7184036097652937,46.0,506.0],["CGNL1",-0.14246200545459284,-3.1029581456321904,58.0,494.0],["CSF1R",-0.13418733709522965,-2.801744992049574,35.0,517.0],["CXADR",-0.12588648190412585,-2.5158403197548003,11.0,541.0],["DHX8",-0.17188064678290993,-4.307997876594788,30.0,522.0],["EGFL7",-0.12833665849539905,-2.5985493644199336,8.0,544.0],["FAM135B",-0.13271388188914238,-2.749812088657122,94.0,458.0],["FAT4",-0.12708071971066814,-2.5559781213720236,141.0,411.0],["GPRC6A",-0.13033567701077856,-2.667070351052788,38.0,514.0],["GRIN2A",-0.13299518353875098,-2.7596871696231,72.0,480.0],["HAL",-0.134617139418179,-2.816990291134783,28.0,524.0],["HDAC5",-0.13795726506457284,-2.936957680434134,42.0,510.0],["HDAC9",-0.12796974171446227,-2.5860741994030625,64.0,488.0],["HYDIN",-0.13834888981121818,-2.9511971519432567,103.0,449.0],["IFFO1",-0.13876088478032245,-2.9662166679505138,27.0,525.0],["IRAK4",-0.15391876124877646,-3.5471069773525534,13.0,539.0],["KCNJ3",-0.1250445502444299,-2.4877434067732964,35.0,517.0],["KDELC2",-0.13336517598300632,-2.7727041666342016,22.0,530.0],["KEAP1",-0.1279129159994431,-2.5841449449029903,59.0,493.0],["KIR3DL2",-0.13332452428908942,-2.7712723871800957,10.0,542.0],["MAVS",-0.12512751029016592,-2.4905046070215255,17.0,535.0],["MFSD6L",-0.15448616422859027,-3.569930034093032,21.0,531.0],["MFSD9",-0.13622049284240464,-2.874247802087686,23.0,529.0],["MGEA5",-0.1273168218328535,-2.563952861575603,15.0,537.0],["MRGPRX1",-0.13146743110595357,-2.706279937069524,30.0,522.0],["NCAN",-0.12460900635204548,-2.473273289928098,54.0,498.0],["NLRP3",-0.14767365373478653,-3.301071719944163,76.0,476.0],["PCDHGB7",-0.13181689285592538,-2.7184479255742833,41.0,511.0],["PLA2G4F",-0.1280464807653318,-2.5886807189092256,26.0,526.0],["PSMD13",-0.13274868178324603,-2.7510327255449667,15.0,537.0],["PTPN21",-0.15890813986302021,-3.7504923812042947,49.0,503.0],["PURG",-0.16538952418863737,-4.023824816289526,18.0,534.0],["RFX1",-0.12817751460686022,-2.5931346031013414,27.0,525.0],["RIN2",-0.1252955414608652,-2.496102186100379,38.0,514.0],["RP1L1",-0.1326821152674325,-2.748698095824221,107.0,445.0],["SCAP",-0.14322176494663189,-3.1314332685357935,39.0,513.0],["SDC2",-0.1456765685711598,-3.224383606439971,19.0,533.0],["STK31",-0.16925709641798262,-4.191878966307474,46.0,506.0],["SULF2",-0.13162066455868277,-2.7116118678354684,32.0,520.0],["TENM3",-0.1299624028732791,-2.654204308249075,93.0,459.0],["TMEM132D",-0.14097102074642198,-3.0474788743316537,69.0,483.0],["TNFRSF11B",-0.17835403251884932,-4.601889695575903,26.0,526.0],["TTC16",-0.12415523359070096,-2.4582445366218697,33.0,519.0],["ZMAT3",-0.15320926606922936,-3.5186787559485175,15.0,537.0],["ZMYM2",-0.12642994206387742,-2.534064475390346,37.0,515.0],["ZNF831",-0.1389696734331653,-2.9738436052199213,92.0,460.0],["ZYG11B",-0.13064700935162654,-2.677826419202756,20.0,532.0]]},"para":{"top":[["C3orf72",0.11038826953656246,-2.319102766731513,10.0,542.0],["EDA",0.09703055792956114,-1.9428108325064763,8.0,544.0],["GGH",0.10695494209741917,-2.2190641833799796,20.0,532.0],["ICK",0.108308721476828,-2.2583654445954244,21.0,531.0],["MRPS27",0.1010774373220732,-2.052869135326101,11.0,541.0],["OR5M1",0.09788325950253486,-1.9660609605573391,17.0,535.0],["REEP1",0.0776244463436489,-1.464655112584416,8.0,544.0],["SNAI2",0.09585037808820722,-1.9116630300642103,12.0,540.0],["WBP1L",0.09108097760603628,-1.7878161543428988,10.0,542.0]],"bottom":[["ACP2",-0.1352598587613179,-3.12426751582973,17.0,535.0],["ARL11",-0.11068142563827879,-2.3276474105282903,8.0,544.0],["ATOH1",-0.14601357282924116,-3.5150456027998374,20.0,532.0],["ATP5F1",-0.12366279591445872,-2.731772044843315,13.0,539.0],["BARX2",-0.10081180412405476,-2.0454325894326786,9.0,543.0],["BLMH",-0.09850504189809857,-1.9824317041238124,8.0,544.0],["C12orf29",-0.1016442658311138,-2.068350710462636,8.0,544.0],["C4orf17",-0.13081088065504518,-2.969944331403141,11.0,541.0],["C8orf82",-0.11641192177697118,-2.5015354845751503,11.0,541.0],["CBWD1",-0.13678252267106997,-3.177847450350969,13.0,539.0],["CCDC134",-0.12085142589518488,-2.6411618746426737,13.0,539.0],["CHMP5",-0.09902824588693444,-1.9966035306013625,8.0,544.0],["CLDN15",-0.11124068860634287,-2.3444270699340235,10.0,542.0],["CXADR",-0.11210036911856484,-2.370186701744515,11.0,541.0],["DLEU7",-0.10238278059081428,-2.0889482573161704,9.0,543.0],["EGFL7",-0.12766177327595202,-2.8633409937359016,8.0,544.0],["FABP4",-0.11168026961696545,-2.357400892791805,8.0,544.0],["FAM173A",-0.12285035970059563,-2.7051680427742597,9.0,543.0],["GPR160",-0.11537906431114005,-2.4697499610879774,12.0,540.0],["HOXA9",-0.11678232320141067,-2.513062841877303,12.0,540.0],["IL20RB",-0.11910025345863778,-2.5852875561763486,8.0,544.0],["IRAK4",-0.15683696214189005,-3.934285960818675,13.0,539.0],["KCNK6",-0.12095312045860392,-2.6443612540111734,12.0,540.0],["KIR3DL2",-0.1306758433973361,-2.965271252415881,10.0,542.0],["LAMP2",-0.10766052851326516,-2.2391331777804195,10.0,542.0],["LL22NC03-63E9.3",-0.10820809769105469,-2.254911875023841,8.0,544.0],["LRRC23",-0.12253524128093322,-2.695055051237571,10.0,542.0],["MFSD6L",-0.15906079178750623,-4.024077150241905,21.0,531.0],["MOB3C",-0.09840991390012842,-1.9798613605665265,8.0,544.0],["MS4A12",-0.12588920262044928,-2.8046663417775104,11.0,541.0],["NDUFB10",-0.10902576679311174,-2.278888389958655,9.0,543.0],["NFKBIL1",-0.11701530425263165,-2.520112496623024,9.0,543.0],["PCBP2",-0.11196524481565619,-2.36607789317385,10.0,542.0],["PCMTD1",-0.11535437112490927,-2.468939598249646,11.0,541.0],["PDCL",-0.10574915873387043,-2.1840004983783494,9.0,543.0],["PDCL3",-0.10848714629022274,-2.2631294188040227,9.0,543.0],["PDLIM1",-0.1232129767113749,-2.7171568005151223,13.0,539.0],["POLE3",-0.10790364074542635,-2.246128720827172,9.0,543.0],["POLR3H",-0.09793427391027763,-1.967038947004699,8.0,544.0],["PPEF1",-0.1255661076889014,-2.7941536625277474,14.0,538.0],["PSMD13",-0.1339374986853221,-3.077943779624346,15.0,537.0],["PTH",-0.11128686861697874,-2.34586157780481,11.0,541.0],["PURG",-0.15042283911325743,-3.682696322713982,18.0,534.0],["SDC2",-0.1448331971998454,-3.4708637877403836,19.0,533.0],["SLC9A3R1",-0.12064212438521892,-2.63438438311533,11.0,541.0],["SYP",-0.11200786576914522,-2.3673550548328266,10.0,542.0],["TMEM134",-0.10853203133213016,-2.264440245153994,9.0,543.0],["TMEM61",-0.11463639703153863,-2.446821792649287,9.0,543.0],["TNFRSF11B",-0.17936787790735664,-4.893363367733557,26.0,526.0],["TP53I13",-0.12310757174797271,-2.713781648532379,14.0,538.0],["TPD52L2",-0.11653179751344352,-2.505032527032055,8.0,544.0],["TSSK3",-0.10139530966885114,-2.0615331067787954,9.0,543.0],["ZMAT3",-0.14386656410600376,-3.434799285611689,15.0,537.0]]}}}
{"depmap_damaging":{"corr":{"top":[["DENND3",0.09165958319256914,-1.5043765689560435,8.0,544.0],["G2E3",0.10204790110872133,-1.783403098011344,8.0,544.0],["LY75",0.11325404031129963,-2.1115218494122705,16.0,536.0],["NOTCH4",0.0901944447288517,-1.4669424855806366,14.0,538.0],["PRSS3",0.14678288879593476,-3.2667476104488467,13.0,539.0],["SV2C",0.09988142497017266,-1.7232318950220273,10.0,542.0],["TAS2R46",0.12389921889405844,-2.44978658636381,12.0,540.0],["TDRD12",0.08850132546045165,-1.4242691783671364,11.0,541.0],["TYK2",0.1053326164043683,-1.8766396869510662,8.0,544.0],["UBE3A",0.11500941949004413,-2.1655057785251985,10.0,542.0]],"bottom":[["ANKRD11",-0.11084222370593509,-2.038498297715121,26.0,526.0],["ANO4",-0.10897344813456314,-1.9828272776074316,15.0,537.0],["ARHGAP24",-0.10410223842188213,-1.8414312964642467,12.0,540.0],["ATF6",-0.10772529135721526,-1.9460860361517969,8.0,544.0],["BRF1",-0.1161754349697481,-2.201755036752237,15.0,537.0],["CAPRIN2",-0.11440686856237679,-2.1468957626258787,8.0,544.0],["CEL",-0.14033732485893513,-3.024060031251365,12.0,540.0],["COL9A1",-0.10094693949792845,-1.752694063903129,9.0,543.0],["DOCK3",-0.11634768518813658,-2.207136433335175,18.0,534.0],["FAM135B",-0.10387511480158154,-1.8349691990777168,10.0,542.0],["GALC",-0.09967434497219732,-1.7175354252742976,8.0,544.0],["GRIN2A",-0.12077834480563021,-2.3479060767934063,11.0,541.0],["L3MBTL3",-0.09813702820820365,-1.6755450044649574,14.0,538.0],["LRRK1",-0.09974008845530451,-1.71934289612826,11.0,541.0],["MRE11A",-0.10187016143511195,-1.7784270471741799,11.0,541.0],["MUC17",-0.1161419219887508,-2.2007088248399382,9.0,543.0],["NEBL",-0.09388994067797622,-1.5622678527613154,8.0,544.0],["NELL2",-0.09797443840409967,-1.6711347830921903,8.0,544.0],["RIMS1",-0.1045762790667668,-1.8549560384264419,12.0,540.0],["SPG20",-0.09269936008766194,-1.5312287820103707,10.0,542.0],["ZNF677",-0.10939687908048926,-1.995371813390093,10.0,542.0]]},"para":{"top":[["DENND3",0.09203633803612785,-1.8120873538422857,8.0,544.0],["ITPR1",0.08590058216705267,-1.6587903310241676,8.0,544.0],["LY75",0.11835292727132675,-2.5622153454229686,16.0,536.0],["NLRP6",0.0854123907919966,-1.6470570421382946,10.0,542.0],["NOTCH4",0.10398160832515992,-2.134031549357455,14.0,538.0],["PRSS3",0.13539558012822822,-3.128875633878948,13.0,539.0],["UBE3A",0.1058278275132373,-2.1863160463820255,10.0,542.0]],"bottom":[["ANO4",-0.11040841055814331,-2.319926174162159,15.0,537.0],["ARHGAP24",-0.11381988776639493,-2.4221325971059935,12.0,540.0],["BPHL",-0.10892155767583088,-2.2757560136933304,8.0,544.0],["BRF1",-0.11715597966445163,-2.5247941724090186,15.0,537.0],["CAPRIN2",-0.11415359756418955,-2.4320178499540384,8.0,544.0],["CEL",-0.14207996263990053,-3.368808627752182,12.0,540.0],["COL9A1",-0.10090157420786956,-2.047904791487155,9.0,543.0],["FAM135B",-0.10531637607136903,-2.171707026706974,10.0,542.0],["GALC",-0.10735194570932327,-2.2300456463997533,8.0,544.0],["GRIN2A",-0.13186843130710713,-3.0061627225059575,11.0,541.0],["L3MBTL3",-0.10810327152024621,-2.2521908739106404,14.0,538.0],["LRRK1",-0.11230374424396138,-2.376290653390749,11.0,541.0],["MUC17",-0.10911553687692656,-2.281521049601357,9.0,543.0],["NEBL",-0.09902824588693446,-1.9966035306013625,8.0,544.0],["NOX5",-0.11433749549792663,-2.437829434497051,11.0,541.0],["RIMS1",-0.11760089088740187,-2.5385289777771867,12.0,540.0],["SPG20",-0.10595569037370432,-2.1899772032835108,10.0,542.0],["UBR1",-0.10319602217414514,-2.111892689291284,13.0,539.0],["ZNF677",-0.11550278395524485,-2.4734393253551907,10.0,542.0]]}}}
{"ccle_rppa":{"corr":{"top":[],"bottom":[["EEF2K_eEF2K",-0.17974733439362076,-4.418953654699798,519]]},"para":{"top":[],"bottom":[["EEF2K_eEF2K",-0.16547985848188254,-3.8166919737162686,519]]}}}
{"ccle_metabolomics":{"corr":{"top":[["adipate",0.13987175268367805,-2.9094847331378624,531],["oxalate",0.19910905621261205,-5.4237513710674845,531],["3-methyladipate\/pimelate",0.17228835429450692,-4.181144048665918,531],["choline",0.19646901830908617,-5.293566234750983,531],["hexoses (HILIC pos)",0.1638173216282217,-3.824946193024484,531],["C36:4 PC-A",0.13847029108227696,-2.860019003409287,531],["C36:4 PC-B",0.19790179231839905,-5.364002898762707,531],["C38:6 PC",0.20154325319747232,-5.545331854624018,531],["C40:6 PC",0.17075559182405595,-4.115421125300529,531],["C56:6 TAG",0.1591878952952852,-3.637495617572776,531]],"bottom":[["3-phosphoglycerate",-0.15277690567374644,-3.3862429696815743,531],["alpha-ketoglutarate",-0.17639133092845444,-4.35985737788236,531],["glutathione reduced",-0.19285646880628596,-5.118238995993614,531],["NAD",-0.16984096173910251,-4.076471458974448,531],["UDP-galactose\/UDP-glucose",-0.17283218626738844,-4.2045985498759455,531],["proline",-0.1502587761525583,-3.290185169511937,531],["butyrobetaine",-0.15059316433047998,-3.3028558578340603,531],["acetylcarnitine",-0.16898111558248802,-4.0400375020830515,531],["C36:2 PC",-0.17628091123382314,-4.354994625256731,531],["C38:2 PC",-0.18535023998908667,-4.764266648567201,531],["C16:1 SM",-0.16274933343822773,-3.781252018857885,531],["C22:0 SM",-0.1983938077626012,-5.3883091421834965,531],["C24:1 SM",-0.17410641968514198,-4.2598327355600905,531],["C36:2 DAG",-0.17654648588090918,-4.366695201498326,531]]},"para":{"top":[["adipate",0.1461636237644767,-3.1371166952857434,531],["oxalate",0.19951477238028947,-5.4439124650572985,531],["3-methyladipate\/pimelate",0.16916023013262205,-4.047612468875063,531],["choline",0.1769057979327951,-4.3825527816015075,531],["C36:4 PC-A",0.14974893605981468,-3.270916284196662,531],["C38:6 PC",0.20075144568252767,-5.505620458194741,531],["C38:5 PC",0.15939454904466635,-3.6457552657391887,531],["C40:6 PC",0.17959155536847382,-4.502074714672948,531],["C56:6 TAG",0.15943397582875643,-3.6473322404860644,531],["C58:8 TAG",0.15152877337880463,-3.3384464024803218,531],["C58:6 TAG",0.1382442899885883,-2.8520841513044983,531]],"bottom":[["3-phosphoglycerate",-0.15276785774988835,-3.385895176222965,531],["alpha-ketoglutarate",-0.1917690295762503,-5.066096904873881,531],["glutathione reduced",-0.19410776801520496,-5.178600898280102,531],["NAD",-0.16891469965003106,-4.037230644014937,531],["UDP-galactose\/UDP-glucose",-0.17067800856492477,-4.112109446099219,531],["butyrobetaine",-0.13992400367824342,-2.911337664115983,531],["acetylcarnitine",-0.1501546077409957,-3.2862433176965404,531],["C36:2 PC",-0.16938462583249192,-4.057113261946794,531],["C38:2 PC",-0.16169406909003564,-3.738343916079076,531],["C16:1 SM",-0.1471223603411535,-3.1726038744038005,531],["C22:0 SM",-0.18335550148939894,-4.6725298508139765,531],["C36:2 DAG",-0.18300594976489207,-4.6565544028371555,531]]}}}
{"ccle_rrbs_enhancer_clusters":{"corr":{"top":[["10-131691967-131694848-2_enh",0.16617783052741825,-3.5278169363364236,470]],"bottom":[["2-237069364-237073848-0_enh",-0.1607003397533054,-3.3706491901422586,477],["12-115122394-115127300-2_enh",-0.15788761296419757,-3.1748472731009243,461],["2-236963728-236966857-0_enh",-0.22138782327887835,-5.70907373868984,453]]},"para":{"top":[["12-103407087-103410290-0_enh",0.1912445176358138,-4.582754952562476,477]],"bottom":[["2-237069364-237073848-0_enh",-0.15919969985223362,-3.3162537224550652,477],["1-88927652-88930508-2_enh",-0.24333497333659362,-3.782185262795989,235],["10-77019198-77022022-1_enh",-0.1773512495847195,-3.9181210560653357,465],["10-77165102-77167639-0_enh",-0.1440360870017213,-2.7485042419397043,468]]}}}
{"ccle_mirna":{"corr":{"top":[["hsa-miR-195_miR00216.1",0.14767517260427337,-3.1777172628396104,528],["hsa-miR-329_miR00305.1",0.18768239752019228,-4.8482667689755665,528],["hsa-miR-337-3p_miR00311.1",0.14472144443186236,-3.0692695388111355,528],["hsa-miR-362-5p_miR00331.1",0.16377545161910814,-3.804411716499984,528],["hsa-miR-381_miR00352.1",0.15228716794990454,-3.3510709382151505,528],["hsa-miR-487b_miR00391.1",0.16056969784719988,-3.6747992471803794,528],["hsa-miR-532-3p_miR00471.1",0.176641378195654,-4.349110189512955,528],["hsa-miR-532-5p_miR00472.1",0.16647528449780669,-3.9154498273323197,528],["hsa-miR-543_miR00477.1",0.14663067591522377,-3.1391388093070596,528]],"bottom":[["hsa-miR-27a_miR00265.1",-0.15794888918032923,-3.5706303339232908,528]]},"para":{"top":[["hsa-miR-1976_miR00692.1",0.14385520330217288,-3.0378448023654814,528],["hsa-miR-329_miR00305.1",0.1563173652174354,-3.5065942104496117,528]],"bottom":[]}}}
{"prism_primary_logfold":{"corr":{"top":[["ixazomib_BRD-K78659596-001-03-9::2.5::HTS",0.6409959274139183,-65.04595941959525,557],["nemorubicin_BRD-K51911221-001-01-2::2.5::HTS",0.7211654764028133,-90.92332692619844,564],["peruvoside_BRD-A72716251-001-01-5::0.91::HTS",0.6563727363636006,-70.19000621766048,565],["sparfloxacin_BRD-K07612980-001-05-3::2.59::HTS",0.743558934295754,-93.26917146885228,528],["BGT226_BRD-K29415052-050-04-8::2.5::HTS",0.6806380778286725,-77.24511469440625,564],["KPT-185_BRD-K71467466-001-02-3::2.5::HTS",0.7531851574017381,-103.57867303360092,564],["idarubicin_BRD-K69650333-003-14-0::2.5::HTS",0.814841170515065,-134.7081396638124,565],["romidepsin_BRD-K61397605-001-03-4::2.5::HTS",0.7414658837534472,-98.20820647913447,561],["ixazomib-citrate_BRD-A66419424-001-02-4::2.5::HTS",0.7338790781271808,-94.54954547065608,557],["halofuginone_BRD-K54247840-004-01-3::2.5::HTS",0.6560971813455808,-68.7632767130691,554],["genz-644282_BRD-K99475619-001-01-2::2.5::HTS",0.6448790301531474,-65.72296080396622,554],["daunorubicin_BRD-K43389675-003-20-9::2.5::HTS",0.7139722118123791,-87.85622753181661,561],["R306465_BRD-K86687746-001-01-3::2.5::HTS",0.6642904674293107,-71.06735862298247,554],["filanesib_BRD-K37379014-001-01-2::2.5::HTS",0.7518578404275613,-103.19709545677374,565],["oprozomib_BRD-A36331462-001-02-1::2.5::HTS",0.6347773718681365,-63.42964939567281,557],["YM-155_BRD-K76703230-004-03-3::2.5::HTS",0.6530808177119363,-68.65982542118175,560]],"bottom":[["BMY-14802_BRD-A15435692-003-02-3::2.5::HTS",-0.14556398939861864,-3.285000484203115,565],["PNU-120596_BRD-K71731651-001-04-3::2.5::HTS",-0.14511801302911137,-3.213041358435434,554]]},"para":{"top":[["ixazomib_BRD-K78659596-001-03-9::2.5::HTS",0.6641178069891234,-71.39816397786574,557],["delanzomib_BRD-K59325863-001-03-6::2.46::HTS",0.6505028724290104,-64.11437015785069,528],["peruvoside_BRD-A72716251-001-01-5::0.91::HTS",0.6746592890612515,-75.54494471460833,565],["nemorubicin_BRD-K51911221-001-01-2::2.5::HTS",0.7185719592791419,-89.97594996949377,564],["BGT226_BRD-K29415052-050-04-8::2.5::HTS",0.6778858307002869,-76.3961806054632,564],["sparfloxacin_BRD-K07612980-001-05-3::2.59::HTS",0.7433150248754061,-93.17642323058621,528],["KPT-185_BRD-K71467466-001-02-3::2.5::HTS",0.7460737515414373,-100.60409365500429,564],["romidepsin_BRD-K61397605-001-03-4::2.5::HTS",0.7353081822361353,-95.77734654798188,561],["ixazomib-citrate_BRD-A66419424-001-02-4::2.5::HTS",0.7517064488102198,-101.68362009581071,557],["idarubicin_BRD-K69650333-003-14-0::2.5::HTS",0.8131237012922103,-133.69421965418454,565],["halofuginone_BRD-K54247840-004-01-3::2.5::HTS",0.6711668887069479,-73.058287407394,554],["genz-644282_BRD-K99475619-001-01-2::2.5::HTS",0.6657914408401877,-71.4974017876261,554],["daunorubicin_BRD-K43389675-003-20-9::2.5::HTS",0.7245518053746317,-91.69055621704902,561],["R306465_BRD-K86687746-001-01-3::2.5::HTS",0.6739253021629132,-73.87209885483402,554],["filanesib_BRD-K37379014-001-01-2::2.5::HTS",0.7532550003412973,-103.79072791117518,565],["YM-155_BRD-K76703230-004-03-3::2.5::HTS",0.6585031634327941,-70.17540261497419,560]],"bottom":[["BMY-14802_BRD-A15435692-003-02-3::2.5::HTS",-0.15868924297343154,-3.8179717591325675,565],["tulobuterol_BRD-A37441042-003-04-8::2.5::HTS",-0.1490138591455957,-3.4000690027313434,561],["pyrantel_BRD-K82118441-001-03-7::2.646883368::MTS004",-0.14656336111791157,-3.2026005042604275,541],["PNU-120596_BRD-K71731651-001-04-3::2.5::HTS",-0.15697177630613796,-3.6823735491877816,554]]}}}
{"prism_secondary_logfold":{"corr":{"top":[["D-64131_BRD-K26997899-001-02-2::10::HTS002",0.5465374196523162,-36.84458376640812,465],["PF-477736_BRD-K03063480-001-06-6::9.67782::HTS002",0.394900717622324,-15.017757985273661,383],["alvespimycin_BRD-K83988098-003-03-4::10::HTS002",0.4210540142824441,-21.19355027839528,477],["aminoglutethimide_BRD-A25234499-001-18-3::10::HTS002",0.544362144634714,-37.04068354771933,472],["trimebutine_BRD-A92630576-050-24-1::10::HTS002",0.37429441663688756,-15.652884284829215,449],["ecamsule-triethanolamine_BRD-A47953250-001-01-7::0.00976562::HTS002",0.376343938895759,-14.145761587099352,399],["BIBX-1382_BRD-K70914287-300-02-8::10::HTS002",0.5648550974342604,-39.73657341954159,464],["proscillaridin-a_BRD-A11815689-001-01-1::2.5::HTS002",0.37183985326834623,-11.994369795827815,344]],"bottom":[["carfilzomib_BRD-K15179879-001-03-2::2.5::HTS002",-0.1979577992558822,-4.026249372478841,384],["omeprazole_BRD-A55962179-001-22-1::0.00061034::HTS002",-0.18537000900429154,-3.4393227319970694,366],["alogliptin_BRD-K83003151-057-02-4::0.00916982::HTS002",-0.20709944404513164,-4.5145842250515695,399],["brivaracetam_BRD-K00634421-001-01-0::0.000610352::MTS006",-0.18226021849226634,-4.158705818462198,471],["brivaracetam_BRD-K00634421-001-01-0::0.039062503::MTS006",-0.18061201101479143,-4.092174282277987,471],["ecamsule-triethanolamine_BRD-A47953250-001-01-7::0.00061034::HTS002",-0.18237107696077431,-3.601938088116101,399]]},"para":{"top":[["mefexamide_BRD-K20655524-003-12-0::10::HTS002",0.3847743035412827,-17.16604301667712,466],["D-64131_BRD-K26997899-001-02-2::10::HTS002",0.5307307401391735,-34.42001868485554,465],["PF-477736_BRD-K03063480-001-06-6::9.67782::HTS002",0.3722595015950993,-13.307714798785124,383],["alvespimycin_BRD-K83988098-003-03-4::10::HTS002",0.41205482393624077,-20.24869131966472,477],["aminoglutethimide_BRD-A25234499-001-18-3::10::HTS002",0.5424575576489775,-36.73940208667114,472],["trimebutine_BRD-A92630576-050-24-1::10::HTS002",0.36583441162520486,-14.939029562163299,449],["BIBX-1382_BRD-K70914287-300-02-8::10::HTS002",0.5486362264356957,-37.09806524386144,464],["proscillaridin-a_BRD-A11815689-001-01-1::2.5::HTS002",0.40511914827024137,-14.292704957296195,344]],"bottom":[["carfilzomib_BRD-K15179879-001-03-2::2.5::HTS002",-0.20112302960462275,-4.141561714009512,384],["CD-437_BRD-K28907958-001-04-3::0.00976562::HTS002",-0.19472515949898095,-4.6721068801647725,470],["omeprazole_BRD-A55962179-001-22-1::0.00061034::HTS002",-0.18163790980264652,-3.3195187531249504,366],["brivaracetam_BRD-K00634421-001-01-0::0.000610352::MTS006",-0.1923285536802293,-4.577888275398381,471],["brivaracetam_BRD-K00634421-001-01-0::0.039062503::MTS006",-0.18911728611678003,-4.4417982171731865,471],["mozavaptan_BRD-A31095847-001-02-3::0.039062502::MTS006",-0.17373543821073031,-3.820877491138814,471],["ecamsule-triethanolamine_BRD-A47953250-001-01-7::0.00061034::HTS002",-0.19263441212907637,-3.967013312252422,399]]}}}
{"ccle_proteomics":{"corr":{"top":[["RAD17_O75943",0.20848952485830605,-3.0402446353249704,250]],"bottom":[]},"para":{"top":[["HAAO_P46952",0.31982484967906794,-3.2060797402761803,111],["RAD17_O75943",0.19950436155687315,-2.8177501225839405,250],["PROM1_O43490",0.2690865332499309,-2.439120860517888,115]],"bottom":[["IRF4_Q15306",-0.2382014686985913,-2.54684808522667,155],["STK3_Q13188",-0.20712343854582638,-3.2518709601713613,274]]}}}
{"depmap_copy_number":{"corr":{"top":[["RINL_126432",0.17434964876419218,-4.4117868418913835,551],["CCER2_643669",0.17434964876419218,-4.4117868418913835,551],["SNORD175_109623469",0.17514309879893275,-4.447672639736265,551],["MAP3K10_4294",0.1769833784453323,-4.531512203243058,551],["DLL3_10683",0.17514309879893275,-4.447672639736265,551],["C19orf47_126526",0.17454536749130667,-4.420624056414214,551],["HNRNPL_3191",0.17434964876419218,-4.4117868418913835,551],["SUPT5H_6829",0.17641638812336544,-4.505590536066056,551],["SIRT2_22933",0.17434964876419218,-4.4117868418913835,551],["RPS16_6217",0.17724368866300286,-4.543440148389413,551],["ECH1_1891",0.17434964876419218,-4.4117868418913835,551],["SARS2_54938",0.1774832480816027,-4.554432315968345,551],["NFKBIB_4793",0.17434964876419218,-4.4117868418913835,551],["PLEKHG2_64857",0.17782646096248808,-4.570205791349051,551],["CLC_1178",0.1739249045732552,-4.3926415382005874,551],["TIMM50_92609",0.17514309879893275,-4.447672639736265,551]],"bottom":[["DDX19A_55308",-0.15085294574029703,-3.4197954327204845,551],["LOC100506083_100506083",-0.15085294574029703,-3.4197954327204845,551]]},"para":{"top":[],"bottom":[["LOC400541_400541",-0.16232764097143565,-3.8872557761525015,551],["SPATA2L_124044",-0.1461097060125001,-3.23590185426346,551],["EXOSC6_118460",-0.14602800032420768,-3.2327816252063695,551],["VPS9D1-AS1_100128881",-0.14520207724473272,-3.201330755231211,551],["VPS9D1_9605",-0.1461097060125001,-3.23590185426346,551],["ZNF276_92822",-0.14284231418367038,-3.112372925228478,551],["SPIRE2_84501",-0.1490259051356203,-3.3483192588138904,551],["SMG1P7_100506060",-0.14602800032420768,-3.2327816252063695,551],["TCF25_22980",-0.1500094295856992,-3.3866957580750876,551],["FANCA_2175",-0.15060291049153518,-3.4099660760369033,551]]}}}
{"depmap_gene_tpm":{"corr":{"top":[["ATP1A3_478",0.20486936852504625,-5.907567764272377,551],["RALGPS1_9649",0.22802351800567014,-7.2048156109677475,551],["HIST2H2BF_440689",0.19923146095467198,-5.613184262904398,551],["KCNC1_3746",0.1993681514287689,-5.620223481630472,551],["MAPK8IP2_23542",0.20716128298198036,-6.029620102845541,551],["RASA4B_100271927",0.20216589178044295,-5.7653694538792655,551],["PAX5_5079",0.21006783881584398,-6.186393884818121,551],["BSN_8927",0.21500171383020197,-6.45763797854181,551],["LPIN2_9663",0.22302455676484237,-6.912575964719485,551],["ANKRD12_23253",0.20491096904534595,-5.90977084066712,551]],"bottom":[["MYO10_4651",-0.17817245585076266,-4.586137151938049,551],["EIF2S2_8894",-0.1661322618178539,-4.049377018865622,551]]},"para":{"top":[["MRVI1_10335",0.19046002741277782,-5.171594348182796,551],["RAB37_326624",0.20531790690012008,-5.931345365877193,551],["TTBK1_84630",0.20743145335616855,-6.044098632145245,551],["ACTL6B_51412",0.1870053482656431,-5.003106462293659,551],["SEZ6L_23544",0.19350564645070717,-5.322672053702222,551],["LPIN2_9663",0.21251395285911065,-6.320063345823386,551],["ZNF660_285349",0.19510867210046007,-5.403150019781069,551],["SATL1_340562",0.21508959353979476,-6.462527902949017,551],["LIPJ_142910",0.18905352608216205,-5.102629198118702,551]],"bottom":[["EIF2S2_8894",-0.15853633560969901,-3.7292461357985736,551]]}}}
{"avana":{"corr":{"top":[["UXS1_80146",0.20887014559628,-4.49259754843886,390],["LAMTOR4_389541",0.17299069348568766,-3.221234023028863,390],["APLF_200558",0.1796995698477615,-3.441496946640927,390]],"bottom":[["IMPA1_3612",-0.2094870105755339,-4.516496601636663,390],["IRGM_345611",-0.17701241968065512,-3.352325518987022,390],["WDR37_22884",-0.17420465117906966,-3.260505821122242,390],["INTS8_55656",-0.1844706538657458,-3.602963085482629,390],["CFAP73_387885",-0.1806936122557871,-3.4748059582029436,390],["ACTR8_93973",-0.1773377031584681,-3.340750300915612,387],["FKBP3_2287",-0.1717901530281375,-3.18264914206254,390],["VAMP2_6844",-0.17716025064444244,-3.3571981941042712,390],["RPGR_6103",-0.1972012167720594,-3.8436590207260757,367]]},"para":{"top":[["UGP2_7360",0.18125598170092713,-3.4937274659947253,390],["UXS1_80146",0.22141572189285985,-4.992571438274598,390],["CCDC146_57639",0.18398686075472073,-3.586406502731542,390],["LAMTOR4_389541",0.16569392381444298,-2.9905819085489203,390],["NMBR_4829",0.16717241956923395,-3.0365721600758313,390],["IAPP_3375",0.16851112798839193,-3.0785401314532255,390],["CLDN19_149461",0.17609898478304847,-3.3223027443925797,390],["APLF_200558",0.18517341631871634,-3.627087416396318,390],["PPP1R17_10842",0.18185512879938087,-3.513947903237613,390]],"bottom":[["IMPA1_3612",-0.18967957284821654,-3.7838657216353018,390],["MEFV_4210",-0.17452037219574676,-3.2707616559710977,390],["WDR37_22884",-0.19772899375368874,-4.072990783331466,390],["TMED7_51014",-0.17322577352928276,-3.228818825004936,390],["ACTR8_93973",-0.17386835439990572,-3.228124009808942,387],["OR52B2_255725",-0.19590961465411177,-4.006617997698029,390],["FAM50A_9130",-0.18387509887401762,-3.399051821847925,367],["HOXA3_3200",-0.18635048813282246,-3.6676905980189973,390],["SRRM4_84530",-0.17900683493611927,-3.418387374389582,390],["CSPP1_79848",-0.1709090806103866,-3.1544915487267358,390]]}}}
{"drive":{"corr":{"top":[["CYP2B7P_1556",0.20631097334250742,-3.351245773740976,286],["ZKSCAN4_387032",0.187109933023817,-2.8633149468906747,290],["HRASLS_57110",0.2064665799416645,-3.355670583602012,286]],"bottom":[["RACGAP1_29127",-0.24010946872302052,-4.403144410717072,287],["GSTM2_2946",-0.19450461477719114,-3.070041668579714,291],["CXADR_1525",-0.2680149390424468,-5.3849724597035165,287],["ARHGAP31_57514",-0.19753320685111977,-3.116149209845029,287]]},"para":{"top":[["CYP2B7P_1556",0.20827911375141284,-3.4074494416098786,286],["TFRC_7037",0.20091212482260815,-3.3245720720849623,299],["KCTD4_386618",0.22307122207772925,-3.858319800207285,287],["HRASLS_57110",0.20757654198735442,-3.3873269577695826,286]],"bottom":[["CCL2_6347",-0.18584621175458682,-2.8302479607021955,290],["GSTM2_2946",-0.19152360292955709,-2.989216312333474,291],["ARHGAP31_57514",-0.1995435195191176,-3.1714076804198403,287],["APTX_54840",-0.18603786136620898,-2.810342220389819,287],["CXADR_1525",-0.2579386910194946,-5.017355698988375,287],["HSD11B1_3290",-0.1839810270645073,-2.7574353332535124,287],["ARHGEF15_22899",-0.18509957618836284,-2.8108092631762442,290],["IGSF3_3321",-0.18952473509050158,-2.9012831430412573,287]]}}}
{"achilles":{"corr":{"top":[["YWHAB_7529",0.2294442062626142,-4.218774620722296,300],["SGMS1_259230",0.23021934329537366,-2.700830245895817,178],["WDR27_253769",0.2699055868939724,-3.570277749195971,178],["SEZ6_124925",0.3155699369840708,-4.749348722468441,178],["STC2_8614",0.25535813839473626,-3.2354717013748524,178],["NOC4L_79050",0.23693385086583077,-2.8382990787674762,178],["RABAC1_10567",0.25139486195180594,-3.14753153588976,178]],"bottom":[["IGFL1_374918",-0.2194805374230986,-2.488869964327251,178],["SPSB2_84727",-0.2880307893415496,-4.014498640096291,178],["LOC728554&THOC3_728554&84321",-0.21028953904012848,-3.612169483094813,300],["SUN2_25777",-0.2170303658310721,-2.4418543761127816,178],["TOP3A_7156",-0.21281180759458124,-3.689053156287963,300],["VHLL_391104",-0.21825359310866926,-3.8580021984861905,300],["BANK1_55024",-0.2683746608403715,-3.5341447230464618,178]]},"para":{"top":[["SGMS1_259230",0.21780939968626845,-2.4567492276247838,178],["SPDYE18&SPDYE16_100505767&102723555",0.2393195811149509,-2.88806949375701,178],["WDR27_253769",0.2827429224368953,-3.881740478474204,178],["SEZ6_124925",0.3283467599508046,-5.11586099543689,178],["EXO5_64789",0.2216454619493688,-2.530825814824007,178],["PRAMEF8&PRAMEF7_391002&441871",0.25290608602397646,-3.1809001768226137,178],["STC2_8614",0.27833396991045867,-3.773050480587474,178],["ESF1_51575",0.2146433427459478,-2.3965266690527915,178]],"bottom":[["SPSB2_84727",-0.2509365108919685,-3.1374506257259163,178],["SORBS3_10174",-0.2235866942433644,-2.5687779889658153,178],["CEP70_80321",-0.21108534665806247,-2.3298309089185647,178],["ARL5A_26225",-0.21646290051739114,-2.431036151907814,178],["RASSF1_11186",-0.2112299931676855,-3.640731305920378,300]]}}}
{"ccle_rrbs_tss1kb":{"corr":{"top":[["TFG_3_100427174_100428174",0.17193147840738882,-3.7305855291272167,468],["TFG_3_100427133_100428133",0.16983792181805046,-3.651275681797358,468],["GRM4_6_34078540_34079540",0.17866373129943922,-4.029203139233988,473],["WASF2_1_27816698_27817698",0.17332621790857722,-3.819124448049555,473],["FCHO2_5_72250807_72251807",0.17870720691094308,-4.030939400163687,473],["ARID1A_1_27021523_27022523",0.16514967406175515,-3.5026689726076117,472],["TFG_3_100427385_100428385",0.16937889851611837,-3.6542126239674624,471]],"bottom":[["MARCH10_17_60885742_60886742",-0.21151240691921352,-5.407177068620727,468],["PLEKHG6_12_6418601_6419601",-0.2242775993242326,-6.033355158717252,469],["NCMAP_1_24881566_24882566",-0.21235776313997234,-5.467636793515049,470],["PPP1R3C_10_93392858_93393858",-0.20163737495497439,-4.99461643342865,472],["MARC1_1_220959038_220960038",-0.20687942903279471,-4.994480540145979,448],["LOC100506985_1_24882515_24883515",-0.20531439734724322,-5.151345587247591,471],["MIR10A_17_46657309_46658309",-0.2478727619759601,-3.6165438040847984,215],["PLEKHG6_12_6419098_6420098",-0.22985648688616472,-6.350831247366443,472],["ARMC3_10_23215952_23216952",-0.2858352688695173,-3.129133873525782,136]]},"para":{"top":[["TFG_3_100427174_100428174",0.1605825799243287,-3.311646976890482,468],["TFG_3_100427133_100428133",0.1605563637277121,-3.3107102739430916,468],["LRRC28_15_99790566_99791566",0.18915962865490749,-3.824448187740478,397],["RNF38_9_36401195_36402195",0.154566134138997,-3.083423527154751,465],["SLC35D2_9_99145992_99146992",0.1658081009826963,-3.1768181471077535,418],["TNFSF9_19_6530009_6531009",0.15867705778493163,-3.2082398291883467,462],["SLC35B4_7_134001827_134002827",0.16254995910833656,-3.257666791885116,448]],"bottom":[["NT5DC2_3_52569093_52570093",-0.2677804329895001,-2.4365872616278383,116],["MFSD2B_2_24231956_24232956",-0.20058666546276158,-4.7886658779169125,455],["PLEKHG6_12_6418601_6419601",-0.2316680986606797,-6.406904776317328,469],["LETM2_8_38242993_38243993",-0.20321403878119473,-2.519467617477024,211],["NCMAP_1_24881566_24882566",-0.21407384147589523,-5.5487707435701115,470],["PPP1R3C_10_93392858_93393858",-0.2088157277780789,-5.3224866921055085,472],["TUBB2B_6_3227968_3228968",-0.20203430255742216,-5.002971334003034,471],["LOC100506985_1_24882515_24883515",-0.20010018190996073,-4.916602935399121,471],["LRRC43_12_122666666_122667666",-0.1971214894464335,-4.712947015226334,463],["MIR10A_17_46657309_46658309",-0.23695480661865598,-3.3391908675214794,215],["ARMC3_10_23215952_23216952",-0.28820896750471525,-3.1754611420215535,136]]}}}
{"ccle_gene_tpm":{"corr":{"top":[["LINC00654_ENSG00000205181.5",0.21966457027550812,-6.631043514384041,543],["LPIN2_ENSG00000101577.5",0.22530468304185178,-6.951535160674553,543],["ZNF629_ENSG00000102870.4",0.20809303410641977,-5.999764024869884,543],["C1orf229_ENSG00000221953.2",0.22907706530700028,-7.17062924269346,543],["FAM226B_ENSG00000269911.1",0.22095142430607959,-6.703423643663727,543],["BSN_ENSG00000164061.4",0.21669896074365297,-6.465906734021989,543],["ATP1A3_ENSG00000105409.11",0.21117044425251175,-6.164230034311593,543],["ANKRD12_ENSG00000101745.11",0.2091348583284342,-6.0551662412652165,543],["RP11-936I5.1_ENSG00000266998.1",0.22597158014048274,-6.9899904700545115,543],["NMD3P1_ENSG00000226342.1",0.20851722799220654,-6.022287794343743,543],["RP5-961K14.1_ENSG00000232842.2",0.20718600182576866,-5.951759353872629,543]],"bottom":[["S100A11_ENSG00000163191.5",-0.1711513244087053,-4.214203038555034,543],["EIF2S2_ENSG00000125977.6",-0.1642127891585201,-3.916790082828876,543],["MYO10_ENSG00000145555.10",-0.18271775431580153,-4.73633200462839,543]]},"para":{"top":[["LPIN2_ENSG00000101577.5",0.21623810127557994,-6.440452396266183,543],["LINC00654_ENSG00000205181.5",0.22603979906071683,-6.993930877122997,543],["POM121L10P_ENSG00000224124.2",0.19522973660823462,-5.338805505337655,543],["TTBK1_ENSG00000146216.7",0.19724723564869576,-5.439664076146978,543],["FAM226B_ENSG00000269911.1",0.2052153411033097,-5.848197158124048,543],["RAB37_ENSG00000172794.15",0.2013954807829342,-5.650312694260788,543],["BZRAP1-AS1_ENSG00000265148.1",0.19434664279463543,-5.294984303383269,543],["MAPK8IP2_ENSG00000008735.10",0.19322446272979676,-5.239585164501289,543],["RP5-961K14.1_ENSG00000232842.2",0.2026814817190479,-5.716512926422457,543],["ZNF660_ENSG00000144792.5",0.20535877129414273,-5.855700784460803,543]],"bottom":[["RP11-107M16.2_ENSG00000236427.1",-0.1637744251774227,-3.898394405776069,543],["XIRP2-AS1_ENSG00000254552.1",-0.15757022635999635,-3.6430307390131174,543],["OR8Q1P_ENSG00000255341.1",-0.15612399864351306,-3.5848390671032844,543],["C3orf65_ENSG00000163915.3",-0.1981884081801177,-5.48707049595952,543],["RP1-292B18.4_ENSG00000223598.1",-0.1573643801462223,-3.6347174274751586,543],["EIF2S2_ENSG00000125977.6",-0.156067395248744,-3.5825717469354585,543]]}}}
{"ccle_rrbs_tss_clusters":{"corr":{"top":[["ZNF556_2",0.20745899909414978,-3.055491884325794,254],["OSBPL1A_4",0.28225108672721955,-4.232109179017301,197],["MIR6127_1",0.23999548350477842,-3.9091406458333045,251],["ADAM9_2",0.21825633901059469,-5.650007582780275,461]],"bottom":[["TUBB2B_3",-0.22879571857463943,-4.566538778171266,330],["IL1RAP_1",-0.2439001145828637,-3.8968765251753523,242],["NANOS1_2",-0.23860651717744283,-6.083265300036338,417],["PRELID3A_6",-0.24952061316719384,-7.419425033828157,473],["MMP27_1",-0.28273092033617914,-7.670577050150161,379],["MIR10A_2",-0.2632724639547153,-4.078915474999304,218],["CYB561_1",-0.24384990590899297,-7.16033150755295,477],["HPCAL1_8",-0.24581279288671237,-7.1153948930431365,466],["LOC102724927_1",-0.27586834982950414,-2.677630165794638,122],["CYB561_9",-0.2307223878513878,-6.456876794215969,477]]},"para":{"top":[["SP2-AS1_2",0.23037060480070648,-2.9352755346962267,196],["ZNF556_2",0.21994567017222524,-3.383680212773143,254],["LOC101927284_1",0.2648512031662516,-2.942400533845028,148],["BCL2L13_8",0.23793993865795987,-4.023921356475125,264],["MIR6127_1",0.22142366252156356,-3.3887142186184556,251]],"bottom":[["TRIM46_5",-0.2930381393639189,-2.702021458790279,109],["NT5DC2_5",-0.27249845840811,-2.5660810365513504,119],["SSPN_2",-0.22807778961099126,-4.051063283876486,290],["ZNF428_2",-0.24752616638701688,-3.048213276152755,177],["MMP27_1",-0.2220263095121629,-4.891178297208562,379],["MIR10A_2",-0.24960573201766179,-3.70634333600572,218],["PLEKHG6_4",-0.2232614420377559,-6.017579572286366,472],["LOC101928058_2",-0.21742555596558732,-5.610603705662927,461],["ARMC3_2",-0.2788935450552172,-3.0149338544618565,137]]}}}
{"ccle_rrbs_cgi_clusters":{"corr":{"top":[["10_131635098_131639310-1",0.24239756109440252,-5.196483908486374,339],["11_131558356_131562559-3",0.2966692380996085,-4.300425275066555,181],["8_38854408_38857116-3",0.23177643286202118,-5.852400284528032,424]],"bottom":[["4_132657282_132661678-1",-0.30998868613257047,-2.817850867056801,102],["18_12418135_12422863-3",-0.24952061316719384,-7.419425033828157,473],["5_42998343_43002791-1",-0.2658408669512343,-4.921516010369306,264],["17_61512752_61517386-2",-0.2542490334826922,-7.7320730802001885,476],["17_46656948_46659476-1",-0.2632724639547153,-4.078915474999304,218],["20_825771_828276-3",-0.259438881083158,-3.811785915081081,208],["3_195359819_195364095-3",-0.3005830889814133,-2.8032207698533864,108],["17_66594072_66596825-3",-0.27024083282516187,-3.4727256456315754,172],["16_112079_115162-1",-0.2532119603592362,-7.657681154465455,475]]},"para":{"top":[["10_131635098_131639310-1",0.2277380971305048,-4.637873707088084,339],["11_131558356_131562559-3",0.2879621278916801,-4.0724571713315365,181],["15_40224210_40228631-3",0.1992819051489321,-3.990414459643924,375]],"bottom":[["19_44121485_44126244-2",-0.24752616638701688,-3.048213276152755,177],["17_46087636_46091851-1",-0.2383806788117935,-6.849128246315471,476],["5_42998343_43002791-1",-0.2712346520743706,-5.107109707172922,264],["18_13798999_13803223-2",-0.24861428036288846,-3.9744203977603996,238],["7_1968627_1972924-3",-0.24906995228206028,-6.690304411823969,424],["3_52568475_52572842-2",-0.27249845840811,-2.5660810365513504,119],["21_36396960_36401259-3",-0.2559989943780785,-5.655335594584991,333],["1_155145185_155149444-2",-0.2930381393639189,-2.702021458790279,109],["1_88926283_88930760-3",-0.24333497333659368,-3.7821852627959904,235],["17_46656948_46659476-1",-0.24960573201766179,-3.70634333600572,218],["17_66594072_66596825-3",-0.25836915619698075,-3.2065735104341058,172]]}}}
