{"depmap_hotspot":{"corr":{"top":[["ACTL9",0.13198314371496211,-2.7408603786205035,24.0,532.0],["ANXA2",0.11905197721323478,-2.306231242630203,17.0,539.0],["BET1L",0.12395591813986673,-2.4664365963386747,8.0,548.0],["CASP4",0.12321987605605296,-2.4420326318503314,15.0,541.0],["CSGALNACT1",0.12076055045826094,-2.3614110680175795,21.0,535.0],["CTBS",0.11746164341811076,-2.2554800683701224,16.0,540.0],["CYP2U1",0.10779235611251367,-1.959479418709602,12.0,544.0],["ENPP3",0.10758330299696503,-1.9533166473696812,32.0,524.0],["FAM126B",0.1149300350926798,-2.1759001233607043,18.0,538.0],["GCSAML",0.10991103108560994,-2.0225000005800484,13.0,543.0],["GIMAP4",0.10847157521443515,-1.9795712692332368,22.0,534.0],["GOLGA5",0.12006630604414303,-2.3389078599982533,30.0,526.0],["GPR143",0.1262458182378489,-2.5431724652535803,9.0,547.0],["HRH2",0.10722732699375878,-1.9428456039637534,11.0,545.0],["IHH",0.11637122179910286,-2.2210212963793317,21.0,535.0],["IL1R1",0.10797957584491397,-1.965007016947764,17.0,539.0],["IQSEC3",0.12786971171471437,-2.598337353482834,55.0,501.0],["KCNT2",0.13220826475832492,-2.7487761037647274,58.0,498.0],["KLRB1",0.12075502708697977,-2.3612315903568746,8.0,548.0],["KPNA6",0.12636944970848674,-2.547350483319104,10.0,546.0],["LIMK1",0.11100045031286283,-2.0553049972779593,29.0,527.0],["LTBR",0.15361074127932065,-3.5568871762563945,16.0,540.0],["LUZP2",0.11714971269283904,-2.245594505242416,24.0,532.0],["MBIP",0.11599774648900422,-2.209282290549263,16.0,540.0],["METTL7A",0.11713512413645505,-2.245132723695933,8.0,548.0],["MYL10",0.1513522820527737,-3.4663725100076643,15.0,541.0],["NRM",0.1173198907370649,-2.2509849118252703,8.0,548.0],["NUDT9",0.11795737789939137,-2.271237088628254,10.0,546.0],["OR10AG1",0.10827199522231042,-1.9736566043263817,23.0,533.0],["OR1N2",0.1096967301159024,-2.0160788946218706,12.0,544.0],["OR5M8",0.11776221642458695,-2.2650270365673575,32.0,524.0],["ORM2",0.1523187627754942,-3.5049543205777276,10.0,546.0],["PAX6",0.11535686145159754,-2.1892133036459773,29.0,527.0],["PIGB",0.10994803343987448,-2.023609767711488,18.0,538.0],["PLB1",0.10827553950805328,-1.9737615618852822,47.0,509.0],["PLIN5",0.10792330692962478,-1.9633448558599818,14.0,542.0],["PLXNC1",0.11506738848688773,-2.1801797330169355,60.0,496.0],["POSTN",0.11647334007532481,-2.2242366797333233,42.0,514.0],["PSD2",0.11308729503947895,-2.1189056057725164,29.0,527.0],["RAD50",0.11403129530920475,-2.148004980854637,29.0,527.0],["RRN3",0.11420163518336099,-2.153277686165659,19.0,537.0],["SCGN",0.12055012514120404,-2.3545784870976667,20.0,536.0],["SCLY",0.10736074716475384,-1.946766776891657,15.0,541.0],["SERPINI2",0.1132721372915317,-2.124587315173039,22.0,534.0],["SLC15A5",0.11995041232518765,-2.3351622237345135,12.0,544.0],["SLC26A7",0.10774109362556325,-1.9579673060954086,43.0,513.0],["SLCO5A1",0.15226166344772782,-3.5026685688957704,51.0,505.0],["STEAP1",0.11538108345059622,-2.18997007645738,16.0,540.0],["SULT6B1",0.10957676108668378,-2.0124888492528052,16.0,540.0],["SUN1",0.1105129778912266,-2.040592417540141,50.0,506.0],["SYCN",0.11508514462357462,-2.1807332906814247,10.0,546.0],["SYCP3",0.11904388635172983,-2.3059715577171653,9.0,547.0],["SYNGR3",0.11976683717810013,-2.3292355530098683,8.0,548.0],["TAS1R3",0.1105593421809685,-2.041989410029237,37.0,519.0],["TAS2R10",0.12198023188611204,-2.401218010183818,9.0,547.0],["TELO2",0.11141979748469855,-2.068005083369342,35.0,521.0],["TOP2B",0.12092172034178547,-2.3666512907819683,39.0,517.0],["TRMT13",0.10999230620369253,-2.024937999507456,16.0,540.0],["TRPV2",0.1361294252602074,-2.888586252753749,27.0,529.0],["USP8",0.1174224581242403,-2.2542369871939796,33.0,523.0],["WBP11",0.11240596772852457,-2.0980307794003203,16.0,540.0],["WISP3",0.1089797893492379,-1.994673569644868,8.0,548.0],["ZNF710",0.13605103283772205,-2.8857552384196623,23.0,533.0]],"bottom":[["ALS2",-0.11177076532369457,-2.07866530902283,46.0,510.0],["AMBP",-0.11514621182939766,-2.1826376515663846,13.0,543.0],["AP5M1",-0.10452274387959773,-1.864232242402313,17.0,539.0],["ARHGAP28",-0.10314202823553731,-1.8247396142104353,34.0,522.0],["BIN3",-0.11190359511430809,-2.082707234327313,11.0,545.0],["BRD9",-0.1051468021388658,-1.8822240210801193,23.0,533.0],["C1orf35",-0.1263928717604858,-2.548142416381914,9.0,547.0],["CERS3",-0.10958519832099,-2.0127412238447904,22.0,534.0],["EEF2K",-0.10307892055787911,-1.8229448611990193,19.0,537.0],["EVL",-0.1052786284299943,-1.8860359216761144,18.0,538.0],["FAM131B",-0.11969994840358474,-2.327078018416813,20.0,536.0],["FRMD8",-0.12086390867058795,-2.3647709250125417,21.0,535.0],["GALT",-0.10299375547110129,-1.8205242341966514,10.0,546.0],["GRHL3",-0.1004609003308594,-1.7492824014272133,16.0,540.0],["H2BFWT",-0.1034206189786298,-1.8326733767374181,12.0,544.0],["H3F3A",-0.10618672766356657,-1.9124018986572542,10.0,546.0],["LTN1",-0.10512117478656718,-1.881483436504255,64.0,492.0],["LY9",-0.11575413189019529,-2.201642433936273,22.0,534.0],["LYVE1",-0.10939841565353095,-2.007157991271711,14.0,542.0],["MAD2L1BP",-0.10875138724056868,-1.987878976154346,8.0,548.0],["MAD2L2",-0.0999350484737403,-1.7346730285854801,11.0,545.0],["MINK1",-0.10122844781780739,-1.7707184192247631,30.0,526.0],["NFATC3",-0.12590636884999581,-2.5317195552952283,29.0,527.0],["NMBR",-0.11697757083242215,-2.2401487243802736,26.0,530.0],["NOTCH3",-0.14460474553602518,-3.203355134096441,102.0,454.0],["NUCKS1",-0.10971320143040908,-2.0165720520863757,9.0,547.0],["OGT",-0.10615386152118224,-1.9114443846259097,25.0,531.0],["OR13C2",-0.11211122193849875,-2.0890333067678877,19.0,537.0],["PITPNA",-0.11239889986671145,-2.0978147905947817,12.0,544.0],["PKD1",-0.11702502329487717,-2.24164921752623,145.0,411.0],["PPT1",-0.10879667432113235,-1.9892252458680582,14.0,542.0],["PRKACA",-0.1002610892914865,-1.7437238603743292,19.0,537.0],["PROS1",-0.11036188976154113,-2.036043432462347,27.0,529.0],["RNF14",-0.10679416116827442,-1.9301429735471594,9.0,547.0],["RSPO1",-0.10686358548114079,-1.9321759718747205,16.0,540.0],["SCRN2",-0.10577492276510386,-1.9004222233785835,17.0,539.0],["SLC25A26",-0.10290136282038957,-1.8179000353682164,10.0,546.0],["SMIM20",-0.10736621469615586,-1.9469275523117513,9.0,547.0],["SNRNP70",-0.11907515133440559,-2.3069751252444988,21.0,535.0],["SULT1E1",-0.1097840508974442,-2.0186940203786756,13.0,543.0],["SYNJ2",-0.10181160271368678,-1.787093527218766,55.0,501.0],["TBC1D10A",-0.10618270162830075,-1.9122845919377887,24.0,532.0],["TBC1D12",-0.1206575859229808,-2.358066485072308,24.0,532.0],["TMEM115",-0.10434787677033927,-1.8592066227597186,11.0,545.0],["TMEM140",-0.12243420910521509,-2.4161232626336258,9.0,547.0],["TMEM178B",-0.11513939303918447,-2.182424967090031,11.0,545.0],["TNS4",-0.11766356149591012,-2.261891192847035,26.0,530.0],["TRMT61B",-0.11491784368750374,-2.1755204783085977,9.0,547.0],["TUBG1",-0.10485080830497523,-1.873679414283495,13.0,543.0],["UBE2E2",-0.10158298861976559,-1.7806648535406742,9.0,547.0],["UBXN4",-0.10829929945565504,-1.9744652434732062,24.0,532.0],["VCL",-0.10983221633839264,-2.0201372496999563,40.0,516.0],["WBSCR28",-0.10147461408388038,-1.777621460579675,18.0,538.0]]},"para":{"top":[["BAD",0.10278364720734841,-2.110636457823414,10.0,546.0],["BEAN1",0.09873397206223626,-1.9985215547596518,11.0,545.0],["BET1L",0.11828145138602889,-2.5730108965446257,8.0,548.0],["C1orf85",0.10815072548052972,-2.264929082897147,12.0,544.0],["CHCHD10",0.0913284355220542,-1.8025133750824294,9.0,547.0],["CTBS",0.11743400450379048,-2.546771933127924,16.0,540.0],["DCAF16",0.09042838089258055,-1.779445275740566,8.0,548.0],["DNAJC17",0.10926557113260836,-2.2975787557088356,9.0,547.0],["DTD1",0.08724374127410622,-1.6995287547167721,9.0,547.0],["ERLIN2",0.09965935158849196,-2.023837676139534,11.0,545.0],["GCSAML",0.1039664135443586,-2.14421697355971,13.0,543.0],["GPR143",0.11836733548944894,-2.575805696585223,9.0,547.0],["HRH2",0.11720132869490393,-2.539267919781268,11.0,545.0],["IFNG",0.08548822480843854,-1.6563030313196403,8.0,548.0],["IL32",0.104401965244868,-2.1563233395959456,8.0,548.0],["IQCF2",0.10340828725090223,-2.128358434582005,12.0,544.0],["KLRB1",0.11348244261857665,-2.4241217437577904,8.0,548.0],["KPNA6",0.12167088016423604,-2.6814091829869016,10.0,546.0],["LGI2",0.1121141757505164,-2.3829467156050725,14.0,542.0],["LTBR",0.17269903687443838,-4.624580196479829,16.0,540.0],["MBIP",0.11575829096920442,-2.494512690156827,16.0,540.0],["MLF1IP",0.09839911098521377,-1.989354184034173,10.0,546.0],["MYL10",0.11816459234869969,-2.569717771867265,15.0,541.0],["NODAL",0.10106147874987673,-2.062362897470048,8.0,548.0],["NRM",0.08478248822498968,-1.639137892136191,8.0,548.0],["NRSN2",0.09274980469900183,-1.83924986917899,10.0,546.0],["NUDT9",0.11652748190365507,-2.518154046716284,10.0,546.0],["OR1N2",0.10502765640248234,-2.174437436146889,12.0,544.0],["ORM2",0.13592062288617357,-3.1645902580304153,10.0,546.0],["PDF",0.09755593094249555,-1.9665109124506206,10.0,546.0],["PLIN5",0.11307975238377442,-2.412203552205271,14.0,542.0],["PMM1",0.10100738493567006,-2.0609349751633594,9.0,547.0],["PPIB",0.09829139924533138,-1.9864797499513362,11.0,545.0],["PPIL6",0.10227773918171751,-2.096428152840975,10.0,546.0],["PRPSAP1",0.09555549455901026,-1.9129845066905427,11.0,545.0],["REPS2",0.1132228007738867,-2.4165554324964216,14.0,542.0],["RRP7A",0.08742133667619091,-1.7039318565791848,9.0,547.0],["SCLY",0.11294280322237436,-2.408077331981372,15.0,541.0],["SLC15A5",0.1340991883141827,-3.100413568878205,12.0,544.0],["SYCN",0.11842463699977097,-2.577686242816627,10.0,546.0],["SYCP3",0.12120886192280407,-2.6664315267114795,9.0,547.0],["SYNGR3",0.122139478042216,-2.6964170561855756,8.0,548.0],["TAS2R10",0.12857907110931888,-2.9098899765203834,9.0,547.0],["TMEM252",0.09188690316504154,-1.8168043166788752,8.0,548.0],["TRH",0.09877420595468218,-1.999618378121026,11.0,545.0],["TRMT13",0.11837240408315862,-2.5763094821693437,16.0,540.0],["TSNAXIP1",0.10598005619404151,-2.2016379010866944,9.0,547.0],["TSPAN19",0.09710028608980677,-1.95417074070591,9.0,547.0],["WISP3",0.11324719709076037,-2.4169544760105177,8.0,548.0],["ZNF566",0.1022777391817175,-2.096428152840975,10.0,546.0],["ZNF621",0.08657035423639345,-1.6828296470253596,8.0,548.0],["ZNF710",0.13845622513421355,-3.255857685627183,23.0,533.0]],"bottom":[["ACR",-0.10084433310909655,-2.056475031526088,10.0,546.0],["ACYP2",-0.0972975503048161,-1.9594100966337937,8.0,548.0],["AMBP",-0.12161549087927827,-2.6797838451573046,13.0,543.0],["BIN3",-0.1159138441366351,-2.499129039317282,11.0,545.0],["C1orf35",-0.12223003548479107,-2.699439506070326,9.0,547.0],["C1orf95",-0.10209655907226835,-2.0912164915183316,8.0,548.0],["EVL",-0.12339600195468327,-2.7378288220450955,18.0,538.0],["FAM131B",-0.13593631045281887,-3.1655760286946943,20.0,536.0],["FAM3A",-0.10327278671134978,-2.124288927155416,8.0,548.0],["FGF22",-0.08261822936907984,-1.5871604814068725,8.0,548.0],["FTSJ2",-0.08953444788687866,-1.7567741992797645,8.0,548.0],["GALT",-0.10514455132695937,-2.1776826718167457,10.0,546.0],["GLA",-0.09641763788482599,-1.9359175814963254,10.0,546.0],["GTF2H2",-0.09339247454306573,-1.8558498091023323,8.0,548.0],["GZMM",-0.08680559976420973,-1.688629452850529,8.0,548.0],["H3F3A",-0.10067569710055292,-2.051804159338125,10.0,546.0],["HDDC3",-0.10424850102371573,-2.1520286382853935,9.0,547.0],["KRTAP5-5",-0.09005198804807449,-1.7698786059459557,8.0,548.0],["LYVE1",-0.10685714741388928,-2.227268505345162,14.0,542.0],["MAD2L2",-0.1074647267229963,-2.2448194806981547,11.0,545.0],["MAGEB5",-0.08600057345951335,-1.6688961493900671,9.0,547.0],["MPHOSPH10",-0.1000924361310001,-2.0357961229014947,12.0,544.0],["NUCKS1",-0.11366105733420455,-2.429652729044214,9.0,547.0],["PITPNA",-0.10888329723957794,-2.286466040998469,12.0,544.0],["PPT1",-0.1187659258907384,-2.5886832440873517,14.0,542.0],["RAD52",-0.09803266195075143,-1.979346713483427,9.0,547.0],["RNF14",-0.12165285042801581,-2.680754252918974,9.0,547.0],["RP13-996F3.5",-0.09216919779842106,-1.8240880711455365,8.0,548.0],["RSPO1",-0.1124738924414157,-2.39389003888535,16.0,540.0],["SLC25A26",-0.10514455132695937,-2.1776826718167457,10.0,546.0],["SMIM20",-0.1106863343492859,-2.3398028069749617,9.0,547.0],["SULT1E1",-0.10544952928678883,-2.186578647162046,13.0,543.0],["TMEM115",-0.10376320861797358,-2.1383609673915522,11.0,545.0],["TMEM140",-0.12160845157749463,-2.679320002789255,9.0,547.0],["TMEM178B",-0.13788154941209596,-3.2347233170813343,11.0,545.0],["TOM1L2",-0.09723926191154943,-1.9580687240733354,12.0,544.0],["TRMT61B",-0.12125326077332525,-2.667861822027614,9.0,547.0],["UBE2E2",-0.11423824239097981,-2.4473129754986123,9.0,547.0],["YBEY",-0.10275524655015396,-2.1096997743594534,8.0,548.0],["ZDHHC19",-0.1174816165914535,-2.54784114281152,8.0,548.0]]}}}
{"depmap_damaging":{"corr":{"top":[["C6orf165",0.09676514416314243,-1.647921326096371,9.0,547.0],["CAMSAP1",0.0889772478113072,-1.4443011203641989,8.0,548.0],["CD2AP",0.0941790961333781,-1.5788131135834427,11.0,545.0],["CNTN4",0.10371703931663459,-1.8411341874629288,18.0,538.0],["COL6A6",0.12193165160553042,-2.399625845980243,13.0,543.0],["COL9A1",0.08532570617836756,-1.3534412733043533,9.0,547.0],["CPSF2",0.09528215526504773,-1.6081082659965826,11.0,545.0],["DNAH9",0.11792908732821783,-2.270336332814321,23.0,533.0],["FNDC1",0.10171824491957507,-1.784466862644719,11.0,545.0],["GNAI1",0.08223553284423724,-1.2788273970969755,18.0,538.0],["GPR115",0.11996106578085022,-2.3355064083879884,9.0,547.0],["ITGA8",0.11015185394049234,-2.0297283317918624,11.0,545.0],["ITPR2",0.10929404829898458,-2.004041760353214,24.0,532.0],["MT-CO2",0.12291746422049105,-2.432042734655172,12.0,544.0],["NOD2",0.09195101702120617,-1.5204647298135932,10.0,546.0],["PDE10A",0.10516197161304125,-1.8826624619790173,8.0,548.0],["PLXNC1",0.10955896458721646,-2.0119565737003846,9.0,547.0],["PRKDC",0.11926814836780508,-2.313175125683176,26.0,530.0],["RIN2",0.09375978732167499,-1.5677481212109947,18.0,538.0],["RNF213",0.09948833123531797,-1.7223110664037424,16.0,540.0],["SLC23A2",0.12342156607436913,-2.4487071768263,10.0,546.0],["TCTN2",0.08863470298995192,-1.4356532400517734,8.0,548.0],["WHSC1L1",0.10429415997538712,-1.8576642131286287,18.0,538.0],["WRN",0.09354353523884312,-1.5620568023011787,11.0,545.0],["ZDHHC8",0.09943172130433507,-1.7207477082941076,10.0,546.0],["ZFPM2",0.1421741125629192,-3.1113147436413295,8.0,548.0]],"bottom":[["ACSM2A",-0.09130097762417021,-1.5036491201184747,8.0,548.0],["AP5B1",-0.11682437286871256,-2.2353080168497965,8.0,548.0],["ARHGAP33",-0.11179400043016668,-2.0793720458947007,10.0,546.0],["CACNA1A",-0.11175864726927308,-2.0782967661654936,12.0,544.0],["CRIPAK",-0.10307973141189368,-1.8229679157956968,9.0,547.0],["DCBLD2",-0.11102394722709573,-2.0560155429151044,8.0,548.0],["DNAH1",-0.11008431661283842,-2.0276998493104132,14.0,542.0],["DNMT3A",-0.08856251949785368,-1.4338341917378044,10.0,546.0],["EML3",-0.0954398878797787,-1.6123195035898006,8.0,548.0],["FMN1",-0.10345097847878934,-1.833539022162008,9.0,547.0],["FZR1",-0.1005837954912952,-1.7527056853215364,10.0,546.0],["GRAMD2",-0.08984991116640768,-1.4664491801845243,15.0,541.0],["GRIK2",-0.09752230370726002,-1.6684379698159197,18.0,538.0],["INO80",-0.10726366012077183,-1.9439130200313304,10.0,546.0],["KCNH8",-0.1162545928782114,-2.21735197153565,12.0,544.0],["KIF1B",-0.08894744076904611,-1.4435475860963523,18.0,538.0],["KLHL17",-0.10480831574141182,-1.8724543920163905,8.0,548.0],["RBM25",-0.09702223309610825,-1.6548732441912892,9.0,547.0],["VPS33A",-0.09531680177987496,-1.6090328033816388,12.0,544.0]]},"para":{"top":[["C6orf165",0.10269454125547466,-2.1080668922445027,9.0,547.0],["CAMSAP1",0.08544117570287528,-1.6551553790993447,8.0,548.0],["CNTN4",0.11731800493690513,-2.54319250126552,18.0,538.0],["COL6A6",0.13474106519978574,-3.1230414492830003,13.0,543.0],["COL9A1",0.09470274816166341,-1.890299085372444,9.0,547.0],["CPSF2",0.08855479727342382,-1.7322972775984393,11.0,545.0],["DNAH9",0.11206485362925676,-2.381687980110829,23.0,533.0],["ERF",0.07678414027923594,-1.4519995992336165,8.0,548.0],["EXD3",0.09781066769814555,-1.9733352941304843,9.0,547.0],["FNDC1",0.09664180965504955,-1.9419718797622283,11.0,545.0],["GPR115",0.11557020790661501,-2.488349011927328,9.0,547.0],["MVK",0.08633510870857718,-1.677041685725459,8.0,548.0],["NOD2",0.09629116087841826,-1.9325356887869325,10.0,546.0],["PDE10A",0.10920097401232023,-2.295591241190353,8.0,548.0],["PLXNC1",0.09727788149189147,-1.9589515982908419,9.0,547.0],["PRKDC",0.12719483156286132,-2.863837101059022,26.0,530.0],["RIN2",0.1060483854664415,-2.2039767417226295,18.0,538.0],["SLC23A2",0.1262662113970502,-2.8322564472929406,10.0,546.0],["TCTN2",0.09155755942609874,-1.80832832856219,8.0,548.0],["WHSC1L1",0.09943223246271425,-2.0178420920045372,18.0,538.0],["ZDHHC8",0.10299444221802793,-2.116573106646147,10.0,546.0],["ZFPM2",0.1310788080992348,-2.9951345995872045,8.0,548.0],["ZNF43",0.08943994290723359,-1.7545595512936878,11.0,545.0]],"bottom":[["ACSM2A",-0.09052247910370706,-1.7818417075896662,8.0,548.0],["AP5B1",-0.11752866569701674,-2.5493177819498096,8.0,548.0],["ARSA",-0.10049688948311761,-2.046723169635844,8.0,548.0],["ATXN2",-0.09607427356017141,-1.926613919674955,8.0,548.0],["CACNA1A",-0.11883085059928443,-2.5906512058661915,12.0,544.0],["CCDC88B",-0.08892280951455629,-1.7413614083022446,8.0,548.0],["CRIPAK",-0.11636938721599611,-2.513159419050044,9.0,547.0],["DCBLD2",-0.12260996909784853,-2.711693489222547,8.0,548.0],["DNAH1",-0.12384414373972513,-2.752371036856865,14.0,542.0],["EML3",-0.1043549161393047,-2.1549829960368614,8.0,548.0],["EPHA8",-0.08060801208385977,-1.5398892785906246,10.0,546.0],["FMN1",-0.11219589526700582,-2.3851539038960445,9.0,547.0],["INO80",-0.10274148820521249,-2.109450294511221,10.0,546.0],["KCNH8",-0.11775127116489767,-2.5565779521109753,12.0,544.0],["KLHL17",-0.1028022956557172,-2.1110236394580664,8.0,548.0],["NRAP",-0.0859587158640711,-1.6678055735556478,8.0,548.0],["TRAM1L1",-0.095889787618566,-1.921922245863284,12.0,544.0],["VPS33A",-0.10630001787872394,-2.2110457691290963,12.0,544.0]]}}}
{"ccle_rppa":{"corr":{"top":[["CDKN1B_p27",0.13026706921287348,-2.542833554089237,522]],"bottom":[]},"para":{"top":[],"bottom":[["RICTOR_Rictor_Caution",-0.12524420489905475,-2.381125868373311,522]]}}}
{"ccle_metabolomics":{"corr":{"top":[],"bottom":[["C56:6 TAG",-0.10852725482733244,-1.9174852272211258,534]]},"para":{"top":[["ribose-5-P\/ribulose5-P",0.12394603132411124,-2.384734143753481,534]],"bottom":[["C56:6 TAG",-0.12368689826946988,-2.3764439840526146,534]]}}}
{"ccle_rrbs_enhancer_clusters":{"corr":{"top":[["2-236963728-236966857-2_enh",0.12674755238819252,-1.9399688418863728,397],["18-42324162-42328001-1_enh",0.13950834000608436,-2.604097009910666,468]],"bottom":[["16-86428087-86432726-1_enh",-0.23991296891760505,-2.521921430926463,151],["10-76513921-76516681-2_enh",-0.15761557944858848,-3.165420784908683,461],["18-76007648-76010476-1_enh",-0.17412236509962387,-3.5654697495065477,433],["20-54126635-54129805-0_enh",-0.15150256676971618,-3.0610022907845025,480]]},"para":{"top":[["8-65497075-65499586-1_enh",0.1508286940689079,-2.832206804203858,442]],"bottom":[["16-86428087-86432726-1_enh",-0.21990010364351464,-2.176041830324771,151],["3-55522543-55525401-0_enh",-0.15395840376714806,-3.079475310008427,468],["16-8238988-8241787-2_enh",-0.1600699758229772,-3.0812342519766354,433],["16-51129757-51132306-0_enh",-0.1422015654571721,-2.539239078281575,437],["20-39572314-39575604-0_enh",-0.2031684377297744,-3.3411129853834303,294],["20-54126635-54129805-0_enh",-0.16325660815276768,-3.4832137376561305,480],["20-54129805-54132976-0_enh",-0.1565985886648222,-3.1535265591991988,465]]}}}
{"ccle_mirna":{"corr":{"top":[],"bottom":[["hsa-miR-1252_miR00064.1",-0.12215248124728356,-2.3168428547875486,531],["hsa-miR-1257_miR00070.1",-0.1440961608056043,-3.061313281812738,531],["hsa-miR-1271_miR00088.1",-0.1400531445452471,-2.9159199548763017,531],["hsa-miR-1278_miR00098.1",-0.12448557844647784,-2.390836823697221,531],["hsa-miR-153_miR00173.1",-0.1378379850116361,-2.8378482009984074,531],["hsa-miR-558_miR00511.1",-0.12232339966876864,-2.322222322473955,531],["hsa-miR-571_miR00522.1",-0.15309741912271807,-3.3985755305365086,531],["hsa-miR-588_miR00542.1",-0.12488710419529599,-2.4036937442267523,531],["hsa-miR-602_miR00556.1",-0.143206851899095,-3.0290099719916332,531],["hsa-miR-606_miR00560.1",-0.1587653457268956,-3.620638263632075,531],["hsa-miR-938_miR00676.1",-0.13175666376381656,-2.6292625594248333,531],["ebv-miR-BART21-5p_miR00740.1",-0.13332256780272217,-2.6821696230375385,531],["hcmv-miR-UL70-5p_miR00758.1",-0.12980673126648976,-2.564155193291189,531],["hcmv-miR-US5-2_miR00766.1",-0.1403745309396692,-2.9273402538739495,531],["hiv1-miR-H1_miR00767.1",-0.12580876820137812,-2.433341977316151,531]]},"para":{"top":[],"bottom":[["hsa-miR-1271_miR00088.1",-0.12485641221505785,-2.4027097096355092,531],["hsa-miR-1278_miR00098.1",-0.13346907325085972,-2.6871479987647535,531],["hsa-miR-153_miR00173.1",-0.1592022054455859,-3.638067248887988,531],["hsa-miR-511_miR00423.1",-0.1204167915582769,-2.262582020758672,531],["hsa-miR-515-3p_miR00431.1",-0.12502408493757983,-2.408088136955601,531],["hsa-miR-517a_miR00436.1",-0.11861499386571764,-2.2069620196600996,531],["hsa-miR-558_miR00511.1",-0.13632275185292084,-2.7850901514847792,531],["hsa-miR-571_miR00522.1",-0.13617704091230898,-2.7800442982806803,531],["hsa-miR-602_miR00556.1",-0.12961140155577552,-2.557680489836909,531],["hsa-miR-606_miR00560.1",-0.13640342782313902,-2.787885975075242,531],["ebv-miR-BART21-5p_miR00740.1",-0.1303190491238678,-2.5811781446061812,531],["hcmv-miR-UL36_miR00756.1",-0.1317930024827912,-2.6304840440213675,531],["hcmv-miR-UL70-5p_miR00758.1",-0.1408813417672063,-2.945397606779174,531]]}}}
{"prism_primary_logfold":{"corr":{"top":[["methoprene-(s)_BRD-K34591242-001-04-3::2.5::HTS",0.20023663602990527,-5.840747807925939,570],["vanitiolide_BRD-K26502378-001-07-9::2.5::HTS",0.21385404107658462,-6.594018547909761,570],["ritodrine_BRD-A59174698-003-18-5::2.5::HTS",0.19712007388645553,-5.657500024402721,568],["climbazole_BRD-A61676498-001-06-6::2.5::HTS",0.19875699890130177,-5.743715345313256,568],["secalciferol_BRD-K02965577-001-03-4::0.25::HTS",0.1860268986485495,-5.076029863542358,566]],"bottom":[["amuvatinib_BRD-K66538826-001-07-2::2.5::HTS",-0.15132595981004326,-3.470701832971678,557],["U-0126_BRD-K18787491-001-08-6::2.5::HTS",-0.14096057285228494,-3.094083795006157,562],["RG2833_BRD-K02389548-001-02-5::2.5::HTS",-0.1810708855502643,-4.827124232953893,565],["AD-5467_BRD-A80280426-001-03-8::2.43120883::MTS004",-0.1495345811364442,-3.310249627565301,540],["nobiletin_BRD-K06753942-001-14-5::2.5::HTS",-0.17792409110902443,-4.655463323510783,562],["oligomycin-a_BRD-A81541225-001-06-8::2.5::HTS",-0.1600919169343821,-3.8535368277898256,561],["KU-60019_BRD-K36016295-001-04-5::2.5::HTS",-0.1368742780097864,-2.9377822156629927,561],["ZK-93423_BRD-K33882852-003-02-8::2.5::HTS",-0.1366317458268006,-2.911192561153209,557],["genz-644282_BRD-K99475619-001-01-2::2.5::HTS",-0.13807398441317853,-2.9547611332908215,555],["cerulenin_BRD-K52075040-001-09-7::5.6::HTS",-0.1386068825999119,-3.001569528484811,561],["ambazone_BRD-K11244467-001-08-5::2.5::HTS",-0.18433541598430392,-5.008667334308504,568],["furazolidone_BRD-K11756522-001-09-9::2.5::HTS",-0.16301265088025696,-4.009162692879286,566],["moclobemide_BRD-K07237224-001-19-6::2.5::HTS",-0.16582105378126497,-4.1320706078187515,566],["7-nitroindazole_BRD-K04430056-236-02-1::2.5::HTS",-0.14012908836137772,-3.0396269706553367,557],["A-674563_BRD-K78177893-001-02-4::2.5::HTS",-0.1389700125025967,-3.056161507856641,570]]},"para":{"top":[["vanitiolide_BRD-K26502378-001-07-9::2.5::HTS",0.22604876135199706,-7.311917697978239,570],["ronidazole_BRD-K94266545-001-24-1::2.5::HTS",0.2001391882758518,-5.835538821971483,570],["climbazole_BRD-A61676498-001-06-6::2.5::HTS",0.18337942371074795,-4.961883685748357,568],["methoprene-(s)_BRD-K34591242-001-04-3::2.5::HTS",0.22200977641995365,-7.069558028847119,570],["SR-57227A_BRD-K09397065-003-06-1::2.5::HTS",0.20758663805153452,-5.992812288091632,545]],"bottom":[["amuvatinib_BRD-K66538826-001-07-2::2.5::HTS",-0.136687903180055,-2.913231665414476,557],["evacetrapib_BRD-K16551357-001-03-2::2.5::HTS",-0.14259529465434362,-3.0117187471813205,532],["haloprogin_BRD-K13238168-001-02-0::2.5::HTS",-0.13516682427122664,-2.9059943278534366,568],["RG2833_BRD-K02389548-001-02-5::2.5::HTS",-0.16994553553041666,-4.309502776084755,565],["quinine_BRD-K07940445-310-02-9::2.5::HTS",-0.13364708768624622,-2.842136470360051,566],["ETP-46464_BRD-K24556407-001-02-3::2.5::HTS",-0.14288774212971456,-3.186382166563926,566],["nobiletin_BRD-K06753942-001-14-5::2.5::HTS",-0.1491105104547746,-3.4091193175111543,562],["oligomycin-a_BRD-A81541225-001-06-8::2.5::HTS",-0.13823770887415224,-2.9879172284271025,561],["arctigenin_BRD-K53523901-001-04-4::2.5::HTS",-0.14362792563747692,-3.190534544878425,561],["EVP4593_BRD-K68395654-001-03-1::2.5::HTS",-0.14230688219020668,-3.1736857379186034,568],["genz-644282_BRD-K99475619-001-01-2::2.5::HTS",-0.13959379015368084,-3.010550389071401,555],["ambazone_BRD-K11244467-001-08-5::2.5::HTS",-0.2032986715164845,-5.986689179731889,568],["parthenolide_BRD-K98548675-001-05-9::2.5::HTS",-0.15146401415576186,-3.535419636502693,568],["filanesib_BRD-K37379014-001-01-2::2.5::HTS",-0.1444609531289899,-3.222478684185355,561],["7-nitroindazole_BRD-K04430056-236-02-1::2.5::HTS",-0.1619012273460228,-3.9060299936532505,557],["A-674563_BRD-K78177893-001-02-4::2.5::HTS",-0.14670670099833905,-3.355017534997716,570]]}}}
{"prism_secondary_logfold":{"corr":{"top":[["taltirelin_BRD-K93869735-001-01-1::0.00976562::HTS002",0.19295383021334353,-4.448614719786839,453],["nicotine_BRD-A93695607-322-02-5::0.00965117::HTS002",0.1956799710419484,-4.561968862539591,453],["pindolol_BRD-A97701745-001-16-0::0.0024414::HTS002",0.21914880981336524,-5.5812010919043935,451],["chlorhexidine_BRD-K52256627-300-06-6::0.15625::HTS002",0.17927836954321014,-3.684818690884904,424],["etomoxir_BRD-K32405725-001-02-8::0.15625::HTS002",0.17911552716157564,-4.107206741412679,481],["NVP-BEZ235_BRD-K12184916-001-15-4::0.0024414::HTS002",0.184002371926941,-3.435165908401219,371],["methocarbamol_BRD-A31521121-001-26-4::0.0390625::HTS002",0.1789800238851142,-3.0605967772611673,343],["trifluridine_BRD-K03243820-001-23-8::0.000579417::HTS002",0.20423325782900686,-5.102175670997736,471],["fenoprofen_BRD-A81129465-001-03-8::0.625::HTS002",0.18863969026207386,-4.031227416327604,424]],"bottom":[["estramustine_BRD-A70858459-001-01-7::10::HTS002",-0.17777880290064813,-3.964391407865626,469],["bardoxolone_BRD-K20545304-001-01-6::2.5::HTS002",-0.18131730298852805,-2.8633157589749696,309],["halofuginone_BRD-K54247840-004-01-3::0.15625::HTS002",-0.1898289226983758,-4.320602556178449,453],["batimastat_BRD-K82818427-001-02-2::9.56758::HTS002",-0.1808574611991352,-4.155497103741388,478],["odanacatib_BRD-K22822991-001-02-3::0.15625::HTS002",-0.18107744960729386,-2.8568299115481826,309],["9-aminoacridine_BRD-K00535541-001-06-3::2.5::HTS002",-0.1852902511755387,-4.266532184000178,469],["OTX015_BRD-K43471985-001-03-0::0.00262704::HTS002",-0.19426317449437622,-4.062099640801503,403],["proflavine-hemisulfate_BRD-K68408467-065-01-8::10::HTS002",-0.18802001135455285,-3.858597249899317,406],["refametinib_BRD-K85751432-001-03-3::10::HTS002",-0.18836084948357135,-3.6123154963646624,375],["isoxsuprine_BRD-A16700644-003-04-4::10::HTS002",-0.25580067666547934,-4.01290689625702,227],["sirolimus_BRD-K84937637-001-09-9::0.625::HTS002",-0.18718837270920397,-4.303957579161848,464],["N-acetylmannosamine_BRD-A92872453-001-01-8::0.625::HTS002",-0.19708172357521686,-4.194861726233981,406],["MLN-8054_BRD-K83963101-001-06-9::0.625::HTS002",-0.21182344200189013,-4.060973077774026,338],["dimethisoquin_BRD-K73391359-003-10-2::10::HTS002",-0.22460554903076424,-3.5229504758467263,255]]},"para":{"top":[["pindolol_BRD-A97701745-001-16-0::0.0024414::HTS002",0.19041713574388452,-4.327628118095851,451],["nicotine_BRD-A93695607-322-02-5::0.00965117::HTS002",0.2033879521549982,-4.890988278324667,453],["vemurafenib_BRD-K56343971-001-10-6::0.0390625::HTS002",0.17241737389282438,-3.0404577207808594,367],["octenidine_BRD-K04568635-300-01-4::0.000610352::HTS002",0.16465681936941268,-2.392157034564133,303],["sunitinib_BRD-K42828737-044-09-0::0.15625::HTS002",0.1780396535026249,-3.8411240693723205,451],["chlorhexidine_BRD-K52256627-300-06-6::0.15625::HTS002",0.18195793999209478,-3.7822422400461035,424],["PD-168393_BRD-K17702546-001-03-2::0.00061034::HTS002",0.1675786963417755,-3.5601229293162318,467],["nafcillin_BRD-K18574842-236-17-7::2.5::HTS002",0.18260758406212202,-3.806070495604048,424],["trifluridine_BRD-K03243820-001-23-8::0.000579417::HTS002",0.17240525579120497,-3.7695628515055017,471],["azilsartan_BRD-K81074237-001-02-3::0.00061034::HTS002",0.17298094880950537,-3.7917253038015315,471]],"bottom":[["estramustine_BRD-A70858459-001-01-7::10::HTS002",-0.18365272296711435,-4.199632511014323,469],["halofuginone_BRD-K54247840-004-01-3::0.15625::HTS002",-0.2013876101008991,-4.804388005823951,453],["RN-1734_BRD-K95581532-001-01-5::2.5::HTS002",-0.18515154973874592,-4.268838174370926,470],["N-acetylmannosamine_BRD-A92872453-001-01-8::0.625::HTS002",-0.19657620653432592,-4.175696187387591,406],["odanacatib_BRD-K22822991-001-02-3::0.15625::HTS002",-0.1909804829543714,-3.1312802944749474,309],["BIIB021_BRD-K51967704-001-03-6::0.0391::MTS010::PROS004_PR500",-0.18190421187901654,-4.152009848832122,472],["PF-562271_BRD-K99545815-001-06-3::2.5::HTS002",-0.19301860184989433,-4.633422010517779,474],["SR-33805_BRD-K43002771-034-01-6::10::HTS002",-0.19702575900640454,-4.19273757898986,406],["OTX015_BRD-K43471985-001-03-0::0.00262704::HTS002",-0.1966364963033969,-4.150829725033025,403],["refametinib_BRD-K85751432-001-03-3::10::HTS002",-0.20314182947703988,-4.129012400052233,375],["estradiol_BRD-K18910433-001-36-6::10.3233::HTS002",-0.18966347416808294,-4.313882012758699,453],["isoxsuprine_BRD-A16700644-003-04-4::10::HTS002",-0.23256502273448326,-3.3865720337449443,227],["MLN-8054_BRD-K83963101-001-06-9::0.625::HTS002",-0.2198302371062264,-4.3399678108335795,338],["tanespimycin_BRD-K81473043-001-14-6::0.0390625::HTS002",-0.18791189453020846,-4.226598456131719,451]]}}}
{"ccle_proteomics":{"corr":{"top":[["LIG3_P49916",0.21010344935222966,-3.3445893154041837,275],["BACH2_Q9BYV9",0.22144499923862257,-2.128827688700796,145],["WDR59_Q6PJI9",0.21071625686645024,-3.2665229660823036,266],["PDP2_Q9P2J9",0.21751429757647794,-2.323528756877066,167],["KIAA1549_Q9HCM3",0.2231243143628871,-2.6445586697961754,185],["CYTH1_Q15438",0.20907782602131164,-2.7185879920513067,218],["APOC1_P02654",0.21057277883407105,-2.4613683393935246,191]],"bottom":[["PARG_Q86W56",-0.22265601713818717,-3.6223839719633175,268],["ALDH3B1_P43353",-0.19351179883483424,-2.791766640291008,263],["CDK18_Q07002-3",-0.2677984861974603,-2.3121588188945448,109],["CCSER2_Q9H7U1-3",-0.23684183058359046,-2.9179044993134973,184]]},"para":{"top":[["APOE_P02649",0.20616779843854138,-3.235878534190568,275],["LIG3_P49916",0.21483783782227853,-3.4780050644263207,275],["SLC7A2_P52569-3",0.21804861792072575,-2.530971926123998,184],["AIF1_P55008",0.23354345663299975,-2.7948791947174567,180],["APOC1_P02654",0.2370212179663819,-3.0167573429731553,191]],"bottom":[["FAM204A_Q9H8W3",-0.21879336896001528,-2.334883143165696,166],["KMO_O15229",-0.2560335577016877,-2.5648262137957993,135],["ALDH3B1_P43353",-0.20840269392307537,-3.173090268968884,263],["CDK18_Q07002-3",-0.24646464646464647,-2.009625186466241,109],["CCSER2_Q9H7U1-3",-0.22353258461597733,-2.640711528641575,184],["KITLG_P21583",-0.24830330959363214,-2.735702907395717,155],["MVP_Q14764",-0.20353348347338057,-3.164220241220171,275]]}}}
{"depmap_copy_number":{"corr":{"top":[],"bottom":[["MIR8059_102466918",-0.11705979318307311,-2.239426591523266,555],["MYCBPAP_84073",-0.12242169799386945,-2.4121025248762678,555],["LRRC59_55379",-0.12287483974393944,-2.4270022459093292,555],["CACNA1G-AS1_253962",-0.12176434048451938,-2.3905731681686166,555],["RSAD1_55316",-0.12172113920080348,-2.3891617958967397,555],["ANKRD40_91369",-0.11801685483848724,-2.2697587113135005,555],["ACSF2_80221",-0.12287483974393944,-2.4270022459093292,555],["LOC105371824_105371824",-0.12242169799386945,-2.4121025248762678,555],["EPN3_55040",-0.12242169799386945,-2.4121025248762678,555],["CHAD_1101",-0.12172113920080348,-2.3891617958967397,555],["EME1_146956",-0.12023673437033215,-2.340930841079721,555],["SPATA20_64847",-0.12242169799386945,-2.4121025248762678,555],["MRPL27_51264",-0.12023673437033215,-2.340930841079721,555],["CACNA1G_8913",-0.11797425594958191,-2.268404115934246,555],["WFIKKN2_124857",-0.12266541733138679,-2.420110285031233,555]]},"para":{"top":[],"bottom":[["MYCBPAP_84073",-0.11556920393538753,-2.1926072713713363,555],["LRRC59_55379",-0.11544337691561121,-2.1886785365310817,555],["CACNA1G-AS1_253962",-0.11447353424196165,-2.1585193679217163,555],["RSAD1_55316",-0.11372956180055112,-2.1355309388672112,555],["ANKRD40_91369",-0.11188200171159107,-2.0789925130864875,555],["EPN3_55040",-0.11556920393538753,-2.1926072713713363,555],["LOC105371824_105371824",-0.11556920393538753,-2.1926072713713363,555],["ACSF2_80221",-0.11544337691561121,-2.1886785365310817,555],["EME1_146956",-0.11418256286851694,-2.1495133060244886,555],["MRPL27_51264",-0.11418256286851694,-2.1495133060244886,555],["SPATA20_64847",-0.11556920393538753,-2.1926072713713363,555],["CHAD_1101",-0.11372956180055112,-2.1355309388672112,555],["WFIKKN2_124857",-0.11888868353391233,-2.297574253373694,555],["ABCC3_8714",-0.11561290393261006,-2.1939725842334785,555]]}}}
{"depmap_gene_tpm":{"corr":{"top":[["GCSAML_148823",0.17857593064781863,-4.634340076521977,555],["PRSS48_345062",0.1787216704605408,-4.641121439298913,555],["KNCN_148930",0.13475437856454442,-2.8348237953147373,555],["SFT2D1_113402",0.14536318367656603,-3.2273854320026545,555],["LPO_4025",0.17173708118933625,-4.322171281977454,555],["C9orf131_138724",0.14637988023533954,-3.2664288199151765,555],["CES5A_221223",0.14385976816975654,-3.1701089379959946,555],["LPA_4018",0.13495009030169663,-2.841821991498217,555],["STRA8_346673",0.1393043302604451,-2.9998822065533974,555],["NLRP8_126205",0.18093722061299822,-4.7448776596128015,555],["OR52E1_79296",0.15732031144279626,-3.7024848081593014,555],["NLRP13_126204",0.15295680053503474,-3.5250614733518795,555],["OR2A5_393046",0.15453342091485875,-3.588629038864233,555],["ZNF114_163071",0.14663036284216818,-3.2760863241690585,555]],"bottom":[["KRTAP2-1_81872",-0.14479863185074462,-3.2058133548803003,555],["LMO7_4008",-0.12685428057465223,-2.559913519112872,555],["ASTN1_460",-0.12447800052690522,-2.480100829589139,555],["CDRT15_146822",-0.12440105985510475,-2.4775387286422115,555],["KIF4B_285643",-0.142322731508679,-3.1121153000795387,555],["MYO1G_64005",-0.11973916345185709,-2.3248785995360857,555],["CATSPERD_257062",-0.12429175807242225,-2.473901395330015,555],["CORIN_10699",-0.1289025832084203,-2.6297751590522833,555],["LAMP5_24141",-0.15595656822887938,-3.646531984115091,555]]},"para":{"top":[["ETFA_2108",0.14741213819665788,-3.3063259151690096,555],["SFT2D1_113402",0.15932010710497055,-3.785362293491797,555],["HYKK_123688",0.1303759332254908,-2.680638350732068,555],["ZNF114_163071",0.14429362897371587,-3.1865819525322094,555],["OPN1MW3_101060233",0.1519995625413926,-3.4867634095007927,555]],"bottom":[["WNT3_7473",-0.12985800665512814,-2.6627000068888016,555],["LMO7_4008",-0.1352448922302861,-2.8523806319696874,555],["LRRC18_474354",-0.12928031716669425,-2.642766505691356,555],["ATXN2_6311",-0.1289320295835646,-2.6307866944257188,555],["CPO_130749",-0.13087722232287718,-2.6980608292916166,555],["MPRIP_23164",-0.12952630692661868,-2.651244891713749,555],["RUNX1T1_862",-0.18211360858824438,-4.800477316126197,555],["KIF4B_285643",-0.14814563540038536,-3.3348328667343923,555],["MAG_4099",-0.1307348559311308,-2.6931067946363734,555],["SSX5_6758",-0.14416515153630943,-3.1816991308951605,555]]}}}
{"avana":{"corr":{"top":[["C19orf57_79173",0.17608631844376643,-3.3218874560062503,390],["COL7A1_1294",0.157387301075294,-2.739179168398973,390],["MYBL1_4603",0.17519370849780785,-3.2926924592975295,390],["KYAT3_56267",0.17631689353620517,-3.307394252878488,387],["TBC1D23_55773",0.1950940743465035,-3.9770607627158667,390],["PRR11_55771",0.16407884148147645,-2.940773804830157,390],["XPO7_23039",0.1733667669240037,-3.233372570480508,390],["FDXACB1_91893",0.1894568080112219,-3.776030030278769,390],["SHC4_399694",0.1754181209255696,-3.3000192837680826,390],["DYNC2H1_79659",0.17293856796996035,-3.2195535116787246,390],["ZSCAN9_7746",0.16787482749381807,-3.0585536931885957,390],["HLA-E_3133",0.15907162271193245,-2.78920142935378,390],["SMG8_55181",0.161738482220745,-2.8693945598162953,390],["TOX_9760",0.1566722527036565,-2.7180892052016823,390],["RGS6_9628",0.19581112071684043,-4.003041943511376,390],["CARD10_29775",0.16121593802017803,-2.853585666257354,390]],"bottom":[["RGR_5995",-0.17978388823019756,-3.444315574631689,390],["CDH19_28513",-0.20826431218796637,-4.46919431489006,390],["OR10P1_121130",-0.17544742707344285,-3.300976749037575,390],["SLF2_55719",-0.17577283971142083,-3.311618461107557,390],["PRPF40B_25766",-0.19705707201007502,-4.048408542480375,390],["CUEDC2_79004",-0.17589983085250507,-3.3157763851676405,390],["HSPA6_3310",-0.17148997197340224,-3.1730406872532746,390],["ETNK1_55500",-0.1632668377845372,-2.915901718619849,390],["LONP1_9361",-0.1583870617462214,-2.768812490701873,390],["CFAP70_118491",-0.17496421474424778,-3.2852088536716995,390],["PPP1R14C_81706",-0.16828210097619892,-3.0713382309048844,390],["CFHR5_81494",-0.1686656339229158,-3.0834038018135255,390],["SART3_9733",-0.15881299225063125,-2.7814889937741416,390],["STOX2_56977",-0.19139719370667638,-3.844581314516023,390],["TMCO3_55002",-0.1652921421023362,-2.9781492255337043,390]]},"para":{"top":[["C19orf57_79173",0.1625509126279247,-2.894066539266641,390],["SEC16A_9919",0.16728048154748978,-3.0399483562171876,390],["LMBR1_64327",0.1594863480957877,-2.8015924926911824,390],["KYAT3_56267",0.16836838847137534,-3.0538473870116203,387],["ADD1_118",0.17143034586776254,-3.17113399060685,390],["TBC1D23_55773",0.16710295496988936,-3.0344029333986797,390],["PRR11_55771",0.16247933467163475,-2.8918883036908465,390],["MEI4_101928601",0.16473518813602453,-2.9609609249332705,390],["XPO7_23039",0.18019376874794626,-3.4580350855006796,390],["FDXACB1_91893",0.18088016507881033,-3.4810765296662827,390],["HLA-E_3133",0.16288797460478674,-2.9043357128334906,390],["SPTBN1_6711",0.16528303554793547,-2.9778677559822535,390],["SPON2_10417",0.17240897632820423,-3.2025064977218496,390],["TOX_9760",0.17599625992244675,-3.318935538685175,390],["RGS6_9628",0.1806672371796408,-3.473919912752921,390],["TMEM120B_144404",0.1686950028867858,-3.0843287710967155,390]],"bottom":[["RFXAP_5994",-0.16969522178753213,-3.095413204459708,387],["RGR_5995",-0.165514876589611,-2.9850380556925997,390],["CDH19_28513",-0.18664882334357738,-3.6780208927786355,390],["IFI35_3430",-0.1572257515311203,-2.73440674611311,390],["OR10P1_121130",-0.17873101968295077,-3.409209734580622,390],["SLC4A8_9498",-0.15660969460650043,-2.7162482247781012,390],["PRPF40B_25766",-0.23167755465929213,-5.423575883577102,390],["LONP1_9361",-0.16970881735250468,-3.116350324023552,390],["ETNK1_55500",-0.1685294990650737,-3.0791182153178793,390],["PPP1R14C_81706",-0.1620551412669467,-2.878997436612734,390],["TCHP_84260",-0.16502211390536498,-2.9698091413654586,390],["CFHR5_81494",-0.16354105750829181,-2.9242885327906887,390],["LTO1_220064",-0.15963000176816863,-2.8058913902270977,390],["STOX2_56977",-0.1883527570202253,-3.7373264419379653,390],["BID_637",-0.16626716267334968,-3.0083683420403027,390],["RBM19_9904",-0.15902179648066436,-2.78771470899591,390]]}}}
{"drive":{"corr":{"top":[["TBC1D3E_102723859",0.1813855630714307,-2.707281160262783,289],["ROCK1P1_727758",0.1623761922473673,-2.2664217590667546,292],["OPN1MW3&OPN1MW2_101060233&728458",0.19070302137508643,-2.9845638366938094,293],["ZNF141_7700",0.19144798870665342,-3.074698822872604,301],["RAC1_5879",0.204677340908231,-3.364745875287882,292],["LOC100505534_100505534",0.24396095207712773,-4.574005543476258,290]],"bottom":[["CEACAM4_1089",-0.22046250900553666,-3.835933725282226,292],["KIF26A_26153",-0.18993183230126962,-2.9206406184643248,288],["CDC42SE2_56990",-0.1882283463009824,-2.875778761254157,288],["RERG_85004",-0.1901292316093875,-3.038187371480779,301],["ZXDC_79364",-0.2183789448751582,-3.771768919067594,292],["BTG2_7832",-0.22324405059890995,-3.922537158834761,292],["CCAR2_57805",-0.19256594709836172,-3.0262020505618707,292],["INSL4_3641",-0.195841982437403,-3.1158337258784976,292],["TRIB1_10221",-0.18723342512785204,-2.933700372501682,298],["CYP4F22_126410",-0.18774691782450584,-2.871616211626521,289],["CYP20A1_57404",-0.23165042495548097,-4.304678145576461,301],["MAGEA8_4107",-0.21145974650517319,-3.57360092692345,293],["ATG9A_79065",-0.21055906617488945,-3.630836994124472,301],["OAT_4942",-0.1849864622190888,-2.7996589439574944,289],["CMKLR1_1240",-0.1899032072267359,-2.9198836417645877,288]]},"para":{"top":[["TBC1D3E_102723859",0.16685156759788258,-2.3513431252439925,289],["ILK_3611",0.1787392389512074,-2.7326847926011086,301],["CRK_1398",0.19200697963155602,-3.063866034526812,298],["RBMY2EP_159125",0.18860267843280615,-2.8941252293538535,289],["RAC1_5879",0.18841297282228847,-2.9146284950337016,292],["MFN1_55669",0.16312706412277772,-2.2579538335506997,288],["ARHGEF12_23365",0.1693751493416067,-2.4320823827587392,292],["ZNF141_7700",0.21150129546508567,-3.659579634579433,301],["LOC100505534_100505534",0.25045322267232,-4.798182140310736,290],["STARD6_147323",0.17437007690054815,-2.532105898461303,289]],"bottom":[["KIF26A_26153",-0.22643250135668405,-3.974714381254247,288],["CEACAM4_1089",-0.22369566571679944,-3.9367003780805394,292],["TLR10_81793",-0.19811585045132427,-3.1508279372941033,289],["NEUROD4_58158",-0.1977394522251434,-3.1404441118111768,289],["RERG_85004",-0.1958701871489401,-3.1988758202160037,301],["BTG2_7832",-0.20533666581235277,-3.3837435159117044,292],["NSMAF_8439",-0.22233404390713649,-3.894084989519897,292],["CNNM4_26504",-0.19620433383816804,-3.098288898760326,289],["HRH3_11255",-0.22880501780272253,-4.21001409033627,301],["PPP3CA_5530",-0.19632548906877653,-3.101604539082239,289],["ATG4C_84938",-0.19508373904643167,-3.149401349192294,298],["ATG9A_79065",-0.22463089888535298,-4.073282548369205,301],["MAGEA8_4107",-0.22674414790853936,-4.045188347175232,293],["CYP20A1_57404",-0.20475199822402215,-3.4564585354220614,301],["CMKLR1_1240",-0.21003132552195097,-3.4788654843465903,288],["HECTD4_283450",-0.19725632033439108,-3.154972901666064,292]]}}}
{"achilles":{"corr":{"top":[["TMCO4_255104",0.22181971181033888,-2.5222121227334235,177],["RPN2_6185",0.2596644991241516,-3.3163533627651103,177],["PGBD3_267004",0.21714153887546034,-3.8231339610532746,300],["CNN1_1264",0.21732091516888738,-2.4358525862270373,177],["NUS1_116150",0.21523960829200048,-2.3964620333166713,177],["PPHLN1_51535",0.21428547462369685,-2.3785226298970046,177],["CXXC5_51523",0.2240652877070945,-2.565943943053699,177],["CMPK2_129607",0.22003440383254202,-2.487741537867021,177],["MRPL17_63875",0.2234294828435845,-2.553519436271032,177]],"bottom":[["SAMD15_161394",-0.26432309521318825,-3.4227230033428095,177],["NABP1_64859",-0.24656196108019232,-3.027465821659557,177],["NBPF25P_101929780",-0.2417134616514569,-2.9243551409568926,177],["PROSER2_254427",-0.26834595732658184,-3.5161420909704053,177],["CD164L2_388611",-0.2351618483915066,-2.7882272624819397,177],["FBRS_64319",-0.22762755167403456,-2.636177617052949,177],["CSRNP1_64651",-0.265781301670889,-3.4564172647285596,177],["LOC107984086_107984086",-0.22880430388424028,-2.6596112467588844,177],["ZXDB_158586",-0.22490420393557187,-2.5823889062561967,177],["TMEM9B_56674",-0.2512309616748729,-3.128683801637639,177],["KRTAP1-3_81850",-0.24001819500559646,-2.8887797859884965,177],["ERICH6B_220081",-0.3034409815244451,-4.394487073404196,177],["SETD9_133383",-0.22419979137079463,-2.5685766317591177,177],["XKR6_286046",-0.2708623768098781,-3.5753214259693653,177]]},"para":{"top":[["TMCO4_255104",0.23139748273056213,-2.711661228572837,177],["RPN2_6185",0.2482014914028702,-3.0627927379591253,177],["CMPK2_129607",0.23482361826720588,-2.7812987682985995,177],["SHISA5_51246",0.2193633345220703,-2.4748525738413467,177],["NUP210L_91181",0.2230432547949476,-2.545988380391865,177],["ZC2HC1C_79696",0.22080245667919726,-2.5025387875652836,177],["UFL1_23376",0.21172095298121152,-2.3306727521750563,177]],"bottom":[["SAMD15_161394",-0.2704096786811992,-3.5646328494876056,177],["NBPF25P_101929780",-0.2572152150755293,-3.2612034381461346,177],["MANEAL_149175",-0.2404522952905349,-2.89786597522051,177],["PROSER2_254427",-0.2547040629235172,-3.2052111696786563,177],["FBRS_64319",-0.24266967043059548,-2.9445300474438274,177],["CSRNP1_64651",-0.2292804168917284,-2.669125426393505,177],["PLVAP_83483",-0.22810277917996188,-2.6456272617728747,177],["SPECC1L_23384",-0.23003543701152318,-2.684251994718485,177],["ZXDB_158586",-0.2551552764118796,-3.2152311020512574,177],["LRRC63_220416",-0.23699203992350848,-2.8258863159170335,177],["TMEM9B_56674",-0.2270337181628714,-2.6243960895137515,177],["KRTAP1-3_81850",-0.2530147141966372,-3.1678554018318086,177],["CACHD1_57685",-0.23293627671371026,-2.7428151878685325,177],["ERICH6B_220081",-0.3025604985200765,-4.371023262933396,177],["CMTM1_113540",-0.24038494832153187,-2.8964552730078896,177],["XKR6_286046",-0.26298886792126175,-3.392060537176417,177]]}}}
{"ccle_rrbs_tss1kb":{"corr":{"top":[["ALG1_16_5120809_5121809",0.16306685595512818,-2.9541243984848187,397],["FRMD8_11_65153040_65154040",0.15980693517320968,-2.443020349293046,330]],"bottom":[["RPS6KA5_14_91526993_91527993",-0.2935722846608499,-3.78310970196775,160],["BEX3_23_102630250_102631250",-0.17609047038411701,-3.4611458329597737,409],["NUP62_19_50432988_50433988",-0.16648395030290153,-2.349425303873273,290],["CYHR1_8_145690418_145691418",-0.17958067621456647,-4.088505444961616,476],["GPD1_12_50496601_50497601",-0.2709444599570264,-3.3116781907197,162],["IFNAR2_21_34601199_34602199",-0.20180630932503396,-2.7562350357288232,238]]},"para":{"top":[["DENND4C_9_19229487_19230487",0.16717920121623614,-3.0699839052540483,395],["FRMD8_11_65153040_65154040",0.1359645497927666,-1.8717758799424555,330],["OTUD7B_1_149982686_149983686",0.20178634506765702,-2.7263004024119324,235],["AHSA1_14_77923372_77924372",0.1364099013099777,-2.543409113186791,476]],"bottom":[["PTGER4_5_40679031_40680031",-0.18422076163957346,-4.278177298001103,476],["FAM98B_15_38745327_38746327",-0.18994118926415474,-2.625960642759918,254],["PRKCG_19_54384437_54385437",-0.21693378186897858,-5.652767925097239,467],["BEX3_23_102630250_102631250",-0.20323886498854896,-4.461123752212989,409],["GPD1_12_50496601_50497601",-0.2794028906160107,-3.498379749807957,162],["SLC35D2_9_99145992_99146992",-0.20985177194564805,-4.838812951713298,420],["NR4A1_12_52430498_52431498",-0.1802959582350775,-4.102258824022426,474],["COQ3_6_99842082_99843082",-0.18686937113863217,-4.307170107891396,466],["CAPN2_1_223899118_223900118",-0.1985627064611075,-4.830218905247523,469]]}}}
{"ccle_gene_tpm":{"corr":{"top":[["RP11-666G4.1_ENSG00000229031.1",0.18891610338389103,-5.054634988937566,546],["RP11-916L7.1_ENSG00000260945.1",0.1738371463668814,-4.353573737401588,546],["RP1-151B14.9_ENSG00000226233.1",0.17586421222510276,-4.444508642742863,546],["NLRP8_ENSG00000179709.4",0.18235612612743132,-4.742632282924139,546],["RP11-666G4.2_ENSG00000230654.1",0.1769906952793487,-4.495484731072046,546],["AC006960.7_ENSG00000237400.1",0.1724059453865384,-4.289983489999315,546],["PRSS48_ENSG00000189099.7",0.17950365289575784,-4.61034239369993,546],["PHKG1P1_ENSG00000226075.2",0.17586421222510273,-4.444508642742863,546],["RP3-393P12.1_ENSG00000229968.1",0.17812457999486458,-4.547115083294988,546],["RP11-16P20.2_ENSG00000253560.1",0.17586421222510273,-4.444508642742863,546],["RP11-361M10.4_ENSG00000261281.1",0.17586421222510276,-4.444508642742863,546],["GCSAML_ENSG00000169224.8",0.1766617750670039,-4.480567634046505,546],["RP11-124G5.2_ENSG00000255563.1",0.17586421222510276,-4.444508642742863,546],["RP5-998N21.3_ENSG00000237503.2",0.17586421222510273,-4.444508642742863,546],["RP11-609L23.1_ENSG00000257510.1",0.18054948595661527,-4.658608520462185,546],["FAM90A14P_ENSG00000189393.5",0.17239582798226036,-4.2895357654067725,546]],"bottom":[["RP11-190C22.1_ENSG00000242052.1",-0.1477159537181452,-3.271868592212426,546],["RP11-862G15.1_ENSG00000258742.1",-0.15823148117707875,-3.6873928840677883,546],["HNRNPRP1_ENSG00000223984.1",-0.1459848933360249,-3.206005007138256,546],["AC022182.2_ENSG00000255397.1",-0.15273995909304097,-3.467077229443304,546],["LAMP5_ENSG00000125869.5",-0.16134228950354923,-3.8154347717116357,546],["CTC-575N7.1_ENSG00000251680.1",-0.1541708562379326,-3.5237830307134965,546],["AC009302.2_ENSG00000233868.1",-0.14793106272405887,-3.280102981202061,546],["KRTAP2-1_ENSG00000212725.3",-0.1494190582963885,-3.337366132244426,546],["RP11-305B6.1_ENSG00000259137.1",-0.15085815279440143,-3.393251122154942,546],["RP11-778J16.2_ENSG00000258357.1",-0.20129752625997915,-5.673347211944266,546],["AC021016.7_ENSG00000230580.1",-0.14872733633948798,-3.3106805139744275,546],["RN7SL849P_ENSG00000243115.2",-0.14692322564660892,-3.241618170802673,546],["YBX1P2_ENSG00000231167.3",-0.16105626069971285,-3.803563545062208,546]]},"para":{"top":[["SFT2D1_ENSG00000198818.5",0.16128994385935708,-3.8132607499735967,546],["CTD-2342I9.1_ENSG00000254939.1",0.13653977372524023,-2.859145586189258,546],["ZNF114_ENSG00000178150.4",0.14817312430585527,-3.28938232107106,546],["OR7E94P_ENSG00000249646.2",0.14062220954951907,-3.0064824593343524,546],["RP11-372E1.4_ENSG00000243818.4",0.1407744165897698,-3.0120515844507305,546],["RP1-18D14.7_ENSG00000226252.1",0.13708554276715584,-2.8786157358793325,546],["SPATA31A1_ENSG00000204849.5",0.14006161934005698,-2.986018087685254,546],["RN7SL852P_ENSG00000265997.1",0.1534076177588136,-3.4934749322001113,546],["CTB-54I1.1_ENSG00000254299.1",0.13905842140684505,-2.949581225672177,546],["MATN1-AS1_ENSG00000186056.5",0.13758817085212213,-2.8966086907482205,546],["RP11-168O16.2_ENSG00000234132.1",0.13583622931188694,-2.8341499119062283,546],["RP11-608O21.1_ENSG00000248515.1",0.15239661756591386,-3.4535440110014552,546],["RP11-40G16.1_ENSG00000219867.1",0.13596782365643775,-2.838816402984906,546],["ETFA_ENSG00000140374.11",0.15275458188193117,-3.467654233192272,546],["C2orf62_ENSG00000158428.3",0.13559959031969784,-2.825768620433085,546],["RP11-705O24.4_ENSG00000253544.1",0.15689301391166083,-3.6330233448700504,546]],"bottom":[["AC007879.3_ENSG00000240440.1",-0.16476501247620287,-3.9590377408308326,546],["HNRNPRP1_ENSG00000223984.1",-0.18193137919229266,-4.722804391982766,546],["EEF1A1P22_ENSG00000259612.1",-0.1699004491199005,-4.179880682558737,546],["CTD-2193P3.2_ENSG00000249772.1",-0.1481275015246607,-3.287632319313993,546],["RP11-566F5.2_ENSG00000270333.1",-0.1460756815565827,-3.2094415951690056,546],["ARPC3P5_ENSG00000214027.3",-0.1496519552593543,-3.3463767008530776,546],["RP11-452D2.1_ENSG00000233555.2",-0.1630903822972723,-3.888420084826916,546],["UBA52P3_ENSG00000243023.2",-0.15203434687291642,-3.43929538145486,546],["RP11-778J16.2_ENSG00000258357.1",-0.18393396994509628,-4.816685708487179,546],["PARP1P1_ENSG00000227105.1",-0.1524524375099116,-3.4557422928847163,546],["RUNX1T1_ENSG00000079102.12",-0.18605613772971905,-4.917274785778196,546],["YBX1P2_ENSG00000231167.3",-0.1537073057803168,-3.505358782719808,546],["AC010904.1_ENSG00000213774.3",-0.16035590801328492,-3.77458042233167,546],["SSX5_ENSG00000165583.9",-0.1483532133429248,-3.2962950407824274,546],["PPIAP11_ENSG00000251495.1",-0.16725552652792744,-4.0653301621204125,546]]}}}
{"ccle_rrbs_tss_clusters":{"corr":{"top":[["RARA_8",0.2116326426661902,-3.0988448165304496,248],["HHAT_3",0.2056233889787063,-2.734240572131099,227],["B4GALT4-AS1_2",0.1939761336153372,-2.612741105498335,242],["PTPRS_3",0.2273788564908968,-2.5556141232753378,171],["FN3KRP_1",0.2253920193167054,-2.7031873926377776,186],["STX10_3",0.19165653329906002,-4.61757989707375,479]],"bottom":[["GLI4_1",-0.20725903781397365,-3.8458153162967728,332],["FERMT2_1",-0.20010941741823166,-2.522781724907129,218],["RHOH_2",-0.21391736325241953,-2.8055192959000697,216],["MAGEA4_1",-0.25610766706304,-3.551842228708672,197],["GPD1_1",-0.2672469768876021,-3.2492118376017762,163]]},"para":{"top":[["RARA_8",0.23452808831791994,-3.712371508945149,248],["HHAT_3",0.24651321675179705,-3.7552975970487283,227],["ADAMTSL3_3",0.18787314538108335,-3.993956508278786,423],["FN3KRP_1",0.2157601538078266,-2.50865542320827,186],["CREB3L2_2",0.18420129679129268,-2.3278635156792093,234],["LNCPRESS1_1",0.23315270293878437,-2.0923865252912686,128]],"bottom":[["LINC02578_1",-0.21161446528972608,-3.2802277229231764,265],["FERMT2_1",-0.2040379267376408,-2.607563956876751,218],["RHOH_2",-0.209671887524127,-2.7105834171446395,216],["MAGEA4_1",-0.27164068579970213,-3.947663297959737,197],["MAGEA4_3",-0.24029602248425683,-3.1872672639115183,198],["GPD1_1",-0.2715649659908914,-3.343001307889301,163],["TBL1Y_1",-0.22942300917407266,-2.2331267076317767,143],["TP53BP2_2",-0.3180235696271097,-3.1238395856060994,109],["SEMA4A_3",-0.22025423930090787,-2.0614759001030127,141],["HBZ_2",-0.20309501540655778,-2.36610274511635,196]]}}}
{"ccle_rrbs_cgi_clusters":{"corr":{"top":[["15_63340860_63343464-3",0.263457117697346,-3.6862436760467876,194],["23_48532591_48537247-2",0.22979084902835567,-2.2522211076525744,144],["19_5340350_5343061-3",0.2273788564908968,-2.5556141232753378,171],["4_2046833_2051144-2",0.3408676232338898,-5.239457109064332,169],["17_80669111_80673340-3",0.2253920193167054,-2.7031873926377776,186],["1_210500133_210504793-3",0.2056233889787063,-2.734240572131099,227]],"bottom":[["8_144347048_144349559-1",-0.20725903781397365,-3.8458153162967728,332],["19_56059261_56063516-3",-0.26829017776251907,-2.974755159378394,146],["14_91526893_91529552-1",-0.2935523801814373,-3.8242281668749993,162],["20_52274744_52279051-1",-0.24915580380350877,-4.298958469625393,259],["2_220080991_220083501-3",-0.29010724604840077,-2.7381283675004444,113]]},"para":{"top":[["17_40072291_40074835-1",0.21385776924653493,-2.6159383098178135,199],["18_74689262_74693466-3",0.18291750950816896,-2.665875788691452,279],["15_84320322_84323046-3",0.18787314538108335,-3.993956508278786,423],["7_137684291_137689056-2",0.18420129679129268,-2.3278635156792093,234],["4_151502011_151504548-2",0.19057643508598374,-2.929022226597105,287],["17_80669111_80673340-3",0.2157601538078266,-2.50865542320827,186],["18_55017707_55020656-3",0.22614146435955434,-2.369020217850021,158],["1_210500133_210504793-3",0.24651321675179705,-3.7552975970487283,227]],"bottom":[["14_53415108_53417724-1",-0.2040379267376408,-2.607563956876751,218],["1_224033674_224036263-2",-0.3180235696271097,-3.1238395856060994,109],["19_56059261_56063516-3",-0.29731792201263557,-3.571829330867724,146],["20_52274744_52279051-1",-0.2415605606363274,-4.065546096723781,259],["22_20252889_20257692-3",-0.2088774537889232,-3.817004878556525,324],["17_931026_935236-2",-0.21657008502699956,-2.513267411689834,185]]}}}
