{"depmap_hotspot":{"corr":{"top":[["ACO2",0.10146328436932332,-1.7875367044054886,14.0,546.0],["ADAM33",0.10472826846565123,-1.8809848262294442,30.0,530.0],["ADGB",0.11666065537418152,-2.2433421394388313,64.0,496.0],["ANKMY1",0.10229625278226437,-1.811146540446341,43.0,517.0],["APOF",0.10491006860560505,-1.8862596917365195,12.0,548.0],["ASB6",0.10669671495504013,-1.9385011750333072,12.0,548.0],["ASTN2",0.1039843313578527,-1.8594784675529599,82.0,478.0],["BMP4",0.10566086749074208,-1.908123953305734,25.0,535.0],["C1orf115",0.13518782704612525,-2.8720489786986603,14.0,546.0],["C4orf22",0.1124259289151508,-2.110974531538869,13.0,547.0],["CNGB3",0.10242111305033921,-1.8146992140120124,45.0,515.0],["COL1A2",0.10246093497988959,-1.8158330217438112,57.0,503.0],["CTNNA2",0.11381615002418272,-2.15396995075211,76.0,484.0],["DCAF12L1",0.1048951542490408,-1.8858266724453738,32.0,528.0],["DPT",0.11784515429730148,-2.281114555207168,8.0,552.0],["EIF3E",0.12130034589875203,-2.3931735642268497,17.0,543.0],["EMC10",0.10497414109498732,-1.888120533409016,12.0,548.0],["FAM118A",0.11390976521020296,-2.1568813116217695,15.0,545.0],["FAM53A",0.1197542053783037,-2.342682921450599,15.0,545.0],["FARSA",0.10378283908191595,-1.8536753162973405,14.0,546.0],["FBXW5",0.1278804334765181,-2.6143563573354225,32.0,528.0],["GALK2",0.10602854796938514,-1.9188783802193252,15.0,545.0],["HAVCR1",0.10597380251020702,-1.9172751467276568,18.0,542.0],["HS6ST2",0.10097198861662343,-1.7736852713351747,24.0,536.0],["ITGA3",0.10724595681264776,-1.9547080697151227,38.0,522.0],["ITGA8",0.10490574187250673,-1.8861340653291492,53.0,507.0],["KANSL1",0.11834941088346251,-2.297294288057382,48.0,512.0],["KBTBD7",0.1070784304397584,-1.9497574021063753,19.0,541.0],["KIAA0196",0.11641113960275776,-2.2354271192976,36.0,524.0],["KLHDC4",0.10936881795658997,-2.018000932877494,27.0,533.0],["KLK6",0.11131105837852655,-2.0768185283499445,23.0,537.0],["LAMC2",0.11382299184520282,-2.154182657214436,48.0,512.0],["LGSN",0.10130812404399728,-1.7831562392249307,33.0,527.0],["MED1",0.12243085414149305,-2.4304470567181484,35.0,525.0],["MEOX1",0.10143542742721853,-1.7867498480025201,14.0,546.0],["MTRF1L",0.11491639107953061,-2.1883153177261065,17.0,543.0],["NEDD4L",0.11556723188412664,-2.2087646752196752,28.0,532.0],["NELL1",0.10945541702132329,-2.020604901532397,41.0,519.0],["PAX7",0.11145510885083877,-2.081215581786136,24.0,536.0],["PDCD1",0.11547612403616273,-2.2058961377427986,16.0,544.0],["PDE3B",0.12991931730060402,-2.6849743075854464,39.0,521.0],["PHF20L1",0.11030650384388073,-2.0462884780689485,53.0,507.0],["PLXNA2",0.10521992002311145,-1.8952673420032722,63.0,497.0],["PPIL6",0.11557608020536246,-2.2090433682942305,10.0,550.0],["PPP1R42",0.10589504774077337,-1.9149699996357035,8.0,552.0],["RGS2",0.1074206318418109,-1.9598768554927346,15.0,545.0],["RNF26",0.107899875012647,-1.9740940818687551,18.0,542.0],["RPAP1",0.10586075403282301,-1.913966669136325,39.0,521.0],["SLC18A3",0.1031320357187792,-1.8349949077936858,35.0,525.0],["SLC37A1",0.10746586245202372,-1.9612164109799783,21.0,539.0],["TBC1D10B",0.10499614463217262,-1.888759793388002,39.0,521.0],["TGM7",0.11219873033590744,-2.1039905575463047,28.0,532.0],["THUMPD2",0.1029762677924514,-1.830538132182468,22.0,538.0],["TMEM132D",0.1512449177113428,-3.483582957944627,69.0,491.0],["TMEM144",0.1289340226064418,-2.6507244977209123,11.0,549.0],["USP53",0.1130983787599714,-2.131715424379743,36.0,524.0],["YIPF7",0.12529788467041314,-2.526325937553443,12.0,548.0],["ZDHHC19",0.10917465169980389,-2.0121687827386086,8.0,552.0]],"bottom":[["AL591684.1",-0.1634105109656938,-3.9891013516233254,8.0,552.0],["ANKFY1",-0.14671734784152776,-3.304789116034451,23.0,537.0],["ARAF",-0.1253241355282763,-2.527212789473068,20.0,540.0],["ARX",-0.12569251804935078,-2.539675332090039,10.0,550.0],["C1orf74",-0.1262409279974474,-2.5582878199693346,8.0,552.0],["C4B",-0.11483775877810856,-2.185851374098233,13.0,547.0],["C8orf58",-0.1381601798903609,-2.9805317057133633,16.0,544.0],["CAMKMT",-0.1207976658977352,-2.3766964817996725,13.0,547.0],["CLDN19",-0.12301202382023833,-2.4497256894397865,8.0,552.0],["COX20",-0.1171057690862885,-2.257497906507227,10.0,550.0],["DNAJC28",-0.11474646674506438,-2.1829925423582366,16.0,544.0],["DNALI1",-0.11478064736299115,-2.1840626894646693,10.0,550.0],["DSC3",-0.117634876237775,-2.2743850779024686,32.0,528.0],["EIF5AL1",-0.1330552331125755,-2.7955240277518643,9.0,551.0],["EMID1",-0.13310165416220732,-2.7971781650037326,10.0,550.0],["EMR3",-0.12399577876751937,-2.482540479675378,24.0,536.0],["FBXW2",-0.1504400397811623,-3.451430372454163,10.0,550.0],["FGF4",-0.12708196829264412,-2.5869704012270502,11.0,549.0],["FLRT1",-0.11377254555281795,-2.1526145798595953,9.0,551.0],["FOXD1",-0.11417969673455468,-2.165287375705557,21.0,539.0],["GIMAP2",-0.12670597371544537,-2.5741268606789927,12.0,548.0],["HELLS",-0.11185214745400444,-2.0933597985089576,22.0,538.0],["HIST1H3H",-0.13977509731552443,-3.0403654673189338,8.0,552.0],["HPS3",-0.11877215422990309,-2.310904415219368,43.0,517.0],["IKBKG",-0.12442739527126001,-2.4970098876831743,11.0,549.0],["IL17B",-0.12863672175379176,-2.6404354270009476,8.0,552.0],["IMMP1L",-0.12629776132425083,-2.5602207619811077,9.0,551.0],["IRAK1BP1",-0.1163281268763226,-2.2327970492578353,11.0,549.0],["KCTD16",-0.11302233225747006,-2.129364604373882,29.0,531.0],["KDELC1",-0.11687631629052789,-2.250194937978555,21.0,539.0],["MEF2C",-0.11287575213809331,-2.124837168381745,18.0,542.0],["METRN",-0.11808661139517473,-2.288854600444461,10.0,550.0],["MLTK",-0.1137289030845566,-2.1512584700710637,28.0,532.0],["MRPL35",-0.12526544986055416,-2.525230393904678,9.0,551.0],["MTO1",-0.11817081439179147,-2.2915569826297593,28.0,532.0],["MUM1",-0.11830651552470421,-2.295915619280833,24.0,536.0],["NKRF",-0.1170428552417434,-2.255494276447507,14.0,546.0],["PIGX",-0.11735319516006712,-2.2653867027373225,8.0,552.0],["PIK3IP1",-0.12166896476061304,-2.4052940876208533,14.0,546.0],["POPDC2",-0.13722266315929355,-2.946085072081953,13.0,547.0],["PRAM1",-0.1175650708328318,-2.272153397852804,24.0,536.0],["PTOV1",-0.11453687707957215,-2.1764365267488497,20.0,540.0],["PTPN3",-0.11489065572157882,-2.1875087417530223,32.0,528.0],["RBM34",-0.14626571607441044,-3.287229734404197,14.0,546.0],["REM1",-0.13781564980623678,-2.9678481887971033,19.0,541.0],["RFC2",-0.13398041662142432,-2.828588842698786,10.0,550.0],["SDE2",-0.11961776095635777,-2.338254149315789,31.0,529.0],["SEPT9",-0.11363050605252595,-2.1482025853238005,27.0,533.0],["SIAH1",-0.11663652625618696,-2.242576092584578,8.0,552.0],["SLC4A9",-0.12349264540909004,-2.4657290927756383,30.0,530.0],["STIP1",-0.1289225907690375,-2.6503284726305436,23.0,537.0],["TAGLN2",-0.13876361531107254,-3.0028156203485428,12.0,548.0],["TBC1D24",-0.13234242505016436,-2.7701890936197184,17.0,543.0],["TCIRG1",-0.14228213657327055,-3.1345041058627436,25.0,535.0],["WAC",-0.1150359285868909,-2.1920637824621094,23.0,537.0],["ZBTB2",-0.13609141514605003,-2.9048023763586963,22.0,538.0],["ZNF114",-0.11284246383527867,-2.1238096832793447,18.0,542.0],["ZNF461",-0.11453004456905255,-2.1762229761187606,21.0,539.0],["ZNF793",-0.1341185749521312,-2.8335440506467764,28.0,532.0],["ZNF836",-0.11247541193576911,-2.1124972016904557,37.0,523.0]]},"para":{"top":[["ACO2",0.10948984024670134,-2.316158289128153,14.0,546.0],["APOF",0.11373660086904021,-2.4446648326697553,12.0,548.0],["ASB6",0.10839685434936697,-2.2836297307081708,12.0,548.0],["BRCC3",0.10639044411336701,-2.224653495703831,10.0,550.0],["C1orf115",0.1463873857644104,-3.5688613655455694,14.0,546.0],["C4orf22",0.11080488156882874,-2.355509571940026,13.0,547.0],["CXorf48",0.08801374575648024,-1.7265168041937156,8.0,552.0],["DMC1",0.1006768059935978,-2.061881772310185,10.0,550.0],["DPT",0.1097495571093498,-2.323573847549751,8.0,552.0],["EIF3E",0.12941218965676465,-2.95446042025143,17.0,543.0],["EMC10",0.11709301296712052,-2.5491394064266126,12.0,548.0],["FAM118A",0.11292111339255037,-2.4197811773092934,15.0,545.0],["FAM53A",0.1306067285467305,-2.9954942190239797,15.0,545.0],["FARSA",0.10443102048732225,-2.1682027691500836,14.0,546.0],["GALK2",0.11398156613873908,-2.4523259039436875,15.0,545.0],["GCA",0.09355264208735212,-1.8689161941562866,9.0,551.0],["HIST1H3J",0.08540731013386635,-1.6618381317156534,8.0,552.0],["HS2ST1",0.09838739446305517,-1.998729395075885,11.0,549.0],["ID1",0.10149332492036083,-2.084802225607121,12.0,548.0],["NKX2-5",0.0953534206439631,-1.9166282441797868,9.0,551.0],["OR56B3P",0.08228889608538187,-1.5863758807109958,8.0,552.0],["PARP16",0.08866535466213374,-1.7429156835878703,8.0,552.0],["PDCD1",0.1134472758777269,-2.4359298848449216,16.0,544.0],["PHF19",0.1131372383929836,-2.4264822176835135,18.0,542.0],["PMP2",0.08874906510123286,-1.745151250832274,10.0,550.0],["PPIL6",0.1241569392887078,-2.777142799185559,10.0,550.0],["PPP1R3D",0.11035447416502217,-2.342109606506887,17.0,543.0],["PPP1R42",0.11044770950826424,-2.344476856126478,8.0,552.0],["PRPSAP1",0.10065603584023726,-2.061356242407628,11.0,549.0],["RDH16",0.10025802858108251,-2.0502873193705695,11.0,549.0],["RFPL3",0.09786992549629683,-1.9846478117242665,12.0,548.0],["RGS2",0.10631893984369786,-2.2227901157234538,15.0,545.0],["RNF26",0.11968185030113015,-2.6316621639904314,18.0,542.0],["SIRT4",0.10944778768665506,-2.314866202030252,13.0,547.0],["SPRN",0.10542101223608026,-2.196388539015681,8.0,552.0],["TMEM144",0.1205165980720595,-2.658247969644931,11.0,549.0],["TMEM47",0.08700834928405844,-1.7014594895883126,9.0,551.0],["ZNF346",0.10313742386999475,-2.131097767397655,10.0,550.0],["ZNF580",0.0923776147903472,-1.8383151156621722,12.0,548.0],["ZSCAN30",0.10739380775687869,-2.2541295908264054,13.0,547.0]],"bottom":[["AL591684.1",-0.11603292869957972,-2.515607677405625,8.0,552.0],["C15orf38",-0.09089944233865993,-1.7998383670571934,8.0,552.0],["C1orf95",-0.092063029670184,-1.8299144480662968,8.0,552.0],["C3orf72",-0.09362859546629124,-1.8709726306129266,10.0,550.0],["C4B",-0.1253294539293902,-2.8162597782880168,13.0,547.0],["CAB39",-0.10300427866925031,-2.12737236299786,11.0,549.0],["CAMKMT",-0.1244491768166289,-2.7869882227024068,13.0,547.0],["CHMP2B",-0.09424811896784574,-1.887368182568236,11.0,549.0],["DOLPP1",-0.11291451465109524,-2.4192023783733054,8.0,552.0],["EMID1",-0.10830889194920193,-2.2809247146307854,10.0,550.0],["EVA1C",-0.12248520249786546,-2.7225114884641415,19.0,541.0],["FAM110C",-0.09050685073179104,-1.7899299618546203,11.0,549.0],["FBXW2",-0.10751648958222663,-2.257583405428883,10.0,550.0],["FGF3",-0.11940252508685603,-2.6223764890095693,10.0,550.0],["FKBP11",-0.09320127066167189,-1.859688954122523,9.0,551.0],["HAGHL",-0.09886159270709331,-2.0117720363502687,12.0,548.0],["HMG20A",-0.11784709847091915,-2.573004516744,13.0,547.0],["IKBKG",-0.10583013020924907,-2.208427567088141,11.0,549.0],["IL17B",-0.12226975679654872,-2.7149450275225413,8.0,552.0],["INSL6",-0.10545999376354666,-2.197758358720046,12.0,548.0],["IRAK1BP1",-0.08887502096925656,-1.748382313603728,11.0,549.0],["LIPM",-0.11736817329592256,-2.557940097835586,15.0,545.0],["MCU",-0.07754145977276367,-1.4754889304102545,8.0,552.0],["NAPB",-0.11320435825183983,-2.428413484300141,14.0,546.0],["NKRF",-0.09961983526161905,-2.032733503822805,14.0,546.0],["PSAP",-0.12419864467644334,-2.7785228840965277,10.0,550.0],["RAD1",-0.118084680177917,-2.580488888034834,12.0,548.0],["RAD18",-0.09245389688348539,-1.8403024684903158,12.0,548.0],["RBM34",-0.12027963064257982,-2.650750166831462,14.0,546.0],["RFC2",-0.10376300468602788,-2.148907764066472,10.0,550.0],["RGS13",-0.10937720916326209,-2.3124698492067606,8.0,552.0],["SERINC1",-0.0994820348957054,-2.028692638220173,9.0,551.0],["TAGLN2",-0.11755070552594968,-2.5635810458813415,12.0,548.0],["TPMT",-0.10290790629608731,-2.1245223257253896,9.0,551.0],["ZNF705G",-0.1091886705301208,-2.306937049375879,9.0,551.0]]}}}
{"depmap_damaging":{"corr":{"top":[["ABCA2",0.08498404561126369,-1.3525539068438817,11.0,549.0],["ANKRD31",0.12815511724380402,-2.623812544036107,12.0,548.0],["BAG6",0.09116502501998022,-1.5085929530397308,15.0,545.0],["CHD4",0.09763481195938761,-1.6810462429887998,14.0,546.0],["CWF19L2",0.08226242274122478,-1.2865192683937305,14.0,546.0],["EPG5",0.10228798995802021,-1.8109115619112481,16.0,544.0],["GYLTL1B",0.07922841146419601,-1.214815305438248,9.0,551.0],["IFFO1",0.08613402538760555,-1.3809452492982277,9.0,551.0],["IGSF9",0.0975063840766662,-1.6775314518997944,9.0,551.0],["ITGA3",0.09951152678396588,-1.732832970028166,9.0,551.0],["KANSL1",0.1577114630608489,-3.7477086588117166,9.0,551.0],["KIAA0947",0.09832376993798853,-1.6999650947215927,17.0,543.0],["MYT1L",0.08829217384580632,-1.435014959249419,9.0,551.0],["NBN",0.10264254532809017,-1.8210084005616127,11.0,549.0],["NYNRIN",0.10539511737288182,-1.9003702043551873,12.0,548.0],["OSBPL8",0.09845279125400078,-1.7035199536063477,11.0,549.0],["PABPC3",0.09052934880439528,-1.4921542136327188,8.0,552.0],["PHF20L1",0.08617798702540334,-1.3820363844690622,22.0,538.0],["PHGR1",0.11769465840879222,-2.2762972204167076,8.0,552.0],["SCAF1",0.09439969241628406,-1.5936398950222377,14.0,546.0],["SLC38A10",0.10857321295950736,-1.9941585553844519,12.0,548.0],["SPEG",0.16195792120845748,-3.9268039375732826,18.0,542.0],["STAB1",0.10355354114019646,-1.84708261159767,25.0,535.0],["TEAD2",0.10458146589110873,-1.8767309175870286,19.0,541.0],["TRIM51",0.08463089980952575,-1.343893695630565,13.0,547.0],["USP53",0.1448918804642621,-3.2341215415720916,10.0,550.0],["ZBTB20",0.10287369077910097,-1.8276062559922264,19.0,541.0]],"bottom":[["ANKS1B",-0.1286307837911339,-2.6402301385677536,9.0,551.0],["B3GAT1",-0.14337222392923066,-3.175912593513513,8.0,552.0],["C8orf58",-0.13741296892564991,-2.9530602145964524,11.0,549.0],["CAPN3",-0.11858510823221742,-2.304877350783805,8.0,552.0],["DOPEY2",-0.14978315926671298,-3.4253079521106717,25.0,535.0],["EPB41L5",-0.12873245137508563,-2.6437461684569197,9.0,551.0],["EPHA3",-0.10807266024437753,-1.9792328778169936,10.0,550.0],["INADL",-0.10522580311030975,-1.895438580971731,13.0,547.0],["INTS6",-0.12297398541433145,-2.4484614396936717,16.0,544.0],["IPO8",-0.10109154996812954,-1.7770510965649366,9.0,551.0],["KRT16",-0.1069823409942223,-1.9469207160754587,8.0,552.0],["LBP",-0.09354739732822108,-1.5710039372765747,9.0,551.0],["NES",-0.12088025994167234,-2.3793997108835536,11.0,549.0],["PCSK1",-0.11183730323418785,-2.0929051019287055,8.0,552.0],["PLXNB1",-0.12312866852690434,-2.4536046365103714,14.0,546.0],["PPM1D",-0.10589729270561479,-1.9150356899355152,14.0,546.0],["SSH2",-0.12239992927851934,-2.42942344365324,13.0,547.0],["TEX2",-0.12230757173125491,-2.4263677496100886,8.0,552.0],["TMEM57",-0.10380802382117668,-1.8544001516553454,22.0,538.0],["UBR4",-0.11875124032655454,-2.3102301129954315,18.0,542.0],["USP26",-0.10968242264416697,-2.0274389968167403,11.0,549.0],["WDR63",-0.12074815951719775,-2.3750769506233067,9.0,551.0],["ZMYM2",-0.15143712843626553,-3.491284819386583,13.0,547.0],["ZNF793",-0.11816525318117377,-2.2913784518801874,18.0,542.0]]},"para":{"top":[["ANKRD31",0.12987026356776724,-2.969979837302025,12.0,548.0],["BAG6",0.09910101953899378,-2.0184614038049062,15.0,545.0],["C11orf49",0.09369205193431768,-1.8725156025550889,8.0,552.0],["EPG5",0.11052987077040956,-2.34734616740929,16.0,544.0],["FRMPD2",0.08555036745447926,-1.665556522079777,12.0,548.0],["IFFO1",0.08744756356615872,-1.7124078408750651,9.0,551.0],["IGSF9",0.09992124917780566,-2.0408342731123974,9.0,551.0],["KANSL1",0.09864752775971497,-2.005740192544183,9.0,551.0],["LRFN2",0.08368520088321073,-1.6199067717238882,8.0,552.0],["MROH2B",0.09281529283488861,-1.8496916245303474,11.0,549.0],["MTERFD3",0.10910082767370077,-2.3043255517116483,9.0,551.0],["MYT1L",0.0856467850095477,-1.6677840589607529,9.0,551.0],["NBN",0.10423810117263005,-2.162545790762562,11.0,549.0],["NYNRIN",0.10702377667287953,-2.2432443190344324,12.0,548.0],["PABPC3",0.0872225063710439,-1.7067272515672598,8.0,552.0],["PHGR1",0.11058733998804711,-2.348670456423992,8.0,552.0],["SCAF1",0.10018585705287825,-2.048406680126874,14.0,546.0],["SLC38A10",0.11674974354799869,-2.5383389352184635,12.0,548.0],["SPEG",0.14344912512545194,-3.457950527726473,18.0,542.0],["TMEM168",0.08766717070720884,-1.717897637859595,9.0,551.0],["TRIM51",0.09327269573966616,-1.8617524979328368,13.0,547.0],["USP20",0.09829985776715297,-1.9961512121163572,8.0,552.0],["USP53",0.1372524310376679,-3.22979917693537,10.0,550.0]],"bottom":[["CAPN3",-0.08536076664060539,-1.6606964647200466,8.0,552.0],["DOPEY2",-0.10759117368850155,-2.26021705490929,25.0,535.0],["EPHA3",-0.11560733480292172,-2.5024733711273615,10.0,550.0],["KIAA1324L",-0.09783442283454336,-1.9834518958239984,8.0,552.0],["KRT16",-0.0962984875569316,-1.9418807390673845,8.0,552.0],["LTBP1",-0.10630533860803856,-2.2220353053563753,8.0,552.0],["MTBP",-0.0845799592511483,-1.6418538085735634,13.0,547.0],["PPM1D",-0.10740263489143304,-2.2544268119048594,14.0,546.0],["RAPGEF4",-0.10216124201651688,-2.103416231672064,9.0,551.0],["SPTAN1",-0.10305895097080213,-2.129228377386969,21.0,539.0],["TEX2",-0.08833955020930698,-1.7347047664555502,8.0,552.0],["TMEM57",-0.11093237082690881,-2.359597281052613,22.0,538.0],["ZMYM2",-0.11084155978186046,-2.356613722527847,13.0,547.0],["ZNF793",-0.10916036895597586,-2.306470351335028,18.0,542.0]]}}}
{"ccle_rrbs_enhancer_clusters":{"corr":{"top":[["6-163274830-163278380-2_enh",0.16445348614886163,-3.016623873032521,400]],"bottom":[["5-124684164-124687593-1_enh",-0.15395847461200482,-2.283949341650294,328]]},"para":{"top":[["6-163274830-163278380-2_enh",0.16228955145070717,-2.9488613320487,400],["10-35970892-35974412-2_enh",0.14603667213693092,-2.778029841489866,461]],"bottom":[]}}}
{"ccle_mirna":{"corr":{"top":[["hsa-miR-548q_miR00709.1",0.13931542891104928,-2.9082340566782015,535],["hsa-miR-551b_miR00503.1",0.12232411609110645,-2.336709224977505,535],["hsa-miR-637_miR00593.1",0.14610017126031774,-3.1549468004309418,535]],"bottom":[]},"para":{"top":[["hsa-miR-548q_miR00709.1",0.14690913694534927,-3.1850765192873607,535],["hsa-miR-637_miR00593.1",0.11326902686954439,-2.0587126850139503,535]],"bottom":[["hsa-miR-616_miR00571.1",-0.10998917538856114,-1.9625066112885885,535],["ebv-miR-BART19-3p_miR00733.1",-0.12431045760968623,-2.4001431164244,535]]}}}
{"prism_primary_logfold":{"corr":{"top":[["saclofen_BRD-A24122750-001-03-7::2.5::HTS",0.2221641875504679,-7.112789852430167,573],["IKK-2-inhibitor_BRD-K26373640-001-05-1::2.5::HTS",0.2408091955585885,-8.290146879650933,574],["alpha-methylhistamine-dihydrobromide-(S)-(+)_BRD-K28308851-303-01-8::2.5::HTS",0.2700101923873534,-10.320003834583039,574],["isometheptene-mucate_BRD-A64743628-001-01-5::2.5::HTS",0.2331959873248872,-7.802042239170011,574],["centpropazine_BRD-A28958257-001-01-2::2.5::HTS",0.220434474039059,-7.020966071506595,574],["tropanyl-3,5-dimethylbenzoate_BRD-A84389633-001-05-7::2.5::HTS",0.22823217831888026,-7.492743877600733,574],["diclofenamide_BRD-K71499074-001-12-9::2.5::HTS",0.24455306748699374,-8.522572328657116,573],["pemirolast_BRD-K31731454-237-02-5::2.5::HTS",0.21565887605318929,-6.601341222901882,561],["thiethylperazine_BRD-K69600043-328-05-5::2.5::HTS",0.2536674693481475,-9.152781412862268,574],["trimetozine_BRD-K53220666-001-02-6::2.5::HTS",0.20021108542754074,-5.820903338416351,568],["deptropine_BRD-A65797496-048-09-3::2.5::HTS",0.2172123941537657,-6.831012536279816,574],["eupatilin_BRD-K47031502-001-01-6::2.5::HTS",0.21243400558509745,-6.367646319475796,556]],"bottom":[["anisodamine_BRD-A29623586-001-01-3::2.5::HTS",-0.16735617745404777,-4.134909038592045,556],["salinomycin_BRD-A28301258-001-04-8::2.5::HTS",-0.10161441078367327,-1.7275522634628349,535],["meglitinide_BRD-K51324732-001-01-0::2.5::HTS",-0.14284827911832848,-3.189681359386701,567],["methoxyflurane_BRD-K06152156-001-01-8::2.5::HTS",-0.16022979466090548,-3.4200541683330616,488],["tanaproget_BRD-K99604664-001-01-1::2.5::HTS",-0.11974007285895043,-2.3802752029165695,571]]},"para":{"top":[["IKK-2-inhibitor_BRD-K26373640-001-05-1::2.5::HTS",0.2170255012353766,-6.820083501202705,574],["alpha-methylhistamine-dihydrobromide-(S)-(+)_BRD-K28308851-303-01-8::2.5::HTS",0.22110492810984445,-7.060857145824663,574],["PRE-084_BRD-K57304726-003-06-9::2.5::HTS",0.19324839587028783,-5.508136729292038,574],["rasagiline_BRD-K58114536-001-01-6::2.5::HTS",0.22519703997614704,-7.307071737283583,574],["trimetozine_BRD-K53220666-001-02-6::2.5::HTS",0.20444268495113999,-6.0487691779191595,568],["zibotentan_BRD-K31553034-001-03-0::2.5::HTS",0.19218618094960035,-5.401965521342695,568],["isometheptene-mucate_BRD-A64743628-001-01-5::2.5::HTS",0.21742901984142451,-6.8436924608950624,574],["centpropazine_BRD-A28958257-001-01-2::2.5::HTS",0.20840866440882472,-6.326722296839854,574],["HA-966-(R)-(+)_BRD-K58046914-001-03-8::2.5::HTS",0.1952521166054301,-5.61275404288993,574],["thiethylperazine_BRD-K69600043-328-05-5::2.5::HTS",0.2329748390957502,-7.7881126943068395,574],["deptropine_BRD-A65797496-048-09-3::2.5::HTS",0.2121956031825556,-6.541013064798126,574],["fomepizole_BRD-K56810756-001-03-0::2.5::HTS",0.20210357926816216,-5.978679584570363,574],["vicriviroc_BRD-K84748119-050-01-1::2.5::HTS",0.1966105863793716,-5.52377780991883,556],["diclofenamide_BRD-K71499074-001-12-9::2.5::HTS",0.20398426734899566,-6.071773074947914,573]],"bottom":[["anisodamine_BRD-A29623586-001-01-3::2.5::HTS",-0.1346657700355583,-2.8359707285224873,556],["meglitinide_BRD-K51324732-001-01-0::2.5::HTS",-0.13602973293536874,-2.933294229146799,567],["ETP-46464_BRD-K24556407-001-02-3::2.5::HTS",-0.13616040403583415,-2.946893028371057,569],["meisoindigo_BRD-K14529030-001-01-9::2.5::HTS",-0.1229862496117496,-2.4597805598089084,563],["tanaproget_BRD-K99604664-001-01-1::2.5::HTS",-0.10981349062464421,-2.063839467657373,571]]}}}
{"prism_secondary_logfold":{"corr":{"top":[["broxyquinoline_BRD-K23301018-001-11-7::0.00256821::HTS002",0.1847387385169539,-4.228012917755663,467],["indoprofen_BRD-A44090213-001-25-6::0.0024414::HTS002",0.19165704694348598,-4.583429729770407,475],["terconazole_BRD-K86204871-001-16-2::0.00976562::HTS002",0.21031759704765812,-4.817069788167088,416],["hesperadin_BRD-K58122457-001-02-2::0.00976562::HTS002",0.2643024014921263,-2.7953334145921214,140],["CGP-54626_BRD-A74208568-003-01-5::0.0390625::HTS002",0.20262240124126457,-2.9333311437955776,254],["PF-477736_BRD-K03063480-001-06-6::0.000590687::HTS002",0.18642859437262288,-4.224200014199464,458],["lovastatin_BRD-K09416995-001-39-9::0.0390625::HTS002",0.19053154821512938,-3.0579623563952008,302],["oltipraz_BRD-K86972824-001-01-4::2.5::HTS002",0.20078095514258695,-5.068516021615581,484],["berberine_BRD-K14796088-003-26-8::0.0024414::HTS002",0.19596173177033516,-4.761354176407707,474],["endo-IWR-1_BRD-K61314889-001-04-4::0.0390625::HTS002",0.18472467399920478,-4.338817963560867,481],["AT-7519_BRD-K13390322-001-06-3::0.00061034::HTS002",0.213582384789508,-4.666300331572278,389]],"bottom":[["AVN-944_BRD-K62196610-001-01-6::0.15625::MTS010::PROS004_PR500",-0.16277515186710154,-3.4154548166715983,472],["valnemulin_BRD-K33813875-003-01-8::0.625::HTS002",-0.15577230572410453,-3.159373944042075,471],["FK-866_BRD-K58550667-001-08-7::0.15625::MTS010::PROS005_PR500",-0.15838517013549436,-3.221774012402798,466],["Ro-9187_BRD-K57284066-001-01-6::2.5::HTS002",-0.17071823383913,-3.7255256559878718,474],["chlormidazole_BRD-K60443845-001-08-6::2.5::HTS002",-0.15692360635110647,-3.2113874847710275,473],["OSI-930_BRD-K25340465-001-11-1::0.00251597::HTS002",-0.16140877048447996,-3.2797709675544895,458],["oxaliplatin_BRD-K78960041-001-05-7::0.641901::HTS002",-0.18706267293788337,-4.372211771543405,473],["GDC-0349_BRD-K43187018-001-03-3::0.0394454::HTS002",-0.15897262832548262,-3.290178810897474,474],["betulinic-acid_BRD-K45401373-001-20-9::2.50156::HTS002",-0.17070853278761272,-3.2654397149933088,407]]},"para":{"top":[["streptozotocin_BRD-K34411947-001-12-5::2.5::HTS002",0.18332813615474633,-3.5322385281488313,386],["ibutilide_BRD-A74391928-051-01-3::0.00061034::HTS002",0.17650030908756387,-3.797430696425985,453],["TG-101209_BRD-K39841531-001-02-1::0.0390625::HTS002",0.18131010625413047,-4.127957633789092,472],["BI-D1870_BRD-A81370665-001-03-6::0.0390625::HTS002",0.17900296643785138,-4.102629691764298,481],["uridine_BRD-K13050303-001-17-3::0.0390625::HTS002",0.17979853503450002,-4.044445852503059,469],["endo-IWR-1_BRD-K61314889-001-04-4::0.0390625::HTS002",0.19775537903238274,-4.903826492020123,481],["sodium-glucoheptonate_BRD-K35952844-236-01-6::2.5::HTS002",0.1821626240060872,-3.7897410368218427,424],["oltipraz_BRD-K86972824-001-01-4::2.5::HTS002",0.19840539717426933,-4.960413052553774,484],["isoxsuprine_BRD-A16700644-003-04-4::2.5::HTS002",0.22490975460616378,-4.094263532350263,302],["S26948_BRD-K48826825-001-01-8::0.0390625::HTS002",0.17703745785891992,-3.9792037784115775,475],["terbutaline_BRD-A50157456-065-20-6::0.0390625::HTS002",0.1803065786864731,-3.943083915698736,453],["berberine_BRD-K14796088-003-26-8::0.0024414::HTS002",0.19303396347259713,-4.634084784132047,474]],"bottom":[["cladribine_BRD-K93034159-001-25-8::0.625::HTS002",-0.17268900379105054,-2.8852337998607136,344],["AT13387_BRD-K58435339-001-03-0::0.15625::HTS002",-0.15757439131799628,-3.2344233531211986,473],["valnemulin_BRD-K33813875-003-01-8::0.625::HTS002",-0.1704624966773223,-3.6952913422339315,471],["barasertib-HQPA_BRD-K63923597-001-10-0::0.0390625::HTS002",-0.15936774738224735,-3.208392258918473,458],["k-strophanthidin_BRD-A55312468-001-04-7::0.0772565::HTS002",-0.17330507636781567,-2.2505641847795186,254],["selinexor_BRD-K21361524-001-01-1::0.15625::HTS002",-0.17959650695758542,-4.089144595069828,476],["tanshinone-i_BRD-K34073885-001-09-3::10.1774::HTS002",-0.16717838030937776,-3.486121967603234,458],["pevonedistat_BRD-K67844266-003-01-9::0.625::HTS002",-0.15939721220188904,-3.311402544652672,475],["dinaciclib_BRD-K13662825-001-07-5::0.0390625::HTS002",-0.16096777461283487,-3.362077851736562,474],["chlormidazole_BRD-K60443845-001-08-6::2.5::HTS002",-0.17114907286149397,-3.7351835981208406,473],["oxaliplatin_BRD-K78960041-001-05-7::0.641901::HTS002",-0.1878780236541519,-4.4063261082695435,473],["eprinomectin_BRD-A91366704-001-01-9::2.5::HTS002",-0.1890847378191951,-2.605869358318616,254],["KPT-185_BRD-K71467466-001-02-3::0.625::HTS002",-0.16596509092529924,-3.565256522476303,477],["SNX-2112_BRD-K71281111-001-04-3::0.0390625::HTS002",-0.1718786123772595,-3.7701218930384455,474],["betulinic-acid_BRD-K45401373-001-20-9::2.50156::HTS002",-0.15907689926703292,-2.8920109587907192,407]]}}}
{"ccle_proteomics":{"corr":{"top":[["SLC43A2_Q8N370-3",0.24257394147341685,-2.5268042723865407,148],["SCML2_Q9UQR0",0.2311851357190816,-3.9738208278443135,276],["PEX5_B4E0T2",0.24032877501532005,-4.260565681846221,276],["C15orf57_Q9BV29-2",0.24740787826355204,-2.7932438745734007,160],["UCK1_Q9HA47",0.23867322919710507,-4.207808986273775,276],["FAM171A2_A8MVW0",0.24104837004961663,-2.4996542138910445,148],["SCNM1_Q9BWG6",0.26427062782543276,-3.0839135867737704,157],["IFT43_Q96FT9-2",0.2837457730196033,-2.634071103014114,113],["DCLK2_Q8N568-3",0.2574198493088895,-2.4746110277201634,128],["ATP7B_P35670",0.2311344208352139,-2.3008685585648196,146]],"bottom":[["FGFR2_P21802-11",-0.251409280033631,-2.2511880167063905,120],["SPATS2L_B4DT67",-0.25915215818343307,-3.6918419803588143,201],["SLC9A8_Q9Y2E8-2",-0.2616351775647363,-2.5952800705212438,131],["JPH2_Q9BR39",-0.2321045382702971,-2.528944765976233,162],["RFWD3_Q6PCD5",-0.2994832983020633,-3.0942635063430846,122],["ADAMTS12_P58397",-0.2905712652940848,-2.974282858785002,124],["SLC37A2_Q8TED4-2",-0.2792743681574609,-3.1172703469181764,142],["SAMD9L_Q8IVG5",-0.22716747712773705,-2.1451188527328826,139],["SLCO3A1_Q9UIG8",-0.2520505809166035,-2.512247680932618,136],["OSBPL5_Q9H0X9",-0.22881643627409884,-3.4162412300003417,237]]},"para":{"top":[["SYP_P08247",0.23749733818159155,-3.2715663304955123,209],["TBKBP1_A7MCY6",0.26179983725206213,-2.2417495095411515,110],["PEX5_B4E0T2",0.2453326731432504,-4.422296757955921,276],["FAM171A2_A8MVW0",0.3026596714443148,-3.7331896672388543,148],["MAPT_P10636-2",0.2652983358935059,-2.6238959450701107,129],["IQCB1_Q15051",0.2536579114865085,-2.791888808119146,152],["WDR54_Q9H977",0.24338270226995032,-2.8591230057094448,170],["ACOT13_Q9NPJ3",0.2364590249459219,-4.137831238596102,276],["ATP7B_P35670",0.23748946811364788,-2.409217163665913,146]],"bottom":[["SPATS2L_B4DT67",-0.26947776906397247,-3.960537214037444,201],["SLC9A8_Q9Y2E8-2",-0.2868158603103778,-3.047792596822642,131],["SLC37A2_Q8TED4-2",-0.27488479407590705,-3.0312131799906012,142],["SPATS2L_Q9NUQ6-2",-0.21480644986863798,-3.4880726049812996,276],["SLCO3A1_Q9UIG8",-0.2827949114901758,-3.0703801986979524,136]]}}}
{"depmap_copy_number":{"corr":{"top":[["MIR659_724029",0.13697559203261794,-2.9325920068533753,559],["MIR658_724028",0.13697559203261794,-2.9325920068533753,559],["GCAT_23464",0.13372312912256806,-2.815119411594615,559],["USP46-AS1_643783",0.13789370986236632,-2.966212636337151,559],["KCTD17_79734",0.1466164104328511,-3.295798987659735,559],["LOC101927051_101927051",0.1334480563819306,-2.8053006287288524,559],["H1F0_3005",0.13686643602390922,-2.928608307167267,559],["ANKRD54_129138",0.13372312912256806,-2.815119411594615,559],["EIF3L_51386",0.13507074215219708,-2.8634846132503315,559],["GALR3_8484",0.13372312912256806,-2.815119411594615,559],["SCLT1_132320",0.1316928892641483,-2.743075507504692,559],["MICALL1_85377",0.13545517573115057,-2.877361570296909,559],["MFNG_4242",0.13199625532884166,-2.753778002513382,559]],"bottom":[]},"para":{"top":[["C1QTNF6_114904",0.12616546735763023,-2.551907431785689,559],["IL2RB_3560",0.12616546735763023,-2.551907431785689,559],["MIR659_724029",0.1272390176879843,-2.588469109191627,559],["PABPC4L_132430",0.1366824445143648,-2.9218999369356853,559],["LINC02485_105377439",0.13510307642573383,-2.864650422752893,559],["LINC02462_105377434",0.1366824445143648,-2.9218999369356853,559],["MFNG_4242",0.13032177525204064,-2.6949775374150517,559],["SSTR3_6753",0.12616546735763023,-2.551907431785689,559],["MIR658_724028",0.1272390176879843,-2.588469109191627,559]],"bottom":[]}}}
{"depmap_gene_tpm":{"corr":{"top":[["SCO2_9997",0.1512710211058091,-3.479256874820324,559],["PRDM13_59336",0.13410692339094354,-2.828849298628508,559],["CHCHD10_400916",0.16236366580049746,-3.9380011874403213,559],["OR1J2_26740",0.13074419187136394,-2.709747940897313,559],["ASB12_142689",0.1338145921361401,-2.8183882160878184,559]],"bottom":[["HAVCR2_84868",-0.17048363821075274,-4.293270652402044,559],["SORCS3_22986",-0.17074775434461284,-4.30510531269498,559],["BABAM2_9577",-0.15345480516723858,-3.5671620889375237,559],["CYB561D1_284613",-0.14751857812302097,-3.330942916853122,559],["AWAT2_158835",-0.16569614711025168,-4.081801236229233,559],["CLEC5A_23601",-0.15369876755975248,-3.577055414658135,559],["ANKDD1B_728780",-0.1632571893698105,-3.9762848315931993,559],["PLA2G2D_26279",-0.154052232798203,-3.591415420362445,559]]},"para":{"top":[["NDUFA3_4696",0.13317835303140657,-2.7956910842811715,559],["SCO2_9997",0.1464276397014453,-3.2884705694054044,559],["PSMB5_5693",0.17824129546878856,-4.64825941230366,559],["OXA1L_5018",0.13446160368737814,-2.84156902492452,559],["MLNR_2862",0.17805819484686938,-4.639704074618953,559],["USP44_84101",0.15007137534013687,-3.4314658645467744,559]],"bottom":[["WDR66_144406",-0.1346198662317301,-2.8472544429080835,559],["OSBPL5_114879",-0.13374218887574327,-2.8158004245837316,559],["TXNDC8_255220",-0.1300642206410454,-2.6859926215678342,559],["CYB561D1_284613",-0.14460907045589771,-3.218315490190949,559],["CLHC1_130162",-0.13329295678819914,-2.79977229618024,559],["TMEM167B_56900",-0.13747649703130094,-2.9509095320512757,559],["SLC30A7_148867",-0.1327162190630116,-2.7792656652366783,559]]}}}
{"avana":{"corr":{"top":[["URAD_646625",0.16641358807957668,-3.0326713313751843,393],["MT1F_4494",0.17789504316774638,-3.403900604201361,393],["UTP3_57050",0.17316982868121963,-3.227012903300861,390],["GLUL_2752",0.17763073257919204,-3.3950935421987483,393],["BTC_685",0.19194133964655236,-3.889878929690905,393],["IDS_3423",0.16035672500679313,-2.7046769962378474,370],["RGS20_8601",0.16307059101375732,-2.9289138729247197,393],["XPNPEP2_7512",0.15847312329487226,-2.6510599985152132,370],["MGMT_4255",0.15786868091196618,-2.7534262136322374,390],["GPATCH2L_55668",0.16873682094979214,-3.1059231235599194,393],["TMEM151B_441151",0.161400513542291,-2.8778046647155304,393],["LRP1_4035",0.16222022914140782,-2.9028300733235572,393],["SDHAF4_135154",0.16622524119878815,-3.026773947786283,393],["RNF19A_25897",0.1677413866536535,-3.074421719868484,393]],"bottom":[["ZNF700_90592",-0.16491215785565147,-2.985831038791718,393],["RABL2A_11159",-0.17220605419116888,-3.217064782019367,393],["TMEM89_440955",-0.17726541549131203,-3.382941228431705,393],["LIPI_149998",-0.20706966014482672,-4.4533118386877515,393],["WT1_7490",-0.1717422949577878,-3.202085455316003,393],["TBX5_6910",-0.15712230663005747,-2.7490733051527725,393],["GUCY2C_2984",-0.1576260211809818,-2.764066630809059,393],["GADD45B_4616",-0.15732080915628158,-2.7549766386266876,393],["NFATC2IP_84901",-0.16134244031842465,-2.8760361282834306,393],["ZIC5_85416",-0.16071547081043297,-2.856979743186118,393],["OR7D4_125958",-0.15961957363629853,-2.823833366389697,393],["MKRN2OS_100129480",-0.16689869463154347,-3.047889078863177,393],["YBX3_8531",-0.164369218180367,-2.949695716563642,390],["ALG10_84920",-0.1578388676605455,-2.7704152047415276,393]]},"para":{"top":[["GRAMD4_23151",0.18235033269511483,-3.5542222970952944,393],["SENP6_26054",0.16414326893091782,-2.942752105304455,390],["NPEPL1_79716",0.1602899451549986,-2.844084761389474,393],["CD99_4267",0.17425806914731024,-3.118248845353611,370],["RNF7_9616",0.16151255825852595,-2.881218471015841,393],["UTP3_57050",0.18660110965442225,-3.6763676704954817,390],["C17orf80_55028",0.16317883248278792,-2.9322430251641682,393],["BTC_685",0.198726385826321,-4.137388606078837,393],["GPR55_9290",0.16423427905517898,-2.964811493081457,393],["NNT_23530",0.15979765200530283,-2.8292054222848853,393],["TRIM39_56658",0.16053557543673413,-2.851524446382901,393],["RGS20_8601",0.18217760103593497,-3.548328465907184,393],["TNFRSF6B_8771",0.16447652745146343,-2.972313931456979,393],["TMEM151B_441151",0.16770330773214753,-3.0732201124294223,393],["JADE3_9767",0.16348249315584581,-2.7821364713871257,368],["RNF19A_25897",0.15867552211482142,-2.795445515386197,393]],"bottom":[["ZNF99_7652",-0.17266147901462373,-3.2318116748978176,393],["ANP32D_23519",-0.17451812196131983,-3.2923083023825837,393],["RABL2A_11159",-0.16083811945562498,-2.8607022428465254,393],["TMEM89_440955",-0.1581595120284759,-2.779993754336799,393],["RGPD3_653489",-0.16164945518700832,-2.8853924236875588,393],["GUCY2C_2984",-0.16544455009322057,-3.0023953011283364,393],["ANGPTL8_55908",-0.16304451242583207,-2.928112084427616,393],["SPTBN5_51332",-0.17637104912982088,-3.3532897438819287,393],["ANKS4B_257629",-0.16739877494129682,-3.0636194611231953,393],["CD200R1_131450",-0.16675836662441226,-3.043482789886743,393],["LPAR2_9170",-0.17457184772453918,-3.2940679346697643,393],["NDUFAF2_91942",-0.16227790230149075,-2.904595172006841,393],["ERP27_121506",-0.15718890574063177,-2.7510531650882037,393],["IRAK4_51135",-0.18706616256435946,-3.717194947722321,393],["TCTN2_79867",-0.1593387722279884,-2.815373577659512,393],["ALG10_84920",-0.18039330274845747,-3.487757148466274,393]]}}}
{"drive":{"corr":{"top":[["AGO1_26523",0.1844843374785175,-2.8193430402624284,293],["MTMR1_8776",0.17287876781048933,-2.495680444177814,289],["ORC4_5000",0.1987053220523801,-3.1671277042342556,289],["GNL3_26354",0.20693804508052246,-3.409794915977327,290],["COL24A1_255631",0.17163915304315958,-2.4656182333701566,289]],"bottom":[["LRG1_116844",-0.18316904116007446,-2.7528247188799275,289],["PRKCD_5580",-0.20798074688371,-3.532329275809458,299],["TTBK1_84630",-0.19065496649745736,-3.0353642519691433,299],["HKDC1_80201",-0.19195933266396858,-2.983340538869007,289],["AGAP11_119385",-0.22063927098768502,-3.8644164566589074,294],["ZFP36L2_678",-0.21566203213005816,-3.7000141884503366,293],["STAT6_6778",-0.19170999771598532,-3.0118004008114503,293],["FOXE1_2304",-0.1891014341933471,-2.941522224188052,293],["FEM1A_55527",-0.18514235348412786,-2.811921007968907,290],["SAR1B_51128",-0.21772593313741728,-3.7181294416098294,289],["DPF2_5977",-0.1958777539503202,-3.125969367824892,293],["NCAN_1463",-0.244976864663317,-4.6086815486468575,290]]},"para":{"top":[["AGO1_26523",0.16799523309514408,-2.4057726950693716,293],["LILRB5_10990",0.1660710308456709,-2.3329870158442043,289],["ORC4_5000",0.17391312994043645,-2.520914762916597,289],["KCNA6_3742",0.1823758529043247,-2.77246891683803,294],["RGPD6&RGPD5_729540&84220",0.183932829608536,-2.8779083571387156,302],["LINC02336&LOC105374114&HCG18_105370309&105374114&414777",0.17291085992060026,-2.5036925643890617,290],["EVI2B_2124",0.18772608226168022,-2.8710693677186234,289],["CYP3A4_1576",0.1748955654342106,-2.5819278865698148,294]],"bottom":[["PRKCD_5580",-0.23307054782946177,-4.326790162001729,299],["TTBK1_84630",-0.20789509893516778,-3.52977028037012,299],["TBK1_29110",-0.22131053690682148,-3.8737974063691993,293],["ADAMTSL3_57188",-0.1842792467169484,-2.813981149342284,293],["MAGEC3_139081",-0.19182109694661967,-3.0148136736025593,293],["AGAP11_119385",-0.22305827580908433,-3.9402237271383305,294],["GLYR1_84656",-0.18330414247767876,-2.788563763590537,293],["SRSF2_6427",-0.1848396087216666,-2.8777644621244205,299],["RGL3_57139",-0.18809265082857501,-2.914586642276188,293],["STAT6_6778",-0.18507191147075933,-2.8347352481670525,293],["SAR1B_51128",-0.20968576678557868,-3.479247825708693,289],["CFAP44_55779",-0.2046757630863187,-3.374652987000873,293],["TYK2_7297",-0.2058354253917914,-3.3780253307645407,290],["NCAN_1463",-0.2275221146737375,-4.033414636755955,290]]}}}
{"achilles":{"corr":{"top":[["LEMD1_93273",0.2324295984866736,-2.7587770318995704,179],["TPD52L1_7164",0.23150845076889798,-2.7399448866242215,179],["ASB8_140461",0.274936268205878,-3.708687379867041,179],["LOC101928208_101928208",0.26475403904344186,-3.4664082509720093,179],["TCP11_6954",0.22404649264763957,-2.590045258586714,179],["PRAMEF18_391003",0.2168658384510829,-2.4502154316579796,179],["CD200R1L_344807",0.2175864745818523,-2.4640544935774362,179],["POP7_10248",0.20672013362232625,-3.54540141653582,304],["GIGYF1_64599",0.22227235205001333,-2.555096355535428,179],["TIMM21_29090",0.2171175702677045,-2.455044779796889,179],["ZDHHC9_51114",0.2039803783406958,-2.2099803791905033,179]],"bottom":[["CLPSL1_340204",-0.21063962280295723,-2.332435074235159,179],["STRC_161497",-0.2170682396859483,-2.4540979832751546,179],["C4BPA_722",-0.20347693484883145,-3.4482676839201867,304],["CRK_1398",-0.21400476871277987,-3.7690362288396813,304],["PDCD7_10081",-0.210484674666244,-2.3295446323904976,179],["GLB1L_79411",-0.21896756173445012,-2.4906973996971367,179],["PNMA2_10687",-0.2040293165977434,-3.464706272700105,304]]},"para":{"top":[["EFCAB12_90288",0.1965492746300993,-2.07757173155344,179],["ABHD12_26090",0.19799318525301732,-3.2874063053337665,304],["TPD52L1_7164",0.24402838921343797,-3.0021441409530487,179],["ANKRD13B_124930",0.22269544503007932,-2.563406917417562,179],["ASB8_140461",0.2552501452891632,-3.2487685089013048,179],["LOC101928208_101928208",0.28443256447779586,-3.9433000871680908,179],["PRAMEF18_391003",0.20046105246972343,-2.1467184451820036,179],["CEP68_23177",0.20112945764910992,-2.158656523574945,179],["TIMM21_29090",0.23998045732795342,-2.915889834380108,179]],"bottom":[["LINC00597_81698",-0.21486163725338872,-2.411953130561893,179],["STRC_161497",-0.2573899652355265,-3.297062908095929,179],["SDE2_163859",-0.21346119654724596,-3.752086474211176,304],["SLC5A6_8884",-0.195018592155989,-3.201912811481055,304],["PADI4_23569",-0.1918046084114976,-3.1109242770706644,304],["DPYD_1806",-0.21271944507361037,-3.7290255513920325,304],["GPR27_2850",-0.20036304415915335,-3.356405346748106,304],["PMS2P7_100101440",-0.20130186701416025,-2.161741688410222,179],["TRAPPC9_83696",-0.20279790512861148,-2.188613117462069,179],["GLB1L_79411",-0.21120115833289582,-2.3429265998941307,179]]}}}
{"ccle_rrbs_tss1kb":{"corr":{"top":[["CNOT1_16_58663790_58664790",0.1836181498634025,-4.182489471114553,467],["LYRM1_16_20911394_20912394",0.16784616881793968,-3.6560509239171894,480],["HOMER1_5_78809659_78810659",0.1577557115335339,-3.2702336704864123,478],["LOC105370203_13_49821976_49822976",0.16552609511801464,-3.1220429095944113,411],["MCAT_22_43539403_43540403",0.17475146631284344,-3.3865549758136964,405],["SHC4_15_49255641_49256641",0.17051939918456055,-2.1907367116295506,254]],"bottom":[["LEPROT_1_65885130_65886130",-0.23076189619770984,-6.3111467557713405,465],["LOC729870_4_153857989_153858989",-0.2213186364107177,-6.000650009913122,479],["FTH1_11_61735132_61736132",-0.20870797245195258,-5.38813901688837,479],["ZSWIM5_1_45672250_45673250",-0.22453999318230333,-6.081399344542821,472],["MICB_6_31464826_31465826",-0.22000347670835788,-4.266564839381835,331],["DLK2_6_43423362_43424362",-0.207835104548616,-4.4122576560956785,386],["TBC1D15_12_72232486_72233486",-0.22374058692827248,-4.585585389759543,347],["SNORD18A_15_66795652_66796652",-0.22948593219141825,-4.319345463416583,308],["ZNF843_16_31454346_31455346",-0.21211647971492606,-5.539661222817335,478],["ZNF843_16_31454481_31455481",-0.21171855683344387,-5.520656751436875,478],["HHAT_1_210501249_210502249",-0.23179179267737177,-6.425690526889592,470],["ZNF678_1_227750219_227751219",-0.21772736080908342,-2.4551783133429503,178],["PDE7A_8_66753969_66754969",-0.23241998173414766,-6.582995631030829,480],["ADA_20_43280399_43281399",-0.23354617202017738,-6.62994671649156,479]]},"para":{"top":[["SLC34A1_5_176810431_176811431",0.15934226034360754,-2.5964620676325407,357],["DENND4A_15_66084631_66085631",0.1612690018061659,-3.354618102680604,471],["SHC4_15_49255641_49256641",0.18189918489956736,-2.4405935978311164,254],["POT1_7_124570037_124571037",0.16571448853377846,-3.069534939024313,402]],"bottom":[["ALKAL2_2_288308_289308",-0.15872238728713814,-3.263381010594132,471],["ALDH1A2_15_58358121_58359121",-0.16401646557761237,-3.5051929935623494,479],["ATF7IP2_16_10478855_10479855",-0.19042726432612195,-4.547677061658776,477],["DLK2_6_43423362_43424362",-0.1850570410929246,-3.590818452602244,386],["IQSEC2_23_53350522_53351522",-0.1851583595129158,-4.229132378699587,465],["GALNT12_9_101568980_101569980",-0.15831322906452439,-3.201476623473438,463],["BRF1_14_105715741_105716741",-0.16117721986777717,-3.3941535066470454,478],["ST6GAL1_3_186647314_186648314",-0.18461598875524324,-4.246866074202503,470]]}}}
{"ccle_gene_tpm":{"corr":{"top":[["PRDM13_ENSG00000112238.11",0.1405899337369263,-3.0240256114730215,550],["RP1-101K10.4_ENSG00000220745.2",0.15391957518885474,-3.5360251617080616,550],["None_ENSG00000170215.4",0.1347713679652183,-2.8138291558083037,550],["RP4-715N11.2_ENSG00000232294.1",0.1440800462326117,-3.1539648323737928,550],["RP11-193H22.2_ENSG00000219448.1",0.1433388491789249,-3.1261265372913485,550],["CHCHD10_ENSG00000250479.4",0.16031309220434928,-3.796848858663151,550],["FAM27A_ENSG00000182368.4",0.15417378036749688,-3.5462055185173593,550],["SCO2_ENSG00000130489.8",0.1345633016572676,-2.806460934666004,550],["PGBD4P6_ENSG00000226064.1",0.15947357081124422,-3.762031560322242,550]],"bottom":[["RP11-284H18.1_ENSG00000253574.1",-0.19218761973912094,-5.248461277716384,550],["RP11-167P23.2_ENSG00000169164.7",-0.19531633792441688,-5.404812552821178,550],["IGKV2OR22-3_ENSG00000253460.2",-0.18772092248283762,-5.029601228270105,550],["SLC25A6P1_ENSG00000233015.1",-0.19053774380623092,-5.16702535714205,550],["HAVCR2_ENSG00000135077.4",-0.1878022249356475,-5.033539315791614,550],["RP11-566H8.3_ENSG00000253377.1",-0.20306651275104012,-5.803016327184935,550],["CTD-2130O13.1_ENSG00000267761.2",-0.20563409836620677,-5.938388637534308,550],["RN7SKP218_ENSG00000222154.1",-0.2080704404951878,-6.068439303845143,550],["DRAXINP1_ENSG00000225574.1",-0.19367058941204202,-5.32225549068934,550]]},"para":{"top":[["None_ENSG00000170215.4",0.14602035886713466,-3.2274624995401107,550],["MLNR_ENSG00000102539.4",0.17537501219410231,-4.45104817472898,550],["PSMB5_ENSG00000100804.14",0.17912316367846365,-4.622625638117619,550],["RP11-815N9.2_ENSG00000248988.1",0.1476281309729741,-3.289047544114365,550],["USP44_ENSG00000136014.7",0.15394825478206584,-3.5371729314164724,550],["RP11-689K5.3_ENSG00000251331.2",0.14324329978507128,-3.1225473888699646,550],["RP11-55L4.2_ENSG00000265349.1",0.13990817404822867,-2.998981914969051,550],["RP11-325F22.2_ENSG00000237513.1",0.14322291182537017,-3.12178396624108,550],["RP11-998D10.4_ENSG00000178107.2",0.15069564337472016,-3.408272100558653,550],["FAM27A_ENSG00000182368.4",0.15498079953447236,-3.578628819226656,550],["KRTAP9-12P_ENSG00000248807.1",0.1421376814986394,-3.0812909196333824,550]],"bottom":[["RP11-218C14.8_ENSG00000270001.1",-0.17363315838909132,-4.37251088088098,550],["RP11-442P12.2_ENSG00000248188.2",-0.15369788350176772,-3.5271596974298256,550],["AC008498.1_ENSG00000269267.1",-0.14648165218831022,-3.2450686800422126,550],["RP11-1H15.2_ENSG00000255476.1",-0.1442202872888283,-3.159246856493368,550],["None_ENSG00000263218.2",-0.14219248557030495,-3.083329081826346,550],["OR7H1P_ENSG00000226480.1",-0.14584675274674502,-3.220849691412078,550],["RP11-545P6.2_ENSG00000231019.1",-0.13724416975938272,-2.9021802785601816,550],["AC006499.6_ENSG00000248777.1",-0.1404862838063083,-3.02021102257417,550],["RP11-356C4.5_ENSG00000261172.1",-0.15468605934224605,-3.566768819426433,550],["RP11-341A22.2_ENSG00000225564.2",-0.14035170012468368,-3.01526180233319,550],["RP11-862P13.1_ENSG00000258490.1",-0.1711705271413075,-4.26276780285816,550]]}}}
{"ccle_rrbs_tss_clusters":{"corr":{"top":[["RPN1_3",0.21487284739809545,-3.424126492693596,270],["ITIH1_3",0.28322519599928453,-3.6234369798932162,164],["SP7_4",0.21670033665140256,-3.0719675723884126,234],["GRXCR2_1",0.22577815320536446,-2.7606139597188184,190],["MID1_1",0.1964944075883718,-2.8474593395671155,261],["ACOT6_2",0.18915167999468463,-3.4447732908017734,352]],"bottom":[["SENP7_1",-0.22898764459920407,-6.221439776757067,465],["STYXL1_1",-0.22737968607849757,-3.759814669434488,268],["MIR4785_3",-0.24018530453565895,-2.62564298068802,158],["RMDN3_1",-0.2226974515034731,-6.001022388665904,473],["MTUS2_6",-0.2340566753360573,-5.117633870686383,358],["SP8_2",-0.26481643982115466,-4.3390365444896695,231],["NPY1R_1",-0.2883059108026017,-4.0015196849268495,177],["MICB-DT_3",-0.22363811753270815,-4.417626457955755,333],["TMEM19_2",-0.3109083300654168,-3.214002688684657,118],["SNORD18C_3",-0.22831428290725964,-4.316523131224925,311],["ZSWIM5_2",-0.23283042193863068,-6.654772617227459,484]]},"para":{"top":[["LOC101929457_1",0.1930971968742653,-2.1466821162053598,193],["FAM172A_2",0.2459337914960891,-3.638590878298417,220],["ITIH1_3",0.28489016807921613,-3.6618832886473682,164],["SP7_4",0.23592460538806134,-3.566370250719732,234],["PODXL2_3",0.20791189542827745,-2.1326300743518396,165],["C19orf73",0.2394382901751074,-2.541487994935009,153],["ZNF551_1",0.21933603670734914,-2.1309282600104678,148],["RPN1_3",0.2095517130802762,-3.2769398202475446,270],["ACOT6_2",0.22626096971761142,-4.7394145839244475,352]],"bottom":[["SRD5A3_3",-0.2097993133052978,-3.2417396025489675,266],["MTUS2_6",-0.21313581418440067,-4.319253488655759,358],["SP8_2",-0.21993749271815546,-3.1175643945152154,231],["MIR4296_2",-0.19825180089554573,-2.8063868456953487,252],["NPY1R_2",-0.19988456978926372,-4.962680686713672,477]]}}}
{"ccle_rrbs_cgi_clusters":{"corr":{"top":[["12_53736546_53740986-1",0.21670033665140256,-3.0719675723884126,234],["19_49620023_49622829-3",0.23452058378100593,-3.881859289456833,261],["8_42292064_42297059-2",0.19684757398606034,-2.7723998685538036,252],["16_88900175_88904467-2",0.22192805975024926,-2.9895994793227825,216],["18_77241364_77245636-1",0.1993175212186095,-2.8991356123127074,259],["10_102826811_102829693-2",0.2427801824853226,-1.9151983584481265,106],["1_1988779_1993171-3",0.19785872010230532,-3.21833806077283,297],["3_125707066_125711452-2",0.2594060256810496,-2.6399243116662907,136],["3_128366929_128371805-3",0.21487284739809545,-3.424126492693596,270]],"bottom":[["1_45669702_45674388-2",-0.23283042193863068,-6.654772617227459,484],["7_20824485_20827662-2",-0.26481643982115466,-4.3390365444896695,231],["3_101229610_101234173-1",-0.22898764459920407,-6.221439776757067,465],["4_164250954_164255471-1",-0.2883059108026017,-4.0015196849268495,177],["17_20744783_20749635-2",-0.24290465637365155,-3.5451879691010486,219],["2_161261871_161266460-3",-0.24018530453565895,-2.62564298068802,158],["13_29391783_29394341-3",-0.2296551962705582,-3.852033511585132,270],["2_25265204_25267727-3",-0.4466771038973782,-7.100428465583496,132],["9_100563727_100568179-2",-0.24970667307522218,-6.258970975687353,392],["12_72077789_72082261-2",-0.3109083300654168,-3.214002688684657,118],["6_100061818_100064657-3",-0.27588586798936315,-2.9950413830313116,139]]},"para":{"top":[["19_49622829_49625635-3",0.2394382901751074,-2.541487994935009,153],["12_53736546_53740986-1",0.23592460538806134,-3.566370250719732,234],["5_93444953_93449436-2",0.2459337914960891,-3.638590878298417,220],["16_33316698_33321468-1",0.19276936550171248,-3.604873340747147,357],["8_42292064_42297059-2",0.2120039844228458,-3.1513123659261146,252],["14_23821597_23824106-2",0.21847808884706027,-1.7699798582522195,119],["3_127348270_127350859-3",0.20791189542827745,-2.1326300743518396,165],["3_128366929_128371805-3",0.2095517130802762,-3.2769398202475446,270]],"bottom":[["7_20824485_20827662-2",-0.21993749271815546,-3.1175643945152154,231],["4_56210294_56215063-3",-0.2097993133052978,-3.2417396025489675,266],["6_43423036_43425705-2",-0.21970005864874181,-3.572228782577773,271],["13_29391783_29394341-3",-0.2203136982882378,-3.57835114569265,270],["6_100061818_100064657-3",-0.27689568989307317,-3.0143907710542552,139]]}}}
