{"depmap_hotspot":{"corr":{"top":[["AADAC",0.15761505780702267,-3.714638049096995,14.0,541.0],["AK9",0.1491072875724354,-3.3724048727666185,51.0,504.0],["ALG8",0.1232018188995174,-2.4377834071667777,19.0,536.0],["ANKRD52",0.11555924821253763,-2.1922962877576184,40.0,515.0],["ASCC3",0.1095480039578099,-2.008687052885266,65.0,490.0],["BET1L",0.11796196489724822,-2.268013352843826,8.0,547.0],["BRD2",0.11057701375162501,-2.0395295740445527,23.0,532.0],["C12orf45",0.10926964543568052,-2.0003853890740717,13.0,542.0],["C12orf56",0.12109706136833377,-2.3688218907128062,24.0,531.0],["CASP12",0.11513873833479335,-2.179181840192981,19.0,536.0],["CASP5",0.11422750637514698,-2.150903111401822,27.0,528.0],["CCNB1IP1",0.11412474102777549,-2.14772594294863,14.0,541.0],["CEACAM5",0.11127042421660223,-2.060449788637999,28.0,527.0],["CEP350",0.10991750504182063,-2.0197342598098875,82.0,473.0],["CRYGS",0.13780313806475694,-2.944876896291405,14.0,541.0],["CSNK2A2",0.132890193032075,-2.76862131710055,12.0,543.0],["DRD4",0.12083403044322477,-2.360276376701256,18.0,537.0],["DUOXA1",0.12017507588659529,-2.3389385394791997,16.0,539.0],["ELOVL7",0.11327597204948309,-2.1215777010236714,10.0,545.0],["ELTD1",0.11348554999116388,-2.1280188161491274,49.0,506.0],["EXD3",0.11318792521512552,-2.1188747040832916,42.0,513.0],["FOXM1",0.12736201566317712,-2.5771388435320275,23.0,532.0],["GCSAML",0.11739331749594928,-2.24997289405624,13.0,542.0],["GLYATL1",0.13068462705228664,-2.691360084863178,17.0,538.0],["GLYATL2",0.1146388526087936,-2.1636449410269085,21.0,534.0],["GNB2L1",0.13057048017353276,-2.6873928441040196,15.0,540.0],["GRAMD1C",0.11032141131533832,-2.0318457996197257,21.0,534.0],["GSPT2",0.11472804459875291,-2.1664128873235233,13.0,542.0],["ICAM3",0.12688713563094997,-2.5610263195667167,18.0,537.0],["ITFG1",0.11854971136764178,-2.286738464820134,18.0,537.0],["KIF2B",0.12250388138222737,-2.4148012326485584,50.0,505.0],["LRRC8A",0.10996111613030828,-2.0210401864968617,29.0,526.0],["LRRD1",0.1243930593268087,-2.4772723930351637,27.0,528.0],["MBP",0.12823224751319012,-2.6068032185042536,16.0,539.0],["MGAT4A",0.13637717201033417,-2.893126887382776,14.0,541.0],["MTERF",0.1180060855860123,-2.269416221835947,17.0,538.0],["MTMR2",0.15236171383774844,-3.501226359927729,17.0,538.0],["NAP1L3",0.11327808440522195,-2.1216425712522717,21.0,534.0],["NKAIN3",0.13926752681351268,-2.9985272366788482,13.0,542.0],["NTSR1",0.10913657051589323,-1.9964228612295771,19.0,536.0],["NUTM2G",0.1402035170073195,-3.033087885654081,27.0,528.0],["OR4K2",0.11295473733877351,-2.111724552079364,24.0,531.0],["OR51B4",0.1324765120560936,-2.7540422085590874,20.0,535.0],["POPDC2",0.1153955018285636,-2.1871846776302206,13.0,542.0],["PPP3R1",0.1134262892687359,-2.126196488151907,25.0,530.0],["PRAM1",0.14382494580473104,-3.1687887565861135,24.0,531.0],["PTBP3",0.1123469535767063,-2.0931470096550604,13.0,542.0],["PVRL2",0.11193061148627123,-2.0804700157376064,20.0,535.0],["SLC12A9",0.11561459689794909,-2.1940254861782806,38.0,517.0],["SLC29A2",0.11997588795877642,-2.3325084428244205,19.0,536.0],["SMCO2",0.13338586442731892,-2.786143436984835,11.0,544.0],["STRN3",0.12521847976828934,-2.504829447124377,21.0,534.0],["TACR3",0.1172342425729495,-2.2449396085456024,24.0,531.0],["TBC1D8B",0.11018821545538547,-2.0278476643224024,25.0,530.0],["TIGD6",0.11070692938984801,-2.043440753411226,21.0,534.0],["TMC5",0.10955894402115711,-2.0090136867710164,43.0,512.0],["TRAFD1",0.14196278470940638,-3.098616443069674,21.0,534.0],["TREX2",0.12924698309225532,-2.6416186979941854,10.0,545.0],["TSPAN32",0.10953276953996541,-2.0082322494041605,21.0,534.0],["TTC27",0.13643168863907656,-2.8950964368557646,25.0,530.0],["USP6",0.1252369065386224,-2.505446455322835,42.0,513.0],["WNK3",0.12775408430222743,-2.5904815769427154,41.0,514.0],["ZNF705A",0.10913406262429046,-1.9963482233793364,8.0,547.0],["ZNF836",0.12244898424483619,-2.41299836592135,36.0,519.0]],"bottom":[["AC109829.1",-0.12427827207910051,-2.473452803659039,14.0,541.0],["ACVR2B",-0.1108961455573683,-2.04914411700169,20.0,535.0],["AKAP5",-0.11166619642070237,-2.0724396156185643,11.0,544.0],["AP1G2",-0.1391029709044174,-2.99247285212476,20.0,535.0],["ARFGAP1",-0.11245583442158726,-2.0964688297796674,25.0,530.0],["ATP6V0A2",-0.10738981372558098,-1.9447846494725114,24.0,531.0],["AVPR2",-0.11304458258793426,-2.1144779634374755,13.0,542.0],["AXIN2",-0.11201838683194279,-2.0831393356131733,30.0,525.0],["C1R",-0.11202191409746856,-2.0832466395695373,29.0,526.0],["C20orf26",-0.1084547125633888,-1.9761827973805783,47.0,508.0],["C2orf54",-0.10654369399484664,-1.9200211172107116,20.0,535.0],["C4A",-0.1230884994543599,-2.4340442088830305,16.0,539.0],["CACNG2",-0.11265517867002393,-2.102557629113521,18.0,537.0],["CAND2",-0.10642789818993785,-1.916644761093397,40.0,515.0],["COIL",-0.16002686471281083,-3.8148884210624603,19.0,536.0],["DAG1",-0.10761735094195513,-1.9514718057156786,22.0,533.0],["DENND5B",-0.11260225815747885,-2.100940327837659,29.0,526.0],["DLX6",-0.10821792094647577,-1.9691787492667332,33.0,522.0],["EML3",-0.11992011328750248,-2.330709602365135,30.0,525.0],["EPHA10",-0.11581346829065918,-2.2002444416042266,53.0,502.0],["FUS",-0.11330292535091735,-2.1224055111081688,22.0,533.0],["HELZ2",-0.11570338597101047,-2.1968009027749873,102.0,453.0],["HERC6",-0.10950733260367772,-2.007472981318894,39.0,516.0],["HLA-G",-0.1281575742534197,-2.604250771269375,39.0,516.0],["IGHMBP2",-0.10712711760013188,-1.9370788501433414,44.0,511.0],["ITPK1",-0.11125318582813565,-2.059928371348112,15.0,540.0],["KBTBD13",-0.12307014192684716,-2.433438748474865,21.0,534.0],["KCNG4",-0.1103646489467916,-2.0331445343715004,30.0,525.0],["KCTD21",-0.11269004614595762,-2.1036235638286733,17.0,538.0],["KIF2A",-0.11875311104142987,-2.2932372630882143,16.0,539.0],["KRTAP4-16P",-0.14482020334801943,-3.206636207504333,11.0,544.0],["LCE1C",-0.1195585551089027,-2.3190661873891876,13.0,542.0],["MID2",-0.11248124024406797,-2.0972443216063916,23.0,532.0],["MOSPD3",-0.1231310725010335,-2.4354486385683334,14.0,541.0],["NBPF12",-0.11622318893623339,-2.213085699958729,22.0,533.0],["NOXA1",-0.14391390996392422,-3.1721621363866226,13.0,542.0],["OPA3",-0.12093922310133062,-2.36369200915951,12.0,543.0],["OR4D6",-0.12098362623016623,-2.3651345632657623,19.0,536.0],["OXGR1",-0.13371080732086132,-2.7976619114205965,23.0,532.0],["PCID2",-0.1083329083182639,-1.9725783591506254,18.0,537.0],["PDIA5",-0.129789102614295,-2.6603182963690464,13.0,542.0],["PEX16",-0.1607238096250709,-3.8441254993241016,16.0,539.0],["PPAP2A",-0.10774937778097407,-1.9553573832692768,10.0,545.0],["PURB",-0.10696181202360505,-1.9322379039933606,21.0,534.0],["RAD1",-0.12297939066176293,-2.4304467841639275,12.0,543.0],["RARRES3",-0.11583616710312981,-2.2009548421196707,8.0,547.0],["REPIN1",-0.11562126685939215,-2.1942339162158295,41.0,514.0],["RRBP1",-0.1369316011143656,-2.9131900917369093,56.0,499.0],["SFI1",-0.1289636691121885,-2.6318737963865115,26.0,529.0],["SLC2A10",-0.15190128035556477,-3.482843918048528,28.0,527.0],["SPATA21",-0.1194545839135132,-2.315723580042471,21.0,534.0],["STARD3",-0.18095945082804418,-4.745925054601079,22.0,533.0],["TLDC1",-0.1103785519733217,-2.033562232367604,23.0,532.0],["TMC7",-0.11692547266914195,-2.235186539926837,25.0,530.0],["TMEM64",-0.11470277184789246,-2.1656283974083297,19.0,536.0],["TNFRSF10A",-0.1254118286127701,-2.5113075695876725,11.0,544.0],["TRIM11",-0.11527425021411035,-2.1834035969584864,25.0,530.0],["TXNDC12",-0.11395582970019626,-2.1425090387391,8.0,547.0],["UNC5A",-0.11112612034888254,-2.0560870647229708,42.0,513.0],["YY1",-0.12024219052698261,-2.3411071823402665,12.0,543.0],["ZNF544",-0.1088605111118812,-1.9882156203819246,21.0,534.0],["ZNF608",-0.13815937984209686,-2.9578811821144275,52.0,503.0]]},"para":{"top":[["AADAC",0.1331109936815743,-3.061751049170853,14.0,541.0],["ACTR3B",0.1190672373565748,-2.5949591974516,18.0,537.0],["ADH4",0.11110116329909596,-2.349507583061658,15.0,540.0],["AL358813.2",0.0826540338027653,-1.5862382845777139,8.0,547.0],["BET1L",0.1234149271849509,-2.7343054062433474,8.0,547.0],["C12orf45",0.10867411302625536,-2.2774637209794375,13.0,542.0],["C14orf180",0.11130667673753876,-2.3554336400340374,10.0,545.0],["C6orf10",0.10686173522928108,-2.2246042662193637,14.0,541.0],["CCNB1IP1",0.11919745231615113,-2.5989561617020103,14.0,541.0],["CD3G",0.10831830000636367,-2.266728726965931,8.0,547.0],["CGGBP1",0.09982644721840832,-2.025766360633478,8.0,547.0],["CRYGS",0.1133523305569656,-2.417386458044521,14.0,541.0],["CSNK2A2",0.12452851102970514,-2.7710789224751946,12.0,543.0],["DOLPP1",0.08161614068423742,-1.5616962125035438,8.0,547.0],["DPT",0.10784653040703279,-2.2529277020099565,8.0,547.0],["DRD4",0.12030520649997826,-2.6343522913662225,18.0,537.0],["ELOVL7",0.12365059986984464,-2.742165935412787,10.0,545.0],["FOXJ1",0.10944663352582146,-2.3000799734082773,10.0,545.0],["GCSAML",0.11060741917656848,-2.3346867126390762,13.0,542.0],["GLYATL1",0.13682891154107665,-3.192873877790088,17.0,538.0],["GNB2L1",0.12809229002086778,-2.8898695417822404,15.0,540.0],["GPR137C",0.09658217069051746,-1.9380406948062745,11.0,544.0],["ICAM3",0.12405085672873749,-2.755617756117537,18.0,537.0],["IGLL1",0.11363173075218543,-2.425698066813113,10.0,545.0],["IL17REL",0.091334594430453,-1.8004902017145272,8.0,547.0],["JMJD6",0.09790591087130261,-1.9735832119040733,10.0,545.0],["MGAT4A",0.12389506550911615,-2.7503768703670364,14.0,541.0],["MSC",0.11294909275631,-2.4052075376584487,16.0,539.0],["MTHFD2L",0.10463849713158302,-2.160375458009342,8.0,547.0],["MTMR2",0.16189082522186532,-4.1575733588474435,17.0,538.0],["NKAIN3",0.13086995479042726,-2.984238701974376,13.0,542.0],["OR5P2",0.1101649175409575,-2.3215911248359267,15.0,540.0],["POPDC2",0.10592286965850206,-2.197446812577209,13.0,542.0],["PTBP3",0.10413827936590532,-2.1464310766847094,13.0,542.0],["PTTG1",0.09763143303453942,-1.9661109492036364,9.0,546.0],["RAD52",0.10417581089868774,-2.1472883434997003,9.0,546.0],["RBM38",0.09130965305692673,-1.7999195275257922,9.0,546.0],["RGS8",0.09213660274931543,-1.8211000921664937,8.0,547.0],["RPLP1",0.1020909412951964,-2.0884825166803584,8.0,547.0],["RPS2",0.09118439108350591,-1.7967711113999403,10.0,545.0],["TCL1B",0.09831678450054959,-1.9845755494720894,8.0,547.0],["THEM4",0.10341189617332278,-2.1255833410084035,8.0,547.0],["TRAFD1",0.13582979354073277,-3.157473900792378,21.0,534.0],["TRAM2",0.10289294961405887,-2.1109625830081495,8.0,547.0],["TREX2",0.11616815331361811,-2.503712113060948,10.0,545.0],["UPRT",0.08048389364584337,-1.5351833974387588,8.0,547.0],["VSTM2L",0.10113833742741647,-2.062199781201621,12.0,543.0],["YBX2",0.10198819026968595,-2.085803373178736,11.0,544.0],["ZNF705A",0.10067563249720385,-2.0491540207813785,8.0,547.0]],"bottom":[["AC109829.1",-0.1350832740297657,-3.130860885664162,14.0,541.0],["AKAP5",-0.12405604631300801,-2.75550590169486,11.0,544.0],["AL669831.1",-0.1195411847574816,-2.609780406767532,12.0,543.0],["AVPR2",-0.11867525445768293,-2.58238519877666,13.0,542.0],["BTG1",-0.10416241985617002,-2.1469718546669347,10.0,545.0],["C1QTNF5",-0.1143736231861391,-2.448428781843963,11.0,544.0],["C4A",-0.12249313986811965,-2.704746781307843,16.0,539.0],["CIDEA",-0.10661992944877256,-2.217273683716014,8.0,547.0],["CLN8",-0.11570495636608359,-2.489418822947806,11.0,544.0],["CYHR1",-0.11582598665516947,-2.4931646357605572,11.0,544.0],["CYTH2",-0.1036006040130551,-2.130914566654136,8.0,547.0],["F11R",-0.09241966450891391,-1.8284072374449294,8.0,547.0],["FARSA",-0.11360334805582631,-2.4250285789496595,14.0,541.0],["GK",-0.11441396661583439,-2.4496651453019798,11.0,544.0],["GOLGA6L9",-0.08652254451727828,-1.6797310715505454,8.0,547.0],["HLA-DPA1",-0.09057976307152357,-1.781219062954719,8.0,547.0],["HOMER1",-0.11789761398780466,-2.55796137120007,15.0,540.0],["KCTD21",-0.131999271925508,-3.0232923159266907,17.0,538.0],["KRBOX1",-0.09944903153894359,-2.015422211149776,8.0,547.0],["LRRC47",-0.12413479120015634,-2.7583417389320175,17.0,538.0],["MAFK",-0.10336471921338967,-2.124251750350115,8.0,547.0],["MGAT2",-0.1142137787261911,-2.443630583455587,13.0,542.0],["MTFR1L",-0.11422356268318644,-2.443774108025842,10.0,545.0],["NAPB",-0.12895127512902507,-2.918854848755197,14.0,541.0],["NDUFS2",-0.12077598763355425,-2.649084639299181,10.0,545.0],["NOXA1",-0.1414659596527204,-3.3604683471951913,13.0,542.0],["NRF1",-0.1293998529700164,-2.933982768433562,12.0,543.0],["OPA3",-0.12263410027513957,-2.7091582202257225,12.0,543.0],["PDCD2L",-0.09600359395022813,-1.9225509485048327,10.0,545.0],["PDIA5",-0.13150199718572197,-3.0059725417828838,13.0,542.0],["PEX16",-0.14094272389763884,-3.341426898052476,16.0,539.0],["PNPLA4",-0.10912030832522608,-2.2903026949285343,8.0,547.0],["POC1A",-0.10638562410647223,-2.210697962477779,11.0,544.0],["PPAP2A",-0.10276738744738204,-2.1075715754603004,10.0,545.0],["RAB26",-0.11850852335191002,-2.5768049025646986,8.0,547.0],["RAD1",-0.12294339182690538,-2.7192130913484105,12.0,543.0],["RNPS1",-0.09105153267085445,-1.7932491678183287,8.0,547.0],["RRS1",-0.10016904894104592,-2.0352563080586243,9.0,546.0],["SEC22C",-0.10864343304803448,-2.2764125881258845,10.0,545.0],["SEC61A2",-0.12231879297173459,-2.6989777521986125,13.0,542.0],["SERAC1",-0.1018162733014098,-2.0808900080545873,9.0,546.0],["SKP2",-0.11435038381125806,-2.4476576156642085,10.0,545.0],["STARD3",-0.15438862870434691,-3.853981157439494,22.0,533.0],["STC1",-0.09803372274095107,-1.976907395351243,8.0,547.0],["TMED3",-0.10175281842280892,-2.0791837328794385,10.0,545.0],["TMEM52",-0.1033175422534566,-2.1229206459398733,8.0,547.0],["TMIGD1",-0.08869268467420019,-1.7335765997437933,8.0,547.0],["TXNDC12",-0.12025407086943421,-2.632225328247232,8.0,547.0],["VIPR1",-0.10581637214787425,-2.194340189552436,12.0,543.0],["YKT6",-0.09638488486993975,-1.9326567884660673,9.0,546.0],["ZFPL1",-0.11147577157496767,-2.3605035764987763,10.0,545.0]]}}}
{"depmap_damaging":{"corr":{"top":[["ALDH1A2",0.08154551005479461,-1.2607128664372442,11.0,544.0],["ALG13",0.0936635541223684,-1.5629967544538097,8.0,547.0],["B3GAT1",0.09938116731683809,-1.716886579441951,8.0,547.0],["BAI3",0.1345271513357209,-2.8267101117457685,14.0,541.0],["C8orf58",0.09484457759898245,-1.5941870576165567,11.0,544.0],["CACNA1B",0.12638991669387983,-2.5442126448509184,14.0,541.0],["CLTC",0.08764879344792807,-1.408935701682892,10.0,545.0],["CNTRL",0.11096523820170766,-2.051228753926478,28.0,527.0],["COL4A5",0.09290413408492894,-1.5431043280539773,11.0,544.0],["GOLGA4",0.10140257443094786,-1.7730431693299862,15.0,540.0],["HCFC2",0.08756699287122838,-1.4068953568339095,18.0,537.0],["HEATR5A",0.12072045365645043,-2.35659140120153,11.0,544.0],["MUC19",0.10455218298719546,-1.8623768036795472,21.0,534.0],["NLRP3",0.098297825483228,-1.6871677462668495,11.0,544.0],["NR1H2",0.08682511821088598,-1.3884577751894132,10.0,545.0],["PAXIP1",0.1608353920460726,-3.8488175771977473,8.0,547.0],["PPP3R1",0.13185077204593704,-2.7320667301072645,20.0,535.0],["RAI1",0.10094050669206182,-1.7601255113529015,9.0,546.0],["RP11-1055B8.7",0.10977790652404866,-2.0155569283285515,14.0,541.0],["RYR1",0.09469160069223759,-1.5901295345293684,25.0,530.0],["SLC23A2",0.11473683001706718,-2.166685629430641,10.0,545.0],["SMARCC1",0.09026558181747908,-1.4749813750216312,18.0,537.0],["TARBP1",0.13104486295419196,-2.703900497290922,12.0,543.0],["ZMYM4",0.10604229622148244,-1.9054233956405884,11.0,544.0],["ZNF208",0.10576049932899569,-1.897244200321662,11.0,544.0],["ZNF536",0.08986369392915076,-1.4647401551061057,11.0,544.0],["ZNF561",0.09147536747514211,-1.5060250391840226,8.0,547.0]],"bottom":[["ADAMTS20",-0.10818927660172631,-1.9683323459680495,25.0,530.0],["AL669831.1",-0.10045193546933598,-1.7465191526797221,9.0,546.0],["AXIN2",-0.14599296871028825,-3.2515410792676045,10.0,545.0],["BCL9L",-0.12241317084266953,-2.4118226036899735,15.0,540.0],["CHD6",-0.12918656869864673,-2.63953908912762,13.0,542.0],["CPNE4",-0.13907797206507178,-2.9915536557804123,8.0,547.0],["CTNND1",-0.12756238384490587,-2.5839531798853397,11.0,544.0],["FLG",-0.11100167058197634,-2.0523284179422943,25.0,530.0],["FNIP1",-0.126930599016759,-2.5624988138580362,17.0,538.0],["HGF",-0.0983519921241615,-1.6886474319570364,8.0,547.0],["HIP1R",-0.09055386212086963,-1.4823494802495751,10.0,545.0],["KCNH2",-0.10933938826204224,-2.0024637127328804,9.0,546.0],["LRRC17",-0.13558617957308133,-2.8646300436371224,11.0,544.0],["MFSD6",-0.11202310011366828,-2.083282720349668,8.0,547.0],["NOBOX",-0.12478208153373857,-2.490240199847028,12.0,543.0],["NOXA1",-0.1605288676615949,-3.83593551654522,8.0,547.0],["OXGR1",-0.1095748026970288,-2.009487222596123,10.0,545.0],["PGM2L1",-0.1087866490959529,-1.9860226526075557,14.0,541.0],["PTPRU",-0.10804418476372514,-1.964047941885276,8.0,547.0],["PTX4",-0.12211709148054832,-2.4021137143022457,11.0,544.0],["RAD51AP2",-0.09862807262689645,-1.696199409055129,9.0,546.0],["REPIN1",-0.11328456037958914,-2.121841454154943,25.0,530.0],["SEC16A",-0.10665618542462219,-1.9233040423496932,13.0,542.0],["SMC6",-0.10637852834951328,-1.9152061691712166,10.0,545.0],["SMPD4",-0.10665235930713407,-1.923192334538271,8.0,547.0],["SOX9",-0.10866738440676942,-1.9824843036507385,13.0,542.0],["SPG20",-0.08806341010698288,-1.4193000145951853,10.0,545.0],["SULF2",-0.1081847706342679,-1.968199217483275,12.0,543.0],["TRAM1L1",-0.11680499676188849,-2.2313870662525983,12.0,543.0],["TRMT2A",-0.09452627874555651,-1.5857504236751272,8.0,547.0],["ZNF490",-0.10845320512116574,-1.9761381683943253,8.0,547.0]]},"para":{"top":[["ALDH1A2",0.08125166740630835,-1.553292351916321,11.0,544.0],["B3GAT1",0.10426108145211832,-2.1496351515288263,8.0,547.0],["BAI3",0.14017534329236905,-3.3133380203490663,14.0,541.0],["C8orf58",0.1030371194417634,-2.1152108717884666,11.0,544.0],["CACNA1B",0.1213848905205089,-2.6688541706733164,14.0,541.0],["CLTC",0.09659542588122905,-1.9383436048278992,10.0,545.0],["COL4A5",0.09073237338470083,-1.7852795219232218,11.0,544.0],["HCN1",0.08636518821678378,-1.6759862614886867,10.0,545.0],["HEATR5A",0.11070237108386799,-2.3374239382528508,11.0,544.0],["MAPK8IP3",0.08868299799580598,-1.733400561328669,9.0,546.0],["NLRP3",0.10767661385672145,-2.2481682816546296,11.0,544.0],["NR1H2",0.09063483286186218,-1.7827457187049616,10.0,545.0],["PAXIP1",0.15827870057550086,-4.009136635362386,8.0,547.0],["PPP3R1",0.12617134943266833,-2.825707328408449,20.0,535.0],["RP11-1055B8.7",0.09022286101908429,-1.772437018678119,14.0,541.0],["SLC23A2",0.1000618700485204,-2.0323693278588575,10.0,545.0],["SMARCC1",0.09941844505486332,-2.0150075655039923,18.0,537.0],["TARBP1",0.1382919850832832,-3.245065129815656,12.0,543.0],["ZNF208",0.11481740091278726,-2.46204857077873,11.0,544.0],["ZNF536",0.09674354440929861,-1.9423596184121088,11.0,544.0],["ZNF561",0.08600359795801432,-1.6670041327359286,8.0,547.0]],"bottom":[["AL669831.1",-0.12438769899612548,-2.7662562856852597,9.0,546.0],["AXIN2",-0.12377742099791629,-2.746314856259464,10.0,545.0],["BCL9L",-0.12233611239675732,-2.6996201485298945,15.0,540.0],["CHD5",-0.10609015272289442,-2.202053109044968,9.0,546.0],["CPNE4",-0.12615119086106988,-2.8244711439486845,8.0,547.0],["CTNND1",-0.12022342049195572,-2.6314645983683156,11.0,544.0],["DAZAP1",-0.11004973471013203,-2.318095682656441,13.0,542.0],["EPB41L2",-0.10381965428023071,-2.1371880195329607,9.0,546.0],["EVC",-0.08873986163413328,-1.7347583516181486,8.0,547.0],["GLI3",-0.10079038443167995,-2.0525620145087196,12.0,543.0],["HGF",-0.11313034991953833,-2.410296276884665,8.0,547.0],["HIP1R",-0.11033438142232295,-2.3264037534251996,10.0,545.0],["IRAK2",-0.0899192856324604,-1.764457260306107,8.0,547.0],["KCNH2",-0.1246102968826611,-2.7735773740583567,9.0,546.0],["LAMB1",-0.1106771480030179,-2.336467755928767,8.0,547.0],["LMTK3",-0.12398737113163986,-2.7535363733055003,18.0,537.0],["LRRC17",-0.1457204680593772,-3.518538520721685,11.0,544.0],["MFSD6",-0.11548919791619257,-2.4825382027675262,8.0,547.0],["MTMR9",-0.1037229577465833,-2.1345687509945215,11.0,544.0],["NOXA1",-0.14912637034848236,-3.6478643825927906,8.0,547.0],["NSFL1C",-0.11430811010190087,-2.4463627181198144,10.0,545.0],["ORC5",-0.08204073332363518,-1.5717085352396547,8.0,547.0],["OXGR1",-0.09566540427537044,-1.9135606243493104,10.0,545.0],["PGM2L1",-0.11435640055240849,-2.4480384622921036,14.0,541.0],["PTX4",-0.1380552164172726,-3.2364911063545354,11.0,544.0],["RAD51AP2",-0.12291855294499014,-2.7182141984210015,9.0,546.0],["SEC16A",-0.1030972683618906,-2.1169935955707158,13.0,542.0],["SMC6",-0.12009960828383887,-2.627450368700471,10.0,545.0],["SMPD4",-0.09374061938704029,-1.8627356129091401,8.0,547.0],["SULF2",-0.1101077924286247,-2.3197756671430456,12.0,543.0],["TRAM1L1",-0.10952787076906383,-2.3025884631392706,12.0,543.0],["TRMT2A",-0.10171352561573173,-2.0779522222579514,8.0,547.0],["WNT16",-0.10492155889118149,-2.168451139463069,8.0,547.0],["ZNF570",-0.10504314326845973,-2.1721687388550346,12.0,543.0]]}}}
{"ccle_chromatin":{"corr":{"top":[["H3K18ac0K23ub1",0.16890281147242378,-2.7027957284218966,333]],"bottom":[]},"para":{"top":[],"bottom":[]}}}
{"ccle_metabolomics":{"corr":{"top":[],"bottom":[]},"para":{"top":[],"bottom":[["carnitine",-0.12601924294458075,-2.4477827962195375,533]]}}}
{"ccle_rrbs_enhancer_clusters":{"corr":{"top":[["4-54959998-54964796-2_enh",0.13443436381506624,-2.250450715965695,423],["4-111528174-111532773-1_enh",0.14027894422016718,-2.6519403799965566,473],["4-111528174-111532773-2_enh",0.1447014220687342,-2.7950409292738128,473],["2-60442005-60444515-0_enh",0.32592936200237466,-3.3435329067701804,112],["2-172956465-172959052-0_enh",0.16481997611223462,-3.24708285198773,434],["7-42186555-42189508-0_enh",0.15614999896939952,-2.830961828885039,412],["18-53090352-53093079-2_enh",0.16470315018647527,-1.8128677374680031,216]],"bottom":[["6-163274830-163278380-2_enh",-0.15601713521920751,-2.7279820754844692,395]]},"para":{"top":[["4-54959998-54964796-2_enh",0.1402255872819454,-2.4139504588171703,423],["4-111528174-111532773-1_enh",0.13539891913646812,-2.4986391622949773,473],["4-111528174-111532773-2_enh",0.14199010851608945,-2.7068372631849678,473],["17-35055889-35060730-1_enh",0.1591667448541473,-2.2667195083914424,304],["1-38560900-38563606-0_enh",0.13958965166489756,-2.372156754646355,418],["2-60442005-60444515-0_enh",0.29229044658624037,-2.753301854811732,112],["7-42186555-42189508-0_enh",0.1430093022825168,-2.4404744830079483,412],["10-103525193-103527793-2_enh",0.15690671794929095,-3.1991548458479553,471],["13-71358800-71361507-0_enh",0.20052953969651224,-2.138010428863995,178]],"bottom":[]}}}
{"ccle_mirna":{"corr":{"top":[],"bottom":[["hsa-miR-1909_miR00202.1",-0.13705345624299192,-2.8059953242311053,530],["hsa-miR-298_miR00272.1",-0.14130197039811893,-2.9556931915363123,530],["hsa-miR-320d_miR00297.2",-0.11894674959703633,-2.213713743540911,530],["hsa-miR-520a-3p_miR00451.1",-0.13456901824109785,-2.720359895820904,530],["hsa-miR-568_miR00519.1",-0.12389091913328636,-2.3681581905176903,530],["hsa-miR-576-3p_miR00528.1",-0.12985217647538563,-2.5616209780186887,530],["hsa-miR-582-3p_miR00535.2",-0.15083786199322347,-3.3067852956638863,530],["hsa-miR-586_miR00540.1",-0.17067211495204732,-4.10506837111665,530],["hsa-miR-612_miR00566.1",-0.11903591186653507,-2.216450994904925,530],["hsa-miR-921_miR00664.2",-0.13816266798285726,-2.8446815720033234,530],["ebv-miR-BHRF1-2_miR00751.1",-0.12366890343904635,-2.3611064552056416,530],["hcmv-miR-UL22A_miR00755.1",-0.1189570075432521,-2.2140285695482276,530]]},"para":{"top":[],"bottom":[["hsa-miR-1909_miR00202.1",-0.12603554787550392,-2.4368426633512086,530],["hsa-miR-320d_miR00297.2",-0.11243455377948379,-2.018525503979515,530],["hsa-miR-520a-3p_miR00451.1",-0.14032877501765872,-2.9210383071126516,530],["hsa-miR-568_miR00519.1",-0.13892112267813897,-2.8712957692929884,530],["hsa-miR-576-3p_miR00528.1",-0.12301793802656176,-2.340493554559538,530],["hsa-miR-586_miR00540.1",-0.1420179341125201,-2.9813266752936127,530],["hsa-miR-612_miR00566.1",-0.13159700902772423,-2.619755676858665,530],["hsa-miR-921_miR00664.2",-0.14089510198431351,-2.941178494110544,530],["hcmv-miR-UL22A_miR00755.1",-0.1136137220762261,-2.0531780027507316,530],["kshv-miR-K12-8_miR00797.1",-0.12849727860632698,-2.5169507046796986,530]]}}}
{"prism_primary_logfold":{"corr":{"top":[["aminohydroxybutyric-acid_BRD-A40777960-001-04-2::2.5::HTS",0.20968626728197517,-6.347974406983018,569],["rotigotine_BRD-K91111634-001-01-2::2.5::HTS",0.17299114624784073,-4.441090070193784,564],["cresol_BRD-K56940914-001-04-2::2.5::HTS",0.20505213919244436,-6.0916706669250935,569],["tubocurarine_BRD-K99621550-300-01-8::2.5::HTS",0.18294295445267217,-4.948347082756441,569],["testosterone-propionate_BRD-A48720949-001-04-0::2.5::HTS",0.18813265394993914,-5.205043327964801,569],["tazobactam_BRD-A18611368-001-01-5::2.5::HTS",0.2001560335715566,-5.827205163931626,569],["dienestrol_BRD-K95309561-001-24-7::2.5::HTS",0.1855686441170448,-5.077334057377346,569],["diloxanide_BRD-K10974103-001-21-1::2.5::HTS",0.21122810567121422,-6.434548871494627,569]],"bottom":[["progesterone_BRD-K64994968-001-32-5::2.5::HTS",-0.12211811992727323,-2.416515254091192,559],["aminopurvalanol-a_BRD-K07762753-001-04-4::2.5::HTS",-0.14528573343538334,-3.2642198406027174,563],["ifenprodil_BRD-A24191444-046-02-1::2.5::HTS",-0.12291757780801676,-2.450221216184022,561],["furaltadone_BRD-A67514145-003-05-8::2.5::HTS",-0.11472046861243743,-2.1661777061484546,555],["GSK650394_BRD-K14991967-001-02-6::2.5::HTS",-0.12972901239364779,-2.6903941643178397,563],["JZL-184_BRD-K45446451-001-05-0::2.5::HTS",-0.11688079745494025,-2.280114465905868,569]]},"para":{"top":[["diloxanide_BRD-K10974103-001-21-1::2.5::HTS",0.17713260497593025,-4.669333608245002,569],["glucosamine_BRD-K29918010-003-04-1::2.5::HTS",0.16842871066713855,-4.267778766162915,569],["cresol_BRD-K56940914-001-04-2::2.5::HTS",0.2033754313106824,-6.0003728280431545,569],["8-bromo-cAMP_BRD-A09554849-236-07-6::2.5::HTS",0.17283221731034057,-4.440750253236855,565],["ICI-185,282_BRD-K29133151-001-03-2::2.5::HTS",0.19339018365183588,-5.40328890213785,561],["testosterone-propionate_BRD-A48720949-001-04-0::2.5::HTS",0.18126399792335413,-4.8668168872290805,569],["tazobactam_BRD-A18611368-001-01-5::2.5::HTS",0.21154458593021214,-6.452399765094514,569]],"bottom":[["daucosterol_BRD-K14276241-001-01-2::2.49998187::MTS004",-0.11899339422805214,-2.2563622358403332,542],["aminopurvalanol-a_BRD-K07762753-001-04-4::2.5::HTS",-0.13436842825223647,-2.8553908518305873,563],["secnidazole_BRD-A70083328-001-24-3::2.5::HTS",-0.14265938273378292,-3.0766612299086433,545],["gamma-aminobutyric-acid_BRD-K77245796-003-01-6::2.5::HTS",-0.12995520928037124,-2.666061781735762,555],["furaltadone_BRD-A67514145-003-05-8::2.5::HTS",-0.1234400835751804,-2.4456552068213457,555],["epitiostanol_BRD-K02314383-001-01-3::2.5::HTS",-0.10395182842475818,-1.8585417280324081,560],["k-strophanthidin_BRD-A55312468-001-04-7::1.24::HTS",-0.12384854463062546,-2.4812999288923088,561],["roquinimex_BRD-K03384561-001-02-7::2.5::HTS",-0.10207257235088794,-1.8177111323252895,565]]}}}
{"prism_secondary_logfold":{"corr":{"top":[["CCMI_BRD-K16338837-001-02-6::0.0024414::HTS002",0.24320554914791018,-7.1795141468830925,481],["ubenimex_BRD-K59574735-001-11-8::2.5::HTS002",0.24080006061913517,-1.8453378526119186,103],["carbachol_BRD-K75037734-003-13-9::0.625::HTS002",0.21258199420154958,-3.5428504594150088,287],["oxyquinoline_BRD-K66808046-065-03-7::0.009765627::MTS006",0.1865659851417958,-4.408257393299226,480],["AR-12_BRD-K90497590-001-04-2::0.0024414::HTS002",0.18776733618326794,-4.237269335398995,453],["dirithromycin_BRD-K52756523-001-24-7::0.00976562::HTS002",0.20476176143743002,-5.1650791794521185,475],["satraplatin_BRD-K42497885-001-01-1::0.00976562::HTS002",0.203084334786527,-5.069349134963387,473],["naftidrofuryl_BRD-A67862938-034-14-9::0.625::HTS002",0.1987085561362042,-3.411231935228759,315],["buparlisib_BRD-K42191735-001-05-3::0.00061034::HTS002",0.18434660522855786,-4.100952393251034,453],["galeterone_BRD-A07986123-001-02-8::0.0390625::HTS002",0.1948056623331005,-4.525444005540727,453],["galeterone_BRD-A07986123-001-02-8::0.00061034::HTS002",0.18895304415742664,-4.285089343501939,453],["S26948_BRD-K48826825-001-01-8::0.00061034::HTS002",0.1840437341467413,-4.2629572439536325,475]],"bottom":[["ZK811752_BRD-K91825936-001-01-2::0.0390625::HTS002",-0.15584398020936577,-3.202070136029959,478],["AVL-292_BRD-K87782578-001-01-4::0.00061::MTS010::PROS001_PR500",-0.17285500884157326,-3.7238305772829574,462],["bardoxolone-methyl_BRD-K69694239-001-02-2::10::MTS010::PROS002_PR500",-0.17651917914250542,-3.5786114273897387,423],["cyt387_BRD-K87737963-001-06-0::0.00061034::HTS002",-0.16657348894611035,-3.0112985138276573,389],["puromycin_BRD-A28970875-300-04-9::2.5::HTS002",-0.15839771946713815,-2.7150942730469967,381],["enocitabine_BRD-K32007074-001-02-9::0.0030896::HTS002",-0.21431334469479005,-5.613333678945436,475],["cetrimonium_BRD-K47079459-004-04-6::0.00061034::HTS002",-0.17399046154749043,-3.880365746608161,478],["TAME_BRD-K72231366-001-02-3::0.0390625::HTS002",-0.1549724266884601,-3.1201159794138733,469],["AT-7519_BRD-K13390322-001-06-3::2.5::MTS010::PROS004_PR500",-0.15863093491763258,-3.266070170275063,472],["cyt387_BRD-K87737963-001-06-0::0.0390625::HTS002",-0.1820831687767143,-3.459081682267829,382],["zolantidine_BRD-K08996725-332-01-7::0.0390625::HTS002",-0.1950838588571897,-2.748370082174947,254],["carfilzomib_BRD-K15179879-001-03-2::0.0024414::HTS002",-0.166695065992727,-3.5535369788098827,471],["AZ-628_BRD-K05804044-001-18-5::0.00977::MTS010::PROS001_PR500",-0.17410475051324836,-3.7712719409592093,462]]},"para":{"top":[["CCMI_BRD-K16338837-001-02-6::0.0024414::HTS002",0.20688871250531649,-5.322628607051418,481],["ubenimex_BRD-K59574735-001-11-8::2.5::HTS002",0.2627626596972621,-2.134933466350045,103],["dirithromycin_BRD-K52756523-001-24-7::0.00976562::HTS002",0.18531498579461822,-4.315586264379573,475],["AR-12_BRD-K90497590-001-04-2::0.0024414::HTS002",0.17758584383353526,-3.8386668558550165,453],["narasin_BRD-A25608658-001-01-1::0.0024414::HTS002",0.1849229852504401,-4.275402538596857,472],["satraplatin_BRD-K42497885-001-01-1::0.00976562::HTS002",0.18693170006563484,-4.366745372269076,473],["carbachol_BRD-K75037734-003-13-9::2.5::HTS002",0.18713362416167928,-3.314490437877161,344],["mycophenolic-acid_BRD-K63750851-001-20-7::0.0024414::HTS002",0.18307587623812077,-3.1906391610252554,344],["carbachol_BRD-K75037734-003-13-9::0.625::HTS002",0.18831940731919522,-2.8696688271494804,287]],"bottom":[["cyt387_BRD-K87737963-001-06-0::0.00061034::HTS002",-0.18232360635313108,-3.5219645699862494,389],["AVL-292_BRD-K87782578-001-01-4::0.00061::MTS010::PROS001_PR500",-0.1588159044074742,-3.2130890875090627,462],["puromycin_BRD-A28970875-300-04-9::2.5::HTS002",-0.1490577848560014,-2.450656134986483,381],["isoflupredone-acetate_BRD-K29173907-001-09-2::0.0390625::HTS002",-0.1521596552701166,-3.023478876090955,469],["GSK1292263_BRD-K60341624-001-02-2::0.625::HTS002",-0.15162562116719344,-2.9944034587386184,467],["meclizine_BRD-A50311610-300-10-4::0.00976562::HTS002",-0.14993272439270836,-2.7069807590188684,424],["vorinostat_BRD-K81418486-001-44-2::0.00061::MTS010::PROS001_PR500",-0.17306789279903437,-3.7318888595883797,462],["carfilzomib_BRD-K15179879-001-03-2::0.0024414::HTS002",-0.172936693301125,-3.790019102272177,471]]}}}
{"ccle_proteomics":{"corr":{"top":[["WNT5A_P41221",0.25207177047917195,-3.8326475585362063,222],["TCERG1_O14776",0.23324620621008227,-4.037471632475161,276],["CBX6_O95503",0.2752136529206891,-3.860843103318839,187],["FLRT2_O43155",0.34511744561975816,-3.4770574628007727,104],["THBD_P07204",0.26201264027135374,-3.9946441808921445,215],["IWS1_Q96ST2",0.22463889035382847,-3.7754218894035527,276],["RASGRP2_Q7LDG7-2",0.3878325795572206,-4.5472414783680355,110],["CDCA4_Q9BXL8",0.25789460735834696,-2.102082330748391,105],["DCHS2_Q6V1P9",0.28985170639740626,-3.2077578728177283,136]],"bottom":[["FGGY_Q96C11",-0.29348428878646116,-3.4474613686667572,144],["STARD5_Q9NSY2",-0.3091411312619429,-3.181315379149453,118],["HEPH_Q9BQS7-3",-0.2860999789460246,-2.510077665730353,105],["FBP2_O00757",-0.24832198010278866,-2.600391788263427,146],["GSDMB_Q8TAX9-4",-0.34088589546844267,-3.7428975946744365,116],["GFPT1_Q06210",-0.27115213472536537,-5.312196730156232,276],["LGALS4_P56470",-0.30995707713042486,-3.290598354150092,122],["PAPSS2_O95340",-0.24851403450559137,-4.526908859686014,276],["C5orf45_Q6NTE8",-0.28650517185541013,-3.082066243468463,133],["DPEP1_P16444",-0.2933461086491421,-2.579026666521002,103],["FAM117A_Q9C073",-0.29752657338311295,-3.18842751491625,128]]},"para":{"top":[["TCERG1_O14776",0.22692034875700717,-3.8439189899689508,276],["CBX6_O95503",0.28654927564626426,-4.154248459773588,187],["UNNAMED_C9JYP6",0.2529280906433873,-2.4011224604132115,128],["FLRT2_O43155",0.33187968601335915,-3.2380264541620454,104],["IFI44_Q8TCB0",0.27095727921415996,-2.3590233029569734,109],["ADNP2_Q6IQ32",0.21780847731557104,-2.89412265020493,216],["ZBBX_A8MT70",0.267247722347047,-2.5870985264606046,125],["IWS1_Q96ST2",0.24086630203078488,-4.277775081706108,276],["HMBOX1_Q6NT76-5",0.22241415168014889,-2.7741847534496595,197],["DCHS2_Q6V1P9",0.25266507481841555,-2.5227760170486033,136]],"bottom":[["GALNT12_Q8IXK2",-0.2558298076073498,-3.811045998515236,214],["FGGY_Q96C11",-0.29291945860312973,-3.435553168357307,144],["STARD5_Q9NSY2",-0.2733379957896372,-2.561335753967396,118],["FBP2_O00757",-0.24473958448826252,-2.5362557210958014,146],["PPP2R5A_Q15172",-0.2461795250925474,-4.364186101324586,270],["TOR2A_Q5JU69",-0.24648281400338767,-2.8047355612555185,162],["GSDMB_Q8TAX9-4",-0.32108622820616,-3.3556191554312806,116],["GFPT1_Q06210",-0.2607567825185318,-4.942607717935358,276],["CHRNE_Q04844",-0.24591451721102367,-2.3786410974290164,134],["PAPSS2_O95340",-0.25317122918137547,-4.682575652410917,276],["OCRL_Q01968",-0.24084129651340974,-4.276973634881069,276],["FAM117A_Q9C073",-0.2513823180600192,-2.376123839589031,128]]}}}
{"depmap_copy_number":{"corr":{"top":[["KLHL42_57542",0.10900983477425547,-1.989736950036914,554],["MANSC4_100287284",0.10957945428462298,-2.0066823580644875,554],["ARNTL2-AS1_101928646",0.10978106503653887,-2.0126977253869245,554],["ITPR2_3709",0.11177098934890799,-2.0725679889218247,554],["ABCC9_10060",0.11090463148957079,-2.0463909374076414,554],["BHLHE41_79365",0.11176129001626801,-2.0722739727721624,554],["OR4C6_219432",0.13736178229741794,-2.9243309328491254,554],["KCNJ8_3764",0.11090463148957079,-2.0463909374076414,554],["SSPN_8082",0.11014061955399464,-2.0234485986734176,554]],"bottom":[["LINC01374_105378425",-0.12470871858638792,-2.48405589305307,554],["FGD1_2245",-0.12591811861714064,-2.524508483803141,554],["SNORD65B_109616980",-0.12527132638896263,-2.5028316930776313,554],["LINC00865_643529",-0.12470871858638792,-2.48405589305307,554],["LINC01375_101926924",-0.12470871858638792,-2.48405589305307,554]]},"para":{"top":[["STK38L_23012",0.12282922734748376,-2.42186813217602,554],["RASSF8-AS1_100506451",0.13568868072832788,-2.863939724728245,554],["SMCO2_341346",0.12508807895593657,-2.4967080825551524,554],["C12orf71_728858",0.12457506800322247,-2.4796064779391545,554],["ARNTL2-AS1_101928646",0.12661633122156438,-2.548018577765807,554],["SSPN_8082",0.12872834334453756,-2.619830276480627,554],["MIR4302_100422897",0.13568868072832788,-2.863939724728245,554],["ITPR2_3709",0.13354221143379438,-2.787436846333648,554],["BHLHE41_79365",0.13127638364909783,-2.7078647420384843,554],["RASSF8_11228",0.13568868072832788,-2.863939724728245,554],["LMNTD1_160492",0.12933529970410626,-2.6406617182997927,554],["TM7SF3_51768",0.12395377562950723,-2.458977584261824,554],["ARNTL2_56938",0.12236545892781074,-2.4066499116467037,554],["MED21_9412",0.12353236579374674,-2.445036735097996,554],["PPFIBP1_8496",0.12474066818773602,-2.4851201584422213,554],["FGFR1OP2_26127",0.12396471492351877,-2.4593400240377954,554]],"bottom":[["FGD1_2245",-0.12730299491011077,-2.57125129088919,554]]}}}
{"depmap_gene_tpm":{"corr":{"top":[["YLPM1_56252",0.1511646959695533,-3.4481768855735853,554],["DHX36_170506",0.15841706551452142,-3.741945600705604,554],["PLEKHM3_389072",0.1648629090621471,-4.013905384227795,554],["SMPD4_55627",0.1507309065476511,-3.431012809129404,554],["RAB3GAP1_22930",0.1510440215519607,-3.443397470630468,554],["DIRC2_84925",0.15055455517409402,-3.4240480714253905,554],["PRB4_5545",0.1507210490173577,-3.4306233008520945,554],["NEMP2_100131211",0.1580783617568265,-3.727938801517739,554],["BICD2_23299",0.18178273558392688,-4.777147387082588,554],["MICALL1_85377",0.14983409233730663,-3.3956730134985302,554],["SIX4_51804",0.17958651273434548,-4.673996827945752,554]],"bottom":[["SLC3A1_6519",-0.2114534093368583,-6.292818383916196,554],["GPRIN3_285513",-0.16884664062534854,-4.187140336072185,554],["PPP1R14D_54866",-0.17054934600167318,-4.262392084468239,554],["FGF10_2255",-0.18000318517623579,-4.693472520585965,554],["CDX1_1044",-0.1914731279594394,-5.247006411968831,554],["ATOH1_474",-0.1802093501078683,-4.703125190783498,554],["MEOX2_4223",-0.18386645619194125,-4.876150005919746,554],["BTNL3_10917",-0.18821345477686435,-5.086262524807058,554],["GUCY2C_2984",-0.1789593158705434,-4.644764129667913,554],["TFAP2D_83741",-0.17499656211288175,-4.462369627494233,554],["DKK4_27121",-0.17134258770355318,-4.297697648163323,554],["ABCB1_5243",-0.1730001969747799,-4.371984211002739,554],["SLC6A7_6534",-0.1683490738982933,-4.165287064436466,554],["FABP2_2169",-0.17403385575552666,-4.418657797503721,554],["ISX_91464",-0.1717253376178284,-4.314789507344652,554]]},"para":{"top":[["MC1R_4157",0.1584780932680678,-3.7444723517287035,554],["L3MBTL3_84456",0.15904331902286212,-3.767918140735434,554],["PLEKHM3_389072",0.1777226633792464,-4.587417919625709,554],["SMPD4_55627",0.15415687152926733,-3.5678200430861526,554],["RAB3GAP1_22930",0.15740689524681642,-3.700254297422211,554],["DIRC2_84925",0.16273459700503987,-3.922971969722786,554],["UPK3BL1_100134938",0.1544719713257687,-3.5805466722012094,554],["PTK2_5747",0.1563975058782851,-3.6588456895033805,554],["TJAP1_93643",0.17876751939881205,-4.635844715889472,554],["CFAP20_29105",0.15470701886090937,-3.5900558726905705,554],["BICD2_23299",0.17480619967861494,-4.453707661592037,554],["DHX36_170506",0.15269928237126362,-3.5092649431676066,554],["RNF175_285533",0.1579475191313283,-3.7225354754005218,554]],"bottom":[["CYP2C8_1558",-0.12550311959586904,-2.510588821484888,554],["SMIM24_284422",-0.13591006068861114,-2.8718922600105268,554],["PLA2G16_11145",-0.14949338631698703,-3.382298414857906,554],["GFRA1_2674",-0.14550919025120218,-3.2279852079788474,554],["ALDH2_217",-0.14670175429603896,-3.2737719045367295,554],["AMELX_265",-0.13607826662567818,-2.8779424432726803,554],["CMBL_134147",-0.1455903535831464,-3.231090456482402,554]]}}}
{"avana":{"corr":{"top":[["LPAR1_1902",0.16679733944269845,-3.0314825983621625,391],["SAMD10_140700",0.16543249763900061,-2.9890005003731726,391],["NTRK2_4915",0.16745720507671674,-3.052137270980005,391],["P2RY14_9934",0.1681544116023239,-3.0740428031812876,391],["MTDH_92140",0.16153660276170068,-2.850829289161982,388],["TBC1D22A_25771",0.1687672827197514,-3.0933682923549473,391],["TLE4_7091",0.16719235859042605,-3.043838156665863,391],["FKBP15_23307",0.17195439517920016,-3.194920301901494,391],["PIK3C2B_5287",0.17849496424276232,-3.4088904395276822,391],["ADH1B_125",0.17085949270110237,-3.159833474808075,391],["UGT2A1_10941",0.1670647251001469,-3.039843031066619,391],["BEND4_389206",0.1753809654594882,-3.3060814632352002,391],["CSN2_1447",0.19152724648468536,-3.8578160088438023,391],["CASC10_399726",0.16177174232575575,-2.876643907754681,391],["HEPN1_641654",0.1668984022124889,-3.0346411040253387,391],["INSL6_11172",0.18751829814977272,-3.7164899249653707,391]],"bottom":[["ATP1B2_482",-0.19153312732319674,-3.8580254461808754,391],["LRP10_26020",-0.1781341340408582,-3.3968901038713155,391],["FCAMR_83953",-0.15977295892433108,-2.8162697813969992,391],["OSTM1_28962",-0.17939623257698742,-3.438964824729496,391],["TMEM99_147184",-0.18444958385873092,-3.6102544480953775,391],["GPATCH3_63906",-0.16163064547833386,-2.8723595178537846,391],["ZDHHC9_51114",-0.18124574753293393,-3.322617890855451,368],["FKBP3_2287",-0.1802852174515692,-3.4687699434794523,391],["HIST1H3D_8351",-0.17534113352675373,-3.3047774554334697,391],["SELENOH_280636",-0.16993890169788683,-3.130494328039588,391],["AEBP1_165",-0.19419347562638903,-3.953409601805575,391],["ACSS2_55902",-0.19577759273198916,-4.010814406290661,391],["NFE2_4778",-0.16504551166659406,-2.957563000568203,388],["MANSC1_54682",-0.16481544984502491,-2.969899994438839,391],["RLF_6018",-0.197685470261254,-4.080555828167442,391],["WNT16_51384",-0.18653480370691278,-3.682259286322577,391]]},"para":{"top":[["RFXAP_5994",0.17566309164720936,-3.2934274986144367,388],["NBEA_26960",0.1578289808255669,-2.758207628727644,391],["PCSK5_5125",0.15736523655982093,-2.7444520770473586,391],["KLLN_100144748",0.16377061949324034,-2.937707518334834,391],["TEX10_54881",0.16673224568273903,-3.0096201083049343,388],["ABCC8_6833",0.1632433629875381,-2.921533585300213,391],["ATP6V1E2_90423",0.1541548795350048,-2.6502317008369247,391],["DEPDC7_91614",0.15139194453372373,-2.5705440779880706,391],["TBC1D22A_25771",0.15559610134732005,-2.692312950079414,391],["INSL6_11172",0.15756633968586378,-2.7504126760756056,391],["CSN2_1447",0.1753044729541052,-3.3035775170152126,391],["TEX37_200523",0.17002220137885926,-3.133143006445263,391],["OR52M1_119772",0.15673114602188307,-2.725703120961677,391],["TMEM150A_129303",0.1544390016810758,-2.6584996535108734,391],["ABCG5_64240",0.15525223765360846,-2.6822406318560787,391]],"bottom":[["ATP1B2_482",-0.1601664052991615,-2.82809982992294,391],["LRP10_26020",-0.16902384912641163,-3.10147790524212,391],["WNT16_51384",-0.16184410450313658,-2.8788425043874466,391],["ASMTL_8623",-0.17032136433592962,-2.9841020921694645,368],["OR10G2_26534",-0.16276971701546203,-2.9070450232981933,391],["POMZP3_22932",-0.16338292380774713,-2.9258100414633197,391],["TXNL1_9352",-0.17193474257118008,-3.194288677704546,391],["FKBP3_2287",-0.1863493829290107,-3.675825070859456,391],["TMEM14C_51522",-0.16080224714962582,-2.8472742680267533,391],["TDRP_157695",-0.16172852883344177,-2.875331371483155,391],["AEBP1_165",-0.17294925193104757,-3.2269826414150233,391],["RNF133_168433",-0.16301996984944578,-2.9146953024034707,391],["KLHDC2_23588",-0.16968051918644816,-3.122286228366894,391],["PPP1R12A_4659",-0.1671711939804577,-3.043175476362479,391],["ZDHHC9_51114",-0.18824058941535748,-3.549772535195955,368]]}}}
{"drive":{"corr":{"top":[["PRKCH_5583",0.1686606992254738,-2.387280223058923,288],["PRKY_5616",0.18040488955307588,-2.6745797790893,288],["AKTIP_64400",0.19676834364037538,-3.095264930525024,287],["PIK3C2B_5287",0.19880819472004485,-3.1888122055902737,291],["MAP3K8_1326",0.18183056904202033,-2.734502284442104,291],["OR2T27_403239",0.18422376411239347,-2.763650744474094,287],["NAPG_8774",0.18412050190095813,-2.793566338375106,291],["SERPINA11_256394",0.19010470376428634,-2.9252143970155484,288],["KCTD2_23510",0.17758118584009067,-2.5962917974460424,287],["SDC1_6382",0.15927735718796943,-2.226039946843386,297],["VSIG2_23584",0.16847128467379618,-2.3827898595291885,288]],"bottom":[["LGR4_55366",-0.18022850989809805,-2.6623135474018524,287],["LARP4B_23185",-0.1774405239618277,-2.592808840414263,287],["GRIK5_2901",-0.1849853060188459,-2.8898494111718853,300],["SMG1P3&SMG1P1_100271836&641298",-0.20615786664477442,-3.3671011973782563,288],["ADAM12_8038",-0.17305414079616618,-2.4927048155007987,288],["FANCI_55215",-0.22115164427764658,-3.79946385990325,287],["SOX12_6666",-0.1762931692262796,-2.594492981099336,291],["NFIC_4782",-0.1787058970541637,-2.6550087171075907,291]]},"para":{"top":[["GSX2_170825",0.1685912791267557,-2.4063250781809717,291],["AKTIP_64400",0.17035304819547273,-2.420564552610463,287],["VSIG2_23584",0.18449294167832647,-2.778726396206764,288],["OPN1MW3&OPN1MW2_101060233&728458",0.17527626499655727,-2.576626295554853,292],["OR2T27_403239",0.17095187665256498,-2.434872052593195,287],["PIK3C2B_5287",0.221489836556168,-3.856198498258798,291],["NAPG_8774",0.20195533327777423,-3.2772364444343673,291],["CLEC2D_29121",0.15943843261439436,-2.1987374904321966,292],["KCTD2_23510",0.18950511278381135,-2.9007669623240213,287]],"bottom":[["RAB3GAP2_25782",-0.17628642509783887,-2.594324879576289,291],["DCAF4_26094",-0.18190628393450886,-2.8079356267327653,300],["CDK7_1022",-0.184456577741482,-2.8022923221624865,291],["ITGB7_3695",-0.17595958301264433,-2.556291796502059,287],["SMG1P3&SMG1P1_100271836&641298",-0.18947879632443923,-2.908672839740986,288],["ADAM12_8038",-0.1774495062049228,-2.6006268919420448,288],["MPHOSPH8_54737",-0.18235622468865784,-2.748000013559268,291],["FANCI_55215",-0.20440241435828752,-3.3071758002365117,287],["SOX12_6666",-0.1808613835880997,-2.7097099314160182,291],["CDK9_1025",-0.166661776606383,-2.360371825624444,291],["GJA3_2700",-0.16263400826585706,-2.3046183114134826,297],["INPP5B_3633",-0.1645240307630386,-2.2836462020716537,287]]}}}
{"achilles":{"corr":{"top":[["GNG4_2786",0.23305936816963221,-4.377559553055647,303],["UBE2D4_51619",0.23691584444541958,-4.5093962281472315,303],["SNX24_28966",0.23355168365575635,-2.7685754184258924,178],["ENTHD1_150350",0.24201976925079866,-2.9449903669739452,178],["DSCR4_10281",0.21374066528097652,-2.3795075550261355,178],["ADPRHL1_113622",0.23789386324284945,-2.12195231975373,125],["TMEM106B_54664",0.2296308093852909,-2.6889632464357933,178],["PDRG1_81572",0.2632088658838732,-3.4137901953514636,178],["PRPF39_55015",0.29155306839240336,-4.104395977429095,178],["MRPL34_64981",0.2336119113753561,-2.769808493567641,178],["LINC00504_201853",0.22958610168551993,-2.688062970702371,178]],"bottom":[["WDR25_79446",-0.2309213931979714,-2.715024428239623,178],["RTTN_25914",-0.23861228982427302,-2.87326326548585,178],["TMEM207_131920",-0.22764350453814833,-2.6491077608314098,178],["HIBCH_26275",-0.23588619524843682,-4.473980454074482,303],["PURB_5814",-0.23347906285057532,-2.767089023005209,178],["SLC25A23_79085",-0.2397459139948077,-4.607554535512676,303],["IMP3_55272",-0.2588655870837112,-3.3144584918161497,178],["OSBPL1A_114876",-0.237565439234836,-2.851427601589958,178],["AMACR_23600",-0.23706112905141785,-2.8409420014444864,178],["RTN4IP1_84816",-0.2251664595226083,-2.5998953761575527,178],["C16orf78_123970",-0.23614460583709904,-2.821941396870773,178],["CLPTM1L_81037",-0.24577327637186427,-3.0251626786483143,178],["NHEJ1_79840",-0.23241095073849785,-2.745278772594085,178]]},"para":{"top":[["GNG4_2786",0.2477249891157752,-4.890784320499299,303],["TMEM106B_54664",0.21456799409742233,-2.395103485053194,178],["ZNF391_346157",0.23310223321131754,-2.7593833096299667,178],["ELP1_8518",0.202018549491953,-3.3953896833201376,303],["LINC00504_201853",0.21001773549547328,-2.3100199426034793,178],["APOPT1_84334",0.22740088049536225,-2.644264699893969,178],["ADPRHL1_113622",0.28965284178187406,-2.978255548043335,125],["FAM171A2_284069",0.20551384712285653,-2.2274636746402408,178],["PRPF39_55015",0.24403436444410975,-2.9878688413850685,178],["UBE2D4_51619",0.209341811797804,-3.6146404708762225,303],["STIM1_6786",0.206177730232617,-2.2395293883719525,178]],"bottom":[["SBSN_374897",-0.2119305136792162,-2.3455800573389483,178],["PURB_5814",-0.22968309722448743,-2.6900163769432317,178],["LINC01602_100505477",-0.2319072096674445,-2.735026265988972,178],["PSD2_84249",-0.23515255456333836,-2.801455892468347,178],["TMEM270_135886",-0.2117251783655847,-2.3417484008605722,178],["SCD5_79966",-0.23623508751274006,-4.485963247075125,303],["IMP3_55272",-0.25943772109491503,-3.327446739170309,178],["OSBPL1A_114876",-0.24447869062188676,-2.997373172112228,178],["KLHL14_57565",-0.2291264150161186,-2.6788160757931867,178],["GPR68_8111",-0.21994598914816008,-3.945661092192257,303],["C16orf78_123970",-0.21496373118783546,-2.40258336675038,178],["NHEJ1_79840",-0.22918808904335455,-2.680055653399748,178],["FAM69B_138311",-0.23324095007593595,-2.762218499304103,178]]}}}
{"ccle_rrbs_tss1kb":{"corr":{"top":[["LINC02362_4_185303460_185304460",0.17371184519526037,-3.7492463361771047,461],["LINC00864_10_89167457_89168457",0.19130624173667,-4.004496932865936,409],["P4HA1_10_74856732_74857732",0.18244907429771975,-4.127509676834108,466],["MIR6877_9_135926382_135927382",0.17827057445364608,-3.9763718895465954,468],["FOXD4_9_118417_119417",0.24106119511829155,-3.0931842538076912,190],["MIR4508_15_23807278_23808278",0.17709288532097064,-3.8933680138826183,463],["SLC3A1_2_44501596_44502596",0.22672019634849747,-5.61931783868736,424],["CAPN1_11_64947685_64948685",0.2516966330461711,-3.9129416435395368,228]],"bottom":[["MIR4690_11_65402780_65403780",-0.14283589835463012,-2.297302657152257,384],["PLEC_8_145018905_145019905",-0.15243059430012465,-2.8725989222945145,440],["MIR107_10_91352584_91353584",-0.15118728372492407,-2.9361596477369014,459],["PTPN9_15_75871632_75872632",-0.1472153875959873,-2.6401345188922543,427],["SMARCAD1_4_95173444_95174444",-0.15168247683662422,-2.9307475526871953,455],["TAF1B_2_9982570_9983570",-0.14102824355370736,-2.628301408118621,463],["SIVA1_14_105218469_105219469",-0.1396040444107065,-2.6211161180369644,471],["CCAR1_10_70479900_70480900",-0.14826128452863582,-2.797981573807949,451],["NPPA-AS1_1_11899375_11900375",-0.1912818545528784,-4.524767043695462,470]]},"para":{"top":[["SPATA24_5_138739776_138740776",0.22080481302635824,-2.2272285508537677,154],["SQLE_8_126009719_126010719",0.17414977433563766,-3.851140662504778,473],["COIL_17_55038411_55039411",0.18558383636303327,-1.8299026282217272,172],["MIR6877_9_135926382_135927382",0.1811151623146267,-4.0894392287558,468],["LOC100507377_12_74686411_74687411",0.1733846426102351,-3.821390966969718,473],["UFL1_6_96968701_96969701",0.22653269070594687,-1.7090988482271305,106],["MIR4508_15_23807278_23808278",0.18633917811591283,-4.261103719818155,463],["SLC3A1_2_44501596_44502596",0.16950067442670883,-3.3409883908537847,424]],"bottom":[["HLA-B_6_31325022_31326022",-0.16584537228333404,-2.4478156572619643,307],["PLAUR_19_44174498_44175498",-0.15141423810202229,-2.9709290430814743,464],["C19orf24_19_1274519_1275519",-0.13771894214133076,-2.575469963688965,474],["PRKAG2_7_151433400_151434400",-0.2215304990022538,-2.719559953127549,194],["HOMER3_19_19051113_19052113",-0.13693394329112027,-2.546341778551644,473],["HOMER3_19_19051161_19052161",-0.13982781716080214,-2.637566532130243,473],["CCNT2-AS1_2_135676176_135677176",-0.13982540728238183,-2.576573223532479,460],["MIR4539_14_106326584_106327584",-0.1671780957025414,-3.597804075202822,475]]}}}
{"ccle_gene_tpm":{"corr":{"top":[["BICD2_ENSG00000185963.9",0.1829573130724019,-4.7630158876900985,545],["AC018641.7_ENSG00000226468.2",0.15852809492774259,-3.693617273985837,545],["SCGB2B3P_ENSG00000269811.2",0.15753300676112733,-3.6531536859244347,545],["MKI67IPP2_ENSG00000251122.1",0.15661388662328926,-3.615991770668877,545],["RP11-128L5.1_ENSG00000253266.1",0.1592282166714466,-3.722230123936994,545],["RP11-742B18.1_ENSG00000249001.1",0.15920554772241718,-3.7213018211174855,545],["TMEM194B_ENSG00000189362.7",0.15963871635102433,-3.7390617956089898,545],["PLEKHM3_ENSG00000178385.9",0.18556546552663727,-4.88594122216306,545],["SIX4_ENSG00000100625.8",0.17870027565432078,-4.566040359827962,545],["RP11-350D17.2_ENSG00000255427.1",0.1628729702982148,-3.873106129656043,545],["DHX36_ENSG00000174953.9",0.1580052163386613,-3.6723254440165194,545],["AC092664.1_ENSG00000233370.1",0.1750086511687877,-4.398886069152842,545],["RP1-111D6.3_ENSG00000228408.1",0.17112663695394464,-4.226756031331756,545]],"bottom":[["AP000946.2_ENSG00000233480.1",-0.1894688669568996,-5.073116683299631,545],["RP11-175G14.2_ENSG00000271618.1",-0.18531434143489722,-4.874030997383594,545],["RP11-232M24.1_ENSG00000242671.1",-0.18123653806593853,-4.682848717134937,545],["CDX1_ENSG00000113722.12",-0.1943343810563425,-5.311835416991513,545],["RP1-79C4.1_ENSG00000235303.1",-0.17944420791656898,-4.600135891223179,545],["RP11-473L15.2_ENSG00000248464.1",-0.1860785957257446,-4.910327181173654,545],["GUCY2C_ENSG00000070019.3",-0.18001008968041157,-4.626163600103747,545],["BTNL3_ENSG00000168903.8",-0.1891143729779321,-5.055958976726106,545],["SLC3A1_ENSG00000138079.9",-0.21272423139009464,-6.269066374854092,545],["FGF10_ENSG00000070193.4",-0.17936455537120632,-4.596478694557638,545],["TRGV9_ENSG00000211695.2",-0.17667578273271783,-4.473953095097924,545],["RP11-733C7.1_ENSG00000249091.1",-0.1905853254501665,-5.127362044493683,545],["ATOH1_ENSG00000172238.3",-0.18104772118277193,-4.674097304412411,545],["LINC00380_ENSG00000234625.1",-0.17901831148269598,-4.580599523512728,545],["RP11-119H12.5_ENSG00000228814.4",-0.20584967174399188,-5.900971744578254,545],["KRT18P51_ENSG00000250504.2",-0.20917416689823223,-6.077438835945262,545]]},"para":{"top":[["TJAP1_ENSG00000137221.10",0.1762306190956917,-4.4538408782236205,545],["AC005537.2_ENSG00000232006.4",0.1650698227297609,-3.965607308634623,545],["DDX11-AS1_ENSG00000245614.2",0.16265992445094177,-3.8641981535419596,545],["C16orf80_ENSG00000070761.3",0.15610714101052559,-3.5955901948942404,545],["BICD2_ENSG00000185963.9",0.17142865985834752,-4.24001428175243,545],["RP11-109D24.1_ENSG00000260600.1",0.17810043411368953,-4.538649219029202,545],["RP11-698E18.1_ENSG00000251588.2",0.16048664874015406,-3.773958815930671,545],["CTD-2292P10.4_ENSG00000253741.1",0.16182736838684095,-3.8294928562387835,545],["RP11-843B15.2_ENSG00000257530.1",0.16543510135624423,-3.9811020500998944,545],["RP11-255A11.2_ENSG00000228072.1",0.15845947569589344,-3.6908193005555767,545],["RP11-113D6.3_ENSG00000254857.1",0.16321732783487858,-3.8875279490286805,545],["AEBP2_ENSG00000139154.10",0.15811412528070548,-3.6767548083952084,545],["PLEKHM3_ENSG00000178385.9",0.18778013606204613,-4.99166633872666,545],["MTND4P1_ENSG00000228597.1",0.1715577801300874,-4.245689289387709,545],["SMPD4_ENSG00000136699.15",0.1561010711526367,-3.595346197791693,545]],"bottom":[["AC023672.1_ENSG00000229890.1",-0.14159687767056015,-3.037493604942363,545],["GK3P_ENSG00000229894.2",-0.13850251322400536,-2.924940247890935,545],["SULT1C2P1_ENSG00000237223.2",-0.14062400355053287,-3.001863666350911,545],["ALDH2_ENSG00000111275.8",-0.14988142979918723,-3.349981715430232,545],["ITCH-AS1_ENSG00000236388.1",-0.14102194051785083,-3.0164104978377253,545],["CMBL_ENSG00000164237.4",-0.15515766824369984,-3.557531072813266,545],["RP11-474D1.4_ENSG00000261650.1",-0.14252610440780952,-3.0717335053365455,545],["LINC00299_ENSG00000236790.1",-0.16604595621507318,-4.007086776860635,545],["AC064834.1_ENSG00000224099.1",-0.17428492591739456,-4.366513053723335,545],["AC007742.7_ENSG00000250868.2",-0.14293969355899502,-3.0870389125888202,545],["Metazoa_SRP_ENSG00000272197.1",-0.1380075073420591,-2.907143936926886,545],["AC008163.4_ENSG00000234113.2",-0.15031057112896476,-3.3666135315017613,545],["PLA2G16_ENSG00000176485.6",-0.1531828594397951,-3.4790667397751727,545],["Z83001.1_ENSG00000228061.1",-0.14110878020219716,-3.0195899365727263,545]]}}}
{"ccle_rrbs_tss_clusters":{"corr":{"top":[["GIPC2_2",0.22313749367818375,-2.3772404437417705,163],["ARHGEF10L_6",0.22188706825600343,-5.9152137831108345,469],["SLC3A1_2",0.23197677404539235,-5.911696397989834,428],["AMACR_1",0.2555092157017752,-3.864765710671007,218],["ANKRD40CL_1",0.3012813195374132,-3.171929205295635,124],["TRABD2A_1",0.25810976335975006,-3.0558153092196427,163],["TSPOAP1-AS1_8",0.2294475071440454,-2.8512660005640122,191]],"bottom":[["SMARCAL1_2",-0.19836399362636034,-2.8658603326025527,258],["MAP4K5_2",-0.26149140137879373,-2.6096289537920128,132],["MYD88_2",-0.20702337007062555,-2.339121175799035,186],["KIF20B_2",-0.22404070773992807,-3.3997186025593695,246],["SRSF10",-0.21831072969832085,-5.851214802508488,479],["SMARCAL1_1",-0.23113133557753054,-3.7697053141206536,260],["SLFN12_2",-0.23607337493304995,-3.197032316884672,206],["SHROOM2_5",-0.20482498116961564,-2.7160831931479104,227]]},"para":{"top":[["BEX5_2",0.2033080420321941,-2.681768019128529,227],["INTS10_2",0.23124619660749354,-2.3027501930112435,146],["ZNF79_1",0.23084337468313293,-4.202377900899705,295],["ANKRD40CL_1",0.24885443357132406,-2.274162646972215,124],["LOC101927551_2",0.21850095807239875,-2.771752805946492,204],["ZNF823_2",0.21395263643787882,-3.1910396153953684,251],["TRABD2A_1",0.2260662269597698,-2.4304149816325378,163],["LOC101928775_1",0.20614583210060408,-2.5092775081065186,204],["CHD9_1",0.21508670917293685,-3.616819926753393,287],["TSPOAP1-AS1_8",0.21466110059453875,-2.543130079157574,191]],"bottom":[["SMARCAL1_2",-0.20104040467612905,-2.932766577064211,258],["MEA1_5",-0.2093528506103961,-2.9043550854835525,235],["GPATCH3_2",-0.20693639135309752,-2.9908521394447196,249],["PRKAG2_2",-0.21970163698871698,-2.7045427519669594,196],["KIF20B_2",-0.21883568961136413,-3.262331693502712,246],["MIR4539_4",-0.22796752947247095,-2.6934942456122837,181],["SMARCAL1_1",-0.22232526023854782,-3.5189152981192704,260],["CCN1_2",-0.1833756415484896,-3.5021148990769526,382],["ERCC6L2_2",-0.18254424638177205,-2.696753133143944,284]]}}}
{"ccle_rrbs_cgi_clusters":{"corr":{"top":[["17_79233486_79237751-1",0.24791483073940315,-2.6382046166804427,149],["13_21345443_21350257-2",0.22350823911164658,-3.480741526089873,254],["23_153626709_153629324-2",0.22459325042944772,-2.0669334958495083,136],["1_78509577_78514161-2",0.22313749367818375,-2.3772404437417705,163],["17_56399728_56404343-3",0.2294475071440454,-2.8512660005640122,191],["5_94953630_94956437-3",0.23951933199351905,-2.1320565681518713,124],["22_46775706_46779929-2",0.2606732903318877,-4.74742661994567,264],["5_34005796_34010105-1",0.2555092157017752,-3.864765710671007,218],["11_2947788_2950772-2",0.22482244710361768,-5.227620637373261,398],["3_74661506_74666121-3",0.23447456463788846,-2.098575573523704,127],["14_61106954_61111786-2",0.23582680914160523,-3.2045356450517377,207],["2_85105731_85110430-1",0.25810976335975006,-3.0558153092196427,163]],"bottom":[["14_50999144_51001711-3",-0.26149140137879373,-2.6096289537920128,132],["10_91458899_91463615-2",-0.22404070773992807,-3.3997186025593695,246],["1_110183961_110188164-2",-0.2350733322182986,-2.732716587607434,173],["17_1080376_1083104-2",-0.23537837300195272,-2.8598338945422928,182],["1_24304363_24309017-1",-0.21831072969832085,-5.851214802508488,479],["23_203322_207553-3",-0.23488100917556462,-2.9960935299541536,193],["2_217275037_217279557-1",-0.23113133557753054,-3.7697053141206536,260]]},"para":{"top":[["9_130184276_130189160-1",0.23084337468313293,-4.202377900899705,295],["2_85105731_85110430-1",0.2260662269597698,-2.4304149816325378,163],["19_1959001_1963325-2",0.21991007002313803,-3.325059731384938,249],["5_94953630_94956437-3",0.2442627653675218,-2.203619802047538,124],["4_189078848_189083247-1",0.23917929702207832,-2.5087364628460698,151],["22_46775706_46779929-2",0.22075245715968764,-3.521495050178704,264],["10_88700315_88702819-2",0.22260931356604602,-3.029387033393358,218],["8_19672263_19677236-2",0.23124619660749354,-2.3027501930112435,146],["14_61106954_61111786-2",0.25318110953041645,-3.633460015068698,207],["3_74661506_74666121-3",0.2754428178141889,-2.763732419433464,127],["7_157692387_157696661-2",0.21458511335128813,-2.1801943201609553,159],["19_15290399_15294632-1",0.2310390252040346,-3.4367970603854996,234]],"bottom":[["1_214779662_214784556-2",-0.22792523677110813,-2.578798835595349,172],["19_11317444_11321753-3",-0.2082040891678169,-4.0503779730482075,349],["10_91458899_91463615-2",-0.21883568961136413,-3.262331693502712,246],["2_217275037_217279557-2",-0.20104040467612905,-2.932766577064211,258],["6_42979408_42984077-2",-0.2093528506103961,-2.9043550854835525,235],["1_27224492_27229009-2",-0.20693639135309752,-2.9908521394447196,249],["14_24639053_24641637-1",-0.2022392500405467,-3.139101138870953,276],["2_217275037_217279557-1",-0.22232526023854782,-3.5189152981192704,260]]}}}
