{"depmap_hotspot":{"corr":{"top":[["ACE",0.0987289448667152,-1.698962952058947,59.0,496.0],["ADAMTS3",0.11666610771569551,-2.227011058365994,50.0,505.0],["AK1",0.09327815330832254,-1.5528854963031073,9.0,546.0],["ALAD",0.10077987740143438,-1.7556461784467579,11.0,544.0],["BRMS1L",0.10309879985571095,-1.820875587867468,15.0,540.0],["C1GALT1C1",0.1041453331023329,-1.8507110963361246,15.0,540.0],["COL10A1",0.10075417640459003,-1.754930015013836,24.0,531.0],["DCAF8L1",0.10844368584076505,-1.9758563547425705,27.0,528.0],["DCLK3",0.09679686364491093,-1.6464265456338163,26.0,529.0],["DYM",0.10904210474200758,-1.9936124382630074,35.0,520.0],["EGFL8",0.09685323074930596,-1.6479474436986654,21.0,534.0],["EIF3F",0.10085136408866109,-1.7576389505124237,14.0,541.0],["EPN2",0.10482054733822814,-1.870092192852187,22.0,533.0],["FURIN",0.09249558788847953,-1.5324556410057242,28.0,527.0],["HEATR5A",0.10312325256824503,-1.8215698839492969,70.0,485.0],["HLA-B",0.10759439170151298,-1.9507965155016234,23.0,532.0],["HOXA11",0.09798318824932184,-1.6785856955458358,14.0,541.0],["IFNB1",0.11176858363608609,-2.0755472578066447,8.0,547.0],["LEP",0.10595240984164805,-1.9028124729579259,10.0,545.0],["MARCH2",0.09063709225882047,-1.4844801533209533,10.0,545.0],["MTMR9",0.09576830866405368,-1.6187985215894158,29.0,526.0],["NME4",0.09768887853902865,-1.6705781452662765,8.0,547.0],["NMNAT2",0.0994610356056071,-1.7190879828562247,13.0,542.0],["OR1N1",0.10220059152273281,-1.7954659088987703,17.0,538.0],["OR6B2",0.09254709781918267,-1.5337962024474574,15.0,540.0],["PHF12",0.09677315962824497,-1.6457871753257565,32.0,523.0],["PHF21B",0.11126070674274427,-2.0601558514640312,28.0,527.0],["PPP1R3D",0.10056990028681313,-1.7497994739691909,17.0,538.0],["PSMB6",0.10000692721223103,-1.7341726760817855,11.0,544.0],["SH2D4A",0.09428739600120252,-1.5794335352533788,16.0,539.0],["SPATA21",0.10025618308106488,-1.7410826441725806,22.0,533.0],["SPOPL",0.11878956808583901,-2.2944031118424415,18.0,537.0],["SPSB2",0.11465770853769329,-2.1642299551161255,8.0,547.0],["SREBF2",0.11448978333436498,-2.159022879966005,33.0,522.0],["STX2",0.10663754946829637,-1.9227599759664349,10.0,545.0],["TARDBP",0.1001897698619992,-1.7392401473470274,15.0,540.0],["TLR1",0.10942947769049921,-2.0051500053518887,32.0,523.0],["TMEM179B",0.10877569054330583,-1.9856973985271764,8.0,547.0],["TMEM88",0.10704923897277521,-1.934797413368377,9.0,546.0],["UBXN2B",0.10291069788424397,-1.8155392440028264,9.0,546.0],["WDYHV1",0.10485707595558717,-1.8711436401576147,8.0,547.0],["WNT8A",0.1023272683562897,-1.7990384826534587,13.0,542.0],["ZC3HAV1L",0.11547062893374666,-2.1895291245710804,9.0,546.0],["ZXDB",0.10000376441293511,-1.7340850853792817,26.0,529.0]],"bottom":[["ACBD3",-0.1274905047926563,-2.581507553508068,12.0,543.0],["ADAMTSL3",-0.11407389445419117,-2.1461548322090316,73.0,482.0],["ARHGAP35",-0.1186255433085717,-2.289160240125563,49.0,506.0],["ATF7IP2",-0.14383506109524263,-3.1691722161435663,26.0,529.0],["ATP8A1",-0.11928281795924844,-2.310206914163767,36.0,519.0],["BACH1",-0.13610760167891967,-2.8833984039677354,24.0,531.0],["BAX",-0.11323903498939476,-2.1204435334628617,15.0,540.0],["C4orf50",-0.13991018893398469,-3.022234392873642,19.0,536.0],["CAGE1",-0.12143420246127437,-2.3797987025705893,28.0,527.0],["CALR",-0.12929157133318808,-2.6431540848361945,17.0,538.0],["CCDC60",-0.11766757638498085,-2.258664467105735,27.0,528.0],["CCDC87",-0.11919854200459867,-2.3075026996096306,34.0,521.0],["CEP164",-0.12303696131466904,-2.432344598937154,33.0,522.0],["CGREF1",-0.1216965179787579,-2.3883576229872707,16.0,539.0],["COL8A1",-0.11317888780318752,-2.1185973605643484,39.0,516.0],["DTX3L",-0.1154411919834025,-2.188610348002656,18.0,537.0],["DUPD1",-0.11914999114859008,-2.30594556688589,9.0,546.0],["EDAR",-0.11562908695376403,-2.194478299903479,17.0,538.0],["EID3",-0.1150941853754801,-2.1777947558226196,13.0,542.0],["EIF4G3",-0.11829808225652817,-2.2787119692786484,48.0,507.0],["ELL3",-0.13628381587931443,-2.8897558102500627,8.0,547.0],["EMR3",-0.12587325730087703,-2.5268030927242076,24.0,531.0],["EPHA2",-0.12061953554368286,-2.353319652593159,51.0,504.0],["FAM46D",-0.11967239296184645,-2.322728881172637,21.0,534.0],["GAL3ST4",-0.11455718878735041,-2.1611122280555297,18.0,537.0],["IFRD2",-0.11572130084296556,-2.1973611160732953,19.0,536.0],["INHA",-0.1138419269189535,-2.1389948056282675,12.0,543.0],["IQCB1",-0.1143877291023201,-2.1558615250217414,19.0,536.0],["IRAK1BP1",-0.11440209940239968,-2.156306531660284,11.0,544.0],["IRF5",-0.1195758211864939,-2.319621523831247,16.0,539.0],["IVL",-0.12155664394268681,-2.383791769534285,30.0,525.0],["JMY",-0.1402896366347566,-3.03627833566558,21.0,534.0],["KIRREL2",-0.12215353330016379,-2.4033075929369794,30.0,525.0],["LANCL2",-0.14808305861653584,-3.3323957602908485,22.0,533.0],["LZTS2",-0.12976727122988646,-2.659563915009741,32.0,523.0],["MARK4",-0.13077553293224345,-2.694521774952705,36.0,519.0],["MEIG1",-0.13124931504267479,-2.711031470831086,13.0,542.0],["MICAL1",-0.12049399810403692,-2.3492530568565733,34.0,521.0],["MLLT10",-0.15877246071548526,-3.7625681472033357,32.0,523.0],["MUC8",-0.1211951338607021,-2.372012254480749,15.0,540.0],["MYO1D",-0.12198716141578418,-2.3978595671908245,50.0,505.0],["NANOG",-0.13658449740767742,-2.9006208145933834,9.0,546.0],["NCF2",-0.11576926140737577,-2.198861248381708,22.0,533.0],["OCIAD1",-0.11804909723653832,-2.270784261811423,10.0,545.0],["OR52N4",-0.1285781722486679,-2.6186445967549483,21.0,534.0],["OTOP2",-0.12638380325760043,-2.5440062777640686,31.0,524.0],["PAWR",-0.11686098645036574,-2.2331524071927826,16.0,539.0],["PDCD10",-0.11942015324272008,-2.314617209395275,13.0,542.0],["PPAN",-0.11911936714306483,-2.304963669096684,16.0,539.0],["PPP2R3A",-0.11604943340415863,-2.2076352073288343,33.0,522.0],["PROKR2",-0.14188790992744543,-3.095812378282951,25.0,530.0],["PSMA8",-0.11634969357825212,-2.2170583787819487,17.0,538.0],["RALGAPA2",-0.12715376562110375,-2.5700664600093743,63.0,492.0],["RBM34",-0.12183993646999626,-2.393043911878496,14.0,541.0],["RFC2",-0.11815217404644032,-2.2740644948091786,10.0,545.0],["ROS1",-0.1149189167986017,-2.172342493411265,74.0,481.0],["RPP38",-0.11555065820875422,-2.192027983037969,8.0,547.0],["SMG1",-0.1142176858352473,-2.1505993873550766,80.0,475.0],["SUGP2",-0.12267614506445583,-2.4204630791905095,29.0,526.0],["TMEM194B",-0.12590851869991998,-2.5279892820772076,13.0,542.0],["USP19",-0.12957794239074774,-2.653026394585506,51.0,504.0],["WBP11",-0.1281365988386661,-2.603534035481761,16.0,539.0],["ZNF831",-0.13944161378254155,-3.0049393529081336,92.0,463.0],["ZWILCH",-0.12984030760449308,-2.662088121327342,15.0,540.0]]},"para":{"top":[["AK1",0.1088503455039706,-2.282429900229837,9.0,546.0],["ALAD",0.11453497479561978,-2.4533757164733507,11.0,544.0],["BRMS1L",0.10565704719881848,-2.1898755037909776,15.0,540.0],["C1GALT1C1",0.1086391627416798,-2.2765103490001137,15.0,540.0],["CCNG2",0.12007349911204626,-2.626893847880437,16.0,539.0],["CIDEC",0.09383968810466674,-1.865586812453476,13.0,542.0],["CYHR1",0.08794865975852452,-1.7151723769365295,11.0,544.0],["EGFL8",0.11195862140413533,-2.3754009552970916,21.0,534.0],["EMCN",0.09111933449719022,-1.7952713882709852,14.0,541.0],["EPN2",0.12110152932345192,-2.659965812900038,22.0,533.0],["GDPGP1",0.09097036010261933,-1.791393299162404,12.0,543.0],["HOXA11",0.10119589214918173,-2.0638742496064855,14.0,541.0],["IFNB1",0.11110171919585497,-2.3491501892201,8.0,547.0],["KAZALD1",0.08547742382011679,-1.6542780560692014,10.0,545.0],["LEP",0.09947001891628826,-2.0161308279310965,10.0,545.0],["MED8",0.08567334270049794,-1.658934698089926,8.0,547.0],["NME4",0.09699581089880162,-1.9489390796497197,8.0,547.0],["OLFML1",0.09289636673634223,-1.8410765637885744,15.0,540.0],["OR6B2",0.09608653685196128,-1.9249620584867442,15.0,540.0],["PEX11B",0.08752547209030928,-1.7045563780660735,9.0,546.0],["PPP1R3D",0.10977638196314746,-2.310123180511039,17.0,538.0],["PPP1R7",0.10167957801525236,-2.0772437576990064,12.0,543.0],["PSMB6",0.10263366533288368,-2.1038713195953425,11.0,544.0],["SH2D4A",0.09749040608005773,-1.962603296402209,16.0,539.0],["SPSB2",0.12591528175530234,-2.8166316077119378,8.0,547.0],["SSBP1",0.09520308676740354,-1.9011808946137183,8.0,547.0],["TARDBP",0.1128002541968351,-2.4006635434700425,15.0,540.0],["TMEM179B",0.10860134080206292,-2.2750321942104748,8.0,547.0],["TMEM88",0.10306280157124414,-2.115816320765388,9.0,546.0],["UFC1",0.09662249546865423,-1.9391193978925192,11.0,544.0],["WDYHV1",0.10218527548969081,-2.0911193936414874,8.0,547.0],["WNT8A",0.09956524752151251,-2.018878016312763,13.0,542.0],["ZC3HAV1L",0.12928482754336632,-2.929876049655879,9.0,546.0],["ZNF174",0.10230235689648005,-2.0945320484624568,10.0,545.0]],"bottom":[["ACBD3",-0.10253012961842181,-2.101014218745019,12.0,543.0],["CGREF1",-0.12232508725660463,-2.699297518233713,16.0,539.0],["COQ9",-0.10369493791613131,-2.1335825315901085,8.0,547.0],["CYGB",-0.10030258831102076,-2.0389337889156147,9.0,546.0],["DUPD1",-0.12434315541619216,-2.7647926060443977,9.0,546.0],["EIF1AD",-0.09401671146188913,-1.8700865493292649,10.0,545.0],["ELOVL7",-0.11380080362203485,-2.430854083129571,10.0,545.0],["ETNK2",-0.10453194733878238,-2.1574158318990886,9.0,546.0],["FAM110C",-0.09803451523541959,-1.9771137568706745,11.0,544.0],["FBXL2",-0.10618038152151918,-2.204903880811856,14.0,541.0],["HSPB7",-0.11509978270232596,-2.4707376996583994,11.0,544.0],["IRF5",-0.11399085054241839,-2.4369221282884963,16.0,539.0],["MDH1",-0.10230596890311837,-2.0945702860900153,9.0,546.0],["MEIG1",-0.12321106433394043,-2.7279804912123855,13.0,542.0],["MUC8",-0.1163718576958434,-2.5102754805235743,15.0,540.0],["NANOG",-0.13070945374219126,-2.9784822370145903,9.0,546.0],["NUCKS1",-0.09883344254348247,-1.9986890696110877,9.0,546.0],["OBFC1",-0.0960522718822763,-1.9237164503642439,8.0,547.0],["OCIAD1",-0.10555743188864082,-2.1867971157132535,10.0,545.0],["OXSM",-0.11359779672573987,-2.4248954948468113,15.0,540.0],["PDCD10",-0.10346903803299827,-2.1274792319250118,13.0,542.0],["PELI2",-0.10998150291337362,-2.3161096465776625,14.0,541.0],["POPDC2",-0.10399926420571443,-2.142444288583015,12.0,543.0],["PPAN",-0.11187368557066946,-2.372719836890731,16.0,539.0],["PROKR2",-0.14502176393495803,-3.492775285022106,25.0,530.0],["RAB2A",-0.10218527548969082,-2.0911193936414874,8.0,547.0],["RBM34",-0.10535560989875832,-2.181192890924575,14.0,541.0],["RPP38",-0.10463847693265661,-2.160374882624131,8.0,547.0],["SECTM1",-0.10384396799011113,-2.1379949494623824,11.0,544.0],["SPEF1",-0.08374130874968043,-1.6122570594516434,9.0,546.0],["STX12",-0.09841111942358957,-1.987134951485841,8.0,547.0],["THYN1",-0.0990715967351573,-2.0051085142600544,8.0,547.0],["WBP11",-0.11163844501825292,-2.3656472983705963,16.0,539.0],["ZNF566",-0.10238690429887386,-2.096899260032476,10.0,545.0],["ZWILCH",-0.12091438253438794,-2.6537676268910584,15.0,540.0]]}}}
{"depmap_damaging":{"corr":{"top":[["GPC2",0.0876342869627359,-1.4085737606614952,8.0,547.0],["HECW1",0.0781902591157008,-1.1826685045648386,9.0,546.0],["LRRC37B",0.09780792398197329,-1.6738147891493003,19.0,536.0],["NLRP2",0.07515464180418784,-1.1141427896509775,9.0,546.0],["SHROOM4",0.10203196655722706,-1.7907159159570576,9.0,546.0],["TCERG1L",0.1091252255030466,-1.9960852315351547,8.0,547.0],["TMX4",0.07195436712811533,-1.044027945117727,8.0,547.0]],"bottom":[["ALMS1",-0.11267349539339554,-2.103117555438428,20.0,535.0],["ANKS1B",-0.13872882088419922,-2.9787311626159076,9.0,546.0],["BAX",-0.13300418263502603,-2.7726457179986608,9.0,546.0],["C2orf78",-0.09191813535456317,-1.517467449987016,8.0,547.0],["CAPN3",-0.1050082878654014,-1.8754993709151473,8.0,547.0],["CDK14",-0.11932177556887749,-2.311457528333463,11.0,544.0],["COL4A3",-0.10767425047394368,-1.9531458842622034,15.0,540.0],["DDX31",-0.10679897184860453,-1.9274752318518278,8.0,547.0],["DICER1",-0.10277581483738928,-1.811717607682432,12.0,543.0],["DPP8",-0.13941814824483567,-3.0040746272026153,9.0,546.0],["ITGAE",-0.11653650851899679,-2.222931769856548,15.0,540.0],["LAMB1",-0.09736016000951901,-1.6616572977073076,9.0,546.0],["LMO7",-0.12044891833567596,-2.34779366053841,15.0,540.0],["MEGF6",-0.1316248439887051,-2.724155114892555,13.0,542.0],["NAV3",-0.0933813256718602,-1.5555890661574974,28.0,527.0],["NOTCH4",-0.11817561448537571,-2.2748107879924278,14.0,541.0],["PARP10",-0.10656207999112398,-1.920557493499685,8.0,547.0],["PCSK1",-0.09751683887962946,-1.6659062765739574,8.0,547.0],["PEX1",-0.11644872981854468,-2.220171036239583,9.0,546.0],["PHKB",-0.08884093060645482,-1.438837665091809,8.0,547.0],["PIK3C2A",-0.11073804472337623,-2.044378070409353,12.0,543.0],["PLXNB1",-0.15308202406711577,-3.530088101448963,14.0,541.0],["PLXNB2",-0.11471443199395842,-2.1659903210026488,11.0,544.0],["PPP3CA",-0.09461269489772094,-1.5880386898944892,8.0,547.0],["PSMA8",-0.10313807102514784,-1.8219906962965497,8.0,547.0],["SSH2",-0.11976797482382123,-2.325806519889553,13.0,542.0],["SYNE1",-0.10750097660476167,-1.9480501749158885,46.0,509.0],["TDRD15",-0.12373150310222158,-2.455301180105673,11.0,544.0],["TRDN",-0.1118067220642776,-2.076705444338222,9.0,546.0],["WDR63",-0.1082592630817126,-1.970400685512873,9.0,546.0],["WNK2",-0.12268597766377261,-2.420786459418478,21.0,534.0],["ZNF281",-0.13157055540656015,-2.722255822591483,8.0,547.0]]},"para":{"top":[["GPR123",0.07972904689638848,-1.517658513511589,8.0,547.0],["NACA",0.10223822969397772,-2.093007336057426,17.0,538.0],["NEK10",0.10133006176895153,-2.067421184611576,10.0,545.0],["NLRP2",0.08543305236078509,-1.6531427848162261,9.0,546.0],["SIPA1L1",0.099728342940667,-2.023560231493274,21.0,534.0],["TCERG1L",0.11530046781939259,-2.4767128888181453,8.0,547.0],["USP9X",0.08623246535726581,-1.6729426765469022,16.0,539.0]],"bottom":[["ANKS1B",-0.10368607553323006,-2.1334069811320404,9.0,546.0],["C2orf78",-0.10671426276901227,-2.2200039856953144,8.0,547.0],["COL4A3",-0.10420066518951414,-2.1482738373941235,15.0,540.0],["DNAJC10",-0.10468565388348289,-2.16171961151234,8.0,547.0],["DPP8",-0.10715860189286591,-2.2329680003614576,9.0,546.0],["LMO7",-0.10073308897688472,-2.0510877450806815,15.0,540.0],["PARP10",-0.0972788726037592,-1.956543490688582,8.0,547.0],["PHKB",-0.09992078185003007,-2.0283567098205544,8.0,547.0],["PLXNB1",-0.11611350063042185,-2.5022151356654136,14.0,541.0],["SSH2",-0.1029113536742146,-2.1117612589850046,13.0,542.0],["TDRD15",-0.10461049300635514,-2.1597721711014133,11.0,544.0],["VPRBP",-0.10177173407855902,-2.0796483426550423,9.0,546.0],["ZNF281",-0.12171653313176467,-2.6791792467248285,8.0,547.0]]}}}
{"ccle_chromatin":{"corr":{"top":[],"bottom":[["H3K18ac0K23ac0",-0.11884374888813286,-2.17966053990051,521],["H3K27me2K36me1",-0.1419403803687982,-2.9403120658581012,522],["H3K27me3K36me0",-0.13421102039983884,-2.6737214107771052,522],["H3K27me3K36me1",-0.1835075648511651,-4.60914534925808,522]]},"para":{"top":[],"bottom":[["H3K27me2K36me1",-0.13131986361265918,-2.577434581690162,522],["H3K27me3K36me1",-0.148818759462279,-3.188881020614799,522]]}}}
{"ccle_metabolomics":{"corr":{"top":[],"bottom":[["adenosine",-0.11449751112395572,-2.092158019305553,534]]},"para":{"top":[],"bottom":[["glycodeoxycholate\/glycochenodeoxycholate",-0.12530998294137669,-2.4286183324700095,534]]}}}
{"ccle_rrbs_enhancer_clusters":{"corr":{"top":[],"bottom":[["20-21486551-21489286-1_enh",-0.14140583955056268,-2.707142672338869,477]]},"para":{"top":[],"bottom":[]}}}
{"ccle_mirna":{"corr":{"top":[],"bottom":[["ebv-miR-BART17-5p_miR00730.1",-0.10995222843054614,-1.9495439899858396,531],["ebv-miR-BART4_miR00743.1",-0.12441352917963674,-2.3885336077182315,531]]},"para":{"top":[],"bottom":[]}}}
{"prism_primary_logfold":{"corr":{"top":[["altretamine_BRD-K67043667-001-26-4::2.5::HTS",0.20869147027122006,-6.2924611966054655,569],["sulfadiazine_BRD-K32273377-001-17-9::2.5::HTS",0.21745856030794303,-6.769278177485268,567],["naratriptan_BRD-K61337602-003-02-1::2.5::HTS",0.21165440116381207,-6.458600244966608,569],["brexpiprazole_BRD-K00911143-001-01-9::2.5::HTS",0.2192861792771371,-6.897639154904144,569],["acetyl-l-leucine_BRD-K27406233-001-07-7::2.5::HTS",0.1944719323702602,-5.528268149352078,569],["quinine-ethyl-carbonate_BRD-K97028990-001-04-4::2.5::HTS",0.23873535673985882,-7.932692407184871,557],["mebhydrolin_BRD-K29713308-001-01-7::2.5::HTS",0.20102969132086423,-5.873921749059485,569],["NTNCB_BRD-A40413915-003-01-2::2.5::HTS",0.21656180342688966,-6.739068101823037,569],["2-octyldodecan-1-ol_BRD-A51407134-001-01-9::2.5::HTS",0.19525517689242733,-5.251929196617702,533],["ZM-241385_BRD-K19605405-001-02-7::2.5::HTS",0.21696454457551398,-6.76238015404333,569]],"bottom":[]},"para":{"top":[["sulfadiazine_BRD-K32273377-001-17-9::2.5::HTS",0.2016565245564341,-5.888823618994007,567],["JNJ-38877605_BRD-K02123250-001-06-7::2.5::HTS",0.19457651306236465,-5.498744610949584,565],["adiphenine_BRD-K60907894-003-23-5::2.5::HTS",0.2373315062500298,-8.000358927021923,569],["sarcosine_BRD-K51263939-001-08-6::2.5::HTS",0.21179273551983527,-6.46641569898968,569],["bopindolol_BRD-A07563059-035-01-3::2.5::HTS",0.21870731494930304,-6.841767334102336,567],["TPPS4_BRD-K39805756-001-01-6::2.5::HTS",0.20432502271056996,-6.051985170088965,569],["quinine-ethyl-carbonate_BRD-K97028990-001-04-4::2.5::HTS",0.2566490153997051,-9.101976067680612,557],["CF102_BRD-K52396582-001-06-7::2.5::HTS",0.20326364871428382,-5.994313259306576,569],["ZM-241385_BRD-K19605405-001-02-7::2.5::HTS",0.1997624515675683,-5.806226542921869,569],["bupivacaine_BRD-A01636364-003-15-1::2.5::HTS",0.23024376842590016,-7.556301154063573,569],["3-MPPI_BRD-K62581435-001-03-8::2.5::HTS",0.21066296294217735,-6.382308952494283,567],["estramustine-phosphate_BRD-K00077635-304-01-2::2.5::HTS",0.19432777734713538,-5.520799223463239,569]],"bottom":[["EGF816_BRD-K22514639-001-05-7::2.500015058::MTS004",-0.1359079252938613,-2.8235112841611305,543]]}}}
{"prism_secondary_logfold":{"corr":{"top":[["GSK256066_BRD-K37590257-001-02-8::0.00976562::HTS002",0.18268407586855176,-3.5420285293423466,390],["doxycycline_BRD-A08545410-003-07-8::0.00232002::HTS002",0.2038123641565802,-5.1601850359980235,479],["isometheptene-mucate_BRD-A64743628-001-01-5::0.00976562::HTS002",0.18098120190075975,-2.9012533661745854,315],["cinacalcet_BRD-K73838513-003-05-5::0.15625::HTS002",0.21639571819160416,-4.92000985025765,402],["estrone_BRD-K81839095-001-30-1::0.15625::HTS002",0.24599854730562415,-7.223448368826205,473],["AR-42_BRD-K13167095-001-02-9::0.00061034::HTS002",0.18524117549149346,-4.336511033732159,478],["1-phenylbiguanide_BRD-K31491153-003-05-9::0.00061034::HTS002",0.18897125738721482,-3.901551438627763,407]],"bottom":[["dacinostat_BRD-K56957086-001-06-3::2.5::HTS002",-0.17475459581022906,-3.881893309697928,474],["ornithine_BRD-A13561534-003-02-0::10::HTS002",-0.15235348067584342,-3.0575984920131294,474],["costunolide_BRD-K26833429-001-02-8::0.15625::HTS002",-0.15789630911523728,-3.2281859934006945,470],["AZ-628_BRD-K05804044-001-18-5::0.0391::MTS010::PROS003_PR500",-0.1584371913108311,-3.199871674902624,462],["fosbretabulin_BRD-K06814349-304-02-7::0.00244::MTS010::PROS002_PR500",-0.1457170825961328,-2.6712990828030976,442],["batimastat_BRD-K82818427-001-02-2::0.00934334::HTS002",-0.14375472671928988,-2.7936437343953426,479],["SCS_BRD-K78496197-001-03-9::0.15625::HTS002",-0.2587555722040384,-4.351202474174493,243],["topotecan_BRD-K55696337-003-24-4::0.002441408::MTS006",-0.14508801178544678,-2.8478516046081515,481],["ramifenazone_BRD-K85333151-003-13-4::0.0390625::HTS002",-0.19360343946838335,-4.230587938744975,425],["thiostrepton_BRD-K58049875-001-04-7::0.00061034::HTS002",-0.15968925008312038,-2.892839318180381,404],["puromycin_BRD-A28970875-300-04-9::0.625::HTS002",-0.14268266304452343,-2.7146358201454897,470]]},"para":{"top":[["GSK256066_BRD-K37590257-001-02-8::0.00976562::HTS002",0.1770865369058912,-3.354768026542378,390],["doxycycline_BRD-A08545410-003-07-8::0.00232002::HTS002",0.203994265634205,-5.168557458122721,479],["KP-1212_BRD-K46690591-001-01-2::0.00244141::HTS002",0.2037502236425683,-4.0537047911800075,365],["metronidazole_BRD-K52020312-001-26-8::2.5::HTS002",0.18802954402095048,-4.462075695556829,479],["tecastemizole_BRD-K48195801-001-01-6::0.00244141::HTS002",0.19124849948720776,-4.6509621785742485,485],["odanacatib_BRD-K22822991-001-02-3::0.00061034::HTS002",0.21492502908008723,-3.1832761469454622,248],["PHA-680632_BRD-K09443272-001-03-3::0.0390625::HTS002",0.18451427860313888,-4.083706426750764,450],["estrone_BRD-K81839095-001-30-1::0.15625::HTS002",0.19168374349617148,-4.567480186323591,473],["cinacalcet_BRD-K73838513-003-05-5::0.15625::HTS002",0.1871722056682746,-3.7950142803797546,402],["1-phenylbiguanide_BRD-K31491153-003-05-9::0.00061034::HTS002",0.18142918747306816,-3.6313913889276046,407]],"bottom":[["echinomycin_BRD-A68969091-001-12-7::0.160802::HTS002",-0.1510780914260022,-2.9379617261079405,460],["AZ-628_BRD-K05804044-001-18-5::0.0391::MTS010::PROS003_PR500",-0.17238933114387278,-3.706236196157987,462],["SCS_BRD-K78496197-001-03-9::0.15625::HTS002",-0.21634288999821313,-3.1640696296510127,243],["topotecan_BRD-K55696337-003-24-4::0.002441408::MTS006",-0.14159936141786392,-2.7325687493199995,481],["ramifenazone_BRD-K85333151-003-13-4::0.0390625::HTS002",-0.15474752462809052,-2.8620823172195076,425],["naloxone_BRD-K67511046-001-02-3::0.00061034::HTS002",-0.1999117637539307,-2.1566654673431613,181],["emetine_BRD-A25687296-300-04-3::0.00061034::HTS002",-0.13781296723786549,-2.5510838294956235,468]]}}}
{"ccle_proteomics":{"corr":{"top":[["HSD11B2_P80365",0.24331965538620454,-3.129878310483675,189],["OPA3_Q9H6K4-2",0.22057309610415715,-2.675792842440624,192],["PCCA_P05165",0.2533133472498993,-4.672247258904747,275],["VANGL2_Q9ULK5",0.27431665363251834,-2.2405473916916256,100],["KDM1B_Q8NB78",0.2294451407326052,-3.9080724540396945,275],["PCCB_P05166-2",0.20405711656816616,-3.178393597365535,275]],"bottom":[["TBC1D25_Q3MII6",-0.26885445186614065,-2.3277650088489446,109],["MAP1LC3A_Q9H492-2",-0.21662788153192478,-3.249858498453647,250],["FBXO6_Q9NRD1",-0.2562098495017593,-3.4913965961522244,193],["PLA2G7_Q13093",-0.28688585441766007,-2.664801387991131,112],["KXD1_Q9BQD3",-0.23298602598821772,-3.69489919795742,250]]},"para":{"top":[["ALDH1B1_P30837",0.19689500810146474,-2.98754888917654,275],["ADCK5_Q3MIX3",0.28616428357357715,-2.8347939013011154,121],["GUF1_Q8N442",0.19088838774835762,-2.8324733651844656,275],["PCCA_P05165",0.22719400362664469,-3.8399619794761213,275]],"bottom":[["MAP1LC3A_Q9H492-2",-0.22358757976061813,-3.4352989883074776,250],["FBXO6_Q9NRD1",-0.24010436163059726,-3.1134222913893095,193],["KXD1_Q9BQD3",-0.22586858019829384,-3.497329258298869,250]]}}}
{"depmap_copy_number":{"corr":{"top":[],"bottom":[["SLC27A1_376497",-0.15522679989170066,-3.611132413837332,554],["MVB12A_93343",-0.1506810636936701,-3.4290435720376897,554],["NXNL1_115861",-0.15522679989170066,-3.611132413837332,554],["ANO8_57719",-0.1502581152391749,-3.4123576575373415,554],["ANKLE1_126549",-0.14945679100481216,-3.3808635230022577,554],["TMEM221_100130519",-0.1506810636936701,-3.4290435720376897,554],["GTPBP3_84705",-0.1502581152391749,-3.4123576575373415,554],["USHBP1_83878",-0.15171836514846057,-3.470150893332852,554],["NIBAN3_199786",-0.15522679989170066,-3.611132413837332,554],["LOC100507551_100507551",-0.15522679989170066,-3.611132413837332,554],["MRPL34_64981",-0.14945679100481216,-3.3808635230022577,554],["BISPR_105221694",-0.1506810636936701,-3.4290435720376897,554],["BST2_684",-0.1506810636936701,-3.4290435720376897,554],["BABAM1_29086",-0.15433404947371115,-3.574973130021707,554],["PGLS_25796",-0.15522679989170066,-3.611132413837332,554],["PLVAP_83483",-0.1502581152391749,-3.4123576575373415,554]]},"para":{"top":[["DAB2IP_153090",0.1302733040293322,-2.673025776133253,554],["TTLL11_158135",0.13344982253245752,-2.7841685310878796,554],["GGTA1P_2681",0.1265816046623887,-2.5468465707417214,554]],"bottom":[]}}}
{"depmap_gene_tpm":{"corr":{"top":[["CWH43_80157",0.15834801914232113,-3.739087957457753,554],["KRTAP4-1_85285",0.169489438820633,-4.215463823270263,554],["TCF21_6943",0.1556269877776057,-3.6274046721612696,554],["KRTAP9-1_728318",0.15849093470324463,-3.7450041463875103,554],["PRG4_10216",0.17334919665108048,-4.387712796408482,554],["ANGPTL8_55908",0.15327242570853616,-3.5322276719218872,554],["AVP_551",0.1529906288758521,-3.5209275877868884,554],["SPTY2D1OS_100506540",0.15437152888571912,-3.5764872452387904,554],["SSTR2_6752",0.1490996566810787,-3.3668774578911207,554]],"bottom":[["C1orf185_284546",-0.14391912526036066,-3.167471021687867,554],["VAMP7_6845",-0.14341242893304454,-3.1483153366466405,554],["NR2C2AP_126382",-0.11921774187828305,-2.30468176344316,554]]},"para":{"top":[["ATP12A_479",0.1399090424803998,-3.017557465148475,554],["SLC25A48_153328",0.15056134891506673,-3.424316240105298,554],["KRT40_125115",0.1544452976581474,-3.579468403079015,554],["KRTAP10-7_386675",0.14442870469499436,-3.186798063071041,554],["PFN3_345456",0.1368244533545587,-2.9048631725548826,554],["KRT12_3859",0.1381158551409126,-2.9517675715312643,554],["CECR2_27443",0.1419532455729704,-3.0934958152838146,554],["SPTY2D1OS_100506540",0.15315265357661365,-3.527422426909564,554],["TRMT12_55039",0.15663011474002347,-3.6683659207492827,554]],"bottom":[["HBEGF_1839",-0.13837637956456494,-2.9612781905572003,554],["PPTC7_160760",-0.14161485644394164,-3.0808560693938603,554],["NKX1-1_54729",-0.12249908008894989,-2.4110294532445997,554]]}}}
{"avana":{"corr":{"top":[["AGK_55750",0.16782394169164086,-3.070339017341846,392],["C2orf78_388960",0.16174526794653366,-2.88207825226027,392],["PEG3_5178",0.16012221431605367,-2.8328906769650763,392],["GTDC1_79712",0.1731280298284272,-3.239860208651097,392],["FGF3_2248",0.17663231004831384,-3.3545638015607198,392],["ROM1_6094",0.16075457376160307,-2.8520007936268805,392],["WNT11_7481",0.17495046972653366,-3.299243464644242,392],["NOP2_4839",0.19012365206575152,-3.8165004965865403,392],["RECQL_5965",0.1572370252630425,-2.7465703882238492,392],["NF1_4763",0.15539604807720372,-2.6922359612577615,392],["ZNF454_285676",0.15914749253270327,-2.8035688442468976,392],["SPRED2_200734",0.1596076885646656,-2.8173922482791554,392]],"bottom":[["CPXCR1_53336",-0.15812350817465712,-2.6351682938294023,369],["KANK2_25959",-0.195380539836857,-4.0053363600055585,392],["FMR1_2332",-0.20834107735077675,-4.258837217186432,369],["GPKOW_27238",-0.1615166267896001,-2.731732041692662,369],["GFI1_2672",-0.16235303523624817,-2.8817618959553473,389],["MAPKAPK2_9261",-0.18345024259324477,-3.560159437248909,389],["GNMT_27232",-0.1591611393338891,-2.8039782449082393,392],["SLC9A4_389015",-0.15772154029796637,-2.760966633465749,392],["OR2T6_254879",-0.16639994886999324,-3.025662654389437,392],["SPATS1_221409",-0.15830188370096096,-2.778263104527068,392],["ASPH_444",-0.1622139744356089,-2.8775457353033076,389],["FAM129B_64855",-0.16170453409428195,-2.8808382411254416,392]]},"para":{"top":[["AGK_55750",0.1615518577422475,-2.876193044410181,392],["THAP12_5612",0.16714298755979415,-3.048930790883296,392],["KIAA1211_57482",0.15345732040368432,-2.6356415055747515,392],["FAR2_55711",0.15798246312168626,-2.768736001534918,392],["MYH7_4625",0.16891590205911444,-3.1048371372262307,392],["SNCA_6622",0.1607795551522366,-2.8342487309910096,389],["GTDC1_79712",0.16074813925166073,-2.8518059942196503,392],["TMTC2_160335",0.16503673089208468,-2.9832228324443597,392],["LRIT2_340745",0.1702402229478449,-3.1469550584986634,392],["ROM1_6094",0.1804245364655565,-3.4811336401122923,392],["WNT11_7481",0.1872867723490128,-3.7166669155161336,392],["TMEM245_23731",0.18837977978947143,-3.7549599643817184,392],["BPIFB2_80341",0.15923839311506097,-2.8062964418162903,392]],"bottom":[["OSBPL11_114885",-0.17107272431797874,-3.1735881924564278,392],["ATP6V1G3_127124",-0.17807563057939402,-3.402436386955733,392],["KANK2_25959",-0.17183352396736287,-3.1980334517273006,392],["FMR1_2332",-0.21237723723220095,-4.4079541380035785,369],["GPKOW_27238",-0.16668309693681496,-2.882340888944808,369],["DEFB136_613210",-0.16047473614453195,-2.8435355241924687,392],["ATP6V0B_533",-0.17192081867178494,-3.2008447973132608,392],["MAPKAPK2_9261",-0.199903807817056,-4.14375702744977,389],["OR2T6_254879",-0.15805204225313146,-2.7708097937062295,392],["FAM135B_51059",-0.16911384325427317,-3.1111128984457816,392],["PKP1_5317",-0.1748527176212991,-3.2960434465334263,392],["ASPH_444",-0.1745875387096493,-3.265731395806987,389],["CXorf21_80231",-0.1607959091550028,-2.711066018787278,369]]}}}
{"drive":{"corr":{"top":[["NDUFA2_4695",0.1820160719716526,-2.7472217611233707,292],["CYP2C8_1558",0.19876799892921101,-3.2065111802221695,293],["PIAS4_51588",0.21070172753948566,-3.498414464324883,288],["RBPJL_11317",0.18177679696086402,-2.7410640650056197,292],["CX3CR1_1524",0.18357325161910298,-2.7632040186955846,289],["CD247_919",0.19016819904273669,-2.9268953147875676,288],["RNF183_138065",0.19290291428518966,-3.0353554040191955,292],["RBMY1D&RBMY1A1_378949&5940",0.18234027093297586,-2.7635620130187992,293],["TM9SF2_9375",0.2000033107122503,-3.19365260171672,288]],"bottom":[["HSD17B1_3292",-0.176237012935949,-2.5781063608585497,289],["C1QB_713",-0.17271690673458226,-2.4917440120376897,289],["UBC_7316",-0.2195260733268191,-3.8753554391820746,298],["CYP2C19_1557",-0.18171373178459982,-2.74737568946989,293],["ADGRF5_221395",-0.239635729694846,-4.576706615333273,301],["NKX2-5_1482",-0.22805069575587472,-4.074750646069729,292],["CLASP1_23332",-0.17728407713666858,-2.596520394574901,288]]},"para":{"top":[["IFNA13_3447",0.18699874927742646,-2.8520155057249545,289],["CYP2C8_1558",0.2387023066555169,-4.437149421481011,293],["PDK3_5165",0.18035049560329108,-2.68103777028476,289],["PIK3R1_5295",0.18970554418774987,-2.914659454085409,288],["KCNQ1_3784",0.17971249798118896,-2.657153538204174,288],["RNF183_138065",0.19135000490425377,-2.9932978057917543,292],["WDR61_80349",0.19623087760476224,-3.126568981918448,292],["RBMY1D&RBMY1A1_378949&5940",0.21882712541284535,-3.796843939805373,293],["GRIK3_2899",0.19452519220937745,-3.088663333189719,293],["OR5AU1_390445",0.1882341904162967,-2.8759320216300757,288]],"bottom":[["CAV3_859",-0.17030310325885648,-2.454515560987947,292],["COLQ_8292",-0.18049046061451832,-2.676737722556611,288],["ECE2_9718",-0.1713513132584225,-2.458665708222656,289],["UBB_7314",-0.2096268610360801,-3.4879575327380974,290],["HK3_3101",-0.16801889015978028,-2.3994931743477674,292],["ADGRF5_221395",-0.20713644284765664,-3.5274857238302273,301],["BCL2L2_599",-0.1797435859741992,-2.689041306751471,292],["SH3BP1_23616",-0.16676489777413425,-2.342540873868451,288],["MAPKAP1_79109",-0.18147141497779276,-2.7094640847642055,289]]}}}
{"achilles":{"corr":{"top":[["SYCP2_10388",0.22846103820783406,-2.6781574792417864,179],["CARD16_114769",0.25756821141227243,-3.3011042806064252,179],["ZNF2_7549",0.24448139792301948,-4.760444006029886,302],["CCDC14_64770",0.22242287960979165,-2.5580513592644896,179],["TMEM257_9142",0.22849203893381764,-2.6787820613871203,179],["HIGD1A_25994",0.2514241673613953,-3.163434721606002,179],["GNA13_10672",0.2726243131886193,-2.6414530004657975,123],["KRTAP10-2_386679",0.2398464250756974,-2.913058165128569,179]],"bottom":[["PM20D2_135293",-0.22878484494297416,-2.6846853408118525,179],["GIPC3_126326",-0.25727525955602804,-3.2944636920818793,179],["GALP_85569",-0.23293001061511615,-2.769037917629923,179],["PRKN_5071",-0.20878555604244026,-3.5873995310738884,302],["LOC105369254&ESPNP_105369254&284729",-0.22075907001716397,-2.5254945048198727,179],["TMEM141_85014",-0.2617768358513039,-3.3973550567175255,179],["TMEM87B_84910",-0.2455707108806222,-3.035383784889654,179],["PTCHD4_442213",-0.22949125939982845,-2.6989573328230265,179],["THAP11_57215",-0.2572026867322265,-3.2928198093116516,179],["UTS2_10911",-0.22050031158397201,-2.5204520037515117,179],["CHMP7_91782",-0.29038446184371763,-4.09467869990062,179]]},"para":{"top":[["NXPH2_11249",0.22365781510322327,-2.5823660793951397,179],["ZNF2_7549",0.2494489757418682,-4.93863308668748,302],["TMEM257_9142",0.24375365182219638,-2.9962448773122157,179],["HIGD1A_25994",0.2468778034383078,-3.0637167506667495,179],["CCDC73_493860",0.222371012415584,-2.5570329409904304,179],["KRTAP10-2_386679",0.22581504042185108,-2.6251472494665844,179],["XKRY2&XKRY_353515&9082",0.2194508915286711,-2.5000589298616385,179]],"bottom":[["PM20D2_135293",-0.22515280781918792,-2.6119724725184628,179],["PRR4_11272",-0.22544621022766032,-2.6178050034851412,179],["DSCC1_79075",-0.22146966774816973,-2.5393709065274046,179],["MRPL36_64979",-0.24726174615335791,-3.072067675580246,179],["GIPC3_126326",-0.26184446949470425,-3.3989148500817943,179],["DENND5A_23258",-0.2575748699075958,-3.3012553036684555,179],["BICDL1_92558",-0.2366995080333951,-2.8470199165644794,179],["DYNLRB2_83657",-0.2468096658912316,-3.0622360798804587,179],["LOC105369254&ESPNP_105369254&284729",-0.24237045917956346,-2.966644354622858,179],["TMEM87B_84910",-0.22895776828662215,-2.6881750721673705,179],["TMEM141_85014",-0.2568875293193491,-3.285686489285343,179],["CDRT4_284040",-0.2399123300283059,-2.914450329917348,179],["PABPC5_140886",-0.23815407341704667,-2.8774378579342565,179],["THAP11_57215",-0.27811459048240056,-3.7862717016716476,179],["CHMP7_91782",-0.23747049103395204,-2.863120046248038,179]]}}}
{"ccle_rrbs_tss1kb":{"corr":{"top":[["TAZ_23_153638853_153639853",0.1435025795061384,-2.6672729076642008,455],["MED19_11_57479687_57480687",0.1441611679237719,-2.7426293671073676,466],["NUP98_11_3818784_3819784",0.1470228067167185,-2.851172363293453,469]],"bottom":[["LEPR_1_65885334_65886334",-0.18649324131480632,-4.307938972109947,468],["LEPROT_1_65885130_65886130",-0.1770168183884057,-3.8757450416713266,461],["SKOR1_15_68111041_68112041",-0.19237991003622545,-4.476692236152613,459],["LEPROT_1_65885398_65886398",-0.1808547718839545,-4.094297858635523,470],["FAM162B_6_117086886_117087886",-0.17654074240362874,-3.6526648214762836,433],["LOC101929140_13_41706063_41707063",-0.19056705074433913,-4.257440469250607,442]]},"para":{"top":[["ZC3H11A_1_203763664_203764664",0.1535149666246366,-3.047497302830359,465],["MIR1915_10_21785570_21786570",0.16252005945680545,-3.300290712315998,455],["APLN_23_128788933_128789933",0.14778664733554278,-2.5000844089713166,397],["B3GNT5_3_182970031_182971031",0.17254655240492034,-2.8953822085961263,346],["SLC9A6_23_135066582_135067582",0.14926208622617282,-2.787676858163649,443],["UPF3B_23_118986991_118987991",0.15253512718688494,-2.8316073687938896,432],["MIR1228_12_57587286_57588286",0.22444376198594548,-1.9386356403979006,126]],"bottom":[["PLP1_23_103030433_103031433",-0.1902207829769887,-2.3514713730619636,222],["IL4I1_19_50432796_50433796",-0.16913550134984232,-2.4817182830704025,300],["TPP1_11_6640692_6641692",-0.16722332715779667,-2.468578009689128,305],["SKOR1_15_68111041_68112041",-0.18537775101416537,-4.189938980371727,459],["LIN28B-AS1_6_105388402_105389402",-0.16875700279521755,-3.644118921833811,473]]}}}
{"ccle_gene_tpm":{"corr":{"top":[["PRG4_ENSG00000116690.7",0.17323849165272417,-4.326912933616968,546],["KRTAP4-1_ENSG00000198443.5",0.16309506031167573,-3.888616398296253,546],["RP11-139I14.2_ENSG00000237390.1",0.1713173158642903,-4.2419536715957085,546],["KRTAP9-1_ENSG00000240542.2",0.17582763861072193,-4.442858891678654,546],["RP11-143K11.1_ENSG00000260248.1",0.16273770079707184,-3.873635139970234,546],["HIST2H2BC_ENSG00000203819.6",0.19088544595139723,-5.150425485331677,546],["RP11-558O12.1_ENSG00000182888.5",0.181232712247845,-4.690287958789326,546]],"bottom":[["C1orf185_ENSG00000204006.4",-0.1306636322889955,-2.6539291240653426,546],["AC004257.3_ENSG00000270143.1",-0.14523434076967243,-3.177669593621713,546],["RP11-214K3.5_ENSG00000256827.1",-0.12670091069969389,-2.520071452621317,546],["XXbac-BPGBPG34I8.1_ENSG00000270666.1",-0.1300470960234582,-2.6328638469844794,546],["None_ENSG00000258430.1",-0.12544976922296003,-2.4785632425595576,546],["AC118345.1_ENSG00000227293.1",-0.12862608178262994,-2.584647851191885,546],["GS1-184P14.2_ENSG00000225071.1",-0.13791443538592296,-2.908319989614986,546]]},"para":{"top":[["RP11-16L21.7_ENSG00000224644.1",0.16671400301688608,-4.042089116916835,546],["KRT12_ENSG00000187242.4",0.1522422037603444,-3.447466838699503,546],["None_ENSG00000254942.1",0.1553612192767006,-3.571332323755452,546],["RP11-558O12.1_ENSG00000182888.5",0.177990681184106,-4.5410014297962515,546],["ATP12A_ENSG00000075673.7",0.16830566735251012,-4.1106052976252645,546],["SYT5_ENSG00000129990.10",0.1554133298513433,-3.5734216984772345,546],["TRMT12_ENSG00000183665.4",0.16361112503744324,-3.9103059265346523,546],["HIST2H2BC_ENSG00000203819.6",0.17535798631122834,-4.421703527218042,546],["BANF1P2_ENSG00000230306.1",0.1678593808139125,-4.091331249201599,546],["RP11-38C18.3_ENSG00000238022.1",0.15084188051027195,-3.3926164407419566,546],["CTB-49A3.2_ENSG00000248245.1",0.1701616249334121,-4.191285562901627,546],["KRT40_ENSG00000204889.6",0.15744813895974408,-3.6555203040351225,546],["RP11-99L13.2_ENSG00000259126.1",0.15251374420231767,-3.458157514613403,546],["TPTE2P6_ENSG00000205822.6",0.1640594496961267,-3.9292012341411646,546],["KRTAP10-7_ENSG00000205441.4",0.15198226193093767,-3.4372493968209397,546]],"bottom":[["NKX1-1_ENSG00000235608.1",-0.12304332154776919,-2.399740049308597,546],["PPTC7_ENSG00000196850.4",-0.13943484417372728,-2.963225373775402,546],["HBEGF_ENSG00000113070.6",-0.14145940668553766,-3.0371824914023606,546],["AC004257.3_ENSG00000270143.1",-0.1539097776864755,-3.5133998545220266,546],["GS1-166A23.2_ENSG00000272361.1",-0.14252406425052405,-3.0764627728555576,546],["AC016722.1_ENSG00000222005.4",-0.12759707283214847,-2.550024949205526,546],["None_ENSG00000258430.1",-0.12287238209332196,-2.39419156825825,546],["LINC00477_ENSG00000197503.4",-0.12651179004910457,-2.5137739582422607,546],["GS1-184P14.2_ENSG00000225071.1",-0.1263481436176424,-2.50833138985769,546]]}}}
{"ccle_rrbs_tss_clusters":{"corr":{"top":[["HDGF_5",0.1752791829660051,-3.7513326596348473,453],["FAM172A_2",0.19702507389821305,-2.4478409197325095,217],["NFATC4_3",0.24801624056953372,-3.473139412680462,205],["FIBIN_2",0.1751641191542438,-2.9272188641533066,340],["FIBIN_1",0.22357542594194213,-4.474028558162199,338],["ZNF823_2",0.21492781449541068,-3.2164669502880994,251],["ZNF275_3",0.17870696062333918,-3.2800189675860363,373],["NDRG1_2",0.19934963365107852,-2.44854916272591,212]],"bottom":[["LOC399716_2",-0.2676863502991024,-2.292650045095498,108],["LINC01589_2",-0.22431199773936403,-2.1002107363815066,139],["RBM22_1",-0.2119004192463483,-2.3450182652154754,178],["LCK_1",-0.27750732598232175,-2.76222708973839,125],["FAM167B",-0.25593020743657624,-2.4015460507502038,125],["RNASEH1_2",-0.23045859989114623,-3.001277861608392,201],["FAM241A_2",-0.23880549044172614,-2.794292056097209,172]]},"para":{"top":[["FAM172A_2",0.20396065852992493,-2.5957956593783567,217],["RTL8B_2",0.1835458857966629,-2.3057801769535136,233],["FIBIN_1",0.20108926053212975,-3.703014823194428,338],["ECE1_8",0.24193761335174457,-2.400321348459069,140],["NUP62CL_3",0.18976755918010083,-2.5434778564658425,245],["ZNF275_3",0.18233600493332003,-3.396796410709791,373],["ARMCX4_4",0.20248672294178952,-2.2032160499440954,181]],"bottom":[["SCIN_3",-0.2170192514476125,-2.6024151239981004,192],["ETS1_2",-0.20810972875488787,-2.528972997972654,202],["LINC01570_2",-0.2079674778959165,-2.995959452365147,247],["TTLL10_3",-0.2452121154533142,-2.4856037211194972,142],["MBTPS1_2",-0.2176377330087293,-4.4624874843913656,356],["ABCB8_3",-0.20510052383485317,-3.30692878255373,285],["GOLGA2P9_3",-0.27206613306328614,-2.9947377783246836,143],["KCNE5_3",-0.2191023213737108,-3.01631188696517,224],["JARID2_5",-0.22122529919540884,-3.6742209776085857,276]]}}}
{"ccle_rrbs_cgi_clusters":{"corr":{"top":[["19_49251688_49256221-3",0.2379630726645564,-2.804765475686889,174],["8_134306328_134309236-3",0.19934963365107852,-2.44854916272591,212],["23_146993645_146996200-3",0.22750063948307456,-2.1117980579577518,136],["5_93444953_93449436-2",0.19702507389821305,-2.4478409197325095,217],["19_11847359_11851796-2",0.21492781449541068,-3.2164669502880994,251]],"bottom":[["2_230576062_230579022-3",-0.24352725527866204,-3.091663793802159,186],["12_116944195_116948607-2",-0.23447941592563962,-2.707447134523887,172],["1_32711918_32716186-1",-0.25593020743657624,-2.4015460507502038,125],["17_76496807_76501075-3",-0.25355191718353365,-2.347635340139539,124],["4_113064470_113069379-2",-0.23880549044172614,-2.794292056097209,172],["17_25287487_25292432-1",-0.26191863810284,-3.1854131049983363,166],["2_168147033_168149915-3",-0.22901912380257744,-2.2005325182582625,141],["23_150149106_150151782-1",-0.2642528104888762,-2.5716454832003612,127],["6_105388868_105391545-2",-0.2390290095129789,-2.7432670665233014,168],["2_3603489_3608332-2",-0.23045859989114623,-3.001277861608392,201],["3_195359819_195364095-2",-0.2942104115510788,-2.742397778928293,110]]},"para":{"top":[["23_100671191_100675673-1",0.20248672294178952,-2.2032160499440954,181],["2_240151476_240155792-1",0.27612079772108505,-2.738169463370445,125],["23_146993645_146996200-3",0.2759322107812539,-2.9401547886890524,136],["5_93444953_93449436-2",0.20396065852992493,-2.5957956593783567,217]],"bottom":[["23_108865762_108870486-3",-0.2191023213737108,-3.01631188696517,224],["17_76496807_76501075-3",-0.2614947281294815,-2.4749032362172128,124],["17_72345924_72350322-2",-0.24135052930196682,-2.2896906964343913,133],["16_2625134_2629399-1",-0.27119123815134194,-3.83025151178493,191],["23_150149106_150151782-1",-0.26281394412524367,-2.547524384662557,127],["3_195359819_195364095-2",-0.3145567106370911,-3.087494666801354,110]]}}}
