{"depmap_hotspot":{"corr":{"top":[["ACADVL",0.09845634675669251,-2.2438829494912538,37.0,750.0],["ACVR1",0.09617764801100336,-2.159143025318985,27.0,760.0],["APEX1",0.08956965466632763,-1.922862440761307,22.0,765.0],["ARIH1",0.0977831582431095,-2.2186736216855354,38.0,749.0],["C9orf171",0.0935115506727105,-2.062124517726962,21.0,766.0],["CTDSP1",0.10215116323324916,-2.38486556291163,28.0,759.0],["DTX2",0.11575475522823815,-2.942523883387273,44.0,743.0],["ENAH",0.09827428380050955,-2.237050633537757,45.0,742.0],["FGFR1",0.09798889802563429,-2.226362514793705,37.0,750.0],["GPI",0.1044919395624637,-2.4764848039266267,34.0,753.0],["KBTBD13",0.09639293382737238,-2.1670772201384967,27.0,760.0],["LRIF1",0.09545264154424898,-2.1325334941783636,37.0,750.0],["LRRC47",0.10181056151068264,-2.3716833519672718,29.0,758.0],["MRGPRX1",0.10750071469146744,-2.5968862059746756,39.0,748.0],["MRPL28",0.10153796244657219,-2.3611602778659115,23.0,764.0],["NUBP1",0.09513383039135724,-2.120886007703286,16.0,771.0],["OIT3",0.0935780717783475,-2.064517368907046,27.0,760.0],["PCDH12",0.09934911560987512,-2.277541678045144,62.0,725.0],["PHF15",0.09024678195673051,-1.9464307880045004,35.0,752.0],["PHF21B",0.0892989953977568,-1.9134827078221457,36.0,751.0],["PRAMEF11",0.09317321911772142,-2.04997629582591,29.0,758.0],["PRR5",0.09288393918522707,-2.039618491445101,26.0,761.0],["SALL3",0.11397513330934894,-2.8660918334917937,96.0,691.0],["SMARCC1",0.09836516956593692,-2.2404599803601477,52.0,735.0],["SMURF2",0.10284009295199639,-2.4116447192987716,38.0,749.0],["STPG2",0.10036205113884614,-2.316044256630661,22.0,765.0],["SV2C",0.1106738876859377,-2.72709406371957,65.0,722.0],["TRIM44",0.0916014873029698,-1.9940230336030262,17.0,770.0],["UBQLN3",0.10785710514847109,-2.6113448388617218,47.0,740.0],["USP6NL",0.09590814548619112,-2.1492318079436727,56.0,731.0],["ZNF630",0.10251724584835839,-2.399076149518836,44.0,743.0]],"bottom":[["AATK",-0.09745066930873843,-2.206276838666665,70.0,717.0],["ADORA2A",-0.0974595902268778,-2.2066089861523372,20.0,767.0],["AP1S2",-0.0949909178405309,-2.115675457703462,8.0,779.0],["ARGFX",-0.10148842545221302,-2.359250613945169,13.0,774.0],["BATF3",-0.10284913280498996,-2.4119971342891535,8.0,779.0],["BEND5",-0.09902989125149118,-2.265476738233917,32.0,755.0],["BPIFC",-0.12488143267967353,-3.3511515831447167,24.0,763.0],["C1orf122",-0.10224090943605843,-2.3883452829810197,14.0,773.0],["C9orf57",-0.1359741309704318,-3.8857312875417453,10.0,777.0],["CCDC90B",-0.09550271028352696,-2.1343656893527982,22.0,765.0],["CFHR2",-0.09383445874779872,-2.073753249979565,19.0,768.0],["CH17-132F21.1",-0.1173374495982477,-3.0113850112917446,8.0,779.0],["CIDEA",-0.09703677424962681,-2.1908948285377687,13.0,774.0],["CMTM3",-0.1044255566660364,-2.473861853704567,10.0,777.0],["CT45A6",-0.12940613984833535,-3.5641477251995632,33.0,754.0],["CTNND1",-0.09568625130145096,-2.1410890298568646,62.0,725.0],["DECR1",-0.09833638770708399,-2.2393800129457837,18.0,769.0],["DFFB",-0.13569898695568208,-3.871963368975512,16.0,771.0],["DGCR6",-0.0923226069311578,-2.0195963513433255,10.0,777.0],["EDEM3",-0.1011494681360908,-2.3462051725175255,37.0,750.0],["EIF3I",-0.11882033373540073,-3.0766629356137987,9.0,778.0],["FAM216A",-0.10870153449191565,-2.6457700092960525,16.0,771.0],["FOXD4L5",-0.10543514992617185,-2.513909337871113,14.0,773.0],["GDF15",-0.11787220045987361,-3.034840446131041,21.0,766.0],["GLOD4",-0.09562916512691116,-2.1389967265031027,14.0,773.0],["GLT6D1",-0.1115480067907049,-2.763546944498956,15.0,772.0],["GRHPR",-0.09638903008633484,-2.1669332174773213,19.0,768.0],["HS3ST5",-0.0978777853643373,-2.222208317444751,21.0,766.0],["IFITM1",-0.10020246504142417,-2.309956116820599,16.0,771.0],["IRAK3",-0.12284474487464925,-3.2575369410043713,39.0,748.0],["JPH3",-0.1197577790170256,-3.118309939810845,41.0,746.0],["KMT2A",-0.0935614483834266,-2.0639192703525,141.0,646.0],["MAD1L1",-0.09435678736035373,-2.0926346096809794,46.0,741.0],["MARCH7",-0.09998258188541698,-2.3015812348221534,37.0,750.0],["MSS51",-0.10164077230769221,-2.365126176650416,18.0,769.0],["MYCL",-0.09751261151446922,-2.2085836291207968,16.0,771.0],["NEUROG2",-0.13214490952135705,-3.696452647659942,16.0,771.0],["NUDC",-0.09398334592368539,-2.0791263446167103,10.0,777.0],["OR8B12",-0.09236186142024168,-2.0209932310333767,22.0,765.0],["PGBD3",-0.11948628018688451,-3.1062180177642125,19.0,768.0],["PPP1R3A",-0.12482821242521351,-3.3486875430516787,88.0,699.0],["RAP1GAP2",-0.09880048387558586,-2.256826811984127,32.0,755.0],["RASA3",-0.10814118059515378,-2.622899628720133,56.0,731.0],["RP11-770J1.4",-0.1127376342639517,-2.8135638854762774,11.0,776.0],["RRP1",-0.10676054304119356,-2.5669912219895035,20.0,767.0],["SERPINA12",-0.09475675962347505,-2.107152341821145,37.0,750.0],["SLC25A34",-0.09612664399674609,-2.157265504203258,14.0,773.0],["SOX8",-0.1159468320745803,-2.950836358960362,23.0,764.0],["SPHK1",-0.09723527707583164,-2.1982650786483338,23.0,764.0],["TCP11L2",-0.09392198606027807,-2.0769111038891017,21.0,766.0],["TEX264",-0.11346684210154558,-2.844454917215378,19.0,768.0],["THOC1",-0.12146096928521352,-3.194730375798015,29.0,758.0],["TMEM248",-0.10297288142940615,-2.416824107494239,23.0,764.0],["TOMM34",-0.09829042709564273,-2.2376560124035776,15.0,772.0],["TYW3",-0.1084977207559845,-2.6374395460875286,8.0,779.0],["VKORC1",-0.09526095792474083,-2.1255265728277766,9.0,778.0],["WBSCR27",-0.11075138160574106,-2.7303155341870022,12.0,775.0],["WDPCP",-0.11445507704274714,-2.886600887986189,33.0,754.0],["ZFAND2A",-0.10292805971324578,-2.415075201457254,12.0,775.0],["ZNF711",-0.09186293613591806,-2.003275628565246,45.0,742.0],["ZSCAN20",-0.10043880194373576,-2.3189752157915584,56.0,731.0]]},"para":{"top":[["ARIH2OS",0.07711089289415822,-1.814068863091065,9.0,778.0],["C9orf152",0.09503268258141834,-2.4129258133043794,14.0,773.0],["CARHSP1",0.08258757066404812,-1.9865242598316886,10.0,777.0],["CCDC101",0.10021234304594717,-2.6045966394054973,14.0,773.0],["CENPW",0.07902283251737362,-1.8731631010593481,8.0,779.0],["CLDN11",0.08079591717660997,-1.9291770314993013,12.0,775.0],["FAM177B",0.07862300611504501,-1.8607024033477757,8.0,779.0],["GCGR",0.06520026260829923,-1.4705718429439074,8.0,779.0],["HMSD",0.0829467344162651,-1.9982245918917638,12.0,775.0],["IL2",0.09120208680877907,-2.2764007321739497,9.0,778.0],["LDHB",0.09498269589682408,-2.4110880363447733,13.0,774.0],["MAFK",0.07794080093724162,-1.8396827193186736,11.0,776.0],["MAL",0.0794797769771777,-1.8874638776857258,8.0,779.0],["MMAA",0.09425248267881146,-2.384784438398853,14.0,773.0],["MRPL28",0.1200406152089601,-3.4170339488262225,23.0,764.0],["NMRK1",0.0922586384832606,-2.3137326854160425,14.0,773.0],["NUBP1",0.11127792189329438,-3.0425066312900833,16.0,771.0],["OR52B1P",0.06602847444169416,-1.493071368411785,8.0,779.0],["PDHA1",0.09529080390104211,-2.4221790514233907,11.0,776.0],["PRR5",0.12602782147750408,-3.687040035163775,26.0,761.0],["PTPMT1",0.08326049242262631,-2.008382921713807,11.0,776.0],["QTRTD1",0.08948459438510287,-2.2169420632311647,14.0,773.0],["RASL10A",0.06819896062576371,-1.553010096899488,8.0,779.0],["RP11-724O16.1",0.11415374664508965,-3.162496652883103,11.0,776.0],["RWDD2B",0.1106258469484544,-3.015537431000076,13.0,774.0],["SECTM1",0.09454696147163388,-2.395454612145986,17.0,770.0],["SGCG",0.11226209709731971,-3.083275370268641,14.0,773.0],["SH3BGRL2",0.12197100354013084,-3.502371340094751,9.0,778.0],["SLA2",0.07831624074738783,-1.8512676453576882,10.0,777.0],["SMN1",0.07691590624739689,-1.8081775730448968,11.0,776.0],["SNCG",0.09167448224819995,-2.2929091658471656,8.0,779.0],["STPG2",0.11494214259057467,-3.1961973168307587,22.0,765.0],["SYT17",0.1074345820222154,-2.8861450823135795,22.0,765.0],["TMCO5A",0.08939752985398754,-2.2139678787245023,15.0,772.0],["TMEM205",0.0790228325173736,-1.8731631010593481,8.0,779.0],["TRIM44",0.1073555327422804,-2.8828825813843055,17.0,770.0],["TSACC",0.07222578367778744,-1.6679661865785351,8.0,779.0],["VCX3B",0.08205835338249454,-1.969532344598878,12.0,775.0],["ZBTB8OS",0.09798602759924425,-2.5209242299167145,8.0,779.0],["ZNF671",0.11259294600725318,-3.0972316067575023,21.0,766.0]],"bottom":[["AC011294.3",-0.0743105927756437,-1.7294093541488367,8.0,779.0],["ANKRD46",-0.09276714735165761,-2.3315971115157113,10.0,777.0],["ANP32E",-0.06585712026926763,-1.48839947012911,8.0,779.0],["AP1S2",-0.10132743396156182,-2.6467013799216934,8.0,779.0],["ARGFX",-0.08691388666185962,-2.129356512493899,13.0,774.0],["ATOH7",-0.0699979384133554,-1.6038081452292436,9.0,778.0],["BATF3",-0.09138889196082237,-2.282886359438149,8.0,779.0],["C19orf59",-0.07079783224089958,-1.6266416304468474,8.0,779.0],["C22orf26",-0.06714227656246669,-1.5236529559292789,8.0,779.0],["C9orf57",-0.11156611435013247,-3.054210986887301,10.0,777.0],["CH17-132F21.1",-0.10946675715182255,-2.9678446937070637,8.0,779.0],["CMTM3",-0.07931373695547013,-1.8823533891527062,10.0,777.0],["DFFB",-0.12997309994213135,-3.8710398129728447,16.0,771.0],["DNAJC12",-0.08593411747191079,-2.0963224575757455,8.0,779.0],["DPH3",-0.07885147834494705,-1.8678168061387503,8.0,779.0],["EIF3I",-0.10841866981344962,-2.9253786333683136,9.0,778.0],["ESD",-0.07935613169940813,-1.8837181219979438,11.0,776.0],["FAM216A",-0.10632501913117039,-2.8417258213525782,16.0,771.0],["FAM221A",-0.071883949071144,-1.6580643737604113,9.0,778.0],["FCGR1A",-0.09872856234642594,-2.5485709698147123,8.0,779.0],["FOXD4L5",-0.09850023770411544,-2.5403080483064984,14.0,773.0],["GPR88",-0.09390385789326341,-2.3722425314735385,13.0,774.0],["KCTD10",-0.09235302826314488,-2.317039897228562,13.0,774.0],["KRTAP16-1",-0.07957575199008915,-1.8906062056117732,11.0,776.0],["KRTAP4-12",-0.08005095755193284,-1.9054298859142722,8.0,779.0],["LMO2",-0.08297122305177206,-1.9989476329528346,10.0,777.0],["LRRC39",-0.08176911223690358,-1.9601725991008163,10.0,777.0],["LURAP1L",-0.07281722319001081,-1.6853505300799858,10.0,777.0],["MAGEB17",-0.06574288415431662,-1.485289749672976,8.0,779.0],["MANSC1",-0.07939046743301494,-1.8847572276185203,10.0,777.0],["MRPS28",-0.08761866655898067,-2.1530056923772998,9.0,778.0],["MSS51",-0.10688979478265453,-2.8642725013375445,18.0,769.0],["NDUFS6",-0.0665996550164493,-1.5087078198708455,8.0,779.0],["NEUROG2",-0.11822010527299279,-3.3370867370556714,16.0,771.0],["NUDC",-0.0971919382234075,-2.4916596731498974,10.0,777.0],["ODF3L2",-0.07813601897340247,-1.8457201094642992,11.0,776.0],["PDXK",-0.09130985884636698,-2.280173784889622,9.0,778.0],["PGBD3",-0.10507711496984923,-2.792430740322553,19.0,768.0],["PHOSPHO2",-0.0756050972074717,-1.7683153523261412,10.0,777.0],["PIH1D3",-0.07724201406176068,-1.8181312341379012,10.0,777.0],["PTPN2",-0.0957912102645083,-2.4404682950886047,14.0,773.0],["REEP5",-0.10027074989826479,-2.606545494445388,8.0,779.0],["RP11-770J1.4",-0.10080571342258762,-2.6269890431213305,11.0,776.0],["RPS4X",-0.0883730708220961,-2.178651802570237,9.0,778.0],["RRP1",-0.10293832217089964,-2.7089965004067205,20.0,767.0],["S100PBP",-0.09648651437252762,-2.465773520038731,11.0,776.0],["SCO1",-0.08655479678284152,-2.1172245902117584,11.0,776.0],["THAP10",-0.08033654783931041,-1.9144504317159512,8.0,779.0],["TMEM240",-0.08069488555127648,-1.9258988301352868,10.0,777.0],["TOMM34",-0.1133234682400325,-3.1276794381885864,15.0,772.0],["TYW5",-0.09669326199145219,-2.4733944027115453,12.0,775.0],["UBE2J1",-0.07785585788211902,-1.8370231170152167,10.0,777.0],["UBL3",-0.08273632838195098,-1.9914070842803624,12.0,775.0],["USB1",-0.07308255453992016,-1.6930572071930414,8.0,779.0],["VKORC1",-0.10017410893797359,-2.60295162556343,9.0,778.0],["YWHAZ",-0.09147151690274889,-2.285840155165803,9.0,778.0],["ZFAND2A",-0.09547758268208187,-2.4289964823958594,12.0,775.0]]}}}
{"depmap_damaging":{"corr":{"top":[["C10orf76",0.06900545625173636,-1.2746396080725366,9.0,777.0],["C7",0.06915832853161637,-1.278960270587205,14.0,772.0],["COL11A1",0.06793603689719183,-1.2446136416058673,56.0,730.0],["ECD",0.06917114648772078,-1.2793228713533042,32.0,754.0],["ERCC6L",0.0866033753901466,-1.8194824483043606,29.0,757.0],["LRP2",0.08241500311136765,-1.6810398966422453,27.0,759.0],["MUC12",0.07104265537142407,-1.332804058431636,8.0,778.0],["PDE9A",0.06563141529178862,-1.1810890220697612,8.0,778.0],["TCHH",0.07112079602239353,-1.3350603665761955,8.0,778.0],["UFL1",0.07341747978068712,-1.4022147133601972,11.0,775.0],["USP40",0.07006262116414964,-1.3046644729402797,14.0,772.0],["ZNF540",0.07403687452007628,-1.42060367555969,10.0,776.0]],"bottom":[["ABCG5",-0.08142584216114133,-1.649150565693805,19.0,767.0],["ALPK1",-0.07132260948387407,-1.340896385523403,12.0,774.0],["ANGPTL5",-0.09634945992605305,-2.163219812826976,14.0,772.0],["ANKRD31",-0.08918537589929662,-1.9075945306612072,9.0,777.0],["AQPEP",-0.07746487274371636,-1.5245221275280914,8.0,778.0],["ARHGAP29",-0.07692554623316307,-1.507931061113729,10.0,776.0],["ARHGEF3",-0.07373316041667312,-1.4115720408658736,9.0,777.0],["B3GNT5",-0.07979393753697069,-1.5972104029965775,11.0,775.0],["C1orf173",-0.09180096459514098,-1.9990172178463195,15.0,771.0],["C4orf29",-0.10029276878267364,-2.3109735366368254,14.0,772.0],["C8orf58",-0.0794247120577662,-1.5855742900662537,18.0,768.0],["CAD",-0.07381138590935298,-1.4138955336042422,10.0,776.0],["CASKIN1",-0.07379104120048013,-1.4132910632251512,8.0,778.0],["CCZ1B",-0.09768926044658688,-2.2128571432424193,8.0,778.0],["CD101",-0.13190570846367725,-3.6807373856801204,8.0,778.0],["CEP112",-0.0806547750900291,-1.6245051753197988,10.0,776.0],["CLSPN",-0.06855510218406467,-1.261952587390326,11.0,775.0],["CNTN1",-0.10382726224971021,-2.4476997863276426,15.0,771.0],["CNTN5",-0.08291484676821106,-1.6972711455902014,16.0,770.0],["CSNK1G1",-0.07383987910733603,-1.4147423219202393,8.0,778.0],["CTPS2",-0.08776096380338615,-1.8587238914241315,30.0,756.0],["CYFIP2",-0.07838974056468775,-1.55318408837306,13.0,773.0],["CYLC1",-0.07256922083637252,-1.3772229510444927,10.0,776.0],["CYP2E1",-0.08355373878097772,-1.7181321022600415,8.0,778.0],["DCLRE1A",-0.09760814373566838,-2.2098354154054722,8.0,778.0],["ERMP1",-0.08008893090663435,-1.6065377172132291,32.0,754.0],["FAR2",-0.07491919684885175,-1.447003143979388,8.0,778.0],["FHDC1",-0.08598213419921773,-1.798597938858857,16.0,770.0],["FLOT2",-0.07612181616152702,-1.4833739085980908,39.0,747.0],["HGFAC",-0.0692710929209651,-1.282151926320614,8.0,778.0],["IRAK3",-0.09214972256336264,-2.0113725187241305,10.0,776.0],["JAKMIP3",-0.07375850135894794,-1.4123245234903492,9.0,777.0],["KIF23",-0.0883618307109426,-1.879260567936733,8.0,778.0],["LPHN3",-0.0819773091179955,-1.6668912918529486,10.0,776.0],["MYO5C",-0.10943319277564037,-2.672935063717382,17.0,769.0],["NEUROD6",-0.09987119051221496,-2.294936736530362,9.0,777.0],["NLRP4",-0.08476980266169007,-1.7581941238111332,8.0,778.0],["OPLAH",-0.09147796682882973,-1.987609224407411,12.0,774.0],["OR14C36",-0.07668192460866079,-1.5004662706857483,9.0,777.0],["PTCH2",-0.07935884960169978,-1.5835031157078532,9.0,777.0],["RP11-770J1.4",-0.11268576158079292,-2.8083598136410566,11.0,775.0],["RYR1",-0.07636027471043347,-1.4906388487766256,28.0,758.0],["SAMD4A",-0.09253352532798952,-2.0250143452633247,10.0,776.0],["SDK1",-0.09450474001685864,-2.095823249296047,14.0,772.0],["SLC6A1",-0.07738673209274696,-1.5221127188341972,8.0,778.0],["SPATA16",-0.06864325604903455,-1.2644311209217012,11.0,775.0],["STRIP2",-0.10385211836620718,-2.448675728287376,11.0,775.0],["TMC4",-0.07656213106336131,-1.4968024459173863,9.0,777.0],["UNC79",-0.06818651129054941,-1.2516149374553682,32.0,754.0],["USP26",-0.07828252409898062,-1.5498477641788921,10.0,776.0],["USP54",-0.074069159220259,-1.4215654090835268,12.0,774.0],["WDR72",-0.07272437557197031,-1.381777629080625,13.0,773.0],["ZC3H6",-0.12444621743647931,-3.3273967557826394,11.0,775.0],["ZFYVE26",-0.09122247257930684,-1.978609026927857,10.0,776.0],["ZNF816",-0.11160476545336916,-2.762963189614362,14.0,772.0],["ZNF83",-0.09425762568965389,-2.0868781421617535,15.0,771.0],["ZNF91",-0.07478237410020389,-1.4428935846639546,10.0,776.0],["ZNF99",-0.08454222415792832,-1.7506612960908376,9.0,777.0]]},"para":{"top":[["AADACL2",0.06455868073011209,-1.4521793303916672,8.0,778.0],["ABCB9",0.06584614890507444,-1.4870027086340725,9.0,777.0],["AC079354.1",0.0776936250807865,-1.8304025377198532,8.0,778.0],["BZW1",0.07543292659777283,-1.7615862807987812,8.0,778.0],["C10orf76",0.07707698037063856,-1.8115267347757038,9.0,777.0],["CASP14",0.07185587203604232,-1.655873010419605,8.0,778.0],["CCDC112",0.07941061127041714,-1.8837103479569404,8.0,778.0],["CPNE8",0.0653871966576836,-1.4745477642016522,9.0,777.0],["DGKD",0.07780809082676188,-1.8339283604118553,8.0,778.0],["ELOVL2",0.08444710409333368,-2.0452960057465535,8.0,778.0],["FLT1",0.07369642108163194,-1.7099056666300354,11.0,775.0],["FST",0.07540315452721315,-1.7607391134871253,9.0,777.0],["HMHA1",0.0927744871130423,-2.3296561201884622,8.0,778.0],["ITGA6",0.09848948520111397,-2.5374248367226766,10.0,776.0],["L3MBTL1",0.08284458364967844,-1.9930362497200254,8.0,778.0],["MUC12",0.08974114484469482,-2.2235819386816438,8.0,778.0],["NAALAD2",0.08425823318275409,-2.039148699620998,9.0,777.0],["NCOA3",0.09186378699525259,-2.2976548639550916,11.0,775.0],["NLRP6",0.07478221913368434,-1.7421153612345328,9.0,777.0],["PDE3B",0.06847913252976873,-1.5596281407782537,8.0,778.0],["PDE9A",0.07466028281243901,-1.7384235291398609,8.0,778.0],["PRKD1",0.09589402251366312,-2.441797582502666,9.0,777.0],["TCHH",0.0830162822686415,-1.9985976669244034,8.0,778.0],["UFL1",0.07276726912373482,-1.6825615491562427,11.0,775.0],["WWC1",0.07915306334197254,-1.8756566953371314,8.0,778.0],["ZNF43",0.11025286633754675,-2.9972195318592565,10.0,776.0],["ZNF540",0.08749495250497089,-2.146978309894547,10.0,776.0]],"bottom":[["ADSS",-0.06261276304853071,-1.4005492839397882,8.0,778.0],["ANKRD31",-0.0826114045303516,-1.9855502627218828,9.0,777.0],["AQPEP",-0.09429115824721604,-2.383769009167618,8.0,778.0],["ARHGAP29",-0.09643922269367475,-2.4617490913219906,10.0,776.0],["ARHGEF19",-0.08216426998562876,-1.9711857678561697,10.0,776.0],["ATAD2B",-0.09070361345684896,-2.2571092744934873,12.0,774.0],["B3GNT5",-0.07733967481128134,-1.8196530921099385,11.0,775.0],["C1orf173",-0.09171905463815712,-2.2926908708913496,15.0,771.0],["C2orf78",-0.0852197478786675,-2.070775660309906,8.0,778.0],["C4orf29",-0.09537619820757971,-2.4231731310841025,14.0,772.0],["CAD",-0.08600851218707739,-2.097076755178126,10.0,776.0],["CASKIN1",-0.07028196802888093,-1.6105856926029738,8.0,778.0],["CCZ1B",-0.06324232465139532,-1.4171300123518988,8.0,778.0],["CD101",-0.12159123866234327,-3.481876735423841,8.0,778.0],["CDKN1A",-0.06484484509505056,-1.4598669830778905,8.0,778.0],["CEP112",-0.07263054932603619,-1.6785256536530884,10.0,776.0],["CNTN1",-0.09421723900573338,-2.3813886369076673,15.0,771.0],["CSTF2T",-0.06347125614334605,-1.4231885407826168,8.0,778.0],["CYLC1",-0.07470644011481846,-1.7398914366860367,10.0,776.0],["CYP2E1",-0.07208480352799308,-1.6625225695408012,8.0,778.0],["DCLRE1A",-0.07471751568542674,-1.7401330670174886,8.0,778.0],["DDC",-0.07199895421851156,-1.660027128332314,8.0,778.0],["DGKB",-0.07568785513405966,-1.7694251312652953,12.0,774.0],["DHX57",-0.06060961249396164,-1.3485735338723517,8.0,778.0],["DPY19L2",-0.07584814140518328,-1.7742346978575603,11.0,775.0],["DROSHA",-0.07657758405752661,-1.7962352997044881,8.0,778.0],["ELF4",-0.0695665571165348,-1.5902474283991836,8.0,778.0],["ELTD1",-0.07188448847253619,-1.6567033389867143,8.0,778.0],["ENPEP",-0.07621491191487956,-1.7853403067613367,11.0,775.0],["ENPP2",-0.06764925587144727,-1.536499698953487,8.0,778.0],["FHDC1",-0.08927103511215342,-2.2076830217592347,16.0,770.0],["GPAA1",-0.06587503680882893,-1.4877446985924965,8.0,778.0],["HEATR5A",-0.06993857079095481,-1.6008040927057403,8.0,778.0],["HELLS",-0.07079706388577013,-1.6253247211376947,8.0,778.0],["HGFAC",-0.066046735427792,-1.4924217813946659,8.0,778.0],["IPO7",-0.06688981430520624,-1.5155974005280404,10.0,776.0],["KCNT2",-0.08265230787094507,-1.9870160135079764,13.0,773.0],["KIAA1199",-0.07208250003138526,-1.6625026711312616,9.0,777.0],["LPHN3",-0.07455267042676048,-1.735300989861477,10.0,776.0],["MPHOSPH8",-0.0675347901254719,-1.5333257776374112,8.0,778.0],["MYO5C",-0.11110654123652274,-3.032535146027981,17.0,769.0],["NEUROD6",-0.06735799160236187,-1.528475986077509,9.0,777.0],["NLRP4",-0.09449147330267296,-2.3909697167876973,8.0,778.0],["OPLAH",-0.10682037121984278,-2.8586196469819654,12.0,774.0],["PASD1",-0.08679365188582892,-2.123249246960946,8.0,778.0],["PDS5A",-0.0823581042292831,-1.9773281712611777,8.0,778.0],["PLEKHM1",-0.07008165297342402,-1.6048754427825032,8.0,778.0],["PLK2",-0.07883179778713294,-1.865689427145141,9.0,777.0],["PPP2R5B",-0.060638228930455486,-1.3493076921816876,8.0,778.0],["PTCH2",-0.07429626969527048,-1.7276219664888424,9.0,777.0],["RBM19",-0.06169703708072771,-1.3766416247599584,8.0,778.0],["RC3H2",-0.06023759881954166,-1.3390514661742732,8.0,778.0],["RP11-770J1.4",-0.10088634153378026,-2.627612258980368,11.0,775.0],["SSC5D",-0.07116907756019007,-1.6360193388193296,8.0,778.0],["STRIP2",-0.08117853947943539,-1.9396756466309322,11.0,775.0],["UBL3",-0.07594802245466206,-1.7771289755224782,8.0,778.0],["USP54",-0.08112257577506922,-1.9379261603404907,12.0,774.0],["ZC3H6",-0.10721924566786875,-2.874503273961633,11.0,775.0],["ZNF253",-0.08822179247286005,-2.1718285158486537,17.0,769.0],["ZNF816",-0.0893826119814203,-2.2114707366815236,14.0,772.0],["ZNF83",-0.08609289152462403,-2.1000458298701505,15.0,771.0],["ZNF99",-0.06698003092803999,-1.5180435566252979,9.0,777.0]]}}}
{"ccle_metabolomics":{"corr":{"top":[],"bottom":[]},"para":{"top":[],"bottom":[["2-deoxyadenosine",-0.10987023726510933,-2.644906336907817,770]]}}}
{"ccle_rrbs_enhancer_clusters":{"corr":{"top":[["10-77681451-77684043-0_enh",0.6670918427359757,-97.76673459078887,756],["10-77681451-77684043-1_enh",0.677586753207058,-101.32193880314914,751],["10-77684043-77686636-0_enh",0.5601229027964031,-53.327940745759314,639],["1-232751930-232755683-0_enh",0.4446059487042918,-37.15076163792929,754],["10-77684043-77686636-1_enh",0.5853700807542834,-59.66826501610895,643],["10-77724861-77729618-2_enh",0.6917027482239806,-106.6829284745524,747],["10-77681451-77684043-2_enh",0.5732379576178872,-66.1776669974553,752],["10-77987996-77990732-1_enh",0.5911256975062225,-71.32311904650831,752],["10-77724861-77729618-1_enh",0.5251546328349966,-55.707175851471085,779],["10-77987996-77990732-0_enh",0.6324138895305248,-84.5165836072701,752]],"bottom":[["1-39249443-39252129-2_enh",-0.19930049834542674,-2.5537404968796142,223],["2-172948513-172951246-1_enh",-0.14067230779204226,-4.111072489723147,784]]},"para":{"top":[["10-77681451-77684043-0_enh",0.57424996327019,-66.80904894859701,756],["10-77681451-77684043-1_enh",0.5363273034667783,-56.431916891121574,751],["10-77684043-77686636-0_enh",0.45429009582392954,-33.13350580936994,639],["1-232751930-232755683-0_enh",0.4083544390669961,-30.939317507392563,754],["10-77684043-77686636-1_enh",0.5398918805222981,-49.1983762217304,643],["10-77724861-77729618-2_enh",0.5918142921197102,-71.0580939344097,747],["10-77681451-77684043-2_enh",0.5329627132700336,-55.682696055433645,752],["10-77987996-77990732-1_enh",0.4889685399274884,-45.7269007153568,752],["10-77724861-77729618-1_enh",0.5112610337012037,-52.373823174396534,779],["10-77987996-77990732-0_enh",0.5197709768156861,-52.543137508812926,752]],"bottom":[]}}}
{"ccle_mirna":{"corr":{"top":[],"bottom":[["hsa-miR-548i_miR00492.1",-0.1073000953219499,-2.5750125165173263,782]]},"para":{"top":[["ebv-miR-BART4_miR00743.1",0.11841981828943385,-3.042417935356942,782]],"bottom":[]}}}
{"prism_primary_logfold":{"corr":{"top":[["UNC0646_BRD-K87465484-001-02-7::2.5::MTS004",0.16038466524043132,-3.134330203860608,440],["triprolidine_BRD-K11742128-003-23-4::2.5::HTS",0.15677731072759443,-3.078251277869491,451],["SR-2640_BRD-K62562723-003-02-7::2.5::HTS",0.1532828204651961,-2.9894201447705715,456],["hesperadin_BRD-K58122457-001-02-2::2.5::HTS",0.14423814003687394,-2.6754960756681427,452],["DPI-201106_BRD-A64553394-001-04-4::2.68::HTS",0.16339163115671382,-3.2995323602048954,450],["TAK-901_BRD-K01683783-001-02-6::2.5::HTS",0.182458589488407,-4.018969924045612,452],["pazopanib_BRD-K74514084-001-03-9::2.5::HTS",0.14690722275735416,-2.723795283966646,445],["triapine_BRD-K01669786-001-02-2::2.5::HTS",0.14098795971085681,-2.464676308316127,429],["meglumine_BRD-K28595280-001-04-5::2.5::HTS",0.1501112220179132,-2.8576530368698525,451],["ICI-63197_BRD-K52219182-001-02-4::2.5::HTS",0.15130100061393695,-2.885488945771691,449]],"bottom":[["ostarine_BRD-K29735307-001-02-9::2.5::HTS",-0.12189527827906971,-2.0375023082530808,456],["clemizole_BRD-K04704168-003-14-3::2.5::HTS",-0.168001640046792,-3.476269461853116,452],["benzthiazide_BRD-K21450440-001-14-6::2.5::HTS",-0.13804757874469076,-2.5034424062573093,456],["NKP-1339_BRD-K81645297-236-01-1::2.5::HTS",-0.13024655623610565,-2.2639232635254976,454],["methyldopa_BRD-K48578705-001-17-6::2.5::HTS",-0.1468535008134131,-2.66535619537944,434],["N-acetyl-D-glucosamine_BRD-K80653534-001-01-7::2.5::HTS",-0.1156629773668974,-1.8345609610963323,445]]},"para":{"top":[["UNC0646_BRD-K87465484-001-02-7::2.5::MTS004",0.14394385091978057,-2.6067088407475922,440],["N6-methyladenosine_BRD-K81807412-001-10-6::2.5::HTS",0.15476375581833796,-2.9765693467067216,445],["KW-2478_BRD-K41213548-001-02-0::2.5::HTS",0.16554210715978865,-3.3429294870963853,445],["m-3M3FBS_BRD-K09635314-001-03-4::2.5::HTS",0.16793368877695342,-3.4472557906931462,448],["aceclidine_BRD-A32673558-003-03-9::2.5::HTS",0.14474475355384153,-2.6863950425781558,451],["nimodipine_BRD-A58048407-001-18-8::2.5::HTS",0.14982762314767434,-2.875189317844089,456],["TAK-901_BRD-K01683783-001-02-6::2.5::HTS",0.16236024971477347,-3.2759987172185085,452],["haloperidol-decanoate_BRD-K80859331-001-01-5::2.5::MTS004",0.14413614218310716,-2.612581810377239,440],["palomid-529_BRD-A50998626-001-02-1::2.5::HTS",0.14835172593587778,-2.7956340435325697,450],["pazopanib_BRD-K74514084-001-03-9::2.5::HTS",0.15100510953652582,-2.8541494202899766,445],["NVP-TAE226_BRD-K21025364-001-05-6::2.44::HTS",0.18662387076661208,-3.995984524065497,429],["meglumine_BRD-K28595280-001-04-5::2.5::HTS",0.14617922541306597,-2.7316226952040115,451],["ASP3026_BRD-K06542892-001-01-9::2.5::HTS",0.14299790172919058,-2.6171575375584974,448]],"bottom":[["val_BRD-K59424860-001-01-4::2.5::HTS",-0.150459402024423,-2.8689588538895103,451],["avagacestat_BRD-K83720053-001-03-8::2.5::HTS",-0.1187809955384207,-1.8767889664887303,434],["isoflurane_BRD-A31564021-001-01-8::2.5::HTS",-0.12619964567150166,-2.043894682355763,427],["benzthiazide_BRD-K21450440-001-14-6::2.5::HTS",-0.14755116196656212,-2.801221992494394,456],["orotic-acid_BRD-K32572029-001-04-4::2.5::HTS",-0.13230604924636075,-2.306646465140858,450],["NKP-1339_BRD-K81645297-236-01-1::2.5::HTS",-0.14267589951922055,-2.6365016056003703,454],["lobenzarit_BRD-K55847762-304-01-7::2.5::HTS",-0.1690368126889699,-3.5405987669458874,456],["methyldopa_BRD-K48578705-001-17-6::2.5::HTS",-0.14924863636503327,-2.7393769498638623,434],["atropine_BRD-A27290375-330-01-1::2.5::HTS",-0.1630233149494979,-3.292932100647551,451],["BMY-7378_BRD-K31054881-300-04-7::2.5::HTS",-0.15315499072970934,-2.9684391343595675,453]]}}}
{"prism_secondary_logfold":{"corr":{"top":[["AT-9283_BRD-K24576554-001-04-8::10::HTS002",0.17316860777486645,-2.8416374490388767,336],["GW-788388_BRD-K78086729-001-02-7::10::HTS002",0.19261756098470845,-3.8531861551945266,386],["dacarbazine_BRD-K35520305-001-16-9::10::MTS010::PROS002_PR500",0.2078461535248904,-4.169842511345756,362],["brilliant-green_BRD-K60348325-065-09-9::0.15625::HTS002",0.16217634249695764,-2.769604913709512,372],["pazopanib_BRD-K74514084-003-09-2::2.5::MTS010::PROS004_PR500",0.1648314025642737,-2.9445199998843288,387],["YM-155_BRD-K76703230-004-04-1::0.15625::HTS002",0.16727588238261437,-2.9332571738679123,374],["paclitaxel_BRD-K62008436-001-23-9::0.00244::MTS010::PROS005_PR500",0.18847971299974756,-3.6916200897202627,384],["motesanib_BRD-K99616396-001-05-1::9.99997::MTS010::PROS005_PR500",0.17094295194022374,-3.113973119594816,384],["selinexor_BRD-K21361524-001-01-1::10::HTS002",0.16224763508709847,-2.903668766096963,393],["NVP-TAE684_BRD-K50140147-001-10-1::10::HTS002",0.1740942947468032,-3.1563620787756,376]],"bottom":[["Ro-10-5824_BRD-K79684402-300-02-8::0.625::HTS002",-0.16099817979707193,-2.890285808506064,397],["monobenzone_BRD-K54262262-001-09-0::0.0024414::HTS002",-0.16365731682605694,-2.2047959791065748,278],["SGI-1027_BRD-K61228301-001-01-2::0.15625::HTS002",-0.16210250764772374,-2.9242719351626483,397],["benzocaine_BRD-K75466013-001-14-4::0.0390625::HTS002",-0.17222731343654046,-2.278042309864152,261],["clofoctol_BRD-K02900412-001-11-3::0.00061034::HTS002",-0.22632896475547148,-4.730012314017415,351],["epinephrine_BRD-K63126190-003-01-6::0.0024414::HTS002",-0.15970659363257883,-2.5143727782624077,342],["TG-02_BRD-K14560436-001-01-4::0.00976562::HTS002",-0.18962213303092074,-3.8409797778949466,397],["TH-302_BRD-K20958582-001-01-4::0.00976562::HTS002",-0.17081159898782178,-2.7689439208394706,335],["LY456236_BRD-K87696786-003-04-4::0.00976562::HTS002",-0.1848812396882508,-3.6009447379594253,388],["cetylpyridinium_BRD-K87700323-003-05-1::0.0390625::HTS002",-0.15945590452325764,-2.782453139819297,387],["zaleplon_BRD-K92657060-001-05-7::0.625::HTS002",-0.1661301440049766,-3.0172374827277926,392],["ramatroban_BRD-K08586861-001-01-1::0.0024414::HTS002",-0.16204371789977562,-2.7657524851135102,372]]},"para":{"top":[["felbamate_BRD-K99107520-001-24-1::0.000610351::MTS006",0.15680265463985113,-2.7219288556733408,390],["GW-788388_BRD-K78086729-001-02-7::10::HTS002",0.1697365223794708,-3.0898709513531055,386],["dacarbazine_BRD-K35520305-001-16-9::10::MTS010::PROS002_PR500",0.19138322352556475,-3.602691275332453,362],["10-deacetylbaccatin_BRD-K96631475-001-02-4::9.72111::HTS002",0.191401869941853,-3.87055900446174,393],["WP1130_BRD-K43644456-001-04-0::0.594582::HTS002",0.15729198730621485,-2.486679174495618,348],["gidazepam_BRD-K22588750-001-07-0::0.002441406::MTS006",0.16366910636729234,-2.928209242016878,390],["YM-976_BRD-K12932420-001-02-3::0.625::HTS002",0.17552439941454637,-3.325350555090605,393],["AVN-944_BRD-K62196610-001-01-6::0.625::MTS010::PROS004_PR500",0.16125772295636906,-2.8362290468414475,387],["CCT137690_BRD-K03289018-001-02-7::2.5::HTS002",0.15747020733100367,-2.741630071576929,390]],"bottom":[["azomycin-(2-nitroimidazole)_BRD-K26824830-001-02-0::10::HTS002",-0.19376485227505488,-3.8850688488724265,385],["OLDA_BRD-K95523387-001-09-6::2.5::HTS002",-0.17971763737913551,-3.020864555358648,335],["aripiprazole_BRD-K70358946-001-15-7::0.00976562::HTS002",-0.19741927488295177,-2.6074801688070415,233],["acivicin_BRD-K13050541-001-01-9::0.000683584::HTS002",-0.1882481193858179,-3.138612240289304,319],["FLI-06_BRD-A44500574-001-01-8::2.5::HTS002",-0.17848924420347828,-3.3785961108433047,387],["clofoctol_BRD-K02900412-001-11-3::0.00061034::HTS002",-0.21321316213712185,-4.247441375947762,351],["CHIR-124_BRD-K02241333-001-02-7::0.0390625::HTS002",-0.1928312143841608,-3.773337594612609,376],["RITA_BRD-K00317371-001-06-1::0.00939201::HTS002",-0.17490530627613132,-3.261567743517977,387],["oxprenolol_BRD-A43671941-003-11-9::0.0390625::HTS002",-0.17473196290073817,-3.2631921061106213,388],["baicalin_BRD-K49962337-001-02-9::2.55951::HTS002",-0.20133009367292698,-4.025585173731734,371],["LY456236_BRD-K87696786-003-04-4::0.00976562::HTS002",-0.2018763892428948,-4.207455453252462,388],["saxagliptin_BRD-A81513827-001-03-6::0.15625::HTS002",-0.18989492971236951,-3.774496115488453,388],["ramatroban_BRD-K08586861-001-01-1::0.0024414::HTS002",-0.1772804285541148,-3.2272733238169065,372]]}}}
{"ccle_proteomics":{"corr":{"top":[["CDCA7_Q9BWT1",0.277177558249556,-3.615465792017644,171],["NPR1_P16066",0.29115543311396375,-2.608711554934776,106],["GPR125_Q8IWK6-3",0.33484250020568285,-4.3334767774533,142],["LRIG3_Q6UXM1",0.24364665001294528,-2.9220961415395745,174],["ANXA13_P27216-2",0.25713973528643275,-2.7783003208575,147],["ADCK5_Q3MIX3",0.23967505017348617,-2.3055043875615953,136],["DCDC1_M0R2J8",0.25437858773738914,-2.852986016412865,155],["CYP4F22_Q6NT55",0.3056313423344012,-2.9561259547471805,111],["C10orf11_Q9H2I8",0.27625508125596643,-3.317433356607768,156],["LEPROTL1_E5RHU8",0.3198373817042037,-3.432420296378387,120],["TNFRSF19_Q9NS68-2",0.292710698021282,-2.8658517337445195,117],["SLC22A18_Q96BI1",0.2547323599204104,-4.229328267540142,243]],"bottom":[["PTBP1_K7ELW5",-0.28783778721584713,-3.8303442543107282,169],["ZFP62_Q8NB50",-0.27560033347805973,-2.541873491373561,115],["ACP1_P24666-2",-0.2624252062688331,-2.164819444780556,105],["ARHGAP28_Q9P2N2",-0.2504196211464634,-2.3761379197819736,129],["ANKRD49_Q8WVL7",-0.33200036969603536,-4.532548088028718,152],["PRSS3_P35030-4",-0.323007705069792,-3.0320632245547303,102]]},"para":{"top":[["GCNT1_Q02742",0.2987259801742701,-3.0146523650842605,119],["NPR1_P16066",0.28350651715030895,-2.490779248243303,106],["ANXA13_P27216-2",0.26693816859998726,-2.9658500225359594,147],["MYO15B_Q96JP2",0.25655940791590015,-2.017582458032315,101],["ADCK5_Q3MIX3",0.2731516809835487,-2.88832798051323,136],["PGAP3_Q96FM1",0.24822474342794837,-2.2949874429904074,126],["TMEM128_Q5BJH2",0.24062206413275838,-2.234945295658673,130],["CXCR4_P61073-2",0.26335772282743264,-2.229878054221641,108],["LEPROTL1_E5RHU8",0.27009976133594377,-2.5451747242485245,120],["ABHD13_Q7L211",0.2296456113474392,-2.2106647335796907,141],["C10orf11_Q9H2I8",0.2951614969785451,-3.7361799518527032,156],["TTYH2_Q9BSA4",0.24060208056483887,-2.0760264326603313,119]],"bottom":[["SON_P18583-3",-0.24306533559532348,-2.0230362889652214,113],["PTBP1_K7ELW5",-0.2640015197031177,-3.28084575174128,169],["SOX1_O00570",-0.30888669609902436,-3.1063121979346664,115],["ANKRD49_Q8WVL7",-0.22516068331658964,-2.2767245631776674,152]]}}}
{"depmap_copy_number":{"corr":{"top":[["PDXDC1_23042",0.10982750865738872,-2.6920388124204404,787],["NPIPA1_9284",0.1133659578825228,-2.8401706913442917,787]],"bottom":[["FAM76B_143684",-0.18522202557607292,-6.778365067790496,787],["MAML2_84441",-0.19111181722193027,-7.182822787847191,787],["RDX_5962",-0.1841392260279868,-6.705399173782059,787],["MTMR2_8898",-0.18497994854198335,-6.762014995404236,787],["GPR83_10888",-0.18169862613747467,-6.5425133913916484,787],["SRSF8_10929",-0.18099065209484763,-6.495671221477265,787],["LOC101929295_101929295",-0.18080961153142608,-6.483722328131687,787],["LOC100129203_100129203",-0.17945136419083788,-6.3944581117480945,787],["CNTN5_53942",-0.188494911197357,-7.001536058468799,787],["IZUMO1R_390243",-0.17956665718889123,-6.402009037398193,787],["LAYN_143903",-0.17936285620630643,-6.388664715582907,787],["SESN3_143686",-0.18425876153044482,-6.713433087628364,787],["SIK2_23235",-0.1822812697034599,-6.581200770795542,787],["ZC3H12C_85463",-0.18360765551474212,-6.669736131602742,787],["CEP57_9702",-0.18497994854198335,-6.762014995404236,787],["LOC102724301_102724301",-0.18232696765515946,-6.5842403578290485,787]]},"para":{"top":[],"bottom":[["SNORA18_677805",-0.20335976761406407,-8.065207822509024,787],["MAML2_84441",-0.1998498818618936,-7.8066005717487865,787],["CEP295_85459",-0.19830292582789175,-7.694091239313438,787],["SNORD6_692075",-0.20335976761406407,-8.065207822509024,787],["SNORA1_677792",-0.20335976761406407,-8.065207822509024,787],["TAF1D_79101",-0.20335976761406407,-8.065207822509024,787],["SNORA25_684959",-0.20335976761406407,-8.065207822509024,787],["SNORA40_677822",-0.20335976761406407,-8.065207822509024,787],["C11orf54_28970",-0.20335976761406407,-8.065207822509024,787],["VSTM5_387804",-0.1988031932510166,-7.73037726531634,787],["SNORA32_692063",-0.20335976761406407,-8.065207822509024,787],["SNORA8_654320",-0.20335976761406407,-8.065207822509024,787],["MED17_9440",-0.1986883042103046,-7.72203569255105,787],["SCARNA9_619383",-0.19830292582789175,-7.694091239313438,787],["MIR1304_100302240",-0.20335976761406407,-8.065207822509024,787],["SNORD5_692072",-0.20335976761406407,-8.065207822509024,787]]}}}
{"depmap_gene_tpm":{"corr":{"top":[["SIPA1L2_57568",0.24355401409224908,-11.310184232878395,783],["AMOT_154796",0.24725002831304416,-11.643830481651703,783],["DYRK2_8445",0.23922731965115154,-10.926537275694146,783],["ZNF503_84858",0.29571457393668216,-16.54023789151405,783],["TTC39C_125488",0.2546747747455696,-12.330706565177374,783],["LRMDA_83938",0.2769193520161289,-14.524061600010565,783]],"bottom":[["HBE1_3046",-0.27630279436693217,-14.460484164410088,783],["CTH_1491",-0.23326150723795808,-10.409719813885319,783]]},"para":{"top":[["APCDD1_147495",0.21112310422729694,-8.613096119423636,783],["LRMDA_83938",0.22658265170697792,-9.847718383432865,783],["SESN3_143686",0.205836988051464,-8.211869737384822,783]],"bottom":[["SLC35F2_54733",-0.21274039291584293,-8.737967545871113,783],["DCUN1D5_84259",-0.20917268308542042,-8.463824484007715,783]]}}}
{"avana":{"corr":{"top":[["DUS3L_56931",0.20072205076562327,-4.644492363197538,439],["ZNF441_126068",0.1873835388289904,-4.1070087538419005,439],["DGKD_8527",0.19347080399589234,-4.347798126181926,439],["ZNF844_284391",0.171994885780313,-3.531490521038685,439],["STXBP6_29091",0.1841858649589552,-3.9835221464433332,439],["POTEM_641455",0.1925590985881414,-4.311255400639897,439],["GSS_2937",0.20017188018739354,-4.621602976037523,439],["RAD51D_5892",0.19187995323358897,-4.2841440355812415,439],["NLRC5_84166",0.1812192785598438,-3.870796487864588,439],["LURAP1L_286343",0.1903224563767301,-4.222322965480162,439]],"bottom":[["TTLL10_254173",-0.15131370444677558,-2.8313640987809063,439],["BCLAF3_256643",-0.18923057075439578,-3.9781884098483284,415],["ZFR_51663",-0.16861604247081094,-3.4114144393555565,439],["PILRA_29992",-0.1599197108064841,-3.1126351171971947,439],["HRK_8739",-0.15465292373703848,-2.9388110743924525,439],["OR51B6_390058",-0.16933272059349327,-3.436696021910707,439],["ARG1_383",-0.18573861767875074,-4.043228622945788,439],["WHAMM_123720",-0.15893795812787462,-3.079827903312386,439],["TCFL5_10732",-0.18762852310972694,-4.116554467968578,439],["C15orf39_56905",-0.16170270149072638,-3.1726943428016114,439],["DMD_1756",-0.16792334606838635,-3.2272123601040863,415]]},"para":{"top":[["NWD1_284434",0.17977275255179473,-3.8164694711230673,439],["DUS3L_56931",0.2045195468354319,-4.804188648980357,439],["ZNF441_126068",0.1853332563423558,-4.027594881880343,439],["CIB3_117286",0.19726769980924005,-4.501808808880835,439],["BCKDHA_593",0.17262252364264538,-3.5540427716736214,439],["ZNF844_284391",0.17152680747088678,-3.5147221093017555,439],["STXBP6_29091",0.1710234707659975,-3.4967387575622326,439],["POTEM_641455",0.1931637392100153,-4.3354715324986595,439],["COL5A3_50509",0.1817459826530835,-3.8906817114972316,439],["UBXN6_80700",0.17900634954775776,-3.787854997166958,439],["NGDN_25983",0.1768461179312157,-3.707829898085749,439],["RAD51D_5892",0.18072182902259584,-3.8520666777775,439],["ZBTB14_7541",0.18877860430422427,-4.161529005799455,439],["NLRC5_84166",0.18133329507468215,-3.87509636969638,439],["LURAP1L_286343",0.17414106081697556,-3.608928438807263,439],["GSS_2937",0.18831079282897123,-4.143202729289656,439]],"bottom":[["WASHC4_23325",-0.18329018034550656,-3.9493016010982878,439],["NPAT_4863",-0.1639062664069992,-3.2223661772716503,435],["BCLAF3_256643",-0.1887336146689762,-3.95969681367211,415],["ZFR_51663",-0.1836707068639773,-3.963820330910129,439],["PILRA_29992",-0.16704023537608406,-3.3561802056817056,439],["PDCL_5082",-0.16073611787067046,-3.14005897697066,439],["MAF1_84232",-0.1656836434829742,-3.309018899690144,439],["SUN2_25777",-0.1539259330360865,-2.9152366735128727,439],["TCFL5_10732",-0.17069356392924204,-3.484978810746469,439],["MXRA8_54587",-0.15624579847448936,-2.990818525288212,439],["OR56A1_120796",-0.1568163138248013,-3.009564535819931,439],["PRR5L_79899",-0.1587412682396276,-3.0732775173196187,439],["MBTD1_54799",-0.15627173001650307,-2.968460177731565,435]]}}}
{"drive":{"corr":{"top":[["IDH3B_3420",0.20643409346214436,-3.4053759544233175,291],["STAT3_6774",0.1933330511977627,-3.055985157313547,293],["GPR6_2830",0.2073803162180649,-3.5653566581900367,304],["SRSF12_135295",0.1911878624702465,-2.980187025492607,291],["SRPK2_6733",0.2176190629393856,-3.737312906203676,291],["PEX6_5190",0.18255838083657538,-2.7532005417311645,291],["QPCT_25797",0.28197256739684573,-5.994069495397089,291],["MYH11_4629",0.21287417930992775,-3.594405149827084,291],["SGK494_124923",0.20863247467380408,-3.4692671443638465,291],["SBF2_81846",0.18751758817436742,-2.8824503011928737,291],["FEN1_2237",0.1899468377980464,-2.9469406566472234,291]],"bottom":[["CCR2_729230",-0.19083646271092347,-2.970752567801355,291],["ZNF189_7743",-0.20843376638157263,-3.4840814375613594,293],["ELF1_1997",-0.17359013389903422,-2.542147089297691,293],["SLC4A4_8671",-0.18867053328316508,-2.998078498083959,301],["NID1_4811",-0.18868655504720053,-2.9133863703554215,291],["JADE2_23338",-0.18143858391815504,-2.7402836497253964,293],["SRSF8_10929",-0.23297987594245753,-4.259822969407345,294],["SH3BP1_23616",-0.1830643502903503,-2.7662401147581446,291],["GTF2IRD2B_389524",-0.17063117606850164,-2.469521128054728,293]]},"para":{"top":[["IDH3B_3420",0.1703013317846767,-2.4474481595380175,291],["CELF2_10659",0.16885559642586168,-2.4126569795355324,291],["GPR6_2830",0.2065183088095177,-3.539313249115934,304],["TTC9C_283237",0.18747715788296382,-2.8813835508791352,291],["SRPK2_6733",0.2058526013772343,-3.388585895643057,291],["XIAP_331",0.16898467635317044,-2.4849014225640462,301],["QPCT_25797",0.23994733058525453,-4.452023669185885,291],["TCFL5_10732",0.17159978133770454,-2.478922476509668,291]],"bottom":[["CCR2_729230",-0.17340145510381047,-2.522952463605209,291],["KPNB1_3837",-0.18705304270150877,-2.87020624613025,291],["CA14_23632",-0.18467327611982196,-2.8079265813946837,291],["BIN1_274",-0.20544176517014387,-3.3767510009530888,291],["COL2A1_1280",-0.20643699831475523,-3.4054599445328977,291],["SRSF8_10929",-0.1921224134468115,-3.0318098018308035,294]]}}}
{"achilles":{"corr":{"top":[["BSG_682",0.25611429203666997,-5.951232017226823,352],["ACSL3_2181",0.25914769634981133,-6.083211615301308,352],["LZTR1_8216",0.21083936564928332,-2.574899901270482,201],["GPATCH2_55105",0.21380214717129428,-2.6369700823557207,201],["PMS2P4_5382",0.21607316344033348,-2.685101498272473,201],["SYNE1_23345",0.20520855866178359,-2.4591742307915516,201],["ECD_11319",0.19842758783448244,-3.7470892448510007,352],["SYF2_25949",0.2071949040543588,-4.045740757524854,352],["DAZAP1_26528",0.19531257420956896,-2.262823444317409,201],["BPHL_670",0.20540766429614865,-3.983832651647459,352],["HIST1H4A_8359",0.22672910488282916,-2.917419612748555,201]],"bottom":[["CCDC82_79780",-0.21616736236227105,-2.6871083413914256,201],["LENEP_55891",-0.21785548843355804,-2.7232136544780223,201],["MMS19_64210",-0.20430055389714988,-2.440785944838298,201],["MAGEA10_4109",-0.21117731447566518,-2.581938717083276,201],["ZDHHC17_23390",-0.20739376617796468,-2.503737981171923,201],["TECR_9524",-0.25296333874501503,-3.5359901457039298,201],["MOSPD2_158747",-0.21609128054641397,-2.6854874062292904,201],["GPHA2_170589",-0.2239055427626592,-2.8548145848744517,201],["TUBGCP3_10426",-0.20556615749561707,-3.9893013499513152,352],["FAAH2_158584",-0.22832542526028576,-2.9531501370946054,201],["NDRG2_57447",-0.2053642972115273,-2.462335739822276,201]]},"para":{"top":[["C6orf223_221416",0.18587147566908085,-2.083733083028131,201],["BSG_682",0.19093995889294602,-3.50197275020807,352],["ACSL3_2181",0.2251211359792108,-4.696217044819202,352],["GPR6_2830",0.19149296334426832,-3.5197653723838735,352],["RSPH3_83861",0.20950687539879487,-2.547249844654319,201],["PCSK9_255738",0.18614878324137848,-3.3498796315968744,352],["SYNE1_23345",0.20605743856044248,-2.476433601337235,201],["PAPSS1_9061",0.20507916991020148,-3.97251138865043,352],["DCLRE1A_9937",0.21232061373307787,-2.605830003321891,201],["ABCA8_10351",0.20288307476859258,-2.412231121431356,201]],"bottom":[["LEMD3_23592",-0.24722935616122305,-3.3950181165255326,201],["AAAS_8086",-0.22415742155393925,-2.8603685310523534,201],["TMEM165_55858",-0.21680068892942117,-2.7006224987312764,201],["PNCK_139728",-0.21557058300151202,-4.342940851030217,352],["MAGEA10_4109",-0.22694036822806724,-2.9221343569252958,201],["TECR_9524",-0.23764378767325298,-3.166612777757089,201],["MZB1_51237",-0.22930798166517483,-2.975263938056657,201],["ANKHD1_54882",-0.2224524704886691,-2.8228917277287673,201],["ARHGEF33_100271715",-0.21253386517062722,-2.6102997124665617,201],["ALKBH8_91801",-0.2354090820180547,-3.1146556906128655,201],["ING4_51147",-0.2665081959243769,-3.882142290843381,201],["GYPA_2993",-0.22741171194917134,-2.932668647611495,201],["USP17L2_377630",-0.2606092571867541,-3.7290988604356707,201],["VWA1_64856",-0.2514140259453812,-3.497576448341049,201]]}}}
{"ccle_rrbs_tss1kb":{"corr":{"top":[["LOC105378367_10_77471212_77472212",0.5150712718922078,-48.7007377466887,711],["LRMDA_10_77541518_77542518",0.5415596966110894,-59.242170730785915,771],["RNF5P1_8_38458775_38459775",0.4724575362009831,-43.39703787740189,771]],"bottom":[["GRIN1_9_140032608_140033608",-0.17310966783092124,-4.980690954581851,641],["SLC46A3_13_29293150_29294150",-0.17422873747403853,-5.960132446145245,773],["LPP-AS2_3_187871876_187872876",-0.19813577878750252,-7.574469070882094,775],["CBFA2T3_16_89007608_89008608",-0.1956853782405436,-7.392116186858469,774],["CMPK2_2_7005950_7006950",-0.18283667785646635,-6.518818970714662,774],["LOC439933_4_36244737_36245737",-0.17367381015900965,-5.953162552404379,777],["SORL1_11_121321911_121322911",-0.19221510266288488,-7.116564864857001,770],["LRFN2_6_40555203_40556203",-0.18099118297417233,-6.420778711579789,777]]},"para":{"top":[["LOC105378367_10_77471212_77472212",0.4781128236685969,-41.1628514407369,711],["LRMDA_10_77541518_77542518",0.49244591807841104,-47.613298356276495,771]],"bottom":[["CBFA2T3_16_89007608_89008608",-0.179677940033756,-6.313274959326777,774],["SNX10_7_26331664_26332664",-0.14283618715796456,-4.180799864427229,775]]}}}
{"ccle_gene_tpm":{"corr":{"top":[["AMOT_ENSG00000126016.9",0.24763011353800526,-11.63642287490751,780],["DYRK2_ENSG00000127334.10",0.24185749628270176,-11.118795924973005,780],["C10orf11_ENSG00000148655.10",0.2666580665480121,-13.437896376365545,780],["TTC39C_ENSG00000168234.8",0.25492358899691575,-12.30953196064242,780],["ZNF503_ENSG00000165655.14",0.2975401498917381,-16.683030630009476,780],["PIK3R1_ENSG00000145675.10",0.24623368439187138,-11.50998653739653,780],["ZNF503-AS2_ENSG00000237149.4",0.27234090366824226,-14.004759892016994,780],["SIPA1L2_ENSG00000116991.6",0.24381941179520103,-11.293229787081412,780]],"bottom":[["CTH_ENSG00000116761.7",-0.23638157513803487,-10.63999876590563,780]]},"para":{"top":[["APCDD1_ENSG00000154856.8",0.2104944554188406,-8.534508667992329,780],["C10orf11_ENSG00000148655.10",0.2227596850668638,-9.499892997741075,780],["CTD-2201I18.1_ENSG00000249825.1",0.2329285781950816,-10.344150494648567,780]],"bottom":[]}}}
{"ccle_rrbs_tss_clusters":{"corr":{"top":[["TSPYL5_1",0.4636629663281854,-42.36820150318124,785],["SIPA1L2_1",0.46052615565758814,-37.47044761052437,703],["KHDRBS3_1",0.46455103654062657,-42.49459200443607,784],["LOC100505635_3",0.4867863577405567,-44.91579097657274,746],["LOC100505635_1",0.5299110347246696,-57.171682282184015,783],["LRMDA_3",0.5597413496954797,-64.87495743993475,781],["SPATA3_2",0.47985653911531456,-23.47126376150539,396],["SIPA1L2_2",0.4741458777716074,-44.02036816936708,776],["LDLRAD4-AS1_1",0.474007876626727,-44.26956374265247,781],["KALRN_5",0.46591265488968,-42.61016687872885,781],["TNS1_6",0.49052183054977144,-47.73562227693141,780],["LARGE1_6",0.4597649271043124,-38.99419375554078,735],["LOC105378367_2",0.4974008295782065,-45.41577393487122,718]],"bottom":[["SCG3_2",-0.200767393987627,-7.533287374856837,750],["PELI2_3",-0.22277500213557225,-6.703846130310867,534],["LPP_3",-0.20929046254455602,-8.492777727161382,785],["SORL1_2",-0.21268114297278093,-8.774636522678989,787],["CBFA2T3_6",-0.19920086104780216,-7.7592883320837345,787],["WBP1_2",-0.2544168034136138,-4.663678958007945,272],["PPP1R1A_2",-0.21596067342974362,-7.699944829344185,662],["DCUN1D1_2",-0.2497536783801591,-3.8886064891381897,230]]},"para":{"top":[["KHDRBS3_1",0.4374323799819657,-37.25302074538176,784],["ADIPOQ_1",0.438446628553342,-33.56890137914845,701],["LOC100505635_3",0.465860305733041,-40.730276616389084,746],["LOC100505635_1",0.4939512124656264,-48.674412675856864,783],["LRMDA_3",0.502897346198015,-50.567356853270105,781],["LOC646588_3",0.4388563562960246,-36.34831228230358,759],["LOC105378367_2",0.4770627275888798,-41.356496706259705,718]],"bottom":[["SYTL3_2",-0.18010634013385118,-2.1145888852519255,218],["ZFYVE16_1",-0.1790988844636314,-4.300965242607377,507],["TRIM72_3",-0.21972219433806633,-2.693269765567965,195],["LOC100129697_3",-0.18206540127209211,-6.559273568517533,786],["CBFA2T3_6",-0.18010155810569775,-6.437104931562869,787],["WBP1_2",-0.19320806336055424,-2.8649675295912336,272],["GADL1_1",-0.1932566515974034,-3.4267471623008916,335],["DCUN1D1_2",-0.23442083135943248,-3.4737569692170776,230]]}}}
{"ccle_rrbs_cgi_clusters":{"corr":{"top":[["1_245738993_245743204-3",0.4794085696792778,-45.230651240904066,778],["10_77870083_77874305-2",0.5276451679989571,-56.392320747837054,780],["2_100208147_100212491-3",0.45287086240977775,-40.02865549791443,781],["11_78778676_78783048-3",0.5216285138972165,-54.56956663165957,775],["1_245751399_245755636-3",0.46841802197847837,-43.01085259694973,779],["11_78778676_78783048-1",0.45654023392864773,-35.33227234135183,675],["8_98287604_98292404-1",0.4636629663281854,-42.36820150318124,785],["1_210855059_210859262-1",0.46158182488599264,-41.949724153789994,785],["14_59111071_59115640-1",0.4666748017145098,-43.03256705543117,786]],"bottom":[["12_54979933_54984591-2",-0.21596067342974362,-7.699944829344185,662],["9_113878_116839-1",-0.21135101295876105,-7.2622360093706915,649],["14_103743232_103745752-3",-0.2152291295417464,-3.323823931948009,260],["3_187869478_187874354-1",-0.20929046254455602,-8.492777727161382,785],["11_121320538_121325302-2",-0.21268114297278093,-8.774636522678989,787],["14_56585638_56588234-2",-0.21897465089086598,-6.492977146663962,534],["9_110916_113878-3",-0.29223004048262546,-7.253134024464773,333],["3_182695749_182700731-2",-0.2497536783801591,-3.8886064891381897,230],["16_86588974_86591513-3",-0.24311453186427417,-6.023982971162002,397]]},"para":{"top":[["1_245738993_245743204-3",0.4523178987852837,-39.77170608645024,778],["10_77870083_77874305-2",0.48332761657973783,-46.17778194737325,780],["8_136466939_136469641-1",0.42799520417138726,-35.44882413823768,782],["11_78778676_78783048-3",0.4655659778681806,-42.220127349316016,775],["14_59111071_59115640-1",0.4235705409744392,-34.83771100543557,786]],"bottom":[["3_30934047_30938265-1",-0.1932566515974034,-3.4267471623008916,335],["1_228643196_228645815-3",-0.1807335187994324,-2.430203453127836,256],["6_40555261_40557928-2",-0.18568678257637333,-4.459507989690203,491],["18_42259889_42262795-2",-0.19305439101357072,-2.789438649172909,264],["9_126768663_126771377-3",-0.19241612736634917,-2.4333591494346547,226],["20_62284176_62286835-1",-0.17839224497389888,-6.3180382301017115,786],["9_110916_113878-3",-0.2010443638046169,-3.6538583901028177,333],["3_182695749_182700731-2",-0.23442083135943248,-3.4737569692170776,230]]}}}
