{"depmap_hotspot":{"corr":{"top":[["ADCY8",0.10463218039525088,-2.484654935693504,79.0,709.0],["ANK3",0.11286952567937902,-2.8221603364541057,161.0,627.0],["ANP32B",0.09679904622096014,-2.184358037303427,9.0,779.0],["ASUN",0.11261517539918711,-2.811403075594789,36.0,752.0],["ATF7IP2",0.10234181404979929,-2.3947795036909674,31.0,757.0],["BPIFB6",0.09762674262859254,-2.2151461611991983,28.0,760.0],["BTNL8",0.09726614002216369,-2.201705414874155,18.0,770.0],["CCNY",0.12312403404117346,-3.2738513673531866,22.0,766.0],["CDH16",0.09930039807892616,-2.278080564835473,41.0,747.0],["DBX2",0.11055244362534332,-2.7249568179694164,31.0,757.0],["FAM196B",0.10605567214427328,-2.54138020202976,29.0,759.0],["FAM78B",0.10292964242791362,-2.4176825001903115,21.0,767.0],["FAM91A1",0.11343560239660218,-2.8461786494721735,36.0,752.0],["GUK1",0.11214311500660125,-2.791495125211441,15.0,773.0],["HERC3",0.10314948401350918,-2.4262770089512076,35.0,753.0],["HTR7",0.11193222097910414,-2.7826251110939646,37.0,751.0],["IDH3A",0.10562265338271729,-2.5240542456901776,24.0,764.0],["KLHL38",0.10468326884978102,-2.486679271839149,37.0,751.0],["KRBA1",0.1103262042163176,-2.715561248058376,53.0,735.0],["KRT14",0.12573879733729507,-3.394683082031066,60.0,728.0],["LMOD2",0.1013647127701539,-2.3569593964919013,38.0,750.0],["LRRC4C",0.1080607586905626,-2.6224119869049196,57.0,731.0],["MPPED2",0.10330233597501098,-2.432261937647187,33.0,755.0],["MS4A14",0.11039399460937191,-2.7183747594428658,41.0,747.0],["NT5C1B",0.1098375796774476,-2.6953267990773373,32.0,756.0],["OR4K5",0.10233932114676637,-2.394682615586667,37.0,751.0],["OR51F2",0.12500774225832503,-3.360667172465456,39.0,749.0],["OR6C2",0.10045981923673664,-2.3222119760458804,15.0,773.0],["PITX2",0.10456723409364836,-2.482082730079187,21.0,767.0],["PNMAL1",0.09676724113742474,-2.183179398274831,21.0,767.0],["QDPR",0.09857178018093266,-2.250570606291885,12.0,776.0],["RBM17",0.10415602566865216,-2.4658288735047846,18.0,770.0],["RPL10L",0.11349935722878066,-2.8488904065077714,33.0,755.0],["SH3BP2",0.10349745186917145,-2.4399128233610923,36.0,752.0],["SH3RF2",0.11211924330597396,-2.7904903619870587,54.0,734.0],["SNRNP48",0.10173502387108828,-2.371256141316045,29.0,759.0],["SNTB1",0.10420713988207901,-2.467846250850965,26.0,762.0],["SRFBP1",0.11103300204167402,-2.7449703224195248,32.0,756.0],["SSMEM1",0.09664992651168802,-2.1788347607887695,10.0,778.0],["SUGP1",0.1099395126183045,-2.6995414277684615,33.0,755.0],["TMTC2",0.1045386611953773,-2.4809515353762315,61.0,727.0],["TPST2",0.09851615538704175,-2.248477501041345,27.0,761.0],["TRDN",0.10058939132894892,-2.3271711037460707,53.0,735.0],["TRIM13",0.10552575975097707,-2.520185770729432,20.0,768.0],["XKR7",0.11196035153711897,-2.7838074041215544,38.0,750.0],["ZNF233",0.09768762719825114,-2.2174196710965868,19.0,769.0]],"bottom":[["ALB",-0.09776190531385018,-2.2201949409548742,19.0,769.0],["ANKRD7",-0.10084062553529469,-2.3368022050655455,19.0,769.0],["BNIPL",-0.10148360378284624,-2.3615445912541086,18.0,770.0],["BSG",-0.09499794978788505,-2.1181278362161593,17.0,771.0],["BST2",-0.10261828533047533,-2.405537320491775,11.0,777.0],["C1orf87",-0.08820196693222375,-1.8776226066235888,29.0,759.0],["C21orf58",-0.09027203417453578,-1.9493134866502462,25.0,763.0],["C4orf40",-0.0914364299331951,-1.9902411110240381,15.0,773.0],["C5orf22",-0.08980971006544577,-1.9331834983367133,25.0,763.0],["C8orf4",-0.08811052021961074,-1.874487145148987,10.0,778.0],["C9orf173",-0.09026192445689493,-1.9489600384541632,9.0,779.0],["CA5B",-0.09550575777410768,-2.136694934763133,12.0,776.0],["CAST",-0.08722018140458808,-1.844099013593068,28.0,760.0],["CYBB",-0.1193090736869505,-3.101693409093047,28.0,760.0],["DDT",-0.092089783397898,-2.013396307465254,15.0,773.0],["DSC2",-0.092937793624966,-2.043654602096519,52.0,736.0],["ENDOU",-0.08715480329375834,-1.8418775376511511,18.0,770.0],["EXOC3L1",-0.09016813621516297,-1.9456826444529338,34.0,754.0],["FAM173A",-0.12139018400203529,-3.195000615825455,12.0,776.0],["FUT2",-0.09365136867265264,-2.069295143158821,23.0,765.0],["GOLGA8N",-0.09533302803945083,-2.130370036163012,13.0,775.0],["GP1BA",-0.10204830491185077,-2.3833860552522226,34.0,754.0],["GSTA5",-0.09051770268711946,-1.9579124135186277,14.0,774.0],["HIST1H2AH",-0.10895941948042215,-2.6591597132168254,16.0,772.0],["HS3ST3B1",-0.09945650132975205,-2.283996895778735,26.0,762.0],["HYPK",-0.11535108876492456,-2.9282426556234933,11.0,777.0],["LRRC8E",-0.08960590654083707,-1.9260947143820304,40.0,748.0],["LRSAM1",-0.09362136901456114,-2.0682138811682202,26.0,762.0],["MED18",-0.10587835191269526,-2.534277810824193,12.0,776.0],["MSANTD4",-0.10450832225734738,-2.4797507166088066,21.0,767.0],["MTA3",-0.08712809852993951,-1.840970530350239,30.0,758.0],["MYL5",-0.0875315266080656,-1.8546968367290664,18.0,770.0],["NBPF1",-0.09551086830636223,-2.1368822154615943,88.0,700.0],["NPIPA1",-0.1005599824997978,-2.326045056427411,11.0,777.0],["OR7A5",-0.09014356822265572,-1.9448245904661978,16.0,772.0],["PDCD2",-0.08761559185826898,-1.8575636076122513,12.0,776.0],["PIH1D2",-0.10376734947550578,-2.4505165943669103,13.0,775.0],["PLEKHH1",-0.09646189838902045,-2.171880604059142,51.0,737.0],["PSMA5",-0.09004654191986518,-1.9414377669325702,10.0,778.0],["QPRT",-0.09155849099664927,-1.9945566199657931,14.0,774.0],["RAB3C",-0.11386606578102454,-2.8645142968116963,30.0,758.0],["RB1",-0.11946415271192173,-3.108596253375771,97.0,691.0],["RHOV",-0.08895344846403673,-1.9034898595343035,11.0,777.0],["RP11-467N20.5",-0.10336730310192964,-2.4348080452772254,11.0,777.0],["RPL12",-0.10137787580447845,-2.3574668199290585,12.0,776.0],["SCAMP4",-0.08838587722283577,-1.88393646476636,15.0,773.0],["SDC3",-0.08993149059608446,-1.937425658948092,15.0,773.0],["SETMAR",-0.09317048718665585,-2.0519978687728844,30.0,758.0],["SH2D2A",-0.08944552551453083,-1.9205256024861397,25.0,763.0],["SLC16A3",-0.09075152899079661,-1.9661147798838339,36.0,752.0],["SLC27A3",-0.08603467618498412,-1.8040278840485697,45.0,743.0],["SLC30A8",-0.08988856245871593,-1.9359297388442218,35.0,753.0],["SLC9A3R2",-0.09915953823302276,-2.2727487597756033,10.0,778.0],["SRSF4",-0.12150544927578094,-3.200211136340733,25.0,763.0],["SUN5",-0.09556080169719795,-2.138712519642352,22.0,766.0],["THSD1",-0.10564678817408427,-2.5250183061842266,42.0,746.0],["TMEM160",-0.11646665230937917,-2.9765997785814107,10.0,778.0],["TMEM239",-0.10249965208599907,-2.4009181040912786,13.0,775.0],["TPRX1",-0.10856986907027165,-2.6431976245878137,22.0,766.0],["ZNF236",-0.0937454290363223,-2.072687189825666,75.0,713.0],["ZNF530",-0.08589108791600257,-1.7992047763568317,26.0,762.0],["ZNF764",-0.1334882466954815,-3.7664334500011605,28.0,760.0]]},"para":{"top":[["AGPAT9",0.10085442939903588,-2.631374279607856,13.0,775.0],["ANP32B",0.13161668506291452,-3.9529782037478522,9.0,779.0],["ARL6IP5",0.1083572709427754,-2.925808980056527,11.0,777.0],["ARNTL2",0.10832898351773543,-2.9248011248225634,15.0,773.0],["C10orf126",0.10093851939668341,-2.6344104553882737,9.0,779.0],["C1orf185",0.08140697227941147,-1.950160641566666,8.0,780.0],["C1orf226",0.09225235932296004,-2.3155083022161578,11.0,777.0],["C21orf54",0.0861958010723933,-2.1070156487396106,10.0,778.0],["C4orf26",0.08347192678705695,-2.0169372702537753,9.0,779.0],["CARD16",0.08469220577085147,-2.056935903894756,8.0,780.0],["CD300LD",0.096691660303145,-2.475428982037048,8.0,780.0],["CD47",0.09087289928864536,-2.2668832578550906,8.0,780.0],["CDK2",0.1046998444240391,-2.780055758273737,12.0,776.0],["CGGBP1",0.09733849271551394,-2.49945411119873,12.0,776.0],["CHCHD6",0.08665005867542507,-2.122209534081338,9.0,779.0],["DEFB119",0.07742571474317485,-1.8252164860898548,8.0,780.0],["EVI2B",0.1061584404282051,-2.8376896621176884,12.0,776.0],["FAM120AOS",0.08402350339578199,-2.0349834815309347,9.0,779.0],["FAM159B",0.09151324140985824,-2.28931445692406,8.0,780.0],["FAM209B",0.08708652848495178,-2.1368584485397393,8.0,780.0],["GUK1",0.13324628364813462,-4.031767371396613,15.0,773.0],["IFIT3",0.08915983567366018,-2.2076427767085183,11.0,777.0],["IFT20",0.08644618636373892,-2.1153096807286387,8.0,780.0],["KIR2DL3",0.10542877317468896,-2.8088672736911535,15.0,773.0],["LIX1",0.0938468201416471,-2.3722008092242,9.0,779.0],["LMO2",0.07987354605394593,-1.9015103292729907,9.0,779.0],["MAP3K7CL",0.09463478672554,-2.400554881828731,9.0,779.0],["METTL10",0.09492370780630076,-2.411000140799265,9.0,779.0],["METTL21A",0.10634922327274814,-2.8451397188936913,9.0,779.0],["MXD1",0.1137724733275472,-3.1494395263702737,10.0,778.0],["NT5M",0.09191931831457391,-2.303748567561022,11.0,777.0],["NUDT3",0.09745244552833944,-2.50366756109774,12.0,776.0],["OR6C2",0.13202084265811495,-3.972648997968387,15.0,773.0],["PEA15",0.07686889550733757,-1.8081291322887725,8.0,780.0],["PPBP",0.0867443424734904,-2.125425201726961,10.0,778.0],["PSMB5",0.10167962880336126,-2.6627777636332755,10.0,778.0],["PYDC1",0.07859503513843316,-1.861408865537855,8.0,780.0],["QDPR",0.10918958524936252,-2.959621146900349,12.0,776.0],["RBM17",0.12928965103306914,-3.842720997019345,18.0,770.0],["RBP2",0.08861997513515739,-2.1890336068619813,9.0,779.0],["RNF208",0.12867318542346198,-3.813709409006016,18.0,770.0],["RWDD2B",0.11200691789873372,-3.0756107962475676,13.0,775.0],["SAR1A",0.10060747970121697,-2.621868745919065,10.0,778.0],["SCP2D1",0.08597139777194446,-2.0995113688080926,10.0,778.0],["SMCO3",0.09232341807945409,-2.317934243903651,9.0,779.0],["SRP19",0.08848864737117525,-2.1845411376078356,9.0,779.0],["SSMEM1",0.12377088704754424,-3.587085399394099,10.0,778.0],["SYCP3",0.10497928357200172,-2.7910057668503616,11.0,777.0],["TDGF1",0.08085015304357417,-1.9323930139109218,8.0,780.0],["TMEM72",0.07550468837953622,-1.7666655443013612,8.0,780.0],["UBALD1",0.09635849852521493,-2.4633869780265205,12.0,776.0],["UBE2D3",0.11354807002709838,-3.1399846210096336,10.0,778.0],["UBE2E3",0.1043845674855979,-2.7676476973165745,11.0,777.0],["VAMP4",0.07845583032947386,-1.857078281551366,8.0,780.0],["VAPB",0.08491493346518636,-2.0642956238205716,8.0,780.0]],"bottom":[["ANKRD7",-0.09424673601691011,-2.3868574640988878,19.0,769.0],["BNIPL",-0.08856555924689799,-2.187430989352682,18.0,770.0],["BST2",-0.0902303246291871,-2.244643225308014,11.0,777.0],["C11orf74",-0.07198443509831799,-1.6624083041189903,11.0,777.0],["C15orf40",-0.07094702126513577,-1.6323941924942478,12.0,776.0],["C4orf40",-0.08269684280982481,-1.9919264977436217,15.0,773.0],["C8orf4",-0.07938890095877939,-1.8863103990318622,10.0,778.0],["C9orf173",-0.0853630465884,-2.0792017510351144,9.0,779.0],["CA5B",-0.0957659438985225,-2.4417253389188,12.0,776.0],["CABYR",-0.06798794299768433,-1.5484589620483555,11.0,777.0],["COX16",-0.06136147978926907,-1.3699842990422373,8.0,780.0],["CRIPT",-0.06466579098481255,-1.4573279513754196,9.0,779.0],["DNASE1",-0.07068060257519522,-1.6246315533721634,9.0,779.0],["DSCC1",-0.06177909421614703,-1.3808386192824431,8.0,780.0],["DUT",-0.07346475117161684,-1.7057691049765114,9.0,779.0],["ENDOU",-0.09118086789371632,-2.277976285984243,18.0,770.0],["FAM173A",-0.1075486647446758,-2.89325055073648,12.0,776.0],["FGFR1OP2",-0.06530136043060404,-1.4745296021328502,10.0,778.0],["FITM1",-0.07091144294182428,-1.6313079293765287,10.0,778.0],["GOLGA8O",-0.08123399476246959,-1.9447237201254957,10.0,778.0],["HIST1H2AH",-0.08944299279993011,-2.2175330642313775,16.0,772.0],["HSDL2",-0.0771142955182958,-1.81585410853029,14.0,774.0],["HYPK",-0.10621629303172168,-2.8399498391589675,11.0,777.0],["IL33",-0.07380620335797047,-1.7158818784112095,9.0,779.0],["IL34",-0.06829719536261433,-1.5571044986107019,11.0,777.0],["ISG20",-0.07197259658056497,-1.6620926863421375,12.0,776.0],["ITGB1BP1",-0.0800984470751938,-1.908558033430823,8.0,780.0],["KIAA0895",-0.057380222253032465,-1.269095465968855,8.0,780.0],["KLRC3",-0.061750314624408706,-1.3801299731106846,9.0,779.0],["KRT13",-0.08500475667436178,-2.067513602147082,15.0,773.0],["KRTAP17-1",-0.05902283899875248,-1.310154272116241,8.0,780.0],["LDHC",-0.08500376352908594,-2.0675209184331065,17.0,771.0],["MDFI",-0.06934389567468507,-1.5865799938214593,11.0,777.0],["MED18",-0.08555577186936068,-2.0857249582983455,12.0,776.0],["MRPL50",-0.059830226890716535,-1.330627148724099,8.0,780.0],["MSANTD4",-0.10016062785091549,-2.6052135976527424,21.0,767.0],["MYL5",-0.09004134055474548,-2.2382623123193897,18.0,770.0],["NPIPA1",-0.09308496184392544,-2.345059374012561,11.0,777.0],["OR7A5",-0.08750374207108204,-2.1512398438184173,16.0,772.0],["PGLYRP1",-0.07336093432156261,-1.702654864958289,8.0,780.0],["PIH1D2",-0.09329527707605796,-2.352625306726619,13.0,775.0],["PIN1",-0.06055409189730501,-1.3491458619091294,8.0,780.0],["PSMA5",-0.07492576864985304,-1.7493287948409746,10.0,778.0],["RASL11B",-0.08351380346983789,-2.018494776518617,15.0,773.0],["RHOV",-0.0867096053976765,-2.1242951390009184,11.0,777.0],["RP11-467N20.5",-0.08542501865104425,-2.0813432156224017,11.0,777.0],["RPL12",-0.0915952709491104,-2.29237475904889,12.0,776.0],["RPL18",-0.06871149370232126,-1.5686178599033958,8.0,780.0],["SCAMP4",-0.093072243191991,-2.344726172568717,15.0,773.0],["SDC3",-0.07726405442073776,-1.82047365534709,15.0,773.0],["SEC22C",-0.09462641577026785,-2.4003781053172024,12.0,776.0],["SLC9A3R2",-0.099086523998175,-2.5644573796941383,10.0,778.0],["SRSF4",-0.10630668701693868,-2.8438584128918514,25.0,763.0],["TMEM160",-0.10714010911428234,-2.8767729073934163,10.0,778.0],["TMEM239",-0.10140219406012123,-2.6522727169625067,13.0,775.0],["TPMT",-0.07277627412393345,-1.685439997622891,8.0,780.0],["TPRX1",-0.10274994761220647,-2.7042882841280362,22.0,766.0],["TXNL1",-0.07574985426490632,-1.7741228870947463,9.0,779.0],["ZDHHC24",-0.06863023637100045,-1.5664472664339695,11.0,777.0],["ZNF764",-0.1128450522626267,-3.1108809350806546,28.0,760.0]]}}}
{"depmap_damaging":{"corr":{"top":[["AFF4",0.08696713167992304,-1.8336380970932369,9.0,778.0],["ASUN",0.0911074438139963,-1.9765987452761613,17.0,770.0],["CC2D2A",0.07649388733513425,-1.4962038102221182,28.0,759.0],["CYP51A1",0.077530197148441,-1.5280602896516848,12.0,775.0],["ERV3-1",0.0847056483977411,-1.7578525053319969,13.0,774.0],["EXD3",0.0820128938029312,-1.669722337509957,9.0,778.0],["EXOSC10",0.09104458929172415,-1.9743875475365735,13.0,774.0],["FAM133A",0.09080317382838883,-1.9659063945414108,11.0,776.0],["FANCI",0.07961718552357988,-1.5932309166639895,8.0,779.0],["FREM2",0.08680882368275172,-1.8282801916638414,13.0,774.0],["GRIK3",0.07402065660870377,-1.421523391597135,11.0,776.0],["HAUS3",0.07668313546809666,-1.5019964219795174,8.0,779.0],["KIAA1009",0.08062871019575532,-1.6253078538291934,47.0,740.0],["KIAA1107",0.07257610696159938,-1.3787798597259697,30.0,757.0],["KIAA1324L",0.0767499893436265,-1.504045383995829,12.0,775.0],["LAMC1",0.07376170758787007,-1.413813825027291,9.0,778.0],["MARK3",0.0807082190595241,-1.627842787209192,9.0,778.0],["NETO1",0.07821556925503695,-1.5493125726966186,8.0,779.0],["NRXN2",0.07323278539459692,-1.3981308308977989,9.0,778.0],["NYNRIN",0.08651467329323975,-1.8183458453342112,13.0,774.0],["PALLD",0.08766185981233644,-1.8572451578697802,13.0,774.0],["PAPPA2",0.08238372649422106,-1.6817235401231816,15.0,772.0],["RIMS2",0.0845559846278007,-1.7528941700610026,61.0,726.0],["RP11-1055B8.7",0.09475020094911905,-2.1069138671777514,17.0,770.0],["SLC38A4",0.07335620057302733,-1.4017824713301381,9.0,778.0],["SMARCC1",0.08547245313063825,-1.7833677356923745,17.0,770.0],["STAG1",0.0780197393004815,-1.5432252581796813,12.0,775.0],["SUZ12",0.08074932565880505,-1.6291541416067294,13.0,774.0],["SYTL2",0.0874255309140931,-1.8491974235206197,9.0,778.0],["TG",0.08789791674333805,-1.865301356833529,21.0,766.0],["THSD7A",0.08153832351827238,-1.6544269594684817,12.0,775.0],["TLN2",0.10562834608694306,-2.5216109291576267,19.0,768.0],["TMTC2",0.091316694294368,-1.983969206413238,20.0,767.0],["TTC17",0.07448456791867672,-1.435387040097892,9.0,778.0],["VRK2",0.07385863100813747,-1.4166970537472376,12.0,775.0],["WDR62",0.0824951709283214,-1.6853386540274444,8.0,779.0],["WDR87",0.1056742527144471,-2.5234427559857386,29.0,758.0],["ZFHX2",0.08351919203283859,-1.7187396644164188,16.0,771.0],["ZKSCAN3",0.07631816485535696,-1.490835165647144,9.0,778.0],["ZNF208",0.09469501887861695,-2.104907985287387,15.0,772.0],["ZNF536",0.07533490656038455,-1.4609717378681577,12.0,775.0]],"bottom":[["ABCA7",-0.07109952679347412,-1.3357529997948794,10.0,777.0],["ADAMTS13",-0.08313849557962677,-1.7062837139823412,8.0,779.0],["ANGPTL5",-0.06851831043728253,-1.2621441749976214,14.0,773.0],["ASPM",-0.07241756964070664,-1.3741280061666,24.0,763.0],["ATP8A2",-0.08641627657369391,-1.8150288184792853,15.0,772.0],["BLM",-0.11102365124228862,-2.7416497032562925,8.0,779.0],["BRF1",-0.0880217541926763,-1.8695347938962625,16.0,771.0],["C2orf71",-0.07019107883883337,-1.3096140318183005,9.0,778.0],["C8G",-0.08676751370159587,-1.8268833716554858,8.0,779.0],["CCDC110",-0.07257706783499895,-1.3788080775917877,10.0,777.0],["CENPC",-0.07310143947559707,-1.394249696114584,13.0,774.0],["CLTCL1",-0.09291384703917939,-2.0406881109200614,13.0,774.0],["CNTROB",-0.08466800933267424,-1.7566048631341376,8.0,779.0],["COL15A1",-0.08199810992838348,-1.6692447856565475,13.0,774.0],["CPD",-0.07359696342118426,-1.4089197575175363,10.0,777.0],["CSNK1A1L",-0.0793354434376469,-1.5843534896924971,8.0,779.0],["CSTF3",-0.07352530921846251,-1.4067937363380785,10.0,777.0],["EFCAB6",-0.07213524791852219,-1.3658631953540552,11.0,776.0],["FLG2",-0.08180167399589348,-1.6629059923019036,14.0,773.0],["GCC2",-0.09156054668570077,-1.9925761402959257,23.0,764.0],["GPR158",-0.07405110892849137,-1.4224313959414319,9.0,778.0],["HIVEP1",-0.07236126868572186,-1.3724778680501963,20.0,767.0],["INTS1",-0.0986583317452557,-2.251475457461412,11.0,776.0],["KIF15",-0.09975231457941192,-2.2928276874664903,39.0,748.0],["KLHL41",-0.078985129705741,-1.5733500508714364,12.0,775.0],["LINGO2",-0.07637803311102132,-1.4926631732110465,8.0,779.0],["LPHN3",-0.09308195716360784,-2.0467057170664136,11.0,776.0],["MAGEC1",-0.10143713910850348,-2.3572743546023065,12.0,775.0],["MAML3",-0.07606442147093484,-1.4830997663277272,8.0,779.0],["MAPK15",-0.07954097276561264,-1.5908270748413986,11.0,776.0],["MAPT",-0.07206869081391319,-1.363918347330544,20.0,767.0],["MAST3",-0.07941486835953099,-1.5868535810030742,8.0,779.0],["MFSD6",-0.08547031869701148,-1.7832964547330412,9.0,778.0],["MIPEP",-0.07890444643506997,-1.5708212036919296,8.0,779.0],["MIS18BP1",-0.11248426642666978,-2.8028719126223542,20.0,767.0],["MS4A6A",-0.09320878102852315,-2.051251461675999,18.0,769.0],["MTMR11",-0.06960005043905904,-1.292744046684956,8.0,779.0],["MYO1A",-0.08303858143237236,-1.7030222056505024,10.0,777.0],["MYO9A",-0.07563457895771782,-1.470041576190055,49.0,738.0],["NACA",-0.07642348537153362,-1.4940517488444234,20.0,767.0],["NPAS3",-0.0717873302515209,-1.3557118426551555,12.0,775.0],["PACSIN2",-0.11497627583424601,-2.908959655753473,11.0,776.0],["PCOLCE",-0.08338553044695746,-1.714361206052655,8.0,779.0],["PEAK1",-0.1271454970353777,-3.4568626323112874,11.0,776.0],["PLCG1",-0.06946981692744024,-1.2890411091472906,8.0,779.0],["PMS1",-0.07606040855009412,-1.482977592544321,13.0,774.0],["QSER1",-0.07425152573514576,-1.42841442603914,11.0,776.0],["RAB3C",-0.13125880048462968,-3.653366562127515,22.0,765.0],["SH2D4A",-0.07226896141707624,-1.3697745243938835,8.0,779.0],["STAG2",-0.151642914788874,-4.712974048213936,16.0,771.0],["TRO",-0.12221811962548859,-3.22901594521885,33.0,754.0],["TXNDC11",-0.10368231414351774,-2.444593007126207,10.0,777.0],["UGDH",-0.08106585552251888,-1.639269613211096,8.0,779.0],["UNC13B",-0.07447259380125593,-1.4350283654484763,9.0,778.0],["UNC5C",-0.13195098144578404,-3.687000201275598,23.0,764.0],["ZNF558",-0.08522514122200464,-1.7751181717731064,9.0,778.0]]},"para":{"top":[["AFF4",0.10018265057504867,-2.603298285679013,9.0,778.0],["ASUN",0.09908077824901275,-2.562094505952706,17.0,770.0],["C20orf26",0.0743146323151924,-1.7295965257386698,9.0,778.0],["C3orf67",0.07149169239494854,-1.6466639971406327,8.0,779.0],["CDH16",0.11132397360446333,-3.0440961146135384,8.0,779.0],["CLTC",0.10641914954738028,-2.8452827988781793,10.0,777.0],["ERV3-1",0.0914529677413531,-2.285364599524124,13.0,774.0],["EXD3",0.0885775681207286,-2.185655625134733,9.0,778.0],["EXOSC10",0.10501944255272042,-2.790032109970897,13.0,774.0],["FAM133A",0.09893414943947339,-2.5564330263877424,11.0,776.0],["FANCI",0.09974806554987743,-2.586837703535335,8.0,779.0],["FOXP4",0.0700691109231801,-1.6058090157592946,8.0,779.0],["GAPVD1",0.09267958798609878,-2.3285126823362443,10.0,777.0],["GEMIN5",0.07031469459851065,-1.6128633820124996,9.0,778.0],["GRAMD1B",0.07004121716883172,-1.6050140443826983,8.0,779.0],["GRIK3",0.07691170808026515,-1.8080665660411286,11.0,776.0],["HAUS3",0.0837091567995476,-2.0228951986735813,8.0,779.0],["IL1RAP",0.07018068594057372,-1.6089912480276316,8.0,779.0],["KCNMA1",0.07734938080811246,-1.8213561181173363,8.0,779.0],["KCNU1",0.07091994833195592,-1.6302160652161566,9.0,778.0],["LMTK2",0.0736116177254269,-1.7086819673920342,8.0,779.0],["MARK3",0.07968296977705475,-1.8939141854983834,9.0,778.0],["NETO1",0.07921826234945524,-1.8792923585796653,8.0,779.0],["NID2",0.07657803472633776,-1.7978790902351895,11.0,776.0],["NLRP13",0.07844614693044918,-1.8552758219953445,9.0,778.0],["NPR2",0.06549453521004259,-1.4785607366274804,8.0,779.0],["NRXN2",0.06976207162449542,-1.5971161692227138,9.0,778.0],["PALLD",0.08451606476337238,-2.0495512579515567,13.0,774.0],["PKDREJ",0.0881820862738875,-2.1723124969850374,13.0,774.0],["POTEJ",0.07384095548032223,-1.715519679130124,9.0,778.0],["PTPRQ",0.0819518502755984,-1.9659638427376658,8.0,779.0],["RASGRP3",0.07966456241902964,-1.8932861037331623,8.0,779.0],["RTL1",0.07642888691461526,-1.793212843887438,8.0,779.0],["SBF2",0.08602497628837252,-2.0994292723832695,9.0,778.0],["SGSM2",0.08265660768485103,-1.9887325716234017,9.0,778.0],["SLC38A4",0.08786705286842332,-2.1614514305479973,9.0,778.0],["STAG1",0.08096884630276834,-1.9346932870754312,12.0,775.0],["SUZ12",0.09039926095988768,-2.2485814749761945,13.0,774.0],["SYTL2",0.10247208861025468,-2.6906842142153,9.0,778.0],["TEX2",0.07054330474710292,-1.6193594429711704,8.0,779.0],["TG",0.11469255600092433,-3.185601682403015,21.0,766.0],["THSD7A",0.08366324107539289,-2.021560783386852,12.0,775.0],["TLN2",0.10691319302016312,-2.865244197009136,19.0,768.0],["TTC17",0.08360396135459149,-2.0195119060522915,9.0,778.0],["UBTF",0.0807092695859402,-1.9263319721241552,9.0,778.0],["WDR17",0.07848473960592287,-1.8565514594299848,11.0,776.0],["WDR62",0.10666571662828057,-2.8549847749912014,8.0,779.0],["ZFHX2",0.09262673331436223,-2.326821873869775,16.0,771.0],["ZKSCAN3",0.08349869983573142,-2.016078311320625,9.0,778.0],["ZNF208",0.10642735484684904,-2.845788963293924,15.0,772.0],["ZNF429",0.10212241393185226,-2.6772816740998584,10.0,777.0],["ZNF540",0.07541987826322288,-1.7627078338104047,9.0,778.0]],"bottom":[["ABCA7",-0.071021042761315,-1.6331636539039873,10.0,777.0],["ADAMTS13",-0.08365336929085082,-2.02107321967141,8.0,779.0],["AGGF1",-0.06499244763177137,-1.464976372152683,8.0,779.0],["ANGPTL5",-0.07368361975471804,-1.7110113937961406,14.0,773.0],["ATP8A2",-0.09597083142313438,-2.4470609560977694,15.0,772.0],["BLM",-0.08549435707784518,-2.081706090680466,8.0,779.0],["C2orf71",-0.07889350838560438,-1.869197295000387,9.0,778.0],["C8G",-0.0745878991276209,-1.7377014057009628,8.0,779.0],["CDKN2AIP",-0.07184098662198131,-1.6568347009670608,9.0,778.0],["CENPC",-0.07724987841618376,-1.818483764962281,13.0,774.0],["CLTCL1",-0.08835770407079842,-2.1782978710303618,13.0,774.0],["CNGB1",-0.06005525311210464,-1.3353918673423326,8.0,779.0],["CNTROB",-0.08303970669518601,-2.001094820390794,8.0,779.0],["COLEC12",-0.0629271919506692,-1.40996655869361,10.0,777.0],["CSNK1A1L",-0.06292830980998979,-1.4099192344992795,8.0,779.0],["CSTF3",-0.07214518870723807,-1.6657215957368403,10.0,777.0],["EFCAB6",-0.0890431178766255,-2.2016851254873164,11.0,776.0],["EPS8",-0.060473659427330614,-1.3460933914834319,8.0,779.0],["FLG2",-0.08094402813617979,-1.9339565566227528,14.0,773.0],["GDPD5",-0.05939381201678089,-1.318619638482411,9.0,778.0],["GPAA1",-0.056373277538115864,-1.2434408858244277,8.0,779.0],["GPR158",-0.07763037015928383,-1.830047291647103,9.0,778.0],["INTS1",-0.08994880269442843,-2.232897176512509,11.0,776.0],["KLHL41",-0.07663041404176273,-1.7995065444829463,12.0,775.0],["L3MBTL1",-0.06066891570776941,-1.3511051354795356,8.0,779.0],["LPHN3",-0.07641119804937405,-1.792798094899342,11.0,776.0],["LRMP",-0.06830770231113723,-1.5561824074268151,11.0,776.0],["MAGEC1",-0.09058189883899664,-2.2549015842016624,12.0,775.0],["MAST3",-0.07620573687982807,-1.7864291774615075,8.0,779.0],["MFSD6",-0.0798145466756298,-1.8980522463699006,9.0,778.0],["MIPEP",-0.06736341675138532,-1.529787440328317,8.0,779.0],["MIS18BP1",-0.12194635319549696,-3.501678450532473,20.0,767.0],["MS4A6A",-0.09296413480243526,-2.338836463025389,18.0,769.0],["MYO1A",-0.06924739026885869,-1.582570614084812,10.0,777.0],["PACSIN2",-0.10577445319498502,-2.8197480795348824,11.0,776.0],["PAN2",-0.059788542712506054,-1.328637371319198,9.0,778.0],["PCOLCE",-0.07966456241902962,-1.8932861037331623,8.0,779.0],["PDGFRB",-0.060641021953421005,-1.3503884821467862,8.0,779.0],["PEAK1",-0.1024138858447162,-2.6885377432080086,11.0,776.0],["PLCG1",-0.06541085394699739,-1.4762914467825807,8.0,779.0],["QSER1",-0.07707854475722882,-1.8131730512865896,11.0,776.0],["RAB3C",-0.10788536240282594,-2.9042719581430183,22.0,765.0],["RARS2",-0.06973438587099931,-1.5962848434180772,8.0,779.0],["RINT1",-0.062454115986066996,-1.3974500193750843,8.0,779.0],["SH2D4A",-0.07034804846666412,-1.6137716381029357,8.0,779.0],["SHC1",-0.0710453923253741,-1.633780941758761,8.0,779.0],["SLC18A1",-0.05648485255550945,-1.2461688297311695,8.0,779.0],["SMC1B",-0.056317490029419055,-1.2420782794734024,8.0,779.0],["SOGA3",-0.06806076061009533,-1.5491700837791365,8.0,779.0],["STAG2",-0.1209381577948651,-3.456644679368106,16.0,771.0],["TBX4",-0.06047274258509637,-1.3461103523561664,9.0,778.0],["TGFBR1",-0.06624766657744939,-1.4990785525489658,8.0,779.0],["THOC1",-0.06393248496653217,-1.4365452863530712,8.0,779.0],["TJP3",-0.06281481137973235,-1.4069702070296788,9.0,778.0],["TRO",-0.11473529372765214,-3.187559077077439,33.0,754.0],["TRPC6",-0.05782375276423264,-1.2791885667587832,8.0,779.0],["TXNDC11",-0.10407093357145214,-2.7527443899502364,10.0,777.0],["UBA5",-0.06499898789607832,-1.4651954293901117,9.0,778.0],["UNC13B",-0.07331464788602195,-1.6999586599345085,9.0,778.0],["UNC5C",-0.1044866348681364,-2.769326968272879,23.0,764.0],["VILL",-0.06510402264916498,-1.4679886139097431,8.0,779.0],["ZNF518B",-0.056233808766373856,-1.2400360765815794,8.0,779.0],["ZNF558",-0.06773578738643952,-1.5401631851968995,9.0,778.0]]}}}
{"ccle_chromatin":{"corr":{"top":[],"bottom":[["H3K18ac0K23ac1",-0.2235037094650772,-9.241131205101333,752]]},"para":{"top":[],"bottom":[["H3K18ac0K23ac1",-0.2168186331158245,-8.724766596699592,752]]}}}
{"ccle_metabolomics":{"corr":{"top":[],"bottom":[]},"para":{"top":[["arginine",0.17129017071541827,-5.771336436695763,772],["C22:6 LPC",0.1282952944738382,-3.4534459925379823,772]],"bottom":[["5-adenosylhomocysteine",-0.12916137620216472,-3.4939378098553378,772]]}}}
{"ccle_rrbs_enhancer_clusters":{"corr":{"top":[["20-49304307-49307735-1_enh",0.8385293666518413,-208.7519608674055,788],["1-44498383-44501860-0_enh",0.40022746294956174,-18.397450161592207,460],["20-49307735-49311162-2_enh",0.627233315096445,-86.34312881925884,785],["20-49307735-49311162-0_enh",0.6931381578007622,-112.71528132934931,785],["20-49307735-49311162-1_enh",0.5701318961663825,-68.05681934190083,784],["20-49304307-49307735-0_enh",0.8108619412942987,-183.86619748657074,786]],"bottom":[]},"para":{"top":[["8-37681090-37684218-0_enh",0.3560026082995402,-22.864704956995872,742],["20-49304307-49307735-1_enh",0.8215930625244062,-193.2986320340946,788],["20-49307735-49311162-2_enh",0.579741358762905,-70.95621606938435,785],["20-49307735-49311162-0_enh",0.6155702866717639,-82.31985113818838,785],["20-49307735-49311162-1_enh",0.587980580792409,-73.35192399558038,784],["20-49304307-49307735-0_enh",0.7051853083620278,-118.476500416675,786]],"bottom":[]}}}
{"ccle_mirna":{"corr":{"top":[["hsa-miR-34a_miR00324.1",0.1625533935692563,-5.315482922463877,783],["hsa-miR-28-3p_miR00267.1",0.20315951770404403,-8.012666738440746,783],["hsa-miR-28-5p_miR00268.1",0.19594177121859727,-7.489041210335581,783]],"bottom":[["hsa-miR-144_miR00155.1",-0.21632412064100306,-9.018219697615368,783]]},"para":{"top":[["hsa-miR-28-3p_miR00267.1",0.15248251502354207,-4.7382691275731235,783],["hsa-miR-28-5p_miR00268.1",0.1612250069000115,-5.237299457862576,783],["hsa-miR-21_miR00238.1",0.21379527768568396,-8.81995195680682,783],["hsa-miR-222_miR00256.1",0.17290854648511744,-5.946469848881826,783]],"bottom":[]}}}
{"prism_primary_logfold":{"corr":{"top":[["halothane_BRD-A20550616-001-02-9::2.5::HTS",0.15631986892832123,-2.946789379454499,431],["2-TEDC_BRD-K89072800-001-01-8::2.5::HTS",0.147467160583754,-2.7777613852321417,452],["mezlocillin_BRD-K45114938-236-01-8::2.35::HTS",0.16242594723290502,-3.1285241043122087,428],["butein_BRD-K17497770-001-03-6::2.5::HTS",0.173422097318594,-3.6959301037712433,455],["4-hydroxy-phenazone_BRD-K49759007-001-11-9::2.5::HTS",0.14243899795590656,-2.633980935650266,455],["azilsartan_BRD-K81074237-001-02-3::2.5::HTS",0.13649426049252475,-2.4160289951960103,447],["bumetanide_BRD-K38197229-001-29-9::2.5::HTS",0.18093267600466578,-3.9826468536226045,455],["uric-acid_BRD-K01295354-001-02-8::2.5::HTS",0.14685891970361173,-2.77378623420849,455],["PACOCF3_BRD-K05677083-001-05-4::2.5::HTS",0.143731980181999,-2.5556135069192614,431],["pterostilbene_BRD-K53097745-001-01-5::2.5::HTS",0.13819970755330263,-2.5172537193945863,458]],"bottom":[["setipiprant_BRD-K24497734-001-01-6::2.499993902::MTS004",-0.16799086622206424,-3.4160550875401743,443],["teriflunomide_BRD-A42699921-001-02-8::2.5::HTS",-0.15162216226113323,-2.9396861135101418,457],["decoquinate_BRD-K17641316-001-04-8::2.500015146::MTS004",-0.14136020339083183,-2.5524841801778138,445],["nortriptyline_BRD-K91263825-003-21-4::2.5::HTS",-0.15876458262552617,-3.1695736142529496,455]]},"para":{"top":[["sorafenib_BRD-K23984367-075-15-2::2.5::HTS",0.15301078292754144,-2.9580948576360586,452],["lenvatinib_BRD-K39974922-001-04-3::2.5::HTS",0.16531304117114787,-3.347801272622192,447],["ostarine_BRD-K29735307-001-02-9::2.5::HTS",0.14913556822761967,-2.8631869469631526,458],["halothane_BRD-A20550616-001-02-9::2.5::HTS",0.17856006761639548,-3.711375087609053,431],["evans-blue_BRD-K24548560-342-02-1::2.5::HTS",0.13455112276934095,-2.4070598037831905,458],["butein_BRD-K17497770-001-03-6::2.5::HTS",0.18656046679705487,-4.205150026518947,455],["nifursol_BRD-K85757157-001-01-7::2.5::HTS",0.13404123323178374,-2.3745110230762965,454],["RSV604_BRD-K30159788-001-01-9::2.49998123::MTS004",0.1650651631088903,-3.3133721992182883,443],["dexfosfoserine_BRD-K30019776-003-01-5::2.5::HTS",0.1549504193385609,-2.902793841240967,431],["bumetanide_BRD-K38197229-001-29-9::2.5::HTS",0.14309600165755543,-2.654520176906782,455],["m-3M3FBS_BRD-K09635314-001-03-4::2.5::HTS",0.1618789693518745,-3.246827072406216,450],["cefoselis_BRD-K72339976-065-04-7::2.5::HTS",0.17510103282398057,-3.7302475007233484,451],["AZD6765_BRD-A94033181-001-01-4::2.5::HTS",0.14054964331416492,-2.561161587890772,452],["2-TEDC_BRD-K89072800-001-01-8::2.5::HTS",0.13758311832164657,-2.4711174974954178,452],["doxapram_BRD-A46179541-311-02-0::2.5::HTS",0.1616700153900533,-3.2457585449730395,451]],"bottom":[["liranaftate_BRD-K35775715-001-03-1::2.5::HTS",-0.1467109697551945,-2.7690444197316535,455],["IPI-145_BRD-K93468883-001-02-0::2.5::HTS",-0.17823575264551497,-3.893230103741897,457],["IPAG_BRD-K82421491-001-02-6::2.5::HTS",-0.15462551648573497,-3.0401223834764326,457]]}}}
{"prism_secondary_logfold":{"corr":{"top":[["tozasertib_BRD-K59369769-001-22-9::0.15625::MTS010::PROS003_PR500",0.1612798381793345,-2.8182585857023534,384],["monensin_BRD-A06627858-236-03-0::0.0390625::HTS002",0.19569296397732325,-2.5502745734877927,231],["sodium-tanshinone-ii-a-sulfonate_BRD-K84798689-236-02-9::0.625::HTS002",0.16151736538815564,-2.8875847151591927,394],["chloramphenicol-palmitate_BRD-K96424892-001-02-9::0.0390625::HTS002",0.21795836820701944,-3.556253753814164,274],["bardoxolone_BRD-K20545304-001-01-6::0.0024414::HTS002",0.2068688225691925,-2.5970178664796677,211],["cinacalcet_BRD-K73838513-003-05-5::0.625::HTS002",0.16888677138062086,-2.716048461630805,335],["etofylline-clofibrate_BRD-K49840922-001-05-1::0.15625::HTS002",0.17284093924826907,-2.407895364133569,277],["Ro-106-9920_BRD-A53134341-001-03-2::0.00061034::HTS002",0.17389091216719674,-3.2718034917386145,393],["chloramphenicol-palmitate_BRD-K96424892-001-02-9::0.625::HTS002",0.1894341922310062,-2.812844438148484,277]],"bottom":[["mocetinostat_BRD-K16485616-001-08-9::0.0390625::HTS002",-0.20618344157627894,-2.5720562415865627,210],["dexamethasone-acetate_BRD-K47635719-001-21-1::0.15625::HTS002",-0.20698936697871248,-3.7459983221472175,323],["motesanib_BRD-K99616396-001-05-1::0.00977::MTS010::PROS005_PR500",-0.17971775765787382,-3.4192268805469386,387],["PF-477736_BRD-K03063480-001-06-6::0.000590687::HTS002",-0.16626120081225132,-2.9423886220476705,380],["triamcinolone_BRD-K77554836-001-11-6::0.160818::HTS002",-0.17258591927342815,-3.229362489181167,393],["prednisolone_BRD-A27887842-001-04-0::0.15625::HTS002",-0.16606978204946748,-2.765332088464754,354],["NSC-632839_BRD-K81197548-003-01-4::0.0390625::HTS002",-0.17226848894221944,-3.268259573592076,400],["piperazine_BRD-K13249881-001-02-3::2.5::HTS002",-0.18371864928371462,-3.2341185277361513,347],["gefitinib_BRD-K64052750-001-17-5::0.0390625::HTS002",-0.19298575833821305,-3.3124195926589217,323]]},"para":{"top":[["monensin_BRD-A06627858-236-03-0::0.0390625::HTS002",0.18870503184128468,-2.3982888212866245,231],["UNC0631_BRD-K13060017-001-01-3::0.039062501::MTS006",0.15704364161476467,-2.752634729001743,394],["PHA-848125_BRD-K60997853-001-02-3::0.0390625::HTS002",0.161727354490798,-2.8066129962758,380],["golvatinib_BRD-K69001009-001-02-8::0.0024414::HTS002",0.16230721008464122,-1.730711177916758,210],["oligomycin-a_BRD-A81541225-001-06-8::0.0390625::HTS002",0.15893545014598548,-2.8454584428685874,400],["etofylline-clofibrate_BRD-K49840922-001-05-1::0.15625::HTS002",0.156440972059149,-2.0406104083924297,277],["chloramphenicol-palmitate_BRD-K96424892-001-02-9::0.0390625::HTS002",0.16629579307290054,-2.2371844205375004,274],["diazooxonorleucine_BRD-K38458514-001-01-8::10::HTS002",0.1762505915749318,-3.363988871668579,395],["methotrexate_BRD-A55424491-001-19-9::0.00061034::HTS002",0.17743008671004426,-2.516497093094281,277],["bardoxolone_BRD-K20545304-001-01-6::0.0024414::HTS002",0.18151086907538366,-2.085164611890725,211],["ecamsule-triethanolamine_BRD-A47953250-001-01-7::0.625::HTS002",0.16251104509186995,-2.6400678657819188,350]],"bottom":[["dexamethasone-acetate_BRD-K47635719-001-21-1::0.15625::HTS002",-0.2302228645530456,-4.53119493812026,323],["triamcinolone-acetonide_BRD-A92439610-001-05-7::0.625::HTS002",-0.19927442709732462,-2.831280559875899,252],["benzethonium_BRD-K72723676-003-17-8::0.0390625::HTS002",-0.20637836646033392,-2.3477355554329273,188],["halcinonide_BRD-A88138582-001-04-8::0.625::HTS002",-0.18349863868060806,-3.5935394553400446,393],["piperazine_BRD-K13249881-001-02-3::2.5::HTS002",-0.18598978891214696,-3.3039203665442165,347],["hexaminolevulinate_BRD-K73753850-003-01-6::0.009765625::MTS006",-0.20069999618449214,-4.239246808962187,396],["triamcinolone_BRD-K77554836-001-11-6::0.160818::HTS002",-0.19174036864724273,-3.882675432043097,393],["sulfasalazine_BRD-K10670311-001-15-5::0.0024414::HTS002",-0.1899027541838641,-1.6638088628424799,146],["gefitinib_BRD-K64052750-001-17-5::0.0390625::HTS002",-0.19835718195621266,-3.4752626493334233,323],["lacitol_BRD-K40787673-001-02-1::0.0390625::HTS002",-0.18517170257828838,-3.0831356506793375,323]]}}}
{"ccle_proteomics":{"corr":{"top":[["KDELR3_O43731",0.3331818235007744,-4.723816893628319,158],["SLC2A10_O95528",0.29484632425742086,-3.094855570453531,126],["DOCK9_H0Y572",0.3526691369743024,-3.7103604351688486,107],["SLC35B3_Q9H1N7",0.2787109484411153,-2.916526675354284,132],["PDLIM2_Q96JY6-5",0.3062332952029608,-7.2287729921054975,301],["ABHD17C_Q6PCB6",0.2735648407747562,-3.2420767998745665,155],["RNF135_Q8IUD6",0.2919515987334427,-3.5185969536094066,149],["PREX2_Q70Z35",0.36211187622134255,-3.961688880817588,109],["CAMK2G_Q5SWX3",0.35402014834665024,-3.7057641682443996,106],["CST6_Q15828",0.2753068399636879,-3.168505779828495,149]],"bottom":[["ZKSCAN8_Q15776",-0.2768145654473941,-4.850514589141103,239],["ZFP62_Q8NB50",-0.25326351004076236,-2.167604023236989,113],["OLFML3_Q9NRN5",-0.3129279307595624,-3.2756269242700213,119],["KIT_P10721",-0.30833199220395446,-2.9558556624440326,109],["DLL3_Q9NYJ7",-0.26685604547331265,-2.1737301181771485,102],["AGAP2_Q99490-2",-0.30188071052593385,-3.116223503185238,121],["WDR53_Q7Z5U6",-0.24659341639287422,-2.8069196936263294,162],["ZNF174_Q15697",-0.294976817226931,-3.054669466698511,124],["DNAJC12_Q9UKB3",-0.2624869241677349,-3.9091132754207707,209],["TAGLN3_Q9UI15",-0.3197376353693038,-4.424152190759091,160],["PPFIA3_O75145",-0.2531225960966773,-2.8752916951299516,158],["MYO7A_Q13402",-0.281422246307741,-2.360572979182631,101],["RLTPR_Q6F5E8",-0.2959712315754736,-3.7547739818538823,156]]},"para":{"top":[["KDELR3_O43731",0.32287730721678376,-4.454842011153814,158],["PI4K2B_Q8TCG2",0.2675803163049797,-5.09912186777459,271],["GRAMD3_Q96HH9-3",0.2905890040301604,-5.2272209704244315,235],["SLC2A10_O95528",0.32348885676253825,-3.6574939079947306,126],["BOK_Q9UMX3",0.29421727070954284,-3.2945281012598295,136],["DOCK9_H0Y572",0.3200879048603895,-3.1098117247006423,107],["PDLIM2_Q96JY6-5",0.3084117123026445,-7.327664337351514,301],["PREX2_Q70Z35",0.2729959780010172,-2.389558556763895,109],["KLHL36_Q8N4N3",0.31564134848413467,-5.204803925069548,197],["ABHD17C_Q6PCB6",0.297912312242651,-3.7781224968792833,155],["DRAM2_Q6UX65",0.2659861732761794,-2.5660217473526155,125],["RAB1B_Q9H0U4",0.2716169819467106,-5.381195249480663,279],["CAMK2G_Q5SWX3",0.3531507693508184,-3.6889530886666058,106],["PEX10_O60683",0.2701316230712466,-2.5096290110090793,118],["NAPEPLD_Q6IQ20",0.2942077722529202,-2.9555974743009377,120]],"bottom":[["KIAA0586_Q9BVV6-3",-0.31836990863827486,-3.9230461748422276,141],["PSMD4_Q5VWC4",-0.33424078762871795,-5.799982808513767,197],["ZKSCAN8_Q15776",-0.27771578127071206,-4.879662080761843,239],["KIF21B_O75037",-0.2823599636269639,-3.2367792370969455,145],["ZNF142_P52746",-0.2586797390073432,-2.3630952534453877,120],["KIT_P10721",-0.33805062146146536,-3.4891070738421526,109],["AGAP2_Q99490-2",-0.30205529160795447,-3.1194389306395385,121],["ZNF174_Q15697",-0.27125158084781015,-2.6365384057819066,124],["RBM26_Q5T8P6-4",-0.3025917578305579,-5.942081702385296,249]]}}}
{"depmap_copy_number":{"corr":{"top":[],"bottom":[]},"para":{"top":[["CTC-338M12.4_101928649",0.1984189304429474,-7.7114803717012865,788],["SNORD96A_619571",0.1984189304429474,-7.7114803717012865,788],["LMAN2_10960",0.1994720689008121,-7.78811776087197,788],["PRELID1_27166",0.1994720689008121,-7.78811776087197,788],["BTNL9_153579",0.1997808752605513,-7.810668729040563,788],["RAB24_53917",0.1994720689008121,-7.78811776087197,788],["CNOT6_57472",0.19834006655187325,-7.7057581620414455,788],["OR2V2_285659",0.19816710742829097,-7.693216754878704,788],["MIR8089_102465882",0.1997808752605513,-7.810668729040563,788],["TRIM52-AS1_100507602",0.19834232115363265,-7.70592171913858,788],["TRIM41_90933",0.1981137852025565,-7.689352579325889,788],["OR2Y1_134083",0.20163345764074536,-7.94670898774754,788],["MXD3_83463",0.1994720689008121,-7.78811776087197,788],["MIR4638_100616342",0.1981137852025565,-7.689352579325889,788],["SNORD95_619570",0.1984189304429474,-7.7114803717012865,788],["LINC02222_105377765",0.19877239142097794,-7.737155475802043,788]],"bottom":[]}}}
{"depmap_gene_tpm":{"corr":{"top":[],"bottom":[["KLF1_10661",-0.26958116392476317,-13.794412001326206,784],["RIPOR3_140876",-0.3561534830487843,-24.133515473561264,784]]},"para":{"top":[["PSORS1C1_170679",0.29512813321944315,-16.49507726656539,784],["AGPAT2_10555",0.2689717219256763,-13.73336971445858,784],["CTNNA1_1495",0.24276313434015456,-11.252957367498333,784],["ELFN2_114794",0.2698972849331179,-13.82613615258626,784],["CLDN23_137075",0.25112459147254773,-12.013903848314294,784]],"bottom":[["AGAP2_116986",-0.2628194329212533,-13.125811913435493,784],["CKM_1158",-0.26838172187333925,-13.674422572633246,784]]}}}
{"avana":{"corr":{"top":[["NFS1_9054",0.20717012285104525,-4.917424601129468,439],["KIN_22944",0.20992737121156363,-5.036770494609968,439],["GRPEL1_80273",0.18822010324303637,-4.139655131801787,439],["SPATS2_65244",0.1794283236112778,-3.803595359428979,439],["TAOK1_57551",0.18600039256119533,-4.053342186199617,439],["PLPPR1_54886",0.17540792129217783,-3.6550664579692795,439],["ENC1_8507",0.17637966030149835,-3.690671896563409,439],["RRM2_6241",0.19064320235231663,-4.235013937745142,439],["CNTRL_11064",0.19104904139195172,-4.251101708632574,439]],"bottom":[["ZNRD1_30834",-0.24394004380551326,-6.586889250080532,435],["ADAMTS19_171019",-0.1792481952609005,-3.7968719186129776,439],["PCDHA4_56144",-0.19824933896305477,-4.54210646063574,439],["GPS2_2874",-0.1730646117492591,-3.5417891350529986,435],["CHD1_1105",-0.20499761870907837,-4.785387115335716,435],["ELOA2_51224",-0.20467520121926341,-4.810798072159935,439],["PTPN1_5770",-0.2082292318014095,-4.96307985396071,439],["GPD1L_23171",-0.17982072445208433,-3.81826444879216,439],["CRKL_1399",-0.19542697117914257,-4.426776663494142,439],["VEZT_55591",-0.21480334488938396,-5.251721459339911,439],["ELOA3D_100506888",-0.20655766194786962,-4.891129740207322,439]]},"para":{"top":[["LDLRAD2_401944",0.18026915338354582,-3.835065647464389,439],["NOB1_28987",0.18086948504269898,-3.857621013379379,439],["SPPL3_121665",0.17542531004911124,-3.6557019534289825,439],["ZNF684_127396",0.17424695617903355,-3.612772895172826,439],["KIN_22944",0.17923035785791308,-3.796206474666616,439],["LRRFIP2_9209",0.18809523888529403,-4.134773404962147,439],["LUC7L3_51747",0.1786724540670715,-3.775425265225461,439],["SAP30BP_29115",0.17402689377493255,-3.604786169351077,439],["SPATS2_65244",0.22097258539180822,-5.530872653826574,439],["CNIH4_29097",0.1817636369675657,-3.8913491950638974,439],["CRMP1_1400",0.1714894457428024,-3.513385525075189,439],["DYSF_8291",0.19460023674974558,-4.3933026819051655,439],["DOK2_9046",0.17857930561547367,-3.771961643977684,439]],"bottom":[["MBD1_4152",-0.17608536007193934,-3.650732342136975,435],["ELOA3D_100506888",-0.18550318584673847,-4.034144597979451,439],["ILK_3611",-0.18591808964685316,-4.050160959993297,439],["ZNRD1_30834",-0.2086446754265995,-4.940560949978048,435],["RPS6KA3_6197",-0.18321875761587783,-3.7339881552537624,412],["HPR_3250",-0.18149818197495887,-3.881319314692486,439],["ACTR10_55860",-0.18114247681488196,-3.867901544336937,439],["NOC2L_26155",-0.17489411829496626,-3.6075565950966637,435],["CRKL_1399",-0.18717463240782056,-4.098878370165533,439],["COPS4_51138",-0.18277522457114212,-3.9297000620312224,439],["VEZT_55591",-0.24787772707692934,-6.844155386485314,439],["MXD3_83463",-0.18315784202635157,-3.944259131008722,439],["DCTN6_10671",-0.1854038000015853,-4.030313191775734,439],["SLC39A10_57181",-0.1746231675737659,-3.626448925239872,439],["TMEM41A_90407",-0.1947799199264427,-4.4005660713461205,439]]}}}
{"drive":{"corr":{"top":[["ALDOB_229",0.22210901086669008,-3.933679167247504,296],["CHST5_23563",0.21726028314030552,-3.7822246701361713,296],["BCDIN3D_144233",0.22329190642903365,-3.99466870234381,298],["INSR_3643",0.22583924932656593,-4.052464733660509,296],["ANKRD65_441869",0.21880239412332222,-3.8300339863715838,296],["PPIG_9360",0.254891272051642,-5.046599047427938,296],["KCNK17_89822",0.22046123887463526,-3.881836810847253,296],["MYOC_4653",0.23859438614240042,-4.473727200337119,296],["RRM2B_50484",0.20770948286663213,-3.6263832297654,309],["NOMO2&NOMO3_283820&408050",0.220943178133665,-3.9661051563451517,302],["KCNT1_57582",0.23940029790831208,-4.501136137381191,296],["OLFML2B_25903",0.25791833986323215,-5.18862118259733,298],["CLK3_1198",0.2312409918707851,-4.228002079414736,296]],"bottom":[["ATP6V1A_523",-0.19308872251407014,-3.076005664102941,296],["ATP2A1_487",-0.20508306573944252,-3.416379617973272,296],["GTF2H2C&GTF2H2C_2_728340&730394",-0.2512438079034142,-4.914955804247608,296],["TSSK1B_83942",-0.267160352043074,-5.504169907636116,296],["TLN1_7094",-0.22708318305736294,-4.092517538119441,296],["RAC1_5879",-0.19550554803603246,-3.1612283692838514,298],["PTPN1_5770",-0.21572317047398,-3.7349032046338353,296],["ITGB5_3693",-0.21783914016901582,-3.8001314292280024,296],["RHOG_391",-0.19843261043522983,-3.2252307944812633,296]]},"para":{"top":[["ALDOB_229",0.2118301014905148,-3.6165323388648347,296],["IGSF8_93185",0.20975502654015837,-3.5543024467215645,296],["MED25_81857",0.21674963973667027,-3.7664672083935433,296],["TRRAP_8295",0.24328310271364587,-4.815337271321789,309],["RER1_11079",0.21930346168333367,-3.845640491376522,296],["SUSD2_56241",0.22506687516529045,-4.027706633615365,296],["KCNK17_89822",0.21609395364065742,-3.7462877460899815,296],["KCNT1_57582",0.22643040893659394,-4.0714716144122205,296],["RRM2B_50484",0.21110844291106853,-3.7318920260836275,309],["SRSF2_6427",0.23032416240430503,-4.3228507314905045,306],["MIXL1_83881",0.24435408667838723,-4.699786808522923,298],["CDC34_997",0.2139977487006597,-3.6821793006781265,296],["SLIRP_81892",0.21598210113734334,-3.742851389930637,296],["OLFML2B_25903",0.21181157529358718,-3.637219330688492,298],["CLK3_1198",0.2224442259576006,-3.944272842743489,296]],"bottom":[["NFASC_23114",-0.19191539687473685,-3.0437587320289685,296],["GTF2H2C&GTF2H2C_2_728340&730394",-0.2118732352281531,-3.6178322457347303,296],["TSSK1B_83942",-0.24212258528776873,-4.594423617471299,296],["ITGAV_3685",-0.24567066056944528,-4.717644251620793,296],["TLN1_7094",-0.20391682840804748,-3.3824206612668095,296],["RAC1_5879",-0.1930427563315698,-3.0925172738859716,298],["ZNF850_342892",-0.19119694549915386,-3.0415606995419298,298],["ITGB5_3693",-0.19875001775740753,-3.234216300389852,296],["ATP6V1A_523",-0.2288318538944267,-4.149196571583103,296],["SLC22A23_63027",-0.21037652277739385,-3.67763941185082,306]]}}}
{"achilles":{"corr":{"top":[["EMILIN1_11117",0.2980305164643737,-4.846421010811042,205],["APEX2_27301",0.2730795692181629,-3.087023394452418,147],["MAOA_4128",0.26638882209094616,-6.405021321452085,352],["ATP11AUN_400165",0.2684537362131169,-4.002254708566225,205],["RBM11_54033",0.2848004663515576,-4.457065925861032,205],["APC2_10297",0.3591889619077886,-6.909958902879091,205],["DAB1_1600",0.26391848950374536,-6.294159383730911,352],["DNAAF4_161582",0.2739145225564666,-4.151011394353583,205],["DSTN_11034",0.2712833986417209,-4.078942828749666,205],["TCEAL4_79921",0.2884025347464491,-4.5611637268186405,205],["TMEM101_84336",0.2656107537383263,-3.9260552922721015,205],["ISOC1_51015",0.26671433735306,-3.955533403704581,205]],"bottom":[["OLFM2_93145",-0.22298547739664368,-2.8826139446401076,205],["RPN2_6185",-0.2561906779489583,-3.6795995297872537,205],["C19orf53_28974",-0.2530679879320141,-3.5999245258163497,205],["FIBP_9158",-0.25517184381746694,-3.6534941231632327,205],["NPM3_10360",-0.22728784779253483,-2.979723434099152,205],["MSL2_55167",-0.2238234396734593,-4.647306722376583,352],["PGAP1_80055",-0.2552054189090224,-5.912011319689272,352],["FSCN2_25794",-0.2985579063940803,-4.862344205996518,205],["GSPT1_2935",-0.25447554051984467,-3.6357142061627923,205]]},"para":{"top":[["EMILIN1_11117",0.3130191806939132,-5.31122406865596,205],["HS1BP3_64342",0.2366478772596064,-3.197244024658427,205],["APC2_10297",0.3569092916617565,-6.824833451393135,205],["DAB1_1600",0.2631779989635237,-6.261145661889326,352],["C7orf49_78996",0.27029460552113344,-4.052048846480745,205],["CLVS2_134829",0.2465601278487997,-3.4370760918450185,205],["DSTN_11034",0.25122535627848047,-3.55337836260383,205],["PTGES2-AS1_389791",0.2830737096477266,-4.407665119310693,205],["TMEM101_84336",0.26076719411070104,-3.7981833197625283,205],["STRIP2_57464",0.23867067491539087,-3.2453892963530637,205],["FKBP8_23770",0.23916323320192584,-5.243981039434849,352],["SMG7_9887",0.24367551085862335,-3.366265249356862,205],["CNPY4_245812",0.24625476532574814,-3.4295404191587466,205]],"bottom":[["ZNF470_388566",-0.22377120060168343,-2.9002145556929815,205],["C19orf53_28974",-0.2826372041456179,-4.395228392774601,205],["CEP135_9662",-0.2662238088233755,-3.9424149934877395,205],["NPM3_10360",-0.230053171415846,-3.0430919592279477,205],["TLN1_7094",-0.2403347120971139,-3.2853009433769227,205],["MINDY2_54629",-0.22600850139042133,-2.9506591875741006,205],["SURF6_6838",-0.264921945354248,-3.9077210563966167,205],["BTNL3_10917",-0.2665195300968114,-6.410918315873647,352],["DMXL1_1657",-0.23225350908102127,-3.094048790327614,205],["SORBS3_10174",-0.23010147929962277,-3.044205603220016,205],["FSCN2_25794",-0.31027317030180124,-5.224152304850275,205],["MSL2_55167",-0.22577905769640333,-4.721123947168553,352],["LOC100506248_100506248",-0.2617685137226933,-3.8244181192353923,205]]}}}
{"ccle_rrbs_tss1kb":{"corr":{"top":[["RIPOR3_20_49308067_49309067",0.41863057959228445,-33.634807584789165,778],["USP44_12_95945266_95946266",0.3887443488894484,-28.4929606587082,771],["CDSN_6_31088252_31089252",0.4184492427047451,-33.35115140160589,772],["NHLRC4_16_615994_616994",0.42319927515905864,-34.427091318571534,778],["LOC692247_11_558476_559476",0.45108893921953264,-39.485818823936356,777],["LOC692247_11_558261_559261",0.45398503687563113,-40.04328285011168,777]],"bottom":[["FANCE_6_35419137_35420137",-0.1560487607390479,-2.909080186138519,426]]},"para":{"top":[["DKFZP434K028_11_61525136_61526136",0.396226107761106,-29.809864396779023,775],["RIPOR3_20_49308067_49309067",0.40437863475294633,-31.240390241187317,778],["NHLRC4_16_615994_616994",0.41127590752906035,-32.38475433096577,778],["LOC692247_11_558261_559261",0.4449441602004827,-38.32064262581458,777],["LOC284865_22_20192441_20193441",0.4162299961986205,-33.05701248737978,774],["LOC692247_11_558476_559476",0.4424037381074843,-37.845843532775,777]],"bottom":[]}}}
{"ccle_gene_tpm":{"corr":{"top":[["LPP-AS2_ENSG00000270959.1",0.2559653401340681,-12.422413125218506,781]],"bottom":[["RP11-159H10.1_ENSG00000255107.1",-0.25869019611270216,-12.680891257073048,781],["FAM65C_ENSG00000042062.7",-0.35598275051415185,-24.02057479810654,781],["KLF1_ENSG00000105610.4",-0.2700765521018945,-13.793996782357006,781]]},"para":{"top":[["ELFN2_ENSG00000166897.10",0.26934546887051913,-13.72091513769401,781],["None_ENSG00000272808.1",0.2644334835502394,-13.23565294519513,781],["PSORS1C1_ENSG00000204540.6",0.2956827535303381,-16.496419675941922,781],["CLDN23_ENSG00000253958.1",0.24733231295522584,-11.62336977874565,781],["AGPAT2_ENSG00000169692.8",0.267173685873349,-13.505127606208456,781]],"bottom":[["AGAP2_ENSG00000135439.7",-0.26361097745178647,-13.155372295460499,781],["CKM_ENSG00000104879.4",-0.2729192886240596,-14.080287388894213,781],["RP11-297C4.1_ENSG00000261332.1",-0.27662610853397396,-14.458689302965789,781]]}}}
{"ccle_rrbs_tss_clusters":{"corr":{"top":[["LOC692247_1",0.4913558424574396,-48.400851491791386,788],["RIPOR3_2",0.6931381578007622,-112.71528132934931,785],["RIPOR3_3",0.6193791885470779,-83.9312008073976,788],["PDE6G_8",0.4671154776644015,-43.23000622297173,788],["LOC100128770_2",0.45419170969033396,-40.587716733849284,787],["RIPOR3_1",0.956269316231961,-323.0051853474518,788],["PDE6G_1",0.45542331054539353,-40.728145425026675,785]],"bottom":[]},"para":{"top":[["LOC692247_1",0.466406473187286,-43.084920131150405,788],["LOC284865_1",0.44620894128513233,-39.09188321151282,788],["BIRC7_2",0.433635605258867,-36.73823689582487,788],["RIPOR3_2",0.6155702866717639,-82.31985113818838,785],["RIPOR3_3",0.6002783097293618,-77.5856139649437,788],["SHH_5",0.4462899172110646,-39.01035365073926,786],["RIPOR3_1",0.9159710799341174,-313.22852831551825,788],["PDE6G_1",0.4318218581931867,-36.271535988220684,785]],"bottom":[]}}}
{"ccle_rrbs_cgi_clusters":{"corr":{"top":[["9_132112330_132116703-1",0.4566205737496087,-41.014729540221126,786],["2_96312995_96317230-1",0.4407799674415175,-36.64784641754334,758],["4_1027205_1031633-1",0.455736552340348,-40.942162421100264,788],["19_45409720_45414600-3",0.45043218348706704,-39.70676201946495,784],["16_3077536_3081954-1",0.4441235106555208,-38.69464867085024,788],["11_558382_560890-1",0.45500221016541215,-40.74681554831898,787],["19_8405674_8410338-2",0.4749835133948809,-44.863137304546996,788]],"bottom":[["8_41557255_41561609-2",-0.19707800889343677,-7.605639686012472,787]]},"para":{"top":[["10_72216130_72220484-3",0.4542867989589775,-40.60636031648776,787],["7_155602725_155607095-3",0.4462899172110646,-39.01035365073926,786],["9_132112330_132116703-1",0.44988759305539455,-39.70058812533392,786],["12_49626287_49630521-1",0.4341904805700367,-36.748765981158805,786],["16_612792_617095-3",0.44521533661842744,-38.90227663961788,788],["11_558382_560890-1",0.44455158110442367,-38.727878000072984,787]],"bottom":[["7_57925782_57928465-2",-0.18441465922694528,-2.784877595126832,289]]}}}
