{"depmap_hotspot":{"corr":{"top":[["ACP5",0.11066828544249807,-3.0515900253938826,11.0,888.0],["ACTR8",0.10911865635606739,-2.9791231230626853,34.0,865.0],["ADAM10",0.11427348761474854,-3.2237204803404422,37.0,862.0],["AL021546.6",0.12293809888648151,-3.6577829857720774,12.0,887.0],["ANKRD45",0.1268613801165704,-3.8638606888536007,17.0,882.0],["AP1M2",0.12076444968354881,-3.546175124562907,28.0,871.0],["AQPEP",0.12575118442630098,-3.8049391893269897,74.0,825.0],["BFSP2",0.12456311164141927,-3.7424150844977957,25.0,874.0],["BHLHE41",0.10936339506269172,-2.990507466116443,29.0,870.0],["BRF2",0.1142978805476935,-3.224902013992288,8.0,891.0],["C17orf64",0.14084727444748468,-4.64747169472569,16.0,883.0],["C2orf50",0.13441730959696876,-4.277659290965825,9.0,890.0],["C4orf17",0.11171908326549228,-3.1012489145545477,18.0,881.0],["C8A",0.1631191294254659,-6.056147382429052,69.0,830.0],["CCIN",0.1073691220696296,-2.898402469125802,34.0,865.0],["CCL8",0.11006220654689565,-3.023138734357532,9.0,890.0],["CDC73",0.12293963993845745,-3.6578627605158935,31.0,868.0],["CHIA",0.13141964429535294,-4.110818574260887,40.0,859.0],["CHRM2",0.11173647649516527,-3.102074424389839,53.0,846.0],["CNOT1",0.10809714880720889,-2.9318515832250456,97.0,802.0],["CPEB4",0.11948288982376794,-3.4812271024730053,37.0,862.0],["CYTIP",0.10895299841929997,-2.971430220942633,30.0,869.0],["DIO1",0.10783598378113154,-2.919829305371703,18.0,881.0],["EARS2",0.12118063900583581,-3.567403413493638,26.0,873.0],["ERCC5",0.10817195345897011,-2.9352998440260274,55.0,844.0],["ESCO2",0.11676064171357985,-3.345364311553941,27.0,872.0],["FBXO41",0.11897000671557664,-3.4554120774070074,52.0,847.0],["GRHL1",0.11411653954992988,-3.216123741854784,34.0,865.0],["HIST1H2BL",0.1168200034333455,-3.3482965892827146,14.0,885.0],["HNRNPA3",0.11984248213037572,-3.4993869371874897,27.0,872.0],["IL2",0.12409619423819239,-3.7179928176670205,11.0,888.0],["IQCE",0.12962615758284043,-4.012682611855629,42.0,857.0],["KAT7",0.1336462798719258,-4.234409118092417,34.0,865.0],["KIAA1430",0.10837772356683967,-2.944796138164934,31.0,868.0],["KIAA2013",0.10939679419586655,-2.992062833108531,52.0,847.0],["LPXN",0.11839268686153905,-3.426474872522034,27.0,872.0],["MAGEE1",0.11917286487397283,-3.4656104608653924,67.0,832.0],["MAP2K3",0.13093144222566447,-4.0839804665700905,52.0,847.0],["MEF2C",0.11562661282369206,-3.289606420792349,36.0,863.0],["MELK",0.11200598228073834,-3.1148803146870243,42.0,857.0],["MVK",0.10932081058721811,-2.988524960082594,26.0,873.0],["NPAS4",0.12128216065263596,-3.5725918056133823,57.0,842.0],["PABPN1",0.11678628999278225,-3.3466310880374284,16.0,883.0],["POU5F2",0.12662813745416984,-3.851441999842623,32.0,867.0],["PPAN-P2RY11",0.12701499294145546,-3.8720511604193075,16.0,883.0],["RNGTT",0.14430521463236504,-4.853125838842307,31.0,868.0],["RSPO1",0.13990271995684286,-4.592122143171285,25.0,874.0],["SLC2A11",0.11532134615546207,-3.274681261505475,28.0,871.0],["SLC35F3",0.11307372000044645,-3.165887249701319,46.0,853.0],["SLC43A1",0.12349347030477066,-3.6865921235920056,25.0,874.0],["SNX11",0.11752743337291717,-3.383345452859282,9.0,890.0],["SPHKAP",0.1243451265564884,-3.731002780203138,142.0,757.0],["SRPRB",0.11543475702062493,-3.2802220021847854,9.0,890.0],["STRN4",0.10749904413009602,-2.904357019798935,37.0,862.0],["STX16-NPEPL1",0.12036738039121828,-3.525984386042008,17.0,882.0],["SYTL4",0.11104090429106493,-3.0691512727675128,39.0,860.0],["TGFBR1",0.11246365584606831,-3.136690626322709,42.0,857.0],["THOC2",0.11865128217809101,-3.439420680780601,59.0,840.0],["TRPC4AP",0.11178187408014482,-3.1042296074458715,34.0,865.0],["UROD",0.1153147255118351,-3.2743579590112724,16.0,883.0],["USP27X",0.14633817925754924,-4.9762560201786625,21.0,878.0],["USP46",0.10761896260147122,-2.9098587571175876,23.0,876.0],["ZNF789",0.10892190510373374,-2.9699874548316485,23.0,876.0],["ZNF790",0.12211358957502304,-3.61523286257633,31.0,868.0]],"bottom":[["ACBD3",-0.07320405055302247,-1.550082410187379,23.0,876.0],["ACSM5",-0.0790083389853739,-1.7490976113114014,47.0,852.0],["ADAMTS10",-0.07030954705504502,-1.4553225449021185,74.0,825.0],["ADM",-0.07285279969579414,-1.5384247690121515,12.0,887.0],["ADSS",-0.0779144641584524,-1.7106682767728831,24.0,875.0],["ANGPT2",-0.07147876240254084,-1.4932427531373837,16.0,883.0],["B3GALNT2",-0.0711036593924683,-1.481024650182545,26.0,873.0],["B3GAT2",-0.08167589346856594,-1.8446203377643433,27.0,872.0],["BCL10",-0.07441668360888569,-1.5906657772186483,16.0,883.0],["C7orf50",-0.0874877968049,-2.0616748881467917,18.0,881.0],["C7orf76",-0.0731064763443937,-1.5468396271424552,18.0,881.0],["CATSPER1",-0.07212822205404655,-1.5145152526703973,40.0,859.0],["CCDC155",-0.07005173072973389,-1.44702602837481,32.0,867.0],["CD276",-0.08802196983594308,-2.0822425923375856,37.0,862.0],["CD38",-0.07035905525757594,-1.45691840343565,13.0,886.0],["CHST14",-0.07032952789996424,-1.455966507735418,23.0,876.0],["DCAF15",-0.07617880087036656,-1.6505735822087904,42.0,857.0],["FA2H",-0.08746138581225918,-2.0606606736221003,25.0,874.0],["FFAR2",-0.07310996705520734,-1.5469555791097982,20.0,879.0],["GPR133",-0.07335027058288993,-1.554948227236158,52.0,847.0],["GPR183",-0.07720117137648924,-1.6858408639483202,17.0,882.0],["GRB2",-0.0710846600255429,-1.4804071155811882,19.0,880.0],["GSN",-0.07559378918252548,-1.630561562106616,45.0,854.0],["HADH",-0.08734768428443983,-2.056297309885259,24.0,875.0],["IFNGR2",-0.07694830837826831,-1.6770833433461316,28.0,871.0],["ITFG3",-0.07332164965574961,-1.5539951997384454,36.0,863.0],["LRG1",-0.08933326664166728,-2.133175933253038,20.0,879.0],["LRRC14",-0.07723596588511411,-1.6870477126667571,40.0,859.0],["MED20",-0.07289368589729012,-1.5397794834692522,15.0,884.0],["MGAT4B",-0.07749049210656694,-1.695889171109323,34.0,865.0],["NAA30",-0.08099730595445367,-1.8200770447473247,21.0,878.0],["NGRN",-0.07972201637361709,-1.7744022066659078,17.0,882.0],["NPIPB11",-0.07193709069988105,-1.508239380110478,32.0,867.0],["NUDT16L1",-0.07583444436497756,-1.6387790514746852,16.0,883.0],["NUDT8",-0.07010165504709344,-1.4486307578420792,11.0,888.0],["OGFR",-0.07305561041504352,-1.545150490052242,49.0,850.0],["OR9Q1",-0.0801344698359372,-1.7891101195631023,33.0,866.0],["OVOL1",-0.07315247348257957,-1.5483678751453933,15.0,884.0],["PHLPP1",-0.07445691967667818,-1.5920213420091889,62.0,837.0],["POLR2C",-0.08203800690348946,-1.8577855078618548,13.0,886.0],["PSTPIP1",-0.08332467810909283,-1.9049487222750179,37.0,862.0],["RAB20",-0.07542387591461747,-1.6247721165288276,10.0,889.0],["RPL3",-0.07602182512522832,-1.6451917555942046,21.0,878.0],["SERINC4",-0.07013549833964385,-1.449719091520586,23.0,876.0],["SLC12A8",-0.07741810438782486,-1.6933722792024326,51.0,848.0],["SLC22A31",-0.0899062628292034,-2.1556303472817446,28.0,871.0],["SOX12",-0.07180201184933137,-1.5038118256484618,19.0,880.0],["SPATA2L",-0.08569328037798268,-1.9933431189046424,26.0,873.0],["SPG21",-0.07566480105005771,-1.6329842028707615,20.0,879.0],["ST3GAL1",-0.07478755165751026,-1.6031822939581435,19.0,880.0],["STPG1",-0.08055646268720781,-1.8042217260820832,23.0,876.0],["SYCP3",-0.07769974323032755,-1.7031753236946596,12.0,887.0],["TMEM189-UBE2V1",-0.07106164957068274,-1.4796593800194693,17.0,882.0],["TSC22D2",-0.07640353379052849,-1.6582937760406167,39.0,860.0],["UBE2W",-0.07322619389076021,-1.5508187935572426,13.0,886.0],["UCP2",-0.07553489781479997,-1.6285537914678128,29.0,870.0],["UGT1A6",-0.08635583692492291,-2.0184350402900786,32.0,867.0],["ULBP3",-0.0710849882116757,-1.4804177814993407,16.0,883.0],["WWC3",-0.07049571206458077,-1.4613279241335995,52.0,847.0],["XPR1",-0.07326689339368027,-1.5521727225405186,29.0,870.0],["XXYLT1",-0.07691085955801803,-1.675788309877729,23.0,876.0],["ZFYVE20",-0.07654282440066953,-1.6630878680562573,44.0,855.0],["ZNF557",-0.07769317113923918,-1.7029462435234832,26.0,873.0],["ZSCAN2",-0.07419709996220437,-1.5832781091877013,25.0,874.0]]},"para":{"top":[["AL021546.6",0.09527725461817116,-2.666615919138996,12.0,887.0],["AP001055.1",0.08191640044701738,-2.151270879294667,15.0,884.0],["ATP5S",0.09704847548612304,-2.739783979835992,13.0,886.0],["BEX5",0.07732171186252554,-1.9885743053506264,10.0,889.0],["BRF2",0.06330293182620375,-1.538191452840847,8.0,891.0],["C10orf35",0.07052268655005821,-1.7616041956035007,9.0,890.0],["C11orf74",0.09392153535543553,-2.611366296936429,11.0,888.0],["C12orf29",0.0702559596141531,-1.753096009019404,11.0,888.0],["C2orf50",0.0765933207402647,-1.963449779159246,9.0,890.0],["C2orf68",0.09018784120117068,-2.4628459377599015,16.0,883.0],["C4orf26",0.07068482507239708,-1.7668934989486254,11.0,888.0],["CCL8",0.07103933626837367,-1.7782813713563541,9.0,890.0],["CD300LF",0.08070468168773413,-2.1075746942677878,11.0,888.0],["COX16",0.07491420915573949,-1.9063293487859614,9.0,890.0],["CSN3",0.08847506649587991,-2.3963067531229587,15.0,884.0],["DEFB121",0.10086480125155756,-2.901016069350558,8.0,891.0],["DIO1",0.10948316365508899,-3.2853956258213044,18.0,881.0],["DTD2",0.06466732307581649,-1.5790651168520171,9.0,890.0],["FAIM",0.07056786176560327,-1.7631242007137728,11.0,888.0],["FAM107B",0.09139916429227243,-2.5105608448028187,18.0,881.0],["FAM150B",0.07123242271478962,-1.7845734177125328,10.0,889.0],["FAM159A",0.07060879483644414,-1.764377272853961,9.0,890.0],["FAM159B",0.0664325429467276,-1.632847211959994,9.0,890.0],["GRASP",0.08027795567363875,-2.0924231831183397,14.0,885.0],["GSG1",0.07245845408681698,-1.8246042888930445,10.0,889.0],["GYPC",0.08050928027499889,-2.1004743326854425,8.0,891.0],["HIST1H2BL",0.08481284665822118,-2.257573827823914,14.0,885.0],["HSD17B10",0.08247104362504042,-2.171265690208275,10.0,889.0],["IL10",0.07204977696280786,-1.8112024054358853,10.0,889.0],["IL2",0.07645501487422542,-1.9587770942091742,11.0,888.0],["KCNK15",0.08206119692576981,-2.1563416019512833,9.0,890.0],["LSM10",0.08000290184697124,-2.082563161550982,11.0,888.0],["MAGEH1",0.06882122768313578,-1.707372645034066,10.0,889.0],["MAP3K7CL",0.07766363571109487,-2.0004477493883535,11.0,888.0],["MEGT1",0.08279311736005002,-2.182964402335841,9.0,890.0],["MRPL27",0.07383785557591567,-1.8702338504162412,9.0,890.0],["NMS",0.07150356821995384,-1.7934119638484174,11.0,888.0],["PABPN1",0.10513269914284565,-3.0881058234718077,16.0,883.0],["POLR2D",0.08322144114041351,-2.1988081953724414,15.0,884.0],["PPAN-P2RY11",0.09903804991717342,-2.8233644596561196,16.0,883.0],["PPP3R2",0.07437923656965982,-1.888374982717573,10.0,889.0],["RAB24",0.07799907028910037,-2.0119882087816454,8.0,891.0],["RASSF3",0.06726825461190115,-1.6587182643616862,10.0,889.0],["RNF139",0.09419710772964963,-2.622722695030392,19.0,880.0],["RP11-347C12.1",0.06910730166994217,-1.7164264532786162,10.0,889.0],["RP11-385D13.1",0.06939337565674857,-1.7255086608917876,10.0,889.0],["RP11-514P8.7",0.0769493461131792,-1.9756439036362095,8.0,891.0],["RP11-520P18.5",0.0911025669962901,-2.4985918991856035,9.0,890.0],["RSPO1",0.11198755450555187,-3.4021877365072295,25.0,874.0],["SEP15",0.06316601128151839,-1.5341288570458493,8.0,891.0],["SFTA3",0.07311557086198876,-1.8461966529307428,8.0,891.0],["SMS",0.08352260437735107,-2.209864211176245,15.0,884.0],["SNX11",0.06337569878002788,-1.5403915796857008,9.0,890.0],["SPANXD",0.07197142144712906,-1.808670258268251,11.0,888.0],["STX16-NPEPL1",0.09667043370776918,-2.724170536295145,17.0,882.0],["TMEM186",0.06690613852185007,-1.6474593993815447,9.0,890.0],["TREH",0.09275190228749737,-2.5642610082874753,11.0,888.0],["UBE2B",0.08470749254175311,-2.2536033980492367,12.0,887.0],["UBE2K",0.0639354026415363,-1.557079763363605,9.0,890.0],["UCHL3",0.07397055944565073,-1.8746986480706394,10.0,889.0],["USP27X",0.10272659051158811,-2.9820647666544393,21.0,878.0],["USP46",0.10117533023496375,-2.914782530161699,23.0,876.0],["WDR83OS",0.061979366560911825,-1.4991887204357568,8.0,891.0],["ZBTB6",0.07993178078931949,-2.0801156697940333,14.0,885.0]],"bottom":[["AC008132.13",-0.085454386630307,-2.281410247606414,10.0,889.0],["ACER2",-0.08861103866065544,-2.4015020126400946,13.0,886.0],["ADM",-0.09570676791809626,-2.6842475712490823,12.0,887.0],["AQP6",-0.08893417453907765,-2.413986786541634,13.0,886.0],["ARL10",-0.07862947865935468,-2.034084844972996,10.0,889.0],["ATP5D",-0.08320205098714453,-2.197874314700955,8.0,891.0],["BCAS4",-0.07655026659707173,-1.9619727802815699,9.0,890.0],["C15orf61",-0.07005767869734882,-1.7466319956407892,8.0,891.0],["C1orf189",-0.06887103397674225,-1.7088714551127957,8.0,891.0],["C22orf15",-0.0794139159175159,-2.0615885659490045,8.0,891.0],["C22orf31",-0.09527122815480117,-2.666398605641528,13.0,886.0],["C7orf50",-0.11832626994249,-3.7076966688926474,18.0,881.0],["CD27",-0.07805733068574193,-2.0140998198161264,10.0,889.0],["CD38",-0.08889827055258628,-2.4125977441987634,13.0,886.0],["CENPBD1",-0.10685026379826201,-3.1650755166296327,13.0,886.0],["CLC",-0.0732350975712143,-1.8501975402422697,9.0,890.0],["CTU2",-0.08098484334594595,-2.1175354463221154,9.0,890.0],["DERL3",-0.09223842688885839,-2.543699458693254,10.0,889.0],["DPCD",-0.0993408352368824,-2.836059372866645,11.0,888.0],["EMP3",-0.09337981147542389,-2.589353941746368,8.0,891.0],["FAM166B",-0.10077977878064899,-2.8974645818712492,10.0,889.0],["FNDC9",-0.08695945528205333,-2.3382740226651384,13.0,886.0],["FUOM",-0.07609568049049813,-1.9464550056679302,10.0,889.0],["GEMIN8",-0.07903815578336379,-2.048430558865974,10.0,889.0],["GNG7",-0.07042280014984313,-1.7583490561911808,8.0,891.0],["GPR183",-0.1092891980036075,-3.276434035549359,17.0,882.0],["GUCA2B",-0.091188675282676,-2.5019919212109305,9.0,890.0],["HADH",-0.12672888084213701,-4.1357402390629785,24.0,875.0],["IL17D",-0.0886291357149824,-2.4021723507229598,12.0,887.0],["IQCF3",-0.10126334478982718,-2.9182349823653215,9.0,890.0],["KCNIP2",-0.07687216702611545,-1.9730691748553297,10.0,889.0],["KM-PA-2",-0.10670559707878122,-3.158432528754752,10.0,889.0],["KRTAP16-1",-0.08284004341164387,-2.184781949262293,12.0,887.0],["LINC00998",-0.09041319967390749,-2.4714171241035165,8.0,891.0],["LRG1",-0.10488385842531056,-3.077106815865345,20.0,879.0],["LSM12",-0.07246012299374113,-1.824623208857122,9.0,890.0],["LY96",-0.10405426552968436,-3.0401686528663268,12.0,887.0],["MED18",-0.08008087738483376,-2.0853336196532655,11.0,888.0],["MRPL32",-0.0684602723426861,-1.6959143513762784,8.0,891.0],["MRPL55",-0.07362258485995088,-1.863063434339891,9.0,890.0],["MZT2B",-0.08420613498150394,-2.2348516103860088,8.0,891.0],["NANOG",-0.09636037511363447,-2.7112060628299646,12.0,887.0],["NGRN",-0.10271233581450474,-2.9813748001848452,17.0,882.0],["NUDT16L1",-0.09767647934548065,-2.766060948575075,16.0,883.0],["NUDT8",-0.08620195710704355,-2.309542236608801,11.0,888.0],["PIRT",-0.09848037847858342,-2.7997910103478625,15.0,884.0],["POLR2C",-0.11916533116479555,-3.7491267135875193,13.0,886.0],["PPIF",-0.09407747394689941,-2.6176455920922805,10.0,889.0],["PPP1R27",-0.07383785557591564,-1.8702338504162412,9.0,890.0],["PROSC",-0.10231230295862495,-2.963915475561655,16.0,883.0],["RAB20",-0.11867983681224846,-3.7249243531253846,10.0,889.0],["RAB39A",-0.07599056273556334,-1.9428310874280308,9.0,890.0],["RP11-849H4.2",-0.08437135169833343,-2.2411240277446396,12.0,887.0],["RPL23",-0.08632355710187221,-2.314054534442111,9.0,890.0],["SKP1",-0.07909443464658339,-2.05032674044819,8.0,891.0],["SLC31A1",-0.0827979853242477,-2.183182014099596,10.0,889.0],["SPCS2",-0.07271844785289884,-1.8331246713820342,9.0,890.0],["ST3GAL1",-0.1122259752324772,-3.4133282947889483,19.0,880.0],["STYX",-0.09290785336322241,-2.5705132772127963,11.0,888.0],["SYCP3",-0.11383969897145653,-3.489693863623152,12.0,887.0],["TIPIN",-0.10810895355750683,-3.222058507894203,9.0,890.0],["TMEM163",-0.09780615273326095,-2.7714895323293787,16.0,883.0],["UBE2W",-0.08954454230943061,-2.43767111459818,13.0,886.0],["YBEY",-0.09644780126615232,-2.7147508804480363,10.0,889.0]]}}}
{"depmap_damaging":{"corr":{"top":[["ADAM12",0.09409000036089894,-2.3211128818945914,11.0,887.0],["ALPK2",0.08507422630170983,-1.968269263345624,21.0,877.0],["AR",0.09472064024171097,-2.3469130945948837,10.0,888.0],["ARSJ",0.09249298848226507,-2.256434704471194,9.0,889.0],["ATAD2",0.0871246332244413,-2.0458985606619295,15.0,883.0],["BANP",0.08998312773435112,-2.1566862342391464,10.0,888.0],["BCL11A",0.09226387124446844,-2.247232781810452,11.0,887.0],["BZRAP1",0.0937825602175142,-2.3085884835547605,11.0,887.0],["C9orf172",0.09116350873992642,-2.203308967716589,8.0,890.0],["CAPRIN2",0.08412695826208162,-1.9329222334172467,17.0,881.0],["CEP192",0.09648848645579332,-2.4200231127835448,11.0,887.0],["CNOT1",0.13185017817684785,-4.130537387764713,27.0,871.0],["COL12A1",0.09062004589342768,-2.181779640103669,27.0,871.0],["CPSF2",0.09432697580325629,-2.330790565617414,16.0,882.0],["CRYBG3",0.09971549942666715,-2.5564725244533166,17.0,881.0],["DGKD",0.08751937814332231,-2.0610198639689705,8.0,890.0],["DNAH5",0.12532579078529255,-3.7788351666656297,54.0,844.0],["DPP9",0.10002470236385885,-2.569750469850623,8.0,890.0],["ELP2",0.11268638710977323,-3.144346952975399,10.0,888.0],["ENPEP",0.08679676740437417,-2.0333824314347213,12.0,886.0],["ENTPD4",0.09219279304467907,-2.2443820363280573,9.0,889.0],["ESCO2",0.11004081130585175,-3.019280836973672,10.0,888.0],["FCRL2",0.10635863038250021,-2.8496284153964355,8.0,890.0],["FSCB",0.08741587592507115,-2.057049547034374,9.0,889.0],["GTF3C2",0.08874696486381523,-2.1084085898684535,9.0,889.0],["HDAC4",0.10116377190005268,-2.618973170262398,16.0,882.0],["HELZ2",0.08534695927749689,-1.9785067213464576,14.0,884.0],["HIF1A",0.08592109464701049,-2.0001463057768896,23.0,875.0],["HIPK3",0.08423017354396913,-1.9367578503290646,10.0,888.0],["HNRNPA3",0.11380891672798928,-3.1982180793176767,8.0,890.0],["IQGAP2",0.09239651301520137,-2.2525576487019685,12.0,886.0],["ITGAM",0.09287288855777899,-2.2717351095046654,14.0,884.0],["JARID2",0.08429743205449354,-1.9392593483997722,22.0,876.0],["KCNB1",0.0925768887359784,-2.259809191120534,9.0,889.0],["KEL",0.10840596178688014,-2.9433236980648227,8.0,890.0],["KIAA1875",0.10220595694284602,-2.6644344846240964,12.0,886.0],["KLC2",0.08568453992113413,-1.991215840531152,9.0,889.0],["L3MBTL3",0.08837112753864478,-2.093841503702112,17.0,881.0],["MARCKS",0.08440478370907427,-1.94325540751365,16.0,882.0],["MUM1",0.08804117092598808,-2.0810953369960328,8.0,890.0],["MYH10",0.09456677967593353,-2.340604906911751,10.0,888.0],["NUCB2",0.10423285782556775,-2.7540166609622956,9.0,889.0],["RAPGEF3",0.08572786809963669,-1.9928500501909518,11.0,887.0],["RNASEL",0.10328390848916463,-2.711884284287923,16.0,882.0],["SLC2A4",0.1226101836365464,-3.6373242391464244,10.0,888.0],["SLC9A4",0.12561558143885818,-3.794104976020436,13.0,885.0],["SLITRK4",0.09042832772152536,-2.174210617431087,9.0,889.0],["SLX4",0.09567190905986084,-2.3861092072641727,19.0,879.0],["SORCS1",0.09464909080026505,-2.343978521926468,13.0,885.0],["SPTBN2",0.1028659811101418,-2.6934360093116783,9.0,889.0],["TCF24",0.0970337793279585,-2.4428079433268524,12.0,886.0],["TIMD4",0.08888263941688347,-2.113679912228585,9.0,889.0],["TMC4",0.08695635357083746,-2.0394696582223184,10.0,888.0],["TMEM63C",0.10857448906854354,-2.951106878833613,8.0,890.0],["TMTC2",0.08974029275740035,-2.1471582092819337,22.0,876.0],["UBR2",0.08852311445353232,-2.099726138001529,11.0,887.0],["UNC13B",0.09591557456966165,-2.3962031700597444,11.0,887.0],["UTP20",0.0930695261840179,-2.279675569301778,31.0,867.0],["WDR1",0.09005810375423379,-2.159632414045924,8.0,890.0],["WIF1",0.09411118070434384,-2.3219770067225833,13.0,885.0],["ZBTB20",0.0923196235858095,-2.249470153790683,27.0,871.0],["ZFHX2",0.10675121332546707,-2.8674721137530255,19.0,879.0],["ZFP37",0.09209370145605769,-2.2404108606806865,16.0,882.0],["ZNF878",0.08636089140637485,-2.01680381620083,8.0,890.0]],"bottom":[["ACSM5",-0.07958792544234258,-1.7680612962604532,11.0,887.0],["ADAMTS7",-0.07369671652784607,-1.5651371295015137,9.0,889.0],["ADSS",-0.06548732703944887,-1.3029033148978373,8.0,890.0],["AFAP1",-0.0698015539667262,-1.4377531917537745,9.0,889.0],["AFF2",-0.06664919306099742,-1.3385781655697646,21.0,877.0],["ARFGEF2",-0.07179222031379441,-1.5021831109485562,11.0,887.0],["ATRX",-0.06459630846455097,-1.2758638590985594,41.0,857.0],["ATXN7",-0.07031678920626942,-1.454295083111862,14.0,884.0],["BDP1",-0.0724693628378737,-1.5244189739255962,40.0,858.0],["C17orf104",-0.06427847270572304,-1.2662854907273258,12.0,886.0],["CAPN12",-0.07244521863870826,-1.5236233381524131,12.0,886.0],["CDC25C",-0.0700911148071663,-1.4470381686962814,9.0,889.0],["CR2",-0.06847637642898756,-1.3956371848202684,17.0,881.0],["DCHS2",-0.07169660786606055,-1.4990564943028533,27.0,871.0],["DIP2C",-0.07551027231643789,-1.6262836525354287,13.0,885.0],["EIF4G3",-0.07101753119398804,-1.4769431143885532,17.0,881.0],["ELTD1",-0.07079911735450499,-1.4698653607413714,11.0,887.0],["EPHB2",-0.07351426860578576,-1.5590504612170561,19.0,879.0],["ERF",-0.07094400317176923,-1.4745585388407885,16.0,882.0],["FLNA",-0.06695675155286374,-1.3481006729551697,17.0,881.0],["GLTSCR1L",-0.06735895853702423,-1.36060362109617,9.0,889.0],["HLA-B",-0.07159629559017715,-1.4957796671675485,20.0,878.0],["INO80",-0.06732683254494025,-1.3596028748639197,20.0,878.0],["INVS",-0.07628972669870314,-1.6529244640776763,66.0,832.0],["JAKMIP1",-0.08310366949636623,-1.8951046753087184,15.0,883.0],["KBTBD3",-0.0687573960148803,-1.4045167712005437,10.0,888.0],["KCNH8",-0.06430741685515393,-1.2671563036551141,12.0,886.0],["KIAA1009",-0.07936115558840585,-1.760019926756984,51.0,847.0],["KIAA1549L",-0.0677740140312945,-1.3735654068999934,11.0,887.0],["LRRCC1",-0.07082107801174757,-1.4705762390644133,10.0,888.0],["MUC12",-0.06429598002067902,-1.2668121805339232,8.0,890.0],["MYH14",-0.0690132976606737,-1.4126268395769135,18.0,880.0],["NBPF1",-0.06883520953927853,-1.4069804109542836,24.0,874.0],["NLRP14",-0.07404371884456504,-1.5767461813865598,11.0,887.0],["NWD1",-0.07621339554003029,-1.6503059686552448,14.0,884.0],["OPHN1",-0.06531836802022288,-1.2977547113437558,12.0,886.0],["OR4A15",-0.07291494024287848,-1.5391394244798176,10.0,888.0],["PCNXL2",-0.06744538240156954,-1.36329757764406,22.0,876.0],["PDE3B",-0.0684719553307264,-1.3954977098030126,9.0,889.0],["PHIP",-0.06979896316725392,-1.437670249310482,18.0,880.0],["PLEKHA7",-0.0668484111786085,-1.3447425035691694,19.0,879.0],["PNPLA6",-0.07168578226138103,-1.4987026908239598,14.0,884.0],["RANBP2",-0.07859402415422595,-1.7329541886315565,13.0,885.0],["RBM44",-0.06657887895066318,-1.3364057751931213,13.0,885.0],["RNF216",-0.06554328229429317,-1.3046106060297857,9.0,889.0],["ROR2",-0.0644056432368308,-1.270113712282741,13.0,885.0],["SBNO1",-0.06819892832930124,-1.3868976687069865,64.0,834.0],["SCN3A",-0.08093722242520468,-1.8162910643397863,25.0,873.0],["SENP6",-0.06656796862729764,-1.3360688501523539,19.0,879.0],["SF3B1",-0.06616691790473687,-1.3237127616855988,59.0,839.0],["SLC44A3",-0.06940617098462808,-1.4251226695026096,10.0,888.0],["SP140",-0.0640389730511385,-1.2590910872427759,10.0,888.0],["STON1",-0.06709185638817276,-1.3522942032473024,17.0,881.0],["TENC1",-0.08080186275120292,-1.811423092823191,17.0,881.0],["TOP2B",-0.06958187319783825,-1.430728684033417,17.0,881.0],["TUBGCP6",-0.06396383817273708,-1.2568381961332546,8.0,890.0],["VRK2",-0.0647243555585962,-1.279732648167644,15.0,883.0],["XIAP",-0.07661050672535058,-1.6639514094460874,19.0,879.0],["ZDHHC5",-0.065001124393838,-1.2881143914018345,9.0,889.0],["ZIM3",-0.06611137619501892,-1.3220059924952965,16.0,882.0],["ZNF253",-0.06527193876410038,-1.2963416394122085,24.0,874.0],["ZNF347",-0.06515881784025412,-1.2929019559848218,11.0,887.0],["ZNFX1",-0.06853389776255557,-1.397452470492543,9.0,889.0],["ZSCAN10",-0.067160658324161,-1.3544322085245368,8.0,890.0]]},"para":{"top":[["APBB2",0.08402723538263127,-2.226507672640176,8.0,890.0],["AR",0.07593674821020242,-1.9395917844274733,10.0,888.0],["ARSJ",0.08161656592982347,-2.138620545071219,9.0,889.0],["BCL11A",0.08191404674758787,-2.149434106317169,11.0,887.0],["BEND4",0.07662113520200761,-1.9628947045763743,8.0,890.0],["BZRAP1",0.0714477942906851,-1.7903038857960696,11.0,887.0],["C10orf68",0.0607574514817829,-1.4627373195532778,8.0,890.0],["C9orf172",0.07406100180623647,-1.8762612545589583,8.0,890.0],["CCDC158",0.07122312213109827,-1.7829492307569978,9.0,889.0],["CCDC168",0.0649633849176926,-1.5868758067011477,8.0,890.0],["COG5",0.06185465150854195,-1.4945381000050524,8.0,890.0],["CORO7",0.07540457692894495,-1.9215215557543288,10.0,888.0],["CPSF2",0.09186566606330031,-2.526993450644363,16.0,882.0],["CTPS1",0.06281348918192224,-1.5227033760094821,9.0,889.0],["DEPDC5",0.06712612146355099,-1.653113152511495,9.0,889.0],["DFNB31",0.06613421603877637,-1.6225523220428961,9.0,889.0],["DGKD",0.06514625158881913,-1.5924106771634765,8.0,890.0],["DPP9",0.07886125192330737,-2.040587001918916,8.0,890.0],["ELP2",0.06758575271970038,-1.6674237309388331,10.0,888.0],["ENTPD4",0.07825271275015307,-2.019351921682137,9.0,889.0],["EYA4",0.06958432186407934,-1.7303163877922259,9.0,889.0],["FCRL2",0.0890560688386103,-2.416595625279595,8.0,890.0],["FIP1L1",0.07831265190992784,-2.0213970119408056,8.0,890.0],["FLCN",0.061488918166288944,-1.4838922182929226,8.0,890.0],["FRMPD4",0.059203084777207544,-1.4183878455089307,8.0,890.0],["FSCB",0.07048997464322139,-1.7592876028639,9.0,889.0],["GALNT6",0.06406415254359463,-1.5598644396415289,9.0,889.0],["HIPK3",0.09718266320809735,-2.743012416552647,10.0,888.0],["HSPA8",0.060528868142874746,-1.4561638000382136,8.0,890.0],["IQGAP2",0.07463627920762536,-1.8956677882621515,12.0,886.0],["KCNB1",0.08472166117259614,-2.25226891598019,9.0,889.0],["KEL",0.09413061896237095,-2.617576975330887,8.0,890.0],["LZTR1",0.07515820183299553,-1.9131086184273969,8.0,890.0],["MEGF10",0.07678641777439929,-1.968611260402521,9.0,889.0],["MROH8",0.08541168233765672,-2.2779890728856897,9.0,889.0],["MTSS1L",0.08020474217029795,-2.0882266416060054,14.0,884.0],["MYO1B",0.06112318482403593,-1.473291970747693,8.0,890.0],["NAPSA",0.0788432221309164,-2.040038461775183,10.0,888.0],["NCOA1",0.08385913471627042,-2.2203567336887438,9.0,889.0],["NUCB2",0.06807490056550929,-1.6826631094756943,9.0,889.0],["OR5T3",0.06921503502138399,-1.7185437869403875,8.0,890.0],["PIKFYVE",0.07260316446121945,-1.8279963630192726,9.0,889.0],["PPP1R12B",0.077737943315997,-2.001490317692896,10.0,888.0],["RINT1",0.07764894423072505,-1.998367116239064,9.0,889.0],["SEMA3C",0.06720350163899234,-1.655471368016044,8.0,890.0],["SIPA1",0.062494684857484724,-1.5132783129705938,8.0,890.0],["SLC2A4",0.08080816224632865,-2.109632146367023,10.0,888.0],["SLC9A4",0.09629433374065384,-2.706287584613671,13.0,885.0],["SORCS1",0.09525136990181951,-2.6634116182430114,13.0,885.0],["SSBP2",0.06903216835025747,-1.7127520476631357,8.0,890.0],["TCF24",0.08402660807033913,-2.226637770251599,12.0,886.0],["TIMD4",0.06302912079600369,-1.5290722315895775,9.0,889.0],["TINAG",0.07337525178951206,-1.853445500041644,8.0,890.0],["TLK2",0.07913555192999712,-2.0502217720753975,8.0,890.0],["TMEM63C",0.06980935170254514,-1.737447023986513,8.0,890.0],["TRMT2A",0.06441478490431309,-1.5703401475822345,8.0,890.0],["TRPC6",0.07319238511838556,-1.847389049483315,8.0,890.0],["TSHZ2",0.0719554856412065,-1.8068388033971923,11.0,887.0],["UGGT1",0.08006603963303846,-2.08329880649335,14.0,884.0],["WDR1",0.08901035217082866,-2.4148269157873647,8.0,890.0],["ZHX2",0.06875786834356769,-1.7040861666061726,8.0,890.0],["ZNF432",0.06258611819304799,-1.5159669158111653,8.0,890.0],["ZNF878",0.07223233509497136,-1.815784178544486,8.0,890.0],["ZSCAN29",0.0806034809843065,-2.1023191877093406,10.0,888.0]],"bottom":[["ACSM5",-0.12811395964503544,-4.204678491585052,11.0,887.0],["ADAMTS7",-0.11374567642795737,-3.4820500539497585,9.0,889.0],["ADSS",-0.09595928567363604,-2.692270322639661,8.0,890.0],["AFAP1",-0.09459758909752587,-2.63658896840231,9.0,889.0],["ANKLE2",-0.0829300353558722,-2.1862296861465,8.0,890.0],["ANKRD35",-0.0757525185141567,-1.933243674293829,8.0,890.0],["ARFGEF2",-0.08328090807591469,-2.199185764187467,11.0,887.0],["ARHGAP6",-0.07602681852084646,-1.9425785517790835,8.0,890.0],["ASTE1",-0.08325536619684235,-2.1981754029573994,9.0,889.0],["C10orf112",-0.0752496351685588,-1.9161982610029895,8.0,890.0],["C7orf50",-0.09175335223772631,-2.5222736031319832,8.0,890.0],["CAPN12",-0.10550090594762082,-3.101796960470931,12.0,886.0],["CDC25C",-0.11094246544489872,-3.349934334747453,9.0,889.0],["CDH5",-0.07470103515517927,-1.8977043342698452,8.0,890.0],["CDK11A",-0.07771833522876669,-2.000727461600845,8.0,890.0],["CDON",-0.08355725045655638,-2.209249895080865,9.0,889.0],["CR2",-0.11251476981496479,-3.4239568281210957,17.0,881.0],["EGF",-0.1066980793484449,-3.155491409313102,12.0,886.0],["ELTD1",-0.08933415110136218,-2.4274995713619063,11.0,887.0],["FAM47A",-0.07204946842384487,-1.8098006498115047,8.0,890.0],["FOXP4",-0.0864045021072759,-2.315244290989787,8.0,890.0],["FRA10AC1",-0.08480441873491894,-2.255296566254783,8.0,890.0],["GLTSCR1L",-0.09692641052960539,-2.7323142530203897,9.0,889.0],["GRIA2",-0.07378670179954673,-1.8671152284182169,8.0,890.0],["GRIP1",-0.07438101848070788,-1.8869648767382712,8.0,890.0],["HGFAC",-0.08472166117259614,-2.25226891598019,9.0,889.0],["IFT88",-0.07758118522542179,-1.9959752183056056,8.0,890.0],["JAKMIP1",-0.1305054842114862,-4.332488490303611,15.0,883.0],["KBTBD3",-0.09349840049169937,-2.592129767258273,10.0,888.0],["KIF23",-0.07520391850077716,-1.9146530735394616,8.0,890.0],["LRRCC1",-0.09218844041475786,-2.5396595021889548,10.0,888.0],["MUC12",-0.09632501901588905,-2.7073535603733427,8.0,890.0],["NELFCD",-0.0744267351484895,-1.8884968905001285,8.0,890.0],["NLRP14",-0.10823589061308207,-3.2251926099443167,11.0,887.0],["NOP2",-0.08877553551732714,-2.40580397471563,9.0,889.0],["NOS2",-0.07876981858774412,-2.0373813058796615,8.0,890.0],["NWD1",-0.10038596134155323,-2.8783128314945987,14.0,884.0],["OPHN1",-0.09162117683181681,-2.517198811147927,12.0,886.0],["OR4A15",-0.10872668638614429,-3.2475881349525464,10.0,888.0],["PAN3",-0.08157343960700715,-2.1370661586487287,9.0,889.0],["PDE3B",-0.08334161884247493,-2.201336243704839,9.0,889.0],["PTPRN2",-0.09023237425997697,-2.4624925535776216,11.0,887.0],["PTPRQ",-0.0808081622463286,-2.109632146367023,10.0,888.0],["RANBP2",-0.11593082532698325,-3.587207046723256,13.0,885.0],["RBL1",-0.07360383512842018,-1.8610324902000712,8.0,890.0],["RBM44",-0.10679590066960658,-3.1599345065338103,13.0,885.0],["RLTPR",-0.07415243514179974,-1.8793157767968554,8.0,890.0],["RNF216",-0.08536855601484045,-2.2763766010348245,9.0,889.0],["ROBO3",-0.11260984686372803,-3.428267747922607,11.0,887.0],["SGSM2",-0.07717455467974588,-1.981969029807222,9.0,889.0],["SLC44A3",-0.09873824079946537,-2.80818828942273,10.0,888.0],["SP140",-0.10700736378515859,-3.1693683620038855,10.0,888.0],["TIE1",-0.10537436775376795,-3.0962621879486485,16.0,882.0],["TIGD2",-0.08571875209055149,-2.2894408168358784,8.0,890.0],["TUBGCP6",-0.09216480224776095,-2.538623182834574,8.0,890.0],["UBA6",-0.07785548523211157,-2.005486323149911,8.0,890.0],["UBTF",-0.08056254473190211,-2.1008583728573447,10.0,888.0],["UBXN7",-0.08018703528897457,-2.0874009430613873,8.0,890.0],["ZBTB7A",-0.07825271275015305,-2.019351921682137,9.0,889.0],["ZCCHC4",-0.08291035561431206,-2.185558430781363,9.0,889.0],["ZDHHC5",-0.08838739861198053,-2.3908500287914514,9.0,889.0],["ZNF347",-0.08921699155893416,-2.4229565506711075,11.0,887.0],["ZNFX1",-0.09796144227719626,-2.775486696559939,9.0,889.0],["ZSCAN10",-0.10962856934034264,-3.2889399097817407,8.0,890.0]]}}}
{"ccle_chromatin":{"corr":{"top":[],"bottom":[["H3K18ac0K23ub1",-0.09366045626857547,-1.5362721145727292,543]]},"para":{"top":[],"bottom":[]}}}
{"ccle_rppa":{"corr":{"top":[["YBX1_YB-1",0.42665578108165564,-40.34531381679415,899],["EEF2_eEF2_Caution",0.6657826483844596,-115.47568797008616,899],["YWHAB_14-3-3_beta",0.3348176079344374,-24.26247293424957,899],["CCND1_Cyclin_D1",0.45611008374250955,-46.666177297668376,899],["ERCC1_ERCC1_Caution",0.3361527942351943,-24.4607980349313,899],["RAD50_Rad50",0.3471987414424999,-26.13923689976868,899],["TTF1_TTF1",0.7456061247713531,-159.5648424185066,899],["CDH2_N-Cadherin",0.42736452040353573,-40.490213551600846,899],["BID_Bid_Caution",0.3361996347117767,-24.467773300807448,899],["GAPDH_GAPDH_Caution",0.33225663399572625,-23.884793500633247,899],["ETS1_ETS-1",0.7836115836163599,-186.9083508465555,899],["MDM2_MDM2_pS166",0.5200779740386501,-62.720047038019686,899],["DIABLO_Smac_Caution",0.3623008128461423,-28.545124770868927,899],["MYH11_MYH11",0.3480504944141801,-26.271482382795675,899],["MAPK1_ERK2_Caution",0.3899177828221424,-33.290905419326464,899],["BCL2L1_Bcl-xL",0.6634761118794925,-114.40445339061408,899]],"bottom":[["RICTOR_Rictor_Caution",-0.23632863274187496,-12.150273265340305,899],["MSH2_MSH2",-0.34013618234126103,-25.05829053846092,899],["SMAD4_Smad4",-0.3999537900938002,-35.13125666644265,899],["DIRAS3_Di-Ras3_Caution",-0.2580598643480695,-14.416351306119877,899],["ARAF_A-Raf_pS299_Caution",-0.29101970323733545,-18.280756759077807,899],["ADAR_ADAR1",-0.259917410729783,-14.620256640446769,899],["NRAS_N-Ras",-0.43343450888861246,-41.7454181672734,899],["INPP4B_INPP4B",-0.2494895942857122,-13.49654717731966,899],["GSK3B_GSK-3-BETA_Caution",-0.4106873675250111,-37.17066512021636,899],["RAF1_C-Raf_pS338",-0.2837406197205298,-17.381750072305692,899],["PECAM1_CD31",-0.2876846909896193,-17.86560037150423,899],["RPS6KA1_p90RSK_pT359_S363_Caution",-0.273902248404634,-16.208096348522634,899],["PIK3CA_PI3K-p110-alpha_Caution",-0.40576267284412776,-36.22570349308269,899],["MRE11A_Mre11_Caution",-0.42176097533001566,-39.35395480533115,899]]},"para":{"top":[["YBX1_YB-1",0.45829843657340547,-47.161009017965355,899],["EEF2_eEF2_Caution",0.5863614480983459,-83.40877423587047,899],["CCND1_Cyclin_D1",0.48430546894733717,-53.325016792989096,899],["ERCC1_ERCC1_Caution",0.5370057995446713,-67.57114107641674,899],["TTF1_TTF1",0.6796126249245974,-122.10569035582958,899],["CDH2_N-Cadherin",0.45492553874708097,-46.399823638394444,899],["BID_Bid_Caution",0.36705104555491275,-29.32904478679318,899],["MS4A1_CD20 _Caution",0.48225150962731705,-52.81865751527527,899],["GAPDH_GAPDH_Caution",0.2924965438893282,-18.46637324407656,899],["ETS1_ETS-1",0.7015917831292482,-133.42988707385769,899],["MDM2_MDM2_pS166",0.5220425673424686,-63.26907902997681,899],["DIABLO_Smac_Caution",0.3439995569439773,-25.646151498378547,899],["MYH11_MYH11",0.3076999850535067,-20.441304183871228,899],["TFRC_TFRC",0.2922452376815046,-18.434710795911403,899],["MAPK1_ERK2_Caution",0.3476600334032791,-26.210807773953523,899],["BCL2L1_Bcl-xL",0.5874109049833703,-83.77554498829787,899]],"bottom":[["MSH2_MSH2",-0.40355841291994654,-35.80784597970733,899],["SMAD4_Smad4",-0.32395977627405115,-22.685568580962677,899],["ARAF_A-Raf_pS299_Caution",-0.2550850509082942,-14.093185113735265,899],["CDKN1B_p27_pT198",-0.24114093780439616,-12.633320859883758,899],["NRAS_N-Ras",-0.3204047933181435,-22.183007477461313,899],["TSC1_TSC1_Caution",-0.2787982709039263,-16.786250160277035,899],["INPP4B_INPP4B",-0.237847183749595,-12.301561406555434,899],["ESR1_ER-alpha",-0.253253797902433,-13.89631203264625,899],["GSK3B_GSK-3-BETA_Caution",-0.4187536779401103,-38.75293138863726,899],["RAF1_C-Raf_pS338",-0.2944781669929002,-18.717150574745705,899],["PECAM1_CD31",-0.3233560723401205,-22.599750295709352,899],["RPS6KA1_p90RSK_pT359_S363_Caution",-0.30939573741455023,-20.66891163281342,899],["PIK3CA_PI3K-p110-alpha_Caution",-0.36106409085913505,-28.343187444270825,899],["MRE11A_Mre11_Caution",-0.33068362917336186,-23.654581082036863,899]]}}}
{"ccle_metabolomics":{"corr":{"top":[["homocysteine",0.09488780856122178,-2.3320957706501644,888],["glycine",0.08234043778443034,-1.8504146338669314,888]],"bottom":[["taurodeoxycholate\/taurochenodeoxycholate",-0.11743715701618332,-3.343328974140171,888]]},"para":{"top":[["homocysteine",0.11232975809523178,-3.0976312677814946,888],["glycine",0.10049613958856744,-2.565949522472369,888]],"bottom":[["taurocholate",-0.09777295551025432,-2.450954839626488,888],["2-deoxyadenosine",-0.08804174879808847,-2.062221749411528,888]]}}}
{"ccle_rrbs_enhancer_clusters":{"corr":{"top":[],"bottom":[["12-14408263-14412303-1_enh",-0.1093709675169525,-2.3060666563157044,659],["2-105517613-105520490-1_enh",-0.12716804473645008,-1.9384761175392113,394],["2-147170004-147172903-2_enh",-0.132522701325478,-3.2461449376188107,673],["18-76068697-76071265-1_enh",-0.11053629243656732,-2.20504822648964,611],["2-147170004-147172903-1_enh",-0.14578399420308039,-3.8212744008421433,671],["17-35055889-35060730-1_enh",-0.15897548344273887,-3.320087246702432,479]]},"para":{"top":[["9-127123732-127126245-1_enh",0.08159309458717588,-1.611080864928428,760],["10-3852725-3855863-0_enh",0.08642008311854217,-1.0154711350459016,371],["9-81472431-81475114-0_enh",0.09050655676430812,-1.512388456601543,570]],"bottom":[["1-10732594-10735118-1_enh",-0.12442931428969377,-3.1701696475643115,743],["2-105517613-105520490-1_enh",-0.10547609158624409,-1.4393240485202652,394],["2-105450973-105453571-1_enh",-0.10375800812581269,-2.302451773768637,731],["2-147170004-147172903-1_enh",-0.10365269633950805,-2.1423695600338393,671],["8-144611510-144614040-2_enh",-0.09941076530498717,-1.6509126540730592,528],["17-35055889-35060730-1_enh",-0.1171104285036238,-1.9867007486125814,479]]}}}
{"ccle_mirna":{"corr":{"top":[["hsa-miR-651_miR00607.1",0.10339849405365052,-2.7042425771449006,893],["hsa-miR-888_miR00655.1",0.07725532522737662,-1.6787727225777447,893],["hsa-miR-641_miR00597.2",0.08510966961761232,-1.9607180715079022,893],["hsa-miR-652_miR00608.1",0.08362352215501184,-1.905668807060072,893]],"bottom":[["hsa-miR-338-5p_miR00314.1",-0.08643908840510754,-2.010638774069132,893],["hsa-miR-492_miR00398.1",-0.08390589023000265,-1.9160667969658858,893],["hcmv-miR-UL70-3p_miR00757.1",-0.09890168058569752,-2.509993873772416,893],["hsa-miR-212_miR00241.1",-0.0729125734514834,-1.5323362014562472,893],["hsa-miR-485-3p_miR00386.1",-0.08911649253975562,-2.1131241231788116,893]]},"para":{"top":[["hsa-miR-553_miR00505.2",0.06819920038893329,-1.380930015504004,893],["kshv-miR-K12-12_miR00788.1",0.0756649798182795,-1.6243704914391364,893],["hsa-miR-1182_miR00024.1",0.06406713945860236,-1.2545781004892818,893],["hsa-miR-554_miR00506.1",0.09124598010603582,-2.1965009017105706,893],["hsa-miR-651_miR00607.1",0.09787263950386153,-2.46659816141461,893],["hsa-miR-555_miR00507.1",0.0725042714168532,-1.5189115491748377,893],["hsa-miR-1321_miR00135.1",0.07355743491531083,-1.5536585713238922,893],["hsa-miR-938_miR00676.1",0.07162616568168774,-1.490239139346439,893],["ebv-miR-BHRF1-1_miR00750.1",0.07400249841131115,-1.5684602962806475,893],["hsa-miR-1538_miR00175.1",0.06586815560596475,-1.3089215124309084,893],["ebv-miR-BART6-5p_miR00746.1",0.10329596351365068,-2.6997296730090707,893],["hsa-miR-548f_miR00489.1",0.06885898475109674,-1.4016553732216088,893]],"bottom":[["hsa-let-7a_miR00001.1",-0.12795682353690074,-3.8996544297809117,893],["hsa-miR-320b_miR00295.1",-0.14126359814272837,-4.644388723648549,893],["hsa-miR-212_miR00241.1",-0.10998298742985675,-3.0023075147461205,893],["hsa-miR-509-3p_miR00420.1",-0.12696544832518394,-3.8469300346882376,893],["hsa-miR-320a_miR00294.2",-0.13557056143442586,-4.3172975245319245,893],["hcmv-miR-UL70-3p_miR00757.1",-0.11027469968346186,-3.0158897235976547,893],["hsa-miR-939_miR00677.1",-0.11870824211938209,-3.4224977506905816,893],["hsa-miR-646_miR00602.1",-0.11159273568466148,-3.077658377523679,893],["hsa-miR-592_miR00547.1",-0.1496353418001255,-5.148624589137166,893],["hsa-miR-890_miR00657.1",-0.1643740920790197,-6.104457517454362,893]]}}}
{"prism_primary_logfold":{"corr":{"top":[["spaglumic-acid_BRD-K68405354-001-06-4::2.5::HTS",0.14854504915646627,-3.204830528454227,527],["lenvatinib_BRD-K39974922-001-04-3::2.5::HTS",0.13349544938163932,-2.607073107353943,512],["ML133_BRD-K33743361-003-02-6::2.5::HTS",0.13420113284635019,-2.6948993067522764,527],["galantamine_BRD-K49481516-004-18-3::2.5::HTS",0.16902133079327017,-3.948389159055478,517],["prazosin_BRD-K49111258-003-29-7::2.5::HTS",0.13727519687072176,-2.7688230305412325,520],["flumethasone_BRD-K61496577-001-19-4::2.5::MTS004",0.13508035151527775,-2.6332545407689416,506],["isoflupredone-acetate_BRD-K29173907-001-09-2::2.5::HTS",0.13569959120282388,-2.7372020470367984,525],["pozanicline_BRD-K79803033-300-01-3::2.5::MTS004",0.1581169771621799,-3.4598436011536315,508],["U-50488-(-)_BRD-K53532120-003-11-1::2.5::HTS",0.13830579049487068,-2.799619861731885,519],["SR-59230A_BRD-K35430135-003-02-3::2.5::HTS",0.1364761882243867,-2.763782826096221,525],["N-methylquipazine_BRD-K62056274-332-01-8::2.5::HTS",0.13621111260742672,-2.763540139518251,527],["danofloxacin_BRD-K45916615-066-02-5::2.5::HTS",0.15819159583255343,-3.4862103619751745,512],["suxibuzone_BRD-K78815826-001-14-6::2.5::HTS",0.16202309223263978,-3.696380685782307,522],["CGP-12177_BRD-A40084411-003-07-7::2.5::HTS",0.14419388537534647,-2.971278740792632,512],["RU-58841_BRD-K62762455-001-01-3::2.5::HTS",0.155585723535425,-3.415489069810221,517],["octopamine_BRD-A14240607-003-26-1::2.5::HTS",0.1340490349136292,-2.6253024733825105,512]],"bottom":[["triamterene_BRD-K92049597-001-20-8::2.5::HTS",-0.1291773959642167,-2.511286518700266,523],["vorinostat_BRD-K81418486-001-47-5::2.5::HTS",-0.11768940921742867,-2.053643589384416,494],["MK-0354_BRD-K91405252-001-01-9::2.500076093::MTS004",-0.11720989238618086,-2.080328654761652,506],["ponesimod_BRD-K44030614-001-01-6::2.500000065::MTS004",-0.1157141752550064,-2.0436748829689284,508],["UNC0224_BRD-K77428767-001-01-7::2.5::MTS004",-0.13771684030303688,-2.720622666701557,506],["acalabrutinib_BRD-K64034691-001-01-9::2.499981916::MTS004",-0.13821369566881134,-2.73725616373706,506],["setipiprant_BRD-K24497734-001-01-6::2.499993902::MTS004",-0.11898004902191951,-2.132075666494298,506],["selexipag_BRD-K21191422-001-01-5::2.499985534::MTS004",-0.12226182012828339,-2.2297579525577143,506],["UNC0321_BRD-K74236984-001-04-8::2.5::MTS004",-0.11963515582258327,-2.1513935098370247,506],["TH-302_BRD-K20958582-001-01-4::2.5::HTS",-0.11657945926206695,-2.1052279254659636,519],["penicillamine-(D)_BRD-K17518951-001-03-0::2.5::HTS",-0.13051095194937262,-2.4197846049840557,490],["solamargine_BRD-A65562236-001-01-2::2.499987842::MTS004",-0.14357639165821862,-2.9202056441246484,506]]},"para":{"top":[["para-toluenesulfonamide_BRD-K62412084-001-07-1::2.5::HTS",0.12454142997027216,-2.377660182351403,527],["GSK2656157_BRD-K41104902-001-01-3::2.5::HTS",0.12423905011982386,-2.368065213098143,527],["LGK-974_BRD-K16810791-001-01-0::2.5::HTS",0.12566729127970233,-2.4135638118133493,527],["fluspirilene_BRD-K77947974-001-16-3::2.5::HTS",0.1307418313096153,-2.5297012470213947,515],["indapamide_BRD-A95869247-001-26-9::2.5::HTS",0.1233940202368966,-2.334000902331482,525],["indoprofen_BRD-A44090213-001-25-6::2.5::HTS",0.12372382353233297,-2.270298529176857,505],["lenvatinib_BRD-K39974922-001-04-3::2.5::HTS",0.13795224252426527,-2.755736402132146,512],["2-cyanopyrimidine_BRD-K95015809-001-02-8::5::HTS",0.1312719804865326,-2.5014217629615043,504],["BMY-45778_BRD-K84895041-001-02-4::2.5::HTS",0.12444191290646074,-2.3670263327394583,525],["R406_BRD-K20285085-074-04-5::2.5::HTS",0.12528249133781547,-2.2760881475372736,494],["ifenprodil_BRD-A24191444-046-03-9::2.4::HTS",0.14969773729442906,-3.073108082163791,494],["isoflupredone-acetate_BRD-K29173907-001-09-2::2.5::HTS",0.15303702453016124,-3.3631877049378045,525],["flumethasone_BRD-K61496577-001-19-4::2.5::MTS004",0.1557674548496063,-3.3596118650543936,506],["nonoxynol-9_BRD-K88625236-001-04-2::2.5::HTS",0.12573395426739087,-2.3966483459341665,522],["galantamine_BRD-K49481516-004-18-3::2.5::HTS",0.1427436482820822,-2.9446167450062473,517],["doxycycline_BRD-A08545410-311-01-8::2.5::HTS",0.13637871775566687,-2.667199926405822,504]],"bottom":[["solithromycin_BRD-K32256160-001-01-9::2.499998021::MTS004",-0.1320094588442851,-2.5333838936020157,506],["MK-0354_BRD-K91405252-001-01-9::2.500076093::MTS004",-0.12654866414399427,-2.3607913908571203,506],["chidamide_BRD-K28537285-001-01-8::2.499968715::MTS004",-0.13201650220581904,-2.541976165208467,508],["suritozole_BRD-K98557884-001-01-6::2.5::MTS004",-0.11977330011126197,-2.1624647076931915,508],["etoposide-phosphate_BRD-K72533376-001-01-2::2.5::MTS004",-0.14240565539217853,-2.8797303624193575,506],["methazolamide_BRD-K13356952-001-25-1::2.5::HTS",-0.12110001794406457,-2.216296913434349,512],["ezetimibe_BRD-K42260897-001-07-6::2.48::HTS",-0.11962400343816126,-2.109192161623422,494],["solamargine_BRD-A65562236-001-01-2::2.499987842::MTS004",-0.12493637192006098,-2.3110513780909536,506],["kinetin_BRD-K65667145-001-14-0::2.5::HTS",-0.11775585729889262,-2.0385624527756567,489],["clevudine_BRD-K18948558-001-01-9::2.5::HTS",-0.14476890392048916,-3.0610765541638068,526],["linalool_BRD-A43082461-001-06-3::2.5::HTS",-0.12677891434069932,-2.321332384633401,494],["M-344_BRD-K45528773-001-06-4::2.5::HTS",-0.11768789051316297,-2.0874703979929974,504],["penicillamine-(D)_BRD-K17518951-001-03-0::2.5::HTS",-0.1417948581231297,-2.782128912104524,490],["SB-939_BRD-K86797399-001-05-1::2.55::HTS",-0.1277538866322011,-2.351060957949371,494],["eliglustat_BRD-K86410485-046-01-0::2.499987354::MTS004",-0.14427745882116372,-2.9445868903806938,506],["spiradoline_BRD-K28192623-066-08-1::2.5::HTS",-0.12122216597301869,-2.255638561392473,522]]}}}
{"prism_secondary_logfold":{"corr":{"top":[["GS-9973_BRD-K76719364-001-02-5::0.625000001::MTS006",0.13724534452515003,-2.465508998351728,453],["napabucasin_BRD-K22064724-001-01-8::0.0391::MTS010::PROS004_PR500",0.15058294579034107,-2.86757731963819,450],["cladribine_BRD-K93034159-001-25-8::0.625::HTS002",0.15852474881586373,-2.4041707353222357,329],["NVP-BEZ235_BRD-K12184916-001-19-6::0.000594::MTS010::PROS004_PR500",0.15935946847566915,-3.1600517964138777,450],["narasin_BRD-A25608658-001-01-1::0.002441407::MTS006",0.19302991277286144,-4.451757026924191,453],["metoxibutropate_BRD-A71725768-001-01-3::0.15625::HTS002",0.15460674600253685,-2.9259403709969107,437],["PI-828_BRD-K97365803-001-02-1::0.00976562::HTS002",0.15386574566619587,-2.9526988538370498,446],["hesperadin_BRD-K58122457-001-02-2::0.00976562::HTS002",0.2133801305037044,-1.9331084750589966,139],["linifanib_BRD-K99749624-001-07-0::0.00977::MTS010::PROS001_PR500",0.168879855261842,-3.4475907647837056,443],["dichlorvos_BRD-K23779958-001-05-8::0.15625::HTS002",0.14927085246198,-2.8092157542881213,447],["alogliptin_BRD-K83003151-057-02-4::2.34747::HTS002",0.1677587270365386,-2.994690002763209,381],["benzethonium_BRD-K72723676-003-17-8::0.00061034::HTS002",0.14844239735158324,-1.518079420116589,213],["caffeic-acid-phenethyl-ester_BRD-K96188950-001-16-9::0.625::HTS002",0.13915396594812138,-2.537200454598654,456],["Y-27632_BRD-K44084986-300-08-4::2.5::HTS002",0.13846653586563384,-2.205462806969437,389],["vinblastine_BRD-K06519765-065-01-6::0.000610352::MTS006",0.14630728548387925,-2.7612382844296626,456],["altretamine_BRD-K67043667-001-26-4::0.15625::HTS002",0.1392815574205423,-2.0658487486203474,355]],"bottom":[["deoxycorticosterone-acetate_BRD-K24556098-001-16-7::0.00239599::HTS002",-0.16200358687750857,-3.263551845268663,452],["MRS-1220_BRD-K37618799-001-03-0::0.0024414::HTS002",-0.16916709107629418,-2.0776092467853746,242],["thiram_BRD-K29254801-001-14-7::0.625::HTS002",-0.1567560272631623,-2.113787997259198,288],["DU-728_BRD-K08859203-001-01-9::0.00976562::HTS002",-0.1823155553893444,-3.8343393999153497,429],["mechlorethamine_BRD-K12829205-003-02-8::0.00976562::HTS002",-0.1645706400148471,-3.3473178122755276,451],["tacrolimus_BRD-K69608737-001-10-2::0.0390625::HTS002",-0.16748933440551184,-3.437997428721239,449],["resminostat_BRD-K28822270-001-03-7::2.61565::MTS010::PROS002_PR500",-0.1598214901102932,-3.0123873636989265,423],["hydrocortisone_BRD-K93568044-001-32-0::0.00976562::HTS002",-0.1765707959859794,-2.6765057953524316,301],["hexachlorophene_BRD-K99792991-001-34-9::0.625::HTS002",-0.15788918830382287,-3.104089780626648,449],["carfilzomib_BRD-K15179879-001-03-2::0.15625::HTS002",-0.18173539350421952,-1.1793040057712625,103],["UNC0631_BRD-K13060017-001-01-3::0.002441407::MTS006",-0.17374806342853064,-3.715216150159026,456],["SID-7969543_BRD-A43885598-001-08-1::2.5::HTS002",-0.1593817255527224,-3.058491948163785,433],["benzocaine_BRD-K75466013-001-14-4::2.5::HTS002",-0.16209957542787118,-2.2535950209973468,291],["GDC-0980_BRD-K23228615-001-02-8::0.00061034::HTS002",-0.24470205071910925,-2.550275327904105,147],["disulfiram_BRD-K32744045-001-31-2::0.000610351::MTS006",-0.16956608170448975,-3.5329435456446,452],["pentagastrin_BRD-K78789465-001-01-6::0.00976562::HTS002",-0.17389110223909743,-3.300423266620887,397]]},"para":{"top":[["iproniazid_BRD-K88568253-011-19-9::0.625::HTS002",0.1620264512328677,-1.7192882888795846,209],["metoxibutropate_BRD-A71725768-001-01-3::0.15625::HTS002",0.1551424315753632,-2.943296868258249,437],["nemorubicin_BRD-K51911221-001-01-2::0.15625::HTS002",0.1559644695248734,-1.1626171826015865,137],["GDC-0980_BRD-K23228615-001-02-8::0.00061::MTS010::PROS004_PR500",0.14873749306293105,-2.808003178660956,450],["dichlorvos_BRD-K23779958-001-05-8::0.15625::HTS002",0.16207979575018544,-3.235175126343778,447],["alogliptin_BRD-K83003151-057-02-4::2.34747::HTS002",0.1721463958103748,-3.1308209759128864,381],["carfilzomib_BRD-K15179879-001-03-2::0.00061::MTS010::PROS003_PR500",0.1501097439349683,-2.814646274311812,443],["PETCM_BRD-A93477898-001-04-2::0.00061034::HTS002",0.15061177693159958,-2.8577092154813415,448],["motesanib_BRD-K99616396-001-05-1::9.99997::MTS010::PROS005_PR500",0.1629463036612056,-3.2651555956115845,447],["lurasidone_BRD-K51143828-003-03-1::0.00976562::HTS002",0.14714145019056535,-2.777687561298217,454],["WAY-170523_BRD-K36198571-001-02-0::0.00976562::HTS002",0.15536084990405388,-3.0478193949982826,454],["isoxsuprine_BRD-A16700644-003-04-4::0.00976562::HTS002",0.18036834138263458,-2.6658257140564925,287],["PI-828_BRD-K97365803-001-02-1::0.00976562::HTS002",0.16313008039357055,-3.2652470584526125,446],["altretamine_BRD-K67043667-001-26-4::0.15625::HTS002",0.1533831759006891,-2.4238488247654755,355],["hesperadin_BRD-K58122457-001-02-2::0.00976562::HTS002",0.17273151778835233,-1.3766203907656425,139],["tiagabine_BRD-K60160658-003-11-2::0.00976562::HTS002",0.16862499636069755,-2.7974735617495865,348]],"bottom":[["deoxycorticosterone-acetate_BRD-K24556098-001-16-7::0.00239599::HTS002",-0.17817757077992566,-3.8538093532258726,452],["paclitaxel_BRD-K62008436-001-23-9::0.00061::MTS010::PROS005_PR500",-0.15430567113546984,-2.972817276769933,447],["trans-4-Hydroxycrotonic-acid_BRD-K91614056-001-02-2::0.0390625::HTS002",-0.15885073910225628,-3.1486565197268352,451],["tacrolimus_BRD-K69608737-001-10-2::0.0390625::HTS002",-0.15994585844994755,-3.1740828940528516,449],["sulfanilamide_BRD-K02594908-001-16-4::0.15625::HTS002",-0.1579325644603942,-2.779174361934738,394],["indirubin_BRD-K17894950-001-14-3::0.00061::MTS010::PROS002_PR500",-0.15783170954316053,-2.9483991738396385,423],["golvatinib_BRD-K69001009-001-02-8::0.0024414::HTS002",-0.20301396314502645,-2.8242798487218326,242],["belinostat_BRD-K17743125-001-08-4::10::MTS010::PROS003_PR500",-0.17934514828664896,-3.815575338535687,441],["chloramphenicol-palmitate_BRD-K96424892-001-02-9::0.00061034::HTS002",-0.2186511252049291,-3.57623100467043,274],["JNJ-26481585_BRD-K83837640-001-04-8::0.0024414::HTS002",-0.16568148736654284,-2.7543366879065463,354],["sulfanilamide_BRD-K02594908-001-16-4::0.0024414::HTS002",-0.19219507370093977,-3.9683164855909308,401],["VTP-27999_BRD-K81694556-003-01-9::0.0390625::HTS002",-0.15879685457760173,-2.3070747397754943,312],["GDC-0980_BRD-K23228615-001-02-8::0.00061034::HTS002",-0.23449387083958095,-2.3713422190063365,147],["fenoprofen_BRD-A81129465-001-03-8::0.625::HTS002",-0.17359446112049917,-3.319159529276224,401],["bruceantin_BRD-A36057565-001-01-0::0.0024414::HTS002",-0.17376484240283074,-3.7016759735731033,454],["sulfanilamide_BRD-K02594908-001-16-4::2.5::HTS002",-0.15450464703598768,-2.7175961859132487,401]]}}}
{"ccle_proteomics":{"corr":{"top":[["FARP2_H7C3M7",0.19639288665376256,-1.3804990964229753,108],["SBSN_Q6UWP8",0.21233081643600907,-1.6896762277775452,119],["MTTP_E9PBP6",0.21082049486040003,-1.4989442570377864,104],["ABCB5_Q2M3G0-4",0.21430020618856524,-1.5623803017750901,106],["OSBPL7_Q9BZF2",0.2279324665429748,-1.7263463533213057,106],["PGAP3_Q96FM1",0.23148208342320645,-2.2670224091511204,143],["HGD_Q93099",0.23303620683440796,-2.758034391885393,178],["ZNF692_Q9BU19-5",0.220227852256129,-1.6201424344716961,105],["NR0B1_P51843",0.23807180710296033,-2.5999292881067317,159],["MGAT4A_Q9UM21",0.2286212266875835,-2.0119008527468574,127],["ZNF598_H3BQQ2",0.20034652059484917,-1.9052880697440235,155],["FGB_P02675",0.2007733706044549,-1.5233625468623837,117],["SSX2_Q16385-2",0.2018069543876702,-1.3772609891166918,102]],"bottom":[["ZBED5_Q49AG3",-0.23080468892741393,-2.043995695046446,127],["RAD51B_C9JYJ0",-0.23881640909693197,-2.164186245907868,127],["SLC39A3_Q9BRY0",-0.2245518976320264,-1.9275173383871258,125],["MARVELD1_Q9BSK0",-0.3154572169630001,-3.7608199609343433,137],["TBC1D25_Q3MII6",-0.19887896961850754,-1.8725421799109914,154],["PPP1R14A_Q96A00",-0.2195429474931452,-2.122328308504647,147],["FOXM1_Q08050-3",-0.20489955774087365,-1.6810720903115342,127],["DBP_Q10586",-0.25539543708879975,-2.051534455298698,104],["WNT5B_Q9H1J7",-0.19592600506871086,-1.2945823077595746,100],["ARMC5_Q96C12",-0.20872302718364033,-1.6768330342514612,122]]},"para":{"top":[["SOCS2_O14508",0.22960978450786254,-1.6798442838871621,101],["ZNF776_Q68DI1",0.22697101703454073,-1.8972618484583479,120],["SBSN_Q6UWP8",0.2618969197713163,-2.3966153405352753,119],["TAF1D_Q9H5J8",0.208626488015801,-1.7750148054089723,131],["ZSCAN5A_Q9BUG6",0.22459520190460344,-1.8900681476500907,122],["HLA-DMA_P28067",0.26425250299928366,-2.3471020369063917,114],["ABCB5_Q2M3G0-4",0.23789263141529854,-1.8518319041724147,106],["B3GNTL1_Q67FW5",0.2097727784026997,-1.7352422090695117,126],["XIRP2_J3KNB1",0.20861968549796153,-1.440145355514644,101],["GGT5_P36269",0.21302677904619655,-1.5240795489072696,104],["RIN3_Q8TB24",0.20488977755052012,-2.1747582661092526,174],["MTERF_Q99551",0.23809709980474938,-2.8899752004350687,180],["NR0B1_P51843",0.21157632489921605,-2.129365004775065,159]],"bottom":[["HIST1H2AB_P04908",-0.19425809395314547,-1.5041773922180979,123],["ZBED5_Q49AG3",-0.2681032058492688,-2.6368383415371923,127],["MARVELD1_Q9BSK0",-0.2701666489709226,-2.8511393060276826,137],["TOP1MT_Q969P6",-0.21861034600114582,-1.7353337287320068,116],["CCDC80_Q76M96-2",-0.2090218227342249,-1.658439909335118,120],["DZIP3_Q86Y13",-0.2269069231811407,-1.9093402283218828,121],["RAD51B_C9JYJ0",-0.2065877603989614,-1.7035518586966634,127],["GNA12_Q03113",-0.20480927588172368,-3.8052302785267713,336],["BMPR1A_P36894",-0.2208735724167865,-2.682048862826915,192],["DCUN1D2_Q6PH85",-0.2048016938803392,-2.2352111403064514,180],["DCHS1_Q96JQ0",-0.20629522643631054,-1.448088800588957,104],["WNT5B_Q9H1J7",-0.19434743474347435,-1.2783766814712265,100],["DCLRE1C_Q96SD1",-0.23553420189405455,-2.0313328947251463,121],["DBP_Q10586",-0.19352446795243264,-1.3095753173103377,104],["ZC4H2_Q9NQZ6",-0.2783079333428287,-2.661798440817238,119]]}}}
{"depmap_copy_number":{"corr":{"top":[["RMND1_55005",0.09657482876380916,-2.4213845674559766,897],["LOC102723831_102723831",0.09647097355907144,-2.4170586646312233,897],["LOC645967_645967",0.10011242988242691,-2.571130770470148,897],["AKAP12_9590",0.09645465187386673,-2.416379177768485,897],["NUP43_348995",0.10011242988242691,-2.571130770470148,897],["ZBTB2_57621",0.09591005702559346,-2.393763816903905,897],["SCAF8_22828",0.10237850116090941,-2.6695050558916225,897],["MIR1273C_100422821",0.10340609603691583,-2.714748125212996,897],["MTHFD1L_25902",0.09540774281112799,-2.3730016675529018,897],["PCMT1_5110",0.10011242988242691,-2.571130770470148,897]],"bottom":[["BMS1P4-AGAP5_113939925",-0.10060340245716069,-2.592281954454843,897],["FAM13C_220965",-0.1021156408703843,-2.6579953511397947,897],["BMS1P4_729096",-0.10094567935228772,-2.6070805469737564,897],["MRLN_100507027",-0.10226617425605017,-2.6645835001698224,897],["RHOBTB1_9886",-0.09956495858752755,-2.5476516688444995,897],["UGT2B28_54490",-0.12134320769561313,-3.5688412206120472,897],["AGAP5_729092",-0.10060340245716069,-2.592281954454843,897],["CCEPR_105682749",-0.10187077996119974,-2.647297042694359,897],["PHYHIPL_84457",-0.10187077996119974,-2.647297042694359,897],["FUT11_170384",-0.10089452769637777,-2.6048661863521905,897],["LINC01553_283025",-0.09956908829880905,-2.547828359157259,897],["ZSWIM8-AS1_100507331",-0.09924823386604811,-2.534119492513966,897],["CCDC6_8030",-0.10226617425605017,-2.6645835001698224,897],["SLC16A9_220963",-0.10297524524147682,-2.69573039277303,897],["SYNPO2L_79933",-0.10060340245716069,-2.592281954454843,897]]},"para":{"top":[["LOC284898_284898",0.09025699939926797,-2.1654813897160263,897],["LOC105372977_105372977",0.0910204919961613,-2.195625408913371,897],["MIR3123_100422856",0.08481342154192766,-1.9567404428433364,897]],"bottom":[["CELF2_10659",-0.11686659980772303,-3.344199914731371,897],["PHYH_5264",-0.11371578984440178,-3.1906919126881563,897],["LOC107984208_107984208",-0.11432859031167632,-3.220250769775271,897],["ZEB1_6935",-0.11427695116746597,-3.217754395223424,897],["ZEB1-AS1_220930",-0.11427695116746597,-3.217754395223424,897],["LOC441666_441666",-0.11826660236566008,-3.4136268018101226,897],["USP6NL_9712",-0.11435553390472006,-3.221553699014305,897],["LOC100505502_100505502",-0.11426231964163946,-3.2170472529799152,897],["UCMA_221044",-0.11425205088501529,-3.2165510123091976,897],["LINC00710_254312",-0.11660832040469839,-3.3314737295767967,897],["LINC02664_101929352",-0.11357682945496754,-3.1840089704055052,897],["LINC02670_101928298",-0.11686659980772303,-3.344199914731371,897],["CELF2-DT_101928322",-0.11686659980772303,-3.344199914731371,897],["OPTN_10133",-0.11395491529370198,-3.2022092627771364,897],["SFTA1P_207107",-0.11660832040469839,-3.3314737295767967,897],["MCM10_55388",-0.11395491529370198,-3.2022092627771364,897]]}}}
{"depmap_gene_tpm":{"corr":{"top":[["RGR_5995",0.11844894427717037,-3.4095929640035214,893],["WFDC10A_140832",0.11279573531664441,-3.1346092515334685,893],["CNGB3_54714",0.11693776703530025,-3.334895020276829,893],["MSR1_4481",0.1113071820693667,-3.0642204552766756,893],["GALP_85569",0.12760743885536827,-3.8810296830551705,893],["SPATA31D3_389762",0.12347850417059617,-3.6644985474508602,893],["FGA_2243",0.11171793477312919,-3.083559866419209,893],["OR8G1_26494",0.12914551994455858,-3.963374641614156,893],["OR5V1_81696",0.11218814407080667,-3.105776990363643,893],["ANGPTL3_27329",0.11402798611517022,-3.193513222751118,893],["CFHR5_81494",0.12733245837991158,-3.8664044403594975,893],["PRORY_100533178",0.14486390804026586,-4.857832944400957,893],["C2orf83_56918",0.1273857541875775,-3.869236771268859,893],["HSD3B2_3284",0.12394065142393623,-3.6884079825514773,893],["OR4F4_26682",0.11379890966039274,-3.1825193551707036,893],["MBD3L1_85509",0.1168611541311454,-3.3311312169828953,893]],"bottom":[["ZNF20_7568",-0.12982997704140256,-4.000313571087565,893],["SHARPIN_81858",-0.13118349468346363,-4.073896011114305,893],["AES_166",-0.14753790385580126,-5.019682934820131,893],["FBXW4_6468",-0.13670157209707598,-4.381266838050489,893]]},"para":{"top":[["OR12D1_26530",0.12036656107712643,-3.5056372204645596,893],["OR8D2_283160",0.11842157997647869,-3.408232590215845,893],["DEFB104A_140596",0.10463042031526511,-2.7587731350200673,893],["APOB_338",0.13046295080787962,-4.034635871056878,893],["PASD1_139135",0.13211437426941305,-4.124915608349195,893],["PLAGL1_5325",0.11152031421791717,-3.0742473644047577,893],["OR4D10_390197",0.11127819947740125,-3.062858280763205,893],["DEFB104B_503618",0.10463042031526511,-2.7587731350200673,893],["PDHA2_5161",0.1038021387767283,-2.7220472327194654,893],["OR52A1_23538",0.1049206328405605,-2.7717018161599354,893],["TDRD15_100129278",0.10551781066864628,-2.798404672531645,893]],"bottom":[["ZNF623_9831",-0.16659807214225295,-6.256315679007866,893],["ZFP41_286128",-0.1556599749791534,-5.52876702609165,893],["ZNF517_340385",-0.15297624865079404,-5.357634028081514,893],["SPPL3_121665",-0.1500429304116046,-5.1738848373479875,893],["C8orf82_414919",-0.16535318271138744,-6.171063701294459,893],["PPP1R16A_84988",-0.15682186369389156,-5.603754602048763,893],["CYHR1_50626",-0.1521449435285488,-5.305209958637035,893],["TMEM44_93109",-0.16312490080009115,-6.020042786208641,893],["KIFC2_90990",-0.1590908492506503,-5.751761455732804,893],["TIGD5_84948",-0.16411022390188687,-6.0865736524402605,893],["CCNI2_645121",-0.15319933696955057,-5.371749602658991,893],["SHARPIN_81858",-0.15541408807723606,-5.512967243883918,893]]}}}
{"avana":{"corr":{"top":[["PYROXD2_84795",0.1334361349937006,-2.6434741705813463,521],["CARS2_79587",0.13613749356177793,-2.734493521777332,521],["GSX1_219409",0.13384664032699053,-2.657201053847034,521],["RFK_55312",0.1363530671105035,-2.7418271054041448,521],["ARMH3_79591",0.13234859532728277,-2.6072888818119355,521],["TCF7L1_83439",0.13385489640156661,-2.6574775129083155,521],["IGFL4_444882",0.143438059922309,-2.988644466670699,521],["PLBD1_79887",0.13470431482958728,-2.686001769990723,521],["SAPCD1_401251",0.13156534572316403,-2.5813906609697,521],["ANO1_55107",0.13472922308023025,-2.6868406354061856,521],["COL9A2_1298",0.13645082162758265,-2.745156028718253,521],["CIDEC_63924",0.13990903732066878,-2.8642968670016526,521],["DUPD1_338599",0.136739874771115,-2.755011899632333,521],["EVL_51466",0.13690744203327845,-2.760733999826194,521],["PABPC1_26986",0.13525095114621913,-2.704443263027454,521]],"bottom":[["SPAG5_10615",-0.1474889316912303,-3.134845340866821,521],["GLI4_2738",-0.14919401851993908,-3.1974969442058145,521],["LCN2_3934",-0.1552397109236372,-3.4249850793543293,521],["LIMD2_80774",-0.16058748901335312,-3.6332087350754017,521],["ARL3_403",-0.14993393874500582,-3.224890355215169,521],["EXO5_64789",-0.16301180131100657,-3.7297816209765884,521],["PUM3_9933",-0.15237084406904086,-3.3159927073254147,521],["ARRDC1_92714",-0.1540916469684722,-3.3811419962016664,521],["MMAB_326625",-0.15236228543291697,-3.315670373251276,521],["CAPS2_84698",-0.14662380664912827,-3.103309798844266,521],["MFSD3_113655",-0.14511286032500725,-3.0486397101172136,521],["MFSD6_54842",-0.1508611298081064,-3.2593930914988705,521],["MICA_100507436",-0.14422423736535453,-3.0167282425864115,521],["PLEKHJ1_55111",-0.16973873830065284,-4.004920185160079,521],["EXOSC1_51013",-0.14273722132641775,-2.9637267565807743,521],["ESF1_51575",-0.14078973351104646,-2.895066474575921,521]]},"para":{"top":[["RPAP1_26015",0.1444562184264081,-3.0250417294361855,521],["PYROXD2_84795",0.13715637455038504,-2.7692461492527847,521],["IL2RB_3560",0.12866333280059888,-2.4866186911277888,521],["CAPZB_832",0.13669374861587158,-2.7534378808513256,521],["GTF3C6_112495",0.13030577367539273,-2.5237277119786703,517],["TSPAN14_81619",0.15387542504990423,-3.3729186031961143,521],["GJA5_2702",0.13613357914838484,-2.7343604534511066,521],["LONP1_9361",0.1293997117103968,-2.510490673995855,521],["ARMC7_79637",0.13090160425460523,-2.5595503838373124,521],["ZNF488_118738",0.13691304547601205,-2.7609254550177496,521],["GATA6_2627",0.1483095002753143,-3.164913751514589,521],["TOMM20_9804",0.14613932651759734,-3.085723679048325,521],["CD22_933",0.13902456083053552,-2.8335703953235227,521],["SLC7A1_6541",0.15092923289501187,-3.26193508286715,521],["MXRA5_25878",0.12879079406827343,-2.3588660417781866,488],["FAM43B_163933",0.12812040849671238,-2.469094726169587,521]],"bottom":[["ALCAM_214",-0.1444952881911312,-3.0264430661493855,521],["PDCD1LG2_80380",-0.14250597644757707,-2.9555293451447366,521],["CUL2_8453",-0.1402430519622272,-2.8759461063651375,521],["DDX21_9188",-0.15366396002671817,-3.364886493231725,521],["ZNF562_54811",-0.14765588151701411,-3.140950552342786,521],["MYADM_91663",-0.13878632158403653,-2.8253240153441093,521],["PUM3_9933",-0.13762224818221358,-2.7852137318777914,521],["VPS37A_137492",-0.14706219957993202,-3.1192688742109453,521],["MFSD6_54842",-0.15522465795654705,-3.4244082679042753,521],["RRAGA_10670",-0.15416667842249857,-3.383998112508884,521],["ARL6IP6_151188",-0.14483830072437487,-3.038760899427942,521],["PLEKHJ1_55111",-0.14902580082009817,-3.1912865634181684,521],["BEND6_221336",-0.14355592663880143,-2.9928460009902706,521],["GNAT2_2780",-0.14770827974750544,-3.142868015707063,521],["CAPZA3_93661",-0.13738057936355358,-2.7769245985760596,521]]}}}
{"drive":{"corr":{"top":[["ASPHD2_57168",0.13891742614856184,-2.0427890899573526,352],["SRP19_6728",0.15657263493677978,-2.473529460714242,349],["KLHL4_56062",0.15419555931260276,-2.4741009573253545,360],["ATAD1_84896",0.1485511402974224,-2.265601802747175,349],["CXCL3_2921",0.2149826589100446,-4.3542027098057385,355],["ALG3_10195",0.1425730102716382,-2.1168937102417664,349],["CDH16_1014",0.13985483953764766,-2.0510281002054467,349],["CACNA1I_8911",0.20834560807927283,-4.167399853890296,360],["MBD3L2B_729458",0.1505437899951001,-2.332851135067425,352],["ZNF346&PLSCR2&PHYKPL_23567&57047&85007",0.14133561125580718,-2.0328419368326225,338],["LPAR2_9170",0.14400414323156652,-2.1520108187962697,349],["TLR9_54106",0.1414426285871643,-2.08937042116613,349],["KLHL9_55958",0.14364946542792262,-2.17352350119297,355],["UBA7_7318",0.15996635529630995,-2.5644211958646514,349],["ERCC5_2073",0.17179184156027302,-2.9723117162197132,360],["RBM45_129831",0.1455089048118202,-2.189261863084781,349]],"bottom":[["MSN_4478",-0.1410485796792309,-2.079820176616463,349],["MSLN_10232",-0.17025734551135818,-2.850785981231929,349],["WDHD1_11169",-0.14141835623956295,-2.1034791973736087,352],["RPP38_10557",-0.17183324569388475,-2.9172201491349568,352],["ZBTB17_7709",-0.1408262847695615,-2.0890274256629913,352],["CHTF18_63922",-0.14505238667157444,-2.1779250573423923,349],["GINS2_51659",-0.1503464237166118,-2.3715912653954674,360],["REV1_51455",-0.16382348361433888,-2.6698511349624607,349],["ELF1_1997",-0.14403552148435358,-2.1679869170631623,352],["ARHGAP20_57569",-0.15735489721490772,-2.4943254417422303,349],["PPAN_56342",-0.14344044120746874,-2.1532296338791133,352],["MASTL_84930",-0.19173536093738444,-3.501522586875056,349],["RHOT1_55288",-0.15592308855867282,-2.4563319845651668,349],["MIDN_90007",-0.14874117213723953,-2.270416110017963,349]]},"para":{"top":[["ADGRB3_577",0.17774039178433876,-3.1518801081629153,360],["HCLS1_3059",0.1456430152709572,-2.2081156503455457,352],["RASA2_5922",0.14496684120252493,-2.1758041310755365,349],["NDRG3_57446",0.15341996983076303,-2.390654581079946,349],["ARHGAP15_55843",0.15025782334205584,-2.3090326517625446,349],["RHOB_388",0.14661087601527806,-2.2167549046062978,349],["ANKHD1_54882",0.150619730190282,-2.3182982695177197,349],["ATAD1_84896",0.16028324717699283,-2.5729975571926094,349],["CACNA1I_8911",0.19912109621781976,-3.8449243201508083,360],["LPAR2_9170",0.15441154364118861,-2.416558753578618,349],["LOC105369252_105369252",0.14724114759808427,-2.24839463854649,352],["GMPS_8833",0.14929178688178513,-2.2843959520291497,349],["UBA7_7318",0.1768877217411298,-3.0439448041503914,349],["CXCL3_2921",0.20210662884871083,-3.8997039704441208,355],["INPP5B_3633",0.13718610690056146,-1.9874179509252197,349],["PURA_5813",0.14098579393638735,-2.0929157257862014,352]],"bottom":[["L3MBTL2_83746",-0.17370779346159793,-2.972034914081635,352],["POLG_5428",-0.16586777278881457,-2.726651468059808,349],["CHAF1B_8208",-0.16377062183074634,-2.687701380289944,352],["MSLN_10232",-0.16430428600577907,-2.6831525776680674,349],["C1QL1_10882",-0.16075110047034402,-2.5856874707434825,349],["UBE2QL1_134111",-0.16294494603054963,-2.6456376652452054,349],["MCPH1_79648",-0.15846330130848313,-2.5239504055784816,349],["UBE2D3_7323",-0.17247262073581654,-2.9145625196373217,349],["GAS7_8522",-0.1712464202774104,-2.8791669668276647,349],["MAGED1_9500",-0.16230698870715785,-2.69769175346448,360],["AMZ2_51321",-0.18904634959487426,-3.4414202725534255,352],["XRCC4_7518",-0.17844414712121145,-3.0902802144731947,349],["ARHGAP33_115703",-0.1656483213958915,-2.7205233326528795,349],["UIMC1_51720",-0.15755452615368015,-2.4996472954901776,349],["MASTL_84930",-0.17125013850282927,-2.8792739450649028,349],["RORA_6095",-0.1817621153798508,-3.2138501469407252,352]]}}}
{"achilles":{"corr":{"top":[["FRG2_448831",0.1890947634412984,-2.4501227873693745,236],["C20orf203_284805",0.1967733241985133,-2.6210996663032318,236],["SPATA16_83893",0.2094316258705265,-2.916786986366949,236],["AHSA2_130872",0.21049041938943538,-2.9423093432613587,236],["FATE1_89885",0.19539244939225672,-2.5898886852578547,236],["TBC1D2_55357",0.20028929754410488,-2.7014920941043488,236],["CCDC186_55088",0.1978720769803524,-2.646079928628304,236],["TNFAIP8L1_126282",0.216444052351883,-3.088119004939407,236],["EPGN_255324",0.24577196805221158,-3.864544798075171,236],["VWC2_375567",0.1958791864615187,-2.600866796220585,236],["SEC16B_89866",0.2066638248564515,-2.8506480670743093,236],["IDO2_169355",0.2453744613581081,-3.8533612089888534,236],["RBM28_55131",0.1916317414180876,-2.505919656420556,236],["FAM118B_79607",0.1977749836383507,-2.6438672860197103,236],["TLN2_83660",0.20785859511234828,-2.879095464457305,236],["AAED1_195827",0.20850767958513677,-2.8946154454302815,236]],"bottom":[["ZPLD1_131368",-0.182354366287533,-2.3051753860528037,236],["DNAH2_146754",-0.21136643813980807,-2.963518848846224,236],["ZDHHC5_25921",-0.2073901230088758,-2.867922616577157,236],["CEP126_57562",-0.1839600461488107,-2.3392715815282323,236],["NREP_9315",-0.1929281547584292,-2.534695867584068,236],["MRO_83876",-0.18460756533370193,-2.3530978743876263,236],["CBFA2T3_863",-0.18279719389500557,-3.711032051408836,411],["HILPDA_29923",-0.24256040802152634,-3.774716599121734,236],["CRISPLD1_83690",-0.18689342530968242,-2.402259188410589,236],["LPCAT3_10162",-0.20828451585775523,-2.889274280179727,236],["FYCO1_79443",-0.1883080728233365,-3.9106439834194036,411],["SLC22A20_440044",-0.19578889429312576,-2.5988283880013268,236],["MPP4_58538",-0.18585850627585396,-2.3799334553319804,236],["CCNJL_79616",-0.184379820414507,-2.3482298905560097,236],["VCAM1_7412",-0.2023783643690257,-2.7498888653112066,236],["NKG7_4818",-0.181625564890368,-2.289788406880603,236]]},"para":{"top":[["FMN2_56776",0.19912182077712334,-2.674650494468829,236],["ERVV-1_147664",0.19040726171365474,-2.4789040080317166,236],["TCEAL8_90843",0.20374908988856993,-2.781900411003556,236],["FBXW10_10517",0.19457900512539755,-2.571598355558345,236],["LINC01931_150596",0.19496564518222045,-2.5802831632954364,236],["AHSA2_130872",0.25420311005380525,-4.106120674155414,236],["EPGN_255324",0.21248632837109435,-2.9907555950761027,236],["BTG3_10950",0.20032296092405757,-2.702268230331575,236],["TMEM43_79188",0.18281846174805616,-2.3150026213890875,236],["CCDC186_55088",0.19955985987841593,-2.6847043058461217,236],["CCDC81_60494",0.23283695460671697,-3.510026270862905,236],["IDO2_169355",0.21963747147560858,-3.167945067530182,236],["TMEM86A_144110",0.18908931223506006,-2.450003630170459,236],["MDGA1_266727",0.20306277210750545,-2.765846901742493,236],["OCIAD2_132299",0.2321956501349244,-3.4929502181767647,236],["TAGLN2_8407",0.19829083940701472,-2.6556346236395423,236]],"bottom":[["SCFD1_23256",-0.21462261405594327,-3.043095114153146,236],["ZPLD1_131368",-0.19603426899924806,-2.6043699268753553,236],["TIGD3_220359",-0.20010896227257113,-2.6973363990957457,236],["DNAH2_146754",-0.24128108014601046,-3.7392675927832726,236],["MUC17_140453",-0.20062177480893462,-2.709162978683316,236],["OSBPL7_114881",-0.20216299320574643,-2.7448776328826128,236],["GJA5_2702",-0.19709044413586585,-4.2406231792380495,411],["DLG3_1741",-0.23522379257103646,-3.573993671835043,236],["HILPDA_29923",-0.27655236431487606,-4.787688663760326,236],["GBP6_163351",-0.20491252319798212,-2.80923072023223,236],["MPP4_58538",-0.19678303383937293,-2.6213198493335903,236],["FBL_2091",-0.20190322855649792,-2.7388401298918685,236],["CENPB_1059",-0.1964146528009992,-2.612973242275751,236],["SLC22A20_440044",-0.22074925599141396,-3.1960028762883326,236],["NKG7_4818",-0.2129293100821565,-3.001567404565279,236],["C11orf57_55216",-0.1954226280346517,-2.5905686130329575,236]]}}}
{"ccle_rrbs_tss1kb":{"corr":{"top":[["MEOX1_17_41739262_41740262",0.20213334031847818,-1.4976979802645911,113],["GTF2H2C_2_5_68855031_68856031",0.15370713094073596,-2.6031998374613274,385],["STK32C_10_134145379_134146379",0.11904672476544727,-3.0699868382087945,782],["RPS27A_2_55458540_55459540",0.15098228009816025,-2.116399663683017,311],["RND2_17_41176257_41177257",0.12198241800745609,-3.2113258451807485,785],["MARCH8_10_46090354_46091354",0.17051210145520937,-2.389088328740859,282],["SMARCD2_17_61920351_61921351",0.14024316915440177,-2.276376145870991,394],["FBXL19_16_30934895_30935895",0.11936644972041,-3.1210296338398864,793],["ERCC2_19_45873845_45874845",0.1336584554071429,-1.944665038083144,358],["DPY19L1_7_35077653_35078653",0.1283801927587728,-1.4179075082211188,261],["LOC100288203_15_30762371_30763371",0.12675534685852938,-1.1369322200680538,201]],"bottom":[["RXRA_9_137297427_137298427",-0.11883128799205106,-3.047173158812552,778],["PLAC9P1_2_130691890_130692890",-0.19707562901954495,-2.2590634775458067,197],["LOXHD1_18_44139270_44140270",-0.14075428811007945,-3.6078539552615383,674],["SLC35G3_17_33521412_33522412",-0.16842412510922045,-2.2850567142531855,274],["PPP1R2B_5_156276496_156277496",-0.1473999947946035,-3.2956231704283088,553],["FANCG_9_35080013_35081013",-0.12977447886705037,-3.4123679782001557,744],["MIR1537_1_236016360_236017360",-0.13742484255253504,-1.3060720449494583,205],["PRR23C_3_138763734_138764734",-0.16389288117027487,-2.2756230299859386,288],["RPS20_8_56987140_56988140",-0.11804248442241162,-2.9435705751930774,757]]},"para":{"top":[["CYB5R2_11_7695474_7696474",0.1178075819364305,-2.972997801152146,769],["MAD2L1_4_120988013_120989013",0.13011104587412106,-3.4633770509912396,753],["EIF3B_7_2393473_2394473",0.11742900189062275,-2.986081646451246,778],["MBLAC2_5_89770585_89771585",0.1180977990858324,-1.9248684620382706,453],["TFRC_3_195809032_195810032",0.15677907559273244,-3.3049152846986174,490],["NME6_3_48343175_48344175",0.11906206927544039,-1.4601195835056682,315],["DBNDD2_20_44035628_44036628",0.13601861787630493,-3.8965650735630715,789]],"bottom":[["KATNBL1P6_6_147124960_147125960",-0.13861814666744227,-1.8218044503387099,307],["PLAC9P1_2_130691890_130692890",-0.1801046808988564,-1.9460106875675496,197],["INPP4A_2_99060049_99061049",-0.13067473673993846,-3.6171410515221054,785],["RPS20_8_56987140_56988140",-0.12715461600196115,-3.343636449440246,757],["MIR3191_19_47730276_47731276",-0.1347769591275553,-3.8386984843240164,790],["SLC27A1_19_17580252_17581252",-0.12867057684181424,-3.552266452063746,793],["PRR23C_3_138763734_138764734",-0.15553585554147423,-2.0867511567197736,288],["LOC100288203_15_30762371_30763371",-0.12913186245949132,-1.1694118123865846,201],["ZNF215_11_6947892_6948892",-0.1363352687532267,-2.491935974932464,465]]}}}
{"ccle_gene_tpm":{"corr":{"top":[["SPATA31E2P_ENSG00000258916.2",0.1340281913242302,-4.218398118410168,890],["HSD3BP2_ENSG00000203858.2",0.13213835808965652,-4.11409952209536,890],["RNA5SP44_ENSG00000222378.1",0.13313882328247748,-4.169141646295952,890],["RP11-475I24.7_ENSG00000230245.1",0.13487358193189133,-4.265504229005698,890],["LINC-ROR_ENSG00000258609.1",0.13533964879567476,-4.291593010868576,890],["RP11-23J9.3_ENSG00000228957.1",0.1381995508383735,-4.453535903921478,890],["RP11-412B14.1_ENSG00000255101.1",0.13575742092773666,-4.315050377619425,890],["RP11-817O13.1_ENSG00000260104.1",0.13966847901548285,-4.53795765913913,890],["RP11-963H1.1_ENSG00000271034.1",0.13787462679867252,-4.434976065853886,890],["RP11-454P21.1_ENSG00000249937.1",0.14060362938422408,-4.592142911475745,890],["AC005794.1_ENSG00000268582.1",0.1346974126200087,-4.255664928467624,890],["RP11-241F15.5_ENSG00000248532.2",0.14554023187699858,-4.883883306366157,890],["RPS3AP35_ENSG00000244289.1",0.135645726794409,-4.3087722316496295,890],["RP11-540K16.1_ENSG00000237292.1",0.14401181700787166,-4.79253165679573,890],["AC090696.2_ENSG00000232394.1",0.13545542342714548,-4.298086792076258,890]],"bottom":[["None_ENSG00000267469.1",-0.14539144174316682,-4.874949755860714,890],["ZNF20_ENSG00000132010.11",-0.13519780382805394,-4.283644069498223,890],["RP11-661A12.14_ENSG00000271912.1",-0.1362036754790659,-4.340182177787097,890],["FBXW4_ENSG00000107829.9",-0.13659135435379186,-4.362078235753712,890],["None_ENSG00000255439.2",-0.1325749962333644,-4.13807404191298,890]]},"para":{"top":[["RP11-116D2.1_ENSG00000261012.2",0.11727238575379159,-3.3416938226743946,890],["APOB_ENSG00000084674.9",0.13182732486231488,-4.097066721007363,890],["IGKV1-27_ENSG00000244575.1",0.11298146825715673,-3.134441774223057,890],["RP11-98L5.2_ENSG00000237339.1",0.12542303679711064,-3.754672060909834,890],["ERVMER61-1_ENSG00000230426.1",0.128248002200609,-3.9037522668069484,890],["OR4D10_ENSG00000254466.1",0.11675734361865928,-3.3164486196985825,890],["DNM1P49_ENSG00000261820.1",0.11424425986789356,-3.19471098895364,890],["RP1-122K4.2_ENSG00000233535.1",0.1232616532091787,-3.642682792444604,890],["OR8D2_ENSG00000197263.2",0.11454980801822046,-3.209384463789075,890],["PASD1_ENSG00000166049.10",0.13131235946774106,-4.068948670486162,890],["AJ003147.9_ENSG00000262668.1",0.14786393605612122,-5.024537843425062,890],["RP11-672A2.5_ENSG00000255363.1",0.12285363839718642,-3.6217430887955926,890],["BRD7P3_ENSG00000169075.7",0.11512149540416494,-3.236933765827051,890]],"bottom":[["ZNF517_ENSG00000197363.5",-0.15393474239460314,-5.402123960497641,890],["PPP1R16A_ENSG00000160972.5",-0.15535355018339686,-5.492488739335916,890],["RP11-661A12.14_ENSG00000271912.1",-0.16063639950905526,-5.836057741627899,890],["SHARPIN_ENSG00000179526.12",-0.15610261186512747,-5.540521995483395,890],["TMEM44_ENSG00000145014.13",-0.16225986568315492,-5.943896758239278,890],["C8orf82_ENSG00000213563.2",-0.16264114536409802,-5.969377712392764,890],["ZFP41_ENSG00000181638.13",-0.1601396004462995,-5.803270294402895,890],["ZNF252P_ENSG00000196922.6",-0.17357589945265942,-6.725286918698713,890],["KIFC2_ENSG00000167702.7",-0.16049107835740595,-5.826456626472965,890],["ZNF623_ENSG00000183309.7",-0.17167341415338364,-6.590263998280012,890],["ZFP90_ENSG00000184939.11",-0.15266110461504565,-5.321690490667367,890],["CCNI2_ENSG00000205089.3",-0.15250438835871546,-5.311838201844933,890]]}}}
{"ccle_rrbs_tss_clusters":{"corr":{"top":[["TCF20_3",0.15641861025421644,-1.7973568847213928,237],["MECP2_3",0.17269223276183943,-1.8021472146564328,195],["NIPBL_2",0.18305714285788963,-1.8735521158497743,182],["SMS_2",0.15328466035491353,-2.3700576264891553,346],["RBPJ_2",0.16499509524184314,-2.347533524319416,295],["TTTY15",0.19031319313280004,-2.5207801324410624,241],["ABCC4_2",0.15004576628206304,-1.669680930226995,235],["SERPINB9P1_3",0.15685963872521125,-1.9767570515848252,265],["VCAN_2",0.15883243608303863,-2.776037930466284,389],["GSTM3_1",0.1687196599470073,-1.8994156215754745,218],["VGLL4_6",0.1902734586343335,-2.370230825785214,224],["DPP9_2",0.15439562235708007,-1.4575208104350736,187],["ZNF567_3",0.15960703250762284,-2.388552885133847,322],["RBBP8_1",0.1642604023236772,-2.830519266741093,372]],"bottom":[["FAM177B_3",-0.1873475750658495,-4.375938324229664,472],["LRRC74A_1",-0.19345932748084732,-2.7724660566864703,261],["BOD1L2_3",-0.17940412489886456,-2.8118032425092228,309],["ITFG2-AS1_1",-0.17298230244030785,-2.3093200564120036,263],["PRAME_2",-0.1672973684720418,-2.3550610972757413,288],["LOC105373878_3",-0.16560159420463275,-3.4742479496938437,465],["SLC27A6_2",-0.16522205823417807,-2.458818439509677,311],["PRKXP1",-0.23205856982392453,-2.6332817823202537,170],["RNF225_1",-0.17887503994611054,-6.4372859695273705,798],["PLAC9P1_3",-0.17066665350635005,-1.8045777568013133,200],["MIR153-2_3",-0.16736435843193573,-2.4178209202045395,297],["DBH-AS1_2",-0.172192491365619,-2.493361429498379,291],["PSG10P_2",-0.1830657454859882,-2.352942067740002,240],["KCNE1_4",-0.23019448675081863,-4.2685713127439895,302],["ZNF551_1",-0.17075285473477878,-2.1599852704474523,249]]},"para":{"top":[["TCF20_3",0.18280874531519026,-2.322952982209339,237],["ARHGEF3_4",0.2042286418484913,-2.1218298762506858,170],["CSNK1G1_3",0.1922647161758703,-2.185956849529564,199],["DNPH1_1",0.17052338707911477,-2.5582452385853727,306],["SYP-AS1_3",0.16774292757408085,-2.235331091037865,269],["LMTK2_3",0.18267070003269872,-3.5494400354740834,391],["LDHC_3",0.15969048985056225,-1.425795691995386,170],["ZDHHC9_1",0.17445604188289326,-1.5317422726179355,156],["GSTM3_1",0.16753112361247843,-1.8776611900176639,218],["VGLL4_6",0.17080692389537214,-1.981354921610429,224],["ANKRD40CL_1",0.19114319273861255,-2.22763714998043,206],["SLC30A8_3",0.17024677053944967,-3.195253974171544,399],["SLC48A1_1",0.1452823066456711,-1.4837240230807587,216],["NR3C2_4",0.19471844202618568,-2.4550857428238206,223]],"bottom":[["MIR3648-2_3",-0.17778259906218682,-3.7053074925901077,434],["GRSF1_3",-0.16286817281863358,-2.6881010957418687,356],["EHD2_2",-0.16000513922348153,-2.305311153389101,307],["LINC01725_3",-0.1719562981016415,-2.025217894436825,227],["PMVK_3",-0.17187763212332724,-3.325271604730563,410],["MIR153-2_3",-0.16640487993315758,-2.3946253336077508,297],["MIR519D_2",-0.16943341993998412,-1.8696538311474238,212],["NTHL1_2",-0.17903584399223452,-3.7814349845813306,438],["FAIM_3",-0.1598178154290428,-2.492669786159305,338],["HSD17B8_1",-0.17894575678913327,-2.1708781126107857,228],["SLC29A2_2",-0.15955771992823156,-2.510429852686794,342],["DNAJC27_2",-0.18822779293239061,-2.1451450740278877,203],["KCNE1_4",-0.18182710448094389,-2.8216991185213818,302],["SAE1_1",-0.1896330046073515,-2.8524203992394157,281],["LINC02210-CRHR1_1",-0.16538477638323298,-3.870392159273866,528]]}}}
{"ccle_rrbs_cgi_clusters":{"corr":{"top":[["3_11761358_11764078-3",0.1902734586343335,-2.370230825785214,224],["22_42677333_42681893-3",0.15641861025421644,-1.7973568847213928,237],["23_153360568_153365473-3",0.17269223276183943,-1.8021472146564328,195],["6_2873601_2877811-3",0.15685963872521125,-1.9767570515848252,265],["4_26322141_26325150-2",0.16499509524184314,-2.347533524319416,295],["1_110280351_110285306-1",0.1687196599470073,-1.8994156215754745,218],["5_36876793_36879660-2",0.18305714285788963,-1.8735521158497743,182],["18_20511119_20515857-1",0.1642604023236772,-2.830519266741093,372],["23_21956611_21959156-3",0.18920319850086714,-2.19886355413782,207],["19_37176104_37180589-3",0.15960703250762284,-2.388552885133847,322],["5_693529_696377-2",0.16762727816495998,-3.030762254010249,387],["10_22538707_22541723-2",0.1567355251793898,-1.8339153039751575,242],["5_82766387_82771268-2",0.15883243608303863,-2.776037930466284,389],["19_4721723_4725981-2",0.15934791835785336,-1.5319785563604593,187],["6_13612901_13615402-3",0.1602018838462947,-2.576971482530906,350]],"bottom":[["2_91934876_91939290-2",-0.17873404718378597,-2.1194866339932905,222],["1_40767186_40771871-3",-0.1880470882989352,-3.082278362008591,313],["1_228672346_228675049-2",-0.19325484329975384,-4.024720267100765,403],["19_58905453_58910422-1",-0.17887503994611054,-6.4372859695273705,798],["19_5145854_5150176-2",-0.18120430520351882,-3.398955745527399,378],["23_125712890_125717321-2",-0.1841042694637632,-2.2512407465795965,225],["8_1588038_1591160-2",-0.17420250087786526,-4.355779738962411,544],["1_142616751_142621238-2",-0.1971560394063499,-2.667369006612205,240],["24_17565579_17568098-2",-0.17976921260602194,-2.163694792514402,225],["13_114784335_114788537-3",-0.21907238835422,-2.0550659007394296,142],["6_160390361_160392890-3",-0.19851676160259582,-3.208849472530045,294],["3_184301625_184304134-3",-0.19845574489761925,-3.0662381682619335,279],["7_157407846_157412241-3",-0.19466333210434156,-2.601013491213596,239],["19_10821618_10825878-3",-0.22067922460047612,-3.6350751523257383,274],["4_8373042_8377342-2",-0.18890238148718316,-3.546430823168848,365],["15_101097006_101101493-2",-0.23205856982392453,-2.6332817823202537,170]]},"para":{"top":[["3_11761358_11764078-3",0.17080692389537214,-1.981354921610429,224],["22_42677333_42681893-3",0.18280874531519026,-2.322952982209339,237],["6_43194811_43199340-1",0.17052338707911477,-2.5582452385853727,306],["7_97734035_97738854-2",0.18267070003269872,-3.5494400354740834,391],["2_242786781_242789951-1",0.1814791184317575,-2.899215683404604,313],["3_147075115_147079672-3",0.19545446163838096,-2.52646903282015,229],["11_46354641_46357190-2",0.16723719566845047,-2.2787587702984555,277],["1_110280351_110285306-1",0.16753112361247843,-1.8776611900176639,218],["4_149361212_149365134-1",0.19471844202618568,-2.4550857428238206,223],["1_155237278_155241494-2",0.16215485036562435,-1.8006551965073312,221],["23_15662741_15667178-1",0.1815321314097806,-2.0611597393270986,208],["15_64645914_64650523-3",0.1922647161758703,-2.185956849529564,199],["23_49054348_49058887-3",0.16774292757408085,-2.235331091037865,269],["23_128975325_128979998-1",0.17445604188289326,-1.5317422726179355,156]],"bottom":[["2_25194677_25197214-2",-0.18822779293239061,-2.1451450740278877,203],["1_40767186_40771871-3",-0.19156776621024027,-3.1829243549118877,313],["11_67476312_67478954-3",-0.18211202830353015,-1.5218003424080617,142],["3_13324184_13326929-1",-0.19334718646635732,-3.056371510260047,293],["1_228672346_228675049-2",-0.18798799915416978,-3.83254910299546,403],["3_170623831_170626336-2",-0.1852955333475851,-4.226701778630029,464],["24_13368336_13372718-2",-0.23353393843169173,-3.3201855768879316,220],["16_2095465_2100365-2",-0.17903584399223452,-3.7814349845813306,438],["23_153626709_153629324-3",-0.18980037423089435,-2.3603349770273647,224],["1_142616751_142621238-2",-0.16831359947552757,-2.046393180749327,240],["19_47631911_47636364-1",-0.1896330046073515,-2.8524203992394157,281],["1_84324267_84328838-3",-0.1719562981016415,-2.025217894436825,227],["13_114784335_114788537-3",-0.2304292612881082,-2.2365194495854217,142],["21_9823442_9828296-3",-0.17778259906218682,-3.7053074925901077,434],["20_19190459_19193181-1",-0.26591285672840403,-4.153273420053282,218],["1_154906962_154911931-3",-0.17187763212332724,-3.325271604730563,410]]}}}
