{"depmap_hotspot":{"corr":{"top":[["ACSM4",0.15995780355707775,-3.2289411006296183,17.0,441.0],["ADAMTS4",0.12346046645678295,-2.0879231846664608,37.0,421.0],["ADNP2",0.12100281383051932,-2.0203960710670406,30.0,428.0],["ALG9",0.13709201220196998,-2.4835248834697907,8.0,450.0],["ANO2",0.14297477278873552,-2.6654034764912375,50.0,408.0],["ATF6",0.14145222461590104,-2.617679229972641,28.0,430.0],["BTBD1",0.13182452620363386,-2.326401630264064,14.0,444.0],["C12orf49",0.14954687101218736,-2.8766592420148513,9.0,449.0],["CCDC136",0.13143907986013892,-2.3151155572402415,29.0,429.0],["CCNT2",0.12220294371616199,-2.053227447923071,19.0,439.0],["CD5L",0.17489305578628483,-3.7726862768017484,16.0,442.0],["CHUK",0.12752886169087116,-2.2022432558529155,32.0,426.0],["EQTN",0.14257147259636707,-2.6527176260653085,11.0,447.0],["FAM189B",0.13322882781922998,-2.367763622689194,28.0,430.0],["FCER1G",0.15058329012407748,-2.910756689626661,8.0,450.0],["FLG",0.13084363102967106,-2.2977369667127254,164.0,294.0],["GPR151",0.14795646184424513,-2.824751522585434,10.0,448.0],["GTPBP10",0.12608573637325962,-2.1613292215462163,15.0,443.0],["HDAC2",0.12665212888640834,-2.1773393660807376,19.0,439.0],["IDO2",0.1238326182121146,-2.098248897288819,19.0,439.0],["JSRP1",0.13111622826340225,-2.305684402477701,11.0,447.0],["KDSR",0.12857296914161345,-2.232094171281941,8.0,450.0],["KRTAP10-6",0.1210316855488338,-2.021182685127354,23.0,435.0],["LEPRE1",0.12816114110182752,-2.220295014779367,20.0,438.0],["LRRC39",0.1222373139159707,-2.05417173449342,8.0,450.0],["MAP2K5",0.13379456279632196,-2.3845346823228972,23.0,435.0],["METTL5",0.13691197846823044,-2.4780655678180845,8.0,450.0],["NME7",0.12998552298329938,-2.272812949081622,15.0,443.0],["NPNT",0.12610435740176815,-2.161854601871295,16.0,442.0],["NXPH2",0.13021242527013532,-2.2793895740139454,8.0,450.0],["OR5P2",0.13545162535244137,-2.434015557809764,14.0,444.0],["OXA1L",0.1287951900204676,-2.2384745103486448,13.0,445.0],["PABPC1L",0.12786938673703274,-2.211955794148973,20.0,438.0],["PAK2",0.12915794102546013,-2.248910138317168,12.0,446.0],["PDC",0.13629030692439897,-2.459262699472692,10.0,448.0],["PLCH2",0.12285903215122901,-2.071291671304298,48.0,410.0],["PPT2",0.13519665855295795,-2.4263673429190784,10.0,448.0],["PRTFDC1",0.12653089003308904,-2.1739071475430563,9.0,449.0],["PSMD2",0.12489772248559722,-2.127947473689364,17.0,441.0],["RBBP8",0.1298798214038549,-2.2697526444291465,20.0,438.0],["RBMX",0.1291768721912917,-2.2494554463710714,8.0,450.0],["RUNDC1",0.12319330867529514,-2.080526930658639,16.0,442.0],["SEC13",0.130385190099462,-2.284403720249879,9.0,449.0],["SELP",0.12990695083144735,-2.270537898371473,32.0,426.0],["SF3A3",0.13916704037382946,-2.5469047656951807,12.0,446.0],["SH2D3A",0.12238369034426065,-2.058195798748322,17.0,441.0],["SLC30A3",0.12894088365399112,-2.2426627823260037,22.0,436.0],["SLC35F5",0.1403707594089922,-2.584057482752943,16.0,442.0],["SPAG16",0.13915340331188011,-2.546485484827618,21.0,437.0],["STK38L",0.12467057527476112,-2.1215956764244237,12.0,446.0],["TTF1",0.1501595707029225,-2.896790767601687,56.0,402.0],["ULK2",0.1356762961941765,-2.4407654745975615,31.0,427.0],["USP44",0.13507643423788263,-2.422765373793722,25.0,433.0],["WDR54",0.12131604040524104,-2.028938438927678,20.0,438.0],["ZFYVE20",0.14079728809445094,-2.597290440868513,18.0,440.0],["ZNF20",0.1235192163161994,-2.089551499333942,16.0,442.0],["ZNF280B",0.12838938407581577,-2.226830301767043,19.0,439.0]],"bottom":[["ACVR1B",-0.1491212689723685,-2.8627191776737875,18.0,440.0],["ATP6V1E2",-0.12694948373067438,-2.1857692925223686,8.0,450.0],["CCDC132",-0.1320837724149708,-2.3340086655245047,26.0,432.0],["CLEC6A",-0.13013463052940955,-2.2771336215840825,11.0,447.0],["CSPG5",-0.14064615842446065,-2.592597592363992,21.0,437.0],["CTGF",-0.12560951328823244,-2.1479154737157264,13.0,445.0],["CTNNAL1",-0.12498179183809406,-2.1303008369350875,9.0,449.0],["GAPDH",-0.1322244503200888,-2.3381420080952036,9.0,449.0],["GLRA1",-0.1788279601851799,-3.923583606050835,20.0,438.0],["GSS",-0.11452433862248529,-1.8478804966326015,12.0,446.0],["HECTD3",-0.13201041818372045,-2.331854920181711,23.0,435.0],["IL11RA",-0.12581905104271046,-2.153812157966734,15.0,443.0],["KLRG2",-0.11402166792057046,-1.8348257669314971,14.0,444.0],["PCDHB3",-0.12722081727956838,-2.1934763321706976,49.0,409.0],["PDLIM2",-0.16347587552010254,-3.3529224944207816,12.0,446.0],["PPP6R2",-0.12207157951111144,-2.0496204218671585,31.0,427.0],["PRB2",-0.12077740392016491,-2.01426019217286,22.0,436.0],["RAD51D",-0.12380326677529474,-2.097433552624257,9.0,449.0],["SLC6A9",-0.1332766672912852,-2.3691794075374824,19.0,439.0],["STARD6",-0.14512584984113758,-2.733607501438671,10.0,448.0],["TIPRL",-0.11552376383914319,-1.8739774208193438,9.0,449.0],["TMCO3",-0.1387573845931443,-2.5343254949591674,19.0,439.0],["TRA2B",-0.11952620502296558,-1.9803767258095133,13.0,445.0],["TSR1",-0.12051977479113006,-2.007259095356883,15.0,443.0],["USP22",-0.1195413840919785,-1.9807860074783827,20.0,438.0],["USP32",-0.12617899562349122,-2.1639611383820108,47.0,411.0],["ZC3H15",-0.13389993803868944,-2.3876653648506516,17.0,441.0],["ZNF812",-0.11431916545819548,-1.842546264445614,16.0,442.0]]},"para":{"top":[["ACSM4",0.13605378531385579,-2.7396235529238595,17.0,441.0],["ANXA8L2",0.11426012015950852,-2.135940355521922,13.0,445.0],["ATP6V1C2",0.11261662879067892,-2.0936762870511396,9.0,449.0],["BTBD1",0.13440299972285796,-2.6907453105525168,14.0,444.0],["CD5L",0.15424792404790538,-3.3102310445204823,16.0,442.0],["CHODL",0.11147677905908539,-2.0648990455084992,10.0,448.0],["DXO",0.11713810309184824,-2.2106377306890916,12.0,446.0],["EFCC1",0.14481457753416668,-3.006856813401053,20.0,438.0],["FAM185A",0.12510975718267184,-2.4252980643406254,9.0,449.0],["GPR151",0.13063067064602404,-2.5809736350597814,10.0,448.0],["KDSR",0.12681571064715083,-2.4726818434782247,8.0,450.0],["KIF2A",0.12624301352697656,-2.4570539151239386,13.0,445.0],["METTL5",0.12605935452003067,-2.451564734196647,8.0,450.0],["NME7",0.12326517468486789,-2.3749115022067824,15.0,443.0],["NXPH2",0.12895871967399133,-2.533080803321777,8.0,450.0],["OR5P2",0.13401926524827448,-2.679484595015047,14.0,444.0],["PAQR7",0.11221129407569365,-2.083465184095928,10.0,448.0],["PDC",0.1366762942442613,-2.7577558794747183,10.0,448.0],["PEX13",0.11108993095515528,-2.0552806518248667,12.0,446.0],["PPT2",0.13752381157111704,-2.7830750673574474,10.0,448.0],["RAB6A",0.10368381909272521,-1.8737204848061348,8.0,450.0],["RBMX",0.10349473006094517,-1.8692205583111217,8.0,450.0],["SETD7",0.09756994039850372,-1.7314410414979555,8.0,450.0],["SF3A3",0.1396765907123451,-2.848128922102183,12.0,446.0],["SPAG16",0.14417061024620237,-2.986767219709381,21.0,437.0],["STK38L",0.12938952870207243,-2.545646730418719,12.0,446.0],["TMED9",0.12778685612381316,-2.5000485223331186,9.0,449.0],["TMEM38B",0.10464482305483581,-1.8967737453462952,9.0,449.0],["ZFYVE20",0.14401419851819866,-2.9817982210723186,18.0,440.0]],"bottom":[["ADSL",-0.12927055112530414,-2.542367819662189,14.0,444.0],["AMBP",-0.1282318754966808,-2.5128772107385697,13.0,445.0],["ANKH",-0.1265844098032199,-2.4666339267774364,14.0,444.0],["ATP6V1E2",-0.14830883059281602,-3.1166387612133652,8.0,450.0],["BIVM",-0.11559118316972485,-2.170072271332344,9.0,449.0],["CINP",-0.10652015456942589,-1.9419845824416937,8.0,450.0],["CLEC6A",-0.11201668758640229,-2.07860174078304,11.0,447.0],["CSPG5",-0.15021061664479737,-3.178486271604229,21.0,437.0],["DPPA5",-0.12915515113817427,-2.5387596007370274,9.0,449.0],["ENO3",-0.1202914236075599,-2.2942567915805223,12.0,446.0],["FOXD4L1",-0.13305978700724508,-2.651338339534357,12.0,446.0],["GLRA1",-0.17964442291208285,-4.210111075577148,20.0,438.0],["GSS",-0.14453580593327786,-2.997785401237437,12.0,446.0],["HOXC13",-0.13848433120822012,-2.811929991865081,10.0,448.0],["IL11RA",-0.13027045935833984,-2.5709414432558972,15.0,443.0],["IL25",-0.09530087201714313,-1.6803202359014424,8.0,450.0],["METAP1",-0.13114125668889853,-2.5958903337367563,14.0,444.0],["PDLIM2",-0.16588533663801452,-3.7072602643286947,12.0,446.0],["PEX7",-0.11000774902586885,-2.0280576540208446,10.0,448.0],["PLEKHG7",-0.11576965643246759,-2.174706782961411,9.0,449.0],["RNF126",-0.12204803274339356,-2.3415593781829167,11.0,447.0],["RRS1",-0.11499627229391565,-2.154665429285844,9.0,449.0],["SLC6A9",-0.13623326686098622,-2.7450217429218404,19.0,439.0],["SPATA22",-0.12243265824153048,-2.351853473679956,9.0,449.0],["TM4SF20",-0.1115625287502271,-2.066896830112405,8.0,450.0],["TMCO3",-0.1458813979183144,-3.0403232659271198,19.0,439.0],["TRA2B",-0.13559066478458648,-2.7257168869907358,13.0,445.0],["UBE2M",-0.12177837292734539,-2.3342522695190517,11.0,447.0],["ZC3H15",-0.13002636240107504,-2.5640377291497876,17.0,441.0]]}}}
{"depmap_damaging":{"corr":{"top":[["BCLAF1",0.11633915081202927,-1.8954080342286308,9.0,449.0],["DNAH6",0.14454746644123628,-2.7151789821036973,13.0,445.0],["FYB",0.10121837550187834,-1.5181926755840687,8.0,450.0],["IGSF1",0.1024664273568594,-1.5477234427743531,9.0,449.0],["KIF7",0.12278290674221107,-2.0691914872484647,11.0,447.0],["MAGI1",0.14954076027873367,-2.8764588375313163,12.0,446.0],["TTF1",0.1381356832291662,-2.5152976794752284,37.0,421.0],["ZC2HC1C",0.10599393787391247,-1.6327404999224433,8.0,450.0],["ZKSCAN2",0.1020965187669803,-1.5389410218283426,8.0,450.0]],"bottom":[["CC2D2A",-0.11496561540036243,-1.8593799220202374,19.0,439.0],["INADL",-0.13344485814897547,-2.374160454268308,13.0,445.0],["TAOK2",-0.10433322474276512,-1.5924294296690755,8.0,450.0]]},"para":{"top":[["DNAH6",0.13469567689821957,-2.6993004713636934,13.0,445.0],["KIF7",0.1180570674658809,-2.2347616332082167,11.0,447.0],["MYLK",0.10322577758323254,-1.863046943304443,11.0,447.0],["NRXN1",0.1182875656481596,-2.240962507550892,13.0,445.0],["SEC24C",0.09013243848182191,-1.5672604929525082,8.0,450.0],["ZKSCAN2",0.09794811846206382,-1.7400495793956376,8.0,450.0]],"bottom":[["ADAM29",-0.10208670628885631,-1.8359959478151184,9.0,449.0],["HIP1",-0.12082639887684567,-2.308412214673521,9.0,449.0],["JMJD1C",-0.12648847618457404,-2.463953510672356,14.0,444.0],["MNS1",-0.11356732179866276,-2.117996200817833,10.0,448.0],["NAV3",-0.11599564309366515,-2.181126715403799,22.0,436.0],["RAD51AP2",-0.10645712489216587,-1.940451996571202,8.0,450.0],["TAOK2",-0.11345341906802757,-2.114916040987335,8.0,450.0]]}}}
{"ccle_rppa":{"corr":{"top":[],"bottom":[["MAPK1_ERK2_Caution",-0.1767816290408527,-3.734798469408721,443]]},"para":{"top":[],"bottom":[["MAPK1_ERK2_Caution",-0.17393394597112838,-3.6298583737181827,443]]}}}
{"ccle_rrbs_enhancer_clusters":{"corr":{"top":[["1-10593666-10596209-1_enh",0.1977346881183896,-2.934691948619626,267],["14-36582759-36585834-1_enh",0.2743598250521565,-3.2770613732333818,156],["16-72927878-72930583-0_enh",0.28486112557592697,-4.0903126432588826,186]],"bottom":[["12-115121533-115126174-0_enh",-0.15279867870348213,-2.6893335902588604,405],["12-115122394-115127300-0_enh",-0.15850100489578653,-2.8441985165627957,402]]},"para":{"top":[["1-10593666-10596209-1_enh",0.15692245052585127,-1.9902201843264151,267],["14-36582759-36585834-1_enh",0.268063104878572,-3.1449923230983505,156],["16-72927878-72930583-0_enh",0.27786875853806237,-3.909931282159556,186],["16-72978900-72981722-2_enh",0.1837189227222636,-3.640842464826521,398]],"bottom":[]}}}
{"ccle_mirna":{"corr":{"top":[],"bottom":[["hsa-miR-337-3p_miR00311.1",-0.17751842145224012,-3.7991676284383056,448],["hsa-miR-377_miR00348.1",-0.1862564272354214,-4.13623943070131,448]]},"para":{"top":[],"bottom":[["hsa-miR-127-3p_miR00091.1",-0.15546509870073486,-3.016928889809993,448],["hsa-miR-337-3p_miR00311.1",-0.16164189916799201,-3.226257445005046,448],["hsa-miR-377_miR00348.1",-0.16981593898469763,-3.5149053015574396,448],["hsa-miR-431_miR00368.2",-0.155425692730046,-3.0156175563208167,448],["hsa-miR-600_miR00554.1",-0.14742350348905195,-2.7556128748154882,448]]}}}
{"prism_primary_logfold":{"corr":{"top":[["procaine_BRD-K24616672-003-20-1::2.5::HTS",0.1915879980440051,-4.4608425320889955,461],["tubocurarine_BRD-K99621550-300-01-8::2.5::HTS",0.1649601049879055,-3.425213273257459,461],["aprindine_BRD-K53236343-003-03-7::2.625172304::MTS004",0.1655072666465893,-3.367554024965537,449]],"bottom":[["lappaconite_BRD-A05906449-004-01-1::2.5::HTS",-0.17326470725045975,-3.7252653689045343,460],["ganglioside-gm1_BRD-A30703952-201-01-2::2.5::HTS",-0.1584117613215875,-3.1752491239590395,458],["methiopril_BRD-A32172948-001-07-6::2.5::HTS",-0.16764936598044433,-3.5032665766011997,458],["mexiletine_BRD-A64092382-003-18-3::2.5::HTS",-0.1690251837419318,-3.42583498866409,439],["dextroamphetamine_BRD-K21160401-065-01-0::2.5::HTS",-0.16223099445507055,-3.333600566961703,462],["cariporide_BRD-K21670884-001-01-9::2.5::HTS",-0.1623094861676563,-3.311539208582619,458],["tanshinone-i_BRD-K34073885-001-09-3::2.54::HTS",-0.16557026905190556,-3.2532794948671113,431],["cimetidine_BRD-K34157611-001-16-0::2.5::HTS",-0.1743961137491963,-3.746725128312294,457],["dabigatran-etexilate_BRD-K57041787-001-02-6::2.5::HTS",-0.16475781713065216,-3.4179102253934492,461],["HA-966-(R)-(+)_BRD-K58046914-001-03-8::2.5::HTS",-0.17640103323053763,-3.852002978184216,461],["EPZ004777_BRD-K69070623-003-01-7::2.5::HTS",-0.16881437389146176,-3.56596826837086,461],["thiothixene_BRD-K97309399-001-09-4::2.5::HTS",-0.205124054469653,-5.054791565717518,462],["E-64_BRD-K06273313-001-07-9::2.5::MTS004",-0.1583584469804351,-3.1199860677483517,449],["UNC0642_BRD-K60130390-001-02-1::2.5::MTS004",-0.1784153995281418,-3.8405112393758203,449]]},"para":{"top":[],"bottom":[["lappaconite_BRD-A05906449-004-01-1::2.5::HTS",-0.15743927828967003,-3.1534549789346,460],["mexiletine_BRD-A64092382-003-18-3::2.5::HTS",-0.14838100944004853,-2.7387539331124593,439],["bendroflumethiazide_BRD-A80017228-001-25-7::2.5::HTS",-0.14949654081728764,-2.8962810807868995,462],["cariporide_BRD-K21670884-001-01-9::2.5::HTS",-0.1683487754463556,-3.528809939162812,458],["tanshinone-i_BRD-K34073885-001-09-3::2.54::HTS",-0.16568589532072284,-3.257213677580261,431],["cimetidine_BRD-K34157611-001-16-0::2.5::HTS",-0.1694012962963262,-3.5606924853042377,457],["piromidic-acid_BRD-K37682401-213-01-1::2.5::HTS",-0.14800456294982237,-2.737454720634952,441],["tolterodine_BRD-K54316499-046-04-5::2.5::HTS",-0.14699589605128616,-2.79364392140383,458],["bromperidol_BRD-K78643075-001-11-6::2.5::HTS",-0.1497773846028538,-2.9002363763027446,461],["NNC-05-2090_BRD-K85015012-003-02-9::2.5::HTS",-0.15227656052517857,-2.9779389609943268,460],["thiothixene_BRD-K97309399-001-09-4::2.5::HTS",-0.1842534463280769,-4.16864459417146,462],["UNC0642_BRD-K60130390-001-02-1::2.5::MTS004",-0.18220425223647857,-3.9857524657247394,449]]}}}
{"prism_secondary_logfold":{"corr":{"top":[["ponatinib_BRD-K44227013-001-06-4::0.0391::MTS010::PROS003_PR500",0.21921544853678687,-5.706821849378026,462],["linifanib_BRD-K99749624-001-07-0::0.15625::MTS010::PROS001_PR500",0.23074896147312765,-6.1502619922510835,452],["sorafenib_BRD-K23984367-001-07-5::0.00977::MTS010::PROS001_PR500",0.20081617724587275,-4.770426771157708,452],["bardoxolone-methyl_BRD-K69694239-001-02-2::0.0391::MTS010::PROS002_PR500",0.1920570803854889,-4.256754199745947,435],["isometheptene-mucate_BRD-A64743628-001-01-5::0.15625::HTS002",0.38359114100638225,-4.088020070692733,100]],"bottom":[["P276-00_BRD-K51791723-003-01-7::0.15625::MTS010::PROS004_PR500",-0.19452396927967353,-4.575388518660609,460],["NVP-TAE684_BRD-K50140147-001-10-1::0.0390625::HTS002",-0.16292091922941576,-3.1638357139358333,431],["oxonic-acid_BRD-K31468676-237-01-8::0.00976562::HTS002",-0.1656210179569561,-3.3586375164278026,447],["ecamsule-triethanolamine_BRD-A47953250-001-01-7::0.0024414::HTS002",-0.1632830247133723,-2.8209784615839943,375],["clofoctol_BRD-K02900412-001-11-3::0.0390625::HTS002",-0.1572740521311848,-2.8304022027136764,406],["idelalisib_BRD-K60866521-001-07-1::0.0024414::HTS002",-0.17385231544498428,-2.9906876623367595,354],["epinephrine_BRD-K63126190-003-01-6::0.00061034::HTS002",-0.18081118842932098,-3.5250168627544616,396],["doxorubicin_BRD-K92093830-003-30-8::0.0390625::HTS002",-0.15355349574496074,-2.948062209839997,447],["tamibarotene_BRD-K36627727-001-05-4::0.00244::MTS010::PROS005_PR500",-0.1711608290054564,-3.6394023359279006,459]]},"para":{"top":[["ponatinib_BRD-K44227013-001-06-4::0.0391::MTS010::PROS003_PR500",0.19969149562165706,-4.815078173187258,462],["sorafenib_BRD-K23984367-001-07-5::0.00977::MTS010::PROS001_PR500",0.23172683775104158,-6.19865796942782,452],["abemaciclib_BRD-K33622447-066-01-9::0.0391::MTS010::PROS003_PR500",0.19229689341952064,-4.499069048136354,462]],"bottom":[["lacitol_BRD-K40787673-001-02-1::0.00061034::HTS002",-0.1668059938823859,-2.872695194412812,367],["resminostat_BRD-K28822270-001-01-1::0.0024414::HTS002",-0.17006438212080668,-2.948812345697979,364],["tamibarotene_BRD-K36627727-001-05-4::0.00244::MTS010::PROS005_PR500",-0.1813654219135329,-4.030290390131728,459],["ecamsule-triethanolamine_BRD-A47953250-001-01-7::0.0024414::HTS002",-0.16814094548901554,-2.9660434025868714,375],["clofoctol_BRD-K02900412-001-11-3::0.0390625::HTS002",-0.15054833039844256,-2.628137611962852,406],["epinephrine_BRD-K63126190-003-01-6::0.00061034::HTS002",-0.17781914204939953,-3.423767654545058,396],["defactinib_BRD-K43578482-001-01-4::0.00976562::HTS002",-0.1516951670089673,-2.4072492578456726,360],["benfotiamine_BRD-K07359318-001-03-9::0.0382701::HTS002",-0.1607900655883716,-3.0131044264864553,418],["I-BET-762_BRD-K08109215-001-06-4::0.0391::MTS010::PROS002_PR500",-0.1786069248834937,-3.7430451334626658,435]]}}}
{"ccle_proteomics":{"corr":{"top":[["IARS_P41252",0.2464851045309606,-3.884654714385559,236],["DCLK3_Q9C098",0.2678418851853817,-2.348507465423103,111],["PLCB2_Q00722",0.3029506980454447,-3.090929012694322,119],["WAS_P42768",0.2497868026799095,-3.1273115919479237,179],["NAA35_Q5VZE5",0.2608302618003806,-4.140347137594336,226],["MXRA8_Q9BRK3",0.27801331646874916,-2.523181288192109,112],["EPRS_P07814",0.24146424445872042,-3.7443312623273224,236]],"bottom":[["CTBP1_Q13363",-0.2478948328995815,-3.9245831810910135,236],["PCDHB8_Q9UN66",-0.2686073691910402,-3.2436819349791635,161],["RABL3_Q5HYI8",-0.2436649661653697,-3.805475837589537,236],["NEO1_Q92859",-0.2510724406777082,-4.0154402800467395,236],["PJA1_Q8NG27",-0.2887656474882408,-2.4678844556763044,101]]},"para":{"top":[["AMMECR1_Q9Y4X0",0.24194944789823847,-2.971830053132192,180],["DCLK3_Q9C098",0.28413478413478416,-2.600430176492642,111],["C9orf41_Q8N4J0",0.24398334055852477,-3.302369224916846,200],["STRIP1_Q5VSL9",0.24535546601913802,-3.8528272497098643,236],["RPL18_Q07020",0.23666125431204285,-3.6128326438754654,236],["UBA7_P41226",0.24772980462936717,-3.686085240382408,220],["MXRA8_Q9BRK3",0.3619287204651132,-4.0548287142653345,112],["HCK_P08631",0.27055460340471077,-2.5706572121236113,121],["IARS_P41252",0.23566059203416923,-3.585770533999164,236],["EPRS_P07814",0.26057497556680226,-4.2942843262037185,236],["NEMF_O60524",0.2502983111072419,-3.9931961234459896,236],["PLCB2_Q00722",0.25658519042123573,-2.3141991283553285,119]],"bottom":[["ACBD7_Q8N6N7",-0.2495779652278716,-2.8964900616836196,164],["RCN1_Q15293",-0.22833941177263317,-3.3912566908443718,236],["C20orf112_Q96MY1",-0.23787863744726823,-3.645910989856831,236],["CTBP1_Q13363",-0.24396056814704264,-3.8137317082340685,236],["PCDHB8_Q9UN66",-0.2794373697914795,-3.4802903253090887,161],["RABL3_Q5HYI8",-0.24340657735451268,-3.798267626268277,236],["TCOF1_Q13428-7",-0.24783307933964005,-3.010266526754686,174],["RCN2_F8WCY5",-0.23469072875557181,-3.5596509891425896,236]]}}}
{"depmap_copy_number":{"corr":{"top":[],"bottom":[]},"para":{"top":[],"bottom":[]}}}
{"depmap_gene_tpm":{"corr":{"top":[["GPX6_257202",0.17833783831845287,-3.8971669519858563,457],["CCL25_6370",0.18875192052049092,-4.310203470912973,457],["EDDM3B_64184",0.19247447703787848,-4.463375920321738,457],["FCGR1B_2210",0.18554593044839765,-4.18062948010832,457],["DNMT3L_29947",0.16295061524811388,-3.3279884292805137,457],["VCY1B_353513",0.16176892783480798,-3.2862764818796326,457],["EDDM3A_10876",0.17701335804969417,-3.8462573871376042,457],["C1orf158_93190",0.1854104166821479,-4.175200120621086,457],["PRAMEF19_645414",0.18938501819404052,-4.336046871048057,457],["LGALS16_148003",0.19109825631290112,-4.406406798229959,457],["IL9_3578",0.18903481048238358,-4.321740743866806,457],["ERVW-1_30816",0.17992860688647622,-3.9587932979891733,457],["SAG_6295",0.16852087953993738,-3.528431878931736,457],["MYH6_4624",0.16667487557655056,-3.461304084350047,457],["DPPA3_359787",0.20330423393401467,-4.925768080967079,457]],"bottom":[["FAM228A_653140",-0.15852737154350624,-3.1733031351127026,457],["IAH1_285148",-0.16568867100516446,-3.425726759455993,457],["GJA8_2703",-0.1667424607860606,-3.4637494773485007,457],["DRD5_1816",-0.1479737778317077,-2.8200955149907174,457],["IFNA8_3445",-0.17592080756226544,-3.8045361336098193,457],["STRA8_346673",-0.16956646810450476,-3.566762453928385,457],["COX8C_341947",-0.16494739187651303,-3.3991154782485196,457],["CAPZA3_93661",-0.18358551198960366,-4.102460336011933,457]]},"para":{"top":[],"bottom":[]}}}
{"avana":{"corr":{"top":[["TNFAIP6_7130",0.18188611349888023,-3.013070645691521,326],["NSG1_27065",0.1975704472100197,-3.478869653385705,326],["NAA60_79903",0.20329456219402509,-3.638510964452336,324],["P4HA2_8974",0.2550073346600118,-5.4778623849424966,324],["ERRFI1_54206",0.17354599779106208,-2.7801383699707554,326]],"bottom":[["CDH19_28513",-0.1839139919521573,-3.071244375871825,326],["ZNF106_64397",-0.18485699942721012,-3.098502465281103,326],["SLC35D3_340146",-0.174249237688491,-2.7993887538526336,326],["TMTC1_83857",-0.2025891811061867,-3.635691710312993,326],["IL3RA_3563",-0.17916642748145528,-2.782347483013415,306],["HIST1H2BE_8344",-0.191678828143648,-3.2996073197918667,326],["ABCG2_9429",-0.17372021827924922,-2.7849007837343627,326],["CRABP1_1381",-0.19356410135456678,-3.3564045744937787,326],["CNKSR2_22866",-0.1936714379597548,-3.1814585349295212,306],["ADARB2_105",-0.17462061957270333,-2.809583810492327,326],["IWS1_55677",-0.19818038885774933,-3.4791332807129582,324],["HIST1H4L_8368",-0.17535109120018577,-2.8296948339271464,326],["PGAP3_93210",-0.22987285626911602,-4.555949038254118,326]]},"para":{"top":[["TNFRSF13B_23495",0.18197456526312128,-3.0155954639727125,326],["API5_8539",0.18674847564998454,-3.1535718537274753,326],["TTLL3_26140",0.19197341101586962,-3.308447194563024,326],["PROB1_389333",0.16681304889550508,-2.5994424140707277,326],["P4HA2_8974",0.19545023546191373,-3.3956560674361813,324],["PLEKHO2_80301",0.1881775806503215,-3.19553028000982,326],["CCDC125_202243",0.1780284245924463,-2.904068800825128,326],["GAPT_202309",0.1693112456737553,-2.665727024303652,326],["KRTAP13-2_337959",0.1661535855813068,-2.582094057024941,326]],"bottom":[["BCKDK_10295",-0.18091848509309413,-2.9855250169496395,326],["CDH19_28513",-0.19385466535017143,-3.36520556249928,326],["TMTC1_83857",-0.20724458801625242,-3.784577554752073,326],["GPKOW_27238",-0.19358173382923793,-3.178900519559492,306],["HIST1H4E_8367",-0.17855965527043463,-2.918950009972737,326],["PTPN1_5770",-0.1905223270388821,-3.2650279241900853,326],["HIST1H2BE_8344",-0.18082304966652893,-2.9828156747846717,326],["CNKSR2_22866",-0.1968078929970718,-3.2716074457014246,306],["ADARB2_105",-0.17822857450131646,-2.9096707097562575,326],["IWS1_55677",-0.18943866979078064,-3.2157550240392188,324],["SLC35D3_340146",-0.18423027366304862,-3.080372055514204,326],["PGAP3_93210",-0.22375709863528,-4.339575854817125,326]]}}}
{"drive":{"corr":{"top":[["RGPD8_727851",0.2030465635402191,-2.924149405028872,252],["OR1C1_26188",0.24863627762661722,-4.01909111759751,241],["MYOC_4653",0.20213422901303765,-2.773763668822472,239],["RAB23_51715",0.21134881435650454,-3.1343783777142287,252]],"bottom":[["CCDC144A_9720",-0.19400513270000216,-2.6043012979591142,241],["RGPD6&RGPD5_729540&84220",-0.19276898058877498,-2.6749657745560587,252],["DHX15_1665",-0.20273917702156297,-2.8078191295930273,241],["SMARCC1_6599",-0.2049972186561854,-2.9123077297224755,246]]},"para":{"top":[["CALML3_810",0.19809175660027326,-2.698483863810066,241],["RGPD8_727851",0.21521294626676582,-3.2349850426164153,252],["PABPN1_8106",0.20863752813532566,-2.929115692282381,239],["SHPK_23729",0.22741502127415142,-3.42884315826448,241],["HECTD3_79654",0.2284012629017323,-3.517261852673584,246],["LIG1_3978",0.2656656809160679,-4.665433441523732,249],["OR1C1_26188",0.2621336125877322,-4.422512982567893,241],["RAB23_51715",0.21158229298011372,-3.1404072344810126,252],["KLHL2_11275",0.23858446184113588,-3.705814181298088,239],["CD1B_910",0.20080955832649686,-2.7621338764804624,241],["WDR27_253769",0.2357785066174999,-3.7212522551819225,246]],"bottom":[["ZBTB37_84614",-0.21161496408836178,-3.0232874491925723,241],["RGPD6&RGPD5_729540&84220",-0.2024532482082212,-2.9094330329687237,252],["LOC101929141_101929141",-0.18470969536758242,-2.3968319452349776,241]]}}}
{"achilles":{"corr":{"top":[["CEP41_95681",0.2549170586698551,-2.7843333511316453,150],["IL20RB_53833",0.309585130841791,-3.9366554032915064,150],["CRISP2_7180",0.24800579841268142,-2.6549186909337252,150],["KIAA0930_23313",0.25889069821317523,-2.860337361690389,150],["HEATR1_55127",0.2624729534042848,-2.9298642050413983,150],["GSTT2&GSTT2B_2953&653689",0.301088290289057,-3.742006154006958,150],["NOL6_65083",0.28356957936829386,-3.359104350286088,150],["GSTA7P_730152",0.2518591523826813,-2.726640452509675,150],["GPHN_10243",0.2676442283117842,-3.0319333670698088,150]],"bottom":[["ZFYVE26_23503",-0.2676487780933173,-3.032024059745659,150],["CCDC171_203238",-0.23851273498638584,-2.4828327768424026,150],["VGLL4_9686",-0.2565362707843097,-2.8151625678672203,150],["HAUS2_55142",-0.24063695833554088,-2.520774705263783,150],["MGAM_8972",-0.3071164204018028,-2.748469200510089,101],["YPEL5_51646",-0.23483342158286913,-2.4178787962485053,150],["UBR4_23352",-0.26549900215153016,-2.989346409735462,150],["DCTN2_10540",-0.27735572766847416,-3.2291169377863307,150]]},"para":{"top":[["IL20RB_53833",0.3278243477487888,-4.374845481844565,150],["KIAA0930_23313",0.24532333939029727,-2.605630850297604,150],["GSTT2&GSTT2B_2953&653689",0.3239992639664767,-4.28060805961656,150],["GAS8_2622",0.26375062336169663,-2.95489489073376,150],["CASP1_834",0.23797820028783306,-3.8505779124765396,251],["NOL6_65083",0.27591387260245404,-3.199383384981034,150],["PEX5L_51555",0.27708149806267174,-3.2234494709193173,150],["GPHN_10243",0.22681937298470972,-2.2797248635273486,150]],"bottom":[["SKA3_221150",-0.28269523089915105,-3.3406317649291783,150],["ZFYVE26_23503",-0.25168940841815196,-2.723458109928804,150],["DNER_92737",-0.2641308502600116,-2.962367588657079,150],["SEC31A_22872",-0.2592558022990021,-2.8673796439991226,150],["NUS1_116150",-0.2627646127030708,-2.935567259353894,150],["HAUS2_55142",-0.26114320154199144,-2.903943374740904,150],["MRPS26_64949",-0.2431434181959353,-2.565961617101903,150],["YPEL5_51646",-0.26803040498892144,-3.0396367794063517,150],["LFNG_3955",-0.2604897995466465,-2.8912551694224335,150],["DCTN2_10540",-0.2621581283394228,-2.923715340780525,150]]}}}
{"ccle_rrbs_tss1kb":{"corr":{"top":[["SLC12A4_16_68000781_68001781",0.17215212348993253,-3.285464609195637,403],["MIR3175_15_93446628_93447628",0.19456737328962292,-3.824658464364033,375],["ELMO2_20_45035690_45036690",0.18169347911588177,-3.570734919585805,398],["TMEM67_8_94766071_94767071",0.17450457839204503,-3.3350679060178003,399],["FAM200B_4_15682351_15683351",0.16268829274229424,-2.954986878768639,399],["IAH1_2_9614127_9615127",0.17488629939005712,-3.369437835033194,402]],"bottom":[["MSX2_5_174150574_174151574",-0.1875858605443436,-3.8180875437155195,403],["ANAPC11_17_79848588_79849588",-0.19225441247820238,-3.9791555410147574,402],["TBC1D30_12_65173972_65174972",-0.17282356957647113,-3.2936106451166722,401],["OAF_11_120080682_120081682",-0.17356144429303436,-3.2753175683687203,395],["MORC3_21_37691486_37692486",-0.22319469027256486,-5.170302124413744,399],["CENPBD1_16_90039240_90040240",-0.19092344867467287,-3.896258578335412,398],["FXR1_3_180629233_180630233",-0.17714284124187094,-3.4529463709310746,403]]},"para":{"top":[["CMTM2_16_66612350_66613350",0.15808760291073184,-2.8017297563148356,397],["MIR671_7_150934506_150935506",0.1829060535083943,-3.620493069082035,399],["CD38_4_15778887_15779887",0.14973682783300296,-2.458578147611901,379]],"bottom":[["UBB_17_16283654_16284654",-0.16931362093968802,-3.1854231381520792,402],["KDM4D_11_94705844_94706844",-0.20609585145250428,-2.185711042502169,173],["LINC02508_4_189696810_189697810",-0.19215997627190207,-3.7501947834377685,376],["MIR3143_6_27114404_27115404",-0.17695896582076773,-3.3061319743935704,384],["UBB_17_16283603_16284603",-0.18228618631282334,-3.614644834888374,401],["PIF1_15_65117867_65118867",-0.18071322052729738,-2.6194151928898433,280]]}}}
{"ccle_gene_tpm":{"corr":{"top":[["HSPA8P13_ENSG00000253425.2",0.19522159040029238,-4.542799565004031,453],["EDDM3B_ENSG00000181552.3",0.19359805115252735,-4.475260383677343,453],["ASNSP1_ENSG00000248498.3",0.22938568521717567,-6.095334659393781,453],["RP11-822E23.5_ENSG00000263375.1",0.19284032589086939,-4.443929109420393,453],["RP1-135L22.1_ENSG00000227089.2",0.19284032589086939,-4.443929109420393,453],["RP11-69H7.2_ENSG00000260660.1",0.1931710433667468,-4.457589126271671,453],["HIGD1AP3_ENSG00000248929.1",0.19284032589086939,-4.443929109420393,453],["A2ML1-AS2_ENSG00000256904.1",0.19284032589086939,-4.443929109420393,453],["DPPA3_ENSG00000187569.2",0.2043694366819789,-4.933792182275031,453],["CTC-281F24.2_ENSG00000262990.1",0.19284032589086939,-4.443929109420393,453],["RP11-113O24.3_ENSG00000223716.2",0.19284032589086939,-4.443929109420393,453],["LINC00434_ENSG00000227336.1",0.193836471805518,-4.485143869159039,453],["CTD-2298J14.1_ENSG00000258901.2",0.19284032589086939,-4.443929109420393,453],["RN7SL554P_ENSG00000240936.2",0.19284032589086939,-4.443929109420393,453],["FCGR1B_ENSG00000198019.8",0.21099863123088386,-5.22831971513797,453],["RP5-1068B5.1_ENSG00000230331.1",0.19284032589086939,-4.443929109420393,453]],"bottom":[["RP1-256G22.2_ENSG00000270174.1",-0.17852179531666512,-3.8744151319214644,453],["RP11-293N14.1_ENSG00000260223.1",-0.19463985658807348,-4.518535554399977,453],["HNRNPDLP4_ENSG00000270837.1",-0.18866249424178208,-4.2733441980353986,453],["RP11-467M13.2_ENSG00000261181.1",-0.1824768244322007,-4.027468747446622,453],["RP11-245A18.1_ENSG00000254000.1",-0.19463985658807348,-4.518535554399977,453],["MTND5P15_ENSG00000231888.1",-0.19207427109430966,-4.41237618055357,453],["CAPZA3_ENSG00000177938.3",-0.18326187379255918,-4.05823346314318,453],["CTD-2582D11.1_ENSG00000266765.1",-0.1810356337925023,-3.971322944069774,453],["RP11-680G24.1_ENSG00000255037.1",-0.1824768244322007,-4.027468747446622,453],["RP11-716O23.1_ENSG00000233656.1",-0.1779031583169161,-3.850766373243603,453],["CTD-2335O3.2_ENSG00000248891.2",-0.1946398565880735,-4.518535554399977,453],["CTD-2351A8.1_ENSG00000248591.1",-0.18045847967967205,-3.9489585615222036,453],["STRA8_ENSG00000146857.3",-0.17981463154149407,-3.9240909307092036,453],["RP11-349E4.1_ENSG00000225050.1",-0.19463985658807348,-4.518535554399977,453],["RP11-377K22.2_ENSG00000225475.1",-0.17695916391066904,-3.8148316826719895,453]]},"para":{"top":[["RP11-45K10.2_ENSG00000253894.1",0.1658174938533718,-3.404452047034816,453],["RP11-14K3.4_ENSG00000261046.1",0.17754270133773037,-3.8370233871041206,453],["GPX1P2_ENSG00000215326.3",0.15568940918141505,-3.0531484763902803,453],["AC006372.6_ENSG00000233191.1",0.15724094894190246,-3.1056357762204554,453],["RP11-574M7.1_ENSG00000254840.1",0.1659531989277921,-3.409298913178086,453],["RP11-94B19.3_ENSG00000264212.1",0.16189931569018412,-3.266108923827409,453]],"bottom":[["CNOT7P1_ENSG00000233229.1",-0.14630183511587574,-2.7457321547350295,453],["AP000350.5_ENSG00000273295.1",-0.1590287341107071,-3.166709462799181,453],["RP11-308B5.2_ENSG00000235813.1",-0.16273476363509623,-3.295348064579132,453],["MTND5P15_ENSG00000231888.1",-0.1605281263559822,-3.2184231277014965,453],["ARHGAP26-IT1_ENSG00000230789.1",-0.15618785444002967,-3.0699582789488558,453],["RP11-281H11.1_ENSG00000254007.1",-0.1473614067915405,-2.7795617585275934,453],["AL132709.5_ENSG00000225746.4",-0.18881666397490987,-4.279574134338261,453]]}}}
{"ccle_rrbs_tss_clusters":{"corr":{"top":[["LOC642648_1",0.21835366442908882,-5.0456059963343325,406],["PDIA3_1",0.2176843002470431,-2.9939098652350067,225],["ZBTB40_1",0.34585671039312693,-3.4019738237805086,101]],"bottom":[["HIPK2_3",-0.22208998526903412,-3.064521496092117,222],["TMEM185A_2",-0.34581282365021354,-3.6079725977870667,108]]},"para":{"top":[["AP5Z1_2",0.2021387223581114,-3.4473845150482423,308]],"bottom":[["LOC220729_2",-0.22269135269693116,-3.9872088958035583,299],["C11orf87_1",-0.22404471214545407,-3.195906018132669,229],["RPS26P11_2",-0.26820486599761745,-3.4955259196087964,176],["GTPBP6_2",-0.22010009384454912,-3.652686765613209,277],["DEFB133_3",-0.22077071343283278,-3.8109035855542146,289],["MIR17HG_2",-0.21628796251721347,-2.655643232522691,198]]}}}
{"ccle_rrbs_cgi_clusters":{"corr":{"top":[["1_22776236_22780817-1",0.34585671039312693,-3.4019738237805086,101],["22_46463976_46467252-1",0.22978531397818355,-5.539173546626004,406],["17_79452734_79455278-2",0.29587595088025065,-3.221111927717662,131],["9_100879098_100883660-3",0.22769282393492493,-2.951466573232829,202],["16_88786033_88788737-2",0.21123224522421283,-3.6619170861274024,302],["15_44036504_44041122-1",0.2176843002470431,-2.9939098652350067,225]],"bottom":[["13_99739278_99742225-2",-0.2356118982866032,-4.51678827068224,307],["6_36162132_36164668-1",-0.24461173207126632,-3.4751412646768656,211],["10_30022072_30025074-3",-0.28714047230103346,-3.6545468046104506,161],["2_3182187_3184800-3",-0.2515412094085665,-2.4723826154675757,134],["23_148710839_148715679-2",-0.34581282365021354,-3.6079725977870667,108]]},"para":{"top":[["17_79452734_79455278-2",0.2848430927039417,-3.0108025529176845,131]],"bottom":[["11_109291519_109294251-1",-0.22404471214545407,-3.195906018132669,229],["13_91997541_92000491-2",-0.21628796251721347,-2.655643232522691,198],["12_49690117_49693360-2",-0.22186546001890642,-3.247856638707591,238],["7_72789713_72794347-3",-0.3241179424635637,-3.0247658128403825,101],["3_197354636_197357165-2",-0.22269135269693116,-3.9872088958035583,299],["13_111275412_111279651-2",-0.2339870186130321,-2.7509054363994156,176]]}}}
