{"depmap_hotspot":{"corr":{"top":[],"bottom":[["ABR",-0.1718084315109874,-3.7120529329103573,30.0,436.0],["ALX4",-0.18086358863305124,-4.064084845477294,23.0,443.0],["ATP9B",-0.17288714939130037,-3.753082705997717,46.0,420.0],["ATXN10",-0.17276038573392988,-3.748248497052138,13.0,453.0],["B3GNT6",-0.17764609475149593,-3.9370157685993417,14.0,452.0],["BMPR2",-0.18857385543782262,-4.377566561240695,40.0,426.0],["C11orf48",-0.17189045665480823,-3.7151642379257392,11.0,455.0],["C5",-0.16946035637344617,-3.623585455634754,37.0,429.0],["CDH18",-0.1710812537336526,-3.684531951150595,44.0,422.0],["CNNM2",-0.17522192726950617,-3.8427251759862195,26.0,440.0],["CSTF3",-0.17352778227486726,-3.7775652775233945,24.0,442.0],["CTTNBP2NL",-0.1977350124115743,-4.766679879728516,8.0,458.0],["DHH",-0.16963132989907267,-3.6299882155130963,14.0,452.0],["EDIL3",-0.19645579096534901,-4.71125153242584,27.0,439.0],["ESYT1",-0.18501286767314448,-4.231204490251925,19.0,447.0],["FOXP2",-0.21024475790628452,-5.3276591543438965,27.0,439.0],["FZD8",-0.1677871648594749,-3.561248521270273,23.0,443.0],["GABRG2",-0.16988312733007205,-3.639428862359081,37.0,429.0],["GGT6",-0.17064052996069268,-3.667906110804697,10.0,456.0],["HLA-B",-0.1685285913450847,-3.588799249679212,19.0,447.0],["ITPKA",-0.19233649959085022,-4.535182048963688,12.0,454.0],["KIAA1549",-0.20246324148771178,-4.974658173870287,77.0,389.0],["LOXL3",-0.19416515143485336,-4.612888810966312,24.0,442.0],["MAGOHB",-0.17040793417495362,-3.659148073810507,9.0,457.0],["MAP2K1",-0.1718046271048434,-3.711908661790421,12.0,454.0],["MCM2",-0.2001626042630998,-4.872849416939834,37.0,429.0],["MLPH",-0.16924443600055067,-3.615508216496699,20.0,446.0],["MYO1E",-0.21425719061945514,-5.514935816483065,31.0,435.0],["NADSYN1",-0.17994863730073768,-4.027726991998131,19.0,447.0],["NEFM",-0.1730941165354808,-3.7609827783645446,37.0,429.0],["NOS1",-0.2052735596684036,-5.100601058783615,51.0,415.0],["NOS3",-0.17112076486805305,-3.6860244540936598,62.0,404.0],["NRXN3",-0.16772380954646465,-3.5588996113429663,53.0,413.0],["NUCB2",-0.18562807422220692,-4.25629609849044,14.0,452.0],["OSM",-0.1727186427159759,-3.7466573404120087,8.0,458.0],["PCDHB17",-0.18875922087303992,-4.385259949758737,29.0,437.0],["PCDHGA10",-0.17630846832798508,-3.884833886432912,32.0,434.0],["PDCD1",-0.17727659535336807,-3.922563487132962,15.0,451.0],["PHF17",-0.18585582059656808,-4.265605442815975,26.0,440.0],["PLCD3",-0.17427739495022193,-3.8063222147522393,30.0,436.0],["PLSCR5",-0.21801750940146167,-5.6937188518637765,14.0,452.0],["PRC1",-0.19648883578058446,-4.712678868117173,18.0,448.0],["RANBP2",-0.1693867203436189,-3.620829753885932,81.0,385.0],["RBM6",-0.17398205497121902,-3.7949781522247195,37.0,429.0],["RFNG",-0.23444789321604528,-6.512540606267019,9.0,457.0],["RP11-683L23.1",-0.176889509019675,-3.9074542916410735,14.0,452.0],["RP11-89N17.1",-0.17242698392779193,-3.735550125786727,8.0,458.0],["RYR2",-0.17405484319804715,-3.7977722567529546,190.0,276.0],["SDK1",-0.1735848617994731,-3.779750827236062,95.0,371.0],["SETD5",-0.17829159243444562,-3.962332534891737,43.0,423.0],["SIK3",-0.19598971019121308,-4.691144998855972,38.0,428.0],["SNX10",-0.18166726462616614,-4.096167740385738,8.0,458.0],["SPHKAP",-0.1758638005394684,-3.8675707520867464,89.0,377.0],["STX18",-0.18872414182363484,-4.383803465104641,16.0,450.0],["TAF3",-0.19582895443184195,-4.684221029663423,36.0,430.0],["TECPR2",-0.1703390843937722,-3.656557812834598,50.0,416.0],["TMEM86A",-0.17771126662465592,-3.9395678417375755,10.0,456.0],["TP53BP1",-0.1695841848378823,-3.628222077709843,44.0,422.0],["TRRAP",-0.1767656341980678,-3.9026257578184986,98.0,368.0],["TUBA1C",-0.18073590166404296,-4.059000206148472,15.0,451.0],["VIPAS39",-0.16835618748184872,-3.582382649798421,21.0,445.0],["ZC3H18",-0.16990699502923187,-3.6403244223452247,35.0,431.0],["ZFP64",-0.1703516511315046,-3.657030523638142,48.0,418.0],["ZNF75D",-0.16846701893904245,-3.5865069099417406,18.0,448.0]]},"para":{"top":[["CCK",0.11075349225367846,-2.0709533698894753,9.0,457.0],["FGGY",0.12659666234883873,-2.4982885746580528,26.0,440.0],["SHOC2",0.13152788326497122,-2.6398184854756512,8.0,458.0]],"bottom":[["AC109829.1",-0.1410646988370627,-2.92816048602028,11.0,455.0],["ATP5F1",-0.13444490291398267,-2.7263864167326717,11.0,455.0],["AZIN1",-0.11261537717458321,-2.118611192367409,8.0,458.0],["B3GNT6",-0.15232123831508562,-3.2903875417000545,14.0,452.0],["BGN",-0.14465762253541678,-3.0409478775027985,9.0,457.0],["BLOC1S3",-0.13840515820693053,-2.8458377148143907,8.0,458.0],["C11orf48",-0.14752688057149801,-3.133074477538527,11.0,455.0],["C5orf49",-0.1498263469498272,-3.207599482842166,8.0,458.0],["CA14",-0.15026447647006289,-3.2221759661565526,10.0,456.0],["CCBL2",-0.13376190809652203,-2.706035590298839,11.0,455.0],["CCRL2",-0.1607113731132655,-3.575446416456535,9.0,457.0],["CTTNBP2NL",-0.13564196738203615,-2.7619984599129963,8.0,458.0],["CYHR1",-0.15123864448255095,-3.254043048227264,8.0,458.0],["DHH",-0.15428365917681372,-3.3559564896566862,14.0,452.0],["ESYT1",-0.1728612708517985,-4.0131976497735495,19.0,447.0],["FAM122B",-0.13066216238650838,-2.6147693673290906,11.0,455.0],["FAM64A",-0.15045320036135493,-3.228280418419091,9.0,457.0],["FITM1",-0.1172206952160738,-2.239441466654054,8.0,458.0],["GLT8D2",-0.1671545546099857,-3.8042425944280764,16.0,450.0],["HDHD1",-0.13484371225484446,-2.7380444639422783,8.0,458.0],["HSD11B1L",-0.13521213769816373,-2.7490853364578016,8.0,458.0],["IGFBP2",-0.11193993052849792,-2.1012168310137738,8.0,458.0],["LRRC23",-0.13419223210037118,-2.7187729085885266,10.0,456.0],["MAGOHB",-0.11817183187087932,-2.2649752530889224,9.0,457.0],["MAP2K1",-0.14361740280011762,-3.0082350877193678,12.0,454.0],["NRN1",-0.14779701164738612,-3.141882293910595,12.0,454.0],["OR5K2",-0.1436174028001176,-3.0082350877193678,12.0,454.0],["PCYT1A",-0.12821205427509802,-2.5436440402520555,8.0,458.0],["PLSCR5",-0.1583953981251964,-3.495707467395868,14.0,452.0],["PNO1",-0.13005418149169426,-2.596821341836578,8.0,458.0],["POLB",-0.13870567058775035,-2.8552370551630597,10.0,456.0],["PRC1",-0.18427057583741144,-4.449374969112277,18.0,448.0],["PRPS2",-0.12665148731048154,-2.4992694567996265,10.0,456.0],["PRSS56",-0.12986996877003462,-2.591475168341025,8.0,458.0],["RFNG",-0.1568862917481463,-3.4436598369977323,9.0,457.0],["RP11-683L23.1",-0.16582456281602417,-3.7563636729535954,14.0,452.0],["RP11-89N17.1",-0.13607179706590863,-2.7749461694268702,8.0,458.0],["RPA3",-0.12391375743637345,-2.42201757657957,8.0,458.0],["SNX10",-0.13054541541611991,-2.6111087259305195,8.0,458.0],["STX18",-0.17464497097222564,-4.079617924702312,16.0,450.0],["TAS2R10",-0.14784519033968274,-3.1431960221105792,9.0,457.0],["TIMP4",-0.1195048147708451,-2.30091178708854,9.0,457.0],["TMEM86A",-0.13732962226842743,-2.8132277014815474,10.0,456.0],["TRAPPC6B",-0.11973826907875533,-2.3071457996692497,8.0,458.0],["ZDHHC4",-0.14879095494075115,-3.1742123430766007,13.0,453.0],["ZNF774",-0.14302724281902282,-2.9896898466322934,13.0,453.0]]}}}
{"depmap_damaging":{"corr":{"top":[],"bottom":[["ADAMTS2",-0.13850081011105977,-2.5633170665019125,12.0,454.0],["B2M",-0.1355849719671301,-2.473441459616797,14.0,452.0],["BBS9",-0.18256875542600748,-4.132319063767908,8.0,458.0],["BPHL",-0.1584406193126057,-3.2237226002702632,8.0,458.0],["CD93",-0.1333676466892294,-2.4062250058487282,10.0,456.0],["CDH23",-0.19386887398709496,-4.600249576069865,16.0,450.0],["CTNNA1",-0.1583832369028768,-3.2217060863861193,9.0,457.0],["CWF19L2",-0.18088932558856838,-4.065110139913933,14.0,452.0],["GPR179",-0.1946335002540402,-4.632907499955344,10.0,456.0],["HDGF",-0.15930233845951294,-3.254086251811089,8.0,458.0],["HERC2",-0.1833477075682542,-4.163695903705449,16.0,450.0],["IMPG1",-0.1457733478530698,-2.7948766633708697,8.0,458.0],["ITGA3",-0.14485701655832423,-2.765116180130596,9.0,457.0],["JAKMIP2",-0.1706081372512837,-3.6666857343921406,9.0,457.0],["KCNMA1",-0.1485639921672847,-2.886553984286136,8.0,458.0],["LOXL3",-0.21409419607622018,-5.507258067685189,12.0,454.0],["LPHN3",-0.1831654024372267,-4.156340898433064,11.0,455.0],["LRRC7",-0.15616504138704848,-3.1442729299048335,13.0,453.0],["LTBP1",-0.13595637818715003,-2.4847955615612083,8.0,458.0],["MAP3K13",-0.1330883822999804,-2.397828268644253,10.0,456.0],["MSH3",-0.15289310916077498,-3.0318937427989088,17.0,449.0],["MYOM1",-0.14279255311548192,-2.6986854849118003,12.0,454.0],["PHF20L1",-0.20255419977212655,-4.978707185602088,22.0,444.0],["PLEKHA6",-0.1945705577889636,-4.6302143722652325,20.0,446.0],["PLEKHG4",-0.15148874346175886,-2.9843283749465384,9.0,457.0],["POTEF",-0.1767906342986762,-3.9035999790174127,11.0,455.0],["PPP2R3B",-0.17100846163980624,-3.6817831415798605,8.0,458.0],["PROX1",-0.1774776053078604,-3.9304220353596744,9.0,457.0],["RGS22",-0.13471903435249244,-2.4470754352847033,12.0,454.0],["ROR2",-0.14804775308733523,-2.8694760752621873,9.0,457.0],["SMPD4",-0.15315098947236,-3.0406716948285126,8.0,458.0],["SULF2",-0.1373963820830431,-2.5290761874389576,11.0,455.0],["TDRD5",-0.16834021177723174,-3.5817883731983198,9.0,457.0],["TRANK1",-0.13965514191002862,-2.59936480668152,8.0,458.0],["TRIM3",-0.15170595274908483,-2.991658945822931,8.0,458.0],["TRIM51",-0.19769579031175188,-4.764975092073163,11.0,455.0],["XRN1",-0.1478083307615353,-2.8615739440931387,8.0,458.0],["ZBED4",-0.1454087743678398,-2.783015844361442,8.0,458.0],["ZFHX4",-0.13258549050025972,-2.382746481505248,31.0,435.0],["ZNF66",-0.16593094728187607,-3.4927753910033856,8.0,458.0]]},"para":{"top":[],"bottom":[["ADAMTS2",-0.12997072813012048,-2.5947192437304696,12.0,454.0],["AXIN2",-0.1454758283188191,-3.067103839487182,10.0,456.0],["BBS9",-0.14190519991846337,-2.9540906007453334,8.0,458.0],["BPHL",-0.1264927355396082,-2.494581621018183,8.0,458.0],["CDH23",-0.1531374011835718,-3.3176662731958646,16.0,450.0],["CTNNA1",-0.12953116440971815,-2.581758790392318,9.0,457.0],["GPR179",-0.1645203370582483,-3.709547671701795,10.0,456.0],["HDGF",-0.15418604802910493,-3.3521849041564895,8.0,458.0],["ITGA3",-0.13677563669214082,-2.7963270362653745,9.0,457.0],["KCNMA1",-0.13060681965667312,-2.612897812004136,8.0,458.0],["LOXL3",-0.16577436536395057,-3.7544371981293687,12.0,454.0],["LPHN3",-0.14342891166673416,-3.0022166644530213,11.0,455.0],["LRRC7",-0.1502439916100944,-3.2217203086536275,13.0,453.0],["LTBP1",-0.11973826907875532,-2.3071457996692497,8.0,458.0],["NWD1",-0.12674928705326782,-2.5019657016426,9.0,457.0],["PHF20L1",-0.16975978876507536,-3.899030072217417,22.0,444.0],["PIEZO1",-0.13693145643365354,-2.80094539202769,8.0,458.0],["PLEKHA6",-0.17288402816091175,-4.014079190797574,20.0,446.0],["PLEKHG4",-0.12889365084886495,-2.5633456627864213,9.0,457.0],["POTEF",-0.18046824599825342,-4.300791831108499,11.0,455.0],["PPP2R3B",-0.13005418149169426,-2.596821341836578,8.0,458.0],["PROX1",-0.14071662961377884,-2.9171782481564588,9.0,457.0],["SASS6",-0.12108916237092589,-2.343957277608693,8.0,458.0],["SMPD4",-0.12170320477645798,-2.360801286088323,8.0,458.0],["SULF2",-0.12435759484071789,-2.4346658791208653,11.0,455.0],["TAF7L",-0.11986107755986171,-2.310478365971096,8.0,458.0],["TDRD5",-0.13793475225732849,-2.8315690503135325,9.0,457.0],["TRIM51",-0.15477713324915707,-3.372363553811535,11.0,455.0],["XRN1",-0.1343524783304188,-2.7233628019417657,8.0,458.0],["ZNF66",-0.1242821828796927,-2.432308313013265,8.0,458.0]]}}}
{"ccle_rppa":{"corr":{"top":[],"bottom":[]},"para":{"top":[],"bottom":[["MYC_c-Myc_Caution",-0.2108585986637203,-5.180715206439338,449],["CDK1_CDK1",-0.18497010897283356,-4.093635664964892,449]]}}}
{"ccle_metabolomics":{"corr":{"top":[["sorbitol",0.20907746762677806,-5.202867619261321,459],["1-methylnicotinamide",0.2684255358175878,-8.289389703020671,459]],"bottom":[["phosphocreatine",-0.2684604201471285,-8.29144604633533,459],["creatine",-0.17040214507984636,-3.611202684179046,459],["C54:2 TAG",-0.1980125076926194,-4.714935734180406,459]]},"para":{"top":[["1-methylnicotinamide",0.28426775966318335,-9.253843681284286,459]],"bottom":[["phosphocreatine",-0.2852330103459224,-9.314609781028155,459],["creatine",-0.19112768097310667,-4.42464696470782,459]]}}}
{"ccle_mirna":{"corr":{"top":[],"bottom":[["hsa-miR-378_miR00349.1",-0.199578784927524,-4.754607888116324,456]]},"para":{"top":[],"bottom":[["hsa-miR-378_miR00349.1",-0.2103831265719588,-5.231391688136787,456]]}}}
{"prism_primary_logfold":{"corr":{"top":[["OSI-930_BRD-K25340465-001-11-1::2.58::HTS",0.5359843501293914,-33.509317515281765,442]],"bottom":[["levosulpiride_BRD-K51671335-001-10-6::2.5::HTS",-0.2061343570582454,-5.15924251485046,468],["ipidacrine_BRD-K66896231-001-08-1::2.5::HTS",-0.17688945399982858,-3.944055811912839,471],["ceftiofur_BRD-K82960980-003-02-7::2.36::HTS",-0.16778560760965533,-3.4021598472175905,442],["omarigliptin_BRD-K14171291-001-01-4::2.499985403::MTS004",-0.1699017376666188,-3.585884646427285,458]]},"para":{"top":[["OSI-930_BRD-K25340465-001-11-1::2.58::HTS",0.5468162823980771,-35.10328117379921,442],["BMS-265246_BRD-K62814476-001-03-3::2.5::HTS",0.510926013469736,-31.82164447235979,469],["oxaliplatin_BRD-K78960041-001-05-7::2.54::HTS",0.5468866918381373,-35.113832853184356,442],["PF-562271_BRD-K99545815-001-06-3::2.5::HTS",0.5216584222855394,-33.57115655425398,472]],"bottom":[["20-hydroxyecdysone_BRD-K28343777-001-01-6::2.5::HTS",-0.17308781716460864,-3.781807598903792,469],["levosulpiride_BRD-K51671335-001-10-6::2.5::HTS",-0.1885114550365941,-4.391539859677288,468],["ipidacrine_BRD-K66896231-001-08-1::2.5::HTS",-0.17122930307185624,-3.7245107386338687,471],["tamsulosin_BRD-K74339692-001-01-9::2.5::HTS",-0.1837340137105916,-4.210816736957776,470],["dicoumarol_BRD-K82236179-213-01-0::2.5::HTS",-0.19461049414336046,-4.631923034636951,466],["omarigliptin_BRD-K14171291-001-01-4::2.499985403::MTS004",-0.18497819198394475,-4.165899288512061,458]]}}}
{"prism_secondary_logfold":{"corr":{"top":[],"bottom":[["lappaconite_BRD-A05906449-004-01-1::0.0024414::HTS002",-0.17248324570827248,-3.7446669186591963,467],["GTP-14564_BRD-K16664969-001-03-3::0.00061034::HTS002",-0.19729429605722237,-4.69323387262803,460],["KY02111_BRD-K13302470-001-02-7::0.00976562::HTS002",-0.1741258952973208,-3.743640737451164,458],["cilostamide_BRD-K28578425-001-07-0::0.00976562::HTS002",-0.17665070478450287,-3.8470022154210337,459],["PTC-209_BRD-K83834509-001-01-1::0.15625::HTS002",-0.18781593866602322,-4.280380674808761,458]]},"para":{"top":[["uprosertib_BRD-K38332599-001-01-3::2.5::HTS002",0.6645768239274465,-59.84816815951932,465],["maytansinol-isobutyrate_BRD-K15898725-001-01-7::0.00061034::HTS002",0.6729308472046949,-61.491731573848696,462],["bitopertin_BRD-K13756951-001-01-4::10::HTS002",0.6196750489808309,-49.93633719931818,465]],"bottom":[["temazepam_BRD-A93093700-001-02-9::0.0390625::HTS002",-0.23975637311091727,-6.803667159033649,467],["dronedarone_BRD-K05524748-003-04-4::0.00976562::HTS002",-0.19680437971438816,-4.546040998503832,446],["PI-103_BRD-K67868012-001-07-6::0.00976562::HTS002",-0.2187532824643072,-5.662563987703186,460],["lafutidine_BRD-A67516570-001-02-8::0.0390625::HTS002",-0.18996431642222508,-4.452266808191798,468],["PTC-209_BRD-K83834509-001-01-1::0.15625::HTS002",-0.18882615213367526,-4.321544974141225,458],["enoximone_BRD-K21152241-001-07-3::0.009765623::MTS006",-0.20316665948799378,-4.977265454795684,463]]}}}
{"ccle_proteomics":{"corr":{"top":[["SPTBN4_Q9H254",0.36912219088491477,-8.434669942724224,240],["CD151_P48509",0.3498033874593274,-7.354497035054921,232],["RGS3_P49796",0.32663552241001603,-4.422880815614503,153],["AP2B1_P63010-2",0.33213205078644437,-6.862349885357901,240],["MGAT1_P26572",0.31983867920607545,-6.383582093686042,240],["ACTN4_O43707",0.35530694932606915,-7.823655618844592,240],["SCHIP1_Q9P0W5-5",0.3245289745840676,-3.5502036508994688,121],["CLPTM1_O96005",0.3399762635165367,-7.179003566945571,240],["ESYT2_A0FGR8-6",0.34062372462338764,-7.205534675273236,240],["YIPF5_Q969M3-3",0.38514584098714016,-8.357461103772208,217],["ABHD12_Q8N2K0",0.3226017729738243,-6.489355001956736,240],["AP2M1_Q96CW1-2",0.3414582432558878,-7.239820245478863,240],["NOV_P48745",0.35848323469145843,-4.046264356733919,114],["CHSY3_Q70JA7",0.32579573098717385,-3.02661575514452,100],["AP2S1_P53680",0.32075728097522316,-6.418629558736722,240]],"bottom":[["PSMD4_Q5VWC4",-0.40151690772681714,-6.609596897995186,154],["RPS19BP1_Q86WX3",-0.3300701970911662,-6.7805713170508515,240],["COA4_Q9NYJ1-2",-0.41762910528845104,-5.33536448458251,112],["UTP14A_Q9BVJ6",-0.32243747194126915,-6.483035895269569,240],["PINX1_Q96BK5",-0.38200513520074686,-9.031042004238037,240],["RBM8A_Q9Y5S9",-0.3228219702024628,-6.497829781449409,240],["ANKRD39_Q53RE8",-0.32180184152208907,-3.1653298129862075,108],["C1QBP_Q07021",-0.33017056883928825,-6.784538414446038,240],["DNAAF2_Q9NVR5",-0.33049484470881235,-5.807624676474544,202],["HSPA8_E9PN89",-0.4672770257298498,-6.63114656704818,111],["PPIH_O43447",-0.34676057177885766,-7.460026382707244,240],["MPHOSPH10_O00566",-0.34752041527810174,-7.49191918047329,240]]},"para":{"top":[["SPTBN4_Q9H254",0.37258659356335866,-8.592483859729809,240],["RAB5B_P61020",0.31301407514200347,-6.126831558934332,240],["MGAT1_P26572",0.3273395057670044,-6.673187661151263,240],["ACTN4_O43707",0.3148676948988218,-6.195937077060129,240],["CLPTM1_O96005",0.3134036906105423,-6.141318140621163,240],["ESYT2_A0FGR8-6",0.32414991792383063,-6.549081632228339,240],["YIPF5_Q969M3-3",0.38515605595057956,-8.35790333074908,217],["NAPA_P54920",0.360151070724638,-8.03459959970383,240],["AP2M1_Q96CW1-2",0.32300978100728134,-6.5050634168574035,240],["ABHD12_Q8N2K0",0.3561198799717976,-7.85880959186351,240],["ERGIC1_Q969X5",0.3160369885699231,-6.2397710099868595,240],["CHSY3_Q70JA7",0.3029601137775143,-2.660542111974397,100],["TMEM184B_Q9Y519",0.3180269446705487,-3.693880536030056,132]],"bottom":[["MTA1_Q13330-3",-0.39509167549312885,-4.943825774045063,116],["PSMD4_Q5VWC4",-0.3592932915604317,-5.324549169535821,154],["NEB_F8WCL5",-0.35080190406595035,-4.278564629495194,127],["C1orf131_Q8NDD1",-0.3439055953169923,-7.340950081932583,240],["POLR1C_O15160",-0.3498836457058829,-7.591653308827396,240],["WDR74_Q6RFH5",-0.3355477134870409,-6.999151465273722,240],["COA4_Q9NYJ1-2",-0.3561434380018451,-3.9346804491703598,112],["PINX1_Q96BK5",-0.3751090516565546,-8.708566789017373,240],["C1QBP_Q07021",-0.3329711298427519,-6.895802336423988,240],["HSPA8_E9PN89",-0.4239479289847182,-5.450825241344076,111],["MPHOSPH10_O00566",-0.35805430227617263,-7.942859427253228,240]]}}}
{"depmap_copy_number":{"corr":{"top":[],"bottom":[]},"para":{"top":[],"bottom":[]}}}
{"depmap_gene_tpm":{"corr":{"top":[["STOML1_9399",0.2761304093968409,-8.856787567072812,465],["RBMS1_5937",0.2782905471691235,-8.990434530098733,465],["TNS3_64759",0.2822113130785143,-9.235991075399474,465],["PTTG1IP_754",0.29537128432872223,-10.088639113816816,465],["BICC1_80114",0.27463518062015035,-8.764958242387268,465],["SEC31A_22872",0.2960132406258022,-10.131366080791592,465],["NR3C1_2908",0.29706197465551204,-10.201396258571751,465],["GALNT10_55568",0.28594380890838295,-9.473349080490324,465],["PTPRJ_5795",0.2936509968756154,-9.974665148248956,465],["TRAM1_23471",0.271298232099218,-8.562017212592695,465],["YIPF5_81555",0.28969747717189887,-9.715613477260716,465],["ACTN4_81",0.2821279051263796,-9.230727099028098,465],["CUEDC1_404093",0.279184275963676,-9.04606972450269,465],["LEPROT_54741",0.30033816667663416,-10.422004028407201,465]],"bottom":[["SDHAF3_57001",-0.24010213387773138,-6.795363382172823,465],["PPARGC1B_133522",-0.245876702312798,-7.104888329510788,465],["TOP1MT_116447",-0.2637569621628833,-8.113469369836617,465],["TRMT10C_54931",-0.22328976005368054,-5.938215687858821,465],["SORD_6652",-0.2861805660613061,-9.488523799616816,465],["SLIRP_81892",-0.22777869063968328,-6.160727517898914,465]]},"para":{"top":[["ACTN4_81",0.3028804340648536,-10.595118321032281,465],["ABHD12_26090",0.2899685464849085,-9.733247384340322,465],["PTTG1IP_754",0.3099959751799495,-11.088675382923263,465],["TGOLN2_10618",0.3159996122318306,-11.515565411644895,465],["ERGIC1_57222",0.286323139126934,-9.49766873547404,465],["SEC31A_22872",0.3099814369550614,-11.087653312972126,465],["MGLL_11343",0.28604523748724475,-9.479848307197502,465],["SERINC3_10955",0.2944318130991795,-10.02630197360457,465],["NR3C1_2908",0.28636610855813327,-9.500425895715747,465],["GALNT10_55568",0.29782939758277427,-10.252822029689987,465],["PTPRJ_5795",0.2937649386382313,-9.982190551656362,465],["YIPF5_81555",0.2918733435559988,-9.857690100351515,465],["NNMT_4837",0.2849917153766986,-9.412468900966143,465],["TMUB2_79089",0.2881168494412108,-9.613161860053298,465],["LEPROT_54741",0.2930767572973446,-9.936789693729443,465]],"bottom":[["SDHAF3_57001",-0.25846275189937007,-7.806846601410907,465],["PPARGC1B_133522",-0.25191366826708167,-7.436878750389917,465],["EBPL_84650",-0.23142386455101144,-6.344801234206498,465],["TOP1MT_116447",-0.25914616489711656,-7.846046784236741,465],["SORD_6652",-0.27790342479805724,-8.966397842504263,465],["SLIRP_81892",-0.24682208484343443,-7.1563084086504025,465],["RPL12_6136",-0.23602124953791526,-6.581317703464669,465]]}}}
{"avana":{"corr":{"top":[["TWNK_56652",0.22581033814623153,-4.4833689123243605,332],["ADAP2_55803",0.21111282958305605,-3.9737887489559767,332],["CKAP2L_150468",0.24146012662970257,-5.0641802511486755,332],["PLEKHS1_79949",0.20508073391548762,-3.7745050911029723,332],["MRPL55_128308",0.21711484006381912,-4.177744049420868,332]],"bottom":[["SS18L1_26039",-0.21357896300800921,-4.035438148454895,330],["PARD6G_84552",-0.19667838231925575,-3.5063210989920823,332],["SSRP1_6749",-0.21057830026981242,-3.935016135086227,330],["LPA_4018",-0.23734629618422437,-4.907627181975101,332],["TIMM8A_1678",-0.21150534746063598,-3.7760228473428135,312],["USP5_8078",-0.24310490742308583,-5.1275543494520965,332],["CTBP1_1487",-0.1965792073869676,-3.4849352769903468,330]]},"para":{"top":[["POLG_5428",0.2106409249203145,-3.9579932580222215,332],["GATB_5188",0.21156531025067163,-3.9889668923065376,332],["TWNK_56652",0.22681126449753622,-4.519325974746741,332],["ADAP2_55803",0.21429421100383275,-4.081188299444656,332],["GANC_2595",0.20998544596641552,-3.936111121320959,332],["CYP4X1_260293",0.2225737833656504,-4.368201034569334,332],["MRPL55_128308",0.23445410261657712,-4.799227232889191,332]],"bottom":[["CRIM1_51232",-0.2189582796189406,-4.241529522597953,332],["SSRP1_6749",-0.23292140779829168,-4.716904383198586,330],["LPA_4018",-0.25993223131385995,-5.801910422214692,332],["PRSS3_5646",-0.2088783516293943,-3.8993052489647018,332],["MTRNR2L3_100462983",-0.21202592560412098,-4.00445092350211,332],["TIMM8A_1678",-0.2063891225895581,-3.6160841647542057,312],["CTBP1_1487",-0.22671288917175816,-4.491667454005596,330]]}}}
{"drive":{"corr":{"top":[["TAL2_6887",0.30121292093829477,-5.805202620620507,245],["BAZ2A_11176",0.3020251230140201,-5.964275994615806,251],["LGALS9B_284194",0.2845178079565556,-5.256252739644227,247],["RDH8_50700",0.2782111288931018,-5.04229501627807,247]],"bottom":[["LGALS9C_654346",-0.2796036259558419,-5.089088064343043,247],["HIST1H2BL&HIST1H2BH&HIST1H2BC_8340&8345&8347",-0.24427940684006677,-3.8935658434202733,241],["TEAD1_7003",-0.2778742616304756,-5.10404558379042,251],["COG2_22796",-0.2791279554188952,-5.073075312503757,247],["GLIS3_169792",-0.2937659333497327,-5.661164826400471,251],["PSG4_5672",-0.24603473665560543,-4.073123093351649,250]]},"para":{"top":[["RBM15_64783",0.3033188281953018,-5.881932140387628,245],["BET1_10282",0.27845605743374924,-5.013819601487266,245],["CENPA_1058",0.28366831487158417,-5.303239330513457,251],["GPR19_2842",0.28003780226838515,-5.10372978783003,247],["RDH8_50700",0.30611089797957697,-6.028981188527461,247],["ECI2_10455",0.2829315440166379,-5.35332837120228,255]],"bottom":[["HOXA5_3202",-0.2742431687406168,-4.981481674000103,251],["CCNB1IP1_57820",-0.2601672720715912,-4.426508274027503,245],["POLE2_5427",-0.24261016765278617,-3.9019973721669463,245]]}}}
{"achilles":{"corr":{"top":[["PART1_25859",0.3816856916903049,-5.948078614351298,153],["TMEM9_252839",0.26587665731092563,-4.8226044052231165,258],["PLAC1_10761",0.31844921744376514,-4.2196986516940305,153]],"bottom":[["ZNF394_84124",-0.259215627141653,-4.6037564110183835,258],["ZNF600_162966",-0.31851969634861904,-6.766442027081028,258],["EPHA5_2044",-0.24842280399188021,-4.261509177556308,258],["RABEPK_10244",-0.29920844816279035,-3.7647348863127004,153],["CBX8_57332",-0.25708154779881787,-4.534878537773665,258],["SOGA3_387104",-0.2959232715951648,-3.690151018516347,153]]},"para":{"top":[["KHK_3795",0.24673302347890338,-4.20929174565583,258],["PART1_25859",0.2661508924416788,-3.0539128397538793,153],["TMEM9_252839",0.2692495619194197,-4.935669236175292,258],["UBE2S_27338",0.287855919273332,-5.58705353788511,258],["HRG_3273",0.27413389989098985,-5.1021042644396015,258]],"bottom":[["ZNF600_162966",-0.3117342326408912,-6.493770226018399,258],["GCHFR_2644",-0.26141826093726256,-4.675474794279238,258],["DMXL1_1657",-0.2747636965535886,-3.2307438552389405,153],["KLHL13_90293",-0.2919141600415833,-3.600332125740068,153],["UIMC1_51720",-0.25218970661891515,-4.379239575486471,258],["SOGA3_387104",-0.2794146102833692,-3.328650601576907,153]]}}}
{"ccle_rrbs_tss1kb":{"corr":{"top":[],"bottom":[["TCN2_22_31002069_31003069",-0.20856817187966245,-4.602837001044869,402]]},"para":{"top":[["SREBF1_17_17740325_17741325",0.22819929101345232,-5.444928495920986,404],["SLC27A1_19_17580252_17581252",0.2056266798445325,-4.565636704242441,410],["TMC7_16_18994608_18995608",0.18488641559876623,-3.769978597101223,409],["LY6E-DT_8_144099807_144100807",0.20695590558777466,-4.618925145916125,410]],"bottom":[["GLUD2_23_120180461_120181461",-0.20589584307169825,-4.298998379237836,382],["CIART_1_150253942_150254942",-0.23420306873395055,-5.762360072764546,408],["DNAH7_2_196933536_196934536",-0.29634142404677516,-8.947351928720801,406],["BEST3_12_70083057_70084057",-0.23347541600180763,-5.36149659572648,379],["CIART_1_150254131_150255131",-0.2316122456106255,-5.657861357801952,409],["MIR9-3HG_15_89920272_89921272",-0.22723731872246206,-5.474952059108218,410]]}}}
{"ccle_gene_tpm":{"corr":{"top":[["YIPF5_ENSG00000145817.12",0.2947353121444008,-9.965676364216963,461],["ACTN4_ENSG00000130402.7",0.2893993797044995,-9.618466665487517,461],["TNS3_ENSG00000136205.12",0.28333018824644707,-9.232290020097585,461],["GALNT10_ENSG00000164574.11",0.29025530806401556,-9.67367533038896,461],["NR3C1_ENSG00000113580.10",0.2981794205145457,-10.193642792734863,461],["RBMS1_ENSG00000153250.13",0.2777958153078004,-8.888170147540425,461],["CUEDC1_ENSG00000180891.8",0.2808549152099908,-9.077439537075264,461],["SEC31A_ENSG00000138674.12",0.2920341206905747,-9.789005213249846,461],["PTTG1IP_ENSG00000183255.7",0.3029828049444633,-10.516679640797756,461],["TRAM1_ENSG00000067167.3",0.2755149358042629,-8.74855671848312,461],["STOML1_ENSG00000067221.9",0.27319990002322436,-8.608162507902794,461],["PTPRJ_ENSG00000149177.8",0.2881493563416204,-9.538170974559916,461],["LEPROT_ENSG00000213625.4",0.30562361395679943,-10.696828130140274,461],["BICC1_ENSG00000122870.7",0.28044514793507047,-9.0519521372142,461]],"bottom":[["VPS9D1-AS1_ENSG00000261373.1",-0.2579021934829445,-7.713210805744276,461],["CTD-2008A1.2_ENSG00000259479.2",-0.2470184194401171,-7.110553959942112,461],["PPARGC1B_ENSG00000155846.12",-0.2435564234319582,-6.924691229922256,461],["TOP1MT_ENSG00000184428.8",-0.26620990279013185,-8.192208347924124,461],["RP11-132A1.4_ENSG00000232445.1",-0.31914769755029143,-11.648155363946815,461],["DANCR_ENSG00000226950.2",-0.22688925613713198,-6.068612636473015,461],["ACN9_ENSG00000196636.7",-0.2383273516800621,-6.6492397614978245,461],["SORD_ENSG00000140263.9",-0.2861581456343336,-9.411078357208025,461]]},"para":{"top":[["YIPF5_ENSG00000145817.12",0.29705929015000904,-10.119167292464317,461],["CTSD_ENSG00000117984.8",0.2876181372660265,-9.504167311398952,461],["ABHD12_ENSG00000100997.14",0.29070134719613655,-9.70251903794904,461],["ACTN4_ENSG00000130402.7",0.3109818517054608,-11.067957498133705,461],["GALNT10_ENSG00000164574.11",0.30552283678500597,-10.68992004314781,461],["NR3C1_ENSG00000113580.10",0.28813107529234233,-9.536999611144537,461],["CUEDC1_ENSG00000180891.8",0.28473595945767316,-9.32091482166003,461],["SEC31A_ENSG00000138674.12",0.3081902652321924,-10.873662530953071,461],["PTTG1IP_ENSG00000183255.7",0.31908410373580054,-11.643568135270009,461],["ERGIC1_ENSG00000113719.11",0.28865977330067266,-9.570910127407595,461],["TMUB2_ENSG00000168591.11",0.2911096706919292,-9.728968024374028,461],["TGOLN2_ENSG00000152291.9",0.31700494944944946,-11.49418913287055,461],["PTPRJ_ENSG00000149177.8",0.2894936000661722,-9.624534942389138,461],["LEPROT_ENSG00000213625.4",0.29925212957930264,-10.265267847040045,461],["SERINC3_ENSG00000132824.9",0.2986693904991309,-10.226321453116906,461]],"bottom":[["None_ENSG00000267110.1",-0.23583762036734837,-6.520306751761058,461],["VPS9D1-AS1_ENSG00000261373.1",-0.26712999833263984,-8.246281326339757,461],["SLIRP_ENSG00000119705.5",-0.24091313325261388,-6.784659543705543,461],["PPARGC1B_ENSG00000155846.12",-0.24804466787613214,-7.166187800472753,461],["TOP1MT_ENSG00000184428.8",-0.26211939544652013,-7.954289696890857,461],["RP11-132A1.4_ENSG00000232445.1",-0.3599431771014095,-14.821383538748577,461],["EBPL_ENSG00000123179.9",-0.23142916041234995,-6.295497178429492,461],["ACN9_ENSG00000196636.7",-0.2547033717179452,-7.533178522712637,461],["RPL12_ENSG00000197958.8",-0.23519812765762066,-6.487419949822706,461],["SORD_ENSG00000140263.9",-0.2772196793829803,-8.852783442466894,461]]}}}
{"ccle_rrbs_tss_clusters":{"corr":{"top":[],"bottom":[["GLUD2_1",-0.29159558795173246,-3.778141731398847,162],["ABCC2_1",-0.28138244915893684,-4.8116022899554265,229],["TNK2_5",-0.23699654329986772,-5.78555839359123,400],["DST_7",-0.2635608614749602,-3.069348149724598,157]]},"para":{"top":[["LOC101928453_3",0.2692702341042633,-3.433024487176238,171],["LOC101927746_3",0.24144857615290838,-6.056052421719521,405]],"bottom":[["PCSK1N_2",-0.2646873479348679,-4.998001858573167,271],["RHOBTB1_2",-0.23045165959389532,-5.581089062423534,407],["DNAH7_2",-0.3379992181790691,-11.446546119502674,401],["RASL11A_5",-0.2301317228417926,-5.492951676541985,401],["CIART_1",-0.24108398956092833,-6.120102425893525,411],["PRDM2_5",-0.23897917037359676,-5.822245016089007,396]]}}}
{"ccle_rrbs_cgi_clusters":{"corr":{"top":[["9_130368668_130372978-2",0.25840120413971884,-5.941451648935686,345],["19_1442918_1446066-1",0.25517948935664464,-6.623645918091459,399],["19_4556363_4560579-2",0.23907263169317888,-6.012429292178869,410],["16_89777904_89780789-2",0.24684363712946578,-6.267654803094875,402]],"bottom":[["1_14217350_14221737-1",-0.24768654356491798,-3.391423195004614,200],["23_120179326_120183970-1",-0.29159558795173246,-3.778141731398847,162],["7_4762684_4767252-2",-0.25227547582849624,-6.675410133566926,412]]},"para":{"top":[["16_2196455_2201129-2",0.2689697251813974,-7.515956929519924,411],["20_61512964_61515707-2",0.23716920749453124,-5.662507082532783,390],["19_49608928_49613410-1",0.24187545564372934,-4.21346759507898,269]],"bottom":[["7_127908860_127913287-1",-0.2648867926816274,-7.301270427207469,411],["1_14217350_14221737-1",-0.24976314922213924,-3.4419526027826137,200],["10_103068291_103072504-1",-0.24846186928131556,-6.1866045516779655,391],["2_196931310_196935665-2",-0.3379992181790691,-11.446546119502674,401],["23_48691328_48696090-2",-0.2646873479348679,-4.998001858573167,271],["7_4762684_4767252-2",-0.25201508037732456,-6.662506228182083,412]]}}}
