{"depmap_hotspot":{"corr":{"top":[["DPYS",0.13651525390336483,-2.470544655703102,27.0,432.0],["FAM26D",0.10200264440136331,-1.5393546745139441,9.0,450.0],["MUC21",0.108453847163472,-1.6963337004927426,13.0,446.0],["NKD2",0.1377092079101758,-2.506849013461689,16.0,443.0],["TBCE",0.12354553550537609,-2.0940121154783307,15.0,444.0],["TFCP2L1",0.124669652547617,-2.125363406439361,13.0,446.0]],"bottom":[["AC073343.1",-0.16793443778884412,-3.5202993510509457,10.0,449.0],["ACCS",-0.1756290563273514,-3.8078954262916223,17.0,442.0],["ADRA2A",-0.18316360365689516,-4.101420887961921,31.0,428.0],["ARHGEF16",-0.1534566487977436,-3.0119972855997084,28.0,431.0],["ATAD3C",-0.1527045682320042,-2.9867499317803015,19.0,440.0],["ATF3",-0.15898519668887187,-3.2010835438954044,8.0,451.0],["ATXN10",-0.16463064937455013,-3.4005527781835054,13.0,446.0],["C12orf60",-0.16348110207730643,-3.3594103604699668,15.0,444.0],["CEP350",-0.1701328433284393,-3.6012214813391665,73.0,386.0],["CLTCL1",-0.1526502688265231,-2.9849314902269573,38.0,421.0],["CPAMD8",-0.16492007828335192,-3.4109539673908857,68.0,391.0],["CTNNB1",-0.2272512447777476,-6.062620026751695,38.0,421.0],["DDX24",-0.1612018608384388,-3.2786320211306057,18.0,441.0],["DEPDC1B",-0.16425714971251823,-3.387155619258595,19.0,440.0],["DGKG",-0.15514443322758145,-3.0690696452702566,24.0,435.0],["DLG5",-0.17738097553859347,-3.8750886279702317,76.0,383.0],["ETNK1",-0.1851518346783243,-4.180859925198199,8.0,451.0],["FAM46C",-0.15063335101221897,-2.917804843790215,13.0,446.0],["FAM92A1",-0.15786316536179984,-3.162209384224209,10.0,449.0],["FGD1",-0.1830208297147626,-4.095748393944472,17.0,442.0],["HIP1",-0.18307819455735716,-4.098027018874969,29.0,430.0],["HLA-B",-0.19288466722450837,-4.497765452687856,19.0,440.0],["HOMER1",-0.15079936607351183,-2.9232993894493218,13.0,446.0],["HOXC5",-0.18223587500393992,-4.064638118516154,11.0,448.0],["IL2RG",-0.17177369854780522,-3.6622688570954725,12.0,447.0],["ISLR2",-0.1785937657389136,-3.921978248825132,27.0,432.0],["KIF17",-0.18804662353568335,-4.29801004466187,39.0,420.0],["KPNA4",-0.19129785334612462,-4.431700092296501,13.0,446.0],["KRT24",-0.18193616902962564,-4.052793911659048,19.0,440.0],["LIN9",-0.17554522133560524,-3.8046960065195696,14.0,445.0],["LRRN3",-0.1655343640284164,-3.4330862238027122,22.0,437.0],["MAST3",-0.15516372414689522,-3.069725277144546,33.0,426.0],["MCAM",-0.1509593402680599,-2.928599213961109,17.0,442.0],["NABP2",-0.17171881023807856,-3.660217782239699,13.0,446.0],["NCBP1",-0.2286890535446279,-6.133786258719341,20.0,439.0],["NHSL1",-0.15549918895459716,-3.081138545353073,42.0,417.0],["NRIP1",-0.1709574115529915,-3.6318298370373143,44.0,415.0],["PCDH9",-0.15425690084730792,-3.038986413765966,44.0,415.0],["PCSK2",-0.16736307472754033,-3.4994302945614493,21.0,438.0],["PNO1",-0.17646529317117848,-3.8398888934636903,8.0,451.0],["PPIP5K2",-0.17146700873827972,-3.650816393753551,33.0,426.0],["PPP2R3B",-0.16377173590130722,-3.369786717775511,35.0,424.0],["PRR11",-0.1597365391831565,-3.2272571546405318,20.0,439.0],["PYROXD1",-0.1778261828612524,-3.892265894835037,16.0,443.0],["RBM6",-0.15782145170400064,-3.1607690702074014,35.0,424.0],["RFTN2",-0.1635938178486187,-3.363432552467395,15.0,444.0],["RP11-683L23.1",-0.179456707742368,-3.955528613916782,14.0,445.0],["RP11-89N17.1",-0.15518806363413395,-3.0705525992883484,8.0,451.0],["SLC25A29",-0.1610688173383236,-3.273949468285193,22.0,437.0],["SLC38A5",-0.16535949028785912,-3.4267778013985613,14.0,445.0],["TADA3",-0.1540325987106228,-3.031408675824346,18.0,441.0],["TPM4",-0.16841642498774803,-3.5379560411753097,9.0,450.0],["TRIM42",-0.16356891029805945,-3.3625435191596154,44.0,415.0],["TUBA1C",-0.16193431576978018,-3.304475647051937,15.0,444.0],["UBE2I",-0.18279056732167948,-4.086608950881723,10.0,449.0],["VSIG10L",-0.16625090897650166,-3.4590002925898693,16.0,443.0],["WDR62",-0.15700606413856288,-3.1326854569278257,46.0,413.0]]},"para":{"top":[["DNMT3L",0.1108820376797292,-2.0532386916298044,15.0,444.0],["DPYS",0.17302386726218782,-3.97101929397836,27.0,432.0],["FAM26D",0.11989546981894457,-2.2869591629213155,9.0,450.0],["GPR88",0.11772207255342243,-2.2293235469765036,11.0,448.0],["HDHD2",0.10591889468573874,-1.9302026817205764,8.0,451.0],["KRTAP1-3",0.14822172000655445,-3.1192467317134933,10.0,449.0],["MUC21",0.11913640530361501,-2.2669407196698814,13.0,446.0],["NKD2",0.1568755726330606,-3.403481011463223,16.0,443.0],["TBCE",0.14093763588315872,-2.891429135061611,15.0,444.0],["TFCP2L1",0.13692757398248268,-2.7699251626989208,13.0,446.0]],"bottom":[["ACCS",-0.15049182829168756,-3.1927710650583205,17.0,442.0],["ARMC12",-0.13797234575078202,-2.801065605638424,10.0,449.0],["ARMCX3",-0.12913085257409926,-2.542171454853424,10.0,449.0],["ATXN10",-0.1410408525349785,-2.8944914996891664,13.0,446.0],["C6orf52",-0.14457473878389912,-3.0039490767581105,12.0,447.0],["C9orf47",-0.11772954249174042,-2.229281368885502,8.0,451.0],["CCDC47",-0.1540221900524036,-3.307960258121939,10.0,449.0],["CENPBD1",-0.15554922893392426,-3.3588439335270928,12.0,447.0],["CYGB",-0.1312802028581322,-2.603700087167639,9.0,450.0],["CYTH2",-0.14432520946553468,-2.9958970085876433,9.0,450.0],["ETNK1",-0.14863825909042583,-3.1323810746860326,8.0,451.0],["FAM46C",-0.1400992586494674,-2.8657004363263483,13.0,446.0],["FAM47E-STBD1",-0.13380544688841953,-2.6774583210188343,13.0,446.0],["FFAR2",-0.11358325124069726,-2.121419857647678,8.0,451.0],["FUT7",-0.12891161669184448,-2.536070539278242,12.0,447.0],["GPR25",-0.13421852976908666,-2.6895315980516084,12.0,447.0],["GUCA1C",-0.13725841201721573,-2.779769822064363,12.0,447.0],["HLA-B",-0.17742443895478854,-4.133856341976192,19.0,440.0],["HOXC5",-0.13202073524712582,-2.625285329319242,11.0,448.0],["IL2RG",-0.16034090773182255,-3.5208426717377743,12.0,447.0],["KDM5D",-0.13282188545718884,-2.6484163942183,9.0,450.0],["KPNA4",-0.13474704077393063,-2.705156079744204,13.0,446.0],["LHX2",-0.12162454336393247,-2.333445759078612,8.0,451.0],["LIN9",-0.15250911254917568,-3.2584082544429616,14.0,445.0],["NABP2",-0.15848511820339467,-3.4576586888114047,13.0,446.0],["NCBP1",-0.20107748393318645,-5.073220465443989,20.0,439.0],["OR1S2",-0.13234326147329958,-2.634648244982333,11.0,448.0],["RAB40A",-0.12051462037007085,-2.303657072383947,10.0,449.0],["RFTN2",-0.14944568214382192,-3.158870603103017,15.0,444.0],["SLC46A1",-0.14235923138272033,-2.9350183341523928,12.0,447.0],["SMARCD1",-0.12523206343106377,-2.432483270279612,9.0,450.0],["TCEA1",-0.11396018680897392,-2.1310969536919164,8.0,451.0],["TPM4",-0.17764927179899007,-4.1416098228345275,9.0,450.0],["TPPP3",-0.12702728650923117,-2.4825063385497987,8.0,451.0],["TUBA1C",-0.161282963897788,-3.5533793315965623,15.0,444.0],["UBE2I",-0.15312114616178626,-3.2782342939898372,10.0,449.0]]}}}
{"depmap_damaging":{"corr":{"top":[["ZNF43",0.11947992092983527,-1.9826382832167246,10.0,449.0]],"bottom":[["ANKRD31",-0.1522678761848584,-2.972142213926994,10.0,449.0],["APAF1",-0.1278786796662453,-2.2161963788428056,12.0,447.0],["ATP10D",-0.13631125688825274,-2.4643696319468167,8.0,451.0],["C17orf80",-0.1450013704504344,-2.7346581618938246,9.0,450.0],["CDH18",-0.1549478897894933,-3.0623940785060433,9.0,450.0],["DST",-0.14050633018812667,-2.5929944258817494,51.0,408.0],["FAM178B",-0.1650833019471492,-3.416827271705519,13.0,446.0],["HERC2",-0.16668827681526532,-3.4748694774286313,16.0,443.0],["JMJD1C",-0.14180562347517137,-2.6335328448326325,14.0,445.0],["KIAA0100",-0.13709607257753198,-2.488170682045155,9.0,450.0],["KIF27",-0.13948124283371025,-2.5612456594316537,10.0,449.0],["LAMA5",-0.13486948270842153,-2.4209585029304033,29.0,430.0],["LRP2",-0.18063057744266067,-4.001417288679729,20.0,439.0],["MAP7D3",-0.14827505384488424,-2.840347135323333,12.0,447.0],["MYO18B",-0.12904668896369312,-2.249749428263117,12.0,447.0],["MYOM1",-0.1430938213467967,-2.6740535154072496,12.0,447.0],["NOTCH4",-0.14668283462726367,-2.7886774395078135,11.0,448.0],["NSFL1C",-0.1275562955131359,-2.2069816613424766,9.0,450.0],["PDE4DIP",-0.1254197332845696,-2.146417633703582,28.0,431.0],["PIK3C2A",-0.1514442897682963,-2.944696492759952,11.0,448.0],["PLEKHA6",-0.17095130765727828,-3.63160274283441,19.0,440.0],["PPP2R3B",-0.18176828164213368,-4.046167329399014,9.0,450.0],["SDK1",-0.17955748445643618,-3.959456855505636,9.0,450.0],["SVEP1",-0.17521786005267628,-3.792216792268326,12.0,447.0],["TBCK",-0.12007718353016987,-1.9988024373888842,10.0,449.0],["TDRD5",-0.1501240156623708,-2.9009818995317436,9.0,450.0],["TPP2",-0.12119652706103551,-2.029278828489505,8.0,451.0]]},"para":{"top":[["MYH4",0.123446398610603,-2.3831152263605007,8.0,451.0],["SLC12A5",0.11025365372092023,-2.0370520478334138,8.0,451.0],["ZNF43",0.1409007383952885,-2.8899898157670814,10.0,449.0]],"bottom":[["AP2B1",-0.11138446042575015,-2.0654811950518144,8.0,451.0],["APAF1",-0.12035872765473574,-2.2995950738110045,12.0,447.0],["FAM178B",-0.13990102835778084,-2.85966004730606,13.0,446.0],["KIF27",-0.12986295073522588,-2.563063094990589,10.0,449.0],["LARP7",-0.13575962717430692,-2.7347304933123766,8.0,451.0],["LRP2",-0.1581073907313619,-3.445177665305726,20.0,439.0],["MAP3K15",-0.12836543801715652,-2.520506657860363,11.0,448.0],["MYO18B",-0.12906618697564765,-2.5404672027861084,12.0,447.0],["MYOM1",-0.14782071474376568,-3.106584713759388,12.0,447.0],["NOTCH4",-0.12438761456101345,-2.409263070309941,11.0,448.0],["PIK3C2A",-0.13648234804252948,-2.7565041223468905,11.0,448.0],["PLEKHA6",-0.15311576378745417,-3.2785522384456414,19.0,440.0],["PPP2R3B",-0.15274516827576717,-3.2657774726276605,9.0,450.0],["SDK1",-0.12404615373948172,-2.399695932857786,9.0,450.0],["SVEP1",-0.13220911607964542,-2.6308164669646734,12.0,447.0],["TDRD5",-0.14408802752721825,-2.988485436692616,9.0,450.0],["TPP2",-0.12401180196301793,-2.3986529099782574,8.0,451.0],["WDR63",-0.11860905881771927,-2.2525614813536925,8.0,451.0]]}}}
{"ccle_rppa":{"corr":{"top":[],"bottom":[["RAF1_C-Raf(BD610151)_Caution",-0.21927451384156624,-5.497861740081473,443],["RAF1_C-Raf(MP05-739)",-0.20088981383550772,-4.689070285531723,443],["RAF1_C-Raf_pS338",-0.1880859222662335,-4.167478962564851,443],["RPS6KB1_p70S6K",-0.20347713283809227,-4.798591963052852,443]]},"para":{"top":[["CTNNB1_beta-Catenin_pT41_S45",0.19733695891289246,-4.540946468722882,443]],"bottom":[]}}}
{"ccle_metabolomics":{"corr":{"top":[],"bottom":[["glycine",-0.16709405011663742,-3.450192773324879,453]]},"para":{"top":[],"bottom":[]}}}
{"ccle_rrbs_enhancer_clusters":{"corr":{"top":[["7-28112903-28116337-0_enh",0.2051844302454869,-4.45951648301469,401]],"bottom":[["2-237069364-237073848-2_enh",-0.20812911233649287,-4.453855398958304,389],["10-77022022-77024845-0_enh",-0.2100790709809242,-4.611647046624979,397]]},"para":{"top":[],"bottom":[]}}}
{"ccle_mirna":{"corr":{"top":[["hsa-miR-30b_miR00288.1",0.25770508774726786,-7.53292267604977,450]],"bottom":[["hsa-miR-1538_miR00175.1",-0.21760202413147406,-5.4982164531227475,450],["hsa-miR-199a-3p+hsa-miR-199b-3p_miR00221.1",-0.32008211437978795,-11.452422196163782,450],["hsa-miR-199a-5p_miR00222.1",-0.3115608048238213,-10.859540713279378,450],["hsa-miR-214_miR00242.1",-0.2811099335917765,-8.891669497255005,450]]},"para":{"top":[],"bottom":[]}}}
{"prism_primary_logfold":{"corr":{"top":[["KI-8751_BRD-K47150025-001-05-3::2.5::HTS",0.438231876751012,-22.423237121013535,463],["erdafitinib_BRD-K84868168-001-01-0::2.500006364::MTS004",0.3938617722262785,-17.423122189355542,450]],"bottom":[["nicaraven_BRD-A86871940-001-01-9::2.5::HTS",-0.17236278423906434,-3.5656659964079096,442],["phenylbutazone_BRD-K10843433-001-22-7::2.5::HTS",-0.1762399988614245,-3.714713854505657,443],["swainsonine_BRD-K15170068-001-03-2::2.89::HTS",-0.15256795449016317,-2.893639926238605,443],["indirubin_BRD-K17894950-001-14-3::2.5::HTS",-0.1845595009229447,-4.180965394194606,462],["sulbactam_BRD-K44133266-001-10-0::2.5::HTS",-0.16488130983926388,-3.306975890014752,443],["dosulepin_BRD-K54759182-003-08-0::2.5::HTS",-0.15802059567296997,-3.185365860521978,462],["oxaloacetate_BRD-K61279411-001-02-0::2.5::HTS",-0.20620299700809652,-4.846263492316745,436],["cefditoren-pivoxil_BRD-K72167406-001-03-9::2.5::HTS",-0.1811064513265497,-4.050771955509553,463],["oltipraz_BRD-K86972824-001-01-4::2.5::HTS",-0.19625170977644532,-4.496222405744183,443],["diphemanil_BRD-K93441486-067-12-8::2.5::HTS",-0.1677662645480659,-3.5406254516830455,463]]},"para":{"top":[["KI-8751_BRD-K47150025-001-05-3::2.5::HTS",0.3677692003107239,-15.54873298449691,463]],"bottom":[["carvedilol_BRD-A10977446-001-12-1::2.5::HTS",-0.15392453880386556,-2.937732598777375,443],["phenylbutazone_BRD-K10843433-001-22-7::2.5::HTS",-0.16074421970661112,-3.16480092380085,443],["indirubin_BRD-K17894950-001-14-3::2.5::HTS",-0.17227315216704941,-3.7018537179129476,462],["U-0126_BRD-K18787491-001-08-6::2.5::HTS",-0.16917733210048702,-3.579380928974307,461],["sulbactam_BRD-K44133266-001-10-0::2.5::HTS",-0.16257349263851276,-3.2272515229653456,443],["oxaloacetate_BRD-K61279411-001-02-0::2.5::HTS",-0.16864842114011244,-3.3924364098596174,436],["cefditoren-pivoxil_BRD-K72167406-001-03-9::2.5::HTS",-0.15894325580900842,-3.223510196698759,463],["pasiniazid_BRD-K87202646-061-04-9::2.5::HTS",-0.16476183577482068,-3.4244490605007747,462],["diphemanil_BRD-K93441486-067-12-8::2.5::HTS",-0.16882003820085653,-3.5795731002858098,463]]}}}
{"prism_secondary_logfold":{"corr":{"top":[["axitinib_BRD-K29905972-001-06-3::2.5::HTS002",0.4799990153492632,-25.55248042874661,432],["tivozanib_BRD-K53414658-001-08-2::10::MTS010::PROS001_PR500",0.4975267774474503,-29.661615725110945,464]],"bottom":[["BAY-11-7082_BRD-K15025317-001-15-1::0.00976562::HTS002",-0.18157746609108333,-3.946088056737513,447],["benzethonium_BRD-K72723676-003-17-8::10::HTS002",-0.16909507636486398,-2.95414054229591,369],["cisplatin_BRD-K69172251-001-08-9::0.0024414::HTS002",-0.17427081736014327,-3.713496556534535,453]]},"para":{"top":[["tivozanib_BRD-K53414658-001-08-2::10::MTS010::PROS001_PR500",0.4109367955385731,-19.605237832398608,464]],"bottom":[["cisplatin_BRD-K69172251-001-08-9::0.0024414::HTS002",-0.15139571577291566,-2.9103854178980035,453]]}}}
{"ccle_proteomics":{"corr":{"top":[["EPS8_Q12929",0.32410073763540453,-6.422367424141468,235],["COASY_Q13057-2",0.293524743039533,-5.2647876487895635,232],["ASAP2_O43150",0.29396858052962666,-5.341119161256496,235],["MFSD6_Q6ZSS7",0.28490420167226604,-4.440686032408244,204],["NCEH1_Q6PIU2",0.2944292385192502,-5.356757014794893,235],["ABLIM3_O94929-3",0.3084027630210574,-5.278727352498302,210],["ARL6IP5_O75915",0.3187108750924736,-6.220104691879483,235],["CPEB4_Q17RY0",0.3593939738991411,-7.846867079719116,235],["FAM173A_Q9BQD7",0.33489703900857754,-3.485167290739182,111]],"bottom":[["COL2A1_P02458",-0.2981563715760825,-3.9125342292122385,161],["TATDN2_Q93075",-0.2997481846394504,-3.7553389470144642,152],["ZNF771_Q7L3S4",-0.41073676597483416,-5.415550088707441,118],["RCOR3_Q9P2K3-3",-0.2971560953929336,-5.449881727580982,235],["ZNF217_O75362",-0.288697377745574,-5.164102859151868,235],["ZMYM3_Q14202",-0.29397597064788206,-5.341369817864584,235],["DNMT3B_Q9UBC3",-0.30097904782516754,-3.0329415662001633,118]]},"para":{"top":[["ATP6V0C_P27449",0.2760782486687412,-4.156259750161865,202],["C1GALT1C1_Q96EU7",0.26831557297529335,-4.135895236560931,213],["C1GALT1_Q9NS00",0.2879125522784287,-5.138048365962468,235],["COASY_Q13057-2",0.2728423094008717,-4.599721506715131,232],["YIF1A_O95070",0.2746286696990249,-3.882193195655441,189],["STRIP2_Q9ULQ0",0.27842693386181466,-2.987112423307291,136],["CPEB4_Q17RY0",0.3180431810606187,-6.195321697597417,235],["ARL6IP5_O75915",0.314913082284276,-6.07993861460831,235],["FAM173A_Q9BQD7",0.39249736749736747,-4.690785833611436,111],["PLD1_Q13393",0.27429853636698853,-4.591273265515151,229],["ST3GAL1_Q11201",0.2622141575690665,-3.523191326827667,186]],"bottom":[["ODF2_Q5BJF6",-0.27194485040020927,-4.5369527351994074,230],["TATDN2_Q93075",-0.29703592834833475,-3.6939655099319397,152],["C19orf68_Q86XI8",-0.3233613259718396,-3.3731253433728154,115]]}}}
{"depmap_copy_number":{"corr":{"top":[["TWIST1_7291",0.19891284284384803,-4.753648063810228,459],["OSBPL3_26031",0.19595884622220108,-4.62728466232476,459],["LINC01449_101928773",0.20141788489930923,-4.862277993710893,459],["LOC101927668_101927668",0.20444914897638705,-4.99554113892895,459],["TMEM196_256130",0.20395596653150014,-4.973723760653782,459],["DNAH11_8701",0.20218934096305444,-4.896004686016024,459],["TWISTNB_221830",0.20395596653150014,-4.973723760653782,459],["MIR3146_100422967",0.20395596653150014,-4.973723760653782,459],["LINC01450_101928744",0.20295009124529076,-4.929389442305633,459],["SP4_6671",0.20178039585697938,-4.878110302433197,459],["MIR1183_100302122",0.20178039585697938,-4.878110302433197,459],["FERD3L_222894",0.19897215522360007,-4.7562044824454395,459]],"bottom":[]},"para":{"top":[],"bottom":[]}}}
{"depmap_gene_tpm":{"corr":{"top":[["TNFRSF21_27242",0.2528849990592609,-7.387525838362568,458],["CD55_1604",0.23828074472579294,-6.607399588493258,458],["FAM84B_157638",0.25089747839164406,-7.278441318239917,458],["TGFA_7039",0.281963700096005,-9.091289786232457,458],["IL6R_3570",0.23474054431439395,-6.425690140912378,458],["ARHGEF28_64283",0.24336241198140046,-6.873248616145209,458],["MET_4233",0.2546774913685756,-7.486701618108529,458],["SKAP2_8935",0.24061142117171305,-6.728592590231677,458]],"bottom":[["GLI1_2735",-0.2711175579829636,-8.431913951320968,458],["MPP2_4355",-0.25969174091744207,-7.768159250836837,458],["R3HDM1_23518",-0.2679945871680471,-8.247374914159527,458],["DACT3_147906",-0.2606144171999039,-7.820599802872359,458],["PIANP_196500",-0.2758483454157286,-8.715971907622203,458],["KIF5A_3798",-0.2594510602337878,-7.754513382669865,458],["PLPPR3_79948",-0.2711800263990249,-8.435629357700147,458],["CAND2_23066",-0.281569043710036,-9.066790177404016,458],["MAMSTR_284358",-0.30861145470778634,-10.83627645124031,458]]},"para":{"top":[["IL6R_3570",0.22063598403879425,-5.7298944628740935,458]],"bottom":[["RPS8_6202",-0.2410992865392655,-6.7541190063894385,458],["HNRNPA3_220988",-0.22359293569551578,-5.8720656204764845,458],["SEC23A_10484",-0.21850950284266882,-5.628854890051538,458],["CD4_920",-0.22777031688953717,-6.076246956849281,458],["ERC1_23085",-0.2090752964881213,-5.192625476233604,458]]}}}
{"avana":{"corr":{"top":[["NR4A2_4929",0.20155012448858906,-3.602911231077418,326],["SLC35B2_347734",0.3002614839634316,-7.491138030906628,326],["B3GAT3_26229",0.21802415389378532,-4.142088684156462,326],["EXTL3_2137",0.24531848146101753,-5.1290155669519955,326],["EXT2_2132",0.2613508748226379,-5.765073010867594,326],["GLCE_26035",0.22575974232905247,-4.409777958619512,326],["SRD5A3_79644",0.19770032776281413,-3.4828801548901027,326],["INSIG2_51141",0.19666240583066324,-3.450901698706386,326],["LAD1_3898",0.19550208268033598,-3.4153437012741454,326]],"bottom":[["TFRC_7037",-0.2557260714493441,-5.537062951989726,326],["KANSL3_55683",-0.21768448316297564,-4.108252672118312,324],["IFT80_57560",-0.18660416967382157,-3.1493518378703578,326],["WDR7_23335",-0.20176059456996104,-3.6095379868348334,326]]},"para":{"top":[["NR4A2_4929",0.19908132086347372,-3.525680149637624,326],["GNAI3_2773",0.19454874343333364,-3.3862798490538117,326],["SORT1_6272",0.1902730768484783,-3.257601418170588,326],["SLC35B2_347734",0.2808087292789541,-6.595204305664824,326],["SEMA4C_54910",0.18642501525741506,-3.1441170138039323,326]],"bottom":[["TFRC_7037",-0.2534300036457289,-5.445504247263979,326],["HTR2B_3357",-0.1946060040122836,-3.388021671918752,326],["TMEM204_79652",-0.19466101838758826,-3.389695629557437,326],["C8orf33_65265",-0.18792908110508078,-3.1882126295713373,326],["KANSL3_55683",-0.23424251199710036,-4.688446307951183,324],["BOD1L2_284257",-0.19878888356122817,-3.516592884722815,326],["SH2B3_10019",-0.2079809582823883,-3.8084305660082887,326],["SFMBT2_57713",-0.1955497991318965,-3.398680781985783,324],["WDR7_23335",-0.22028855018029098,-4.21947775410811,326]]}}}
{"drive":{"corr":{"top":[["MAPK9_5601",0.26509221689555323,-4.713495936384516,253],["MAGED2_10916",0.28369694755514274,-5.132881341058281,242],["HECTD3_79654",0.3460305306767115,-7.6292717955367255,247],["SERTM1_400120",0.24133240062557332,-3.9758503045517832,253]],"bottom":[["TFRC_7037",-0.2526737300704974,-4.3189843768550755,253],["NEDD8-MDP1_100528064",-0.19808972429114163,-2.6984365716215883,241],["TTC30A_92104",-0.20068732137874337,-2.7689603212312015,242],["HBG1_3047",-0.22016795914084317,-3.2508796569193255,242]]},"para":{"top":[["AURKA_6790",0.2925469549344391,-5.657689411297863,253],["MAPK9_5601",0.24168367605922755,-3.9862359189715435,253],["ASB4_51666",0.24930461400236698,-4.038547667206404,241],["HECTD3_79654",0.3121868769267738,-6.257889018483795,247],["MTMR10_54893",0.24256627430793962,-3.8588099115284487,242],["XRRA1_143570",0.26392068529135226,-4.494099409350482,242],["MTHFSD_64779",0.26017094154611314,-4.378512705999485,242]],"bottom":[["TFRC_7037",-0.2736598233309007,-4.997355301401113,253],["CARS_833",-0.19892681799782966,-2.717954267908316,241],["HOXA4_3201",-0.20573436257592154,-2.940561696137292,247]]}}}
{"achilles":{"corr":{"top":[["PLET1_349633",0.2768742489062314,-3.2935435200704792,154],["CHCHD2_51142",0.2949192453106493,-3.6885725955967334,154],["PKN1_5585",0.26307298106891924,-4.664355267477666,254],["HUS1B_135458",0.3011170268672587,-3.8303998819356426,154],["BASP1_10409",0.25912879447346465,-2.930323511613491,154],["BIRC2_329",0.2939557076222866,-5.729311242672282,254],["PXMP4_11264",0.25707732826844343,-2.889907191217945,154]],"bottom":[["HFE2_148738",-0.3078548112107892,-3.988230685386706,154],["CRYGN_155051",-0.28240092856082954,-3.4117352205905314,154],["NSMCE4A_54780",-0.28428869848375715,-3.452667656415639,154],["C2orf15_150590",-0.28798069913110935,-3.5335535321674825,154],["VPS25_84313",-0.2773757851985207,-3.3041686289707948,154],["GEMIN5_25929",-0.31613939607747066,-4.1875823207872855,154],["PGGT1B_5229",-0.30983448089745597,-4.0353337329997725,154],["DIRC1_116093",-0.31638720169175627,-4.193636097468148,154],["SPC25_57405",-0.30895471092904797,-4.014359870122929,154],["LRRC8B_23507",-0.2849293314530555,-3.4666237840007956,154],["MMP21_118856",-0.30805408091735004,-2.7397402203416674,100],["EIF5_1983",-0.33495468389402105,-4.6625482954970945,154]]},"para":{"top":[["PLET1_349633",0.254535208861113,-2.840270256980291,154],["MOSPD1_56180",0.27674407715703014,-3.2907890841772685,154],["FAM3D_131177",0.24708017145246863,-2.697527756164138,154],["PXMP4_11264",0.3096057784019239,-4.029875086360164,154]],"bottom":[["CPXCR1_53336",-0.29662730846802626,-3.7273409010050087,154],["HSD17B7P2_158160",-0.3241993753711161,-4.387222164482123,154],["LOC105379426_105379426",-0.30950536609819335,-4.027479864151614,154],["C2orf15_150590",-0.29090535706227744,-3.5984147033946807,154],["AMZ1_155185",-0.2911186939675317,-3.603173291841811,154],["C10orf99_387695",-0.2994120092071669,-3.791064478044542,154],["RANGRF_29098",-0.26937174194157104,-3.136977181643071,154],["GEMIN5_25929",-0.3460759348116204,-4.958222113860497,154],["CDY2B&CDY2A_203611&9426",-0.2817006923983361,-3.396624935270149,154],["SPC25_57405",-0.3420261878181044,-4.849243526876645,154],["LRRC8B_23507",-0.2773268493838034,-3.303131036835137,154],["VWA1_64856",-0.27765049923409496,-3.309996962366235,154],["EIF5_1983",-0.33198533549310943,-4.58550368051397,154]]}}}
{"ccle_rrbs_tss1kb":{"corr":{"top":[["MIR130B_22_22006592_22007592",0.20799419054274407,-4.590137873805415,403],["PRRT1_6_32119720_32120720",0.21930280717963535,-4.038532110424833,313],["MIR6883_17_8048389_8049389",0.28263393775509266,-2.5765972402292503,111],["NRN1_6_6004277_6005277",0.21051311942550552,-4.64953043793039,399],["PPARG_3_12327983_12328983",0.2199168312565609,-4.773277548571412,376],["PRSS30P_16_2892752_2893752",0.19367613494716435,-3.908346243236584,388]],"bottom":[["ZSCAN16_6_28091333_28092333",-0.2660169295794939,-7.031333482496944,391],["LOC101927811_7_20371385_20372385",-0.2592747157142697,-6.887092208446549,403],["SGMS2_4_108744720_108745720",-0.32628169482995056,-10.573929588531808,397],["MIR6732_1_37944830_37945830",-0.296796022654493,-8.871225102602036,401],["S100A2_1_153538320_153539320",-0.2787026703484228,-7.825500682831818,399],["LOC101929633_2_165696258_165697258",-0.3492664325820782,-10.058786706524455,326],["RHOBTB2_8_22843929_22844929",-0.2605217556352087,-6.965346749374213,404],["CALHM3_10_105238997_105239997",-0.2579607416093114,-6.7288138458054565,397],["LOC100287036_16_89386540_89387540",-0.285148504915149,-8.080569402616181,394],["GRK6_5_176852686_176853686",-0.2735588246997933,-7.639786330358032,404],["SLC44A2_19_10735170_10736170",-0.2585496154551647,-6.866441335725025,404],["TAGLN2_1_159893507_159894507",-0.31709937506714664,-10.067458373763012,400],["AXL_19_41731659_41732659",-0.30201176298507887,-9.133086853107258,399],["TUBA4A_2_220119330_220120330",-0.2604626667711627,-6.615288854213087,382]]},"para":{"top":[["MIR130B_22_22006592_22007592",0.19188526791851188,-3.97425286467936,403],["PPARG_3_12327983_12328983",0.18214722878227327,-3.4141916990183763,376]],"bottom":[["RPUSD3_3_9885580_9886580",-0.21065195762426314,-4.686125724214258,402],["TMEM61_1_55445336_55446336",-0.2089907347317455,-4.59927217391545,400],["ACOT6_14_74078220_74079220",-0.22952265731845947,-5.0119911285825545,364],["LOC101929633_2_165696258_165697258",-0.2185444398767361,-4.159799453456558,326],["ADAM6_14_106438358_106439358",-0.2571269717992828,-3.8142391455014963,212],["NOL12_22_38081343_38082343",-0.321385736815752,-3.285148329239736,113],["RPUSD3_3_9885743_9886743",-0.2527203436368792,-6.504624170991975,399],["ITGB4_17_73716407_73717407",-0.20530217968293238,-4.44442050979306,399],["HSPB8_12_119615594_119616594",-0.21496992997029446,-4.580902217028245,376],["TUBA4A_2_220119330_220120330",-0.25016501208224773,-6.134808401476673,382]]}}}
{"ccle_gene_tpm":{"corr":{"top":[["TNFRSF21_ENSG00000146072.6",0.25249967053834355,-7.307278400617884,454],["MET_ENSG00000105976.10",0.25557831184734825,-7.476346988614532,454],["ARHGEF28_ENSG00000214944.5",0.2456076631458695,-6.9367644685855865,454],["SKAP2_ENSG00000005020.8",0.2412727892131896,-6.709321078186563,454],["FAM84B_ENSG00000168672.3",0.25210024075501763,-7.285504840420748,454],["NRIP1_ENSG00000180530.5",0.23613898691870766,-6.445499778744855,454],["TGFA_ENSG00000163235.11",0.2839213749463335,-9.138562027526012,454]],"bottom":[["CTD-2124B20.3_ENSG00000265174.1",-0.2973786623936837,-9.996429059055792,454],["CTC-548K16.2_ENSG00000266913.1",-0.27065041818290747,-8.336266146644835,454],["CAND2_ENSG00000144712.7",-0.28308248914488654,-9.086574204523584,454],["RP11-865B13.1_ENSG00000265944.1",-0.2865343757666048,-9.301608170570683,454],["LPPR3_ENSG00000129951.14",-0.27280539538672127,-8.463640171222615,454],["RP11-71N10.1_ENSG00000239922.1",-0.26436893635117253,-7.971336893739083,454],["PIANP_ENSG00000139200.9",-0.2759554260625422,-8.651845323581218,454],["DNM3OS_ENSG00000230630.1",-0.4052544737762563,-18.64686420443028,454],["MAMSTR_ENSG00000176909.7",-0.31042372369970744,-10.87171738637436,454],["GLI1_ENSG00000111087.5",-0.2723048978120147,-8.433957608867782,454],["R3HDM1_ENSG00000048991.12",-0.2816502688660777,-8.998215758371433,454]]},"para":{"top":[["IL6R_ENSG00000160712.8",0.22114848572959944,-5.709067231208991,454],["SMIM2-AS1_ENSG00000227258.1",0.21539606985421722,-5.439694749753438,454]],"bottom":[["RPS8_ENSG00000142937.7",-0.24562477874939953,-6.93767103076515,454],["SEC23A_ENSG00000100934.10",-0.2234881420044043,-5.820711738831743,454],["CD4_ENSG00000010610.5",-0.23087507967898147,-6.181179078010272,454],["DNM3OS_ENSG00000230630.1",-0.22618239975592166,-5.950778748134001,454],["HNRNPA3_ENSG00000170144.14",-0.22819038581317214,-6.048764913411274,454]]}}}
{"ccle_rrbs_tss_clusters":{"corr":{"top":[["LOC101926913_3",0.279474569795609,-4.658948256158771,224],["NME4_4",0.24823666356206184,-6.21915827364158,394],["SORBS3_5",0.2558554814721594,-3.6709990697378423,205],["MSRB3_1",0.28369403863450104,-7.401315660998588,362],["NME4_2",0.2537123633773008,-6.47767230929693,394],["LIN7B_2",0.3052830042428523,-8.21432975614881,348],["TCF3_3",0.25222824417494266,-6.5400880293438055,403],["NME4_7",0.29980999410782694,-5.903318846222348,252]],"bottom":[["SGMS2_1",-0.33019748081205924,-10.902792753553568,400],["LEKR1_1",-0.3010450676661725,-4.0693042889005175,165],["AXL_1",-0.3011232930738117,-9.144534464173692,402],["LEKR1_2",-0.35448265654316946,-5.524097697490223,165],["MIR6732_1",-0.2956023564957539,-8.86352006725561,404],["COBLL1_1",-0.3477570906850724,-10.058628023182195,329],["FCHO2_2",-0.2890589500738972,-8.489133320614158,404],["ESRP2_3",-0.30594003107712564,-9.540128385641758,407],["TRIM47_1",-0.2994312205742517,-9.149759676718332,407],["MYO18A_2",-0.3009112905957872,-3.5623680827789266,142],["PFKFB3_3",-0.3092536312996481,-9.697913149747375,405],["MISP_3",-0.31327805313076296,-9.968980977161177,406],["LOC100506175_3",-0.2905199396920942,-8.512911327136312,401],["LINC02026_2",-0.3141414839317625,-10.045910955359103,407]]},"para":{"top":[["PGAM1P5_1",0.243934476363089,-3.244016608919329,196],["ZFHX3_5",0.23827595702076015,-5.115471923071763,345],["PTPRE_12",0.22036669394774894,-2.3990713264198593,169]],"bottom":[["ADAM6_3",-0.24963808269602478,-3.647690570252019,214],["UBP1_2",-0.2459140563030329,-6.111315687199794,394],["NOL12_2",-0.33293196064352965,-3.5569660010663275,115],["KLHDC2_1",-0.25481702234502407,-3.7840450587049794,214],["TPPP_2",-0.28910470124118437,-3.8408305433130763,168],["MYO18A_2",-0.3119005458141312,-3.802096745354447,142],["ENOX2_2",-0.2656564928189684,-2.8720767700847816,143],["LGALS9C_1",-0.244604783038379,-4.680432490766098,296]]}}}
{"ccle_rrbs_cgi_clusters":{"corr":{"top":[["2_172942988_172947384-2",0.26771578132270607,-4.136228689863349,214],["9_140350818_140353431-2",0.2582513186819376,-6.618984787521674,389],["17_77765360_77769356-3",0.2793075505082311,-7.9850012554074,406],["17_77768672_77772604-1",0.2738624742515281,-7.690803349399901,406],["12_65670391_65675250-1",0.28369403863450104,-7.401315660998588,362],["17_2293922_2296719-1",0.3103615767397563,-4.2571690041767285,163],["14_50326810_50331046-1",0.2670488423225972,-6.916950989510722,381],["2_171625225_171630062-3",0.279474569795609,-4.658948256158771,224],["19_49618012_49620569-2",0.2611604883828327,-6.870732900103254,396],["7_47090244_47095076-1",0.2554413306287193,-2.905539949850779,157],["8_22423118_22425702-3",0.2558554814721594,-3.6709990697378423,205],["9_132242401_132245067-1",0.3429828189944737,-11.812954974186352,402]],"bottom":[["19_1253216_1257594-1",-0.3233563837253767,-10.583991320959756,405],["17_73871528_73874226-3",-0.3161106064972569,-10.169679933861183,407],["12_15939718_15942229-1",-0.3150544194117368,-5.210382806959437,198],["3_156541891_156546405-2",-0.35448265654316946,-5.524097697490223,165],["2_165695470_165698182-1",-0.3477570906850724,-10.058628023182195,329],["11_64621727_64624246-3",-0.32607997094628105,-10.361487774125116,389],["16_68270576_68274143-1",-0.30594003107712564,-9.540128385641758,407],["8_143200654_143204868-2",-0.3070612341496084,-9.586335609519562,406],["10_6244716_6248457-3",-0.3092536312996481,-9.697913149747375,405],["2_241503922_241508133-1",-0.32294189840016163,-10.483974400661998,402],["18_11945827_11950155-3",-0.3080232986731467,-3.0441320715598765,113],["1_8011993_8016651-3",-0.3060441595811047,-8.210010323914968,346],["20_10654092_10657611-2",-0.3410293585310113,-4.625344173440172,147],["1_155099442_155102451-2",-0.34871654175757755,-6.844820208968634,216],["3_193718953_193723291-2",-0.3141414839317625,-10.045910955359103,407],["4_108743829_108748535-1",-0.33019748081205924,-10.902792753553568,400]]},"para":{"top":[["9_140350818_140353431-2",0.23901374336960104,-5.730773368373277,389],["16_2625134_2629399-2",0.252783989566103,-2.7752039960950254,152]],"bottom":[["14_50232243_50234891-1",-0.25481702234502407,-3.7840450587049794,214],["14_104641173_104643688-3",-0.2810460692139854,-2.649180092125372,116],["23_20132203_20134777-2",-0.25178640246029127,-2.1937877057241106,116],["23_149734720_149737238-2",-0.2547600227588295,-3.3471848836742835,186],["22_38080302_38084796-1",-0.33293196064352965,-3.5569660010663275,115],["23_130034747_130039158-2",-0.2656564928189684,-2.8720767700847816,143],["17_27501598_27506014-2",-0.3119005458141312,-3.802096745354447,142],["1_8011993_8016651-3",-0.2962584145696453,-7.712490628027597,346],["18_11945827_11950155-3",-0.3169725839251634,-3.204316132013813,113],["14_78445339_78449724-3",-0.3424257991393169,-4.347451343019527,136]]}}}
