{"depmap_hotspot":{"corr":{"top":[["ABCA2",0.1721393566680111,-2.210921966712065,42.0,210.0],["ABCA9",0.16420912872219398,-2.0450921868049683,29.0,223.0],["ACKR2",0.1615780413265417,-1.991586252725266,10.0,242.0],["AP3B2",0.16808559600351983,-2.1252945821506994,20.0,232.0],["ARHGEF1",0.16532700459550984,-2.0680526690172054,15.0,237.0],["B4GALNT3",0.1696628760131817,-2.158397254343566,15.0,237.0],["B4GALT1",0.1955539374435514,-2.741289864341156,8.0,244.0],["C10orf137",0.1828840083340735,-2.4466632762345575,16.0,236.0],["C11orf24",0.16993671451727635,-2.1641721086470223,8.0,244.0],["C11orf30",0.18918286862897152,-2.5908636479028893,22.0,230.0],["CAPN2",0.16076368025529486,-1.975177144505773,12.0,240.0],["CEACAM18",0.18014484516540324,-2.3853455759396747,15.0,237.0],["COPS5",0.16248774732660057,-2.0100012887243928,9.0,243.0],["DCAF8L1",0.16113757966904543,-1.9827022017747997,17.0,235.0],["DNPEP",0.17244928982644822,-2.217542929368531,9.0,243.0],["EP300",0.16098033301855588,-1.9795356344548032,44.0,208.0],["EPHA10",0.17654482809670155,-2.3060295346142134,27.0,225.0],["EVI5",0.16664483942420624,-2.095294781820261,9.0,243.0],["FANCM",0.1881424502487552,-2.566736636453225,37.0,215.0],["FARP1",0.1709946393884959,-2.186559467876199,21.0,231.0],["FIGN",0.1606069757031651,-1.972027813922155,23.0,229.0],["GALNTL6",0.2161076179566689,-3.2585305364319255,19.0,233.0],["GATAD2A",0.1735844576057763,-2.2418833623377963,14.0,238.0],["GLS",0.1660588663359799,-2.083158269686139,9.0,243.0],["GYLTL1B",0.17757042468366646,-2.328478848373083,14.0,238.0],["IQCJ-SCHIP1",0.18980134107267826,-2.6052639547217913,11.0,241.0],["ITFG3",0.17816263327735393,-2.3414949147602826,11.0,241.0],["ITLN2",0.17455754604825863,-2.262861618834009,11.0,241.0],["KDM4B",0.1615440066579056,-1.990899030853534,22.0,230.0],["LCMT2",0.16917060781560803,-2.1480366979861065,17.0,235.0],["LGR6",0.17386192417893448,-2.247854451115304,20.0,232.0],["LRRD1",0.16211230334399968,-2.0023903866527437,13.0,239.0],["LSAMP",0.1923314196932832,-2.6646256797518726,10.0,242.0],["MAB21L2",0.16444020514766391,-2.049827222056239,11.0,241.0],["MFSD10",0.20413208274637903,-2.9511799602308324,13.0,239.0],["MFSD7",0.21312754867335326,-3.180470569890359,18.0,234.0],["MICU3",0.17633795006068742,-2.3015153172961798,15.0,237.0],["MPP4",0.1621054341706036,-2.002251278644683,11.0,241.0],["MXRA5",0.18384491779294546,-2.4683728223459336,51.0,201.0],["NTAN1",0.20303624398122794,-2.9238930936757366,10.0,242.0],["NUP85",0.1637617550137303,-2.0359414329180994,15.0,237.0],["NVL",0.16283680371271925,-2.0170909554763132,20.0,232.0],["OTUD7A",0.1924950424804772,-2.668489731143885,21.0,231.0],["PEX10",0.1606330634316717,-1.9725519216788103,8.0,244.0],["PHLDB1",0.17394606010646083,-2.2496667375359913,22.0,230.0],["PIAS3",0.19974123915621994,-2.8426841895493147,10.0,242.0],["PKNOX2",0.17307389553063085,-2.230918241701398,14.0,238.0],["PRPF4",0.1728819574008515,-2.226803502104511,10.0,242.0],["PTPRE",0.17502209292263335,-2.272913408217749,14.0,238.0],["PXN",0.17000348738977752,-2.165581497667894,11.0,241.0],["RARS2",0.16322541008313554,-2.024999444650604,13.0,239.0],["SCN5A",0.165312367900444,-2.0677511626410316,36.0,216.0],["SGCD",0.16691206030163444,-2.1008418121914856,10.0,242.0],["SLC22A31",0.1702543618466186,-2.170881126822411,10.0,242.0],["SLC6A1",0.16148975839087032,-1.989803918444099,15.0,237.0],["SMAD4",0.1845831626966064,-2.4851221773133485,27.0,225.0],["SRCRB4D",0.18144510754464796,-2.414348074927954,17.0,235.0],["SYDE2",0.18767361858051215,-2.5559045849186117,17.0,235.0],["TBX1",0.1817806348540525,-2.421862715685096,9.0,243.0],["TOR1AIP2",0.2160103080832738,-3.255964985750135,9.0,243.0],["TRIM16L",0.19782426236255432,-2.796014988236509,8.0,244.0],["TTC37",0.16594310508651403,-2.080765079614794,23.0,229.0],["ZNF275",0.18366947052526444,-2.464401263036854,13.0,239.0],["ZNF646",0.1612975034659372,-1.9859254192942333,19.0,233.0]],"bottom":[["ACPP",-0.14534160567229928,-1.677826746703799,9.0,243.0],["AP2B1",-0.14385009722463013,-1.6504053535036882,17.0,235.0],["AUH",-0.1291990732964508,-1.3933419264816362,8.0,244.0],["BID",-0.14038247149604954,-1.5875530174612413,8.0,244.0],["C17orf80",-0.12786226479265714,-1.3709861542432296,17.0,235.0],["C17orf85",-0.14788826584075845,-1.725187707365171,14.0,238.0],["C7",-0.14319001117307753,-1.6383441191801247,30.0,222.0],["CABP7",-0.158793753345644,-1.9357795474368487,8.0,244.0],["CARD17",-0.12918883342890375,-1.393169990058094,8.0,244.0],["CD248",-0.12526616392391401,-1.328090292293671,19.0,233.0],["CELF5",-0.14854129636623906,-1.7374424430528324,10.0,242.0],["CLCN5",-0.14325063271779115,-1.6394499063756411,10.0,242.0],["CNN1",-0.14497870918645364,-1.6711333990363728,8.0,244.0],["CRB1",-0.14377106314856333,-1.6489588207008106,38.0,214.0],["CTNND2",-0.13404956988203542,-1.4759927959227113,34.0,218.0],["DLGAP2",-0.17477624298435857,-2.267590775545427,26.0,226.0],["DSG4",-0.14096579097134082,-1.598038129518032,13.0,239.0],["ELP2",-0.16138205200114125,-1.9876305867640982,14.0,238.0],["ERMP1",-0.15007902877244916,-1.766477516282278,20.0,232.0],["FAM199X",-0.13050246215136807,-1.4153144215992277,8.0,244.0],["GABRB3",-0.14961768756991745,-1.7577403136292362,15.0,237.0],["GIN1",-0.12837956841579917,-1.3796155424671315,13.0,239.0],["GNL1",-0.14591099955718928,-1.6883566717443537,13.0,239.0],["GSDMB",-0.14893627010236993,-1.7448763642200502,11.0,241.0],["GTF2IRD1",-0.12634535975984598,-1.3458389235224608,22.0,230.0],["KLHL4",-0.17277125625273593,-2.2244321540961507,12.0,240.0],["LCA5",-0.1574144816643963,-1.9084432930857593,20.0,232.0],["LUM",-0.13751095535333605,-1.5364537039311579,11.0,241.0],["MAGEE2",-0.14599115131255017,-1.6898416726446162,9.0,243.0],["MED17",-0.126662866365946,-1.3510831901387437,12.0,240.0],["METAP1",-0.1576636246690587,-1.9133660222386264,9.0,243.0],["NEK1",-0.13833835035359804,-1.5510895777262659,21.0,231.0],["NES",-0.13513748397372735,-1.4948623617352963,31.0,221.0],["NGLY1",-0.15462155247873394,-1.8537139655788106,10.0,242.0],["OR2A25",-0.14692262740090997,-1.7071490564324936,9.0,243.0],["OR2L5",-0.12590768729918503,-1.3386266508358244,8.0,244.0],["OR2M5",-0.16132237246192252,-1.9864268948630226,15.0,237.0],["OR4D10",-0.1573353968189319,-1.9068820762309664,9.0,243.0],["OR5M10",-0.19912725602979606,-2.827690564985988,11.0,241.0],["OXER1",-0.155186485522894,-1.8647168733426616,10.0,242.0],["PCGF3",-0.15093944065779974,-1.7828328569708047,12.0,240.0],["PHYH",-0.23363573593469364,-3.739174385381217,11.0,241.0],["PIK3R4",-0.14041649439580972,-1.5881636022730183,24.0,228.0],["PRDM8",-0.14243804879264466,-1.6246596681376102,10.0,242.0],["RABGAP1L",-0.16255220725811806,-2.011309538029142,31.0,221.0],["REEP2",-0.13335104620388555,-1.463941360852711,11.0,241.0],["RNF216",-0.14023269388636683,-1.5848664985951948,15.0,237.0],["RRP8",-0.15955163271541015,-1.9508872933983867,11.0,241.0],["SEC31A",-0.16251241387308604,-2.0105018565482182,20.0,232.0],["SLC30A3",-0.13173859989837908,-1.4363137763180993,13.0,239.0],["SOGA2",-0.14325660446138277,-1.6395588567401453,37.0,215.0],["SPESP1",-0.1644973595693504,-2.0509992797503513,8.0,244.0],["STARD9",-0.13616980431435666,-1.5128805782821695,46.0,206.0],["STOML1",-0.13317945609581092,-1.4609886440798354,8.0,244.0],["SUPT20H",-0.12753296205535314,-1.3655070921818953,14.0,238.0],["TRAK1",-0.13863489478406352,-1.5563524699437603,28.0,224.0],["WDR93",-0.1715371042109565,-2.1980865419997677,11.0,241.0],["ZNF578",-0.12875430893614634,-1.3858837996390483,11.0,241.0]]},"para":{"top":[["ACKR2",0.17520799889959862,-2.557212581202574,10.0,242.0],["ADPGK",0.15564516870483874,-2.1625160581700125,9.0,243.0],["B4GALT1",0.2014623695451168,-3.146855567598452,8.0,244.0],["C11orf24",0.17968265391861768,-2.652504559011079,8.0,244.0],["CAPN2",0.18135564798379505,-2.689374123996835,12.0,240.0],["CCKAR",0.1516768782846021,-2.087129676787446,9.0,243.0],["CEACAM18",0.186518876448287,-2.8033956080429236,15.0,237.0],["CKB",0.15494711974280795,-2.1489776842731185,8.0,244.0],["COPS5",0.1813655695767432,-2.689178740838029,9.0,243.0],["CX3CL1",0.15425010429438352,-2.135974293056866,10.0,242.0],["DNPEP",0.18268833305015542,-2.7180590370313715,9.0,243.0],["EVI5",0.18048372726113507,-2.6700232564903237,9.0,243.0],["FAM43B",0.1540284577928905,-2.131614909013684,9.0,243.0],["FAS",0.14917832505704565,-2.0404629173507196,9.0,243.0],["FOXO4",0.1568139525107936,-2.184851094966776,8.0,244.0],["FRZB",0.1681638176572902,-2.410973679522391,12.0,240.0],["GALNTL6",0.23397934522984076,-3.9764467061221285,19.0,233.0],["GATAD2A",0.18206189759774255,-2.7049691888493177,14.0,238.0],["GLS",0.16402267070311624,-2.3267973771948585,9.0,243.0],["GYLTL1B",0.19456451319470985,-2.9859262779227627,14.0,238.0],["IGF2BP2",0.15197082572313816,-2.0926604219917952,9.0,243.0],["IQCJ-SCHIP1",0.20931737052277927,-3.3375256211877153,11.0,241.0],["IRF5",0.1543248421534794,-2.137096640783576,8.0,244.0],["ITFG3",0.19690250097008893,-3.0398878465134453,11.0,241.0],["ITLN2",0.18328619242842856,-2.7314662694805127,11.0,241.0],["KIAA0391",0.15369122710491112,-2.125339689679987,10.0,242.0],["LPAR2",0.16299385466824004,-2.30624626129439,9.0,243.0],["LRRD1",0.1806471332559608,-2.6740802849020295,13.0,239.0],["LSAMP",0.20147522680480162,-3.1475389519968107,10.0,242.0],["MCIDAS",0.14172372096957636,-1.9047302253697949,8.0,244.0],["MFSD10",0.21122767185492203,-3.384973876125354,13.0,239.0],["MFSD7",0.22579124333091258,-3.7575560713721465,18.0,234.0],["MPP4",0.17033734999175154,-2.4555302446017677,11.0,241.0],["NTAN1",0.18959908652851304,-2.8719821306592097,10.0,242.0],["OGFOD2",0.16210331202008627,-2.2883719171684396,8.0,244.0],["OPA3",0.1644368529800683,-2.3349281832831132,8.0,244.0],["PEX10",0.17672683536930708,-2.589110391534597,8.0,244.0],["PIAS3",0.21838126178634182,-3.564619596037466,10.0,242.0],["PKNOX2",0.1811093173617832,-2.6842109489968586,14.0,238.0],["PRSS54",0.14327941494289773,-1.932572004746444,8.0,244.0],["PTPRE",0.1875392339545092,-2.8261073637093554,14.0,238.0],["PVR",0.1536912271049111,-2.125339689679987,10.0,242.0],["PXN",0.18635653651135198,-2.79937261557604,11.0,241.0],["RARS2",0.17670125730770772,-2.5892527256195246,13.0,239.0],["SLC16A9",0.1678028761390893,-2.4033641170197027,10.0,242.0],["SLC22A31",0.17283277084434095,-2.5072659520396807,10.0,242.0],["SPATS1",0.1577473688947864,-2.202917445595415,8.0,244.0],["SPOPL",0.16500849019172728,-2.346734664303302,10.0,242.0],["TBX1",0.1854808337162479,-2.7796086709998575,9.0,243.0],["TGM3",0.1619272770689613,-2.2853193832461636,11.0,241.0],["THOC5",0.15788280602595414,-2.205853767905211,10.0,242.0],["TMEM214",0.17596140556741027,-2.5735220089651927,13.0,239.0],["TOR1AIP2",0.2132588666579047,-3.434976357341794,9.0,243.0],["TRIM16L",0.19446174666517063,-2.9827095094994505,8.0,244.0],["TUBB6",0.1581437219323952,-2.2107821647042467,9.0,243.0],["TYSND1",0.1550884200785921,-2.1519841991363666,10.0,242.0],["ZNF134",0.1431238455455656,-1.9297771442054497,8.0,244.0],["ZNF275",0.1898952800096789,-2.87905182897088,13.0,239.0],["ZNF513",0.1752079988995986,-2.5574588132064275,12.0,240.0],["ZNF701",0.15740885333605506,-2.19652193741474,9.0,243.0],["ZNF776",0.13907904121493003,-1.8579433593890309,8.0,244.0],["ZNF879",0.16039775337857998,-2.2549993250881792,10.0,242.0]],"bottom":[["ACPP",-0.1466797718294893,-1.9944118806327884,9.0,243.0],["ARSK",-0.12379129746813744,-1.601091001937313,10.0,242.0],["BID",-0.13923461061226225,-1.8606765824928044,8.0,244.0],["BTBD17",-0.1449906783135513,-1.96347229844731,8.0,244.0],["C17orf85",-0.1447921958658306,-1.9605349978311304,14.0,238.0],["CABP7",-0.14063473518825148,-1.8853821236692372,8.0,244.0],["CLCN5",-0.13035810444443818,-1.7087627999265573,10.0,242.0],["CNN1",-0.13503423688429456,-1.7877090852813022,8.0,244.0],["DPP8",-0.12721903960982697,-1.6568758623270783,11.0,241.0],["DSG4",-0.139955287539601,-1.873938512884878,13.0,239.0],["ELP2",-0.1459829211607799,-1.9821867486493472,14.0,238.0],["GABRB3",-0.1529731452700104,-2.1121837492750286,15.0,237.0],["GIN1",-0.1316936097729461,-1.7314473307366638,13.0,239.0],["IGJ",-0.12407073606287362,-1.605587992717419,10.0,242.0],["KLHL4",-0.1315340751972864,-1.7286809520263138,12.0,240.0],["LUM",-0.14297123968743408,-1.927433963423064,11.0,241.0],["MAGEE2",-0.13095358386781056,-1.7186111555197197,9.0,243.0],["METAP1",-0.14447516604046892,-1.954288920278476,9.0,243.0],["MOB3A",-0.11449907643645249,-1.455578344835085,8.0,244.0],["MRPL47",-0.10905449969687477,-1.3744207612547497,9.0,243.0],["NFE2L1",-0.12788650571481033,-1.6678510040014678,11.0,241.0],["OR10AG1",-0.1248161616318869,-1.6177216115201098,11.0,241.0],["OR4D10",-0.1516768782846021,-2.087129676787446,9.0,243.0],["OR5M10",-0.16940289744477482,-2.436268768947138,11.0,241.0],["PCGF3",-0.14370129734309184,-1.9406585435694093,12.0,240.0],["PFKFB2",-0.1321744553102235,-1.739477935014814,12.0,240.0],["PHYH",-0.19036133314125206,-2.889379273492842,11.0,241.0],["PRDM8",-0.14600666574966545,-1.9822432602277251,10.0,242.0],["RRP8",-0.16539810081487472,-2.354709049834353,11.0,241.0],["SPAG11A",-0.13907904121493012,-1.8579433593890309,8.0,244.0],["SPESP1",-0.16257002021208272,-2.297639748268194,8.0,244.0],["STOML1",-0.1252333648523699,-1.6241218284025258,8.0,244.0],["SUPT20H",-0.1402674397450234,-1.8795277944503859,14.0,238.0],["WDR93",-0.1587234397650412,-2.2223323833763415,11.0,241.0]]}}}
{"depmap_damaging":{"corr":{"top":[["ABCA5",0.11745353338091909,-1.2031070907108625,13.0,239.0],["C5",0.1276057644331273,-1.366717455089072,9.0,243.0],["CACNA1E",0.14819221519307887,-1.7308860022918198,9.0,243.0],["COL5A2",0.13430197545354514,-1.4803598334906547,8.0,244.0],["CTTNBP2",0.1180629715694414,-1.2126363163806129,9.0,243.0],["DDX60",0.13947139761416116,-1.5712474379190797,12.0,240.0],["DNAH6",0.1486842114652689,-1.7401303879941539,9.0,243.0],["DNAJC13",0.11930263633392024,-1.232134421705772,9.0,243.0],["ECD",0.15431729237944466,-1.8478021721887117,9.0,243.0],["EPHA2",0.10825938367532048,-1.0638210809359343,14.0,238.0],["HIVEP1",0.14173702851490344,-1.6119555158295522,14.0,238.0],["IGFN1",0.145521457931552,-1.681149111464795,14.0,238.0],["NBEAL1",0.16411299343922833,-2.0431239663665437,9.0,243.0],["NOTCH3",0.1308535665108967,-1.421263027881036,10.0,242.0],["NUP210",0.11856768754839356,-1.2205561982908624,8.0,244.0],["PHF2",0.10718680618895889,-1.0481149242280683,8.0,244.0],["POLD1",0.13301085178676508,-1.4580902553262924,12.0,240.0],["PTX4",0.09424590524932427,-0.8674161787072272,10.0,242.0],["QKI",0.12736253032103337,-1.362675718773944,9.0,243.0],["SPAG17",0.14522478895581478,-1.6756706421058185,11.0,241.0],["ZC3H13",0.11714014531335531,-1.1982213681940546,10.0,242.0],["ZEB2",0.1454060790000027,-1.6790173551315057,9.0,243.0],["ZNF124",0.12316121383941062,-1.2938112795514094,9.0,243.0]],"bottom":[["EIF5B",-0.1630374470247854,-2.0211721842527655,8.0,244.0],["KMT2E",-0.14899127442667592,-1.7459129256394146,8.0,244.0],["MUC19",-0.1458801149012724,-1.6877846407681705,12.0,240.0],["PDZD2",-0.13625453126578937,-1.5143642992418742,9.0,243.0],["RYR1",-0.17240416466675232,-2.216578283147246,9.0,243.0]]},"para":{"top":[["ABCA5",0.12836427694160762,-1.6759017181301,13.0,239.0],["CACNA1E",0.16490451301872436,-2.3444966471602235,9.0,243.0],["COL5A2",0.143590553737562,-1.9381688514628477,8.0,244.0],["DAZAP1",0.12678905882569125,-1.649467147348518,8.0,244.0],["DDX60",0.16022310425686978,-2.2517949062916833,12.0,240.0],["DNAH6",0.15990740656361152,-2.2452256086606828,9.0,243.0],["ECD",0.1706364880701774,-2.4614358380078105,9.0,243.0],["IGFN1",0.15741388399229284,-2.1971598368884626,14.0,238.0],["NBEAL1",0.1762214894023623,-2.57854275677605,9.0,243.0],["NOTCH3",0.14265340261283113,-1.921623826787436,10.0,242.0],["NUP210",0.13270069592431244,-1.7479145389275228,8.0,244.0],["POLD1",0.1402432447332313,-1.878940853196283,12.0,240.0],["SPAG17",0.15979138553301453,-2.243214602355503,11.0,241.0],["ZC3H13",0.13063754303917444,-1.713437115905299,10.0,242.0],["ZEB2",0.16784398740408488,-2.4040550257584976,9.0,243.0],["ZNF609",0.13169360977294617,-1.7314473307366638,13.0,239.0]],"bottom":[["EIF5B",-0.13130057134832326,-1.7242918869879322,8.0,244.0],["RYR1",-0.16255293351043598,-2.29747094079623,9.0,243.0]]}}}
{"ccle_chromatin":{"corr":{"top":[],"bottom":[["H3K27me0K36me2",-0.16477273897254374,-1.9896329537974249,242],["H3K27ac1K36me3",-0.17312904162165998,-2.1513066096813094,241]]},"para":{"top":[],"bottom":[["H3K27me1K36me2",-0.1700887115280635,-2.096316817716118,242],["H3K27ac1K36me3",-0.18582119846025247,-2.4211493622457,241]]}}}
{"ccle_rppa":{"corr":{"top":[["CHEK2_Chk2",0.18638477805315395,-2.4419731176637023,242]],"bottom":[["BIRC2_cIAP_Caution",-0.18055384643961742,-2.3150380901435867,242],["GSK3A-GSK3B_GSK3_pS9",-0.18323948395704204,-2.373048438278358,242],["TSC2_Tuberin",-0.1906621806176469,-2.5374225858294026,242]]},"para":{"top":[["CHEK2_Chk2",0.17438669487973193,-2.1847404402598665,242]],"bottom":[["GSK3A-GSK3B_GSK3-alpha-beta_pS21_S9",-0.18033791158327833,-2.3104074074349774,242],["GSK3A-GSK3B_GSK3_pS9",-0.1892657950466337,-2.506044280200968,242],["TSC2_Tuberin",-0.17149935775814223,-2.1251237825977114,242]]}}}
{"ccle_rrbs_enhancer_clusters":{"corr":{"top":[["4-124384941-124388454-2_enh",0.20292070702354928,-1.6863796040827133,130],["6-3347397-3350827-2_enh",0.22744850943652606,-2.9334919454914097,201],["8-106331530-106334194-1_enh",0.18655503504241003,-2.139336906960902,206],["9-126538824-126541929-0_enh",0.1978459160011322,-2.0809833692275546,177],["16-78207751-78210557-1_enh",0.1814397779500366,-2.108168903297278,214],["18-56473257-56476866-1_enh",0.20272603491169028,-2.014335364155875,162]],"bottom":[]},"para":{"top":[["10-102417119-102421731-2_enh",0.1986942325738317,-2.386817436438814,207],["2-85995467-85999236-2_enh",0.22463919102600025,-2.8100145320329073,196],["2-85999236-86003005-0_enh",0.22846181927453993,-3.1445835979941434,216],["5-44387166-44389816-2_enh",0.234878004385355,-1.8970933061089865,112],["6-3347397-3350827-2_enh",0.260568510846585,-3.7280540775662994,201],["6-98210329-98213515-0_enh",0.24721458264302457,-3.1005608017360804,181],["7-35505763-35508342-1_enh",0.21795565545083864,-2.237918377167228,159],["8-106331530-106334194-0_enh",0.1867894708457737,-2.1867138346072186,211],["8-106331530-106334194-1_enh",0.1940740080879322,-2.285052856420865,206],["18-56473257-56476866-0_enh",0.20224171470403113,-1.9758273236410866,159],["18-56473257-56476866-1_enh",0.20805910842933947,-2.102989628123257,162]],"bottom":[["16-54141854-54144360-1_enh",-0.22659028567867887,-2.414815887416579,161]]}}}
{"ccle_mirna":{"corr":{"top":[["hsa-miR-134_miR00141.1",0.1652173549839466,-2.0186748493711204,245],["hsa-miR-2113_miR00700.1",0.15953571430444977,-1.9063841827975256,245],["hsa-miR-567_miR00518.1",0.16746304028484432,-2.0639957669567432,245],["hsa-miR-653_miR00609.1",0.14874708740399276,-1.7024193622330797,245],["hsa-miR-659_miR00616.2",0.15419791137484096,-1.8039636859249415,245],["ebv-miR-BART11-5p_miR00723.1",0.16159967376223341,-1.9467838408191824,245],["ebv-miR-BART7_miR00747.1",0.1638798696783629,-1.9919356781205622,245],["hcmv-miR-UL22A_miR00755.1",0.1595386319534067,-1.9064409778101974,245]],"bottom":[]},"para":{"top":[["hsa-miR-127-5p_miR00095.1",0.15538741742743242,-1.8265311744723405,245],["hsa-miR-2113_miR00700.1",0.1620259548080182,-1.9551834312793532,245],["hsa-miR-2115_miR00702.1",0.17766622453542333,-2.276669942117977,245],["hsa-miR-371-3p_miR00338.1",0.16247238835120187,-1.964000563346554,245],["hsa-miR-486-3p_miR00388.1",0.1620327700055555,-1.955317875195561,245],["hsa-miR-567_miR00518.1",0.20727783027585409,-2.958172172497835,245],["hsa-miR-653_miR00609.1",0.1833228883987327,-2.3994014347994277,245],["hsa-miR-659_miR00616.2",0.16385494928981412,-1.991439255727126,245],["hsa-miR-718_miR00712.1",0.163305107507925,-1.9805028601958832,245],["ebv-miR-BART11-5p_miR00723.1",0.1955715710554941,-2.677143566497685,245],["ebv-miR-BART7_miR00747.1",0.17478903653356195,-2.2155701076036585,245],["hsv1-miR-H3_miR00774.1",0.15678162759955566,-1.8531692718648831,245]],"bottom":[["hsa-miR-143_miR00154.1",-0.15832267767160665,-1.882848219757468,245]]}}}
{"prism_primary_logfold":{"corr":{"top":[["anabasine_BRD-A24284985-001-09-9::2.5::HTS",0.2529165291786026,-4.341645515012183,254],["dronedarone_BRD-K05524748-003-04-4::2.5::HTS",0.3002381158977968,-5.791230854094018,246],["3-amino-benzamide_BRD-K08703257-001-12-1::2.5::HTS",0.19030826633281744,-2.5557730580169817,245],["bucillamine_BRD-K24697665-001-01-4::2.5::HTS",0.19350658213404232,-2.62010809203648,244],["orotic-acid_BRD-K32572029-001-04-4::2.5::HTS",0.2013307365154033,-2.9011704165658814,254],["lidocaine_BRD-K52662033-003-21-2::2.5::HTS",0.23074193933793682,-3.123010443268876,210],["etacrynic-acid_BRD-K63630713-001-25-8::2.5::HTS",0.1995457711443821,-2.866614023411196,255],["pentagastrin_BRD-K78789465-001-01-6::2.5::HTS",0.19383656732205568,-2.709345108557572,253],["tromaril_BRD-K91422571-001-01-8::2.5::HTS",0.20728438023374185,-3.0613200396253206,255],["RN-1734_BRD-K95581532-001-01-5::2.5::HTS",0.21907511674731178,-3.360195010441345,254],["ampicillin_BRD-K68432770-236-23-1::2.500029469::MTS004",0.18705455138585697,-2.4992472526735865,247]],"bottom":[["canrenone_BRD-A20644369-001-08-6::2.5::HTS",-0.1839228567544226,-2.4947489567057315,255],["letosteine_BRD-A32597168-001-03-6::2.5::HTS",-0.1894441491809225,-2.631628818974666,256],["hypoestoxide_BRD-A51571244-001-01-9::2.5::HTS",-0.1811255568329913,-2.4151767077165776,253],["BI-D1870_BRD-A81370665-001-03-6::2.5::HTS",-0.20826976463534527,-3.076239085417921,254],["SU-11274_BRD-K02965346-001-07-5::2.5::HTS",-0.18473915789488685,-2.5052159353114454,254],["GSK3787_BRD-K03155172-001-02-2::2.5::HTS",-0.22579016373973598,-3.543719713280899,254],["oleamide_BRD-K06644925-001-03-0::2.5::HTS",-0.18961371614830116,-2.6182686304751392,254],["alectinib_BRD-K11267252-001-04-4::2.5::HTS",-0.18607501544808996,-2.468777384212429,246],["NVP-ADW742_BRD-K15179513-001-03-4::2.5::HTS",-0.19557629293542186,-2.760251027722826,254],["camicinal_BRD-K23248433-001-01-8::2.5::HTS",-0.18158835458870248,-2.4335761218959404,254],["meglumine_BRD-K28595280-001-04-5::2.5::HTS",-0.2129657892030707,-3.197938338830269,254],["RS-67333_BRD-K46142322-003-02-4::2.5::HTS",-0.2233758699935723,-3.4771077021824897,254],["pyrazinoylguanidine_BRD-K61693562-300-01-7::2.5::HTS",-0.1889510257201331,-2.611368129180595,255],["ulipristal_BRD-K64381438-001-03-8::2.5::HTS",-0.2192623107470062,-3.376695364039226,255],["spironolactone_BRD-K90027355-001-19-0::2.5::HTS",-0.2033733467181204,-2.9620373731406433,255],["GSK163090_BRD-K69669039-001-01-8::2.499979212::MTS004",-0.18372012775739516,-2.4245630635029864,247]]},"para":{"top":[["anabasine_BRD-A24284985-001-09-9::2.5::HTS",0.23678027422380699,-3.855954754693176,254],["cyclopentolate_BRD-A77291778-003-22-0::2.5::HTS",0.1884288751233513,-2.59054028847528,254],["dronedarone_BRD-K05524748-003-04-4::2.5::HTS",0.2568796283442458,-4.3410337778168016,246],["lidocaine_BRD-K52662033-003-21-2::2.5::HTS",0.2064690308116856,-2.5781245192628472,210],["pentagastrin_BRD-K78789465-001-01-6::2.5::HTS",0.18043910023596116,-2.3998097296600913,253],["acetarsol_BRD-K99048103-001-18-4::2.5::HTS",0.1761244922225948,-2.3195573476796074,255],["AKBA_BRD-K54907283-001-01-2::2.4999956::MTS004",0.17411725474905695,-2.231118710111657,249],["ampicillin_BRD-K68432770-236-23-1::2.500029469::MTS004",0.19296469566581534,-2.634645986237655,247]],"bottom":[["etonogestrel_BRD-A08302182-001-01-7::2.5::HTS",-0.17513862791785273,-2.275438717097337,252],["BI-D1870_BRD-A81370665-001-03-6::2.5::HTS",-0.18064570697013804,-2.4123609925474283,254],["GSK3787_BRD-K03155172-001-02-2::2.5::HTS",-0.234631312795712,-3.7937317334833662,254],["alectinib_BRD-K11267252-001-04-4::2.5::HTS",-0.1869759152252113,-2.488992146287109,246],["NVP-ADW742_BRD-K15179513-001-03-4::2.5::HTS",-0.1832585444013787,-2.4714114074936537,254],["meglumine_BRD-K28595280-001-04-5::2.5::HTS",-0.19228641342098268,-2.6814064909550654,254],["RS-67333_BRD-K46142322-003-02-4::2.5::HTS",-0.22690130231904176,-3.5746149784819843,254],["PD-166793_BRD-K60984070-001-01-0::2.5::HTS",-0.17289137694367754,-2.2489308083874637,255],["pyrazinoylguanidine_BRD-K61693562-300-01-7::2.5::HTS",-0.2017357963073585,-2.921002343469679,255],["ulipristal_BRD-K64381438-001-03-8::2.5::HTS",-0.18759014790590312,-2.5795199563908704,255],["PSB-06126_BRD-K71266197-236-02-7::2.5::HTS",-0.1723162410729648,-2.2364894965478817,255],["spironolactone_BRD-K90027355-001-19-0::2.5::HTS",-0.173717891887732,-2.2668745806567854,255],["bazedoxifene_BRD-K90195324-003-02-5::2.5::HTS",-0.1829169945987824,-2.4636485511087294,254],["GSK163090_BRD-K69669039-001-01-8::2.499979212::MTS004",-0.17819146765296404,-2.303421618523156,247]]}}}
{"prism_secondary_logfold":{"corr":{"top":[["ftorafur_BRD-K99383816-001-03-5::0.625::HTS002",0.25004660997493783,-4.252857489342911,254],["digitoxin_BRD-A93236127-001-04-5::0.0024414::HTS002",0.2750869642561611,-3.2925164978603227,156],["mubritinib_BRD-K19061412-001-02-4::0.00976562::HTS002",0.26544051830449705,-4.774804948431577,256],["MLN-8054_BRD-K83963101-001-06-9::0.00976562::HTS002",0.24992947689649564,-4.278822813706684,256],["defactinib_BRD-K43578482-001-01-4::0.0390625::HTS002",0.2763165763456552,-5.141459247400409,256],["PF-573228_BRD-K79239947-001-06-8::0.00976562::HTS002",0.3009786944354874,-5.968207770014239,253],["AZD8055_BRD-K69932463-001-10-6::0.0024414::HTS002",0.2450042027784032,-4.056719821542674,251],["flubendazole_BRD-K86003836-001-10-5::0.15625::HTS002",0.25389981908869785,-4.387558680294755,255],["D-Serine_BRD-K71822263-001-03-2::0.00061034::HTS002",0.273032161470642,-4.552520270948481,229]],"bottom":[["CUDC-101_BRD-K41278234-001-03-0::0.15625::HTS002",-0.1954532853157848,-1.8489146831983574,157],["betamethasone-dipropionate_BRD-K58148589-001-03-6::0.0390625::HTS002",-0.20789109379374163,-3.076883485103682,255],["ciclesonide_BRD-K35245662-001-01-2::0.0390625::HTS002",-0.2066886943686438,-2.871797359328763,238],["acetylsalicylsalicylic-acid_BRD-K46585355-001-14-3::0.00976562::HTS002",-0.24349176676148954,-4.039936593051171,253],["clofoctol_BRD-K02900412-001-11-3::0.0390625::HTS002",-0.2074678085807825,-2.9731887638926344,246],["IDRA-21_BRD-A14344385-001-03-2::0.00976562::HTS002",-0.34240291669518724,-3.3982013741155788,103],["docetaxel_BRD-K30577245-001-05-0::0.00061::MTS010::PROS005_PR500",-0.19700962153478246,-2.729558879269151,247],["fenbendazole_BRD-K51318897-001-15-3::0.00061034::HTS002",-0.2620487631326972,-2.7035178753283464,137],["cyclovalone_BRD-K59866480-001-07-3::2.5::MTS006",-0.24462378875421462,-4.087943785474415,254],["motesanib_BRD-K99616396-001-05-1::0.00061::MTS010::PROS005_PR500",-0.20670190894960763,-2.9644939905011722,247],["curcumin_BRD-K07572174-001-39-4::0.62023::HTS002",-0.252137197932742,-4.347514071255926,256],["bindarit_BRD-K36467523-001-02-8::0.0024414::HTS002",-0.19621645383579378,-2.7757380468363766,254],["ecamsule-triethanolamine_BRD-A47953250-001-01-7::2.5::HTS002",-0.22010079760495507,-3.109985971498725,230]]},"para":{"top":[["digitoxin_BRD-A93236127-001-04-5::0.0024414::HTS002",0.27238911534124843,-3.2353874293953013,156],["mubritinib_BRD-K19061412-001-02-4::0.00976562::HTS002",0.25610566225868525,-4.472568127038541,256],["SGI-1027_BRD-K61228301-001-01-2::0.625::HTS002",0.2622884736085542,-4.6552151891112,255],["epirubicin_BRD-K04548931-003-16-5::0.00061034::HTS002",0.26569149251506013,-3.096065132678947,156],["defactinib_BRD-K43578482-001-01-4::0.0390625::HTS002",0.2834507177625964,-5.39060215636816,256],["PF-573228_BRD-K79239947-001-06-8::0.00976562::HTS002",0.2983055193075561,-5.868693299074037,253],["pirenperone_BRD-K25224017-001-25-0::0.15625::HTS002",0.2622620105192806,-4.654356454645368,255],["SB-242235_BRD-K19412355-001-01-0::0.0024414::HTS002",0.2712664434629071,-4.777863386169682,245],["BAY-11-7085_BRD-K48684885-001-04-2::0.625::HTS002",0.23999293552348158,-3.6900544865326856,235],["D-Serine_BRD-K71822263-001-03-2::0.00061034::HTS002",0.2802845229384403,-4.777057414673573,229]],"bottom":[["NVP-TAE226_BRD-K21025364-001-05-6::0.038067::HTS002",-0.20946986007246818,-3.1070915578171583,254],["CUDC-101_BRD-K41278234-001-03-0::0.15625::HTS002",-0.22960636074398874,-2.418024216944409,157],["avanafil_BRD-K65781196-001-03-0::0.0024414::HTS002",-0.1833285332473699,-2.440372845483755,250],["betamethasone-dipropionate_BRD-K58148589-001-03-6::0.0390625::HTS002",-0.19162088558264392,-2.6744674335961647,255],["anagrelide_BRD-K62200014-003-10-5::0.0391::MTS010::PROS001_PR500",-0.20382299401975323,-2.903577554595673,248],["ciclesonide_BRD-K35245662-001-01-2::0.0390625::HTS002",-0.20476799480894717,-2.8260243839867596,238],["I-BET-762_BRD-K08109215-001-06-4::0.625::MTS010::PROS002_PR500",-0.21061275179538286,-2.9239445207945067,234],["IDRA-21_BRD-A14344385-001-03-2::0.00976562::HTS002",-0.2847940868802384,-2.4499096932736166,103],["chlorpyrifos_BRD-K08303368-001-10-0::0.00061034::HTS002",-0.18424785542460756,-2.444547868261269,248],["pazopanib_BRD-K74514084-003-09-2::0.00977::MTS010::PROS004_PR500",-0.21544206872193503,-3.2188334278120307,250],["bindarit_BRD-K36467523-001-02-8::0.0024414::HTS002",-0.2091649045724178,-3.099235525036125,254],["ecamsule-triethanolamine_BRD-A47953250-001-01-7::2.5::HTS002",-0.23688478205927127,-3.5386363407966295,230]]}}}
{"ccle_proteomics":{"corr":{"top":[["NDUFAF3_Q9BU61",0.3032306140006541,-3.3884438569760484,132],["FUCA1_P04066",0.32655387260617863,-3.8772150035796984,132],["MRPL46_Q9H2W6",0.3166334392146588,-3.6644328961491524,132],["LMBRD1_Q9NUN5",0.3151141261484238,-3.17064203314532,113],["IDH3B_O43837",0.31810026603511127,-3.6954339378324734,132],["IDH3A_P50213",0.3046373885571444,-3.4168019329226063,132],["MRPS22_P82650",0.31215676264018494,-3.5707973104274777,132],["ACN9_Q9NRP4",0.3850923356520132,-4.888768327351886,121],["MECR_Q9BV79",0.29755444405063936,-3.275455397530705,132],["ACO2_Q99798",0.2997989604179227,-3.319860613934197,132],["PTGES2_Q9H7Z7",0.3013365782191347,-3.3504869170437206,132],["BPHL_Q86WA6",0.3124529841401671,-3.576947851153595,132],["MRPS17_I3L0E3",0.34141599335107287,-4.124597513811028,129],["MRPS6_P82932",0.3290899713970644,-3.9327951570889113,132],["STX12_Q86Y82",0.30203517371099514,-3.3644571485265584,132],["LRP2_P98164",0.3100115862618195,-2.8658261028057943,104]],"bottom":[["MB21D2_Q8IYB1",-0.3173973319158701,-3.0631125473377034,107],["HN1L_Q9H910",-0.30664223475774516,-3.45746149255075,132],["RABGAP1L_Q5R372",-0.30392313731776655,-3.244456690437383,125],["ANKRD17_O75179",-0.3295555651305513,-3.9430518150333453,132],["PLIN2_Q99541",-0.29472024210045267,-3.2198920410619745,132],["HBS1L_Q9Y450",-0.2982259892755404,-3.2887037765716403,132],["RPL13_P26373",-0.2872114362768555,-3.0754019422694427,132],["SMG7_Q92540-4",-0.36795524260877416,-4.847334998612791,132],["MAP4_E7EVA0",-0.30826244805479036,-3.490531977830314,132],["RPL37_P61927",-0.3093350425584227,-3.512529291575014,132],["MAGED2_Q9UNF1",-0.2958136130970452,-3.2412601296184786,132],["FGFR1OP_O95684-2",-0.3420437262338492,-4.224352115919949,132],["MEX3C_Q5U5Q3",-0.29694736363709145,-2.6564513438901103,104],["PLAA_Q9Y263",-0.29765050553635336,-3.2773485644197704,132],["PRUNE_Q86TP1",-0.29319352102225377,-2.9376007709414376,120],["MAP4_P27816-4",-0.29332617069621497,-3.129711220632161,129]]},"para":{"top":[["NDUFAF3_Q9BU61",0.30536427305210245,-3.4315102304203946,132],["DLD_P09622",0.30255540626915906,-3.3748831590414006,132],["MRPL46_Q9H2W6",0.29584089913067935,-3.2417944640444296,132],["CSNK1G3_Q9Y6M4",0.3048330335380455,-3.2618927046180772,125],["IDH3B_O43837",0.3281616467304106,-3.9123939352532644,132],["IDH3A_P50213",0.34506463521216796,-4.294216399815625,132],["MRPS22_P82650",0.30087789097455037,-3.341333178866338,132],["ATAD1_Q8NBU5",0.2958330724448112,-3.2416411909827763,132],["ALDH3A1_P30838",0.31875341807164337,-3.461146115955931,122],["ACN9_Q9NRP4",0.4020403808439942,-5.313762151540504,121],["MRPS17_I3L0E3",0.3101357196667269,-3.4586215745323616,129],["MRPS6_P82932",0.29817469355409,-3.2876906796255168,132],["CISD1_Q9NZ45",0.31839177468593205,-3.7016138325686923,132],["SYNJ2BP_P57105",0.3024566630449125,-3.3729027551951978,132],["ESCO2_Q56NI9",0.29960684738947835,-2.8093783682174687,109],["STX12_Q86Y82",0.3143170955701219,-3.6158001190259332,132]],"bottom":[["RABGAP1L_Q5R372",-0.33130619248302134,-3.794230515960137,125],["HN1L_Q9H910",-0.33044138422252683,-3.9626111393237924,132],["PLIN2_Q99541",-0.31310575129466095,-3.590524074288915,132],["TNPO2_O14787",-0.31395665847936144,-3.6082679725475697,132],["HAUS6_Q7Z4H7",-0.29491880497435125,-3.22376637469733,132],["ARAF_P10398",-0.3047499756096793,-3.237571952253372,124],["CPPED1_Q9BRF8",-0.3022423396511917,-3.3686066588818493,132],["MAGED2_Q9UNF1",-0.3057360401458885,-3.439047498754576,132],["TIPRL_O75663",-0.29386780762056336,-3.2032908790566967,132],["MAP4_E7EVA0",-0.2936933951991062,-3.1999004748027824,132],["ABL2_P42684",-0.3112788715508683,-3.197097885991584,117],["NCDN_Q9UBB6-3",-0.3021331604510214,-3.366419430251391,132],["UXT_Q9UBK9",-0.28559864110364946,-2.8249578994011046,121],["MB21D2_Q8IYB1",-0.3020001910317621,-2.804036343896221,107],["IPO7_O95373",-0.3244752873038443,-3.8320231015188897,132],["MAP4_P27816-4",-0.28188249631735335,-2.916883242912743,129]]}}}
{"depmap_copy_number":{"corr":{"top":[["TMX2-CTNND1_100528016",0.23136186237369172,-3.6747236780698636,252],["RTN4RL2_349667",0.24781799605784147,-4.155543272419037,252],["SERPING1_710",0.23136186237369172,-3.6747236780698636,252],["TMX2_51075",0.23136186237369172,-3.6747236780698636,252],["MED19_219541",0.23136186237369172,-3.6747236780698636,252],["ZDHHC5_25921",0.23136186237369172,-3.6747236780698636,252],["SLC43A1_8501",0.24781799605784147,-4.155543272419037,252],["BTBD18_643376",0.23136186237369172,-3.6747236780698636,252],["OR5AK2_390181",0.23679354032627736,-3.8297295522125165,252],["YPEL4_219539",0.23136186237369172,-3.6747236780698636,252],["MIR130A_406919",0.23136186237369172,-3.6747236780698636,252],["CTNND1_1500",0.23136186237369172,-3.6747236780698636,252],["CLP1_10978",0.23136186237369172,-3.6747236780698636,252],["OR5AK4P_219525",0.23679354032627736,-3.8297295522125165,252],["SMTNL1_219537",0.24781799605784147,-4.155543272419037,252],["TIMM10_26519",0.24781799605784147,-4.155543272419037,252]],"bottom":[["ZNF658_26149",-0.1811638246480281,-2.408058019263249,252],["FLJ33534_285150",-0.18898068253652434,-2.58616541539301,252],["LOC642929_642929",-0.18745988925970547,-2.5509747512909526,252],["BTNL8_79908",-0.1810532652304698,-2.4055881075519,252],["FOXD4L4_349334",-0.18745988925970547,-2.5509747512909526,252],["FGF7P3_654466",-0.1882947105500444,-2.5702598583612994,252],["SPATA31A1_647060",-0.1882947105500444,-2.5702598583612994,252],["C2orf50_130813",-0.1888622475423301,-2.5834154717209694,252],["TAF1B_9014",-0.18645015528089579,-2.527754190997167,252],["ODC1_4953",-0.1878576458507876,-2.5601534532195114,252],["GLIDR_389741",-0.1882947105500444,-2.5702598583612994,252],["SNORA80B_100302743",-0.1878576458507876,-2.5601534532195114,252],["ZNF658B_401509",-0.1882947105500444,-2.5702598583612994,252],["ODC1-DT_101929715",-0.1878576458507876,-2.5601534532195114,252],["PQLC3_130814",-0.18030050460567187,-2.3888076307854584,252],["ROCK2_9475",-0.18030050460567187,-2.3888076307854584,252]]},"para":{"top":[["OR4C15_81309",0.22388739632713528,-3.4672949541961047,252],["RTN4RL2_349667",0.21219743335861546,-3.15632205240138,252],["OR4S2_219431",0.2169384985261851,-3.280482275820023,252],["SLC43A1_8501",0.21219743335861546,-3.15632205240138,252],["OR4C16_219428",0.22388739632713528,-3.4672949541961047,252],["HIF1A_3091",0.2161868037558538,-3.2606190796384324,252],["SYT16_83851",0.2063022407550189,-3.0056300082943794,252],["OR4P4_81300",0.2169384985261851,-3.280482275820023,252],["OR4C11_219429",0.21292638022215352,-3.1752389976255757,252],["SMTNL1_219537",0.21219743335861546,-3.15632205240138,252],["HIF1A-AS1_100750246",0.2161868037558538,-3.2606190796384324,252],["TIMM10_26519",0.21219743335861546,-3.15632205240138,252],["OR5AK4P_219525",0.20553073959582718,-2.986209926625219,252],["HIF1A-AS2_100750247",0.2137347008431968,-3.1962891013157093,252],["LOC105370526_105370526",0.21681820150889883,-3.2772989702294897,252],["SNAPC1_6617",0.21363346723671095,-3.1936485710637443,252]],"bottom":[["ZNF658_26149",-0.19613902451886492,-2.755336558662448,252],["SPATA31A3_727830",-0.1901320854910231,-2.6129826976211126,252],["LINC01410_103352539",-0.18347355083322484,-2.459970357048867,252],["LOC642929_642929",-0.20787158780089185,-3.045347707848918,252],["LOC728673_728673",-0.18347355083322484,-2.459970357048867,252],["FAM74A4_401508",-0.18347355083322484,-2.459970357048867,252],["CNTNAP3P2_643827",-0.18823598224667154,-2.5689006061953608,252],["FAM27C_100132948",-0.18347355083322484,-2.459970357048867,252],["FOXD4L4_349334",-0.20787158780089185,-3.045347707848918,252],["LOC102724580_102724580",-0.1885753836468102,-2.5767613569558785,252],["LINC00537_203274",-0.18529506988243655,-2.5013320025430574,252],["LOC103908604_103908604",-0.18347355083322484,-2.459970357048867,252],["FRG1JP_642236",-0.18529506988243655,-2.5013320025430574,252],["LOC107984035_107984035",-0.18832365835569187,-2.570929991766851,252],["FAM74A3_728495",-0.18369478737383735,-2.464974141382715,252],["LOC105379450_105379450",-0.18823598224667154,-2.5689006061953608,252]]}}}
{"depmap_gene_tpm":{"corr":{"top":[["TUBA8_51807",0.19064556616779774,-2.6162084087662785,251],["CELA3B_23436",0.20164388471782327,-2.8796567535493662,251],["TTLL10_254173",0.20779110262345632,-3.0329611330522543,251],["TSPEAR_54084",0.1862350051195805,-2.5144177735486775,251],["PLEKHH1_57475",0.21232649191347266,-3.1488875371357996,251],["MS4A15_219995",0.18121074774682697,-2.40112338131671,251],["AVPR1B_553",0.188037482710436,-2.555752081821362,251],["TMEM253_643382",0.19549548388498608,-2.730679358901567,251]],"bottom":[["RABAC1_10567",-0.1937783787102616,-2.689845520316543,251],["SERPINA9_327657",-0.19239398215860629,-2.65716786222415,251],["S1PR3_1903",-0.21027579928335902,-3.0961730356728503,251],["NINJ1_4814",-0.20030272781953873,-2.8467902225589974,251],["SNTA1_6640",-0.20448130763233036,-2.9498747594044996,251],["SCGB2A2_4250",-0.20924886063942516,-3.069959826775938,251],["RIC1_57589",-0.1965978321384956,-2.7570710531560194,251],["PAGE2_203569",-0.22952551749142483,-3.6106077120437305,251],["TCEAL3_85012",-0.19249534130636536,-2.6595529875603927,251],["MXD3_83463",-0.21486788984185257,-3.214901209405011,251],["IL12A_3592",-0.200777065956492,-2.8583907386522647,251],["NRBP2_340371",-0.2243357178307945,-3.467562327048851,251],["LIN37_55957",-0.21887120109140973,-3.3204346878634596,251],["BCL3_602",-0.2114144509986113,-3.1253820264095182,251]]},"para":{"top":[["GPBAR1_151306",0.20380785900134288,-2.9331246335731964,251],["CELA3B_23436",0.2395071687546712,-3.8949186651399366,251],["MDN1_23195",0.2077940803500441,-3.0330364568722863,251],["FAM133B_257415",0.19929803660061648,-2.822304683947234,251],["RNASE6_6039",0.21807757280439438,-3.299362596514566,251],["OR52I1_390037",0.20026414023738218,-2.8458476545247597,251],["SLC27A4_10999",0.1967569321284641,-2.7608915795067395,251],["CABP1_9478",0.21567937119921227,-3.2361399708894685,251],["CYP51A1_1595",0.20018023334182403,-2.843798675215789,251],["PLEKHH1_57475",0.23584742788852006,-3.78926342625174,251],["ERG28_11161",0.19587341940714298,-2.7397120171653877,251],["TMEM253_643382",0.2161254881084888,-3.247849230451437,251],["IL17D_53342",0.19943274037023279,-2.8255808470863193,251]],"bottom":[["AMTN_401138",-0.2106224475938563,-3.105049276131033,251],["ENOX1_55068",-0.20426693361710066,-2.944537117360508,251],["SNTA1_6640",-0.20669675219419897,-3.005348615250585,251],["RIC1_57589",-0.20030901386139563,-2.8469437861557267,251],["KLF9_687",-0.2001338656369168,-2.8426667380512236,251],["ZNFX1_57169",-0.22002896254349477,-3.351309263155496,251],["TEK_7010",-0.19945036381679773,-2.826009625317646,251],["GAGE13_645051",-0.20882784643855257,-3.0592487991833486,251],["KRT34_3885",-0.23090798374870292,-3.6492608345502906,251],["IL12RB1_3594",-0.21125367589807023,-3.121248574434886,251],["KRT32_3882",-0.20377568672522234,-2.9323257529531643,251],["RABAC1_10567",-0.20215654134567604,-2.8922747103671087,251],["NRBP2_340371",-0.2208516957149538,-3.3733464036767185,251],["LIN37_55957",-0.22117843294917713,-3.3821205235873926,251],["BCL3_602",-0.24407409269653854,-4.029079461880345,251]]}}}
{"avana":{"corr":{"top":[["ZKSCAN5_23660",0.2560406335533382,-3.1874754542390766,174],["ARID3A_1820",0.26283455203093914,-3.338574832782522,174],["ZCCHC3_85364",0.2584424098717717,-3.2404320652275147,174],["RASSF7_8045",0.2555299787385293,-3.176280580042754,174],["HIST1H2BN_8341",0.24913067585102627,-3.0378981348647445,174],["LPA_4018",0.25916121929239955,-3.2563785897480235,174],["SNCAIP_9627",0.27734280133132155,-3.6748846010183183,174],["TRIM4_89122",0.27857947666760313,-3.7044238118682156,174],["FAM229B_619208",0.259036580793231,-3.2536103035054054,174],["MIXL1_83881",0.2543611283985947,-3.150741296814374,174],["CXorf36_79742",0.25290678779172077,-2.9642508921687836,164],["TAS2R39_259285",0.2832491631234101,-3.8172166225570616,174],["DDX31_64794",0.2448559690960833,-2.9474127642065957,174],["ADAMTS2_9509",0.25856002627526986,-3.243038262300228,174],["LOX_4015",0.25000659424408195,-3.056631713142419,174],["OR13C4_138804",0.2858180366839553,-3.880115344788204,174]],"bottom":[["SNAPC3_6619",-0.27951159862656866,-3.7267800533952675,174],["SFRP4_6424",-0.2807468539713305,-3.756528295245897,174],["FECH_2235",-0.2504934085768216,-3.0670717884607104,174],["CCDC88A_55704",-0.2793025008666054,-3.7217581429751174,174],["CPNE2_221184",-0.25606891624201567,-3.1880961441672167,174],["PSKH1_5681",-0.26249251431860887,-3.330871333689422,174],["FAM200B_285550",-0.2522783886954307,-3.105525915446564,174],["SLC37A1_54020",-0.24916151083074878,-3.038556498794585,174],["CSNK2A2_1459",-0.27138466066834915,-3.53450005527334,174],["HSF4_3299",-0.25951531064093414,-3.2642505346713526,174],["USP34_9736",-0.30198876223682614,-4.29012437925642,174],["TMEM237_65062",-0.24897021119252005,-3.034473333591452,174],["DCAF11_80344",-0.2974305453121388,-4.172068668569323,174],["PDILT_204474",-0.2681188162100583,-3.458898699633848,174],["EXOSC4_54512",-0.26130311972089015,-3.3041632332920905,174],["RBP2_5948",-0.27841135735685174,-3.7003999834003913,174]]},"para":{"top":[["NAPRT_93100",0.256932176575475,-3.2070745634321156,174],["CD14_929",0.28579922161633986,-3.8796524561967787,174],["GIMAP6_474344",0.270979848346465,-3.525077415028311,174],["LOX_4015",0.28055555397403387,-3.751912200336501,174],["LPA_4018",0.3063927619365941,-4.4060637661931255,174],["HES2_54626",0.26786078355680604,-3.4529659028013127,174],["CACFD1_11094",0.2710426579420638,-3.5265384477507853,174],["SNCAIP_9627",0.3046761768463366,-4.360652450845044,174],["DGKE_8526",0.2587743651697708,-3.247790778060326,174],["TAS2R39_259285",0.2564758651050023,-3.1970346924423603,174],["CAVIN3_112464",0.25441828123126575,-3.151987335257327,174],["MIXL1_83881",0.2880768772986896,-3.935924363328187,174],["CMPK2_129607",0.32442397048201016,-4.900378370455028,174],["TRIM4_89122",0.24696117871640555,-2.9917805745115507,174],["EPHB6_2051",0.2587418839905815,-3.2470703187161427,174],["OR13C4_138804",0.25574377329590214,-3.1809647610978518,174]],"bottom":[["RNASEH1_246243",-0.2419007906293478,-2.8857654661828276,174],["SNAPC3_6619",-0.27773193306034666,-3.6841644723936637,174],["CCDC88A_55704",-0.264066507815739,-3.3664065881966265,174],["CPSF7_79869",-0.24361569205446948,-2.9214496744799807,174],["ADGRG5_221188",-0.23910131632765033,-2.8280456771010134,174],["ABCA13_154664",-0.24719211183047857,-2.996670489229262,174],["TBRG4_9238",-0.2581688254295126,-3.2343745170211675,174],["C9_735",-0.24718086272637832,-2.9964321887788707,174],["USP34_9736",-0.278230968641369,-3.6960853423556084,174],["ENPEP_2028",-0.24669451491935696,-2.986139726582285,174],["DCAF11_80344",-0.2536843472052545,-3.13600764704413,174],["SFRP4_6424",-0.26824287307258055,-3.4617531709866705,174],["PDILT_204474",-0.2922997544340822,-4.0415251826874075,174],["UMODL1_89766",-0.26446272519929453,-3.375386121479182,174],["HSF4_3299",-0.2758867732190237,-3.6402831243080818,174],["RBP2_5948",-0.2906822252405871,-4.000880234971207,174]]}}}
{"drive":{"corr":{"top":[["RECQL5_9400",0.2630702616030983,-2.602924202040559,130],["PDPK1_5170",0.2506079521820086,-2.394706914157706,130],["MUM1_84939",0.25407835693408926,-2.547085485728999,136],["RHOA_387",0.271122937238856,-2.8508517238797384,136],["LRRTM4_80059",0.24512892976349213,-2.3062787693838227,130],["ASXL3_80816",0.26972284771425503,-2.8251539104397594,136],["MCM2_4171",0.25048805857711653,-2.4855891995023023,136],["RPA4_29935",0.271606937273356,-2.7513334970204775,130],["ABCG4_64137",0.2562448389591015,-2.487658817595605,130],["TRIP10_9322",0.28962526432895963,-3.080427168222866,130],["FFAR1_2864",0.2997740163692256,-3.2755017217055262,130],["MIR200B_406984",0.2510901540331913,-2.4025797000300098,130],["LOC102723728_102723728",0.30245499142601434,-3.372869235033625,132],["IRX2_153572",0.2643956604780879,-2.7286049604648936,136],["EGOT_100126791",0.24859142087830433,-2.361942239366322,130]],"bottom":[["MED23_9439",-0.28415184878278094,-2.9781510659917725,130],["MMS19_64210",-0.2689319155603057,-2.7043165737744967,130],["SIX2_10736",-0.29565328871312474,-3.323371260373588,136],["CCNB2_9133",-0.25852293645184715,-2.525798185673388,130],["MMP7_4316",-0.2565789998672344,-2.6065907366689647,137],["LOC105371175&LOC105371206&LOC105371216&LOC107987365_105371175&105371206&105371216&107987365",-0.27766455569811954,-2.859548299073471,130],["H3F3AP4_440926",-0.2965937139758557,-3.213604908640581,130],["TSC2_7249",-0.2801901636700986,-3.0588796256387276,138],["KCNIP3_30818",-0.27843875076615177,-2.9873358849956224,136],["ADH1B_125",-0.26344676511701376,-2.609369747642042,130],["POC1A_25886",-0.32871998746398906,-4.02990967924824,136],["RARA_5914",-0.2583312200876119,-2.6210417829392405,136],["HLA-B_3106",-0.27391923822215736,-2.8291356427479823,132],["DPF2_5977",-0.2796585017025519,-3.0104544003268616,136],["KRTAP5-4&KRTAP5-7_387267&440050",-0.2936204474725866,-3.1563721886149354,130],["CPEB4_80315",-0.256348882553389,-2.489393466401552,130]]},"para":{"top":[["RECQL5_9400",0.26933119210028783,-2.7113045761865315,130],["MUM1_84939",0.24553663543014734,-2.4021761404365534,136],["TPTE_7179",0.2593209063287415,-2.572337565897665,132],["RHOA_387",0.2796080330336494,-3.0094957754355645,136],["PTPN3_5774",0.2617844133980383,-2.6819852637094788,136],["FFAR1_2864",0.2695787307437986,-2.715642155895174,130],["TRIP10_9322",0.2788906535281801,-2.8817481450335984,130],["RBBP5_5929",0.2575342661813186,-2.607090750470799,136],["RPA4_29935",0.2948410866792483,-3.1797944575473274,130],["IRX2_153572",0.27845111982122017,-2.987569798510624,136],["WDR60_55112",0.29332674965462513,-3.2767165122747492,136],["SAMD7_344658",0.32911715489678567,-4.038902621474069,136],["DCAF6_55827",0.2581753212528724,-2.618309350140727,136],["LOC102723728_102723728",0.30976677811009534,-3.521407069700159,132],["CASP5_838",0.26008363170636395,-2.6518686675122254,136],["CLEC1A_51267",0.2638453886878092,-2.7187422506048966,136]],"bottom":[["MED23_9439",-0.3085543080162668,-3.4500711766904444,130],["TBP_6908",-0.28861679529907686,-3.1834611422584516,136],["PTAR1_375743",-0.291624276181426,-3.242824120536085,136],["SIX2_10736",-0.29151181485527816,-3.2405926219062544,136],["CCNB2_9133",-0.29641930008344053,-3.210230705345436,130],["H3F3AP4_440926",-0.304334229612444,-3.365489078042993,130],["TSC2_7249",-0.2817500499445313,-3.0890722632548866,138],["ACOX1_51",-0.2778883142814084,-2.8635922141220758,130],["KCNIP3_30818",-0.32037431509636277,-3.8437744544188743,136],["HRH3_11255",-0.27980707211982037,-3.0514912007684276,138],["NID1_4811",-0.26373503321196073,-2.614310948292644,130],["POC1A_25886",-0.39716997222240535,-5.7722950120978025,136],["CHRNG_1146",-0.2775465390676318,-2.8574167673175164,130],["GPA33_10223",-0.3017291058411604,-3.313903074543462,130],["PLK1_5347",-0.2943670509657423,-3.339732529575804,138],["KRTAP5-4&KRTAP5-7_387267&440050",-0.2722542831625894,-2.762782086907595,130]]}}}
{"achilles":{"corr":{"top":[["SENP6_26054",0.24991842636817735,-2.583346915372433,143],["NOSTRIN_115677",0.2557454568629249,-2.6882091489442725,143],["KDM2A_22992",0.25717867852577836,-2.7143666885968756,143],["CSNK1G2_1455",0.28068545628395053,-3.1644088767899343,143],["SLC10A5_347051",0.25069337512985534,-2.597155814757208,143],["FGF11_2256",0.2607176813600733,-2.7795791394656524,143],["HTATSF1_27336",0.2890237799971066,-3.333787967574213,143],["OR52B2_255725",0.2694652116215503,-2.94460559813467,143],["JADE2_23338",0.2522912776114674,-2.625761342013873,143],["IL6R_3570",0.2765973101489535,-3.083253334172047,143],["CD53_963",0.2692936706255532,-2.9413164355963692,143],["DHX37_57647",0.29575540795623484,-3.4743513998860966,143],["FPGS_2356",0.26860279198536957,-2.9280909482930833,143],["PCDHB16_57717",0.2869625362657161,-3.2914328367221533,143],["MISP_126353",0.26408189200366256,-2.842396973649293,143]],"bottom":[["ADH1A_124",-0.30447261632122075,-3.661535578596446,143],["RAB3GAP2_25782",-0.28720132383737584,-3.2963231568998426,143],["FMO9P_116123",-0.2683071351197007,-2.9224417372938003,143],["SLC34A3_142680",-0.2686962803817655,-2.9298785762340476,143],["CLIC6_54102",-0.2749081974271186,-3.0500812267522743,143],["PDE7B_27115",-0.27622718588024797,-3.0759666318851298,143],["MSRB1_51734",-0.2740701658918732,-3.033700912887337,143],["SLC17A3_10786",-0.2977817745637682,-3.51734074529265,143],["RALYL_138046",-0.27450486243919214,-3.0421911540591284,143],["MUL1_79594",-0.3250890559541868,-4.128018954081779,143],["AASDH_132949",-0.298211812945195,-3.5265045482511006,143],["VPS53_55275",-0.2762604439183683,-3.076620977292731,143],["MAPRE2_10982",-0.27245001305042554,-3.002178632283182,143],["TSG101_7251",-0.2861319329426105,-3.2744555914411095,143],["ZNF19_7567",-0.2893508668877647,-3.3405384846769834,143],["SPHKAP_80309",-0.36066852330516164,-5.01569538034246,143]]},"para":{"top":[["SENP6_26054",0.2886985802487105,-3.327084397777981,143],["NOSTRIN_115677",0.29030156471523594,-3.3602051364487138,143],["PSME3_10197",0.27948602723819,-3.140470558957599,143],["HTATSF1_27336",0.2713007934901401,-2.9799349992539566,143],["TXNL1_9352",0.2678160306337215,-2.913072003645919,143],["FGF11_2256",0.26505546954447157,-2.8607270296763465,143],["GRM4_2914",0.2676588545381897,-2.9100769351188207,143],["SDHC_6391",0.2654791987927679,-2.8687260464234123,143],["CENPE_1062",0.27184969046371826,-2.9905471415728337,143],["IL6R_3570",0.2639394181902832,-2.839720243509792,143],["IMPA2_3613",0.26500513500412287,-2.8597776880087773,143],["CD53_963",0.2621631853650986,-2.806471143671856,143],["OIP5_11339",0.2762219395083515,-3.075863417960041,143],["FPGS_2356",0.2582524351537526,-2.734058762920712,143],["PCDHB16_57717",0.2831475798700344,-3.2138825670559426,143],["MISP_126353",0.25882903346992264,-2.744666923192877,143]],"bottom":[["ADH1A_124",-0.31247697969641686,-3.8386285906506012,143],["RAB3GAP2_25782",-0.2823910108325548,-3.198632177196768,143],["CLIC6_54102",-0.2833562981120442,-3.218097265618539,143],["ACER3_55331",-0.27771051951430353,-3.1052299957960567,143],["SLC7A2_6542",-0.28114400389109157,-3.1735887738992123,143],["SLC17A3_10786",-0.3270830896648047,-4.1749525892845964,143],["PAPD7_11044",-0.2755162447701171,-3.061998422954322,143],["IDI1_3422",-0.28730777083557063,-3.298504549938199,143],["MUL1_79594",-0.31521730208889076,-3.9004208408301837,143],["VPS53_55275",-0.31632643639158625,-3.9256012503713458,143],["AASDH_132949",-0.2826313786136671,-3.203472725037638,143],["FMO9P_116123",-0.274569551915972,-3.0434558131817595,143],["GRAP2_9402",-0.2667123567367353,-2.892078621909965,143],["ZNF19_7567",-0.2765063102580804,-3.0814608700363686,143],["SLC6A7_6534",-0.276236478938563,-3.076149462815368,143],["SPHKAP_80309",-0.3247637182950224,-4.120392316036178,143]]}}}
{"ccle_rrbs_tss1kb":{"corr":{"top":[["ADAMTS2_5_178772431_178773431",0.2120291070734953,-2.7304710416812488,213],["PRR16_5_119798972_119799972",0.22719382563490048,-3.0148783343979977,208],["MIR6783_17_43012049_43013049",0.24795737801770648,-3.6040539668155027,214],["PRDM5_4_121844021_121845021",0.2178711586946769,-2.5043066780663787,182],["FBN1_15_48937985_48938985",0.21814750705752747,-2.90191505030133,216],["IQUB_7_123173002_123174002",0.2164004392091009,-2.441300819693095,179],["SIK1_21_44847012_44848012",0.2261269347928267,-3.088695655846666,216],["RTL5_23_71351751_71352751",0.2156475251241605,-2.1407715150296576,154],["LINC01347_1_243265046_243266046",0.21678065031042804,-1.9254437509068365,134],["MPDZ_9_13279712_13280712",0.28978918454042896,-2.8156884160463,117],["DMD_23_31285024_31286024",0.22570751652268917,-3.029725727488543,212],["PGAM1P5_12_96042030_96043030",0.23554991538430636,-1.96196336544909,116],["SLC10A4_4_48484359_48485359",0.21908192612463068,-1.874961174713939,127],["LRPAP1_4_3533876_3534876",0.21827544231707383,-2.9048585935293616,216],["HTR1F_3_87840916_87841916",0.21816654171093974,-2.5796797944663608,188]],"bottom":[["GTF2H2C_2_5_68855031_68856031",-0.24158717288069276,-1.929094331099271,108],["TPK1_7_144533146_144534146",-0.2172421252664901,-2.892505514328668,217],["PSMA1_11_14541991_14542991",-0.20748440474205385,-1.6167701832805919,118],["KCP_7_128550773_128551773",-0.2373956764372939,-2.2963972393345657,138],["SPRY1_4_124318540_124319540",-0.2236074009116751,-3.0410370007708614,217],["YIPF4_2_32501957_32502957",-0.22251266221421204,-2.943692894700435,211],["HMGCS1_5_43313399_43314399",-0.20422292613785703,-2.5407461861794967,211],["ANAPC10_4_146018534_146019534",-0.2060573100092638,-2.631173805139329,216],["MRPL28_16_420569_421569",-0.2015924509763986,-2.39631702234989,202],["TPK1_7_144533033_144534033",-0.20991174186987524,-2.7265533680832896,217],["CATSPER2_15_43941082_43942082",-0.20836327703196533,-2.6396247694986954,212],["MEIS2_15_37392341_37393341",-0.22670264109805763,-3.090077824214672,215]]},"para":{"top":[["LOC102724050_12_54812568_54813568",0.22761373518247463,-3.136656554584264,217],["SLC36A4_11_92931141_92932141",0.2331731948859312,-3.2199590020225832,213],["RIMS1_6_72595405_72596405",0.23438667053211182,-3.024876323790176,196],["PRDM5_4_121844021_121845021",0.25051816329731197,-3.18884035244082,182],["MOV10L1_22_50527684_50528684",0.22150656136922903,-2.979751401899553,216],["CTPS1_1_41444367_41445367",0.23222531043607325,-3.2358523081991257,216],["SIK1_21_44847012_44848012",0.2760105951938932,-4.408617137396188,216],["TSPAN4_11_843080_844080",0.23611305552702283,-3.3316801803474387,216],["LINC01347_1_243265046_243266046",0.22905330252633474,-2.1098735989383273,134],["MIR1258_2_180725635_180726635",0.23298479363304875,-3.254448773062385,216],["PDLIM3_4_186456712_186457712",0.27639709228647125,-4.365350930865885,213],["DMD_23_31285024_31286024",0.2528284671543328,-3.700823847475061,212],["ZNF671_19_58238995_58239995",0.23124694991863085,-2.903037059354382,192],["IFITM2_11_307106_308106",0.19971441470832693,-1.3444014475939345,101],["ZNF728_19_23186010_23187010",0.23488877474651698,-3.1557050566889395,205]],"bottom":[["LINC02362_4_185303460_185304460",-0.19873415655838012,-2.4357881391923386,212],["IDUA_4_979784_980784",-0.19540434972455809,-2.348726081422088,210],["SLC35B4_7_134001827_134002827",-0.19056480555764096,-2.234227005013153,208],["NUDT4_12_93771325_93772325",-0.2760063849548782,-2.510648074987537,113],["YIPF4_2_32501957_32502957",-0.23649473058628132,-3.2741604905025548,211],["SDC1_2_20425194_20426194",-0.23032259524594842,-3.1895260664209637,216],["AP5B1_11_65548062_65549062",-0.2003598141505733,-2.518387477216547,217],["VCPIP1_8_67579452_67580452",0,-1,-1],["RASA2_3_141204888_141205888",-0.20778405328539262,-2.637573908823803,213],["CATSPER2_15_43941082_43942082",-0.21800117371277317,-2.85271268810078,212],["PCSK9_1_55504148_55505148",-0.20881050569401782,-2.70209008430911,217],["ITPKA_15_41785055_41786055",-0.2033980295008698,-2.583616039368025,217],["MYD88_3_38179151_38180151",-0.19094615207368304,-2.277443104464568,212],["KCP_7_128550773_128551773",-0.24178416586956825,-2.368897164672471,138]]}}}
{"ccle_gene_tpm":{"corr":{"top":[["AC019129.1_ENSG00000219391.1",0.22088656617856464,-3.362648823015076,250],["TTLL10_ENSG00000162571.9",0.20744687345502943,-3.0139479472268413,250],["RP4-785G19.2_ENSG00000236456.1",0.20166394409241853,-2.8703784619252546,250],["RPL5P9_ENSG00000236330.1",0.20292329547851434,-2.9013154141858823,250],["RP11-250B2.6_ENSG00000272129.1",0.20082879421183575,-2.8499627583659093,250],["LINC00959_ENSG00000237489.2",0.2068574680965438,-2.9991383386480166,250],["RP11-507K2.2_ENSG00000258983.1",0.21182009231973933,-3.125091687404875,250],["OR7E91P_ENSG00000205847.5",0.21776780091532016,-3.27983897005486,250],["AC009336.24_ENSG00000226363.3",0.2234491192512412,-3.431553645956217,250],["AC006115.6_ENSG00000268407.1",0.202766919869262,-2.897464013558503,250],["PLEKHH1_ENSG00000054690.9",0.2127495071825641,-3.1489996828989373,250],["RNASEH2B-AS1_ENSG00000233672.2",0.19942705628820723,-2.815876116318422,250],["LINC01072_ENSG00000236076.1",0.22775181772996517,-3.5490119697590097,250],["RP11-460I13.2_ENSG00000227050.1",0.20080164314942728,-2.8493003777919066,250],["AC092573.2_ENSG00000236391.3",0.22503982583437837,-3.4747199278128638,250]],"bottom":[["PAGE2_ENSG00000234068.2",-0.23016118923030793,-3.615755041426978,250],["CTD-2318B16.2_ENSG00000262158.1",-0.24179204379328922,-3.9478513086980613,250],["RN7SL522P_ENSG00000265731.1",-0.23421109742202773,-3.7295228307875687,250],["LA16c-23H5.4_ENSG00000233408.1",-0.22215031962675644,-3.396532441663053,250],["RP11-815D16.1_ENSG00000255885.1",-0.21943045394406954,-3.323842674623409,250],["NRBP2_ENSG00000185189.11",-0.22424045623753502,-3.452990040678785,250],["RP11-856M7.4_ENSG00000264072.1",-0.2155593434763497,-3.2218943808813023,250],["OR7E89P_ENSG00000243792.1",-0.22140670146054284,-3.3765716586254393,250],["MKI67IPP2_ENSG00000251122.1",-0.24834660930030225,-4.142324122108057,250],["LINC00578_ENSG00000228221.1",-0.24049099140859215,-3.909880891811612,250],["CTC-281M20.1_ENSG00000204754.3",-0.21744085793713328,-3.2712245279743577,250],["LIN37_ENSG00000267796.3",-0.21537835492680016,-3.217171130984539,250],["RP11-238K6.1_ENSG00000253288.1",-0.2217952245113247,-3.3869925003912895,250],["TNRC18P2_ENSG00000223566.1",-0.2190286858277446,-3.3131795506458923,250],["RP11-483H20.4_ENSG00000234789.1",-0.21698862214336212,-3.259329594970627,250],["RP11-787B4.2_ENSG00000228707.1",-0.21935519297213382,-3.3218437573406034,250]]},"para":{"top":[["CELA3B_ENSG00000219073.3",0.23789328726420342,-3.8346903724390184,250],["RP11-464D20.6_ENSG00000264546.1",0.21688735946505575,-3.2566694369054847,250],["UBTFL6_ENSG00000228970.5",0.23513241254918144,-3.755681666468208,250],["RP11-1060J15.3_ENSG00000256557.1",0.2176423160657078,-3.276531146796865,250],["RP11-810D13.1_ENSG00000242318.1",0.2274164741708626,-3.539777818604341,250],["RP4-680D5.8_ENSG00000272510.1",0.21901230275480704,-3.3127451410686963,250],["AC012370.2_ENSG00000232693.2",0.2174744930504393,-3.2721101792389433,250],["QTRT1P1_ENSG00000270524.1",0.2336513779994233,-3.713681134129816,250],["OR6E1P_ENSG00000235213.1",0.22887595392157262,-3.580065208864396,250],["WARS2-IT1_ENSG00000224238.2",0.2499007076852137,-4.189217158326425,250],["MTHFD1P1_ENSG00000231831.1",0.2577340718301335,-4.430194863358278,250],["CABP1_ENSG00000157782.5",0.21660437678552172,-3.249241923017562,250],["PLEKHH1_ENSG00000054690.9",0.2357671486315334,-3.7737637827795547,250],["AL022344.7_ENSG00000259869.1",0.2333194286287995,-3.7043039643477287,250],["AC092573.2_ENSG00000236391.3",0.253523220697385,-4.299696012931364,250]],"bottom":[["AL050303.1_ENSG00000269011.1",-0.2106220166521795,-3.094421581551034,250],["RABAC1_ENSG00000105404.6",-0.20402474415393235,-2.928522896169853,250],["RP11-815D16.1_ENSG00000255885.1",-0.2268932581302163,-3.525397298704249,250],["NRBP2_ENSG00000185189.11",-0.2219256398832799,-3.390494481629602,250],["KRT34_ENSG00000131737.5",-0.23323255541768953,-3.701852108256499,250],["IL12RB1_ENSG00000096996.11",-0.2120517794904403,-3.1310420927103557,250],["ZNFX1_ENSG00000124201.10",-0.21263405035102426,-3.1460242110646703,250],["BCL3_ENSG00000069399.8",-0.242648817927032,-3.9729695856046137,250],["None_ENSG00000226721.2",-0.19972342179919778,-2.823064213626057,250],["RP11-87H9.2_ENSG00000233961.1",-0.21225991770618316,-3.1363930404672757,250],["EEF1A1P32_ENSG00000213046.4",-0.21099544409182952,-3.103963163155593,250],["AMTN_ENSG00000187689.5",-0.21034996271500525,-3.0874804668017326,250],["SNTA1_ENSG00000101400.5",-0.20452823957944613,-2.941006556387377,250],["LIN37_ENSG00000267796.3",-0.21706725886394568,-3.2613962056059744,250],["KRT32_ENSG00000108759.3",-0.20125116161602466,-2.860277766596701,250]]}}}
{"ccle_rrbs_tss_clusters":{"corr":{"top":[["GJA5_3",0.3094935495190019,-2.8098909459688177,102],["MEGF6_2",0.3224883904116699,-3.535150793970542,122],["CORT_2",0.2781801911310385,-2.9257044045569733,133],["F12_1",0.28403219060597407,-2.698468662430496,116],["ARL6IP1_1",0.2927736216860123,-3.764481942629055,160],["MIR6785_2",0.2924414480089784,-2.7346773743359853,111],["PRRT1B_1",0.2713281189200136,-3.4977174985650956,172],["ANKK1_3",0.2587562247401319,-2.9717931580139614,157],["ZNF763_3",0.30535864749857905,-2.790164414008136,104],["MIR4724_2",0.261174388508798,-2.198594683024997,108],["LOC652276_2",0.2563862838091166,-2.6998868829998828,143],["TCEA2_2",0.2625689885549126,-3.9935325840986375,214],["ZNF418_3",0.24718946564694425,-2.699590209313765,154],["CYP4B1",0.27315456571957736,-2.723799469247173,127],["VAMP8_2",0.2655627742110198,-3.093422322716964,156],["PHF24_1",0.2831671998503419,-3.486526444775539,157]],"bottom":[["FGF21_2",-0.23323662218866462,-3.2475877532276876,215],["SPRY1_1",-0.2384440707402391,-3.4171023099280804,218],["GIPR_3",-0.26429490964436936,-2.4689283063921317,121],["FKBP2_1",-0.2586500353615889,-2.09568485583667,104],["CHMP4C_3",-0.25021315010147954,-2.0296001837539226,107],["JMJD6_3",-0.24652333969743703,-3.5525309003246317,213],["TFR2_2",-0.23232170156055876,-1.7947580068507991,107],["MIR8055_1",-0.24780480856599119,-2.8905899577314513,166],["ANXA6_4",-0.23155413279020004,-2.3343834626985718,148],["FUT1_4",-0.2837523005291602,-4.003489052153974,183],["MEFV_1",-0.24789571243917027,-2.441716601935313,136],["KCNN3_2",-0.25372002120889353,-2.777375572735185,151]]},"para":{"top":[["SIK1_1",0.273083319361403,-4.359149298371505,218],["MEGF6_2",0.3462459765282575,-4.028691063424046,122],["CORT_2",0.295128167832366,-3.2491073385208487,133],["TBC1D14_9",0.31077327645058406,-4.569632620258711,176],["TMPRSS6_2",0.30675509967588993,-2.9290520975183614,109],["ANKK1_3",0.27640127330007597,-3.339057379420304,157],["AKAP2_3",0.27356463973423634,-3.5314237923131455,171],["ZNF763_3",0.2736734850182503,-2.3064864779407808,104],["CYP4B1",0.3162586897104058,-3.534531797090785,127],["SSUH2_1",0.2856480957528409,-3.244746504984796,142],["MIR6785_2",0.2623139175781807,-2.2663902616350664,111],["GRAP2_3",0.25945113688343097,-2.6407185389632004,136],["GALNT13_3",0.2669565099737807,-3.242958233748255,163],["VAMP8_2",0.2712047473237628,-3.2104912319621817,156],["RAP2B_3",0.2700031775507155,-4.200581159687569,214],["PHF24_1",0.2779764756225582,-3.3730570793748296,157]],"bottom":[["FUT1_3",-0.23368481754579196,-3.258553602782627,215],["MIR4472-2_1",-0.256408022610277,-2.9087855242146414,156],["HLCS_2",-0.25601253247038747,-2.0433858691944495,103],["G6PC3_1",-0.22819242119430497,-2.824346902204142,191],["FGF21_2",-0.23400165967273878,-3.2663182431076114,215],["CD276_1",-0.2538210576293415,-2.8107157651218153,153],["SDC1_2",-0.22895512007441776,-3.1438803256451053,215],["ITGB5_5",-0.2407528090914556,-3.3926280086214584,212],["JMJD6_3",-0.22851985810725758,-3.108358102241565,213],["SHCBP1_2",-0.23382629156774476,-2.0479088884654733,124],["ZRSR2_1",-0.25417226902804757,-2.0675493200160155,106],["FLJ46906_2",-0.2559675090703053,-3.799091461424991,213],["FUT1_4",-0.2891556644321843,-4.143370950499924,183]]}}}
{"ccle_rrbs_cgi_clusters":{"corr":{"top":[["22_50867663_50871892-3",0.26721827074061505,-2.3746563886907026,113],["1_228747005_228751901-2",0.2784245440562953,-2.414186741608167,106],["9_34955717_34960472-1",0.2831671998503419,-3.486526444775539,157],["1_3526333_3530683-2",0.3224883904116699,-3.535150793970542,122],["19_1959001_1963325-2",0.30511635897784595,-3.0160810624300556,114],["8_684830_688163-3",0.2911208693293058,-3.1087291146474554,130],["19_12074029_12078366-3",0.30535864749857905,-2.790164414008136,104],["19_14064658_14069036-2",0.2952025256764386,-2.758660732990339,110],["2_75424592_75427311-2",0.27599175718808666,-2.866743949441536,132],["16_32857759_32860277-3",0.27041441844822384,-2.8199351718612697,135],["1_99470450_99472968-3",0.28478161467823804,-2.7109222563315294,116],["16_18810387_18812893-1",0.2927736216860123,-3.764481942629055,160],["1_99470450_99472968-2",0.2858582992782972,-2.728873095978698,116],["21_43186858_43189436-1",0.27223968029162526,-2.4334387138931146,112],["17_79233486_79237751-3",0.28896393605783616,-3.2513091234002207,139],["19_7746602_7749714-2",0.28325509969576546,-2.9222930079343987,128]],"bottom":[["4_77608324_77612943-1",-0.2729620985395504,-2.2962419173134903,104],["6_96967511_96972100-2",-0.22879996447883502,-2.1969941515340095,141],["12_133292088_133296878-2",-0.24177472955906615,-2.8406080852739874,171],["8_82642603_82646849-3",-0.25021315010147954,-2.0296001837539226,107],["11_64007698_64011999-1",-0.2586500353615889,-2.09568485583667,104],["14_90989767_90993982-1",-0.22958887129590855,-3.121139283101483,212],["17_77706869_77711214-3",-0.233788055634761,-2.480125872835399,156],["17_74722725_74725420-3",-0.24652333969743703,-3.5525309003246317,213],["15_73974559_73979323-1",-0.2282935645414302,-2.343321877455889,153],["1_154973209_154977411-2",-0.2283332446927476,-1.7313020821626308,106],["17_47955926_47960147-1",-0.23884894540693674,-1.835227875580788,104],["5_75010962_75015515-3",-0.22607141634232103,-1.7034359801848757,106]]},"para":{"top":[["2_154725906_154730271-3",0.2669565099737807,-3.242958233748255,163],["9_34955717_34960472-1",0.2779764756225582,-3.3730570793748296,157],["3_152879677_152883086-2",0.28263630422454933,-4.547468977614302,213],["4_6988839_6991373-3",0.31077327645058406,-4.569632620258711,176],["4_180977038_180979828-3",0.2734548330861371,-2.340629734833851,106],["8_684830_688163-3",0.2907141126657513,-3.1010167316067685,130],["19_12074029_12078366-3",0.2736734850182503,-2.3064864779407808,104],["1_3526333_3530683-2",0.3462459765282575,-4.028691063424046,122],["19_14064658_14069036-2",0.26511678152574625,-2.290313558890234,110],["4_177713850_177716457-2",0.29110283252037844,-2.733708227135367,112],["1_99470450_99472968-2",0.2619529740602734,-2.346433781633877,116],["9_112808858_112813128-3",0.27356463973423634,-3.5314237923131455,171],["11_113256443_113260821-3",0.27640127330007597,-3.339057379420304,157],["19_7746602_7749714-2",0.2659209334836222,-2.6171776333114014,128]],"bottom":[["4_77608324_77612943-1",-0.259629370413858,-2.109074751044088,104],["13_20390430_20394707-3",-0.24319675579735914,-2.319471336412504,133],["22_41739931_41744165-1",-0.26809738603538913,-4.1469244859202155,214],["6_139011563_139014222-2",-0.2559675090703053,-3.799091461424991,213],["17_7135358_7140133-1",-0.2445460103496263,-2.5181392256136568,145],["9_131155134_131157923-2",-0.29812686212244155,-3.0039273834240516,119],["23_15806190_15810824-1",-0.25417226902804757,-2.0675493200160155,106],["16_89235944_89240331-1",-0.2869805278389274,-3.7501999256888845,166],["19_2133931_2138164-2",-0.2629684871855903,-2.379161892535673,117],["21_38350856_38355274-2",-0.25601253247038747,-2.0433858691944495,103],["1_204043377_204046510-2",-0.2548783134304688,-3.8166725425616472,216],["16_1361813_1366496-3",-0.2542868770053846,-2.1985575073461945,114],["16_90036530_90039056-1",-0.2657121975736841,-3.810628248523528,198],["15_73974559_73979323-1",-0.2538210576293415,-2.8107157651218153,153],["21_46518795_46523295-2",-0.23244441662208853,-2.269608140434612,142]]}}}
