{"depmap_hotspot":{"corr":{"top":[["C17orf47",0.13051942986331294,-2.3501488013383156,20.0,453.0],["C9orf50",0.1308606553770558,-2.360377707324867,15.0,458.0],["CD2AP",0.12249512937059541,-2.116281517857575,23.0,450.0],["CLRN1",0.11373567029869969,-1.8754734172548015,9.0,464.0],["CPA3",0.12016068137393422,-2.0506354835420924,20.0,453.0],["CTGF",0.1443971646075869,-2.7850682144129086,13.0,460.0],["DBF4",0.12111809855389707,-2.0774289248974616,23.0,450.0],["FAM43A",0.11319779198943143,-1.8611744140467699,18.0,455.0],["FUT4",0.13548238925669856,-2.5012208831322464,19.0,454.0],["GDF11",0.11128156140974817,-1.8106890316644282,8.0,465.0],["GLUD2",0.12664259782953413,-2.235563358332313,22.0,451.0],["GPR88",0.12221938626624276,-2.1084715867668713,12.0,461.0],["GSS",0.11875502349591019,-2.0116240249138,12.0,461.0],["KCTD13",0.1239054695076175,-2.156461430308485,14.0,459.0],["LINGO3",0.13911829762649267,-2.615043236818628,10.0,463.0],["LRRC72",0.12506623548248433,-2.1898259288491144,9.0,464.0],["MVK",0.13800944449401184,-2.580047463959123,13.0,460.0],["NCKAP1",0.14432090994230212,-2.7825717613288523,29.0,444.0],["NR1D1",0.14653156321133043,-2.8554272454491243,25.0,448.0],["OR10Z1",0.1469605805857594,-2.869682087121945,22.0,451.0],["PLIN5",0.12801324047678062,-2.275732788078745,13.0,460.0],["PRDM9",0.14832201784258106,-2.9151682034546518,65.0,408.0],["PSMB8",0.14744590631797047,-2.885853365037817,13.0,460.0],["RIMS2",0.12657102903735407,-2.233476143280897,106.0,367.0],["RPL3",0.11909012192308978,-2.0208888938660796,11.0,462.0],["RRP8",0.12953219802007876,-2.320685534760136,16.0,457.0],["TMEM256-PLSCR3",0.11642816863896513,-1.9478966899215502,15.0,458.0],["USP26",0.11703902882279874,-1.9645243411448845,32.0,441.0],["ZNF566",0.11092107130400161,-1.8012709169157692,9.0,464.0]],"bottom":[["AC004899.1",-0.12237770060108921,-2.1129537255255353,9.0,464.0],["AC092850.1",-0.13465343975055025,-2.475643762534057,8.0,465.0],["ACRBP",-0.12124887087429323,-2.0811025931980276,24.0,449.0],["ADAM15",-0.12953897053735586,-2.32088699342464,28.0,445.0],["ARHGEF9",-0.13272087538358204,-2.4165510596447057,12.0,461.0],["DCAF8",-0.12919130940542278,-2.310557108975946,30.0,443.0],["DIRAS2",-0.14128001820864503,-2.683984212068403,9.0,464.0],["FAM220A",-0.13194033169578132,-2.3928965060328506,9.0,464.0],["FBP2",-0.13982407974988142,-2.6374476228206363,15.0,458.0],["GPX6",-0.12736658750045504,-2.256734806389771,10.0,463.0],["HDDC3",-0.12076634448055767,-2.0675641063182155,8.0,465.0],["HIST1H4C",-0.12218931706743527,-2.107620836521489,12.0,461.0],["KATNAL2",-0.13733761529106525,-2.5589652731823795,20.0,453.0],["KRT5",-0.13438011980799783,-2.4672408159789825,33.0,440.0],["KYNU",-0.14615511432883727,-2.8429501477571297,25.0,448.0],["MKKS",-0.14935692050134308,-2.9499994160251655,13.0,460.0],["MMRN2",-0.1444719517037824,-2.7875177751071285,27.0,446.0],["MRPL28",-0.1430970448500546,-2.742666775883102,14.0,459.0],["NRSN1",-0.1410902004999136,-2.677892613264302,13.0,460.0],["NTN5",-0.1475619816537298,-2.8897282094920684,16.0,457.0],["OTUD4",-0.14772695218717458,-2.895240038570716,23.0,450.0],["POC5",-0.14848812899046462,-2.920744089671961,9.0,464.0],["SNAPC2",-0.127305273640903,-2.2549377847976575,19.0,454.0],["STK10",-0.1378260500092267,-2.5742834419975233,38.0,435.0],["STOM",-0.1581887161029302,-3.2562496269491383,14.0,459.0],["SUPT7L",-0.13420877477853257,-2.461980643577577,12.0,461.0],["TMEM43",-0.132752295044123,-2.417505795807941,16.0,457.0],["WIF1",-0.17317252770572236,-3.8131656935635108,21.0,452.0],["ZBTB37",-0.16653462955956838,-3.5606016623117385,16.0,457.0],["ZNF286A",-0.12062179471282866,-2.063517311082814,9.0,464.0],["ZNF670",-0.13468296615455724,-2.476552421106118,18.0,455.0]]},"para":{"top":[["C9orf169",0.11865759391306886,-2.302232774139388,11.0,462.0],["CCDC173",0.1301292651557697,-2.628044431102984,18.0,455.0],["FUT4",0.14643269677314796,-3.1336140960998544,19.0,454.0],["GDF11",0.09930358407926367,-1.8086305525828084,8.0,465.0],["GPR88",0.11722471831046709,-2.2633729130643188,12.0,461.0],["GSS",0.11934175438243269,-2.321009063661201,12.0,461.0],["KCTD13",0.13991926796580384,-2.9253716234519818,14.0,459.0],["LINGO3",0.153590502542019,-3.371131516688023,10.0,463.0],["LRRC72",0.12511797654009355,-2.4823343734364376,9.0,464.0],["MVK",0.13003217563970174,-2.6249824250276386,13.0,460.0],["NFE2",0.11667852244219967,-2.2487750268449704,15.0,458.0],["RRP8",0.14958270493536277,-3.2370307766875173,16.0,457.0],["SFTPD",0.12343801276164554,-2.4350598143840987,15.0,458.0],["TFB1M",0.11474814424533032,-2.1968153245161575,9.0,464.0],["TM6SF1",0.13036925253306003,-2.634797730032287,11.0,462.0],["TMED8",0.11824665852289372,-2.2910322633358997,11.0,462.0],["TMEM256-PLSCR3",0.1174737565974286,-2.2702462214965324,15.0,458.0],["ZNF566",0.1278945983020793,-2.562217780561221,9.0,464.0]],"bottom":[["AGA",-0.13452449108069836,-2.7588590003207445,9.0,464.0],["ARHGDIA",-0.14435232006984022,-3.065967052783532,12.0,461.0],["ARHGEF9",-0.13637650975220242,-2.8155076901770606,12.0,461.0],["CBLN3",-0.10782904293008319,-2.0173997136169186,8.0,465.0],["DTWD1",-0.13173689462114,-2.67544160809951,13.0,460.0],["ELMOD1",-0.1561307750314465,-3.458519191786858,21.0,452.0],["GABRP",-0.13591771163309385,-2.801702711030622,17.0,456.0],["GLRA4",-0.12091742341936944,-2.364152520171765,8.0,465.0],["HDDC3",-0.1289625747292977,-2.5932326570455615,8.0,465.0],["KRTAP13-2",-0.11403457077359863,-2.178048659369588,11.0,462.0],["MKKS",-0.15015733028168038,-3.2559708808283467,13.0,460.0],["MRPL28",-0.13786364698687437,-2.861397049360471,14.0,459.0],["MTERF",-0.14583710813392697,-3.1140989062070443,15.0,458.0],["NDUFAF4",-0.12644096013961867,-2.5201181190124182,8.0,465.0],["NIPSNAP1",-0.14158956278488163,-2.97769035648285,10.0,463.0],["NTN5",-0.13703540102867479,-2.8359360277377483,16.0,457.0],["POC5",-0.14336434811885715,-3.0340455587047295,9.0,464.0],["PPP1R15A",-0.14155167963074883,-2.9767968392661657,15.0,458.0],["RDH5",-0.12092471102199258,-2.3644480019886616,9.0,464.0],["STOM",-0.17303760595966866,-4.067932740917906,14.0,459.0],["SUPT7L",-0.12815453244945227,-2.5699867634205913,12.0,461.0],["UQCRC2",-0.09984393006276633,-1.8214653055217547,8.0,465.0],["WIF1",-0.16372307559869545,-3.725477030136914,21.0,452.0],["YIPF5",-0.12489131353911509,-2.4758774965249986,9.0,464.0]]}}}
{"depmap_damaging":{"corr":{"top":[["AHR",0.1053735929066636,-1.659495303548855,11.0,462.0],["ANK3",0.12587124604603456,-2.2131213897814477,21.0,452.0],["ERMP1",0.12899530903491171,-2.3047440674397115,22.0,451.0],["MICAL1",0.144620148138788,-2.7923751444838096,8.0,465.0],["PSD",0.13138920358487735,-2.3762679273798195,11.0,462.0],["TULP4",0.1347774552423344,-2.4794614482960733,10.0,463.0],["WNK4",0.11344449957808293,-1.8677259376461526,10.0,463.0],["ZACN",0.15721132691871595,-3.2215610641039287,8.0,465.0]],"bottom":[["DOT1L",-0.1250969517064223,-2.190712441921407,8.0,465.0],["ESF1",-0.1160102602353233,-1.9365631470098177,16.0,457.0],["IDE",-0.13200853065479579,-2.3949584251599227,9.0,464.0],["SEC24C",-0.12928896675695117,-2.3134563199597458,8.0,465.0],["TTC21B",-0.1538496995113479,-3.1037707088655466,9.0,464.0]]},"para":{"top":[["ADAM28",0.10152500645588565,-1.8617384337742982,8.0,465.0],["AHR",0.1288282448199033,-2.5895607224644137,11.0,462.0],["ANK3",0.13279008863411182,-2.7071837921755946,21.0,452.0],["ARHGEF26",0.10416669793078746,-1.9260751361092276,8.0,465.0],["ERMP1",0.1333364328772304,-2.7236068999103646,22.0,451.0],["ITGAD",0.11904950464366118,-2.3131780517204072,16.0,457.0],["KIAA1875",0.12500359504001507,-2.4792865402691118,12.0,461.0],["MICAL1",0.12992318981108014,-2.6214020449048974,8.0,465.0],["PRDM9",0.12247842292726595,-2.4076476388185477,8.0,465.0],["PSD",0.11028478533825058,-2.0802506789991604,11.0,462.0],["SLC52A1",0.12493999907433355,-2.477167534552102,8.0,465.0],["SRPR",0.11763025543763105,-2.274290807674263,11.0,462.0],["TPO",0.12056151463171187,-2.354650459425027,13.0,460.0],["TULP4",0.11791057851070909,-2.2818290370822893,10.0,463.0],["ZACN",0.14157064767769276,-2.9768951855811125,8.0,465.0]],"bottom":[["DOT1L",-0.11473346383039475,-2.1963358210143995,8.0,465.0],["IDE",-0.14472432612472774,-3.077705953096081,9.0,464.0],["SEC24C",-0.12247842292726595,-2.4076476388185477,8.0,465.0],["SRPK2",-0.12932280538496613,-2.6037757150495002,8.0,465.0],["TARBP1",-0.11677477087918252,-2.2509401591325853,8.0,465.0],["TTC21B",-0.13905775110026697,-2.898119413266624,9.0,464.0]]}}}
{"ccle_rrbs_enhancer_clusters":{"corr":{"top":[],"bottom":[["18-42324162-42328001-0_enh",-0.18210328394854733,-3.6551080440799697,407],["18-42324162-42328001-2_enh",-0.16406300647030939,-3.068276496357864,410]]},"para":{"top":[],"bottom":[]}}}
{"ccle_mirna":{"corr":{"top":[],"bottom":[["hsa-miR-124_miR00054.1",-0.12996745238399054,-2.2927618648690515,463],["hsa-miR-614_miR00568.1",-0.17455334663723507,-3.795521147054334,463]]},"para":{"top":[],"bottom":[["hsa-miR-184_miR00192.1",-0.1641893114427833,-3.410133015077943,463],["hsa-miR-409-3p_miR00356.1",-0.15806153885730048,-3.1926970475225076,463]]}}}
{"prism_primary_logfold":{"corr":{"top":[["naltriben_BRD-A19102171-066-01-4::2.5::HTS",0.19849530084674394,-4.882169817597399,475],["eflornithine_BRD-A96292436-003-16-1::2.5::HTS",0.1943880020944362,-4.727839673751402,478],["oxymetazoline_BRD-K16195444-003-26-0::2.5::HTS",0.19696378101681802,-4.841393293602005,478],["preladenant_BRD-K46290096-001-01-1::2.5::HTS",0.19599347214300425,-4.80736572940259,479],["VCH-916_BRD-K75956464-237-01-5::2.5::HTS",0.2080623342172883,-5.317636934100942,475],["propofol_BRD-K82255054-001-15-9::2.5::HTS",0.19516077848035565,-4.761752079639359,478]],"bottom":[["macitentan_BRD-K48812570-001-02-3::2.5::HTS",-0.20520314090139619,-5.1951021860851,476]]},"para":{"top":[["buflomedil_BRD-K19462402-003-24-6::2.5::HTS",0.21233953423728755,-5.539888991989105,477],["NU-1025_BRD-K48692744-001-02-0::2.5::HTS",0.1694467988230816,-3.7106604598455735,479],["osthol_BRD-K78294846-001-12-4::2.5::HTS",0.1911037969557098,-4.58519921757259,478],["hexamethylenebisacetamide_BRD-K04710043-001-17-8::2.5::MTS004",0.16824352251758837,-3.5848432673874155,467]],"bottom":[["macitentan_BRD-K48812570-001-02-3::2.5::HTS",-0.1700431242327745,-3.713272919193948,476]]}}}
{"prism_secondary_logfold":{"corr":{"top":[["meglitinide_BRD-K51324732-001-01-0::0.0390625::HTS002",0.2707717541648443,-8.615140785357982,470],["sodium-tanshinone-ii-a-sulfonate_BRD-K84798689-236-02-9::0.000610352::HTS002",0.26238340277671157,-8.08106215135089,468],["cefdinir_BRD-K15766189-001-09-8::0.0024414::HTS002",0.26196853740344284,-8.247272406068848,480],["PQ-401_BRD-K67537649-001-04-5::0.0024414::HTS002",0.26823496402328106,-8.344815528396083,463],["lidocaine_BRD-K52662033-003-21-2::0.0390625::HTS002",0.276004170713153,-9.113702337344582,480],["4-pyrimidinecarbonitrile_BRD-K04552268-001-02-4::0.15625::HTS002",0.2673741921032221,-8.575059087429544,480],["letrozole_BRD-K88789588-001-14-9::0.625::HTS002",0.30182265268591585,-10.8406537391934,480],["lidocaine_BRD-K52662033-003-21-2::2.5::HTS002",0.27445954214006263,-9.015897092164908,480],["LDN-212854_BRD-K59831625-001-01-6::0.0024414::HTS002",0.2766677523937271,-8.943137168553006,468],["simvastatin_BRD-K22134346-001-24-9::0.0378865::HTS002",0.29640938847443654,-10.463960961025498,480],["3-deazaneplanocin-A_BRD-K77791657-003-01-7::0.000651132::HTS002",0.2870836350473361,-9.833319252102147,480]],"bottom":[["2,3-DCPE_BRD-K61734568-003-02-1::0.0390625::HTS002",-0.18424807295759063,-4.200124749204041,466],["amsacrine_BRD-K68346641-001-01-4::2.5::HTS002",-0.17250784846308773,-3.409705892033688,419]]},"para":{"top":[["sodium-tanshinone-ii-a-sulfonate_BRD-K84798689-236-02-9::0.000610352::HTS002",0.2650885060416738,-8.240454954868412,468],["BIIB021_BRD-K51967704-001-03-6::0.0390625::HTS002",0.3010335367464572,-10.427029690220564,463],["simvastatin_BRD-K22134346-001-24-9::0.0378865::HTS002",0.29063152800306824,-10.070530103177218,480],["lidocaine_BRD-K52662033-003-21-2::0.0390625::HTS002",0.2725587530569495,-8.89637835200941,480],["atipamezole_BRD-K39252998-003-01-5::0.00976562::HTS002",0.28003271733378343,-9.1172506352009,466],["prednisolone-hemisuccinate_BRD-A78391468-001-02-8::0.00976562::HTS002",0.27549118136223094,-8.870215821271332,468],["10-deacetylbaccatin_BRD-K96631475-001-02-4::0.00237332::HTS002",0.28663986365147237,-9.803881619543768,480],["LDN-212854_BRD-K59831625-001-01-6::0.0024414::HTS002",0.2831088838762734,-9.348512991522387,468],["bekanamycin_BRD-K73425385-065-04-8::0.0024414::HTS002",0.3031719621769638,-10.935776535926008,480]],"bottom":[]}}}
{"ccle_proteomics":{"corr":{"top":[["BRMS1_Q9HCU9",0.23922779681272777,-3.628244002555994,232]],"bottom":[["DIP2A_Q14689",-0.26789518689132436,-4.2096111631439825,218],["IKZF3_Q9UKT9-3",-0.24775071085560924,-2.439275688329686,136],["TMEM258_P61165",-0.3225400113771393,-3.6379393806107285,126]]},"para":{"top":[["BRMS1_Q9HCU9",0.2496508541791547,-3.9153857487237995,232],["TTC14_Q96N46",0.26289347693174336,-3.9200256150994965,209],["ARHGAP23_Q9P227",0.28978956669995165,-3.267904136773987,139]],"bottom":[["CAMKK2_Q96RR4",-0.2258791668137644,-3.180746048486796,224],["DIP2A_Q14689",-0.2640048880363146,-4.099463904960569,218],["NAA35_Q5VZE5",-0.22671421626528312,-3.3366248008096844,235]]}}}
{"depmap_copy_number":{"corr":{"top":[["KANSL1-AS1_644246",0.1670326414784,-3.579226208026163,473]],"bottom":[]},"para":{"top":[],"bottom":[]}}}
{"depmap_gene_tpm":{"corr":{"top":[["SCN4A_6329",0.1650811409100739,-3.5001352057911554,472],["SPINK2_6691",0.15158084405586286,-3.02014605048811,472],["PRELID2_153768",0.17005965374126966,-3.6867754470757257,472]],"bottom":[["MTMR7_9108",-0.17702254485111352,-3.9566291923750367,472],["AVPR1B_553",-0.17773392074590802,-3.984782168477918,472],["KCTD8_386617",-0.16871981150014567,-3.6360308705050133,472],["SCN7A_6332",-0.18361301970881036,-4.22161540757956,472]]},"para":{"top":[["OCSTAMP_128506",0.16628556819998463,-3.544808561382358,472],["DAZAP2_9802",0.168655578804396,-3.633607695310124,472]],"bottom":[]}}}
{"avana":{"corr":{"top":[["LIG4_3981",0.23463673408783003,-4.870504977449949,337],["C1QC_714",0.20001344335728022,-3.6587007335869313,337],["GTDC1_79712",0.19998864311515047,-3.657901252033959,337],["SIAH1_6477",0.23267595329327787,-4.796676960609596,337],["DRGX_644168",0.18973418961165162,-3.3355287582405087,337],["RP1_6101",0.20702374235909385,-3.88856311046727,337],["EPG5_57724",0.18099115589360082,-3.0734574418277147,337],["TMEM106B_54664",0.18347832813275824,-3.146823033197957,337],["BLCAP_10904",0.22174372880978419,-4.396640743374016,337],["LTN1_26046",0.20542822610064343,-3.835566951440787,337]],"bottom":[["RELL1_768211",-0.20375646032240832,-3.7804691681678197,337],["KRT40_125115",-0.1687427311739812,-2.725773113468411,337],["BACH2_60468",-0.1837643711559676,-3.1553209383583503,337],["CAB39_51719",-0.1974207735569998,-3.575641250167727,337],["SKAP1_8631",-0.18950514689366124,-3.328513968412525,337]]},"para":{"top":[["LIG4_3981",0.22086143819058884,-4.365205879195179,337],["C1QC_714",0.1996128690092607,-3.6457992518015647,337],["BTF3_689",0.20781127387440945,-3.9148699432776155,337],["IL12RB2_3595",0.17673703543787223,-2.950143758570784,337],["CCDC24_149473",0.18143084259735257,-3.086358765747637,337],["BLCAP_10904",0.1874614048804657,-3.2662779747319934,337],["EBF3_253738",0.18330873461363068,-3.141790550240338,337],["SIAH1_6477",0.21854085986668395,-4.283128117570147,337],["LTN1_26046",0.1922931246394852,-3.41444955776755,337],["LCE2D_353141",0.2044473335642956,-3.8031854514910126,337]],"bottom":[["TTLL10_254173",-0.19350150492519752,-3.4520688896770633,337],["GCNT2_2651",-0.1646065493522764,-2.613423453129701,337],["BACH2_60468",-0.18067540499114318,-3.0642107416572886,337],["TIMM10B_26515",-0.1828982357282074,-3.12962761438528,337],["CAB39_51719",-0.20610545689423648,-3.858012492013044,337]]}}}
{"drive":{"corr":{"top":[["RAB5C_5878",0.20521565406668324,-3.0489188576620494,259],["DDX18_8886",0.2318491547516973,-3.6757081521844084,251]],"bottom":[["EIF2AK3_9451",-0.2281011352123663,-3.7070150084073803,262],["C3_718",-0.2312906416951866,-3.6600007177551857,251]]},"para":{"top":[["DDX18_8886",0.2236824880817384,-3.4497869166146318,251]],"bottom":[["C3_718",-0.2126523124978072,-3.157308392262943,251],["CADM4_199731",-0.2233337994066255,-3.440319471522483,251],["GPR32_2854",-0.2122477940578003,-3.146855454678696,251],["CP_1356",-0.21895751572857206,-3.3227309863014343,251],["EIF2AK3_9451",-0.24099216505483007,-4.089624643745881,262],["S100A11_6282",-0.22300190128577482,-3.4076198673304297,249]]}}}
{"achilles":{"corr":{"top":[["ANKRD20A4-ANKRD20A20P_110006327",0.30508348458978735,-3.9678324346490825,156],["RADIL_55698",0.2634112154938217,-3.0494399942206063,156],["LACC1_144811",0.27039053387001755,-3.193440743864713,156],["TCTEX1D1_200132",0.3293897757959898,-4.571271547805444,156],["C4orf26_152816",0.272213367323648,-3.2316860207911704,156],["HHATL_57467",0.2603091305809326,-2.986665431174457,156],["NBR1_4077",0.24298558109523324,-2.649760688652519,156]],"bottom":[["CA14_23632",-0.2898891297664451,-3.616447725409397,156],["RBM11_54033",-0.27229815539633767,-3.2334714247551077,156],["FRMPD4_9758",-0.30311245873875386,-3.921149864899458,156],["NLRX1_79671",-0.2952763293271529,-3.738813518841146,156],["TNKS1BP1_85456",-0.282946907458586,-3.4622994281534947,156],["TPPP_11076",-0.2783606875458915,-3.3626251084119785,156],["FRG2B_441581",-0.2681636848615055,-3.147077147383787,156],["SPRR4_163778",-0.2860645574238406,-3.5310353880256216,156],["THAP11_57215",-0.2824539460753601,-3.4515036635909424,156],["ITPRIP_85450",-0.2677827348811079,-3.1391850328992077,156],["TLDC1_57707",-0.2945471570617146,-3.7221094100503893,156],["PPCS_79717",-0.27723829303787556,-3.338491130017936,156]]},"para":{"top":[["RADIL_55698",0.27160439192266667,-3.21887952350831,156],["LACC1_144811",0.29525245532680267,-3.7382659012308834,156],["TCTEX1D1_200132",0.3033910667901467,-3.9277284255134637,156],["FAM171A2_284069",0.24979058203968355,-2.779364405512041,156]],"bottom":[["RTN2_6253",-0.27738884081584814,-3.341722338760078,156],["TLDC1_57707",-0.304976802003555,-3.9652972312424803,156],["METTL6_131965",-0.25300652592779904,-2.8418403148282017,156],["THAP11_57215",-0.262697050446811,-3.0349212864821826,156]]}}}
{"ccle_rrbs_tss1kb":{"corr":{"top":[["ZNF700_19_12034882_12035882",0.20710800961377673,-2.943687800949004,244],["LINC00887_3_194030593_194031593",0.18317348180488555,-3.511196791314055,384],["HIP1R_12_123318984_123319984",0.17491068660642856,-3.4352463386267833,411]],"bottom":[["TENT5D_23_79590002_79591002",-0.18835636494977423,-3.6539575359005183,380],["MIR4284_7_73124646_73125646",-0.1761912514639303,-3.222443918190887,376],["LUZP1_1_23495351_23496351",-0.17244220347454034,-3.281010873641072,401]]},"para":{"top":[["FKBP8_19_18654406_18655406",0.16817717787443948,-3.155285545081893,403],["GYG2P1_24_14533389_14534389",0.28630439820547315,-2.4316057241995437,101],["MICA_6_31366560_31367560",0.1848414284595524,-3.7442810770868276,406],["FNDC3A_13_49549047_49550047",0.1722625168872506,-2.9438793445800666,354],["IGHMBP2_11_68670318_68671318",0.16302097104744465,-3.0411589354951962,411],["TMEM167A_5_82373272_82374272",0.16960984176086033,-3.195064251833339,402],["AP1S1_7_100796678_100797678",0.17557094881980378,-3.465160484329254,412],["SNHG12_1_28908385_28909385",0.18657444146989519,-3.879901283911417,415]],"bottom":[["TENT5D_23_79590002_79591002",-0.19643554651095224,-3.9351972664353925,380],["RGPD4-AS1_2_108442583_108443583",-0.19958889895027823,-3.191646453415529,289]]}}}
{"ccle_gene_tpm":{"corr":{"top":[["RP11-285E9.5_ENSG00000265121.1",0.16128619296294588,-3.336840208309801,468],["RP11-138J23.1_ENSG00000251026.1",0.16709737342412057,-3.548846664039542,468],["PRELID2_ENSG00000186314.7",0.17100406082909128,-3.69533857179516,468],["GLIS3-AS1_ENSG00000237009.2",0.17348671957683579,-3.7901001093363065,468],["DEFT1P2_ENSG00000232039.2",0.17604097014138032,-3.8889528552144252,468],["RP11-4C20.3_ENSG00000232259.1",0.1753823371391501,-3.8633307833953165,468]],"bottom":[["EEF1A1P28_ENSG00000237709.1",-0.20753509668269104,-5.223197303811332,468],["OR51G1_ENSG00000176879.2",-0.20023012332460083,-4.8944467937032545,468],["RP11-253E3.1_ENSG00000234589.3",-0.2029737946717727,-5.016537650369038,468],["EEF1A1P1_ENSG00000223822.2",-0.22800423794983396,-6.208115166298347,468],["SCN7A_ENSG00000136546.9",-0.18861104738876194,-4.395688062905135,468],["None_ENSG00000225932.3",-0.18830235278878363,-4.382837343932883,468],["AC090602.2_ENSG00000242088.1",-0.20296432254837957,-5.016113291507098,468],["IGBP1P5_ENSG00000250858.1",-0.2229261691826688,-5.954904253069055,468]]},"para":{"top":[["OCSTAMP_ENSG00000149635.2",0.16829098553608982,-3.5932648916895915,468],["RP11-587P21.3_ENSG00000257863.1",0.1594698414645696,-3.27201400732567,468],["DAZAP2_ENSG00000183283.11",0.16629179868848695,-3.519037024879407,468],["RP11-138J23.1_ENSG00000251026.1",0.17393814326889712,-3.807470388654702,468],["AP006621.6_ENSG00000255142.1",0.1655428089161771,-3.4914428767589625,468],["PTCHD3P2_ENSG00000231550.1",0.1701738398310902,-3.663939130360302,468],["RP11-308D16.1_ENSG00000232379.1",0.1703633160909605,-3.6710924709606183,468],["CTB-131B5.2_ENSG00000250069.1",0.1584777496462341,-3.2368940127950006,468],["RP11-214N15.5_ENSG00000234017.1",0.17143077939615323,-3.711533727635243,468]],"bottom":[["FAM86MP_ENSG00000186234.7",-0.16656699160755797,-3.529205063050687,468],["GS1-421I3.4_ENSG00000228139.1",-0.14955482942635026,-2.930116369283375,468],["None_ENSG00000240755.1",-0.1776417696800048,-3.951610596564768,468],["FAM224B_ENSG00000230663.1",-0.16750230528978743,-3.5638820860290674,468],["TMEM30C_ENSG00000235156.3",-0.16930408979427813,-3.631200014893931,468],["CFC1B_ENSG00000152093.3",-0.16221948081052692,-3.3704154233489314,468],["INSL6_ENSG00000120210.6",-0.1582800611835176,-3.2299201354876255,468]]}}}
{"ccle_rrbs_tss_clusters":{"corr":{"top":[["FBLIM1_9",0.21694429543064783,-2.497702285475925,183]],"bottom":[["NKAP_2",-0.23031313204741902,-3.9596086657010097,277],["MIR6766_1",-0.22373416840873048,-4.056042801732753,302],["LOC101927434_2",-0.21529550814647025,-2.9260709139918504,224],["MIR1297_3",-0.23282711366743963,-3.43215257446954,230],["GLIS3-AS1_2",-0.23597643825182596,-4.437776117365785,300]]},"para":{"top":[["AK4_2",0.2619205007772395,-2.6170378228634807,132]],"bottom":[["R3HDM1_1",-0.2803958132882407,-3.899156053429023,182],["NKAP_2",-0.22165777244456683,-3.698602762517786,277],["MIR6766_1",-0.22226875712321992,-4.008680261267623,302],["TENT5D_1",-0.2102203388259774,-3.32681118409857,273],["UBR3_2",-0.27031118627811673,-2.2034620855328746,101]]}}}
{"ccle_rrbs_cgi_clusters":{"corr":{"top":[["17_20943386_20947633-2",0.3071990183446879,-4.268623300596298,167],["3_44618551_44622971-3",0.21245937718646907,-2.52091439409192,193],["21_45751638_45756440-2",0.22731218808601408,-5.346054805212973,399]],"bottom":[["8_105377566_105381986-1",-0.26685067510073174,-2.615527818348468,127],["18_71956141_71958955-3",-0.22477303946778104,-4.351375133875596,324],["14_105353854_105358084-3",-0.23048586363040888,-3.839167905756212,267],["23_119075089_119079664-2",-0.23031313204741902,-3.9596086657010097,277]]},"para":{"top":[["24_14532857_14535600-1",0.27926121505025414,-2.3878759728495114,104],["17_20943386_20947633-2",0.27462280844830794,-3.483190529230399,167],["1_100676766_100681098-1",0.2200827247689653,-3.039799505222271,224],["21_45751638_45756440-2",0.21109829566956104,-4.672884657268096,399]],"bottom":[["2_170681860_170686629-1",-0.27031118627811673,-2.2034620855328746,101],["2_136286970_136291715-1",-0.2803958132882407,-3.899156053429023,182],["6_11041913_11044559-3",-0.22690244380658578,-3.501133939383779,248],["1_87791802_87794472-2",-0.24687850229888514,-3.298699987262542,195],["23_119075089_119079664-2",-0.22165777244456683,-3.698602762517786,277]]}}}
