{"depmap_hotspot":{"corr":{"top":[["CDK14",0.12331741257982355,-2.128533157632622,23.0,447.0],["DPF2",0.12296243895819402,-2.118483154264277,8.0,462.0],["GFI1",0.13388422508578368,-2.4390796183250987,18.0,452.0],["MITD1",0.12359245620022702,-2.1363371737145327,8.0,462.0],["NFXL1",0.12377303115604059,-2.141468830268341,33.0,437.0],["NMUR2",0.1381410618369478,-2.5704564969291,21.0,449.0],["ZNF821",0.15532352499451477,-3.1380016553793015,16.0,454.0]],"bottom":[["ACAP2",-0.17001269754259007,-3.671427620605456,26.0,444.0],["AZGP1",-0.13949286151233906,-2.6129367987410697,9.0,461.0],["BAP1",-0.1788950975575725,-4.016010241972058,23.0,447.0],["BHLHE41",-0.1319582193860419,-2.380827534779224,16.0,454.0],["BMS1",-0.13168063406636518,-2.3724928444473243,47.0,423.0],["CCDC181",-0.14393982262308586,-2.7552822314778127,14.0,456.0],["CDT1",-0.1300043454571273,-2.322486444344224,22.0,448.0],["CHD7",-0.13817924524529812,-2.571651369084919,80.0,390.0],["CKAP4",-0.12945996482742184,-2.3063666022683496,14.0,456.0],["CRISPLD1",-0.14492590342310496,-2.787388310664414,26.0,444.0],["DOC2A",-0.14170547368503453,-2.6832622874611323,13.0,457.0],["FANCB",-0.14051170370943755,-2.6451969719706825,17.0,453.0],["FDXACB1",-0.1645307649418291,-3.467084623678636,14.0,456.0],["FRMD6",-0.13486682507236653,-2.4690833315184637,23.0,447.0],["GATS",-0.12995798285595128,-2.321111297259835,8.0,462.0],["GOLGA8A",-0.13448535311539625,-2.457412181950775,47.0,423.0],["LINC00955",-0.12840535521489635,-2.2753051662142454,12.0,458.0],["NAT14",-0.13058648724771785,-2.3397894564687896,14.0,456.0],["NOL10",-0.1645961047200236,-3.4694830773920433,19.0,451.0],["NOP14",-0.134405963813531,-2.454986917027977,25.0,445.0],["OSMR",-0.13635966219993523,-2.515036466959726,31.0,439.0],["PAOX",-0.16037501689906114,-3.3163693970005634,17.0,453.0],["PDCD11",-0.17546076758395523,-3.8807908188470206,50.0,420.0],["PER1",-0.15441684607917947,-3.1065453750406387,33.0,437.0],["PHF20",-0.13597793777791606,-2.503243630879917,35.0,435.0],["PIK3R6",-0.14396934253329352,-2.7562405148589226,24.0,446.0],["PLCB4",-0.13401647193322297,-2.4431065540443777,51.0,419.0],["PODN",-0.13654594986008586,-2.5208021569708507,21.0,449.0],["PRSS58",-0.14851691264352634,-2.9059797507987306,8.0,462.0],["PRTFDC1",-0.12888466517492142,-2.289395004405598,9.0,461.0],["RBM44",-0.12924318488285022,-2.2999638022994815,21.0,449.0],["RPS6KA1",-0.17941763888323037,-4.036804988415517,14.0,456.0],["SFRP1",-0.13452245929809004,-2.458546170876997,13.0,457.0],["SLC5A6",-0.1286310716579786,-2.281934685142124,20.0,450.0],["SOD2",-0.1736233135492384,-3.8094763421032813,9.0,461.0],["SUGT1",-0.14466511289293785,-2.7788779705673727,13.0,457.0],["TAF1A",-0.14577052012995775,-2.815045373132927,11.0,459.0],["TCTN2",-0.15139874703616796,-3.003054525181041,21.0,449.0],["TMEM42",-0.13804641984171426,-2.567496130569569,8.0,462.0],["TRMT61B",-0.14531205777955059,-2.800014992343192,9.0,461.0],["TVP23C",-0.15282760874174894,-3.0518169255453453,8.0,462.0],["WNT3A",-0.1389658965697496,-2.5963332212759394,14.0,456.0]]},"para":{"top":[["CDK14",0.13607630728898526,-2.7934845091485756,23.0,447.0],["GFI1",0.1218743010978113,-2.3804898130654535,18.0,452.0],["HMMR",0.12158708249944639,-2.3725860461310537,20.0,450.0],["MITD1",0.1328130502652282,-2.694537675264168,8.0,462.0],["ZNF821",0.13369523294835406,-2.7214096706745625,16.0,454.0]],"bottom":[["AZGP1",-0.12071885086129178,-2.348113318648496,9.0,461.0],["BARHL1",-0.12735552702238648,-2.5348721489785637,9.0,461.0],["BHLHE41",-0.13654901217687654,-2.8076693800084027,16.0,454.0],["C15orf32",-0.13453524665626113,-2.746306478827425,10.0,460.0],["C19orf45",-0.12353856523986081,-2.4263591435618457,8.0,462.0],["C1orf122",-0.12444782847764194,-2.451937851398232,8.0,462.0],["CCDC181",-0.1492541544927342,-3.210333898718741,14.0,456.0],["CXCL12",-0.11557207982143272,-2.2090156482964343,10.0,460.0],["FASLG",-0.12919193320451228,-2.588162813695686,11.0,459.0],["FCER1A",-0.11608462009363082,-2.2225780451232082,9.0,461.0],["FDXACB1",-0.14390388195838402,-3.036993471294831,14.0,456.0],["FOXR2",-0.1538103780141325,-3.362194226625481,13.0,457.0],["HIST1H4C",-0.13719872480564024,-2.827324807548516,12.0,458.0],["IL33",-0.11681001728028056,-2.2418731863960044,8.0,462.0],["KLK8",-0.15086114739870873,-3.263558899380841,16.0,454.0],["LTA4H",-0.1368507570253361,-2.81668230725802,12.0,458.0],["MARC2",-0.14080051752115594,-2.9385961280750545,9.0,461.0],["MATN1",-0.14084902706228106,-2.9405910874035226,17.0,453.0],["MRPL46",-0.13627398974713364,-2.7989516267337193,10.0,460.0],["MS4A15",-0.129660937707587,-2.601579542859888,8.0,462.0],["NKAIN4",-0.11784051561643251,-2.2695809003423153,8.0,462.0],["NOL10",-0.15315157580029798,-3.3402521196423707,19.0,451.0],["NXPH2",-0.13075205359292438,-2.6335457292088305,8.0,462.0],["OR10T2",-0.14698345302380708,-3.1361502807371235,15.0,455.0],["PEBP4",-0.11492947570501774,-2.19204970691205,11.0,459.0],["PMP2",-0.11602740736810414,-2.221053182927182,9.0,461.0],["POC1B",-0.13696726491086847,-2.8200137281070776,9.0,461.0],["PRSS58",-0.1506952272749235,-3.257473817868639,8.0,462.0],["RAET1L",-0.11573508698620202,-2.213348106813512,10.0,460.0],["RNF181",-0.11728608732969106,-2.2547405978164434,9.0,461.0],["RPS6KA1",-0.14740923292916516,-3.1499456644873756,14.0,456.0],["SOD2",-0.13885528485324888,-2.8780722742008193,9.0,461.0],["SURF6",-0.13047824731133592,-2.6258788780560818,13.0,457.0],["TAF1A",-0.12597639733189897,-2.4955366882501258,11.0,459.0],["TCAIM",-0.13531182405884082,-2.7698237134031944,11.0,459.0],["TMEM42",-0.11711310502620761,-2.250002022579101,8.0,462.0],["TVP23C",-0.13147946418314924,-2.654980962593612,8.0,462.0],["VPS25",-0.1277560161010732,-2.5464059991937518,9.0,461.0]]}}}
{"depmap_damaging":{"corr":{"top":[["ATP9B",0.18009406777255474,-4.063810564304675,13.0,457.0],["FLNA",0.12079133951672931,-2.0575518963893753,13.0,457.0],["TDG",0.11206529210562792,-1.8219069741121603,9.0,461.0],["ZNF451",0.12007577115165148,-2.037671513737587,13.0,457.0]],"bottom":[["ABCB4",-0.11777974956745353,-1.9745556166341882,8.0,462.0],["ARHGAP23",-0.10495676043177761,-1.640777507804737,9.0,461.0],["CDH18",-0.12518012127457884,-2.1816754680873895,9.0,461.0],["CDKL2",-0.14143551884307548,-2.6746291646838336,8.0,462.0],["CEP170B",-0.11358698482172397,-1.8619393373393485,8.0,462.0],["DHX29",-0.14186848944417188,-2.688482639912886,14.0,456.0],["DPYD",-0.14869469563401252,-2.9119192300170975,8.0,462.0],["MECOM",-0.12775095512250242,-2.25614170989363,15.0,455.0],["MGAT5",-0.12595737336904178,-2.2040518329621532,8.0,462.0],["PCDH17",-0.11576848804991373,-1.9201091440728735,10.0,460.0],["RASA2",-0.1327913832207081,-2.4059359110246836,9.0,461.0],["ZNF124",-0.14327191174992743,-2.733647524945037,12.0,458.0]]},"para":{"top":[["ATP9B",0.15352350755467184,-3.3525122554765807,13.0,457.0],["FLNA",0.1276573544599732,-2.543832737863519,13.0,457.0],["ZNF451",0.12813547189240757,-2.5576336518322567,13.0,457.0]],"bottom":[["ABCB4",-0.13778368929843166,-2.8449322266308874,8.0,462.0],["CDH18",-0.13816873214692874,-2.856882030345236,9.0,461.0],["CDKL2",-0.12372041788741704,-2.431462512647879,8.0,462.0],["CEP170B",-0.10686873921387371,-1.9846773918268588,8.0,462.0],["DHX29",-0.13352619816330827,-2.716262261681373,14.0,456.0],["DPYD",-0.10741429715654238,-1.9983188078973197,8.0,462.0],["KIF5C",-0.10366945865434156,-1.9058639317150432,9.0,461.0],["MECOM",-0.1457790362615483,-3.09717423567311,15.0,455.0],["MGAT5",-0.13675319096227972,-2.8133693424159367,8.0,462.0],["MROH2A",-0.11347605207508314,-2.153581368099839,8.0,462.0],["OTOGL",-0.1252438382644111,-2.474635807147254,10.0,460.0],["UNC5C",-0.11575223039235769,-2.2139775564085142,13.0,457.0],["USP28",-0.13808677704435868,-2.8542536577093656,8.0,462.0],["ZNF124",-0.13963449926776936,-2.9024638084835446,12.0,458.0]]}}}
{"ccle_metabolomics":{"corr":{"top":[["hypoxanthine",0.15740842983596487,-3.1758353063290072,464]],"bottom":[]},"para":{"top":[["hypoxanthine",0.1678115470932233,-3.5489146350514766,464]],"bottom":[]}}}
{"ccle_rrbs_enhancer_clusters":{"corr":{"top":[],"bottom":[["10-103264649-103267311-1_enh",-0.18835927999004307,-3.1587067904256307,321],["13-95619142-95621819-1_enh",-0.1841600737120977,-3.791724468703685,415]]},"para":{"top":[],"bottom":[["2-172956465-172959052-1_enh",-0.16890419899380582,-3.1044663032502067,392],["10-103264649-103267311-1_enh",-0.2018373426765433,-3.563796940655877,321],["13-95619142-95621819-1_enh",-0.16491234033392868,-3.127916301294543,415]]}}}
{"prism_primary_logfold":{"corr":{"top":[["enflurane_BRD-A51831848-001-01-7::2.5::HTS",0.1870777562657782,-4.127838521945295,443],["RS-100329_BRD-K08640512-003-02-3::2.5::HTS",0.1916619546815892,-4.583640421195862,475]],"bottom":[]},"para":{"top":[["RS-100329_BRD-K08640512-003-02-3::2.5::HTS",0.18456563962313804,-4.284521142303207,475],["cephalothin_BRD-K28210218-236-08-1::2.5::HTS",0.1961355324280659,-4.7779074149043135,475]],"bottom":[]}}}
{"prism_secondary_logfold":{"corr":{"top":[["ICG-001_BRD-K94455792-001-01-8::0.00061034::HTS002",0.30130417487204575,-10.740919781740237,477],["fenbendazole_BRD-K51318897-001-15-3::0.00976562::HTS002",0.39345573896808733,-7.369698994468594,181],["tioxolone_BRD-K41876534-001-13-7::0.00061034::HTS002",0.29551753476021103,-10.341811128706139,477],["barasertib-HQPA_BRD-K63923597-001-10-0::0.00061034::HTS002",0.2969574619650173,-9.948383725364234,453],["nilutamide_BRD-K23566484-001-15-1::2.5::HTS002",0.2601940282600691,-7.8907033604162455,464],["canrenone_BRD-A20644369-001-08-6::0.00061034::HTS002",0.2843498603989331,-9.37155585428658,465],["parthenolide-(-)_BRD-K34851558-001-02-3::0.0024414::HTS002",0.25816424448931136,-7.974750648518364,477]],"bottom":[["atiprimod_BRD-K38527262-300-01-0::10::MTS006",-0.16274848693840133,-3.3895267976556736,468],["VE-822_BRD-K04701033-001-03-9::10::MTS006",-0.17396367343032942,-3.8226321267270897,470],["neratinib_BRD-K85606544-001-09-1::0.00244::MTS010::PROS004_PR500",-0.21937833989237432,-5.736911978637177,464],["alvespimycin_BRD-K83988098-003-03-4::0.0390625::HTS002",-0.2058060448988723,-3.013433273308751,254]]},"para":{"top":[["MRS-1220_BRD-K37618799-001-03-0::0.0024414::HTS002",0.26533666602429257,-4.738103881363564,254],["fenbendazole_BRD-K51318897-001-15-3::0.00976562::HTS002",0.384294539365627,-7.033818576950644,181],["barasertib-HQPA_BRD-K63923597-001-10-0::0.00061034::HTS002",0.2744973759234595,-8.546964204076263,453],["SDZ-WAG-994_BRD-K39558284-001-01-2::0.00976562::HTS002",0.29701490548747705,-10.444231015961694,477],["canrenone_BRD-A20644369-001-08-6::0.00061034::HTS002",0.2755774604139455,-8.822763550928988,465],["spermine_BRD-K18375018-376-02-3::0.0024414::HTS002",0.30980155021197503,-11.343282956958005,477],["darifenacin_BRD-K95773607-004-03-8::0.00061034::HTS002",0.27943947603561053,-9.061992749751894,465],["WAY-170523_BRD-K36198571-001-02-0::0.00061034::HTS002",0.26007179170791045,-8.087076127235408,477],["tioxolone_BRD-K41876534-001-13-7::0.00061034::HTS002",0.2647019433717255,-8.363479705329997,477]],"bottom":[["atiprimod_BRD-K38527262-300-01-0::10::MTS006",-0.14702913914823224,-2.8462340466512543,468],["oprozomib_BRD-A36331462-001-02-1::2.5::HTS002",-0.1846405572752326,-3.4962537860496496,376],["VE-822_BRD-K04701033-001-03-9::10::MTS006",-0.19335901837928968,-4.613339185492611,470]]}}}
{"ccle_proteomics":{"corr":{"top":[["RGS19_P49795",0.2545092064637128,-3.2477587722213808,180],["CCDC138_Q96M89",0.3413634674362231,-3.3505798336588577,102],["PIEZO1_Q92508",0.23431794356801622,-3.6411695499527883,243],["CXCL5_P42830",0.2843866222891819,-2.38338231166869,100]],"bottom":[["CHMP4A_Q9BY43",-0.237318548709747,-3.7244929504595854,243],["BLOC1S2_Q6QNY1",-0.28846495575943215,-5.11692384852519,233],["IFRG15_Q9H496",-0.2855956334249321,-2.7847748894391398,119]]},"para":{"top":[["FBN2_P35556",0.23686947993480534,-3.067510243406712,195],["MIPOL1_Q8TD10",0.26461073505576244,-3.158803033872775,161],["CCDC138_Q96M89",0.30456405022471233,-2.7313800076072265,102],["MT-CO1_P00395",0.24434478741991847,-1.860229196772077,101],["PIEZO1_Q92508",0.25513212054736234,-4.24134915202707,243],["KIF23_B4E1K0",0.3179067443961035,-2.8969119252417825,100]],"bottom":[["ALKBH6_Q3KRA9-2",-0.31771586412738373,-3.242665283058327,114],["PRDX6_P30041",-0.2600408917927504,-4.39055872848457,243],["GEMIN7_Q9H840",-0.25934785000846056,-4.193801395124707,232],["IDI1_Q13907-2",-0.25826198841509146,-4.336143243522745,243],["CHMP4A_Q9BY43",-0.26897239523740146,-4.669712657149962,243],["NUDT16_Q96DE0",-0.2617980088142339,-4.347214758412059,237],["IFRG15_Q9H496",-0.31949323187576567,-3.4007134102140184,119],["CHORDC1_Q9UHD1",-0.25872029813180863,-4.350125265601952,243],["KCTD20_Q7Z5Y7",-0.3211666357686561,-3.534094277181039,123]]}}}
{"depmap_copy_number":{"corr":{"top":[],"bottom":[["MIR4300_100422823",-0.16908657078453773,-3.6364618740519816,470],["LINC01333_101929082",-0.15134172531941353,-3.0011172535386477,470],["LINC01335_102503429",-0.15134172531941353,-3.0011172535386477,470],["RAB30_27314",-0.16872170886511031,-3.622736219031656,470],["MIR4300HG_101928989",-0.16908657078453773,-3.6364618740519816,470]]},"para":{"top":[],"bottom":[["LINC01948_102467147",-0.1527756912682322,-3.0500378102961814,470],["SLC38A9_153129",-0.15385591393738204,-3.087169240463712,470],["FLJ31104_441072",-0.1527756912682322,-3.0500378102961814,470],["ANKRD55_79722",-0.1527756912682322,-3.0500378102961814,470],["C5orf67_101928448",-0.1527756912682322,-3.0500378102961814,470],["MIER3_166968",-0.153480896301191,-3.0742512337294037,470],["SETD9_133383",-0.153480896301191,-3.0742512337294037,470],["GPBP1_65056",-0.15147997140451935,-3.0058152158470333,470]]}}}
{"depmap_gene_tpm":{"corr":{"top":[["PLTP_5360",0.15794162496580483,-3.223893657417131,469],["SPINK6_404203",0.1602506337207823,-3.305855872170479,469]],"bottom":[["CPLX1_10815",-0.19133591305687986,-4.5185388093962935,469]]},"para":{"top":[["USP17L1_401447",0.15717003919947337,-3.1967507411371456,469],["KCNK18_338567",0.16413343753767431,-3.446178044665442,469]],"bottom":[["NDUFC2_4718",-0.1544200981973101,-3.1010116625559,469],["DHFR_1719",-0.15680688640370488,-3.184018263673457,469],["CDCA7L_55536",-0.15155686230913654,-3.00298012524121,469],["SLC25A18_83733",-0.15837974594980547,-3.239360682067233,469]]}}}
{"avana":{"corr":{"top":[["TATDN3_128387",0.1931294554716636,-3.4404621751939404,337],["C19orf71_100128569",0.20396749329298317,-3.787400072044992,337],["TCEAL1_9338",0.1758286844532185,-2.761412730729465,315],["THTPA_79178",0.19262819192207944,-3.424858262648709,337],["ZNF354A_6940",0.18233881220538278,-3.113093364295123,337],["HSF2_3298",0.17833200828821202,-2.996056627327068,337],["LPGAT1_9926",0.1869947502251859,-3.252157265803599,337],["ZNF560_147741",0.18190777082326925,-3.100386007981349,337],["CBLN3_643866",0.18288138135697196,-3.1291287733658444,337],["TESK1_7016",0.22362667304199635,-4.464150119961139,337]],"bottom":[["LVRN_206338",-0.23765291356353097,-4.985316701447983,337],["CADM3_57863",-0.1761603308256492,-2.933637117547245,337],["STX18_53407",-0.17865650382515383,-3.005444548227013,337],["CFAP77_389799",-0.16782319893087985,-2.700576899905018,337],["TMEM95_339168",-0.17635164782315346,-2.939107509757635,337]]},"para":{"top":[["TATDN3_128387",0.23087238032053528,-4.729329276270468,337],["CGB7_94027",0.19482124656269073,-3.4934133500063633,337],["ZNF366_167465",0.20215610838862397,-3.708855596099545,335],["ZNF560_147741",0.20502364465071946,-3.822192407563793,337],["C19orf71_100128569",0.23983597341292975,-5.069361116613507,337],["THTPA_79178",0.22150837303503307,-4.388242982980071,337],["UCK1_83549",0.21789734213610434,-4.2605212102968695,337],["LEKR1_389170",0.21332066828865137,-4.101662618670241,337],["HSF2_3298",0.2033155860465648,-3.766012259934451,337],["ECT2L_345930",0.1941214907281354,-3.471458004280946,337],["SSTR1_6751",0.19391492814018046,-3.4649914603748995,337],["CBLN3_643866",0.19375684747864302,-3.460047131235099,337],["TESK1_7016",0.24140594797010342,-5.130295535942727,337],["LXN_56925",0.22296985555572657,-4.440535749686184,337]],"bottom":[["TP73_7161",-0.17101107173283417,-2.788466139782874,337],["LVRN_206338",-0.24960017458050116,-5.455072265117006,337],["CDHR3_222256",-0.19719526933534445,-3.5684664970677575,337],["CDC42BPG_55561",-0.17504238706386077,-2.901781440895964,337],["TNFAIP1_7126",-0.17719851854329763,-2.9633885683510046,337],["CEBPD_1052",-0.1742400887074748,-2.879035766966933,337],["DNAJC30_84277",-0.17173094305100461,-2.808522512135854,337],["MS4A8_83661",-0.18081615635371215,-3.068330749007324,337],["TACC2_10579",-0.17746764925708083,-2.9711275802155646,337]]}}}
{"drive":{"corr":{"top":[["EIPR1_7260",0.23188665745170514,-3.727860301313301,255],["OR2AT4_341152",0.22128064964656874,-3.3615183382694496,249],["SKIL_6498",0.20306609519663396,-3.0234754529584715,262],["HLA-A_3105",0.22475882739902553,-3.5151778216421046,254],["KRTAP5-4&KRTAP5-7_387267&440050",0.20583072879713696,-2.9835959196499227,251]],"bottom":[["SUDS3_64426",-0.21762894633098748,-3.3326767563018085,255],["HIPK1_204851",-0.22931332735230894,-3.7046527003773724,259],["S100A9_6280",-0.21167137524446175,-3.110554529276067,249]]},"para":{"top":[["CDH3_1001",0.19890870027836552,-2.793805991823672,249],["GRK5_2869",0.20800875293361365,-3.152320969073244,262],["CD300LF_146722",0.21288063501420967,-3.141542220233828,249],["KANSL1_284058",0.21481318822259832,-3.191418475820275,249],["CACNA1E_777",0.21929567110695866,-3.3317357336176485,251],["CYP19A1_1588",0.21508950492302742,-3.1985854374824054,249],["HLA-A_3105",0.2011502238748016,-2.8966914004884674,254],["PHKG1_5260",0.23637570582018935,-3.7778764662827204,249]],"bottom":[["NKX2-2_4821",-0.22201248451120753,-3.4515402961554034,255],["HDAC5_10014",-0.22274661657218967,-3.471674499274463,255],["S100A9_6280",-0.23444113786960066,-3.722985565084626,249],["MBD5_55777",-0.27196807532014344,-4.975495182652963,255]]}}}
{"achilles":{"corr":{"top":[["SLC1A5_6510",0.22798234156947803,-3.6789110117310564,260],["BCL2L14_79370",0.21635636562406715,-3.354400794223748,260]],"bottom":[["NEK2_4751",-0.26700111583588226,-4.893797992762867,260],["ALDH1A3_220",-0.24980426414710308,-4.333987738323081,260],["IAH1_285148",-0.24008491195349974,-2.5955794557565093,156],["LAIR2_3904",-0.2240801993427585,-3.5681228914306278,260]]},"para":{"top":[["LTBR_4055",0.25719661001892713,-4.569839636760827,260],["IL1RL2_8808",0.22717361043957682,-3.655793663080889,260]],"bottom":[["NEK2_4751",-0.295703090129205,-5.917407844021142,260],["IAH1_285148",-0.2887895098324352,-3.5917668603114463,156],["MAPK8IP1_9479",-0.2254668215174395,-3.6072738172808023,260]]}}}
{"ccle_rrbs_tss1kb":{"corr":{"top":[["NFE2L1_17_46124685_46125685",0.19829333766956966,-4.222598202328229,404]],"bottom":[["ADPRHL2_1_36553452_36554452",-0.1955721030198207,-4.191472349534422,412],["SIX1_14_61116155_61117155",-0.19250360368893676,-3.970929493868073,400],["LOC101928358_23_107978769_107979769",-0.19628320989818776,-4.173626155620213,407],["NKX6-1_4_85419387_85420387",-0.19816727149059338,-4.282094700180996,411],["TSEN2_3_12524930_12525930",-0.1844731874885378,-3.5148042677946036,379],["GPER1_7_1125442_1126442",-0.1888255392863499,-3.231594331973624,328],["SGIP1_1_66998251_66999251",-0.27976876654504,-2.5508425568691977,112]]},"para":{"top":[],"bottom":[["ZNF815P_7_5861790_5862790",-0.1869637735675509,-3.8450187809933567,409],["AMMECR1L_2_128642434_128643434",-0.18723985168287285,-3.7727239258673806,399],["P2RY1_3_152551481_152552481",-0.2525197395229563,-5.185333184077392,311],["DSC3_18_28622781_28623781",-0.1955082416634748,-4.162203895861207,409],["LOC101927418_14_45381120_45382120",-0.1873016062275039,-3.7501821047826103,396],["DNTTIP1_20_44419575_44420575",-0.2502640087333547,-2.0774540423148684,110],["SGIP1_1_66998251_66999251",-0.2639768695755024,-2.308263778008657,112]]}}}
{"ccle_gene_tpm":{"corr":{"top":[["SPINK6_ENSG00000178172.2",0.1626700812027052,-3.367982931117903,465],["RP11-452J6.2_ENSG00000228955.2",0.22070859253461875,-5.812341637912609,465],["LRRC3-AS1_ENSG00000229356.1",0.16420358914337121,-3.423349690878215,465],["RN7SL79P_ENSG00000239595.2",0.15266002201247858,-3.018443271942251,465]],"bottom":[["RP11-116D2.1_ENSG00000261012.2",-0.18638054301919335,-4.27899487675894,465],["RP4-543J13.1_ENSG00000232895.2",-0.20564867254531885,-5.107729185803142,465],["AP006285.6_ENSG00000227306.1",-0.1879174157689642,-4.34214975642697,465],["RN7SKP25_ENSG00000199319.1",-0.18361005044553294,-4.166422633164424,465],["None_ENSG00000272980.1",-0.18063798266726525,-4.047477874901027,465],["CPLX1_ENSG00000168993.10",-0.19175965202289158,-4.502258230880924,465],["OR7E111P_ENSG00000231667.1",-0.1933271624963536,-4.56849112710671,465]]},"para":{"top":[["RP11-498M15.1_ENSG00000257515.1",0.16027927561374244,-3.2826312878306614,465],["RP5-921G16.2_ENSG00000241324.1",0.1797096530828908,-4.010709688800034,465],["RP11-452J6.2_ENSG00000228955.2",0.1828522150525965,-4.1359149763539165,465],["KCNK18_ENSG00000186795.1",0.16655929203870146,-3.509349351139659,465],["NIPAL4_ENSG00000172548.10",0.16922083528723952,-3.607900459184001,465],["RP4-680D5.9_ENSG00000271742.1",0.1754163717483245,-3.8430363132413725,465]],"bottom":[["GCNT1P4_ENSG00000219653.1",-0.15730716525715427,-3.178165033411539,465],["SLC25A18_ENSG00000182902.9",-0.16148672221201088,-3.325589928105517,465],["AC019050.1_ENSG00000233428.1",-0.1611119480750587,-3.3122240699146794,465],["RP11-672L10.1_ENSG00000259837.1",-0.15962960466257864,-3.259641294127713,465],["RP11-372E1.4_ENSG00000243818.4",-0.1568219697157278,-3.1612828339988184,465],["PSPH_ENSG00000146733.9",-0.15559872097236377,-3.1189339487362755,465],["DHFRP1_ENSG00000188985.5",-0.15685119317733914,-3.162298290714914,465],["AP006285.6_ENSG00000227306.1",-0.15590489902210583,-3.1295051578694633,465],["RN7SKP25_ENSG00000199319.1",-0.17647473242428602,-3.884009247462374,465],["RP11-420M1.2_ENSG00000259180.1",-0.1634466881495139,-3.395961332951446,465],["RP11-118E18.4_ENSG00000263499.1",-0.1855015910738799,-4.2431032582110335,465],["DHFR_ENSG00000228716.2",-0.16060417232379126,-3.29416099374466,465]]}}}
{"ccle_rrbs_tss_clusters":{"corr":{"top":[["TBC1D22A_6",0.27849542639615754,-3.9073088041860427,185]],"bottom":[["ANKRD20A2_3",-0.29895292869153145,-3.346667313453318,134],["KARS_1",-0.25167377275874236,-3.245318645990761,184],["HEPN1_2",-0.23910430424792803,-5.94749586520342,405],["FBXW9_1",-0.24306506025292018,-2.7664869005463646,164],["LRRC49_1",-0.2639357590201183,-4.955500621274371,270]]},"para":{"top":[["LINGO1_7",0.26158417496557573,-4.194560564270533,228],["TBC1D22A_6",0.2605924950864355,-3.468138636842025,185],["RASGEF1B_3",0.1974400498860304,-3.3547399274170657,313],["MGAT4B_3",0.20764170501507684,-4.2938955633969815,375]],"bottom":[["LINC01570_2",-0.22764197246314777,-3.0875513391011014,213],["NBL1_6",-0.21612806465442555,-3.9018085631742627,310],["ZBTB45_3",-0.2220637188585517,-3.182144042337162,232],["C3orf67_1",-0.22387763601192798,-4.048877484324767,301],["KARS_1",-0.22912265691430392,-2.7552498814385706,184],["HEPN1_2",-0.23427322397278272,-5.72727904777996,405],["KIF6_3",-0.22301788551650087,-4.803205248800382,368]]}}}
{"ccle_rrbs_cgi_clusters":{"corr":{"top":[],"bottom":[["1_220101640_220104147-3",-0.28314910501014917,-2.8417068276579025,124],["9_43131116_43133980-3",-0.29895292869153145,-3.346667313453318,134],["10_130006558_130009089-3",-0.28520266147571427,-2.6978664551836538,115],["6_100058979_100061818-3",-0.2531400890264458,-3.6936740583896914,211],["15_71143995_71148820-1",-0.2639357590201183,-4.955500621274371,270],["16_75679264_75681922-1",-0.25167377275874236,-3.245318645990761,184],["10_22538707_22541723-2",-0.3206065183677679,-3.3213138956179207,115]]},"para":{"top":[["12_54770687_54775028-1",0.200128687930052,-4.320767158204404,407],["4_82390610_82395426-3",0.1974400498860304,-3.3547399274170657,313]],"bottom":[["16_85527839_85532128-3",-0.2539583919133093,-3.3905963625032047,190],["5_94953630_94956437-3",-0.2795898261706423,-2.4898838059501136,109],["10_130006558_130009089-3",-0.3289963952653885,-3.480641854049509,115],["9_116109663_116114189-3",-0.299185951794403,-3.677557344996678,149],["3_50602905_50607359-3",-0.2343768368004064,-3.3150063662827365,218],["10_22538707_22541723-2",-0.3584225830479588,-4.076586830479978,115]]}}}
