{"depmap_hotspot":{"corr":{"top":[["CNOT8",0.1481401870712716,-2.7679147162561573,8.0,438.0],["OR1E2",0.10229517353790463,-1.5117788008368478,14.0,432.0],["POLR2D",0.1175582732358392,-1.886742874054151,8.0,438.0],["PRPH2",0.11610735610205314,-1.849276082329298,10.0,436.0]],"bottom":[["ACAD11",-0.15147763827914604,-2.8748528655036756,25.0,421.0],["APEH",-0.17498148306277125,-3.689842334141607,15.0,431.0],["ARV1",-0.16188404723124772,-3.2222278182734247,9.0,437.0],["C12orf66",-0.15179388972733965,-2.8850981354522944,15.0,431.0],["C9orf91",-0.15049309298173205,-2.8430818446917607,9.0,437.0],["CIB3",-0.18587946078969392,-4.105224338364495,8.0,438.0],["CKAP5",-0.19152715581898933,-4.330029443834096,53.0,393.0],["CLASP2",-0.14990240660750032,-2.8241107474692644,39.0,407.0],["CNGB1",-0.1491556126292741,-2.8002226438012916,35.0,411.0],["COL4A4",-0.15153488417640398,-2.8767059619140665,49.0,397.0],["CPT1A",-0.14783638179006514,-2.7582872195175367,23.0,423.0],["DMTN",-0.16169148318930474,-3.215606895961042,21.0,425.0],["DNAH10",-0.17218574847840826,-3.587151329330931,96.0,350.0],["EDEM3",-0.1496748775487051,-2.816821217791948,26.0,420.0],["ENOX1",-0.15131379589453434,-2.8695526697771214,19.0,427.0],["ESD",-0.14750134271930787,-2.7476905913019465,8.0,438.0],["GAS2L1",-0.17382976308600606,-3.6473479354744875,11.0,435.0],["GEMIN4",-0.15472535969824694,-2.980991788075046,23.0,423.0],["GOLGB1",-0.1929287931921349,-4.3868394347706126,67.0,379.0],["HS3ST6",-0.16216181137128413,-3.231791060494951,12.0,434.0],["IFNL3",-0.17052161576630714,-3.5267698589888017,12.0,434.0],["IGSF10",-0.16359818116821406,-3.2814874925600352,69.0,377.0],["IGSF5",-0.1514069594141464,-2.8725658106091267,21.0,425.0],["KATNBL1",-0.17211903584822494,-3.584720053410419,9.0,437.0],["KLHL17",-0.1737112690213227,-3.642991055052998,28.0,418.0],["LDB3",-0.1497681234489012,-2.8198073987574053,21.0,425.0],["LRFN1",-0.1543229565968362,-2.9677293428037532,28.0,418.0],["LRRC9",-0.1497050261898854,-2.8177865377417617,43.0,403.0],["MAFG",-0.1741436183152497,-3.658901641043001,8.0,438.0],["MANBA",-0.18779653124878318,-4.180797839164094,21.0,425.0],["METTL3",-0.15165285881984503,-2.8805269041933204,16.0,430.0],["MYL6B",-0.15380901976581207,-2.9508368706391828,10.0,436.0],["NOC2L",-0.1627273894394546,-3.2513106330831887,32.0,414.0],["PCCA",-0.15912454154523262,-3.1280455537959697,25.0,421.0],["PCDHGA7",-0.1670141184719959,-3.4013153852719573,44.0,402.0],["PDGFRA",-0.15785483042109993,-3.0852130784806664,43.0,403.0],["PPP1R16A",-0.16466188538712115,-3.318553190973792,25.0,421.0],["PRLR",-0.15020219479745517,-2.8337306081982425,27.0,419.0],["PTPN2",-0.14865576252231405,-2.7842939426356175,10.0,436.0],["PTPRN2",-0.16151674007746075,-3.209605039925927,49.0,397.0],["RAB32",-0.1490960780705649,-2.7983229240841108,8.0,438.0],["RCC1",-0.15608515658864733,-3.0260420165334714,14.0,432.0],["RHOF",-0.15337303996762217,-2.9365470986569395,8.0,438.0],["RNF208",-0.15773122738096404,-3.0810603431282684,10.0,436.0],["RPE65",-0.17334798557429423,-3.6296511526102653,24.0,422.0],["SCAP",-0.1946706701865636,-4.45800655688909,34.0,412.0],["SERPINB1",-0.15460253298476445,-2.9769403025968666,9.0,437.0],["SHC4",-0.16830130673710303,-3.447070038986563,19.0,427.0],["SLC25A15",-0.16535716715288853,-3.342902031030611,12.0,434.0],["SLC38A6",-0.15603150579001226,-3.024257713268416,14.0,432.0],["SPERT",-0.18505523617542216,-4.0729637250512205,18.0,428.0],["ST6GAL2",-0.1815970189626519,-3.9391192451564816,45.0,401.0],["TEX2",-0.14984310772082404,-2.822209975994205,37.0,409.0],["TP53BP2",-0.14962536833844042,-2.815236379547794,28.0,418.0],["UBE2O",-0.15710846775000512,-3.060182813076727,38.0,408.0],["VPS8",-0.16898365145750752,-3.4714586539049526,29.0,417.0],["WBP1",-0.17146065343875225,-3.5607737853746753,13.0,433.0],["WDR1",-0.1962543015491785,-4.5232548136959085,23.0,423.0],["ZBTB10",-0.15028768882721297,-2.83647720463675,39.0,407.0],["ZFP28",-0.15942721922359185,-3.1383028186292763,28.0,418.0]]},"para":{"top":[["ACPL2",0.11756631476119053,-2.180885653007244,8.0,438.0],["AGXT",0.11980650316699855,-2.23910797500099,11.0,435.0],["CNOT8",0.13593605144262655,-2.6825168952174736,8.0,438.0],["GPR32",0.10756395346269151,-1.93314212630556,14.0,432.0],["OR1E2",0.10836294290345427,-1.9523217300751206,14.0,432.0],["PRPH2",0.12615689755640924,-2.408207096431597,10.0,436.0],["SIGLEC9",0.11654194345877426,-2.1552430037895243,19.0,427.0],["SLC25A17",0.13619979394819454,-2.690700749216605,16.0,430.0],["STC2",0.11304717548053786,-2.0671474359593205,18.0,428.0]],"bottom":[["AARSD1",-0.12019613715533575,-2.249131303108344,9.0,437.0],["ANXA9",-0.11778106793892253,-2.1864998136130858,9.0,437.0],["ARL14",-0.12373329778995831,-2.342621186059284,8.0,438.0],["ARV1",-0.12799866846990166,-2.458520531393622,9.0,437.0],["ATG4A",-0.12445127982720841,-2.362070274244422,10.0,436.0],["ATP6V0E2",-0.11900965121473192,-2.2181375646926917,8.0,438.0],["B3GAT3",-0.1473665075406222,-3.0254696963714776,13.0,433.0],["B3GNT7",-0.14063744326936095,-2.820971335665799,13.0,433.0],["BTG1",-0.12163389931207992,-2.286808770010446,8.0,438.0],["C9orf91",-0.1447183784296856,-2.9437101457219432,9.0,437.0],["CIB3",-0.14577698180768153,-2.976003472327051,8.0,438.0],["ELP3",-0.13403347157204926,-2.6277773422913535,8.0,438.0],["ESD",-0.13777302511077016,-2.7359829160721696,8.0,438.0],["FAM73B",-0.14992166487545752,-3.105366712297505,15.0,431.0],["GAL3ST2",-0.16020945953347054,-3.4385704175526692,15.0,431.0],["GAS2L1",-0.15085289316294528,-3.1344910956526006,11.0,435.0],["HS3ST6",-0.1530456720227291,-3.204345187665653,12.0,434.0],["IFNL3",-0.13964610369162517,-2.791470989809424,12.0,434.0],["INPP5K",-0.12777863224371547,-2.4526267808696716,11.0,435.0],["KATNBL1",-0.14614265001885235,-2.9873573740594077,9.0,437.0],["KRTAP4-5",-0.11559812868817951,-2.1306779864244776,8.0,438.0],["LYN",-0.1433298981187195,-2.9016861569129504,11.0,435.0],["LYNX1",-0.1157375478327267,-2.1343054859397035,9.0,437.0],["MAFG",-0.14754834927339144,-3.0306794708077254,8.0,438.0],["MYL5",-0.12884532557088177,-2.4820505231751486,11.0,435.0],["MYL6B",-0.15256456515679517,-3.1888008507261016,10.0,436.0],["NIPAL3",-0.1289211745658038,-2.4840764353882303,10.0,436.0],["OLA1",-0.1381648567450719,-2.747743209272767,11.0,435.0],["OPRL1",-0.13856696195512666,-2.759684966936682,13.0,433.0],["OR10AD1",-0.12898946609714806,-2.4858817975989553,9.0,437.0],["OR2F1",-0.17365590778750553,-3.90313710490763,16.0,430.0],["OR2W1",-0.1284506593301622,-2.471066673141906,10.0,436.0],["OSTM1",-0.12058420007314075,-2.259194525600265,8.0,438.0],["RAB32",-0.13541120182315694,-2.667351732920383,8.0,438.0],["RAB40B",-0.13604889919127908,-2.685890602084685,9.0,437.0],["RCC1",-0.14666449922002087,-3.003811090811821,14.0,432.0],["RHOF",-0.14354637092493575,-2.907955830021945,8.0,438.0],["RNASE12",-0.11415479223463812,-2.094291271683648,8.0,438.0],["RNF208",-0.1266862271965061,-2.422630274856099,10.0,436.0],["SERPINB1",-0.1481861701250482,-3.050619917166933,9.0,437.0],["SHC4",-0.1673323279924169,-3.6807057463942594,19.0,427.0],["SIRPD",-0.10916872084967691,-1.9713974806943526,8.0,438.0],["SLC25A15",-0.158319397711276,-3.375734304232488,12.0,434.0],["SNX6",-0.13401036694452934,-2.6273872316961424,11.0,435.0],["SP7",-0.13372661567386843,-2.6193459131450916,12.0,434.0],["SPERT",-0.16609749383715816,-3.6380577166748584,18.0,428.0],["ST13",-0.12552167440178547,-2.3908798611934876,9.0,437.0],["TMEM173",-0.14212152595359617,-2.865311777758392,12.0,434.0],["UBE2R2",-0.12861791698693067,-2.4756008804213674,9.0,437.0],["WBP1",-0.178009630991289,-4.060437700591411,13.0,433.0],["WTIP",-0.14002279838366424,-2.802636713378908,12.0,434.0],["XRCC4",-0.13944895296328505,-2.7854894415230045,10.0,436.0],["ZNF24",-0.13715519118953212,-2.718131221581163,10.0,436.0],["ZNF511",-0.12812251817330744,-2.461931151265533,9.0,437.0]]}}}
{"depmap_damaging":{"corr":{"top":[],"bottom":[["ASPM",-0.1380167002371944,-2.456651278991973,22.0,424.0],["COL14A1",-0.13801576991404438,-2.4566235745253686,16.0,430.0],["DDX60",-0.14334165483785444,-2.617927794734382,14.0,432.0],["DNAH7",-0.15274653385479428,-2.91607739203603,28.0,418.0],["HIVEP1",-0.13757899322621553,-2.4436347885957987,16.0,430.0],["IQSEC1",-0.1482964018670726,-2.7728720541287437,9.0,437.0],["MAP4K4",-0.13479073145525633,-2.36157076681098,9.0,437.0],["N4BP2",-0.1632676572559175,-3.2700156971235286,14.0,432.0],["NOBOX",-0.1867558176159177,-4.139678004559568,10.0,436.0],["NRD1",-0.1556670193226416,-3.0121506208035767,9.0,437.0],["NUP98",-0.11838263318208885,-1.908202388952476,8.0,438.0],["PCNT",-0.132219621711019,-2.287200696051354,13.0,433.0],["TBC1D32",-0.1499031609233623,-2.8241349307591785,13.0,433.0],["TENM3",-0.1562719126460412,-3.032257487083492,16.0,430.0],["TTC37",-0.13267839137853138,-2.300379361858421,9.0,437.0],["WBP1",-0.1573017661986672,-3.066654860157343,9.0,437.0],["ZFHX3",-0.14675563561219984,-2.7241830658538353,23.0,423.0],["ZMYM1",-0.15775236033563622,-3.081770142260067,13.0,433.0],["ZNF609",-0.13852261717920433,-2.4717415555846802,21.0,425.0]]},"para":{"top":[],"bottom":[["HDAC4",-0.1035921936428124,-1.8390828637079613,8.0,438.0],["HDAC5",-0.10962796426671281,-1.9825350870832803,8.0,438.0],["HIVEP1",-0.1417245707394929,-2.8536064011445728,16.0,430.0],["IFIH1",-0.11835358919039492,-2.201159420582589,8.0,438.0],["IQSEC1",-0.16824982207678893,-3.7118906051395273,9.0,437.0],["KIF1B",-0.11838976035513497,-2.2023981029148967,12.0,434.0],["LONP2",-0.13055356319534847,-2.5298114741540605,15.0,431.0],["MAP4K4",-0.12651247202903193,-2.4178055104931047,9.0,437.0],["MYO16",-0.1291524658419655,-2.490624764261406,12.0,434.0],["N4BP2",-0.1398730889735371,-2.798311022230005,14.0,432.0],["NOBOX",-0.17773713026362184,-4.050221729304861,10.0,436.0],["NRD1",-0.15815607124921566,-3.370083510412374,9.0,437.0],["PCNT",-0.14684888721206366,-3.0094497496483843,13.0,433.0],["TENM3",-0.1430823548661679,-2.8944806583483556,16.0,430.0],["TPO",-0.14260584770050355,-2.879887556526361,12.0,434.0],["TTC37",-0.11976266319341544,-2.2378140858768973,9.0,437.0],["VWDE",-0.11914086361959934,-2.2215422896534243,8.0,438.0],["WBP1",-0.1603234410588173,-3.4419152972061786,9.0,437.0],["ZBTB10",-0.11771914308721963,-2.184907381001365,9.0,437.0],["ZMYM1",-0.14239735238646,-2.8736694278326014,13.0,433.0]]}}}
{"ccle_rrbs_enhancer_clusters":{"corr":{"top":[],"bottom":[["10-103527793-103530393-1_enh",-0.18598952583502298,-3.4103749452532535,360],["10-130832316-130835175-0_enh",-0.23785059158166397,-4.021211661800947,264],["18-76007648-76010476-1_enh",-0.18788034837103063,-3.4294705012912186,355]]},"para":{"top":[],"bottom":[["6-41378559-41383515-1_enh",-0.18429553411602395,-3.516896185207251,380],["16-86428087-86432726-0_enh",-0.20396609217848224,-3.9636282754747656,355],["19-30572387-30577360-2_enh",-0.20301356780969868,-3.6491275040848046,326],["10-130832316-130835175-0_enh",-0.23695167680147136,-3.994007084709003,264]]}}}
{"ccle_mirna":{"corr":{"top":[],"bottom":[["hsa-miR-484_miR00385.1",-0.16381919380795107,-3.2257538280030214,436],["hsa-miR-499-5p_miR00406.1",-0.14745791992477023,-2.694340071000064,436]]},"para":{"top":[],"bottom":[["hsa-miR-484_miR00385.1",-0.1491679594336944,-2.747499854196672,436]]}}}
{"prism_primary_logfold":{"corr":{"top":[],"bottom":[["mdivi-1_BRD-K61128465-001-09-9::2.5::HTS",-0.16905841962528492,-3.487594110448716,448],["GDC-0152_BRD-K68938568-001-01-7::2.5::HTS",-0.17123504422431363,-3.5870587909444525,451]]},"para":{"top":[],"bottom":[]}}}
{"prism_secondary_logfold":{"corr":{"top":[["deflazacort_BRD-K96006502-001-02-6::0.0390625::HTS002",0.41920937756740045,-19.979308021494244,453]],"bottom":[["AVL-292_BRD-K87782578-001-01-4::0.00977::MTS010::PROS001_PR500",-0.19354725830833178,-4.289658345959065,432],["indirubin_BRD-K17894950-001-14-3::2.5::MTS010::PROS002_PR500",-0.18195524849008315,-3.704384896994416,414],["LCL-161_BRD-K08248804-001-01-8::2.5::HTS002",-0.17884985149192195,-3.699430440835663,428],["birinapant_BRD-K71221037-001-01-6::0.0390625::HTS002",-0.22357846679890517,-5.732363463508373,446],["LCL-161_BRD-K08248804-001-01-8::0.15625::HTS002",-0.20219420345703348,-4.601291865402226,428],["LCL-161_BRD-K08248804-001-01-8::0.0390625::HTS002",-0.2040020557485219,-4.6465675764715195,425],["anagrelide_BRD-K62200014-003-10-5::0.625::MTS010::PROS001_PR500",-0.18732897824803135,-4.047426305963748,432],["anagrelide_BRD-K62200014-003-10-5::2.5::MTS010::PROS001_PR500",-0.1825091251224033,-3.8649543325763904,432],["GDC-0152_BRD-K68938568-001-01-7::0.625::HTS002",-0.2198389194150999,-5.4901857378821575,440],["birinapant_BRD-K71221037-001-01-6::0.00976562::HTS002",-0.18681936858859868,-4.142182609677684,446],["LCL-161_BRD-K08248804-001-01-8::0.625::HTS002",-0.20450018273997264,-4.667035308809924,425],["ebastine_BRD-K13314656-001-01-0::0.625::HTS002",-0.18347766259460677,-4.0194791532049905,447]]},"para":{"top":[],"bottom":[["AVL-292_BRD-K87782578-001-01-4::0.00977::MTS010::PROS001_PR500",-0.16228799806978708,-3.14890407493103,432],["LCL-161_BRD-K08248804-001-01-8::0.15625::HTS002",-0.18130226913191783,-3.7891368197725073,428],["LCL-161_BRD-K08248804-001-01-8::0.0390625::HTS002",-0.19197548168062023,-4.167402604777959,425],["GDC-0152_BRD-K68938568-001-01-7::0.625::HTS002",-0.21645388492352977,-5.336494882292533,440],["LCL-161_BRD-K08248804-001-01-8::2.5::HTS002",-0.17515834876785177,-3.56659871558777,428]]}}}
{"ccle_proteomics":{"corr":{"top":[["PABPC4_Q13310-3",0.23369731820559914,-3.454834449890438,230],["KYNU_Q16719",0.23210428793394475,-3.348997193821027,225],["CLIC6_Q96NY7",0.30102847700016766,-2.7208389246967464,104],["MOCOS_Q96EN8",0.21484772072766214,-2.6366696591129895,199],["KIAA1467_A2RU67",0.24404436346874042,-3.2322689551650132,195],["FMNL1_O95466-2",0.22332074266434415,-3.1898208349607273,230]],"bottom":[["AXIN1_O15169",-0.22344658653823674,-2.553853227053404,177],["PALM3_A6NDB9",-0.2962259888810979,-4.077919543560551,171]]},"para":{"top":[["PABPC4_Q13310-3",0.22129011848134258,-3.13934234129461,230],["KYNU_Q16719",0.2343146530019273,-3.405405280660007,225],["DNAJC12_Q9UKB3",0.24407019411574338,-2.6410784808167644,154],["NAMPT_P43490",0.24101923643568796,-3.64903082193765,230],["MOCOS_Q96EN8",0.22226409836483912,-2.7948733851069703,199]],"bottom":[["FAM89B_Q8N5H3",-0.22419804062871276,-2.568542354200549,177]]}}}
{"depmap_copy_number":{"corr":{"top":[["OR4K13_390433",0.16444927384657138,-3.3111266412775335,446],["OR4Q2_390432",0.16444927384657138,-3.3111266412775335,446],["OR4K14_122740",0.16444927384657138,-3.3111266412775335,446]],"bottom":[["LOC388242_388242",-0.20020024800036057,-4.688107285618741,446],["NPIPB11_728888",-0.20589175011898192,-4.931632555101251,446],["SLX1B-SULT1A4_100526831",-0.20020024800036057,-4.688107285618741,446],["BOLA2-SMG1P6_107282092",-0.20020024800036057,-4.688107285618741,446],["SLX1A_548593",-0.20020024800036057,-4.688107285618741,446],["SLX1A-SULT1A3_100526830",-0.20020024800036057,-4.688107285618741,446],["BOLA2B_654483",-0.20020024800036057,-4.688107285618741,446],["SMG1P6_100422558",-0.20020024800036057,-4.688107285618741,446],["RRN3P2_653390",-0.2078339035235887,-5.016295486439559,446],["SPNS1_83985",-0.21172395509872619,-5.1882782699327565,446],["NFATC2IP_84901",-0.21172395509872619,-5.1882782699327565,446],["MIR4517_100616487",-0.21172395509872619,-5.1882782699327565,446],["LOC606724_606724",-0.20020024800036057,-4.688107285618741,446],["CD19_930",-0.2065964272844383,-4.962258808433864,446],["LAT_27040",-0.21172395509872619,-5.1882782699327565,446],["SULT1A4_445329",-0.20020024800036057,-4.688107285618741,446]]},"para":{"top":[],"bottom":[["ALDOA_226",-0.17831170579215136,-3.8142199313019542,446],["C16orf92_146378",-0.17831170579215136,-3.8142199313019542,446],["IL27_246778",-0.18143971252222096,-3.9330889007119434,446],["PPP4C_5531",-0.17831170579215136,-3.8142199313019542,446],["DOC2A_8448",-0.17831170579215136,-3.8142199313019542,446],["APOBR_55911",-0.18143971252222096,-3.9330889007119434,446],["LOC112694756_112694756",-0.17831170579215136,-3.8142199313019542,446],["NFATC2IP_84901",-0.176993316470217,-3.764712826947942,446],["SPNS1_83985",-0.176993316470217,-3.764712826947942,446],["MIR4517_100616487",-0.176993316470217,-3.764712826947942,446],["CLN3_1201",-0.1781893192055389,-3.8096093686368886,446],["NPIPB6_728741",-0.1781893192055389,-3.8096093686368886,446],["CLEC19A_728276",-0.17764945495429585,-3.7893076953462184,446],["SBK1_388228",-0.17878968949139376,-3.832255633039426,446],["SLC5A11_115584",-0.18252532119866216,-3.974808249004195,446],["FAM57B_83723",-0.17831170579215136,-3.8142199313019542,446]]}}}
{"depmap_gene_tpm":{"corr":{"top":[["PLEKHF1_79156",0.19042670970520192,-4.277247710301173,445]],"bottom":[["POU5F1B_5462",-0.21135912422142167,-5.161637371144976,445],["TRIM66_9866",-0.1919996202641111,-4.340533619495991,445],["EIPR1_7260",-0.1855772191655016,-4.085326989154675,445],["VSIG10_54621",-0.1815296744562062,-3.9288213497272317,445],["NDUFAF7_55471",-0.2137251804332975,-5.2674060390627275,445],["GDF9_2661",-0.19896205934518368,-4.6268114155333215,445],["POU5F2_134187",-0.18461983905932358,-4.048006921762811,445],["REXO5_81691",-0.20767459748072042,-4.99929818515062,445],["ERI2_112479",-0.20068554408251169,-4.699232939476524,445],["NUDT7_283927",-0.18642018583965014,-4.118341972198578,445],["EFCC1_79825",-0.18370419980329422,-4.012488793294648,445],["SPRYD4_283377",-0.1865879804900653,-4.124931018300065,445],["SFT2D3_84826",-0.1978775505018289,-4.581557464340723,445]]},"para":{"top":[["CLMP_79827",0.21062380816488774,-5.129009550356908,445],["C3orf80_401097",0.2104583014853431,-5.121681439762743,445],["PLEKHF1_79156",0.19908678759032725,-4.632031740038951,445],["SPATA4_132851",0.20794312894517156,-5.0110324516368285,445]],"bottom":[["EIPR1_7260",-0.18223634289390353,-3.95590587073883,445],["REXO5_81691",-0.1973453707839777,-4.559440439867794,445],["ERI2_112479",-0.1929104826720025,-4.377415274624554,445],["EFCAB5_374786",-0.18881531654426714,-4.212941221359605,445],["CELF5_60680",-0.18699648344091577,-4.140996394326499,445],["NUDT7_283927",-0.1870424917777057,-4.142807923537121,445],["TTC16_158248",-0.19829244844417945,-4.5988412263745015,445],["MYO1A_4640",-0.19986158983840724,-4.664532683565319,445],["SPRYD4_283377",-0.19570637862782303,-4.491694834541625,445]]}}}
{"avana":{"corr":{"top":[["UQCRQ_27089",0.18810491524111794,-3.1007777834850594,315],["SMCO3_440087",0.20769075309586993,-3.6869992168616164,315],["SLC9A6_10479",0.19164969532878645,-3.027711906928147,295],["VIPAS39_63894",0.19874394478046994,-3.412295274701687,315],["MMP13_4322",0.18650449174295677,-3.0553235101301355,315],["ACAP3_116983",0.19466850524317042,-3.291033637319098,315],["LRP6_4040",0.2017884816822094,-3.5044591933691893,315],["CDH7_1005",0.19747633833342285,-3.374320443389632,315],["SLC31A2_1318",0.18914963031712467,-3.13064662412955,315],["UROD_7389",0.1856233820809692,-3.0304546991864934,315]],"bottom":[["CHRNE_1145",-0.19252432242052606,-3.228199732321282,315],["ARTN_9048",-0.18480813926527778,-3.007543394268486,315],["ANKIB1_54467",-0.17885952324444562,-2.8432179730274756,315],["CFAP57_149465",-0.17736129469371356,-2.802618091597471,315],["HDAC5_10014",-0.19486439201945596,-3.296807059968089,315],["OR4X1_390113",-0.17749506482689245,-2.8062302436420428,315],["TRMT112_51504",-0.21743911565500135,-3.9997773818485802,315]]},"para":{"top":[["MOB2_81532",0.1914851731664046,-3.1979864505481466,315],["PACSIN2_11252",0.1889046567577128,-3.1236287096513355,315],["VIPAS39_63894",0.19721006304642125,-3.3663730599225334,315],["SDHA_6389",0.20838742782347328,-3.708883805134562,315],["LRP6_4040",0.2111863959076272,-3.7975317043597525,315],["PSMC1_5700",0.1971906461232646,-3.3657939354317943,315],["SDHC_6391",0.18828668467726742,-3.1059634280855097,315],["ACAP3_116983",0.19924407529797722,-3.4273424232673504,315],["CDH7_1005",0.19949127087358925,-3.4347931069326387,315],["GLB1_2720",0.20333297275715043,-3.5517316555140526,315],["UROD_7389",0.1959374715358417,-3.328532686924836,315],["WDR27_253769",0.19435456972515608,-3.28179249694825,315]],"bottom":[["ANKIB1_54467",-0.1975694991348058,-3.3771033971510986,315],["RHBDD2_57414",-0.19113169029018148,-3.187744326890143,315],["HDAC5_10014",-0.199235572146583,-3.42708628941292,315],["WSCD1_23302",-0.1874843967449868,-3.083110777453194,315],["UBE3D_90025",-0.21302198723027718,-3.8562993885397905,315],["SPEM1_374768",-0.18382306008284022,-2.9799851348007658,315],["TRMT112_51504",-0.18150672277016064,-2.915726411465266,315],["HARBI1_283254",-0.1849579080926665,-3.011745356735382,315]]}}}
{"drive":{"corr":{"top":[["UHMK1_127933",0.2446472014730708,-3.790233402156734,233],["P4HTM_54681",0.22692053382380317,-3.366560559945975,237],["NPPA-AS1_100379251",0.22313170585690395,-3.2208624385516114,233],["TBC1D2_55357",0.21699036912237146,-3.045236886194024,231],["SNRPB_6628",0.21418849179779886,-2.977347890433417,231],["CIAO1_9391",0.22274652436367334,-3.3060461234064444,241],["PECAM1_5175",0.2324712053004386,-3.461605504246388,233],["WRAP73_49856",0.25442047653488176,-4.235308537060951,244],["LRP1B_53353",0.22738810140546406,-3.4281278776652195,241]],"bottom":[["TTL_150465",-0.20433982548206014,-2.745414371167098,231],["SYNRG_11276",-0.23102304575796206,-3.3981474099908118,231],["PPP2R1A_5518",-0.2368276826091876,-3.577249652361249,233]]},"para":{"top":[["NAT8B_51471",0.21769345627409997,-3.1192154419256624,236],["P4HTM_54681",0.2397758621350265,-3.7114863590870653,237],["OR52I2_143502",0.22841515537034576,-3.393237889677635,236],["NPPA-AS1_100379251",0.22670486388393077,-3.3118182060377133,233],["CIAO1_9391",0.2263590780056429,-3.400848705089748,241],["SNRPB_6628",0.2239251656802965,-3.2169377559201315,231],["LRP1B_53353",0.2299902652391005,-3.4976569896031693,241],["PECAM1_5175",0.2992174538969078,-5.478445363515069,233],["WRAP73_49856",0.25298987850523047,-4.192335722860963,244],["UHMK1_127933",0.22397992581301313,-3.2423258730005826,233]],"bottom":[["PPP2R1A_5518",-0.2632007103751301,-4.323929120804103,233],["SRGAP2D_100996712",-0.2198240000152037,-3.1379235928734133,233],["SEMA6A_57556",-0.20210135202040055,-2.7926726034050606,241]]}}}
{"achilles":{"corr":{"top":[["USB1_79650",0.2684139610957153,-3.047299127077551,150],["EFCAB12_90288",0.22018860173119328,-2.168822667949749,150],["MYB_4602",0.21995578673935717,-3.314727609291984,248],["CIRBP-AS1_148046",0.3019104177075537,-3.7605813701495996,150],["FAM53A_152877",0.26356295326837054,-2.9512105742960446,150],["RTN1_6252",0.23979665955571058,-2.5057269255377332,150],["HASPIN_83903",0.2290749743744863,-3.5606064324136852,248],["PGBD4_161779",0.238557674391412,-2.483632111955486,150]],"bottom":[["WDR46_9277",-0.24770938896603187,-2.6494466673120365,150],["DSN1_79980",-0.2578353026278659,-2.8400363115370353,150],["C3P1_388503",-0.26842650190045303,-3.04754984499339,150],["CCDC102B_79839",-0.278699825620952,-3.256979470520968,150]]},"para":{"top":[["MAF_4094",0.2356118008684826,-3.7429581622397285,248],["CD28_940",0.22644721728321238,-3.488743436474574,248],["DPY19L2P1_554236",0.2339705496736283,-2.402785485147519,150],["CIRBP-AS1_148046",0.3237808748173713,-4.275265572650269,150],["CNIH4_29097",0.2740715784842276,-3.1616254698827246,150],["TARS_6897",0.22785202254672127,-3.5270592354893147,248],["HASPIN_83903",0.24036999819639226,-3.878936074390088,248],["FRS3_10817",0.22995835364121237,-3.5849497631946825,248],["USB1_79650",0.31355526912307213,-4.029649569683251,150]],"bottom":[["DND1_373863",-0.25760106530855764,-2.8355418868274587,150],["C3P1_388503",-0.2670358682608116,-3.0198208159678295,150],["SPATA32_124783",-0.2390576580897506,-2.4925350638463284,150],["FAR1_84188",-0.2374814102361711,-2.4645283941620124,150],["CCDC102B_79839",-0.26656852888452587,-3.010535062163771,150]]}}}
{"ccle_rrbs_tss1kb":{"corr":{"top":[["HSPB11_1_54411981_54412981",0.18329603678261266,-3.4835989742916196,380],["NCAPG2_7_158497522_158498522",0.20271149197239094,-4.248218821129529,389],["GON7_14_93673459_93674459",0.19239456486619083,-3.9061509632253473,393],["POLD3_11_74302574_74303574",0.22961227382581298,-2.727023844928221,181],["SMU1_9_33076714_33077714",0.18284508456431048,-3.476524229234348,381],["TLK2_17_60555128_60556128",0.19270012513293241,-3.8909915837099027,390],["SLC25A22_11_798269_799269",0.20082803365986682,-4.19687516660381,391],["PAICS_4_57300914_57301914",0.19341156309750304,-3.9340215373040532,392],["AP2S1_19_47354026_47355026",0.18551311874766235,-3.060171859786266,319],["MHENCR_20_62257587_62258587",0.19444761351488596,-3.9803280381581163,393]],"bottom":[["PKIA_8_79427335_79428335",-0.21497840596140708,-4.202243278227703,341],["CCR10_17_40833845_40834845",-0.27354377349720127,-7.168753187766094,377],["SNORD115-24_15_25457805_25458805",-0.24892057460466768,-3.880122409516142,231],["LOC729296_20_58661740_58662740",-0.214835611748056,-2.636415528763604,199],["PRR20B_13_57714051_57715051",-0.24669904348630636,-3.687823039538439,222],["RBFADN_18_77826255_77827255",-0.2841703991185665,-4.09162675361954,187]]},"para":{"top":[["GYG1_3_148708194_148709194",0.21181187573170604,-3.7221307069714817,306],["BCL2L1_20_30310901_30311901",0.1733888586233915,-3.248323410273396,392],["TTC37_5_94890709_94891709",0.18726455887072543,-3.2270199929830925,333],["PTDSS2_11_449279_450279",0.21599385771552615,-4.75111455261787,388],["SMU1_9_33076714_33077714",0.21751312236072162,-4.734507679257695,381],["SLC25A22_11_798269_799269",0.19249893964780895,-3.8925059931987622,391],["LOC441242_7_65235797_65236797",0.1898742530394283,-3.7568168633757453,386],["MHENCR_20_62257587_62258587",0.18141108573837225,-3.522238170208924,393]],"bottom":[["PKIA_8_79427335_79428335",-0.23541971080189555,-4.9520524389234835,341],["LDB3_10_88427320_88428320",-0.21288867913525125,-4.5330755177562185,379],["MAP3K7CL_21_30448791_30449791",-0.26494154228212863,-2.375007556426073,115],["MYBPHL_1_109849663_109850663",-0.20644538126514392,-4.429227917382327,393],["SNORD115-24_15_25457805_25458805",-0.23288933480447552,-3.446721660642738,231]]}}}
{"ccle_gene_tpm":{"corr":{"top":[["GAPDHP1_ENSG00000228232.1",0.22272208970369528,-5.634522046830039,441],["RP11-340B18.1_ENSG00000249500.1",0.199936075377457,-4.630432765001695,441],["GAPDHP65_ENSG00000235587.2",0.20558582846789414,-4.869228899388156,441],["RBMS1P1_ENSG00000225422.3",0.2008981842641439,-4.670629791427541,441],["RP11-466P24.2_ENSG00000254893.3",0.22215910557131394,-5.6083880841631855,441]],"bottom":[["GDF9_ENSG00000164404.4",-0.20559213185165673,-4.869499031820997,441],["RP4-798A10.7_ENSG00000261135.1",-0.20253093458276267,-4.739285320124039,441],["SNORD3A_ENSG00000263934.2",-0.24018971394956545,-6.47948488957858,441],["NDUFAF7_ENSG00000003509.11",-0.21616008153859506,-5.334117907117896,441],["ARL5B-AS1_ENSG00000152487.6",-0.21659842629478485,-5.353899016493983,441],["AC092338.5_ENSG00000230872.1",-0.23698494741032808,-6.3194692932763825,441],["RP11-266L9.6_ENSG00000263326.1",-0.21291671260460113,-5.18902052741232,441],["PCBP1-AS1_ENSG00000179818.9",-0.2206434436370996,-5.53836793714249,441],["POU5F1B_ENSG00000212993.3",-0.220710898449946,-5.54147374250696,441],["RP4-803J11.2_ENSG00000237481.1",-0.20631879909948822,-4.9006960686293635,441],["ERI2_ENSG00000196678.9",-0.20361404943931863,-4.785134629558681,441],["RP11-114I8.4_ENSG00000273488.1",-0.19893136743442014,-4.588660322295071,441],["AC004381.6_ENSG00000005189.15",-0.2122762608216602,-5.160631889422637,441],["None_ENSG00000261732.1",-0.2229361451942081,-5.6444764353381025,441],["AC079807.2_ENSG00000233230.1",-0.19890263193384786,-4.587468663119547,441]]},"para":{"top":[["PLEKHF1_ENSG00000166289.5",0.19644236071374777,-4.486072908478331,441],["RP13-143G15.4_ENSG00000237596.2",0.20328448997010082,-4.771158239345727,441],["COL5A1-AS1_ENSG00000204011.4",0.203586219342227,-4.783953500893911,441],["BCL3_ENSG00000069399.8",0.2106758627349739,-5.090070801338767,441],["SPATA4_ENSG00000150628.2",0.21072744117914263,-5.092336467758063,441],["RP4-779E11.3_ENSG00000230176.2",0.1998222407222098,-4.625689412749202,441],["RP11-818C3.1_ENSG00000250024.1",0.2142874148425142,-5.250069409534583,441],["TUBBP6_ENSG00000235207.1",0.1988001232416529,-4.583219024076396,441]],"bottom":[["RP4-798A10.7_ENSG00000261135.1",-0.19767827658128242,-4.53685305798109,441],["GDF9_ENSG00000164404.4",-0.19425040106406774,-4.396784217655948,441],["SNORD3A_ENSG00000263934.2",-0.22600553384542568,-5.788297933853071,441],["GUSBP12_ENSG00000169325.9",-0.2003930559242086,-4.649501575328813,441],["AC092338.5_ENSG00000230872.1",-0.20306104395275204,-4.761694896456746,441],["PCBP1-AS1_ENSG00000179818.9",-0.2297409079373662,-5.9660682151275735,441],["POM121L8P_ENSG00000229266.1",-0.19336419055136483,-4.360964573011839,441],["TTC16_ENSG00000167094.11",-0.20476424809996396,-4.834090903515227,441],["CTD-2501E16.2_ENSG00000259274.1",-0.19522409889691325,-4.436325651805888,441],["AC064834.1_ENSG00000224099.1",-0.196988621711425,-4.508478379762557,441],["MYO1A_ENSG00000166866.8",-0.20202294101704701,-4.717865423794906,441],["AC004381.6_ENSG00000005189.15",-0.20082224166919202,-4.667449933305577,441],["LAMTOR5-AS1_ENSG00000224699.4",-0.20367714712859736,-4.78781313622525,441]]}}}
{"ccle_rrbs_tss_clusters":{"corr":{"top":[["CLPTM1L_2",0.20036753380729003,-4.226711953916729,396],["HNRNPC_2",0.21047554678368002,-2.610374401931815,205],["SCGB1C1_2",0.21629186168271713,-2.8029544737544603,211],["GPS2_2",0.2238251846097712,-5.162002696372417,396],["CIAO3_1",0.22593210324335486,-5.251129074796435,396],["PTP4A1_3",0.22026657664974647,-2.892435292244619,211]],"bottom":[["NOD2_2",-0.3053584511629225,-3.3175855011115813,127],["CST11_2",-0.3127044722238955,-4.410847146012002,167],["LOC101928030",-0.3080540542962708,-5.041179515071371,200],["ATAD3C_3",-0.36141178928073503,-4.461134974674899,125],["MIR515-2_2",-0.2748562729592637,-4.6621761579691805,232],["IGSF11_3",-0.31098924818337853,-3.1204637792368657,114],["TBC1D3P2_1",-0.26939076540366247,-3.9061839695745673,198],["SIK1_2",-0.26881759382283205,-2.4349311190696947,115],["RBFADN_3",-0.292861591603148,-4.384732534902533,190],["FLRT2_5",-0.2788889134453023,-3.1096571188865236,142],["IL7_3",-0.2715649202403942,-3.6628600312463666,181],["BPIFB6_1",-0.3520011942215748,-3.727946807844857,108],["CELF2_7",-0.32170964690925113,-4.848798820690952,175]]},"para":{"top":[["NCAPG2_1",0.20215023912737348,-4.265482332993395,393],["PI4KAP1_2",0.2554494984878377,-2.826272362219353,152],["PTDSS2_3",0.23044957006257136,-5.432758654035242,395],["SCGB1C1_2",0.22008517257509513,-2.888317372186157,211],["ZNF410_1",0.23742283901815073,-3.2427095944783244,207],["PTDSS2_5",0.20775005263831425,-4.509893530830142,396]],"bottom":[["NOD2_2",-0.3409204649142885,-4.056707530621671,127],["CST11_2",-0.29223591969008705,-3.896104034223933,167],["ZNF663P_3",-0.3053896101440568,-3.295395454379087,126],["ATAD3C_3",-0.34931599746243835,-4.1850390152183286,125],["TBC1D3P2_1",-0.28451444622702005,-4.313628679394202,198],["IKZF3_1",-0.2912457400014791,-2.8823711886720473,119],["IL12A_2",-0.2786369495378437,-2.9531445954397295,134],["GOLGA2P9_3",-0.2838474107475028,-2.675520102818826,115],["SIK1_2",-0.28839076788857704,-2.7508656377576934,115],["NLRP5_3",-0.27673996149623775,-6.577524668691884,335],["BPIFB6_1",-0.33081764686220205,-3.327346151687292,108],["CELF2_7",-0.29901656620033473,-4.234401413425274,175]]}}}
{"ccle_rrbs_cgi_clusters":{"corr":{"top":[["6_64282943_64285736-2",0.22026657664974647,-2.892435292244619,211],["14_21735406_21740094-2",0.21047554678368002,-2.610374401931815,205],["1_87791802_87794472-2",0.21174965602330253,-2.397127617400053,183],["17_7216175_7220960-2",0.2238251846097712,-5.162002696372417,396],["5_1342545_1347469-2",0.20036753380729003,-4.226711953916729,396]],"bottom":[["17_3867577_3870095-2",-0.29836300256107573,-3.745455534456323,153],["20_1274887_1279121-2",-0.3577342709694876,-4.84486729280766,140],["8_1352903_1357417-3",-0.3673393551522396,-4.169290037811796,112],["18_48188434_48192669-3",-0.302539570322553,-5.571401982152385,232],["10_11205178_11209980-1",-0.32170964690925113,-4.848798820690952,175],["2_152955209_152957784-2",-0.3367776555300998,-3.7716502978481827,120],["19_22889846_22894071-1",-0.31007042571347115,-4.50430860037364,174],["8_12806798_12809330-3",-0.3004438651886032,-3.7274844124393898,150],["1_21761070_21765416-1",-0.30105829224242486,-4.916646006960855,204],["7_56891318_56895540-2",-0.29579846250234804,-2.681872689627893,106],["3_118751092_118755961-3",-0.31098924818337853,-3.1204637792368657,114],["5_135690397_135695042-3",-0.3553643253526102,-4.04292534767983,116],["7_157692387_157696661-2",-0.311845124221566,-3.350573308200966,123],["2_130748104_130752424-1",-0.3560651892195789,-3.8080860186316703,108]]},"para":{"top":[["20_61440843_61445053-2",0.20475915124600702,-4.168207322150444,373],["3_52556565_52560769-3",0.24885761287497143,-2.625226043667831,147],["16_15221723_15226262-1",0.2550773062756943,-3.7599140149703136,212]],"bottom":[["20_1274887_1279121-2",-0.3643015945880873,-5.015448902988179,140],["8_1352903_1357417-3",-0.3413661482319629,-3.6380647804971606,112],["7_63359126_63363493-1",-0.2881929948354121,-2.6244167888960614,109],["17_38018381_38022645-1",-0.2912457400014791,-2.8823711886720473,119],["10_11205178_11209980-1",-0.29901656620033473,-4.234401413425274,175],["8_1428752_1433324-3",-0.2933713886955913,-4.993971473628487,219],["19_22889846_22894071-1",-0.3106503841344804,-4.519920855771933,174],["1_211587677_211592293-3",-0.28647179627101943,-3.817258123093363,170],["11_16946895_16949398-3",-0.31394671934964236,-3.6800777517598666,135],["18_48188434_48192669-3",-0.3210955543442785,-6.2355920237676115,232],["2_130748104_130752424-1",-0.3577967002277664,-3.8425587031722546,108],["7_56881836_56886245-2",-0.2980554523943074,-5.227772217279792,223]]}}}
