{"depmap_hotspot":{"corr":{"top":[["ANGEL2",0.1596318716806979,-3.1392150792977915,18.0,427.0],["C5orf28",0.11915862808938925,-1.92501544283292,14.0,431.0],["CAMK2D",0.11659727650467121,-1.8585180519244544,13.0,432.0],["CBLN2",0.1259240285033269,-2.1064691326377356,17.0,428.0],["CDK5RAP1",0.12682034948583726,-2.131145372077241,17.0,428.0],["DDAH1",0.12015199213222716,-1.9511291445449401,9.0,436.0],["GGT5",0.13647121500274323,-2.406359774509919,25.0,420.0],["GNA14",0.1426384515171611,-2.591438960310279,8.0,437.0],["GYS1",0.12816742731147537,-2.1685125721873497,23.0,422.0],["KLK6",0.13707337380608112,-2.4241125602836635,18.0,427.0],["LANCL3",0.12531515684153507,-2.0897917318862365,13.0,432.0],["NRN1",0.1416702494502644,-2.5619042404237877,10.0,435.0],["NUDT16L1",0.11850603392185853,-1.907958661798203,10.0,435.0],["OR4A15",0.13850733329151846,-2.4666649013619084,35.0,410.0],["OR5T2",0.11777211199422702,-1.8888696130796265,33.0,412.0],["OR8H2",0.1317693944892924,-2.2700942305392537,21.0,424.0],["PEX12",0.12519855210566241,-2.0866057068300434,8.0,437.0],["PRRG2",0.11625501394591946,-1.8497233099430637,8.0,437.0],["PTGR2",0.12292378261720602,-2.024955878220444,8.0,437.0],["RPA3",0.11108331579267684,-1.71943146429065,8.0,437.0],["SDC4",0.10479367536946632,-1.5675004773892234,8.0,437.0],["SERPINA7",0.12334825069102412,-2.036386892039257,17.0,428.0],["SLC25A4",0.1230987648855488,-2.029664148902958,8.0,437.0],["TEX101",0.14524135717525455,-2.6717283138447434,11.0,434.0],["TRIM31",0.12696036553592183,-2.1350135962225134,13.0,432.0],["UPK3B",0.1238482702344668,-2.0498953019290465,10.0,435.0],["ZFPL1",0.13041968421497013,-2.231745579528523,9.0,436.0],["ZNF7",0.12491025539783752,-2.0787393271237486,25.0,420.0]],"bottom":[["ANKRD12",-0.12773149533655007,-2.1563830406868734,51.0,394.0],["BUD13",-0.13309849663926293,-2.30819147334394,13.0,432.0],["CD38",-0.13154983537736378,-2.2638327399325284,9.0,436.0],["CDKL2",-0.13123550367798786,-2.2548842221850265,23.0,422.0],["CELA3B",-0.13386671883456377,-2.3303631978648025,14.0,431.0],["CHIT1",-0.14315265176878372,-2.6071972668789813,17.0,428.0],["CHRDL2",-0.12863938250627097,-2.181684400424064,15.0,430.0],["CLN3",-0.1345502323646744,-2.3501835732097884,15.0,430.0],["CPSF3",-0.1389979571501428,-2.481313564556653,22.0,423.0],["CSF3R",-0.13400367612027855,-2.3343276032781666,22.0,423.0],["CUL1",-0.12739795798087766,-2.147126501050137,20.0,425.0],["FAM171A1",-0.15797952866988396,-3.083490249446926,37.0,408.0],["FAM19A2",-0.16879726169096465,-3.4580772601158327,10.0,435.0],["FAM73A",-0.1391298798898875,-2.4852602069357723,13.0,432.0],["HDAC7",-0.13772763079045444,-2.443479110348246,26.0,419.0],["IGLL1",-0.14787449244999445,-2.7542722918905658,8.0,437.0],["KCNQ5",-0.14160569678852183,-2.559941440494179,36.0,409.0],["KRT23",-0.13955630682511846,-2.4980399451002118,10.0,435.0],["KRTAP1-1",-0.15674812610744518,-3.0423089804930017,9.0,436.0],["LRRC10",-0.13501526006555167,-2.363718688624834,19.0,426.0],["LRRC45",-0.1281660212142712,-2.1684733914375056,18.0,427.0],["MRPS27",-0.13785473968688547,-2.447251047548023,9.0,436.0],["OPA1",-0.14287429573733892,-2.5986604278699867,31.0,414.0],["OR4X1",-0.14272862926363294,-2.594198916662412,12.0,433.0],["OVOL2",-0.13935467253627531,-2.4919927904375987,10.0,435.0],["OXGR1",-0.1274830419159257,-2.1494858342158683,18.0,427.0],["PPOX",-0.16722999914341335,-3.4023744528254563,17.0,428.0],["PQLC1",-0.132269362626065,-2.284386323075201,8.0,437.0],["RAB25",-0.15642665140105932,-3.0316068043039097,9.0,436.0],["RABEPK",-0.13522211975002435,-2.3697526654803602,13.0,432.0],["SEMA3G",-0.14324979983643918,-2.610180165649316,27.0,418.0],["SLC27A4",-0.14688738770437906,-2.7231721989407847,24.0,421.0],["STK19",-0.13047726230764858,-2.23337454563096,20.0,425.0],["UNC13D",-0.12897787360929935,-2.191156980616775,29.0,416.0],["VILL",-0.1675597227888441,-3.4140527830805083,29.0,416.0],["WDR48",-0.13697718746559928,-2.42127219924752,11.0,434.0],["WDR49",-0.14430984051416162,-2.642845680590627,31.0,414.0],["ZER1",-0.15681653288826922,-3.044588906206476,23.0,422.0],["ZNRF4",-0.13999024581278982,-2.511080295207642,20.0,425.0]]},"para":{"top":[["ANGEL2",0.17368036527970043,-3.897118173940165,18.0,427.0],["C5orf28",0.1278232552605167,-2.450071359311048,14.0,431.0],["CAMK2D",0.1247560228642491,-2.3666839648850835,13.0,432.0],["CDK5RAP1",0.13155288143502664,-2.5537788380648214,17.0,428.0],["DNAJA2",0.13185085428318466,-2.56169641684731,9.0,436.0],["FAM180A",0.11065831916515756,-2.004610484315537,8.0,437.0],["KLK6",0.14060473334376566,-2.8155126519544447,18.0,427.0],["LANCL3",0.13119638374483478,-2.5435940474017134,13.0,432.0],["METAP1D",0.1001915299044437,-1.7584864095858797,8.0,437.0],["NRN1",0.12481529600792993,-2.3680882546108113,10.0,435.0],["OR51G2",0.11098726397571325,-2.013038514326996,14.0,431.0],["PEX12",0.13310596154190876,-2.59706868957436,8.0,437.0],["PRRG2",0.11994018888692273,-2.2388271842935406,8.0,437.0],["RPA3",0.1265889040776907,-2.4159053243698323,8.0,437.0],["RPN1",0.12200328797174069,-2.2933072037176436,13.0,432.0],["SLC25A4",0.1271155349838901,-2.4302650666875363,8.0,437.0],["TEX101",0.14156417066945512,-2.8437521452815817,11.0,434.0],["TRIM31",0.13597471601107583,-2.6796099081866993,13.0,432.0],["TUBB8",0.12451618554385889,-2.36028686168512,14.0,431.0],["VPS37D",0.09657094242432253,-1.6777481190235164,8.0,437.0],["WDHD1",0.12510786039367777,-2.3762926385925236,16.0,429.0],["ZFPL1",0.1376915613060967,-2.7291760969439793,9.0,436.0]],"bottom":[["AIG1",-0.11934772911744837,-2.2234259475401505,8.0,437.0],["AK8",-0.12516443066179475,-2.3776289180636776,12.0,433.0],["ATXN7L3",-0.1327822297956701,-2.5880844142701798,10.0,435.0],["BRAP",-0.13088808452294667,-2.5349001531140245,12.0,433.0],["C2orf42",-0.14756920518934316,-3.0268020367545136,17.0,428.0],["C6orf52",-0.12939629925496954,-2.493285443266294,11.0,434.0],["CD38",-0.1256994713547986,-2.391864398319494,9.0,436.0],["CELA3B",-0.13283396695242247,-2.5898022367025213,14.0,431.0],["CPPED1",-0.11590413303053163,-2.135301314853181,10.0,435.0],["CTNS",-0.13874267655538686,-2.7600541428398473,10.0,435.0],["CTSO",-0.10275885557216599,-1.8171028001317118,8.0,437.0],["FAM19A2",-0.1825903195501348,-4.221932220453852,10.0,435.0],["FAM73A",-0.133897180243145,-2.619973090550632,13.0,432.0],["GOLGA6L4",-0.12298585195296735,-2.319156819000706,10.0,435.0],["IGLL1",-0.14640339192344468,-2.990199189476547,8.0,437.0],["KRT23",-0.14724073926230974,-3.016225883153807,10.0,435.0],["KRTAP1-1",-0.14607981075389595,-2.9803700737554197,9.0,436.0],["MRPS27",-0.1438429442344828,-2.912151916001889,9.0,436.0],["MRPS31",-0.1469066013710216,-3.0062798625721756,16.0,429.0],["NDUFAF5",-0.12533815567546702,-2.381997604631435,8.0,437.0],["OR10AD1",-0.12327619929210103,-2.326800061012503,9.0,436.0],["OR3A2",-0.11658291685990133,-2.152368741512779,8.0,437.0],["OR8B2",-0.11861879195079866,-2.204737501001694,10.0,435.0],["OVOL2",-0.14653256737006617,-2.9943832957123457,10.0,435.0],["PDGFA",-0.14045409196164216,-2.810603708360145,10.0,435.0],["PPOX",-0.16381368170369262,-3.5536856523507443,17.0,428.0],["PQLC1",-0.12415323613651827,-2.3501295994909177,8.0,437.0],["RAB25",-0.13303142272398602,-2.5950587522218838,9.0,436.0],["RABEPK",-0.1322351516288003,-2.572817068813901,13.0,432.0],["RP11-553A10.1",-0.11532289611196549,-2.1205234464480283,9.0,436.0],["SCO1",-0.12013767547674752,-2.2439746472992543,8.0,437.0],["SMARCD1",-0.14067628081852573,-2.817002275104031,8.0,437.0],["TNFAIP8L1",-0.13369842131138313,-2.6139122532539276,8.0,437.0],["VIP",-0.12327619929210103,-2.326800061012503,9.0,436.0],["WBP11",-0.12939629925496954,-2.493285443266294,11.0,434.0],["WDR48",-0.15007041411198904,-3.1044880514629334,11.0,434.0],["ZNF565",-0.1293033118582975,-2.490547883492998,9.0,436.0],["ZNF688",-0.12128787349706713,-2.2741878881969013,9.0,436.0],["ZNF772",-0.13435670994413246,-2.632700619619941,8.0,437.0]]}}}
{"depmap_damaging":{"corr":{"top":[["GRAMD2",0.15080346911684428,-2.847659366065384,10.0,435.0],["MYH7B",0.12034468340455744,-1.956215666113372,9.0,436.0]],"bottom":[["CR2",-0.1434207073761762,-2.61543220383237,9.0,436.0],["EXPH5",-0.12671292893888678,-2.128180138163578,11.0,434.0],["KIF21A",-0.16242843689036812,-3.2347494412808397,10.0,435.0],["MAN2C1",-0.1272631913191128,-2.1433922521797193,8.0,437.0],["MAP4K4",-0.12969718908193814,-2.2113579192497963,9.0,436.0],["PTPN13",-0.11847122040960045,-1.907050942000852,27.0,418.0],["SLC4A1",-0.1358105490909886,-2.3869609806226615,9.0,436.0],["VPS13D",-0.12718581816805197,-2.141249848846751,13.0,432.0]]},"para":{"top":[["C5orf28",0.11026521088293124,-1.9953614905072448,13.0,432.0],["GRAMD2",0.1367952038517171,-2.703168990422839,10.0,435.0],["IQGAP2",0.11171158097755647,-2.0304306210793546,8.0,437.0]],"bottom":[["ADAMTSL1",-0.13347992778082682,-2.6080297972150124,12.0,433.0],["ANKRD50",-0.13243826710859097,-2.5784294293999777,11.0,434.0],["CR2",-0.15732627853205633,-3.3370056787815496,9.0,436.0],["HCN1",-0.1480681365489298,-3.041763127438883,9.0,436.0],["KIF21A",-0.17580367224946722,-3.9728087985440688,10.0,435.0],["MAP4K4",-0.13582750587325243,-2.6750645166558207,9.0,436.0],["MERTK",-0.10848596667708489,-1.9519664799316405,8.0,437.0],["SLC4A1",-0.14079832036083714,-2.820741528261218,9.0,436.0],["VPS13D",-0.1458949493029458,-2.975010949813445,13.0,432.0]]}}}
{"ccle_rrbs_enhancer_clusters":{"corr":{"top":[["5-3195865-3198403-2_enh",0.20632225024997997,-4.245178210327931,375]],"bottom":[]},"para":{"top":[],"bottom":[]}}}
{"prism_primary_logfold":{"corr":{"top":[["bifendate_BRD-K26581543-001-01-6::2.5::HTS",0.17166881593104114,-3.5960478754619443,450]],"bottom":[]},"para":{"top":[],"bottom":[["lumiracoxib_BRD-K26901728-001-06-2::2.5::HTS",-0.1658079609874844,-3.3652243567894367,447],["azimilide_BRD-K38913877-300-01-9::2.5::HTS",-0.1279656198301815,-2.170872487720847,447],["medroxyprogesterone_BRD-K99615199-001-18-5::2.5::HTS",-0.17091325439885224,-3.5478013272167037,447]]}}}
{"prism_secondary_logfold":{"corr":{"top":[["vismodegib_BRD-K44827188-001-06-0::0.00061034::HTS002",0.26992710242470597,-8.209332989297307,449],["chromocarb_BRD-K94720315-001-10-4::2.5::HTS002",0.28607600977219305,-9.234884271037595,452],["vatalanib_BRD-K70163715-300-05-7::0.000590328::HTS002",0.26789173031405594,-8.025153020383824,445],["axitinib_BRD-K29905972-001-06-3::0.0024414::HTS002",0.2633787522718626,-7.882534698797644,452],["latanoprost_BRD-K10961822-001-05-1::0.15625::HTS002",0.2666848620267203,-8.071832742208025,452],["bisacodyl_BRD-K39987650-001-24-1::0.0024414::HTS002",0.27204063504985343,-8.384002675417904,452]],"bottom":[["PD-173074_BRD-K97764662-001-17-3::2.5::HTS002",-0.16083010114572158,-3.118716065094347,435],["sclareol_BRD-A23127772-001-02-3::10::HTS002",-0.15065734448651782,-2.8483691319022943,446]]},"para":{"top":[["vatalanib_BRD-K70163715-300-05-7::0.000590328::HTS002",0.2346387289195052,-6.254778784830601,445],["latanoprost_BRD-K10961822-001-05-1::0.15625::HTS002",0.24851711707978485,-7.063245194722468,452],["bisacodyl_BRD-K39987650-001-24-1::0.0024414::HTS002",0.25549200783729753,-7.4413515725373385,452]],"bottom":[["sclareol_BRD-A23127772-001-02-3::10::HTS002",-0.1795679601742336,-3.861721039864339,446]]}}}
{"ccle_proteomics":{"corr":{"top":[["GALM_Q96C23",0.2169696743446458,-3.0334332370532824,230],["PWWP2B_Q6NUJ5",0.24745301683432036,-3.002200512648314,174]],"bottom":[["SVIP_Q8NHG7",-0.2121028664631593,-2.4258977488628943,185],["TMEM120B_A0PK00",-0.26317652126136104,-2.8423249131191346,144]]},"para":{"top":[["PWWP2B_Q6NUJ5",0.24062229668698237,-2.8593235862218336,174]],"bottom":[]}}}
{"depmap_copy_number":{"corr":{"top":[["SDF2_6388",0.143285595796888,-2.6112797234909313,445],["PYY2_23615",0.1448142845194602,-2.658465841861561,445],["PROCA1_147011",0.14693838322091654,-2.724774290615401,445],["KRT20_54474",0.14307874823077554,-2.6049292918476983,445],["RAB34_83871",0.14144200777063828,-2.554967844520413,445],["SUPT6H_6830",0.143285595796888,-2.6112797234909313,445],["TMEM97_27346",0.14772799690431282,-2.749644896968732,445]],"bottom":[["FAM76B_143684",-0.17841694426014781,-3.8107241452220504,445],["MAML2_84441",-0.18768476988222646,-4.168142184418304,445],["PGR_5241",-0.1881547454901799,-4.186733613202925,445],["LOC100129203_100129203",-0.18355848477426323,-4.006852179049,445],["MTMR2_8898",-0.18908716498843464,-4.2237525839132894,445],["ARHGAP42_143872",-0.1853737863669237,-4.07738123505439,445],["CEP126_57562",-0.1802102909729032,-3.8785243600454953,445],["PGR-AS1_101054525",-0.18346387562721148,-4.003194779391084,445],["CNTN5_53942",-0.1942458847206127,-4.431796731148165,445],["DCUN1D5_84259",-0.17735099363074153,-3.770732079673877,445],["SNORD13I_109616988",-0.18398800008651928,-4.023479291963814,445],["MIR3920_100500823",-0.18060569296373058,-3.8935606905651983,445],["LOC100128386_100128386",-0.1853737863669237,-4.07738123505439,445],["CEP57_9702",-0.18908716498843464,-4.2237525839132894,445],["TRPC6_7225",-0.18307594204746594,-3.9882170904204277,445],["ANGPTL5_253935",-0.176707403815571,-3.746696962024543,445]]},"para":{"top":[["KSR1_8844",0.14417492263671106,-2.638676196003064,445],["TBC1D3P5_440419",0.14359711242426315,-2.6208590404903545,445]],"bottom":[]}}}
{"depmap_gene_tpm":{"corr":{"top":[["EPHA7_2045",0.1704383170937628,-3.510090153006412,444]],"bottom":[["OR7A17_26333",-0.19818279093699123,-4.585121768299566,444],["OR10G7_390265",-0.1923212368437924,-4.344907725055285,444],["ZIM3_114026",-0.1906950898130034,-4.279522066949674,444],["KRTAP27-1_643812",-0.1903798218963875,-4.266908353624212,444],["OR4S2_219431",-0.2070300301040304,-4.961231324380526,444],["TAAR5_9038",-0.19028260420320123,-4.263022837018598,444],["KRTAP24-1_643803",-0.1933340971195967,-4.385908782142025,444],["ZMYND12_84217",-0.19766691261485153,-4.563694919248391,444],["OR4K1_79544",-0.192625293469055,-4.357193883027536,444],["OR2G3_81469",-0.1956844308038032,-4.481866792155241,444],["MYH1_4619",-0.1947568039444879,-4.443857889379686,444],["OR4A5_81318",-0.19504505236064962,-4.455649626706292,444],["OR6C65_403282",-0.20562233870816496,-4.900291069575494,444],["OR6C68_403284",-0.195545955667318,-4.476181564212476,444],["OR2T7_81458",-0.2055565775548029,-4.897454399671163,444]]},"para":{"top":[],"bottom":[["PLCB2_5330",-0.16273914716209859,-3.2391994202367234,444],["FGF4_2249",-0.19689470144326102,-4.531724582731183,444],["MRLN_100507027",-0.17483072543859332,-3.669909607337393,444],["OR51S1_119692",-0.16628882033785455,-3.3626360192664726,444],["TTC19_54902",-0.16261392660524587,-3.2348903135963436,444],["IFT46_56912",-0.16017046699601656,-3.1514218757674026,444],["CYB5D2_124936",-0.1863970860554517,-4.109314172100507,444],["PGM5_5239",-0.1703881404212745,-3.508286683270258,444],["KLHL40_131377",-0.19751970654629852,-4.557590892489957,444]]}}}
{"avana":{"corr":{"top":[["SYAP1_94056",0.18502386138634513,-2.841681788566311,294],["OR56A1_120796",0.1966160218892075,-3.339506459089735,314],["OR9A4_130075",0.21225401493768783,-3.8210190696030626,314],["UTP14C_9724",0.19945161514472198,-3.4241679528835167,314],["TMEM248_55069",0.22336359343442314,-4.185078927542653,314],["SNTG1_54212",0.1887240856746646,-3.109978887088924,314],["ZNF16_7564",0.1844162551512116,-2.9884460636783516,314],["AZGP1_563",0.2079607170327335,-3.6852511843477376,314],["YRDC_79693",0.20749543236312093,-3.6707007526557804,314]],"bottom":[["AGRP_181",-0.18057682658794236,-2.882343421959667,314],["INPP4A_3631",-0.18035448537251206,-2.876262693561652,314],["RXFP4_339403",-0.18531890771771312,-3.0136934900073546,314],["PHLDB1_23187",-0.18781379872275675,-3.084077880664344,314],["ETV3L_440695",-0.19558885873448456,-3.3091256911905513,314],["FAM86C1_55199",-0.19030664381627507,-3.155289920450838,314]]},"para":{"top":[["TMEM178B_100507421",0.19124265680699612,-3.1822578839616185,314],["TMEM248_55069",0.21446366979191817,-3.8919598398551685,314],["PRSS1_5644",0.18525543277716655,-3.0119143040109013,314],["TLE4_7091",0.18566111221318532,-3.0232952389938803,314],["EDEM2_55741",0.20278546327872765,-3.5251991323065943,314],["MYL10_93408",0.2046576904598231,-3.5826472481173948,314],["SYPL1_6856",0.19476976725504108,-3.2850082184365124,314],["OR56A1_120796",0.18411475278779216,-2.9800386810503525,314],["AZGP1_563",0.21392353177164591,-3.874551736450722,314],["HGF_3082",0.20358162002005117,-3.549566074965603,314],["YRDC_79693",0.22033280750392414,-4.083924751936164,314],["ZBTB44_29068",0.19610780822175994,-3.3244558050987063,314]],"bottom":[["AGRP_181",-0.1875240561930291,-3.0758584089072585,314],["NPAS2_4862",-0.19910912885667723,-3.4138805661122538,314],["THRB_7068",-0.17346591110605494,-2.6913026023685003,314],["NOTCH3_4854",-0.18178526115944568,-2.9155141836922223,314],["FAM86C1_55199",-0.18642209227953907,-3.0447067884386034,314],["C16orf89_146556",-0.1889182085661078,-3.1155176792826365,314]]}}}
{"drive":{"corr":{"top":[["CHKB&CHKB-CPT1B_1120&386593",0.21827582338002705,-3.0880945827616877,232],["KANK2_25959",0.2618969505484253,-4.2688198381815505,232],["SDC4_6385",0.26589031208119684,-4.3878892778666385,232],["FLNA_2316",0.23934193342899748,-3.7404218658559705,240],["CABP4_57010",0.24550033906202678,-3.770858746024486,230],["MBD3L2_125997",0.2500127344697393,-3.985008085406658,236],["LHX1_3975",0.28538992297910554,-5.074131876326907,236],["TIAM1_7074",0.2143232714794111,-3.035730810980434,236]],"bottom":[["SERPINA12_145264",-0.2441903221275517,-3.7634037052699547,232],["TK2_7084",-0.2330474564333359,-3.437887846971304,230],["USP10_9100",-0.23957294356548903,-3.6922323483486834,236],["RAD51B_5890",-0.24008137717314385,-3.6512925518962764,232],["CYP2U1_113612",-0.22519366406304833,-3.261047448761199,232],["CADM4_199731",-0.2034122533507818,-2.734091923687537,232],["UBE3C_9690",-0.22835448006573378,-3.3916507751639005,236]]},"para":{"top":[["SHB_6461",0.2228215691871981,-3.201149761430751,232],["SLIT1_6585",0.24715025483497322,-3.845361163890177,232],["KANK2_25959",0.229211568691666,-3.3639244998308784,232],["DDX60_55601",0.2241100172009752,-3.2095625645284693,230],["MBD3L2_125997",0.22460607308324332,-3.294408343181566,236],["CABP4_57010",0.2259397285620651,-3.255590458950922,230],["KCTD14_65987",0.25732505916455733,-4.260545176396637,240],["UBFD1_56061",0.2506846566986394,-3.9445465101011554,232],["KCNK10_54207",0.24114818567309287,-3.6525048340058386,230],["NMRK1_54981",0.23027006196568048,-3.3913255916324814,232],["TMPRSS2_7113",0.2193047047546305,-3.2056130400789495,240],["LHX1_3975",0.2523519690030717,-4.052361886279541,236],["TIAM1_7074",0.20972211412468586,-2.9237770151339597,236]],"bottom":[["SERPINA12_145264",-0.22117883692359622,-3.160032491553396,232],["TK2_7084",-0.2172475198405624,-3.040183376546491,230],["LOC107984838_107984838",-0.21306184585546054,-2.939375582928842,230],["SRSF1_6426",-0.22161315564728679,-3.1708745553002466,232],["USP10_9100",-0.2746311341178618,-4.726704360511386,236],["ATP9A_10079",-0.23627669899082346,-3.522561597029557,230],["RAD51B_5890",-0.23814604559063296,-3.599153057923268,232],["SLC35B2_347734",-0.264620204430005,-4.3498131423617865,232],["HOXC12_3228",-0.20006139688178964,-2.6962408732892906,236]]}}}
{"achilles":{"corr":{"top":[["CUBN_8029",0.24925277071615504,-4.140185618307914,248],["CYP1B1-AS1_285154",0.23840927211693783,-2.4809930376637492,150],["BAG5_9529",0.24635906487674217,-4.054013876537175,248],["CDR1_1038",0.248764059707812,-2.6689461672891746,150],["GNG2_54331",0.23862692330842242,-2.4848641225641286,150],["PEX7_5191",0.23633382596747504,-2.444249991580068,150],["IFT122_55764",0.29277666604628094,-3.55728458751481,150],["TXNDC2_84203",0.23551300940069417,-2.4298033990793457,150]],"bottom":[["BBS1_582",-0.22148253739803003,-3.3552078506472487,248],["EFCAB5_374786",-0.2516184584248006,-2.722128574398569,150],["ABHD16B_140701",-0.25008885354088467,-4.165276219130684,248],["A2ML1_144568",-0.24158830588141814,-3.9141950690738088,248],["ARRB1_408",-0.22417219344129996,-3.427189796023646,248],["CRLF2_64109",-0.22940749767617727,-3.5697588518744405,248]]},"para":{"top":[["CUBN_8029",0.24780213058325654,-4.0968576786354935,248],["CTU2_348180",0.25661815428736023,-2.8167267639905433,150],["GNG2_54331",0.2937545446625882,-3.57872892520267,150]],"bottom":[["MGAT4C_25834",-0.22143482183487062,-3.353938567936573,248],["BABAM2_9577",-0.24252739545239532,-3.9414969126691135,248],["ABHD16B_140701",-0.24267235326121545,-3.945720830680857,248],["DGAT2_84649",-0.21808376828866488,-3.2654666315231333,248],["A2ML1_144568",-0.2411422760749697,-3.9012655260324274,248],["ABCF2_10061",-0.22014934400160924,-3.319844409102539,248],["KAT6B_23522",-0.23020401483960634,-3.5917360406638066,248]]}}}
{"ccle_rrbs_tss1kb":{"corr":{"top":[["DISP1_1_222987422_222988422",0.2318759104523728,-2.2735378685414904,143],["SNORD111B_16_70562401_70563401",0.3034208409935975,-2.6905137880652403,101],["DECR1_8_91012579_91013579",0.19546441946388174,-3.7390429997517365,362],["RRP9_3_51975957_51976957",0.18283026724974233,-3.562749779901442,392],["HOXA9_7_27205149_27206149",0.1758067987589604,-3.2981073751169054,388],["HOXA10-AS_7_27207517_27208517",0.17263281259939656,-3.1248952069155296,378],["GPD2_2_157291899_157292899",0.18223230606500693,-3.534539125444252,391]],"bottom":[["ZNF24_18_32924431_32925431",-0.21247645694876816,-4.104566027620824,340],["SLCO5A1_8_70745625_70746625",-0.16829164635917487,-2.7880517112578893,348]]},"para":{"top":[["MAG_19_35781988_35782988",0.18635639440447657,-3.50417707902908,370],["WDR6_3_49044037_49045037",0.17444512752571456,-3.246703056734114,387],["LOC284898_22_27456480_27457480",0.18357093899529775,-3.588085002108869,392],["RRP9_3_51975957_51976957",0.2277647355677347,-5.281034825400247,392],["AHSA1_14_77923372_77924372",0.18117345863433393,-3.5064310713990463,392],["ATP13A1_19_19774503_19775503",0.19589455298068564,-4.006071034526878,390]],"bottom":[]}}}
{"ccle_gene_tpm":{"corr":{"top":[["SETP10_ENSG00000231905.2",0.16840390039338707,-3.41063587980772,440],["EPHA7_ENSG00000135333.9",0.1724344932065033,-3.554273326053547,440],["MTND1P23_ENSG00000225972.1",0.1730657879683483,-3.5770610951537942,440],["AC090957.2_ENSG00000230172.1",0.16358624537852876,-3.243136430099925,440]],"bottom":[["ZMYND12_ENSG00000066185.8",-0.2060130981682894,-4.877687401144691,440],["IGHV3OR16-8_ENSG00000271130.1",-0.20376783376895483,-4.782002594502268,440],["OR4S2_ENSG00000174982.2",-0.20768343736357753,-4.949552234900642,440],["OR4A45P_ENSG00000213607.4",-0.20343349142375194,-4.76784379535484,440],["AC005255.6_ENSG00000172148.2",-0.20268230399539777,-4.736116943261409,440],["OR4D7P_ENSG00000254770.1",-0.19981456125611421,-4.61607044124846,440],["RP11-195B21.3_ENSG00000155282.7",-0.19777074491006977,-4.531550359839218,440],["OR6C68_ENSG00000205327.2",-0.1962582785262394,-4.46955702337269,440],["OR7A17_ENSG00000185385.2",-0.1956233240511243,-4.443671302982545,440],["OR2G3_ENSG00000177476.2",-0.19537705993864624,-4.433653893385378,440],["OR6C65_ENSG00000205328.2",-0.2063906473032791,-4.893880204521582,440],["OR4A5_ENSG00000221840.2",-0.1958179261983174,-4.451596025247132,440],["OR4F28P_ENSG00000257109.2",-0.21880306859102372,-5.442896347130474,440],["TAAR5_ENSG00000135569.3",-0.19817581975382473,-4.5482334946145855,440],["KRTAP26-1_ENSG00000197683.3",-0.194822407292528,-4.4111375107986905,440],["OR10J9P_ENSG00000249197.1",-0.20944388184162505,-5.025924718459407,440]]},"para":{"top":[["USP17L9P_ENSG00000251694.1",0.14429381095656219,-2.6174025577478273,440],["SNORA21_ENSG00000199293.1",0.14600505513829212,-2.6700269797277536,440],["NAALADL2-AS2_ENSG00000226779.1",0.145608732592751,-2.657789823731977,440]],"bottom":[["CYB5D2_ENSG00000167740.5",-0.18024075108719068,-3.8416161447432033,440],["KLHL40_ENSG00000157119.11",-0.20642485820584824,-4.895348953074843,440],["FGF4_ENSG00000075388.2",-0.16887679166748193,-3.42732253791443,440],["RP11-598O12.1_ENSG00000248249.1",-0.16421829730589707,-3.2648527971047163,440],["RP11-138H8.4_ENSG00000259452.2",-0.18884597016218063,-4.172505311004683,440],["AC010150.1_ENSG00000218682.1",-0.1813829958604244,-3.8846806244132672,440],["RP11-195B21.3_ENSG00000155282.7",-0.1789434213998714,-3.7930213739001317,440],["C4BPAP1_ENSG00000224462.2",-0.1687164076179035,-3.421658226620916,440],["AC004771.1_ENSG00000203562.2",-0.1816663519500578,-3.895404081929803,440]]}}}
{"ccle_rrbs_tss_clusters":{"corr":{"top":[["LINC01618_1",0.23697116920596117,-2.770926177849955,173],["LINC01980_3",0.21782798106082335,-2.352493687094886,169]],"bottom":[["TRIM31_2",-0.28415123729811415,-4.57312700071967,212],["MLF2_2",-0.2543125054055527,-3.3056525588644385,184],["LPIN2_2",-0.2716875591992954,-2.625718369987965,123],["PLCXD2_1",-0.2065731116545331,-4.26441271874726,376],["RUFY1_3",-0.25240291372187723,-3.1390043883303163,176]]},"para":{"top":[["C16orf96_1",0.22734116325541884,-2.993389727214364,206],["C11orf49_2",0.27395708677031433,-3.195728358427299,152],["PARP3_2",0.2246311561091651,-5.184244333942659,395]],"bottom":[["TRIM31_2",-0.271690197332284,-4.213247667149448,212],["MLF2_2",-0.23790903182572207,-2.940805673432315,184],["LINC01902_3",-0.24607276875169212,-3.1923264988202917,189],["GYG2P1_3",-0.33890102951117573,-3.36349081363614,104]]}}}
{"ccle_rrbs_cgi_clusters":{"corr":{"top":[["12_2222409_2226645-3",0.24877241968227284,-3.3137817436160355,193],["13_53172028_53176674-3",0.2473529904784176,-2.612930247238868,148]],"bottom":[["5_178975298_178980291-3",-0.25240291372187723,-3.1390043883303163,176],["12_6859821_6864405-3",-0.2543125054055527,-3.3056525588644385,184],["18_3010547_3015173-2",-0.2716875591992954,-2.625718369987965,123]]},"para":{"top":[["8_28477635_28480217-1",0.2327755513224033,-2.9102441497671143,190],["13_53172028_53176674-3",0.24410747856631226,-2.55426310678802,148],["11_46956170_46960529-2",0.27395708677031433,-3.195728358427299,152],["5_956785_961172-1",0.27103448626059595,-2.9568819321425717,142],["3_51973612_51978505-2",0.2246311561091651,-5.184244333942659,395]],"bottom":[["19_1787459_1791880-3",-0.2239673332957048,-3.9215343577272996,290],["12_6859821_6864405-3",-0.23790903182572207,-2.940805673432315,184],["16_29824662_29827482-2",-0.23736915138542022,-2.4487016149407377,149],["20_34020007_34024502-2",-0.2599302526591983,-3.2245569125751885,171],["18_37419460_37423829-3",-0.24607276875169212,-3.1923264988202917,189]]}}}
