{"depmap_hotspot":{"corr":{"top":[["AAGAB",0.14119723713543947,-2.1906397478953825,9.0,362.0],["ABCG4",0.13966070980226564,-2.151446800632672,13.0,358.0],["AHNAK",0.1631317611273927,-2.7910794444287927,99.0,272.0],["AMACR",0.14771157269309082,-2.360940195308811,9.0,362.0],["ANKRD30BL",0.15704485423267536,-2.616710880719356,9.0,362.0],["ARHGAP40",0.1531726748802903,-2.5089025157585088,12.0,359.0],["BBX",0.1566164813164538,-2.6046654302040797,23.0,348.0],["CCDC82",0.1569788605891307,-2.6148532708940646,15.0,356.0],["CD84",0.14466137622066666,-2.2803651035378962,14.0,357.0],["CHN1",0.18302780565928883,-3.4034749488293783,16.0,355.0],["CNOT6L",0.1506093474585318,-2.4388589179609594,11.0,360.0],["EIF2B3",0.14403251786832816,-2.263936201161895,8.0,363.0],["ENPP4",0.14928549244149994,-2.4030955289427953,17.0,354.0],["EPHA3",0.18965498596462557,-3.6221419430742188,45.0,326.0],["FLT3",0.14532448949796092,-2.2977566821331146,30.0,341.0],["GPR64",0.13873949203433422,-2.1281265300167975,18.0,353.0],["H2AFY2",0.14097231014446493,-2.18487924618432,8.0,363.0],["HERC3",0.14663418037372405,-2.332310824183745,17.0,354.0],["KIAA1549L",0.15708266744807195,-2.617775575783331,40.0,331.0],["KL",0.13956217150339292,-2.1489459859273685,27.0,344.0],["LAIR1",0.14867214077039295,-2.3866208249338454,17.0,354.0],["LIPT1",0.15308962160431266,-2.506616565101067,9.0,362.0],["MAN2B2",0.14020221593882676,-2.1652169425299297,38.0,333.0],["MKI67IP",0.14242521102644715,-2.222229219285423,11.0,360.0],["MLXIP",0.1409948076618617,-2.1854550616599457,21.0,350.0],["MMP20",0.1540362349713608,-2.5327366542740437,14.0,357.0],["MMP9",0.14839567038614818,-2.3792143860422343,14.0,357.0],["MPEG1",0.13875357257566498,-2.1284819724540633,18.0,353.0],["MYH3",0.2079129330656774,-4.263445446912148,53.0,318.0],["NLN",0.14618152994079253,-2.32033759605265,17.0,354.0],["NOSIP",0.16223172356350624,-2.764917471633437,14.0,357.0],["NR1D2",0.15419014596364541,-2.536997148917031,12.0,359.0],["OR2M4",0.15066168752967932,-2.440278612246842,18.0,353.0],["PCOLCE2",0.15495362295334072,-2.5581876604559817,15.0,356.0],["PGBD3",0.14790454428904076,-2.366087476621215,12.0,359.0],["PHTF1",0.16740043391309664,-2.916961087323016,18.0,353.0],["PLEKHH1",0.14455330326334473,-2.2775372511866423,34.0,337.0],["POLR2A",0.1413706365963616,-2.195086033819495,26.0,345.0],["PPIP5K2",0.13897534143244641,-2.1340842966542755,27.0,344.0],["PRR3",0.15428737024605882,-2.5396904290883544,10.0,361.0],["PRSS54",0.16748516962096183,-2.919490115554153,10.0,361.0],["RDH8",0.15229603923902893,-2.4848298452279596,13.0,358.0],["RNF10",0.1391499674042864,-2.138501121382078,15.0,356.0],["SAMD14",0.14731702497200136,-2.3504345427351665,12.0,359.0],["SENP5",0.1440136909832234,-2.2634453133040484,31.0,340.0],["SHC2",0.1594327027822701,-2.6843982724958035,16.0,355.0],["SLC22A25",0.14125301415391928,-2.192069458737096,17.0,354.0],["SLC9A2",0.14821005130853804,-2.374248613517123,27.0,344.0],["SMC1B",0.14555895321331702,-2.303922660322835,29.0,342.0],["SYNCRIP",0.14502114914774403,-2.289792288741686,21.0,350.0],["TGM4",0.13882561104086463,-2.130300962912385,22.0,349.0],["THAP1",0.15315636380635078,-2.5084534839656123,10.0,361.0],["TRAM1L1",0.14074404664849158,-2.179041427702291,15.0,356.0],["TTI1",0.15266146971317338,-2.4948497010435244,21.0,350.0],["TXNDC11",0.14144315670594645,-2.196946987784204,33.0,338.0],["USP19",0.14671912293557193,-2.334561295080013,35.0,336.0],["WDR26",0.1693574408169624,-2.9756710452989403,11.0,360.0],["ZBTB40",0.13916633962845115,-2.1389154700715527,26.0,345.0],["ZCCHC8",0.16396785551235835,-2.815501036121706,13.0,358.0],["ZFAT",0.14953874629052136,-2.4099154479147606,43.0,328.0],["ZKSCAN5",0.18066888269155376,-3.327428496727596,20.0,351.0],["ZNF169",0.15982760211274136,-2.695681261260737,19.0,352.0],["ZWINT",0.16524011444372982,-2.852881568206798,8.0,363.0]],"bottom":[["ACO1",-0.15806269477210855,-2.645450454503611,20.0,351.0],["ACTL7A",-0.13740314135253434,-2.0945335853702405,14.0,357.0],["C3orf22",-0.11038842466319473,-1.4744339258635821,9.0,362.0],["CCHCR1",-0.15093849965266307,-2.447794260496035,13.0,358.0],["CYP2J2",-0.1198533512820236,-1.679038424822012,15.0,356.0],["DYNC2LI1",-0.12610206910103994,-1.8215486773255836,10.0,361.0],["ERP27",-0.11809268895626489,-1.6399563270309323,12.0,359.0],["GRM4",-0.12026616073112571,-1.688269693774118,26.0,345.0],["HIST2H2BE",-0.14668126508151927,-2.3335581464446236,8.0,363.0],["IGF2",-0.13321010273850445,-1.9909388341930248,8.0,363.0],["INTU",-0.16945238176889194,-2.978535281581088,12.0,359.0],["KBTBD13",-0.16248825135675588,-2.772360688052074,15.0,356.0],["MEX3B",-0.13657695054619745,-2.0739046235676546,12.0,359.0],["MRPS30",-0.12738502651965938,-1.8515468719647763,11.0,360.0],["MT-ND5",-0.14603995902406458,-2.3165995220136857,187.0,184.0],["MUC4",-0.1270202222731239,-1.842991283903813,149.0,222.0],["NPY1R",-0.13490254567464438,-2.032423430291752,11.0,360.0],["OR6C3",-0.14630638304041307,-2.3236368863417995,11.0,360.0],["POLD2",-0.1450750928593524,-2.291207550132117,17.0,354.0],["PPP1R3F",-0.13591804690689907,-2.057528992946546,15.0,356.0],["PROSER1",-0.1225616897773998,-1.7400747388901665,16.0,355.0],["PSMB8",-0.12906960583239008,-1.8913200077154109,10.0,361.0],["SLC7A14",-0.11672286293398662,-1.6098739852099062,25.0,346.0],["SREBF1",-0.1525163138914474,-2.4908670652169245,32.0,339.0],["TACR1",-0.11352139780445607,-1.5406698203030524,12.0,359.0],["UBBP4",-0.14307223373307135,-2.238969373014612,18.0,353.0],["ZNF17",-0.12190406285064587,-1.7251516193640053,14.0,357.0]]},"para":{"top":[["ACADM",0.14480750654663796,-2.571261533143324,13.0,358.0],["AGPS",0.1206438205224975,-1.9915712261031682,9.0,362.0],["AMACR",0.15278824185493242,-2.7811863833900143,9.0,362.0],["ANKRD30BL",0.150007299551363,-2.706841928132268,9.0,362.0],["APOE",0.1362133056347768,-2.3552987288602556,12.0,359.0],["ARHGAP40",0.16146433618326023,-3.0208467208762593,12.0,359.0],["C16orf72",0.1307312865953383,-2.222902052635147,8.0,363.0],["CCDC104",0.13203080236666373,-2.253797893349372,8.0,363.0],["CD84",0.152612610481496,-2.776881115186409,14.0,357.0],["CHN1",0.1761748967975966,-3.4527980883841263,16.0,355.0],["CNOT6L",0.16781609428037597,-3.203150956722226,11.0,360.0],["COL4A3BP",0.14251356292202222,-2.512104488698433,8.0,363.0],["EGFL8",0.15025267681344265,-2.7133554289519926,9.0,362.0],["EIF2B3",0.1354961777568649,-2.337398319939915,8.0,363.0],["ENTPD3",0.1233673638911609,-2.0524894622777383,8.0,363.0],["FBXO32",0.13667513497836836,-2.366361380637099,9.0,362.0],["FOSL1",0.11210489387300715,-1.8070953533135268,8.0,363.0],["GLYATL3",0.13146335944510443,-2.2405726017004493,11.0,360.0],["H2AFY2",0.14866460423962927,-2.671231360619924,8.0,363.0],["HMG20A",0.1298408800686497,-2.2020859139812434,10.0,361.0],["IL13RA2",0.1246348124656577,-2.081460167214132,10.0,361.0],["KLF6",0.14724624041298093,-2.634273848383379,10.0,361.0],["LEKR1",0.14681162549878812,-2.623108307992561,12.0,359.0],["LIPT1",0.16562965190376774,-3.1394640063464028,9.0,362.0],["MKI67IP",0.13257619826659234,-2.2671364572076147,11.0,360.0],["MMP20",0.15769749624829615,-2.9156786427588326,14.0,357.0],["MRPL19",0.13069560758555882,-2.222268741820861,10.0,361.0],["MRPL37",0.12489702639854486,-2.0873477849756594,9.0,362.0],["NNMT",0.13346646932378267,-2.288518358853829,11.0,360.0],["OR2K2",0.12502332497334367,-2.090325539961551,10.0,361.0],["ORAI3",0.13757540299098558,-2.3884060979590167,8.0,363.0],["OSGIN2",0.14722635724779357,-2.6336477880361655,9.0,362.0],["PARL",0.1211345750466568,-2.0024882214111384,9.0,362.0],["PCOLCE2",0.16125282195784857,-3.0150814217502515,15.0,356.0],["PGBD3",0.1471672738163724,-2.6323835357438417,12.0,359.0],["PHYHIPL",0.12039844326041783,-1.9861258315593733,9.0,362.0],["PRR3",0.15175298550213812,-2.7534853161864876,10.0,361.0],["PRSS54",0.16146579819428727,-3.020702398733373,10.0,361.0],["RDH8",0.16437978767723269,-3.1038904129610407,13.0,358.0],["RTN4RL1",0.14685772790529497,-2.6241383028864376,10.0,361.0],["SHC2",0.16725464885847777,-3.187141255932367,16.0,355.0],["SORT1",0.14765979966967765,-2.6453928171902037,14.0,357.0],["SPANXN3",0.1384183252037993,-2.4096508410947592,12.0,359.0],["ST3GAL1",0.13776653522544338,-2.3933476699084353,10.0,361.0],["SURF6",0.1400286242267903,-2.449529312656157,9.0,362.0],["TCAIM",0.1250233249733437,-2.090325539961551,10.0,361.0],["THAP1",0.14724624041298096,-2.634273848383379,10.0,361.0],["TRAM1L1",0.1533946218386666,-2.7980340522062086,15.0,356.0],["TXNDC16",0.1424122973173694,-2.5099939441877095,13.0,358.0],["WDR26",0.16774190502561012,-3.20098562858242,11.0,360.0],["WDR43",0.11955545096193962,-1.967377953757508,8.0,363.0],["ZBTB44",0.1444454149442241,-2.5616016813461844,9.0,362.0],["ZCCHC8",0.17156541536503844,-3.313830870644906,13.0,358.0],["ZKSCAN5",0.18109372685482308,-3.6046208478770665,20.0,351.0],["ZNF169",0.17086266904190953,-3.2932925370235853,19.0,352.0],["ZWINT",0.15654833325233686,-2.8834068637517083,8.0,363.0]],"bottom":[["ACO1",-0.14086305891969014,-2.471137719462841,20.0,351.0],["ACTL7A",-0.1269240317375315,-2.1342842068979735,14.0,357.0],["C10orf2",-0.1227832166374988,-2.0395900917728302,11.0,360.0],["C19orf35",-0.13471958270092282,-2.3188862125706824,12.0,359.0],["C3orf22",-0.11761750095684842,-1.9250211272963067,9.0,362.0],["CCHCR1",-0.13556884237660202,-2.33961412107775,13.0,358.0],["CXCL1",-0.12195249925358898,-2.0207609027158684,9.0,362.0],["DYNC2LI1",-0.12121590239802123,-2.0043919277173887,10.0,361.0],["HIST2H2BE",-0.16252610580043386,-3.0504741266863578,8.0,363.0],["IGF2",-0.12527332035577154,-2.095837365672342,8.0,363.0],["INTU",-0.15463588848564214,-2.8315078484519542,12.0,359.0],["KBTBD13",-0.15352239745036061,-2.801489515822663,15.0,356.0],["KRTAP4-9",-0.12090509239187244,-1.9974699466126136,10.0,361.0],["MEIS3",-0.11165482842261977,-1.7979296295736085,11.0,360.0],["MEX3B",-0.133154730103552,-2.2810915336331035,12.0,359.0],["MRPS30",-0.12463794800664531,-2.0816116993688567,11.0,360.0],["NOL7",-0.12106268730568674,-2.0011243434486237,12.0,359.0],["NPY1R",-0.11291604575363938,-1.8244198113247427,11.0,360.0],["OR6C3",-0.15075256568422812,-2.726855147262835,11.0,360.0],["POLD2",-0.12812626649092526,-2.1623290240019837,17.0,354.0],["PSMB8",-0.11453348726582262,-1.8586520423169963,10.0,361.0],["SERTAD4",-0.11565448286021116,-1.8825619307945265,9.0,362.0],["SLC5A12",-0.13030954356287783,-2.2132945476454813,12.0,359.0],["TRIM71",-0.1674374234212899,-3.19260581973629,19.0,352.0],["UBBP4",-0.1440202382572785,-2.5512830750120226,18.0,353.0]]}}}
{"depmap_damaging":{"corr":{"top":[["ARL13B",0.11149205492176642,-1.4975990207210477,8.0,363.0],["CACNA1H",0.10918863440439616,-1.449456394571902,10.0,361.0],["CHST4",0.1195684632561223,-1.67268281501108,9.0,362.0],["CLCN3",0.0930939878974176,-1.1348948801961534,8.0,363.0],["DPAGT1",0.1513478578807059,-2.45893107943056,23.0,348.0],["EPHA3",0.1422963030202739,-2.2189019201644977,9.0,362.0],["GPR161",0.10938542470653796,-1.453538533896851,9.0,362.0],["KRT17",0.09828845768252341,-1.2322807883259244,10.0,361.0],["PRR12",0.10901047118506901,-1.4457656155013934,8.0,363.0],["SMARCC1",0.12490578001314584,-1.7938043577651595,9.0,362.0],["SPEF2",0.10954046656336816,-1.4567587177873433,15.0,356.0],["SPTA1",0.1344642434905389,-2.0216371840181804,20.0,351.0],["TPTE",0.12268918354669588,-1.7429755000541818,18.0,353.0],["WDFY3",0.12268390465162173,-1.742855344521502,10.0,361.0]],"bottom":[["ITGA10",-0.1448856060038805,-2.286238226129506,8.0,363.0],["MCPH1",-0.12064958904234128,-1.696867106434012,19.0,352.0],["MUC17",-0.1403700992672537,-2.169495453503992,9.0,362.0]]},"para":{"top":[["ANK2",0.1245508799219665,-2.0797589327586383,13.0,358.0],["CACNA1H",0.12564494498564124,-2.1045558852784363,10.0,361.0],["CHST4",0.1316040048953888,-2.2437388109067444,9.0,362.0],["CLCN3",0.11019893740839652,-1.767377049293364,8.0,363.0],["DPAGT1",0.14867142729436356,-2.6723180694401787,23.0,348.0],["EPHA3",0.15900446582761704,-2.9515387144149834,9.0,362.0],["EPHA7",0.11583017241747338,-1.886235177995795,8.0,363.0],["GPR161",0.1179446706396213,-1.9321518053981177,9.0,362.0],["LAMA1",0.13544214839565727,-2.3366357457388416,15.0,356.0],["PDCD11",0.11054547494741664,-1.7745597760866316,8.0,363.0],["PRR12",0.09555772638479668,-1.4795485487345157,8.0,363.0],["PTPRK",0.10257511154995401,-1.6137013337064794,8.0,363.0],["SMARCC1",0.13855636065431237,-2.412812374093239,9.0,362.0],["SPEF2",0.11665913347663687,-1.9046098774320164,15.0,356.0],["WDFY3",0.12735440001945952,-2.143979917204523,10.0,361.0]],"bottom":[["ITGA10",-0.12319409512165083,-2.0485749621793503,8.0,363.0],["MUC17",-0.1251424036606245,-2.092953658364278,9.0,362.0]]}}}
{"ccle_rppa":{"corr":{"top":[],"bottom":[]},"para":{"top":[],"bottom":[["NOTCH1_Notch1",-0.1735278874874441,-3.002622407363543,357]]}}}
{"ccle_rrbs_enhancer_clusters":{"corr":{"top":[],"bottom":[["2-73172800-73177769-1_enh",-0.2191156924279757,-4.168003236724813,325],["15-70389576-70392094-1_enh",-0.15816315982160467,-2.3464720559623737,321]]},"para":{"top":[],"bottom":[["2-73172800-73177769-1_enh",-0.23141151276127203,-4.598756020255685,325],["14-95834414-95837948-2_enh",-0.18591501013855266,-3.1045605308105797,323]]}}}
{"ccle_mirna":{"corr":{"top":[["hsa-miR-190_miR00200.1",0.15855246086507951,-2.611046786956204,363]],"bottom":[["hsa-miR-105_miR00014.1",-0.1995848454615288,-3.8888993374206464,363]]},"para":{"top":[],"bottom":[["hsa-miR-105_miR00014.1",-0.20639396170212518,-4.127967852825585,363]]}}}
{"prism_primary_logfold":{"corr":{"top":[["estradiol-cypionate_BRD-A91452556-001-04-0::2.5::HTS",0.19614487438397216,-3.8796907823020295,375],["famciclovir_BRD-K45033733-001-12-2::2.5::HTS",0.1952360940648608,-3.8568942096467556,376]],"bottom":[["enilconazole_BRD-A11776908-065-01-5::2.5::HTS",-0.17008616029035506,-3.025228266759396,375],["licarbazepine_BRD-A22642447-001-01-9::2.5::HTS",-0.1675713267706892,-2.935449492208318,373],["suloctidil_BRD-A34205397-001-04-5::2.5::HTS",-0.1595453480699309,-2.7120159429209862,375],["CL-218872_BRD-K00662280-001-09-4::2.5::HTS",-0.19803870533274606,-3.9279059288106657,373],["nicotine_BRD-K05395900-322-05-4::2.5::HTS",-0.15386851828832598,-2.545199508813676,374],["benzthiazide_BRD-K21450440-001-14-6::2.5::HTS",-0.14825248218669176,-2.4019700163768576,376],["SGC-0946_BRD-K69577666-001-01-3::2.5::HTS",-0.14977055283076848,-2.4378457299192853,375],["methoxyphenamine_BRD-A21474126-001-01-6::2.5::MTS004",-0.16297255648467043,-2.7546674888332254,366],["chenodeoxycholic-acid_BRD-K18135438-001-14-2::2.5::MTS004",-0.1593455322403967,-2.657547502277304,367],["iopodic-acid_BRD-K51956333-001-03-8::2.52122192::MTS004",-0.17322796175925093,-3.0651163686068528,367]]},"para":{"top":[["lansoprazole_BRD-A49172652-001-27-1::2.5::HTS",0.16388245359520068,-2.8386672678400395,375],["guanaben-acetate_BRD-K62736196-015-13-6::2.5::HTS",0.18925969045942612,-3.6426565293525592,375],["tranexamic-acid_BRD-K15014948-001-10-3::2.500062642::MTS004",0.16433529933393726,-2.793992473065976,366]],"bottom":[["enilconazole_BRD-A11776908-065-01-5::2.5::HTS",-0.16750512089500214,-2.9468343224581592,375],["licarbazepine_BRD-A22642447-001-01-9::2.5::HTS",-0.1646760771884943,-2.8492297672137856,373],["CL-218872_BRD-K00662280-001-09-4::2.5::HTS",-0.15266016295543933,-2.5060490284046075,373],["nicotine_BRD-K05395900-322-05-4::2.5::HTS",-0.15006284075540213,-2.4403814922504057,374],["cefdinir_BRD-K15766189-001-09-8::2.5::HTS",-0.15743401687793887,-2.651478311695235,375],["dolasetron_BRD-K28029915-001-02-2::2.5::HTS",-0.14561901570140898,-2.32607868998114,375],["AR-A014418_BRD-K67860401-001-05-6::2.5::HTS",-0.14797928689215248,-2.3786844596320913,373],["methoxyphenamine_BRD-A21474126-001-01-6::2.5::MTS004",-0.16005183542071108,-2.671387656107418,366],["chenodeoxycholic-acid_BRD-K18135438-001-14-2::2.5::MTS004",-0.14783189221700077,-2.3429706996369286,367],["iopodic-acid_BRD-K51956333-001-03-8::2.52122192::MTS004",-0.16055051439575066,-2.6916907602902898,367]]}}}
{"prism_secondary_logfold":{"corr":{"top":[["MLN-8054_BRD-K83963101-001-06-9::0.0390625::HTS002",0.2290420336925895,-5.139796650534029,376],["zolantidine_BRD-K08996725-332-01-7::0.625::HTS002",0.2465525486177494,-4.174960419309328,256]],"bottom":[["JIB04_BRD-K76180386-001-01-6::0.00976562::HTS002",-0.2185109498128023,-4.695845143631818,374],["norfloxacin_BRD-K11196887-001-22-0::0.0389835::HTS002",-0.20234046613449552,-4.100023099529493,375],["CR8-(R)_BRD-K40331046-305-01-5::0.00061034::HTS002",-0.22819367482066588,-5.092932561889761,375],["BAM7_BRD-K07442505-001-03-6::0.15625::HTS002",-0.19763601613625803,-3.922932843833573,374],["P22077_BRD-K97714174-001-01-3::0.00061034::HTS002",-0.21104309687903158,-4.4417476954119195,377],["midodrine_BRD-A79981887-003-16-4::0.00061034::HTS002",-0.2079442041837723,-4.234193678517893,368],["TAK-901_BRD-K01683783-001-02-6::0.00061034::HTS002",-0.20838887677665427,-4.331787112153893,376],["LDN-212854_BRD-K59831625-001-01-6::0.0024414::HTS002",-0.20851153015459392,-4.3058176554971235,373],["darifenacin_BRD-K95773607-004-03-8::0.00061034::HTS002",-0.2069281228182104,-4.267510215851678,375],["naftidrofuryl_BRD-A67862938-034-14-9::0.625::HTS002",-0.19103369801982645,-2.4483734484457784,231],["amfenac_BRD-K82122102-323-01-1::0.00061034::HTS002",-0.2093275219041803,-4.356588389069104,375],["RG2833_BRD-K02389548-001-02-5::0.0390625::HTS002",-0.2108008457735403,-4.297323749675812,364],["RI-1_BRD-K79555887-001-01-0::0.625::HTS002",-0.19801352128639543,-3.9362304929678684,374],["atenolol-(-)_BRD-K44993696-001-12-3::0.625::HTS002",-0.20150660983739424,-3.9746559858972343,365],["nemonapride_BRD-M80207679-001-01-5::0.0024414::HTS002",-0.19466920343972724,-3.765795718449667,368]]},"para":{"top":[["hexylresorcinol_BRD-K99946902-001-07-5::0.00061034::HTS002",0.2316636641433343,-3.235006128519072,217],["MLN-8054_BRD-K83963101-001-06-9::0.0390625::HTS002",0.23264296251816444,-5.288631724038994,376],["zolantidine_BRD-K08996725-332-01-7::0.625::HTS002",0.26573474341355696,-4.784516996332722,256]],"bottom":[["JIB04_BRD-K76180386-001-01-6::0.00976562::HTS002",-0.19852719294412946,-3.9543644012504324,374],["maprotiline_BRD-K25433859-003-25-4::0.00976562::HTS002",-0.19455651466300766,-3.7619487164917884,368],["iproniazid_BRD-K88568253-011-19-9::0.625::HTS002",-0.20749188505349378,-2.4637901832458087,197],["oltipraz_BRD-K86972824-001-01-4::0.00244::MTS010::PROS005_PR500",-0.18982798680110866,-3.5939677913593493,367],["CR8-(R)_BRD-K40331046-305-01-5::0.00061034::HTS002",-0.20690050259515738,-4.266490743728144,375],["P22077_BRD-K97714174-001-01-3::0.00061034::HTS002",-0.18794335076249388,-3.6149202148064425,377],["astemizole_BRD-K37249724-001-25-7::0.00061034::HTS002",-0.20000630968837327,-3.9786617788539553,371],["pranidipine_BRD-A68083442-001-01-6::0.15625::HTS002",-0.19427182390408118,-3.778885735130479,371],["LDN-212854_BRD-K59831625-001-01-6::0.0024414::HTS002",-0.1921906638013349,-3.725171659171541,373],["CPI-1189_BRD-K11073688-001-01-6::0.0390625::HTS002",-0.19164157257593958,-3.7323747561647416,376],["sobetirome_BRD-K85406984-001-01-0::2.5::HTS002",-0.18911179944270415,-3.45195981660747,353],["parthenolide-(-)_BRD-K34851558-001-02-3::0.0024414::HTS002",-0.20329058456178728,-4.134406026129383,375],["atenolol-(-)_BRD-K44993696-001-12-3::0.625::HTS002",-0.19211701337582454,-3.653105505539609,365],["RG2833_BRD-K02389548-001-02-5::0.0390625::HTS002",-0.21550103231275194,-4.470984304627247,364],["SAR131675_BRD-K38904395-001-02-3::0.00061034::HTS002",-0.20486272566547617,-4.093220457135696,365],["nemonapride_BRD-M80207679-001-01-5::0.0024414::HTS002",-0.2068472039345896,-4.194335765779954,368]]}}}
{"ccle_proteomics":{"corr":{"top":[["DCLK1_O15075",0.24574219012556503,-2.598509189454639,149],["TMEM164_Q5U3C3",0.24654094299506998,-2.3889759843342095,134],["SECISBP2L_Q93073",0.28060797270059196,-3.601473205564315,166],["ANXA6_A6NN80",0.26009499708202394,-2.7183907276082437,140],["ANKRD13D_Q6ZTN6-3",0.25355110442193096,-2.8524983150423253,156],["IDI1_Q13907-2",0.24147254696093065,-3.158615664495792,194],["COL4A2_P08572",0.24073248746427117,-3.057851545435005,188],["NADK_O95544",0.27967139593830503,-2.5880120167240506,114],["CNST_Q6PJW8",0.2437429973039947,-3.1394352941890613,189],["DTYMK_P23919",0.24332674403762683,-3.201326456767271,194]],"bottom":[["B4GALT4_O60513",-0.2066994475283397,-2.2490363206243287,178],["ERAP1_Q9NZ08-2",-0.23067226344334046,-2.9162545837778815,194],["KEAP1_Q14145",-0.21140002512356995,-2.455982995246061,189],["TEFM_Q96QE5",-0.28397615283857097,-4.067218570630924,186]]},"para":{"top":[["DCLK1_O15075",0.2520503864975405,-2.7147100134787316,149],["UNNAMED_P18135",0.2578368023336425,-2.5960542595736404,135],["IDI1_Q13907-2",0.24975757316778946,-3.3519910212739092,194],["OTX2_P32243-2",0.2626061354075764,-2.458942479798611,122],["HEBP1_Q9NRV9",0.23468756741227298,-3.0050861748472344,194],["CCDC82_Q8N4S0",0.31496615444893783,-4.589434466335398,172]],"bottom":[["PIBF1_Q8WXW3",-0.22146348558841594,-2.7181463401302066,194],["KEAP1_Q14145",-0.22549716666548167,-2.7423692325696374,189],["TEFM_Q96QE5",-0.2883108309404602,-4.181072531237578,186]]}}}
{"depmap_copy_number":{"corr":{"top":[["AGRN_375790",0.16235750329392162,-2.768565662533821,371],["ATAD3B_83858",0.1765178750276236,-3.195871843990384,371],["WASH8P_100288778",0.16057809509502696,-2.7171939044453763,371]],"bottom":[["ATP13A5-AS1_100874218",-0.17604560189768628,-3.1810863769448865,371],["ATP13A4_84239",-0.17434311164584212,-3.128094300277846,371],["NCBP2-AS1_100874001",-0.18370681384387744,-3.4255380485824087,371],["LINC00887_100131551",-0.1686049405104738,-2.9530216316753437,371],["PIGZ_80235",-0.18370681384387744,-3.4255380485824087,371],["OPA1-AS1_100873941",-0.16941600411235777,-2.977437642978594,371],["ATP13A3_79572",-0.1691222504860791,-2.9685820711913844,371],["ATP13A4-AS1_101929198",-0.17434311164584212,-3.128094300277846,371],["OPA1_4976",-0.16941600411235777,-2.977437642978594,371],["LINC02037_101929337",-0.1686049405104738,-2.9530216316753437,371],["NCBP2AS2_152217",-0.18370681384387744,-3.4255380485824087,371],["GP5_2814",-0.1691222504860791,-2.9685820711913844,371],["LRRC15_131578",-0.1686049405104738,-2.9530216316753437,371],["CPN2_1370",-0.1686049405104738,-2.9530216316753437,371],["LINC02038_105374285",-0.16968298208671245,-2.9854983525772534,371]]},"para":{"top":[],"bottom":[]}}}
{"depmap_gene_tpm":{"corr":{"top":[["FIGLA_344018",0.17840403453534603,-3.247751167019271,370],["ZSCAN2_54993",0.22394128844090158,-4.862796016507786,370],["MSS51_118490",0.20843031203504134,-4.2722826603781625,370],["ACVR2B_93",0.1725395519574716,-3.06540446973908,370],["BPHL_670",0.17044511513562335,-3.001659267907799,370]],"bottom":[["CDH8_1006",-0.22002788811493337,-4.709783752341471,370],["DNAJB11_51726",-0.18319826240031722,-3.40107288780515,370],["TFRC_7037",-0.19454455559724051,-3.7793542049517153,370],["TDRD5_163589",-0.22182384724228077,-4.779665093391438,370],["FGF3_2248",-0.17761426262439023,-3.2228619047613356,370]]},"para":{"top":[["ZSCAN2_54993",0.1928681413548182,-3.722087520952595,370],["MSS51_118490",0.199579861233327,-3.9542545243021987,370],["SMIM18_100507341",0.1688142760342204,-2.9525235414879556,370],["LRRC20_55222",0.18005913363359535,-3.300247897408576,370]],"bottom":[["CDH8_1006",-0.2275518188915363,-5.00640196135508,370],["DNAJB11_51726",-0.18312805095966828,-3.3987997318382765,370],["ATP1B1_481",-0.16749127745943074,-2.9129833131985308,370],["TFRC_7037",-0.20454958970079748,-4.131160524164603,370],["CCDC60_160777",-0.19270453892007297,-3.716524500856466,370],["ATP1B3_483",-0.21899183083403945,-4.669731954598119,370]]}}}
{"avana":{"corr":{"top":[["TM4SF1_4071",0.21339192852361621,-3.2960382648691517,262],["AUH_549",0.21827485321057863,-3.4294826359793817,262],["KIAA1211_57482",0.21040955108859313,-3.215977965727976,262],["SASH1_23328",0.21656420555384645,-3.3823973760793797,262],["SDR39U1_56948",0.2071344460134604,-3.129313435385709,262],["SIRT6_51548",0.21203548314330686,-3.2594899074915777,262],["ATP5PB_515",0.21611948110269233,-3.370215746251137,262],["PEBP4_157310",0.21741908078247246,-3.40588234393657,262],["UBAP1_51271",0.2258430019934103,-3.642165598973816,262],["STX1A_6804",0.21033844942663782,-3.214082588095343,262],["USP8_9101",0.2679028768917774,-4.958123528297309,262],["APBB2_323",0.21031919763507928,-3.213569493935599,262],["CAVIN3_112464",0.20755788822098795,-3.140444762626086,262],["AGAP6_414189",0.21855347209007003,-3.4371859220760097,262],["CYP2C18_1562",0.2090832043346631,-3.180722953743484,262]],"bottom":[["RPS8_6202",-0.22351941439504394,-3.5761056534795266,262],["PDS5A_23244",-0.21431734599123503,-3.3211027685488865,262],["ZNF366_167465",-0.24093121891026853,-4.087765633347009,262],["AGRN_375790",-0.23253798039424656,-3.8363101224905143,262],["ADAMTS18_170692",-0.23428370754812122,-3.8878682162743456,262],["PLBD2_196463",-0.21141327130142265,-3.242800478597191,262],["CCDC85B_11007",-0.20203421774971136,-2.9969497673553325,262],["EPHA8_2046",-0.22531055710533238,-3.6269682616458763,262],["ARMS2_387715",-0.21536551090375827,-3.349619283703917,262],["RCOR3_55758",-0.2016838837959551,-2.98797322023811,262],["TLX3_30012",-0.1988634462354991,-2.9162439870722046,262],["LRRIQ1_84125",-0.21820767643830302,-3.427626766196392,262],["C11orf87_399947",-0.21300491855322312,-3.285587530665846,262],["RFX4_5992",-0.21801393206240968,-3.4222773916758418,262],["GALNS_2588",-0.2349227640361646,-3.906839214521759,262],["OR10R2_343406",-0.19943819825289807,-2.930783468063374,262]]},"para":{"top":[["CD8A_925",0.21145864888416774,-3.2440160247315166,262],["PARP16_54956",0.21773524016426088,-3.414590739000133,262],["SOCS7_30837",0.20540565066310615,-3.0840935968885512,262],["NMS_129521",0.20851329449535333,-3.165640451839987,262],["SERP1_27230",0.21392397292863988,-3.310435557029197,262],["TAF7L_54457",0.20263978002540492,-2.8943347379487405,250],["PEBP4_157310",0.2604095876266448,-4.706621665691453,262],["SPIN4_139886",0.20695925086319555,-3.0016928936549196,250],["UBAP1_51271",0.22448090724323805,-3.6033588926224445,262],["STAMBP_10617",0.22652143183535423,-3.6615813639071053,262],["APBB2_323",0.204348329421059,-3.0566161936898495,262],["TEX37_200523",0.2271161221123064,-3.678648260414612,262],["GNLY_10578",0.21090002488823356,-3.229069527124674,262],["USP8_9101",0.2642469924680193,-4.834473031749145,262],["CPNE6_9362",0.23205879625093823,-3.8222258251153325,262]],"bottom":[["RPS8_6202",-0.26070041703069985,-4.716242048636455,262],["ATP2A3_489",-0.20891460667754533,-3.1762569355198815,262],["ZNF366_167465",-0.2128512830264964,-3.281443896241905,262],["ADAMTS18_170692",-0.22232293895506744,-3.54235351976341,262],["AGRN_375790",-0.21042777421386924,-3.216463844471792,262],["LRRC47_57470",-0.21206536585305477,-3.260292639138993,262],["CELF3_11189",-0.20909713265408136,-3.181092059079936,262],["ANKRD13A_88455",-0.23729822341357854,-3.9778149037605033,262],["EPHA8_2046",-0.20824189315699604,-3.1584718218214527,262],["CCDC85B_11007",-0.2084351367559339,-3.163575119775573,262],["FGF6_2251",-0.20335827493280367,-3.031009661157191,262],["KLF12_11278",-0.20078084209509003,-2.9649029474301396,262],["RFX4_5992",-0.22521936881108212,-3.624369087110952,262],["SSNA1_8636",-0.2302579296899231,-3.769555077322916,262]]}}}
{"drive":{"corr":{"top":[["PHF21B_112885",0.22872984568386243,-2.9622409861706256,201],["KCTD16_57528",0.2268241615657163,-2.857407057531404,196],["SLAMF1_6504",0.21558595157585228,-2.5957477167755,194],["CD300A_11314",0.2940044618539804,-4.540216313683137,196],["TBC1D3_729873",0.2433777077516255,-3.259475062819236,198],["DGKZ_8525",0.24682774235716168,-3.282860311169384,194],["C3AR1_719",0.22434345450290397,-2.779267218190666,194],["MAGEA8_4107",0.2542345657391419,-3.521229416674507,198],["RALGAPB_57148",0.22642505171764943,-2.9106415611593337,201]],"bottom":[["GNRH2_2797",-0.23776278717937624,-3.1693931408230047,201],["S100A2_6273",-0.23232866832851548,-2.978771919535771,196],["TFAP2A_7020",-0.24667046355713743,-3.3814523886984347,201],["ZBTB7A_51341",-0.2566928865053419,-3.629448246899319,201],["THRA_7067",-0.20553382496388736,-2.4657797024220875,201],["RGS5_8490",-0.23707132407919976,-3.153256717494825,201],["MYOD1_4654",-0.21552110463507196,-2.6733569558834995,201],["MDH2_4191",-0.22842229925360347,-2.8923518778334008,196],["FRZB_2487",-0.2328868433240995,-2.9912370780075817,196],["ATF2_1386",-0.2259195820391826,-2.8993929748482614,201],["SOCS2_8835",-0.2164823172180141,-2.636980155640812,196],["LRRC26_389816",-0.21866127850766637,-2.6826054465345748,196]]},"para":{"top":[["MFSD2A_84879",0.23880519818300647,-3.1938075179844505,201],["PHF21B_112885",0.24088219560283095,-3.242769246176744,201],["MAGEA3_4102",0.24347711148190204,-3.261819503126369,198],["MCM8_84515",0.2868957817683155,-4.340626751754703,196],["CD300A_11314",0.25629837587002535,-3.5408097619859404,196],["EMD_2010",0.23044209650904637,-2.9112078856013004,194],["TBC1D3_729873",0.23258332428318892,-3.010546052363612,198],["CACNA1D_776",0.23133095371246234,-2.930724304537053,194],["PHF7_51533",0.2361901201202227,-3.132759753809752,201],["DGKZ_8525",0.27656217385410553,-4.023290540313036,194],["RALGAPB_57148",0.23004040942926574,-2.991808442399365,201],["GBP2_2634",0.23146742808311585,-3.062896152989839,204]],"bottom":[["PMEPA1_56937",-0.2277646546870432,-3.003092501893108,206],["GNRH2_2797",-0.23243768448974617,-3.0463199498436215,201],["S100A2_6273",-0.2731173481564869,-3.9687202325018505,196],["CTCF_10664",-0.22209554490743647,-2.8150809538349577,201],["ZBTB7A_51341",-0.26102171055528106,-3.739684141979864,201],["PHTF1_10745",-0.23222175918953936,-3.041387366564681,201],["RGS5_8490",-0.22405194045207963,-2.858041931792807,201],["MDH2_4191",-0.21959626643701782,-2.702316361651536,196],["FIG4_9896",-0.22928866961554467,-3.0381554570377944,206],["SOCS2_8835",-0.23300562760290008,-2.993893544724709,196],["WIF1_11197",-0.22329956665393427,-2.7811764036537534,196],["LRRC26_389816",-0.22880714710071798,-2.9008024858111523,196],["DAPP1_27071",-0.2377984932496615,-3.1021897637709803,196]]}}}
{"achilles":{"corr":{"top":[["GAS2L1_10634",0.2920853761279963,-3.001767103764415,124],["MFSD6L_162387",0.3153004180773252,-3.4422298609275064,124],["NBPF19&LOC102724250&NBPF1_101060226&102724250&55672",0.33682718118217075,-3.8837636552355566,124],["NDFIP2_54602",0.2594215295090928,-2.4413137804318388,124],["TSGA10_80705",0.2817516112954113,-2.8171414247775064,124],["GEMIN5_25929",0.293317660983996,-3.0242462071578693,124],["SMDT1_91689",0.2692763313610213,-2.6033389131858495,124],["TMEM257_9142",0.2834799855960599,-2.847541430909011,124],["TRIM2_23321",0.2675328261621363,-4.011647609904333,207],["C16orf82_162083",0.2860740308635742,-2.893527530533084,124],["WFDC13_164237",0.27856767943153815,-2.7616394344192634,124]],"bottom":[["RAB26_25837",-0.25932960877326766,-3.7928406009458837,207],["MBNL3_55796",-0.29899946067664107,-3.1291839435656366,124],["DDIT4L_115265",-0.27770962796635335,-2.746792281524141,124],["CAV2_858",-0.2733589702219292,-2.6722279837019607,124],["UTP14A_10813",-0.2889303602109082,-2.944665665560242,124],["BNIP3_664",-0.26284354502961293,-3.885700798819289,207],["ADIG_149685",-0.29995412214477124,-3.1470251488139827,124],["BBS5_129880",-0.26054047329856334,-2.459409967464693,124],["CCT8_10694",-0.2720055494918252,-2.6492752227498495,124],["BZW2_28969",-0.3301025285452888,-3.742314046260391,124],["CDRT4_284040",-0.2769684406323367,-2.734004844896184,124],["CYP2F1_1572",-0.30652703327005526,-5.15157626255286,207],["PAPLN_89932",-0.30220673293743183,-5.016916256514329,207],["MARCH10_162333",-0.3017384904119022,-5.002449703489203,207],["NXPE2_120406",-0.2684168924653183,-2.5889696251567993,124],["NMU_10874",-0.3166119370655336,-3.468202228910769,124]]},"para":{"top":[["GAS2L1_10634",0.2956624363717946,-3.0672942120540445,124],["MFSD6L_162387",0.3062138766984595,-3.2655178589830305,124],["NBPF19&LOC102724250&NBPF1_101060226&102724250&55672",0.366132910358448,-4.539080698066343,124],["GEMIN5_25929",0.2957535264147732,-3.0689738406558575,124],["TSGA10_80705",0.2956053224582536,-3.066241355288298,124],["SMDT1_91689",0.2925116759207306,-3.009532340147091,124],["INSL4_3641",0.2848946810218128,-2.872566846890162,124],["TMEM257_9142",0.2978509800963248,-3.107800667841602,124],["WFDC13_164237",0.2779709770919814,-2.7513095460484585,124],["ZNF710_374655",0.301763816351985,-3.1810120610869017,124],["TRIM2_23321",0.2834895033015147,-4.457852175499875,207],["C16orf82_162083",0.2798021712075395,-2.7830823150837385,124],["FAM129B_64855",0.29097134692616183,-2.9815306295458415,124],["ZNF233_353355",0.26998321667542113,-4.078389401425791,207]],"bottom":[["RAB26_25837",-0.2678687153901579,-4.020758492706361,207],["FLRT1_23769",-0.27529319571959676,-2.705230489900596,124],["MBNL3_55796",-0.3421977724556175,-3.99907758483974,124],["GALP_85569",-0.2699516442987517,-2.6146620079754426,124],["ADIG_149685",-0.3178236876023806,-3.492304337717864,124],["BBS5_129880",-0.27665276153973606,-2.7285691103165846,124],["PAPLN_89932",-0.2813793439354036,-4.397261611078966,207],["MARCH10_162333",-0.2863528773492067,-4.540851720348405,207],["BZW2_28969",-0.33916446497822467,-3.933690411340999,124],["CYP2F1_1572",-0.3250005242675712,-5.75185233226931,207],["DDIT4L_115265",-0.31310513470555634,-3.399020708975761,124],["CCT8_10694",-0.30067506965513296,-3.1605387407595065,124],["MORN5_254956",-0.30474778755642695,-3.237530290156508,124],["NMU_10874",-0.342298480876415,-4.001260027596408,124]]}}}
{"ccle_rrbs_tss1kb":{"corr":{"top":[["S100A10_1_151966714_151967714",0.18033353301604382,-2.937882724793126,322],["RAPGEF5_7_22396533_22397533",0.18199311158176587,-2.984523166845137,322],["EFHC2_23_44202923_44203923",0.17891717557784248,-2.521280900966672,273],["SUOX_12_56390042_56391042",0.17846429775270514,-2.9238840894280487,327],["HPSE_4_84256306_84257306",0.1848662466514456,-3.017326867268259,316],["HPSE_4_84255966_84256966",0.18272947533824502,-3.0212713667863995,324]],"bottom":[["CCDC110_4_186392913_186393913",-0.18372358384248072,-3.0335808228556065,322],["TGFB1_19_41859788_41860788",-0.1818844700637636,-3.028797109178516,328],["MRAS_3_138066969_138067969",-0.19127306599197258,-3.2961345317548103,327],["ZNF618_9_116637561_116638561",-0.18069901060059013,-2.9559163740868404,323],["NATD1_17_21156578_21157578",-0.1791438942636506,-2.858641055940003,316],["SLC35D1_1_67520080_67521080",-0.18940805643561404,-3.223376833889237,325],["PRRT2_16_29822408_29823408",-0.18091961033394682,-2.9699358273126313,324]]},"para":{"top":[["BLMH_17_28619184_28620184",0.21996401712987196,-2.510018873545608,179],["RIT1_1_155880706_155881706",0.1785970344201236,-2.9123779985379112,325],["DNAL1_14_74110577_74111577",0.20227770810225398,-3.625848080272845,326],["NEUROD4_12_55412728_55413728",0.17660356158451024,-2.4967472362774368,277],["LOC105369728_12_9800584_9801584",0.17346837309890978,-2.741941929326652,321]],"bottom":[["NOP53_19_48247792_48248792",-0.3000728825410428,-2.6386464082020242,101],["TMEM38B_9_108455805_108456805",-0.1843375819489254,-2.9294251368759014,307]]}}}
{"ccle_gene_tpm":{"corr":{"top":[["RPL5P23_ENSG00000240395.1",0.20055050844525346,-3.969578801188331,368],["TMEM9B-AS1_ENSG00000254860.1",0.20012313608195653,-3.9545713386006014,368],["EEF1A1P7_ENSG00000268222.1",0.1991722263650253,-3.9212918593405384,368],["RPL5P34_ENSG00000234009.1",0.20376298755385497,-4.083391906569355,368],["MSS51_ENSG00000166343.5",0.20789897783485975,-4.232546316453077,368],["RPS18P12_ENSG00000230897.1",0.2147640264051852,-4.486685434292507,368],["ATF4P4_ENSG00000256167.1",0.2193920544173629,-4.662677259848238,368],["RP11-350G8.3_ENSG00000226855.1",0.216270028312056,-4.543540433096923,368],["RPL37AP1_ENSG00000226243.1",0.21207715727769264,-4.386238744190776,368],["RPL5P22_ENSG00000239198.1",0.2149685775655066,-4.494384304570595,368],["ZSCAN2_ENSG00000176371.9",0.21739883910753977,-4.586417408127772,368],["RP11-452H21.4_ENSG00000251323.2",0.20561251445962514,-4.149724656131783,368],["RPS10P16_ENSG00000239917.3",0.2090034386673762,-4.2728777648170455,368],["RPS11P5_ENSG00000232888.3",0.21054025195748494,-4.329350567804119,368]],"bottom":[["TDRD5_ENSG00000162782.11",-0.2144568092605901,-4.47513624183435,368],["CTC-420A11.2_ENSG00000260115.1",-0.18728871038897538,-3.518378853235467,368],["FGF3_ENSG00000186895.2",-0.1753866204473399,-3.1386134356418127,368],["CDH8_ENSG00000150394.9",-0.21546189405012084,-4.512981936504633,368],["RP11-472D17.2_ENSG00000233742.1",-0.17963725520173487,-3.271537133684561,368],["TFRC_ENSG00000072274.8",-0.18477854649691444,-3.4363210362514165,368],["RP11-17G11.1_ENSG00000270776.1",-0.1911153376235985,-3.645510150043768,368]]},"para":{"top":[["EEF1A1P13_ENSG00000250182.2",0.1982075230499809,-3.8876878435752293,368],["RP11-718B12.1_ENSG00000255063.1",0.20601021335005512,-4.164065267572705,368],["RPL41P2_ENSG00000256338.1",0.2044358949474699,-4.107457153558371,368],["ATF4P4_ENSG00000256167.1",0.20617485656431594,-4.170010145773102,368],["MSS51_ENSG00000166343.5",0.1979540848960104,-3.878886098210406,368],["RPS18P12_ENSG00000230897.1",0.2105337804290979,-4.329111897562184,368],["RPL3P4_ENSG00000232573.1",0.2153405520779454,-4.508403475247259,368],["EEF1A1P7_ENSG00000268222.1",0.2370853665030102,-5.370718195499082,368],["RP11-100N21.1_ENSG00000242262.1",0.19666894882692768,-3.8344229891194934,368],["CTD-3193O13.10_ENSG00000269153.1",0.21089017714933797,-4.342266702195116,368],["IGHM_ENSG00000211899.3",0.21076379926393146,-4.337599486944152,368],["RP11-452H21.4_ENSG00000251323.2",0.20121286868571844,-3.9928999568453474,368],["CTA-276O3.4_ENSG00000235354.1",0.202235791681896,-4.029064330302246,368],["RPL3P7_ENSG00000225093.1",0.21364210471398395,-4.444589320330423,368],["RP11-529H22.1_ENSG00000250980.1",0.20114105844485367,-3.9903679366434464,368]],"bottom":[["AF121898.1_ENSG00000251563.1",-0.18347502788277906,-3.394124832102576,368],["ZDHHC20_ENSG00000180776.11",-0.18046990336622803,-3.2979258063609533,368],["CCDC60_ENSG00000183273.2",-0.19388706870878492,-3.7391394560167557,368],["DDR1-AS1_ENSG00000237775.1",-0.17249556052924328,-3.0499083189399596,368],["CDH8_ENSG00000150394.9",-0.22580882862239582,-4.912968950394615,368],["TFRC_ENSG00000072274.8",-0.19842462293172392,-3.8952363154535576,368],["ATP1B3_ENSG00000069849.6",-0.21324978201211822,-4.4299209056603575,368],["RP11-69C17.3_ENSG00000227912.1",-0.17950353669691826,-3.2673099895504274,368]]}}}
{"ccle_rrbs_tss_clusters":{"corr":{"top":[["SH3BGRL2_1",0.23136923435523762,-2.4365586349541455,156],["COX16_2",0.2361331060839525,-2.6454206377365423,165],["CMC4_2",0.24073266885684963,-2.1357927421196887,123],["CRX_1",0.22867137291673972,-3.872208383298585,274],["NUP107",0.2425415013374948,-2.250583973841414,129],["ANKRD20A2_3",0.30770889119041966,-2.968605152307064,110],["CLK3_4",0.2545691680899372,-3.8238327430743797,217],["NF2_1",0.22851207699946155,-4.519547967293246,327],["RPN1_2",0.22815021300395832,-2.684555907110865,180],["DLAT_1",0.23385615756210637,-4.751354380951262,330],["WRAP53_2",0.2542103391274969,-2.9439802819730754,161]],"bottom":[["MIR3927_2",-0.2885974437163475,-2.897793652179556,122],["ADRA1A_5",-0.3235683056676797,-4.800648446873188,171],["PWP1_2",-0.2230747192524531,-2.3271824290464824,159],["C7orf26_2",-0.2442239645624729,-2.024212325770581,112],["C22orf31_2",-0.23573692533434787,-2.365369698327389,145]]},"para":{"top":[["CMC4_2",0.28011725530500076,-2.7692849408791997,123],["COX16_2",0.22067220802861168,-2.356917748308568,165],["LOC101926892_3",0.23558840081676702,-2.7430570691153355,173],["ANKRD20A2_3",0.29855949650712704,-2.814113061231536,110],["ZNF415_4",0.2592316243916139,-2.4880367623551267,127],["SH3GL1P1_3",0.21349423557600777,-2.7739596488894827,214],["RUSC2_1",0.2332305506356179,-2.3228825322711066,145],["ANKRD36",0.244715609508958,-4.881271362147942,310],["MIR5191_3",0.2329796708558785,-3.7205140208721255,252],["CELF2_7",0.24436140652944457,-2.529538048182569,146]],"bottom":[["PSMB8_3",-0.21417533014094162,-3.893481163029253,315],["ADRA1A_5",-0.350599621616882,-5.587200028854274,171],["C6orf47_2",-0.24270444537648644,-2.047570572969246,115],["LINC01895_3",-0.21138736095229382,-2.6838668231305527,210],["JMY_1",-0.2541267966233243,-2.8166065358618178,153],["C7orf26_2",-0.2420583567678195,-1.9943467679134155,112],["PPP3CA_2",-0.3125933616276235,-2.9807961119549087,107],["C22orf31_2",-0.30371974738031415,-3.6898991931345466,145]]}}}
{"ccle_rrbs_cgi_clusters":{"corr":{"top":[["23_154297062_154301795-2",0.24073266885684963,-2.1357927421196887,123],["14_70824255_70828580-2",0.2361331060839525,-2.6454206377365423,165],["11_111893576_111898447-1",0.23385615756210637,-4.751354380951262,330],["7_1046921_1051124-3",0.2709773718742894,-4.838003204860322,249],["9_43131116_43133980-3",0.30770889119041966,-2.968605152307064,110],["23_164504_167112-2",0.30396408680710835,-2.767723718596363,104],["17_7589494_7593839-2",0.2542103391274969,-2.9439802819730754,161],["17_80552807_80557019-2",0.2344089102528394,-3.643679947293885,243],["1_32050471_32054771-2",0.22992634524567232,-2.7206133502250647,180],["15_74904938_74907738-1",0.2545691680899372,-3.8238327430743797,217]],"bottom":[["8_30667450_30669962-1",-0.21438661020934346,-2.335333101588602,173],["16_2744527_2748794-3",-0.2158263380815928,-3.7380689298209635,296],["9_116928004_116932368-1",-0.2573323955026241,-2.83039181374196,150],["7_128862320_128864988-2",-0.21454911511000346,-2.190959431386609,160],["7_6627328_6632235-2",-0.2442239645624729,-2.024212325770581,112],["8_144335536_144338060-1",-0.2210129100637191,-3.0973470882158276,227]]},"para":{"top":[["23_154297062_154301795-2",0.28011725530500076,-2.7692849408791997,123],["23_25034188_25036712-1",0.2534818382699301,-2.86677838052373,157],["7_1046921_1051124-3",0.25524152333574956,-4.337252907578749,249],["7_116162703_116165719-2",0.22936256047399892,-3.4055164996870944,235],["9_35487704_35492700-1",0.2332305506356179,-2.3228825322711066,145],["10_11205178_11209980-1",0.24436140652944457,-2.529538048182569,146],["8_1950317_1953390-1",0.22955769381259314,-2.117653128162881,134],["9_43131116_43133980-3",0.29855949650712704,-2.814113061231536,110],["6_138722617_138725416-1",0.2325815265754248,-2.0973125672271933,129],["17_47955926_47960147-1",0.23044513069009095,-2.5111427123008974,163],["2_97776469_97779005-1",0.24450686416726605,-4.873668424072828,310]],"bottom":[["8_30667450_30669962-1",-0.2509193606993894,-3.0609965203756544,173],["15_42871563_42875898-2",-0.2186309421687392,-2.249583346682673,159],["19_48246729_48251110-2",-0.3007887694024727,-2.672151208834495,102],["6_31626338_31630658-2",-0.24270444537648644,-2.047570572969246,115],["6_32809494_32813839-3",-0.21417533014094162,-3.893481163029253,315],["7_6627328_6632235-2",-0.2420583567678195,-1.9943467679134155,112],["4_102265096_102269320-2",-0.3125933616276235,-2.9807961119549087,107]]}}}
