{"depmap_hotspot":{"corr":{"top":[["ACTBL2",0.14197236330959653,-1.9036941936403462,10.0,299.0],["AKR1B15",0.19639705942762534,-3.2872204158930862,31.0,278.0],["ARSB",0.12858410250524038,-1.6236390617571754,15.0,294.0],["ATP1B2",0.13278134732667898,-1.708966350239026,9.0,300.0],["BPI",0.16848401406131355,-2.527408145113806,14.0,295.0],["BRDT",0.1584659621950891,-2.280739929906077,19.0,290.0],["C20orf194",0.1491438570994872,-2.0632394406270005,18.0,291.0],["CRMP1",0.15027905248304413,-2.0891115013508075,21.0,288.0],["DDX39A",0.12982173719813084,-1.6485664646980318,8.0,301.0],["ERCC6",0.13165874352124585,-1.6859248210181204,33.0,276.0],["EXOC6",0.1286200774616681,-1.6243608971466,18.0,291.0],["FAM170B",0.13202521570045178,-1.6934290156860419,9.0,300.0],["FAM193A",0.13836574056699924,-1.825984358376732,38.0,271.0],["FBXO17",0.14254665042474207,-1.9162235414000766,11.0,298.0],["FBXO43",0.1549635274758917,-2.1976721182288537,12.0,297.0],["GINM1",0.13057431065323233,-1.663819285298752,8.0,301.0],["GOLGA5",0.14292992446207975,-1.924609347681565,18.0,291.0],["GPR26",0.14366566141786385,-1.9407603460851786,20.0,289.0],["GREB1",0.17314569906158941,-2.6468177232692582,35.0,274.0],["GXYLT1",0.14105148993537073,-1.8836926114595427,12.0,297.0],["HDAC7",0.13594039007926614,-1.774670675371001,21.0,288.0],["HMX2",0.13726044522295014,-1.8025054898607742,9.0,300.0],["HSPA13",0.1311427679213169,-1.675388282493388,15.0,294.0],["ITM2A",0.140747367831514,-1.8771111508535003,15.0,294.0],["KCNJ2",0.13344299495070386,-1.7226220822944756,11.0,298.0],["KIAA1239",0.13680324199882585,-1.7928394946215753,28.0,281.0],["KLF6",0.1585831115852758,-2.283546614906408,9.0,300.0],["KLK1",0.16238409901431575,-2.3756070344131026,13.0,296.0],["KPNA3",0.1377739369618076,-1.813393591924725,13.0,296.0],["KRT76",0.13308318082352144,-1.7151889468753494,20.0,289.0],["LCA5",0.1476295962781147,-2.028991594200607,24.0,285.0],["LENG8",0.1332961540614037,-1.7195866056716735,26.0,283.0],["LMBRD2",0.13026251583036896,-1.6574912317111994,17.0,292.0],["LYL1",0.12914185013225749,-1.6348486872231924,9.0,300.0],["MAPKAPK2",0.12872212451825749,-1.6264093581734547,14.0,295.0],["ME1",0.14050688043853923,-1.871915279477735,14.0,295.0],["MEI4",0.13703648113628633,-1.7977671763478602,12.0,297.0],["NEMF",0.13354755595534332,-1.7247852348578807,18.0,291.0],["NKX2-6",0.1372142441513082,-1.8015275048506163,8.0,301.0],["NLGN1",0.15333608534953058,-2.1596280758049136,32.0,277.0],["NTRK3",0.15465480826450895,-2.1904283454911533,36.0,273.0],["PLEC",0.13976544719361686,-1.8559432817951642,105.0,204.0],["POLN",0.15414288048287586,-2.178444341428297,22.0,287.0],["PRR19",0.13550003814248193,-1.765435170621362,11.0,298.0],["PRSS16",0.13021640445646318,-1.6565564244365134,19.0,290.0],["PTDSS1",0.1528462460262947,-2.1482459443429,12.0,297.0],["S100A14",0.13255944640807096,-1.7043990643474491,15.0,294.0],["SEMA3D",0.13397261191900037,-1.7335931672271578,26.0,283.0],["SLC35G5",0.15747837381968416,-2.257151866570955,9.0,300.0],["SMAD4",0.14149950745200127,-1.8934099213567952,31.0,278.0],["SOCS5",0.13031203585117793,-1.6584954429060095,12.0,297.0],["TIAL1",0.14563312999972883,-1.9842967958508335,9.0,300.0],["TMEM79",0.1365082127300701,-1.7866163845333798,13.0,296.0],["TPRG1L",0.13917756936978434,-1.8433296991844452,10.0,299.0],["TRUB1",0.13154196736915033,-1.6835372105360789,13.0,296.0],["TTYH3",0.13832748888413987,-1.8251691796525233,15.0,294.0],["WDR34",0.14874703909671724,-2.0542355667645635,15.0,294.0],["ZFYVE28",0.14283942373702543,-1.9226275245925084,27.0,282.0],["ZNF420",0.12885758458140956,-1.6291305812975754,21.0,288.0],["ZNF540",0.12863670427388976,-1.6246945685956962,16.0,293.0],["ZNF644",0.1302963650312301,-1.6581776223045406,33.0,276.0],["ZNF789",0.1348740602184186,-1.7523493525153935,12.0,297.0],["ZNF800",0.14048535649618338,-1.8714506070852537,23.0,286.0],["ZSCAN23",0.15675700988184996,-2.240004558286748,10.0,299.0]],"bottom":[["ACVR2B",-0.1824506641392825,-2.8940707137107293,9.0,300.0],["AFAP1L1",-0.16990765503985125,-2.5635611562256706,11.0,298.0],["AGBL4",-0.17350991097738244,-2.6562718686362623,13.0,296.0],["AHCY",-0.17299906844747875,-2.643016633250727,11.0,298.0],["ANKRD17",-0.17757798475015765,-2.763105806561377,45.0,264.0],["ANO10",-0.21691273515568396,-3.9159594947792056,11.0,298.0],["APBB1IP",-0.2115958500123159,-3.747159525431977,24.0,285.0],["APOBEC3G",-0.16960891366841258,-2.555951867889296,8.0,301.0],["ARHGDIG",-0.19003107969009564,-3.1043739795561383,8.0,301.0],["B3GNT3",-0.18231871750782244,-2.89048103802913,15.0,294.0],["BPIFA3",-0.1657605314740046,-2.459011492880489,9.0,300.0],["CCDC47",-0.17356489004470677,-2.6577005809579477,9.0,300.0],["CCDC97",-0.16781261571513068,-2.510453593058526,8.0,301.0],["CDHR4",-0.17049617402917425,-2.5785869210120684,9.0,300.0],["CENPN",-0.16571526804257244,-2.457883236285972,12.0,297.0],["CREB3L1",-0.16890535164672227,-2.5380792367479255,9.0,300.0],["CYP4X1",-0.19669099238982637,-3.295801449065201,11.0,298.0],["DEK",-0.18159795053517197,-2.8709148362900385,12.0,297.0],["DNAAF3",-0.16893213231288895,-2.538758317065887,10.0,299.0],["ERCC2",-0.1663500743023904,-2.473731978914139,21.0,288.0],["FRG1",-0.18468775811460564,-2.9553002486306745,9.0,300.0],["FRRS1",-0.17659736225167225,-2.737145263463846,11.0,298.0],["GLTSCR1L",-0.16743042898736984,-2.50082967065108,22.0,287.0],["HIPK3",-0.16960611237720485,-2.555880573169977,22.0,287.0],["ISX",-0.21276222976775064,-3.7838356825673247,16.0,293.0],["KLK7",-0.21673232357187588,-3.9101638979205195,10.0,299.0],["KRT74",-0.16591213994122375,-2.4627925689890686,15.0,294.0],["LEMD3",-0.23897111883625818,-4.661084673061891,17.0,292.0],["LFNG",-0.17412980163981817,-2.6724046014370755,11.0,298.0],["LIPF",-0.1703083686090237,-2.573786850349413,9.0,300.0],["LRRC23",-0.17801871194191093,-2.7748165290413924,10.0,299.0],["MAGEB18",-0.17499996122561973,-2.695139389961741,10.0,299.0],["MUC20",-0.19075275427952756,-3.1248148492509515,10.0,299.0],["MYH14",-0.19179832936061256,-3.1545599819068575,58.0,251.0],["MYO1F",-0.1707637583995682,-2.5854343341575383,24.0,285.0],["MYO5B",-0.17062667277498236,-2.581925131681126,32.0,277.0],["NDUFAF6",-0.18542328286425142,-2.975583831613681,10.0,299.0],["NEU3",-0.1912001872427686,-3.137524838515219,9.0,300.0],["NPLOC4",-0.20702442226694676,-3.60532072172933,8.0,301.0],["OR1L3",-0.22822576595548796,-4.289001535116484,14.0,295.0],["OR6C6",-0.18113062849893108,-2.8582672282482484,15.0,294.0],["OR8A1",-0.1840304391440786,-2.9372371273723394,9.0,300.0],["PCED1B",-0.16620123839852066,-2.4700112155435283,15.0,294.0],["PLEKHO2",-0.17344392820570756,-2.6545577546348103,10.0,299.0],["PODNL1",-0.17575348246314837,-2.7149106243322882,10.0,299.0],["PRSS42",-0.17775815766026257,-2.7678900132672495,12.0,297.0],["PTK6",-0.18207641726311627,-2.883895427551073,8.0,301.0],["SLC22A15",-0.17515080459484236,-2.699091051519375,15.0,294.0],["SLC36A2",-0.17672278979150105,-2.74045839605016,14.0,295.0],["SLC6A12",-0.172980132340315,-2.642525968781229,14.0,295.0],["TADA3",-0.1795639620725875,-2.8160874998350445,17.0,292.0],["TBX10",-0.17538789870907057,-2.7053085416574354,14.0,295.0],["THSD4",-0.19967060023073563,-3.3834817536019486,19.0,290.0],["TOM1",-0.19080700220397528,-3.126354339912631,11.0,298.0],["TRABD2A",-0.16896317297850025,-2.539545540485825,12.0,297.0],["TTLL3",-0.17224891722162994,-2.6236164950056917,18.0,291.0],["UBQLN4",-0.1726725074273899,-2.634561784234925,9.0,300.0],["WDFY4",-0.23306984668044484,-4.454577227017461,62.0,247.0],["WDR70",-0.20733893236107795,-3.6149820518284725,27.0,282.0],["YY1AP1",-0.21177902955459194,-3.7529063731805286,10.0,299.0],["ZNF619",-0.2303054491719017,-4.359654642346903,9.0,300.0],["ZNF785",-0.18078408433305074,-2.848907887037063,16.0,293.0],["ZNF98",-0.18528567102940674,-2.9717831710802125,21.0,288.0],["ZSWIM1",-0.16551135267150854,-2.4528037805681517,8.0,301.0]]},"para":{"top":[["ACTBL2",0.1523308165027245,-2.4231319856280664,10.0,299.0],["ACTR3B",0.12146777130486683,-1.7801094080446915,9.0,300.0],["AKR1B15",0.22552355869161486,-4.420556275319,31.0,278.0],["ANKRD34B",0.138868543656349,-2.1286655270197414,12.0,297.0],["BPI",0.18604602021752661,-3.2595565097146815,14.0,295.0],["CASP7",0.14065252089060906,-2.166442382107991,12.0,297.0],["DDX39A",0.14301468775888185,-2.2166200245592087,8.0,301.0],["EGR2",0.1714172850838041,-2.8797410005726807,19.0,290.0],["FAM170B",0.15534066667762722,-2.4919204417474274,9.0,300.0],["FBXO17",0.16428277741134215,-2.703475654828833,11.0,298.0],["FBXO43",0.17689542680768192,-3.018489528067938,12.0,297.0],["FDPS",0.13398132500945345,-2.026867894399172,9.0,300.0],["GINM1",0.14758384711220077,-2.316447778469897,8.0,301.0],["GXYLT1",0.15492433876468956,-2.4826442604019516,12.0,297.0],["HEXIM2",0.12297802778645486,-1.8088931960422987,9.0,300.0],["HMX2",0.15879268149268558,-2.5723267235902885,9.0,300.0],["IL1R1",0.11971197505695542,-1.7468692295279118,8.0,301.0],["INO80E",0.12039734895995324,-1.7597536911048899,8.0,301.0],["ITM2A",0.15421400186747491,-2.4665335172383744,15.0,294.0],["KCNJ2",0.13334513875700119,-2.01407105705462,11.0,298.0],["KIAA1467",0.14130977566112596,-2.1804577491813464,12.0,297.0],["KLF6",0.17389524630856598,-2.9414318103163177,9.0,300.0],["KLK1",0.18018232101190876,-3.103903928987152,13.0,296.0],["LMBR1L",0.11377206789764084,-1.6375455124845844,8.0,301.0],["LYL1",0.13915934723204104,-2.134502044702459,9.0,300.0],["MDM1",0.14600445259338926,-2.282098563119048,12.0,297.0],["ME1",0.15159305351057725,-2.406756147256121,14.0,295.0],["MEI4",0.15079302306429784,-2.3885469081570303,12.0,297.0],["MS4A8",0.13684632263190133,-2.0858878075240583,8.0,301.0],["NKX2-6",0.15649370785117264,-2.518466908446143,8.0,301.0],["NXPH4",0.12622302713543485,-1.8715388424103814,8.0,301.0],["OTUD6A",0.11331515196230896,-1.6293094431646942,8.0,301.0],["PAK2",0.13139231389815967,-1.9742678992078913,9.0,300.0],["PARVA",0.14476887130651092,-2.2547826217347073,9.0,300.0],["PPA2",0.11514281570363653,-1.662402128094282,8.0,301.0],["PRR19",0.13980679746328759,-2.1484004691979504,11.0,298.0],["PTDSS1",0.17520534311206715,-2.9751427171798395,12.0,297.0],["RAD51B",0.1327340792139143,-2.001297850081439,8.0,301.0],["RSAD2",0.1320337090548514,-1.9873320220084418,10.0,299.0],["S100A14",0.16611557508220615,-2.748339422123279,15.0,294.0],["SIX2",0.14627912778809896,-2.287821470334485,9.0,300.0],["SLC26A11",0.14248979470981632,-2.2055672461402884,10.0,299.0],["SLC30A5",0.13256190739866344,-1.9981322702571285,11.0,298.0],["SLC35G5",0.18425129075374116,-3.21093239322612,9.0,300.0],["SOCS5",0.14403268828183868,-2.2390819573040117,12.0,297.0],["TIAL1",0.16709909214141982,-2.7718349789751793,9.0,300.0],["TMEM79",0.1469290140247561,-2.302510513239939,13.0,296.0],["TPP1",0.13959084908392336,-2.143618415863041,9.0,300.0],["TPRG1L",0.14761532689362267,-2.3174037528185583,10.0,299.0],["UPK1A",0.14597515659480464,-2.2812669619331816,10.0,299.0],["ZCCHC24",0.12610879815160186,-1.8693078933910143,8.0,301.0],["ZMPSTE24",0.14421814660732515,-2.2431844457814485,13.0,296.0],["ZNF549",0.1262931130089883,-1.8731374821131073,10.0,299.0],["ZNF789",0.14440826243641974,-2.2472390017028783,12.0,297.0],["ZSCAN23",0.17795847742175624,-3.0457138325008812,10.0,299.0]],"bottom":[["AFAP1L1",-0.16721989500510864,-2.7750443005894336,11.0,298.0],["AHCY",-0.140002605302872,-2.1525501591218745,11.0,298.0],["ANO10",-0.16330373821341992,-2.6798568805541647,11.0,298.0],["APBB1IP",-0.18577425970505593,-3.252773696833282,24.0,285.0],["ARHGDIG",-0.17339959745845263,-2.9287079699804703,8.0,301.0],["BPIFA3",-0.16839359769706677,-2.80369675785428,9.0,300.0],["CDHR4",-0.12556703889774867,-1.8588720257667848,9.0,300.0],["CNKSR3",-0.11391648889692663,-1.6402687009358847,9.0,300.0],["CNOT6",-0.13136333140791864,-1.973555589640095,8.0,301.0],["CYP4X1",-0.16898216556136855,-2.818498971785962,11.0,298.0],["ENTPD7",-0.1404229322229218,-2.1616340606389266,13.0,296.0],["EWSR1",-0.12747954595759758,-1.8961827110803178,8.0,301.0],["FRRS1",-0.14744330320708057,-2.313700087969598,11.0,298.0],["GATA5",-0.12844994276739022,-1.9156681263350654,11.0,298.0],["ISX",-0.1813361887761462,-3.1344003617187184,16.0,293.0],["KCNAB1",-0.1387746501177038,-2.1266879866612007,12.0,297.0],["KLK7",-0.13941447539953256,-2.140002792048983,10.0,299.0],["LEMD3",-0.18664513574617092,-3.2759008916304446,17.0,292.0],["LIN54",-0.13980679746328753,-2.1484004691979504,11.0,298.0],["LIPF",-0.13052931019439512,-1.956914399437028,9.0,300.0],["MAB21L3",-0.16733687126792002,-2.7783107311333843,16.0,293.0],["MCHR2",-0.1401984131424564,-2.1567045113284413,11.0,298.0],["NDUFAF6",-0.1800086902952788,-3.0990453709270622,10.0,299.0],["NEU3",-0.15232015371445115,-2.4227680039668336,9.0,300.0],["NPDC1",-0.12424290013546574,-1.833313773399926,10.0,299.0],["OR1L3",-0.2000016523013542,-3.6471729457418083,14.0,295.0],["OR2Y1",-0.14293972289663853,-2.215355413741488,11.0,298.0],["OR8A1",-0.15318315741821575,-2.442411419231493,9.0,300.0],["PLEKHO2",-0.15581617838771286,-2.503033296969978,10.0,299.0],["PPP2R3C",-0.1432431457265478,-2.221550888471596,8.0,301.0],["PTK6",-0.1331909951492462,-2.0105957015489815,8.0,301.0],["PTPRA",-0.14981725754417494,-2.3668975678968454,16.0,293.0],["RFT1",-0.12157762339988648,-1.782295706271394,10.0,299.0],["SAAL1",-0.14077743864561085,-2.1692441815991077,14.0,295.0],["SDS",-0.12125202037892568,-1.776019692088992,9.0,300.0],["SOX14",-0.1354165602961636,-2.056486992726676,10.0,299.0],["ST7L",-0.14775525468752462,-2.320840560948352,14.0,295.0],["UBXN7",-0.11456374167475007,-1.6519895458440341,9.0,300.0],["UGT1A4",-0.12297802778645488,-1.8088931960422987,9.0,300.0],["WNT7B",-0.14147116409975524,-2.1838214972863232,11.0,298.0],["YY1AP1",-0.14659022045686146,-2.2947797119749143,10.0,299.0],["ZNF619",-0.16958022778974308,-2.8330861089715578,9.0,300.0],["ZNF785",-0.15898640117529386,-2.577494472020075,16.0,293.0],["ZNF98",-0.18257186552565421,-3.167264665335314,21.0,288.0],["ZSWIM1",-0.1437000616618797,-2.231431709074142,8.0,301.0]]}}}
{"depmap_damaging":{"corr":{"top":[["AKAP9",0.10938312900020629,-1.2615151468404433,29.0,280.0],["ATAD5",0.13599271474771557,-1.7757697359484257,11.0,298.0],["CNTN5",0.13002021930824742,-1.6525822209444314,13.0,296.0],["CNTNAP2",0.14523744109950398,-1.9755003803646225,12.0,297.0],["COL14A1",0.11007139143961477,-1.2737063168872922,12.0,297.0],["DYSF",0.11633048995806729,-1.3872463292992432,11.0,298.0],["EML5",0.10521513917449184,-1.1889229266697667,14.0,295.0],["EXOSC10",0.15607732233293214,-2.2239112729072383,8.0,301.0],["FAT1",0.11210455157955902,-1.3100587959566605,22.0,287.0],["FBXO4",0.10730627316359641,-1.2250788109997555,8.0,301.0],["HELZ2",0.11804660050649839,-1.419222441102826,9.0,300.0],["ITM2A",0.13577622582700796,-1.7712247469486917,10.0,299.0],["ITPR2",0.1084021033301857,-1.244238418186849,18.0,291.0],["KIAA1875",0.12436631426888588,-1.5401437429235543,9.0,300.0],["KIF20B",0.14271999788618392,-1.9200139158824108,9.0,300.0],["LPHN2",0.11891202166204397,-1.4354865884343806,8.0,301.0],["MLH1",0.10346241202238962,-1.1590269462704046,11.0,298.0],["MYO15A",0.1361283498219644,-1.7786203383840409,12.0,297.0],["NES",0.11437027871989051,-1.351168504606999,9.0,300.0],["NTRK3",0.12282371391269666,-1.510166302937588,8.0,301.0],["PLEC",0.14311753471350533,-1.9287211071783081,13.0,296.0],["POLN",0.11214975581105122,-1.3108728076329823,9.0,300.0],["RIMS2",0.10713927232100137,-1.2221718062168527,33.0,276.0],["RNF6",0.11880738925593747,-1.4335152421524697,8.0,301.0],["S100A14",0.149853953345604,-2.0794032875495,12.0,297.0],["SMAD4",0.15341612081710623,-2.1614908326906526,14.0,295.0],["TMPRSS7",0.132054110859587,-1.6940214258154065,10.0,299.0],["TTC39B",0.11434004043869428,-1.3506156882135836,8.0,301.0],["UBN2",0.12646903780692387,-1.5814884228503758,12.0,297.0],["VPS13B",0.12673432669969673,-1.5867442740209228,22.0,287.0],["XIRP2",0.10996241643960701,-1.2717721818557899,18.0,291.0],["ZDBF2",0.11248363211354115,-1.3168928434409728,9.0,300.0]],"bottom":[["AHI1",-0.11752927083765917,-1.409544582038708,8.0,301.0],["ANO4",-0.15515412479324733,-2.202150595788267,10.0,299.0],["BICC1",-0.14768116862168307,-2.030153053445955,15.0,294.0],["CABIN1",-0.13134917756222994,-1.679599223920266,9.0,300.0],["CACNA1A",-0.150147757685704,-2.086110515107631,10.0,299.0],["CAMTA1",-0.16909776701215995,-2.5429604978846765,10.0,299.0],["CENPE",-0.12802246801144743,-1.6123911657061931,21.0,288.0],["CHL1",-0.16181048021881123,-2.361589907183108,9.0,300.0],["IQCA1",-0.12629239732175968,-1.577993785853502,8.0,301.0],["KIAA0368",-0.1306826524436563,-1.6660210386229224,9.0,300.0],["LTBP3",-0.18386621630918662,-2.93273367545242,8.0,301.0],["NCAM1",-0.11137350592684636,-1.2969294255065167,8.0,301.0],["NF1",-0.12833768267354265,-1.6186990724204988,29.0,280.0],["NF2",-0.1424453672532855,-1.9140107141351441,14.0,295.0],["NIN",-0.14023775241637768,-1.8661094865348289,8.0,301.0],["PTPRN2",-0.2525674642242885,-5.157210572101265,8.0,301.0],["SERPIND1",-0.13281989972507513,-1.7097604978663825,8.0,301.0],["SLC38A10",-0.17377341340959593,-2.663123127202629,8.0,301.0],["ST7L",-0.12561911053463953,-1.5647096614812557,8.0,301.0],["STAB2",-0.12646988995000824,-1.5815052911100045,15.0,294.0],["TECTA",-0.13365656311211338,-1.7270418577687587,13.0,296.0],["WDR70",-0.13451854467475347,-1.74493980905366,15.0,294.0]]},"para":{"top":[["ATAD5",0.14411456993414518,-2.240771818517209,11.0,298.0],["CNTN5",0.1433145241348482,-2.2236084671543246,13.0,296.0],["CNTNAP2",0.16731828586586475,-2.7775588000373266,12.0,297.0],["EXOSC10",0.17979642055309908,-3.0931932934148194,8.0,301.0],["FAT1",0.14813973404564024,-2.3297367430210834,22.0,287.0],["FBXO4",0.11468589976830462,-1.654091841681364,8.0,301.0],["HELZ2",0.12923480463874817,-1.931052489733941,9.0,300.0],["ITM2A",0.15591868903138895,-2.505405955679515,10.0,299.0],["KIAA1875",0.14347436575086409,-2.226685245938576,9.0,300.0],["KIF20B",0.17281649167886026,-2.914128234258442,9.0,300.0],["LPHN2",0.13935936027622672,-2.138590704643032,8.0,301.0],["MYO15A",0.1498540876778452,-2.367453333635664,12.0,297.0],["NTRK3",0.1478123050798667,-2.3215061422765646,8.0,301.0],["PIK3R1",0.12834332588251082,-1.9134658678179428,10.0,299.0],["PLEC",0.16581472369952485,-2.740854986247794,13.0,296.0],["RNF6",0.12291038660427867,-1.8074765856049928,8.0,301.0],["RYR1",0.12051230698183027,-1.7626137967668356,18.0,291.0],["S100A14",0.17689542680768194,-3.018489528067938,12.0,297.0],["SMAD4",0.17767264096723004,-3.03871533749407,14.0,295.0],["TMPRSS7",0.1400295392615893,-2.153023628833455,10.0,299.0],["UBN2",0.12985476394640344,-1.9436922756494763,12.0,297.0]],"bottom":[["BICC1",-0.1272877475731539,-1.8929952215724026,15.0,294.0],["FNIP1",-0.11719893741263004,-1.7001050777923876,8.0,301.0],["NF2",-0.11722730950415179,-1.701127493434265,14.0,295.0],["PDIA3",-0.1147794926006912,-1.6559075284842244,9.0,300.0],["PTPRN2",-0.18459403787408393,-3.219911364509682,8.0,301.0],["SERPIND1",-0.14301468775888185,-2.2166200245592087,8.0,301.0],["SLC38A10",-0.15009688475652616,-2.3724412560991026,8.0,301.0],["ST7L",-0.12725108798993162,-1.8916878982881506,8.0,301.0],["TECTA",-0.12957946255319813,-1.9382676815363213,13.0,296.0],["WDR70",-0.1563242098842712,-2.515224640921462,15.0,294.0]]}}}
{"ccle_chromatin":{"corr":{"top":[["H3K27me2K36me1",0.1960245247196746,-3.212402876349844,302]],"bottom":[]},"para":{"top":[["H3K27me2K36me1",0.2180383851650121,-3.873695966825824,302]],"bottom":[]}}}
{"ccle_rppa":{"corr":{"top":[["MYC_c-Myc_Caution",0.19065424272241896,-3.052694439782589,301],["LCK_Lck",0.2249001705962596,-4.082026669810928,301],["PRDX1_PRDX1",0.18034125428046052,-2.7745942610985788,301],["SRC_Src",0.1805012359850587,-2.778798408328674,301]],"bottom":[["CCNE2_Cyclin_E2_Caution",-0.13825177816682063,-1.7854472410687319,301],["MAPK1-MAPK3_MAPK_pT202_Y204",-0.17165030996735325,-2.5513569534343468,301],["PEA15_PEA15",-0.21286951734116674,-3.7015412469660802,301],["RB1_Rb_pS807_S811",-0.16107796440395844,-2.293287028190872,301]]},"para":{"top":[["BCL2L11_Bim(CST2933)",0.1955968611021408,-3.191122636978069,301],["BCL2L11_Bim(EP1036)",0.2008471323558884,-3.341860852088079,301],["MYC_c-Myc_Caution",0.19027794447140084,-3.042292766179627,301],["LCK_Lck",0.2304238544471484,-4.263725941008533,301],["SRC_Src",0.1940822624636294,-3.148346179734196,301]],"bottom":[["CDK1_CDK1",-0.23088904713024386,-4.279231635663548,301],["CCNE2_Cyclin_E2_Caution",-0.15633654584164433,-2.182296699095956,301],["GAB2_Gab2",-0.1765154264533637,-2.6750795504075837,301],["PEA15_PEA15",-0.23891825446688542,-4.55187897693344,301],["RB1_Rb_pS807_S811",-0.17661223403630172,-2.677573452214641,301],["TSC1_TSC1_Caution",-0.17112522423882398,-2.538191899078115,301]]}}}
{"ccle_metabolomics":{"corr":{"top":[["glutathione reduced",0.1620040919658105,-2.3472008615713085,306],["GABA",0.16560099850940388,-2.435121480423539,306],["sarcosine",0.14925866927575268,-2.049423119434422,306]],"bottom":[["cytidine",-0.1668106045138223,-2.4650762968345914,306]]},"para":{"top":[["glutathione reduced",0.16758660799265002,-2.4843964613885476,306],["sarcosine",0.18478877393520254,-2.933598261601653,306],["C38:2 PC",0.1381186800241809,-1.8064685665142253,306]],"bottom":[["cytidine",-0.1645143244068727,-2.4083776920880307,306]]}}}
{"ccle_rrbs_enhancer_clusters":{"corr":{"top":[["4-42148091-42153064-2_enh",0.23483572725402632,-3.616094939983478,240],["7-50447432-50452191-0_enh",0.25208061679633975,-4.375804267882492,258],["7-50447432-50452191-2_enh",0.22418469327067883,-3.654619380856894,267],["2-60056299-60058970-2_enh",0.22225639867075409,-3.6577772784376483,272],["3-147125741-147128336-1_enh",0.23310449052439736,-3.607775342985917,243],["3-147125741-147128336-2_enh",0.24369430933377415,-4.326913738135548,273],["7-1268500-1271169-1_enh",0.2399136078216348,-4.084042171982713,264],["9-92290484-92293186-2_enh",0.24368181965009153,-4.242350252528524,267],["10-130829457-130832316-2_enh",0.2335081702128531,-2.9788385752204034,194],["13-95359140-95362017-2_enh",0.22516044592404785,-3.490077556798162,251],["17-2083144-2086289-0_enh",0.2241742370517085,-3.7258314966696764,273],["18-76007648-76010476-0_enh",0.23262761496449866,-3.8774237541129155,265]],"bottom":[["1-213496112-213499623-0_enh",-0.20415044946056385,-3.101319263222189,267]]},"para":{"top":[["4-42148091-42153064-2_enh",0.25355721154666,-4.148357581203697,240],["7-50447432-50452191-0_enh",0.23256473210403927,-3.7857864796185154,258],["7-50447432-50452191-1_enh",0.2375625253438739,-4.092597613661258,270],["10-107317200-107321911-2_enh",0.23547942317124937,-3.9496766178655034,264],["2-60056299-60058970-0_enh",0.22888691806982606,-3.816685460845277,269],["2-60056299-60058970-2_enh",0.22476525483280502,-3.7313161054267105,272],["2-85999236-86003005-0_enh",0.21738339492659764,-3.5172746705306044,272],["3-147123146-147125741-1_enh",0.24035243759282063,-2.115718618655295,122],["3-147125741-147128336-1_enh",0.23939302907651416,-3.7827230724802274,243],["7-1268500-1271169-1_enh",0.22171619733351738,-3.5486748002721806,264],["7-21082342-21084901-0_enh",0.2233648132427707,-3.2386905372446417,234],["9-92290484-92293186-2_enh",0.22600102207893333,-3.70729275321376,267],["13-95359140-95362017-2_enh",0.2385048773787529,-3.865819311135373,251],["18-75497422-75500507-0_enh",0.21972373634684852,-3.6416408420860322,277],["18-25498905-25502559-2_enh",0.22033729919943137,-3.544436638227095,267]],"bottom":[["18-25661863-25666359-0_enh",-0.17164290294170256,-2.25077978533124,259]]}}}
{"ccle_mirna":{"corr":{"top":[["hsa-miR-1976_miR00692.1",0.1856502646316903,-2.9324412379519664,303],["hsa-miR-1977_miR00693.1",0.23080499100696536,-4.301513115621421,303],["hsa-miR-449c_miR00708.1",0.23144777370386874,-4.323119425045815,303],["hsa-miR-505_miR00414.1",0.20442514157302674,-3.4666049469752145,303],["hsa-miR-620_miR00575.1",0.19641499391435283,-3.232717589138178,303],["hsa-miR-7_miR00629.1",0.2449735307618706,-4.79203061100079,303],["hsa-miR-936_miR00674.1",0.1882800040980102,-3.0043233472859177,303],["ebv-miR-BHRF1-1_miR00750.1",0.19184329786562337,-3.103239197521327,303]],"bottom":[["hsa-miR-363_miR00332.1",-0.18166194364092092,-2.8252259898529877,303]]},"para":{"top":[["hsa-miR-1289_miR00110.1",0.19014956307408787,-3.056003653487835,303],["hsa-miR-1977_miR00693.1",0.2122797020137465,-3.704736074190459,303],["hsa-miR-200b_miR00227.2",0.2430737693612714,-4.724514219421413,303],["hsa-miR-205_miR00232.1",0.20943099489721057,-3.6173573332720594,303],["hsa-miR-215_miR00243.1",0.21669865006249475,-3.842575949319594,303],["hsa-miR-449c_miR00708.1",0.21634702075859644,-3.83150491593403,303],["hsa-miR-505_miR00414.1",0.19073948674380126,-3.0724107811863766,303],["hsa-miR-7_miR00629.1",0.2509766438062902,-5.008975065283744,303],["hsa-miR-885-3p_miR00650.1",0.18886057356522518,-3.0203206141498717,303],["ebv-miR-BHRF1-1_miR00750.1",0.2005362063325881,-3.351929652423094,303]],"bottom":[["hsa-miR-154_miR00177.1",-0.21978196191415716,-3.9404175869788847,303],["hsa-miR-221_miR00255.1",-0.19268591601366267,-3.126885977067433,303],["hsa-miR-376b_miR00346.1",-0.16424503550852146,-2.3821479975853608,303],["hsa-miR-410_miR00358.1",-0.1573781523872434,-2.218523579906911,303]]}}}
{"prism_primary_logfold":{"corr":{"top":[["lovastatin_BRD-K09416995-001-39-9::2.5::HTS",0.6895435159996881,-45.04222538343267,315],["simvastatin_BRD-K22134346-001-22-3::2.5::HTS",0.7431415099469045,-52.15350500251083,294],["simvastatin_BRD-K22134346-001-24-9::2.42::HTS",0.5341038455920236,-21.620658521210416,284],["1400W_BRD-K30237152-300-02-5::2.5::HTS",0.22715673054745303,-4.325768069033871,315],["fluvastatin_BRD-K66296774-236-11-3::2.63::HTS",0.4247710708204833,-13.582220443534828,294],["atorvastatin_BRD-K69726342-238-02-4::2.5::HTS",0.7284326793263072,-52.4504134022533,314],["pitavastatin_BRD-K75958547-238-01-0::2.5::HTS",0.600655794289887,-31.445855160447564,314],["mevastatin_BRD-K94441233-001-13-0::2.6::HTS",0.6401743276397801,-33.42355898107835,284],["mevastatin_BRD-K94441233-001-17-1::2.5::HTS",0.686111478647464,-44.15333288942331,313],["tolamolol_BRD-A60498477-001-01-2::2.508127434::MTS004",0.2554489690447354,-5.204809246006942,305]],"bottom":[["loxoprofen_BRD-A43082555-001-01-1::2.5::HTS",-0.16181574494517967,-2.393474757856738,314],["memantine_BRD-A79803969-003-16-1::2.5::HTS",-0.18587305370738244,-3.0374903066276846,315],["nicotine_BRD-A93695607-322-02-5::2.47::HTS",-0.1768550980121091,-2.555684202408464,284],["bethanechol_BRD-A99833829-003-27-1::2.5::HTS",-0.18604552638142483,-2.7856130498782408,284],["YM-976_BRD-K12932420-001-02-3::2.5::HTS",-0.1628120549885188,-2.1989155938245744,280],["phenolphthalein_BRD-K19227686-001-18-6::2.5::HTS",-0.20805871199520906,-3.483342927702713,294],["epiandrosterone_BRD-K42756753-001-01-9::2.5::HTS",-0.18642266979047242,-2.8786176416833578,294],["AZD8931_BRD-K98572433-001-02-9::2.5::HTS",-0.1877622988354363,-3.082616048453221,314]]},"para":{"top":[["lovastatin_BRD-K09416995-001-39-9::2.5::HTS",0.6262184198035929,-34.98082164913536,315],["simvastatin_BRD-K22134346-001-22-3::2.5::HTS",0.6460644948638992,-35.399274304406376,294],["simvastatin_BRD-K22134346-001-24-9::2.42::HTS",0.5046812621426291,-19.032525287492387,284],["fluvastatin_BRD-K66296774-236-11-3::2.63::HTS",0.4411280263143261,-14.703426967222194,294],["atorvastatin_BRD-K69726342-238-02-4::2.5::HTS",0.6516615322627574,-38.613452879115826,314],["pitavastatin_BRD-K75958547-238-01-0::2.5::HTS",0.5861335877619479,-29.632894589267835,314],["mevastatin_BRD-K94441233-001-13-0::2.6::HTS",0.6016637654611084,-28.62579406079783,284],["mevastatin_BRD-K94441233-001-17-1::2.5::HTS",0.6188988078058788,-33.75318430901896,313],["tolamolol_BRD-A60498477-001-01-2::2.508127434::MTS004",0.22650179461978984,-4.182604959174022,305]],"bottom":[["ganglioside-gm1_BRD-A30703952-201-01-2::2.5::HTS",-0.17399721423365297,-2.705332367913991,314],["bethanechol_BRD-A99833829-003-27-1::2.5::HTS",-0.17224830564020085,-2.444439974232935,284],["YM-976_BRD-K12932420-001-02-3::2.5::HTS",-0.1764814168193462,-2.5164448548610956,280],["beta-naphthol_BRD-K21164796-001-02-8::2.5::HTS",-0.1877426086781289,-3.0820572401216206,314],["PD-153035_BRD-K26603252-003-04-9::2.5::HTS",-0.19323008906155698,-3.239935150621258,314],["penicillin-v-potassium_BRD-K43966364-237-04-8::2.5::HTS",-0.1827414905899992,-2.941907994276626,314],["pazufloxacin_BRD-K66412701-066-01-6::2.5::HTS",-0.17626781564735605,-2.7731854235744104,315],["iodipamide_BRD-K67261995-001-11-7::2.5::HTS",-0.17468442953423474,-2.7308632092495713,315],["trazodone_BRD-K70778732-003-26-7::2.5::HTS",-0.16725426990664932,-2.5301799620361205,314],["INC-280_BRD-K81016934-001-02-0::2.5::HTS",-0.1980921101953018,-3.1969213300514485,294],["probenecid_BRD-K95237249-001-26-5::2.5::HTS",-0.17487793613668914,-2.7286755841212442,314],["AZD8931_BRD-K98572433-001-02-9::2.5::HTS",-0.19389154559205596,-3.259257069918753,314]]}}}
{"prism_secondary_logfold":{"corr":{"top":[["atorvastatin_BRD-K69726342-238-02-4::10::HTS002",0.7163663471080984,-49.81554595089559,313],["pitavastatin_BRD-K75958547-238-01-0::0.15625::HTS002",0.6092928799423134,-32.670185813940854,315],["simvastatin_BRD-K22134346-001-24-9::2.42474::HTS002",0.5156413270210463,-22.070263113383547,315],["BMS-707035_BRD-K49555808-001-03-9::10::HTS002",0.5320549789088914,-19.09403396838622,252],["mevastatin_BRD-K94441233-001-13-0::10.3957::HTS002",0.47827221211891724,-17.94162157318438,302],["atorvastatin_BRD-K69726342-238-02-4::2.5::HTS002",0.7871102360054439,-66.50407066215317,313],["fluvastatin_BRD-K66296774-236-11-3::0.164353::HTS002",0.41458480231407385,-13.788648426924874,315],["mevastatin_BRD-K94441233-001-13-0::0.64973::HTS002",0.714054989502915,-47.64599472109381,302],["fluvastatin_BRD-K66296774-236-11-3::0.657411::HTS002",0.7877598319438521,-67.10850947156536,315],["pitavastatin_BRD-K75958547-238-01-0::10::HTS002",0.4341696270241612,-15.186204128144373,315],["atorvastatin_BRD-K69726342-238-02-4::0.625::HTS002",0.4187882564393258,-13.995899866275064,313],["lovastatin_BRD-K09416995-001-39-9::2.5::HTS002",0.4401433114400107,-8.672478869793279,169],["pitavastatin_BRD-K75958547-238-01-0::2.5::HTS002",0.6561353804897574,-39.43183668593137,315],["fluvastatin_BRD-K66296774-236-11-3::2.62965::HTS002",0.5748109560381273,-27.66681206733978,307],["mevastatin_BRD-K94441233-001-13-0::2.59892::HTS002",0.707628280953991,-46.43890492103221,302]],"bottom":[["altretamine_BRD-K67043667-001-26-4::0.00061034::HTS002",-0.2061073077166509,-1.6104273239817106,119],["BMS-754807_BRD-K13049116-001-05-7::0.15625::HTS002",-0.19210225649929097,-3.136873859877896,306],["alpelisib_BRD-K54997624-001-06-0::10::MTS010::PROS002_PR500",-0.1767748874109744,-2.6291105059144386,294],["AZD8931_BRD-K98572433-001-02-9::10::MTS010::PROS002_PR500",-0.20442863264279834,-3.377451796563564,294],["iobenguane_BRD-K43860855-065-11-9::0.00244141::HTS002",-0.2295688961426653,-2.5721646430010665,169],["vidarabine_BRD-K72093121-001-16-3::2.5::HTS002",-0.2066816868964586,-3.635229183349994,313],["taselisib_BRD-K44844162-001-01-6::2.5::HTS002",-0.18322574843513192,-2.8911143642647423,306],["eprobemide_BRD-K17979676-001-01-2::0.625::HTS002",-0.19772964990250305,-3.1121980678692567,286],["terconazole_BRD-K86204871-001-16-2::2.5::HTS002",-0.1911682133647253,-2.9359475672556195,286]]},"para":{"top":[["atorvastatin_BRD-K69726342-238-02-4::10::HTS002",0.6699414557024075,-41.401572637767984,313],["mevastatin_BRD-K94441233-001-13-0::0.162432::HTS002",0.34171813748103497,-8.969945391561913,302],["pitavastatin_BRD-K75958547-238-01-0::0.15625::HTS002",0.5037092195339693,-20.943463224573435,315],["simvastatin_BRD-K22134346-001-24-9::2.42474::HTS002",0.4312360122792976,-14.97105030105693,315],["BMS-707035_BRD-K49555808-001-03-9::10::HTS002",0.5029479308244249,-16.83570931083279,252],["mevastatin_BRD-K94441233-001-13-0::10.3957::HTS002",0.46009968326236295,-16.500621462175115,302],["atorvastatin_BRD-K69726342-238-02-4::2.5::HTS002",0.7304871845821138,-52.71932209800963,313],["mevastatin_BRD-K94441233-001-13-0::0.64973::HTS002",0.6670837555777656,-39.51907739489224,302],["fluvastatin_BRD-K66296774-236-11-3::0.657411::HTS002",0.719868772022156,-50.837610037457736,315],["pitavastatin_BRD-K75958547-238-01-0::10::HTS002",0.4388205733555251,-15.531605957822036,315],["lovastatin_BRD-K09416995-001-39-9::2.5::HTS002",0.3501235022173435,-5.513507883313083,169],["pitavastatin_BRD-K75958547-238-01-0::2.5::HTS002",0.6488778431615276,-38.30600629777195,315],["fluvastatin_BRD-K66296774-236-11-3::2.62965::HTS002",0.5550051090266184,-25.474741101924586,307],["mevastatin_BRD-K94441233-001-13-0::2.59892::HTS002",0.6833538737528847,-42.160814191172875,302]],"bottom":[["AZD8931_BRD-K98572433-001-02-9::0.15625::MTS010::PROS002_PR500",-0.20235397117237056,-3.3177423844385268,294],["altretamine_BRD-K67043667-001-26-4::0.00061034::HTS002",-0.22208137417373197,-1.8179960520096679,119],["levonorgestrel_BRD-K35189033-001-26-1::0.00976562::HTS002",-0.19070229901375377,-3.1753269138764644,315],["erlotinib_BRD-K70401845-001-15-7::0.15625::MTS010::PROS003_PR500",-0.2050935831088706,-3.5164340376509533,306],["clomifene_BRD-K29950728-048-17-4::10::HTS002",-0.19555227637134565,-3.2626262496714338,309],["lucitanib_BRD-K31309378-001-01-5::0.00976562::HTS002",-0.19721342577740775,-3.274120818858783,305],["SKI-II_BRD-K20755323-001-05-9::0.00976562::HTS002",-0.1904624790762985,-3.1425016404145594,312],["AZD8931_BRD-K98572433-001-02-9::10::MTS010::PROS002_PR500",-0.23424567068494598,-4.301608524669133,294],["osimertinib_BRD-K42805893-001-04-9::0.625::HTS002",-0.20352408704563196,-3.488944530564836,308],["dacomitinib_BRD-K57169635-001-04-5::0.0391::MTS010::PROS002_PR500",-0.20949757768702634,-3.5258161461066693,294],["iobenguane_BRD-K43860855-065-11-9::0.00244141::HTS002",-0.21970604340829938,-2.386901769118117,169],["vidarabine_BRD-K72093121-001-16-3::2.5::HTS002",-0.1970328878298473,-3.3426669852165656,313],["alpelisib_BRD-K54997624-001-06-0::10::MTS010::PROS002_PR500",-0.19585704812643787,-3.1345415992552184,294]]}}}
{"ccle_proteomics":{"corr":{"top":[["ETV6_P41212",0.2864358279804566,-3.7966397847142725,169],["USP3_Q9Y6I4",0.3149224683774907,-4.516686077420957,169],["SYBU_Q9NX95",0.29582480285876556,-2.8552621775009897,114],["SEMA4D_Q92854",0.27824996846884437,-2.983767116266328,136],["STK35_Q8TDR2",0.2757661722967767,-2.6196692345714503,119],["MAFK_O60675",0.284212948547837,-2.4814655920652906,105],["FBRSL1_Q9HCM7",0.31766341015057886,-2.9679556506608975,103],["TNFAIP8_O95379",0.2969436662072718,-3.6278402913318524,149],["PTPN6_P29350-3",0.31756253478109026,-4.587247643233545,169],["NFATC1_O95644",0.30556357140324647,-2.8165869486006883,105],["CIB1_Q99828",0.28026458214744016,-3.650357915436735,169],["DGKE_P52429",0.28951463176369335,-3.384643255879645,145],["ADAP1_O75689",0.275544950327421,-3.1549162187433195,148],["LGALS9C_Q6DKI2",0.2745537570779609,-2.8959649022941005,135],["LRRFIP1_Q32MZ4",0.2743546480996861,-3.513419951549691,169]],"bottom":[["EVI5_F5H4R0",-0.3491467741315268,-4.211076750540942,126],["CNP_P09543",-0.3193662369997667,-4.63583807733958,169],["NOTCH2_Q04721",-0.31620972194171,-4.551007835754111,169],["DIRC2_Q96SL1",-0.2764778281306005,-2.631425336902767,119],["POFUT1_Q9H488",-0.29207392793570247,-3.933257343857495,169],["ALG11_Q2TAA5",-0.2807444308539175,-3.471412419702473,159],["RAB5C_P51148-2",-0.29480312332987013,-4.000418926707482,169],["TENM3_Q9P273",-0.28459895915829936,-3.55737069280404,159],["FKBP9_O95302",-0.28234948997408427,-3.6994002126491963,169],["HLA-DPA1_P20036",-0.29146405952428245,-3.0736967874066363,128],["TMEM115_Q12893",-0.3096800745518676,-4.378529765583418,169],["STX12_Q86Y82",-0.29135574749558163,-3.915696016805453,169],["MSRB3_Q8IXL7-2",-0.3356188747601097,-3.8029865245333356,122],["JAM3_Q9BX67",-0.3078851727515527,-3.713412545660754,142],["COPZ2_Q9P299",-0.29573340853873337,-2.5505567597950844,100]]},"para":{"top":[["AKR1B10_O60218",0.30448484925115543,-3.9536190570113305,156],["AKR1B15_C9JRZ8",0.27277304817702813,-3.225448360535086,155],["USP3_Q9Y6I4",0.3234618454125737,-4.7473312716043,169],["CA2_P00918",0.27953880817346705,-3.633375936799651,169],["SYBU_Q9NX95",0.29709927745440196,-2.8770103681795884,114],["SEMA4D_Q92854",0.2924905240015287,-3.2600430439327504,136],["FBRSL1_Q9HCM7",0.28188442804772007,-2.4068657120577925,103],["YAF2_Q8IY57",0.27568523430592395,-2.5620238531894937,116],["MAFK_O60675",0.3181749853565486,-3.0265611855193773,105],["HMGCS1_Q01581",0.26768004495063635,-3.3624227890341265,169],["TNFAIP8_O95379",0.27133164459619774,-3.0880593270416656,149],["FGFR1OP2_Q9NVK5",0.26115718197964827,-3.2185605472626717,169],["TUBA4A_P68366",0.2755448206764854,-3.5407512331974127,169],["PTPN6_P29350-3",0.33340315437812357,-5.024742455153108,169],["CIB1_Q99828",0.29150146344319083,-3.9192553730676045,169],["YBX3_P16989-2",0.27571711708098556,-3.434656015571867,163]],"bottom":[["EVI5_F5H4R0",-0.33248843641075787,-3.846174863902016,126],["PDLIM4_P50479",-0.27879677638723793,-3.616061518380297,169],["FLCN_Q8NFG4",-0.2807416158422513,-3.299573248079012,150],["NOTCH2_Q04721",-0.32587242638495917,-4.813711585786992,169],["HEATR5A_Q86XA9",-0.2737101557543278,-2.990156761658366,141],["CNTNAP1_P78357",-0.2810309806349277,-3.668340886288556,169],["RAB5C_P51148-2",-0.2863846730456604,-3.7954132937686316,169],["SEC22B_O75396",-0.27372757519691376,-3.4990694462496785,169],["CLCN5_P51795-2",-0.27209744941239455,-3.031416825262618,145],["STX12_Q86Y82",-0.2810633013358394,-3.6691004073544033,169],["MSRB3_Q8IXL7-2",-0.3695184877384063,-4.551957441673658,122],["PSMB5_P28074",-0.28494285144239645,-3.7609402287843112,169]]}}}
{"depmap_copy_number":{"corr":{"top":[["RALGPS1_9649",0.19733917486199282,-3.314767786721023,309],["DIPK1B_138311",0.2047691973597134,-3.536461719019145,309],["SLC2A8_29988",0.21068918471688022,-3.718786887520167,309],["ZBTB34_403341",0.19733917486199282,-3.314767786721023,309],["ANGPTL2_23452",0.19733917486199282,-3.314767786721023,309],["STXBP1_6812",0.20516815305102842,-3.5485896586830297,309],["NRON_641373",0.197267780892023,-3.3126758140568477,309],["ZNF79_7633",0.21065861536073222,-3.717832353497984,309],["LRSAM1_90678",0.22779515276773507,-4.274453401665778,309],["PAEP_5047",0.20263457690619083,-3.471960047602,309],["LMX1B_4010",0.19652625492410786,-3.290990617205987,309],["ZBTB43_23099",0.19733917486199282,-3.314767786721023,309],["GARNL3_84253",0.21088813986697338,-3.725002622208365,309],["SNORA65_26783",0.22779515276773507,-4.274453401665778,309],["NIBAN2_64855",0.21767815912150584,-3.940601442989608,309],["RPL12_6136",0.22779515276773507,-4.274453401665778,309]],"bottom":[["PRICKLE2-AS2_100874242",-0.26287872760912895,-5.552719964317908,309],["MAGI1_9223",-0.270663987871528,-5.862559003901605,309],["SYNPR-AS1_100874016",-0.2651761508643885,-5.643141269179917,309],["ADAMTS9_56999",-0.25611796687152677,-5.29150283190525,309],["LOC101927374_101927374",-0.25851479569256686,-5.383281171484201,309],["LINC00994_100287879",-0.26287872760912895,-5.552719964317908,309],["MIR3923_100500877",-0.25851479569256686,-5.383281171484201,309],["SYNPR_132204",-0.2651761508643885,-5.643141269179917,309],["SCAANT1_100861563",-0.25644066669811916,-5.303806707368533,309],["PSMD6_9861",-0.2661669048361839,-5.682395805551459,309],["PRICKLE2_166336",-0.26287872760912895,-5.552719964317908,309],["PRICKLE2-AS1_100652759",-0.26287872760912895,-5.552719964317908,309],["THOC7-AS1_100874039",-0.25490516624631,-5.245407860917212,309],["ADAMTS9-AS2_100507098",-0.27340086635426125,-5.973805052727704,309],["ADAMTS9-AS1_101929335",-0.2712083365941733,-5.8845883815470375,309],["PSMD6-AS2_100507062",-0.2661669048361839,-5.682395805551459,309]]},"para":{"top":[["LOC102724084_102724084",0.20919652878540523,-3.672337025305864,309],["MAF_4094",0.21189828582242362,-3.7566503995894847,309],["CMC2_56942",0.20326677511767913,-3.490994868690216,309],["LINC01229_101928248",0.21189828582242362,-3.7566503995894847,309],["LINC01227_101928276",0.20919652878540523,-3.672337025305864,309],["ARLNC1_100996425",0.2072901057129362,-3.6134812243089516,309],["DYNLRB2_83657",0.20919652878540523,-3.672337025305864,309],["CENPN_55839",0.20344614645774564,-3.49640600539263,309],["MAFTRR_102467146",0.21189828582242362,-3.7566503995894847,309],["POLR3E_55718",0.21726490598264284,-3.9272865265371815,309],["CDYL2_124359",0.20919652878540523,-3.672337025305864,309],["EEF2K_29904",0.20307746405012575,-3.4852888918474387,309]],"bottom":[["PRICKLE2-AS2_100874242",-0.297058627647086,-6.986920149227379,309],["MAGI1_9223",-0.3007875457054005,-7.155196756045115,309],["SYNPR-AS1_100874016",-0.29240217894055154,-6.780112422083765,309],["PRICKLE2-AS3_100874243",-0.28826740544666823,-6.599544330370156,309],["LOC101927374_101927374",-0.30364055231820675,-7.285557496137046,309],["LINC00994_100287879",-0.297058627647086,-6.986920149227379,309],["MIR3923_100500877",-0.30364055231820675,-7.285557496137046,309],["SYNPR_132204",-0.29240217894055154,-6.780112422083765,309],["SCAANT1_100861563",-0.2888197548381815,-6.623499542515977,309],["PSMD6_9861",-0.2985253227176286,-7.052824573387161,309],["PRICKLE2_166336",-0.297058627647086,-6.986920149227379,309],["PRICKLE2-AS1_100652759",-0.297058627647086,-6.986920149227379,309],["LOC105377162_105377162",-0.28817108631581057,-6.595372235056327,309],["ADAMTS9-AS2_100507098",-0.2997352035793882,-7.107466107246045,309],["ADAMTS9-AS1_101929335",-0.30482548170131374,-7.340112640564787,309],["PSMD6-AS2_100507062",-0.2985253227176286,-7.052824573387161,309]]}}}
{"depmap_gene_tpm":{"corr":{"top":[["CHMP4C_92421",0.2722304497496189,-5.908702866558858,308],["PTPN6_5777",0.27681941437041513,-6.096499065371597,308],["MXD1_4084",0.27677892102577833,-6.094826950385124,308],["COLCA2_120376",0.26956450521822367,-5.801169957890602,308],["CCDC88C_440193",0.2685353745568301,-5.759965603542911,308],["JUP_3728",0.27065675732836353,-5.845088091353725,308],["MARVELD2_153562",0.28246593718935664,-6.332294594292792,308],["SPINT2_10653",0.28287420535793156,-6.349546926946157,308],["EVPL_2125",0.26385555917979786,-5.574736540999698,308],["BAIAP2L1_55971",0.26450431644803857,-5.600205671587615,308],["ARHGAP27_201176",0.26378654197100937,-5.57203098671735,308],["EPB41L4B_54566",0.2749448623520186,-6.01937237217839,308],["NUP62CL_54830",0.2623689246769109,-5.516626419353277,308]],"bottom":[["JAM3_83700",-0.3047827490355552,-7.316301864977841,308],["PCBP4_57060",-0.2966915630637577,-6.949808739155351,308],["COL11A1_1301",-0.26836118567556383,-5.753008273983378,308],["SLC24A2_25769",-0.32674244929007373,-8.368490189929867,308],["RCVRN_5957",-0.29072720652582895,-6.686777887109713,308],["NTM_50863",-0.2836773161241822,-6.383564626966115,308],["PMP22_5376",-0.31219401575773476,-7.66190949201151,308],["PSMD6_9861",-0.30222809836072206,-7.199376241147932,308],["POU3F2_5454",-0.2846060553319249,-6.423036674026555,308],["SMPD1_6609",-0.30219393806037964,-7.197820339469828,308],["ELP6_54859",-0.2689445407946405,-5.776327411874861,308],["SELENON_57190",-0.2820654306615165,-6.315396977234344,308],["LCTL_197021",-0.30138077661141327,-7.16084233285794,308],["ST8SIA5_29906",-0.296064933559986,-6.921891418770604,308]]},"para":{"top":[["PLA2G10_8399",0.2711122609766943,-5.863460185348929,308],["PTPN6_5777",0.2781411333368139,-6.151224639068587,308],["FRK_2444",0.2805755748318995,-6.2527710959812435,308],["FUT6_2528",0.2846606459294871,-6.425361257158285,308],["MXD1_4084",0.2942378103722332,-6.840870019835933,308],["MUC20_200958",0.2773602898316472,-6.118859420062285,308],["FUT1_2523",0.28161359049600715,-6.296365316015336,308],["KLHL31_401265",0.3057844367094114,-7.362455941087383,308],["CEACAM6_4680",0.27347273543840817,-5.9592038531696385,308],["GCNT3_9245",0.27133391645919963,-5.872412460755816,308],["PTBP3_9991",0.2761324162618227,-6.068166690686871,308],["GCLC_2729",0.3010470986535439,-7.1457013440512345,308],["GPX2_2877",0.30546231048466044,-7.347594637350754,308],["MARVELD2_153562",0.27192466633519685,-5.896310580899725,308]],"bottom":[["JAM3_83700",-0.27466417064989723,-6.007872822385242,308],["CHST10_9486",-0.2724980745548895,-5.919561138102762,308],["PCBP4_57060",-0.31194548311686543,-7.650164532593053,308],["CFL2_1073",-0.28154530446305576,-6.293492011779923,308],["DNAJC8_22826",-0.2825213386517295,-6.334634099866719,308],["PMP22_5376",-0.2662481263953595,-5.66899763200216,308],["CNN3_1266",-0.26920553815395304,-5.786778279808284,308],["TMCC2_9911",-0.26859968095256426,-5.762535316337627,308],["VIM_7431",-0.27510585548030403,-6.025973819797262,308],["PSMD6_9861",-0.3231808305330103,-8.19201839327586,308],["EXTL2_2135",-0.2750740151238201,-6.0246678864418,308],["SNAPC2_6618",-0.27242655771688357,-5.916658369045112,308],["SMPD1_6609",-0.28607218981504584,-6.485639441938302,308],["SRM_6723",-0.2710320792525891,-5.860223740450554,308],["POLR2L_5441",-0.2735653881001068,-5.962980361535506,308],["ELP6_54859",-0.2914228824787431,-6.717148717329293,308]]}}}
{"avana":{"corr":{"top":[["LEMD3_23592",0.24452276613037197,-3.630064454307205,222],["GABBR2_9568",0.2267329114004644,-3.1771638233773776,222],["INPP5K_51763",0.2167521751822608,-2.937816821646586,222],["FAM227B_196951",0.2226095417982619,-3.0770136523400087,222],["OSBPL6_114880",0.22086186476021902,-3.0351053650401485,222],["DPPA5_340168",0.21104921072505634,-2.805718618731945,222],["RNF40_9810",0.22622600930087797,-3.1524808880784048,221],["SH3BP4_23677",0.23600424768068567,-3.4089460034135035,222],["CLIC1_1192",0.23725723664001655,-3.4409771827597755,222],["RET_5979",0.2200611886297204,-3.0160125772311974,222],["MN1_4330",0.21379576156128852,-2.8689170163857156,222],["SUSD2_56241",0.21658437959563728,-2.9338820203392193,222],["KCTD10_83892",0.27968254699082823,-4.628154717183117,222],["UBIAD1_29914",0.28102446097365724,-4.66905225561787,222]],"bottom":[["EIF3G_8666",-0.2265540838192616,-3.1727831293179656,222],["CD151_977",-0.2555298838841393,-3.927554774139062,222],["FERMT1_55612",-0.27276662813317626,-4.420707906192121,222],["CERS1_10715",-0.2345719658031761,-3.372538486181747,222],["SLC2A1_6513",-0.27125558430904645,-4.376120960684434,222],["TM2D1_83941",-0.25127297426830225,-3.8109137093043985,222],["SNX27_81609",-0.24675009451746138,-3.6891841746920915,222],["TRAF3_7187",-0.23984428124172824,-3.507648506698474,222],["WASF2_10163",-0.23034287217308036,-3.2663218065640724,222],["CFLAR_8837",-0.2284941143687048,-3.2204886516479703,222],["TMCO2_127391",-0.22773486368991772,-3.201771068379541,222],["TGFBRAP1_9392",-0.2269139837175265,-3.181602956680386,222],["PIK3CA_5290",-0.2804683193408907,-4.65207710708767,222],["RAB10_10890",-0.2763465248527416,-4.527394736171545,222],["BRD9_65980",-0.24363517373129692,-3.592488404954376,221],["UPF1_5976",-0.2228565738977844,-3.0710378620961607,221]]},"para":{"top":[["OS9_10956",0.2254820775003974,-3.1465933986815378,222],["DDR1_780",0.2316770945927789,-3.299625208532272,222],["LEMD3_23592",0.2895192812595665,-4.932875731970986,222],["SRF_6722",0.22216747296217373,-3.0663828017840107,222],["TNXB_7148",0.22628329064470762,-3.166156021576003,222],["DNAJC24_120526",0.21258546210547039,-2.840971935001745,222],["INPP5K_51763",0.23209968485870058,-3.3102130853046887,222],["KRTAP22-2_100288287",0.21058085341535307,-2.79501930338363,222],["FANCG_2189",0.22145305189527517,-3.049245820172326,222],["RNF40_9810",0.22012541382984696,-3.0058949465781115,221],["SHROOM2_357",0.2150331021056661,-2.719019646257867,206],["TMPO_7112",0.21110372896489,-2.806965519515886,222],["KCTD10_83892",0.28356801924739056,-4.747152691066801,222],["RPL39_6170",0.2185583398499849,-2.7961057311806394,206],["UBIAD1_29914",0.2712485453530087,-4.375913875131045,222]],"bottom":[["UBA3_9039",-0.2406884742092092,-3.5295613054164128,222],["CD151_977",-0.23859397433272067,-3.4753361405991705,222],["FERMT1_55612",-0.2671347854007938,-4.255860395050945,222],["TMCO2_127391",-0.2524459660946467,-3.842853110053659,222],["TM2D1_83941",-0.26607742235918025,-4.225315742733891,222],["WASF2_10163",-0.24264614750184474,-3.580674928060661,222],["SNX27_81609",-0.26450072238664707,-4.180005257242206,222],["SLC2A1_6513",-0.23199042483627652,-3.307473777335134,222],["TRNAU1AP_54952",-0.2304229334623887,-3.2683148531238517,222],["OR2V1_26693",-0.24141387884424265,-3.5484525374448017,222],["PIK3CA_5290",-0.29742895938830644,-5.186269017494883,222],["RAB10_10890",-0.25694083220088787,-3.9666610702437315,222],["UAP1_6675",-0.24372315038440115,-3.608972851728007,222],["PSMD6_9861",-0.2361296846975016,-3.4121450300201652,222],["CDC42EP5_148170",-0.23582391011866907,-3.404349814535186,222],["BRD9_65980",-0.25078803460376886,-3.782762710306118,221]]}}}
{"drive":{"corr":{"top":[["FOXO4_4303",0.324825096004316,-4.937108306847974,175],["TJP1_7082",0.25157049385620256,-3.044315655546259,171],["RNF4_6047",0.22445987640336235,-2.549095591906684,175],["TFEC_22797",0.2715555900490252,-3.5562361595831518,175],["RANGAP1_5905",0.23240745088169018,-2.745207466697574,178],["RBMY2FP_159162",0.2586546957049701,-3.180502761207036,170],["PPP2R3A_5523",0.22961264765985437,-2.6501158815872916,175],["BCL2L14_79370",0.2465136961580609,-2.997027557171055,175],["TNFRSF10A_8797",0.27080868368801675,-3.468089666845383,171],["SPRR3_6707",0.2317772489338594,-2.6408962563342513,171],["ZNF142_7701",0.2494544131810037,-3.0598641561571327,175],["HOXA10_3206",0.23334993002787638,-2.7247615636574394,175],["DNASE1L2_1775",0.24619999034452975,-2.9316407640075774,171]],"bottom":[["MIOS_54468",-0.3121579699399242,-4.584068181803977,175],["MFSD2A_84879",-0.29801385159444704,-4.2084016106195445,175],["VPS72_6944",-0.264591305564937,-3.3951765492496615,175],["MYB_4602",-0.2962177978531393,-4.162069435345184,175],["HERC1_8925",-0.2629505760005844,-3.3578602389417704,175],["WDR53_348793",-0.31859006444102556,-4.761344243250265,175],["ABL2_27",-0.28391764781191287,-3.7753535039375774,171],["SIRT2_22933",-0.2729530033298612,-3.5890766924775694,175],["JMJD1C_221037",-0.293149536885841,-4.083623631189814,175],["SHKBP1_92799",-0.2630385857457121,-3.3598558640387686,175],["CEBPB_1051",-0.28087112759741356,-3.7784992750650943,175],["P3H2_55214",-0.3081206171804586,-4.474865904639597,175],["SEC31B_25956",-0.26703332773716426,-3.4511594255189633,175],["STKLD1_169436",-0.32941988831152025,-4.938561685239128,170],["KDM5A_5927",-0.2721735774367708,-3.6242001065566014,178]]},"para":{"top":[["TJP1_7082",0.23448468688575347,-2.694172470706241,171],["OR2AK2_391191",0.26989048030512997,-3.4295722739303223,170],["RBMY2FP_159162",0.2708001802631402,-3.4502149536629427,170],["LOC644936_644936",0.2309336361476715,-2.637413585241676,172],["TNFRSF10A_8797",0.24515353295615241,-2.909966850499993,171],["CCNT2_905",0.23379589074301182,-2.68056188429845,171],["TNFSF10_8743",0.2386426636010838,-2.777158511614887,171],["OR51A4_401666",0.21914817277023246,-2.4002040741634185,171],["SLC6A12_6539",0.23407643989765656,-2.779329408175485,178],["DNASE1L2_1775",0.24662247094072456,-2.940416952763799,171]],"bottom":[["MIOS_54468",-0.24943629519994445,-3.059474740402325,175],["CSTF1_1477",-0.24749831504324912,-3.0179840433240566,175],["CBSL&CBS_102724560&875",-0.2986505911678389,-4.117708124179496,170],["TOP2A_7153",-0.24974305809014352,-3.066071908186083,175],["KCNT2_343450",-0.2513705983002016,-3.0247810390516165,170],["MYB_4602",-0.28946661322573497,-3.990630407284739,175],["WDR53_348793",-0.24046193591006876,-2.8700393344594817,175],["STK3_6788",-0.25378174454893243,-3.0758318399401987,170],["GATA2_2624",-0.25837369856760417,-3.2550199146732104,175],["EIF4H_7458",-0.24268394974931642,-2.859179005421062,171],["SHKBP1_92799",-0.2621767650363209,-3.340343491426236,175],["PFKFB1_5207",-0.2691011946090131,-3.4117202852141033,170],["CEBPB_1051",-0.2517144845183184,-3.1086625390675784,175],["ELL_8178",-0.2701945931302403,-3.5244201832073,175],["STKLD1_169436",-0.29256627819290326,-3.96592042914344,170],["RANBP6_26953",-0.29447986878406646,-4.013294126078299,170]]}}}
{"achilles":{"corr":{"top":[["CSAG1_158511",0.3240184127908157,-3.2305829297680337,109],["ESCO1_114799",0.3181026772222556,-4.966361071847966,184],["XKR9_389668",0.32429044129416174,-3.2354786546261427,109],["SERF1B&SERF1A_728492&8293",0.3248273951863173,-3.2451555945709116,109],["PSG1_5669",0.33278984730254496,-3.3907446418143845,109],["UTS2B_257313",0.3908648804085106,-4.577716642366116,109],["TCAF2P1_653691",0.3088653138597918,-2.964954164018028,109],["C12orf54_121273",0.3343981462352554,-3.420630731180588,109],["BBS5_129880",0.3204593006293322,-3.166946107896994,109],["UPK1A_11045",0.3222112730958986,-3.198174682500619,109],["COG5_10466",0.351956410640231,-3.75761252193019,109],["JMY_133746",0.3179646749589601,-3.122801742473598,109],["GOLGA1_2800",0.35896488136453353,-3.8977160010763634,109],["MICAL1_64780",0.3513812842414313,-3.746259126726492,109],["ATXN3_4287",0.33674897390992137,-3.7432677600030124,119],["LINC00472_79940",0.31513278090228797,-3.073144957950028,109]],"bottom":[["IL20RB_53833",-0.2953704682780867,-2.7398560272040586,109],["LOC100421746_100421746",-0.2864077728769048,-2.596158451816018,109],["CDC27_996",-0.3367289444946023,-3.464231149567698,109],["SDR39U1_56948",-0.30784169840980646,-2.947506060213143,109],["ASAP3_55616",-0.30359051396584114,-2.8757029949225954,109],["COL6A5_256076",-0.2876294514117525,-2.6154770001144736,109],["SAYSD1_55776",-0.40938078035047026,-5.005875653927703,109],["ZC4H2_55906",-0.30203981325475265,-2.849775225152274,109],["KCNIP3_30818",-0.31803785521804634,-4.9644672583961285,184],["PMEL_6490",-0.30580470384081604,-2.9129683519025447,109],["ARID4B_51742",-0.32645296038813065,-3.274559444068038,109],["MS4A13_503497",-0.2881781691118657,-2.6241813705477273,109],["TRPC6_7225",-0.2936269421414575,-4.281939506819675,184],["SPSB4_92369",-0.2862127799080113,-2.5930827943145296,109],["C16orf89_146556",-0.3207261688017798,-3.171690915162402,109],["CNTD1_124817",-0.3563546961931873,-3.845156986843171,109]]},"para":{"top":[["SERF1B&SERF1A_728492&8293",0.29369981326945266,-2.71272333087736,109],["PSG1_5669",0.295775626798382,-2.7464602489760703,109],["ASTN1_460",0.30425424950097757,-2.8868436520345506,109],["HOOK1_51361",0.3219232827592929,-3.1930284610927275,109],["TCAF2P1_653691",0.28545149998107366,-2.581095491739337,109],["C12orf54_121273",0.2878622546267661,-2.619167904644999,109],["ZNF121_7675",0.3600942458603343,-3.920597720292175,109],["UTS2B_257313",0.3550976626310675,-3.82000647315633,109],["BBS5_129880",0.33514117121110054,-3.4344927719661618,109],["COG5_10466",0.29333771971564154,-2.7068637495133707,109],["DGAT2L6_347516",0.3031804723576438,-2.8688334201556387,109],["FRA10AC1_118924",0.3407847761680357,-3.540919684749216,109],["GOLGA1_2800",0.31028706859287375,-2.989291740780964,109],["MICAL1_64780",0.31784504608028025,-3.120694285235271,109],["IFT88_8100",0.3280302661736134,-3.3032460828854817,109],["NRSN1_140767",0.33976392091360114,-3.521518721011554,109]],"bottom":[["PPP6R1_22870",-0.2771343645970847,-2.452243628841003,109],["LOC100421746_100421746",-0.2845036095258927,-2.5662153243067474,109],["CDC27_996",-0.35395019426140484,-3.7971392721882293,109],["GAPDHS_26330",-0.3086033762801518,-4.6934807995994365,184],["ASAP3_55616",-0.30153438405785693,-2.841354756463381,109],["TBC1D20_128637",-0.2909978014042686,-2.669178596301011,109],["ARMC6_93436",-0.2785899295242773,-2.4745159074223615,109],["SAYSD1_55776",-0.30420398574731605,-2.8859990827676616,109],["PTGIS_5740",-0.3007612074138501,-4.475168393982073,184],["C11orf42_160298",-0.28930193981622404,-2.642061055721111,109],["KCNIP3_30818",-0.3310504119333457,-5.353520090708758,184],["NUF2_83540",-0.2907768227916444,-2.665635792889109,109],["BCAS3_54828",-0.31055581168606117,-2.99390556310215,109],["ARID4B_51742",-0.31956481951355,-3.1510741624871583,109],["MS4A13_503497",-0.33775524861110473,-3.4835381254141526,109],["CNTD1_124817",-0.3567425557014386,-3.852938339871611,109]]}}}
{"ccle_rrbs_tss1kb":{"corr":{"top":[["MIR6814_21_43167001_43168001",0.26329348630229077,-4.6059360213488265,250],["FGFR2_10_123290828_123291828",0.2888437933842636,-5.839541288448772,269],["CCDC80_3_112359990_112360990",0.2480737788491093,-3.1046341656745327,180],["LINC01300_8_142349647_142350647",0.2652541850486042,-5.050886069237795,273],["RGPD3_2_107084801_107085801",0.35474751388452064,-4.029845621654612,116],["MIR183_7_129414854_129415854",0.25184883855290335,-4.473438864341217,265],["MAGEA4_23_151083708_151084708",0.3014122479585959,-2.9513391146320784,114],["WWP2_16_69957885_69958885",0.2932410773686419,-5.804792543176529,259],["NPR2_9_35791405_35792405",0.2609696148562287,-4.8697698400482965,271],["MIR411_14_101488661_101489661",0.27417069643257963,-3.726256831855377,181],["LINC01835_19_15975714_15976714",0.27230675760125717,-3.395099249275728,165],["MTIF2_2_55496384_55497384",0.0187769088130936,-0.08017539512736371,131],["TMPRSS6_22_37505449_37506449",0.2805560909470919,-5.065371847583087,244]],"bottom":[["MAP3K21_1_233462513_233463513",-0.28097110510936263,-5.619810639641334,273],["NIPAL3_1_24741239_24742239",-0.285844883195674,-5.572233725244136,261],["TUBA4B_2_220116964_220117964",-0.2732528770065075,-5.318414003542964,272],["FAM83F_22_40389952_40390952",-0.2670768527912196,-5.098250138911136,272],["PLXNB1_3_48471460_48472460",-0.27605705876779096,-5.474027415212313,275],["CEP170B_14_105330649_105331649",-0.3139811704062315,-6.956276106625214,274],["AP1S3_2_224702319_224703319",-0.31285790538773584,-6.862459645450838,272],["SMIM32_5_135528851_135529851",-0.2927373255535517,-5.988338907460805,269],["CACNB3_12_49207214_49208214",-0.28362080715131494,-2.8500267475842582,124],["ME1_6_84140938_84141938",-0.2611075549133037,-4.922701668521821,274],["SEMA3F_3_50191843_50192843",-0.2607309021920727,-4.89365133086144,273],["CEP104_1_3773797_3774797",-0.28937509742121065,-5.9781479435785165,275],["SPATA2L_16_89768121_89769121",-0.2643813172510054,-5.053257033844138,275],["MARVELD2_5_68709938_68710938",-0.27932555820439475,-4.931980611426743,239]]},"para":{"top":[["FGFR2_10_123290828_123291828",0.3282019420165989,-7.448212042372351,269],["DAAM2_6_39759158_39760158",0.24460135111342995,-4.327832966365868,271],["CCDC80_3_112359990_112360990",0.2382166868038472,-2.892496774735229,180],["MAGI2-AS3_7_79082275_79083275",0.2426562732758661,-4.321468872426781,275],["DAAM2_6_39759772_39760772",0.26258229759605367,-4.973908561878274,274],["ST8SIA4_5_100238989_100239989",0.25485167958396976,-3.458565194016831,193],["PIK3CD_1_9750524_9751524",0.26942186693864706,-5.078534757391238,266],["MAGI2_7_79082890_79083890",0.23956863910976195,-4.1549419123583515,270],["CEP57L1_6_109414824_109415824",0.26444040646072925,-4.244784810641056,226],["CPED1_7_120628444_120629444",0.2632779110272772,-2.383956300916982,117],["SNTG1_8_50823232_50824232",0.2557926051201456,-4.632650463134217,267],["IGSF1_23_130423403_130424403",0.2450419746593876,-4.015134161325372,248],["EPHA5_4_66535206_66536206",0.2489231545368771,-4.467373667029482,271],["LINC01726_20_21684223_21685223",0.2769656022309639,-5.2905994073519835,263]],"bottom":[["MXRA8_1_1298921_1299921",-0.23916139570216463,-3.9255694500833376,254],["TUBA4B_2_220116964_220117964",-0.24263434229352973,-4.279062219750317,272],["DGUOK_2_74152952_74153952",-0.2567827737772838,-4.774291826848897,274],["SNORD175_19_39957861_39958861",-0.23968395592672945,-2.319850480595238,137],["TNFRSF10A_8_23082680_23083680",-0.2345896151838117,-3.0559695581271873,198],["FAM83F_22_40389952_40390952",-0.2629166215900146,-4.952979687309411,272],["DNAJA4_15_78555486_78556486",-0.25860749987517967,-3.421305009289351,185],["SNRNP35_12_123941650_123942650",-0.25034715984949,-3.0639332475634937,174],["CACNB3_12_49207214_49208214",-0.2830436621891501,-2.8398489705671337,124],["SMIM32_5_135528851_135529851",-0.2548567084920863,-4.6324422263867895,269],["ELF3-AS1_1_201979481_201980481",-0.2663042538267436,-5.087799359833186,273],["CEP104_1_3773797_3774797",-0.24106033768231372,-4.270277970526078,275]]}}}
{"ccle_gene_tpm":{"corr":{"top":[["JUP_ENSG00000173801.12",0.2802648154456658,-6.202897299765665,306],["BAIAP2L1_ENSG00000006453.9",0.27319092965143266,-5.912714733279298,306],["PTPN6_ENSG00000111679.12",0.2883123652736617,-6.5429596744264265,306],["None_ENSG00000248405.5",0.27400257429620795,-5.945598466756706,306],["MARVELD2_ENSG00000152939.10",0.29308092609358655,-6.749519548630269,306],["EPB41L4B_ENSG00000095203.10",0.27707670802244855,-6.071111421298942,306],["AC092299.8_ENSG00000272098.1",0.27609955537494174,-6.031049752000605,306],["ARHGAP27_ENSG00000159314.7",0.2759171738069319,-6.02358953436495,306],["CCDC88C_ENSG00000015133.14",0.27583407416511496,-6.020192174847005,306],["CHMP4C_ENSG00000164695.4",0.2788885705026809,-6.1458049454367565,306],["GRB7_ENSG00000141738.9",0.2774255089387544,-6.085449190625466,306],["SPINT2_ENSG00000167642.8",0.29110377038675406,-6.663415123997507,306],["FAM201A_ENSG00000204860.4",0.29522626428994864,-6.843688679799016,306],["None_ENSG00000273170.1",0.2722747553673886,-5.875723425172648,306]],"bottom":[["RP1-65J11.5_ENSG00000235143.1",-0.28156358570352136,-6.257059218948608,306],["PSMD6_ENSG00000163636.6",-0.3012484298240697,-7.1121762859193955,306],["RP11-124N14.3_ENSG00000234961.1",-0.29119729536657984,-6.667473394743999,306],["RP11-742D12.2_ENSG00000270112.2",-0.28155464230880495,-6.256685314306693,306],["JAM3_ENSG00000166086.8",-0.3055937804448604,-7.309735924016326,306],["SMPD1_ENSG00000166311.5",-0.30764894462987225,-7.40430097499054,306],["PCBP4_ENSG00000090097.16",-0.29997073402776286,-7.0546991085572754,306],["POU3F2_ENSG00000184486.7",-0.2866299801366405,-6.470985484761802,306],["LINC00461_ENSG00000245526.4",-0.2885905936671281,-6.554907763568008,306],["NTM_ENSG00000182667.10",-0.28653705868150003,-6.467023854989935,306],["SEPN1_ENSG00000162430.12",-0.28453642519043215,-6.382074127522931,306],["SLC24A2_ENSG00000155886.7",-0.32677873321204615,-8.31990287199879,306],["RCVRN_ENSG00000109047.7",-0.29224287879246746,-6.71294312758399,306],["ST8SIA5_ENSG00000101638.9",-0.2985272407789863,-6.990096924629875,306],["PMP22_ENSG00000109099.9",-0.318380479993912,-7.9100018341223235,306],["LCTL_ENSG00000188501.7",-0.3020480237033856,-7.148287354331142,306]]},"para":{"top":[["FUT6_ENSG00000156413.9",0.29342243041197325,-6.76445815067356,306],["MARVELD2_ENSG00000152939.10",0.28537973615275974,-6.4178018304819515,306],["AC069213.1_ENSG00000224769.1",0.2989094234738054,-7.007166779720003,306],["PTPN6_ENSG00000111679.12",0.29293949369372885,-6.7433385155044565,306],["None_ENSG00000248405.5",0.2987929936573714,-7.001963924089383,306],["GCLC_ENSG00000001084.6",0.3053979753595743,-7.30076416834257,306],["GPX2_ENSG00000176153.10",0.3115193373366347,-7.584371248954851,306],["KLHL31_ENSG00000124743.5",0.3154650280316363,-7.770626322539241,306],["RP11-22C11.2_ENSG00000261437.1",0.28988254927964396,-6.610557213866885,306],["None_ENSG00000273170.1",0.2883563262704345,-6.544846657514657,306],["FAM201A_ENSG00000204860.4",0.2835071016074898,-6.338624433303891,306],["FUT1_ENSG00000174951.6",0.2842459840106343,-6.369796409862037,306],["MXD1_ENSG00000059728.6",0.2842347383777442,-6.369321306291812,306],["MUC20_ENSG00000176945.12",0.28817328042786766,-6.536991703321171,306]],"bottom":[["CFL2_ENSG00000165410.10",-0.2809317652317184,-6.230676312853699,306],["POLR2L_ENSG00000177700.5",-0.272055580776029,-5.866894074415203,306],["RP11-124N14.3_ENSG00000234961.1",-0.3037874022015637,-7.227217470768257,306],["PSMD6_ENSG00000163636.6",-0.3222022527343472,-8.094977813980732,306],["RP11-342M3.5_ENSG00000235426.2",-0.2749078490449157,-5.982400955394145,306],["PMP22_ENSG00000109099.9",-0.27363093388386606,-5.930528302274547,306],["PKIG_ENSG00000168734.9",-0.2743299963129147,-5.95889401384602,306],["SMPD1_ENSG00000166311.5",-0.2950893737322326,-6.8376568210189275,306],["PCBP4_ENSG00000090097.16",-0.31830711089649755,-7.906476008573775,306],["VIM_ENSG00000026025.9",-0.2769228997324537,-6.064795267124198,306],["JAM3_ENSG00000166086.8",-0.27305468612656425,-5.907205236959706,306],["ELP6_ENSG00000163832.11",-0.2875134244462456,-6.508721725385207,306],["RP3-523C21.2_ENSG00000236166.1",-0.28720890716685027,-6.495699715500961,306],["RP11-466L17.1_ENSG00000234810.1",-0.27278328531783563,-5.896239074502536,306],["SNAPC2_ENSG00000104976.7",-0.27832602113906724,-6.12255688656331,306],["DNAJC8_ENSG00000126698.6",-0.27342156035374643,-5.922047926708583,306]]}}}
{"ccle_rrbs_tss_clusters":{"corr":{"top":[["HMGB3_1",0.31296974371343217,-3.7069296722113223,137],["PRAP1_1",0.3346884041391727,-3.7561831390244858,121],["RASAL3_3",0.3639238619496064,-4.454938112399954,123],["CDH26_3",0.3021265430230607,-3.6770139034253195,146],["IRF5_10",0.35944411532477777,-4.034761095261285,113],["PPP2R2C_5",0.3901491135328943,-5.275586331542111,128],["TMPRSS6_2",0.3232340967678152,-3.881525975823883,135],["MPDZ_1",0.3187114632187989,-6.750188964955308,257],["MT1M_3",0.3447090008908408,-3.733116583113844,113],["ZSCAN12P1_2",0.3587298022217015,-3.892963839016182,109],["CYP4F3_1",0.31866454598827065,-6.242504378699205,236],["CYP2B7P_1",0.3043560638324117,-4.240862737614641,169],["MAGEA4_3",0.3014122479585959,-2.9513391146320784,114],["IFFO1_1",0.3141945751647463,-4.140255309054403,154],["FMO9P_1",0.3217565763891515,-3.949748942861227,139],["IL13RA2_1",0.31372204819224286,-3.048587929991762,109]],"bottom":[["GPX2_1",-0.3234839464253861,-5.601077296938629,203],["OCIAD2",-0.32160174082672677,-7.357626486488903,277],["ME1_2",-0.3102851438251086,-6.64128562231822,267],["CACNB3_2",-0.2844332001966892,-2.8842446422852994,125],["SMIM32_2",-0.2989204735288165,-4.424825828507002,184],["GCNT1_3",-0.2918590239631088,-6.034918154857872,273],["MIS18BP1_3",-0.29109396757318595,-4.194242512491756,183],["MARVELD2_2",-0.2891715241398126,-5.970245222298534,275],["AP1S3_3",-0.2990809684001916,-6.383226649679194,276],["CEP170B_1",-0.29278120093241555,-6.151690251037678,277],["SLC2A8_1",-0.3279148305994345,-7.639297576084244,277],["TC2N_5",-0.31785671727506504,-6.116400084611054,232],["SPINT2_3",-0.2867817747847685,-5.897310549915928,276],["RAB11FIP4_5",-0.31564559490752986,-7.074210120565034,276],["GNAI2_7",-0.2845664337414234,-3.3016362005183795,146]]},"para":{"top":[["SLC2A3_2",0.31958479500649434,-4.66632609545577,170],["PRAP1_1",0.3374735687696366,-3.813908497339556,121],["RASAL3_3",0.3595493464430661,-4.354535788169341,123],["YARS2_3",0.3053863254932636,-6.2006616469524065,256],["LCOR_2",0.33178991460749024,-3.858212001479682,127],["PPP2R2C_5",0.33636250479676993,-3.9844779770049636,128],["MPDZ_1",0.33324260490260765,-7.355309860844278,257],["DCP1B_1",0.3146856840740448,-3.719966018314621,136],["INTS4_1",0.32427518448559034,-3.4420493270277195,117],["CYP4F3_1",0.30411728294740525,-5.713899775021674,236],["NOS1_3",0.3111691036329846,-3.9501607432730683,149],["IL13RA2_1",0.31355148717715886,-3.045627006548756,109],["MPDZ_2",0.29554362066520173,-6.199956919320689,274],["DAAM2_1",0.32037290169075844,-3.8437433860179575,136],["RAD52_4",0.3088233493381253,-6.514163469521112,264],["FMO9P_1",0.314557303970784,-3.78937809044218,139]],"bottom":[["GPX2_1",-0.3166697358697343,-5.380445986972676,203],["ME1_2",-0.27681927733273604,-5.357711693905243,267],["RAPGEFL1_3",-0.26485783144882763,-5.020462163985108,272],["CACNB3_2",-0.28212271896062346,-2.843195888556322,125],["RGL2_1",-0.2813274811122483,-5.147367104245244,247],["SMIM32_2",-0.3010294223501104,-4.482532270654984,184],["PMEPA1_9",-0.2795298011033604,-2.9316163290806063,132],["DGUOK_2",-0.2673244560593013,-5.1574824534797825,275],["SNRNP35_2",-0.3016696313536702,-3.534392448353955,140],["KRT19_3",-0.2804744311902292,-3.427387609401264,157],["TC2N_6",-0.2758908042083907,-4.838772613302681,240],["XK_3",-0.28094258558304397,-2.6279898434204054,115],["MPPE1_2",-0.27991029761601816,-2.630572645313935,116],["MARVELD2_3",-0.2777408758079371,-5.318118447689835,263]]}}}
{"ccle_rrbs_cgi_clusters":{"corr":{"top":[["12_6662425_6667336-1",0.3141945751647463,-4.140255309054403,154],["16_56663945_56668641-3",0.3447090008908408,-3.733116583113844,113],["10_119000983_119003530-3",0.3377336468510107,-3.90307966628646,124],["13_113427177_113431393-2",0.30314637917181564,-3.899746422609028,155],["17_4402641_4405323-3",0.31272180145692374,-3.0071214426409067,108],["1_110183961_110188164-2",0.30651666920155324,-2.7390133261277803,101],["1_155032925_155035751-1",0.3297147208271555,-3.521188271783717,116],["2_131594721_131597302-3",0.3210076806699909,-3.0495188885910607,104],["5_179226283_179231003-1",0.2923630367336547,-3.734291071066069,159],["8_128325887_128330158-3",0.3196517725970199,-3.628716335157502,128],["9_13276312_13279058-2",0.32713860253844423,-6.767042927601547,244],["8_649163_653453-3",0.36329594921845354,-3.724878464011397,101],["2_233243999_233248448-3",0.308144527117655,-2.8353195385542516,104],["13_113682525_113686991-2",0.3079057184554268,-3.228344003330516,121],["9_13276312_13279058-1",0.3055900884783719,-6.230589585218612,257]],"bottom":[["12_133136936_133139480-1",-0.35757514201445195,-9.020530797583326,276],["8_8241559_8245984-2",-0.3775831075085654,-7.104814321308931,190],["8_144815861_144818518-2",-0.3090896440756762,-3.6470400507361447,138],["22_25348947_25351744-3",-0.3344936105297577,-7.780590707079298,271],["6_84138412_84142998-2",-0.3102851438251086,-6.64128562231822,267],["12_133133293_133137722-3",-0.3155783502907586,-7.094843342196664,277],["14_105328514_105331350-3",-0.311144362124847,-6.859365671209962,275],["7_27273055_27277626-2",-0.3147057435448996,-4.70137644936059,177],["9_130156774_130161057-1",-0.3279148305994345,-7.639297576084244,277],["5_131630014_131632797-2",-0.32627270637577505,-4.104151810652134,141],["12_53884562_53889101-3",-0.35378576798857597,-5.745287949473397,173],["14_92300201_92305078-2",-0.31785671727506504,-6.116400084611054,232],["9_130157210_130159850-1",-0.33140648947234763,-7.771851117552847,276],["4_2010571_2013428-2",-0.326761610854614,-3.306462618708498,110],["4_48906292_48910850-1",-0.32160174082672677,-7.357626486488903,277]]},"para":{"top":[["12_6662425_6667336-1",0.29529142358374055,-3.6969994641673094,154],["6_39758066_39762426-1",0.32037290169075844,-3.8437433860179575,136],["12_1097557_1100171-1",0.3088233493381253,-6.514163469521112,264],["12_2111343_2115881-1",0.3146856840740448,-3.719966018314621,136],["11_77703600_77708035-1",0.32427518448559034,-3.4420493270277195,117],["9_13276312_13279058-3",0.29554362066520173,-6.199956919320689,274],["9_13276312_13279058-2",0.3219396486536911,-6.562343643332372,244],["1_7829378_7833846-1",0.2990296458148537,-3.890283059773338,159],["19_3968536_3972746-1",0.2810660916334246,-2.766300276411431,122],["4_151504548_151507085-3",0.2998059288419632,-3.6913750933058633,149],["8_79714681_79719403-1",0.30957129249683185,-4.536937762791697,176],["23_47418402_47423099-3",0.2973457019732037,-2.968253015963431,118],["13_113682525_113686991-2",0.3280871889340791,-3.6215325027860796,121],["3_117714100_117718564-3",0.3473951374722037,-4.759853532094994,146],["9_13276312_13279058-1",0.3161747348156949,-6.64777602231979,257],["12_32906374_32910981-3",0.3053863254932636,-6.2006616469524065,256]],"bottom":[["6_33264302_33266942-2",-0.2813274811122483,-5.147367104245244,247],["17_60757730_60760288-1",-0.2793681341133569,-5.59693093239652,275],["6_84138412_84142998-2",-0.27681927733273604,-5.357711693905243,267],["23_37542804_37547419-3",-0.28094258558304397,-2.6279898434204054,115],["5_68708807_68713520-2",-0.2777408758079371,-5.318118447689835,263],["12_49206205_49208822-2",-0.28212271896062346,-2.843195888556322,125],["12_122275301_122279539-2",-0.28081836429756896,-4.079870545569068,191],["12_123940639_123945001-2",-0.3016696313536702,-3.534392448353955,140],["5_135528017_135530978-1",-0.28336543380755963,-5.235759322502892,248],["17_76134513_76139184-3",-0.28212626154243303,-5.456575857102519,262],["8_120218388_120223222-1",-0.2789203213925214,-2.710341031179458,121],["2_219755458_219760001-3",-0.30981580640266615,-4.681772441990255,182],["17_39681908_39686599-3",-0.2804744311902292,-3.427387609401264,157],["12_131301093_131305836-2",-0.29616686803740494,-6.100549077620794,268],["17_38331605_38334200-3",-0.2960604767049734,-6.075732670772941,267]]}}}
