{"depmap_hotspot":{"corr":{"top":[["ALKBH7",0.11250378364924615,-1.8365345784168492,13.0,458.0],["ANKRD13B",0.11829993655185689,-1.9922031816336123,26.0,445.0],["BDH2",0.13419093495045112,-2.4527613735872347,13.0,458.0],["BIVM",0.13328411939216175,-2.425132870000575,9.0,462.0],["C8orf74",0.12800466152387166,-2.267534912997484,12.0,459.0],["CHRDL1",0.13971572773158972,-2.624651694526445,12.0,459.0],["DDX19A",0.19436099482720207,-4.665186353798285,13.0,458.0],["DFNB31",0.14770534970987564,-2.884139083546094,39.0,432.0],["FAM154A",0.11661067460780047,-1.9461612088815468,8.0,463.0],["FAM154B",0.12044869683277894,-2.051572857504994,10.0,461.0],["FAT3",0.12110368851081939,-2.0698495425967844,160.0,311.0],["ITGAV",0.1205756076509307,-2.055107580802869,36.0,435.0],["KIF20A",0.1326228647273576,-2.405089601248623,27.0,444.0],["METTL13",0.12537990768150423,-2.1912404671338024,23.0,448.0],["METTL21B",0.11215086591545409,-1.827266184460868,8.0,463.0],["MRM1",0.11219416180076806,-1.8284019368006161,9.0,462.0],["OCSTAMP",0.11937552482480651,-2.0218087237317217,21.0,450.0],["OPRK1",0.11523305580359747,-1.9090238293111053,17.0,454.0],["OR52N1",0.15168273982706781,-3.0181704405012892,12.0,459.0],["RNF20",0.13449385311542172,-2.46202720982833,28.0,443.0],["SH3D19",0.129294491367024,-2.3055264067932213,18.0,453.0],["SOX3",0.11579243818998435,-1.9240590575545535,16.0,455.0],["SYPL2",0.125342137910721,-2.1901525327124163,14.0,457.0],["TBC1D14",0.15411292790766856,-3.101663371681947,24.0,447.0],["TMPO",0.13429251845470405,-2.4558666223960586,13.0,458.0],["TRIM10",0.11924496710536805,-2.0182030899215597,14.0,457.0],["XXYLT1",0.11515242240908467,-1.906861546792416,11.0,460.0],["ZBED4",0.12103427753815796,-2.0679087426468845,44.0,427.0],["ZNF692",0.11782205768980822,-1.9791219355206608,15.0,456.0]],"bottom":[["ACCS",-0.14984424224279871,-2.9558130799283604,17.0,454.0],["ADAM11",-0.20882797838958148,-5.3129471473132295,23.0,448.0],["AQP4",-0.13548858983289436,-2.492584021656113,15.0,456.0],["BLMH",-0.1252864721756497,-2.188549629142098,8.0,463.0],["DACH2",-0.13671067394777722,-2.530396189037204,36.0,435.0],["EOGT",-0.12528261328597862,-2.1884385344551047,21.0,450.0],["ERICH1",-0.14367442268604078,-2.751602036975515,14.0,457.0],["GOLGA6B",-0.14380228126381117,-2.755755249193073,8.0,463.0],["H2AFJ",-0.12669617873124156,-2.2293306871614127,10.0,461.0],["HIF3A",-0.1301273505000061,-2.330233387214854,32.0,439.0],["HSD17B7",-0.17661802881125602,-3.9333719954708557,14.0,457.0],["ITPKB",-0.15414321949263846,-3.1027117687703076,39.0,432.0],["JPH1",-0.19938668756414454,-4.8849510979733894,30.0,441.0],["LMO2",-0.16578973964873686,-3.5199186292484783,9.0,462.0],["LRRN2",-0.15972629114484937,-3.2991864372036153,30.0,441.0],["MRPL2",-0.1235552677454335,-2.1390040192550477,11.0,460.0],["NDUFAF1",-0.13837218851619756,-2.5822859466937738,10.0,461.0],["NTMT1",-0.13539345784524615,-2.4896531371252286,9.0,462.0],["PAQR5",-0.17138804068340707,-3.730575043737103,12.0,459.0],["PGS1",-0.16595773722663443,-3.526144023314829,21.0,450.0],["PLD3",-0.1665198125326825,-3.5470156710315894,21.0,450.0],["RAI1",-0.14306172269329653,-2.731745850866877,46.0,425.0],["ROR2",-0.13514950240963378,-2.482145498503154,52.0,419.0],["RPRD2",-0.1520935930525716,-3.0322005258591305,49.0,422.0],["SEMA6D",-0.12631843864495654,-2.2183646533030807,44.0,427.0],["TAS2R41",-0.12612881423226732,-2.212870362443642,16.0,455.0],["TFAP2D",-0.13969828131517403,-2.6240992246760535,36.0,435.0],["TRIM37",-0.12627146178677282,-2.217002856096366,31.0,440.0],["USP11",-0.13398923587581701,-2.446601866979114,24.0,447.0],["WDR45B",-0.15421872184676866,-3.1053257429101935,13.0,458.0],["ZBTB25",-0.13884398295224565,-2.59712155978039,18.0,453.0],["ZNF396",-0.1315945326305736,-2.374093182767683,9.0,462.0],["ZNF407",-0.14950751418995825,-2.944467234819672,46.0,425.0],["ZNF512",-0.12392247907169306,-2.1494640019349,18.0,453.0],["ZNF606",-0.1768332800324183,-3.9418434049166087,31.0,440.0]]},"para":{"top":[["BDH2",0.1360161029391427,-2.795715785222041,13.0,458.0],["BIVM",0.12478024932222775,-2.465189209451142,9.0,462.0],["CHRDL1",0.13170394526981058,-2.6660949088849035,12.0,459.0],["DDX19A",0.1963035487057915,-4.9802506813519285,13.0,458.0],["DGCR14",0.13357114577223886,-2.7219178973269673,15.0,456.0],["FAM154A",0.12664748305287596,-2.518325784548591,8.0,463.0],["FAM154B",0.12695444713551368,-2.5273196583597772,10.0,461.0],["GCA",0.13738373885614563,-2.8372554652194784,9.0,462.0],["GPR12",0.1361056182452806,-2.7985399804127487,15.0,456.0],["HIBADH",0.09944042872901157,-1.8070175888114004,10.0,461.0],["LSM14A",0.11896959089270702,-2.303914402469352,12.0,459.0],["MBOAT2",0.12476880080402089,-2.4651303535756726,13.0,458.0],["METTL21B",0.11311263753577476,-2.1472329522255587,8.0,463.0],["MRM1",0.11519931610187388,-2.2023072012213185,9.0,462.0],["OR52N1",0.14944285136709884,-3.221680466159115,12.0,459.0],["PNMA5",0.12710404573885553,-2.5318088078728924,13.0,458.0],["PPAP2C",0.12648449096022593,-2.5140187642628926,13.0,458.0],["PQLC3",0.10882257489419356,-2.03672504060139,8.0,463.0],["RRP7A",0.11291814152559915,-2.1422378037676664,9.0,462.0],["SEC22C",0.09483983300862191,-1.7001197227112352,9.0,462.0],["SMARCB1",0.12643035280647938,-2.512515878112022,14.0,457.0],["SOX3",0.13654011275355465,-2.811839388876441,16.0,455.0],["SYCP3",0.12036344763422185,-2.341776854518405,8.0,463.0],["SYPL2",0.11581020317073508,-2.2188523365741486,14.0,457.0],["TBC1D14",0.16094115381266125,-3.6143857115676905,24.0,447.0],["TCAIM",0.12107442249418995,-2.3616217520263287,11.0,460.0],["TMPO",0.13773179309534775,-2.8482446874158933,13.0,458.0],["TNFSF11",0.11312268888298631,-2.14778030853876,12.0,459.0],["VSTM2B",0.11520141171383858,-2.202438958029509,10.0,461.0],["ZNF692",0.1333932880548324,-2.716586528953487,15.0,456.0]],"bottom":[["ADAM11",-0.18407170869647077,-4.480627138046436,23.0,448.0],["AIMP2",-0.1143348284569409,-2.1795048800881727,10.0,461.0],["ALDH3A1",-0.1327748577836772,-2.6980502527141144,14.0,457.0],["AQP4",-0.15037870006714774,-3.2528242214887033,15.0,456.0],["BCL2L11",-0.11234784788153049,-2.1273713587731478,9.0,462.0],["CACNG6",-0.1260555684211747,-2.501744836650957,13.0,458.0],["CCDC124",-0.10670775528214647,-1.983500902275487,8.0,463.0],["CLEC17A",-0.11238501612892104,-2.1284130553816403,10.0,461.0],["CSRP1",-0.11359602487567122,-2.1598982946410885,8.0,463.0],["DPRX",-0.10723967804109091,-1.9969672851644804,10.0,461.0],["ERICH1",-0.12178691075795046,-2.3815221056342177,14.0,457.0],["EXOG",-0.12005969126740067,-2.333728672471194,12.0,459.0],["FAXDC2",-0.10886452164777413,-2.0379479403023235,10.0,461.0],["H3F3A",-0.09928812343235767,-1.8033514045717873,9.0,462.0],["HMGB2",-0.12045405824571419,-2.3445101936931865,11.0,460.0],["HSD17B7",-0.1688190020019608,-3.8974149569614016,14.0,457.0],["JPH1",-0.20442475396637422,-5.329102363605949,30.0,441.0],["KISS1R",-0.14049596056923366,-2.934048915281949,13.0,458.0],["LMO2",-0.14462646813581792,-3.0646721453297974,9.0,462.0],["MLX",-0.10821458420510086,-2.02149722385084,10.0,461.0],["NAGA",-0.10955340902559393,-2.055396560527041,9.0,462.0],["PAQR5",-0.1448346997831664,-3.0715983533575963,12.0,459.0],["PGS1",-0.16701503832893752,-3.831758627742585,21.0,450.0],["POPDC2",-0.11838617741746157,-2.2879908828595195,11.0,460.0],["STX1B",-0.1213302223140148,-2.368456835179163,8.0,463.0],["TAS2R41",-0.1369711105842161,-2.8250258539285293,16.0,455.0],["TCEA2",-0.13625439323861568,-2.802978114987579,13.0,458.0],["WDR45B",-0.15488869465739805,-3.4043433262948506,13.0,458.0]]}}}
{"depmap_damaging":{"corr":{"top":[["ARHGEF26",0.09646062860236293,-1.4392494264203592,8.0,463.0],["CCZ1B",0.1227870960050846,-2.11720843322824,8.0,463.0],["COL5A2",0.11773737320321023,-1.976808458729773,13.0,458.0],["CYP7B1",0.1183667712851409,-1.994036232691985,8.0,463.0],["IL1RAP",0.11085746185077291,-1.7935037154238351,9.0,462.0],["MARCKS",0.09664822990331892,-1.443613694662364,13.0,458.0],["MRE11A",0.14306532868739627,-2.7318624898926696,11.0,460.0],["POLA1",0.13081628715677524,-2.3507750478863048,14.0,457.0],["SMARCB1",0.11082204222518602,-1.7925836668470831,8.0,463.0],["TRANK1",0.12415214734745547,-2.1560195660342445,9.0,462.0]],"bottom":[["AP5B1",-0.17370181314533453,-3.819575699227991,8.0,463.0],["ARID4B",-0.11720780968712721,-1.9623730858594333,23.0,448.0],["ATM",-0.11494204996638054,-1.901226086257857,30.0,441.0],["CPS1",-0.13142039428271352,-2.368865099143224,12.0,459.0],["G2E3",-0.10199139850532984,-1.5706918782287482,8.0,463.0],["KCNQ1",-0.11006004355896244,-1.7728486528757246,9.0,462.0],["MCF2",-0.10920756450921916,-1.7509024649478306,8.0,463.0],["MUC5B",-0.16291334512515657,-3.4142483823003507,15.0,456.0],["NEK1",-0.15362279656239652,-3.0847261566404898,10.0,461.0],["NOS3",-0.14314633547061656,-2.734483420332533,20.0,451.0],["PTPN13",-0.15966622808826375,-3.2970383190667265,28.0,443.0],["RPGRIP1L",-0.1506697910358022,-2.983727834917131,9.0,462.0],["SEC24C",-0.10560136169643652,-1.6596038849388826,8.0,463.0],["ZEB2",-0.11704954985526315,-1.958069669650554,14.0,457.0],["ZFHX2",-0.12367521343973842,-2.142417745568594,10.0,461.0],["ZNF568",-0.13016954748640355,-2.331488839452607,9.0,462.0]]},"para":{"top":[["ARHGEF26",0.10102795403836293,-1.8446279536847725,8.0,463.0],["CCZ1B",0.13873216655028783,-2.878735139790938,8.0,463.0],["COL5A2",0.1282954972362201,-2.5662233061894635,13.0,458.0],["CYP7B1",0.13426083365624542,-2.742167467030643,8.0,463.0],["MARCKS",0.10646810580450065,-1.9778398291837407,13.0,458.0],["MRE11A",0.14402789968779386,-3.0456697989825288,11.0,460.0],["SMARCB1",0.11794651093473948,-2.27584068771797,8.0,463.0]],"bottom":[["AP5B1",-0.17148165882827393,-3.9953724172032343,8.0,463.0],["ERCC4",-0.11844998987306542,-2.289578294651802,9.0,462.0],["G2E3",-0.11021231349639589,-2.0721504533072372,8.0,463.0],["NEK1",-0.11725954694897063,-2.2574672032761365,10.0,461.0],["NOS3",-0.13459138831021664,-2.752789088104739,20.0,451.0],["PTPN13",-0.14848506816396695,-3.1906955166715383,28.0,443.0],["PTPRZ1",-0.12153830177990305,-2.3743956638055312,10.0,461.0],["RPGRIP1L",-0.13595800474597394,-2.7936614831466424,9.0,462.0],["SEC24C",-0.11281052044833945,-2.1393391279868674,8.0,463.0],["SLC44A5",-0.1300958114417679,-2.618540668315684,10.0,461.0],["SUPT20H",-0.1130892296188198,-2.1467094991073497,9.0,462.0]]}}}
{"ccle_chromatin":{"corr":{"top":[],"bottom":[["H3K27me0K36me1",-0.1716181274497957,-3.628791372831646,455],["H3K27me0K36me2",-0.18563299037194286,-4.176073355231802,456],["H3K27me1K36me1",-0.16938706061810307,-3.5466775704759597,455],["H3K27me1K36me2",-0.16901343575113095,-3.539743651404579,456]]},"para":{"top":[],"bottom":[["H3K27me0K36me1",-0.1817441426991993,-4.014322686935272,455],["H3K27me0K36me2",-0.19412129583152113,-4.523299005899808,456],["H3K27me1K36me1",-0.19270461916577195,-4.455637983530755,455],["H3K27me1K36me2",-0.17514212044093586,-3.767758978098709,456]]}}}
{"ccle_rrbs_enhancer_clusters":{"corr":{"top":[["7-96631582-96636303-1_enh",0.19897196725355176,-4.322482887724764,412],["23-139170462-139173545-2_enh",0.22384028476851425,-4.847109146359893,369]],"bottom":[["4-124381428-124384941-0_enh",-0.1829731089521595,-3.76450538554294,417],["10-77162564-77165102-2_enh",-0.2261709096911025,-4.352173507661415,320],["10-77165102-77167639-0_enh",-0.16926361291433176,-3.2245044526993665,408],["10-125186987-125189531-0_enh",-0.1801346271417702,-3.501982092056243,396]]},"para":{"top":[["23-139170462-139173545-2_enh",0.196185574797443,-3.8268252182745255,369]],"bottom":[["4-124381428-124384941-0_enh",-0.19178113663768998,-4.091056893366044,417]]}}}
{"ccle_mirna":{"corr":{"top":[],"bottom":[["hsa-miR-154_miR00177.1",-0.16587389883181328,-3.4647844679551643,462],["hsa-miR-369-3p_miR00335.1",-0.18487241577239663,-4.193582891756018,462],["hsa-miR-377_miR00348.1",-0.19835100356108118,-4.756915648046203,462],["hsa-miR-889_miR00656.1",-0.16293833703193109,-3.3588594255653046,462]]},"para":{"top":[],"bottom":[]}}}
{"prism_primary_logfold":{"corr":{"top":[["CDBA_BRD-A08079565-001-01-8::2.5::HTS",0.20123236079371828,-4.995259067334596,474],["cefpiramide_BRD-K92872987-001-02-9::2.5::HTS",0.17444424592915983,-3.7271288628704218,454],["GDC-0810_BRD-K61923022-001-02-4::2.499990535::MTS004",0.20984228982517475,-5.29886162114054,465]],"bottom":[["cortisone_BRD-A62731508-001-05-8::2.5::HTS",-0.1597873413010079,-3.34351660913197,478],["ticlopidine_BRD-K00603606-003-24-0::2.5::HTS",-0.19358110318274693,-4.701281619424764,479],["oxandrolone_BRD-K92467929-001-01-1::2.5::HTS",-0.17043904255263698,-3.748887621697317,479]]},"para":{"top":[["alosetron_BRD-K46742498-003-11-0::2.5::HTS",0.16398538501468657,-3.4724122596120894,474],["GDC-0810_BRD-K61923022-001-02-4::2.499990535::MTS004",0.21001693525426876,-5.3069059211220635,465]],"bottom":[["cortisone_BRD-A62731508-001-05-8::2.5::HTS",-0.15617122720628937,-3.2136837075401843,478],["ticlopidine_BRD-K00603606-003-24-0::2.5::HTS",-0.16950307488505179,-3.71282288403744,479],["meglumine_BRD-K28595280-001-04-5::2.5::HTS",-0.1571587564795234,-3.2488663916661564,478],["oxandrolone_BRD-K92467929-001-01-1::2.5::HTS",-0.15750973824791076,-3.267275865199281,479]]}}}
{"prism_secondary_logfold":{"corr":{"top":[["salvianolic-acid-B_BRD-K18898553-001-01-1::10::MTS006",0.2602044756132161,-8.126235301236926,479],["zolantidine_BRD-K08996725-332-01-7::2.5::HTS002",0.24284938946079257,-4.034788118217331,254]],"bottom":[["RU-58841_BRD-K62762455-001-01-3::0.625::HTS002",-0.18021467997869361,-3.0197963902486586,333],["levonorgestrel_BRD-K35189033-001-26-1::0.15625::HTS002",-0.3983123807885973,-4.470848718080966,102],["mebendazole_BRD-K77987382-001-13-2::0.0024414::HTS002",-0.21183667716339255,-4.0825265497378105,340],["mycophenolate-mofetil_BRD-K92428153-001-04-4::0.15625::HTS002",-0.19895487794303787,-3.87648668524537,364],["istradefylline_BRD-K87774949-001-03-9::0.15625::HTS002",-0.1775967479294843,-2.869381919211312,323],["palmitoylethanolamide_BRD-K68095457-001-10-1::0.00976562::HTS002",-0.17708645465988676,-3.922475824457508,467],["clocortolone-pivalate_BRD-K38003476-001-09-1::0.0024414::HTS002",-0.18389806192555658,-2.949770935906357,311]]},"para":{"top":[["salvianolic-acid-B_BRD-K18898553-001-01-1::10::MTS006",0.2548707890778821,-7.812963419796967,479],["bentazepam_BRD-K89490285-001-08-1::0.000610351::MTS006",0.21330020942499622,-5.554267731790486,474],["neratinib_BRD-K85606544-001-09-1::0.00244::MTS010::PROS004_PR500",0.21935486151437517,-5.769212127480544,467],["dasatinib_BRD-K49328571-001-15-0::0.00061::MTS010::PROS005_PR500",0.2128139224042099,-5.405164391079702,462]],"bottom":[["RU-58841_BRD-K62762455-001-01-3::0.625::HTS002",-0.17667574436002495,-2.9185812924987338,333],["levonorgestrel_BRD-K35189033-001-26-1::0.15625::HTS002",-0.39410123239843003,-4.380744207625372,102],["AVN-944_BRD-K62196610-001-01-6::0.00244::MTS010::PROS004_PR500",-0.17728168536069985,-3.930116056892641,467],["mebendazole_BRD-K77987382-001-13-2::0.0024414::HTS002",-0.22872387684438203,-4.686571662912654,340],["BMS-707035_BRD-K49555808-001-03-9::0.00061034::HTS002",-0.19803427548249214,-3.955382751594447,376],["cyclophosphamide_BRD-A09722536-002-18-0::0.0024414::HTS002",-0.1827929857204439,-2.9193754510357945,311],["clebopride_BRD-K17294426-050-12-3::0.00976562::HTS002",-0.20196847715794158,-3.47130171593337,311],["clocortolone-pivalate_BRD-K38003476-001-09-1::0.625::HTS002",-0.1975197259618771,-3.338586965786758,311],["dacarbazine_BRD-K35520305-001-17-7::0.0390625::HTS002",-0.1939935022805614,-3.494154462680458,340]]}}}
{"ccle_proteomics":{"corr":{"top":[["SFT2D3_Q587I9",0.2656510550690603,-3.859683188022696,201],["DCUN1D2_Q6PH85",0.32322395838699736,-3.60095673597158,124],["MTMR3_Q13615",0.24649609328795816,-3.740355342203389,226],["ZNF408_Q9H9D4",0.29523262462763866,-3.2511629179401873,133],["PFKL_P17858",0.24737389432826457,-4.040579353839981,245],["PATL1_Q86TB9",0.25111391814759065,-4.151317525902575,245]],"bottom":[["PAPOLG_Q9BWT3",-0.2924689889792991,-4.782311532223588,210],["ARMCX1_Q9P291",-0.2754240945930428,-3.684069142164549,177],["PALM2_Q8IXS6-2",-0.2566630056725037,-3.533994061233557,195],["PTX3_P26022",-0.3328485345749086,-4.070050114455685,134],["TPST1_O60507",-0.26906395405672173,-3.758981192246513,190],["ABCA1_O95477",-0.25528882990369045,-3.57849255992435,200],["KLHL13_Q9P2N7-4",-0.28155331917720344,-3.8331917735002325,177]]},"para":{"top":[["HIP1R_O75146",0.25747702139890805,-4.34367341596587,245],["SHROOM1_Q2M3G4",0.2803006026269372,-2.984283584535873,134],["DCUN1D2_Q6PH85",0.3348334691847968,-3.841488238846051,124],["IKZF4_Q9H2S9",0.28583263220976524,-3.6837519689659253,164],["ZNF408_Q9H9D4",0.3351356728050627,-4.094635926540944,133],["STAP2_Q9UGK3",0.2662170049938387,-3.3811394507967765,172],["PATL1_Q86TB9",0.25948468712682854,-4.405405620886571,245]],"bottom":[["CACNA2D1_P54289-2",-0.24530262607429107,-3.8513421396511354,236],["NRG1_Q02297-2",-0.2999824884254636,-3.1695884624638873,125],["TPST1_O60507",-0.268741897275385,-3.750897372536506,190],["KLHL13_Q9P2N7-4",-0.26257581085833315,-3.3826001828556427,177]]}}}
{"depmap_copy_number":{"corr":{"top":[],"bottom":[["KISS1R_84634",-0.16908868829995738,-3.643253018852156,471],["TMEM259_91304",-0.1656874860685879,-3.516132377761842,471],["R3HDM4_91300",-0.17082609671228435,-3.7091309133360397,471],["MED16_10025",-0.17206039851859595,-3.7563205764201744,471]]},"para":{"top":[["MIR1228_100302201",0.15342153208956102,-3.077785516157713,471],["TAC3_6866",0.15244288285843352,-3.0441556173629256,471],["NXPH4_11247",0.15342153208956102,-3.077785516157713,471],["R3HDM2_22864",0.1538321069904332,-3.091953125237469,471],["NEMP1_23306",0.15239981463327987,-3.042680170220345,471],["MYO1A_4640",0.15244288285843352,-3.0441556173629256,471],["LRIG3_121227",0.14606414094090178,-2.8297764911543135,471],["LRP1_4035",0.1540824194934648,-3.1006076615188225,471],["STAT6_6778",0.1540824194934648,-3.1006076615188225,471],["GPR182_11318",0.15031909822362283,-2.9718525735865358,471],["ZBTB39_9880",0.15031909822362283,-2.9718525735865358,471],["SHMT2_6472",0.14930174063825466,-2.937545260707097,471],["LRP1-AS_105751187",0.1540824194934648,-3.1006076615188225,471],["STAC3_246329",0.1538321069904332,-3.091953125237469,471],["NAB2_4665",0.15239981463327987,-3.042680170220345,471],["NDUFA4L2_56901",0.14930174063825466,-2.937545260707097,471]],"bottom":[]}}}
{"depmap_gene_tpm":{"corr":{"top":[["B3GALT4_8705",0.20824934414475466,-5.276088668054519,470]],"bottom":[["RAI14_26064",-0.2133203887616507,-5.513066648784903,470],["JAZF1_221895",-0.20892230412169702,-5.307204864400052,470],["TPST1_8460",-0.2111789478912239,-5.412288524559627,470]]},"para":{"top":[["B3GALT4_8705",0.20442550201753373,-5.101204036074067,470],["TMBIM6_7009",0.20770732219493454,-5.2511004760254325,470],["GLOD5_392465",0.22382088446307466,-6.022275578952679,470],["RNASE1_6035",0.23917641105978468,-6.81261520680408,470]],"bottom":[["TMEM155_132332",-0.2173366573141597,-5.704869233229666,470],["XPO6_23214",-0.2170857281254384,-5.69277869776004,470],["CAVIN4_347273",-0.20753188745360696,-5.243026696174443,470],["TRIP13_9319",-0.2069612999300472,-5.216814951776617,470],["TPST1_8460",-0.21755859577294398,-5.7155748251328315,470]]}}}
{"avana":{"corr":{"top":[["KDELC2_143888",0.2107760745841339,-4.014789152821499,337],["RFC3_5983",0.19000740607528763,-3.3439069928343734,337],["PPP1R3E_90673",0.20859577527495693,-3.941173271753785,337],["CDH20_28316",0.20890390480142676,-3.9515311636515915,337],["NFE2_4778",0.1917983850426795,-3.3816867663683436,335],["TFF1_7031",0.1897574076705807,-3.336240297887441,337],["WNT10B_7480",0.20855591400686663,-3.9398344206343503,337],["SNAI1_6615",0.1886703885731481,-3.303016449676779,337],["AJUBA_84962",0.19580390969933312,-3.506242239672175,335],["EEF1G_1937",0.19039273142626564,-3.3557425951149047,337]],"bottom":[["FNDC9_408263",-0.18796807508226548,-3.281647323811013,337],["HSDL2_84263",-0.18811423281148973,-3.286088193220612,337],["FNDC3A_22862",-0.19259867873027897,-3.4239407527038592,337],["SCN11A_11280",-0.21442917691217675,-4.139831103807704,337],["TLL2_7093",-0.18401707817113502,-3.1628388516134085,337],["CSDE1_7812",-0.1898080188527137,-3.337791613440427,337],["CRIP3_401262",-0.1939960510861534,-3.4675302661185223,337],["GABRG3_2567",-0.1909502277412829,-3.372907053367425,337],["CCDC102B_79839",-0.18222264840372213,-3.1096660073930287,337]]},"para":{"top":[["KDELC2_143888",0.19518930733531553,-3.5049919989970952,337],["KRTAP21-2_337978",0.18427037984052155,-3.1703842228378063,337],["HOMER2_9455",0.20243650343619496,-3.7372770980111234,337],["EEF1G_1937",0.20834396118284995,-3.932719631521749,337],["SFT2D1_113402",0.18024981616641245,-3.0517713719346973,337],["MYEOV_26579",0.18683847518843244,-3.247435926139327,337],["ASIC1_41",0.19298505799049628,-3.435963218994479,337],["PHOX2A_401",0.20047122262357248,-3.6734753765735064,337],["AJUBA_84962",0.18111526432323227,-3.061477128751974,335]],"bottom":[["KCTD12_115207",-0.20640028758084233,-3.867806739087317,337],["FNDC3A_22862",-0.178438254338412,-2.999128661113866,337],["SCN11A_11280",-0.1902057190921291,-3.349995494367747,337],["GH1_2688",-0.17789816592539323,-2.9835300528959654,337],["CCDC150_284992",-0.17408851124132324,-2.874749296939184,337],["HOXB4_3214",-0.17022214219934603,-2.766574544861456,337],["PGPEP1_54858",-0.2005041771781934,-3.674540237274284,337],["PFN1_5216",-0.18542155303901284,-3.2047987827586666,337],["CRIP3_401262",-0.1803804346931741,-3.055586250875753,337],["CEP295NL_100653515",-0.1740116899454926,-2.8725781777733648,337],["KIAA1958_158405",-0.16597166127576282,-2.650223348439613,337],["CTSD_1509",-0.16363411183282253,-2.5873769322456917,337],["VCPIP1_80124",-0.16258730885010422,-2.55949437738849,337]]}}}
{"drive":{"corr":{"top":[["RPS6KC1_26750",0.23022250629000407,-3.6048563762415013,249],["ATP1A4_480",0.20905211057743292,-3.054486022190269,250],["UNC5B_219699",0.22563978907604687,-3.491079373098585,250],["HASPIN_83903",0.20287061363253403,-2.939533627236476,254],["COL23A1_91522",0.2541605935964281,-4.319305097375218,250]],"bottom":[["LGALS14_56891",-0.22883433869842829,-3.566453575209712,249],["SERPINB2_5055",-0.22219022692514628,-3.3976055234498714,250],["DHX8_1659",-0.20344591686618896,-2.9142075550803903,250],["XAB2_56949",-0.2197768434726754,-3.3330513611400585,250],["KRTAP5-5_439915",-0.18643038027964268,-2.510457748071775,250]]},"para":{"top":[["GAPVD1_26130",0.20647032086562622,-2.979209817175223,249],["RPS6KC1_26750",0.2120316160616514,-3.1197680226281292,249],["CHTF18_63922",0.20799010338038754,-3.02763299761984,250],["UNC5B_219699",0.22841317403210215,-3.567262933632658,250],["UBAC2_337867",0.2183464871564262,-3.295117389683113,250],["COL23A1_91522",0.24883113172718993,-4.156911651379793,250]],"bottom":[["TBC1D3L_101060376",-0.21012782512047265,-3.113518153129306,253]]}}}
{"achilles":{"corr":{"top":[["SIDT1_54847",0.2767425555392771,-3.3649420920912294,158],["HPDL_84842",0.3048588737697748,-4.007382475065117,158],["UTP6_55813",0.3169787210378704,-4.305195050667082,158],["METTL13_51603",0.289112344175536,-3.639407761631152,158],["EEF1B2_1933",0.2913050456789127,-3.689387904503636,158],["IQCC_55721",0.27166463922120987,-3.2559055567152075,158],["MXRA7_439921",0.27931301310488565,-3.4209377621664303,158],["RSPH14_27156",0.28099193050181,-3.4578043730495693,158]],"bottom":[["TRAPPC12_51112",-0.2913262889204061,-3.689874095456152,158],["CASC2_255082",-0.24488255810904927,-2.71479868433501,158],["NEBL_10529",-0.251124448995705,-2.835890992068121,158],["CLDN17_26285",-0.24263161672478162,-2.6718648993150054,158],["CST11_140880",-0.22464411810059579,-3.5960076432857013,261],["C4orf26_152816",-0.24916765099799537,-2.7976057705819413,158],["TMEM106B_54664",-0.25345577363825766,-2.8818917041459446,158],["NLRC5_84166",-0.2468252697289071,-2.752165474960158,158],["GALNT16_57452",-0.2246832963946305,-3.5971173483064676,261]]},"para":{"top":[["SIDT1_54847",0.24994637617118312,-2.812806210092339,158],["MRPS35_60488",0.24493310312233244,-2.715767215617578,158],["HPDL_84842",0.25431804283235837,-2.8990128120618195,158],["UTP6_55813",0.2645977614879433,-3.1076229767597576,158],["KHDRBS3_10656",0.2671755725193931,-3.1612487295846625,158],["EEF1B2_1933",0.2745762015704554,-3.3181684726869363,158],["METTL13_51603",0.2698203104586359,-3.2168196932430644,158],["IQCC_55721",0.2948906641881716,-3.771990407233511,158],["NIP7_51388",0.27575101828224663,-3.3434864297369105,158],["RSPH14_27156",0.24260923470168852,-2.671439935119276,158],["IFT140_9742",0.2561568336327638,-2.935717550708581,158],["SMTN_6525",0.253190418021203,-2.8766344981450827,158]],"bottom":[["CASC2_255082",-0.27716556275303683,-3.374119866389691,158],["TMEM106B_54664",-0.27506079273774214,-3.328598076987512,158],["NEBL_10529",-0.260993050215445,-3.0335217403304306,158],["TGFBR3_7049",-0.23261842912307648,-3.825848058009421,261],["F5_2153",-0.24320004697595451,-4.143299871795413,261],["TTC26_79989",-0.23856935967973694,-2.595359845164355,158],["ARHGAP20_57569",-0.22698915182204413,-3.6627678299147504,261],["COG1_9382",-0.2574451723647232,-2.9615922550724836,158],["NLRC5_84166",-0.24617483928116377,-2.739622597784184,158],["GALNT16_57452",-0.24051626314977223,-4.061427470806662,261]]}}}
{"ccle_rrbs_tss1kb":{"corr":{"top":[["CTNNA2_2_80531229_80532229",0.2146008315550046,-4.932085577808515,410],["LRRTM1_2_80531487_80532487",0.2100342773451078,-4.774499087372493,413],["CCNA1_13_37005408_37006408",0.21384783618932451,-4.943333767742373,414],["KCNN2_5_113697015_113698015",0.2228630946633109,-5.260336079658597,408],["SLC8A1_2_40679209_40680209",0.2105321153360272,-4.670972440010795,401],["FAM19A4_3_68981761_68982761",0.2089835508327866,-3.365413046548,280],["ADD2_2_70995375_70996375",0.24138697086545777,-4.032697246950311,257],["LINC01945_2_132795473_132796473",0.21016260257977884,-4.625263792738258,398],["FGF5_4_81186741_81187741",0.2093567431912405,-4.705824182386234,409],["SLC22A17_14_23821660_23822660",0.22413393429030376,-2.505975810909556,172]],"bottom":[["LOC651337_9_140682858_140683858",-0.23104652720292504,-5.632440576878076,409],["PECAM1_17_62407083_62408083",-0.21327174560985734,-3.713927632460324,301],["SLC16A5_17_73083035_73084035",-0.20848438677528508,-4.700894284108937,412],["TOLLIP_11_1324020_1325020",-0.2389806549020851,-6.021407510779014,411],["LINC01213_3_149955305_149956305",-0.26514119773534317,-7.249216219149656,407],["SNHG10_14_96001209_96002209",-0.21201565573449788,-4.856328903986312,413],["SMIM22_16_4844378_4845378",-0.25062539557969193,-6.097357141662038,378],["FXR2_17_7518215_7519215",-0.22486472958856135,-5.39411861343259,412],["TXNDC5_6_7911047_7912047",-0.21381996124800595,-4.878273279222491,408]]},"para":{"top":[["CTNNA2_2_80531229_80532229",0.19843301838454946,-4.2831590372944826,410],["TCF15_20_590910_591910",0.21234929879316214,-4.775610435536309,404],["POMGNT1_1_46664121_46665121",0.20249674557546554,-4.336112315413217,399],["KCNN2_5_113697015_113698015",0.21022766723168604,-4.730944888984834,408],["FAM19A4_3_68981761_68982761",0.2135125515684923,-3.49451637318655,280],["TMEM155_4_122686340_122687340",0.20078048984263125,-4.20454085310808,392],["LOC389895_23_139172825_139173825",0.2026892989570783,-4.305068426487557,395],["GABRQ_23_151805636_151806636",0.21133331920267817,-4.744786343690937,405]],"bottom":[["SLC16A5_17_73083035_73084035",-0.21719239206527127,-5.062803373225632,412],["TOLLIP_11_1324020_1325020",-0.23707567490776704,-5.932803034886897,411],["GOLM1_9_88715116_88716116",-0.21109914397253632,-4.714501950118478,403],["SETD7_4_140477923_140478923",-0.19846370215324433,-4.302756226020616,412],["ARHGAP27_17_43507663_43508663",-0.20678677565460246,-4.612125740643018,410],["LINC01213_3_149955305_149956305",-0.21763937968413882,-5.026650099995599,407],["BCL2L11_2_111877490_111878490",-0.22145789821897022,-5.234143008768026,411],["SMIM22_16_4844378_4845378",-0.2471385635166325,-5.940644597337022,378]]}}}
{"ccle_gene_tpm":{"corr":{"top":[["RP11-806O11.1_ENSG00000253671.1",0.21257194012951403,-5.435840298933496,466],["B3GALT4_ENSG00000235863.2",0.20730492663673988,-5.192721289831996,466],["RP11-734K2.4_ENSG00000270344.1",0.21263135405937295,-5.438618030045923,466]],"bottom":[["AL132709.8_ENSG00000232018.4",-0.2286876468562646,-6.218444361392071,466],["JAZF1_ENSG00000153814.7",-0.21105230355529625,-5.365061823745646,466],["TPST1_ENSG00000169902.9",-0.2164310652697882,-5.617904382512754,466],["RAI14_ENSG00000039560.9",-0.2100683103253015,-5.3195060546537905,466],["AC108463.1_ENSG00000230499.1",-0.21099719994047464,-5.362504999896407,466],["ZHX3_ENSG00000174306.17",-0.21063100516763744,-5.345530644004693,466]]},"para":{"top":[["TMBIM6_ENSG00000139644.8",0.20455376106900128,-5.068177819241509,466],["GLOD5_ENSG00000171433.7",0.2246189735672822,-6.015303749466411,466],["RNASE1_ENSG00000129538.9",0.24272463961892107,-6.9485906319711805,466],["None_ENSG00000267441.1",0.20556590672093952,-5.113802463288559,466],["RP11-734K2.4_ENSG00000270344.1",0.2066500380241549,-5.1629230990761386,466]],"bottom":[["TPST1_ENSG00000169902.9",-0.2241121543100881,-5.990263962693988,466],["TMEM155_ENSG00000164112.8",-0.21944251585247196,-5.762301958508512,466],["XPO6_ENSG00000169180.7",-0.21793989135898095,-5.689996382413912,466],["AC117395.1_ENSG00000268175.1",-0.20876914896237617,-5.259688986293297,466],["TRIP13_ENSG00000071539.9",-0.21179746484461823,-5.399704006115516,466]]}}}
{"ccle_rrbs_tss_clusters":{"corr":{"top":[["JDP2_4",0.30170760899403365,-4.282785619939447,174],["LOC646903_1",0.23593165404435693,-5.841153011455443,408],["OTUD5_3",0.2706296715888441,-3.851055777953936,193],["OR8B8_1",0.2934469061449424,-3.321060402860556,138],["TTC7B_1",0.24663869885835527,-5.6915485347533314,362],["NXT2_2",0.2519959199204813,-2.682647825416348,147],["KIF1A_3",0.2572514957740613,-4.179826940390923,235]],"bottom":[["ZFP69_2",-0.29839769242645225,-2.723354119695955,106],["SOD2_5",-0.2774791027281058,-2.590999316007119,116],["RXFP4_2",-0.246880799039293,-6.439280715313837,414],["COL4A2-AS1_3",-0.2516171907365778,-6.6575146295125425,413],["MIR4514_2",-0.24333990763528596,-5.924178329680865,389],["MIR6811_2",-0.25788196561009225,-4.560642181594072,258],["FUNDC1_3",-0.24020362934724512,-4.70488445308753,309],["LOC651337_2",-0.26031186144619073,-7.127900668901622,415],["TEFM_1",-0.329070118057196,-3.8267105688352423,128],["MIR6750_2",-0.2718763771537123,-2.6652846166011384,125]]},"para":{"top":[["WRB_2",0.28250533591403426,-2.4557394232399385,105],["LOC646903_2",0.23724755178426093,-5.914616886517525,409],["OR8B8_1",0.3028215887750491,-3.5142254518963787,138],["STUM_3",0.25758110909063137,-2.624196993711249,137],["TTC7B_1",0.23775342114227865,-5.319434540310367,362],["KIF1A_3",0.24473564323368902,-3.8211821470259153,235],["NXT2_2",0.3097492337756211,-3.870769272758992,147],["TMEM185A_2",0.2823278143831373,-2.5322498315168827,109]],"bottom":[["HK1_6",-0.24413229353498217,-5.654627616601881,367],["LARP4_2",-0.23795538715237924,-3.823035040192985,249],["MAVS_1",-0.22631412398690157,-3.1423396977390503,220],["FUNDC1_3",-0.24820860013155133,-4.995039965397047,309],["AMMECR1_4",-0.21987991194252188,-2.9186251075967182,214],["PEX11A_3",-0.23531526836779595,-3.232233997045861,210],["H2AFV_3",-0.26344491738366155,-2.7625715931387727,139],["CDC42EP5_3",-0.22825052708217886,-5.41081367027954,401],["SOD2_5",-0.297209915177622,-2.9224030756759283,116]]}}}
{"ccle_rrbs_cgi_clusters":{"corr":{"top":[["23_48812267_48815081-3",0.2706296715888441,-3.851055777953936,193],["23_54381872_54384674-1",0.2711794955978767,-6.021310123513992,317],["23_108778054_108782413-2",0.2519959199204813,-2.682647825416348,147],["19_49251688_49256221-3",0.2594439711681415,-2.8710130086089616,150],["2_228029206_228031733-2",0.28600592272866837,-2.4272276439319325,101],["18_76637260_76641744-1",0.3717210971672629,-3.8533396819606662,100],["2_241759462_241762783-3",0.2572514957740613,-4.179826940390923,235],["14_75894888_75897469-3",0.30170760899403365,-4.282785619939447,174],["14_23821597_23824106-3",0.27327980792498663,-2.5788361281078216,119]],"bottom":[["9_137217570_137220078-3",-0.2937288510470713,-2.925892304900207,119],["17_81048692_81052986-1",-0.25947510666812024,-7.100387320770222,416],["19_42406315_42410535-2",-0.2552192957147411,-6.640720795337101,400],["17_29231259_29235538-1",-0.329070118057196,-3.8267105688352423,128],["9_140681120_140685774-2",-0.26031186144619073,-7.127900668901622,415],["12_211763_216227-2",-0.26382410189333066,-4.110957300320625,219],["1_40940784_40945387-2",-0.29839769242645225,-2.723354119695955,106],["17_81049993_81052497-1",-0.2526002257558175,-6.498842115018471,399]]},"para":{"top":[["23_54381872_54384674-1",0.30675788629487183,-7.6065622979426095,317],["23_108778054_108782413-2",0.3097492337756211,-3.870769272758992,147],["10_11059983_11062524-2",0.3049051366406225,-5.344314000045373,218],["2_228029206_228031733-2",0.2801089956114622,-2.341675615148136,101],["18_76637260_76641744-1",0.35584549649282265,-3.553291960004751,100],["12_49418031_49422292-1",0.2786315801918272,-4.614718801781194,223],["2_241759462_241762783-3",0.24473564323368902,-3.8211821470259153,235],["23_148710839_148715679-2",0.2823278143831373,-2.5322498315168827,109],["17_43447054_43451286-3",0.23936945542643243,-3.3033584426064135,208]],"bottom":[["7_44885267_44890070-3",-0.26344491738366155,-2.7625715931387727,139],["10_71075946_71078662-1",-0.24413229353498217,-5.654627616601881,367],["14_105736159_105740664-3",-0.24064096964100998,-3.5697990701749225,225],["16_2137803_2140987-2",-0.27973040663135473,-2.8010562940044235,125],["12_211763_216227-2",-0.24847647485098848,-3.6912042123799336,219],["13_111275412_111279651-3",-0.2463254572447275,-5.918563207986865,379],["22_25505309_25509537-3",-0.26554029113124167,-4.0419472422143174,212],["1_161580033_161584377-3",-0.2943407636306705,-2.594298228753376,103]]}}}
