{"depmap_hotspot":{"corr":{"top":[["ABCC9",0.15662582899392294,-2.4037716386833163,44.0,293.0],["ABHD16A",0.13978861904426546,-1.991770389887523,9.0,328.0],["ACCS",0.13502034737393603,-1.8824431050667287,9.0,328.0],["ACOXL",0.13663634123633203,-1.9191353251253533,15.0,322.0],["B4GALT1",0.14262312364074364,-2.058285735410347,13.0,324.0],["CABP4",0.12810362438033135,-1.7295305320555208,9.0,328.0],["CALHM1",0.12559375364117673,-1.6756907449481702,8.0,329.0],["CEACAM3",0.20749758642382338,-3.904379706019132,16.0,321.0],["CELSR2",0.1326900657021309,-1.8301786910020992,44.0,293.0],["CFHR5",0.13007150815006893,-1.7723558928729672,15.0,322.0],["CUZD1",0.13140593808881634,-1.8017029702717036,12.0,325.0],["EPHX4",0.13492776684032168,-1.8803521316315246,14.0,323.0],["FANK1",0.12549550380736177,-1.673600911442684,10.0,327.0],["FBLN7",0.13388827423550595,-1.8569573856408663,11.0,326.0],["FSTL5",0.144600411649037,-2.1053625750968386,28.0,309.0],["GORAB",0.13929834964323123,-1.9803812548885091,12.0,325.0],["GPR12",0.12765944769781504,-1.7199387803401964,12.0,325.0],["GPR22",0.1949848847109167,-3.498558569648853,8.0,329.0],["GRID2",0.12921375082456404,-1.7536229993920802,37.0,300.0],["HMCN1",0.1257593561319532,-1.679216231966237,96.0,241.0],["IBA57",0.14402732868315377,-2.091660747625731,14.0,323.0],["INTS6",0.12724480952686443,-1.7110096117913411,25.0,312.0],["KCNV2",0.15085530022787258,-2.257971643726545,29.0,308.0],["LIPM",0.15067903171497127,-2.253593899079807,11.0,326.0],["LRMP",0.12848136778318964,-1.7377092579220732,14.0,323.0],["MON1A",0.13466259581527654,-1.8743697905870362,14.0,323.0],["NLRP13",0.17462315025219866,-2.8898837548194884,39.0,298.0],["NPVF",0.13412332153995585,-1.8622340674859923,8.0,329.0],["NR0B1",0.12908367994931563,-1.7507912770905005,11.0,326.0],["OASL",0.14394214034270117,-2.0896279853826876,18.0,319.0],["OR7C1",0.1370690450206851,-1.929022601527109,10.0,327.0],["PDLIM5",0.1276217815144363,-1.7191266597161503,12.0,325.0],["PLD5",0.15868005181408873,-2.4568434335288742,17.0,320.0],["REM1",0.18241438960005676,-3.1153243401152912,9.0,328.0],["RSPO1",0.17883630292060979,-3.010653132090563,10.0,327.0],["SATL1",0.12967616136730112,-1.7637090293512936,14.0,323.0],["SHQ1",0.13872138397991152,-1.9670217356903859,10.0,327.0],["SIRT4",0.14307812291810032,-2.069069327747238,9.0,328.0],["SLC7A8",0.12587564086988093,-1.681694067953171,13.0,324.0],["STIP1",0.1353453350061974,-1.8897926394430888,14.0,323.0],["TAB3",0.12897442014104385,-1.7484144438514784,15.0,322.0],["TAS2R41",0.14305508075161577,-2.0685225137241634,11.0,326.0],["TAS2R7",0.14335456570266944,-2.0756354968670165,11.0,326.0],["TBC1D25",0.1348324734142702,-1.8782011446351152,10.0,327.0],["TBCK",0.12682933645033193,-1.7020863830677593,18.0,319.0],["THAP4",0.15306022059724814,-2.313111767390535,15.0,322.0],["TTC37",0.13191170474997813,-1.8128908908068881,27.0,310.0],["UST",0.13292923699919598,-1.835507843602849,10.0,327.0],["WDR17",0.15425989372125917,-2.3434086941208245,38.0,299.0],["WDR88",0.126552176441623,-1.6961470470926625,11.0,326.0],["ZC3H12C",0.14517999305988194,-2.119267505594556,23.0,314.0],["ZNF442",0.142933995302615,-2.065650276583827,12.0,325.0],["ZNF479",0.13151553464078874,-1.8041242901001593,25.0,312.0],["ZNF500",0.1266351867407402,-1.6979247803908863,17.0,320.0],["ZNF549",0.13013949810041886,-1.7738451365640098,11.0,326.0],["ZNF648",0.12860051705952402,-1.7402931374484853,27.0,310.0],["ZNF679",0.13806757410680323,-1.951939829005896,17.0,320.0]],"bottom":[["ACTR5",-0.1694948668300502,-2.7464759329547688,13.0,324.0],["BAG4",-0.13598982467724344,-1.904411608290627,10.0,327.0],["BPIFB3",-0.13673502706652002,-1.9213879708549368,18.0,319.0],["CAMSAP1",-0.15329112987483887,-2.318927002239629,39.0,298.0],["CCNT2",-0.1393762285800684,-1.9821881356948556,12.0,325.0],["CD38",-0.1392443231045267,-1.9791282817667517,10.0,327.0],["CHPT1",-0.1330440394089832,-1.8380686872390215,9.0,328.0],["CIITA",-0.13474259129287344,-1.8761734726162744,26.0,311.0],["CLTCL1",-0.13591005291910271,-1.9025989735457132,18.0,319.0],["COL8A2",-0.1491876492899233,-2.2167338088955786,22.0,315.0],["CPSF3L",-0.1565402799309216,-2.401574795473932,13.0,324.0],["DNAH1",-0.1657808772890445,-2.645063738008453,68.0,269.0],["EHHADH",-0.1743740903742754,-2.882828079986283,9.0,328.0],["ERMP1",-0.17429819822247633,-2.8806799639847966,23.0,314.0],["FIBP",-0.1496575429185804,-2.228312815632565,9.0,328.0],["FOXD4",-0.1746535338405963,-2.890745135668466,15.0,322.0],["GIMAP2",-0.13960189840611104,-1.9874287867523435,8.0,329.0],["LAMC1",-0.16999955732783062,-2.760414935856483,35.0,302.0],["LRRC73",-0.14093626640526433,-2.0185639219507703,8.0,329.0],["MED12",-0.15954277144250617,-2.4793161069791716,32.0,305.0],["MLEC",-0.15583804076706578,-2.383582061166788,8.0,329.0],["NLRC5",-0.14550577896438502,-2.1271046350846308,40.0,297.0],["NTRK2",-0.15912874711382655,-2.4685177408548964,25.0,312.0],["OPLAH",-0.15550916238199555,-2.3751802460049145,29.0,308.0],["OR4L1",-0.1288949935027255,-1.74668764269638,8.0,329.0],["OR6C4",-0.14859204545954285,-2.2021027679796674,10.0,327.0],["OSBP2",-0.13466322547054427,-1.8743839841022392,17.0,320.0],["P4HB",-0.15426409554253706,-2.3435151752662864,14.0,323.0],["PIAS3",-0.13473405974783417,-1.87598106647338,9.0,328.0],["SH2D3C",-0.13445024952421022,-1.869586315970786,23.0,314.0],["SOX13",-0.137261715791923,-1.9334336252400197,16.0,321.0],["SP100",-0.18343747691173456,-3.145610422144711,27.0,310.0],["SPR",-0.157675793101229,-2.43082096329317,8.0,329.0],["SRF",-0.14330169339052298,-2.074378811918156,10.0,327.0],["TCP10L2",-0.1390292681423714,-1.9741448653204519,10.0,327.0],["THAP6",-0.1441942528817798,-2.0956468931003442,16.0,321.0],["TOP2B",-0.15186485926892337,-2.283131176953631,25.0,312.0],["WDFY2",-0.1427239326890982,-2.060672390678751,9.0,328.0],["ZNF488",-0.14670259909187391,-2.156025886448509,11.0,326.0],["ZNF562",-0.14690496637752476,-2.160936398036606,8.0,329.0]]},"para":{"top":[["ABHD16A",0.13811090292068479,-2.243739325172829,9.0,328.0],["ACCS",0.12401602310206696,-1.9371232713421056,9.0,328.0],["ACOXL",0.14110359876537387,-2.312710933381517,15.0,322.0],["C12orf43",0.10689435283240858,-1.5996299667027005,8.0,329.0],["CALHM1",0.13845172972295094,-2.2513527659547976,8.0,329.0],["CEACAM3",0.19844032833666556,-3.8589643131808957,16.0,321.0],["CUZD1",0.12509633027374362,-1.9599535203100138,12.0,325.0],["DPM1",0.1278324219439113,-2.0174329294066458,8.0,329.0],["FBLN7",0.12719684710546098,-2.00421075034901,11.0,326.0],["GORAB",0.14254397633823945,-2.345912964668769,12.0,325.0],["GPR22",0.1921493615113024,-3.6665254414524973,8.0,329.0],["HIST1H1D",0.12412568243613331,-1.9392911577795942,8.0,329.0],["HSPA12B",0.14218896342335624,-2.33748027825934,10.0,327.0],["IBA57",0.1518678600618733,-2.5689472596182084,14.0,323.0],["LIPM",0.14916877211153254,-2.50299602349901,11.0,326.0],["MS4A4A",0.11621129267628301,-1.7784824138779853,8.0,329.0],["NPVF",0.1470673945248133,-2.452163694545787,8.0,329.0],["NR0B1",0.12814095325806563,-2.024325391718506,11.0,326.0],["ODF2",0.13549994334259466,-2.1852993734205013,13.0,324.0],["OIP5",0.12282331450096806,-1.9122649358058856,8.0,329.0],["OR2J2",0.13557913676360142,-2.18706919852944,13.0,324.0],["OR7C1",0.13445934847113836,-2.161884119788953,10.0,327.0],["PDLIM5",0.1438607798148052,-2.3766852227583644,12.0,325.0],["PGD",0.12493214864631172,-1.9563541359068428,10.0,327.0],["PLD5",0.15874043103333593,-2.7408995621933054,17.0,320.0],["PVRL2",0.12079770343931148,-1.870882697201371,10.0,327.0],["REM1",0.1903281758057656,-3.612254398876099,9.0,328.0],["RSPO1",0.15297447265900901,-2.595845145846614,10.0,327.0],["SAMD15",0.11851548210003687,-1.8244547438414098,8.0,329.0],["SAP30",0.12122040011922623,-1.8793074479741272,8.0,329.0],["SERTAD1",0.11260473531736388,-1.707914000849607,8.0,329.0],["SHQ1",0.11576446579600684,-1.7698510561580432,10.0,327.0],["SIRT4",0.1456786236286675,-2.419255960093354,9.0,328.0],["SLC7A8",0.14033074202400803,-2.294785326837355,13.0,324.0],["TAB3",0.1527882783277057,-2.591645014830474,15.0,322.0],["TAS2R41",0.14573565882933384,-2.420815710222393,11.0,326.0],["TBC1D25",0.11998879024663753,-1.8544221744734872,10.0,327.0],["TBCC",0.14567862362866751,-2.419255960093354,9.0,328.0],["THAP4",0.14761152155958407,-2.465807859296938,15.0,322.0],["TMPRSS2",0.1124752490223933,-1.7055197062115495,9.0,328.0],["UST",0.130504661751399,-2.0751135354266004,10.0,327.0],["VN1R2",0.10909836010730362,-1.6409241962347543,8.0,329.0],["WDR88",0.12118889886161331,-1.8789567109334502,11.0,326.0],["ZNF442",0.12945824178986756,-2.0526633927383924,12.0,325.0],["ZNF549",0.1217896936859981,-1.8912688178646422,11.0,326.0]],"bottom":[["ACTR5",-0.15791168148751242,-2.719605104347521,13.0,324.0],["ALPL",-0.11228605600469375,-1.7018675246958241,9.0,328.0],["BAG4",-0.15279471417174814,-2.591411040251906,10.0,327.0],["C3orf58",-0.13688608804916025,-2.2161567752335753,10.0,327.0],["CCNT2",-0.15554741066932598,-2.659978668601366,12.0,325.0],["CD38",-0.15351374812079166,-2.609173573084997,10.0,327.0],["CDK20",-0.13129995428350033,-2.0922940825200174,9.0,328.0],["CHPT1",-0.12959721712420422,-2.055393388114956,9.0,328.0],["CPSF3L",-0.14452799333736718,-2.3924389403735287,13.0,324.0],["EHHADH",-0.1596789069384356,-2.764215184369447,9.0,328.0],["FAM155B",-0.13678296112826444,-2.2140051007410344,12.0,325.0],["FBXL16",-0.11921675714204895,-1.838583918655278,8.0,329.0],["FFAR1",-0.12412568243613331,-1.9392911577795942,8.0,329.0],["FIBP",-0.15911132788533686,-2.749716368725451,9.0,328.0],["FOXD4",-0.18532789229875632,-3.4657317764517637,15.0,322.0],["FPR2",-0.13905686800918263,-2.265260982488445,9.0,328.0],["GIMAP2",-0.13704917963892682,-2.2195999969167146,8.0,329.0],["KCTD9",-0.12115722041383324,-1.8782259879972367,10.0,327.0],["KLF11",-0.12332422524526238,-1.9226332766960548,8.0,329.0],["MCAT",-0.14454346552247013,-2.3924405673807407,9.0,328.0],["MKRN1",-0.13082697173925142,-2.082005431284133,9.0,328.0],["MLEC",-0.13314207583343113,-2.1325244624608475,8.0,329.0],["MOXD1",-0.1264298718598872,-1.987653000870377,8.0,329.0],["OR4L1",-0.1430601085704587,-2.3575292699719594,8.0,329.0],["OR6C4",-0.13418971074024702,-2.1559020966826723,10.0,327.0],["P4HB",-0.15179142933209883,-2.567072656424035,14.0,323.0],["PIAS3",-0.12581335677021288,-1.9747623497427735,9.0,328.0],["PLAGL1",-0.11440801399682343,-1.7429867640102814,8.0,329.0],["POU3F2",-0.16534113652628352,-2.911569444610894,12.0,325.0],["POU5F1B",-0.1551168566638305,-2.6495307456969783,17.0,320.0],["QKI",-0.1261904580571379,-1.982812986456337,10.0,327.0],["RNF157",-0.13914284070890637,-2.267574454847273,13.0,324.0],["SCP2",-0.11871584639775462,-1.8284850927658045,8.0,329.0],["SEPT1",-0.13848928895608395,-2.2523336875711424,9.0,328.0],["SHC3",-0.14227314931007531,-2.3393269520817057,9.0,328.0],["SPR",-0.15347905205178064,-2.608059905950295,8.0,329.0],["SRF",-0.15432266131346561,-2.6292396758328,10.0,327.0],["THAP6",-0.15046180298168577,-2.5347016310845363,16.0,321.0],["UBAP1L",-0.1326040005249239,-2.121006517293688,11.0,326.0],["VIM",-0.12187625436287675,-1.892963377812776,10.0,327.0],["WDFY2",-0.13328648096934584,-2.135829834120838,9.0,328.0],["ZNF488",-0.1706257301252743,-3.0526334282115593,11.0,326.0],["ZNF562",-0.15167577337232108,-2.5636554601805797,8.0,329.0],["ZNF653",-0.12122040011922625,-1.8793074479741272,8.0,329.0],["ZNF669",-0.12160661663198544,-1.887428915607302,10.0,327.0]]}}}
{"depmap_damaging":{"corr":{"top":[["PCDH15",0.12320291144840373,-1.6252145612554993,15.0,322.0]],"bottom":[["ELAVL2",-0.14054343231099084,-2.009371589514434,18.0,319.0],["FAM208B",-0.13410231921195942,-1.861762261365033,21.0,316.0],["HERC1",-0.12731594120364714,-1.7125397263014852,10.0,327.0],["KCNT2",-0.14206288848838172,-2.045048527935627,8.0,329.0],["KIAA1107",-0.12943681260259993,-1.7584846726248848,17.0,320.0],["OGFRL1",-0.12331420505173013,-1.6275467302306894,17.0,320.0],["RAPH1",-0.19937733770888263,-3.6382250995373933,9.0,328.0]]},"para":{"top":[["HMCN1",0.12577553236416783,-1.9747091107287946,24.0,313.0],["PCDH15",0.11692074929143405,-1.7930852589091228,15.0,322.0]],"bottom":[["DNAH14",-0.10919854225616246,-1.6428161092835998,8.0,329.0],["ELAVL2",-0.14725210597346675,-2.457351268626209,18.0,319.0],["FAM208B",-0.15754282869831604,-2.7106724561413635,21.0,316.0],["HERC1",-0.1406610162816387,-2.3021381562955803,10.0,327.0],["KCNT2",-0.14806921601340195,-2.4761584691913865,8.0,329.0],["KIAA1107",-0.13672024832634116,-2.2128774416233123,17.0,320.0],["LPHN3",-0.11951730358862553,-1.8446589594588423,8.0,329.0],["OGFRL1",-0.11964763831617115,-1.8479147752273781,17.0,320.0],["RAPH1",-0.18881463166416912,-3.567358877735562,9.0,328.0],["SCN9A",-0.14492185155786927,-2.4013598639317917,9.0,328.0],["STK11",-0.13293140132942086,-2.128113492791517,10.0,327.0]]}}}
{"ccle_chromatin":{"corr":{"top":[],"bottom":[["H3K27me0K36me3",-0.18936448593565886,-3.20504628334037,323]]},"para":{"top":[],"bottom":[]}}}
{"ccle_metabolomics":{"corr":{"top":[],"bottom":[]},"para":{"top":[["thymine",0.18010599503327537,-3.0089278704821965,332]],"bottom":[]}}}
{"ccle_rrbs_enhancer_clusters":{"corr":{"top":[["5-124684164-124687593-1_enh",0.24241816061747926,-3.2792486872304463,201],["11-15322303-15324906-0_enh",0.20556127917189845,-3.500508879722541,303]],"bottom":[]},"para":{"top":[["8-36955851-36960723-0_enh",0.19343810889131166,-2.9604838085408733,282],["2-105514737-105517613-1_enh",0.20026223926357758,-3.2581351095561617,294],["5-124684164-124687593-1_enh",0.22997965201509948,-2.99043406090097,201],["11-15322303-15324906-0_enh",0.2086385167578513,-3.5932549975368495,303],["12-50597851-50600545-0_enh",0.2224828266785716,-2.5833541578112165,181],["18-76007648-76010476-2_enh",0.1885442953390997,-2.7646310662266855,274]],"bottom":[]}}}
{"ccle_mirna":{"corr":{"top":[],"bottom":[["hsa-miR-1274a_miR00092.1",-0.17566491117550667,-2.8752626670885175,331],["hsa-miR-520c-3p_miR00454.1",-0.17719596539000868,-2.918347488241578,331],["hsa-miR-525-5p_miR00467.1",-0.1600488434346927,-2.455421502038369,331]]},"para":{"top":[],"bottom":[["hsa-miR-1274a_miR00092.1",-0.18676878346536285,-3.1956284550604632,331],["hsa-miR-518b_miR00440.1",-0.15812274482228098,-2.4060862067111253,331]]}}}
{"prism_primary_logfold":{"corr":{"top":[],"bottom":[["doxylamine_BRD-A44008656-036-25-8::2.5::HTS",-0.20047998141337048,-3.7306438555825174,343],["TG-100801_BRD-K12735121-001-01-4::2.5::HTS",-0.1583281893085906,-2.405253675080143,330],["ammonium-glycyrrhizinate_BRD-K15318383-201-01-5::2.5::HTS",-0.22936490723730674,-4.562439937863985,328],["dazoxiben_BRD-K82767007-001-01-1::2.5::HTS",-0.18063606553323489,-3.070827712000868,338]]},"para":{"top":[],"bottom":[["doxylamine_BRD-A44008656-036-25-8::2.5::HTS",-0.1909091003710803,-3.4234159388468566,343],["aloe-emodin_BRD-K04851519-001-06-8::2.5::HTS",-0.18046250630074637,-3.1044849467096243,343],["ammonium-glycyrrhizinate_BRD-K15318383-201-01-5::2.5::HTS",-0.2513134460299966,-5.391445751834317,328],["PYM50028_BRD-K62277907-001-01-6::1.2::HTS",-0.14579147804205372,-2.1495840962643604,340],["gly-gln_BRD-K85066592-001-01-6::2.5::HTS",-0.15884578199427055,-2.473343324809011,339]]}}}
{"prism_secondary_logfold":{"corr":{"top":[["BAM7_BRD-K07442505-001-03-6::10::HTS002",0.4881547730718926,-19.83831324967706,320],["tranilast_BRD-K17849083-001-32-9::9.73586::HTS002",0.49186984254622623,-21.20596609862542,337],["theophylline_BRD-K97799481-001-16-0::10::HTS002",0.5149901709182116,-22.210415089589034,318],["pepstatin_BRD-K13571841-001-14-4::10::HTS002",0.5386272592489588,-21.89105595082785,282],["PJ-34_BRD-K11853856-001-01-7::10::HTS002",0.49028480923776085,-21.417354333309426,343]],"bottom":[["naftidrofuryl_BRD-A67862938-034-14-9::0.15625::HTS002",-0.2197170649170303,-3.1121220000729255,231],["beclomethasone-dipropionate_BRD-K97810537-001-13-6::0.0024414::HTS002",-0.30414597868015464,-2.930672524406678,111],["vemurafenib_BRD-K56343971-001-10-6::0.0024414::HTS002",-0.18474285234890117,-2.4639130143307115,249],["azalomycin-b_BRD-K96104201-001-01-5::0.00976562::HTS002",-0.2206075463388737,-4.356183412786452,337],["ZK-93426_BRD-K68392338-003-02-0::0.625::HTS002",-0.2106656737166256,-3.990159169763867,335],["WYE-125132_BRD-A45498368-001-07-1::0.0390625::HTS002",-0.24855274608311,-5.311757904445849,330],["etomoxir_BRD-K32405725-001-02-8::0.625::HTS002",-0.19328305202875853,-3.4540916382601647,338],["KI-8751_BRD-K47150025-001-05-3::0.00061034::HTS002",-0.1848838893118823,-3.1155536947468976,328],["quizartinib_BRD-K93918653-001-08-9::0.00976562::HTS002",-0.1853331634426462,-3.1858298682504422,335]]},"para":{"top":[["tiotidine_BRD-K15071410-001-01-1::10::HTS002",0.5700460614182523,-30.13579269692446,342],["asymmetrical-dimethylarginine_BRD-K36269323-300-02-6::10::HTS002",0.4837123150894169,-19.56123599856391,322],["thioguanine_BRD-K49350383-001-13-7::10::HTS002",0.48709098615139323,-19.6244387278174,318],["theophylline_BRD-K97799481-001-16-0::10::HTS002",0.5236749740974742,-23.06512544815535,318],["pepstatin_BRD-K13571841-001-14-4::10::HTS002",0.4982440439167389,-18.37350088046032,282],["repsox_BRD-K80480517-001-02-4::10::HTS002",0.4773087180499897,-20.192079657909225,343],["PJ-34_BRD-K11853856-001-01-7::10::HTS002",0.4773766326609112,-20.198357698017556,343]],"bottom":[["naftidrofuryl_BRD-A67862938-034-14-9::0.15625::HTS002",-0.22612373326559781,-3.272472550707184,231],["beclomethasone-dipropionate_BRD-K97810537-001-13-6::0.0024414::HTS002",-0.30305636238761025,-2.912084493737313,111],["acipimox_BRD-K63736853-001-04-8::0.00976562::HTS002",-0.19090564802151488,-3.388797124506468,339],["azalomycin-b_BRD-K96104201-001-01-5::0.00976562::HTS002",-0.22857052153857496,-4.644153239662976,337],["ZK-93426_BRD-K68392338-003-02-0::0.625::HTS002",-0.177926638220345,-2.969250663638369,335],["WYE-125132_BRD-A45498368-001-07-1::0.0390625::HTS002",-0.20678156154465263,-3.8099611535836715,330],["etomoxir_BRD-K32405725-001-02-8::0.625::HTS002",-0.18606714696871038,-3.232406694059185,338],["ACDPP_BRD-K68633617-003-02-9::0.00061034::HTS002",-0.1907912062563697,-2.856206292528738,278]]}}}
{"ccle_proteomics":{"corr":{"top":[["RAB30_Q15771",0.27848996772035567,-3.139546480544492,144],["FAM134C_Q86VR2",0.25976285278460715,-3.3023118316968856,176],["BTRC_Q9Y297",0.25821309712900015,-2.7985022222217473,147],["CALD1_Q05682-2",0.24716354126357207,-2.609484931518331,148],["DGKH_Q86XP1-2",0.2574305222692232,-2.474787151862109,128],["ELOVL1_Q9BW60",0.2514258997616625,-2.9339958293463417,164],["SPDL1_Q96EA4",0.2713174071609105,-3.4442312069449756,169],["PRR14_Q9BWN1",0.2830888984480547,-3.173695687793219,141],["CKAP5_Q14008",0.24684498234738472,-3.0188111616535993,176]],"bottom":[["PPTC7_Q8NI37",-0.2607222195886155,-3.209096399094581,169],["hCG_1988162_A8MTT3",-0.2784489914000211,-2.7976779909616463,126],["FCHO1_O14526",-0.3001393625474559,-2.8626703697447073,111],["DHODH_Q02127",-0.2747355129171445,-3.649380388151083,176],["ATP5S_Q99766",-0.267578721868469,-3.3601602450665746,169],["NDUFB8_O95169",-0.2672815129753817,-3.4740830684033757,176],["HPDL_Q96IR7",-0.27092882200036356,-3.5592305764629972,176],["NDUFS5_O43920",-0.2888151359146235,-3.9943526980817015,176]]},"para":{"top":[["SAC3D1_A6NKF1",0.24781298750859232,-2.012602976278014,108],["PARG_Q86W56",0.24958964538540654,-2.987386194370282,170],["CALD1_Q05682-2",0.2726600508817536,-3.096736375454092,148],["SPDL1_Q96EA4",0.31937183513773476,-4.635989372130059,169],["SMC2_O95347",0.2511891947815626,-3.1125284724051765,176],["DOLPP1_Q86YN1",0.24300723310748945,-2.2432493604520234,128]],"bottom":[["GTPBP3_Q969Y2-2",-0.2934546339025993,-4.1120686579746915,176],["PPTC7_Q8NI37",-0.27757995173078887,-3.5877731639817134,169],["CHCHD1_Q96BP2",-0.2763322785479359,-3.0594355502647193,142],["RBFA_Q8N0V3",-0.29626280958444723,-4.1843070182591555,176],["FCHO1_O14526",-0.2946397623745558,-2.7708742937951563,111],["DHODH_Q02127",-0.3050533321377679,-4.4153076820124895,176],["ATP5S_Q99766",-0.2762785944972412,-3.5576633662222514,169],["ZBTB1_Q9Y2K1-2",-0.29825080163913004,-3.742901368695547,153],["ZNRD1_Q9P1U0",-0.28163060011155094,-3.816034136367107,176],["FREM2_Q5SZK8",-0.2913527574518735,-2.485223894673409,100],["MRPS6_P82932",-0.2820356197131792,-3.8259592662497997,176],["SREBF2_Q12772",-0.3015407272778061,-3.862190761139645,155],["DNAJC19_Q96DA6",-0.284629095533649,-3.8898728676479255,176],["NDUFS5_O43920",-0.2902946574253616,-4.031672067113913,176]]}}}
{"depmap_copy_number":{"corr":{"top":[["HSPA13_6782",0.16034006688937258,-2.5001814925361034,337],["LOC110091776_110091776",0.17474298229647325,-2.8932818219342575,337],["SAMSN1_64092",0.1608254315856025,-2.5129292302582296,337],["SAMSN1-AS1_100874190",0.1608254315856025,-2.5129292302582296,337],["POTED_317754",0.1730897393619509,-2.8465910710965607,337],["LIPI_149998",0.18942740255861126,-3.326134761090902,337],["LINC02246_107987295",0.16126564031397295,-2.5245208811726703,337],["CYP4F29P_54055",0.17474298229647325,-2.8932818219342575,337],["LINC01674_102724188",0.17134365886618902,-2.797722751135408,337],["ANKRD30BP2_149992",0.1733172669533136,-2.8529925763014243,337],["MIR3156-3_100423018",0.17134365886618902,-2.797722751135408,337],["NRIP1_8204",0.16126564031397295,-2.5245208811726703,337],["LOC388813_388813",0.1608254315856025,-2.5129292302582296,337],["MIR3118-1_100423008",0.1730897393619509,-2.8465910710965607,337],["ABCC13_150000",0.1637049842529597,-2.5892705207599036,337],["ANKRD20A11P_391267",0.17474298229647325,-2.8932818219342575,337]],"bottom":[]},"para":{"top":[["LRRC18_474354",0.1675242274961244,-2.69241179799532,337],["LOC110091776_110091776",0.16647074081303687,-2.663746065835194,337],["LOC105378311_105378311",0.16550527797599654,-2.6376198693030117,337],["WDFY4_57705",0.16524302504474164,-2.6305469138990305,337],["GLUD1P2_414212",0.1648084041336252,-2.6188475839130807,337],["ARHGAP22_58504",0.16554982960782022,-2.6388224364343453,337],["VSTM4_196740",0.1675242274961244,-2.69241179799532,337],["FRMPD2B_728798",0.1692080131134284,-2.7385702470494295,337],["LIPI_149998",0.17979321456353323,-3.0384560499653572,337],["MIR4294_100422895",0.1675242274961244,-2.69241179799532,337],["ARHGAP22-IT1_100689073",0.16524302504474164,-2.6305469138990305,337],["CYP4F29P_54055",0.16647074081303687,-2.663746065835194,337],["FAM170B_170370",0.16965774987677637,-2.750970440266721,337],["BMS1P1_399761",0.1648084041336252,-2.6188475839130807,337],["FAM170B-AS1_100506733",0.16965774987677637,-2.750970440266721,337],["ANKRD20A11P_391267",0.16647074081303687,-2.663746065835194,337]],"bottom":[]}}}
{"depmap_gene_tpm":{"corr":{"top":[["JOSD1_9929",0.21867372256934728,-4.287803929508,337],["WEE1_7465",0.2542067330215572,-5.64266191486735,337],["VPS37C_55048",0.2443870513699028,-5.247138483898964,337],["HNRNPF_3185",0.23042993944101492,-4.712889903128931,337],["CLN3_1201",0.2282640285598032,-4.632877704309084,337],["CPTP_80772",0.24147129498670952,-5.1328407662605455,337],["KLC2_64837",0.21338806066912833,-4.103977478232504,337]],"bottom":[["GPR22_2845",-0.1772983169332766,-2.9662570558453476,337],["CD53_963",-0.18640863556657533,-3.2344690101281532,337]]},"para":{"top":[["CPTP_80772",0.22874616711574863,-4.6506219930327966,337],["INTS11_54973",0.22360100828852547,-4.463226085011369,337],["PITRM1_10531",0.2366553003993078,-4.947174813035717,337],["VPS37C_55048",0.2655322215036,-6.119415024054026,337],["PATL1_219988",0.23789832414014253,-4.994724935403743,337],["CLN3_1201",0.2375129102258812,-4.979953932132995,337],["HNRNPF_3185",0.2478791704256965,-5.385917712290177,337],["DYRK1A_1859",0.22880699281671796,-4.652863289471166,337],["WEE1_7465",0.23784750773937874,-4.992775977359548,337],["WASL_8976",0.24161366327218348,-5.138388414194808,337]],"bottom":[["MMP12_4321",-0.1752539849500285,-2.9077964842427573,337],["RPL23_9349",-0.17733357105752984,-2.9672707177858033,337],["CD33_945",-0.1710597268982606,-2.789819286133865,337],["PRAMEF4_400735",-0.18610773921776758,-3.2254087308888506,337],["TEX37_200523",-0.17164454797846923,-2.8061113679822753,337],["NCR2_9436",-0.18465082334437102,-3.1817352875518856,337]]}}}
{"avana":{"corr":{"top":[["TRNP1_388610",0.263157609719887,-4.437616006273638,240],["UBL4B_164153",0.3089866798660825,-5.978291714275523,240],["NBL1_4681",0.2368016621865118,-3.6700431429064366,240],["CCDC88C_440193",0.28055539435793675,-4.990813211842923,240],["ZSCAN4_201516",0.22670458409299676,-3.3977322820652454,240],["FLNA_2316",0.22770021539155416,-3.2505983311426943,226],["SH2D4B_387694",0.24680932377323517,-3.9517125671464823,240],["LMTK2_22853",0.23774173981265645,-3.695999995783609,240],["SRP72_6731",0.23942739737599705,-3.742802830218861,240],["ZNF668_79759",0.22987701302691,-3.4820183577650665,240],["TMEM35A_59353",0.2305068158293074,-3.3212717516440105,226],["ANGPT4_51378",0.236289741521368,-3.6559517941428474,240],["NMRK1_54981",0.27894638468960054,-4.938056971465691,240],["SLC10A3_8273",0.24143788121655677,-3.604725339386235,226],["LIPJ_142910",0.2334846995856816,-3.5792820320702217,240],["GUSB_2990",0.2668065838570358,-4.550518134491574,240]],"bottom":[["GTF2H2_2966",-0.2266699712134623,-3.3722929710201286,238],["SP140L_93349",-0.21686148950614323,-3.121025061562354,238],["OR2G6_391211",-0.22476963645648929,-3.346892127732979,240],["MAGEB17_645864",-0.2235493961376426,-3.1476353581714576,226],["GPM6B_2824",-0.23020212993452155,-3.313558083597922,226],["OTX2_5015",-0.23424704399788418,-3.600028323118335,240],["ZNF23_7571",-0.21614808920077638,-3.125553525297807,240],["MTFR2_113115",-0.2090640016855192,-2.9499646996895317,240],["SGCZ_137868",-0.23016218933918847,-3.489651878402107,240],["C4BPB_725",-0.2609448086485605,-4.369947825567619,240],["NR6A1_2649",-0.22655012824708384,-3.3936582235972086,240],["LPGAT1_9926",-0.22864555831617625,-3.4491629586336403,240],["STX11_8676",-0.23574679360916567,-3.6410398488937257,240],["SSBP2_23635",-0.21093900353101067,-2.9958924364964394,240],["SIK3_23387",-0.2414879729760257,-3.8004692271488,240]]},"para":{"top":[["TRNP1_388610",0.2138848951330675,-3.0688453333139973,240],["NXPE3_91775",0.21112726208945395,-3.0005254667375088,240],["UBL4B_164153",0.24193933769878317,-3.8131677582988672,240],["NBL1_4681",0.21468353968874665,-3.088790931589535,240],["THEGL_100506564",0.2232295254479571,-3.3067326508183092,240],["CCDC88C_440193",0.2223534459354375,-3.284009161145135,240],["PTCHD3_374308",0.21529432241022273,-3.1040932173035665,240],["KALRN_8997",0.21535369195741177,-3.105582875422897,240],["CDIP1_29965",0.22908854003905016,-3.460961623777881,240],["ZWINT_11130",0.23775645110101873,-3.696407017577531,240],["SRP72_6731",0.21587466866848856,-3.1186718776293207,240],["CPNE1_8904",0.21178017799834797,-3.016624386067807,240],["HOPX_84525",0.2151389070341282,-3.1001955252808875,240],["NMRK1_54981",0.2649287984607324,-4.4922129377305104,240],["SATL1_340562",0.21363460931213438,-2.909149661499403,226],["GUSB_2990",0.23880978578149625,-3.72561592346817,240]],"bottom":[["DIS3L2_129563",-0.19618672776745008,-2.645050851579128,240],["GTF2H2_2966",-0.2193537978151473,-3.183843722274813,238],["BACE1_23621",-0.20705145051885904,-2.9011033886587487,240],["MAGEB17_645864",-0.19919186763206426,-2.5802430252403683,226],["RNASEK_440400",-0.20231975067220237,-2.787993894247479,240],["OTX2_5015",-0.2316351848706446,-3.529230418087092,240],["DEFB4A_1673",-0.22253415001703522,-3.288689042429117,240],["NCBP2_22916",-0.21226629969428557,-3.007023564935663,238],["C4BPB_725",-0.19884238215550154,-2.706441017260005,240],["ADCK5_203054",-0.19518132949652636,-2.6220099303345665,240],["POLR1C_9533",-0.19986977095779113,-2.711119675870013,238],["LGALS8_3964",-0.19913995716069663,-2.7133680055717595,240],["SSBP2_23635",-0.20561243357095427,-2.8664422306359936,240],["DACH1_1602",-0.2199905377925502,-3.20000462594827,238]]}}}
{"drive":{"corr":{"top":[["RIN2_54453",0.23327542338925372,-2.842103479590466,184],["PPP4C_5531",0.29545640204979595,-4.289159888293265,182],["C17orf99_100141515",0.2531625836669878,-3.2484036797229203,182]],"bottom":[["HOXB6_3216",-0.26302351220855824,-3.509372268898489,184],["COPZ1_22818",-0.2883523281805844,-4.102458155540934,182],["COPB2_9276",-0.2983070994011028,-4.408126026514527,184],["SPRR3_6707",-0.24263546026409374,-3.015005887460194,182],["DDX19B_11269",-0.29491472903721444,-4.274750348856408,182]]},"para":{"top":[["KDM1B_221656",0.27887974980280594,-3.8984219532567463,184],["VAV2_7410",0.23810012285650475,-2.9449169804226702,184],["CBL_867",0.24045610445227314,-2.9679196163780337,182],["CCDC171_203238",0.2540024573877166,-3.267453147723893,182],["RIN2_54453",0.25170075890061566,-3.2459324604655957,184],["PPP4C_5531",0.3232070084893971,-5.066744502760028,182],["RND3_390",0.2483423275294061,-3.140302960187915,182],["TBPL1_9519",0.23655504881149161,-2.9117676297744874,184],["GRK1_6011",0.23211402910032003,-2.791538880337001,182]],"bottom":[["PDE4D_5144",-0.25004711765066634,-3.193371803599184,183],["COPZ1_22818",-0.28385570756563155,-3.986814696843344,182],["ANAPC4_29945",-0.21505658052969592,-2.47218497741492,184],["POLDIP2_26073",-0.2576283197493011,-3.3504264553305174,182],["NPHP3-ACAD11_100532724",-0.2691171523401831,-3.6212861229495825,182],["DPYD_1806",-0.2481299618667115,-3.135588344845857,182],["COPB2_9276",-0.316010577816385,-4.905460274442084,184],["SPRR3_6707",-0.21313514955393145,-2.412619385687543,182],["DDX19B_11269",-0.2882995728185789,-4.101090077481899,182],["BGN_633",-0.22607617702683785,-2.66765153588546,182],["NME1_4830",-0.25178203525834136,-3.278313004394481,186]]}}}
{"achilles":{"corr":{"top":[["FAM86EP&FAM86DP_348926&692099",0.27333859053052706,-2.4689015176673044,113],["MBNL3_55796",0.297523811124235,-2.862461751538612,113],["BTN2A1_11120",0.30259904161199125,-2.9494422932407636,113],["YIPF1_54432",0.32833894644837885,-3.41501034852985,113],["LOC105378260_105378260",0.2893465843995571,-2.725560842225424,113],["KIAA0556_23247",0.2738827796392025,-2.4773841972073276,113],["GSPT1_2935",0.3544561641174268,-3.930993458649735,113],["NSUN3_63899",0.27246841480407424,-2.455372476383311,113],["FAM49A_81553",0.2922175483457869,-2.7731733733654242,113],["DEFB123_245936",0.3003097247639955,-2.9100150612779596,113],["GAS2L3_283431",0.3237198813236487,-3.328398517555952,113]],"bottom":[["RFTN1_23180",-0.3274608862640233,-3.3984407136727337,113],["MBLAC2_153364",-0.3626770150391072,-4.102937522984021,113],["ABCF3_55324",-0.2951920252890671,-2.8230180068881516,113],["FAM114A2_10827",-0.28942610304175254,-2.7268730394936975,113],["ZWINT_11130",-0.32541726971338897,-3.360067613703434,113],["NAV2_89797",-0.29041254147712653,-2.743182006996219,113],["RETN_56729",-0.31179118320147414,-3.1109687846361367,113],["PEX11A_8800",-0.2751557709614238,-2.4972932292217935,113],["WDR73_84942",-0.2788422173803714,-2.5554710709675534,113],["OR1J4_26219",-0.293291018953294,-2.7911013310163253,113],["C16orf89_146556",-0.2681475000065482,-2.388829072258793,113]]},"para":{"top":[["MBNL3_55796",0.341620124512754,-3.671742385455584,113],["RNF145_153830",0.2755597763879169,-3.8696159605499005,187],["BTN2A1_11120",0.2871086196237966,-2.6887830379234408,113],["ZCWPW1_55063",0.3072786817077912,-3.031027032706786,113],["YIPF1_54432",0.3011904143064161,-2.925145016807349,113],["INTS11_54973",0.29277451899847673,-2.7824667640759397,113],["LOC105378260_105378260",0.29265270052566256,-2.780432577082605,113],["GSPT1_2935",0.32412459453836767,-3.3359328015439504,113],["OARD1_221443",0.2675510734527799,-2.3797267392096053,113],["ZNF496_84838",0.3045660686392766,-4.646968147654246,187],["DPY19L4_286148",0.2784405052768924,-2.549093533090694,113],["FBXL22_283807",0.3052035140621039,-2.9946838227181587,113]],"bottom":[["RFTN1_23180",-0.37924337632312904,-4.463893453522256,113],["LRRC69_100130742",-0.27996406931869827,-2.5733307277995063,113],["VIT_5212",-0.2821443720837389,-2.6082487368257223,113],["MBLAC2_153364",-0.3815862797448246,-4.516538579504426,113],["DNAH10_196385",-0.30245590250479704,-2.946967813843319,113],["FAM114A2_10827",-0.2870634714358756,-2.688044117571979,113],["SPOP_8405",-0.3353371107768335,-3.548851780233055,113],["SEC22C_9117",-0.2783086950023634,-3.9397039242829295,187],["FGL1_2267",-0.30524094193547296,-2.9953369815700457,113],["RETN_56729",-0.2785584476637954,-2.550965010106957,113],["BTNL9_153579",-0.29377822691319216,-2.799260739009947,113],["GBF1_8729",-0.28290124843010545,-2.620434690029227,113],["OR1J4_26219",-0.2828174871347799,-2.619084469093027,113],["ATG14_22863",-0.2845136257993604,-2.646505540620542,113]]}}}
{"ccle_rrbs_tss1kb":{"corr":{"top":[["AK2_1_33502512_33503512",0.26461413977640835,-2.2654623730927126,109],["HIST1H4J_6_27790902_27791902",0.20171517163613936,-3.367151556396904,301],["KIF18A_11_28129746_28130746",0.2058833768454095,-2.7401675740334697,227],["SUGP2_19_19144861_19145861",0.19737995628068944,-3.1769721815486127,294],["EIF2S3B_12_10657491_10658491",0.24661382647597913,-3.801484639042004,230]],"bottom":[["DYNLRB2_16_80573630_80574630",-0.21158371090399147,-3.545459761141065,290],["KLHL12_1_202896400_202897400",-0.19636489846656938,-3.1394657943465987,293],["DYNLRB2_16_80573848_80574848",-0.21072241592865892,-3.604273851564241,298],["CUL9_6_43148921_43149921",-0.20077612774494752,-3.2918975600702316,296]]},"para":{"top":[["AK2_1_33502512_33503512",0.2563065735294264,-2.1461972283528543,109],["SMIM15_5_60458302_60459302",0.21365929722007546,-3.6934911788909925,298],["TMEM254_10_81838000_81839000",0.22003424350013162,-3.9027710665624906,299],["TMEM254_10_81837778_81838778",0.21766783639247056,-3.8284202715462574,299],["STAG3L4_7_66766624_66767624",0.22150607329372926,-3.601009889521463,269],["SNX1_15_64387082_64388082",0.22245206660419067,-3.2155660081377837,234],["EIF2S3B_12_10657491_10658491",0.2263057135050573,-3.2648411656248304,230],["PCYOX1_2_70484230_70485230",0.20838368832793228,-3.5237996409850156,297],["DDX10_11_108534751_108535751",0.20916506972684665,-3.5781827128953587,300]],"bottom":[["DYNLRB2_16_80573848_80574848",-0.18737067692178694,-2.937399995259137,298],["DYNLRB2_16_80573630_80574630",-0.1890453925520586,-2.914364187716843,290],["MIR3175_15_93446628_93447628",-0.17944657206632136,-2.6116697799237114,283],["SUSD4_1_223537544_223538544",-0.1919337376067717,-3.0794220497568996,300],["ELFN2_22_37823505_37824505",-0.20275802712221735,-3.3683937940323534,298]]}}}
{"ccle_gene_tpm":{"corr":{"top":[["WEE1_ENSG00000166483.6",0.2527786421246054,-5.524350270701646,333],["ARL6IP1P2_ENSG00000225355.1",0.23864606608719133,-4.970125387742147,333],["GLTPD1_ENSG00000224051.2",0.25593261688531393,-5.652617967620179,333],["HNRNPF_ENSG00000169813.12",0.22505279246543358,-4.468145959895619,333],["VPS37C_ENSG00000167987.6",0.24193422371717485,-5.096102983658024,333],["None_ENSG00000234857.2",0.2282873724001145,-4.584868861930892,333],["CDK11B_ENSG00000248333.3",0.233468389579217,-4.775366700539689,333]],"bottom":[["CD53_ENSG00000143119.8",-0.18261936173617593,-3.0896396677157747,333],["AC016724.6_ENSG00000232090.2",-0.1964682109943827,-3.50888247582191,333],["RP11-314A20.2_ENSG00000244184.1",-0.19434612524473432,-3.4427463889966248,333],["GPR22_ENSG00000172209.4",-0.17972619838165635,-3.005714397686874,333],["OGFOD1P1_ENSG00000231665.1",-0.17720176631603957,-2.9335076317395026,333],["MRPL45P1_ENSG00000232508.1",-0.1804225610777032,-3.0258000312760647,333],["RP11-86A5.1_ENSG00000233403.1",-0.2358518473633772,-4.864473921153953,333]]},"para":{"top":[["None_ENSG00000234857.2",0.2404498309223974,-5.039010677809784,333],["WASL_ENSG00000106299.7",0.2348790274307911,-4.827991966392444,333],["WEE1_ENSG00000166483.6",0.23809988455025644,-4.949372795126506,333],["GLTPD1_ENSG00000224051.2",0.2409253443367384,-5.057260006881075,333],["CPSF3L_ENSG00000127054.14",0.23389079691550918,-4.791090877493232,333],["HNRNPF_ENSG00000169813.12",0.24300479541949824,-5.137505857144406,333],["PITRM1_ENSG00000107959.11",0.23786987922397332,-4.94064827609225,333],["VPS37C_ENSG00000167987.6",0.2629851037351065,-5.9455698879826455,333],["CDK11B_ENSG00000248333.3",0.22869672293295673,-4.59976130195848,333],["PATL1_ENSG00000166889.13",0.2309399457972829,-4.681854067278628,333]],"bottom":[["TRIM53AP_ENSG00000225581.3",-0.21999419384823374,-4.288977666990046,333],["RPL7P29_ENSG00000214457.3",-0.19028071997811583,-3.3179687804539393,333],["AC016724.6_ENSG00000232090.2",-0.20966842131310456,-3.93590389463508,333],["AC012462.2_ENSG00000225166.1",-0.21108822530903879,-3.9834528055011207,333],["CHIAP2_ENSG00000203878.7",-0.19895706909971714,-3.587330810751249,333],["CTD-2091N23.1_ENSG00000251361.1",-0.20729648349494123,-3.857173842253525,333],["RP11-457P14.5_ENSG00000249771.1",-0.19957487581065944,-3.6069518220861427,333],["RP4-660H19.1_ENSG00000225087.1",-0.20635614815154327,-3.826205675017532,333],["RP11-129M6.1_ENSG00000251363.2",-0.18661432280405876,-3.2075934883674577,333],["TRIM49C_ENSG00000204449.2",-0.18661822739821235,-3.2077099515374616,333],["RP4-737A23.2_ENSG00000226759.3",-0.2071323780777457,-3.851759386869336,333],["OR4N3P_ENSG00000259435.2",-0.19874652552107663,-3.5806575797989018,333]]}}}
{"ccle_rrbs_tss_clusters":{"corr":{"top":[["MIR510_3",0.25582874665532873,-2.6737013123530984,142],["C8B_2",0.2711659584781136,-3.3164913023644305,162],["AFP_2",0.2832759093501137,-2.784778194199713,121],["MIR3667_3",0.27715562812120104,-3.3367176691475398,156],["LOC728327_2",0.33589630573085416,-4.084378314015492,132],["OR2G6_1",0.2524989970257217,-2.394168139691534,128],["KCNE5_3",0.2635676701248083,-2.764812380007846,139],["PEX26_2",0.2684736784268081,-2.6786034708387905,129]],"bottom":[["SLC36A4_1",-0.26048239685580254,-3.1546595489425355,166],["STEAP3-AS1_1",-0.23525957734594782,-3.4429055015398706,226],["RIPOR1_2",-0.22040710663824575,-3.8801402185308724,296],["KRBOX4_3",-0.24686237227464328,-2.64874994316266,151],["MIR3934_1",-0.20879298707984117,-3.4118530351108376,285],["TBC1D1_7",-0.23699078312599173,-2.661972025122932,165]]},"para":{"top":[["EHD2_2",0.32486205600339346,-3.1155565007028736,104],["FAAH_1",0.2998110822993978,-2.81275624905945,109],["ZNF888_2",0.262842267299335,-2.5309681882545414,126],["KCNE5_3",0.268389008580157,-2.8536539076669634,139],["AFP_2",0.26771289858426883,-2.5241817337796775,121],["MAGEA4_1",0.25827491072282915,-2.389838157237372,122],["LOC728327_2",0.3385618933280001,-4.1447125373535485,132],["LINC02036_4",0.25368257527095467,-3.1204162424328357,173],["MIR4424_1",0.2479622854328196,-2.624028352826934,148],["OR2G6_1",0.2556163374198368,-2.4449524066323716,128],["STRA8_3",0.2593871884834007,-2.6725980315331945,138],["PRR20B_5",0.24207115939405663,-2.7612077132101733,165],["PEX26_2",0.27723901805154205,-2.8330268732723516,129]],"bottom":[["ADGRE5_3",-0.23283568243534397,-2.289460005123379,143],["RIPOR1_2",-0.22453697893593166,-4.010770249998809,296],["STEAP3-AS1_1",-0.23467022986022826,-3.427688792178074,226],["KRBOX4_3",-0.22273960225032777,-2.2233934722804887,151],["MICB-DT_3",-0.2193624475021328,-2.883549559281361,212],["ARRDC4_3",-0.21694330969102316,-3.7390444002688956,293],["ZNF396_2",-0.26660553540085585,-2.188077327321608,103],["CROCCP2_1",-0.23259782191241468,-1.8667741322562987,112]]}}}
{"ccle_rrbs_cgi_clusters":{"corr":{"top":[["22_18558558_18563410-2",0.2684736784268081,-2.6786034708387905,129],["23_108865762_108870486-3",0.2635676701248083,-2.764812380007846,139],["6_168628046_168632390-3",0.2740009252694921,-4.546502749052806,227],["17_46808609_46812945-3",0.27820632725864786,-2.4109291187327466,106],["7_157935614_157939841-3",0.3199142544456277,-3.0056290644314005,103],["22_16402342_16406671-2",0.2539451844238604,-2.7501794008757114,149],["6_26612013_26616851-2",0.24623149577729128,-2.829268267577007,164],["10_11503222_11507766-2",0.2506239551104194,-2.6267034716716893,145],["21_9481485_9484074-3",0.2884838187566673,-2.875339201315196,121],["1_228325508_228328034-2",0.2380412898845602,-2.3769026823828567,143]],"bottom":[["9_115650446_115652947-3",-0.23322177173929995,-3.103541064260399,204],["11_92928760_92933391-1",-0.26048239685580254,-3.1546595489425355,166],["16_67560575_67565390-2",-0.22040710663824575,-3.8801402185308724,296],["23_46304249_46308838-3",-0.24686237227464328,-2.64874994316266,151],["2_120003514_120007756-1",-0.23525957734594782,-3.4429055015398706,226],["15_49265991_49270278-2",-0.26989664548317255,-3.376979583331907,167]]},"para":{"top":[["23_10092050_10096406-3",0.24688766699903503,-2.1983202833597404,121],["22_18558558_18563410-2",0.27723901805154205,-2.8330268732723516,129],["17_42198521_42201032-3",0.2862498120870568,-4.224792769880607,191],["15_20149404_20152115-1",0.28244912374861064,-3.644079695098252,166],["23_108865762_108870486-3",0.268389008580157,-2.8536539076669634,139],["6_168628046_168632390-3",0.2841569767888231,-4.861225306125152,227],["19_48214486_48218837-2",0.32486205600339346,-3.1155565007028736,104],["1_46857724_46862291-1",0.2998110822993978,-2.81275624905945,109],["8_2127863_2132356-3",0.26630120414911024,-2.849649056721136,141],["21_9481485_9484074-3",0.2706128180616603,-2.5716144281575133,121],["17_46808609_46812945-3",0.27795636421909753,-2.4072007216664395,106]],"bottom":[["9_115650446_115652947-3",-0.2727031646553634,-4.099991442688446,204],["5_77941868_77944544-2",-0.2777491170288669,-2.4616359427743046,109],["19_1959001_1963325-2",-0.27004421142152124,-3.1685207602638923,155],["10_81442163_81446474-1",-0.23267632271956837,-2.3135455725367553,145],["18_32954764_32959406-2",-0.26660553540085585,-2.188077327321608,103],["2_120003514_120007756-1",-0.23467022986022826,-3.427688792178074,226],["14_105497802_105502021-1",-0.27103906385348037,-2.741313116660495,130],["23_73753645_73756215-2",-0.2825894846410666,-3.3384016939394674,150],["1_54721696_54726019-3",-0.23310177329918785,-2.982936693076329,195],["15_49265991_49270278-2",-0.2973427524442019,-4.020963147253668,167]]}}}
