{"depmap_hotspot":{"corr":{"top":[["ABCD4",0.13882694947492003,-2.350604943572386,18.0,400.0],["ACTB",0.14475636592053875,-2.5208856942330082,17.0,401.0],["ADI1",0.12923681034628148,-2.0883950100094957,11.0,407.0],["ARFGAP3",0.14831420190133265,-2.626083910510814,18.0,400.0],["ARX",0.1871935222393067,-3.927336467856405,10.0,408.0],["BRD2",0.14857213511114617,-2.633799135148947,18.0,400.0],["C10orf129",0.12939232896034145,-2.092518107384307,13.0,405.0],["C9orf117",0.1263250295104532,-2.0119781036059163,11.0,407.0],["CASP12",0.12418290873012718,-1.956702901903296,18.0,400.0],["CASP4",0.14840428103101985,-2.6287769672682932,12.0,406.0],["CHST13",0.12474543598513464,-1.971141155166448,11.0,407.0],["COL3A1",0.13278126422187123,-2.183418120379475,66.0,352.0],["CYP11B1",0.13043694159979027,-2.1203225354393918,23.0,395.0],["DARS",0.12340698614780976,-1.9368775362467905,8.0,410.0],["DNAJA1",0.12205160602684005,-1.902496730789743,12.0,406.0],["DSPP",0.14168712059643504,-2.4319594423060154,26.0,392.0],["DYRK1B",0.12454474342743314,-1.9659837260324695,17.0,401.0],["ESPL1",0.1442116168941444,-2.5049793619815897,52.0,366.0],["FAM166A",0.12776715157291446,-2.049640291407295,17.0,401.0],["FPR2",0.1276147263507142,-2.0456424461126432,14.0,404.0],["GRB2",0.12415546731905178,-1.9559999741823053,11.0,407.0],["HIP1",0.13256114186257148,-2.177452619223998,23.0,395.0],["IFIT1B",0.16058402986650827,-3.0064817916077198,15.0,403.0],["LAIR2",0.14686569640183628,-2.5829795065883254,9.0,409.0],["LAMP3",0.12798308740747494,-2.055310848795037,8.0,410.0],["LMO7",0.17138470956694776,-3.364236491266931,40.0,378.0],["MAP2",0.12694599382392727,-2.0281506561725564,49.0,369.0],["MAP2K7",0.1466703034636874,-2.5771939673311675,22.0,396.0],["MYO1D",0.14175207407267298,-2.433823910509483,39.0,379.0],["NFATC2IP",0.1606904873029209,-3.009902692474491,15.0,403.0],["OR2AE1",0.13396748780203385,-2.2157126365526385,18.0,400.0],["OR4M1",0.13542864385936765,-2.2558331587056792,27.0,391.0],["OR9A4",0.12354646740567593,-1.9404336876886652,11.0,407.0],["PAQR5",0.14322655962248831,-2.4763513497987346,12.0,406.0],["PCDHB5",0.1383868457686422,-2.338215902956435,46.0,372.0],["PDE11A",0.1521712390147058,-2.74270975078578,32.0,386.0],["PDZD7",0.15113271400000727,-2.71104266957721,21.0,397.0],["PDZRN3",0.15854202767572828,-2.9412673040093926,49.0,369.0],["PJA2",0.16698785411840822,-3.2159844461951685,15.0,403.0],["PPM1E",0.12489622156755692,-1.9750206674062816,15.0,403.0],["PPP2R3A",0.14245968943198453,-2.4541846033687706,26.0,392.0],["PREB",0.1559376502983537,-2.859201772018494,11.0,407.0],["PTCD2",0.13966117605101958,-2.3741831386440557,11.0,407.0],["RASA2",0.14937404344708527,-2.6578623253483085,20.0,398.0],["RDM1",0.14402408949293874,-2.499515990165336,11.0,407.0],["RGS12",0.13761487993441723,-2.316567923158526,37.0,381.0],["SCAMP1",0.16532005521380033,-3.160691167536909,11.0,407.0],["SEMA3D",0.1312379760423309,-2.1417732059030814,31.0,387.0],["SIGLEC15",0.14683421390632848,-2.582046852783129,9.0,409.0],["TBCEL",0.12923438460069922,-2.0883307323464377,13.0,405.0],["TP53BP1",0.13609810914982073,-2.274341376294155,38.0,380.0],["USHBP1",0.12297547018159298,-1.925897135558737,17.0,401.0],["VPS13C",0.13707874344524434,-2.3015954324692633,83.0,335.0],["ZMAT1",0.14671489977591542,-2.5785138484587224,19.0,399.0],["ZNF571",0.15062860954072185,-2.6957418324352918,17.0,401.0],["ZNF74",0.1228814988803628,-1.9235102064086005,24.0,394.0]],"bottom":[["ACSM3",-0.1282557236122598,-2.0624820063715728,15.0,403.0],["ADAM29",-0.1503795608023474,-2.688199565916632,38.0,380.0],["AIM1L",-0.1470233870499837,-2.587653701791286,20.0,398.0],["AMICA1",-0.12036614358913805,-1.860185773489753,14.0,404.0],["ANKRD13A",-0.128504561195708,-2.069038519396707,11.0,407.0],["C19orf24",-0.12453059887033946,-1.9656205006892356,11.0,407.0],["C22orf34",-0.12733394994447733,-2.0382887844480577,10.0,408.0],["C7orf55-LUC7L2",-0.1416167950132035,-2.42994161884734,18.0,400.0],["CLSTN2",-0.12367156566140337,-1.9436260038541318,42.0,376.0],["CLUH",-0.1346214986537707,-2.233623919916522,44.0,374.0],["COL10A1",-0.13297197445255005,-2.188593421645699,20.0,398.0],["DCN",-0.14330189846940847,-2.4785347313642347,13.0,405.0],["DNAAF3",-0.12838204754125931,-2.0658091087667163,11.0,407.0],["EIF2B2",-0.1412214375955897,-2.4186142202785024,9.0,409.0],["FAM46D",-0.13382939720711143,-2.2119404186400864,17.0,401.0],["GCNT1",-0.15946547398276412,-2.970664123634589,12.0,406.0],["GLYATL3",-0.11868443759252248,-1.8184569811530298,11.0,407.0],["GPR151",-0.12543296609842408,-1.9888624389398706,9.0,409.0],["KARS",-0.1535024306465409,-2.7835873427938136,28.0,390.0],["KCNAB1",-0.13355250916050973,-2.204386800120023,17.0,401.0],["KIAA0319L",-0.14134265329912443,-2.4220842102548796,28.0,390.0],["LHFPL2",-0.11832710450818265,-1.8096529823031537,9.0,409.0],["LYAR",-0.11494273624109329,-1.7273538800528643,9.0,409.0],["NEUROD2",-0.1384535644344949,-2.3400918390663983,8.0,410.0],["NPHS2",-0.14236738065376076,-2.4515234660487666,18.0,400.0],["PRSS37",-0.15938421396230246,-2.968071026038047,9.0,409.0],["PSMA6",-0.1196336010698895,-1.8419491047461956,8.0,410.0],["PTPN9",-0.13149285865614985,-2.148622246233078,16.0,402.0],["RELL2",-0.14789621273431425,-2.6136066270660954,11.0,407.0],["RIMKLB",-0.13791424086828016,-2.324950247137634,13.0,405.0],["SLC28A2",-0.1272366408386388,-2.035743422858094,16.0,402.0],["SRC",-0.13612386599004994,-2.2750550404272007,19.0,399.0],["SYK",-0.13186424814512246,-2.1586224060368933,16.0,402.0],["TCEA3",-0.1282174387501057,-2.0614742152456897,8.0,410.0],["ZMYM5",-0.13357968724594962,-2.2051276313574264,25.0,393.0],["ZNF165",-0.12485970080951997,-1.9740806746313257,13.0,405.0],["ZNF300",-0.14187344474342667,-2.4373098348910682,32.0,386.0],["ZNF638",-0.18943833447592037,-4.011154245080349,59.0,359.0]]},"para":{"top":[["ACTB",0.1564824642335753,-3.1545806459031507,17.0,401.0],["ADM2",0.12690504280960657,-2.3188636733172507,8.0,410.0],["ARX",0.17314290705503405,-3.6895467508959845,10.0,408.0],["BARX1",0.11665172635481712,-2.0634930033724963,9.0,409.0],["C9orf117",0.12763525704955192,-2.3379896217303537,11.0,407.0],["CA14",0.11767618530992384,-2.0882404362309934,9.0,409.0],["DMP1",0.11326621046013095,-1.9830144838351846,10.0,408.0],["DNAJA1",0.14443574367872664,-2.7964511335269897,12.0,406.0],["GJD4",0.12478583362625703,-2.264969812700013,12.0,406.0],["GRB2",0.13005048025427413,-2.4009915727031768,11.0,407.0],["H1FNT",0.12704171453862517,-2.322721065344491,12.0,406.0],["HDAC3",0.12088615670259152,-2.166899148888623,9.0,409.0],["HIST1H3H",0.12032102975620053,-2.152828000087765,8.0,410.0],["IFIT1B",0.17113087295618032,-3.6227596683556595,15.0,403.0],["IL12A",0.13162493758511207,-2.4425053705561006,10.0,408.0],["KLF8",0.12792724342919715,-2.3454784390664383,10.0,408.0],["KLHDC8B",0.1363620646239355,-2.5702818054947616,12.0,406.0],["LAIR2",0.15899602983256103,-3.231778854911133,9.0,409.0],["LAMP3",0.13978366174923598,-2.664436067537481,8.0,410.0],["LGI2",0.11840786583151054,-2.10617596742059,11.0,407.0],["MAFG",0.11959751183824381,-2.1350183759457186,8.0,410.0],["MARCH8",0.12737439675160067,-2.331078319747873,9.0,409.0],["NFATC2IP",0.1477342821035602,-2.8921788772350947,15.0,403.0],["OR2AE1",0.1616885049295882,-3.3168718636386227,18.0,400.0],["PJA2",0.13856750846654275,-2.6311479075236868,15.0,403.0],["PPM1E",0.13989988835564415,-2.66821303010371,15.0,403.0],["PREB",0.13320884906044939,-2.4848412751072626,11.0,407.0],["PTCD2",0.14014487467401066,-2.67481910044472,11.0,407.0],["RDM1",0.16640268592534982,-3.4673401282521197,11.0,407.0],["RNF13",0.1320322018581488,-2.453409176728013,11.0,407.0],["SCAMP1",0.15172556029665316,-3.009992160535329,11.0,407.0],["SNRPA",0.11832621298927769,-2.10411563937697,10.0,408.0],["STAR",0.12118925125774857,-2.174313317447516,8.0,410.0],["TASP1",0.14559758908878678,-2.8301204183692783,16.0,402.0],["TBCEL",0.147106845821563,-2.8737509483936554,13.0,405.0],["TM4SF5",0.13319964869582995,-2.484315180630745,8.0,410.0],["TMCO6",0.13304306963652446,-2.4802282445957164,9.0,409.0],["YWHAB",0.11560159624281406,-2.0383859828574296,10.0,408.0],["ZNF571",0.15306976135741007,-3.05071404245484,17.0,401.0]],"bottom":[["AIM1L",-0.13928557604852712,-2.651277376532406,20.0,398.0],["AMICA1",-0.1181840337645519,-2.1008932865162726,14.0,404.0],["BOLA1",-0.11856404973768299,-2.109827600261907,9.0,409.0],["C19orf24",-0.1233621698411972,-2.228892222532562,11.0,407.0],["C22orf34",-0.1303923728664738,-2.4099106889942203,10.0,408.0],["CPT2",-0.11054290821613301,-1.919639064248404,11.0,407.0],["DNAAF3",-0.12107080423671714,-2.171633352883754,11.0,407.0],["EIF2B2",-0.1421266057051373,-2.7303966280092804,9.0,409.0],["EIF3J",-0.14277351563803434,-2.748993656925547,12.0,406.0],["FGF14",-0.12520262668273352,-2.275436103018183,10.0,408.0],["GCNT1",-0.129475691312496,-2.3859773449934156,12.0,406.0],["GFER",-0.1117111665325157,-1.9464652144001604,8.0,410.0],["GNS",-0.13011240905439525,-2.402619741391747,11.0,407.0],["GPR151",-0.1406240659043141,-2.6880626038942617,9.0,409.0],["HS1BP3",-0.1275166368359658,-2.3349866086130944,12.0,406.0],["LMNB1",-0.11749930987616937,-2.0838572608767327,8.0,410.0],["LYAR",-0.10763648754987812,-1.8531173033289112,9.0,409.0],["NEUROD2",-0.1218404173839096,-2.1905088132974333,8.0,410.0],["NPHS2",-0.13775997354465974,-2.6089508866386315,18.0,400.0],["PRKACA",-0.13113193489959604,-2.42969648717774,14.0,404.0],["PRSS37",-0.11986169774748481,-2.1416111506490547,9.0,409.0],["PSMA6",-0.128786189396294,-2.3676195792326276,8.0,410.0],["PTPN9",-0.13340417850505587,-2.4903569524090656,16.0,402.0],["RELL2",-0.10942818981395352,-1.8940182842788391,11.0,407.0],["SIX6",-0.13414933511749416,-2.5104472315516237,17.0,401.0],["SRC",-0.13801330700578915,-2.6159757248854825,19.0,399.0],["TCEA3",-0.13558725782508704,-2.5487972418282063,8.0,410.0],["ZNF165",-0.12797610306138307,-2.3469471514635414,13.0,405.0]]}}}
{"depmap_damaging":{"corr":{"top":[["ADD3",0.12916203976127905,-2.086414204255208,9.0,409.0],["ARFGAP3",0.11457786397270654,-1.7185980782698533,10.0,408.0],["DNAH1",0.12013148207793739,-1.8543338076423,12.0,406.0],["GPR179",0.11702029066043451,-1.7776422028684165,9.0,409.0],["KCNU1",0.1369435189052949,-2.2978271114964666,8.0,410.0],["LRP1",0.1501938315466644,-2.6825821956194105,18.0,400.0],["SGK223",0.13660240286629097,-2.2883355766520936,9.0,409.0],["SMARCC1",0.11627624010572037,-1.7595472160304562,15.0,403.0]],"bottom":[["CALCR",-0.17889230171774181,-3.6257504699383647,13.0,405.0],["PTPRC",-0.12653874748934782,-2.017536649825006,8.0,410.0]]},"para":{"top":[["ADD3",0.12696461316955798,-2.320503130551163,9.0,409.0],["CLDN8",0.1249808219895253,-2.2702571356895227,20.0,398.0],["ERCC4",0.10317365510062658,-1.7537781009007805,8.0,410.0],["FANCA",0.12961697865342656,-2.389612229847332,11.0,407.0],["KCNU1",0.14730824809598575,-2.8791784337196287,8.0,410.0],["LRP1",0.14440136184741534,-2.7957669140727877,18.0,400.0],["MAP3K15",0.13141291385693799,-2.4369585231153454,11.0,407.0],["MUC19",0.11733574337141048,-2.0803996332406016,16.0,402.0],["SMARCC1",0.13963341237782384,-2.6607762322775903,15.0,403.0],["SORL1",0.1297830829082828,-2.3942768874326434,17.0,401.0],["TNR",0.14912455069156766,-2.932746977670519,11.0,407.0],["USP24",0.10512715347910966,-1.7968244668164741,8.0,410.0]],"bottom":[["CALCR",-0.1569291973282823,-3.1681098888008457,13.0,405.0],["COL4A3",-0.13125664992752348,-2.4328855349561493,12.0,406.0],["PTPRC",-0.1129411469930421,-1.9752025016793389,8.0,410.0]]}}}
{"ccle_metabolomics":{"corr":{"top":[["C14:0 CE",0.1581741401301749,-2.89385670739964,412]],"bottom":[]},"para":{"top":[["C14:0 CE",0.1806030030602759,-3.6408128899283985,412]],"bottom":[]}}}
{"ccle_rrbs_enhancer_clusters":{"corr":{"top":[["7-155264928-155267809-0_enh",0.18713808551897151,-3.1982792603851573,330],["11-33962286-33966072-1_enh",0.15065785217316796,-2.3357973723245515,352],["12-14408263-14412303-2_enh",0.20097072586646297,-3.3358616289639773,300]],"bottom":[]},"para":{"top":[],"bottom":[]}}}
{"prism_primary_logfold":{"corr":{"top":[["8-M-PDOT_BRD-A07232941-001-02-7::2.5::HTS",0.2230262362626036,-5.463942473344281,425],["sulindac_BRD-A13946108-001-17-1::2.5::HTS",0.18862864282681122,-4.014146434343916,422],["cyclandelate_BRD-A27370296-001-03-0::2.5::HTS",0.18489674576582327,-3.8906851512338103,424],["hyperin_BRD-A63780829-001-11-4::2.5::HTS",0.1903880958713001,-4.097813155657233,424],["mazindol_BRD-A68464583-001-02-5::2.5::HTS",0.20560855395926309,-4.673354328410675,421],["4,4-pentamethylenepiperidine_BRD-K49545903-003-01-4::2.5::HTS",0.19267189070226817,-4.168329002624583,422],["fluoromethylcholine_BRD-K51199656-003-01-4::2.5::HTS",0.22530640223053164,-5.543305761165206,423],["BTS_BRD-K64178227-001-09-0::2.5::HTS",0.20337095283820772,-4.5821383742483865,421],["clorgiline_BRD-K73251053-003-22-2::2.5::HTS",0.18791073755289073,-4.003642457951425,424]],"bottom":[["gliclazide_BRD-A61154809-001-15-9::2.5::HTS",-0.15187127456585295,-2.7666166168925863,424],["K02288_BRD-K58568447-001-01-1::2.5::HTS",-0.1969044527660585,-4.333152829654337,422],["benzethonium_BRD-K72723676-003-17-8::2.5::HTS",-0.15767861601880018,-2.9494201989387934,424]]},"para":{"top":[["8-M-PDOT_BRD-A07232941-001-02-7::2.5::HTS",0.20889541529650607,-4.849793714744477,425],["sulindac_BRD-A13946108-001-17-1::2.5::HTS",0.18251016065968878,-3.786856816481173,422],["cyclandelate_BRD-A27370296-001-03-0::2.5::HTS",0.21141370600960668,-4.945862604901705,424],["mazindol_BRD-A68464583-001-02-5::2.5::HTS",0.19612927867490557,-4.29371666053979,421],["L-(+)-Rhamnose-Monohydrate_BRD-A86354194-002-01-7::2.5::HTS",0.18096952208294556,-3.73076229654366,422],["4,4-pentamethylenepiperidine_BRD-K49545903-003-01-4::2.5::HTS",0.20249062935198753,-4.556086701320136,422],["BTS_BRD-K64178227-001-09-0::2.5::HTS",0.21111709850630656,-4.902162210863664,421],["landiolol_BRD-K86436199-003-01-3::2.5::HTS",0.18742951012905457,-3.9772601224035027,423],["neohesperidin_BRD-K96299080-001-02-7::2.5::HTS",0.19021041468784172,-4.074085643701555,422]],"bottom":[["benzethonium_BRD-K72723676-003-17-8::2.5::HTS",-0.16813395200111503,-3.2943763348562634,424]]}}}
{"prism_secondary_logfold":{"corr":{"top":[["nafcillin_BRD-K18574842-236-17-7::0.625::HTS002",0.3678389955111761,-14.369056134348929,426],["riluzole_BRD-K21283037-001-21-5::0.15625::HTS002",0.2840236384375338,-8.620283369588472,426],["leucovorin_BRD-A75919782-399-02-6::2.5::HTS002",0.2945270950930286,-8.781124389774051,403],["sodium-glucoheptonate_BRD-K35952844-236-01-6::2.5::HTS002",0.2660180490906711,-7.606840091793641,426],["I-BET151_BRD-K36363294-001-04-2::0.00976562::HTS002",0.31093889296310556,-10.162738666294436,421],["nafcillin_BRD-K18574842-236-17-7::10::HTS002",0.3330011288876794,-11.763676794935584,426],["fenoprofen_BRD-A81129465-001-03-8::0.625::HTS002",0.32463154043674103,-11.184848213998587,426],["IDRA-21_BRD-A14344385-001-03-2::0.00061034::HTS002",0.3665598871383401,-4.647928780039709,127],["carbachol_BRD-K75037734-003-13-9::0.15625::HTS002",0.30119635898119196,-7.280352726624422,314],["sodium-glucoheptonate_BRD-K35952844-236-01-6::0.00244141::HTS002",0.29628446255146396,-9.35306434841922,426],["terconazole_BRD-K86204871-001-16-2::2.5::HTS002",0.28315370611798235,-8.56961910615127,426]],"bottom":[["benzethonium_BRD-K72723676-003-17-8::2.5::HTS002",-0.16994761615989626,-2.9040119965956803,358],["benzethonium_BRD-K72723676-003-17-8::0.625::HTS002",-0.16698421501492822,-2.817996435915093,358],["barasertib_BRD-K31928526-001-02-1::0.00976562::HTS002",-0.17065963849038746,-3.312019435917159,414],["ubenimex_BRD-K59574735-001-11-8::0.00061034::HTS002",-0.22007573865834745,-3.697888465381207,281],["bruceantin_BRD-A36057565-001-01-0::0.0390625::HTS002",-0.16566980514873444,-3.198237129931554,422],["PF-03758309_BRD-K37764012-001-04-1::2.5::HTS002",-0.18739916820734523,-3.836121304270243,406],["epothilone-b_BRD-K68164687-001-01-6::0.00976562::HTS002",-0.16362672615777676,-3.1177747120442785,420],["alvespimycin_BRD-K83988098-003-03-4::0.000610352::HTS002",-0.16778392865113667,-3.269187358047754,422]]},"para":{"top":[["nafcillin_BRD-K18574842-236-17-7::0.625::HTS002",0.34230957528079653,-12.42845523858111,426],["phenylbutazone_BRD-K10843433-001-22-7::0.00061034::HTS002",0.2816991470504997,-8.485296028266701,426],["fenoprofen_BRD-A81129465-001-03-8::0.625::HTS002",0.28276574996847736,-8.547081053617575,426],["leucovorin_BRD-A75919782-399-02-6::2.5::HTS002",0.29408251485292974,-8.755554558074616,403],["I-BET151_BRD-K36363294-001-04-2::0.00976562::HTS002",0.2656484463453944,-7.504912376251644,421],["nafcillin_BRD-K18574842-236-17-7::10::HTS002",0.29086723012577903,-9.024965662224828,426],["leucovorin_BRD-A75919782-399-02-6::0.0024414::HTS002",0.25972496445500326,-7.06630115993023,413],["sodium-glucoheptonate_BRD-K35952844-236-01-6::2.5::HTS002",0.29286944622207345,-9.145427754572411,426],["carbachol_BRD-K75037734-003-13-9::0.15625::HTS002",0.2760031733859494,-6.170012669288273,314],["sodium-glucoheptonate_BRD-K35952844-236-01-6::0.00244141::HTS002",0.28550673048557484,-8.707060576297142,426],["terconazole_BRD-K86204871-001-16-2::2.5::HTS002",0.2616046050308922,-7.3695647020148645,426]],"bottom":[["benzethonium_BRD-K72723676-003-17-8::2.5::HTS002",-0.1827643711699003,-3.2921673579392987,358],["nemorubicin_BRD-K51911221-001-01-2::0.0390625::HTS002",-0.16981598939141904,-3.1129021765453833,389],["PF-03758309_BRD-K37764012-001-04-1::2.5::HTS002",-0.20035441734451137,-4.320108726650571,406],["epothilone-b_BRD-K68164687-001-01-6::0.00976562::HTS002",-0.17011396195286108,-3.3346898780148764,420],["alvespimycin_BRD-K83988098-003-03-4::0.000610352::HTS002",-0.18470563137551227,-3.8675825955958643,422],["SNX-2112_BRD-K71281111-001-04-3::0.0390625::HTS002",-0.16818172456685676,-3.3026824257330296,425]]}}}
{"ccle_proteomics":{"corr":{"top":[["ATP5H_O75947",0.30591777540640397,-5.42215681442557,220],["UQCRC1_P31930",0.3228705673552013,-6.003779265488314,220],["ZXDC_Q2QGD7",0.2937901270593048,-3.096305505806893,127],["ATP5D_P30049",0.291737438937178,-4.962724163602141,220],["MRPL49_Q13405",0.3114865335318113,-5.609269661859914,220],["UQCRFS1_P47985",0.3252759343754138,-6.0892280905325284,220],["UQCRB_P14927",0.32392341025427085,-6.04109008250662,220],["ZBTB1_Q9Y2K1-2",0.2976098688577764,-4.537618397837806,191],["NDUFA2_O43678",0.2921315128352541,-4.975165875743571,220],["C8orf82_Q6P1X6",0.28765655535102774,-4.834964490555123,220],["NDUFS3_O75489",0.28284161530970564,-4.6867459186596045,220],["NDUFV2_P19404",0.2916809313170868,-4.960941616287194,220],["MRPS28_Q9Y2Q9",0.2843582090757851,-4.733138231709651,220],["ZNF219_Q9P2Y4",0.3202236690236143,-4.139159082615913,148],["DNLZ_Q5SXM8",0.331637230298572,-5.133615887775786,175]],"bottom":[["MAP3K3_Q99759-2",-0.2587484436423171,-3.6495057616550817,199],["TMCO6_Q96DC7-2",-0.28153390889048957,-2.5592106954941203,111],["CSNK1E_P49674",-0.27240466972268673,-4.374717217762443,220],["USP8_P40818",-0.25899261099967574,-3.9919872677793786,220],["PGK2_P07205",-0.26961593845074455,-3.5983846172649403,180],["ZBED1_O96006",-0.26687647972752726,-3.189514730365436,160],["CUL4B_Q13620",-0.26293231224807595,-4.102310481794823,220],["GALE_Q14376",-0.25923302963061146,-3.9986700443093963,220],["PLA2G16_P53816",-0.27286000025850565,-3.4613144044312465,168],["CHID1_Q9BWS9",-0.26629708318802786,-4.19791230270707,220],["AMZ2_Q86W34",-0.2986401364674659,-3.816450074415953,156],["LDHA_P00338-3",-0.2838428407194897,-4.71734305774102,220],["FMR1_Q06787-7",-0.26183789876059904,-4.071489555482742,220],["PYGL_P06737",-0.25928123890174504,-4.000010864322439,220],["PACS1_Q6VY07",-0.26917704320237845,-4.280754612395057,220]]},"para":{"top":[["COQ3_Q9NZJ6",0.31008549137384367,-5.561834232850682,220],["RAB11FIP3_O75154-3",0.2973684978610586,-3.1205003921703183,125],["ATP5H_O75947",0.2963472825800484,-5.1094247038619995,220],["UQCRC1_P31930",0.32643900905288753,-6.130810049404189,220],["MTHFD2L_Q9H903",0.3462353293949495,-3.5569403075287824,106],["ZXDC_Q2QGD7",0.31123388312248595,-3.4334923821597054,127],["MRPL49_Q13405",0.2901999831522982,-4.914359837043557,220],["UQCRFS1_P47985",0.314804045704805,-5.722562112724083,220],["UQCRB_P14927",0.2817515146877706,-4.653565774887945,220],["RPP14_P86397",0.27661270145476,-2.4442899301387895,109],["C8orf82_Q6P1X6",0.2811894589384764,-4.636512172693692,220],["UQCRC2_P22695",0.28264586826500127,-4.680777626262774,220],["MRPL52_Q86TS9",0.27907355061900074,-4.442940570743166,213],["ZNF219_Q9P2Y4",0.27877357618251597,-3.2207785489532146,148],["DNLZ_Q5SXM8",0.2959124895832319,-4.154223870275826,175]],"bottom":[["TMCO6_Q96DC7-2",-0.2926353060477514,-2.737858066332391,111],["CSNK1E_P49674",-0.2714151641665877,-4.345784546060671,220],["ZBED1_O96006",-0.2888726284054194,-3.6742785349142264,160],["MTMR1_Q13613",-0.295976979919802,-5.097546615511117,220],["CUL4B_Q13620",-0.2692139509147882,-4.281822367852704,220],["MXRA5_Q9NR99",-0.29275593324318755,-2.6974646911720983,109],["PLA2G16_P53816",-0.2568541016427518,-3.109674255593556,168],["CHID1_Q9BWS9",-0.25236373881906177,-3.8102535073093433,220],["TRMT2A_Q8IZ69",-0.25630943334855477,-3.917840640439736,220],["LDHA_P00338-3",-0.26478643792053513,-4.154833311596985,220],["FMR1_Q06787-7",-0.3157455651866944,-5.754964490103777,220]]}}}
{"depmap_copy_number":{"corr":{"top":[["DCAF5_8816",0.16547507495858846,-3.16580885253093,418],["ACTN1_87",0.1725630651187687,-3.4045815693183674,418],["MPP5_64398",0.16466770316593884,-3.139203790541036,418],["ACYP1_97",0.16704452876828796,-3.2178724794066227,418],["NEK9_91754",0.16603677183109922,-3.184389542342226,418],["LOC100996664_100996664",0.1700035855036766,-3.317279608549672,418],["ZFP36L1_677",0.1725630651187687,-3.4045815693183674,418],["EIF2B2_8892",0.16704452876828796,-3.2178724794066227,418],["ACTN1-AS1_161159",0.17602183839819863,-3.5245096806714984,418],["RAD51B_5890",0.17059746949450674,-3.3374273997893114,418],["TMED10_10972",0.16603677183109922,-3.184389542342226,418],["MLH3_27030",0.16704452876828796,-3.2178724794066227,418],["ZC2HC1C_79696",0.16704452876828796,-3.2178724794066227,418]],"bottom":[]},"para":{"top":[],"bottom":[["OCRL_4952",-0.15059983664588958,-2.6948698916039775,418]]}}}
{"depmap_gene_tpm":{"corr":{"top":[["KRT2_3849",0.15124645028647743,-2.7090282050539174,417]],"bottom":[["SLC25A14_9016",-0.1691627541825538,-3.282102492648544,417],["PHKA2_5256",-0.16683912969658846,-3.2044444461017667,417],["PSMD10_5716",-0.18154505061683995,-3.7129555372651044,417],["IDS_3423",-0.16611083254342002,-3.1803100959788644,417],["VAMP7_6845",-0.1737351689810747,-3.4378533490480723,417],["ABCD1_215",-0.17020463362917168,-3.3172491067297947,417],["MAPK8IP3_23162",-0.18192743456861538,-3.726720832576096,417],["OAT_4942",-0.18479393907957226,-3.830795706264253,417],["CCNDBP1_23582",-0.19437124796283525,-4.1899186678788185,417]]},"para":{"top":[["TBC1D21_161514",0.1408807440934772,-2.404082325644005,417],["BPIFB6_128859",0.1605936885040648,-3.0006639321946573,417]],"bottom":[["ERLEC1_27248",-0.17119446134736324,-3.35082713664961,417],["SLC25A14_9016",-0.16703413575599813,-3.2109232463206387,417],["PSMD10_5716",-0.16833779482297692,-3.254416669027288,417],["IDS_3423",-0.1658709175688327,-3.1723812857837106,417],["ABCD1_215",-0.16795484413055517,-3.2416077292491647,417],["FMR1NB_158521",-0.17398007080881303,-3.4463057302231097,417],["MAPK8IP3_23162",-0.1846308919194533,-3.8248339741773827,417],["MPP1_4354",-0.19427485871328382,-4.186216372491225,417],["RAP2C_57826",-0.1639616511664108,-3.109662370151235,417],["CCNDBP1_23582",-0.18719118906660467,-3.9190354482861314,417],["FAM3A_60343",-0.17581203846912472,-3.5098898592413548,417]]}}}
{"avana":{"corr":{"top":[["SIGLEC8_27181",0.2195493187385272,-3.898852330154181,300],["ZSCAN5B_342933",0.2244074619078452,-4.054159242534095,300],["KIR2DL3_3804",0.2284869079338853,-4.187203881428035,300],["MFRP_83552",0.22523296037847562,-4.080887064384902,300],["SCN11A_11280",0.2087337483350793,-3.565193370070007,300],["EMC3_55831",0.20232702420409868,-3.3753227789930986,300],["SIGLEC5_8778",0.22907023695940437,-4.206425611079885,300],["NUP210L_91181",0.20100269322597084,-3.3367887712748043,300],["CYB561D2_11068",0.20165062676774215,-3.355611224400214,300],["TRPM2_7226",0.20951456080611758,-3.5887269133574153,300],["CCDC85C_317762",0.2212531069873866,-3.952933396954462,300],["PARP3_10039",0.22506075646771775,-4.063358273765395,299],["SCN10A_6336",0.2137392478786078,-3.717549610968503,300]],"bottom":[["ZBTB34_403341",-0.2134138827424674,-3.7075385900577724,300],["B3GALT4_8705",-0.25122386767043314,-4.973560135041753,300],["LINGO4_339398",-0.2147522832331919,-3.748815424375469,300],["PROM1_8842",-0.21388914040246082,-3.7221666399540907,300],["HTATSF1_27336",-0.20306611167534902,-3.2106010517998955,281],["PHF20L1_51105",-0.19873238769169604,-3.261903956588265,299],["FABP3_2170",-0.2145280591373513,-3.7418825325395275,300],["OR5A1_219982",-0.20249217959330412,-3.3801453955185345,300],["SNX12_29934",-0.24903045018497752,-4.617112817119779,281],["MAGEB4_4115",-0.20199225333992768,-3.181111658996214,281],["CD74_972",-0.22443984150010587,-4.055205767240035,300],["AGMAT_79814",-0.20903605340239859,-3.57429461375196,300],["TEPSIN_146705",-0.1992548110950619,-3.2863032381331982,300],["DDX41_51428",-0.22807328785384073,-4.17360435141771,300]]},"para":{"top":[["KIR2DL3_3804",0.21768026066199672,-3.8400034292899377,300],["VAV1_7409",0.21026179723122398,-3.6113288516401556,300],["SCN11A_11280",0.19697373238377447,-3.221052613997913,300],["AP1M1_8907",0.20371680676513967,-3.416023560093044,300],["SRRM5_100170229",0.1990374089600976,-3.28005341744906,300],["AKAP8L_26993",0.18443841274971917,-2.875206576787253,300],["OR52M1_119772",0.2080242643292452,-3.5438839847255434,300],["CYB561D2_11068",0.19373003510389403,-3.129500645651176,300],["SIGLEC8_27181",0.21660023055898375,-3.8062251871164965,300],["CCDC85C_317762",0.21700051600761633,-3.818724825273771,300],["PRB2_653247",0.18875619814249733,-2.991915498794972,300],["SCN10A_6336",0.1954901353587046,-3.1789992136633027,300]],"bottom":[["ANKS6_203286",-0.19061733563879965,-3.043002496647022,300],["ZBTB34_403341",-0.19806752871588326,-3.252251157899683,300],["PGBD1_84547",-0.20866156474417247,-3.563022100099106,300],["LINGO4_339398",-0.19107685483689785,-3.055688666318368,300],["IL1A_3552",-0.1879857362368843,-2.9709047614180775,300],["DNAJB14_79982",-0.18579561875263775,-2.911619506312506,300],["SCP2D1_140856",-0.20070649964338472,-3.3282037634130686,300],["E2F2_1870",-0.203674583961181,-3.4147830719855827,300],["TEPSIN_146705",-0.19059348376379498,-3.0423447928305256,300],["CD74_972",-0.1974970721766832,-3.235959330992719,300],["KIAA1522_57648",-0.22338705295670072,-4.021256634038256,300],["DDX41_51428",-0.19538550789407644,-3.1760449225115717,300]]}}}
{"drive":{"corr":{"top":[["TRPC3_7222",0.2150070541232269,-2.8970367914917032,222],["COPZ1_22818",0.23040728185922352,-3.267925168221978,222],["PLAG1_5324",0.1928009222416539,-2.4053721162581843,222],["ADCK2_90956",0.23347562217062626,-3.3448191792222732,222],["BCL6B_255877",0.20852822985834582,-2.7483944291144855,222],["DDX19B_11269",0.228085173229894,-3.1729811248814315,219],["NUDT11_55190",0.21960262109111917,-3.005107870478342,222]],"bottom":[["TTC29_83894",-0.2218424108152783,-3.0231039392694314,219],["LAMP3_27074",-0.20069412608164655,-2.5744014040486523,222],["ZNF689_115509",-0.21306696624400565,-2.8848812942986224,225],["CX3CR1_1524",-0.21674001839526116,-2.9375316469703048,222],["HTATSF1_27336",-0.2219136119365939,-3.060287242767162,222],["HSD17B12_51144",-0.20689068002638183,-2.6804530351197506,219],["RIPK1_8737",-0.20116189510598503,-2.672779962671166,231],["DMAP1_55929",-0.2395126152104487,-3.540156443680433,225],["PRKN_5071",-0.21614625344121224,-3.024694653278334,231],["NAT8B_51471",-0.19591093239026744,-2.4898857152865133,224],["STUM_375057",-0.20124646512026315,-2.556993400366961,219]]},"para":{"top":[["TRPC3_7222",0.22471229225761966,-3.1278620163266218,222],["LRRC69_100130742",0.2283700040915266,-3.1799163276836135,219],["COPZ1_22818",0.2263933546079523,-3.1688486752806035,222],["PLAG1_5324",0.19805304575642196,-2.517146858814647,222],["SMIM3_85027",0.20460173477527865,-2.660407096223865,222],["DDX19B_11269",0.20939590529395768,-2.736278268956846,219],["NUDT11_55190",0.2212401780353057,-3.0441499224832187,222]],"bottom":[["CES1P1_51716",-0.21703979620011138,-2.910549155101622,219],["TTC29_83894",-0.2162905951717343,-2.893204660690597,219],["LAMP3_27074",-0.22050662351870542,-3.026626057534817,222],["ZNF689_115509",-0.2248284072297828,-3.167049137207151,225],["HTATSF1_27336",-0.2476471965708167,-3.7131496728502684,222],["SMG1P3&SMG1P1_100271836&641298",-0.21939880858552122,-3.0002682804746432,222],["HDAC1_3065",-0.21373357392387335,-2.900483377199853,225],["FRMD4B_23150",-0.2307709884780015,-3.238714719794754,219],["DMAP1_55929",-0.2554657571229011,-3.9723918834664764,225],["FAM210B_116151",-0.2464622183442144,-3.6380307329152193,219],["NRIP1_8204",-0.22541753132519476,-3.181569564179629,225],["LINC00869_57234",-0.2218567666373177,-3.094371120306843,225],["TAB2_23118",-0.22433144590004261,-3.191009677908915,228],["FEN1_2237",-0.25306471031132177,-3.813975400438876,219],["STUM_375057",-0.22517856750141568,-3.1026942750371105,219]]}}}
{"achilles":{"corr":{"top":[["KIF16B_55614",0.23114165007642795,-3.4649871290332444,236],["ITGA10_8515",0.23039630822352514,-3.4452891986065444,236],["ATP8B4_79895",0.24242879213540203,-3.7710608759199533,236],["NEO1_4756",0.30197026888075706,-3.67356682090906,146],["IL9R_3581",0.2433448582327216,-3.7965470121641953,236],["BRK1_55845",0.27593378642029814,-3.1257874538028556,146],["C1QTNF7_114905",0.2646079423361466,-2.903540942531891,146]],"bottom":[["LY6E_4061",-0.24879191206100315,-2.6088724807794232,146],["TTYH1_57348",-0.26756282151300176,-2.9606090041116855,146],["SH2D6_284948",-0.28898627003266797,-3.393865579502548,146],["PPP2R3A_5523",-0.2495920857939811,-3.972964763827463,236],["LOC652276_652276",-0.25815712646481553,-2.78117399960505,146],["SNAP47_116841",-0.28646002886011246,-3.340966663966997,146],["EME2_197342",-0.2831072508520683,-3.446419689016064,155],["ZRANB3_84083",-0.2567707601541472,-2.755270174801147,146],["MYOM2_9172",-0.27397394971607825,-3.086647400147571,146],["OPTC_26254",-0.290046118827554,-3.416204900562162,146],["PDZRN4_29951",-0.2726633558752743,-3.060633613947188,146],["MRI1_84245",-0.30943186490390395,-3.8403260503518433,146],["TJP3_27134",-0.34449107945813134,-4.685177758007055,146]]},"para":{"top":[["RHBDL3_162494",0.2341472822660113,-3.545062448584417,236],["ITGA10_8515",0.23418404366430154,-3.546048223433201,236],["CMTM6_54918",0.2822837355570271,-3.254587881320535,146],["AKT1S1_84335",0.25945077806554,-2.805470917413649,146],["NEO1_4756",0.2880651216002292,-3.37452009633842,146],["LACC1_144811",0.3013910847205533,-3.6608080969384256,146],["FCER1A_2205",0.2484633052291858,-3.940750253752626,236],["IL9R_3581",0.2686852806804929,-4.540849154843653,236],["LOXL3_84695",0.24222757423568006,-3.765475797430955,236],["KTN1_3895",0.24218100580755922,-3.7641838968569252,236]],"bottom":[["CPLX2_10814",-0.26043961235425345,-2.8241247204366555,146],["TTYH1_57348",-0.2938933137493467,-3.4980260900636173,146],["SH2D6_284948",-0.2695457441957484,-2.9992662994443737,146],["CDCA7_83879",-0.28546997506407373,-3.32036876478348,146],["LOC652276_652276",-0.2631702240706313,-2.8760057660592633,146],["SNAP47_116841",-0.30186220080730797,-3.671184196011963,146],["EME2_197342",-0.2698370880999768,-3.164223896339,155],["MYOM2_9172",-0.2698294261614833,-3.0048204870414543,146],["OPTC_26254",-0.3092466965102333,-3.8361337559335467,146],["PDZRN4_29951",-0.28877725528332665,-3.3894702278284035,146],["MRI1_84245",-0.2988423085259444,-3.604976718912724,146],["TJP3_27134",-0.3841271432682559,-5.770207313048794,146]]}}}
{"ccle_rrbs_tss1kb":{"corr":{"top":[["PNMA8B_19_46999169_47000169",0.19298551407991324,-3.338917144590992,326],["NFIL3_9_94186908_94187908",0.20848779012763802,-2.0346693064380514,155],["GGT1_22_24998123_24999123",0.203248034196352,-3.7150797260799324,332],["ZDHHC19_3_195938308_195939308",0.18368818727629563,-3.3770678321597387,365]],"bottom":[["C1orf122_1_38272472_38273472",-0.18616862787576596,-3.465259936096929,366],["OTUD6B-AS1_8_92082417_92083417",-0.18512951087461912,-3.4396323491471947,367],["KCNH4_17_40333296_40334296",-0.2315776474971896,-3.1685702455921683,212]]},"para":{"top":[["NFIL3_9_94186908_94187908",0.23726361000191995,-2.529700790673714,155],["AXL_19_41724103_41725103",0.20502181044308185,-3.084155299264789,263],["GGT1_22_24998123_24999123",0.2128744592725376,-4.0330624913071755,332],["TONSL-AS1_8_145659550_145660550",0.18497714791447042,-3.4427749032596497,368],["FBXO21_12_117628300_117629300",0.1850453427573797,-3.4126197192588767,364],["SCARNA4_1_155895877_155896877",0.18899462689018057,-2.264929708025437,215]],"bottom":[["MRPL30_2_99796541_99797541",-0.19676824421075764,-3.7649596362268323,360],["LOC100289361_3_142720309_142721309",-0.1735384894755827,-3.060270978257008,365],["CAT_11_34459471_34460471",-0.2044868327479879,-3.932474054153734,350],["LOC257396_5_52404671_52405671",-0.18640406762587447,-3.440086213247193,362],["LRFN4_11_66623875_66624875",-0.17941931246987516,-3.272275014085663,369],["LINC01424_21_46221155_46222155",-0.17776086768634547,-3.2199833965556577,369]]}}}
{"ccle_gene_tpm":{"corr":{"top":[["KRT8P34_ENSG00000264663.1",0.16778097236167236,-3.2091540422969707,413],["RP11-426K3.1_ENSG00000271532.1",0.20855590704932112,-4.713945671988583,413],["None_ENSG00000258800.1",0.1619204289062638,-3.0184451751419643,413],["BCRP6_ENSG00000169662.8",0.1740904656478409,-3.421528094523875,413],["RP13-480C15.1_ENSG00000239576.1",0.17258857985592374,-3.3703082734528396,413],["RP11-46O21.2_ENSG00000232342.3",0.1704532803031491,-3.29820534317485,413],["AL136376.1_ENSG00000269279.1",0.17998271082635298,-3.6265266845361555,413],["RP11-377H23.1_ENSG00000271117.1",0.16640994475949697,-3.1639758829880122,413],["RP11-109I13.2_ENSG00000235020.2",0.1807550423964196,-3.6538777527623596,413],["DLST_ENSG00000119689.10",0.17846388088890172,-3.5730651115500276,413]],"bottom":[["RP4-760C5.3_ENSG00000231081.1",-0.1758880750748501,-3.4833835431060014,413],["RPS20P23_ENSG00000242399.1",-0.16439843772930748,-3.0983161313652587,413],["RP11-369E15.3_ENSG00000254092.1",-0.17544579269289373,-3.4681089725875816,413],["PFN1P7_ENSG00000227212.3",-0.19178596696943473,-4.056794871917368,413],["CCNDBP1_ENSG00000166946.9",-0.19568909192431644,-4.20490042810548,413],["PSMD10_ENSG00000101843.14",-0.18194384274095213,-3.696196108318831,413],["RP11-315I20.1_ENSG00000234222.2",-0.20778280981861774,-4.682450537707258,413],["MAPK8IP3_ENSG00000138834.8",-0.18347588883067575,-3.7511247536839667,413],["OAT_ENSG00000065154.7",-0.17710177110401923,-3.5254865602490026,413]]},"para":{"top":[["RP11-44I10.3_ENSG00000261267.1",0.18197543992782023,-3.69732450974586,413],["AP000688.11_ENSG00000236677.1",0.17706699321130043,-3.5242762986068152,413],["AC012314.20_ENSG00000223660.1",0.17211743284804656,-3.354326518873175,413],["BCRP6_ENSG00000169662.8",0.17711963090450303,-3.526108164301605,413],["RP11-57C13.3_ENSG00000196566.2",0.18349939765408832,-3.7519710588294264,413],["RP11-46O21.2_ENSG00000232342.3",0.2073222297228887,-4.663742618403775,413],["AC004112.4_ENSG00000226851.1",0.18383285351809966,-3.763986501741281,413],["C14orf64_ENSG00000246223.4",0.18365440248471013,-3.75755375577854,413],["AL136376.1_ENSG00000269279.1",0.19981948294720517,-4.364814820471504,413],["LINC00486_ENSG00000230876.2",0.21861790994246846,-5.134595801556048,413],["RP13-480C15.1_ENSG00000239576.1",0.18250185013770223,-3.716151313793827,413],["AC113607.3_ENSG00000234796.1",0.175730082975888,-3.477922983928599,413],["RP11-248B24.4_ENSG00000268295.1",0.18566309882561838,-3.8303092274735158,413]],"bottom":[["FAM3A_ENSG00000071889.12",-0.17864331704071032,-3.5793586469470173,413],["RP11-241I20.4_ENSG00000235113.1",-0.21906063037569493,-5.153564831321136,413],["RP5-898J17.1_ENSG00000231987.1",-0.2005809067704266,-4.394653715829381,413],["MPP1_ENSG00000130830.10",-0.1901756025184704,-3.9965369355023888,413],["U52111.14_ENSG00000232725.1",-0.1968937759068364,-4.251202367151525,413],["ERLEC1_ENSG00000068912.9",-0.17103684185388074,-3.3178268847499837,413],["PFN1P7_ENSG00000227212.3",-0.18252726341818198,-3.7170615253225563,413],["CCNDBP1_ENSG00000166946.9",-0.1916039490358974,-4.049959199572789,413],["RAP2C_ENSG00000123728.5",-0.16805825712040934,-3.218333105248581,413],["CSNK1A1P3_ENSG00000250162.1",-0.18280855233434284,-3.7271443855228656,413],["PSMD10_ENSG00000101843.14",-0.17481998545891617,-3.4465583662499237,413],["MAPK8IP3_ENSG00000138834.8",-0.19181425208949704,-4.057857685235821,413]]}}}
{"ccle_rrbs_tss_clusters":{"corr":{"top":[["ANKRD20A19P",0.23819981211567134,-2.3795943485143494,143],["XRRA1_2",0.25050823666657973,-3.2491037498087048,186],["DOCK11_3",0.2895272419556612,-3.2422145091290164,138],["GPR88_2",0.286834083745412,-2.541690208535983,106],["NOTCH4",0.29983830144900275,-3.254803487719598,129],["NBPF8",0.34325877532499943,-3.820002075370399,117],["CAPN14_1",0.29241046626904865,-5.713365357875537,256],["IL4_2",0.24499764853915473,-3.5709724762820185,217]],"bottom":[["MYBL2_1",-0.27090873473256605,-2.7029722674907153,128],["GPR160_1",-0.2934776642793117,-4.029871548871523,172]]},"para":{"top":[["XRRA1_2",0.24427971291522974,-3.108420076320735,186],["NFIL3_3",0.24442338694733082,-2.6768520142815073,156],["CYP17A1_1",0.2289684062051394,-3.3451189986405425,231],["NOTCH4",0.2797904497441494,-2.878925951061405,129],["CAPN14_1",0.27281588301370335,-5.0217202067634465,256],["MEI1_3",0.2425027272485423,-3.548831995816858,220]],"bottom":[["MYBL2_1",-0.25714957970930535,-2.470153452419579,128],["CDC42SE2_2",-0.20859081286429115,-3.1988527218853835,265],["ZDHHC23_1",-0.2066934540879813,-4.18876616656229,368],["ANKS1B_2",-0.2047892634344255,-2.5832783175892153,214],["UBE2C_1",-0.2596789908706121,-2.8755547310884704,150],["SET_1",-0.23389152494324514,-2.8816042382459384,186],["GPR160_1",-0.3355301877288367,-5.166729227277192,172],["TSGA10_5",-0.21500819587368053,-4.517508574089366,370]]}}}
{"ccle_rrbs_cgi_clusters":{"corr":{"top":[["4_74807869_74812089-2",0.268504056578621,-3.031567831853471,149],["11_74657931_74662373-2",0.25050823666657973,-3.2491037498087048,186],["1_101002471_101005178-3",0.286834083745412,-2.541690208535983,106],["4_4145121_4147667-2",0.2425899133490982,-3.1701499329303107,193],["23_117627130_117631377-3",0.2895272419556612,-3.2422145091290164,138],["4_4142575_4145121-3",0.2964787105777501,-5.3015520325605445,229],["23_48532591_48537247-3",0.3219807866369422,-3.1429239779420843,107],["1_144591334_144596233-1",0.34325877532499943,-3.820002075370399,117],["19_46212961_46215571-2",0.24491435093200264,-3.165964967252049,189]],"bottom":[["20_42293399_42298320-1",-0.27090873473256605,-2.7029722674907153,128],["4_39769679_39773944-2",-0.22619459847929455,-2.856075694208264,197],["7_94291609_94295864-2",-0.2901482018157518,-3.4796191278888173,149]]},"para":{"top":[["1_147773221_147777584-1",0.24565787552822266,-3.4437546503889602,207],["11_74657931_74662373-2",0.24427971291522974,-3.108420076320735,186],["2_219721702_219724356-2",0.26112389934477787,-3.184867842702763,167],["9_34699218_34703834-3",0.2513568129177339,-2.7326576702230803,151],["4_4142575_4145121-3",0.28585860983207145,-4.953955464847814,229],["23_48532591_48537247-3",0.2940067847170237,-2.6749130036856714,107],["3_9746141_9748782-2",0.2409300327896415,-3.118219236072706,192],["22_42093414_42098189-2",0.2425027272485423,-3.548831995816858,220]],"bottom":[["20_42293399_42298320-1",-0.25714957970930535,-2.470153452419579,128],["12_106631422_106635642-2",-0.2937717319120439,-2.628393680283051,105],["20_44438946_44443655-1",-0.2596789908706121,-2.8755547310884704,150],["3_169756220_169758847-3",-0.2944777861453581,-2.9390947063148394,119]]}}}
