{"depmap_hotspot":{"corr":{"top":[["AQPEP",0.1628686629192351,-3.400125303785254,45.0,424.0],["ASAP1",0.13215733666684953,-2.382599152969964,35.0,434.0],["ASIC3",0.12640985359633097,-2.2132495957156846,28.0,441.0],["BPHL",0.1298956290804662,-2.3151788306505434,17.0,452.0],["C11orf57",0.1249535482648303,-2.171373544396522,24.0,445.0],["C7orf25",0.1425344890955525,-2.7050111388728255,15.0,454.0],["CDT1",0.12489353835659092,-2.1696568924404565,21.0,448.0],["CHD4",0.15145078154554067,-2.9993804096270367,45.0,424.0],["CHST1",0.13190466348167754,-2.3750167808650806,20.0,449.0],["COBLL1",0.12891229830979897,-2.286182029643709,49.0,420.0],["CSNK1A1L",0.129748673320987,-2.310833200623014,24.0,445.0],["DDX54",0.1529865288630245,-3.0517188798433397,42.0,427.0],["DENND3",0.1484390685166309,-2.898141084713503,38.0,431.0],["DOK1",0.13105127066662603,-2.3495012641881665,23.0,446.0],["EFTUD1",0.17839965009554745,-3.988906769917706,36.0,433.0],["ETAA1",0.12848845908851114,-2.273742614347636,27.0,442.0],["GALR2",0.12550686777185427,-2.187235178836986,19.0,450.0],["GOLGB1",0.14125957332002084,-2.6642364252475277,71.0,398.0],["HOXB3",0.14940713711976628,-2.9304810026165247,29.0,440.0],["INPP5E",0.13525717005210927,-2.476653914706084,24.0,445.0],["KIAA1919",0.14839600813172132,-2.8967070182906265,17.0,452.0],["MEIS1",0.125503359985666,-2.1871344342166643,22.0,447.0],["MTA1",0.14183301512383104,-2.6825358531041097,30.0,439.0],["NARG2",0.1487906323326996,-2.9098635616107016,23.0,446.0],["NOX1",0.1264987247168368,-2.215818576660721,14.0,455.0],["NT5C2",0.13515084622297296,-2.4733961557251405,11.0,458.0],["PABPC1",0.14179255969177018,-2.6812426840838057,22.0,447.0],["PCCB",0.14949082894676596,-2.9332858391309604,15.0,454.0],["PCOLCE",0.12850200396900677,-2.2741395996466762,18.0,451.0],["PLK1",0.13371251554582342,-2.4295471699344477,21.0,448.0],["PPP1R3D",0.12544255853618685,-2.1853885831209507,17.0,452.0],["RCE1",0.1269585848602188,-2.2291364890184506,9.0,460.0],["RGAG4",0.1268470421368114,-2.225902301271329,25.0,444.0],["RNF5",0.1288606207212559,-2.284663426453963,11.0,458.0],["SEC23B",0.1294670085898822,-2.3025160255977917,23.0,446.0],["SIPA1L3",0.12560077425232655,-2.189933097945161,62.0,407.0],["SLC12A4",0.12792031394331999,-2.257123512740611,39.0,430.0],["SLC13A4",0.15095545707127517,-2.982602677986665,18.0,451.0],["SLC22A1",0.12666879681644058,-2.220739150297715,23.0,446.0],["SLC2A4",0.13533387947152373,-2.4790056895663173,21.0,448.0],["SLC4A5",0.12820818674314055,-2.2655362690781775,32.0,437.0],["SMURF1",0.13801810728640296,-2.5620397277638194,24.0,445.0],["ST14",0.14430212506835385,-2.7620870025364685,34.0,435.0],["STK40",0.1301670280022631,-2.323215599491652,21.0,448.0],["STYXL1",0.12850968410384236,-2.274364711893123,9.0,460.0],["SVIL",0.16785858360395975,-3.5837591147658223,70.0,399.0],["TBCC",0.1273451581479995,-2.2403641578348283,13.0,456.0],["TFAP2A",0.1419349694123992,-2.685796313540794,16.0,453.0],["TLDC1",0.1451766382085659,-2.7905581816385774,17.0,452.0],["TTK",0.14802273312724723,-2.88429143504142,33.0,436.0],["WWTR1",0.12754028934657902,-2.2460427427711767,12.0,457.0],["ZFP36L2",0.14164240111599863,-2.676445708566102,35.0,434.0],["ZNF497",0.13357771139848615,-2.4254586433186516,20.0,449.0],["ZNF726",0.13148772332007677,-2.3625326815347427,15.0,454.0]],"bottom":[["ABCB5",-0.12545891053153801,-2.185858042494323,62.0,407.0],["C1orf94",-0.1349782317385787,-2.4681120549243087,34.0,435.0],["CAMK4",-0.16567926481620948,-3.5029177709054196,21.0,448.0],["CTNNA2",-0.13182769574214617,-2.3727096031495,68.0,401.0],["ENKUR",-0.13244354150026394,-2.3912030716773818,10.0,459.0],["EOGT",-0.1425779584736353,-2.7064071679409416,21.0,448.0],["FAM160A1",-0.1461296731335159,-2.821762252259707,26.0,443.0],["GIMAP8",-0.14809423242206646,-2.88666739253811,46.0,423.0],["IDH3A",-0.1260574016656987,-2.203076625564013,12.0,457.0],["KIAA1524",-0.11837588386860644,-1.987401699970773,20.0,449.0],["KIF2B",-0.12244346170220155,-2.1001720449049843,47.0,422.0],["ODF1",-0.12102590926768561,-2.060505720887712,14.0,455.0],["OR10G4",-0.21267170117168321,-5.471949785351742,12.0,457.0],["OR11A1",-0.16410606785906312,-3.445177933905249,10.0,459.0],["OR2T2",-0.13156504221291887,-2.364845173884224,19.0,450.0],["OR6B3",-0.1328157558402093,-2.4024169539640083,12.0,457.0],["OR6N1",-0.11756884668608134,-1.9654095857401623,24.0,445.0],["PPP2R3C",-0.1205213503306528,-2.046481576282063,11.0,458.0],["PSG3",-0.13998192132848272,-2.6237026314841048,20.0,449.0],["RCCD1",-0.1246567260798437,-2.1628895004158486,9.0,460.0],["RFX3",-0.11848639083181531,-1.9904228952777043,14.0,455.0],["RRM2B",-0.1809420912949106,-4.09015841147926,14.0,455.0],["SERINC3",-0.1496968494980625,-2.940196472818529,16.0,453.0],["SLC27A5",-0.12599145131437428,-2.201175784582068,19.0,450.0],["SLC35G2",-0.11486664169715713,-1.8926909770565192,19.0,450.0],["SLC7A6OS",-0.11654390543715258,-1.9376613705996308,8.0,461.0],["SUCNR1",-0.1727874318640224,-3.770274855057233,15.0,454.0],["TLL1",-0.1282570105552948,-2.2669647106287028,44.0,425.0],["TMEM131",-0.12762528201094148,-2.2485184908851705,65.0,404.0],["WASF1",-0.14927558672515018,-2.9260751285162616,14.0,455.0],["WDR93",-0.14209348283887252,-2.690869676731828,16.0,453.0],["WNT7A",-0.12297657336415338,-2.1151912458894104,17.0,452.0],["YKT6",-0.10850127915380316,-1.7269472874275829,8.0,461.0]]},"para":{"top":[["ADAT1",0.12696926697243313,-2.520104800985659,12.0,457.0],["AP001631.10",0.12168152007983087,-2.3710955520405634,9.0,460.0],["BPHL",0.14315899222074638,-3.008574317664056,17.0,452.0],["C2CD4A",0.11066130694052544,-2.0776998338109607,9.0,460.0],["CDADC1",0.0994893925435335,-1.8030140087135367,8.0,461.0],["CDS2",0.12903619117481907,-2.5796280234912388,11.0,458.0],["CMTM2",0.105495582031476,-1.9478868027520075,9.0,460.0],["CNP",0.13368009998604913,-2.716597728862251,14.0,455.0],["COPS7B",0.1189838637384384,-2.2971930676538403,9.0,460.0],["COQ10B",0.11031403305254878,-2.0687319191091507,8.0,461.0],["DNAJA4",0.1415023982034544,-2.9563044194466737,16.0,453.0],["DUSP19",0.13310328890393716,-2.699278138071501,12.0,457.0],["DYX1C1",0.12091939850414493,-2.3502275442350733,11.0,458.0],["EFTUD1",0.21054829124363034,-5.580198725691305,36.0,433.0],["EGFL6",0.12608349128536356,-2.4946820927524223,10.0,459.0],["EQTN",0.1268509008404068,-2.5166549028817786,11.0,458.0],["FBXL16",0.13540843437496403,-2.768496152955871,13.0,456.0],["HIST1H2BE",0.0997326428920507,-1.8087502045802004,8.0,461.0],["HIST1H3G",0.13172006372206208,-2.6579345884927057,8.0,461.0],["IFIT1",0.13082593129480005,-2.631796647306785,10.0,459.0],["KIAA1919",0.17939110914536144,-4.281936895305979,17.0,452.0],["LIPT1",0.13863121480034724,-2.86692043128415,14.0,455.0],["LL22NC03-63E9.3",0.1144495052071617,-2.1760183315486223,9.0,460.0],["MOB4",0.1289725639347904,-2.5777098966544583,10.0,459.0],["NOX1",0.14006564993346166,-2.9113362232970763,14.0,455.0],["NT5C2",0.14979644935173553,-3.222742540037128,11.0,458.0],["PCCB",0.1731019042617059,-4.042730524785484,15.0,454.0],["PCOLCE",0.15206817088325247,-3.298443524438954,18.0,451.0],["PLEKHA1",0.14020178970426073,-2.9153154335856657,10.0,459.0],["PNMA1",0.10325977294555005,-1.8931356697360942,8.0,461.0],["PPAPDC3",0.12397706115218728,-2.4352607143271467,12.0,457.0],["PPP6C",0.12685505675171815,-2.5165225460531926,8.0,461.0],["PTPLAD2",0.13774880349248322,-2.8395379923857194,10.0,459.0],["RAB32",0.1501504040230366,-3.234238226705147,9.0,460.0],["RCE1",0.1537090145159373,-3.3529178429906223,9.0,460.0],["RHOG",0.12126029873582264,-2.3593727889267053,8.0,461.0],["RNF5",0.15515561374327036,-3.4020346067179696,11.0,458.0],["SDSL",0.13485973084305639,-2.7517455564088706,10.0,459.0],["SLC13A4",0.16309413799042088,-3.678095546557428,18.0,451.0],["STYXL1",0.14337756469783847,-3.015020162847617,9.0,460.0],["TBCC",0.12941266593824052,-2.590685438025935,13.0,456.0],["TFAP2A",0.16943849398611063,-3.9070197496259826,16.0,453.0],["TLDC1",0.16788951854022202,-3.8504388886229797,17.0,452.0],["TMEM181",0.1401194576637542,-2.913057173099081,15.0,454.0],["TXLNG",0.13799860633962857,-2.847403873260633,13.0,456.0],["UGCG",0.14899401648534302,-3.196730045188678,18.0,451.0],["WWTR1",0.14063367355155593,-2.928919721466063,12.0,457.0],["YIPF1",0.0999758932405679,-1.8144971584700473,8.0,461.0],["ZNF200",0.13086503102925204,-2.6328598880669327,9.0,460.0],["ZNF726",0.15573801107309632,-3.4220969550225044,15.0,454.0],["ZNF843",0.13080763408581816,-2.6311748127516448,9.0,460.0]],"bottom":[["CAMK4",-0.12743713347267452,-2.533861337419455,21.0,448.0],["ODF1",-0.12539739389484011,-2.4754276278333913,14.0,455.0],["OR10G4",-0.12357810037615446,-2.4240745343551655,12.0,457.0],["PPP2R3C",-0.1294004062305544,-2.590210542343377,11.0,458.0],["SERINC3",-0.14223984172566734,-2.9794909022732585,16.0,453.0],["SERPINE1",-0.15350277626894346,-3.346526054121564,18.0,451.0],["SLC27A5",-0.11922030104565658,-2.3040908333968533,19.0,450.0],["SUCNR1",-0.15206832230643144,-3.298322954006003,15.0,454.0],["WDR93",-0.11903206029131784,-2.2988821928842773,16.0,453.0]]}}}
{"depmap_damaging":{"corr":{"top":[["ARHGEF17",0.12226903709465684,-2.0952700882190722,10.0,459.0],["ARSA",0.10746090726468598,-1.7005946246935422,8.0,461.0],["BSN",0.12080957804684067,-2.054486751358006,9.0,460.0],["C11orf57",0.10811508645864815,-1.7171409439587895,17.0,452.0],["CAMSAP2",0.1341303464869072,-2.442242704344484,16.0,453.0],["CLCN6",0.11672344117396988,-1.9425072499930514,11.0,458.0],["CNTLN",0.12307014422315615,-2.1178331223637463,12.0,457.0],["CNTNAP2",0.11354510760513728,-1.8576405339889688,15.0,454.0],["DNAH14",0.10701056227369189,-1.6892512769296264,15.0,454.0],["ELMSAN1",0.12324937625494034,-2.1228983348747046,13.0,456.0],["FAT1",0.13185329618067013,-2.3734768690246297,28.0,441.0],["IGSF9",0.11915189205785148,-2.008667431925435,9.0,460.0],["KIF21A",0.11858117360064,-1.9930160883363088,12.0,457.0],["MTIF2",0.11500750235300909,-1.8964468090251327,9.0,460.0],["NAV1",0.12265006547032424,-2.105986041145237,15.0,454.0],["NBEA",0.13770726724088142,-2.552350388248978,16.0,453.0],["NPAT",0.13284740381819057,-2.4033716977108983,16.0,453.0],["P4HB",0.10981595293258385,-1.760543269388053,8.0,461.0],["PIK3C2B",0.12659935814917408,-2.2187294440162493,11.0,458.0],["PRRC2C",0.10861913071519752,-1.7299454792341924,15.0,454.0],["RERE",0.13430174860213076,-2.447460706388493,19.0,450.0],["RNF43",0.12795068151811081,-2.258010199745699,23.0,446.0],["RPL22",0.12414796015350546,-2.148387664756921,40.0,429.0],["SPECC1",0.11546395466921303,-1.9086437065653878,11.0,458.0],["TFE3",0.12573895059162654,-2.1939060325428277,11.0,458.0],["TMEM185B",0.12275836816333655,-2.1090370984666604,9.0,460.0],["TMTC3",0.11567154455540364,-1.9142040358653165,13.0,456.0],["TNRC6A",0.11618780767223534,-1.9280683192889962,18.0,451.0],["TTK",0.15876396426711184,-3.2529574499497134,19.0,450.0],["VPS13B",0.1272653665201161,-2.238044272698516,31.0,438.0],["WDR63",0.10957182938184029,-1.7542798328427336,8.0,461.0],["WIF1",0.12758657299602857,-2.2473907609451986,9.0,460.0],["WNK2",0.13362322938077623,-2.426838771288969,18.0,451.0],["ZDBF2",0.10783296621274993,-1.7099952104112415,10.0,459.0],["ZIM3",0.10800248021000103,-1.7142869580423208,10.0,459.0],["ZNF281",0.11378441130354991,-1.8639625388743388,8.0,461.0]],"bottom":[["RYR2",-0.15273470185497343,-3.0431034521285163,55.0,414.0],["STAT2",-0.12405576244687075,-2.1457650954288083,8.0,461.0]]},"para":{"top":[["ARHGEF17",0.1387845087819004,-2.8713942455551247,10.0,459.0],["ARSA",0.11177353514365194,-2.1062037343267583,8.0,461.0],["ATN1",0.11852598528074104,-2.28492897621075,11.0,458.0],["BSN",0.13046325242521487,-2.62107734909077,9.0,460.0],["CAMSAP2",0.15351838971245405,-3.346971069170801,16.0,453.0],["CLCN6",0.13772532179022018,-2.8388941191498587,11.0,458.0],["CNTLN",0.12657030619640033,-2.5086955387966037,12.0,457.0],["DDX27",0.12466561050599452,-2.454575416816692,11.0,458.0],["DPP7",0.11165190996939335,-2.1030660872225138,8.0,461.0],["ELMSAN1",0.1463926821510415,-3.111839710796331,13.0,456.0],["HDAC5",0.11578716589418571,-2.2112786492651924,8.0,461.0],["HSPH1",0.12341246185476139,-2.419309238710962,10.0,459.0],["IFIH1",0.12211167495563283,-2.3829101869516127,8.0,461.0],["IGSF9",0.13758047341101629,-2.8342912274652536,9.0,460.0],["KIAA1033",0.11992377035356672,-2.3228670735222634,10.0,459.0],["KIF21A",0.14212977646167888,-2.975819320966756,12.0,457.0],["MTIF2",0.13339049654034288,-2.7076159892563547,9.0,460.0],["MXRA5",0.12046973510314174,-2.337637477695111,8.0,461.0],["NAV1",0.13819510867635673,-2.853540651955832,15.0,454.0],["NBEA",0.1526074300673674,-3.316391381066671,16.0,453.0],["NPAT",0.15304122037455153,-3.330933398559082,16.0,453.0],["NUP98",0.15318690697870468,-3.335239718144883,8.0,461.0],["P4HB",0.12259817565266722,-2.396420762976995,8.0,461.0],["PIK3C2B",0.1367367380675099,-2.808680035708865,11.0,458.0],["RBM15B",0.10666527782479081,-1.976766933349981,8.0,461.0],["RECK",0.09815151562668893,-1.7716570788416548,8.0,461.0],["RERE",0.15157153851533225,-3.281924629138009,19.0,450.0],["SETX",0.13543597001131208,-2.7692055020423068,11.0,458.0],["SF3A2",0.11244247360207424,-2.12350956728544,8.0,461.0],["SIN3B",0.12107786097443474,-2.354346622658063,8.0,461.0],["SPECC1",0.12976462128628982,-2.600817938310754,11.0,458.0],["TDRD12",0.13415109038187623,-2.7304518059441367,10.0,459.0],["TFE3",0.14464540784919233,-3.0555656594080194,11.0,458.0],["TMEM185B",0.1277655960838224,-2.5427502179565673,9.0,460.0],["TTK",0.1861594047483435,-4.547889801911594,19.0,450.0],["UHRF1BP1L",0.10727340369608379,-1.9919246230823218,8.0,461.0],["WDR63",0.13099031267651048,-2.6364397148176435,8.0,461.0],["WIF1",0.1450994730008549,-3.069927795662733,9.0,460.0],["WNK2",0.15415859587383085,-3.3686373873155158,18.0,451.0],["ZDBF2",0.1310984853183309,-2.6398049533348256,10.0,459.0],["ZIM3",0.12581093726183273,-2.4869299142764367,10.0,459.0],["ZNF281",0.136585070692406,-2.8037936173511775,8.0,461.0]],"bottom":[["PLD1",-0.10561037591834378,-1.9507183409727122,9.0,460.0],["RYR2",-0.1526452044032026,-3.318289409398035,55.0,414.0]]}}}
{"ccle_rrbs_enhancer_clusters":{"corr":{"top":[["1-10755664-10760631-0_enh",0.21245625141623417,-4.400334287600286,368],["7-35503184-35505763-2_enh",0.19108690257644298,-3.893593667545094,397]],"bottom":[]},"para":{"top":[["1-10923202-10927728-0_enh",0.19896576877146574,-4.174085999551876,396],["7-35503184-35505763-1_enh",0.17620145787058739,-3.0605839245258206,354],["7-35503184-35505763-2_enh",0.19012509293075647,-3.8590016994021057,397],["17-41705554-41708087-0_enh",0.21076983844508612,-3.2573824785670826,265],["18-75497422-75500507-0_enh",0.17480555884136273,-3.460472690044831,415],["20-54126635-54129805-0_enh",0.18698723756818167,-3.8950881521628125,415]],"bottom":[]}}}
{"ccle_mirna":{"corr":{"top":[["hsv2-miR-H2_miR00780.1",0.15196492506151302,-2.9620306879337446,459]],"bottom":[]},"para":{"top":[],"bottom":[]}}}
{"prism_primary_logfold":{"corr":{"top":[["ilomastat_BRD-K51662849-001-08-8::2.61::HTS",0.3058176133372123,-10.274407454430028,441],["batimastat_BRD-K82818427-001-02-2::2.39::HTS",0.40762904907085945,-18.437003482156904,443],["batimastat_BRD-K82818427-001-04-8::2.5::HTS",0.4430375397444485,-23.33723232135369,471],["tosedostat_BRD-K92241597-001-06-0::2.5::HTS",0.6392140944812144,-55.19182000079113,475],["lemborexant_BRD-K78666663-001-01-6::2.499978008::MTS004",0.21838524892140798,-5.667184936528782,462]],"bottom":[["balaglitazone_BRD-A00147595-001-01-5::2.5::HTS",-0.17807495796664755,-4.020551986111511,475],["medetomidine_BRD-A21607826-003-05-1::2.5::HTS",-0.18226372219208672,-4.158847871745707,471],["prednisolone-tebutate_BRD-A53151380-001-01-2::2.5::HTS",-0.1792333973181412,-4.059490721471689,474],["flunisolide_BRD-A65449987-001-10-4::2.5::HTS",-0.20318226121676605,-5.083363156131656,474],["hydrocortisone-acetate_BRD-A65767837-001-04-4::2.5::HTS",-0.1791393851019587,-4.055718470609262,474],["pinitol_BRD-A69275535-001-01-5::2.5::HTS",-0.2051266499037973,-5.172066388808159,474],["prednisolone-hemisuccinate_BRD-A78391468-001-02-8::2.5::HTS",-0.19606708094723613,-4.765969020668278,474],["ciglitazone_BRD-A93000692-001-08-1::2.5::HTS",-0.20676701227506902,-5.257471951592078,475],["eupatilin_BRD-K47031502-001-01-6::2.5::HTS",-0.17921039533844063,-4.036056100452014,471],["dexamethasone-acetate_BRD-K47635719-001-21-1::2.5::HTS",-0.20446149338838845,-5.141626398756459,474],["galantamine_BRD-K49481516-004-18-3::2.5::HTS",-0.17649286992736607,-3.943023431789835,473],["triptorelin_BRD-K62685538-001-01-7::2.5::HTS",-0.17310358861612482,-3.817512694916645,474],["halobetasol-propionate_BRD-K65877271-001-01-8::2.5::HTS",-0.18622778865639256,-4.321264037499239,471],["glycitein_BRD-K78303961-001-02-3::2.5::HTS",-0.19047360104505923,-4.532778838424459,475],["deflazacort_BRD-K96006502-001-02-6::2.5::HTS",-0.19651093333945638,-4.7764662981318855,473],["beclomethasone-dipropionate_BRD-K97810537-001-13-6::2.5::HTS",-0.19482399423252825,-4.526208177315861,453]]},"para":{"top":[["ilomastat_BRD-K51662849-001-08-8::2.61::HTS",0.2989180698165167,-9.827166135006246,441],["batimastat_BRD-K82818427-001-02-2::2.39::HTS",0.38926956912123223,-16.751846132204545,443],["batimastat_BRD-K82818427-001-04-8::2.5::HTS",0.4013600619761993,-18.930821664118202,471],["tosedostat_BRD-K92241597-001-06-0::2.5::HTS",0.6134335231844777,-49.713339762977164,475]],"bottom":[["flunisolide_BRD-A65449987-001-10-4::2.5::HTS",-0.17759530622933442,-3.994034925125482,474],["pinitol_BRD-A69275535-001-01-5::2.5::HTS",-0.1689967571135581,-3.659893490675271,474],["prednisolone-hemisuccinate_BRD-A78391468-001-02-8::2.5::HTS",-0.17433182271144315,-3.865351765111658,474],["ciglitazone_BRD-A93000692-001-08-1::2.5::HTS",-0.19409388812318346,-4.68869871123994,475],["gramine_BRD-K26005076-001-12-8::2.5::HTS",-0.1628384725907061,-3.4240086361572364,473],["chlorotrianisene_BRD-K27062708-001-23-1::2.5::HTS",-0.20025933806991045,-4.942301673953403,473],["glycitein_BRD-K78303961-001-02-3::2.5::HTS",-0.17960968067877284,-4.082142774879708,475],["edrophonium_BRD-K81128206-003-24-4::2.5::HTS",-0.17084790649498566,-3.7373378372178943,475],["deflazacort_BRD-K96006502-001-02-6::2.5::HTS",-0.16181178423878317,-3.386577011796316,473],["SKF-86002_BRD-K96809896-300-02-3::2.5::HTS",-0.15922272749230462,-3.2931647159742012,473]]}}}
{"prism_secondary_logfold":{"corr":{"top":[["tosedostat_BRD-K92241597-001-06-0::10::HTS002",0.6337133072445831,-54.09113404990657,476],["tosedostat_BRD-K92241597-001-06-0::0.00976562::HTS002",0.42933107328901143,-22.04337516359996,476],["tosedostat_BRD-K92241597-001-06-0::10::MTS006",0.5511972205708459,-37.97973611225883,470],["tosedostat_BRD-K92241597-001-06-0::0.009765625::MTS006",0.42034714218385394,-20.819606132976322,470],["tosedostat_BRD-K92241597-001-06-0::0.625::HTS002",0.7698872094701357,-93.78016505419949,476],["batimastat_BRD-K82818427-001-04-8::10::MTS010::PROS003_PR500",0.49371462260178867,-28.422136408360867,452],["tosedostat_BRD-K92241597-001-06-0::0.0390625::MTS006",0.6169611470495981,-49.910638873960856,470],["batimastat_BRD-K82818427-001-02-2::0.597974::HTS002",0.4986837606325845,-30.06659754287183,468],["batimastat_BRD-K82818427-001-04-8::2.5::MTS010::PROS003_PR500",0.4043874924514202,-18.485067242673967,452],["tosedostat_BRD-K92241597-001-06-0::0.156250002::MTS006",0.6690801152999266,-61.58521458202474,470],["tosedostat_BRD-K92241597-001-06-0::0.0390625::HTS002",0.5984585053920857,-46.85349612950892,476],["tosedostat_BRD-K92241597-001-06-0::2.5::HTS002",0.7291444846093599,-79.37494660494485,476],["tosedostat_BRD-K92241597-001-06-0::2.5::MTS006",0.6314858881846961,-52.94039859272469,470],["tosedostat_BRD-K92241597-001-06-0::0.625000001::MTS006",0.6439640006072457,-55.67519661477538,470],["batimastat_BRD-K82818427-001-02-2::2.39189::HTS002",0.436549800513033,-22.471315801280028,468]],"bottom":[["isoflupredone-acetate_BRD-K29173907-001-09-2::10::HTS002",-0.18607852523474347,-4.290868878594565,468],["prednisolone-acetate_BRD-A01643550-001-04-9::0.625::HTS002",-0.20159320451170115,-4.548290212263971,425],["flumethasone_BRD-K61496577-001-20-2::0.625::HTS002",-0.20983818514128733,-5.298672637745644,465],["betamethasone-dipropionate_BRD-K58148589-001-03-6::0.0390625::HTS002",-0.21625866208483754,-5.631366149332325,468],["dexamethasone-acetate_BRD-K47635719-001-21-1::10::HTS002",-0.2228542614314688,-4.0275665770077085,302],["fludroxycortide_BRD-A49765801-001-04-1::2.5::HTS002",-0.20662594304288706,-5.032984544026406,453],["capsaicin_BRD-K50590187-001-19-9::2.5::HTS002",-0.21372950416469613,-4.18011475780842,343],["dirithromycin_BRD-K52756523-001-24-7::0.00976562::HTS002",-0.21168831943532251,-5.3842339282294756,465],["halobetasol-propionate_BRD-K65877271-001-01-8::0.00061034::HTS002",-0.19224686851726955,-4.453926280728166,457],["dexamethasone-acetate_BRD-K47635719-001-21-1::2.5::HTS002",-0.1897617510960127,-3.7444240371954747,385],["D-Serine_BRD-K71822263-001-03-2::10::HTS002",-0.2059927483786539,-4.153483149475179,367],["dexamethasone-acetate_BRD-K47635719-001-21-1::0.00976562::HTS002",-0.2155868055665154,-4.626375655005883,378],["CGP-54626_BRD-A74208568-003-01-5::0.15625::HTS002",-0.23046634594555296,-3.6747591442076355,254],["halobetasol-propionate_BRD-K65877271-001-01-8::0.00976562::HTS002",-0.1890639724541843,-4.364602566835229,462],["naloxone_BRD-K67511046-001-02-3::0.00061034::HTS002",-0.22865027636709637,-2.7200833275294407,182]]},"para":{"top":[["tosedostat_BRD-K92241597-001-06-0::10::HTS002",0.6141133570953416,-49.954595507378656,476],["tosedostat_BRD-K92241597-001-06-0::0.00976562::HTS002",0.39695329669305657,-18.688384338667813,476],["tosedostat_BRD-K92241597-001-06-0::10::MTS006",0.5161482403142985,-32.63246378270237,470],["tosedostat_BRD-K92241597-001-06-0::0.009765625::MTS006",0.39571824072494455,-18.342929260724954,470],["ilomastat_BRD-K51662849-001-08-8::10.4506::HTS002",0.37237052438697693,-16.113338546674076,468],["tosedostat_BRD-K92241597-001-06-0::0.625::HTS002",0.7405737601066829,-83.14109351734524,476],["batimastat_BRD-K82818427-001-04-8::10::MTS010::PROS003_PR500",0.43667183370864404,-21.74226473506838,452],["tosedostat_BRD-K92241597-001-06-0::0.0390625::MTS006",0.5700612399898275,-41.12960821625101,470],["batimastat_BRD-K82818427-001-02-2::0.597974::HTS002",0.5084652061997879,-31.41050102242176,468],["batimastat_BRD-K82818427-001-04-8::2.5::MTS010::PROS003_PR500",0.3894940911186315,-17.097645349145083,452],["tosedostat_BRD-K92241597-001-06-0::0.156250002::MTS006",0.6180016016205073,-50.12241275697108,470],["tosedostat_BRD-K92241597-001-06-0::0.0390625::HTS002",0.5209741822667459,-33.74746927169015,476],["tosedostat_BRD-K92241597-001-06-0::2.5::HTS002",0.6972499603268987,-69.81381196342166,476],["tosedostat_BRD-K92241597-001-06-0::2.5::MTS006",0.5905187769515897,-44.7835242342302,470],["tosedostat_BRD-K92241597-001-06-0::0.625000001::MTS006",0.5952324599253339,-45.662830131812065,470],["batimastat_BRD-K82818427-001-02-2::2.39189::HTS002",0.42189709745816106,-20.89639447091807,468]],"bottom":[["methylprednisolone_BRD-K35240538-001-26-2::10::HTS002",-0.19601253627719492,-4.316077059310055,424],["prednisolone-acetate_BRD-A01643550-001-04-9::0.625::HTS002",-0.20330859786964936,-4.618156596239829,425],["flumethasone_BRD-K61496577-001-20-2::0.625::HTS002",-0.18259179403700615,-4.1254596107316015,465],["betamethasone-dipropionate_BRD-K58148589-001-03-6::0.0390625::HTS002",-0.20412000419819598,-5.068035253917872,468],["dexamethasone-acetate_BRD-K47635719-001-21-1::10::HTS002",-0.21647490298540165,-3.824460215147586,302],["fludroxycortide_BRD-A49765801-001-04-1::2.5::HTS002",-0.18285084073384275,-4.042109874126847,453],["capsaicin_BRD-K50590187-001-19-9::2.5::HTS002",-0.18556187830694387,-3.2580448293738176,343],["melengestrol-acetate_BRD-A42746051-001-02-9::0.15625::HTS002",-0.17957373695066267,-4.020418875391572,467],["halcinonide_BRD-A88138582-001-04-8::0.00976562::HTS002",-0.1812206495070723,-4.04762475842397,462],["chloramphenicol-palmitate_BRD-K96424892-001-02-9::0.0024414::HTS002",-0.1836054541679292,-3.198653386906595,343],["naloxone_BRD-K67511046-001-02-3::0.00061034::HTS002",-0.19814019316759107,-2.134648185752858,182]]}}}
{"ccle_proteomics":{"corr":{"top":[["SLC43A2_Q8N370-3",0.3020929795688638,-3.343352403319488,131],["HLA-C_Q9TNN7",0.2723760062074949,-2.783133619331004,131],["CRYZ_Q08257",0.231444347591172,-3.587874238490947,245],["IMMP1L_Q96LU5",0.24520376776413777,-2.470674609585064,141]],"bottom":[["ZCCHC17_Q9NP64",-0.2560785643766475,-4.300969197518348,245],["CST7_O76096",-0.23583789262168747,-2.666856790641797,167],["TMC6_Q7Z403",-0.33035047835438597,-3.157124877299235,102],["UBL3_O95164",-0.28666168534175945,-4.784582113501781,219],["TNC_P24821",-0.2568730913821725,-3.9804869560675504,223]]},"para":{"top":[["HLA-C_Q9TNN7",0.2801801104480979,-2.9244230814033814,131],["RAB35_Q15286",0.2322681460764172,-3.6105418113532544,245]],"bottom":[["ATG4C_Q96DT6",-0.26778671166944246,-3.9157828459326702,201]]}}}
{"depmap_copy_number":{"corr":{"top":[["GPATCH2_55105",0.1630755513377517,-3.407635679749395,469],["MIR585_693170",0.16290456621209295,-3.4014280106385537,469]],"bottom":[]},"para":{"top":[],"bottom":[]}}}
{"depmap_gene_tpm":{"corr":{"top":[["RSPH14_27156",0.19548179986547723,-4.687061308156693,468],["TRIM59_286827",0.22211904757934037,-5.915201487698226,468]],"bottom":[["EYA1_2138",-0.26816082281709114,-8.423662785879182,468],["ENPP1_5167",-0.20021866814650552,-4.89394052667318,468],["LDLRAP1_26119",-0.2158168540083212,-5.61028331046481,468]]},"para":{"top":[["ZNF33B_7582",0.20100711503722982,-4.928853750458336,468],["TRIM59_286827",0.2217068425461846,-5.894982174941333,468],["SLC18A2_6571",0.1940110089719442,-4.6238245716839455,468]],"bottom":[["EYA1_2138",-0.19478447977815347,-4.657021145162461,468],["APOLD1_81575",-0.1749695301586672,-3.847318655631427,468],["STXBP1_6812",-0.19019133599191834,-4.4617970863592715,468],["PER3_8863",-0.18941149795816,-4.429106177978571,468],["STYXL1_51657",-0.18348362323587578,-4.184900124659669,468],["KLHL41_10324",-0.19453636128697505,-4.646357939128879,468],["ENPP1_5167",-0.1849804158750587,-4.2458484661665015,468],["FAM216B_144809",-0.17465769880773202,-3.8352471285440437,468]]}}}
{"avana":{"corr":{"top":[["FANCC_2176",0.19720802931178158,-3.5321018524116448,333],["BCL2A1_597",0.20562766829910387,-3.8023094825811357,333],["RPGRIP1L_23322",0.2156618822867533,-4.138784160295853,333],["FANCG_2189",0.19264632170580478,-3.390268312241476,333],["KCNJ11_3767",0.21525483710483867,-4.124825922645803,333],["DGAT2_84649",0.2349182648012552,-4.829460413412127,333],["PDCD2L_84306",0.20109197779940388,-3.655383830779568,333],["EHMT1_79813",0.2147785144053734,-4.0976775770193665,332],["TMPRSS4_56649",0.1939491371662045,-3.4304506267895145,333]],"bottom":[["JPT1_51155",-0.21199966570501602,-4.014143871071579,333],["SPINK8_646424",-0.20038757284503644,-3.6328521376473732,333],["PIM1_5292",-0.19612080156227196,-3.488908665110665,332],["ZNF121_7675",-0.1899229256172721,-3.307107730077268,333],["CSPG4_1464",-0.20712987344048583,-3.851676782080222,333],["MCF2_4168",-0.21398088975776147,-3.8547916621359284,312],["UHRF1BP1_54887",-0.1902390453752245,-3.316702722885871,333],["DLEC1_9940",-0.21516935744537435,-4.121898023224737,333],["SPATC1L_84221",-0.1881956596849524,-3.2549490473160634,333],["ATP11C_286410",-0.18843774087990178,-3.0848976395502055,312],["FOXD4L5_653427",-0.192783888232801,-3.3944989877697034,333],["BEX3_27018",-0.2543620346029285,-5.2703606718671425,312],["PEAK1_79834",-0.2176158697945157,-4.2061556534333855,333]]},"para":{"top":[["XBP1_7494",0.19869389987497377,-3.5789906646460907,333],["RPGRIP1L_23322",0.2209133922856213,-4.321229433411568,333],["PYM1_84305",0.17507923995119296,-2.8735309130125155,333],["DGAT2_84649",0.18474698303022,-3.152159758251037,333],["PCSK1N_27344",0.20959588401546736,-3.7158822278971275,312],["ARSE_415",0.21416655916272256,-3.86073590088142,312],["AKIRIN1_79647",0.21119503030971254,-3.987042500207168,333],["CMKLR1_1240",0.19361973276453356,-3.420266410459245,333],["QRICH1_54870",0.19139041463674758,-3.351778051706917,333]],"bottom":[["JPT1_51155",-0.19695167671038405,-3.5240466389707827,333],["PIM1_5292",-0.18742207733864089,-3.2233940266571977,332],["BEX3_27018",-0.23911051159155647,-4.706307640774798,312],["ZNF200_7752",-0.18402488091004746,-3.1308644546842266,333],["MCTP1_79772",-0.17952066261695304,-2.999799855819398,333],["CSF2_1437",-0.20634722811469433,-3.8259125718109632,333],["FAM20B_9917",-0.18064182135763504,-3.032139312170132,333],["DLEC1_9940",-0.21195277787730274,-4.012561817720446,333],["KLHL41_10324",-0.18848516336808574,-3.263659689290445,333],["SYTL3_94120",-0.18254769671138496,-3.087545640749329,333],["METTL18_92342",-0.18944506736350275,-3.2926324128350464,333],["CSPG4_1464",-0.21020622996673877,-3.9538777087448875,333],["PEAK1_79834",-0.21566284744886172,-4.138817288481359,333]]}}}
{"drive":{"corr":{"top":[["ZNF625_90589",0.3327944304894117,-7.17836190497425,251],["RANBP17_64901",0.22828539914030052,-3.576131362907582,251]],"bottom":[["HBZ_3050",-0.2418122738409594,-3.9623123715948942,251],["SCAF8_22828",-0.24073709329492327,-3.9307959909943015,251],["DUSP1_1843",-0.23654095382595686,-3.809159029129902,251],["BPGM_669",-0.24611387507045918,-4.089837129631287,251]]},"para":{"top":[["ATP1A3_478",0.21142611718473175,-3.1577490359299563,254],["TAF3_83860",0.2696715815390492,-4.898388938346115,255],["SLC25A23_79085",0.2187970358770368,-3.3641235774084857,255],["KLHL28_54813",0.23395810468422418,-3.7353616475476046,251],["ZNF625_90589",0.2900408196098043,-5.527514861701819,251]],"bottom":[["SSB_6741",-0.23853184267073368,-3.8395899223478174,249],["DGKD_8527",-0.2143367618447789,-3.2010421393581363,251],["KCNH3_23416",-0.2128148614242618,-3.1398523706925583,249],["RMI2_116028",-0.22048544547750656,-3.340338197698765,249],["HERC1_8925",-0.21622326754823956,-3.295051544781738,255],["LOC440434_440434",-0.227689674994788,-3.559635771633746,251],["HBA2_3040",-0.23034260589729327,-3.772022423338127,262],["ARID5B_84159",-0.22438967199031726,-3.5169742167953473,255],["NMNAT2_23057",-0.20797160352602742,-3.0168011304482163,249],["BLCAP_10904",-0.2131472302560654,-3.2894283441702195,262],["SYTL4_94121",-0.23759146193945613,-3.8126045386254797,249]]}}}
{"achilles":{"corr":{"top":[["OTUD5_55593",0.30676457471495633,-4.053358406566572,158],["NCKIPSD_51517",0.295793604359359,-3.7929630511820225,158],["CRISP3_10321",0.2617293847357972,-3.0485746501647037,158],["POTEE_445582",0.2804900974833048,-3.446760558583363,158],["LINC01559_283422",0.3060366362675783,-4.035759342288354,158],["IPO11_51194",0.27491816037415184,-3.3255262916303896,158],["SUMO1_7341",0.29546802754530255,-3.785392883822357,158],["SHKBP1_92799",0.3422079988116428,-4.967466899596299,158],["PGD_5226",0.2556913990031336,-4.552125693890482,262],["CSTB_1476",0.25052367800881614,-4.386298592854412,262]],"bottom":[["C9orf24_84688",-0.23445743254419754,-2.5191916165952826,158],["ZNHIT6_54680",-0.24750519616677905,-2.7653119397729546,158],["LINC01446_401337",-0.3113591101156541,-4.165504874191136,158],["KIR2DL5B&KIR2DL5A_553128&57292",-0.2617842157626423,-4.752192994061269,262],["GTF2A1_2957",-0.2522815271766235,-4.442310657307591,262],["CCDC63_160762",-0.31488289751784304,-4.252771298319961,158]]},"para":{"top":[["NCKIPSD_51517",0.27129792951646864,-3.2481122206182036,158],["ARL9_132946",0.23660342535962917,-3.956980449191201,262],["POTEE_445582",0.25336707443510376,-2.8801337917476535,158],["LINC01559_283422",0.3201894868035183,-4.386265682365061,158],["DIXDC1_85458",0.26324600655509894,-3.079714369775826,158],["ORMDL2_29095",0.2752490083402902,-3.332654093342541,158],["SHKBP1_92799",0.35162020028731333,-5.229718555970726,158],["SMTNL2_342527",0.2715280498055497,-3.253001481221461,158]],"bottom":[["C21orf59_56683",-0.26630603029019373,-3.14310046900038,158],["ETFBKMT_254013",-0.2646700884449569,-3.1091203522549224,158],["C9orf24_84688",-0.2514472696406113,-2.8422355641554615,158],["ALAS2_212",-0.24231217054814527,-4.13000594023171,262],["LINC01446_401337",-0.30109970685674453,-3.9176116875178026,158],["KIR2DL5B&KIR2DL5A_553128&57292",-0.25518190246695904,-4.535619533106618,262],["NXPH3_11248",-0.2477360095050154,-2.769782837928053,158]]}}}
{"ccle_rrbs_tss1kb":{"corr":{"top":[["RFLNA_12_124772709_124773709",0.2194069033263636,-4.65199255232172,367],["MIR381_14_101511256_101512256",0.23184588717952254,-2.2331504485893956,140],["VAMP7_23_155109942_155110942",0.20326579279909895,-4.327012180091772,395]],"bottom":[["SH3YL1_2_264392_265392",-0.20326601858662033,-4.375322413306401,400],["FAM110C_2_46588_47588",-0.19971018163953808,-4.3232628794280075,409],["RAPGEF5_7_22396533_22397533",-0.19796531687093338,-4.22847718623685,406],["TSACC_1_156307230_156308230",-0.19612209629973418,-4.158520770233335,406],["RALA_7_39662151_39663151",-0.19452626904647366,-4.142762747020967,411],["INTS12_4_106629881_106630881",-0.21906838380169308,-5.064536109481796,405],["HIP1R_12_123318984_123319984",-0.20034128786224617,-4.338364556898189,408]]},"para":{"top":[["LINGO2_9_29212319_29213319",0.19352288009592308,-3.946822455942914,393],["NRSN2_20_327548_328548",0.1881069108346999,-3.886657040134636,409],["SSX6P_23_47966366_47967366",0.1944020707198465,-2.786554002939903,260],["LOC105369431_11_92648794_92649794",0.21208687018667746,-4.418190630393735,371],["MIR6846_8_145112283_145113283",0.2208826268460484,-5.163931940647911,407],["DMRTB1_1_53924071_53925071",0.20945908467645682,-2.245752204758243,173]],"bottom":[["SLC35A3_1_100434991_100435991",-0.18969721763486924,-3.936553777116319,408],["NDUFA4_7_10979813_10980813",-0.19168830711799725,-4.001477840086808,407],["FAM110C_2_46588_47588",-0.18571274931014836,-3.799731455199666,409],["ZNF416_19_58090295_58091295",-0.1796502615419419,-3.6071936069209656,412],["HKDC1_10_70979058_70980058",-0.21930256123053116,-5.051999389957178,403],["ITM2B_13_48806273_48807273",-0.1793823739425773,-3.484056289517617,397],["C1QBP_17_5342471_5343471",-0.19101474430850385,-3.305701287388208,329],["TMEM139_7_142981042_142982042",-0.26157926646761537,-6.461478618602976,369]]}}}
{"ccle_gene_tpm":{"corr":{"top":[["TRIM59_ENSG00000213186.3",0.22695919357082395,-6.107841899354206,464],["RP11-517B11.7_ENSG00000261167.1",0.21485960549198435,-5.521969219547567,464],["RTDR1_ENSG00000100218.7",0.2020253598172625,-4.936233825146334,464]],"bottom":[["EYA1_ENSG00000104313.13",-0.25923501076727495,-7.835600331425863,464],["LDLRAP1_ENSG00000157978.7",-0.21612497297302002,-5.5816980223642805,464],["AL445989.1_ENSG00000226974.2",-0.21555534412495406,-5.554765698370338,464],["RP11-386B1.1_ENSG00000254482.1",-0.22050910550869396,-5.791416150021904,464]]},"para":{"top":[["RP11-304L19.11_ENSG00000261663.1",0.2073028404722566,-5.172686185418261,464],["TRIM59_ENSG00000213186.3",0.2280424441156549,-6.161909872015988,464],["RP11-517B11.7_ENSG00000261167.1",0.20479872899108567,-5.059729109753313,464],["RP11-738E22.3_ENSG00000269949.1",0.20144917282132238,-4.910788143437414,464],["MST1L_ENSG00000186715.6",0.2001537427615315,-4.85384395617395,464],["ASNSP3_ENSG00000236554.1",0.2330702946434461,-6.416375418502721,464]],"bottom":[["EYA1_ENSG00000104313.13",-0.19396133304960017,-4.586683318308507,464],["RP11-758N13.3_ENSG00000259392.2",-0.2416006662605723,-6.861435259444439,464],["PER3_ENSG00000049246.10",-0.19174466658232525,-4.493066551526247,464],["STXBP1_ENSG00000136854.13",-0.19265080056075728,-4.531207401762003,464],["GOLGA5P1_ENSG00000251215.1",-0.1802054778969749,-4.022733956429858,464],["STYXL1_ENSG00000127952.12",-0.18113061403319258,-4.059397172455499,464],["RP11-386B1.1_ENSG00000254482.1",-0.19724270446125583,-4.7272155392343675,464],["RP11-1102P16.1_ENSG00000253379.1",-0.18111035355899377,-4.058592307968842,464],["KLHL41_ENSG00000239474.2",-0.19340065149200775,-4.562903842709042,464]]}}}
{"ccle_rrbs_tss_clusters":{"corr":{"top":[["LINC02285_2",0.25210756034111287,-4.5268140494030655,268],["ZNF600_1",0.24904549861981354,-3.6767030362762583,217],["RNH1_1",0.2639521901661852,-5.9701138844266035,332],["RNH1_4",0.30959395068659584,-3.774261651837551,143],["PTPRD_2",0.25488472953246877,-3.036432928704726,166]],"bottom":[["FAM110C_2",-0.21102553688563383,-4.836089531444871,415],["MAP4K5_2",-0.33951571991575735,-3.658625870077778,114],["RXRG_5",-0.2730700835718715,-3.5200093299378996,171],["TMEM139_2",-0.23781910393840783,-4.434134671755017,295],["NEUROG2_3",-0.2148322802896021,-2.8484810459605847,218],["PPP2R1B_1",-0.2395476069460104,-3.6642100705953116,234]]},"para":{"top":[["OR9A4_1",0.25354746801514194,-4.528453979472261,265],["LINC01446_1",0.2864113068048518,-3.120328159014859,135],["MIR2277_3",0.2451519807414155,-2.4549954663945863,140],["IL17B_3",0.2899312706277295,-3.229813176398792,137],["RNH1_4",0.29466883939310606,-3.451429350459135,143],["NME5_2",0.24317208214513644,-4.072444029008912,256]],"bottom":[["HKDC1_1",-0.2266779699555867,-5.4024546876458714,406],["ATXN7L2",-0.20610557555497694,-2.456706468158678,199],["LINC02068_2",-0.25924801190507746,-6.667002533605049,389],["DGKZ_9",-0.21013362543791145,-4.086460112507328,346],["CLIP1-AS1_3",-0.22483994925094142,-4.921928651442098,372],["TMEM139_2",-0.26612328578170796,-5.447969634768383,295],["LINC02068_1",-0.23029304005927725,-5.351903409859248,389],["RPS4Y1_2",-0.23583695079890732,-1.7690037169416557,102]]}}}
{"ccle_rrbs_cgi_clusters":{"corr":{"top":[["9_10610635_10615333-2",0.25488472953246877,-3.036432928704726,166],["7_54763426_54767637-3",0.27634233798051555,-6.3631468212916795,324],["16_68676686_68679418-2",0.33655690645978537,-3.265270000245451,102],["11_504353_507181-2",0.30959395068659584,-3.774261651837551,143]],"bottom":[["14_50999144_51001711-3",-0.33951571991575735,-3.658625870077778,114],["20_9049488_9052018-3",-0.2361365251684542,-3.8107876759991925,252],["2_46034_48559-1",-0.21958590651986104,-5.187338884522334,414],["11_111634594_111639214-1",-0.2395476069460104,-3.6642100705953116,234],["12_49736297_49738875-3",-0.25003307642550043,-6.375970104721573,399],["17_46685527_46688129-1",-0.23339195527155018,-2.59291073522682,165],["7_105517404_105519963-1",-0.2159402321904927,-4.879494961134953,400]]},"para":{"top":[["7_54763426_54767637-3",0.26779711941957657,-5.999353543525695,324],["4_30719204_30723023-3",0.2676674472625474,-3.3275453544303386,167],["17_1840599_1843209-2",0.2778363968052116,-3.013649243353965,138],["8_145512719_145515339-2",0.300443319065796,-3.8584598463642203,156],["1_109799054_109803700-2",0.2935675295578606,-3.2605235482748753,135],["16_68676686_68679418-2",0.3587354287334352,-3.6705048009601873,102],["24_9383471_9387777-1",0.30755473753467877,-3.0358815671872974,113],["2_2187200_2192138-2",0.26062625588756305,-3.7782645219820767,204],["7_128553329_128555989-1",0.25215838104793736,-3.225710644626723,182],["11_504353_507181-2",0.29466883939310606,-3.451429350459135,143]],"bottom":[["1_110024630_110028903-1",-0.20610557555497694,-2.456706468158678,199],["12_49736297_49738875-3",-0.22784203637073208,-5.368910640479292,399],["17_46685527_46688129-1",-0.2587161271751419,-3.1008687568115882,165]]}}}
