{"depmap_hotspot":{"corr":{"top":[["BAX",0.1902174128001308,-4.209718996933191,12.0,426.0],["C17orf47",0.14736245303370507,-2.701778497407953,18.0,420.0],["C6orf106",0.17470401193412724,-3.6222179781570674,10.0,428.0],["C9orf24",0.1504054792983649,-2.7971115325127274,8.0,430.0],["CCPG1",0.16551555333823267,-3.296730822355722,20.0,418.0],["CENPF",0.1523456021024884,-2.8588111215075753,77.0,361.0],["CHRNB3",0.1545159202525614,-2.9286822696582804,17.0,421.0],["CHST12",0.15150483111012686,-2.831984983076154,22.0,416.0],["CNTD1",0.14509053459020219,-2.631746113199975,10.0,428.0],["CSNK1G3",0.16198459744185853,-3.1760368197433353,20.0,418.0],["CTSL",0.14556497730743753,-2.6462903883606197,13.0,425.0],["DDX19B",0.14583648539310035,-2.6546327111209242,15.0,423.0],["DGKH",0.16120964389594497,-3.1498711232741425,19.0,419.0],["EID3",0.16259472117660992,-3.1967189748745506,12.0,426.0],["EIF4ENIF1",0.15550086198720076,-2.960688665284431,16.0,422.0],["ENDOD1",0.165351266128494,-3.2910614705984815,14.0,424.0],["GATA4",0.16572668531633544,-3.3040244461239254,18.0,420.0],["GLIPR1L1",0.14524723225781225,-2.6365450612041026,9.0,429.0],["GPR78",0.1624751395167372,-3.192659678013952,12.0,426.0],["GRAMD1A",0.16382424444424984,-3.2386169787618693,33.0,405.0],["GREB1",0.15271768174170852,-2.8707259439135124,50.0,388.0],["IFNA6",0.16064188821446618,-3.1307750231353757,8.0,430.0],["IRAK2",0.16023055224655325,-3.116978912735495,17.0,421.0],["KCND3",0.17896842754971515,-3.7789285726431414,22.0,416.0],["KPNA3",0.1460720996290163,-2.661883443202221,17.0,421.0],["LIG1",0.14822390484303996,-2.728588172349833,32.0,406.0],["LPCAT2",0.1537998682910686,-2.905530216003712,20.0,418.0],["LRRC46",0.14701913060069968,-2.6911329384783533,11.0,427.0],["LSM11",0.1624882873333382,-3.193105855768011,10.0,428.0],["LSMEM1",0.16967879900327132,-3.442156812274332,8.0,430.0],["LYN",0.14808198098092867,-2.7241616172243437,11.0,427.0],["MAPT",0.15053342656325677,-2.801158428612254,34.0,404.0],["MARCKS",0.17771432648652322,-3.7324681620128963,28.0,410.0],["MON2",0.15302922519246387,-2.8807225854415663,37.0,401.0],["MRPL9",0.15679329980917078,-3.002969516007127,9.0,429.0],["NUP50",0.15761879793235928,-3.030142751606126,17.0,421.0],["OIT3",0.17471846423924883,-3.622742999668306,19.0,419.0],["OR5D16",0.1540134422322899,-2.9124254228075697,21.0,417.0],["PAX5",0.15172246040041787,-2.838915868565243,21.0,417.0],["PCDH1",0.14590992350088622,-2.6568915521436702,41.0,397.0],["PIK3CB",0.15350312027078972,-2.8959642199918587,28.0,410.0],["QTRTD1",0.15391934818652042,-2.909386533996604,8.0,430.0],["RASSF6",0.1629010859354142,-3.207131423104081,18.0,420.0],["SAV1",0.1873389946347622,-4.097068090776878,11.0,427.0],["SCML2",0.14805085443575947,-2.7231913015927294,10.0,428.0],["SLC25A10",0.17667087581662416,-3.6940495145029373,15.0,423.0],["SLC6A18",0.15429025303871657,-2.92137520390665,16.0,422.0],["SLC6A20",0.1535324328538671,-2.896908393947589,11.0,427.0],["STRIP1",0.15438506378111932,-2.9244439724745903,21.0,417.0],["TAF4B",0.14860289885228384,-2.740427571198208,28.0,410.0],["TBX20",0.15042921747815655,-2.7978621218333877,19.0,419.0],["TMEM165",0.14699643682825259,-2.6904300477952137,8.0,430.0],["TNFRSF1B",0.1477435392808175,-2.7136211401974943,18.0,420.0],["TRIP6",0.1741909813266866,-3.6036073802927353,19.0,419.0],["TROAP",0.14613869050959627,-2.663934594135943,25.0,413.0],["UBE2M",0.16801950755516887,-3.3837903987613434,11.0,427.0],["VWA8",0.1569163417067411,-3.0070114282811673,41.0,397.0],["WDR93",0.15001291515128473,-2.7847143871985707,17.0,421.0],["ZFP1",0.1558750132951996,-2.9728957045919877,14.0,424.0],["ZNF524",0.18012950727705965,-3.8222215446233987,11.0,427.0],["ZNF766",0.15342959639531495,-2.8935966990860744,16.0,422.0],["ZNF814",0.1490607698867964,-2.7547673420482663,38.0,400.0],["ZRANB2",0.14866821820245227,-2.7424708344712636,15.0,423.0]],"bottom":[["ADH1B",-0.13630715674908023,-2.3701206789478957,15.0,423.0],["BRIX1",-0.12608730159275766,-2.0837494142218,8.0,430.0],["CADM3",-0.12755487144536207,-2.1236904094793467,8.0,430.0],["CRY2",-0.13755964229977152,-2.406546070346839,16.0,422.0],["CSRP1",-0.12687349972808148,-2.1050973414059326,8.0,430.0],["CXorf66",-0.13250713192167704,-2.2613890767204348,11.0,427.0],["EDNRA",-0.11969289009212418,-1.9143039966346276,8.0,430.0],["EPPK1",-0.11830364925316356,-1.8784711886388352,84.0,354.0],["H3F3A",-0.17289087490501182,-3.5566774476949266,9.0,429.0],["MST4",-0.10607263389367316,-1.5779289239912975,10.0,428.0],["OR2L8",-0.12224015015270867,-1.9809130741761558,15.0,423.0],["OR8H3",-0.11402932825635084,-1.7704034865480782,24.0,414.0],["SLC34A2",-0.11995866592703501,-1.921198927114206,34.0,404.0],["SPRYD3",-0.1196211932202026,-1.9124461777966668,13.0,425.0],["STX6",-0.1194351918144347,-1.9076308184862067,8.0,430.0],["THUMPD2",-0.1150348725516997,-1.7955314501023603,16.0,422.0],["TM6SF1",-0.11988982818820974,-1.9194118672063807,11.0,427.0],["TMCO2",-0.12085908399285446,-1.944653197635362,8.0,430.0],["VPREB1",-0.13227337127280078,-2.254787686422388,9.0,429.0]]},"para":{"top":[["ABT1",0.14887019067263974,-3.0299474717927892,8.0,430.0],["ACTR10",0.13700372619873366,-2.6775817613933017,8.0,430.0],["ADAT2",0.13356514842504497,-2.5801045247785037,8.0,430.0],["ARL14",0.11879949092626413,-2.184978207869568,8.0,430.0],["BAG5",0.13298072401938432,-2.563938125535975,10.0,428.0],["BAX",0.18827039148950864,-4.380111437817739,12.0,426.0],["C1orf192",0.12804598709323617,-2.428074029892641,9.0,429.0],["C6orf106",0.16519832670226245,-3.5558185014658736,10.0,428.0],["C9orf24",0.12641830050326064,-2.38411988007547,8.0,430.0],["CCDC36",0.16080566544692462,-3.4100360492267185,14.0,424.0],["CDC42EP3",0.13810128826656184,-2.7092413835026967,9.0,429.0],["CSF3",0.13461276017780405,-2.60977981970313,10.0,428.0],["CTC-273B12.7",0.11893433711346764,-2.1884154502840207,8.0,430.0],["CYB5R2",0.13068378424086768,-2.500209606002704,10.0,428.0],["DNAJC22",0.13390226389305365,-2.5895695058557777,8.0,430.0],["DNAJC27",0.1297642980532349,-2.4748693467272367,9.0,429.0],["EDARADD",0.14319606145541888,-2.8585683635627914,10.0,428.0],["EID3",0.15563833186001097,-3.242459914088141,12.0,426.0],["EIF4ENIF1",0.16324035238833068,-3.4906888620566088,16.0,422.0],["EIF5",0.13657646719120575,-2.6656347926887065,11.0,427.0],["EMP2",0.12351910747838588,-2.307153710880179,8.0,430.0],["ENDOD1",0.16003576918720427,-3.3847858030785325,14.0,424.0],["GJB3",0.12983754326983526,-2.476963042799172,10.0,428.0],["GPR160",0.14546230409337968,-2.926503228355689,11.0,427.0],["GPR78",0.1443553824287948,-2.893319439205737,12.0,426.0],["GUCA1A",0.13579011051390233,-2.642941317912384,8.0,430.0],["IFNA6",0.17314250436926576,-3.8285304129328215,8.0,430.0],["KIAA1045",0.16107472271336756,-3.418990596664465,16.0,422.0],["LGALS1",0.14185818893805888,-2.8187313806044956,8.0,430.0],["LRRC46",0.14546230409337968,-2.926503228355689,11.0,427.0],["LSM11",0.14126179637877329,-2.801372239120275,10.0,428.0],["LSMEM1",0.15008380635747104,-3.0673865964614193,8.0,430.0],["LYN",0.15359803788043502,-3.1775776233381356,11.0,427.0],["MAPK9",0.1140798743741424,-2.066650659844227,8.0,430.0],["MOAP1",0.1245978769760137,-2.335621675902449,8.0,430.0],["MREG",0.13670118303989626,-2.6690301880442147,9.0,429.0],["MRPL9",0.15738455570654722,-3.298244992014054,9.0,429.0],["MTIF3",0.1309255673754484,-2.50687444917151,10.0,428.0],["MYOZ2",0.1223819250399071,-2.277461625858257,9.0,429.0],["NDUFS7",0.11691164430541544,-2.1371864537055685,8.0,430.0],["PSMA3",0.12110910210657473,-2.24438249960815,9.0,429.0],["QTRTD1",0.13734084166674235,-2.6872499803271155,8.0,430.0],["RASSF6",0.17396362091399756,-3.858160364232266,18.0,420.0],["RMI2",0.1276993392816937,-2.4185938500398616,8.0,430.0],["RND1",0.12473272316321715,-2.3391943816876273,8.0,430.0],["SAV1",0.17327381959239163,-3.833478416691172,11.0,427.0],["SCML2",0.13962976022035356,-2.7536255347754794,10.0,428.0],["SCRT2",0.13001888062077077,-2.481933924907557,10.0,428.0],["SLC25A10",0.16809664184584486,-3.6544620726253063,15.0,423.0],["SLC6A20",0.15861795872776704,-3.3383553776739396,11.0,427.0],["TAS2R30",0.1414232873196643,-2.8062030941478735,11.0,427.0],["TIRAP",0.12594633884804848,-2.3714909406985947,8.0,430.0],["TMEM165",0.1351833026714867,-2.6257179745474373,8.0,430.0],["TMEM199",0.14765657498780843,-2.9927690951299297,8.0,430.0],["TMEM70",0.14501908533651342,-2.913233472895513,12.0,426.0],["TPBG",0.13455695880434804,-2.6082822172504954,11.0,427.0],["UBE2M",0.17650503301136394,-3.947816732593341,11.0,427.0],["UBE2R2",0.12378879985279283,-2.3142517607616955,8.0,430.0],["YIPF5",0.12938245117323513,-2.4644258856304813,9.0,429.0],["ZNF524",0.16808079802618606,-3.653645510030104,11.0,427.0],["ZNF563",0.1331016155866747,-2.567317815877845,10.0,428.0]],"bottom":[["BRIX1",-0.11522606696537195,-2.0950345598593847,8.0,430.0],["CADM3",-0.1536572303183632,-3.1791401786155746,8.0,430.0],["CITED1",-0.12689026215847282,-2.3967875777186665,8.0,430.0],["CRY2",-0.13860029919763925,-2.7241051801543508,16.0,422.0],["CSRP1",-0.1417233427508554,-2.814754564439326,8.0,430.0],["CXorf66",-0.1264212250172927,-2.384458836578805,11.0,427.0],["EDNRA",-0.12264260726156326,-2.2841722051677085,8.0,430.0],["FAM78A",-0.11750660340621961,-2.1523579785458424,10.0,428.0],["H3F3A",-0.15254782855988416,-3.1443215243588867,9.0,429.0],["RCE1",-0.11067195405324932,-1.9836822029951215,9.0,429.0],["SPRYD3",-0.12848099484630088,-2.4401556188922204,13.0,425.0],["THUMPD2",-0.11583712505858251,-2.110740830279417,16.0,422.0],["TMCO2",-0.12297972272957194,-2.2929954748904793,8.0,430.0],["VPREB1",-0.127727781359903,-2.419464713719099,9.0,429.0]]}}}
{"depmap_damaging":{"corr":{"top":[["ADAM2",0.12560984733239974,-2.070840089377764,9.0,429.0],["AR",0.11654217850300172,-1.8335379910772789,8.0,430.0],["ATAD5",0.16678078344668068,-3.340568539079126,16.0,422.0],["BPTF",0.12498350834481277,-2.0539683922691925,17.0,421.0],["BRD3",0.13039852889699288,-2.202207028918049,11.0,427.0],["C3",0.17287764266637,-3.556201515908546,8.0,430.0],["CDC42BPA",0.12316218822578044,-2.0053139985260064,17.0,421.0],["CDH11",0.11734202591150823,-1.8538719474155496,8.0,430.0],["CDH7",0.10872582679405325,-1.6408604232722275,9.0,429.0],["CHD6",0.1405462869965922,-2.4945856927909653,10.0,428.0],["CHL1",0.12011788402780758,-1.9253355887886139,11.0,427.0],["CNTRL",0.14111943782062794,-2.5116716428905406,24.0,414.0],["CRIPAK",0.12116109254802901,-1.9525528711996645,8.0,430.0],["CYB5R4",0.14272759439648222,-2.5599405488113165,12.0,426.0],["DNAH7",0.12613012657995692,-2.0849093451635787,28.0,410.0],["DYNC1H1",0.13033516032939482,-2.2004411540807376,24.0,414.0],["GABRG1",0.11323577856722333,-1.7507009930471746,8.0,430.0],["GNL3",0.12849990722340462,-2.1496191429984925,9.0,429.0],["GREB1",0.12076559573192794,-1.9422111648563776,9.0,429.0],["IL17RE",0.13702115192700046,-2.3908496490012565,9.0,429.0],["IL1RAP",0.11714329249396804,-1.8488089351513444,8.0,430.0],["INPPL1",0.11961143879551861,-1.912193491694855,19.0,419.0],["IPO8",0.16322185358865854,-3.2180528871802174,9.0,429.0],["ITPR3",0.12248234219211482,-1.9873075080399645,8.0,430.0],["KDM5B",0.14480162440686223,-2.622910225656721,10.0,428.0],["MAPT",0.13057748356355017,-2.2071979036955085,14.0,424.0],["MARCKS",0.1440774012635749,-2.6008300747270723,13.0,425.0],["MARK3",0.19822652685036193,-4.532010282035262,8.0,430.0],["MERTK",0.12925947931279141,-2.170578184348576,8.0,430.0],["MYBL1",0.13826007732820353,-2.4270438559730474,12.0,426.0],["NME8",0.153095097781488,-2.8828386435557167,11.0,427.0],["NRD1",0.10837715985213545,-1.6325192064997638,10.0,428.0],["OPA1",0.11354425214115246,-1.7583464810090328,8.0,430.0],["PASK",0.12516907002105873,-2.058959401386084,10.0,428.0],["PLEKHA5",0.12097627269843493,-1.9477165534617813,12.0,426.0],["PNMA2",0.1250253382787846,-2.055092933552187,8.0,430.0],["SLX4",0.11102195051808537,-1.6963301884603057,9.0,429.0],["STAT6",0.12796858558509755,-2.135021230988185,9.0,429.0],["TAOK3",0.13299555836836136,-2.2752148142240687,8.0,430.0],["TBCK",0.1177623967566784,-1.8646049259193516,10.0,428.0],["TRIM3",0.11133798362390006,-1.704038350026875,8.0,430.0],["TRPM8",0.11120297678315658,-1.7007433072046196,11.0,427.0],["WBP1",0.15212129422340065,-2.851641040713728,10.0,428.0],["ZZEF1",0.17041363673344936,-3.468177383022299,11.0,427.0]],"bottom":[["ATXN1",-0.15391951858062114,-2.9093920355641147,29.0,409.0],["DMBT1",-0.156232882334486,-2.984596641723527,13.0,425.0],["PDIA3",-0.11454801178593498,-1.7833424529626827,13.0,425.0],["SF3A2",-0.1340453738292018,-2.3050809934745207,8.0,430.0],["SH3D21",-0.13402142461629016,-2.3043973883156212,9.0,429.0],["UBE3A",-0.13061230863828793,-2.2081698274350523,8.0,430.0],["WDR36",-0.16033582691945986,-3.12050668844282,18.0,420.0],["ZNF597",-0.11969686956451213,-1.9144071404824565,9.0,429.0]]},"para":{"top":[["ADAM2",0.12690044645323706,-2.3971630295532846,9.0,429.0],["AR",0.13848703425797193,-2.7202712168813465,8.0,430.0],["ATAD5",0.1391778004442961,-2.7408436160709067,16.0,422.0],["BRD3",0.12820993244565237,-2.4326776656656492,11.0,427.0],["C3",0.15055576801268322,-3.0820167188020062,8.0,430.0],["CDH11",0.12803645474970238,-2.427713447236695,8.0,430.0],["CDH7",0.12327290109323975,-2.3007841000652633,9.0,429.0],["CHD6",0.1322553746156422,-2.5437136779168754,10.0,428.0],["CHL1",0.10922655360918991,-1.9491960297877315,11.0,427.0],["CRIPAK",0.1287781087793215,-2.4478462756313664,8.0,430.0],["CYB5R4",0.13738650189774954,-2.6889089196404288,12.0,426.0],["GREB1",0.12365474797323946,-2.3108216023690837,9.0,429.0],["IL17RE",0.1381649294132285,-2.7110773453956134,9.0,429.0],["IL1RAP",0.11381018199973546,-2.0600049285577664,8.0,430.0],["IPO8",0.13835585285322835,-2.716589500846886,9.0,429.0],["ITPR3",0.13511587957788496,-2.6238082545217134,8.0,430.0],["KDM5B",0.14005288070586977,-2.7659593014634285,10.0,428.0],["MAPT",0.1372468398994818,-2.685013948032886,14.0,424.0],["MARCKS",0.1345991374580295,-2.6095997573756082,13.0,425.0],["MARK3",0.17098496537401014,-3.7532829350252745,8.0,430.0],["MERTK",0.1264857235968624,-2.3859271778308018,8.0,430.0],["NME8",0.16017586519762872,-3.389163899009279,11.0,427.0],["NRD1",0.11744615762257446,-2.1508316480279532,10.0,428.0],["NSFL1C",0.10362929486587286,-1.8182380380791783,8.0,430.0],["PASK",0.11666036243518718,-2.13104669763171,10.0,428.0],["PNMA2",0.13214926345940844,-2.540568797535213,8.0,430.0],["RFC1",0.11625862600204091,-2.121101445191185,12.0,426.0],["STAT6",0.14370170917322428,-2.8735337733077264,9.0,429.0],["TRPM8",0.1264212250172927,-2.384458836578805,11.0,427.0],["WBP1",0.13823950719651454,-2.7133219627413805,10.0,428.0],["ZZEF1",0.15152082925395283,-3.112358586782109,11.0,427.0]],"bottom":[["ATXN1",-0.148471930151142,-3.018672631869981,29.0,409.0],["DMBT1",-0.16790311376187397,-3.647731416680483,13.0,425.0],["SLCO1B3",-0.11506319317324601,-2.0910813578236906,9.0,429.0],["UBE3A",-0.11691164430541545,-2.1371864537055685,8.0,430.0],["WDR36",-0.14781222692039014,-2.998193311138025,18.0,420.0],["ZNF597",-0.1153177577599125,-2.0974090108701846,9.0,429.0]]}}}
{"ccle_metabolomics":{"corr":{"top":[],"bottom":[]},"para":{"top":[["C22:1 SM",0.1624604805344915,-3.154678195931182,432]],"bottom":[]}}}
{"ccle_rrbs_enhancer_clusters":{"corr":{"top":[["16-51129757-51132306-1_enh",0.2224126889324531,-4.687069514804563,360],["16-72978900-72981722-1_enh",0.1652703974842306,-2.8928841676248664,377],["18-76007648-76010476-1_enh",0.18342062034821704,-3.240983355874884,349]],"bottom":[]},"para":{"top":[["19-32206758-32211473-2_enh",0.19526706606380453,-3.840050825414344,374],["2-3266196-3269522-1_enh",0.27478093181293967,-4.749337433133568,237],["8-144611510-144614040-1_enh",0.17435649064265243,-3.2366445509071355,386],["16-51129757-51132306-1_enh",0.19169682241499547,-3.595734468346142,360],["16-72978900-72981722-1_enh",0.16572175433866904,-2.9064134799638173,377]],"bottom":[]}}}
{"ccle_mirna":{"corr":{"top":[],"bottom":[]},"para":{"top":[],"bottom":[["hsa-miR-526a+hsa-miR-518d-5p+hsa-miR-520c-5p_miR00468.1",-0.14854242633165302,-2.6910491081301067,429]]}}}
{"prism_primary_logfold":{"corr":{"top":[["adaprev_BRD-A73427433-240-01-3::2.5::HTS",0.1912811169993405,-4.09781224567834,420]],"bottom":[["proxyphylline_BRD-A28887267-001-19-3::2.5::HTS",-0.18128713663754556,-3.8887568416076923,441],["bucetin_BRD-A88684804-001-04-3::2.5::HTS",-0.15075607048006698,-2.8244675068316414,441],["isradipine_BRD-A90799790-001-19-9::2.5::HTS",-0.16555057715068944,-3.323823310440195,442],["INCB-003284_BRD-K28059174-334-01-2::2.5::HTS",-0.18922328131984245,-4.1789900468774395,439],["dydrogesterone_BRD-K68620903-001-11-4::2.5::HTS",-0.14955222291220585,-2.786219264819434,441],["propantheline_BRD-K90885812-004-24-2::2.5::HTS",-0.19281142942982474,-4.338704019105889,441],["azeliragon_BRD-K51899933-001-02-6::2.500004375::MTS004",-0.1384029733991624,-2.40812747775267,433],["caroverine_BRD-K65900713-003-01-0::2.686421113::MTS004",-0.2130099298001016,-5.10881906756828,433]]},"para":{"top":[["adaprev_BRD-A73427433-240-01-3::2.5::HTS",0.1806228048920549,-3.702871711087611,420]],"bottom":[["proxyphylline_BRD-A28887267-001-19-3::2.5::HTS",-0.1885509262438154,-4.169220251251065,441],["bucetin_BRD-A88684804-001-04-3::2.5::HTS",-0.15103742654833988,-2.8334466781386314,441],["INCB-003284_BRD-K28059174-334-01-2::2.5::HTS",-0.16979731031183035,-3.4531387789163537,439],["dydrogesterone_BRD-K68620903-001-11-4::2.5::HTS",-0.1368466797887139,-2.3993428784176656,441],["mebicar_BRD-K76606751-001-01-7::2.5::HTS",-0.14469112448555835,-2.6345882944697556,441],["propantheline_BRD-K90885812-004-24-2::2.5::HTS",-0.18279189711455107,-3.94598286039256,441],["caroverine_BRD-K65900713-003-01-0::2.686421113::MTS004",-0.19498936152640128,-4.35581416782366,433]]}}}
{"prism_secondary_logfold":{"corr":{"top":[["sonidegib_BRD-K19796430-001-05-6::0.00244::MTS010::PROS004_PR500",0.18641748956136295,-4.0776125673720935,440],["LY2603618_BRD-K14109347-001-03-4::0.00244::MTS010::PROS004_PR500",0.17829135212857125,-3.768723446187974,440],["elesclomol_BRD-K82135108-001-04-3::0.00977::MTS010::PROS001_PR500",0.220494915179539,-5.441258889963546,433],["I-BET-762_BRD-K08109215-001-06-4::0.00244::MTS010::PROS002_PR500",0.17469727255179732,-3.6506593931848443,442],["alectinib_BRD-K11267252-001-05-1::0.0391::MTS010::PROS003_PR500",0.178151825496825,-3.726291639545983,435]],"bottom":[["nelarabine_BRD-K84466663-001-05-4::0.0390625::HTS002",-0.1815059302104797,-3.819824916892602,431],["nimorazole_BRD-K79145628-001-05-5::0.0390625::HTS002",-0.20297958678057643,-4.758247619636105,441],["sulfanilamide_BRD-K02594908-001-16-4::0.00976562::HTS002",-0.19157948972847097,-3.816562613740138,386],["exemestane_BRD-K33425534-001-12-5::0.00976562::HTS002",-0.1872217489320751,-2.8998339207047863,294],["gossypol_BRD-K19295594-015-14-3::0.0357406::HTS002",-0.19111318172386818,-4.159769251697942,428],["belinostat_BRD-K17743125-001-08-4::0.00244::MTS010::PROS003_PR500",-0.18363228755510919,-3.9307656924533125,435],["ponatinib_BRD-K44227013-001-06-4::0.0024414::HTS002",-0.2007700010119098,-4.665263213102563,441],["isometheptene-mucate_BRD-A64743628-001-01-5::0.00061034::HTS002",-0.19515441715539186,-3.1150705863858934,294],["vanoxerine_BRD-K32501161-300-06-2::0.15625::HTS002",-0.19392591213865965,-4.38365006312627,441],["clebopride_BRD-K17294426-050-12-3::0.0024414::HTS002",-0.19317088686350736,-3.0515547030046917,293],["mifepristone_BRD-K37270826-001-27-6::0.0103883::HTS002",-0.19333422461306066,-4.359756194682651,441]]},"para":{"top":[["aminoglutethimide_BRD-A25234499-001-19-1::0.625::MTS010::PROS003_PR500",0.18268966181323026,-3.895172897238796,435],["regorafenib_BRD-K16730910-001-10-7::0.00061::MTS010::PROS004_PR500",0.18961387675204663,-4.202759909956628,440],["elesclomol_BRD-K82135108-001-04-3::0.00977::MTS010::PROS001_PR500",0.18896278153018436,-4.118674614384376,433],["alectinib_BRD-K11267252-001-05-1::0.625::MTS010::PROS003_PR500",0.17804405621587685,-3.7223303275034056,435],["chidamide_BRD-K28537285-001-01-8::0.000610353::MTS006",0.17472505007845038,-3.601451397408964,435]],"bottom":[["nimorazole_BRD-K79145628-001-05-5::0.0390625::HTS002",-0.17965336067771512,-3.8271394594159447,441],["indiplon_BRD-K90948141-001-01-4::0.625::HTS002",-0.17846952477649208,-3.767881784093361,439],["exemestane_BRD-K33425534-001-12-5::0.00976562::HTS002",-0.17757143840373538,-2.6492478676729343,294],["raloxifene_BRD-K63828191-003-32-1::0.625::HTS002",-0.18377603156676403,-3.0270221070653034,321],["baricitinib_BRD-K53581288-001-02-9::0.00061034::HTS002",-0.17482340805768892,-3.605002506111881,435],["dihydromyricetin_BRD-K01614093-001-02-6::0.15625::HTS002",-0.1912078714242309,-4.171986104958721,429],["belinostat_BRD-K17743125-001-08-4::0.00244::MTS010::PROS003_PR500",-0.19818758667441816,-4.502944013958631,435],["isometheptene-mucate_BRD-A64743628-001-01-5::0.00061034::HTS002",-0.1982034138937407,-3.2000454095603277,294],["vanoxerine_BRD-K32501161-300-06-2::0.15625::HTS002",-0.1890817249870902,-4.1901339030820255,441],["clebopride_BRD-K17294426-050-12-3::0.0024414::HTS002",-0.21632577849295495,-3.7202047191532452,293],["ponatinib_BRD-K44227013-001-06-4::0.0024414::HTS002",-0.1850821588525816,-4.03395703589958,441]]}}}
{"ccle_proteomics":{"corr":{"top":[["ATP5O_P48047",0.23272567730266924,-3.377750684172716,226],["DCDC2_Q9UHG0",0.2885435529086754,-2.6093659689542843,108],["TRIM36_Q9NQ86",0.35333806529341083,-3.784976020074947,109],["PAX8_Q06710",0.22766935591228238,-2.497868372720766,166],["PLCB4_Q15147-4",0.2513974203070414,-3.693690413268487,214],["NSUN3_Q9H649",0.268153095794335,-2.566839702209548,123],["PARS2_Q7L3T8",0.2022307670936789,-2.6476492971266365,226],["RTKN_Q9BST9",0.20835140742914407,-2.7863134286871585,226],["FAM160B2_Q86V87",0.2546029921341539,-2.4763615672680235,131]],"bottom":[["SLC1A3_P43003",-0.2633203943730449,-4.212223159715858,226],["VHL_P40337",-0.2644405647923862,-2.9173731358132033,147],["DNMT1_F5GX68",-0.25581129155143423,-2.721426615772706,145],["RBL1_P28749",-0.254357765866062,-3.2755312288114076,182],["KIAA1109_Q2LD37",-0.2502878135531641,-2.758431075717742,154],["SYNPO2_Q9UMS6-2",-0.270768060318892,-2.3744359039060297,110]]},"para":{"top":[["TRIM36_Q9NQ86",0.3596431277072197,-3.91144752800952,109],["YWHAE_P62258",0.21683989857671374,-2.9851059429620994,226]],"bottom":[["IL13RA2_Q14627",-0.3369236645702275,-3.9967820829834717,128],["STK35_Q8TDR2",-0.2573999763099936,-2.7993637622279888,148],["MYPOP_Q86VE0",-0.2553046092869102,-2.180947486191328,112],["DNMT1_F5GX68",-0.27977369638760313,-3.1842830925432484,145],["RBL1_P28749",-0.24309154164536018,-3.0249129483905333,182],["OPA3_Q9H6K4",-0.23307488165280044,-3.087055837623038,203],["SYNPO2_Q9UMS6-2",-0.2830383045299541,-2.563165804401609,110]]}}}
{"depmap_copy_number":{"corr":{"top":[["CAMLG_819",0.16027547544818035,-3.1184840365744053,438],["H2AFY_9555",0.15818037870517432,-3.0487034134955557,438],["C5orf66_100996485",0.1589311780968204,-3.0736127329850125,438],["SEC24A_10802",0.16027547544818035,-3.1184840365744053,438],["PITX1_5307",0.1589311780968204,-3.0736127329850125,438],["TXNDC15_79770",0.15908337704147596,-3.0786754857651215,438],["SMIM32_389332",0.1581822134016254,-3.048764151034768,438],["CDKL3_51265",0.16003703671775035,-3.110499750364063,438],["C5orf66-AS1_101927953",0.1589311780968204,-3.0736127329850125,438],["MIR3661_100500905",0.16003703671775035,-3.110499750364063,438],["SMAD5_4090",0.1581822134016254,-3.048764151034768,438],["PCBD2_84105",0.15908337704147596,-3.0786754857651215,438],["SMAD5-AS1_9597",0.1581822134016254,-3.048764151034768,438],["DDX46_9879",0.16027547544818035,-3.1184840365744053,438],["C5orf24_134553",0.15908337704147596,-3.0786754857651215,438]],"bottom":[]},"para":{"top":[],"bottom":[]}}}
{"depmap_gene_tpm":{"corr":{"top":[["FAM162A_26355",0.14752440007658818,-2.701602551000792,437],["IL19_29949",0.1498530021586972,-2.7743120880400434,437],["CTAGE6_340307",0.18756366621211054,-4.0975744835126,437]],"bottom":[["OR2J2_26707",-0.17148629547963806,-3.499427015981826,437],["OR52A1_23538",-0.17342200964518212,-3.568735775941225,437],["GRINA_2907",-0.18415007083012616,-3.9662735915542564,437],["SLC4A3_6508",-0.18163007444198107,-3.870839481026284,437],["HNRNPCL3_649330",-0.19632174347894832,-4.4451880797501895,437],["PRAMEF19_645414",-0.2036547909932909,-4.748253545159892,437],["PRAMEF20_645425",-0.16987302745385813,-3.442224794439918,437],["MEPE_56955",-0.17357779594376635,-3.5743457477452507,437],["SAG_6295",-0.1838561777924264,-3.955078347330594,437],["AGA_175",-0.18382703382533871,-3.9539691092388995,437],["USP29_57663",-0.1884568928244008,-4.13231771482564,437],["CELA1_1990",-0.1832633048154537,-3.9325466024723714,437]]},"para":{"top":[["TMSB4Y_9087",0.14810710381466408,-2.7197009998054082,437],["CRYBA1_1411",0.14520587741022467,-2.630225121119187,437]],"bottom":[["OR2J2_26707",-0.16774485434674724,-3.367543678087305,437],["GPX6_257202",-0.20874722612608354,-4.965231084492207,437],["GRINA_2907",-0.17147149299913733,-3.4988998419466215,437],["CLIP4_79745",-0.17221359718038298,-3.525381985667125,437],["OPRL1_4987",-0.16783641677001698,-3.3707385623516077,437],["SELL_6402",-0.17121059374163758,-3.489615251449351,437],["CCDC71L_168455",-0.15876327187771097,-3.0620545205129375,437],["GPR31_2853",-0.16359894852997772,-3.224589150710909,437],["TAAR1_134864",-0.1646530467547689,-3.260618989528155,437],["AGA_175",-0.19532368393049473,-4.4047894649218735,437]]}}}
{"avana":{"corr":{"top":[["ATP5F1D_513",0.19714054457554575,-3.3089493569179056,309],["TPO_7173",0.17254176526995363,-2.6311808797637344,309],["MRPS35_60488",0.18105711052117823,-2.8562802911858056,309],["OR11L1_391189",0.17136982711778048,-2.600979527194324,309],["CCL27_10850",0.1808942072593763,-2.851880245300009,309],["NDUFS4_4724",0.18916587675252136,-3.0799642611802174,309],["EXOSC8_11340",0.17112555183350256,-2.594708035421723,309],["ANKRD24_170961",0.19015796328104936,-3.1079625520948895,309],["KRT79_338785",0.20624634544275908,-3.581480680360421,309],["HLA-B_3106",0.1741860227862137,-2.6738703653328493,309],["RPGR_6103",0.17158725113894702,-2.464363809105195,289],["GNPDA1_10007",0.172578290162263,-2.6321251539789148,309],["ZDHHC9_51114",0.18617357357239991,-2.8304819718356233,289]],"bottom":[["TEX22_647310",-0.17792747941895973,-2.7723901602748713,309],["IFNA1_3439",-0.1812553853066468,-2.8616406870383733,309],["RTKN2_219790",-0.18824951860865513,-3.0542258784044116,309],["LCN8_138307",-0.18283955518090253,-2.9046647532519243,309],["SELENOI_85465",-0.17755383625238422,-2.7624649211250385,309],["ZC3H3_23144",-0.19415001440658183,-3.2220256024082388,309],["RRM2B_50484",-0.2007488205885547,-3.4155224197614773,309],["CDH24_64403",-0.2010708073525403,-3.4251228976006276,309],["RARA_5914",-0.17711002833901887,-2.7356405963156822,307],["C9orf66_157983",-0.18610889787987236,-2.994559006410936,309],["NAA60_79903",-0.19783412733069317,-3.3107013799843923,307]]},"para":{"top":[["PAK1_5058",0.201780107762856,-3.427016190595824,307],["LYSMD2_256586",0.1821565571957774,-2.886072692943559,309],["TPO_7173",0.19663191324030097,-3.2940757158659673,309],["ATP1B4_23439",0.20100711680966574,-3.231218568097661,289],["NDUFS4_4724",0.19303354951283747,-3.189898837061512,309],["GNPDA1_10007",0.22082470505394075,-4.0428081157304945,309],["BAZ1B_9031",0.17797079384115902,-2.7583432386228486,307],["POR_5447",0.17534716325982352,-2.7042397579193147,309],["KRT79_338785",0.1962115017112126,-3.28180959211014,309],["ABHD11_83451",0.2011109992597884,-3.426322316272962,309],["HLA-B_3106",0.18006100609006745,-2.8294327677405047,309],["P2RY10_27334",0.19398877220055724,-3.0379981971794217,289],["OPN1LW_5956",0.18683023629377726,-2.8476108331179733,289]],"bottom":[["GOLGA2_2801",-0.21648938274210075,-3.9023671501201,309],["SELENOI_85465",-0.1915782569901227,-3.1482864385963465,309],["FAM208B_54906",-0.18766266205958493,-3.037804258961248,309],["CARD19_84270",-0.1723925377256629,-2.627324808270267,309],["OXNAD1_92106",-0.17933520404265268,-2.8099569845703103,309],["TMSB15A_11013",-0.17208329920555637,-2.476366864760607,289],["CDH24_64403",-0.18617232054229366,-2.996317616553132,309],["BRINP1_1620",-0.1815658951887365,-2.870046323351597,309],["FAM83A_84985",-0.19319809680770725,-3.1946226870306877,309],["NFKBIA_4792",-0.19117806911498617,-3.13689587846164,309],["RTKN2_219790",-0.19202118681122418,-3.160919876033808,309]]}}}
{"drive":{"corr":{"top":[["RXFP3_51289",0.2195633996601185,-3.119887380394746,232],["PON2_5445",0.19400837923710695,-2.6043753953227866,241],["SOX15_6665",0.20247924029996267,-2.7720078951515497,238],["PITX1_5307",0.2452010849520494,-3.877075420858745,238],["SKP2_6502",0.2125033790562189,-3.0128477201892188,238],["RBP7_116362",0.23254740948429029,-3.450703247264381,232],["GINS2_51659",0.2342254734188619,-3.6125028572549147,241],["PLCG1_5335",0.20464284491739,-2.823055928665844,238],["CRKL_1399",0.2359660753011843,-3.700047080966761,244]],"bottom":[["COL10A1_1300",-0.281556692746362,-4.91110926811566,234],["GPR158_57512",-0.25545784350606965,-4.266626689853647,244],["RASGEF1A_221002",-0.24320225983135751,-3.82070613904129,238],["CD300A_11314",-0.22477373470172765,-3.2745676718390317,234],["ACTG1P20_644961",-0.22737518939829954,-3.3413938470207447,234],["LMO4_8543",-0.2402968323921048,-3.73960512846705,238],["LRRC39_127495",-0.21691611331846986,-3.0547172557141136,232],["MELK_9833",-0.21790410782136072,-3.1472195094544726,238],["ZHX2_22882",-0.21948352875676502,-3.1871326851426884,238],["ADAMTS10_81794",-0.2338961447287814,-3.564407674593332,238],["FLCN_201163",-0.22870339514712504,-3.350813826297052,232],["EDNRA_1909",-0.22485252164184943,-3.397320448866703,244],["ADCY4_196883",-0.22078860345868379,-3.1503086108124383,232]]},"para":{"top":[["RXFP3_51289",0.21451970219401678,-2.996381787379519,232],["ASF1A_25842",0.21218154620311738,-3.0049430021972765,238],["RBP7_116362",0.23358276261573763,-3.477890212203965,232],["MAP1LC3A_84557",0.2522651235066116,-4.125380509071598,241],["GINS2_51659",0.21016438325043243,-2.987471691297725,241],["ABCC11_85320",0.21837227494778072,-3.113332866819877,234],["KIF25_3834",0.2783517390139407,-4.771742985109624,232],["SLC25A13_10165",0.23038572135381943,-3.4196749699115583,234],["CRKL_1399",0.22691617203624143,-3.452436532869615,244],["TSPAN8_7103",0.236192150804762,-3.6665454414752006,241],["PSMC3_5702",0.21051373414994468,-2.9002554091971917,232],["RAD51_5888",0.21701195686227023,-3.057063358146796,232],["RNF182_221687",0.2412092451792293,-3.6818744398617604,232]],"bottom":[["COL10A1_1300",-0.27426666167186997,-4.679520605572089,234],["GPR158_57512",-0.24460664917313882,-3.9455399427849636,244],["ST6GAL1_6480",-0.22043565785607094,-3.1415282641726905,232],["CD2AP_23607",-0.23806902513527003,-3.6240997080607626,234],["HCAR2_338442",-0.2314766319756826,-3.486639696370609,237],["ULBP2_80328",-0.23542632679058512,-3.5265977863292997,232],["BTBD1_53339",-0.22869386093934402,-3.3505681223005612,232],["C1QTNF9_338872",-0.22286631325059034,-3.261689273979467,237],["LRRC39_127495",-0.2337992137997117,-3.4835891287059497,232],["ARG1_383",-0.23201229320049097,-3.4366989233431284,232],["SBF2_81846",-0.23702220550095232,-3.5690705422354387,232],["ZHX2_22882",-0.2205048925502083,-3.2130926214392543,238],["MGAT1_4245",-0.22131816349327682,-3.2689753590114483,241],["ADCY4_196883",-0.2668522373228622,-4.416854504574693,232],["GPSM1_26086",-0.2380105449044543,-3.6225184177638083,234]]}}}
{"achilles":{"corr":{"top":[["TRUB1_142940",0.2707831913725555,-2.9520678779563037,142],["LRIT1_26103",0.25300617188246016,-2.62293035494999,142],["RAD51C_5889",0.3110314490289309,-3.7827945442973845,142],["DYNLRB2_83657",0.24090808736919433,-2.411556948530466,142],["EPB42_2038",0.25669506703077755,-2.689395848689383,142],["ANKS4B_257629",0.24369484349441708,-2.459356196158983,142],["TMEM196_256130",0.2740319302909343,-3.014655785748731,142],["PROM2_150696",0.3000544482215113,-3.5440689001747985,142],["ERGIC3_51614",0.27552388942367917,-3.04365515371473,142],["ARL5A_26225",0.2946759026331083,-3.430483164351867,142],["APH1A_51107",0.2837778308617494,-3.2070294477113763,142],["PCNX4_64430",0.24778468953296137,-2.5304677157308455,142],["HEATR3_55027",0.2529582103249533,-2.6220724455142124,142],["ISOC1_51015",0.28878668563310417,-3.3086263677100463,142]],"bottom":[["PLEKHA8P1_51054",-0.2914057875883044,-3.3624971310306324,142],["KDM4D_55693",-0.2356855187042086,-2.32339651574881,142],["LIN28B_389421",-0.2907521371232783,-3.3490043524876842,142],["EPS8_2059",-0.26851311125021177,-4.552624969968385,237],["PTGS2_5743",-0.23450610148006312,-3.567796358901735,237],["ANKRD20A19P_400110",-0.24799515033565767,-2.534158145787069,142],["NAT2_10",-0.2413635486802594,-3.7554082434082736,237],["TOMM5_401505",-0.23638687758212432,-2.3351288868558413,142],["LAMA5_3911",-0.30174052483140396,-3.580131342488699,142],["TMEM106B_54664",-0.2356618449138579,-2.3230010766476674,142],["CENPU_79682",-0.23064574639182847,-3.4645647043145646,237],["ADD3_120",-0.2737048331498258,-3.0083195713411506,142],["SH3PXD2B_285590",-0.2679590952396391,-2.898279202900138,142],["ZDHHC14_79683",-0.29526246271564377,-3.4427633595726763,142]]},"para":{"top":[["LTB4R2_56413",0.28996162945918696,-3.3327294326749755,142],["LRIT1_26103",0.23856760107560301,-2.3718199772764925,142],["NUFIP1_26747",0.25135087842474707,-2.593413829062612,142],["RAD51C_5889",0.28895096571653284,-3.3119902282390448,142],["DYNLRB2_83657",0.24642253532946526,-2.5066560310413233,142],["EPB42_2038",0.23746690235695084,-2.3532603991147134,142],["VAPB_9217",0.2706513869229539,-2.9495447213703567,142],["PROM2_150696",0.2782485328126576,-3.0970328475857274,142],["RAB11FIP1_80223",0.2482868459109792,-2.5392780723915958,142],["ERGIC3_51614",0.23878563966739116,-2.3755061809673874,142],["ARL5A_26225",0.3273898524592133,-4.156184205058469,142],["APH1A_51107",0.28679756532287576,-3.2680564652841806,142],["TSPAN2_10100",0.25409585280552033,-2.6424651025797643,142]],"bottom":[["PLEKHA8P1_51054",-0.2803034430736053,-3.137649322228125,142],["TMEM43_79188",-0.2487803549130755,-2.5479536425724927,142],["UGT2A2_574537",-0.23606707743069066,-3.6100250802070013,237],["WASF1_8936",-0.24392799513874053,-2.46337928659593,142],["TOMM5_401505",-0.23262376123506617,-2.2725661011839637,142],["LAMA5_3911",-0.27126548788608157,-2.9613112462897133,142],["SLC8A1_6546",-0.22539975656178932,-3.3270045295849107,237],["CENPU_79682",-0.22961101454258223,-3.4371841273804353,237],["ADD3_120",-0.27642087307125685,-3.0611678813749537,142],["SH3PXD2B_285590",-0.24000947212808094,-2.396256265968422,142]]}}}
{"ccle_rrbs_tss1kb":{"corr":{"top":[["SLC12A9_7_100423490_100424490",0.19266744702657917,-3.820058925427623,382],["LOC101927476_23_40121169_40122169",0.19277590297835515,-3.7626846315262594,375],["ZNF782_9_99616770_99617770",0.20175899181920603,-4.16494712596914,384],["MED9_17_17379299_17380299",0.18989015244363264,-3.4512808693954318,350],["LINC01446_7_53879624_53880624",0.19430108447241395,-3.797653619649696,373],["PRRT1_6_32120860_32121860",0.2494826776890173,-2.9851486253702353,170]],"bottom":[["BIRC6_2_32581095_32582095",-0.1771814244944835,-3.2762086879505645,379],["FAM84B_8_127570711_127571711",-0.16919641711049138,-2.929886075814604,365],["SLC12A5-AS1_20_44650712_44651712",-0.15480314393159478,-2.5597701769364334,372],["RIPK4_21_43187249_43188249",-0.15583501857367582,-2.259631451453824,316]]},"para":{"top":[["LOC101927476_23_40121169_40122169",0.20077681588767712,-4.043782469217791,375],["DQX1_2_74753408_74754408",0.19500442303881588,-2.599566922416484,238],["LOC284412_19_37759912_37760912",0.21340523925380614,-3.3940086953640636,271],["LINC01446_7_53879624_53880624",0.18873042656813005,-3.607984152649443,373],["PPP1R18_6_30655672_30656672",0.1923232155667984,-3.7732188652618084,378]],"bottom":[["ZNF480_19_52799421_52800421",-0.18045352163120668,-3.374450806296114,378],["ZFYVE9_1_52606765_52607765",-0.2164415134179379,-2.499300900131708,184],["MTHFD1L_6_151327143_151328143",-0.17791033334689277,-3.142060959520511,358],["IRF2BP1_19_46389428_46390428",-0.16248107739069179,-2.816333891035429,378],["VSIG10_12_118541810_118542810",-0.16048378792313528,-2.788446422032927,383]]}}}
{"ccle_gene_tpm":{"corr":{"top":[["AL590639.1_ENSG00000225786.2",0.16043621537136932,-3.0933729716139653,433],["RP11-47G11.2_ENSG00000232334.1",0.16069604429446688,-3.102000317855914,433],["RP11-365F18.5_ENSG00000271404.1",0.15936365069148342,-3.0578959054296737,433],["RP11-329J18.2_ENSG00000260281.1",0.17789225117712137,-3.701891967978849,433],["RN7SL759P_ENSG00000242443.2",0.1615915246342177,-3.1318325991817533,433],["RP11-529E15.1_ENSG00000272027.1",0.1960396331422916,-4.397887739751983,433],["RP11-1C1.4_ENSG00000249396.1",0.16282559461824347,-3.1731960310974188,433],["None_ENSG00000231887.2",0.17533820588558757,-3.6091643437764804,433],["RN7SL106P_ENSG00000242962.2",0.1615915246342177,-3.1318325991817533,433],["CTAGE6_ENSG00000271321.1",0.18373421264464762,-3.9188085701782303,433],["None_ENSG00000230064.1",0.17079476422328901,-3.4473553282759055,433]],"bottom":[["RP5-1065P14.2_ENSG00000236975.1",-0.20321108900291993,-4.691140406074304,433],["GRINA_ENSG00000178719.12",-0.19070490028204135,-4.186477584377501,433],["CTD-2258A20.3_ENSG00000260146.1",-0.1954176085630287,-4.372942773797271,433],["Z82214.3_ENSG00000236272.1",-0.18594996557853444,-4.002844371365898,433],["USP29_ENSG00000131864.6",-0.1906752670845045,-4.185319194221261,433],["PRAMEF18_ENSG00000204491.2",-0.2145081322975986,-5.174426566504135,433],["SLC4A3_ENSG00000114923.12",-0.18506294362718134,-3.969085887344452,433],["AC008132.1_ENSG00000182824.6",-0.20011326553193456,-4.563184906113401,433],["CTB-129P6.4_ENSG00000267282.1",-0.18344565754096548,-3.90793624764727,433],["RP11-405F3.4_ENSG00000260467.1",-0.18284678694237677,-3.8854242537975563,433],["PRAMEF19_ENSG00000204480.6",-0.1869951271493259,-4.04282188037224,433],["RP11-117N2.2_ENSG00000257169.1",-0.18668387639985506,-4.030893815681278,433],["RP11-529A4.4_ENSG00000254818.1",-0.1847878650025247,-3.958648585892702,433],["RP13-143G15.3_ENSG00000227844.1",-0.18360327676384455,-3.9138730615360973,433],["RP11-555H23.1_ENSG00000238193.1",-0.1827521836928232,-3.881874530571912,433]]},"para":{"top":[["SNORA71D_ENSG00000200354.1",0.1683433251159406,-3.361715043727035,433],["RP11-321G12.1_ENSG00000259459.1",0.169598943347118,-3.405434355304696,433],["RP3-417O22.3_ENSG00000224384.1",0.17517101860754153,-3.6031388980034578,433],["TMSB4Y_ENSG00000154620.5",0.1577580707186455,-3.0051979096715895,433],["RPS14P3_ENSG00000226396.1",0.1630783933933635,-3.1817052991573562,433],["RP11-778O17.4_ENSG00000259541.1",0.16458665685530338,-3.2327284919113284,433],["RBPJP5_ENSG00000232239.2",0.1471864603695431,-2.670395408225151,433],["None_ENSG00000230064.1",0.16806673939743072,-3.352125579833104,433]],"bottom":[["GRINA_ENSG00000178719.12",-0.17816641168565697,-3.711921622401314,433],["None_ENSG00000170215.4",-0.19407049143973928,-4.319186713648369,433],["HLA-DRB9_ENSG00000196301.3",-0.1758185794304294,-3.6265074369193795,433],["None_ENSG00000224407.1",-0.17512151012506078,-3.6013556549823376,433],["RP11-38M8.1_ENSG00000273297.1",-0.18712563135498636,-4.047828926472726,433],["OR7E83P_ENSG00000249866.1",-0.1862968413977518,-4.016088332281901,433],["AGA_ENSG00000038002.4",-0.188246304268962,-4.090965245646987,433],["AC008132.1_ENSG00000182824.6",-0.19751790407381045,-4.45748393568448,433],["RP11-148O21.3_ENSG00000254774.1",-0.17998693280611594,-3.7788963660515327,433],["OR2J2_ENSG00000204700.3",-0.1778024892852377,-3.6986113985448905,433],["RP11-405F3.4_ENSG00000260467.1",-0.1796914594656621,-3.7679819873265052,433],["CTB-129P6.4_ENSG00000267282.1",-0.1776941549913023,-3.694654158757894,433],["RP11-100E13.3_ENSG00000234247.1",-0.19048188613238107,-4.177764060096611,433],["GPX6_ENSG00000198704.5",-0.21077485612955146,-5.011807725183214,433],["RP11-148O21.6_ENSG00000269954.1",-0.18483799084268585,-3.9605493917416665,433]]}}}
{"ccle_rrbs_tss_clusters":{"corr":{"top":[["ASB9_2",0.2592800187655565,-2.8186661408274922,147],["AHCY_3",0.25458044151770914,-3.014372289313028,165],["LINC00506_2",0.31151514974230793,-3.7463996601170035,140],["HNRNPF_3",0.30350485561299545,-3.1462136461671677,121],["GLI1_3",0.31356682454690404,-4.243782423764253,159],["GIMAP1-GIMAP5_3",0.24841400853727602,-3.409075868974987,200],["LINC01012_2",0.3125912892149306,-2.95662326493259,106],["ITPKC_1",0.3927683010409038,-5.496323812412841,132],["ZNF735_1",0.2633955865088005,-3.2339912370694583,167],["XAGE3_3",0.2951035342521645,-3.902989319370762,164],["NXT2_2",0.2932227746649106,-3.3165216041428676,138],["ASB9_1",0.279412342467379,-3.1580001158771482,144]],"bottom":[["DNAJA2_1",-0.18286906029130434,-3.5246586121277543,387],["PCNX2_1",-0.22636697712400486,-2.9711364808203125,206]]},"para":{"top":[["LINC02601_1",0.2662507194940398,-3.7736334283833877,195],["LINC00506_2",0.25380392576048094,-2.6056351477492674,140],["FLJ45513",0.2505433861648089,-2.5174161955258922,138],["GLI1_3",0.29085630129045564,-3.699559501346609,159],["HNRNPF_3",0.3026103757691476,-3.129675635783007,121],["ILDR1_3",0.24887489980747846,-2.8672442157348956,163],["LRIT2_1",0.2535526236720912,-2.4747220217382453,132],["GIMAP1-GIMAP5_3",0.24511545014954342,-3.3294509512674058,200],["XAGE3_3",0.2729435456660021,-3.3912720682223507,164],["ITPKC_1",0.3341150086319616,-4.0443648254163564,132],["ASB9_1",0.26852523670873596,-2.944192296394761,144]],"bottom":[["GSTO2_3",-0.2680211132227325,-3.508544413706142,177],["PCNX2_1",-0.21219256403672832,-2.6577728768016917,206]]}}}
{"ccle_rrbs_cgi_clusters":{"corr":{"top":[["23_108778054_108782413-2",0.2932227746649106,-3.3165216041428676,138],["8_623114_625958-2",0.2955987638434255,-2.85141518460118,114],["10_43903686_43906792-3",0.30350485561299545,-3.1462136461671677,121],["12_57851715_57855973-3",0.31356682454690404,-4.243782423764253,159],["9_136129001_136133831-3",0.32192166275014267,-3.8778790268007906,136],["3_68981409_68984035-1",0.33732570321560046,-3.8386921269178345,122],["3_87136225_87140546-2",0.31151514974230793,-3.7463996601170035,140],["9_44116137_44119156-3",0.24728605552251223,-2.626681416988739,149],["6_150241902_150246210-3",0.2667596396849807,-3.118046424373311,156]],"bottom":[["1_233429149_233433540-1",-0.22636697712400486,-2.9711364808203125,206],["2_943686_946230-3",-0.25139485228422864,-2.109074759910553,111]]},"para":{"top":[["6_150241902_150246210-3",0.2567415098342369,-2.9153969810068734,156],["4_17614175_17618506-2",0.2345015038316817,-3.6593195300112495,244],["10_43903686_43906792-3",0.3026103757691476,-3.129675635783007,121],["12_57851715_57855973-3",0.29085630129045564,-3.699559501346609,159],["3_68981409_68984035-1",0.32699376206844494,-3.625697188729307,122],["12_33047301_33052098-1",0.2946919382970827,-2.55653967339976,101],["3_87136225_87140546-2",0.25380392576048094,-2.6056351477492674,140],["2_241717465_241721701-3",0.27121932379634006,-2.3995083427010466,111],["1_155237278_155241494-2",0.27690067044371086,-2.372399550697336,105],["7_56883722_56888131-3",0.2347062263366081,-4.963379634536403,344],["14_101906781_101911022-3",0.23028989979424308,-2.8309124084500787,188]],"bottom":[["10_106026542_106031047-3",-0.2680211132227325,-3.508544413706142,177],["1_233429149_233433540-1",-0.21219256403672832,-2.6577728768016917,206],["19_2113261_2117783-3",-0.251941754621982,-3.9801726800747725,232]]}}}
