{"depmap_hotspot":{"corr":{"top":[["ACTR2",0.11112935624373604,-2.687286304938373,14.0,753.0],["ADAM2",0.10558512264210035,-2.4664580011923136,27.0,740.0],["ADAMTS8",0.10795727948470309,-2.5597352615946978,34.0,733.0],["ALPK3",0.16007387732474362,-5.075734949218952,80.0,687.0],["C7orf60",0.10987579092419161,-2.636493260164919,22.0,745.0],["CABLES1",0.13850163785616768,-3.924271683814554,19.0,748.0],["CASP7",0.1163703602241693,-2.9051396277274018,13.0,754.0],["CCNDBP1",0.11638422701076905,-2.905727830512144,9.0,758.0],["CDC16",0.1291241268194326,-3.472683968943807,23.0,744.0],["CES2",0.11172014090122209,-2.7113996678807073,25.0,742.0],["DENND6B",0.10552200560912847,-2.4640007003231172,33.0,734.0],["DNASE1L3",0.1227475644303273,-3.182259333984194,15.0,752.0],["GNE",0.10982140187434163,-2.6343009201131915,17.0,750.0],["HCN3",0.1068245511064068,-2.5149698815860244,42.0,725.0],["HEATR6",0.11232687555314465,-2.7362811796031115,40.0,727.0],["HSD17B12",0.12209272195468623,-3.1531911262184327,16.0,751.0],["KANSL1L",0.12914782007246356,-3.473788110892819,47.0,720.0],["KRT5",0.12549862044079377,-3.305915401990437,31.0,736.0],["LARP6",0.12513669136657485,-3.2895050798398886,19.0,748.0],["MC5R",0.11133866928840054,-2.695816723401647,33.0,734.0],["MLNR",0.12849072744636972,-3.4432354413887225,16.0,751.0],["MXD3",0.13266887025421725,-3.6399434686594643,12.0,755.0],["NBAS",0.11800495983037236,-2.974906790430935,105.0,662.0],["NPVF",0.12522731287534797,-3.293609927722451,12.0,755.0],["NT5DC3",0.1331812039439877,-3.6644632809010904,30.0,737.0],["PCDHB13",0.10634650372751181,-2.4962006876942824,45.0,722.0],["PDCD6IP",0.11458897667752581,-2.830095546692532,29.0,738.0],["PHF11",0.17115217509516567,-5.729280361472089,17.0,750.0],["PRAMEF1",0.12146762838878798,-3.1255745061286566,22.0,745.0],["PRDM15",0.12185080538829317,-3.142488081548383,56.0,711.0],["RUNX1T1",0.12503916182028685,-3.2850903403091887,58.0,709.0],["SLC24A5",0.11874312551172429,-3.006697796870664,33.0,734.0],["SPRED1",0.1308557090112706,-3.553868169718543,22.0,745.0],["TCP11",0.11147486790184573,-2.7013749919565666,20.0,747.0],["THAP9",0.127839938965378,-3.4131166190115114,29.0,738.0],["TNKS2",0.11081510766777881,-2.6745058049345203,26.0,741.0],["TSC22D1",0.1175162277449484,-2.953955906610101,36.0,731.0],["TUBAL3",0.10495738208873698,-2.442075083445983,18.0,749.0],["UPF2",0.15100110806185596,-4.572131800842325,42.0,725.0],["USP49",0.13486308711358022,-3.7455712702983983,28.0,739.0],["VRTN",0.13337873060189348,-3.6739400585988236,37.0,730.0],["WDR60",0.10537509910777343,-2.4582861947796015,56.0,711.0],["WNT3",0.1186008820154238,-3.0005579063474785,11.0,756.0],["XRCC5",0.1347702348632659,-3.741068918251307,30.0,737.0],["ZNF382",0.11968902335697593,-3.047694950108093,34.0,733.0],["ZNF83",0.1089980847713697,-2.6012303608576137,30.0,737.0]],"bottom":[["ABHD14B",-0.11868626302492213,-3.004242556490609,8.0,759.0],["ASB13",-0.11111108449952968,-2.686542321599502,13.0,754.0],["CXorf66",-0.09929970390658088,-2.227972975763945,16.0,751.0],["DEFB115",-0.10404127876603764,-2.4067169940676507,13.0,754.0],["DPY19L4",-0.09245224445334968,-1.9823633687390636,18.0,749.0],["EIF2B5",-0.11020113064762072,-2.649627072349768,22.0,745.0],["EIF3K",-0.10612586821965815,-2.487562694590721,10.0,757.0],["ERV3-1",-0.10226077188425767,-2.338760410874006,35.0,732.0],["FCAMR",-0.10644377865636429,-2.5000139936121815,18.0,749.0],["GJA1",-0.09704302522452639,-2.145400857764168,23.0,744.0],["GLT1D1",-0.09826656661931692,-2.1899710582682914,31.0,736.0],["GNAL",-0.10232763895254332,-2.341294314364296,22.0,745.0],["HERC3",-0.09972366628336135,-2.2436651490911608,33.0,734.0],["IL13RA2",-0.09429009978363265,-2.0468404701265395,15.0,752.0],["IRGC",-0.09999715443328369,-2.2538179521406154,28.0,739.0],["NFKB2",-0.10621376634517701,-2.491002086667322,30.0,737.0],["OR52B1P",-0.10050714471010622,-2.272813716000462,11.0,756.0],["PATE3",-0.10326622146655451,-2.3770114772651563,9.0,758.0],["PPP1R42",-0.10758452058188499,-2.5449584833276573,9.0,758.0],["PRDX2",-0.09442799660624535,-2.0517208955990953,10.0,757.0],["RAB39B",-0.10726542748660134,-2.53234446492622,10.0,757.0],["RSPO2",-0.09415411190435541,-2.0420334379280063,12.0,755.0],["STEAP4",-0.09549209174632436,-2.0895816494149737,29.0,738.0],["TTC29",-0.11004330470867199,-2.643251462200362,29.0,738.0],["TUFT1",-0.09012977818960446,-1.902392298454404,8.0,759.0],["UPK1B",-0.10475314826272714,-2.434169266023135,11.0,756.0],["ZFYVE16",-0.09534387432858347,-2.084286751764218,53.0,714.0]]},"para":{"top":[["ACTR2",0.10185424135929624,-2.617384294330157,14.0,753.0],["C2CD4A",0.1110037478169657,-2.9728375514521463,14.0,753.0],["C6orf163",0.1238531975013674,-3.5159101484766757,15.0,752.0],["CASP2",0.10937619137978412,-2.9077170888634183,14.0,753.0],["DNASE1L3",0.1004008237942415,-2.563319989472038,15.0,752.0],["EBNA1BP2",0.1023657823202031,-2.6364275708545057,10.0,757.0],["ETHE1",0.09653273135710418,-2.422239088943167,8.0,759.0],["FAM102A",0.10584734852388898,-2.769391695631638,16.0,751.0],["FNDC5",0.09405208514524362,-2.3344090280230634,9.0,758.0],["GJA4",0.10252151119797216,-2.642286043531235,10.0,757.0],["MANF",0.10122377054989656,-2.5936931112744306,10.0,757.0],["MICU1",0.10035810528059196,-2.5614545455476514,8.0,759.0],["MRPL32",0.10250036837485998,-2.6414380583137054,9.0,758.0],["NPVF",0.10351110802209032,-2.6797732553435902,12.0,755.0],["PHF11",0.12055465778664552,-3.3716494229165592,17.0,750.0],["PLA2G5",0.08589703264558898,-2.0585968802777406,8.0,759.0],["PSME1",0.10166221002723551,-2.60993920512583,8.0,759.0],["RWDD1",0.09990007508885944,-2.544660922319359,10.0,757.0],["SLC41A3",0.1173490436509436,-3.2346996847810314,19.0,748.0],["SPRED1",0.12035156383130441,-3.362976774836183,22.0,745.0],["SRD5A3",0.10671395000764661,-2.8028968551197995,12.0,755.0],["STX16-NPEPL1",0.1066944798389462,-2.8022346885145386,15.0,752.0],["TERF2",0.10405794825265102,-2.700664993504616,15.0,752.0],["TEX9",0.12190391957569433,-3.430294645426943,18.0,749.0],["TLCD1",0.08905586414301446,-2.1630201821123856,8.0,759.0],["TNNI3K",0.10398676950027275,-2.697893674685102,13.0,754.0]],"bottom":[["ABHD14B",-0.1191082335267782,-3.3090541831020905,8.0,759.0],["BTBD16",-0.10110914491149224,-2.5896251219341804,16.0,751.0],["DEFB132",-0.11342813285250848,-3.07107618987464,8.0,759.0],["DPY19L4",-0.11011805881263267,-2.93740012766166,18.0,749.0],["EIF2B5",-0.10930948865053401,-2.905238789712957,22.0,745.0],["GNAL",-0.10996213526664983,-2.9312408356280004,22.0,745.0],["PEBP4",-0.09553959019137237,-2.387014136260315,12.0,755.0],["PPP1R42",-0.10649211384904762,-2.794126536662418,9.0,758.0],["PRELP",-0.10742569267110358,-2.8306873457849737,12.0,755.0],["RAB39B",-0.10939953663277284,-2.908487857427335,10.0,757.0],["RSPO2",-0.094139829619907,-2.337612642351751,12.0,755.0],["STX18",-0.1079280379362893,-2.850518765265993,16.0,751.0],["UPK1B",-0.0955120665625891,-2.3860001267844484,11.0,756.0]]}}}
{"depmap_damaging":{"corr":{"top":[["COL4A5",0.100684246518065,-2.2794295399890263,11.0,756.0],["CPNE1",0.09710854725577943,-2.1477756942261506,9.0,758.0],["DNAJC10",0.09676889776922873,-2.1354797972681814,10.0,757.0],["FKBP15",0.12744631147786684,-3.3949672531052086,8.0,759.0],["MRE11A",0.11290714473289294,-2.7601885183752106,9.0,758.0],["PHF11",0.1301187020083797,-3.51919257292485,9.0,758.0],["RBM19",0.11571278925643279,-2.877318385076024,8.0,759.0],["TMPRSS7",0.09867286602179702,-2.204875786021643,16.0,751.0],["ZNF490",0.09363911274229988,-2.0238812186286887,10.0,757.0]],"bottom":[["ASXL3",-0.10488755555921746,-2.43937062728514,15.0,752.0],["FLNB",-0.11957182883118583,-3.042599657499376,15.0,752.0],["PLXNA4",-0.12008582269960197,-3.064979973515679,18.0,749.0],["SMARCC1",-0.12542523668855057,-3.302584604943899,13.0,754.0],["TRPA1",-0.10286422717028572,-2.361679560432703,14.0,753.0]]},"para":{"top":[["COL4A5",0.12512897908757137,-3.572484145962624,11.0,756.0],["CPNE1",0.11781117293338798,-3.253895653972015,9.0,758.0],["DOCK7",0.09969243658516737,-2.537018352945424,10.0,757.0],["FKBP15",0.10099566760117326,-2.585092944825358,8.0,759.0],["MROH9",0.1085700087534193,-2.8755531971628003,9.0,758.0],["PHF11",0.11444826407499702,-3.113144553992633,9.0,758.0],["ZDHHC11",0.11142850557432173,-2.9896854573144047,8.0,759.0],["ZNF490",0.1003932165351282,-2.5628649980917193,10.0,757.0]],"bottom":[["FLNB",-0.11273298766562234,-3.042955891094556,15.0,752.0],["HECW2",-0.09792377642019064,-2.472344815357037,8.0,759.0],["PLXNA4",-0.09994643310457779,-2.546608810877641,18.0,749.0],["SMARCC1",-0.10530969835112074,-2.74856064490617,13.0,754.0],["TRPA1",-0.10189822937111201,-2.6190314937744588,14.0,753.0]]}}}
{"ccle_metabolomics":{"corr":{"top":[],"bottom":[["C52:3 TAG",-0.16912348421850243,-4.052728472173897,532],["C54:3 TAG",-0.15209214781382252,-3.3654191665014106,532]]},"para":{"top":[],"bottom":[]}}}
{"ccle_rrbs_enhancer_clusters":{"corr":{"top":[["2-105517613-105520490-1_enh",0.2272288729515858,-3.5223273322981163,249]],"bottom":[]},"para":{"top":[["2-105517613-105520490-0_enh",0.20702153618023972,-3.0135289844683975,251],["2-105517613-105520490-1_enh",0.22238357695033212,-3.3910184474980856,249],["18-76062036-76064671-1_enh",0.22351438242067553,-3.812892732810597,282]],"bottom":[]}}}
{"ccle_mirna":{"corr":{"top":[],"bottom":[["hsa-miR-197_miR00219.1",-0.16345185265562975,-3.8287028650305848,534]]},"para":{"top":[],"bottom":[["hsa-miR-197_miR00219.1",-0.16621228540227123,-3.9432676065931243,534],["ebv-miR-BART19-5p_miR00734.1",-0.13282970613236295,-2.6781039844400585,534]]}}}
{"prism_primary_logfold":{"corr":{"top":[["PCA-4248_BRD-A29289453-001-04-7::2.5::HTS",0.17999782166606557,-3.459119096872402,391],["merbarone_BRD-K45152786-001-08-4::2.5::HTS",0.1880167122610695,-3.7006401989901154,387]],"bottom":[["SB-271046_BRD-K82467063-001-02-7::2.5::HTS",-0.17931046733965705,-3.3145057614557625,375],["bicyclol_BRD-K16546375-001-01-4::2.393310671::MTS004",-0.1624971044545656,-2.8294224959522283,380]]},"para":{"top":[["merbarone_BRD-K45152786-001-08-4::2.5::HTS",0.17062827875247802,-3.124824632941845,387],["lofemizole_BRD-K06388517-001-01-2::2.5::MTS004",0.1765807353826595,-3.2643429373838666,380]],"bottom":[["chloroquine_BRD-A91699651-316-10-9::2.5::HTS",-0.16941111333282446,-3.1137403195895024,391],["tiludronate_BRD-K10845183-304-01-6::2.5::HTS",-0.17623001973494784,-3.2163116566488257,375],["metatinib_BRD-K27182532-001-02-3::2.5::HTS",-0.1681139621288871,-3.0794813375238475,392],["scopolamine_BRD-K64990126-004-01-1::2.5::HTS",-0.16614843677221214,-3.024370874079293,393],["SB-271046_BRD-K82467063-001-02-7::2.5::HTS",-0.16513813399035063,-2.8759139754752225,375]]}}}
{"prism_secondary_logfold":{"corr":{"top":[["galeterone_BRD-A07986123-001-02-8::10::HTS002",0.19393527605655886,-3.2962682081424926,318],["olaparib_BRD-K02113016-001-15-4::0.625::HTS002",0.21530378135930375,-4.170084662953313,337],["ryuvidine_BRD-K06426971-001-02-7::0.0024414::HTS002",0.19964180963892725,-3.6467305150205482,337],["sonidegib_BRD-K19796430-001-05-6::0.0390625::HTS002",0.19618026159788618,-2.848891382299399,262],["KP-1212_BRD-K46690591-001-01-2::2.5::HTS002",0.24641826406717005,-3.8972011472069616,237],["selumetinib_BRD-K57080016-001-15-9::0.00061::MTS010::PROS002_PR500",0.18463869996285598,-2.9539500530738176,309],["thiomersal_BRD-K61443650-236-13-1::0.625::HTS002",0.18860880276424546,-3.301139564326266,337],["semaxanib_BRD-K63504947-001-15-4::10::HTS002",0.2088911543090756,-3.2589180768999957,270],["PTC-209_BRD-K83834509-001-01-1::0.00976562::HTS002",0.193237777112147,-3.3642414640414247,328]],"bottom":[["pepstatin_BRD-K13571841-001-14-4::0.15625::HTS002",-0.20855929278548785,-3.4154924948176713,286],["lapatinib_BRD-K19687926-379-07-4::0.15625::HTS002",-0.17751524187642173,-2.9800122459357543,338],["clocortolone-pivalate_BRD-K38003476-001-09-1::0.0390625::HTS002",-0.24989922330870412,-3.7737016023109105,222],["batimastat_BRD-K82818427-001-04-8::0.00061::MTS010::PROS003_PR500",-0.2051092330946737,-3.715876230859137,326],["motesanib_BRD-K99616396-001-05-1::0.00977::MTS010::PROS005_PR500",-0.18266793856489663,-3.051330093395283,328]]},"para":{"top":[["naftidrofuryl_BRD-A67862938-034-14-9::0.0390625::HTS002",0.19706762207524123,-2.6934619434677725,243],["sonidegib_BRD-K19796430-001-05-6::0.0390625::HTS002",0.22305902040576941,-3.563096912456068,262],["oridonin_BRD-K23925186-001-02-8::0.000612254::HTS002",0.18297448390900642,-3.131884881718216,337],["nitrocaramiphen_BRD-K28453807-003-11-2::0.00061034::HTS002",0.17820575184622217,-2.9393720210058474,330],["ilomastat_BRD-K51662849-001-08-8::0.0408227::HTS002",0.20403961555102956,-3.7112110916711343,329],["menadione_BRD-K78126613-001-28-5::2.5::HTS002",0.17679596305603,-2.817338640753767,319],["PTC-209_BRD-K83834509-001-01-1::0.00976562::HTS002",0.1881856832085844,-3.2125998832486378,328]],"bottom":[["trametinib_BRD-K12343256-001-14-7::0.00061::MTS010::PROS003_PR500",-0.17395318413501326,-2.7912759005310717,326],["AST-1306_BRD-K26838195-075-04-9::0.0024414::HTS002",-0.19906193741968117,-3.1486737438961514,286],["tioxolone_BRD-K41876534-001-13-7::2.5::HTS002",-0.19260527712094133,-3.4241458726465996,337],["batimastat_BRD-K82818427-001-04-8::0.00061::MTS010::PROS003_PR500",-0.18713204191366056,-3.164803655446595,326]]}}}
{"ccle_proteomics":{"corr":{"top":[["GGNBP2_Q9H3C7",0.21436179016640822,-2.6710740558768564,203]],"bottom":[]},"para":{"top":[["SOD2_P04179",0.22652248225356733,-3.6737929225712613,263]],"bottom":[["DCDC1_M0R2J8",-0.29572755683034374,-3.431266612901087,141]]}}}
{"depmap_gene_tpm":{"corr":{"top":[],"bottom":[["BHLHA9_727857",-0.13877039880961056,-3.924214539331523,764]]},"para":{"top":[["CXCR2_3579",0.17451406355446175,-5.915158378798006,764]],"bottom":[]}}}
{"avana":{"corr":{"top":[["ELAC2_60528",0.17378493194671532,-5.904751910031033,769],["PITPNB_23760",0.19689985044033045,-7.433514047328278,769]],"bottom":[["GRIN2B_2904",-0.17019464487441588,-5.684392121320086,769],["ATF6_22926",-0.16271138552182476,-5.239632946740895,769],["LPO_4025",-0.17111398262482533,-5.740385512380107,769],["GPX1_2876",-0.17455209299625324,-5.952427393565056,769],["CACNG3_10368",-0.19187150474863554,-7.084572306555655,769],["AMFR_267",-0.19347115734402784,-7.194582991212235,769],["MICB_4277",-0.18057641121574036,-6.334063308917642,769],["GCFC2_6936",-0.18483492468817916,-6.611639509149875,769]]},"para":{"top":[["KLHL6_89857",0.14934210055849467,-4.493405333625627,769],["KNG1_3827",0.16846021048944415,-5.5795629426244036,769],["PJA2_9867",0.14489567229008884,-4.258802874791011,769]],"bottom":[["ACOT12_134526",-0.14309801299404395,-4.165861849931634,769],["LPO_4025",-0.13785412607066905,-3.9009869710261653,769],["CORIN_10699",-0.14306792769763207,-4.164315721187885,769],["CACNG3_10368",-0.14916083948100634,-4.483709914744201,769],["AMFR_267",-0.1486532600981703,-4.456619830284256,769],["MICB_4277",-0.15588719052758687,-4.8510328472979865,769]]}}}
{"drive":{"corr":{"top":[["OR2L8_391190",0.2013179611987251,-3.017432812632382,266],["TMEM240_339453",0.21957656422489616,-3.5343296599409966,268],["AZGP1_563",0.22160845507992574,-3.592293925667279,268]],"bottom":[["OR10G2_26534",-0.2301832376679957,-3.880388951080598,271],["ATP1A2_477",-0.26032358981706294,-4.84768315410956,271],["CDH1_999",-0.26559810442802523,-5.02970972495452,271]]},"para":{"top":[["OR2L8_391190",0.22492334937179867,-3.663984312503381,266],["TMEM240_339453",0.2441984098932982,-4.272691048009692,268]],"bottom":[["HOXA6_3203",-0.18708811993147048,-2.7029866770762605,271],["OR10G2_26534",-0.19545319087460156,-2.913301085870908,271],["ATP1A2_477",-0.24279046532896,-4.27011266015942,271],["ADGRB1_575",-0.22712814582423482,-3.727957370721343,266]]}}}
{"achilles":{"corr":{"top":[["IL33_90865",0.2578456311498123,-3.7857772415041637,209],["SNX25_83891",0.28315885601956753,-4.486540907155129,209],["RAB41_347517",0.2961465922405427,-4.8734048453890795,209],["DEF6_50619",0.20663347075539726,-4.036269345781272,353],["CFH_3075",0.1982067327034157,-3.7489849859187694,353],["DOCK4_9732",0.2180409093451566,-4.4439797716900244,353],["XG_7499",0.2655277015548334,-3.99115779445054,209]],"bottom":[["IGSF9_57549",-0.21663212279642388,-2.7878786067120327,209],["LRRC10_376132",-0.2137104901472718,-2.7235793732585063,209],["BAHD1_22893",-0.22919386766858477,-3.0738848601407414,209],["KRI1_65095",-0.23985302964804178,-3.3289166870223235,209],["EML1_2009",-0.2354131310466507,-5.107305012263679,353]]},"para":{"top":[["RAB41_347517",0.29342839641521773,-4.790868513343822,209],["IL33_90865",0.23436074098490567,-3.1960773071389648,209],["SNX25_83891",0.25932671143361585,-3.8248874599733114,209],["ZNF143_7702",0.2228633652797575,-4.622933280755268,353],["MIEF1_54471",0.24810533988229225,-3.5342960343012355,209],["EIF3A_8661",0.20312380112042647,-3.9151948552265567,353],["DOCK4_9732",0.2243798824172464,-4.680026879162005,353]],"bottom":[["IGSF9_57549",-0.21854635866722968,-2.8304585852297506,209],["SMPX_23676",-0.2226803906892218,-2.923641508553575,209],["PARVB_29780",-0.22727961335878258,-3.029292341357703,209]]}}}
{"ccle_rrbs_tss1kb":{"corr":{"top":[["ATP2A1_16_28888808_28889808",0.19191687129004456,-3.932221635315068,398]],"bottom":[["CCDC173_2_170550931_170551931",-0.16773261387016744,-3.5790591875186717,469]]},"para":{"top":[["ANKRD20A11P_21_15352765_15353765",0.20995525024310335,-3.077425203907879,250],["ANKRD20A19P_13_24523454_24524454",0.21252789058618193,-3.0134502330550426,238],["ZNF678_1_227750219_227751219",0.24110657759171122,-3.0661648208794414,188]],"bottom":[["TENT4A_5_6712544_6713544",-0.16098787277176074,-3.33836936839796,470],["LOC100506207_6_8434855_8435855",-0.16045712855430344,-3.276785613869256,463],["PRRT1_6_32120860_32121860",-0.23527125614654731,-3.111467098554911,201],["MIR330_19_46142345_46143345",-0.1698574833157903,-3.6249178609537007,464]]}}}
{"ccle_gene_tpm":{"corr":{"top":[["PABPC1P9_ENSG00000229658.1",0.20093342373035777,-5.896676213058169,572]],"bottom":[["ZCCHC14_ENSG00000140948.7",-0.1844785321203656,-5.04717062930565,572],["CTC-537E7.2_ENSG00000248359.1",-0.17952077137642153,-4.805334397773029,572],["LINC00434_ENSG00000227336.1",-0.20614070523600952,-6.180708274106905,572],["IVNS1ABP_ENSG00000116679.11",-0.2018037598940682,-5.943635782683612,572]]},"para":{"top":[["CXCR2_ENSG00000180871.3",0.19751873151192864,-5.7144143883162295,572],["TGM4_ENSG00000163810.7",0.17186199134701424,-4.444407780773053,572],["RP11-273B20.1_ENSG00000256967.1",0.17037549732077364,-4.3761247637790985,572],["LGALS9C_ENSG00000171916.12",0.18393431926469822,-5.020307632015983,572]],"bottom":[["RP11-435B5.4_ENSG00000185044.10",-0.17793380880898568,-4.729288671565184,572],["GDF1_ENSG00000130283.7",-0.19964634349575328,-5.827607127520966,572],["ZCCHC14_ENSG00000140948.7",-0.1746063505976086,-4.571979120065243,572],["TTC3_ENSG00000182670.9",-0.198816959981538,-5.783337050164784,572],["TRIM33_ENSG00000197323.6",-0.17445835114254304,-4.565049385868345,572],["ISYNA1_ENSG00000105655.14",-0.18342504190022996,-4.9952399619553045,572],["IVNS1ABP_ENSG00000116679.11",-0.19981567596989208,-5.8366684656383185,572]]}}}
{"ccle_rrbs_tss_clusters":{"corr":{"top":[["PCDHGA5_2",0.24770122132771819,-3.553429047444959,211],["DNAJB3_3",0.27273412348595194,-3.386636364668471,164],["MIR7160_3",0.27079412372442496,-2.7369975823337955,130]],"bottom":[["MIR4325_1",-0.20856502777829172,-5.169587475049191,458]]},"para":{"top":[["ANKRD20A19P",0.2552479117766384,-3.0598065274725657,167],["LINC01046",0.26128604025998914,-2.7400465668504594,140],["LOC100506175_1",0.3012360745511825,-3.0152515050088597,117],["PCDHGA5_2",0.2578891273281302,-3.8186808461231543,211],["DNAJB3_3",0.26480250924681353,-3.213768685518326,164],["HSD17B8_1",0.281210251704882,-3.174916311806956,143],["COL5A3_2",0.23576929496741172,-3.641657159768131,240],["DNAJC27_2",0.3447649834121484,-3.8802091307264712,118],["LOC728739_2",0.261494945465559,-4.661826517663925,257]],"bottom":[["ITPRIP_2",-0.18339082214383406,-3.263997827379196,352]]}}}
{"ccle_rrbs_cgi_clusters":{"corr":{"top":[["6_158650705_158654946-3",0.25559665007982035,-4.903305585003921,285],["2_234650246_234654720-3",0.27273412348595194,-3.386636364668471,164],["24_15864089_15866834-2",0.29996338831035085,-3.6512854541117563,147],["22_27832425_27836630-3",0.2523310236866586,-3.672615050538471,211]],"bottom":[["19_10341515_10344254-2",-0.24666221357483822,-5.009591160145998,314],["11_9635517_9638065-1",-0.22856906199028246,-3.5342698563443613,247],["17_57409466_57412145-2",-0.2019942467723466,-3.3074490901618305,294]]},"para":{"top":[["2_25194677_25197214-2",0.3447649834121484,-3.8802091307264712,118],["8_38756457_38761380-3",0.23216064620884355,-3.6204041628325285,246],["13_114425774_114428620-2",0.2291828243194637,-4.469586678238415,321],["6_158650705_158654946-3",0.25112967768172956,-4.747685218614239,285],["12_108295426_108299743-2",0.261494945465559,-4.661826517663925,257],["2_234650246_234654720-3",0.26480250924681353,-3.213768685518326,164],["24_15864089_15866834-2",0.3105213354337151,-3.888415253285192,147],["22_27832425_27836630-3",0.2445088565829309,-3.4725514649842593,211],["19_10118750_10123231-3",0.23576929496741172,-3.641657159768131,240]],"bottom":[["11_2435973_2438651-3",-0.200041744444868,-3.0323319320411546,271],["7_43620682_43625392-3",-0.19535718012313308,-4.628420454569389,462]]}}}
