{"depmap_hotspot":{"corr":{"top":[["ABCC10",0.1020724619916092,-2.3316321038015593,52.0,715.0],["BDH2",0.12293124398998295,-3.190438044687896,15.0,752.0],["BTG3",0.14851309458044523,-4.438953668784827,11.0,756.0],["C10orf120",0.10615644633699317,-2.4887589148278444,21.0,746.0],["CBR3",0.14029855787141002,-4.0141606546383315,10.0,757.0],["CHCHD5",0.13833210284845998,-3.915846836729003,9.0,758.0],["CLIC2",0.09972777294646372,-2.2438174273725076,12.0,755.0],["CNBD1",0.11682920052089765,-2.9246359243302873,31.0,736.0],["DECR2",0.14145407317769543,-4.072537517989228,17.0,750.0],["DMAP1",0.10328665995998743,-2.3777923667764367,11.0,756.0],["FAM105A",0.11944760322834053,-3.037203566752291,12.0,755.0],["GH2",0.09394538841517601,-2.034666539779709,12.0,755.0],["GIMAP4",0.12629772120792152,-3.3423003995171316,25.0,742.0],["IQCF3",0.1280149853110404,-3.4212040920703575,9.0,758.0],["KHDRBS1",0.1050031939029075,-2.4438502688339936,21.0,746.0],["MST4",0.0972857959723341,-2.154206820427713,13.0,754.0],["NLGN4X",0.10384412468484704,-2.3991425630895367,45.0,722.0],["NXPE1",0.10384209377291291,-2.3990646022115856,20.0,747.0],["OR1E2",0.12143694094749273,-3.1242220296452046,20.0,747.0],["PDX1",0.11801834495871316,-2.975481675635045,19.0,748.0],["PLA2G15",0.12194049886492368,-3.146454128269181,13.0,754.0],["RP11-766F14.2",0.11275354372067307,-2.753849509734736,61.0,706.0],["SLC43A3",0.10186915586195829,-2.323948763731146,20.0,747.0],["SNX20",0.09103810367351298,-1.9334692763257044,24.0,743.0],["STARD9",0.10462341951049266,-2.4291544202460593,121.0,646.0],["TOX3",0.10088724435881194,-2.2870249554183206,32.0,735.0],["ZNF177",0.1191406567593791,-3.0238920670236094,17.0,750.0],["ZNF200",0.10992541452000117,-2.6384943416892943,18.0,749.0],["ZNF277",0.10478543549298679,-2.4354182078284574,20.0,747.0]],"bottom":[["ARHGAP20",-0.09472899315706072,-2.062394417875703,45.0,722.0],["C14orf105",-0.12429116477048613,-3.2513357649020835,15.0,752.0],["CACNG7",-0.10257015536006313,-2.350496301135447,21.0,746.0],["CASQ2",-0.11728748140800334,-2.9441767477076355,20.0,747.0],["CCDC117",-0.09653755656978191,-2.1271256239820366,11.0,756.0],["CCDC170",-0.0951932151214479,-2.0789116882644,30.0,737.0],["CCPG1",-0.09651794360484245,-2.126418136202099,28.0,739.0],["CTNNA2",-0.10167619763941205,-2.3166686232160227,90.0,677.0],["CTSA",-0.12077829159981818,-3.0952678843298806,24.0,743.0],["DARC",-0.11061434258681635,-2.6663573289056037,24.0,743.0],["FNDC8",-0.10963527429129882,-2.626805594749592,15.0,752.0],["GALNT8",-0.1096231025975413,-2.6263158306346206,58.0,709.0],["GJA4",-0.10478587652415598,-2.435435270195192,10.0,757.0],["GPC4",-0.11744194374294628,-2.950778317224633,19.0,748.0],["GSTA5",-0.09611901040059133,-2.11205388035322,16.0,751.0],["ITGAV",-0.0991842413211601,-2.2237091851294375,34.0,733.0],["KCNJ3",-0.10722602919269601,-2.5307892784968544,40.0,727.0],["KLK12",-0.1201222096587579,-3.0665676036536516,15.0,752.0],["MAN2C1",-0.09641644940637807,-2.122758923660758,45.0,722.0],["MEF2C",-0.12630709146383332,-3.342728298034855,26.0,741.0],["NPIPB4",-0.10158825433515954,-2.313354519732265,13.0,754.0],["NPIPB7",-0.12450916128626585,-3.261154215470713,8.0,759.0],["OXGR1",-0.09733110202286982,-2.1558522498507604,27.0,740.0],["P2RY1",-0.11816314835148237,-2.98170464493793,15.0,752.0],["PDPK1",-0.10751344994063299,-2.5421461785529647,24.0,743.0],["PON3",-0.10795309711819076,-2.559569218694147,20.0,747.0],["PRR13",-0.09854635726633294,-2.2002293424281123,10.0,757.0],["PUSL1",-0.1084504681964047,-2.5793545219571743,13.0,754.0],["RBM44",-0.11709376498331911,-2.935908464047356,23.0,744.0],["SAAL1",-0.13316833486590193,-3.663846309188443,45.0,722.0],["SERTAD4",-0.09643720983747635,-2.123507144648685,14.0,753.0],["ST8SIA1",-0.10853652155078589,-2.5827857542720607,24.0,743.0],["TAS2R38",-0.10655749936284001,-2.5044758316820626,23.0,744.0],["TAS2R8",-0.12436295992694735,-3.254567656643885,23.0,744.0],["TLCD2",-0.12694580910486356,-3.3719639758365925,13.0,754.0],["TSPEAR",-0.09830390214457597,-2.191338505584534,34.0,733.0],["TTC32",-0.11786977393297107,-2.969103886617325,11.0,756.0],["UBE2M",-0.10147410307423801,-2.309056439736686,9.0,758.0],["WDR64",-0.09830473629621009,-2.1913690621621433,50.0,717.0],["YBX1",-0.11648766239933063,-2.9101173338257604,13.0,754.0],["ZBTB47",-0.1256599532420289,-3.313244330513785,33.0,734.0]]},"para":{"top":[["BDH2",0.09529784992957749,-2.378527024368291,15.0,752.0],["CXorf48",0.09980747332261429,-2.541139526981467,8.0,759.0],["DECR2",0.10353540164541879,-2.68083667011169,17.0,750.0],["GIMAP4",0.10820340123597048,-2.861513905511035,25.0,742.0],["NRIP2",0.0986266169064548,-2.4981112078603815,13.0,754.0],["NXPE1",0.10283328351688527,-2.6543195094125074,20.0,747.0],["OR1E2",0.12945612964477454,-3.768987092169964,20.0,747.0],["PUS1",0.11219904944087693,-3.0212892265908806,18.0,749.0],["RFPL4B",0.08844587949150842,-2.1427960454112682,12.0,755.0],["SAE1",0.10918451439783032,-2.900202899405015,18.0,749.0],["ZNF200",0.1071035127874691,-2.818255239950837,18.0,749.0]],"bottom":[["ARL15",-0.10373900263418308,-2.6885231632815754,15.0,752.0],["C14orf105",-0.1252352378592618,-3.577388554325177,15.0,752.0],["CASQ2",-0.117280934920084,-3.231843478071086,20.0,747.0],["CCDC117",-0.10058853401214315,-2.5701398120524215,11.0,756.0],["DAPP1",-0.10066852993260902,-2.5730091179466714,9.0,758.0],["DNAJC30",-0.1022619528697316,-2.6325256804196617,10.0,757.0],["ETFA",-0.10001235265982723,-2.5487479356421185,9.0,758.0],["FOXJ3",-0.1041217249230569,-2.703096642809294,15.0,752.0],["GJA4",-0.1131889280367765,-3.0613983494846186,10.0,757.0],["HSD11B1",-0.1046497155921509,-2.7231416672694757,11.0,756.0],["MSANTD3",-0.09609480504784787,-2.4068073869530386,13.0,754.0],["NPIPB7",-0.10705249897030705,-2.8158910625683777,8.0,759.0],["P2RY1",-0.10950109931667204,-2.9127148635574027,15.0,752.0],["PLCXD1",-0.09835290751633517,-2.4881460258100754,13.0,754.0],["PON3",-0.12040325344583923,-3.3651726923127696,20.0,747.0],["PTHLH",-0.1013793886447893,-2.599441136418972,9.0,758.0],["PUSL1",-0.10674666214667174,-2.804206354769109,13.0,754.0],["RALGPS1",-0.1025099948865772,-2.642054074966084,16.0,751.0],["RBM44",-0.12398262153859592,-3.521819235288078,23.0,744.0],["RD3",-0.11264792702518998,-3.0394865519296506,15.0,752.0],["SERTAD4",-0.10546124781049276,-2.7544307029870247,14.0,753.0],["STK24",-0.11431928860664932,-3.108003597624351,13.0,754.0],["STX17",-0.10706981066126008,-2.816772129618014,12.0,755.0],["TAS2R8",-0.14361061383731258,-4.452108846443722,23.0,744.0],["TMEM206",-0.10848015495076299,-2.872183399200672,13.0,754.0],["TTC32",-0.10606122382422675,-2.777507945480709,11.0,756.0],["UBE2M",-0.09902808675065451,-2.5126036389842508,9.0,758.0],["YBX1",-0.10907319196268896,-2.8956519420468125,13.0,754.0]]}}}
{"depmap_damaging":{"corr":{"top":[["PDPR",0.09898302313112875,-2.2162886839694433,9.0,758.0],["ZNF536",0.11121322768404057,-2.6907027366918017,9.0,758.0]],"bottom":[["C12orf60",-0.08190297864834978,-1.6325497384409604,9.0,758.0],["CASP5",-0.0875849465839295,-1.8166889900392797,8.0,759.0],["CTSA",-0.10312500734491759,-2.3716197670921932,9.0,758.0],["NBR1",-0.10027153575272314,-2.2640276880355112,24.0,743.0],["NEBL",-0.1076956838124466,-2.5493605186784847,8.0,759.0],["PDE4DIP",-0.0966776849038023,-2.1321839163081724,30.0,737.0],["RAPGEF6",-0.12515150961760466,-3.290176111682037,9.0,758.0],["SLC27A3",-0.09806963885519307,-2.1827656751840485,12.0,755.0]]},"para":{"top":[["ERF",0.08708019224208581,-2.0974104734237917,9.0,758.0],["PDPR",0.10908947159997563,-2.896117951602667,9.0,758.0]],"bottom":[["C12orf60",-0.09746966572779771,-2.4559818043745754,9.0,758.0],["CTSA",-0.09241163258343797,-2.277317712801209,9.0,758.0],["DOCK3",-0.10383369153562799,-2.6920967355301357,14.0,753.0],["LAMA3",-0.1093240922369653,-2.9056136927712024,13.0,754.0],["NEBL",-0.11818085836516302,-3.269513690548516,8.0,759.0],["PRKG2",-0.10690221402403621,-2.8100915410702156,9.0,758.0],["RAPGEF6",-0.1052617708420817,-2.746541240604433,9.0,758.0],["SAMD9",-0.0979357807245029,-2.472970227123532,12.0,755.0],["SLC27A3",-0.1026095570817527,-2.645685610219454,12.0,755.0],["SLC52A1",-0.09068610744336095,-2.218195256337137,10.0,757.0],["SYCP2",-0.10700098742782997,-2.8142075190342557,16.0,751.0]]}}}
{"ccle_rrbs_enhancer_clusters":{"corr":{"top":[],"bottom":[]},"para":{"top":[["14-30739750-30742688-0_enh",0.14637302896969315,-2.8603694850270953,475]],"bottom":[]}}}
{"prism_primary_logfold":{"corr":{"top":[],"bottom":[["iniparib_BRD-K11153516-001-05-5::2.5::HTS",-0.1704438420623359,-3.0361796376016192,375],["oxiperomide_BRD-K78096648-001-05-7::2.5::HTS",-0.19541126362866762,-3.979584183396637,389],["amifampridine_BRD-K80262108-001-07-0::2.5::HTS",-0.17942131282624685,-3.4398037783671356,391],["pimavanserin_BRD-K83405785-001-01-5::2.5::HTS",-0.16216833920470644,-2.8573415097194608,386]]},"para":{"top":[["thalidomide_BRD-A93255169-001-28-3::2.5::HTS",0.1495391987943616,-2.523214635827529,392],["propentofylline_BRD-K59273480-001-10-6::2.5::HTS",0.17026842911914064,-3.154730395189372,393]],"bottom":[["amifampridine_BRD-K80262108-001-07-0::2.5::HTS",-0.18293225439890481,-3.5583464664989704,391]]}}}
{"prism_secondary_logfold":{"corr":{"top":[["norethindrone-acetate_BRD-A09349126-001-10-7::0.15625::HTS002",0.18630431264839092,-3.082752329975317,319],["isopropyl-myristate_BRD-K13409143-001-01-9::0.00976562::HTS002",0.18052932375174546,-3.0288858684125426,333],["famciclovir_BRD-K45033733-001-12-2::0.625::HTS002",0.23314087831535535,-3.763816311586688,255],["fenbendazole_BRD-K51318897-001-15-3::0.15625::HTS002",0.19994859662419776,-3.296789461892787,299],["latrepirdine_BRD-K55703048-001-07-7::0.00976562::HTS002",0.20643057911088922,-3.110858658888886,262],["chlorquinaldol_BRD-K90374350-001-09-2::0.0024414::HTS002",0.18579908037294088,-3.1833275247663053,333],["chlorquinaldol_BRD-K90374350-001-09-2::0.15625::HTS002",0.1968799456565375,-3.5217944863321815,333]],"bottom":[["estramustine-phosphate_BRD-K00077635-304-01-2::0.00976562::HTS002",-0.19430243307467251,-3.41457342016709,330],["erdafitinib_BRD-K84868168-001-01-0::0.002441408::MTS006",-0.18822471566353205,-3.27263808841087,335],["tedizolid-phosphate_BRD-K89121095-001-01-7::0.000610351::MTS006",-0.1745426427360723,-2.894880277966339,338]]},"para":{"top":[["tiletamine_BRD-A30582499-003-05-1::0.625::HTS002",0.18217859924360158,-2.759380376558154,293],["CUDC-101_BRD-K41278234-001-03-0::0.0024414::HTS002",0.2346637127558216,-2.6843115615467807,170],["BMS-387032_BRD-K43389698-001-09-9::0.00938171::HTS002",0.1925329897080108,-3.3516459575458133,329],["chlorquinaldol_BRD-K90374350-001-09-2::0.0024414::HTS002",0.18885738050859566,-3.274877701904356,333],["chlorquinaldol_BRD-K90374350-001-09-2::0.15625::HTS002",0.2156023602459153,-4.136741413603238,333]],"bottom":[["estramustine-phosphate_BRD-K00077635-304-01-2::0.00976562::HTS002",-0.18501379387319522,-3.1356286817522276,330],["NMS-E973_BRD-K58770988-001-01-8::0.00061034::HTS002",-0.18174154747230997,-3.048309228836745,331],["erdafitinib_BRD-K84868168-001-01-0::0.002441408::MTS006",-0.1752837032775102,-2.8939635892367255,335],["tedizolid-phosphate_BRD-K89121095-001-01-7::0.000610351::MTS006",-0.1974501999089355,-3.585788514355016,338],["motesanib_BRD-K99616396-001-05-1::2.5::MTS006",-0.16807264471689293,-2.7006208353467906,336]]}}}
{"ccle_proteomics":{"corr":{"top":[["PTX3_P26022",0.2852115604669119,-3.512149964698553,156],["HLA-A_P30456",0.2742083902810445,-2.389130861880946,108]],"bottom":[["TSPAN10_Q9H1Z9",-0.3112314763415725,-4.721601357248138,182],["ARSK_Q6UWY0",-0.31274007225388784,-2.9832899291873924,107]]},"para":{"top":[["PTX3_P26022",0.3004640371229699,-3.858944124038564,156],["CDH13_P55290-4",0.2520684373048023,-3.7871219016765254,219],["SFRP1_Q8N474",0.31344601154725615,-3.405708414699584,124]],"bottom":[["TSPAN10_Q9H1Z9",-0.26345737353804327,-3.4863315739725462,182],["ARSK_Q6UWY0",-0.36996889618182266,-4.056695229469129,107],["CHTOP_Q9Y3Y2-3",-0.2160872613283268,-3.3804538700122535,263]]}}}
{"depmap_gene_tpm":{"corr":{"top":[["DAZL_1618",0.1722745809273622,-5.777468882712646,764]],"bottom":[]},"para":{"top":[],"bottom":[["TGM6_343641",-0.1221626000558024,-3.145745075211679,764]]}}}
{"avana":{"corr":{"top":[["STMN4_81551",0.22715067150384172,-9.730028401512618,769],["GFRA2_2675",0.2221827112649686,-9.329312760424996,769],["EPHX2_2053",0.3052477611168638,-17.320547838621113,769],["SORBS3_10174",0.2259610340063499,-9.633216276071247,769],["KRT39_390792",0.18142051796799827,-6.3885682248215945,769],["PBK_55872",0.2156370912404301,-8.815618804700131,769],["SCARA3_51435",0.2221660964329081,-9.327988348614822,769],["GOT1L1_137362",0.21130778342067327,-8.48470533132279,769]],"bottom":[["METTL24_728464",-0.18241577638909717,-6.4531600463783665,769],["BTN1A1_696",-0.2291192605179548,-9.891419486215716,769],["PSMB9_5698",-0.17011490658381584,-5.679549570249826,769],["PIGZ_80235",-0.16080355299529597,-5.12936752964036,769],["PRR23B_389151",-0.16016242930136884,-5.092596702001714,769],["CYP2R1_120227",-0.15992451645023584,-5.078987770683721,769],["FEZ2_9637",-0.17311061701514885,-5.863018083170512,769],["KCNK18_338567",-0.17536125658712698,-6.0029386907619315,769],["TARBP2_6895",-0.15740272533780697,-4.935942548533481,769]]},"para":{"top":[["ZDHHC2_51201",0.2107548070842798,-8.442942587967496,769],["GFRA2_2675",0.22895725921351895,-9.8780820889469,769],["EPHX2_2053",0.2978540672926745,-16.493201996103686,769],["ADAM7_8756",0.24571560370966283,-11.311546640554146,769],["SCARA5_286133",0.20040889487258792,-7.682488558164736,769],["SORBS3_10174",0.2169512102989931,-8.917454137447805,769],["PIWIL2_55124",0.2227497107950807,-9.238694610388672,757]],"bottom":[["METTL24_728464",-0.15121324795372273,-4.594146806121121,769],["BTN1A1_696",-0.1763289330815991,-6.06364942008982,769],["LAMTOR1_55004",-0.1426936382501119,-4.145106035591059,769],["PLOD1_5351",-0.13991636416288727,-3.9494536456168694,757],["PSMB9_5698",-0.13905220267288773,-3.960686331026127,769],["KCNK18_338567",-0.14256209410635454,-4.138366043189123,769],["FEZ2_9637",-0.1382975330887231,-3.923025380533442,769],["PRR23B_389151",-0.15286563406811063,-4.684106906297957,769]]}}}
{"drive":{"corr":{"top":[],"bottom":[["C5AR2_27202",-0.22528360020829113,-3.698476996030212,268]]},"para":{"top":[["ZNF24_7572",0.20347849968957776,-3.123200895524601,271],["SLC35B4_84912",0.21243179544461038,-3.3346707105728908,268],["EGLN3_112399",0.19820764574617863,-2.9844403977663534,271]],"bottom":[]}}}
{"achilles":{"corr":{"top":[["C16orf45_89927",0.2597353076847098,-3.835717828308563,209],["SUPT16H_11198",0.20549316839510065,-3.996708229664769,353],["IRF8_3394",0.20725139896802794,-4.057797594652526,353],["AFAP1_60312",0.23312111274319128,-3.1665166861162137,209],["OXGR1_27199",0.22516976824990065,-4.70992003951703,353]],"bottom":[["KCND2_3751",-0.21242307022680543,-4.240469095951469,353],["RAD51C_5889",-0.23593270217775186,-3.2337856513862486,209]]},"para":{"top":[["AFAP1_60312",0.23635095762983763,-3.243860844503005,209],["CLK3_1198",0.19462189261846025,-3.630304423771145,353],["OXGR1_27199",0.206039235071904,-4.01562630802502,353]],"bottom":[["ADAMTS19_171019",-0.210802077180883,-4.1827326605052075,353]]}}}
{"ccle_rrbs_tss1kb":{"corr":{"top":[["PEX10_1_2344010_2345010",0.18119397319311087,-4.046568892504648,462],["TRMT1L_1_185126230_185127230",0.18179228863293515,-4.085730550660758,464],["CIAO3_16_791038_792038",0.20306850847096158,-4.963333368831105,462],["SMIM1_1_3688324_3689324",0.18253461249627137,-4.146506022069245,468],["LOC391322_22_24372100_24373100",0.17987410355825326,-2.6534230808110717,287],["SMIM1_1_3688350_3689350",0.1835021068100799,-4.1856498306773435,468],["TRMT1L_1_185126116_185127116",0.18228572906479926,-4.128710142929576,467],["PRKAR1A_17_66506920_66507920",0.2144822635259832,-2.4834501181637942,186]],"bottom":[]},"para":{"top":[["DYNLL1_12_120906659_120907659",0.20546228183036247,-5.138505904419585,469],["ZFPM1_16_88519013_88520013",0.19730424221954146,-4.766072997945971,468],["MRPS34_16_1823140_1824140",0.2139564377096157,-5.490165233706331,465],["PRPF38A_1_52869218_52870218",0.19314852714046282,-4.3696789457859255,443],["SLC37A4_11_118900278_118901278",0.21049424764826968,-5.328925840688932,465],["SLC2A1-AS1_1_43423719_43424719",0.19805997485327556,-4.799050970743889,468],["PRKAR1A_17_66506920_66507920",0.3371220676572472,-5.595845530134993,186],["RNF114_20_48551913_48552913",0.2085070156700756,-5.28799085204605,470],["PRR3_6_30523485_30524485",0.21094518915872487,-5.401350129032598,470],["RSRC2_12_123011560_123012560",0.1962934572821063,-4.686322064971426,464],["MRPL23_11_1967501_1968501",0.19460566132173293,-4.640525966841632,467],["TPMT_6_18155400_18156400",0.20967605024555794,-5.342176936104016,470],["TMEM50B_21_34852316_34853316",0.19532260969390902,-4.662448818622349,466],["ERICH2_2_171626191_171627191",0.20086917485890332,-4.913364945084972,467]],"bottom":[["LINC02348_15_102154542_102155542",-0.1716992199232355,-3.1937107651025722,392]]}}}
{"ccle_gene_tpm":{"corr":{"top":[["MYCBP2-AS2_ENSG00000229521.2",0.1879758773670731,-5.221675068002406,572],["RP11-52L11.6_ENSG00000249580.1",0.1773356574229557,-4.700797030876359,572],["SMC5_ENSG00000198887.7",0.15836888647589065,-3.8454612610973244,572],["RN7SL395P_ENSG00000244307.2",0.15313684387860554,-3.6257289287822534,572]],"bottom":[["RPL18P13_ENSG00000244485.1",-0.15153875997889646,-3.5599937783824522,572],["RP5-872K7.7_ENSG00000228604.3",-0.1518054967392704,-3.5709208947325544,572],["UBA52P9_ENSG00000244329.1",-0.16375305050155617,-4.078853884430926,572]]},"para":{"top":[["GS1-383H3.6_ENSG00000270794.1",0.15061432867666916,-3.522262224282102,572],["RN7SL258P_ENSG00000240589.2",0.15299170255016184,-3.619732128311375,572],["AF131216.6_ENSG00000246477.2",0.17697931304531378,-4.6838678372779885,572],["RP11-52L11.6_ENSG00000249580.1",0.1507301180694928,-3.526976498880296,572],["RP11-520D19.2_ENSG00000241593.1",0.17105294990058292,-4.407172927683274,572],["RP13-200J3.2_ENSG00000257037.1",0.16932927979056453,-4.328409261081016,572],["ISCA1P6_ENSG00000227653.1",0.1672008296001331,-4.232208736460249,572],["RP5-855D21.1_ENSG00000272240.1",0.17309479384531368,-4.501472251144848,572],["RP11-236F9.2_ENSG00000228522.2",0.15451991919580985,-3.6831403787987442,572],["SMC5_ENSG00000198887.7",0.15707545800627895,-3.7904946376447803,572],["TPM3P1_ENSG00000213050.4",0.15531378795512255,-3.7163123984834567,572]],"bottom":[["CTD-2535P7.1_ENSG00000262271.1",-0.1499986591821247,-3.4972523414844168,572],["GOLGA2P1_ENSG00000205333.5",-0.14070238819134,-3.131144406142876,572],["SIGLEC30P_ENSG00000224896.2",-0.14928739146038034,-3.4684776202547654,572],["RP11-268G13.1_ENSG00000261411.1",-0.15434710993584075,-3.6759406334803484,572]]}}}
{"ccle_rrbs_tss_clusters":{"corr":{"top":[["CIPC_2",0.22135451827336564,-3.199610442910646,235],["KSR2_3",0.25304262957616575,-3.106596827856503,173],["USP30-AS1_2",0.2058281285905015,-3.1052390285948466,263],["HPN-AS1_3",0.2160758004042404,-3.402368761196913,265]],"bottom":[]},"para":{"top":[["KSR2_3",0.303025012977689,-4.2951742378276805,173],["SRSF4_2",0.23561406109572697,-3.0926790362617784,199],["ATG2B",0.21992901662469622,-5.8865880331980875,475],["OSBPL2_2",0.21123002322254558,-5.435358761610662,472],["TRAPPC6A_1",0.237114404737806,-6.7552841081018755,474],["TMEM185A_3",0.2691513215702809,-2.7259374604236086,131],["MYCL_3",0.21226593297704932,-5.515504235655051,475],["ZNF862_1",0.23774216648470603,-3.4399094425532812,221],["MARCH9_2",0.2125352607550188,-5.172101883083731,441]],"bottom":[["TBCE_2",-0.3167938414402547,-2.97830720023505,104]]}}}
{"ccle_rrbs_cgi_clusters":{"corr":{"top":[["14_77561965_77566697-2",0.22135451827336564,-3.199610442910646,235],["12_118404590_118409364-3",0.25304262957616575,-3.106596827856503,173]],"bottom":[]},"para":{"top":[["7_149533243_149538037-1",0.23774216648470603,-3.4399094425532812,221],["23_148710839_148715679-3",0.2691513215702809,-2.7259374604236086,131],["23_149734720_149737238-3",0.24717544683769072,-2.6844065165486697,153],["19_45682239_45685156-1",0.23393588550728964,-6.5746818422440185,473],["12_118404590_118409364-3",0.303025012977689,-4.2951742378276805,173],["14_96827340_96832334-1",0.21992901662469622,-5.8865880331980875,475]],"bottom":[["14_91753280_91757564-2",-0.1859352754904849,-3.3022354231655378,347]]}}}
