{"depmap_hotspot":{"corr":{"top":[["B3GNT7",0.09852297607779341,-2.199371145528846,16.0,751.0],["BPIFB3",0.11215626448386393,-2.7292726076308926,34.0,733.0],["CCDC137",0.10164403245027154,-2.3154562081250045,18.0,749.0],["CIAO1",0.11248366294405768,-2.742730168795064,11.0,756.0],["CXorf21",0.0810567121055696,-1.6059718478184322,10.0,757.0],["DMXL2",0.1326930954353764,-3.641100895911101,91.0,676.0],["EMC3",0.10158969452073983,-2.313408772714064,8.0,759.0],["KRTAP21-1",0.1258793698593248,-3.323225611268221,10.0,757.0],["METAP1D",0.09573949523438284,-2.098435216448293,17.0,750.0],["PSPN",0.13656665601106838,-3.828687365142814,9.0,758.0],["TVP23A",0.09353948203482597,-2.0203791067419536,9.0,758.0],["ZNF726",0.09979607738071887,-2.246350991170722,14.0,753.0]],"bottom":[["ACTR1A",-0.10496390537777102,-2.442327816831268,17.0,750.0],["ALPI",-0.11786233501116639,-2.968784740880145,36.0,731.0],["AMDHD1",-0.11233170841000138,-2.736479846471198,10.0,757.0],["BCAN",-0.11009890862115523,-2.6454967497259316,45.0,722.0],["C6",-0.11723868021254562,-2.9420926452969205,69.0,698.0],["CAMSAP3",-0.10692862323038452,-2.5190656715760467,58.0,709.0],["COIL",-0.13984461994680605,-3.9913505056829206,25.0,742.0],["CTH",-0.10467709930594372,-2.431228836836558,18.0,749.0],["DDX43",-0.12340364967208613,-3.2115237151617246,24.0,743.0],["DGKE",-0.115437759439502,-2.865723733949008,31.0,736.0],["DHX30",-0.10522898101699266,-2.452609190434123,32.0,735.0],["DLX4",-0.12656899780873782,-3.3547001238078793,14.0,753.0],["ESYT2",-0.10925386336963858,-2.6114810226847256,41.0,726.0],["FAR2",-0.11504971446545875,-2.8494063317498557,17.0,750.0],["FBXO5",-0.10905294911625092,-2.6034273514876007,15.0,752.0],["GCAT",-0.1264211840523036,-3.3479407281273597,20.0,747.0],["GDF10",-0.1340300011131974,-3.7052782615007955,36.0,731.0],["GINS4",-0.10481790022638429,-2.436674351000085,9.0,758.0],["HRG",-0.11342758679243269,-2.781723476382632,32.0,735.0],["HSD17B1",-0.12200310599112935,-3.149224037969379,11.0,756.0],["IFT81",-0.11103613224700828,-2.6834915638740897,24.0,743.0],["KHDRBS2",-0.10677609117069006,-2.5130639085578528,33.0,734.0],["KLC1",-0.11700321610424137,-2.9320478042605025,26.0,741.0],["MED23",-0.13126855086653455,-3.573370794075845,39.0,728.0],["MPHOSPH8",-0.12044244740575664,-3.0805588201362193,27.0,740.0],["MXRA7",-0.12182608245063291,-3.1413953512015143,10.0,757.0],["MYOZ1",-0.1155302598997529,-2.8696206113081444,14.0,753.0],["NFYA",-0.11858415300549373,-2.999836237851531,10.0,757.0],["NOD2",-0.11285697864760631,-2.758117360369757,46.0,721.0],["NPDC1",-0.10930299824328245,-2.6134525726569717,14.0,753.0],["NXPE3",-0.11811219499540697,-2.979514130609439,27.0,740.0],["OLIG2",-0.10789033518076926,-2.557078198806533,26.0,741.0],["OR2AJ1",-0.10377439904079504,-2.3964667471430414,18.0,749.0],["PCDHGA8",-0.10935208073307555,-2.6154227949308884,54.0,713.0],["PCOLCE2",-0.11908069327014727,-3.021295188723058,26.0,741.0],["PRRT1",-0.1271727138609149,-3.3823823591598705,11.0,756.0],["PTS",-0.10614720203474518,-2.4883972449154435,9.0,758.0],["RASSF5",-0.11415858358367313,-2.8121187008073796,13.0,754.0],["RBCK1",-0.12786436005038368,-3.4142443117884755,27.0,740.0],["RERG",-0.10935992066013571,-2.6157375694457063,9.0,758.0],["RGS7BP",-0.11656343620256523,-2.9133351636280413,12.0,755.0],["SOCS2",-0.11179750507658275,-2.714565681625787,10.0,757.0],["ST3GAL6",-0.10935419874535274,-2.6155078315672475,17.0,750.0],["SWT1",-0.12078116676632096,-3.0953939679888083,32.0,735.0],["SYT7",-0.10729910858812006,-2.5336743680820133,15.0,752.0],["TBC1D24",-0.11606617081078739,-2.892252197712238,17.0,750.0],["TFEB",-0.10733570056764799,-2.5351196193265424,23.0,744.0],["THOC3",-0.1055093399350118,-2.4635077477889094,18.0,749.0],["TM4SF19",-0.13672596340987817,-3.83650947807844,8.0,759.0],["TTR",-0.10924096055236503,-2.6109634222311784,10.0,757.0],["VPS37B",-0.12010673425201855,-3.0658923302688055,14.0,753.0],["ZBTB10",-0.13319711397974102,-3.6652261189824493,63.0,704.0],["ZNF454",-0.117320491140118,-2.945586899480331,31.0,736.0],["ZNF808",-0.10944557665713081,-2.619177959835364,33.0,734.0]]},"para":{"top":[["AC008394.1",0.0903599712927611,-2.207010504630015,8.0,759.0],["B3GNT7",0.10316923618238391,-2.666935872820363,16.0,751.0],["CXorf21",0.10475362789856132,-2.727077388272084,10.0,757.0],["CYP21A2",0.09674370190870904,-2.4300771150073643,15.0,752.0],["GATAD1",0.099264379436711,-2.5213862280174055,12.0,755.0],["KRTAP21-1",0.11648520366916333,-3.1980363009278205,10.0,757.0],["LRP2BP",0.10321345709621463,-2.668452111409013,11.0,756.0],["METAP1D",0.11209503564440507,-3.0170419813053555,17.0,750.0],["MSC",0.09975558212208609,-2.5395603013410377,17.0,750.0],["NOS1AP",0.11433271086815534,-3.108754723168243,21.0,746.0],["PSMG4",0.10807584404598845,-2.856121950935443,10.0,757.0],["SPG21",0.09359416273370576,-2.31851620714312,12.0,755.0],["TNNC2",0.09413810911498563,-2.337474060666478,10.0,757.0],["ZNF726",0.1192954912168654,-3.317370139819439,14.0,753.0]],"bottom":[["AMDHD1",-0.1044162153210883,-2.7141617087779064,10.0,757.0],["ANKRD10",-0.09534211626912706,-2.3800409939503893,13.0,754.0],["C2CD4A",-0.1002266875876209,-2.5568556351574676,14.0,753.0],["EIF4B",-0.10452889464644885,-2.7186758676557057,16.0,751.0],["FAM209A",-0.11150187944802271,-2.9927723369559303,10.0,757.0],["GCAT",-0.1256871929822647,-3.597748096540573,20.0,747.0],["GYG2",-0.1070422027163871,-2.8158162244555,16.0,751.0],["HSD17B1",-0.11926007902480083,-3.3157345857265685,11.0,756.0],["MRPL2",-0.11285866467027579,-3.0479853857720878,12.0,755.0],["MXRA7",-0.10958122323779144,-2.915717772981037,10.0,757.0],["MYL3",-0.1104117772746482,-2.948898426159406,10.0,757.0],["MYOZ1",-0.10594512927574498,-2.773120378263183,14.0,753.0],["PBDC1",-0.09492699078743576,-2.3651925799087503,9.0,758.0],["PRRT1",-0.11963152860648106,-3.331665432458663,11.0,756.0],["PSME2",-0.09665572603920776,-2.4267539981334676,10.0,757.0],["RASL11A",-0.1218578500950807,-3.4279997327677774,10.0,757.0],["RASSF5",-0.10936972428480009,-2.907427562178433,13.0,754.0],["SLC35G5",-0.09620544165518088,-2.4106865298382205,11.0,756.0],["SOCS2",-0.12081965754900971,-3.38285994519845,10.0,757.0],["SYT7",-0.11096821544209944,-2.9714365480616416,15.0,752.0],["TSPYL1",-0.10221283474970129,-2.630567390722859,8.0,759.0]]}}}
{"depmap_damaging":{"corr":{"top":[["ANKRD24",0.09628232823612923,-2.117928364365454,8.0,759.0],["WDFY4",0.08501906217742768,-1.732304737732086,16.0,751.0]],"bottom":[["CNTN1",-0.0939147042788323,-2.0335846925316234,14.0,753.0],["CNTRL",-0.11205851686424123,-2.725261442302579,34.0,733.0],["ZBTB10",-0.11580468296121277,-2.881197890332808,25.0,742.0],["ZNF208",-0.09324131130110795,-2.0099166748980597,11.0,756.0]]},"para":{"top":[["SMC1B",0.1052847260123801,-2.747361685657436,8.0,759.0],["SYT4",0.10693659206872627,-2.8113682792786747,8.0,759.0],["WDFY4",0.09084990646252256,-2.223955771833558,16.0,751.0]],"bottom":[["ABCA1",-0.10287054236079794,-2.6555277566908284,12.0,755.0],["ANO6",-0.09847440104323361,-2.492341881108539,8.0,759.0],["CPVL",-0.1119301406129775,-3.0101578941300304,11.0,756.0],["LMO7",-0.11358348474644478,-3.0777683444555652,15.0,752.0]]}}}
{"ccle_rrbs_enhancer_clusters":{"corr":{"top":[],"bottom":[["20-37874814-37879600-0_enh",-0.17743697321525495,-3.3440037395672837,387]]},"para":{"top":[],"bottom":[]}}}
{"prism_primary_logfold":{"corr":{"top":[["trichlormethiazide_BRD-A28940325-001-24-0::2.5::HTS",0.16356802155416897,-2.931487028215686,391],["dexpanthenol_BRD-A59413292-001-08-2::2.5::HTS",0.15106943177423424,-2.561326490782019,391],["mCPP_BRD-K75844781-003-08-0::2.5::HTS",0.18796729489084443,-3.7155540296039793,389],["1-deoxymannojirimycin_BRD-K89665618-003-02-5::2.5::HTS",0.1854849041188902,-3.6297070953655712,389]],"bottom":[["iododexetimide_BRD-A46813902-001-01-6::2.5::HTS",-0.16373063253852319,-2.9364792136309132,391],["eprinomectin_BRD-A91366704-001-01-9::2.5::HTS",-0.16969221342672983,-3.115824449240853,390],["RG4733_BRD-K22024824-001-03-7::2.5::HTS",-0.18237884940763294,-3.5395163028557337,391],["procodazole_BRD-K54824716-001-04-0::2.5::HTS",-0.17217193543987241,-3.1948922339554415,390],["idelalisib_BRD-K60866521-001-07-1::2.5::HTS",-0.17921157186257516,-3.447953038732979,393]]},"para":{"top":[["mCPP_BRD-K75844781-003-08-0::2.5::HTS",0.17740059708088238,-3.35769058844002,389],["1-deoxymannojirimycin_BRD-K89665618-003-02-5::2.5::HTS",0.1936228509699229,-3.915243615798164,389],["hydrocortisone-butyrate_BRD-K99199077-001-16-1::2.603211317::MTS004",0.1715802082468452,-3.1060812353415446,380]],"bottom":[["closantel_BRD-A19952358-001-11-3::2.5::HTS",-0.18521796116836203,-3.62861950509197,390],["iododexetimide_BRD-A46813902-001-01-6::2.5::HTS",-0.17086432447402183,-3.1599878525508065,391],["mepiroxol_BRD-K78299798-001-02-2::2.5::HTS",-0.1834847416622386,-3.5851315301235105,392]]}}}
{"prism_secondary_logfold":{"corr":{"top":[["isofloxythepin_BRD-A07704283-001-01-3::0.625::HTS002",0.1930623323778381,-3.429547912066469,336],["isoxsuprine_BRD-A16700644-003-04-4::0.00061034::HTS002",0.24035148909557397,-3.299565773366294,206],["NH125_BRD-K31086665-005-04-6::0.00976562::HTS002",0.18146955652497254,-3.1110005362750774,340],["ABT-702_BRD-K36021395-300-02-4::0.625::HTS002",0.18079968620966314,-3.0911880587463454,340],["lacitol_BRD-K40787673-001-02-1::0.625::HTS002",0.2500378168671373,-3.5385301010922974,206],["2,3-DCPE_BRD-K61734568-003-02-1::10::HTS002",0.19226491651904398,-3.3785538084962354,333],["temoporfin_BRD-K63712959-001-01-8::0.625::MTS010::PROS005_PR500",0.18894728818058074,-3.235215429683086,328],["raloxifene_BRD-K63828191-003-32-1::0.00976562::HTS002",0.22158245810917335,-3.299274503133264,243],["RN-1734_BRD-K95581532-001-01-5::0.0390625::HTS002",0.19691944930248786,-3.523034691471138,333]],"bottom":[["atenolol-(+\/-)_BRD-A20239487-001-24-9::0.625::HTS002",-0.21350205470641426,-3.9147487836020525,319],["KI-16425_BRD-A25569250-001-03-3::2.5::HTS002",-0.22708984152007897,-4.601910466040035,338],["fendiline_BRD-A71033472-003-23-9::10::HTS002",-0.20135804623130038,-3.663914498779658,333],["LY2801653_BRD-K18961567-001-01-1::0.15625::MTS010::PROS002_PR500",-0.18396783011275514,-2.8220851283978092,295],["ARRY-334543_BRD-K46386702-001-02-1::0.0391::MTS010::PROS001_PR500",-0.19540636658202115,-3.4124195119874527,326],["alpelisib_BRD-K54997624-001-06-0::0.00061::MTS010::PROS002_PR500",-0.1927212611415754,-3.180944128807724,309]]},"para":{"top":[["isoxsuprine_BRD-A16700644-003-04-4::0.00061034::HTS002",0.225874458021744,-2.959921260651964,206],["favipiravir_BRD-K04264130-001-01-4::0.625::HTS002",0.18694573036286075,-3.2174866572384384,333],["LY2874455_BRD-K17203476-001-01-9::0.0390625::HTS002",0.19056984247160022,-3.1974155872743117,318],["AZD4547_BRD-K28392481-001-05-1::0.625::HTS002",0.21483211383405137,-4.132059111023629,335],["KX2-391_BRD-K29968218-001-03-2::0.0024414::HTS002",0.1989043753629273,-3.5014568727060156,324],["NH125_BRD-K31086665-005-04-6::0.00976562::HTS002",0.18406345442240318,-3.1883683210603864,340],["icotinib_BRD-K31698212-001-02-9::0.0391::MTS010::PROS003_PR500",0.21739572802601118,-4.12075299017324,326],["lacitol_BRD-K40787673-001-02-1::0.625::HTS002",0.2426897654657396,-3.3563827962519968,206],["satraplatin_BRD-K42497885-001-01-1::0.00061034::HTS002",0.21005871207996862,-3.959330866152467,334],["2,3-DCPE_BRD-K61734568-003-02-1::10::HTS002",0.18397129340151103,-3.1292872504764357,333],["barasertib-HQPA_BRD-K63923597-001-10-0::0.0024414::HTS002",0.18282897483377641,-3.0241074504050256,324],["RN-1734_BRD-K95581532-001-01-5::0.0390625::HTS002",0.20288565523500937,-3.7131048831999864,333],["felbamate_BRD-K99107520-001-24-1::0.000610351::MTS006",0.18233432242935246,-3.0971412201967237,335],["linifanib_BRD-K99749624-001-07-0::0.0024414::HTS002",0.1791782793692059,-3.0129225875236907,336]],"bottom":[["atenolol-(+\/-)_BRD-A20239487-001-24-9::0.625::HTS002",-0.19624158099104777,-3.3740972081071146,319],["KI-16425_BRD-A25569250-001-03-3::2.5::HTS002",-0.20267791583381564,-3.7548427669868225,338],["fendiline_BRD-A71033472-003-23-9::10::HTS002",-0.21570205982226,-4.140163337327906,333],["LY2801653_BRD-K18961567-001-01-1::0.15625::MTS010::PROS002_PR500",-0.2130041903238551,-3.641266461676095,295],["tivantinib_BRD-K33379087-001-07-5::0.00061::MTS010::PROS004_PR500",-0.2092660107761167,-3.9018562153005174,331],["ARRY-334543_BRD-K46386702-001-02-1::0.0391::MTS010::PROS001_PR500",-0.1815866920402049,-3.004532303741354,326],["alpelisib_BRD-K54997624-001-06-0::0.00061::MTS010::PROS002_PR500",-0.1887287268784333,-3.06767104142678,309],["4E1RCat_BRD-K67173685-001-06-9::0.14924::HTS002",-0.2123878722595366,-3.537153074874779,287]]}}}
{"ccle_proteomics":{"corr":{"top":[["ITSN2_Q9NZM3-4",0.416971966459536,-4.84155825079874,101],["DENND2D_Q9H6A0",0.37709005750127594,-4.310530668366932,110]],"bottom":[["CREG1_O75629",-0.25025179805453013,-3.947211700986173,233],["FABP4_P15090",-0.2614798420330758,-2.440863951492448,122]]},"para":{"top":[],"bottom":[["CREG1_O75629",-0.2638916031839076,-4.344586124930565,233],["MLF2_Q15773",-0.20726653065559722,-3.143047470081022,263]]}}}
{"depmap_gene_tpm":{"corr":{"top":[["P2RY12_64805",0.12646290187148523,-3.338593543603007,764]],"bottom":[["MYOC_4653",-0.17814078638364764,-6.141878307398711,764],["EPYC_1833",-0.22307361927806435,-9.343707751403326,764],["ZC3HAV1L_92092",-0.1480513985953754,-4.399259903935156,764],["GRIN2C_2905",-0.14206078053257282,-4.0893185275376585,764],["DIRC1_116093",-0.13876245650168756,-3.9238203962766747,764]]},"para":{"top":[],"bottom":[["FRG2B_441581",-0.15911755802169777,-5.003828190905977,764],["PRAMEF5_343068",-0.1359184890502106,-3.784039832881037,764]]}}}
{"avana":{"corr":{"top":[["DNM3_26052",0.22848275834576814,-9.839074784810538,769],["MPZL1_9019",0.2500335567149919,-11.698685972845704,769],["ATP1B1_481",0.25067096933711547,-11.756460083606985,769],["ACBD6_84320",0.2880632921776266,-15.433929870895357,769],["SEC16B_89866",0.22470723774507423,-9.531767115096363,769],["MPC2_25874",0.22330324978415259,-9.41887552123137,769],["SLC25A44_9673",0.2639746872455297,-12.999362644648375,769],["SWT1_54823",0.29625750365178194,-16.317661865254156,769],["TNFSF4_7292",0.27526317460952315,-14.110296017833615,769],["SELP_6403",0.23670256429634523,-10.527044905234648,769]],"bottom":[["GPX6_257202",-0.16293631280027257,-5.252716259459925,769],["ATP4A_495",-0.16119940578129655,-5.152142362839789,769],["CSNK1G2_1455",-0.16769278555859699,-5.533516585921235,769],["CITED1_4435",-0.1669727169768591,-5.1122137356119115,710],["FBXL6_26233",-0.1714780578831958,-5.762642170053296,769],["SPANXN1_494118",-0.16551561397416825,-5.101549625778154,721],["RNF224_643596",-0.1681283189764851,-5.559623747964489,769],["MTM1_4534",-0.20266572202568467,-7.394591946693135,721],["SSTR4_6754",-0.21616336391169616,-8.856323483946662,769],["POPDC2_64091",-0.1800789839545473,-6.302062897771489,769]]},"para":{"top":[["PAPPA2_60676",0.22101793368636719,-9.23671866182203,769],["SERPINC1_462",0.22571264222348741,-9.61307041960168,769],["ATP1B1_481",0.2647879934613122,-13.077660398986994,769],["ACBD6_84320",0.28618416499866073,-15.235299995967537,769],["SEC16B_89866",0.2116236794354534,-8.508614096897086,769],["SELL_6402",0.21672536700460365,-8.899906625389447,769],["TNFSF4_7292",0.240190984647064,-10.826916189142352,769],["SELP_6403",0.22775445358993274,-9.779370703549075,769]],"bottom":[["MTM1_4534",-0.16331020269988283,-4.979841072515633,721],["CITED1_4435",-0.15677273397261318,-4.565862997046837,710],["ARHGAP4_393",-0.15357271767245492,-4.461339641029369,721],["TNK1_8711",-0.15217721481794252,-4.6465138710992,769],["SSTR4_6754",-0.15995546581999553,-5.080757005774494,769]]}}}
{"drive":{"corr":{"top":[["EHMT2_10919",0.26200492738439524,-4.905286540057262,271],["PGLYRP2_114770",0.21882835605359158,-3.490353707230609,266],["MRGPRF_116535",0.23086259779730567,-3.8629900235903967,268]],"bottom":[["ZNF148_7707",-0.20491384211518116,-3.1615894391696053,271],["MBOAT7_79143",-0.1778471954979632,-2.5188452887333685,276],["SMUG1_23583",-0.21607738783618252,-3.4135238628613576,266],["ANKRD20A8P_729171",-0.21162999195524057,-3.344662850624655,271]]},"para":{"top":[["LRRCC1_85444",0.19169773138949142,-2.7913298458310187,268],["MRGPRF_116535",0.2394463618206034,-4.124015743753738,268],["PLEKHG1_57480",0.20655558451393294,-3.20581549034465,271],["EPB41_2035",0.2196542332465103,-3.5365356692589804,268],["GMPS_8833",0.19335819238103333,-2.8328957608240977,268],["EHMT2_10919",0.23587409175287005,-4.053698001830438,271]],"bottom":[["ELAC2_60528",-0.21982203361982444,-3.5757324014822203,271],["CAPZB_832",-0.22603642727975942,-3.6962030883625028,266],["CTSF_8722",-0.20420241162452185,-3.112653127045933,268],["LRTM2_654429",-0.20138690064204415,-3.03862839922066,268],["CDC42BPB_9578",-0.19515642359414864,-2.951319109691417,276],["ANKRD20A8P_729171",-0.2598313402114957,-4.830892672410368,271],["JUP_3728",-0.20710399472589852,-3.1694939689195887,266],["SEH1L_81929",-0.23183672866439087,-3.930304379474595,271],["RPS6KA2_6196",-0.2020061100814805,-3.132818716929418,276]]}}}
{"achilles":{"corr":{"top":[["PRIMA1_145270",0.23461972125636132,-3.2022725922866866,209],["SH3PXD2B_285590",0.2748873248014731,-4.249923299495792,209],["SCAMP3_10067",0.24360350799547845,-3.421390689554633,209],["SAGE1_55511",0.26548747993055505,-3.9900661194200486,209],["HMGN2P46_283651",0.24113389303290403,-3.360336861322807,209],["ARHGEF39_84904",0.2363118038362895,-3.2429169333692167,209],["OMD_4958",0.29493345382474995,-4.836465139082464,209],["IFT122_55764",0.23873713307854058,-3.301679404107487,209]],"bottom":[["FAM157B_100132403",-0.24550040035856685,-3.468710157323398,209],["SMIM20_389203",-0.23079669566921163,-3.1115040943080166,209]]},"para":{"top":[["CASC2_255082",0.24816104464253166,-3.5357061916605663,209],["NEGR1_257194",0.22209420666844965,-2.9103263415725245,209],["KLHL12_59349",0.2796600756483452,-4.385536805247782,209],["SAGE1_55511",0.26091634355112714,-3.8671219838579494,209],["CARD17_440068",0.26600697396350703,-4.004179276556951,209],["OMD_4958",0.299730531739811,-4.983513682007583,209],["HRASLS2_54979",0.23219908045640789,-3.1446298140847406,209],["C1orf115_79762",0.24918370888004301,-3.5616518355581777,209],["TMEM132D_121256",0.23716987716910257,-3.2636387400605806,209],["SH3PXD2B_285590",0.2477678527421861,-3.525759459166403,209]],"bottom":[["BTG3_10950",-0.2524542142358633,-3.6453550787364337,209],["CKAP2_26586",-0.22537405152106557,-2.9852644481078077,209],["MANBA_4126",-0.26163544255976723,-2.813358189666983,144],["ARL5A_26225",-0.23274360333507746,-3.1575451747523933,209]]}}}
{"ccle_rrbs_tss1kb":{"corr":{"top":[["AACS_12_125548912_125549912",0.17272170345137125,-3.690791496162539,458],["HOXA9_7_27205149_27206149",0.18258129517481614,-4.117252826520356,464]],"bottom":[["SLC25A40_7_87505692_87506692",-0.158547660594086,-3.233424503097835,467]]},"para":{"top":[["ETFBKMT_12_31811120_31812120",0.18017254314956707,-2.723386552707039,295],["AACS_12_125548912_125549912",0.1651676234318713,-3.4134371580075316,458],["ZNF503_10_77161652_77162652",0.16831473738746866,-3.5874967382672813,467],["NGLY1_3_25831530_25832530",0.17340512721208085,-3.5893427710188592,440],["ZC3HC1_7_129691225_129692225",0.16438327776557396,-3.410776494333315,462]],"bottom":[]}}}
{"ccle_gene_tpm":{"corr":{"top":[["SERPINB9_ENSG00000170542.5",0.16951187884582194,-4.33671677336862,572],["PHBP6_ENSG00000223981.1",0.1431065810023196,-3.223761673663087,572]],"bottom":[["RN7SKP142_ENSG00000223168.1",-0.19804460154732845,-5.742277909002514,572],["EPYC_ENSG00000083782.3",-0.20931367898049874,-6.357406883771354,572],["FTH1P21_ENSG00000249013.1",-0.1924522508569455,-5.449774847209438,572],["STATH_ENSG00000126549.5",-0.1921205787880368,-5.432690576535074,572],["LINC00523_ENSG00000196273.3",-0.22850487417312876,-7.485545641561599,572],["RP11-167H9.1_ENSG00000240246.1",-0.19804460154732845,-5.742277909002514,572],["RPS26P5_ENSG00000224602.1",-0.20237471881350286,-5.9745538945019065,572],["INTS6P1_ENSG00000250492.1",-0.20040470897826307,-5.868249306070205,572],["RP11-366L20.4_ENSG00000256259.1",-0.19015866393071965,-5.332234469642402,572],["RN7SL121P_ENSG00000263974.1",-0.21582275177037402,-6.728553620388125,572],["RP11-567L7.6_ENSG00000265313.1",-0.19544779907103152,-5.605409256095102,572],["RP11-178F10.4_ENSG00000266181.1",-0.19179873683732543,-5.416140774356012,572],["RP11-319F12.2_ENSG00000227121.1",-0.1866807602240759,-5.156675459858103,572],["RP11-449D8.3_ENSG00000266809.1",-0.18915775449244104,-5.281380366082492,572],["RP11-71E22.1_ENSG00000231491.2",-0.19730870507591047,-5.7033068575635335,572],["RP11-121E16.1_ENSG00000258100.1",-0.19082121356643517,-5.36604413424714,572]]},"para":{"top":[],"bottom":[["RP4-614C15.3_ENSG00000230352.1",-0.14222567561861257,-3.1896597564252254,572],["PRAMEF5_ENSG00000204502.2",-0.16979969014700783,-4.349828521431815,572],["RP4-673D20.5_ENSG00000236550.1",-0.14403474991960216,-3.259902091215112,572],["AC005042.2_ENSG00000227331.1",-0.15500145993450748,-3.703242652811903,572],["AC023669.1_ENSG00000229459.1",-0.1406892015063387,-3.130640367098764,572],["STRA8_ENSG00000146857.3",-0.1469249575283362,-3.373814712566933,572]]}}}
{"ccle_rrbs_tss_clusters":{"corr":{"top":[["GORAB_2",0.22435636659690208,-4.34869301277629,325],["MIR5010_1",0.19762646134145942,-3.0067422784593347,275],["GRAP2_3",0.21698940751959778,-3.517233689295718,273]],"bottom":[["TACC2_2",-0.33737493711805844,-3.3078393393912786,103]]},"para":{"top":[["MIR5010_1",0.23565364171035547,-4.099419776736436,275],["MIR8089_3",0.297663259646012,-3.6866633030713105,151],["DYSF_3",0.3063740311759927,-4.179734548342542,164],["GRAP2_3",0.20643920344467978,-3.222995038575613,273]],"bottom":[["CARNMT1_1",-0.24469119321527963,-3.5773420682444206,218]]}}}
{"ccle_rrbs_cgi_clusters":{"corr":{"top":[],"bottom":[["16_4931623_4936563-2",-0.20286852225272872,-2.7811548543648814,238],["17_35870722_35875026-1",-0.20914359025582105,-4.144652994829663,355],["10_123872791_123875462-2",-0.33737493711805844,-3.3078393393912786,103],["7_2772444_2776655-2",-0.2886859254156276,-3.266018631484379,140],["3_126750795_126755021-3",-0.2455616776369632,-5.081843673773565,322]]},"para":{"top":[["2_71678558_71683276-3",0.3063740311759927,-4.179734548342542,164]],"bottom":[["19_49711495_49716119-2",-0.26640271678554683,-2.851547768345358,141],["23_129305686_129308427-2",-0.2672259773335494,-2.849528181103347,140],["9_77640704_77645595-1",-0.24469119321527963,-3.5773420682444206,218]]}}}
