{"depmap_hotspot":{"corr":{"top":[["ABCB9",0.10216885718321082,-2.3352796534075546,33.0,734.0],["ADRA2B",0.12342968084333898,-3.2126877366236184,26.0,741.0],["ARHGAP8",0.12356488170716608,-3.218737016375216,21.0,746.0],["ATIC",0.12127824601081338,-3.117232842541024,20.0,747.0],["BEGAIN",0.11119267878606502,-2.6898654852211883,26.0,741.0],["C12orf71",0.10209063915710476,-2.3323196936896955,11.0,756.0],["CASD1",0.10707836117271702,-2.524964734260108,28.0,739.0],["CCDC65",0.12144580323708397,-3.124612582474364,26.0,741.0],["CCT4",0.10082611139843856,-2.2847362165223903,19.0,748.0],["CPA5",0.11259901475820755,-2.747479893932143,16.0,751.0],["DUSP7",0.09950696034128306,-2.2356370868934197,15.0,752.0],["GRB14",0.11909545029334843,-3.021934172063961,30.0,737.0],["GRM2",0.1123282464034733,-2.736337531125233,30.0,737.0],["HEMGN",0.12237257026356078,-3.1655962898710794,12.0,755.0],["HNRNPA0",0.11294434039735243,-2.761724704162794,14.0,753.0],["HS2ST1",0.13450682427293273,-3.72831194561669,13.0,754.0],["KIAA2022",0.10388101685721395,-2.400558976247853,68.0,699.0],["LPO",0.1191120499067974,-3.0226530249625383,32.0,735.0],["LRRC37A3",0.1040644189396099,-2.4076068243330857,43.0,724.0],["NCOA4",0.10943537680194816,-2.61876815696838,17.0,750.0],["NR5A2",0.11099640920178863,-2.6818754629858144,28.0,739.0],["OR1S1",0.10260675010482327,-2.3518864659972016,34.0,733.0],["PDCD6",0.10793136740070616,-2.5587066238154326,14.0,753.0],["POU3F4",0.12511479725668315,-3.2885137560153974,23.0,744.0],["RLN2",0.14569135141475528,-4.29045969206887,15.0,752.0],["RP11-1220K2.2",0.1091173007840916,-2.6060054845688354,98.0,669.0],["SIDT2",0.10400881356602065,-2.4054688674873916,41.0,726.0],["SMARCA5",0.10615958925431596,-2.4888818831287693,35.0,732.0],["SMPD3",0.10121465940110189,-2.299303104723365,31.0,736.0],["SPATA9",0.11680798218495599,-2.923732840771135,10.0,757.0],["TAPBPL",0.10643353621963667,-2.499612334041747,13.0,754.0],["TMEM104",0.1191742619708425,-3.025347942772098,27.0,740.0],["VNN3",0.11048798362899578,-2.6612354355110375,14.0,753.0],["ZBTB1",0.11358445646089581,-2.7882316332327033,26.0,741.0],["ZFP41",0.11408674270521293,-2.8091238597949175,10.0,757.0],["ZMAT2",0.13462023214268423,-3.733801450255843,9.0,758.0],["ZNF540",0.16583780224586475,-5.410432132818676,25.0,742.0],["ZNF554",0.10576713986844294,-2.473551501579407,16.0,751.0]],"bottom":[["ADAP2",-0.1318599621160222,-3.6014076253600233,11.0,756.0],["C12orf45",-0.12927810828711164,-3.479863061878304,13.0,754.0],["C17orf75",-0.10905516875912641,-2.6035162553207574,14.0,753.0],["C1orf63",-0.10250223235861504,-2.3479171629593862,17.0,750.0],["CNN1",-0.12220719407753697,-3.1582623647799197,15.0,752.0],["CTD-3074O7.11",-0.11811004302228482,-2.9794216346436633,18.0,749.0],["DDI2",-0.10536382587134098,-2.4578479625523157,13.0,754.0],["DNAJC25",-0.1039213499012579,-2.402107991758253,11.0,756.0],["DNAJC6",-0.13728504417989057,-3.8640279694263096,36.0,731.0],["GP9",-0.10112523019755398,-2.2959461140523905,8.0,759.0],["HDDC3",-0.11091835210354338,-2.6787012517001005,10.0,757.0],["HEY2",-0.10381582323558237,-2.39805627006281,15.0,752.0],["ID1",-0.12735456817975618,-3.390744507650324,13.0,754.0],["IL1B",-0.11471979804306534,-2.8355716377738496,15.0,752.0],["KDM3B",-0.11144201197137027,-2.700033593540021,65.0,702.0],["KRT19",-0.11399615707037901,-2.805349984224315,28.0,739.0],["KRT79",-0.10339029182913911,-2.381753854224717,29.0,738.0],["MAK16",-0.15317480753141383,-4.690214623909052,8.0,759.0],["MATK",-0.11147034012171951,-2.701190117076197,25.0,742.0],["MRPL20",-0.10897382233323405,-2.600259102723502,9.0,758.0],["NCDN",-0.11426656683390245,-2.8166233565217222,33.0,734.0],["NKX2-4",-0.1044047982052111,-2.4207154468886958,19.0,748.0],["NOP2",-0.142108235399736,-4.105785253850702,30.0,737.0],["NPNT",-0.1169254595673776,-2.9287346884074363,19.0,748.0],["PAX2",-0.10102078869849714,-2.2920288008471545,17.0,750.0],["PEX11B",-0.13612522294101612,-3.8070570190104,14.0,753.0],["PITX3",-0.1107809923459743,-2.6731202471983324,9.0,758.0],["PPP4C",-0.1349078107212692,-3.747740918849977,11.0,756.0],["PYROXD1",-0.10406782639973314,-2.4077378689196363,21.0,746.0],["R3HCC1L",-0.10150808027863806,-2.3103353343624886,27.0,740.0],["REN",-0.11744026268672071,-2.9507064287517166,8.0,759.0],["RFK",-0.12844630715960656,-3.4411751961178636,13.0,754.0],["RFTN2",-0.1072884349528422,-2.5332528787403317,17.0,750.0],["RNF216",-0.10606418026853373,-2.4851503627091023,29.0,738.0],["RTEL1",-0.12142372495834522,-3.123639661085034,52.0,715.0],["SLC25A38",-0.13496812923040213,-3.750668170418668,12.0,755.0],["SLC44A3",-0.12608649032578323,-3.3326620898032324,32.0,735.0],["SLC46A1",-0.12299496898380496,-3.1932781165993633,9.0,758.0],["SOX2",-0.10359102819278199,-2.3894370292295375,14.0,753.0],["SRP68",-0.11244780426672113,-2.7412545274860913,26.0,741.0],["SWT1",-0.1257844390169831,-3.3189052529881,32.0,735.0],["TEX2",-0.10924034800353727,-2.610938850977443,48.0,719.0],["TRAPPC3L",-0.10109926785936253,-2.294972015351069,11.0,756.0],["TSTD2",-0.10985724443858982,-2.635745572625584,14.0,753.0],["UFD1L",-0.1144678883465891,-2.825031813293677,8.0,759.0],["YOD1",-0.11944294516566031,-3.03700132855959,9.0,758.0],["ZBTB24",-0.103823788310116,-2.398361967312164,22.0,745.0],["ZNF644",-0.10802868559515946,-2.562570999553375,60.0,707.0]]},"para":{"top":[["ACBD4",0.0917513390974695,-2.254512651141554,8.0,759.0],["ACER1",0.10209061932312352,-2.626042252536441,9.0,758.0],["ADH4",0.10849681563014464,-2.8728734186579996,14.0,753.0],["ARHGAP8",0.13520788208878487,-4.038945461447312,21.0,746.0],["AZGP1",0.09672581127020158,-2.4293097694929506,11.0,756.0],["BSDC1",0.11509521789360078,-3.140136940262533,13.0,754.0],["C12orf71",0.11089047180439394,-2.9681672701887214,11.0,756.0],["C1QTNF9B",0.1140354226572653,-3.096214172830521,11.0,756.0],["CCDC7",0.10246758190287104,-2.6403403043084803,12.0,755.0],["CPA5",0.1203713992074977,-3.3637053053668007,16.0,751.0],["CYP20A1",0.09978667503669264,-2.5405674315244857,12.0,755.0],["HEMGN",0.12844628118132526,-3.7224279091954475,12.0,755.0],["HLA-DMA",0.09943855984954479,-2.5276409802016087,9.0,758.0],["HNRNPA0",0.127323751405414,-3.671396584675696,14.0,753.0],["HS2ST1",0.12960186842478,-3.7754985628981625,13.0,754.0],["NMNAT3",0.09447231098338331,-2.3492927766784897,12.0,755.0],["NOG",0.09371311611862483,-2.3226714317820214,12.0,755.0],["OR10AD1",0.09647438165999421,-2.4202585138560733,10.0,757.0],["PPP1R3E",0.10331444216123778,-2.67211688229547,8.0,759.0],["RLN2",0.12427888494595576,-3.534782569772315,15.0,752.0],["SELV",0.09804004427250138,-2.476559592451982,8.0,759.0],["TAPBPL",0.09839888426337572,-2.4898183369873785,13.0,754.0],["TNFSF15",0.09699675677802608,-2.438887646975828,8.0,759.0],["VNN3",0.10812291620470121,-2.858130794368803,14.0,753.0],["ZFP41",0.10882891641117991,-2.885847391928613,10.0,757.0],["ZMAT2",0.10980073037002251,-2.9244110362700355,9.0,758.0],["ZNF540",0.1657875805943506,-5.650214437759164,25.0,742.0],["ZNF554",0.10794902136698406,-2.8513437265858816,16.0,751.0]],"bottom":[["C1orf63",-0.09477613600503941,-2.3601270766024505,17.0,750.0],["CTD-3074O7.11",-0.10537297013973128,-2.7511268638077984,18.0,749.0],["DDI2",-0.10645053149215913,-2.7926867222618537,13.0,754.0],["GBAS",-0.09353294287745195,-2.3162532003640037,9.0,758.0],["HEY2",-0.10065632871414108,-2.572782121427871,15.0,752.0],["ID1",-0.1079559386227532,-2.851528880347733,13.0,754.0],["PEX11B",-0.10431793969871803,-2.710557738243439,14.0,753.0],["PYROXD1",-0.10570896465948638,-2.7641422671616174,21.0,746.0],["RFTN2",-0.11351537201194427,-3.0750239309782508,17.0,750.0],["SOX2",-0.09769772045998429,-2.464414630478601,14.0,753.0],["TPGS1",-0.09039163858530647,-2.20826348052997,12.0,755.0]]}}}
{"depmap_damaging":{"corr":{"top":[["CDK14",0.09042778283314824,-1.9125597893005606,8.0,759.0],["COPA",0.09232623529214676,-1.977981277319313,11.0,756.0],["DENND4C",0.11134706825452162,-2.6961593124466092,11.0,756.0],["FES",0.11115845239548941,-2.688471255207227,10.0,757.0],["LAMA1",0.11863567281876158,-3.002059029991015,19.0,748.0],["MACF1",0.13063571090633358,-3.543498571849925,45.0,722.0],["MED1",0.10651163065141588,-2.502675672716389,8.0,759.0],["NBEA",0.1279536634220887,-3.4183697524583496,26.0,741.0],["PDE4DIP",0.09334199917280052,-2.0134465757311024,30.0,737.0],["TNRC6B",0.10387419444587362,-2.4002970085352926,49.0,718.0],["WDR70",0.10069892774595589,-2.279978418467281,24.0,743.0],["ZNF804A",0.1113074841884924,-2.694544899824675,15.0,752.0]],"bottom":[["APOB",-0.13408807291089903,-3.708079456243388,25.0,742.0],["ATAD2",-0.12201036085249613,-3.1495450957868374,10.0,757.0],["COL6A3",-0.13968733426382163,-3.983463137183065,16.0,751.0],["CROCC",-0.11400551900479086,-2.8057398874432784,8.0,759.0],["CTTNBP2",-0.11838356964095051,-2.9911904244633107,9.0,758.0],["ITPR3",-0.09116775802004069,-1.9379261422747187,12.0,755.0],["L3MBTL3",-0.11961448696272234,-3.0444537957675726,10.0,757.0],["PAXBP1",-0.14231299325792482,-4.116221694267219,9.0,758.0],["PCNXL4",-0.12881345955185372,-3.458223584969836,10.0,757.0],["POLN",-0.09808556600567164,-2.183347978642449,13.0,754.0],["SCLT1",-0.13106143999164147,-3.563579817872574,10.0,757.0]]},"para":{"top":[["CASD1",0.10343029618377103,-2.6766229831420896,10.0,757.0],["CCDC160",0.11762436042773436,-3.246210691356285,14.0,753.0],["DENND4C",0.11354015480641941,-3.075845619849765,11.0,756.0],["FES",0.11671920751277749,-3.2078647853385993,10.0,757.0],["INSRR",0.09347826123882147,-2.3143456088448233,9.0,758.0],["MED1",0.09569264740993191,-2.3922653445820634,8.0,759.0],["MRPL47",0.10628697615923786,-2.7864859835174154,19.0,748.0],["NBEA",0.1368419446726451,-4.1176224456727795,26.0,741.0],["PTPN21",0.09812593627003348,-2.4798666319010634,12.0,755.0],["YTHDC2",0.09473593892732272,-2.3584505143744794,9.0,758.0]],"bottom":[["CROCC",-0.10951620671173004,-2.913008961530816,8.0,759.0],["L3MBTL3",-0.09642247185011528,-2.4184010318687017,10.0,757.0],["PCNXL4",-0.11965211177093715,-3.332498286848055,10.0,757.0],["POLN",-0.101706218110893,-2.6118152156129733,13.0,754.0],["SCLT1",-0.10060121154536926,-2.570565390615066,10.0,757.0]]}}}
{"ccle_rrbs_enhancer_clusters":{"corr":{"top":[],"bottom":[["5-77137721-77140231-0_enh",-0.15575652963853348,-3.1817687838917212,475]]},"para":{"top":[],"bottom":[["5-77137721-77140231-0_enh",-0.15264587027898155,-3.0732002171552018,475]]}}}
{"ccle_mirna":{"corr":{"top":[],"bottom":[]},"para":{"top":[],"bottom":[["hsa-miR-548o_miR00498.1",-0.14394346338431102,-3.0704633038831743,534]]}}}
{"prism_primary_logfold":{"corr":{"top":[["sertaconazole_BRD-A95939040-001-01-2::2.5::HTS",0.18311733448578799,-3.572557520823283,392],["SB-222200_BRD-K04414442-001-08-3::2.5::HTS",0.17262901403812766,-3.2025224633822615,389],["scriptaid_BRD-K22503835-001-11-0::2.5::HTS",0.1746578702327936,-3.282452314107621,391],["OLDA_BRD-K95523387-001-09-6::2.5::HTS",0.19155902786571274,-3.8589479297138816,391],["malotilate_BRD-K97884852-001-05-4::2.5::HTS",0.15416384661394336,-2.6561919687351234,392],["haloperidol-decanoate_BRD-K80859331-001-01-5::2.5::MTS004",0.17774005004795168,-3.3016425695968517,380]],"bottom":[]},"para":{"top":[["mephenytoin_BRD-A83937277-001-10-5::2.5::HTS",0.1754044776142313,-3.1902679038025945,375],["TG-02_BRD-K14560436-001-01-4::2.5::HTS",0.16489257349352882,-2.972283734103894,391],["PF-03758309_BRD-K37764012-001-04-1::2.5::HTS",0.19069437067178371,-3.82821726772441,391],["PHA-848125_BRD-K60997853-001-02-3::2.5::HTS",0.17847702375725688,-3.4082932399217087,391],["malotilate_BRD-K97884852-001-05-4::2.5::HTS",0.16765009880808956,-3.0648659797572106,392]],"bottom":[["5'-Chloro-5'-deoxy-ENBA-(+\/-)_BRD-A13598753-001-01-2::2.5::HTS",-0.16933680879836438,-3.1113855033140787,391],["tandospirone_BRD-K65904673-001-01-4::2.5::HTS",-0.164176831803858,-2.9502010274406167,391]]}}}
{"prism_secondary_logfold":{"corr":{"top":[["ifosfamide_BRD-A67097164-001-18-7::2.5::HTS002",0.22413078707218953,-4.2227245223306,315],["CCG-50014_BRD-K08893438-001-04-9::10.0738::HTS002",0.21194940250383557,-3.9595728753514288,328],["pardoprunox_BRD-K11851476-003-01-7::0.039062497::MTS006",0.20510590653887034,-3.8348219052408528,338],["dinaciclib_BRD-K13662825-001-07-5::10::HTS002",0.26234273304375666,-5.982897444857238,337],["resminostat_BRD-K28822270-001-01-1::2.5::HTS002",0.22044754412619347,-3.3972609060954073,254],["vanoxerine_BRD-K32501161-300-06-2::10::HTS002",0.2207454689027774,-4.418242216085083,342],["triptolide_BRD-K39484304-001-16-5::0.0390625::HTS002",0.21291888715247417,-4.04522955598088,333],["triptolide_BRD-K39484304-001-16-5::0.625::HTS002",0.22470340948714307,-4.34894887937068,324],["10-hydroxycamptothecin_BRD-K63784565-001-06-2::10.0334::HTS002",0.22768576057671194,-4.502225202168883,328],["BI-2536_BRD-K64890080-001-13-8::10::HTS002",0.2044562974523422,-3.8034806830459345,337],["trichostatin-a_BRD-K68202742-001-16-5::10.5396::HTS002",0.2189268505625982,-4.093906514096278,319],["ZLN005_BRD-K73073971-001-01-7::10::HTS002",0.2465917673976369,-5.078257263572748,319],["rubitecan_BRD-K79821389-001-03-5::2.5::MTS006",0.20470963227915392,-3.8217048440091994,338],["daclatasvir_BRD-K82861010-001-02-5::10::HTS002",0.20477989100440236,-3.4373902234882743,299],["doxorubicin_BRD-K92093830-003-30-8::2.5::HTS002",0.2212143833370535,-4.308836729650729,331]],"bottom":[]},"para":{"top":[["galeterone_BRD-A07986123-001-02-8::10::HTS002",0.20800987861387593,-3.7276779208178477,318],["ginkgolide-a_BRD-A95121829-001-08-9::10::HTS002",0.2082400441459599,-3.939441683146518,338],["CCG-50014_BRD-K08893438-001-04-9::10.0738::HTS002",0.20971564031463866,-3.8856811500006634,328],["TG-101348_BRD-K12502280-001-08-0::10::HTS002",0.2077470043944345,-3.912719393675492,337],["dinaciclib_BRD-K13662825-001-07-5::10::HTS002",0.28827340550201314,-7.145118582992893,337],["vanoxerine_BRD-K32501161-300-06-2::10::HTS002",0.2154905846295434,-4.231095661290041,342],["dioscin_BRD-K37723606-001-01-5::10::HTS002",0.21465073670027862,-4.14748350979639,337],["triptolide_BRD-K39484304-001-16-5::0.0390625::HTS002",0.21505832103406664,-4.1180964675691225,333],["triptolide_BRD-K39484304-001-16-5::0.625::HTS002",0.2258807121124625,-4.3900740724605765,324],["P276-00_BRD-K51791723-003-01-7::2.5::HTS002",0.20985854090155184,-3.942252588400592,333],["MK-1775_BRD-K54256913-001-08-7::2.5::MTS010::PROS004_PR500",0.20674196715190912,-3.8187458838690516,331],["ONX-0914_BRD-K60446698-001-01-2::2.5::HTS002",0.2086498906694221,-3.87121949810308,330],["10-hydroxycamptothecin_BRD-K63784565-001-06-2::10.0334::HTS002",0.22184600021393366,-4.296299085802269,328],["ZLN005_BRD-K73073971-001-01-7::10::HTS002",0.2495613835723969,-5.1910938942500575,319],["tanespimycin_BRD-K81473043-001-14-6::2.5::HTS002",0.21711789314389257,-4.233228375865338,337],["doxorubicin_BRD-K92093830-003-30-8::2.5::HTS002",0.2411620668779097,-5.039126894704784,331]],"bottom":[]}}}
{"ccle_proteomics":{"corr":{"top":[["MTMR14_Q8NCE2",0.2853674719428533,-4.996169802555081,232],["UNNAMED_H7BZ55",0.28188791879510877,-3.1111201637201327,139],["UBXN6_Q9BZV1",0.2623066498461175,-4.785821483299925,263],["ARMC6_Q6NXE6",0.2485680975928007,-4.339068217346157,263],["CSPP1_Q1MSJ5",0.23893952966331333,-3.47060740891348,221],["DNM2_P50570",0.25571605724801083,-4.568369980019119,263],["CRADD_P78560",0.23977945573710135,-2.939476879102884,181],["CYLD_Q9NQC7",0.25571448521495377,-3.636098724423697,203],["NR2C2AP_Q86WQ0",0.24803169261817073,-4.205712160253436,255],["EFTUD1_Q7Z2Z2",0.25121486635143947,-4.4231868584627945,263]],"bottom":[["RSL1D1_O76021",-0.23257623382139922,-3.8502580839295892,263],["DGUOK_Q16854",-0.28681565949204685,-5.296584585631516,245],["C12orf43_Q96C57",-0.2311001813388662,-3.806801935863575,263],["NAT10_Q9H0A0",-0.2691507306418791,-5.017839037275632,263],["MTG2_Q9H4K7",-0.2279553706749006,-3.641112761012387,257],["ZFP64_Q9NTW7-2",-0.303273493605781,-3.791500262171714,150]]},"para":{"top":[["SH3RF1_Q7Z6J0",0.23333358369004645,-3.7822805973320617,256],["BAG6_P46379-3",0.23610251025639972,-3.9552024188079735,263],["CRBN_Q96SW2",0.23093975462702088,-3.802095583686016,263],["ANKRD13D_Q6ZTN6-3",0.24764630389129288,-3.654598109966381,218],["CRADD_P78560",0.25109006151123503,-3.1864658488904074,181],["RABL6_Q3YEC7",0.2633522360999637,-4.820856408428283,263],["UBL4A_P11441",0.2366966661204418,-3.973041965953813,263]],"bottom":[["DGUOK_Q16854",-0.27664734425949383,-4.9538338213727044,245],["NAT10_Q9H0A0",-0.23542186017784575,-3.9348216454627143,263],["MTG2_Q9H4K7",-0.22857770534791977,-3.658759181720994,257],["ZFP64_Q9NTW7-2",-0.27071106650101323,-3.093422981381649,150]]}}}
{"depmap_copy_number":{"corr":{"top":[["CHERP_10523",0.28022021760695165,-14.61475235572889,769],["SNORA118_109623483",0.26799470906075495,-13.388998658323342,769],["LINC00661_126536",0.2663355037307373,-13.227383806858528,769],["SIN3B_23309",0.28641619655535233,-15.259745608969501,769],["CPAMD8_27151",0.2842778687623007,-15.035323369028532,769],["NWD1_284434",0.28668076560007916,-15.28764697978761,769],["RAB8A_4218",0.26651505063557646,-13.244818346453664,769],["MYO9B_4650",0.2717133303279537,-13.755304942619539,769],["TMEM38A_79041",0.29495932576511724,-16.175738593494096,769],["SMIM7_79086",0.29347875821879693,-16.014759575364412,769],["SLC35E1_79939",0.28546327253751136,-15.15949573693392,769],["C19orf44_84167",0.2762175373959401,-14.206623153346532,769],["CYP4F2_8529",0.2718389794513695,-13.767781337612844,769],["F2RL3_9002",0.2842778687623007,-15.035323369028532,769],["HAUS8_93323",0.27464710359255085,-14.048314296494055,769],["MED26_9441",0.2933674113623463,-16.00269108043488,769]],"bottom":[["TROAP_10024",-0.14591995213035464,-4.3122496097455265,769],["LOC100335030_100335030",-0.14708754659475462,-4.37360940079868,769],["LINC02400_101927038",-0.1446276015673766,-4.244873801857623,769],["LOC101927267_101927267",-0.14223415683049748,-4.121588842064503,769],["PDZRN4_29951",-0.14157455828162205,-4.087954025101916,769],["C1QL4_338761",-0.14591995213035464,-4.3122496097455265,769],["PRPH_5630",-0.14223415683049748,-4.121588842064503,769],["SPATS2_65244",-0.14708754659475462,-4.37360940079868,769],["DNAJC22_79962",-0.14769964975277813,-4.405962210110933,769],["TUBA1C_84790",-0.14223415683049748,-4.121588842064503,769],["ZCRB1_85437",-0.1396508520348355,-3.990697608892537,769]]},"para":{"top":[["CHERP_10523",0.27532930512170334,-14.116958623851977,769],["LINC01855_105372292",0.273867639584444,-13.970118976791495,769],["LINC00661_126536",0.2738409096934558,-13.967441906321238,769],["OR10H4_126541",0.2700577090266645,-13.591515628072399,769],["LINC00905_148231",0.2738409096934558,-13.967441906321238,769],["SIN3B_23309",0.2778083222867587,-14.368027043798092,769],["CPAMD8_27151",0.2748888727513281,-14.072619492438518,769],["NWD1_284434",0.278323927485997,-14.420567143447714,769],["RAB8A_4218",0.2704041208489907,-13.625692692811318,769],["TPM4_7171",0.273867639584444,-13.970118976791495,769],["TMEM38A_79041",0.2878036078837079,-15.406391317390314,769],["SMIM7_79086",0.2878511591125209,-15.411431809528503,769],["SLC35E1_79939",0.28230758457874794,-14.830242694152991,769],["C19orf44_84167",0.27029152653897287,-13.61457870934885,769],["F2RL3_9002",0.2748888727513281,-14.072619492438518,769],["MED26_9441",0.2876965874349719,-15.395050517259426,769]],"bottom":[]}}}
{"depmap_gene_tpm":{"corr":{"top":[["TMEM161A_54929",0.1894419647558652,-6.878246729795446,764],["ANO8_57719",0.19003624653387668,-6.918230967226852,764],["STX10_8677",0.18794337287956694,-6.7779814232879065,764],["FAM32A_26017",0.18302173545312458,-6.454339558231317,764],["ILVBL_10994",0.199997119205046,-7.607376084201735,764],["PRKCSH_5589",0.18662365819118185,-6.690349962706191,764],["DDA1_79016",0.17476623983781087,-5.930773121070557,764],["ZNF414_84330",0.191813053258309,-7.03853420676846,764],["RAB8A_4218",0.21247321728026275,-8.521590219878222,764],["RAB11B_9230",0.18164753249648252,-6.365513833348064,764],["SMIM7_79086",0.23028913992557187,-9.927510353812913,764]],"bottom":[["TFDP2_7029",-0.14636688254198793,-4.310883155325595,764],["SEPT14_346288",-0.15391180987822864,-4.714221492754417,764]]},"para":{"top":[["ANO8_57719",0.18514513621138984,-6.592912534086819,764],["TECR_9524",0.19288286347322137,-7.111516405798364,764],["FAM32A_26017",0.17810599885689465,-6.139681588931256,764],["ILVBL_10994",0.20488090631345954,-7.958434862936528,764],["COPE_11316",0.21392206754364118,-8.631480979493924,764],["TRIR_79002",0.18595250188241091,-6.64602276322446,764],["SLC35E1_79939",0.1819157985862187,-6.382801340674621,764],["PRKCSH_5589",0.18951389716397501,-6.883079716010897,764],["DDA1_79016",0.17817043069425523,-6.143750585782543,764],["ZNF414_84330",0.1943619057844698,-7.2130960622298375,764],["RAB8A_4218",0.19481225174219802,-7.244182422840128,764],["SMIM7_79086",0.2306718366740856,-9.959026665973045,764]],"bottom":[["TFDP2_7029",-0.1516273590253989,-4.59005708495601,764]]}}}
{"avana":{"corr":{"top":[["SUGP1_57794",0.25622386190697866,-12.266606740627509,769],["FAM32A_26017",0.23723639667028346,-10.572627564569526,769],["CHAF1A_10036",0.2609199030263963,-12.520636602079719,757],["YJU2_55702",0.3110993115617997,-17.992306267832475,769]],"bottom":[["ZNF621_285268",-0.1974919081260096,-7.4752059782173745,769],["ACE_1636",-0.16074279618483933,-5.125876785491687,769],["LRRC63_220416",-0.15162713328010874,-4.616591940018476,769]]},"para":{"top":[["RPL36_25873",0.20395579543621983,-7.938740964480104,769],["SUGP1_57794",0.2408056692722589,-10.880246857711894,769],["RBM10_8241",0.20906395117071086,-7.836824024726212,721],["LSM4_25804",0.19261275470957911,-7.135433821921271,769],["UBA52_7311",0.19432293658830757,-7.253540358571875,769]],"bottom":[["C2CD6_151254",-0.13766501164896283,-3.8916076240800175,769],["ACE_1636",-0.14284712016508636,-4.152977464996565,769],["UBAC2_337867",-0.14201657422745403,-4.110477430092925,769],["RCAN1_1827",-0.14779108518868106,-4.410806000572597,769]]}}}
{"drive":{"corr":{"top":[["MYT1_4661",0.2442644459569907,-4.317061035229351,271]],"bottom":[["EED_8726",-0.21337694667420576,-3.393219111505955,271]]},"para":{"top":[["RBMX_27316",0.2255847958403582,-3.7796314548683547,274],["MYT1_4661",0.21898849216823285,-3.551827885091178,271],["PPP2CA_5515",0.21805654548000822,-3.491311509361014,268]],"bottom":[["PA2G4_5036",-0.19584398554062696,-2.923336953902916,271]]}}}
{"achilles":{"corr":{"top":[["DPYSL5_56896",0.19981984977866615,-3.8030748032586463,353],["CHERP_10523",0.20226539367915267,-3.8858918580198214,353],["KAT5_10524",0.1993843537591469,-3.788430040325003,353],["GPKOW_27238",0.23447722048471822,-3.198862874608416,209],["MDP1_145553",0.22644359333200478,-3.0099317367112515,209]],"bottom":[["TLR4_7099",-0.219492822706664,-4.497442587424659,353],["ADD3_120",-0.29804988187409026,-4.931696795179505,209]]},"para":{"top":[["GPKOW_27238",0.26354482144672603,-3.9375450939820777,209],["RPL26_6154",0.22746001304023986,-3.0334791673933386,209],["NCOA1_8648",0.19898391125003462,-3.774991501444032,353]],"bottom":[["C1orf228_339541",-0.23385881137208878,-3.18408947170366,209],["TLR4_7099",-0.19449134731873066,-3.6260221034673226,353],["DTL_51514",-0.22305451355263328,-2.9321574311073424,209],["ADD3_120",-0.36213957961723986,-7.147228231402803,209]]}}}
{"ccle_rrbs_tss1kb":{"corr":{"top":[["PID1_2_230096808_230097808",0.1593465429333208,-3.2796252492809104,470],["MFSD5_12_53644875_53645875",0.15497233944841715,-3.0461418324332485,456]],"bottom":[["LOC100506639_5_43066124_43067124",-0.1667906813640374,-3.550559802760302,470],["LHB_19_49520347_49521347",-0.17005274468705683,-3.6525839801431985,467],["PPM1M_3_52278808_52279808",-0.1639009049741102,-3.3237189847958266,451],["CNIH2_11_66044671_66045671",-0.1811606060946118,-3.953134404549773,450]]},"para":{"top":[["EIF4EBP2_10_72162860_72163860",0.16259921526049698,-2.876624432374137,387],["TRMT13_1_100597705_100598705",0.15067744914480274,-2.978598061083854,470]],"bottom":[["GRM1_6_146349333_146350333",-0.189464590445467,-4.44804878102043,470],["LOC105370619_14_90983553_90984553",-0.22079999627204616,-5.534265943788384,440]]}}}
{"ccle_gene_tpm":{"corr":{"top":[["CTC-429P9.3_ENSG00000269044.1",0.22156534578646392,-7.065747621196667,572],["C19orf24_ENSG00000228300.9",0.19756679639630018,-5.7169580365594435,572],["ILVBL_ENSG00000105135.11",0.19672864993496048,-5.672691609605809,572],["SMIM7_ENSG00000214046.4",0.23890113576859212,-8.140003009125872,572],["TECR_ENSG00000099797.7",0.18907532076771855,-5.277203975586514,572],["RAB8A_ENSG00000167461.7",0.19197670170708556,-5.425288686052097,572],["ANO8_ENSG00000074855.6",0.18911599208217406,-5.279264305308964,572],["DDA1_ENSG00000130311.6",0.1867482675166206,-5.160052531037949,572]],"bottom":[["RP11-136I14.5_ENSG00000255689.1",-0.16454001332063953,-4.113588411635182,572],["PCMTD1P2_ENSG00000260087.1",-0.15651174267580292,-3.766671483301045,572],["RP11-14P20.1_ENSG00000264265.1",-0.18084368668430276,-4.869232332960332,572],["RP11-274B18.4_ENSG00000226337.3",-0.17013941175594988,-4.365332713368082,572],["OR11N1P_ENSG00000185903.9",-0.16925371445325316,-4.32497386843566,572],["RP11-649A18.12_ENSG00000263843.1",-0.1719183297802731,-4.447006991806859,572],["TFDP2_ENSG00000114126.13",-0.1603505202972805,-3.9305002802011133,572],["RP11-497K15.1_ENSG00000228373.2",-0.16432226327806485,-4.103961578782153,572],["DOC2B_ENSG00000272636.1",-0.18713225619883284,-5.179284672103839,572],["SEPT14_ENSG00000154997.8",-0.1832926122699242,-4.988732724279271,572],["RP11-370P15.2_ENSG00000261014.1",-0.15685999114378865,-3.7813792767064123,572]]},"para":{"top":[["SLC14A1_ENSG00000141469.12",0.21348740299717675,-6.59404693335867,572],["PRKCSH_ENSG00000130175.5",0.18715093421676354,-5.18022116193815,572],["ILVBL_ENSG00000105135.11",0.21019707586494318,-6.40709333564305,572],["SMIM7_ENSG00000214046.4",0.24412111770156436,-8.48030586840764,572],["RAB8A_ENSG00000167461.7",0.18899532491515153,-5.273152826030761,572],["TECR_ENSG00000099797.7",0.2039961748015593,-6.062840714005686,572],["DDA1_ENSG00000130311.6",0.18872911864638206,-5.259683874013461,572],["None_ENSG00000268790.1",0.18466920782571686,-5.056601130910545,572],["ANO8_ENSG00000074855.6",0.19369324145503228,-5.513958894613059,572],["C19orf60_ENSG00000006015.13",0.18948931772098895,-5.298196833147978,572]],"bottom":[["ARL5AP4_ENSG00000224806.2",-0.14944307472580004,-3.474765010451076,572],["OR11N1P_ENSG00000185903.9",-0.17595775462946447,-4.635519649035762,572],["GTPBP4_ENSG00000107937.14",-0.16239302990451515,-4.019200333517857,572],["BRDT_ENSG00000137948.14",-0.16195143403698023,-3.99993279924664,572],["SLC25A51P1_ENSG00000220483.4",-0.15321778439704595,-3.629075455863039,572],["PVT1_ENSG00000249859.3",-0.1636299757602507,-4.073436045290037,572],["TFDP2_ENSG00000114126.13",-0.16667914615909404,-4.208808279298094,572],["SSU72P3_ENSG00000186232.2",-0.1819835870396589,-4.924659584430491,572],["OR7E37P_ENSG00000215480.3",-0.17049279812650903,-4.381492238004302,572],["NUDT5_ENSG00000165609.8",-0.15784292892522453,-3.8230584251630906,572],["OR5P4P_ENSG00000227892.1",-0.15363315409485365,-3.6462751577960772,572]]}}}
{"ccle_rrbs_tss_clusters":{"corr":{"top":[["MTHFD1L_6",0.20118160565752558,-4.880190098273594,462],["ZC3H12D_3",0.3004967210694187,-3.8597081742588024,156]],"bottom":[["OLFM2_8",-0.22599242884098128,-2.925662101870739,203],["ABHD6_2",-0.27015918766060204,-2.9757256226259363,144]]},"para":{"top":[["XRCC3_2",0.18232112989338284,-4.099079162914486,463],["ISOC1_2",0.2040407451217455,-2.5166555043629932,209],["LINC00940_3",0.1962588275479907,-3.6115444296027395,345]],"bottom":[["LYPLA2P2_1",-0.21534834989939378,-3.6136053536633663,286],["BACH1-IT2_2",-0.21464616486654145,-4.212262260566839,343],["AGPAT3_5",-0.26023965160066714,-4.2521168615905784,234],["FIBIN_3",-0.20823545210122224,-3.714347886836847,316],["ABHD6_2",-0.2645728345708146,-2.868718293902756,144],["MFAP2_3",-0.2395235563329391,-2.975644145191448,184]]}}}
{"ccle_rrbs_cgi_clusters":{"corr":{"top":[],"bottom":[["3_58221101_58223733-2",-0.27015918766060204,-2.9757256226259363,144],["19_10044824_10049067-2",-0.22599242884098128,-2.925662101870739,203]]},"para":{"top":[["5_128428003_128430533-2",0.2040407451217455,-2.5166555043629932,209],["5_1481763_1486069-1",0.29825143260185855,-3.071645710313801,122]],"bottom":[["3_58221101_58223733-2",-0.2645728345708146,-2.868718293902756,144],["24_14105137_14109480-1",-0.2800658340991572,-3.0373439471112245,137],["19_13395418_13399645-1",-0.23076014548176635,-3.1490247258023225,212],["2_130748104_130752424-1",-0.29531760014082703,-3.359086985442342,138],["12_5542092_5544973-1",-0.2387831325021806,-3.45296046953568,220]]}}}
