{"depmap_hotspot":{"corr":{"top":[["NBPF20",0.10037698514483585,-2.241151505611089,58.0,698.0],["TMBIM4",0.08900339573155538,-1.842688442788836,10.0,746.0]],"bottom":[["ADRA2C",-0.12946214107136425,-3.445297796222021,29.0,727.0],["AGAP2",-0.12662119599987293,-3.3157124907866633,60.0,696.0],["ARMC7",-0.1268563125172893,-3.32633730903578,13.0,743.0],["B4GALNT4",-0.127990813934866,-3.377857524092018,66.0,690.0],["BAZ1A",-0.13864165780743953,-3.8820579540452087,39.0,717.0],["BPIFA2",-0.1258460642759637,-3.2808117587504513,9.0,747.0],["C14orf159",-0.1476452822240424,-4.337500674391533,25.0,731.0],["CCDC181",-0.13085076800142167,-3.50959506524756,19.0,737.0],["CCDC63",-0.14650087748891916,-4.278113557972634,30.0,726.0],["CDH18",-0.13954463340015438,-3.9265199987129966,52.0,704.0],["ENO3",-0.14515170876283937,-4.208662608374378,19.0,737.0],["ESRRG",-0.130920528986521,-3.512841807319946,34.0,722.0],["FAM177A1",-0.12774378189570507,-3.366603599214015,15.0,741.0],["FKBP10",-0.14085170278057327,-3.991357468864982,27.0,729.0],["FN1",-0.1392919436288799,-3.9140505128350487,85.0,671.0],["FRMPD3",-0.12801407479036747,-3.3789182312613875,58.0,698.0],["GKAP1",-0.12741688565090922,-3.3517418580413514,9.0,747.0],["GNS",-0.13161260475857034,-3.545137863779845,14.0,742.0],["HERC2",-0.1358751265544611,-3.7475115227143254,166.0,590.0],["HIAT1",-0.13444152672508664,-3.678782119992052,20.0,736.0],["IMPAD1",-0.1342761663016244,-3.670897897082592,14.0,742.0],["JHDM1D",-0.13673190273720864,-3.7889098594811754,29.0,727.0],["KAT6B",-0.12786420324583384,-3.3720870984128064,80.0,676.0],["KCNK2",-0.1341426427188229,-3.6645381775876977,26.0,730.0],["KIAA1462",-0.12840948049694167,-3.396975884696016,83.0,673.0],["KLHL42",-0.1580389913961825,-4.8970229426376655,20.0,736.0],["KRT31",-0.1273032970877695,-3.346585897958024,34.0,722.0],["LAMB1",-0.13905498383169548,-3.902376445645014,62.0,694.0],["LAMB3",-0.12766572067251272,-3.3630515287781835,54.0,702.0],["LARP4B",-0.14204111039385742,-4.050850494010872,36.0,720.0],["LCN1",-0.13502081434336294,-3.706472858185545,9.0,747.0],["LRRC4",-0.13949113451769277,-3.9238782255759217,19.0,737.0],["MATN2",-0.14279632056281408,-4.088869185997654,40.0,716.0],["MBP",-0.14268445624156187,-4.083225769105667,15.0,741.0],["NFE2L2",-0.12979970818825226,-3.460870174383847,31.0,725.0],["NOS1AP",-0.13735286958563736,-3.819065400106358,20.0,736.0],["NRROS",-0.1406006293263426,-3.978858995432358,38.0,718.0],["OR6V1",-0.14141423522739507,-4.019436296620558,17.0,739.0],["ORC3",-0.12964106568631442,-3.4535471739794317,24.0,732.0],["PAPOLB",-0.12711600061540193,-3.3380933838981637,21.0,735.0],["PGBD5",-0.1358544582342658,-3.746515842033978,20.0,736.0],["PHB2",-0.14137996878967451,-4.017722883878208,16.0,740.0],["PHF17",-0.1415996788985295,-4.028715731757971,28.0,728.0],["PLEKHM3",-0.13523628218162914,-3.716800662634609,31.0,725.0],["POMC",-0.1269259335491067,-3.3294869014346804,14.0,742.0],["PTRH1",-0.14310701931050512,-4.104565379664555,13.0,743.0],["ROCK1",-0.14682747332757337,-4.295017085542849,54.0,702.0],["RPL22",-0.13461041374771557,-3.6868437604936117,39.0,717.0],["SF1",-0.13359038954022123,-3.6382965667848612,32.0,724.0],["SLC16A13",-0.13133023661414725,-3.5319420977500227,24.0,732.0],["SLC35F1",-0.13729253087350154,-3.8161296391163737,20.0,736.0],["SLCO1B1",-0.12986947757652764,-3.4640933570379793,40.0,716.0],["SPOPL",-0.13021936274927523,-3.480281198301734,21.0,735.0],["ST18",-0.12858500228309974,-3.405008048118959,83.0,673.0],["TBC1D21",-0.12990060742439988,-3.465531995801405,11.0,745.0],["TMEM11",-0.12771449538446908,-3.3652707237398998,9.0,747.0],["TRIM2",-0.14371904345227884,-4.135578159778204,28.0,728.0],["USH1G",-0.1393877654694423,-3.918776547971191,26.0,730.0],["WDFY2",-0.14608174293437381,-4.256472754024439,12.0,744.0],["WFDC8",-0.14148086977218222,-4.022769315982998,15.0,741.0],["ZACN",-0.12636684233884177,-3.3042385743018827,26.0,730.0],["ZNF331",-0.12705550747133265,-3.3353529022980473,35.0,721.0],["ZNF674",-0.12598525960333726,-3.287064737876217,11.0,745.0],["ZSWIM6",-0.1289987064280906,-3.4239795347400612,50.0,706.0]]},"para":{"top":[["HIST1H2AD",0.09634416695475408,-2.390789922641846,9.0,747.0]],"bottom":[["AC021860.1",-0.11802452403857684,-3.226871076967038,8.0,748.0],["ADORA2B",-0.1283990920460184,-3.6781924384075024,14.0,742.0],["ANXA2R",-0.10612388227788745,-2.75027474739854,9.0,747.0],["ARMC7",-0.12168698878758884,-3.3825676156297253,13.0,743.0],["BPIFA2",-0.11056666723896806,-2.9231658631577075,9.0,747.0],["C6orf62",-0.0967632976114598,-2.4056043197709176,9.0,747.0],["CCDC109B",-0.13670654546786856,-4.063445601278342,17.0,739.0],["CRYAA",-0.09623239877963255,-2.3868483387956907,9.0,747.0],["CRYGD",-0.12607984460914567,-3.574547088145504,16.0,740.0],["DESI2",-0.10214970725446712,-2.6006403341134665,8.0,748.0],["ENO3",-0.14379460889734863,-4.409093027382538,19.0,737.0],["FOPNL",-0.10172686927760381,-2.585122346477082,10.0,746.0],["GKAP1",-0.12881282182755693,-3.6966208773190363,9.0,747.0],["GNS",-0.12208254007386654,-3.3996374124436657,14.0,742.0],["GPR82",-0.09631511974239694,-2.3897061023955706,8.0,748.0],["GPX8",-0.09468617399029612,-2.3326465130777554,8.0,748.0],["HDGFRP3",-0.1031863090967131,-2.6391918706638755,8.0,748.0],["HSPD1",-0.11700232389697575,-3.184524038817022,14.0,742.0],["ICMT",-0.10268180207916673,-2.620503439572774,10.0,746.0],["IMPAD1",-0.12758985407093842,-3.6418172729949316,14.0,742.0],["KLHL42",-0.15112580815832,-4.783075192575891,20.0,736.0],["LCN1",-0.1141991329304176,-3.0689974914211207,9.0,747.0],["LEFTY1",-0.1080923146785767,-2.8262371322896973,11.0,745.0],["MAPRE1",-0.09444410797768817,-2.3242934364926198,9.0,747.0],["MBP",-0.14103590435933716,-4.272607848622652,15.0,741.0],["MORF4L2",-0.11959194738003116,-3.292954468092997,9.0,747.0],["MSRB3",-0.09978103833974096,-2.5138295867366898,9.0,747.0],["NIT2",-0.11628959450143812,-3.1548115269598176,10.0,746.0],["OR6V1",-0.13768769292337957,-4.110350187080776,17.0,739.0],["PAFAH2",-0.1319753617251378,-3.8414391695765993,16.0,740.0],["PHB2",-0.1426925696252806,-4.354247935456154,16.0,740.0],["PTRH1",-0.1342053629214845,-3.9450941146631666,13.0,743.0],["PURA",-0.12259413646715568,-3.421663692203547,12.0,744.0],["RBBP7",-0.1261219554456885,-3.576415332755309,16.0,740.0],["SHMT1",-0.1145440468098978,-3.0832052075720564,12.0,744.0],["SLC51A",-0.09894277702632952,-2.4834916615244835,9.0,747.0],["SRR",-0.11909939189957688,-3.2723241954450812,13.0,743.0],["TBC1D21",-0.11277437466816619,-3.0114234191204727,11.0,745.0],["TMEM11",-0.11285791482895931,-3.0146822885187774,9.0,747.0],["TOMM34",-0.09971090002985993,-2.511334449589117,10.0,746.0],["TPM3",-0.11204043012925759,-2.9819519611015077,11.0,745.0],["UBB",-0.09575239302803484,-2.36990448474918,8.0,748.0],["UCHL3",-0.08873311769625498,-2.1308800247703132,8.0,748.0],["USP27X",-0.10796577251669591,-2.8213248521779954,11.0,745.0],["WDFY2",-0.12620697790972019,-3.580047309984786,12.0,744.0],["WFDC8",-0.15031515415308705,-4.740749286864332,15.0,741.0],["ZNF674",-0.12649154501604454,-3.592646462323017,11.0,745.0],["hsa-mir-1199",-0.09954339405110581,-2.505146634222793,8.0,748.0]]}}}
{"depmap_damaging":{"corr":{"top":[["C8orf37",0.09323295794037292,-1.986208314462958,15.0,741.0],["EVC2",0.12178130613396676,-3.1009801951857576,9.0,747.0]],"bottom":[["ALMS1",-0.10606765250005062,-2.4556041917425637,15.0,741.0],["ALPK1",-0.11376091703647667,-2.761744100423314,12.0,744.0],["ANK3",-0.13798325136024275,-3.849808267366254,22.0,734.0],["ATF7IP",-0.11224995645536806,-2.7001372301411686,26.0,730.0],["ATN1",-0.11158635884604753,-2.673309585618352,13.0,743.0],["ATP11B",-0.10015863642430287,-2.233124763252425,14.0,742.0],["BCAS3",-0.12191110558005229,-3.106640201270365,9.0,747.0],["C1orf27",-0.11646484745590739,-2.8738088904736414,9.0,747.0],["CDC42BPA",-0.12328590177929241,-3.1669230936837987,21.0,735.0],["CDH24",-0.11132123747144004,-2.6626304677360246,11.0,745.0],["CHD9",-0.10369639595503807,-2.365010354487483,37.0,719.0],["COL11A2",-0.10585919597483673,-2.4475692683197243,24.0,732.0],["COL16A1",-0.10565165668334867,-2.439583280241886,12.0,744.0],["COL5A1",-0.1110093007925997,-2.6500941884087843,15.0,741.0],["CUBN",-0.1343462333385164,-3.674237528073407,18.0,738.0],["DICER1",-0.1251823195561291,-3.2510812343987063,12.0,744.0],["ESCO1",-0.1418578807932414,-4.0416549326886875,10.0,746.0],["EZH1",-0.11658588050547483,-2.878879744184211,10.0,746.0],["FHDC1",-0.11783989664493583,-2.931694595406566,14.0,742.0],["FLNB",-0.13152813550615833,-3.541187671124779,15.0,741.0],["GPR149",-0.12832459533826673,-3.393095000990427,9.0,747.0],["HELLS",-0.12049109672491297,-3.0450148754471567,8.0,748.0],["ITIH1",-0.11450062321441248,-2.792169468488775,9.0,747.0],["KDM3B",-0.11796748299682248,-2.9370963346787393,8.0,748.0],["LHX1",-0.10833043307267692,-2.543703598684072,8.0,748.0],["MORC1",-0.10109146467905958,-2.2675204826277753,11.0,745.0],["MYH3",-0.1075960773958244,-2.514935114596048,9.0,747.0],["MYOF",-0.11454785428835217,-2.7941180879676777,14.0,742.0],["PHF3",-0.10429699163644403,-2.3877891472604507,15.0,741.0],["PPRC1",-0.09932350803389811,-2.202561543817304,10.0,746.0],["RAD51AP2",-0.11131676026660567,-2.6624503170080076,10.0,746.0],["REV3L",-0.11309130159898789,-2.734352017454188,26.0,730.0],["RP1",-0.11333746557165415,-2.744405297352013,21.0,735.0],["SCAF4",-0.09946021674313467,-2.2075498129939453,28.0,728.0],["SLCO5A1",-0.11525414701212827,-2.8233426240324784,14.0,742.0],["SLTM",-0.09937601889414453,-2.204476888170433,12.0,744.0],["SMARCB1",-0.11698141768158296,-2.895484037965789,10.0,746.0],["SPATA21",-0.1006584460032631,-2.2515202482457046,10.0,746.0],["SYCP2",-0.10164100367101096,-2.287910464144933,16.0,740.0],["TBC1D19",-0.10879886794979672,-2.5621435708403237,15.0,741.0],["ZBTB21",-0.14657895363904838,-4.282151280252365,8.0,748.0]]},"para":{"top":[["C8orf37",0.10228906037278893,-2.6060963761027156,15.0,741.0]],"bottom":[["AKAP7",-0.09664090889281711,-2.40121371079524,8.0,748.0],["ALPK1",-0.11471377761592434,-3.090136138367766,12.0,744.0],["ARHGEF11",-0.10445965455118497,-2.6872315002347937,13.0,743.0],["ATP2B4",-0.09994869060242324,-2.5199226190078234,9.0,747.0],["BCAS3",-0.11853014971637668,-3.2481535617769928,9.0,747.0],["C1orf27",-0.10592828797142477,-2.7428012136021676,9.0,747.0],["CDH24",-0.10928181100025619,-2.8726509318999476,11.0,745.0],["CDK12",-0.11038328760144939,-2.91584441106246,8.0,748.0],["CHRM3",-0.11154463877128142,-2.9620316091154826,9.0,747.0],["COL16A1",-0.11425307971385236,-3.0713441343380254,12.0,744.0],["DICER1",-0.12564929097563307,-3.5553358775557022,12.0,744.0],["EZH1",-0.10024141825295044,-2.5306332736917656,10.0,746.0],["FHDC1",-0.12763481173622063,-3.6438328012849173,14.0,742.0],["FLNB",-0.11115541614761319,-2.9467754819124377,15.0,741.0],["HAUS3",-0.1079250603755518,-2.8195783471052707,8.0,748.0],["HELLS",-0.10158698054010502,-2.5798485617467146,8.0,748.0],["ITIH1",-0.09871924067608646,-2.475437346480322,9.0,747.0],["KCNB2",-0.10042385966860042,-2.5373340939575835,11.0,745.0],["KDM3B",-0.11894265709885181,-3.265446895489533,8.0,748.0],["KDM4B",-0.09480360646627277,-2.3368409866632147,10.0,746.0],["KNOP1",-0.10317751194901689,-2.63909881580411,13.0,743.0],["LHX1",-0.10614802864598728,-2.7511341026979106,8.0,748.0],["MORC1",-0.09584303340851556,-2.373238946468046,11.0,745.0],["MYOF",-0.12161048458840325,-3.379314422561807,14.0,742.0],["NEBL",-0.09142828248609451,-2.220914590899956,8.0,748.0],["NUGGC",-0.10173506651756872,-2.585310792815226,8.0,748.0],["PIWIL1",-0.1084379247996987,-2.8396309084796463,10.0,746.0],["RAD51AP2",-0.10729731062005408,-2.7954094985107005,10.0,746.0],["RP11-1055B8.7",-0.11248102326100602,-2.9997678982859712,15.0,741.0],["SLC16A13",-0.09874372977280177,-2.4762586731705096,8.0,748.0],["SLC16A9",-0.09101364174919611,-2.2069220001933965,8.0,748.0],["SLCO5A1",-0.10686437037583531,-2.7788837979274517,14.0,742.0],["SMARCB1",-0.11403489205330351,-3.062374235938468,10.0,746.0],["SOS2",-0.10401559057050984,-2.6702674741346706,8.0,748.0],["ZBTB21",-0.13490632546943973,-3.97773103599294,8.0,748.0]]}}}
{"ccle_rrbs_enhancer_clusters":{"corr":{"top":[],"bottom":[["1-232751930-232755683-0_enh",-0.17707660984503887,-3.775184601741441,447],["13-71358800-71361507-0_enh",-0.24206665742226255,-3.144048832583054,192]]},"para":{"top":[["20-39470648-39473175-0_enh",0.17731029626328912,-3.8429097323407975,455]],"bottom":[["1-232751930-232755683-0_enh",-0.1740853946134785,-3.6638744224367192,447],["13-71358800-71361507-0_enh",-0.25803748776704144,-3.519883418137113,192]]}}}
{"ccle_mirna":{"corr":{"top":[],"bottom":[["hsa-let-7i_miR00008.1",-0.16834080168322585,-4.006408659686776,530]]},"para":{"top":[],"bottom":[["hsa-let-7i_miR00008.1",-0.17457282545348812,-4.27305538009758,530],["hsa-miR-204_miR00231.2",-0.187242055544206,-4.844045388609363,530],["hsa-miR-490-3p_miR00394.1",-0.16108410688062386,-3.7075871107116942,530]]}}}
{"prism_primary_logfold":{"corr":{"top":[["adrafinil_BRD-A90926615-001-01-9::2.5::HTS",0.16247222093009084,-2.879083220502802,388],["GW-501516_BRD-K14880289-001-02-2::2.5::HTS",0.1970614665158935,-4.039463977615354,389],["cyproheptadine_BRD-K28143534-003-25-9::2.5::HTS",0.16067713909811954,-2.825006544850998,388],["ML347_BRD-K33892651-001-02-4::2.5::HTS",0.16295698687494878,-2.8874494710329963,387],["glimepiride_BRD-K34776109-001-16-6::2.5::HTS",0.16527654063727468,-2.9646643254903875,388],["cyproterone-acetate_BRD-K41141507-001-16-2::2.5::HTS",0.16311369107463639,-2.898540741932633,388],["acetylcysteine_BRD-K59058747-001-18-3::2.5::HTS",0.16859853639091735,-2.9257295248019797,367],["acitretin_BRD-K62012036-001-14-4::2.44::HTS",0.16745435138714718,-2.8918173547968196,367],["LY2157299_BRD-K78118466-001-03-3::2.5::HTS",0.17131491113892705,-3.1604854992012466,389],["GW-7647_BRD-K96263742-001-14-8::2.5::HTS",0.18243729726628738,-3.510110297121226,387],["cloranolol_BRD-A04971881-003-01-3::2.65294603::MTS004",0.18118095011426008,-3.3904335707675077,377],["solithromycin_BRD-K32256160-001-01-9::2.499998021::MTS004",0.17607426158188957,-3.2260850073329457,377]],"bottom":[["tosufloxacin_BRD-A41450521-075-10-8::2.5::HTS",-0.17177675226066197,-3.154234354783179,386]]},"para":{"top":[["tiletamine_BRD-A30582499-003-05-1::2.5::HTS",0.1869386033435879,-3.5398604744039517,372],["GW-501516_BRD-K14880289-001-02-2::2.5::HTS",0.21549905810609987,-4.742277718154135,389],["roxithromycin_BRD-K38684403-001-05-4::2.5::HTS",0.161171384399748,-2.852239918495041,390],["acetylcysteine_BRD-K59058747-001-18-3::2.5::HTS",0.17434028232354926,-3.0991291114876867,367],["acitretin_BRD-K62012036-001-14-4::2.44::HTS",0.17925094965467261,-3.25171959278005,367],["lidoflazine_BRD-K62996583-001-10-3::2.5::HTS",0.16570205078645647,-2.9843011592542346,389],["LY2157299_BRD-K78118466-001-03-3::2.5::HTS",0.19865629382260871,-4.0978021654376136,389],["cloranolol_BRD-A04971881-003-01-3::2.65294603::MTS004",0.18982674925125795,-3.678842411778334,377],["solithromycin_BRD-K32256160-001-01-9::2.499998021::MTS004",0.16472825878249026,-2.876678483426597,377]],"bottom":[["trequinsin_BRD-K84663978-003-02-9::2.5::HTS",-0.16972813927558142,-3.110125447474598,389]]}}}
{"prism_secondary_logfold":{"corr":{"top":[["bromosporine_BRD-K44665581-001-01-8::0.0390625::HTS002",0.17598471852704387,-2.8768304788675456,330],["YM-201636_BRD-K48488978-001-05-3::0.00976562::HTS002",0.20166783880875166,-3.65465637273344,331],["MLN-8054_BRD-K83963101-001-06-9::0.0024414::HTS002",0.20811717087789625,-3.1551804956028264,262]],"bottom":[["PD-184352_BRD-K05104363-001-10-0::0.0390625::HTS002",-0.21225809312010455,-4.022869750305226,333],["VS-4718_BRD-K09877029-001-01-2::0.625::HTS002",-0.19009479285998174,-3.2608751976171653,327],["tucatinib_BRD-K26026438-001-01-0::0.156250001::MTS006",-0.19679868482716356,-3.5467142004097116,336],["FK-3311_BRD-K38350380-001-01-8::0.0024414::HTS002",-0.19262783085119925,-3.389699870863479,333],["CR8-(R)_BRD-K40331046-305-01-5::0.625::HTS002",-0.19357471016721378,-3.463221157662793,338],["spermidine_BRD-K40438880-305-06-6::0.625::HTS002",-0.23107076689922518,-4.686666826139805,333],["chicago-sky-blue-6b_BRD-K56483981-342-06-4::0.00976562::HTS002",-0.20849776397716618,-3.9174125320477464,335],["deforolimus_BRD-K62304154-001-04-2::0.00061034::HTS002",-0.20253435457443866,-3.7114402677146785,334],["SB-200646_BRD-K77677632-003-02-6::0.0024414::HTS002",-0.2055505146639596,-3.8197022295959764,335]]},"para":{"top":[["YM-201636_BRD-K48488978-001-05-3::0.00976562::HTS002",0.19512081323115238,-3.4487876982314623,331],["etoposide-phosphate_BRD-K72533376-001-01-2::2.5::MTS006",0.2031801840240439,-3.7226306024040445,333],["10-deacetylbaccatin_BRD-K96631475-001-02-4::0.000593329::HTS002",0.19861552028463256,-3.595150605005754,335]],"bottom":[["lenalidomide_BRD-A17883755-001-06-1::0.00976562::HTS002",-0.1993753022140086,-3.6287738928292983,336],["ecamsule-triethanolamine_BRD-A47953250-001-01-7::0.0024414::HTS002",-0.20457602822215798,-3.2224063094538313,278],["PD-184352_BRD-K05104363-001-10-0::0.0390625::HTS002",-0.19477638466045744,-3.456099893886511,333],["pelitinib_BRD-K08799216-001-05-3::0.0390625::HTS002",-0.1941706256687472,-3.4729971710799035,337],["talmapimod_BRD-K17555800-003-02-3::2.5::MTS010::PROS002_PR500",-0.20620686287258388,-3.5601414524793698,307],["PD-153035_BRD-K26603252-003-04-9::0.625::HTS002",-0.21343145721078852,-4.062621253652454,333],["spermidine_BRD-K40438880-305-06-6::0.625::HTS002",-0.245727616310579,-5.24366641845235,333],["dacomitinib_BRD-K57169635-001-04-5::0.0390625::HTS002",-0.20176154587890677,-3.715296690357628,337],["deforolimus_BRD-K62304154-001-04-2::0.00061034::HTS002",-0.1993150741183753,-3.608078615214178,334]]}}}
{"ccle_proteomics":{"corr":{"top":[["CHMP4C_Q96CF2",0.243319458310956,-4.048831445005078,254],["ZDHHC8_Q9ULC8",0.4546640187100154,-7.518189041361182,135],["RXRG_P48443",0.3182800351768652,-3.970192955044158,143],["LNX2_Q8N448",0.3178659272430423,-4.229871182357772,154]],"bottom":[["MOCS1_Q9NZB8",-0.269521944195642,-3.4562587821210324,172],["RHOQ_P17081",-0.3036084442000886,-2.9896235812192984,114]]},"para":{"top":[["TNKS1BP1_Q9C0C2",0.24073651794804893,-4.081829979238899,262],["CHMP4C_Q96CF2",0.25782429258633266,-4.49592214679361,254],["ZDHHC8_Q9ULC8",0.33724881932044254,-4.1980616007118865,135],["TRIM37_O94972",0.27991165065254237,-2.842697806343423,127],["LNX2_Q8N448",0.29345212620940764,-3.6554653255032363,154],["AGMAT_Q9BSE5",0.23791443890933991,-3.875598068674616,253]],"bottom":[["IDUA_P35475",-0.25309899215107395,-4.3776354386481335,256],["ITPR1_G5E9P1",-0.24627795319658566,-4.109119000102005,252],["YIF1B_Q5BJH7",-0.25774031556680854,-4.146886336898287,232]]}}}
{"depmap_copy_number":{"corr":{"top":[["LOC100128310_100128310",0.27078506134681607,-13.461582053887984,757],["DPH3P1_100132911",0.27303954895773297,-13.682117717571629,757],["MIR1257_100302168",0.26814985194757684,-13.206409209037844,757],["MIR3195_100422838",0.2673930826357232,-13.133646929674192,757],["LINC00659_100652730",0.26759750794999754,-13.153279418345319,757],["OGFR-AS1_101409261",0.27177141684425066,-13.557814634191091,757],["TCFL5_10732",0.27303954895773297,-13.682117717571629,757],["SNORA117_109623463",0.2709560874146266,-13.478239785440806,757],["OGFR_11054",0.2729111187240259,-13.669499211059366,757],["DIDO1_11083",0.2709560874146266,-13.478239785440806,757],["RBBP8NL_140893",0.2651933964523041,-12.923456465087053,757],["GID8_54994",0.26983618991141944,-13.369377931601262,757],["RPS21_6227",0.2660617900182412,-13.006203678550323,757],["SLC17A9_63910",0.26983618991141944,-13.369377931601262,757],["TAF4_6874",0.26670655370637175,-13.067837356021828,757],["CABLES2_81928",0.2660617900182412,-13.006203678550323,757]],"bottom":[]},"para":{"top":[["LOC100128310_100128310",0.282110180474675,-14.590358802279694,757],["DPH3P1_100132911",0.27993266340617734,-14.369246924439167,757],["CDH4_1002",0.28501955845144306,-14.888842738815462,757],["MIR1257_100302168",0.2821808689354247,-14.597569494328052,757],["MIR3195_100422838",0.28214752618536376,-14.59416805550079,757],["LINC01718_100506470",0.2849801112565755,-14.884772249313317,757],["TCFL5_10732",0.27993266340617734,-14.369246924439167,757],["SNORA117_109623463",0.2792131511505359,-14.296614376122118,757],["OGFR_11054",0.2791778057711944,-14.293051849772118,757],["DIDO1_11083",0.2792131511505359,-14.296614376122118,757],["RBBP8NL_140893",0.2794478010296912,-14.32027818355391,757],["MTG2_26164",0.2781931056115947,-14.194008213893776,757],["GID8_54994",0.2783823958828205,-14.213016627465718,757],["RPS21_6227",0.2805826812056765,-14.43504725330853,757],["TAF4_6874",0.28193563794512017,-14.57256314175451,757],["CABLES2_81928",0.2805826812056765,-14.43504725330853,757]],"bottom":[]}}}
{"depmap_gene_tpm":{"corr":{"top":[["TPD52L2_7165",0.17706666471007065,-5.995219976662718,753],["PRELID3B_51012",0.1956083902758889,-7.2031534879084385,753],["MRGBP_55257",0.1778979248906624,-6.046793781708412,753],["DIDO1_11083",0.2475228352851124,-11.248611051669846,753],["GID8_54994",0.22096566377865412,-9.054289746508571,753],["CHMP4B_128866",0.18250049482595654,-6.336706513104787,753],["RPS21_6227",0.18816777927139636,-6.703875139953548,753]],"bottom":[["QRICH2_84074",-0.1714144179469567,-5.650887622202814,753],["ARMH4_145407",-0.19736728336454237,-7.324055788056281,753],["VLDLR_7436",-0.18361477303158846,-6.408007043032063,753],["ZNF575_284346",-0.16956814713198654,-5.540803025450397,753],["ANKS1B_56899",-0.21559767954046008,-8.642848236938809,753],["C2orf66_401027",-0.17373235293825387,-5.790758687278842,753],["COL11A2_1302",-0.18873249301058903,-6.7410808181751305,753],["ASIC3_9311",-0.17583730067261055,-5.919386480486058,753],["MYL5_4636",-0.17002518890393903,-5.567945089947186,753],["YJEFN3_374887",-0.18910834849656788,-6.7659061429332965,753],["MC1R_4157",-0.19111371042618064,-6.89920487079866,753]]},"para":{"top":[["ITCH_83737",0.21100911030069391,-8.299542147247317,753],["DNAJC5_80331",0.19548130302362818,-7.194460572924892,753],["PRELID3B_51012",0.2103399600302132,-8.250120921490122,753],["DIDO1_11083",0.2590331263575149,-12.283660358892663,753],["GID8_54994",0.24166214627699228,-10.741332189861241,753],["RPRD1B_58490",0.1931454367340314,-7.035709201662359,753],["CHMP4B_128866",0.19867023425233002,-7.41433069947519,753],["VAPB_9217",0.19445802358680872,-7.124676849080107,753],["STAU1_6780",0.1882752428555302,-6.710946614323048,753],["TAF4_6874",0.20254238000930322,-7.68620587045169,753]],"bottom":[["SLC26A4_5172",-0.19237960190889278,-6.984083511561271,753],["QRICH2_84074",-0.18873193933322266,-6.741044284484584,753],["PAQR6_79957",-0.18488859766133864,-6.490049862484546,753],["GRASP_160622",-0.18680605189797875,-6.614621510115494,753],["ZNF575_284346",-0.19543775918640535,-7.19148344879044,753],["ANKS1B_56899",-0.22557163860129115,-9.415830233209645,753],["DNAH10_196385",-0.1884734291345748,-6.723998643231801,753],["COL11A2_1302",-0.20495431918674076,-7.8582837650623985,753],["ASIC3_9311",-0.20508362803670485,-7.86756853966915,753],["YJEFN3_374887",-0.2045872139805935,-7.831957417868648,753],["MC1R_4157",-0.20105895806028337,-7.581413666009821,753]]}}}
{"avana":{"corr":{"top":[["ZNF335_63925",0.231534172591741,-9.944577240873214,757],["EIF2S2_8894",0.2073165175720477,-8.068102815874523,757],["TAF4_6874",0.23048890353379556,-9.859060242391022,757],["GID8_54994",0.19820267740455907,-7.417764375839476,757],["NTSR1_4923",0.2188550544995441,-8.934980311106102,757],["PCF11_51585",0.2529583207230764,-11.789497832219984,757],["DDX27_55661",0.2759134892454875,-13.966242604393242,757]],"bottom":[["UBA3_9039",-0.19853152114312356,-7.44070745446608,757],["RNF115_27246",-0.17860583491227391,-6.120138343015521,757],["CCNC_892",-0.17312500725696592,-5.78143237854947,757],["NINJ1_4814",-0.1714883323014012,-5.68231501522773,757]]},"para":{"top":[["NUP155_9631",0.20010462754377045,-7.551000448570571,757],["ZNF335_63925",0.2266938192345436,-9.552038331916739,757],["PCF11_51585",0.2430086908127241,-10.910694486394418,757],["EIF2S2_8894",0.19891977449093848,-7.467845608549087,757],["TAF4_6874",0.23297057629129836,-10.062769260004988,757],["GID8_54994",0.18782140892453839,-6.7133865375935144,757],["NTSR1_4923",0.20469479589452164,-7.877937437996399,757],["DDX27_55661",0.27511056359400293,-13.886524719424369,757]],"bottom":[["PPP1R1C_151242",-0.1876941828423245,-6.704992332747478,757],["UBA3_9039",-0.16888142884290133,-5.5263560938720735,757],["TBC1D28_254272",-0.1611386456615824,-5.076941055427093,757],["PPP2R5D_5528",-0.16305118165391597,-5.186037879177928,757],["CCNC_892",-0.20257041743516702,-7.725678947544115,757],["WDR7_23335",-0.16599884650320448,-5.356635686784946,757]]}}}
{"drive":{"corr":{"top":[["PRDM11_56981",0.25240603592597577,-4.566639639803626,270],["IRX1_79192",0.22975746105259368,-3.8550923366173184,270],["FLJ44635_392490",0.23728555032740936,-4.084031940703887,270],["FOXJ1_2302",0.26193123247015804,-4.886578186189261,270],["FKBP3_2287",0.273823830321976,-5.250673487622158,267],["ZADH2_284273",0.23952181114925775,-4.112785381294809,267],["SPRY4_81848",0.237711774424262,-4.0972174728118445,270],["RPS21_6227",0.2659580211666435,-5.025598957271514,270],["DIDO1_11083",0.3255808037645525,-7.358797286676361,270],["MAFA_389692",0.25908996395321787,-4.7898387173155506,270],["LGALS3_3958",0.22653629249241108,-3.722896209978334,267],["RPL14_9045",0.23940140264080273,-4.081953031983399,265]],"bottom":[["MYD88_4615",-0.24507290035605298,-4.328752008870814,270],["TBK1_29110",-0.235437994207185,-4.027154369938538,270],["DECR1_1666",-0.2682246991528717,-5.104848070437774,270],["FRMPD1_22844",-0.23580672506213987,-3.972674429112414,265],["RASGEF1C_255426",-0.2647072716440753,-4.982176617335836,270],["FEN1_2237",-0.26424686569532735,-4.916850305446191,267]]},"para":{"top":[["FABP9_646480",0.2186699517641869,-3.4972712811517974,267],["PRDM11_56981",0.2294630409197402,-3.8462896787036223,270],["ARNT_405",0.24280257270148947,-4.256570477848593,270],["MSI2_124540",0.2433618073672792,-4.232302248569821,267],["SUPT16H_11198",0.2481467425101626,-4.427583296009049,270],["RPS21_6227",0.254088405958545,-4.622244248594612,270],["DIDO1_11083",0.3092563079879365,-6.667148291941472,270],["AVPR1B_553",0.22806099788001646,-3.767544026057588,267],["NFKBIB_4793",0.21401309700655774,-3.3455884672156895,265],["RPL14_9045",0.21559812725248853,-3.389172514448692,265],["EZH2_2146",0.21726696405552193,-3.4915230859333244,270]],"bottom":[["MYD88_4615",-0.24074074074128882,-4.191614957559639,270],["RAD23B_5887",-0.2201105826594516,-3.572525573835588,270],["EPB41L1_2036",-0.23783273489641868,-4.034058892743402,265],["CFLAR_8837",-0.23151593328120776,-3.869823188507842,267],["TBK1_29110",-0.25846337029579197,-4.76865435631482,270],["SLC37A3_84255",-0.24646444268160797,-4.330293566240698,267],["H3F3AP4_440926",-0.2143092624163119,-3.35370840362838,265],["QPCT_25797",-0.2338281613482028,-3.913240513899031,265],["FEN1_2237",-0.25495168027620563,-4.604913293688829,267]]}}}
{"achilles":{"corr":{"top":[["HSPA12B_116835",0.27973028163339503,-4.31293146802054,205],["PHF20L1_51105",0.2572108203806948,-3.7058454800218965,205],["DIDO1_11083",0.2992346198406661,-7.92474718957185,349],["UBASH3A_53347",0.22363540590806738,-4.605115437793022,349]],"bottom":[["CCDC42_146849",-0.2348452471324968,-3.154681090513062,205],["MYH8_4626",-0.23578061512577514,-3.1767264335203027,205],["ANKRD40_91369",-0.22140535450213758,-4.522488353263948,349],["ABHD2_11057",-0.20649319234892136,-3.991303172887409,349]]},"para":{"top":[["EIF2S2_8894",0.22100598203695435,-4.507779300922469,349],["HSPA12B_116835",0.22917709921570123,-3.022935485076388,205],["KRTAP9-4_85280",0.2551312499574606,-3.6524562036750274,205],["DIDO1_11083",0.2902186740028179,-7.473678394002915,349],["DNASE1_1773",0.22335058088803875,-4.594515521820103,349],["LOC107984067_107984067",0.2840102687759236,-4.434418936397416,205]],"bottom":[["CCDC42_146849",-0.2470331196450879,-3.4487670862463586,205],["CEP41_95681",-0.23720035673380435,-3.210353417709684,205],["IGF2_3481",-0.2260557611522551,-4.695743337010197,349],["TAF1D_79101",-0.23300332216748612,-3.1115221737226273,205],["MYH8_4626",-0.2604515010872512,-3.789933681817376,205],["ANKRD40_91369",-0.20708280852144503,-4.011607494341469,349],["SOCS4_122809",-0.20252149886943316,-3.8560145292685446,349],["AKAP2_11217",-0.23020064277397562,-3.0464923402539434,205]]}}}
{"ccle_rrbs_tss1kb":{"corr":{"top":[["PIK3C3_18_39534162_39535162",0.17725677568230622,-3.6343967918764823,427]],"bottom":[["MIR4520-2_17_6557767_6558767",-0.20035422349473225,-4.694605979922021,446],["PACSIN3_11_47208010_47209010",-0.1936008014544785,-4.5713847591017664,464],["HAAO_2_43019751_43020751",-0.19060806079532025,-4.420081448368844,461]]},"para":{"top":[["TPH2_12_72331625_72332625",0.20334670119828613,-4.83151101034002,447],["UGT2B7_4_69915981_69916981",0.24471832094642296,-5.10602775638054,326],["GSN-AS1_9_124047808_124048808",0.2186100157753609,-3.9256249468119053,305],["DNAH7_2_196933536_196934536",0.20971562431202445,-5.231820778209202,459],["SLITRK2_23_144898346_144899346",0.19419556890959147,-4.033077270690044,400],["GSN_9_124047358_124048358",0.2663557565465424,-4.030592802611737,210],["MYH9_22_36784112_36785112",0.19943529112570044,-2.6337640953332504,231]],"bottom":[["MIR4520-2_17_6557767_6558767",-0.19476866362588804,-4.462028928163215,446],["TTC22_1_55266941_55267941",-0.2144760442788137,-5.354598910742889,450],["HAAO_2_43019751_43020751",-0.18559095928801794,-4.214596539275228,461]]}}}
{"ccle_gene_tpm":{"corr":{"top":[["SLMO2_ENSG00000101166.11",0.18884078297851972,-5.215903750955189,566],["GID8_ENSG00000101193.6",0.26944580831170234,-10.14448495712998,566],["MAPRE1_ENSG00000101367.8",0.2141012484712957,-6.565967643876328,566],["AHCY_ENSG00000101444.8",0.18677947762519065,-5.113235731718327,566],["ARFRP1_ENSG00000101246.15",0.1837168802491403,-4.962754101772629,566],["DIDO1_ENSG00000101191.12",0.29241155512480144,-11.894537479427049,566],["ITCH_ENSG00000078747.8",0.18257122591312305,-4.907092358175403,566],["TAF4_ENSG00000130699.12",0.21774925101272957,-6.775205069155441,566],["RPS21_ENSG00000171858.13",0.24034409675687285,-8.153582904843104,566],["RALY_ENSG00000125970.7",0.19200079850115817,-5.37546834811686,566],["MTG2_ENSG00000101181.13",0.1966397706301173,-5.614500691261162,566],["MRGBP_ENSG00000101189.5",0.22726047147930048,-7.338010946468758,566]],"bottom":[["VLDLR_ENSG00000147852.11",-0.2287799466303154,-7.430253890738019,566],["MC1R_ENSG00000258839.2",-0.20318372381332486,-5.961446025228278,566],["RFPL2_ENSG00000128253.9",-0.2009870533175546,-5.8437048549322865,566],["AC159540.1_ENSG00000230606.6",-0.1959501123334915,-5.578602921303357,566],["C14orf37_ENSG00000139971.11",-0.2180637483462021,-6.793414756667749,566],["CTD-2611O12.6_ENSG00000268593.1",-0.20595309776202606,-6.111734362692019,566],["RP11-66N24.3_ENSG00000258727.1",-0.20457038280800016,-6.036438771064268,566],["None_ENSG00000239775.1",-0.21027230601045502,-6.350268060021952,566],["CNN2P1_ENSG00000227201.2",-0.20298416277708414,-5.9506960466163905,566],["ZNF575_ENSG00000176472.6",-0.19518356578423707,-5.538851491274646,566],["YJEFN3_ENSG00000250067.7",-0.21513873759628854,-6.625103202850966,566],["ANKS1B_ENSG00000185046.14",-0.21493956721730512,-6.613727881909436,566],["CD101_ENSG00000134256.8",-0.23586272111639184,-7.86878616125135,566],["FOXD4_ENSG00000170122.4",-0.21339352924377455,-6.525797537344178,566],["DGCR9_ENSG00000273032.1",-0.2097305210534101,-6.3200697090241045,566]]},"para":{"top":[["SLMO2_ENSG00000101166.11",0.20395573614190965,-6.003133797458703,566],["PIGU_ENSG00000101464.6",0.19782884774395032,-5.676691548904195,566],["CHMP4B_ENSG00000101421.3",0.19931774110836556,-5.755095351515952,566],["GID8_ENSG00000101193.6",0.28373916224276524,-11.214637751054877,566],["MAPRE1_ENSG00000101367.8",0.21319622119411177,-6.514622749721463,566],["AHCY_ENSG00000101444.8",0.20594339328141362,-6.111204107730785,566],["DIDO1_ENSG00000101191.12",0.2842289719734862,-11.252416624956327,566],["CSTF1_ENSG00000101138.7",0.1950651718066355,-5.532725764546679,566],["ITCH_ENSG00000078747.8",0.21301336274968188,-6.504275829744558,566],["TAF4_ENSG00000130699.12",0.2296320790778699,-7.4822672755831015,566],["RPS21_ENSG00000171858.13",0.2169507729789863,-6.729094686393359,566],["RALY_ENSG00000125970.7",0.20258439710494716,-5.9291936326205175,566],["DNAJC5_ENSG00000101152.6",0.20032972952632724,-5.808724091026284,566],["MRGBP_ENSG00000101189.5",0.21861254554946555,-6.825255847432296,566]],"bottom":[["VLDLR_ENSG00000147852.11",-0.23853690824330773,-8.038046615174153,566],["MC1R_ENSG00000258839.2",-0.23034242529799004,-7.525781780582138,566],["AC159540.1_ENSG00000230606.6",-0.2279530988232901,-7.379978257339869,566],["TPGS1_ENSG00000141933.8",-0.21585256926950974,-6.665961963767678,566],["GNRH2_ENSG00000125787.7",-0.2118966922357625,-6.441287869999374,566],["CD101_ENSG00000134256.8",-0.21218895567845042,-6.457740683694969,566],["None_ENSG00000239775.1",-0.22308472577909302,-7.087830754997701,566],["SLC26A4_ENSG00000091137.7",-0.23292998857327119,-7.68549035881219,566],["YJEFN3_ENSG00000250067.7",-0.24888231885693501,-8.712098284859696,566],["ZNF575_ENSG00000176472.6",-0.21982236343800052,-6.895742432734912,566],["IDUA_ENSG00000127415.8",-0.21769340729356207,-6.771974511742991,566],["None_ENSG00000243696.4",-0.21133146071219722,-6.409534530151144,566],["ANKS1B_ENSG00000185046.14",-0.22239833434006592,-7.047171119249268,566],["SIPA1L2_ENSG00000116991.6",-0.21229065410961767,-6.463471206197382,566],["RP11-66N24.3_ENSG00000258727.1",-0.22100248519800025,-6.964888166500772,566],["FOXD4_ENSG00000170122.4",-0.21128962092982081,-6.407187532911155,566]]}}}
{"ccle_rrbs_tss_clusters":{"corr":{"top":[["LINC01683_1",0.23073464287747703,-3.7455656607756294,259],["ZNF415_4",0.2419796222823829,-3.1702636579054104,194],["YPEL1_3",0.2209872020862379,-5.814547560825131,464],["MAGEA11_3",0.2274344415555514,-3.5525814627077064,251],["LOC101928618_2",0.32855445546290596,-4.2883523323240835,146]],"bottom":[["TEAD4_3",-0.21021240962201104,-3.818700413729903,320],["TTC7A_4",-0.2464209491350624,-3.214894250455655,190],["TMEM30B_1",-0.2553382456462099,-7.719541583511956,471],["LINC01303_2",-0.22577102417675343,-3.628003314416009,261],["EGLN3_2",-0.2088455790907664,-4.979616066033425,438],["SERPINB9P1_3",-0.26619884107631553,-3.158043432162742,159],["ARHGEF28_3",-0.2284210862303958,-5.004785974592539,367],["PDGFA_2",-0.20840558299422576,-4.859565106598053,428],["N4BP2L1_1",-0.2205483448421009,-5.34199028210869,424],["ZMYND15_2",-0.20848026626181632,-5.246438975772024,466]]},"para":{"top":[["SLC44A2_4",0.23014751553373913,-3.5649634412346574,246],["ATIC_1",0.2676968016267585,-2.735529031697134,133],["LOC441666_3",0.24730464656004794,-3.36750159643634,199],["LOC101928618_2",0.3344177636541896,-4.431823951780255,146],["SPHKAP_2",0.2329550358687875,-4.131005992343912,284],["NAB2_2",0.27764060605925356,-2.7456000017470203,124],["GSN_10",0.2648919161788578,-4.057577291507109,214],["SSSCA1-AS1_3",0.23417861437906484,-6.054064306005834,431],["UGT2B7_1",0.24830350546591054,-5.316385836235791,331]],"bottom":[["CMTM6_2",-0.21735482035750353,-3.516459830522258,272],["TTC7A_4",-0.24769784644185858,-3.2442844793801346,190],["LINC00880_1",-0.22174488540067172,-3.701180075771814,277],["SERPINB9P1_3",-0.26300416723622105,-3.09151447935043,159],["ARHGEF28_3",-0.22194243991011933,-4.749768235959632,367],["LINC01806_2",-0.2110808825908024,-4.9835819803866155,429]]}}}
{"ccle_rrbs_cgi_clusters":{"corr":{"top":[["5_178365620_178368172-1",0.2568396125449333,-3.7593435753266107,209],["4_77721092_77725424-2",0.23531037987931522,-4.219453603438153,285],["10_49346137_49350676-2",0.26523946195192116,-4.201199602911658,222]],"bottom":[["6_2873601_2877811-3",-0.26619884107631553,-3.158043432162742,159],["14_34417508_34422438-2",-0.2088455790907664,-4.979616066033425,438],["12_3068702_3071444-3",-0.21021240962201104,-3.818700413729903,320],["2_47140466_47145261-1",-0.2464209491350624,-3.214894250455655,190],["14_61744804_61747472-1",-0.2601548132920874,-7.919769450001996,466],["5_72919593_72924527-3",-0.2284210862303958,-5.004785974592539,367]]},"para":{"top":[["5_178365620_178368172-1",0.246093298991461,-3.483576366647554,209],["4_77721092_77725424-2",0.25259568047674996,-4.798440844387601,285],["19_42755495_42758485-1",0.26076309523944097,-4.316044354969235,237],["1_228747005_228751901-3",0.2545675772243767,-3.638061485078158,205],["10_49346137_49350676-2",0.2783456432772716,-4.587619454355141,222],["17_79181373_79185967-3",0.23931260001357146,-4.430729799812207,291]],"bottom":[["3_32542018_32546325-2",-0.21735482035750353,-3.516459830522258,272],["14_105357835_105362153-2",-0.22406545828381538,-5.77864036956345,448],["2_162099439_162103650-2",-0.2110808825908024,-4.9835819803866155,429],["6_2873601_2877811-3",-0.26300416723622105,-3.09151447935043,159],["2_47140466_47145261-1",-0.24769784644185858,-3.2442844793801346,190],["14_61744804_61747472-1",-0.24780923339658273,-7.224428578924626,466],["5_72919593_72924527-3",-0.22194243991011933,-4.749768235959632,367]]}}}
