{"depmap_hotspot":{"corr":{"top":[["CLDN17",0.13742342540188743,-3.8708553822338483,14.0,753.0],["DPPA3",0.11796018996254819,-2.972984368690634,9.0,758.0],["EMR1",0.11780608236782315,-2.9663719646421227,40.0,727.0],["ENTHD1",0.09699021786837768,-2.1434878461123144,32.0,735.0],["HFE",0.09585298572831723,-2.1025030104490736,12.0,755.0],["KLF16",0.12312467780908304,-3.1990630465418604,12.0,755.0],["LTA",0.10133265671191141,-2.3037363632647,18.0,749.0],["MAGEA11",0.10402408743493484,-2.4060560304916896,14.0,753.0],["NCR1",0.09692107391179641,-2.1409843476612718,17.0,750.0],["OSTM1",0.09634654286518263,-2.120240437461287,10.0,757.0],["PHKA1",0.11009120710535741,-2.645185702982717,42.0,725.0],["PRSS50",0.09621515540640396,-2.1155111669952094,21.0,746.0],["STRN",0.11856387087666587,-2.9989614145691994,18.0,749.0],["TBCK",0.11730101320431424,-2.9447547733546875,42.0,725.0],["TMC3",0.10747176346323614,-2.5404973742204584,49.0,718.0],["TMC6",0.11026818175082714,-2.652338124872776,44.0,723.0],["TPTE",0.10623863175585109,-2.49197550083066,102.0,665.0],["ZNF726",0.1115846471228865,-2.7058594361148676,14.0,753.0]],"bottom":[["BTBD18",-0.10199654978985993,-2.3287616971481353,12.0,755.0],["C1orf192",-0.14012025705314088,-4.005192868324739,11.0,756.0],["C2CD4D",-0.11756935856515269,-2.956229743845354,23.0,744.0],["CA8",-0.12355979145556052,-3.218509155012939,16.0,751.0],["CACYBP",-0.09832290865085927,-2.1920348049089173,9.0,758.0],["CCDC40",-0.11282423448972304,-2.756765922865052,52.0,715.0],["CYB561",-0.11888852621865069,-3.0129807831800446,11.0,756.0],["EBNA1BP2",-0.10801718763876163,-2.562114272893817,10.0,757.0],["EPS8L2",-0.13070315075477903,-3.5466756386214486,34.0,733.0],["F3",-0.11446152726918324,-2.824765933792141,8.0,759.0],["FAM53C",-0.13610048400203695,-3.8058467320684555,11.0,756.0],["GABRA2",-0.10015740187647199,-2.259777870188935,40.0,727.0],["GGCT",-0.10667668404218732,-2.5091564874888044,10.0,757.0],["GJC3",-0.10109189461873583,-2.294695412646798,15.0,752.0],["HDAC10",-0.09759750874420892,-2.1655407097192114,32.0,735.0],["KLHL4",-0.11261106230912246,-2.74797621153665,36.0,731.0],["KRT6A",-0.1045831521761863,-2.4275989214204308,27.0,740.0],["MDK",-0.1035282318679454,-2.3870321247110904,10.0,757.0],["MICU1",-0.13485823433239338,-3.745335890487541,8.0,759.0],["MOB1B",-0.11253660562739594,-2.744909602832445,15.0,752.0],["NDUFA9",-0.10323608605979226,-2.3758603420616513,16.0,751.0],["PCTP",-0.11981460859016295,-3.0531600232862868,10.0,757.0],["RNF175",-0.12996415334759162,-3.511944021904165,15.0,752.0],["RPGRIP1L",-0.10952016750604406,-2.6221758364015284,50.0,717.0],["SF3B2",-0.10226927349897726,-2.339082497721507,28.0,739.0],["SIAE",-0.10478975455492875,-2.4355853039474202,23.0,744.0],["SLC17A8",-0.10648274656995767,-2.501542436093046,35.0,732.0],["TGIF1",-0.09345263121702094,-2.017328752590935,16.0,751.0],["THOC3",-0.11050580888780372,-2.6619576616169938,18.0,749.0],["TRMT10C",-0.1232276053354791,-3.20365747562636,15.0,752.0]]},"para":{"top":[["CLDN17",0.1395959230126181,-4.251705088650903,14.0,753.0],["DPPA3",0.12057255784066147,-3.372105946011156,9.0,758.0],["EDARADD",0.10926973714043293,-2.9033289595544574,10.0,757.0],["GSR",0.10908015499659111,-2.8961332250305123,22.0,745.0],["KHDC1L",0.09533870124336064,-2.3798506802161055,11.0,756.0],["LTA",0.10284425282524694,-2.6546967899441993,18.0,749.0],["MAGEA11",0.1011504096321145,-2.5911090454160153,14.0,753.0],["NCR1",0.10195545825799512,-2.621250159269332,17.0,750.0],["OSTM1",0.10659639202749598,-2.798235024665449,10.0,757.0],["PRSS50",0.10267749547629373,-2.648459850480501,21.0,746.0],["ZNF22",0.09493152751642973,-2.3655128706579562,13.0,754.0],["ZNF726",0.11951540029156556,-3.326799089602629,14.0,753.0]],"bottom":[["ANKRD65",-0.09633969223863093,-2.4156084027522042,15.0,752.0],["ATP6V1B2",-0.09670115213005816,-2.4285509404447514,15.0,752.0],["BTBD18",-0.09620386095688482,-2.410667170480473,12.0,755.0],["C2CD4D",-0.12634763107445124,-3.6274870634137333,23.0,744.0],["CA8",-0.10145933635108532,-2.6026750700980372,16.0,751.0],["CACYBP",-0.09919211787889343,-2.518606593567536,9.0,758.0],["EBNA1BP2",-0.11978143394372877,-3.3380555914059205,10.0,757.0],["FADD",-0.09771984806026843,-2.4650717011631404,10.0,757.0],["GJC3",-0.0978280564974489,-2.4691574322579104,15.0,752.0],["MDK",-0.10981478808578904,-2.9250271076293752,10.0,757.0],["MICU1",-0.10702350463639014,-2.814759290773798,8.0,759.0],["NDUFA9",-0.11625076853384254,-3.1884310869947416,16.0,751.0],["PAK2",-0.11350209143119162,-3.074501476074429,18.0,749.0],["PCTP",-0.11259195242641286,-3.0370135174799002,10.0,757.0],["STON1-GTF2A1L",-0.10813800383358797,-2.8586927608004897,13.0,754.0],["TBC1D21",-0.09536346454238494,-2.380728498843285,11.0,756.0],["THOC3",-0.10836765823416718,-2.8678763484365946,18.0,749.0]]}}}
{"depmap_damaging":{"corr":{"top":[["USP53",0.12777802004548186,-3.410258271234901,8.0,759.0]],"bottom":[["GPR158",-0.11105434338893372,-2.6842326397822993,10.0,757.0],["LMBRD1",-0.10498187210278088,-2.4430239762322308,21.0,746.0],["METTL16",-0.1026450467403472,-2.353341738075153,11.0,756.0],["PEG3",-0.1219935387230072,-3.1488006728831324,14.0,753.0],["ZNF66",-0.10971720791708535,-2.6301036756261214,8.0,759.0]]},"para":{"top":[["NCOA2",0.11122162766112847,-2.9815476630238447,12.0,755.0],["SVEP1",0.10036009636527891,-2.5617563765436797,13.0,754.0]],"bottom":[["CNTN5",-0.10028508616387478,-2.5590649047609704,16.0,751.0],["COL6A5",-0.10257383753012507,-2.6445203052180455,19.0,748.0],["METTL16",-0.0906584377277775,-2.21729432454733,11.0,756.0],["OPLAH",-0.10539260064720599,-2.7516783930056663,11.0,756.0],["PEG3",-0.09730145949390616,-2.4501075306943996,14.0,753.0],["ZKSCAN1",-0.09891243617173053,-2.5085982775722893,15.0,752.0],["ZNF66",-0.10905211154799245,-2.8945711245358687,8.0,759.0]]}}}
{"ccle_rrbs_enhancer_clusters":{"corr":{"top":[["10-94511996-94515992-0_enh",0.16726048027501073,-3.4825235844123124,457]],"bottom":[["7-70101123-70103727-0_enh",-0.16231244087515562,-3.2805500394384453,453],["23-25017911-25020756-0_enh",-0.1686992849018047,-3.03036463478591,382]]},"para":{"top":[],"bottom":[]}}}
{"prism_primary_logfold":{"corr":{"top":[["malic-acid_BRD-A18396475-001-15-3::2.56::HTS",0.16863770071851253,-2.947229677873596,370],["ramelteon_BRD-K28761891-001-10-1::2.5::HTS",0.18527125649094026,-3.6385350575043445,391],["nicotinamide_BRD-K28912512-001-23-2::2.5::HTS",0.1712459163672791,-3.158286704374136,389],["aptiganel_BRD-K63919159-003-07-0::2.5::HTS",0.17660092973096958,-3.301901229169636,385],["inosine_BRD-K79612754-001-21-7::2.5::HTS",0.16272673122942466,-2.9120422253903597,392],["spironolactone_BRD-K90027355-001-19-0::2.5::HTS",0.18125752380830137,-3.5092768818117275,392],["idoxuridine_BRD-K76634210-001-12-1::2.5::MTS004",0.19299300534446273,-3.81396292956087,380]],"bottom":[["acetarsol_BRD-K99048103-001-18-4::2.5::HTS",-0.186287448680078,-3.6655097943444788,390]]},"para":{"top":[["brucine_BRD-A41995253-001-04-5::2.5::HTS",0.18225150578109017,-3.543020844601421,392],["sparfloxacin_BRD-K07612980-001-07-9::2.5::HTS",0.1611337476913253,-2.8634925471803725,392],["ramelteon_BRD-K28761891-001-10-1::2.5::HTS",0.16991525115375464,-3.129742532314701,391],["mifepristone_BRD-K37270826-001-27-6::2.66::HTS",0.16137141197924523,-2.764963307149598,375],["CB-03-01_BRD-K41779183-001-01-2::2.5::HTS",0.16192698964504393,-2.8813619285184817,391],["NXY-059_BRD-K46133855-304-03-8::2.5::HTS",0.17072098674692962,-3.1277551298503687,387],["aptiganel_BRD-K63919159-003-07-0::2.5::HTS",0.16235275452013348,-2.85660210906841,385],["inosine_BRD-K79612754-001-21-7::2.5::HTS",0.17202573724490972,-3.2042254892444975,392]],"bottom":[["acetarsol_BRD-K99048103-001-18-4::2.5::HTS",-0.19138854540443181,-3.844274282427002,390]]}}}
{"prism_secondary_logfold":{"corr":{"top":[["D-4476_BRD-K09132007-001-07-5::2.5::HTS002",0.21468069865266043,-4.0835043835877975,331],["teprenone_BRD-K11510141-001-01-8::0.15625::HTS002",0.21344191154100067,-3.8698140543604818,315],["isopropyl-myristate_BRD-K13409143-001-01-9::10::HTS002",0.21791047740070835,-4.21636607042501,333],["nafcillin_BRD-K18574842-236-17-7::2.5::HTS002",0.22723378379902617,-4.146078486543632,300],["TH-302_BRD-K20958582-001-01-4::0.625::HTS002",0.20231709288685634,-3.248523504853291,287],["5-hydroxymethyl-tolterodine_BRD-K24603946-001-02-1::0.15625::HTS002",0.20257043161770777,-3.2556181209052526,287],["AP1903_BRD-K28383148-001-01-4::0.0024414::HTS002",0.22969608284636817,-4.065348454578023,287],["RS-67506_BRD-K50018155-003-02-1::0.00061034::HTS002",0.2444460457585565,-4.5483348622321955,287],["lurasidone_BRD-K51143828-003-03-1::0.00061034::HTS002",0.20944794860195842,-3.9698562092713248,337],["baricitinib_BRD-K53581288-001-02-9::0.15625::HTS002",0.24073352203448178,-5.104146525530471,337],["4E1RCat_BRD-K67173685-001-06-9::0.000582967::HTS002",0.23227300103524862,-4.147524084722527,287],["skepinone-l_BRD-K83607951-001-02-2::2.5::HTS002",0.21082023036165382,-3.963990817482585,332],["linsitinib_BRD-K86118762-001-01-8::0.00061034::HTS002",0.2126603755352386,-3.545152356371294,287]],"bottom":[["indirubin_BRD-K17894950-001-14-3::10::MTS010::PROS002_PR500",-0.1835109779251586,-2.9230048757950158,309],["canertinib_BRD-K50168500-001-07-9::0.00061034::HTS002",-0.17882859229876893,-2.949408036471253,329],["semaxanib_BRD-K63504947-001-14-7::0.0391::MTS010::PROS002_PR500",-0.18866415699779357,-3.065857525132841,309],["elesclomol_BRD-K82135108-001-04-3::0.00061::MTS010::PROS001_PR500",-0.18094960697670454,-2.9864088329514855,326]]},"para":{"top":[["XL-647_BRD-K03765900-001-01-9::0.00061::MTS010::PROS002_PR500",0.18675691557549282,-3.01255397369073,309],["teprenone_BRD-K11510141-001-01-8::0.15625::HTS002",0.22465895321712384,-4.240609990309191,315],["SB-228357_BRD-K15424032-001-03-6::10::HTS002",0.1878526244262033,-3.2278860586273845,331],["TH-302_BRD-K20958582-001-01-4::0.625::HTS002",0.20007588967322482,-3.1861305872901053,287],["AP1903_BRD-K28383148-001-01-4::0.0024414::HTS002",0.20125580959159972,-3.218895422993669,287],["lurasidone_BRD-K51143828-003-03-1::0.00061034::HTS002",0.18647618132390534,-3.2365047816284074,337],["baricitinib_BRD-K53581288-001-02-9::0.15625::HTS002",0.19410258781921497,-3.4708659646054496,337],["4E1RCat_BRD-K67173685-001-06-9::0.000582967::HTS002",0.19025943510895274,-2.9206460526794484,287],["azithromycin_BRD-K74501079-001-18-1::2.5::HTS002",0.20536553303774902,-3.654358001372047,319],["dequalinium_BRD-K77685957-300-09-1::0.00976562::HTS002",0.19355476043404207,-3.409387591675376,332],["skepinone-l_BRD-K83607951-001-02-2::2.5::HTS002",0.1906757158019112,-3.3213609234047645,332],["linsitinib_BRD-K86118762-001-01-8::0.00061034::HTS002",0.20198171234720042,-3.239144460382703,287],["telotristat-ethyl_BRD-K94559059-091-01-6::0.625::HTS002",0.2347952878641418,-3.2990222388750032,216]],"bottom":[["securinine_BRD-K49071277-001-04-7::2.5::HTS002",-0.19682097055915987,-3.4741180900554403,328],["cyclocytidine_BRD-K67536197-003-11-4::0.00061034::HTS002",-0.180255622077795,-2.966734351776751,326],["elesclomol_BRD-K82135108-001-04-3::0.00061::MTS010::PROS001_PR500",-0.17554517944567943,-2.8350514044058737,326]]}}}
{"ccle_proteomics":{"corr":{"top":[["VPS18_Q9P253",0.2811622701226386,-5.4405632111261415,263],["GNPDA2_Q8TDQ7",0.2782149003830836,-4.78578205716166,233],["EML3_Q32P44",0.2750841699292953,-5.224162740457674,263],["ACSL6_Q9UKU0-9",0.28795381374116175,-4.369997094590162,196],["TAOK1_Q7L7X3",0.27568072550151757,-5.245175100032358,263],["VPS16_Q9H269",0.2849632550200167,-5.578513311635761,263],["ACLY_P53396-2",0.2986006757351848,-4.202186931843492,174],["GPS1_Q13098-7",0.27754196271133635,-5.3110498867221,263],["VPS33A_Q96AX1",0.28666344708840674,-5.640877014829387,263],["PSMD12_O00232",0.28120542970547796,-5.442118240276857,263],["MPV17_P39210",0.27822291590957027,-4.03019320629663,192],["VPS11_Q9H270",0.2824030825947139,-5.485373405485728,263]],"bottom":[["ITSN1_Q15811-7",-0.30594824693172035,-2.869156117107967,107],["HNRNPK_Q5T6W1",-0.3188151161275189,-3.2379152574545054,113],["GLTSCR1_Q9NZM4",-0.30061408207733836,-6.018681057830752,256],["SLC38A5_Q8WUX1",-0.270522638222412,-3.6728366790581752,183],["MED29_Q9NX70",-0.26867294346307585,-5.001434960524299,263],["LIN52_Q52LA3",-0.299282783752293,-5.225462119339129,221],["AMBP_P02760",-0.33512478399655454,-3.4065099723161376,108],["PKNOX1_P55347-2",-0.27695995639850307,-4.909705099615931,242],["MED21_Q13503",-0.2935153495919671,-4.855047149134629,212],["NDUFAB1_O14561",-0.2840191088716018,-4.933434008135093,231]]},"para":{"top":[["GNPDA2_Q8TDQ7",0.28495808111132526,-5.00216232606544,233],["RNF123_Q5XPI4",0.27589283431884204,-4.766702177233287,236],["WDR11_Q9BZH6",0.2851206611391309,-5.584269894445932,263],["HECTD3_Q5T447",0.27891569424285045,-5.359978901880724,263],["ACLY_P53396-2",0.29723596126422863,-4.167072745698728,174],["RIN3_Q8TB24",0.31568223934088074,-3.5958208903146702,130],["CCZ1_P86791",0.28111677412282876,-5.438924283556446,263],["GPS1_Q13098-7",0.27965331484085376,-5.38635957551701,263],["VPS33A_Q96AX1",0.2836139699201007,-5.529311040538025,263],["AP1M1_Q9BXS5",0.2777906869932701,-5.319889394899767,263],["PSMD12_O00232",0.2850021810062332,-5.57993656950761,263],["PRKACB_P22694-2",0.27882105975601673,-5.3565998280808005,263],["MPV17_P39210",0.2921992212704467,-4.407392282267928,192],["THG1L_Q9NWX6",0.2786208254545138,-5.349454256459926,263],["FAM120B_Q96EK7",0.3164243977746079,-6.800007625137584,263],["TRAPPC5_Q8IUR0",0.2756039968494878,-5.152828582165757,258]],"bottom":[["GLTSCR1_Q9NZM4",-0.30287042436329553,-6.104318856678888,256],["MBD6_Q96DN6",-0.2851836722253134,-3.0966428604536964,135],["GPKOW_Q92917",-0.27487995809836124,-5.2169811322200115,263],["MXRA8_Q9BRK3",-0.2630820645064126,-2.7050949769409156,136],["SS18L2_Q9UHA2",-0.30614946325239917,-3.470287603572628,133],["RAE1_P78406",-0.27380994198782105,-5.1794455436686535,263],["LIN52_Q52LA3",-0.305639941810269,-5.435136473337286,221],["PKNOX1_P55347-2",-0.26976411008480705,-4.677707809221562,242],["PMF1-BGLAP_U3KQ54",-0.3243972852815265,-3.7276723097683533,128],["MED21_Q13503",-0.2723641757566878,-4.232272396057991,212],["ZNF597_Q96LX8",-0.28119718950650907,-3.1361598221046596,141]]}}}
{"depmap_copy_number":{"corr":{"top":[["PJVK_494513",0.1314675498188927,-3.5908670574590835,769]],"bottom":[["GALNS_2588",-0.15454910091038712,-4.776722708272977,769],["MMP17_4326",-0.1420849173500751,-4.113965822377712,769],["SFSWAP_6433",-0.1434224219137866,-4.182553181660834,769]]},"para":{"top":[],"bottom":[]}}}
{"depmap_gene_tpm":{"corr":{"top":[["NPR2_4882",0.1610884988278413,-5.115903819947194,764]],"bottom":[["CFAP53_220136",-0.13725158276523525,-3.849225316516152,764]]},"para":{"top":[["PMCH_5367",0.15612742520061448,-4.836346209471132,764]],"bottom":[["CFAP53_220136",-0.13342129076195092,-3.6635230627734536,764],["POTEB3_102724631",-0.12273062983748137,-3.170871875267165,764],["PRAMEF26_645359",-0.12255810404956169,-3.1632290594904013,764]]}}}
{"avana":{"corr":{"top":[["C2orf78_388960",0.20648762022356884,-8.12449442978452,769],["HAAO_23498",0.21101461025640747,-8.340607403928503,757],["TGOLN2_10618",0.23237533903182492,-10.161625313002926,769],["MCFD2_90411",0.2503153396834052,-11.72420647538998,769],["ADAMTS1_9510",0.20630455373629036,-8.110983819238731,769],["GMCL1_64395",0.20781221497953314,-8.222621634199054,769],["REEP1_65055",0.23035108375516525,-9.993163414310029,769],["MOGAT1_116255",0.20829881618522023,-8.258832912332013,769],["RNF181_51255",0.22567804237675557,-9.610266059954238,769],["WDR54_84058",0.2951465534403382,-16.19616251461722,769],["NRG1_3084",0.21106360731345739,-8.466250227658975,769],["C1orf52_148423",0.24771199432456353,-11.48962370070675,769]],"bottom":[["ZFP37_7539",-0.20717980355026624,-8.175690891781455,769],["TRIML2_205860",-0.19983337651487457,-7.641345102495973,769],["ZNF750_79755",-0.18737130306762706,-6.780053897886934,769],["UCKL1_54963",-0.22931052455224582,-9.907179001803744,769],["ABHD16B_140701",-0.19731302452541,-7.462595729971679,769],["CPA2_1358",-0.1855153312870399,-6.65659129742008,769],["TEK_7010",-0.2183002494626679,-9.022671199323149,769],["SCRG1_11341",-0.18630657580376203,-6.709074833676684,769],["KARS_3735",-0.2130616943858949,-8.617921832425425,769],["PLG_5340",-0.19099081491861028,-7.024401844211637,769],["SLC22A2_6582",-0.21833589247228866,-9.025460437368931,769],["RPS6KA2_6196",-0.2480002195993774,-11.515463172533924,769],["CLIC3_9022",-0.19518028649721356,-7.313149794362146,769],["CAPZA3_93661",-0.18535073038591968,-6.645701522399396,769],["C1RL_51279",-0.19931889915822779,-7.604668236631218,769]]},"para":{"top":[["FBXO41_150726",0.21018861163525296,-8.400299547048343,769],["TGOLN2_10618",0.23270148931811668,-10.188915615375592,769],["MCFD2_90411",0.21595588855941864,-8.840263836447457,769],["SEMA4F_10505",0.20477212441191456,-7.998374209829007,769],["NOTO_344022",0.20880308381799567,-8.29645161941478,769],["ANKRD53_79998",0.2039524856155342,-7.938499680945803,769],["MOGS_7841",0.20256620660406172,-7.837795987105095,769],["WDR54_84058",0.2509764832142539,-11.78420855942549,769],["ACTG2_72",0.20117721910921318,-7.737605046480641,769],["EMX1_2016",0.21675463527652378,-8.902179622020038,769],["PRADC1_84279",0.22886875339303156,-9.870799745610832,769],["C2orf68_388969",0.2040227300492307,-7.943621316558324,769]],"bottom":[["MAP1LC3B2_643246",-0.169635494474949,-5.65048170447764,769],["ZFAND3_60685",-0.16520571441200926,-5.385706067625275,769],["CBX1_10951",-0.17131078289487414,-5.671618430244746,757],["GARS_2617",-0.16897853394682794,-5.610779766441113,769],["DUS2_54920",-0.1651208711311795,-5.38070182843523,769],["NSG2_51617",-0.1745125820395054,-5.949966889793014,769],["ABHD16B_140701",-0.17796795376055574,-6.16723699808013,769],["CPXM2_119587",-0.1727947373965616,-5.843523277807175,769],["NQO2_4835",-0.16405033315926867,-5.317774961159091,769],["FGG_2266",-0.17181754927210433,-5.783438021241217,769],["KARS_3735",-0.22545870901541948,-9.592499439316509,769],["RPS6KA2_6196",-0.1690325581959313,-5.614038883741896,769],["CLIC3_9022",-0.19618111936571328,-7.383073903095074,769]]}}}
{"drive":{"corr":{"top":[],"bottom":[["YES1_7525",-0.23135781204058223,-3.9791316134252237,276],["HTR1B_3351",-0.2452697303561014,-4.278193298639684,266]]},"para":{"top":[["PSMD10_5716",0.22837364726705386,-3.7643710017760452,266],["LOX_4015",0.20987146653566405,-3.296176596075523,271]],"bottom":[["FAS_355",-0.2009931769349682,-3.0283547813254486,268],["SENP2_59343",-0.19634360149105068,-2.9361949377259284,271],["TCERG1_10915",-0.2296075103331328,-3.8630932124312016,271],["PIK3R3_8503",-0.2231411703459596,-3.612726821463933,266],["HTR1B_3351",-0.25048556657831966,-4.444383292495433,266]]}}}
{"achilles":{"corr":{"top":[["P3H1_64175",0.20790787477672484,-4.080738319410558,353],["PRF1_5551",0.23030349399051273,-4.906814797083242,353],["ABCF3_55324",0.22893027611895198,-3.0677228063544653,209],["PARVG_64098",0.24788629588293015,-3.5287540806409208,209],["ACRBP_84519",0.2311280886702118,-4.938863830101966,353]],"bottom":[["FLYWCH1_84256",-0.22572595065090426,-2.993367913024502,209],["LARP1B_55132",-0.2622248496729925,-3.902088209427921,209],["C7orf57_136288",-0.2595680189142243,-3.831281491682426,209],["C2CD2L_9854",-0.24928088644997928,-3.5641229269744104,209],["SNX22_79856",-0.22028945136516465,-2.8695438514801204,209]]},"para":{"top":[["P3H1_64175",0.20650158523520204,-4.031682742024684,353],["TSNARE1_203062",0.23977270038566798,-3.3269517438532574,209],["PWWP2B_170394",0.22917069910186239,-3.073342963996925,209],["ABCF3_55324",0.2521595252101247,-3.6377673842646887,209],["LRIT2_340745",0.22955073412003946,-3.08223848248029,209],["ACRBP_84519",0.24681681249527074,-5.571222851317101,353],["ASNA1_439",0.22176855335428527,-4.581959785537016,353],["PARVG_64098",0.26783659822969047,-4.054115047163566,209]],"bottom":[["FLYWCH1_84256",-0.2240202114407491,-2.954202905387946,209],["C7orf57_136288",-0.2673944933868589,-4.042015831148586,209],["EMC7_56851",-0.241780067892909,-3.376251352120995,209]]}}}
{"ccle_rrbs_tss1kb":{"corr":{"top":[["METTL14-DT_4_119606496_119607496",0.16351685355775902,-3.360685849325688,459],["OTUD4_4_146101741_146102741",0.16802064168332098,-3.569911940633165,466],["TNKS2-AS1_10_93558048_93559048",0.19251138642671933,-4.5339554495033925,465],["CDADC1_13_49821046_49822046",0.16569799638479554,-2.892604947986353,375],["HS6ST1_2_129076171_129077171",0.17145415852612197,-3.719316409127898,469],["RICTOR_5_39074510_39075510",0.1733613326636496,-3.7641511365998888,465]],"bottom":[["SLC35B2_6_44225627_44226627",-0.23023912985340333,-4.444627866780772,316]]},"para":{"top":[["KLC4_6_43026331_43027331",0.1598187501434345,-3.29646844502809,470],["DPP9_19_4723855_4724855",0.17018355428639564,-3.6439111176561925,465]],"bottom":[["SLC35B2_6_44225627_44226627",-0.2164833454131584,-3.9795296899490786,316]]}}}
{"ccle_gene_tpm":{"corr":{"top":[["SLC1A2_ENSG00000110436.7",0.22596070764891169,-7.330065329955815,572],["NOSTRIN_ENSG00000163072.10",0.1817487700097664,-4.913213716751153,572],["RP11-99J16__A.2_ENSG00000244137.1",0.18858216221260155,-5.252256555535588,572]],"bottom":[["CTD-2206G10.1_ENSG00000214108.4",-0.16566484564790504,-4.16351172461619,572],["AC111155.1_ENSG00000224011.1",-0.2072124593654546,-6.240084539628172,572],["MTRNR2L6_ENSG00000270672.1",-0.1632932376501018,-4.058632437132257,572],["RP11-609L23.2_ENSG00000257405.1",-0.17471157008835642,-4.576909251844183,572],["AC007879.5_ENSG00000223725.2",-0.19185473822025192,-5.419018495306199,572],["SLC22A10_ENSG00000184999.7",-0.1613336373712354,-3.973061029853295,572]]},"para":{"top":[["CIR1P2_ENSG00000250215.1",0.17142105781739592,-4.424093464686955,572],["NOSTRIN_ENSG00000163072.10",0.17075898149346988,-4.393685530164927,572]],"bottom":[["RP11-528A10.1_ENSG00000218976.2",-0.148233761609658,-3.4260858064416198,572],["HIST1H3D_ENSG00000197409.6",-0.1772154323754952,-4.695081672053451,572]]}}}
{"ccle_rrbs_tss_clusters":{"corr":{"top":[["ACLY_2",0.24083186775905038,-5.838599925945388,391],["CALML3-AS1_3",0.1978034685691198,-3.4860667852756957,326],["PDLIM5_2",0.2085175807040169,-2.5585481667093712,204]],"bottom":[["TRAF5_1",-0.198911573594384,-2.9364349679357105,264]]},"para":{"top":[["EIF3F_2",0.18581635091533075,-3.388499785595295,358],["CALML3-AS1_3",0.19991344363674773,-3.5516083442271547,326],["CDK7",0.199186897239038,-4.6916353264833175,451],["PDLIM5_2",0.19375058690046376,-2.260275317118635,204],["MAPK6-DT_2",0.21017128794690693,-3.272841964754652,268]],"bottom":[["IRF8_3",-0.2320437475149787,-3.2959203755050814,221]]}}}
{"ccle_rrbs_cgi_clusters":{"corr":{"top":[["4_95370801_95375535-2",0.2085175807040169,-2.5585481667093712,204],["17_40074835_40077380-2",0.24083186775905038,-5.838599925945388,391],["9_98781216_98783790-1",0.2302622591006746,-3.3531163932003825,229],["10_5565122_5569828-3",0.1978034685691198,-3.4860667852756957,326]],"bottom":[["13_31246188_31250618-2",-0.23623636273162268,-4.341496998260867,292]]},"para":{"top":[["4_95370801_95375535-2",0.19375058690046376,-2.260275317118635,204],["5_81046876_81049849-2",0.21406547121940986,-3.084329405679557,241]],"bottom":[["17_46659476_46662003-2",-0.20093099997885153,-3.4305257534195115,310],["19_3818099_3822304-3",-0.2495154178411599,-3.2114432238526383,185],["8_28477635_28480217-1",-0.20056090323561426,-2.629970267218941,228],["16_85930121_85934942-3",-0.2320437475149787,-3.2959203755050814,221]]}}}
