{"depmap_hotspot":{"corr":{"top":[["ALMS1",0.10842414606824183,-2.5783054459283052,116.0,651.0],["AOC2",0.10944683529501906,-2.619228530851925,27.0,740.0],["CAMSAP1",0.12924880199619004,-3.4784961071007143,76.0,691.0],["CARD14",0.10225244342573969,-2.3384449063677812,49.0,718.0],["COL4A6",0.11301796931105547,-2.7647669059395708,50.0,717.0],["COX4I1",0.11746817469493645,-2.951900173377942,15.0,752.0],["DBNL",0.10709784228754787,-2.525732738040483,18.0,749.0],["ENTPD5",0.1034071181798636,-2.3823973897268487,15.0,752.0],["EPS8L1",0.10162545639781739,-2.3147561631878326,32.0,735.0],["FAM171A2",0.1272998559254142,-3.3882275436364773,32.0,735.0],["GALNT5",0.10866677157598247,-2.587983773533859,34.0,733.0],["GRM2",0.10912653231785471,-2.6063754383164346,30.0,737.0],["HRC",0.11059500586938785,-2.665573192287912,35.0,732.0],["KIAA1731",0.10289583586389031,-2.3628832434994154,76.0,691.0],["KIF5C",0.10400934592657303,-2.4054893314141284,55.0,712.0],["LCMT2",0.11174426651533592,-2.7123867656564338,31.0,736.0],["LYPD6B",0.11160099278568152,-2.706527483202604,13.0,754.0],["NMNAT3",0.10158254514752381,-2.3131394563857555,12.0,755.0],["NRP2",0.1022046289307339,-2.3366339903188993,71.0,696.0],["OTOGL",0.10450651604299953,-2.4246399493041015,85.0,682.0],["PABPC4",0.1171022557072118,-2.936270612912357,37.0,730.0],["PARP9",0.10031193903620376,-2.265533107443982,24.0,743.0],["PHTF1",0.11079648204874487,-2.673749298660054,26.0,741.0],["PRR12",0.10950843420922084,-2.6217041456532497,99.0,668.0],["PYCR1",0.13082994411993187,-3.552652912933101,9.0,758.0],["RFX2",0.10980798590156116,-2.6337602888297993,32.0,735.0],["RIPK1",0.09932640946099583,-2.228959755501827,18.0,749.0],["RNF165",0.10875682571572778,-2.591580837921175,27.0,740.0],["RUSC2",0.10828626617201809,-2.5728138335116855,53.0,714.0],["SCN9A",0.11990418942507428,-3.0570614448026965,109.0,658.0],["SLC17A3",0.10473131609295809,-2.4333249375544557,29.0,738.0],["SMTNL1",0.10526792045062944,-2.454121405844215,27.0,740.0],["SOGA1",0.10079323534885896,-2.2835058692982297,62.0,705.0],["SPEG",0.09966446870991766,-2.2414706491457226,132.0,635.0],["SRPK2",0.10787071423228092,-2.556299702821497,33.0,734.0],["TAB3",0.10928768953069296,-2.6128382232998724,24.0,743.0],["TACC2",0.11307961006546587,-2.767315127532121,97.0,670.0],["TNPO3",0.11375165698167775,-2.7951771539930466,27.0,740.0],["ZHX1",0.10170148366008173,-2.3176219695253226,23.0,744.0],["ZNF438",0.11107906720009673,-2.6852389102384944,32.0,735.0]],"bottom":[["BSND",-0.10453228533890725,-2.4256347100732363,10.0,757.0],["C19orf18",-0.1130237101695767,-2.7650041805175642,13.0,754.0],["CD19",-0.10508060856776837,-2.44685157070241,19.0,748.0],["EFCAB11",-0.10283893354349671,-2.360716588645408,8.0,759.0],["GLTP",-0.11861212161912024,-3.0010428199655066,9.0,758.0],["GPR133",-0.10335243101716754,-2.380306170442972,46.0,721.0],["KRTAP19-4",-0.10889224703277005,-2.5969949192006774,14.0,753.0],["LRRC46",-0.14574048823487992,-4.293022400528458,17.0,750.0],["LSM1",-0.10074838244488449,-2.2818278546268695,27.0,740.0],["MFAP5",-0.10448121623808963,-2.423663517986687,14.0,753.0],["MIXL1",-0.10000936988004493,-2.254271982641739,9.0,758.0],["NKX2-5",-0.12095700875824368,-3.1031102421788055,13.0,754.0],["SOBP",-0.11578236888102071,-2.880255597954569,43.0,724.0],["TFDP3",-0.10863736357278847,-2.586809682910347,17.0,750.0],["TFEB",-0.10711138418529735,-2.5262666716957574,23.0,744.0],["TMC6",-0.12461311549295633,-3.265841760282459,44.0,723.0]]},"para":{"top":[["ACAT2",0.10887029594702721,-2.887642677629342,14.0,753.0],["ACKR4",0.11409231405817297,-3.0986016021069984,12.0,755.0],["AP1S3",0.10298866633323996,-2.6599050059142257,10.0,757.0],["ASNA1",0.1189508714226912,-3.302455116186229,10.0,757.0],["BARX1",0.09878398791943327,-2.503736327890907,10.0,757.0],["BRIX1",0.10014903561666173,-2.553790698016781,9.0,758.0],["BTF3L4",0.11415260057711718,-3.1008705280646853,8.0,759.0],["C1QL4",0.11915083189118532,-3.310947052608099,9.0,758.0],["C1QTNF9B",0.13847635801605274,-4.196659916657961,11.0,756.0],["CERS4",0.11747445612228183,-3.2399010154606898,15.0,752.0],["ENTPD5",0.11840999930226019,-3.2795871274892456,15.0,752.0],["FUBP3",0.1366848252636549,-4.109875403755615,18.0,749.0],["GAS2",0.10970606791591346,-2.920849562270487,14.0,753.0],["GPATCH11",0.10124969439666559,-2.594658747713899,10.0,757.0],["GTF2E2",0.112175208597009,-3.020184022354097,13.0,754.0],["HAUS1",0.11259765492203969,-3.037336815544148,12.0,755.0],["IGFBP1",0.1091566141156581,-2.8988844129237727,11.0,756.0],["LDLRAD1",0.11474689586691167,-3.125780300702568,16.0,751.0],["LEMD1",0.10360597535704748,-2.6833747297409896,12.0,755.0],["MESDC2",0.10908639218953611,-2.8961392364045038,12.0,755.0],["MYOZ3",0.09462621137572107,-2.354583352405494,9.0,758.0],["NEUROG1",0.0908531928348804,-2.2238380773845505,9.0,758.0],["NMNAT3",0.142609461385668,-4.401389799491767,12.0,755.0],["NPTXR",0.11158478655741812,-2.9963139923199864,15.0,752.0],["OPN1LW",0.10493692985268882,-2.733992502366151,8.0,759.0],["OR2T3",0.1256543933670732,-3.5962091176565276,17.0,750.0],["OR51I2",0.13381626284550743,-3.972658377055825,20.0,747.0],["OR52I1",0.10770462281315095,-2.841656974106826,13.0,754.0],["PCDH11Y",0.1027181568402336,-2.6497393680571215,11.0,756.0],["PIH1D1",0.10911222993802058,-2.8972329689814247,14.0,753.0],["PLA2G2C",0.10351194344654144,-2.679667738953788,9.0,758.0],["PYCR1",0.11647144191290716,-3.1974006658194027,9.0,758.0],["RASSF5",0.11945131505134933,-3.3240148144324593,13.0,754.0],["SCLY",0.10695975150183515,-2.8123896665555828,10.0,757.0],["SMU1",0.10916440592624746,-2.899271250273709,13.0,754.0],["SSTR5",0.13110399376966345,-3.84516005260828,16.0,751.0],["SYNDIG1L",0.10139957377513646,-2.6003288217822047,12.0,755.0],["TCTEX1D4",0.10353055547414065,-2.6805460716089273,13.0,754.0],["TEX33",0.09962274468858723,-2.534499951879135,11.0,756.0],["WNT10B",0.11096817855243238,-2.971435063445372,15.0,752.0],["ZFPL1",0.09704736177841743,-2.440858922766916,11.0,756.0]],"bottom":[["C19orf18",-0.10843451436969924,-2.870381749932616,13.0,754.0],["GCNT6",-0.10973496254246096,-2.9220306408337033,15.0,752.0],["LRRC46",-0.09995554003638897,-2.5469241706923027,17.0,750.0],["MFAP5",-0.11146558785041083,-2.9914658029044485,14.0,753.0],["MIXL1",-0.0929310871037492,-2.295307308083421,9.0,758.0],["NKX2-5",-0.10259538191731325,-2.6451861327332633,13.0,754.0],["TFDP3",-0.10595527233149035,-2.773590129023321,17.0,750.0]]}}}
{"depmap_damaging":{"corr":{"top":[["ANKRD30B",0.11082620108658177,-2.6749564331506277,14.0,753.0],["C7",0.09412103986649556,-2.0408652506366765,15.0,752.0],["ENTPD5",0.10817888398590741,-2.56854113598537,8.0,759.0],["KIAA1377",0.09809970462765055,-2.1838649597424546,9.0,758.0],["SORL1",0.08969004444630173,-1.887439623910918,20.0,747.0],["ZNF184",0.08817359164371139,-1.8363345816517238,8.0,759.0]],"bottom":[["DGKZ",-0.09952468020805469,-2.2362929776614293,10.0,757.0],["PRRC2A",-0.10880329329320834,-2.593437926735137,8.0,759.0]]},"para":{"top":[["AEBP1",0.10186503961121272,-2.617527023105029,8.0,759.0],["AMBRA1",0.12832386782317215,-3.7165950938297505,8.0,759.0],["ANKRD30B",0.14808559648713812,-4.681005875743378,14.0,753.0],["C7",0.12108905477219822,-3.394744418251937,15.0,752.0],["CADPS2",0.10972616995156105,-2.9215405146009186,11.0,756.0],["CCDC160",0.10937615792819519,-2.9077157591220044,14.0,753.0],["DOCK11",0.09646568040882048,-2.4200888565528653,14.0,753.0],["ENTPD5",0.12577361932081463,-3.6011535404800825,8.0,759.0],["EVI5",0.10946598816061759,-2.911219725837075,12.0,755.0],["MME",0.09954845479694772,-2.5317703261395943,11.0,756.0],["NCKAP5",0.09462001545678793,-2.354307350530979,8.0,759.0],["PEAR1",0.10569920057166646,-2.7634059808839404,9.0,758.0],["PRDX6",0.10111487679682538,-2.5897221712250333,12.0,755.0],["PRR12",0.10783177626866335,-2.8464712317904586,9.0,758.0],["PRRG1",0.10914559467553092,-2.8986579939787678,18.0,749.0],["PTPRS",0.10729716396714063,-2.825570048220455,10.0,757.0],["SORL1",0.11526710808962043,-3.1474609518972323,20.0,747.0],["SSC5D",0.09685148289635079,-2.4336683613108328,8.0,759.0],["ZNF184",0.10995048656755078,-2.9303226641035844,8.0,759.0]],"bottom":[["HEATR5B",-0.10451423950780514,-2.7182808726025627,26.0,741.0],["LSM1",-0.09672437834889769,-2.429527404205911,23.0,744.0]]}}}
{"ccle_rppa":{"corr":{"top":[["NFKB1_NF-kB-p65_pS536_Caution",0.21727582291380484,-6.25839553887778,521]],"bottom":[["BCL2L11_Bim(CST2933)",-0.2701109317420473,-9.435345388765779,521],["BCL2L11_Bim(EP1036)",-0.2817881513986819,-10.23909690077599,521],["ESR1_ER-alpha",-0.21768740431852968,-6.280338278117197,521],["ESR1_ER-alpha_pS118",-0.1872800149027506,-4.772623444485849,521],["PDCD4_PDCD4_Caution",-0.18390227741801296,-4.619088840104996,521]]},"para":{"top":[["NFKB1_NF-kB-p65_pS536_Caution",0.20700792415115193,-5.724754115188189,521]],"bottom":[["MRE11A_Mre11_Caution",-0.15970685635967607,-3.5984658721357152,521],["PDCD4_PDCD4_Caution",-0.1713084576504487,-4.070648278925805,521],["PIK3CA_PI3K-p110-alpha_Caution",-0.1877882792502417,-4.795964252421637,521]]}}}
{"ccle_metabolomics":{"corr":{"top":[["N-carbamoyl-beta-alanine",0.2249688789841858,-6.803970086391438,532],["C16:1 SM",0.19940224630348444,-5.447505982283293,532],["C14:0 CE",0.16963772232646265,-4.074553498550201,532]],"bottom":[["C46:2 TAG",-0.23786227174047395,-7.5523793982182,532],["C48:3 TAG",-0.2021318337687073,-5.584390979393591,532],["C48:2 TAG",-0.21627264586715675,-6.3237663194432105,532],["C50:3 TAG",-0.2284005449994477,-6.998886062905653,532],["C50:2 TAG",-0.16980105885638638,-4.081499016030097,532],["C52:4 TAG",-0.21911826225560074,-6.478743038767122,532],["C52:3 TAG",-0.18062031780756552,-4.555896371654155,532],["C56:4 TAG",-0.18975111589126795,-4.9784532118648,532],["C56:3 TAG",-0.162633734227263,-3.7827260111070022,532]]},"para":{"top":[["N-carbamoyl-beta-alanine",0.21791939167404387,-6.413195789550807,532],["C16:1 SM",0.20402533404739087,-5.680449745196835,532],["C14:0 CE",0.17634497119159845,-4.365047165712995,532],["C16:1 CE",0.21675809052813308,-6.350056566875437,532],["C18:3 CE",0.21846607075166297,-6.443038927909749,532],["C18:1 CE",0.2590804931752844,-8.881026519255999,532],["C18:0 CE",0.21196189592861633,-6.092966410411424,532],["C20:5 CE",0.2623747294108947,-9.098361321218366,532],["C20:4 CE",0.23704211264588895,-7.503461548671525,532],["C20:3 CE",0.25847473079878686,-8.841389124472027,532],["C22:6 CE",0.29061232845603435,-11.087103681493762,532]],"bottom":[["C48:3 TAG",-0.154256044922912,-3.4489489140916354,532],["C50:3 TAG",-0.17253070470572598,-4.198519749773034,532],["C52:5 TAG",-0.2044975149879128,-5.7045448944811215,532],["C52:4 TAG",-0.18406844133054345,-4.713064858525696,532],["C56:4 TAG",-0.1829516278033289,-4.661841117593742,532]]}}}
{"ccle_rrbs_enhancer_clusters":{"corr":{"top":[["4-54959998-54964796-2_enh",0.19926929791075781,-4.3154868881727975,410],["17-41638235-41642900-0_enh",0.206280796443078,-3.411050369280832,292],["2-172945779-172948513-0_enh",0.1933603139469718,-4.378252249053568,443],["2-172955645-172958345-1_enh",0.20838321909280888,-5.131153448337394,455],["2-175194043-175196579-2_enh",0.20248045243641424,-4.994461889823802,468],["2-175196579-175199114-0_enh",0.1941220238758844,-4.523329440429947,456],["2-175196579-175199114-2_enh",0.21615093618435005,-5.680319736398063,473],["6-108435918-108438506-2_enh",0.2586748258093249,-7.849962751708525,467],["6-108435243-108437847-0_enh",0.2462544870849337,-5.122372435976236,323],["6-108437847-108440452-0_enh",0.2525691647294874,-7.502958036343786,467]],"bottom":[["5-3509978-3512688-0_enh",-0.16433374950060947,-3.275208046366406,441],["5-3509978-3512688-1_enh",-0.17980954404413513,-3.8330067227658837,441],["7-69700231-69702923-0_enh",-0.15876556476105097,-3.1636437061025524,454]]},"para":{"top":[["4-54959998-54964796-2_enh",0.1825038254055389,-3.6927357999787143,410],["2-172945779-172948513-0_enh",0.16979460748432634,-3.480203737657462,443],["2-175196579-175199114-0_enh",0.17708411274480945,-3.841621541820166,456],["2-175196579-175199114-2_enh",0.17923159640944172,-4.051913703639832,473],["6-108435918-108438506-2_enh",0.26324324832748097,-8.115495841721842,467],["6-108437847-108440452-0_enh",0.2592907475307029,-7.885466876432432,467],["8-49494942-49497734-2_enh",0.17437568053969826,-3.230059636786434,385],["9-98255859-98258632-0_enh",0.17370962738533008,-3.834011680047207,473]],"bottom":[["7-69700231-69702923-0_enh",-0.1679403316679295,-3.4873360394425976,454],["18-75567573-75570217-0_enh",-0.1624469158292561,-3.4221342877191354,475]]}}}
{"ccle_mirna":{"corr":{"top":[["hsa-miR-100_miR00010.1",0.2850274698372799,-10.713192970241817,534],["hsa-miR-221_miR00255.1",0.3188812832257557,-13.359773094072926,534],["hsa-miR-222_miR00256.1",0.2776547682992108,-10.181853784116763,534],["hsa-miR-29a_miR00275.1",0.2166666138717404,-6.366743926826449,534],["hsa-miR-526a+hsa-miR-518d-5p+hsa-miR-520c-5p_miR00468.1",0.22008772755132328,-6.554348685625104,534],["hsa-miR-887_miR00654.1",0.16122859776921397,-3.7377547353054448,534]],"bottom":[]},"para":{"top":[["hsa-miR-100_miR00010.1",0.29068033616182476,-11.13129689877304,534],["hsa-miR-21_miR00238.1",0.19492932466438542,-5.244810642505997,534],["hsa-miR-221_miR00255.1",0.2874275797210372,-10.889570063276503,534],["hsa-miR-222_miR00256.1",0.2611132214805451,-9.046226280017484,534],["hsa-miR-27a_miR00265.1",0.2058848562085637,-5.795236538199434,534],["hsa-miR-29a_miR00275.1",0.2435638029209841,-7.924751259058475,534],["hsa-miR-29b_miR00276.1",0.1836083782540821,-4.707566665548373,534],["hsa-miR-526a+hsa-miR-518d-5p+hsa-miR-520c-5p_miR00468.1",0.23270913274991273,-7.272942603863607,534],["hsa-miR-887_miR00654.1",0.18792382428062518,-4.908612640586358,534]],"bottom":[]}}}
{"prism_primary_logfold":{"corr":{"top":[],"bottom":[["cloxacillin_BRD-K01244426-236-12-1::2.5::HTS",-0.2088210788211499,-4.500889577500457,391],["spermine_BRD-K18375018-376-02-3::2.5::HTS",-0.17900681954888853,-3.425952918142705,391],["LB42708_BRD-K18834913-001-01-1::2.5::HTS",-0.2168740148333542,-4.819149654681942,391],["simvastatin_BRD-K22134346-001-24-9::2.42::HTS",-0.24445616631374406,-5.71028730412466,370],["brivanib_BRD-K28428262-001-04-1::2.5::HTS",-0.17491189431118598,-3.276264094391998,389],["amlexanox_BRD-K29530284-001-06-2::2.5::HTS",-0.16822534110057047,-3.069554785074326,390],["lomerizine_BRD-K62858456-001-01-8::2.5::HTS",-0.18020872088352574,-3.4738622045840635,392],["fluvastatin_BRD-K66296774-236-11-3::2.63::HTS",-0.2550536059424449,-6.2543019445206385,375],["pitavastatin_BRD-K75958547-238-01-0::2.5::HTS",-0.2127847947134687,-4.65602864222292,391],["mevastatin_BRD-K94441233-001-13-0::2.6::HTS",-0.22034197276573744,-4.721963370466826,370]]},"para":{"top":[["Ro-10-5824_BRD-K79684402-300-02-8::2.5::HTS",0.173832331730651,-2.939670352235544,347]],"bottom":[["L-Hydroxyproline_BRD-A12454076-001-01-9::2.5::HTS",-0.16634608460574954,-2.8723843144275407,369],["cloxacillin_BRD-K01244426-236-12-1::2.5::HTS",-0.217606034206039,-4.848680846461941,391],["LB42708_BRD-K18834913-001-01-1::2.5::HTS",-0.2232412591618872,-5.079397886129565,391],["rutin_BRD-K20482099-001-09-4::2.5::HTS",-0.17402477902564678,-3.1110465445900735,370],["simvastatin_BRD-K22134346-001-24-9::2.42::HTS",-0.2071184425153989,-4.2242829286372965,370],["amlexanox_BRD-K29530284-001-06-2::2.5::HTS",-0.18928252087218206,-3.7699057247156227,390],["thioguanine_BRD-K49350383-001-13-7::2.5::HTS",-0.18520232277960702,-3.6200041785524046,389],["PRT062607_BRD-K53734668-003-02-0::2.66::HTS",-0.18939529008509273,-3.647245841384288,375],["cresol_BRD-K56940914-001-04-2::2.5::HTS",-0.19422481498822156,-3.9545408634252803,391],["lomerizine_BRD-K62858456-001-01-8::2.5::HTS",-0.18794818508185834,-3.739813596766093,392],["lidoflazine_BRD-K62996583-001-10-3::2.5::HTS",-0.16563320415612762,-3.0017526405193635,392],["fluvastatin_BRD-K66296774-236-11-3::2.63::HTS",-0.21211237875744943,-4.461258459346152,375],["mevastatin_BRD-K94441233-001-13-0::2.6::HTS",-0.1954871418249028,-3.8117640295299693,370]]}}}
{"prism_secondary_logfold":{"corr":{"top":[["practolol_BRD-A41304429-001-14-8::0.0024414::HTS002",0.24126240313730246,-3.5445030306630803,222],["ryuvidine_BRD-K06426971-001-02-7::0.00061034::HTS002",0.19271485262786525,-3.4275531599899587,337],["brilliant-green_BRD-K60348325-065-09-9::2.5::HTS002",0.18081387467673274,-2.9279135095913005,319],["paricalcitol_BRD-K60585088-001-01-5::10::HTS002",0.2269466954699469,-3.5881273755192433,255]],"bottom":[["digitoxigenin_BRD-K18518344-001-15-9::2.5::HTS002",-0.2400607603684615,-4.699795406421411,309],["digoxigenin_BRD-K18619710-001-14-4::10::HTS002",-0.22983796992225047,-4.728068562829091,340],["loxistatin-acid_BRD-K21937671-001-09-2::2.53426::HTS002",-0.18875636436330878,-3.119384656688831,315],["cycloheximide_BRD-K36055864-001-19-2::10::HTS002",-0.20182161993450548,-3.649952206173532,330],["fluvastatin_BRD-K66296774-236-11-3::2.62965::HTS002",-0.22477175497119808,-4.291962143813137,319],["bortezomib_BRD-K88510285-001-17-8::0.15625::MTS010::PROS005_PR500",-0.19244513959408216,-3.1994729627410354,312],["cefpiramide_BRD-K92872987-001-02-9::10::HTS002",-0.19786683529416307,-3.237200764504756,299]]},"para":{"top":[["GW-3965_BRD-K33818169-003-04-6::0.00061034::HTS002",0.19801574843895678,-3.5946092927519193,337],["dasatinib_BRD-K49328571-001-15-0::0.00976562::HTS002",0.212613573021095,-3.3181363968856266,266],["tiagabine_BRD-K60160658-003-11-2::0.0024414::HTS002",0.20740546141557614,-3.064422539707159,255],["kynurenic-acid_BRD-K85872723-001-15-9::0.00061034::HTS002",0.18300769569670255,-2.9892628651563666,319],["AZD8931_BRD-K98572433-001-02-9::0.00244::MTS010::PROS002_PR500",0.1826694944165101,-2.9000294311773556,309]],"bottom":[["nadide_BRD-A11132253-001-08-2::10::HTS002",-0.22900681783161073,-4.117788728370919,293],["parthenolide-(-)_BRD-K34851558-001-02-3::2.5::HTS002",-0.20514854716805378,-3.8263186452635574,337],["cycloheximide_BRD-K36055864-001-19-2::10::HTS002",-0.2363313081820724,-4.843259974463257,330],["cycloheximide_BRD-K36055864-001-19-2::2.5::HTS002",-0.18604576224652142,-3.165979649645612,330],["cetrimonium_BRD-K47079459-004-04-6::10::HTS002",-0.18987490804531357,-3.3398424812483136,337],["thioguanine_BRD-K49350383-001-14-5::10::MTS010::PROS002_PR500",-0.19923322442012853,-3.3705319367012274,309]]}}}
{"ccle_proteomics":{"corr":{"top":[["TSC22D1_Q15714-2",0.3618786703977534,-4.247093225747303,118],["IFT80_Q9P2H3",0.3552248558920822,-3.9779183129617786,114],["PKN2_Q16513",0.32639651689873256,-7.217796752178519,263],["SEPT10_Q9P0V9-2",0.34037106038678316,-7.82907293712652,263],["FAM73A_Q8NAN2",0.33430944407868124,-6.042997712002689,206],["PPP2R3A_Q06190",0.32584534376241986,-4.71064665709481,165],["PTPRU_Q92729",0.37318917056930345,-4.01997239533668,104],["DYNC2LI1_Q8TCX1",0.3916765376301207,-5.088940456355373,122],["RASAL2_Q9UJF2-2",0.34587034738445827,-8.078064489777695,263],["KDELR3_O43731-2",0.3525833483374748,-4.50157431464483,133],["FZD2_Q14332",0.3260877607028086,-4.048190501772514,139],["TMEM185B_Q9H7F4",0.3239340552610285,-5.364855924735933,193],["EXOC6B_Q9Y2D4",0.32961296999885087,-7.355797119581334,263],["HFE_Q30201",0.3954335500399778,-5.8766737539272595,140],["GPX8_Q8TED1",0.33923328381228585,-7.778158777862515,263],["MINK1_Q8N4C8",0.3357692110392056,-7.624404600587748,263]],"bottom":[["NFATC1_O95644",-0.3024640784015676,-4.2585779041854455,172],["UNNAMED_S4R362",-0.43514830272721067,-7.2045912684740605,142],["RASSF2_P50749",-0.30170588734743675,-4.762490147388065,196],["POU2F1_P14859-2",-0.3017511876387475,-6.212374045134235,263],["FAM193B_Q96PV7",-0.3017834425347501,-4.568715424918048,187],["BCL7A_Q4VC05-2",-0.3844298590081211,-9.750893047070557,257],["MSI2_B4DHE8",-0.32046302893367024,-6.967388274120581,263],["GPX3_P22352",-0.32178158102093685,-3.950313012616463,139],["BCL2L11_O43521-12",-0.35042323368458894,-4.927968619010413,149]]},"para":{"top":[["FAM73A_Q8NAN2",0.3235335300020454,-5.6777159878956445,206],["PPP2R3A_Q06190",0.3181946896992352,-4.506720159452291,165],["UPP1_Q16831",0.3198437659503949,-6.941562862485177,263],["EOGT_Q5NDL2",0.3243469310986427,-7.130690627019683,263],["DAPK3_O43293",0.3249140260009471,-7.004611078830466,257],["FANCB_Q8NB91",0.33773178692964784,-3.7913458931660506,120],["TTC12_Q9H892-2",0.32271689646735874,-3.79404583770659,132],["MICA_Q29983",0.3120254240541385,-5.673905234719147,222],["HFE_Q30201",0.3211230955118601,-3.960528990060273,140],["SFRP1_Q8N474",0.3352205671788975,-3.8496739866710485,124],["UBTD1_Q9HAC8",0.33311719233706977,-5.603355407601746,191],["MINK1_Q8N4C8",0.33779187106532915,-7.713951322153557,263]],"bottom":[["MAPT_P10636-2",-0.34074622693799017,-3.8255312024056853,119],["DTX3_Q8N9I9-2",-0.30375360141102536,-3.60106619406258,141],["FSD1L_Q9BXM9",-0.3028379477344696,-3.936826096127243,157],["FAM193B_Q96PV7",-0.3089019479563506,-4.770494564324912,187],["BCL7A_Q4VC05-2",-0.33873443780272583,-7.592332594837507,257],["PELI2_Q9HAT8",-0.30318831672053026,-3.162888121007754,122],["GPX3_P22352",-0.3317574511819116,-4.179309265761609,139],["ZNF8_P17098",-0.29843189372504625,-5.472659450870013,234]]}}}
{"depmap_copy_number":{"corr":{"top":[],"bottom":[["PAN3-AS1_100288730",-0.15670284251713149,-4.896632285873901,769],["MIR4305_100422940",-0.15397057673827907,-4.744785420999432,769],["SPART-AS1_100507135",-0.15465057404748261,-4.782336372828934,769],["LINC00332_100874127",-0.1561491996273056,-4.865655592397434,769],["FOXO1_2308",-0.1561491996273056,-4.865655592397434,769],["FLT1_2321",-0.15670284251713149,-4.896632285873901,769],["FLT3_2322",-0.1571582692319938,-4.922192987138957,769],["PAN3_255967",-0.15670284251713149,-4.896632285873901,769],["LINC00548_400123",-0.1561491996273056,-4.865655592397434,769],["LINC00598_646982",-0.1561491996273056,-4.865655592397434,769],["CCNA1_8900",-0.15550967797762974,-4.830005443512244,769]]},"para":{"top":[],"bottom":[]}}}
{"depmap_gene_tpm":{"corr":{"top":[["LGALS1_3956",0.25482133590255923,-12.06232981437447,764],["TIMP1_7076",0.25122786291622995,-11.734914217213797,764],["ELK3_2004",0.2636606922103292,-12.889603468901823,764],["OSMR_9180",0.28052532283949944,-14.555766459145147,764],["FOSL1_8061",0.2894438372033423,-15.484432798481038,764],["AHNAK2_113146",0.26077957927545464,-12.616523524406709,764]],"bottom":[["IDI1_3422",-0.2999663325381967,-16.62337979981327,764],["MBNL3_55796",-0.26191069098112835,-12.723335502093295,764],["FDFT1_2222",-0.2198916199644843,-9.092506659322748,764],["SQLE_6713",-0.31557308776430276,-18.400851689489336,764],["TMEM97_27346",-0.22430185052019735,-9.441690210966867,764],["HMGCS1_3157",-0.289564533481316,-15.497229858915185,764],["N4BP3_23138",-0.22904965303230082,-9.82581790823929,764],["NODAL_4838",-0.23747815906288886,-10.528918797659772,764],["TNNI1_7135",-0.23845622506914263,-10.61227634426047,764],["IGDCC3_9543",-0.23576919782502334,-10.384154854231339,764],["ABAT_18",-0.2233982404336891,-9.369549126652872,764],["ANKRD46_157567",-0.23876156058054276,-10.638374838784108,764],["SMTNL2_342527",-0.21863392989020358,-8.994267895182633,764],["LRRC10B_390205",-0.22218850289705752,-9.273450174638462,764]]},"para":{"top":[["MAMLD1_10046",0.24760600052195175,-11.410068921073531,764],["WWTR1_25937",0.25312069814306004,-11.906740756566066,764],["SNAPC1_6617",0.24852355985940083,-11.491876994533152,764],["EIF2AK4_440275",0.25079755210096305,-11.696049183062518,764],["OSMR_9180",0.2679716474422175,-13.304463174073533,764],["EOGT_285203",0.24779379232157273,-11.426785230178352,764],["UBTD1_80019",0.25112150636017366,-11.725301453776785,764],["RIN1_9610",0.250045439754816,-11.628294849165117,764],["FOSL1_8061",0.26845681054194137,-13.351623845198029,764],["GAS2L1_10634",0.2466195452633112,-11.322486594733963,764],["AHNAK2_113146",0.24888704467105605,-11.524376144541145,764]],"bottom":[["MSMO1_6307",-0.21688023082972907,-8.858274490926393,764],["MPC1_51660",-0.20540075408825278,-7.996317057473017,764],["IDI1_3422",-0.2768780916290494,-14.185540998082747,764],["MBNL3_55796",-0.23288807728358743,-10.142641475057825,764],["FDFT1_2222",-0.22458534237505423,-9.464386777239117,764],["SQLE_6713",-0.3332590859443352,-20.546296931153655,764],["HMGCS1_3157",-0.2747501742167285,-13.972077638702775,764],["RASGEF1B_153020",-0.22697104996646691,-9.656593263951082,764],["N4BP3_23138",-0.20107120982700155,-7.683836888070635,764],["FDPS_2224",-0.20261079164338414,-7.794168668973106,764],["INSM1_3642",-0.21088388859409496,-8.401940500629431,764],["UCP2_7351",-0.21761760924322035,-8.915315520360787,764],["ANKRD46_157567",-0.23333192732107136,-10.179640201044016,764]]}}}
{"avana":{"corr":{"top":[["SKIL_6498",0.2002223693875822,-7.559291418687104,757],["ACAT2_39",0.20742592864815615,-8.193938010314533,769],["FDPS_2224",0.5109650401784152,-51.64465150773389,769],["PPIL1_51645",0.19472054976639055,-7.281152163598879,769],["LSS_4047",0.3017712206364712,-16.928562348278014,769],["MSMO1_6307",0.32910287122765136,-20.15519034645222,769],["NSDHL_50814",0.20932613979307127,-7.855248838858825,721],["SQLE_6713",0.4689814490319247,-42.58341250333858,769]],"bottom":[["SKA3_221150",-0.1875588497415838,-6.792598794966069,769],["DDX21_9188",-0.2076722595947727,-8.212222878422143,769],["TUBA4A_7277",-0.18359113851383413,-6.529896709242911,769],["PCYOX1L_78991",-0.17938185053055697,-6.257363412460071,769],["UBIAD1_29914",-0.3097924717657952,-17.84096972619745,769]]},"para":{"top":[["FLI1_2313",0.19702296063394206,-7.442172764661429,769],["SKIL_6498",0.184847253501925,-6.5186546971002,757],["FDPS_2224",0.4163410266288049,-32.86779590779287,769],["CTSB_1508",0.1893920033389064,-6.915885138629266,769],["LSS_4047",0.21348575927464603,-8.65030380143024,769],["SMCO1_255798",0.18627672023549188,-6.707090417781258,769],["MSMO1_6307",0.23926783008855557,-10.74709922709536,769],["SQLE_6713",0.3060457640000532,-17.411270517011516,769]],"bottom":[["SKA3_221150",-0.19306324481545142,-7.166441976253561,769],["ACSL3_2181",-0.19070576939917866,-7.004987131511477,769],["DDX21_9188",-0.2029097964334297,-7.862689443611721,769],["MIPEP_4285",-0.21883511018547627,-9.0645769724774,769],["TUBA1C_84790",-0.21744067053513036,-8.955549939408117,769],["PCYOX1L_78991",-0.18337807165582598,-6.5159493731388,769],["GNL1_2794",-0.18570001009863393,-6.668820984051756,769],["UBIAD1_29914",-0.3388027560454874,-21.382030489556836,769]]}}}
{"drive":{"corr":{"top":[["DDR1_780",0.24102719968425543,-4.214333142407869,271],["RPAP1_26015",0.24034072604096499,-4.1244493591635285,266],["DPF1_8193",0.24471324625914329,-4.331413991329549,271],["ZBTB1_22890",0.26643396101791544,-5.008706460226747,268],["KLHL3_26249",0.266689763790319,-5.151653857607852,276],["CTBP1_1487",0.30144358896137324,-6.372014955019243,271],["LRRK2_120892",0.2369372464987088,-4.08654989738729,271],["RER1_11079",0.25811323319761525,-4.6939698373169545,266],["CLDN3_1365",0.28839334228644253,-5.802855991713757,268],["LGALS7&LGALS7B_3963&653499",0.24681564720499974,-4.399011846599669,271],["TTC39C_125488",0.26697701363312654,-5.077937345731807,271],["HIF1AN_55662",0.24051657582060262,-4.1982576896967405,271],["SGCE_8910",0.23998229641527882,-4.140633836908508,268],["LRRC26_389816",0.2476396904569442,-4.353258326212456,266],["HEYL_26508",0.23904338497390712,-4.152073928543507,271],["CDCP1_64866",0.2370864340938655,-4.131031495884973,274]],"bottom":[["RTP1_132112",-0.21756780361480246,-3.4775419667904526,268],["CDK14_5218",-0.2340466291188903,-3.9586897437682715,268],["ARL2_402",-0.2653135382785592,-4.970003529655188,268],["LPAR3_23566",-0.23776546486536043,-4.072140546212636,268],["NANOG_79923",-0.27976512583387925,-5.538012962948922,271],["BHLHE40_8553",-0.23777160233865208,-4.112436936806192,271],["USP10_9100",-0.23699660573715645,-4.088388543035937,271],["OR2M4_26245",-0.21956101811414444,-3.5109765287284413,266],["ATP2B4_493",-0.21017635944495333,-3.27297996152225,268],["SDSL_113675",-0.23489037120904532,-3.9581497044224094,266],["DDX59_83479",-0.21625329895548712,-3.418408272384119,266],["SSX5_6758",-0.21156873097417098,-3.3749242025483066,274],["ASB16_92591",-0.21166038894935968,-3.313499320005124,268]]},"para":{"top":[["RASAL3_64926",0.21541219123616398,-3.3950888991409425,266],["KLHL3_26249",0.24592481863470675,-4.441662579513163,276],["GRK7_131890",0.208737852471143,-3.213180604716347,266],["FKBP7_51661",0.2225706120647521,-3.619925550959311,268],["HPCAL4_51440",0.261160528914426,-4.795877247706979,266],["MAP2K5_5607",0.2042446415171025,-3.093833306767505,266],["BMP2_650",0.23365706105437165,-3.985672564182686,271],["CEBPB_1051",0.2199414387084886,-3.5791640599674817,271],["RARG_5916",0.21525543833086308,-3.4458653971857287,271],["PACSIN1_29993",0.20920450966087267,-3.2465944957740516,268],["ALDH4A1_8659",0.2261921392332747,-3.821980599974153,276],["KDM5A_5927",0.22827554071880235,-3.8602656737229997,274]],"bottom":[["TPX2_22974",-0.1950866860342875,-2.9039061499136625,271],["NANOG_79923",-0.2488076690250049,-4.463612040054445,271],["BHLHE40_8553",-0.20888756776376996,-3.2692194052008596,271],["USP10_9100",-0.21645305239192314,-3.4796649326303313,271],["OR2M4_26245",-0.2098780191169268,-3.243862781762118,266],["COL9A2_1298",-0.20073083976440084,-3.0022325553716582,266],["SLC39A4_55630",-0.23784608842024454,-4.154862438061537,274]]}}}
{"achilles":{"corr":{"top":[["GPC6_10082",0.2693594716212174,-4.095952765960209,209],["WDR82_80335",0.2625007052790312,-3.9094828884549915,209],["NDUFAF3_25915",0.2688520211321207,-4.081983926627827,209],["GLYATL2_219970",0.28312110352711883,-4.48544383873956,209],["DCAF7_10238",0.2676645494053456,-4.049404041577975,209],["TTC30A_92104",0.2768193372206638,-4.304519591447663,209],["FDPS_2224",0.3173200754585601,-8.971959247916978,353],["DUOXA2_405753",0.27496687030205946,-4.252163124146407,209],["MAF1_84232",0.31189030432497106,-5.36812778087891,209],["BOLA3_388962",0.2914983462274487,-4.732771131575207,209],["GPN2_54707",0.26825530518295304,-4.065593278315579,209],["PIGF_5281",0.2792812235651999,-4.374680875404175,209],["PABPC5_140886",0.27554633370158055,-4.268500327279012,209],["MBTD1_54799",0.2666896477078822,-4.022769469659608,209],["MEA1_4201",0.28313620294468844,-4.485882601276509,209]],"bottom":[["MSMB_4477",-0.2457227735557693,-3.4742816523976137,209],["CCZ1B&CCZ1_221960&51622",-0.2428852083589993,-3.4035685182461126,209],["PNPLA7_375775",-0.2759742830593744,-4.280589292836583,209],["LOC93622_93622",-0.30682925915822007,-5.205960868028491,209],["ELAVL2_1993",-0.27432640276481907,-6.786420033405484,353],["ECE2_9718",-0.2530760533916596,-5.835652901215309,353],["MUC4_4585",-0.2521592884827528,-3.637761292613047,209],["FAM153B&FAM153A_202134&285596",-0.279379935953681,-4.377507939669102,209],["TCAF2P1_653691",-0.2539330491310036,-3.6835691474645667,209],["WDR75_84128",-0.25315999841248077,-3.6635645267383072,209],["RIMKLB_57494",-0.3059272018154928,-5.177370657520018,209],["ZNF362_149076",-0.2422315546204346,-5.381935720053594,353],["TUB_7275",-0.2779889134665876,-4.337768532370411,209]]},"para":{"top":[["WDR82_80335",0.2582099145996168,-3.7953752588700396,209],["SETD1A_9739",0.2460668275387935,-3.4829118552912237,209],["MEA1_4201",0.2541265545747505,-3.688586358204369,209],["GLYATL2_219970",0.24203304656957725,-3.38249352462131,209],["TTC30A_92104",0.26948867200761745,-4.099513757222246,209],["DHRS3_9249",0.23925295779343803,-5.2609621096036,353],["FDPS_2224",0.2520481093503827,-5.791744878989196,353],["BOLA3_388962",0.2509306507461914,-3.6062236366279117,209],["PIGF_5281",0.29195044292923417,-4.7463422335763115,209],["CDYL_9425",0.24096017330093367,-3.356065629121268,209],["MBTD1_54799",0.24285441531557417,-3.4028056747298807,209]],"bottom":[["NXPH2_11249",-0.2421947270475468,-3.386486368491412,209],["MRPL46_26589",-0.2331568315658849,-3.167366286002282,209],["PNPLA7_375775",-0.22446734920904032,-2.9644416428700704,209],["LOC93622_93622",-0.2675191930161488,-4.045426399215343,209],["TTC33_23548",-0.24422344417592687,-3.4368148351395718,209],["CTAG2_30848",-0.2627089486052498,-3.91507048651388,209],["TCAF2P1_653691",-0.23351934268299676,-3.1759961549942983,209],["RIMKLB_57494",-0.2949113976963118,-4.835795082556738,209],["ZNF362_149076",-0.27121969810537583,-6.642233390491168,353]]}}}
{"ccle_rrbs_tss1kb":{"corr":{"top":[["P2RY6_11_72982186_72983186",0.25901190584877615,-7.80728812902038,463],["LRP8_1_53793821_53794821",0.2422462736731446,-6.8958070043468425,464],["LFNG_7_2551162_2552162",0.25350520346996425,-7.525843371120114,465],["CDSN_6_31088252_31089252",0.2389708294862847,-6.616721285391808,456],["MIR4725_17_29901287_29902287",0.2565757018913087,-7.607788550161574,459],["UHRF1_19_4908441_4909441",0.26556538034975924,-8.121790769915144,459],["RCSD1_1_167598473_167599473",0.23573195365795158,-6.33476461825064,447]],"bottom":[["TGIF1_18_3452771_3453771",-0.29097238093167965,-9.779054080647859,464],["DOP1B_21_37528079_37529079",-0.2532169276055322,-7.509684352758187,465],["ANKRD13C_1_70820417_70821417",-0.2657372674667497,-8.2462568665469,466],["IGF2BP2_3_185538919_185539919",-0.2554849363917273,-7.712844801540314,470]]},"para":{"top":[["RBM23_14_23388396_23389396",0.2031326256574477,-4.870295184352046,452],["LINC02362_4_185303460_185304460",0.2255551925934853,-5.932140733401958,455],["HPN_19_35530409_35531409",0.21808544407106464,-4.834791897083438,388],["MT1IP_16_56709027_56710027",0.2303371595769515,-6.314155798811803,467],["BICDL2_16_3085542_3086542",0.21084718614737327,-5.39676787763427,470],["LFNG_7_2551162_2552162",0.26190501554678464,-8.005439244305364,465],["U2AF1L5_21_44527716_44528716",0.2066009166687642,-5.170594442160298,467],["HOXA10-AS_7_27207517_27208517",0.20073136728794205,-4.785533879007167,454],["CD38_4_15778887_15779887",0.2296287099498597,-5.972907329476516,442],["MIR149_2_241394417_241395417",0.23394153618849245,-6.16959971203865,441],["CXXC5_5_139029573_139030573",0.23793178889911967,-6.733416040133479,469],["SLC39A1_1_153940660_153941660",0.23174604155286563,-4.231972319666088,295],["EN1_2_119605759_119606759",0.21164747983910892,-5.423868964154392,469]],"bottom":[["ASAP1_8_131455906_131456906",-0.20701857418930258,-5.139903937078114,462],["TGIF1_18_3452771_3453771",-0.24435410021161047,-7.008704855844187,464],["WWTR1-AS1_3_149374996_149375996",-0.2399273382836276,-6.839366856631558,469],["CCDC130_19_13841573_13842573",-0.22184723376332574,-5.90186424081165,468],["SOWAHC_2_110370910_110371910",-0.21746119473581896,-5.710875136961084,470],["OSMR-AS1_5_38845931_38846931",-0.26068732263125327,-8.013481541477335,470],["TACC2_10_123871553_123872553",-0.21659975413604207,-5.647673014914112,468],["IGF2BP2_3_185538919_185539919",-0.2380488253029007,-6.752707482272485,470],["KPNA7_7_98805112_98806112",-0.21052747785752168,-4.928962680991756,426],["ABHD2_15_89630380_89631380",-0.21169356855374033,-5.415641342637046,468],["RRP9_3_51975957_51976957",-0.21479909337816788,-5.583259632761991,470],["LYPD1_2_133427943_133428943",-0.23662414864298872,-6.677442776045851,470]]}}}
{"ccle_gene_tpm":{"corr":{"top":[["AAED1_ENSG00000158122.7",0.274991692894623,-10.656993525842177,572],["UPP1_ENSG00000183696.9",0.27930420922862703,-10.983960996760738,572],["RP6-99M1.2_ENSG00000270069.1",0.30636344246402414,-13.16861177307616,572],["ELK3_ENSG00000111145.3",0.2706713758006801,-10.335151260037968,572],["TIMP1_ENSG00000102265.7",0.2604820594562248,-9.59850164781823,572],["OSMR_ENSG00000145623.8",0.276276902896404,-10.753837506802057,572],["SNAPC1_ENSG00000023608.4",0.2557482812701908,-9.26685029033433,572],["FOSL1_ENSG00000175592.4",0.29172819851051834,-11.95821641901065,572]],"bottom":[["MBNL3_ENSG00000076770.10",-0.2603748168442561,-9.590914284956012,572],["IDI1_ENSG00000067064.6",-0.32054967848690635,-14.40842929963728,572],["RP4-813D12.3_ENSG00000226308.1",-0.2618554066169018,-9.695969155741931,572],["FAM3B_ENSG00000183844.12",-0.2753857756403416,-10.686634823674023,572],["HMGCS1_ENSG00000112972.10",-0.27906528297340344,-10.965696073532817,572],["EIF4EBP2_ENSG00000148730.6",-0.2518133063982018,-8.996217694239782,572],["NODAL_ENSG00000156574.5",-0.2662649271304884,-10.012740118976964,572],["ANKRD46_ENSG00000186106.7",-0.2611532238436985,-9.646064243110674,572],["CTD-2636A23.2_ENSG00000261604.1",-0.23794926825982698,-8.078796028748059,572],["IGDCC3_ENSG00000174498.9",-0.24910282484791452,-8.81245243158023,572],["RP3-468B3.4_ENSG00000271362.1",-0.2470938043563727,-8.67763359085571,572],["SQLE_ENSG00000104549.7",-0.34315555550675153,-16.524372279980994,572]]},"para":{"top":[["UPP1_ENSG00000183696.9",0.2880315374284827,-11.66328323412308,572],["RP6-99M1.2_ENSG00000270069.1",0.2640930474325221,-9.855986371394028,572],["MYPN_ENSG00000138347.11",0.2517715042664807,-8.993367209606651,572],["AHNAK2_ENSG00000185567.6",0.2507393845185509,-8.923149965469259,572],["GAS2L1_ENSG00000185340.11",0.24910162587482618,-8.81237162033608,572],["BLID_ENSG00000259571.1",0.26213280635223696,-9.715724929926667,572],["EOGT_ENSG00000163378.9",0.2527169331844524,-9.057961670106176,572],["CTD-2127H9.1_ENSG00000249740.1",0.2593876977026194,-9.521237282449599,572],["OSMR_ENSG00000145623.8",0.26044367074116653,-9.595785270150314,572],["SNAPC1_ENSG00000023608.4",0.25925203444841083,-9.51168404009318,572],["FOSL1_ENSG00000175592.4",0.2589292369629639,-9.488975080091668,572],["HFE_ENSG00000010704.14",0.2612319853528127,-9.651654567152374,572]],"bottom":[["IDI1_ENSG00000067064.6",-0.29939815927800384,-12.583979867999211,572],["HMGCS1_ENSG00000112972.10",-0.27752395652213996,-10.848291457565125,572],["INSM1_ENSG00000173404.3",-0.22318422778014907,-7.162469120181185,572],["AC073133.2_ENSG00000228569.1",-0.23428761445613486,-7.8457681510213515,572],["CNTNAP2_ENSG00000174469.13",-0.23123041401192956,-7.654142488225861,572],["ARL11_ENSG00000152213.3",-0.23756027570888227,-8.053858001633246,572],["UCP2_ENSG00000175567.4",-0.23626522195176694,-7.9711460767694,572],["RP11-117L5.4_ENSG00000256064.1",-0.2292481112719736,-7.531312064624501,572],["RASGEF1B_ENSG00000138670.12",-0.275118693305688,-10.66654077845649,572],["ANKRD46_ENSG00000186106.7",-0.2495446132509591,-8.842257799345713,572],["CTD-2636A23.2_ENSG00000261604.1",-0.22789317817297608,-7.4479964188302,572],["CNTNAP5_ENSG00000155052.14",-0.2398515259181936,-8.201375179225506,572],["RP11-350F4.2_ENSG00000257742.1",-0.22052417595456109,-7.003929675906767,572],["SQLE_ENSG00000104549.7",-0.36848186747110473,-19.109220907079624,572]]}}}
{"ccle_rrbs_tss_clusters":{"corr":{"top":[["SLC51B_3",0.2962798211584016,-4.437291441561433,188],["IL6R-AS1_2",0.345607450337268,-4.014899851325501,122],["P2RY6_2",0.27766712357485357,-8.933874158586319,464],["PLEC_3",0.3021718008526676,-10.589176555375598,467],["C11orf16_2",0.29971153445202997,-6.578112859462438,284],["HILS1_1",0.3287011648578797,-3.9505683860069345,133],["DYSF_3",0.3200500276976355,-4.53098371280635,164],["UHRF1_7",0.2942926466095071,-10.037207480524508,466],["RNASEH1_2",0.26986842954666634,-4.023103106425288,204],["LRRC72_3",0.27848579909601223,-5.472659193439519,270],["ZBTB40_1",0.36054435478734076,-4.377244868060182,123],["USP7_7",0.2860370007117356,-9.270442963181111,454],["MIR4799_2",0.2991066098571984,-9.94334434794913,446]],"bottom":[["CDCA4_3",-0.3457847259696781,-7.33363468082704,237],["LOC100131496_1",-0.2918303225583931,-9.538305026304622,449],["MIR4711_2",-0.27335669280023045,-5.462935677317124,280],["UHRF1_8",-0.2834733570841249,-9.241293283005996,461],["BEST3_4",-0.2785308916004303,-5.456021971699062,269],["HPN-AS1_2",-0.3055065518463026,-6.403844427239412,265],["IGF2BP2_4",-0.348232678409769,-8.647938646085398,279]]},"para":{"top":[["MBNL3_2",0.26675623026607775,-2.7188280469709873,133],["ZNF275_2",0.2735859830087076,-3.2969158325808685,158],["CXXC5_5",0.2601133205958252,-8.04258933938319,474],["LFNG_3",0.24156084971599387,-6.967266921294759,472],["PLEC_3",0.2739385954828654,-8.757136247856643,467],["HILS1_1",0.30903802084758913,-3.5297052154012025,133],["BCL2_1",0.2528191222784203,-7.4282678756885305,461],["LOC100505622_1",0.24211483068901032,-6.807430654205079,458],["DUSP2_1",0.23647626523102613,-6.669657477244855,470],["LRRC72_3",0.22942527298238133,-3.845161301144114,270],["MIR149_3",0.23663672118673185,-6.74283588869884,475],["NFATC2_5",0.2335089292471985,-6.438850299842077,464],["CXXC5_14",0.26148634261164316,-7.949482345079445,463],["LAIR1_4",0.25056705508271937,-4.105238640109556,243]],"bottom":[["CDCA4_3",-0.3183101509256761,-6.253353328407781,237],["EIF5_3",-0.2570007741841085,-3.0007650250731506,161],["MIR4711_2",-0.249742689182627,-4.626492431901827,280],["OSMR-AS1_2",-0.26463168743090737,-8.310642502003864,474],["WWTR1_1",-0.26966797834748846,-8.56489711024937,471],["HPN-AS1_2",-0.2696048417214633,-5.067756716805345,265],["IGF2BP2_4",-0.2916680719419668,-6.147758725177337,279]]}}}
{"ccle_rrbs_cgi_clusters":{"corr":{"top":[["1_22776236_22780817-1",0.36054435478734076,-4.377244868060182,123],["2_241392737_241395598-3",0.2796078271132958,-9.25370427281082,475],["22_47079750_47084045-1",0.3196636240278728,-5.7936299073778565,216],["19_41109083_41113767-2",0.2784373852321616,-4.516669757194098,218],["8_145049799_145054305-3",0.2956220886984645,-10.145932487852095,467],["2_71678558_71683276-3",0.3200500276976355,-4.53098371280635,164],["7_16564252_16568674-3",0.27848579909601223,-5.472659193439519,270],["17_61041325_61043867-1",0.28263691645946953,-9.207295281623946,462],["12_1637033_1639891-1",0.4129642665235202,-8.41190540769271,188],["2_3603489_3608332-2",0.26986842954666634,-4.023103106425288,204],["7_1965664_1969994-1",0.28412802066249243,-9.13265789712825,453],["19_4907262_4912256-1",0.2942926466095071,-10.037207480524508,466],["17_7309672_7314063-1",0.2763041159704896,-4.996679583870921,248]],"bottom":[["14_105487263_105489915-2",-0.3457847259696781,-7.33363468082704,237],["21_42540119_42542872-2",-0.2711127002811941,-8.635922224641641,470],["3_185539048_185542597-1",-0.348232678409769,-8.647938646085398,279],["3_171758109_171760724-2",-0.2944062286757654,-9.984332239819299,463],["6_125281124_125283756-2",-0.28737490788695524,-4.826219562082046,220],["7_149319187_149321711-1",-0.2711817608653085,-4.461317247659271,227],["16_77246478_77249013-3",-0.3240769299470384,-4.027821251943748,140],["19_4907262_4912256-3",-0.2834733570841249,-9.241293283005996,461]]},"para":{"top":[["18_60983503_60987741-1",0.2528191222784203,-7.4282678756885305,461],["23_131621144_131626115-2",0.26675623026607775,-2.7188280469709873,133],["2_241392737_241395598-3",0.2770676636386753,-9.092498664921887,475],["22_47079750_47084045-1",0.3102098799533994,-5.474426518447891,216],["16_30192747_30197357-2",0.24831369742352807,-7.009560496774793,449],["17_59480531_59485266-2",0.252117090550817,-7.44821612875074,465],["12_1637033_1639891-1",0.26376132878563824,-3.5937800219872194,188],["5_139028831_139032219-3",0.26148634261164316,-7.949482345079445,463],["23_152597434_152602076-2",0.2735859830087076,-3.2969158325808685,158],["19_19736572_19739196-2",0.3063224399298862,-5.413305786254377,219],["6_108434109_108438522-3",0.26324324832748097,-8.115495841721842,467],["22_46857615_46862229-1",0.2559240879761281,-7.707669424580711,468],["8_145049799_145054305-3",0.27001003730349526,-8.518174988456364,467]],"bottom":[["14_105487263_105489915-2",-0.3183101509256761,-6.253353328407781,237],["3_185539048_185542597-1",-0.2916680719419668,-6.147758725177337,279],["10_3821789_3826017-2",-0.24315585585725252,-6.999093876310872,468],["3_149372709_149375505-3",-0.2417898521556922,-6.736224761781852,454],["5_38843502_38848476-2",-0.26463168743090737,-8.310642502003864,474],["16_19125121_19129324-1",-0.24252876021570113,-7.060482487049091,475],["1_214722104_214727056-1",-0.24188586000702,-7.025420536492511,475],["3_149372709_149375505-1",-0.25834783210084283,-7.877471537934545,470],["19_1166576_1171139-3",-0.24670339818841064,-7.248358994243688,472],["2_106012878_106015381-1",-0.24276143058816574,-6.677786620156435,446]]}}}
