{"depmap_hotspot":{"corr":{"top":[["ACOT7",0.12239691538883983,-3.166676678043951,30.0,737.0],["ADCY1",0.1025346736977086,-2.349148826396855,70.0,697.0],["ALKBH3",0.1316912666407349,-3.593398493364605,17.0,750.0],["ANGPTL2",0.1143287840370938,-2.8192205385306512,23.0,744.0],["ANO8",0.1319771480544907,-3.606976811888317,50.0,717.0],["ANXA9",0.11543395911630741,-2.86556369254019,16.0,751.0],["CA3",0.10668475321125986,-2.5094735464776683,19.0,748.0],["CASC4",0.11627922825334412,-2.901275536105124,11.0,756.0],["CEP97",0.10837626685569476,-2.576397775828621,32.0,735.0],["DEFB132",0.11515573371728106,-2.8538596250139996,8.0,759.0],["FABP1",0.11344164426897578,-2.7823063637674146,8.0,759.0],["FAM83B",0.11045557962555545,-2.65992278422025,55.0,712.0],["FGD2",0.11677671001080296,-2.9224021178066866,43.0,724.0],["GRAMD2",0.10789364962815891,-2.5572097175752293,21.0,746.0],["HPX",0.11366329190518108,-2.7915053363412583,22.0,745.0],["IDH3B",0.12014778377104607,-3.067683708113249,9.0,758.0],["IFIT1",0.11961911392022083,-3.044654942456307,15.0,752.0],["NDST3",0.11795349289873212,-2.9726968523351687,44.0,723.0],["NFU1",0.1075356673601442,-2.5430251603665113,10.0,757.0],["NLK",0.13393051935734743,-3.7004821970731894,23.0,744.0],["NUDT16L1",0.10456529703524976,-2.4269093552770546,14.0,753.0],["OR5B2",0.10920064993230914,-2.6093466938634613,26.0,741.0],["PCDH11Y",0.10412382042867742,-2.4098918249365795,11.0,756.0],["PRRT3",0.11351207343556152,-2.7852276415964616,37.0,730.0],["PSPN",0.1477974833642199,-4.401038761935349,9.0,758.0],["RSBN1L",0.10532057346075184,-2.4561669583727053,27.0,740.0],["SLC35F5",0.11477427362879468,-2.837853582667253,21.0,746.0],["SUSD1",0.10208592816989441,-2.332141480524664,33.0,734.0],["TCHHL1",0.1028068587574889,-2.35949573890978,46.0,721.0],["TGM1",0.10624537970505607,-2.492239699042033,33.0,734.0],["TIGD4",0.11124138895892233,-2.691850370474924,13.0,754.0],["UBFD1",0.10247531897363266,-2.3468956267920102,11.0,756.0],["UHRF1BP1",0.10671477291238307,-2.5106532827762424,52.0,715.0],["USP51",0.12264071822470768,-3.1775068759772576,25.0,742.0],["USP53",0.11459841371085648,-2.8304903888094906,27.0,740.0],["ZC3H18",0.10968240204638165,-2.6287023684981183,56.0,711.0],["ZMYND8",0.11215216830424773,-2.72910445517165,42.0,725.0],["ZNF320",0.14162942781285712,-4.081435755430306,23.0,744.0]],"bottom":[["FRMPD4",-0.11086516869785978,-2.676539659153526,52.0,715.0],["JAM2",-0.10690648821982783,-2.5181942513743647,14.0,753.0],["KRTAP10-8",-0.11003158375131626,-2.642778296502096,20.0,747.0],["NKAIN4",-0.11287857539193814,-2.759008904338677,14.0,753.0],["OGFOD1",-0.10514175812299882,-2.4492236393928737,10.0,757.0],["S1PR5",-0.1326621579243304,-3.639622802460598,17.0,750.0],["VN1R1",-0.09947673579115679,-2.23451857139421,13.0,754.0]]},"para":{"top":[["ACOT7",0.14622023436508555,-4.585069213858547,30.0,737.0],["ANGPTL2",0.12605416739688366,-3.6142799109616472,23.0,744.0],["C5orf17",0.09722359149358792,-2.4471091406605567,9.0,758.0],["CUTC",0.10170746916652054,-2.6116925473729817,9.0,758.0],["DKKL1",0.09734929865228355,-2.451802835547047,13.0,754.0],["GTF2A1L",0.11664090851027549,-3.204574223612144,10.0,757.0],["IMPA2",0.11043770932603966,-2.9499378515954766,10.0,757.0],["LPCAT3",0.10576494080334112,-2.766085370482359,12.0,755.0],["NFU1",0.10792009292072217,-2.8499959875589997,10.0,757.0],["NUDT16L1",0.10236008512003576,-2.63636229044627,14.0,753.0],["PCDH11Y",0.10843849219498065,-2.8704616187674254,11.0,756.0],["PDC",0.1075037012803115,-2.833601089794999,9.0,758.0],["PLEKHF2",0.10889807787372348,-2.888531250175902,9.0,758.0],["PSMA6",0.11244278908102062,-3.0308147202481184,8.0,759.0],["RESP18",0.09008888664200491,-2.197966564408274,11.0,756.0],["RP11-410N8.4",0.12292197211941805,-3.4746166788855333,10.0,757.0],["SLCO1B7",0.09450822642045417,-2.3506174200532874,14.0,753.0],["TCF21",0.09409838560465822,-2.3359747808553575,8.0,759.0],["TIGD4",0.10882228300610235,-2.885709323805326,13.0,754.0],["TMEM229A",0.1140597613724779,-3.0972171035562197,11.0,756.0],["TNFRSF1A",0.10999510597200246,-2.932463631440851,17.0,750.0],["VCX2",0.09777885834004212,-2.467097235020065,8.0,759.0],["ZNF320",0.139294861233286,-4.237132771779499,23.0,744.0],["ZNF557",0.11264363628812908,-3.0394252435264626,20.0,747.0]],"bottom":[["AIRE",-0.10861412688291246,-2.877734104484089,26.0,741.0],["DUSP1",-0.1100359918039405,-2.9340176141995538,14.0,753.0],["FAM134B",-0.10926266442643849,-2.9033451211942713,20.0,747.0],["GPR31",-0.1015995471512122,-2.6079536583078,18.0,749.0],["IRF4",-0.10558762007436925,-2.7594728550324374,22.0,745.0],["JAM2",-0.11175152395679025,-3.003032140430671,14.0,753.0],["KRTAP10-8",-0.10913333763391479,-2.8982101793087507,20.0,747.0],["NKAIN4",-0.10805653162757538,-2.855517812361208,14.0,753.0],["RBBP9",-0.10012624646260988,-2.55288901442895,8.0,759.0],["UBE2NL",-0.10242606712591461,-2.6388435679956848,14.0,753.0],["VN1R1",-0.10410079640323859,-2.7022395720082084,13.0,754.0]]}}}
{"depmap_damaging":{"corr":{"top":[["MEI1",0.11142261953396862,-2.6992420280657097,9.0,758.0],["ST7L",0.10152996697825754,-2.3111593388754614,9.0,758.0],["ZFYVE16",0.14392989279944507,-4.199131521215864,9.0,758.0]],"bottom":[["NBR1",-0.11840842875603584,-2.9922612238140696,24.0,743.0],["NME8",-0.09837172478263626,-2.193823695684337,10.0,757.0],["TEP1",-0.1435799847914006,-4.181114417553272,15.0,752.0]]},"para":{"top":[["ARHGAP5",0.10753137369813402,-2.834994652973781,18.0,749.0],["EFCAB13",0.1079465616177773,-2.851192243721958,14.0,753.0],["HLA-G",0.10099661051105563,-2.5851889402677455,9.0,758.0],["MAST4",0.11116735742770767,-2.979213615996316,9.0,758.0],["MEI1",0.11923286909548285,-3.314458921923441,9.0,758.0]],"bottom":[["NBR1",-0.11091834183881902,-2.96960449072604,24.0,743.0],["NME8",-0.1040787812919904,-2.7012802762678065,10.0,757.0],["TEP1",-0.11441269289554874,-3.11192572822546,15.0,752.0]]}}}
{"ccle_mirna":{"corr":{"top":[],"bottom":[["hsa-miR-563_miR00515.2",-0.14256183638459377,-3.0201382534779797,534]]},"para":{"top":[],"bottom":[]}}}
{"prism_primary_logfold":{"corr":{"top":[["colforsin_BRD-A55416093-001-06-4::2.5::MTS004",0.19078453025758516,-3.7372826021684373,380],["phenindione_BRD-K70592963-001-31-6::2.5::MTS004",0.18368964315127612,-3.4966909646738866,380],["LY3023414_BRD-K82967180-001-01-6::2.500024493::MTS004",0.17699925351903417,-3.277781789924247,380],["natamycin_BRD-K90563805-001-02-6::2.5::MTS004",0.16802220938957835,-2.9960554669964545,380]],"bottom":[["phloroglucin_BRD-K00405906-001-01-9::2.5::HTS",-0.19666828017201268,-4.06142465316086,393],["acitazanolast_BRD-K74236708-001-01-9::2.5::HTS",-0.17685048213705393,-3.3617766157399993,392],["oritavancin_BRD-A33352494-316-01-6::2.499995956::MTS004",-0.17465419334483662,-3.202866016491426,380]]},"para":{"top":[["phenindione_BRD-K70592963-001-31-6::2.5::MTS004",0.17603322900975835,-3.246807354803509,380],["LY3023414_BRD-K82967180-001-01-6::2.500024493::MTS004",0.17875642314393247,-3.3345323540499483,380],["natamycin_BRD-K90563805-001-02-6::2.5::MTS004",0.16520446086898696,-2.910434598907314,380]],"bottom":[["phloroglucin_BRD-K00405906-001-01-9::2.5::HTS",-0.1985889056835159,-4.132290104506387,393],["iniparib_BRD-K11153516-001-05-5::2.5::HTS",-0.17338472416587075,-3.127032523864757,375],["iodoquinol_BRD-K75855670-001-14-2::2.5::HTS",-0.16260562182853547,-2.902034452775138,391],["tozadenant_BRD-K93045741-001-01-0::2.5::HTS",-0.16009255753579343,-2.8258773711661154,391]]}}}
{"prism_secondary_logfold":{"corr":{"top":[["nisoxetine_BRD-A95696066-003-13-8::0.0390625::HTS002",0.1816010596875227,-3.028529361663609,329],["LE-135_BRD-K06593056-001-04-8::0.0390625::HTS002",0.18192348087334687,-3.0693388747149326,333],["afobazole_BRD-K37793595-003-01-7::0.0024414::HTS002",0.1970666196796308,-3.564376863975998,337],["BAY-11-7085_BRD-K48684885-001-04-2::0.625::HTS002",0.21708758763446617,-4.077045202581192,323],["tacedinaline_BRD-K52313696-001-12-3::2.5::MTS010::PROS004_PR500",0.21825113768168064,-4.20580394715908,331],["ZM-447439_BRD-K72703948-001-10-1::0.0024414::HTS002",0.1767468964846247,-2.9727821816641806,340],["INC-280_BRD-K81016934-001-02-0::2.5::MTS010::PROS004_PR500",0.20809359920695317,-3.863128410033168,331],["neratinib_BRD-K85606544-001-09-1::0.00977::MTS010::PROS004_PR500",0.17488418670111608,-2.853425800773734,331],["AVL-292_BRD-K87782578-001-01-4::0.625::MTS010::PROS001_PR500",0.19574907224857194,-3.4228957425856747,326]],"bottom":[["BNC105_BRD-K20468903-001-01-6::0.000610352::MTS006",-0.1778206604881424,-2.966211634022002,335],["tepoxalin_BRD-K89714990-001-01-5::0.002441406::MTS006",-0.1975200493983501,-3.588019081470981,338],["gestrinone_BRD-K97472745-001-01-8::2.5::HTS002",-0.17847547680050466,-2.9622210925820482,332]]},"para":{"top":[["LE-135_BRD-K06593056-001-04-8::0.0390625::HTS002",0.17401084400771744,-2.8435940114385114,333],["AMG458_BRD-K21782625-001-02-4::2.5::HTS002",0.19474443684018988,-3.4909996799940473,337],["afobazole_BRD-K37793595-003-01-7::0.0024414::HTS002",0.21872724368184665,-4.289688292712174,337],["tacedinaline_BRD-K52313696-001-12-3::2.5::MTS010::PROS004_PR500",0.18658006140420694,-3.1900297015060795,331],["ZM-447439_BRD-K72703948-001-10-1::0.0024414::HTS002",0.18175384346706988,-3.119429546738863,340],["bekanamycin_BRD-K73425385-065-04-8::0.0024414::HTS002",0.1945224773046266,-3.4840299619001778,337],["vandetanib_BRD-K77625799-001-07-7::0.00976562::HTS002",0.1851285315454893,-3.0001799810128302,313],["INC-280_BRD-K81016934-001-02-0::2.5::MTS010::PROS004_PR500",0.2086702934282098,-3.882151366733658,331],["neratinib_BRD-K85606544-001-09-1::0.00977::MTS010::PROS004_PR500",0.18139360197219748,-3.038252661548386,331]],"bottom":[["aurora-a-inhibitor-i_BRD-K53561341-001-07-5::2.5::HTS002",-0.18962665899117373,-3.3322344607608527,337],["aztreonam_BRD-K62607865-001-09-7::0.040996::HTS002",-0.17364068096976368,-2.8621051983162062,337]]}}}
{"ccle_proteomics":{"corr":{"top":[["PATL1_Q86TB9",0.2092708635656205,-3.1961532160745847,263]],"bottom":[]},"para":{"top":[],"bottom":[]}}}
{"depmap_gene_tpm":{"corr":{"top":[["XKR4_114786",0.14198693645552093,-4.085573385441641,764]],"bottom":[["SEC62_7095",-0.15957086345864951,-5.029486562180189,764],["CLHC1_130162",-0.13819462873698296,-3.895696129168235,764],["IGIP_492311",-0.1368414693766134,-3.8291085689515096,764]]},"para":{"top":[["FRG2C_100288801",0.14120945813776042,-4.046253168366122,764]],"bottom":[["PIGZ_80235",-0.14219596623693392,-4.096179470306929,764],["PGAM2_5224",-0.13239562536681684,-3.6146232615489513,764],["IGIP_492311",-0.1480178907779133,-4.39749258593158,764],["GK2_2712",-0.1478202078564521,-4.38707384202526,764]]}}}
{"avana":{"corr":{"top":[["GMEB2_26205",0.20568646371302307,-7.949573389388694,757],["SAXO2_283726",0.18911325766760229,-6.897060301193526,769],["WDR35_57539",0.17034525447154042,-5.6935448242407185,769],["ASB5_140458",0.18120741529121193,-6.374783950311903,769],["GLYR1_84656",0.1916764372228078,-6.970462595252022,757],["NFE2L3_9603",0.17078784057849505,-5.720487404780182,769],["PITX1_5307",0.1882867133234425,-6.841405235635602,769]],"bottom":[["GCA_25801",-0.1798534756895954,-6.287584592426002,769]]},"para":{"top":[["DLG1_1739",0.18969014409671728,-6.936050864035588,769],["WDR53_348793",0.20218288211949037,-7.810074997151019,769],["MELTF_4241",0.1945723563816181,-7.270854314679861,769],["GLYR1_84656",0.18120841028953888,-6.284649442162671,757],["ASB5_140458",0.1748363759868161,-5.970147100249754,769],["LMLN_89782",0.1728703229859358,-5.848184908550847,769],["HRG_3273",0.17347965314717062,-5.885838098739638,769]],"bottom":[["HCRTR2_3062",-0.15176485690596467,-4.624073747406488,769],["TTC9B_148014",-0.13816574971014253,-3.9164685229366887,769],["NFATC4_4776",-0.15440312260417607,-4.70265123089281,757],["CASP2_835",-0.14517455285996778,-4.273319515818769,769],["PBX1_5087",-0.1405799189145072,-4.037512382229994,769]]}}}
{"drive":{"corr":{"top":[["MYH13_8735",0.2257463889688538,-3.7844470047253687,274],["AKR1B1_231",0.22198678466589228,-3.6031448299881785,268],["MYH3&MYH4_4621&4622",0.2195607387652345,-3.545332379515609,269]],"bottom":[]},"para":{"top":[["HAVCR2_84868",0.2301313959806425,-3.841199080609519,268],["ARHGEF40_55701",0.20597898424349578,-3.1902441237111976,271],["MYH13_8735",0.21195464088023344,-3.385726366491866,274],["NUAK2_81788",0.20274914192950091,-3.1037930150473994,271],["AKR1B1_231",0.21626479697565454,-3.4409798203479744,268]],"bottom":[]}}}
{"achilles":{"corr":{"top":[["USP42_84132",0.21988805540422807,-2.8605169501874945,209],["NEIL3_55247",0.19507645396749018,-3.6452371958756253,353]],"bottom":[]},"para":{"top":[],"bottom":[["MGST3_4259",-0.21723563866569354,-2.801264459555937,209],["HBS1L_10767",-0.24146203202438096,-3.3684131914831292,209]]}}}
{"ccle_rrbs_tss1kb":{"corr":{"top":[["LINC01333_5_73617310_73618310",0.16084121339772797,-3.333097556774528,470]],"bottom":[["CNOT10_3_32725636_32726636",-0.16072818895988894,-2.4542182280669955,328],["XRRA1_11_74660232_74661232",-0.14592149981390984,-2.7743115756309136,461],["AXDND1_1_179333854_179334854",-0.15953157873143356,-3.2080746580107973,457]]},"para":{"top":[["ZNF559_19_9433447_9434447",0.1648787813395187,-3.3197226149681116,445],["FIG4_6_110011423_110012423",0.16668544701702273,-3.513987349980581,465],["LOC105379194_5_138089613_138090613",0.17892598078603358,-3.5515966082647115,408],["DDX50_10_70660033_70661033",0.15902911557656754,-3.2444424028236143,466],["ZKSCAN8_6_28108687_28109687",0.1625403311973142,-3.1948723191444106,438]],"bottom":[["CDRT15P1_17_13926814_13927814",-0.19219116112095722,-3.594614934703528,358],["SETX_9_135230373_135231373",-0.1780202464465229,-3.9368512949165564,464],["MIR5191_1_201687635_201688635",-0.1513626485883239,-2.696107683540977,414],["SETX_9_135230243_135231243",-0.1561317630635375,-3.16042011053982,469]]}}}
{"ccle_gene_tpm":{"corr":{"top":[["CRIP1P4_ENSG00000182351.6",0.14176464661571606,-3.171889091613901,572]],"bottom":[["ZNF133_ENSG00000125846.11",-0.15233886103049182,-3.5928244210737867,572],["AC005154.8_ENSG00000226874.1",-0.17775350909906618,-4.7206906273038705,572],["NCBP2_ENSG00000114503.6",-0.16490300177850195,-4.129663365407033,572],["RP11-894P9.1_ENSG00000246451.2",-0.1627036103033336,-4.032781344504945,572],["AC012358.7_ENSG00000203327.2",-0.1996823540785103,-5.82953348045611,572],["IGIP_ENSG00000182700.3",-0.17114522825088566,-4.411411317045185,572],["CCNL1_ENSG00000163660.7",-0.17826986682362445,-4.7453371615212925,572],["RP11-73M18.6_ENSG00000270108.1",-0.16366384716811622,-4.0749267018051105,572],["RP1-261G23.5_ENSG00000236961.1",-0.1556384557646258,-3.7299247073236304,572],["RP4-635E8.1_ENSG00000215893.3",-0.16782094719581064,-4.260115772817615,572]]},"para":{"top":[["RP11-501O2.4_ENSG00000243347.1",0.14543534957404114,-3.314843975104303,572],["MRPL35_ENSG00000132313.10",0.18574212004025054,-5.109844925277126,572],["None_ENSG00000261276.1",0.1472075849634817,-3.385066001403276,572],["TIMM10_ENSG00000134809.4",0.15384469017299,-3.6550512312521244,572],["TPM3P2_ENSG00000214200.2",0.1494126792712728,-3.473536988261907,572],["XXbac-BPG308J9.3_ENSG00000232505.2",0.15234435847544536,-3.593050556546304,572],["RPL18P13_ENSG00000244485.1",0.16236342275659588,-4.017906965795638,572],["RP11-243E13.1_ENSG00000260913.1",0.16281580507966198,-4.0376934518797185,572]],"bottom":[["AC005154.8_ENSG00000226874.1",-0.18857115563845303,-5.251700504034406,572],["RP5-894A10.2_ENSG00000244701.1",-0.1645328468759836,-4.113271386011983,572],["GK2_ENSG00000196475.4",-0.1694036565995344,-4.33179206187262,572],["CTC-563A5.2_ENSG00000249412.1",-0.16352877633529525,-4.068984082974857,572],["AC012358.7_ENSG00000203327.2",-0.20080700151103362,-5.889872099564416,572],["RP11-10N23.2_ENSG00000253854.1",-0.1653669094252904,-4.1502567983993615,572],["IGIP_ENSG00000182700.3",-0.18954664438079957,-5.301107337571204,572],["C6ORF50_ENSG00000145965.5",-0.20150608507285062,-5.927551422479325,572],["None_ENSG00000164708.5",-0.16303843308972044,-4.047450087629591,572],["CCNL1_ENSG00000163660.7",-0.1711960752333512,-4.413747686872205,572],["RP11-1109F11.3_ENSG00000271327.1",-0.17418094480195095,-4.55207584183732,572],["MTRNR2L8_ENSG00000255823.1",-0.1610626432256792,-3.9613046085671835,572],["RP11-173B14.4_ENSG00000228444.2",-0.16829496401753777,-4.281514755567857,572],["RP4-635E8.1_ENSG00000215893.3",-0.16159078731970786,-3.9842342058807962,572]]}}}
{"ccle_rrbs_tss_clusters":{"corr":{"top":[["MGARP_3",0.21952186697076118,-3.761294620501417,288]],"bottom":[["ZNRF1_1",-0.21302287999494238,-2.8291724567959347,220],["LOC100129617_3",-0.20900931082726765,-2.9696079526745844,242],["FER_2",-0.2102579245219594,-3.4434845420520106,284],["RPL36A-HNRNPH2_3",-0.20238693135603222,-3.3965177596882383,302]]},"para":{"top":[["MIR6716_1",0.25151002632335656,-2.2998474020338486,123],["ODF3L2_3",0.2249486335941089,-3.29113466369743,235]],"bottom":[["ZNRF1_1",-0.22231976185111302,-3.0462986339931435,220],["CDRT15P1_1",-0.21186495232448632,-4.241601395423412,355],["LOC100129617_3",-0.20401146927525204,-2.8481812909989377,242],["BAZ2A_6",-0.20274795341986612,-2.9364676183254304,254],["PARVB_11",-0.21388140888074358,-3.700287859174965,298],["SETX_2",-0.2208409850311402,-5.739688148079263,458]]}}}
{"ccle_rrbs_cgi_clusters":{"corr":{"top":[["18_497315_500019-1",0.2188539793700827,-3.445505182205638,262],["4_140199064_140203449-3",0.21952186697076118,-3.761294620501417,288]],"bottom":[["23_100643780_100648107-3",-0.20238693135603222,-3.3965177596882383,302],["5_108084595_108087203-2",-0.2102579245219594,-3.4434845420520106,284],["16_75031041_75033624-1",-0.21302287999494238,-2.8291724567959347,220]]},"para":{"top":[["18_497315_500019-1",0.2197926418706784,-3.471563420735464,262]],"bottom":[["2_3391951_3394500-3",-0.19559451208764478,-3.3546874582832684,319],["9_21987773_21992108-1",-0.33112047096627734,-3.4138904023344088,111],["20_55683276_55687832-2",-0.23208021011535374,-3.0900181645712754,205],["16_75031041_75033624-1",-0.22231976185111302,-3.0462986339931435,220],["17_43109525_43113732-1",-0.22685964414090942,-3.0071689014884586,208],["9_135227934_135232783-2",-0.2208409850311402,-5.739688148079263,458]]}}}
