{"depmap_hotspot":{"corr":{"top":[["C1orf127",0.10271365052636078,-2.3559498469341458,28.0,739.0],["DEPDC7",0.102522904633268,-2.3487019650645946,25.0,742.0],["EDEM2",0.10172000231319148,-2.318320297798366,28.0,739.0],["FABP6",0.11604954707280893,-2.891548774424825,9.0,758.0],["FAM187A",0.10449411999878759,-2.42416150566746,17.0,750.0],["GRIN3B",0.11607852196356765,-2.8927748872592707,52.0,715.0],["HIST1H4E",0.08951579819506046,-1.8815311816819669,17.0,750.0],["KCNA6",0.12329398574219708,-3.2066223759110777,35.0,732.0],["MYO7A",0.10373688964544142,-2.3950279135660884,105.0,662.0],["PRDM4",0.1039981901774003,-2.4050605235556533,28.0,739.0],["SCN3B",0.10847237456138124,-2.580227775912906,12.0,755.0],["SP7",0.1285024922200607,-3.443781209450525,13.0,754.0],["ZNF365",0.10476670784737054,-2.434693740400246,38.0,729.0]],"bottom":[["AP3B2",-0.11011715245174518,-2.6462336527520605,41.0,726.0],["CCT7",-0.11531019709308407,-2.860354314355857,23.0,744.0],["CEP95",-0.11000750560096659,-2.6418064193741904,32.0,735.0],["CHURC1",-0.1343121264361066,-3.7188976062427193,8.0,759.0],["CITED1",-0.15676779853478212,-4.888947660450907,10.0,757.0],["CST3",-0.12179407315786474,-3.1399808681962296,10.0,757.0],["CYP19A1",-0.1230972035202182,-3.197837250260966,19.0,748.0],["DCPS",-0.12292250907382933,-3.1900488539795804,12.0,755.0],["EIF3L",-0.12823867462146124,-3.431553699084588,21.0,746.0],["FSD1L",-0.12298014714625677,-3.192617423562391,13.0,754.0],["GRIPAP1",-0.12132531543357948,-3.1193049980495844,22.0,745.0],["HACE1",-0.1120981079585786,-2.726885728603503,23.0,744.0],["HEPACAM",-0.12719094830508998,-3.3832203353462087,15.0,752.0],["IFT52",-0.11152779148050235,-2.7035364173434044,13.0,754.0],["JMJD1C",-0.11210064973957391,-2.726990026402098,97.0,670.0],["KRT7",-0.1110583115724814,-2.6843941334086394,28.0,739.0],["KRTAP4-9",-0.12533807106669106,-3.2986305694145366,17.0,750.0],["MCM7",-0.11057164557960018,-2.664626053515586,28.0,739.0],["MFSD1",-0.13181871572686887,-3.5994485029073773,18.0,749.0],["MPP1",-0.11305258235702005,-2.766197654086602,15.0,752.0],["MRO",-0.1050279241480277,-2.4448088319631047,11.0,756.0],["MTA3",-0.13360892045347958,-3.685000318533042,26.0,741.0],["NOMO1",-0.11003646807339171,-2.6429754673188186,39.0,728.0],["NOXO1",-0.1591711216000477,-5.024356666210472,15.0,752.0],["NUSAP1",-0.13257358908622713,-3.6353930325186488,9.0,758.0],["OR1L3",-0.14291994536565203,-4.14724093285951,17.0,750.0],["PICALM",-0.12073059710278387,-3.0931767486896486,18.0,749.0],["PQLC3",-0.10867411290239602,-2.5882769133075048,12.0,755.0],["PRKCA",-0.1237750722883651,-3.2281534711888105,40.0,727.0],["PSG3",-0.1514371153491546,-4.595687744456652,27.0,740.0],["RBP1",-0.14499822827787315,-4.2543973077065,13.0,754.0],["RHOBTB2",-0.11449484099312807,-2.826158521950307,24.0,743.0],["RPUSD1",-0.13703190730190287,-3.8515553678962777,17.0,750.0],["SELL",-0.12482364199397163,-3.275345790645528,21.0,746.0],["SIN3A",-0.1340201873153175,-3.704804986825608,41.0,726.0],["STK17A",-0.10857242789368372,-2.5842181615262145,16.0,751.0],["TRIM55",-0.1055471216656447,-2.4649783776344814,23.0,744.0],["TRUB2",-0.1533310114087218,-4.6987624014762694,14.0,753.0],["TXLNB",-0.11106131761396157,-2.6845164740039786,35.0,732.0],["WASF1",-0.11732293790763455,-2.945691437718327,16.0,751.0],["WDR43",-0.12686374575409046,-3.36820020138833,19.0,748.0],["WDR82",-0.13023100538089022,-3.5244647264841893,10.0,757.0],["ZDHHC16",-0.12682341260972685,-3.366351166047505,20.0,747.0],["ZNF230",-0.10776909896498256,-2.5522699104864115,18.0,749.0],["ZNF540",-0.11575205821865951,-2.8789758798804534,25.0,742.0],["ZNF713",-0.1190597655792963,-3.0203891354669095,11.0,756.0]]},"para":{"top":[["ADM5",0.09763372302872575,-2.4619074796883913,9.0,758.0],["CD38",0.11552976844200562,-3.15830667553584,16.0,751.0],["ELANE",0.10504337570794203,-2.7383486967906006,14.0,753.0],["FABP6",0.126751593380334,-3.6452560613966143,9.0,758.0],["FAM187A",0.10035555621828147,-2.561692394497631,17.0,750.0],["HINT3",0.09738246146892363,-2.4528853622369433,10.0,757.0],["IMPAD1",0.10251406494445513,-2.6421548405211386,14.0,753.0],["IQCJ-SCHIP1",0.11698489856367644,-3.219378157334931,21.0,746.0],["KLHL12",0.10903517188164022,-2.894255518644634,17.0,750.0],["PRDM4",0.12106863439608939,-3.3940996302093667,28.0,739.0],["RARRES3",0.09932907250574911,-2.523675770006705,10.0,757.0],["RNASET2",0.09372166424108351,-2.322786517625091,8.0,759.0],["ZMYND19",0.10048949416535016,-2.566471850451558,11.0,756.0]],"bottom":[["ABCF3",-0.1191539568338712,-3.3115271647267495,24.0,743.0],["C1orf204",-0.09784964811776176,-2.469769325214729,10.0,757.0],["CHURC1",-0.10516880628660857,-2.7429016226874046,8.0,759.0],["CUTC",-0.09908278136547245,-2.514604350969378,9.0,758.0],["EIF3L",-0.10763909698193914,-2.8392732433936385,21.0,746.0],["HACE1",-0.12172118918331866,-3.4224175334799547,23.0,744.0],["IFT52",-0.10670105810343619,-2.802430571467344,13.0,754.0],["KRTAP4-6",-0.09456208732797017,-2.3522673872197015,8.0,759.0],["LRPAP1",-0.10541983359180561,-2.752970058187439,20.0,747.0],["MPP1",-0.11341338668395287,-3.0707879390205766,15.0,752.0],["MRO",-0.12245454624141361,-3.454148332267953,11.0,756.0],["NFATC2IP",-0.11417088846313383,-3.101912885250536,14.0,753.0],["NFS1",-0.09986864196407559,-2.543742736613257,18.0,749.0],["NFYA",-0.09865424734631627,-2.49900376310297,10.0,757.0],["NUTM2D",-0.10632558239875388,-2.7879647066920077,18.0,749.0],["OR1L3",-0.09891561997919893,-2.508760765472982,17.0,750.0],["POGLUT1",-0.09611067559153096,-2.407261381646266,10.0,757.0],["PSG3",-0.12480453037587842,-3.558400449876692,27.0,740.0],["RHOBTB2",-0.11682025742384082,-3.2124947840563465,24.0,743.0],["RPUSD1",-0.10683526929415298,-2.8077679953181924,17.0,750.0],["STOML1",-0.10825765569948996,-2.86349341924814,16.0,751.0],["TACO1",-0.09271634737520612,-2.2879858384983525,12.0,755.0],["TIMM23B",-0.1082056188336734,-2.861231946417365,10.0,757.0],["TRUB2",-0.1227265570457112,-3.466203336199957,14.0,753.0],["WDR43",-0.10956366279918626,-2.915297746896788,19.0,748.0]]}}}
{"depmap_damaging":{"corr":{"top":[["CNTNAP3",0.09300964377211536,-2.0018069413130686,11.0,756.0]],"bottom":[["ADCY10",-0.11445488872136751,-2.824488470590071,10.0,757.0],["AKAP6",-0.1505425810912746,-4.54742920380931,13.0,754.0],["ARHGAP11A",-0.13382349570314486,-3.6953262167573975,10.0,757.0],["C2CD5",-0.08962091096435246,-1.88509427780413,8.0,759.0],["GOLGA1",-0.10803516007065715,-2.5628282000417264,14.0,753.0],["HIP1",-0.1453004124914318,-4.2700995936346855,11.0,756.0],["TXLNB",-0.12528732189205372,-3.2963296205977923,15.0,752.0],["ZNF582",-0.11392781117048634,-2.802504392588525,8.0,759.0]]},"para":{"top":[["CNTNAP3",0.08813260466596382,-2.1323280410302097,11.0,756.0],["KIF24",0.09764171402020098,-2.4622894879788153,11.0,756.0],["TNRC6A",0.09801565982977233,-2.4760009739965407,17.0,750.0]],"bottom":[["ADCY10",-0.09857638290484326,-2.4961659655992277,10.0,757.0],["AKAP6",-0.10013203186705535,-2.5533303145757076,13.0,754.0],["ANO5",-0.10002985247900628,-2.549444361937898,10.0,757.0],["AXDND1",-0.1093547575737275,-2.9067548829368546,11.0,756.0],["C2CD5",-0.10085077042639785,-2.579709754373921,8.0,759.0],["GOLGA1",-0.11604037902745024,-3.1795657238582833,14.0,753.0],["KRT14",-0.1003829321746949,-2.56260094575831,13.0,754.0],["MUC19",-0.10942995578401032,-2.910043351388286,23.0,744.0],["ZNF582",-0.10826967767615586,-2.863636995698337,8.0,759.0]]}}}
{"ccle_rrbs_enhancer_clusters":{"corr":{"top":[["4-4817733-4822560-0_enh",0.16627075419961065,-3.3359104012675243,440],["7-42186555-42189508-1_enh",0.290341828240554,-4.557478567555739,202],["7-42186555-42189508-2_enh",0.29503398046709006,-4.673484700341371,201],["16-72840343-72843124-1_enh",0.2451506625856764,-4.203389583009282,261]],"bottom":[]},"para":{"top":[["7-42186555-42189508-1_enh",0.2881894892891316,-4.495537992934237,202],["7-42186555-42189508-2_enh",0.29325895963236065,-4.6217098407214845,201],["16-72840343-72843124-1_enh",0.2256388146083372,-3.6242413287111086,261]],"bottom":[]}}}
{"ccle_mirna":{"corr":{"top":[["hsa-miR-125a-3p_miR00073.1",0.14373110063333222,-3.06269935080173,534]],"bottom":[]},"para":{"top":[],"bottom":[["hsa-miR-450b-5p_miR00376.1",-0.1453897976863081,-3.1236192496612754,534],["hsa-miR-652_miR00608.1",-0.16976493696808503,-4.093399574177163,534]]}}}
{"prism_primary_logfold":{"corr":{"top":[["voglibose_BRD-K66850609-001-07-4::2.5::HTS",0.17792746713584826,-3.4049818519479174,393]],"bottom":[["isoflurane_BRD-A31564021-001-01-8::2.5::HTS",-0.1782788359439908,-3.2437986715010307,370],["viloxazine_BRD-A59198242-003-02-9::2.5::HTS",-0.20252809838358585,-4.270152924120017,392],["hydrastine-(1r,-9s)_BRD-K02715688-001-02-1::2.5::HTS",-0.16828470175915267,-3.07814574545249,391],["benzydamine_BRD-K28542495-003-13-5::2.5::HTS",-0.16936336757202963,-3.084988781498902,387],["bromhexine_BRD-K47631482-003-06-2::2.5::HTS",-0.1861295579185285,-3.676357987082669,392],["ribitol_BRD-K49313711-001-05-4::2.5::HTS",-0.17050899120451984,-3.141749942627931,390],["dipyridamole_BRD-K86301799-001-34-8::2.5::HTS",-0.19851872300403045,-4.1204562181733735,392],["pranlukast_BRD-K97045029-001-04-3::2.5::HTS",-0.18166623091054226,-3.5231305085146345,392]]},"para":{"top":[["AGI-5198_BRD-A56371469-001-03-3::2.5::HTS",0.15060337015239544,-2.5480372448867405,391],["oleamide_BRD-K06644925-001-03-0::2.5::HTS",0.17205004022278397,-3.197995244917604,391]],"bottom":[["isoflurane_BRD-A31564021-001-01-8::2.5::HTS",-0.1833617791052554,-3.4063700893731,370],["viloxazine_BRD-A59198242-003-02-9::2.5::HTS",-0.17431341570768072,-3.2784190432564473,392],["bromhexine_BRD-K47631482-003-06-2::2.5::HTS",-0.18076368487125058,-3.492577208952515,392],["dipyridamole_BRD-K86301799-001-34-8::2.5::HTS",-0.17100946699665107,-3.171560230527543,392]]}}}
{"prism_secondary_logfold":{"corr":{"top":[["racecadotril_BRD-A08187463-001-12-9::2.5::HTS002",0.1777714587457055,-2.8439731611735355,319],["isoetharine_BRD-A24587114-066-22-5::0.15625::HTS002",0.19350299297447868,-2.9980195242118377,286],["imiquimod_BRD-K26657438-001-15-2::2.5::MTS010::PROS003_PR500",0.206157515396086,-3.74951590147241,326],["astemizole_BRD-K37249724-001-25-7::2.5::HTS002",0.2245973924450761,-4.428172761750707,331],["OSI-027_BRD-K87124298-001-03-4::0.15625::HTS002",0.20390940541641167,-3.805091335006511,339]],"bottom":[["tiotidine_BRD-K15071410-001-01-1::0.625::HTS002",-0.18257307898246233,-3.1596330398526584,342],["ETP-46464_BRD-K24556407-001-02-3::0.0024414::HTS002",-0.17686492144763968,-2.923944619430315,333],["CYC116_BRD-K64866502-001-03-9::0.0390625::HTS002",-0.18678268892843478,-3.1130640177368627,321]]},"para":{"top":[["cobimetinib_BRD-K03390685-001-01-7::0.00061034::HTS002",0.19792559634667312,-3.1268931470131047,287],["AM-580_BRD-K06854232-001-19-9::0.00976562::HTS002",0.20762869367524264,-3.399061510519122,287],["clebopride_BRD-K17294426-050-12-3::0.625::HTS002",0.2104862495827404,-3.0166535741762956,243],["astemizole_BRD-K37249724-001-25-7::2.5::HTS002",0.19654766143492017,-3.493095599548671,331],["SGI-1027_BRD-K61228301-001-01-2::0.0024414::HTS002",0.19664419925057278,-3.5783766885467716,340],["estrone_BRD-K81839095-001-30-1::0.0024414::HTS002",0.19047300259974598,-3.3238136691988878,333]],"bottom":[["vanoxerine_BRD-K32501161-300-06-2::0.15625::HTS002",-0.16143234391698655,-2.5603202353658787,342]]}}}
{"ccle_proteomics":{"corr":{"top":[["MPV17L2_Q567V2",0.32939182845541104,-4.045129187439798,136],["PDE1C_Q14123",0.3296742259514074,-3.8926714249961027,130]],"bottom":[["LPHN3_Q9HAR2",-0.3683324937901364,-4.1235942654712865,110],["ZNF451_Q9Y4E5",-0.2606301638083578,-4.729954372275244,263],["SLFN13_Q68D06",-0.36292144190609343,-3.7503710129470402,102]]},"para":{"top":[["MPV17L2_Q567V2",0.327146822005417,-3.9944099583402854,136]],"bottom":[["NCKAP5_O14513",-0.30926669513577615,-3.3476583189392852,125],["LPHN3_Q9HAR2",-0.3086602032796649,-2.9849532807280186,110],["SASH1_O94885",-0.22197895107856633,-3.4154131078303576,252],["DDX4_Q9NQI0",-0.23310816326572192,-3.8659866852014186,263],["JAK3_P52333",-0.25742883159422575,-2.8160786154196167,149],["ZNF451_Q9Y4E5",-0.2833967048567567,-5.521412313961922,263]]}}}
{"depmap_gene_tpm":{"corr":{"top":[["FAM153B_202134",0.13692339366218345,-3.833122610615682,764]],"bottom":[["MCCD1_401250",-0.14070640014977037,-4.020919523249376,764],["C5orf67_101928448",-0.13669891552670047,-3.8221291949138636,764],["PPP1R2B_153743",-0.12818600781053635,-3.4175686008082007,764]]},"para":{"top":[],"bottom":[["SPACA1_81833",-0.11878672935180436,-2.9985823729858656,764],["CNDP1_84735",-0.15486415740710158,-4.7665092523444255,764],["GPR25_2848",-0.1333667236232476,-3.6609127273949347,764],["SIGLECL1_284369",-0.1411984690478694,-4.04569885908678,764],["DNAJB8_165721",-0.14801120471285686,-4.397139985265123,764],["MCCD1_401250",-0.16586623932840105,-5.393150869156597,764],["PPP1R2B_153743",-0.13013465663668974,-3.5080586928901094,764]]}}}
{"avana":{"corr":{"top":[["TET2_54790",0.1984740284810836,-7.436693444080506,757],["USH2A_7399",0.186624262976476,-6.730210461755228,769],["FAM155B_27112",0.1778773083250962,-5.81330725895727,721],["TMEM155_132332",0.19287593965804117,-7.153540433627227,769],["TGFB2_7042",0.19874549658387325,-7.56390488353829,769],["TMEM218_219854",0.21591476932691117,-8.837082918324729,769],["PRKACB_5567",0.1799479504676663,-6.293647950139672,769],["ZADH2_284273",0.17751178507591497,-6.138310950098386,769],["TDO2_6999",0.20613806427681555,-7.9823146065046355,757],["ANKRD10_55608",0.2115205695353705,-8.500806074626556,769],["DUSP6_1848",0.18618927355622483,-6.701279926287177,769],["PDGFC_56034",0.18854628955738034,-6.858857160266697,769]],"bottom":[["TOLLIP_54472",-0.19099058835364133,-7.024386400985288,769],["RNASEH1_246243",-0.18645702833580274,-6.719079868974482,769],["CFD_1675",-0.18645251797778783,-6.7187798135480525,769],["SLC35F6_54978",-0.19673667821649815,-7.422046171500101,769],["IL7R_3575",-0.17994127951724062,-6.29321970655227,769],["C2orf42_54980",-0.18560934446591656,-6.662815449391079,769],["CCL21_6366",-0.17656575562494492,-6.078557899281416,769],["CKLF_51192",-0.17694824608633725,-6.102678490293143,769],["QTRT1_81890",-0.17197258402813867,-5.792948319508316,769],["CSPG4_1464",-0.17782392223586965,-6.15809584968712,769],["SYCE1_93426",-0.18427348041089578,-6.574672189721318,769],["SFXN2_118980",-0.23819352811744313,-10.654631807501438,769]]},"para":{"top":[["ZNF471_57573",0.14450141356289828,-4.238325457119506,769],["TPRN_286262",0.1469944079816669,-4.368697727641067,769],["JADE1_79960",0.14512106516934137,-4.211974179773999,757],["DUSP6_1848",0.19443800783463527,-7.261525439121954,769],["CHST15_51363",0.15210739955329583,-4.642710492565744,769],["PPID_5481",0.18164968365931206,-6.403409610960459,769]],"bottom":[["SFXN2_118980",-0.14719226898546672,-4.379135472365303,769]]}}}
{"drive":{"corr":{"top":[["ECT2_1894",0.24337840131643132,-4.288804253158302,271]],"bottom":[["LOC105375118&SLX4IP&ZNF451&LITAF_105375118&128710&26036&9516",-0.2138820583491088,-3.3202023236181213,263]]},"para":{"top":[["UGT3A1_133688",0.1996841108113645,-2.9943340751662935,268],["NR3C2_4306",0.22011516629562938,-3.584160209207941,271]],"bottom":[["BRAP_8315",-0.26050883283422477,-4.805998280823902,268]]}}}
{"achilles":{"corr":{"top":[["LINC01106_151009",0.23870699956940772,-3.300945648191699,209],["APOL2_23780",0.20651322094681912,-4.0320872829229115,353],["TRAPPC11_60684",0.22202197702499749,-2.9086879902236507,209]],"bottom":[["HFE2_148738",-0.22691681837813862,-3.0208821770238443,209],["MEGF8_1954",-0.26345498419611196,-6.289682182651359,353],["HPS6_79803",-0.19461882635256025,-3.6302038082386434,353],["CGN_57530",-0.20043665987156353,-3.823870027845928,353],["SPARC_6678",-0.20070395688814407,-3.832901127829951,353]]},"para":{"top":[["TRAPPC11_60684",0.23369571289726448,-3.1801995720052525,209],["MYO16_23026",0.2540780024149148,-3.687327129431291,209],["HSDL1_83693",0.19278062777667931,-3.5701608600239503,353],["CYLD_1540",0.19356618578578705,-3.5957531546833437,353],["CDK11B_984",0.19227324719775057,-3.553684398585072,353],["TSPAN13_27075",0.22753922328008802,-3.0353185503785323,209]],"bottom":[["HFE2_148738",-0.24672768696738237,-3.4995229735169127,209],["CGN_57530",-0.19517817014145192,-3.648583275758744,353],["MEGF8_1954",-0.2566502177812896,-5.989801629162356,353],["NLRP5_126206",-0.27132009412990304,-4.150184628927421,209],["HPS6_79803",-0.20660332505605714,-4.035220709488877,353]]}}}
{"ccle_rrbs_tss1kb":{"corr":{"top":[["CDH4_20_60173816_60174816",0.1829260903143847,-3.8020789740727685,422]],"bottom":[["MCMDC2_8_67781983_67782983",-0.1745467638836939,-3.6165081565689454,438],["BRD8_5_137514358_137515358",-0.19453726862101217,-4.628790372047882,466]]},"para":{"top":[["PSMA1_11_14541991_14542991",0.16824956205444327,-2.128723092741547,252],["GPR146_7_1083208_1084208",0.19567638426499329,-3.4569400371163765,330],["CDH4_20_60173816_60174816",0.18486979028810777,-3.8736559227438763,422],["GTPBP6_23_230887_231887",0.195007973487272,-4.507306353731014,450]],"bottom":[["FBXO43_8_101158099_101159099",-0.1796521481312272,-3.1878282540611442,357],["RASGRP3_2_33700320_33701320",-0.16300712295259098,-3.373847916672593,464],["CHD1_5_98265418_98266418",-0.16868997405627714,-3.621543720180742,470]]}}}
{"ccle_gene_tpm":{"corr":{"top":[["RP11-285G1.14_ENSG00000273363.1",0.16888516051888974,-4.308239622270535,572],["GPER1_ENSG00000164850.10",0.16835917955027405,-4.284418157490942,572]],"bottom":[["AC007316.3_ENSG00000226046.1",-0.18693006653585068,-5.1691530900131974,572],["GPR158-AS1_ENSG00000233642.1",-0.20766927777805036,-6.265488248146439,572],["GAPDHP57_ENSG00000236167.1",-0.24765498175165784,-8.71517365897363,572],["GS1-115G20.1_ENSG00000230470.1",-0.18962523042604146,-5.3050986147700385,572]]},"para":{"top":[["RP11-297M9.2_ENSG00000260432.1",0.21505100014338985,-6.6839367840441595,572],["GPER1_ENSG00000164850.10",0.1745290220965445,-4.568357678914471,572]],"bottom":[["CTD-2184D3.1_ENSG00000242327.1",-0.16404379754837004,-4.091668207786565,572],["RN7SL762P_ENSG00000244308.2",-0.16884223786807073,-4.306292994967634,572],["RP11-460B17.3_ENSG00000254530.1",-0.15764677293915666,-3.8147212897900458,572],["PMS2P10_ENSG00000188073.7",-0.15365632971661386,-3.6472361016621,572],["DNAJB8_ENSG00000179407.3",-0.21257890191767273,-6.542128374997731,572],["RP11-96C23.10_ENSG00000229969.1",-0.15984848248844777,-3.9088613852086573,572],["AC007391.2_ENSG00000232028.1",-0.1540861219465811,-3.6650814172494734,572],["RP11-1E1.1_ENSG00000214062.5",-0.15911328701272184,-3.8772888465466195,572],["LINC00266-1_ENSG00000149656.4",-0.15832481296760853,-3.843581276439272,572],["RP11-31H15.2_ENSG00000214071.4",-0.16280845826014473,-4.037371695086806,572],["RP11-301N24.3_ENSG00000233451.1",-0.16651976425875514,-4.201673078689066,572],["RP1-212P9.3_ENSG00000233427.1",-0.16074895355956004,-3.9477193689767325,572],["CNDP1_ENSG00000150656.10",-0.1882163255255105,-5.233791769207804,572]]}}}
{"ccle_rrbs_tss_clusters":{"corr":{"top":[["MUC22_1",0.24845996107769047,-6.888634835451144,440]],"bottom":[]},"para":{"top":[["ZNF536_2",0.29911791401837673,-3.7193710657973433,151],["MAGEA4_1",0.256629388605645,-3.454145128579027,190],["MIR526A1",0.2596342687537713,-3.120262132069974,165]],"bottom":[["STK19_3",-0.23150731539829314,-3.1668860139465647,212],["H2AFX_3",-0.20962196449592935,-4.089377193576189,348],["CD55_3",-0.20851251104545943,-3.35214010142278,280],["PTP4A1_3",-0.23640366327091952,-3.9642388726040148,263]]}}}
{"ccle_rrbs_cgi_clusters":{"corr":{"top":[["3_55518226_55521285-1",0.2988017262470055,-3.971031373088173,163],["16_88943617_88947861-3",0.33129548738231057,-3.6865961880767517,121],["11_49913827_49916335-1",0.21495577812132163,-3.0845350367864643,239],["7_1248826_1253141-3",0.21600661885426992,-3.500305626629373,274]],"bottom":[["19_36640327_36642956-3",-0.21919822781858775,-3.512176827295624,267],["10_93803512_93807845-1",-0.27055383170789465,-3.2677796447989818,160]]},"para":{"top":[["20_739633_744058-2",0.2468681300636543,-2.9011893613463484,168],["16_88943617_88947861-3",0.32022367856438533,-3.4650572282373133,121],["11_49913827_49916335-1",0.22672570817222257,-3.3860223439682717,239],["7_1248826_1253141-3",0.2262118408325224,-3.798336908805228,274],["22_49061538_49065900-2",0.23618968649879582,-4.129364347703674,276],["21_47402108_47406312-3",0.21416883687531005,-5.500144020968215,465]],"bottom":[["1_17279818_17284056-3",-0.21555700053599067,-2.8874728998930643,220],["10_93803512_93807845-1",-0.2699913996498637,-3.2557380853948534,160],["11_118965741_118968464-3",-0.20962196449592935,-4.089377193576189,348],["6_64282943_64285736-2",-0.23640366327091952,-3.9642388726040148,263],["1_207492543_207497364-3",-0.20851251104545943,-3.35214010142278,280]]}}}
