{"depmap_hotspot":{"corr":{"top":[["ACP6",0.1098110566865758,-2.633884028939273,20.0,747.0],["ALCAM",0.11851828484520283,-2.996995654463748,34.0,733.0],["ALKBH7",0.09302273490593604,-2.002264761314722,13.0,754.0],["ANKFN1",0.10437454596859012,-2.419548883860735,60.0,707.0],["AUH",0.10852018691195538,-2.5821342554452658,12.0,755.0],["CSE1L",0.11765106966419257,-2.9597285223639935,32.0,735.0],["CXorf36",0.12617519494642976,-3.3367078254388067,20.0,747.0],["DDX43",0.1070437388515237,-2.523600118625425,24.0,743.0],["DDX55",0.09617719108431066,-2.114145657596272,30.0,737.0],["DTWD2",0.10680039708355507,-2.514019788149289,13.0,754.0],["EFCAB13",0.0999424697353727,-2.251785979554423,36.0,731.0],["ENDOV",0.11682789447761266,-2.9245803329829614,23.0,744.0],["FAM209A",0.10991991091569478,-2.6382723686995435,10.0,757.0],["GAS6",0.10051593822274785,-2.2731419725907216,38.0,729.0],["ICA1",0.11237404585038432,-2.7382205568711853,24.0,743.0],["IFNA5",0.09802315938657385,-2.1810668230960824,8.0,759.0],["KIAA1217",0.10595028660518632,-2.4806997005166016,65.0,702.0],["LRRC10",0.09872660049396771,-2.206850886749403,28.0,739.0],["MAST3",0.1094862289050256,-2.6208115903764133,43.0,724.0],["MRGPRX2",0.10319594593754673,-2.374327487705375,15.0,752.0],["MYD88",0.09221033293763257,-1.9739550349095896,12.0,755.0],["PCDHB2",0.11122347076072568,-2.691120134990545,63.0,704.0],["PROP1",0.13037130616160134,-3.5310571106334097,9.0,758.0],["RGN",0.11536712476705496,-2.8627498912082845,13.0,754.0],["TBP",0.10859251703706001,-2.5850197556628647,19.0,748.0],["TLR2",0.10303289862083674,-2.3681063719621998,39.0,728.0],["TPPP3",0.09235946180823396,-1.979136280728539,13.0,754.0],["TRANK1",0.10076206902150914,-2.282339822512814,81.0,686.0],["ZP3",0.09297984067578947,-2.0007648742733637,12.0,755.0],["ZRANB3",0.10216215494662874,-2.3350259484447444,52.0,715.0],["ZSCAN1",0.10324280664910346,-2.376117035222429,44.0,723.0]],"bottom":[["C1orf177",-0.09920246022946248,-2.2243816912866583,14.0,753.0],["CEP19",-0.11196562618751135,-2.72145244260153,10.0,757.0],["CIR1",-0.12616238659319548,-3.3361234881316335,29.0,738.0],["COMMD10",-0.13549963900815515,-3.7765147958673135,8.0,759.0],["DFFB",-0.08982009212900638,-1.891855500148138,14.0,753.0],["FMNL1",-0.1365511886736933,-3.82792835944457,41.0,726.0],["HOXA10",-0.10106446930730374,-2.2936667197414438,19.0,748.0],["KRTAP10-12",-0.1032302137075701,-2.3756360591081895,11.0,756.0],["NRDE2",-0.09952246642130214,-2.2362110301819245,55.0,712.0],["RRP7A",-0.09930127128614807,-2.228030884772314,13.0,754.0],["TACO1",-0.08743846695939735,-1.8118169997437432,12.0,755.0],["UIMC1",-0.11051639484068859,-2.662386621120727,17.0,750.0],["WDR6",-0.15060409675924058,-4.550739120781296,33.0,734.0]]},"para":{"top":[["AUH",0.10512442214596067,-2.7413970598607773,12.0,755.0],["AURKAIP1",0.10296519077780185,-2.6589656535636736,9.0,758.0],["C5AR1",0.10429186462898664,-2.7095897827208817,15.0,752.0],["CLDN6",0.09590830749643967,-2.4000896258474835,11.0,756.0],["CXorf36",0.12422768048960617,-3.5326331771323636,20.0,747.0],["DLX4",0.11619436720301853,-3.186010386749679,14.0,753.0],["FAM173B",0.10829772450628156,-2.864985864849371,13.0,754.0],["FAM209A",0.1281649038976355,-3.70947764713779,10.0,757.0],["GGTLC1",0.10135357426493856,-2.598530233216045,10.0,757.0],["ICA1",0.13028133997657548,-3.8071478535769576,24.0,743.0],["KCTD9",0.10471433046736667,-2.7257764917875353,16.0,751.0],["KRTAP4-3",0.11401084586920704,-3.0950954483548205,9.0,758.0],["MDH2",0.11573896149493491,-3.16709960879042,19.0,748.0],["MRGPRX2",0.10167659462911602,-2.6107654365363446,15.0,752.0],["MURC",0.1030859358471603,-2.6637317983366273,14.0,753.0],["MYD88",0.10742572409770026,-2.8306885760408145,12.0,755.0],["PLEK2",0.10755677637744059,-2.8357352527672695,10.0,757.0],["PROP1",0.10717566326313946,-2.82076564313412,9.0,758.0],["RGN",0.10594838465283865,-2.7732148150246165,13.0,754.0],["THEM6",0.08873710894210514,-2.1523461755973825,8.0,759.0],["TMEM182",0.11292942423220173,-3.0507847297295303,10.0,757.0],["TPPP3",0.09974430270976606,-2.5390418910258092,13.0,754.0],["VCX3B",0.10989259213209102,-2.9280111778275764,8.0,759.0],["ZDHHC21",0.11353978566258086,-3.0758304700401355,11.0,756.0],["ZP3",0.10270449638227573,-2.649263489887149,12.0,755.0]],"bottom":[["ADAT1",-0.09302479332753597,-2.2986868651415047,12.0,755.0],["C1orf177",-0.1029759657854501,-2.659574766206443,14.0,753.0],["CEP19",-0.12987792205422602,-3.788083322377173,10.0,757.0],["DFFB",-0.09215491171316444,-2.268641640218146,14.0,753.0],["HOXD9",-0.0986871333787515,-2.500347306122559,14.0,753.0],["IGFBPL1",-0.10148334836771054,-2.603371423199166,10.0,757.0],["KRTAP10-12",-0.10994910541807175,-2.930435905956669,11.0,756.0],["KRTAP5-7",-0.09525419143465412,-2.3768141510771383,10.0,757.0],["OR2T2",-0.10097555494853513,-2.5846791549188524,17.0,750.0],["PCSK1N",-0.09867128677613417,-2.4997063327405944,12.0,755.0],["PTP4A2",-0.09215676238925352,-2.268464593282686,8.0,759.0],["RP11-520P18.5",-0.12024868362854296,-3.358178005981876,10.0,757.0],["SYS1",-0.09082590646942587,-2.2229082793650448,9.0,758.0],["WDR6",-0.13150217938932712,-3.8640023595519786,33.0,734.0]]}}}
{"depmap_damaging":{"corr":{"top":[["CYP7B1",0.10767088539963168,-2.5483781648548725,8.0,759.0],["DHX29",0.09182852778208933,-1.9607214402179032,14.0,753.0],["DNAH3",0.10000669444370353,-2.2541725365028635,31.0,736.0],["EFCAB13",0.11553334329431104,-2.8697505569466566,14.0,753.0],["MLH1",0.09673737949335198,-2.13434062162259,17.0,750.0],["SCN2A",0.10801589134720527,-2.562062783713568,20.0,747.0],["UNC5D",0.09912019815537244,-2.2213460213519403,10.0,757.0]],"bottom":[]},"para":{"top":[["BCAS3",0.10250039836058922,-2.64143918657679,9.0,758.0],["CYP7B1",0.10841460632018789,-2.8693525756393345,8.0,759.0],["EFCAB13",0.11861370856064338,-3.288233545583729,14.0,753.0],["GOLGB1",0.10871640300672356,-2.881551764777261,14.0,753.0],["HELZ2",0.10645747842168707,-2.7928807209722386,11.0,756.0],["HIP1R",0.09810922169563839,-2.4791790699266336,10.0,757.0],["ITIH2",0.09728624255997614,-2.4493073041900773,8.0,759.0],["MLH1",0.12293458828850172,-3.4754334182810225,17.0,750.0],["SCN2A",0.11147974778023251,-2.992180183324427,20.0,747.0],["UNC5D",0.11967767757634619,-3.3335965036458375,10.0,757.0]],"bottom":[]}}}
{"ccle_metabolomics":{"corr":{"top":[],"bottom":[["butyrylcarnitine\/isobutyrylcarnitine",-0.16350284063011736,-3.818302690131475,532]]},"para":{"top":[],"bottom":[["butyrylcarnitine\/isobutyrylcarnitine",-0.1813728822768548,-4.589951035730758,532]]}}}
{"ccle_mirna":{"corr":{"top":[["hsa-miR-299-3p_miR00273.2",0.14298992114598352,-3.0356837761341637,534],["hsa-miR-34c-5p_miR00327.1",0.1587896163652091,-3.6393338993809405,534]],"bottom":[]},"para":{"top":[],"bottom":[]}}}
{"prism_primary_logfold":{"corr":{"top":[["carbachol_BRD-K75037734-003-13-9::2.5::HTS",0.1882664683900623,-3.6174910681406085,376]],"bottom":[["APD668_BRD-K10859802-001-01-0::2.5::HTS",-0.15677304964230807,-2.6326763495533076,375],["dacarbazine_BRD-K35520305-001-17-7::2.5::HTS",-0.16951588300116668,-3.103422054472914,389]]},"para":{"top":[["piperazine_BRD-K13249881-001-02-3::2.5::HTS",0.1883241566943395,-3.611079851172671,375],["carbachol_BRD-K75037734-003-13-9::2.5::HTS",0.16400442621593023,-2.8486963862070476,376]],"bottom":[["APD668_BRD-K10859802-001-01-0::2.5::HTS",-0.17295680439040786,-3.113722836851969,375],["dopamine_BRD-K43887077-003-26-3::2.5::HTS",-0.163523790964292,-2.904643809365631,387],["TAK-875_BRD-K58501140-002-01-0::2.5::HTS",-0.1734278822988529,-3.242469653475658,391]]}}}
{"prism_secondary_logfold":{"corr":{"top":[["itraconazole_BRD-A23067620-300-01-3::2.5::HTS002",0.20591562467501554,-3.480967801452052,300],["napabucasin_BRD-K22064724-001-01-8::0.0391::MTS010::PROS004_PR500",0.20170773298807576,-3.6559309856710915,331],["levonorgestrel_BRD-K35189033-001-26-1::0.0024414::HTS002",0.23532771785464943,-3.1527306576724374,204],["tetramethylthiuram-monosulfide_BRD-K36889451-001-01-1::0.00976562::HTS002",0.21100599747984633,-3.833810848239871,319],["Y-27632_BRD-K44084986-300-08-4::0.00061034::HTS002",0.21400385020088836,-3.5847365838201255,287],["beclomethasone-dipropionate_BRD-K97810537-001-13-6::0.0024414::HTS002",0.3093801138899487,-3.2092099969717625,119]],"bottom":[["UK-383367_BRD-K06294530-001-01-5::10::HTS002",-0.18509497432805652,-3.154305273072933,332],["salvinorin-a_BRD-K19284129-001-02-6::0.0024414::HTS002",-0.20530327162362635,-3.8810712474382645,342]]},"para":{"top":[["sulfasalazine_BRD-K10670311-001-15-5::2.5::HTS002",0.29187572553167274,-2.977060681998148,123],["FR-122047_BRD-K30990140-003-02-4::0.15625::HTS002",0.19835376927343182,-3.5496264423952226,331],["streptozotocin_BRD-K34411947-001-12-5::0.0390625::HTS002",0.2887558431326242,-3.6715980365067553,160],["levonorgestrel_BRD-K35189033-001-26-1::0.0024414::HTS002",0.22621510765241895,-2.9430043984875476,204],["atiprimod_BRD-K38527262-300-01-0::0.575247::MTS010::PROS001_PR500",0.1819964414512832,-3.016220087574677,326],["Y-27632_BRD-K44084986-300-08-4::0.00061034::HTS002",0.22486538785396804,-3.913788823632749,287],["phenazone_BRD-K46937689-001-15-0::0.00061034::HTS002",0.2002422396936495,-3.3052428512726855,299],["phenazone_BRD-K46937689-001-15-0::2.5::HTS002",0.2891204151769528,-2.948087062736757,124],["aurora-a-inhibitor-i_BRD-K53561341-001-07-5::0.00061034::HTS002",0.18124603124027208,-3.0809324422361173,337],["selumetinib_BRD-K57080016-001-15-9::0.00061034::HTS002",0.18054765891974048,-3.099262805102018,342]],"bottom":[["thonzonium_BRD-K13387373-004-14-5::0.00061034::HTS002",-0.18628370444209824,-3.082163030760463,319],["salvinorin-a_BRD-K19284129-001-02-6::0.0024414::HTS002",-0.201329227763802,-3.7490523610907123,342],["BIX-01294_BRD-K26818574-305-04-3::0.00061034::HTS002",-0.18724355832815873,-3.2680006607181595,338],["lucitanib_BRD-K31309378-001-01-5::0.625::HTS002",-0.18175444178990438,-3.072284308897139,334],["PI-103_BRD-K67868012-001-07-6::0.0024414::HTS002",-0.17972935030804926,-2.9904004734299083,331],["CGM097_BRD-K79584249-001-01-3::0.0390625::HTS002",-0.19089721265466686,-3.4144186573304838,342]]}}}
{"ccle_proteomics":{"corr":{"top":[],"bottom":[["RAB17_Q9H0T7",-0.23271852756045597,-3.3646192202023215,225],["PBX1_P40424",-0.23307394298199127,-3.3736772452397474,225]]},"para":{"top":[["SMG8_Q8ND04-2",0.2317617432236621,-3.8262444714451544,263],["PRAME_F5H4B1",0.3483057048604453,-3.9841682847112896,119]],"bottom":[]}}}
{"depmap_gene_tpm":{"corr":{"top":[["FRG2_448831",0.14958547285437607,-4.4805796684278105,764]],"bottom":[["SPOCK2_9806",-0.16873008966495115,-5.563131243109392,764],["PRDX2_7001",-0.15486220589746763,-4.766401789681505,764]]},"para":{"top":[],"bottom":[["STS_412",-0.1471191551028091,-4.350231937263194,764]]}}}
{"avana":{"corr":{"top":[["DPYSL5_56896",0.20749076409567324,-8.198748490579995,769],["MOK_5891",0.23706677156758985,-10.558131697435515,769],["ASPG_374569",0.21824688757818664,-9.018496268562995,769],["FBLN5_10516",0.24889838714652746,-11.59619473992812,769],["TCL1B_9623",0.2149284014928047,-8.760969282884474,769],["SLC2A5_6518",0.20113998629391996,-7.734929116186004,769],["CEP170B_283638",0.2652356615071135,-13.12087257404326,769],["RIN3_79890",0.2029614691740302,-7.86643695042419,769],["TECPR2_9895",0.23517512917856448,-10.397231263035902,769],["CFAP53_220136",0.20941644288289651,-8.342335971224784,769],["ZNF839_55778",0.21046049354000204,-8.420761445760748,769],["DLK1_8788",0.2173063754312772,-8.945088472687578,769],["SERPINA11_256394",0.2290155331756468,-9.882878564846873,769],["LSS_4047",0.21883254400398197,-9.064375657312686,769],["HEATR4_399671",0.2614481210712181,-12.757839329193821,769]],"bottom":[["ANO3_63982",-0.1998511283296127,-7.642612353221049,769],["OR5J2_282775",-0.18297609555844033,-6.489680316540765,769],["ZNF189_7743",-0.1797737340677691,-6.282469278378101,769],["SACS_26278",-0.18590917283099972,-6.682686827287192,769],["CYP51A1_1595",-0.18294745381866648,-6.487810791974406,769],["ORAI3_93129",-0.21305079277283306,-8.617090262329434,769],["ZNF699_374879",-0.18217063141142137,-6.437217389363536,769],["GUSB_2990",-0.2030841799653978,-7.875340352193868,769],["HIRIP3_8479",-0.19339195746211713,-7.189114432710188,769],["STX19_415117",-0.19048381232782668,-6.989889790772706,769]]},"para":{"top":[["MOK_5891",0.22519426432290326,-9.571103049490658,769],["FBLN5_10516",0.2636851725774591,-12.971555640501004,769],["TCL1B_9623",0.1980819702280638,-7.516884818490545,769],["TECPR2_9895",0.25734638152257894,-12.371230534641457,769],["DLK1_8788",0.20383612350737346,-7.9300195355583565,769],["AK7_122481",0.1896675368114995,-6.9345206212166985,769],["EML5_161436",0.19153812653493604,-7.061762204455377,769],["SERPINA11_256394",0.2083292528414094,-8.261100829738798,769],["LSS_4047",0.2311606274892853,-10.060345896321383,769],["SERPINA4_5267",0.18867777192182567,-6.867706303845181,769],["DGLUCY_80017",0.22508436678456017,-9.56221900523783,769],["ZBTB42_100128927",0.2052649171631914,-8.034492077825375,769],["HEATR4_399671",0.23729542623360064,-10.577674748783817,769],["ZNF839_55778",0.21163041635059826,-8.509124389481883,769]],"bottom":[["SACS_26278",-0.17497068544685893,-5.978528718037632,769],["JUND_3727",-0.14902035904258903,-4.476203514718769,769],["ORAI3_93129",-0.16433969350776198,-5.334744321251833,769],["EXO1_9156",-0.20003811851995715,-7.655968061421224,769],["FANCB_2187",-0.16044192596576234,-4.823920927105205,721]]}}}
{"drive":{"corr":{"top":[["SPHK2_56848",0.20849912232575749,-3.2067767328901513,266],["MSLN_10232",0.23060786029195643,-3.830189724191956,266],["USF1_7391",0.22623757880672601,-3.7627253827751375,271],["POLDIP2_26073",0.23889291948968824,-4.0798961204416555,266],["NFYB_4801",0.2298952630312561,-3.871732313746022,271],["FOLR1_2348",0.20748247166543932,-3.1795844058818683,266],["PSMC5_5705",0.2112597612189186,-3.334422195716067,271],["ATP1A2_477",0.2448277344784727,-4.335079748858402,271],["LHCGR_3973",0.27811472290914013,-5.422630938271521,268],["SERPINA3_12",0.2503053978019848,-4.468171889696917,268]],"bottom":[["WNT3_7473",-0.23436252582514353,-3.9682564600863666,268],["MYOM2_9172",-0.21434960170821618,-3.420422342519468,271],["UBE2I_7329",-0.20545651342415042,-3.125777252126541,266]]},"para":{"top":[["SERPINA3_12",0.25169049448533337,-4.51320384897109,268],["FKBP6_8468",0.23459323376392596,-3.9491946991270446,266],["SPHK2_56848",0.2742710314193605,-5.248834481211771,266],["MSLN_10232",0.21375930109565353,-3.3495215757524073,266],["POLDIP2_26073",0.23213580092501387,-3.875572086718744,266],["ABRAXAS1_84142",0.22045727551337893,-3.536296422056251,266],["MAN1B1_11253",0.23002765511937362,-3.838113062118135,268],["SMAD2_4087",0.23117624430552805,-3.910322639955438,271],["USF1_7391",0.29884358881962064,-6.268322205516364,271],["LHCGR_3973",0.2867024138385345,-5.73926317309998,268],["KLHL2_11275",0.21465896778280597,-3.396216137653484,268],["NRROS_375387",0.22931452113352402,-3.891657137658539,274],["EVC_2121",0.24434183565280665,-4.277224915421811,268]],"bottom":[["WNT3_7473",-0.26010466996900067,-4.792347154478718,268],["PPP2R2A_5520",-0.2296062352148247,-3.863054954149206,271],["LOC100289561_100289561",-0.21283279988944515,-3.3457059057642393,268],["ARHGEF15_22899",-0.23529833828863933,-4.035969555782002,271],["MYOM2_9172",-0.23334128220688438,-3.9760363429627703,271],["INTS12_57117",-0.23289163324359358,-3.962337685085671,271]]}}}
{"achilles":{"corr":{"top":[["ZNF182_7569",0.20922705165791822,-4.127054130631114,353],["GRB7_2886",0.2212807809438503,-4.563770549723782,353],["GGA3_23163",0.21477728795722342,-4.325105905904305,353],["PI4K2B_55300",0.20379229484189715,-3.938099081142385,353]],"bottom":[["FXR1_8087",-0.21175698693244302,-2.68104935355783,209],["SORBS3_10174",-0.22785444864551987,-3.0426447553985034,209],["TMEM257_9142",-0.21283143602321028,-2.704395571950007,209],["THAP3_90326",-0.22913438359499277,-3.0724936782018775,209],["RRBP1_6238",-0.2551257651331043,-3.7145562514149257,209]]},"para":{"top":[["ZNF182_7569",0.20823183070575874,-4.092085455750785,353],["GRB7_2886",0.21684823589624524,-4.400329562424759,353],["PLAGL1_5325",0.1959550003302493,-3.6741936775360076,353]],"bottom":[["FBXL17_64839",-0.2396659125952363,-3.324340612774791,209],["FAM114A1_92689",-0.23230951993662366,-3.1472468846099884,209],["TTC39B_158219",-0.24058470707596283,-3.3468445913990243,209]]}}}
{"ccle_rrbs_tss1kb":{"corr":{"top":[["TMEM56_1_95557072_95558072",0.19155530909717247,-3.051417724147989,298],["KIF21B_1_200992828_200993828",0.17251857725943098,-2.8590245111865404,341],["LINC00954_2_20067614_20068614",0.1814708553961748,-4.011341547002722,456]],"bottom":[["FUCA2_6_143833020_143834020",-0.147924210459882,-2.8289184779230983,459]]},"para":{"top":[["TMEM56_1_95557072_95558072",0.20593927420029834,-3.4615541014655697,298],["KIAA1656_22_30773894_30774894",0.1749370641007475,-3.688198483351253,446],["CNTD2_19_40732597_40733597",0.1764113198004434,-3.8451096613812386,460],["LINC00954_2_20067614_20068614",0.19493344036382457,-4.5573191364484344,456]],"bottom":[["H2AFX_11_118966177_118967177",-0.15047189976533915,-2.9662719214180995,469],["IPO13_1_44411477_44412477",-0.14604328174141037,-2.8189260497965396,469],["SLC3A2_11_62647343_62648343",-0.19155001725559156,-4.46780559790005,462]]}}}
{"ccle_gene_tpm":{"corr":{"top":[["FRG2_ENSG00000205097.2",0.17878242234660588,-4.769871289507705,572]],"bottom":[["AC117947.1_ENSG00000236440.1",-0.18365749959997135,-5.006673507321063,572],["CTD-2061E19.6_ENSG00000241059.2",-0.1821039014292974,-4.930529788769213,572],["SPOCK2_ENSG00000107742.8",-0.17274288066399185,-4.4851424834858955,572]]},"para":{"top":[["RP11-269C4.2_ENSG00000257904.1",0.1787426282794415,-4.767964029958988,572],["PRR7-AS1_ENSG00000246334.2",0.19061461852430076,-5.355489099581597,572],["None_ENSG00000273112.1",0.19773786904904697,-5.726016449863768,572],["RP11-552M14.1_ENSG00000249645.1",0.17205268013821817,-4.453208659395929,572],["HJURP_ENSG00000123485.7",0.20386414989052695,-6.055625329275756,572],["RP11-550P17.5_ENSG00000228560.1",0.17497956288186975,-4.5894792723719275,572],["RP4-580N22.2_ENSG00000229291.1",0.17820973560238199,-4.742463415118894,572]],"bottom":[["CTB-49A3.4_ENSG00000250244.1",-0.17468232542801806,-4.57553868363308,572],["CDK2AP2_ENSG00000167797.3",-0.18784416413515664,-5.215044268472668,572],["SLC25A47P1_ENSG00000254799.1",-0.16710096223677579,-4.22772369254598,572]]}}}
{"ccle_rrbs_tss_clusters":{"corr":{"top":[["SNX29P1_1",0.2115970254140071,-3.7260354428849256,307],["UTS2_3",0.2339870713775299,-4.833152022938624,336],["SIT1_2",0.306092307230222,-3.537572305067186,136],["ZNF709_2",0.2034722479389676,-3.438309659715968,303]],"bottom":[["SRSF7_3",-0.19061146248415692,-4.038327734641008,416],["FAM172A_2",-0.21682578485188195,-3.0299407795174584,230],["FAN1_3",-0.1800355207865782,-3.7502642879953134,429]]},"para":{"top":[["PKD1L1_1",0.20992726417339744,-3.192612879808861,261],["GNB3_2",0.24329317410180987,-3.1292810424744784,189],["COLEC11_9",0.20410648275012852,-3.968477910659191,355],["ZNF773_1",0.2176553408981125,-4.218653791338689,334],["ZNF709_2",0.24244870953914788,-4.702419022748216,303]],"bottom":[["MIR324_2",-0.19394051882398536,-4.542022166983208,459],["XRCC1_1",-0.28064303723059364,-5.030993662636373,242],["PEX5L_2",-0.24810914748204516,-3.1648212485734284,184]]}}}
{"ccle_rrbs_cgi_clusters":{"corr":{"top":[["1_205629977_205634254-1",0.21435510259449872,-3.1905397411089083,250],["6_107389331_107393567-2",0.27663022546239,-5.747278386183183,289],["12_117317000_117319611-1",0.2283301948398545,-2.9532572598635234,201],["19_17837785_17840816-3",0.21510022679320115,-3.4744911650385606,274]],"bottom":[["6_170562873_170567152-2",-0.21738725702965953,-2.941365045535428,221],["17_43222933_43226275-2",-0.2284406489383154,-3.555604453417285,249],["5_93444953_93449436-2",-0.21682578485188195,-3.0299407795174584,230]]},"para":{"top":[["19_58009124_58013743-1",0.2176553408981125,-4.218653791338689,334],["1_221062889_221067600-1",0.23012148174179706,-3.5642496346057992,246],["18_14472587_14477008-2",0.22707346047899135,-3.2225833377720132,225],["19_12593124_12597883-2",0.24244870953914788,-4.702419022748216,303],["6_107389331_107393567-2",0.22623053843376864,-3.980473002449242,289]],"bottom":[["15_20149404_20152115-2",-0.18987375937278486,-3.629487382432344,371],["19_44077582_44081905-1",-0.28064303723059364,-5.030993662636373,242]]}}}
