{"depmap_hotspot":{"corr":{"top":[["AREG",0.10039304150610041,-2.2685565309958537,21.0,746.0],["HOXC13",0.09105861962048711,-1.9341741630719578,18.0,749.0],["MEN1",0.10671083881164294,-2.5104986611784947,31.0,736.0],["MT-ATP8",0.10239599022720935,-2.343885928853971,17.0,750.0],["OR51I1",0.10923536721332033,-2.610739060341478,26.0,741.0],["SLC25A35",0.10615217084119252,-2.488591638863609,14.0,753.0]],"bottom":[["ACSM5",-0.13247420016622943,-3.6306496362091716,31.0,736.0],["ASB13",-0.12674349057609863,-3.3626888001922794,13.0,754.0],["ATAD2",-0.13378445662261707,-3.693446416876469,70.0,697.0],["ATF6",-0.12904755586249197,-3.4691169153059427,29.0,738.0],["ATP2A2",-0.15861552455023162,-4.9928760193147825,29.0,738.0],["BRSK1",-0.14719874730213994,-4.3694499233548365,42.0,725.0],["BRWD3",-0.13808525704163344,-3.9035973521457645,48.0,719.0],["C10orf2",-0.128188726071396,-3.4292412566674164,12.0,755.0],["C9orf172",-0.12918608224380188,-3.475571579099269,42.0,725.0],["CGNL1",-0.13041876372260164,-3.5332885003557637,70.0,697.0],["COPS7A",-0.12739960404428954,-3.392817063795063,11.0,756.0],["CWH43",-0.1459349002774972,-4.303169894967975,27.0,740.0],["CYP11B2",-0.12596359596012105,-3.3270612758262867,32.0,735.0],["DNAJC2",-0.14124256238700056,-4.061818344735299,25.0,742.0],["EIF1AD",-0.1237002621474412,-3.2248003437768253,13.0,754.0],["FAM135B",-0.14176935643935032,-4.0885437588640805,104.0,663.0],["GORASP2",-0.14020379435799352,-4.009393114875742,10.0,757.0],["GPR26",-0.1273069629684073,-3.3885544377920374,24.0,743.0],["GPR88",-0.13276370987899655,-3.6444758167331086,12.0,755.0],["HLA-DQA2",-0.12584705550637545,-3.321754632877932,10.0,757.0],["KCNB2",-0.15059181783962258,-4.550078337118788,73.0,694.0],["KIAA2018",-0.15524983125431271,-4.804446256383528,50.0,717.0],["KRBA2",-0.14087113020913658,-4.043030954890677,10.0,757.0],["LRP12",-0.14724127497213058,-4.3716896322576195,44.0,723.0],["LRRC9",-0.13506402603994494,-3.755324533554843,58.0,709.0],["MAP2K5",-0.145844609104064,-4.298455480761673,22.0,745.0],["MIA3",-0.13392647499675478,-3.7002872862299223,58.0,709.0],["MYH1",-0.12354889770707989,-3.218021532971074,100.0,667.0],["NAALAD2",-0.14450889125995478,-4.229035621040946,28.0,739.0],["NALCN",-0.12467434743251103,-3.268604518287682,85.0,682.0],["NOSTRIN",-0.12872119286844838,-3.4539350707222174,32.0,735.0],["NRCAM",-0.13841023012695383,-3.919728084309375,56.0,711.0],["NUP155",-0.141360706441166,-4.067803919743803,56.0,711.0],["OR52K1",-0.13331375576238,-3.670821313336293,31.0,736.0],["OR6F1",-0.12543730924665883,-3.303132441472762,17.0,750.0],["OS9",-0.1319311498959312,-3.604790234844047,24.0,743.0],["PAX1",-0.12574871827895268,-3.3172803498526386,32.0,735.0],["PDGFRA",-0.12843991928504161,-3.440878975498016,58.0,709.0],["PDLIM3",-0.13504119585001575,-3.754215713012411,21.0,746.0],["PHF2",-0.128041168414302,-3.422414671532086,54.0,713.0],["PLCG2",-0.13433052756484412,-3.7197868259593467,57.0,710.0],["PLOD2",-0.12471399542358508,-3.2703940756909846,29.0,738.0],["POLA2",-0.12324339027034734,-3.2043623833259183,21.0,746.0],["RHNO1",-0.12465879761635172,-3.2679028006794435,14.0,753.0],["RNASE11",-0.12522466519806794,-3.2934899585698414,9.0,758.0],["SGMS2",-0.12662538014300354,-3.3572803374492333,24.0,743.0],["SHCBP1",-0.156808082099497,-4.891200937247714,33.0,734.0],["SLC35G2",-0.12474319302248717,-3.271712273207499,26.0,741.0],["SLC39A8",-0.12507386807548185,-3.2866609832471396,21.0,746.0],["SMCR8",-0.13888405978418952,-3.943311107081153,34.0,733.0],["SPATA22",-0.1330782837282337,-3.659530603588083,11.0,756.0],["TBC1D3F",-0.13156450050130378,-3.5873862560198897,10.0,757.0],["TERF2IP",-0.12476174337848756,-3.272549920361418,22.0,745.0],["TMED7",-0.13460075961749374,-3.7328585781603243,9.0,758.0],["TMPRSS5",-0.14260422819746857,-4.131090201357301,18.0,749.0],["TNFRSF8",-0.13133770278070897,-3.576643058290581,24.0,743.0],["TP53BP2",-0.13157243594325768,-3.5877624598541633,49.0,718.0],["VSTM2A",-0.12466970640607884,-3.268395074049271,26.0,741.0],["ZMYM1",-0.12908716096789488,-3.470961674606122,42.0,725.0],["ZNF280C",-0.12640838607248314,-3.347355826384567,20.0,747.0],["ZNF431",-0.13109187729784194,-3.5650178210521095,21.0,746.0],["ZNF438",-0.131581112482094,-3.5881738215835783,32.0,735.0],["ZNF507",-0.14278297339767204,-4.14022990548505,37.0,730.0],["ZP4",-0.12344808482443147,-3.21351083145709,64.0,703.0]]},"para":{"top":[["CFL1",0.09621399561533839,-2.4108414080807563,8.0,759.0],["IPP",0.09829569056533212,-2.4861679148393425,17.0,750.0],["MEN1",0.11540040558010317,-3.15315406556643,31.0,736.0],["MT-ATP8",0.0988556660151448,-2.506570650183996,17.0,750.0],["SLC25A35",0.10988210538632155,-2.927871444686283,14.0,753.0]],"bottom":[["ASB13",-0.1142737357152796,-3.1061229446143295,13.0,754.0],["C10orf2",-0.12576498800113284,-3.6010020727311853,12.0,755.0],["CASP3",-0.09448958130856107,-2.3497731793482433,9.0,758.0],["CHMP4C",-0.11283521471656004,-3.0468801779957677,9.0,758.0],["CLN8",-0.09826083977867375,-2.4847281758178505,11.0,756.0],["COPS7A",-0.12473282509203117,-3.554814151186739,11.0,756.0],["EIF1AD",-0.12606605534897214,-3.614565033656585,13.0,754.0],["GVQW1",-0.10326302970692278,-2.6703291481476863,11.0,756.0],["HMG20A",-0.10832728451484107,-2.866115306650468,12.0,755.0],["HPSE",-0.10393820268495808,-2.6960089994287006,12.0,755.0],["IFNA4",-0.08476684854664601,-2.0219665336104877,8.0,759.0],["KRBA2",-0.1271267338965959,-3.66228750733583,10.0,757.0],["LYSMD1",-0.10009733158294543,-2.551821971017103,8.0,759.0],["MXD3",-0.10683262421601605,-2.8075197060481534,12.0,755.0],["NUDT3",-0.11373404408633798,-3.083761519583921,10.0,757.0],["OMD",-0.10083449595513994,-2.579217844651803,10.0,757.0],["OR10A2",-0.10992436183909599,-2.9294478481996222,11.0,756.0],["OR1L4",-0.10602546099787555,-2.776076763824837,10.0,757.0],["OR6F1",-0.12911433942823683,-3.7532041731211105,17.0,750.0],["OR8A1",-0.1104432341235104,-2.950038048637901,8.0,759.0],["PAQR4",-0.10817971149061086,-2.860211405823441,10.0,757.0],["PCDH11Y",-0.10348589955521109,-2.678777321479768,11.0,756.0],["PDCL",-0.09940698056838763,-2.5265331152609183,10.0,757.0],["PLA2G2A",-0.10362138690956205,-2.683822721546931,9.0,758.0],["PSMD4",-0.09650264430884363,-2.4213128369049746,11.0,756.0],["REXO2",-0.10455097191086156,-2.719262759153734,9.0,758.0],["RHNO1",-0.11307123774841454,-3.0567442771787885,14.0,753.0],["RHOV",-0.11490178845086849,-3.132027939570949,11.0,756.0],["SLC25A1",-0.13439051851785855,-3.999630194063402,11.0,756.0],["SPATA22",-0.1392193652307722,-4.233056333651852,11.0,756.0],["SPATS1",-0.09964758550135665,-2.5354130518710547,11.0,756.0],["TBC1D3F",-0.12271441361027068,-3.4654961674115907,10.0,757.0],["TIAF1",-0.09566337335127467,-2.3912247485133173,8.0,759.0],["TM4SF1",-0.11212829700550273,-3.0181991569972615,11.0,756.0],["TMED6",-0.10348800552481126,-2.67869723590077,8.0,759.0],["TMED7",-0.10558991985349042,-2.7591872242125204,9.0,758.0],["TMEM30A",-0.10256064171165137,-2.6436453748910314,8.0,759.0],["TMPRSS5",-0.1484124520442133,-4.698123665971587,18.0,749.0],["TREX1",-0.10145741176026819,-2.6024034509943785,10.0,757.0],["ZFP36",-0.1263246881160503,-3.6263032068329166,16.0,751.0],["ZNF35",-0.11375363423597692,-3.084759851629828,15.0,752.0],["ZNF431",-0.13711992893693314,-4.130990461600319,21.0,746.0]]}}}
{"depmap_damaging":{"corr":{"top":[],"bottom":[["ALCAM",-0.11072959867590418,-2.671033655040095,12.0,755.0],["ARHGAP24",-0.09642498758641249,-2.1230666294561376,11.0,756.0],["ARHGEF26",-0.12257427984546432,-3.1745536221520476,9.0,758.0],["ARL13B",-0.1181997473743578,-2.9832785798966244,10.0,757.0],["CAMSAP1",-0.09938103311291312,-2.2309788207059555,9.0,758.0],["CCDC73",-0.1500441238121251,-4.520656771569557,20.0,747.0],["CLDN8",-0.13233657416276623,-3.624086776036644,24.0,743.0],["CLTCL1",-0.10089410550485085,-2.287281901737463,10.0,757.0],["CLUH",-0.12394937593328711,-3.235973209505583,11.0,756.0],["COBLL1",-0.10980683212539517,-2.633713797140364,9.0,758.0],["COL14A1",-0.12605400913523093,-3.3311813013069527,13.0,754.0],["DLX6",-0.09730985289111511,-2.1550804414009623,20.0,747.0],["DOCK7",-0.11008350053613151,-2.644874471237176,10.0,757.0],["GNAI1",-0.10537284455387583,-2.458198548719693,17.0,750.0],["HDAC4",-0.11322729253843201,-2.7734252982749856,12.0,755.0],["HFM1",-0.10262651924730719,-2.352637635187391,12.0,755.0],["KCNMA1",-0.14375836348813856,-4.190294140362861,9.0,758.0],["KDM3B",-0.10759149772229486,-2.5452346598634317,8.0,759.0],["KIAA1875",-0.09577593905802753,-2.0997410168595665,9.0,758.0],["KIAA2018",-0.12020888216518368,-3.070351026806875,9.0,758.0],["KRBA1",-0.1297235905786453,-3.5006770351568037,8.0,759.0],["LEPR",-0.1193548078253687,-3.0331760211811227,11.0,756.0],["LRRC37A3",-0.14191208227518814,-4.095800650472305,13.0,754.0],["LRRIQ1",-0.10244136298549786,-2.345607106776811,19.0,748.0],["MCM3AP",-0.12115766844428917,-3.1119279161631894,10.0,757.0],["MIA3",-0.11595746481723715,-2.88765399475213,13.0,754.0],["MYH4",-0.12236884970990357,-3.165431196219772,13.0,754.0],["MYO1E",-0.09603206068904176,-2.1089297491513666,8.0,759.0],["MYOM1",-0.103815875235667,-2.3980582657454583,11.0,756.0],["NRXN1",-0.11816925103796981,-2.9819670596626477,18.0,749.0],["PALB2",-0.10040223893873707,-2.2688995340451643,9.0,758.0],["PCNXL2",-0.11476077863825992,-2.8372881971979247,13.0,754.0],["PHKA1",-0.13540163395710977,-3.771741845134189,13.0,754.0],["RAPGEF6",-0.10416407621340033,-2.4114409854978858,9.0,758.0],["RTKN2",-0.14735660813583315,-4.3777667152880975,13.0,754.0],["RYR3",-0.09917416911934289,-2.2233374395961047,27.0,740.0],["SETDB1",-0.14715921637785934,-4.367368588034564,9.0,758.0],["SH3D21",-0.10518191560830926,-2.4507820480839677,12.0,755.0],["SPECC1",-0.13073442686297873,-3.5481495568087587,9.0,758.0],["SPEG",-0.12743859359123086,-3.394611908436137,12.0,755.0],["SPHKAP",-0.11366752408129736,-2.791681137590867,11.0,756.0],["ZBTB7C",-0.09725097735862251,-2.152942713908758,11.0,756.0],["ZMYM6",-0.11893315071186034,-3.0149104577517183,20.0,747.0]]},"para":{"top":[["LARP1B",0.09392456620159992,-2.329884341429155,8.0,759.0]],"bottom":[["ARL13B",-0.09943293539360128,-2.5274854439031884,10.0,757.0],["CAPN3",-0.10345902540564997,-2.6775978609530933,8.0,759.0],["CCDC73",-0.14050441399768154,-4.296728246993167,20.0,747.0],["COL14A1",-0.10633615886320029,-2.788244818283983,13.0,754.0],["CPAMD8",-0.10388211261883479,-2.6938340369933664,11.0,756.0],["EFTUD1",-0.10606723613016218,-2.7775774925757006,8.0,759.0],["KCNMA1",-0.11436629589517099,-3.1097577879804414,9.0,758.0],["KDM3B",-0.11084895579176784,-2.966327889054839,8.0,759.0],["KIAA0195",-0.10983811735374097,-2.926115925777949,14.0,753.0],["KRBA1",-0.11224000151150768,-3.022566145718003,8.0,759.0],["MCM3AP",-0.1206639824183901,-3.376120355077376,10.0,757.0],["MIA3",-0.10533255719224772,-2.749440856959439,13.0,754.0],["MYH4",-0.10574312151218286,-2.7652776574105737,13.0,754.0],["PALB2",-0.10334797955623869,-2.673449802607688,9.0,758.0],["PCDHB2",-0.10330254472145732,-2.6718999353289994,13.0,754.0],["SETDB1",-0.12265053870086948,-3.4626312699265824,9.0,758.0],["SH3D21",-0.09328578245999891,-2.3077640520293903,12.0,755.0],["SPECC1",-0.11015582265399089,-2.9385948261766193,9.0,758.0],["SPEG",-0.11983379633912884,-3.340403133496078,12.0,755.0],["SPHKAP",-0.11195495379016737,-3.011164154916467,11.0,756.0],["TMEM161B",-0.10083449595513994,-2.579217844651803,10.0,757.0],["VANGL1",-0.11536501197812811,-3.151445621896777,16.0,751.0]]}}}
{"ccle_rrbs_enhancer_clusters":{"corr":{"top":[],"bottom":[["8-27750440-27755351-1_enh",-0.15720597262816693,-2.987190333819883,433]]},"para":{"top":[],"bottom":[["16-72978900-72981722-1_enh",-0.17347198446929923,-3.7401541601498556,461]]}}}
{"prism_primary_logfold":{"corr":{"top":[["ethisterone_BRD-A29111201-001-04-8::2.5::HTS",0.1720964400593599,-3.206504766460324,392],["bilobalide_BRD-A41714661-001-02-0::2.5::HTS",0.16850853800487486,-3.091943071018965,392],["limonin_BRD-K05906022-001-05-1::2.5::HTS",0.17000900917401834,-3.1327234536394877,391],["orotic-acid_BRD-K32572029-001-04-4::2.5::HTS",0.17891164984827884,-3.4303341956333036,392],["desogestrel_BRD-K46061689-001-01-9::2.5::HTS",0.18236960936866486,-3.531361637409096,390],["pancuronium_BRD-K50817623-303-05-7::2.5::HTS",0.1681765988927474,-2.9334295939341724,370],["SB-216763_BRD-K59184148-001-21-6::2.5::HTS",0.19135378288672292,-3.8602408774948453,392],["N-methyllidocaine-iodide_BRD-K60060639-005-02-2::2.5::HTS",0.19441617962980168,-3.970320078014123,392],["cilazapril_BRD-K65518078-002-01-1::2.5::HTS",0.17812228659217602,-3.4039900320288483,392],["pizotifen_BRD-K75958195-037-09-4::2.5::HTS",0.1894687831128655,-3.7848892248281265,391],["N6-methyladenosine_BRD-K81807412-001-10-6::2.5::HTS",0.17221056337768612,-3.175043971241571,387]],"bottom":[["DUP-697_BRD-K06221026-001-06-8::2.5::HTS",-0.16699292617142486,-3.0375968544008716,391]]},"para":{"top":[["rutin_BRD-K20482099-001-09-4::2.5::HTS",0.17223255635175608,-3.056015697510295,370],["pancuronium_BRD-K50817623-303-05-7::2.5::HTS",0.16511857942194283,-2.8427881009419838,370],["N-methyllidocaine-iodide_BRD-K60060639-005-02-2::2.5::HTS",0.19148280131331255,-3.864844273720602,392],["melperone_BRD-K92984783-003-05-7::2.5::HTS",0.16448533841418808,-2.9661483036734055,392],["MK-0354_BRD-K91405252-001-01-9::2.500076093::MTS004",0.18052433641955146,-3.3921638362152096,380]],"bottom":[["milnacipran_BRD-A15202882-003-02-7::2.5::HTS",-0.16822930426793403,-2.9687181498482067,375]]}}}
{"prism_secondary_logfold":{"corr":{"top":[["eprinomectin_BRD-A91366704-001-01-9::0.0024414::HTS002",0.19352453685107662,-2.7830748420337477,262],["PPT_BRD-K00312224-001-09-5::0.00061034::HTS002",0.19403360929841712,-3.388478000813798,328],["sulfanilamide_BRD-K02594908-001-16-4::0.15625::HTS002",0.197539304955215,-3.2000158077575964,296],["pirenperone_BRD-K25224017-001-25-0::0.00061034::HTS002",0.20401328197679938,-3.788904824255162,337],["alfacalcidol_BRD-K49522529-001-02-9::0.039582::HTS002",0.20342857484966329,-3.720910645250252,332],["AZD5363_BRD-K99023089-001-03-7::0.00061034::HTS002",0.2002649479271725,-3.4391614622900035,313]],"bottom":[["anagrelide_BRD-K62200014-003-10-5::2.5::HTS002",-0.22120764904106904,-4.170569119257914,319],["imatinib_BRD-K92723993-001-17-4::0.00977::MTS010::PROS002_PR500",-0.18237975678064947,-2.89214134235186,309]]},"para":{"top":[["PPT_BRD-K00312224-001-09-5::0.00061034::HTS002",0.18817029422297069,-3.212143805778269,328],["bitopertin_BRD-K13756951-001-01-4::0.00976562::HTS002",0.18467740506816965,-3.1744253144732006,336],["pirenperone_BRD-K25224017-001-25-0::0.00061034::HTS002",0.17820303249261343,-2.992329668710728,337],["AZD5363_BRD-K99023089-001-03-7::0.00061034::HTS002",0.17082908403860542,-2.615228080289985,313]],"bottom":[["fenaclon_BRD-K08791496-001-01-0::10::HTS002",-0.1908282261331166,-3.204946762850602,318],["bumetanide_BRD-K38197229-001-29-9::0.0024414::HTS002",-0.1921957578342728,-2.78600356363253,266]]}}}
{"ccle_proteomics":{"corr":{"top":[["NUDT4_Q9NZJ9",0.24036476816853558,-4.084184605280791,263]],"bottom":[["PRR14_Q9BWN1",-0.2560242318236655,-3.7379970940926794,209],["TXNDC15_Q96J42",-0.2739829093063873,-4.955016514729103,250],["TM2D3_Q9BRN9",-0.29579006232563315,-5.008332126922476,216],["MCL1_Q07820",-0.25836886084581034,-4.260264856192708,238],["SLC3A2_F5GZS6",-0.3200711557677834,-4.7534925369991194,173],["KLF10_Q13118",-0.31254930258787234,-3.4597716448580997,127]]},"para":{"top":[["SLC25A30_Q5SVS4",0.33072234260140543,-3.487119586865089,114],["APAF1_O14727",0.2402918616809098,-3.9177868836200447,251],["USP47_Q96K76",0.23516371808981454,-3.9271076316841054,263],["SRF_P11831",0.2332747079919338,-3.0130383322167655,197]],"bottom":[["TM2D3_Q9BRN9",-0.24075600032457403,-3.4481965930816942,216],["SLC3A2_F5GZS6",-0.3009292281274953,-4.240747402409468,173],["NOVA1_P51513",-0.23928818964662424,-3.301383621852042,208],["ZBTB43_O43298",-0.24372995947945023,-3.224946768561106,195],["KLF10_Q13118",-0.3072846789751126,-3.3553209888939923,127]]}}}
{"depmap_copy_number":{"corr":{"top":[],"bottom":[["LOC100132356_100132356",-0.16417261595100527,-5.324942599446924,769],["CDH6_1004",-0.16441859782500462,-5.3393766817527615,769],["LOC100506639_100506639",-0.16417261595100527,-5.324942599446924,769],["MRPS30-DT_100506674",-0.16870843570711214,-5.594500926934075,769],["FGF10-AS1_101927075",-0.16444138261734845,-5.3407147485380655,769],["LINC02109_101929660",-0.16439742100107116,-5.338133207335874,769],["LINC02064_101929681",-0.16439742100107116,-5.338133207335874,769],["LINC02224_102723839",-0.16444138261734845,-5.3407147485380655,769],["MRPS30_10884",-0.16870843570711214,-5.594500926934075,769],["NIM1K_167359",-0.16646907083545917,-5.460519000570322,769],["FGF10_2255",-0.16762039861670527,-5.529183939070649,769],["HMGCS1_3157",-0.16489338319014119,-5.3672964996569075,769],["ANXA2R_389289",-0.16417261595100527,-5.324942599446924,769],["PTGER4_5734",-0.16423860471936116,-5.328812713942144,769],["FLJ32255_643977",-0.16417261595100527,-5.324942599446924,769],["ZNF131_7690",-0.16417261595100527,-5.324942599446924,769]]},"para":{"top":[],"bottom":[["LOC100506406_100506406",-0.1701682406759647,-5.682788332054884,769],["NADK2_133686",-0.17101701620582432,-5.7344656272543295,769],["UGT3A1_133688",-0.1701682406759647,-5.682788332054884,769],["CAPSL_133690",-0.1686661878939184,-5.591956963063096,769],["DNAJC21_134218",-0.17089135754595644,-5.7267989779502715,769],["TTC23L_153657",-0.17056360394292905,-5.706828313059186,769],["UGT3A2_167127",-0.1677273339783485,-5.5355850935389705,769],["RANBP3L_202151",-0.17101701620582432,-5.7344656272543295,769],["RAI14_26064",-0.16922839289704866,-5.625861577470175,769],["IL7R_3575",-0.17054483537053736,-5.705685851248372,769],["BRIX1_55299",-0.17089234822091517,-5.726859398990933,769],["PRLR_5618",-0.1744595617201796,-5.946665971984765,769],["RAD1_5810",-0.17089234822091517,-5.726859398990933,769],["LOC646652_646652",-0.16795070021649566,-5.548968727676419,769],["AGXT2_64902",-0.17152615552111175,-5.765585966080132,769],["SPEF2_79925",-0.17158600035121338,-5.76924988161777,769]]}}}
{"depmap_gene_tpm":{"corr":{"top":[["FMOD_2331",0.1447777650860827,-4.228390065490729,764],["NOL4L_140688",0.19537816575292538,-7.283350157437056,764]],"bottom":[["FETUB_26998",-0.15669691416206508,-4.868007774873408,764],["HORMAD1_84072",-0.15482356009652487,-4.764273971631584,764],["TMPRSS11D_9407",-0.18753229703932608,-6.750618432885018,764],["C9orf84_158401",-0.1655600650498838,-5.375146891177766,764]]},"para":{"top":[["FMOD_2331",0.13730455803131525,-3.851827931756286,764],["NOL4L_140688",0.17092168491774182,-5.695140447032062,764]],"bottom":[["HORMAD1_84072",-0.12906737319291658,-3.458341842679527,764],["PDCD6_10016",-0.13421210659216917,-3.7014643293284117,764]]}}}
{"avana":{"corr":{"top":[["YME1L1_10730",0.2486489159619321,-11.5737390820313,769],["PEX11B_8799",0.26908091708170634,-13.495410275926073,769],["S100A2_6273",0.2829162351348882,-14.893421036267652,769],["MTX2_10651",0.30387058307826226,-17.16463693331344,769],["LCE6A_448835",0.286060635233303,-15.222294839294282,769],["CLPB_81570",0.4397077028320052,-36.970864562753505,769],["FLG2_388698",0.2433192719841845,-11.099866544413636,769],["HTRA2_27429",0.4018997285374683,-30.488821011919722,769],["OAZ3_51686",0.24974060223256367,-11.67218706934289,769],["MTX1_4580",0.2928624182869695,-15.948023318429142,769]],"bottom":[["CNTLN_54875",-0.17863830450066587,-6.209878703599916,769],["TCTE3_6991",-0.17181378126223493,-5.783206985595632,769],["FAM163B_642968",-0.15175680074148493,-4.623635918989768,769],["CHST12_55501",-0.16934985264300736,-5.6332009612156,769],["DMRTA1_63951",-0.16208142713713555,-5.203083904432832,769],["HHIPL1_84439",-0.18135715324725848,-6.3844678649565685,769],["DEGS2_123099",-0.17364928868456814,-5.896343951109111,769]]},"para":{"top":[["FMO5_2330",0.26891094709666463,-13.478727089990898,769],["MTX2_10651",0.25309740514758755,-11.977865449203417,769],["PEX11B_8799",0.2519712408962136,-11.874814941365244,769],["PGLYRP4_57115",0.23461206515499072,-10.349605452586674,769],["S100A2_6273",0.2737845793717137,-13.96180123980804,769],["LYSMD1_388695",0.28028989900060347,-14.62191652101198,769],["LCE6A_448835",0.29217742029494465,-15.874043665428013,769],["CLPB_81570",0.38935089756245184,-28.514538562504843,769],["HTRA2_27429",0.33059537933846683,-20.341118949248806,769],["MTX1_4580",0.2649370755153676,-13.09204182905624,769]],"bottom":[["CNTLN_54875",-0.1745958727171138,-5.955154374986792,769],["CTRB1_1504",-0.15009693959667925,-4.533901371731747,769],["FAM163B_642968",-0.1693057641550241,-5.630536250710294,769],["HHIPL1_84439",-0.15925694985995673,-5.040906789538793,769],["H2AFV_94239",-0.14821671860035088,-4.433391425057136,769],["DEGS2_123099",-0.15105991866162832,-4.585846599733089,769],["ZNF212_7988",-0.1481383795202206,-4.42922987425394,769]]}}}
{"drive":{"corr":{"top":[["ABCC2_1244",0.2290073884121416,-3.8078371205799364,268]],"bottom":[["DMRT1_1761",-0.21847627824274757,-3.5371828409717447,271]]},"para":{"top":[],"bottom":[["RAD9A_5883",-0.22131390035320767,-3.560591658759014,266],["ABCC6P1_653190",-0.19973119089421876,-2.9764491593000155,266],["DMRT1_1761",-0.2368627403693035,-4.084242740827134,271],["CRLF2_64109",-0.22468920949535942,-3.6572271012973205,266],["JMJD8_339123",-0.22238753054702975,-3.649868819651226,271]]}}}
{"achilles":{"corr":{"top":[["TIMM44_10469",0.23540415426307013,-3.221078958210532,209],["CORO7-PAM16&PAM16_100529144&51025",0.3039802990302451,-5.115986273285076,209],["IER3IP1_51124",0.2622156892739394,-3.901842791350159,209],["DNAJC11_55735",0.2630085387263561,-3.9231171959759914,209],["FBXO38_81545",0.24068617405499382,-3.3493350910826316,209],["SLC25A46_91137",0.250404172961893,-3.592757633837072,209],["GRPEL1_80273",0.2969262557633032,-4.89723366544517,209],["DENR_8562",0.23299891850255494,-3.1636111716131703,209],["CLPB_81570",0.24696928872970408,-5.577581353879423,353],["HDGF_3068",0.24172682252776848,-3.3749383719948134,209],["C21orf91_54149",0.2190713794148941,-2.842199733824254,209]],"bottom":[["SGSM3_27352",-0.2341479792481454,-3.1909927130468745,209],["TMEM45A_55076",-0.24674436924425108,-3.499942875694577,209],["LOC652276_652276",-0.31192342905672454,-5.369199051744724,209],["CTNND1_1500",-0.23921971103213197,-3.313442831058949,209],["ASIC5_51802",-0.27717493970089657,-4.314612892471893,209]]},"para":{"top":[["POTEB_100996331",0.21605756373534887,-2.775168044805752,209],["LPAR6_10161",0.21501264307663218,-4.333618394886958,353],["GRPEL1_80273",0.27716522598985155,-4.314336998057052,209],["DENR_8562",0.2152985219319736,-2.7584256489149364,209],["HDGF_3068",0.23623033621176398,-3.2409534266268425,209]],"bottom":[["MICALL2_79778",-0.22629320118512783,-3.0064563182144086,209],["INIP_58493",-0.24893847405143504,-3.5554202023609807,209],["LOC100996335&LINC01663&FAM230B_100996335&100996432&642633",-0.24764067393440226,-3.5225455860994805,209],["AAAS_8086",-0.22782256871962278,-3.041903378974218,209],["SGSM3_27352",-0.2434773807389881,-3.4182574419804768,209],["RPL27_6155",-0.2407627647148115,-3.351215698676167,209],["LOC652276_652276",-0.33887222238195175,-6.284332786693975,209],["TMEM45A_55076",-0.2259958745059017,-2.9995919937302666,209],["FRMD7_90167",-0.22350420469149182,-2.942411757762923,209],["ASIC5_51802",-0.2650791267008217,-3.978992590192151,209]]}}}
{"ccle_rrbs_tss1kb":{"corr":{"top":[["GABPB2_1_151042053_151043053",0.15860954271430314,-3.128509885024218,449]],"bottom":[["TDRD3_13_60970426_60971426",-0.2180482304077308,-5.198719238139324,421],["RPF2_6_111302219_111303219",-0.17323779913174375,-3.689040463858407,455],["SEMA3B_3_50303989_50304989",-0.21825688318229022,-3.2358670919941486,245],["TGFBR3_1_92351836_92352836",-0.17238247750020497,-3.699005729107037,461]]},"para":{"top":[["FARSB_2_223521074_223522074",0.17806462356701244,-3.983081338342481,470],["CFAP20_16_58163296_58164296",0.1576515075036472,-3.178421809624094,463],["ARHGAP39_8_145911197_145912197",0.16619772870238705,-3.4830777558579036,463],["CFAP20_16_58163329_58164329",0.1575498824534359,-3.174889034689035,463]],"bottom":[["RAB3D_19_11450344_11451344",-0.17784013827662212,-2.7472991950841927,306],["CALR_19_13048413_13049413",-0.17852313626485858,-3.9341565106540277,461],["PANCR_4_111536614_111537614",-0.18940810099720756,-4.270035027047063,449],["DGKZ_11_46353454_46354454",-0.16782165139123437,-3.463149792144281,451]]}}}
{"ccle_gene_tpm":{"corr":{"top":[["FMOD_ENSG00000122176.10",0.15170365255917007,-3.5667466391280946,572],["RP11-138E16.1_ENSG00000259602.1",0.15270419654971226,-3.6078689472864487,572],["RP11-290L1.6_ENSG00000258091.1",0.15206674531481593,-3.5816405595685414,572],["RP5-1184F4.5_ENSG00000236772.1",0.15502603225168224,-3.704270016146478,572],["RPS20P4_ENSG00000241907.1",0.15657957527253952,-3.7695338858938285,572],["C20orf112_ENSG00000197183.8",0.21182177445170444,-6.499034430082364,572],["E2F3-IT1_ENSG00000224707.1",0.15688951402385343,-3.782627550143457,572]],"bottom":[["HM13-AS1_ENSG00000230613.1",-0.21113773592943044,-6.460236384187544,572],["RP11-74C1.4_ENSG00000232536.1",-0.16725135823719545,-4.2344789571542005,572],["RN7SL776P_ENSG00000240772.2",-0.1636087139168792,-4.072500476993845,572],["HORMAD1_ENSG00000143452.11",-0.17819458652888667,-4.741739571285782,572],["AC011243.1_ENSG00000223430.1",-0.1636087139168792,-4.072500476993845,572],["ZNF556_ENSG00000172000.3",-0.1676130242011854,-4.250747602895394,572],["RPL39P26_ENSG00000240454.1",-0.18296807183380814,-4.972805244683953,572],["TMPRSS11D_ENSG00000153802.7",-0.2002722338178216,-5.8611385011379,572],["CTD-3035D6.2_ENSG00000258884.1",-0.17769235804440017,-4.717776418400973,572],["AC006130.4_ENSG00000267398.1",-0.1820873629440676,-4.929722641028779,572],["C9orf84_ENSG00000165181.12",-0.1706702067624765,-4.3896169092415755,572]]},"para":{"top":[["UBE2D3P2_ENSG00000225558.1",0.1586293911649663,-3.8565833550882958,572],["FMOD_ENSG00000122176.10",0.15964447056490677,-3.900086404047502,572],["DHX40P1_ENSG00000266992.1",0.15282192578179973,-3.6127242133655177,572],["RN7SL199P_ENSG00000265315.1",0.16021052410890518,-3.9244596832231258,572],["RP5-1184F4.5_ENSG00000236772.1",0.19716082113112807,-5.695492949193838,572],["TAF13P2_ENSG00000225658.1",0.16569398655124112,-4.164809403690883,572],["C20orf112_ENSG00000197183.8",0.18634931216827624,-5.140112213976671,572],["ERHP1_ENSG00000254270.1",0.15859299763843757,-3.85502851718345,572],["LGALS12_ENSG00000133317.10",0.14966567444512838,-3.4837654453437783,572],["RN7SL656P_ENSG00000265411.1",0.16021052410890518,-3.9244596832231258,572],["RP5-1097F14.3_ENSG00000235710.3",0.16452856808906677,-4.113082109445339,572]],"bottom":[["HM13-AS1_ENSG00000230613.1",-0.18594956646457916,-5.120174718737872,572],["RP11-74C1.4_ENSG00000232536.1",-0.162627555561427,-4.029453351648647,572],["RP11-325I22.1_ENSG00000248951.2",-0.15137723630202743,-3.5533855241797196,572],["C21orf119_ENSG00000256073.2",-0.15903411667574147,-3.873897135905267,572],["SNAPC5_ENSG00000174446.8",-0.1635940425897567,-4.071854973619985,572],["RP11-653G8.2_ENSG00000261715.1",-0.15140100107403798,-3.5543573759597384,572],["RP11-396D18.1_ENSG00000229120.2",-0.16395887864354644,-4.087923268464218,572],["AC005606.14_ENSG00000261790.1",-0.14841880745331576,-3.4335107994750613,572]]}}}
{"ccle_rrbs_tss_clusters":{"corr":{"top":[["FIGNL2_3",0.22092697047112284,-3.177133897181996,234],["CCDC43_3",0.2192084626040148,-4.992084719687178,398],["LIMCH1_2",0.244516848006344,-3.6726909791032076,225],["ANKRD18B_3",0.33660454502509696,-3.210019319335784,100],["PPP1R35_3",0.2469246988183023,-3.708381392568026,223]],"bottom":[["NLRP2_3",-0.21400342135152695,-3.6281350451416006,291],["TTTY16",-0.31023239453100687,-3.5778956435625724,134],["FAM110C_3",-0.23556090579097738,-3.662354503506483,242],["C20orf141_3",-0.2548273419021638,-4.108921676774754,235]]},"para":{"top":[["FIGNL2_3",0.20841359893591715,-2.871464054717726,234],["TMEM206_1",0.25361081575462313,-4.088875728697168,236],["LIMCH1_2",0.24819820396696524,-3.7719619555240946,225]],"bottom":[["GRAMD1B_3",-0.2234114515266159,-6.001949230567787,470],["FAM110C_3",-0.2319657893651485,-3.563783059333454,242],["BCOR_2",-0.2341021738324038,-3.3081747237949584,218],["C20orf141_3",-0.23343822821179996,-3.513086050421272,235]]}}}
{"ccle_rrbs_cgi_clusters":{"corr":{"top":[["1_233119927_233124136-3",0.24900771064567448,-2.8246766808715935,160],["7_100031262_100036253-3",0.2469246988183023,-3.708381392568026,223]],"bottom":[["16_14393604_14396340-3",-0.22440907489926612,-3.301377278353615,237],["13_22244311_22247362-2",-0.2797975105107806,-2.7059597303384977,120],["13_22245803_22248779-2",-0.28224078870697994,-2.747376071925743,120],["2_46034_48559-3",-0.23556090579097738,-3.662354503506483,242]]},"para":{"top":[["2_203500102_203502697-2",0.2293068158564009,-2.57997551662742,170],["1_212585591_212590284-1",0.25361081575462313,-4.088875728697168,236],["16_88600570_88603530-3",0.3235870885868244,-3.6339347439413823,125]],"bottom":[["23_40034252_40038508-1",-0.2190161057917158,-3.711866363722583,285],["20_19190459_19193181-1",-0.2929679222655899,-3.227707940149506,134],["2_46034_48559-3",-0.2319657893651485,-3.563783059333454,242]]}}}
