{"depmap_hotspot":{"corr":{"top":[["AC109829.1",0.12333016876634786,-3.208239110169028,14.0,753.0],["ACVR2A",0.12632125377967854,-3.343375083853016,41.0,726.0],["AEBP2",0.12135432607857276,-3.120582506043441,31.0,736.0],["AGAP2-AS1",0.11934915088789583,-3.0329305872240075,12.0,755.0],["ANKHD1",0.13791558388945377,-3.8951893324492723,64.0,703.0],["ARHGEF40",0.11983032025174752,-3.0538441075879255,50.0,717.0],["ATG10",0.13028034069405064,-3.5267821260131167,8.0,759.0],["C1orf110",0.1273225591776522,-3.3892718564152147,17.0,750.0],["CACNA1H",0.1298636637221397,-3.5072351626344553,134.0,633.0],["CALCRL",0.11626241576328614,-2.9005629634663936,21.0,746.0],["CDH4",0.12740234003247652,-3.392942995890194,62.0,705.0],["CHRND",0.1280648855797004,-3.4235114335532915,28.0,739.0],["CTAG2",0.1269216706712356,-3.370856653919385,9.0,758.0],["CTCF",0.13324202506490052,-3.667379924340624,39.0,728.0],["CTD-3088G3.8",0.11703049240389508,-2.9332104813968685,31.0,736.0],["CXXC4",0.13098099455129783,-3.559780672708319,10.0,757.0],["DDX19A",0.12249090443237187,-3.17084954715183,20.0,747.0],["EMC10",0.12353922805767191,-3.217588736248617,19.0,748.0],["FAM196B",0.11977456963961089,-3.0514170954166926,20.0,747.0],["FAM69C",0.13422252702986318,-3.714569400443706,17.0,750.0],["GJB4",0.14488977869457603,-4.248769520528636,19.0,748.0],["GLI3",0.12147502207946154,-3.1259004116518696,99.0,668.0],["GPR153",0.1356855064614916,-3.7855755515704836,25.0,742.0],["GUCY2D",0.11740889704492381,-2.949365281050836,34.0,733.0],["HSF2",0.11861603299454197,-3.001211579272683,14.0,753.0],["IMPDH1",0.11989447878265241,-3.0566384006188945,22.0,745.0],["IPO8",0.12484447461271311,-3.2762870531098076,35.0,732.0],["KIAA1109",0.12615742859901763,-3.3358973111196435,149.0,618.0],["KIF13B",0.11798913109715665,-2.9742270287782815,54.0,713.0],["KIF22",0.12278970973207133,-3.184134962295037,25.0,742.0],["LAMP5",0.1349357623455443,-3.7490972575731827,16.0,751.0],["LRRC9",0.1349235335885578,-3.748503831113304,58.0,709.0],["MAMDC2",0.12664398450598904,-3.3581319552666233,30.0,737.0],["METAP2",0.14573747409256035,-4.292865175755512,18.0,749.0],["MFSD7",0.11925392786251873,-3.028800773075568,25.0,742.0],["MSI1",0.11958274958442601,-3.043074272143795,17.0,750.0],["MT-CYB",0.11607519501963696,-2.8926340891464855,251.0,516.0],["MYO5B",0.1171030526914561,-2.9363046073231978,73.0,694.0],["PAK7",0.1219893280539161,-3.14861435434738,47.0,720.0],["PAWR",0.13512425301914596,-3.7582504826213765,22.0,745.0],["PGM5",0.11689267382937739,-2.9273383151508,25.0,742.0],["PKDREJ",0.12831246796579818,-3.4349715809001227,70.0,697.0],["PRTG",0.12013848195449317,-3.0672777338615624,43.0,724.0],["RAB20",0.1553450354100786,-4.809722758271905,8.0,759.0],["RIN3",0.12752662304270623,-3.398666101720307,44.0,723.0],["RNF111",0.11794176300297336,-2.9721933031154513,42.0,725.0],["RORC",0.11888690638138079,-3.012910749580177,20.0,747.0],["RP11-1055B8.7",0.11659379215695237,-2.9146247906682397,101.0,666.0],["RP11-480I12.4",0.11985181366167742,-3.054780059214196,23.0,744.0],["SHPRH",0.11847931369467492,-2.995315677989953,68.0,699.0],["SLC17A6",0.11618387996545143,-2.8972355550098174,43.0,724.0],["SLC25A45",0.12729967146421634,-3.388219059417367,24.0,743.0],["STEAP1",0.11856358041425266,-2.998948887110266,16.0,751.0],["TBC1D24",0.13159603642378534,-3.588881436232607,17.0,750.0],["TMEM125",0.15772026672608927,-4.942373887574987,12.0,755.0],["TOPAZ1",0.11613187556050028,-2.895033331931281,58.0,709.0],["TP53BP2",0.1319821905424438,-3.6072165553022164,49.0,718.0],["TRIM44",0.11824717543625195,-2.985318864830985,8.0,759.0],["TTC23",0.13430252537663834,-3.7184336876055357,21.0,746.0],["TULP1",0.12807001879714536,-3.4237488353759393,28.0,739.0],["VEZF1",0.13075446389571257,-3.549093992755014,24.0,743.0],["WBSCR27",0.15294713920137293,-4.6777711347169,9.0,758.0],["WNT7A",0.12112821560674243,-3.110632832930013,25.0,742.0],["ZFYVE28",0.13959862449911972,-3.979018295520236,38.0,729.0]],"bottom":[["ARFIP1",-0.11141721033003588,-2.6990212554131405,10.0,757.0],["COASY",-0.13483623752376486,-3.744269053504338,23.0,744.0],["FAM57A",-0.09840333902716823,-2.1949826160114148,10.0,757.0],["OR13J1",-0.11757585904844625,-2.9565080077834835,15.0,752.0],["PNLDC1",-0.10165198789384446,-2.3157560452329387,25.0,742.0],["SLC35D1",-0.12464449502414475,-3.2672574368290017,12.0,755.0],["TCEAL2",-0.10887357316229018,-2.5962479966703813,8.0,759.0]]},"para":{"top":[["AC021218.2",0.10384004651371616,-2.6921350986012196,9.0,758.0],["AC109829.1",0.1271253330169935,-3.6624034537167036,14.0,753.0],["AGAP2-AS1",0.12196894748772161,-3.4329475187092444,12.0,755.0],["ANKRD63",0.11603775961144651,-3.1793837695440414,12.0,755.0],["AP1S3",0.11653709082670484,-3.200214162890253,10.0,757.0],["ARRB1",0.10505878058923226,-2.738909284351007,13.0,754.0],["C1orf110",0.11715478897312305,-3.2264564175072157,17.0,750.0],["CD47",0.09725721782829361,-2.4482614430670577,8.0,759.0],["CSRP2",0.11803063873787496,-3.2633570894672346,12.0,755.0],["CTAG2",0.1249197400003079,-3.5630301958566277,9.0,758.0],["CTD-3148I10.1",0.10821169587927537,-2.8613521747331974,8.0,759.0],["CTSC",0.12002073764101039,-3.3485834303579214,16.0,751.0],["DDX19A",0.12855083347793186,-3.7274485399528987,20.0,747.0],["DHDH",0.1123324118258304,-3.0264464893612204,10.0,757.0],["DNASE1",0.10270547675312051,-2.649102323993821,8.0,759.0],["FAM159B",0.10108259111593802,-2.588325401877275,8.0,759.0],["GJB4",0.12693394847441672,-3.6538788574455006,19.0,748.0],["GOLGA6L1",0.11009763478186466,-2.9363709474048236,11.0,756.0],["GPR173",0.09522772038106196,-2.3758276190301486,9.0,758.0],["GPR21",0.09677497902103625,-2.431073688328441,11.0,756.0],["HAUS4",0.10410420960438094,-2.702334806230833,12.0,755.0],["HHLA3",0.09030199366894005,-2.205043854012417,8.0,759.0],["KLHDC9",0.10115808323974747,-2.5912916054408397,11.0,756.0],["LAMP5",0.13032117856454378,-3.808821238467407,16.0,751.0],["LRRC63",0.1314422725658824,-3.861000213950236,19.0,748.0],["NRN1",0.11466450836077305,-3.1223683931590553,16.0,751.0],["NXF5",0.10370088882879426,-2.6869807269049573,12.0,755.0],["OR3A2",0.09786456425054636,-2.4703526401905984,11.0,756.0],["RIOK2",0.11622563312293635,-3.187153922424674,10.0,757.0],["RSPH10B",0.11439080571304205,-3.110991160672209,14.0,753.0],["SHISA5",0.11264375767154043,-3.0390687331678237,9.0,758.0],["SMIM3",0.11093582534168886,-2.969822356494182,8.0,759.0],["SUMO3",0.1139236604136693,-3.0917552774086694,15.0,752.0],["TRIM44",0.11267463138152725,-3.040260757401103,8.0,759.0],["ZNF439",0.12409016070620714,-3.526376228116184,14.0,753.0]],"bottom":[["ALKBH7",-0.10501316236057862,-2.737156698604849,13.0,754.0],["ARFIP1",-0.09655188816822761,-2.4230334541241896,10.0,757.0],["FAM57A",-0.11786078606772082,-3.256057278534859,10.0,757.0],["GLT8D2",-0.11272716023653441,-3.042881307740567,23.0,744.0],["MRPS28",-0.09491773147073485,-2.364956593651709,11.0,756.0],["OR13J1",-0.10954361673221799,-2.9144072558417675,15.0,752.0],["SPATA19",-0.102823487385206,-2.6537862491621182,13.0,754.0],["TCEAL2",-0.10224179514249693,-2.6316549195999848,8.0,759.0]]}}}
{"depmap_damaging":{"corr":{"top":[["ACVR2A",0.1314342149679298,-3.581212663286515,26.0,741.0],["ATAD5",0.12608877861704446,-3.332766424068296,15.0,752.0],["ATP10A",0.12237405493751215,-3.1656621711827313,13.0,754.0],["BMPR2",0.1081289058314488,-2.566553784507961,12.0,755.0],["CCDC73",0.12707302033745205,-3.377802815989114,20.0,747.0],["COL2A1",0.0974876499726513,-2.1615427482972573,16.0,751.0],["CPAMD8",0.1150365957413347,-2.848855538651401,11.0,756.0],["CPED1",0.1613792906804125,-5.1505278894074396,15.0,752.0],["DDX59",0.12154596290747444,-3.129028312499406,24.0,743.0],["DMD",0.11731387180155449,-2.9453040977398586,24.0,743.0],["EIF5B",0.11025297187911126,-2.651723022917697,22.0,745.0],["ESRP1",0.13001916852126608,-3.514523404078637,18.0,749.0],["FAM193A",0.11059438772549719,-2.6655481274920514,17.0,750.0],["GUCY2C",0.0991262231591146,-2.22156828605249,12.0,755.0],["HECTD2",0.13315967227919542,-3.6634310369072103,10.0,757.0],["JAKMIP1",0.11055517841420796,-2.6639585007812907,9.0,758.0],["KIF20B",0.1173077719433128,-2.94504350266707,16.0,751.0],["KMT2D",0.11776531899226525,-2.964624194313094,78.0,689.0],["MFRP",0.13268921487979876,-3.6409154781479653,9.0,758.0],["MMP16",0.097942187580778,-2.1781088823084356,9.0,758.0],["MYH9",0.12970975082111472,-3.500029420134421,15.0,752.0],["NFRKB",0.1323547231616464,-3.6249518721720198,11.0,756.0],["PCDH10",0.1006762155401406,-2.2791293193980415,9.0,758.0],["PCDH19",0.09922280821416102,-2.225132911007437,11.0,756.0],["PHIP",0.1137904264302677,-2.7967889308311946,14.0,753.0],["PIGB",0.12145344744807514,-3.124949476363328,8.0,759.0],["PLEKHM1",0.09774161043472951,-2.170790597802829,10.0,757.0],["PPP1R26",0.11391294156392533,-2.8018854945021188,14.0,753.0],["PPP3R1",0.10967785501089562,-2.628519330629955,23.0,744.0],["SCIN",0.12187952894009726,-3.1437578865900706,10.0,757.0],["SENP1",0.10547725124138978,-2.4622590736694496,8.0,759.0],["SHPRH",0.11377478598359596,-2.7961386461647235,19.0,748.0],["SPATA21",0.10560127823691558,-2.4670871825615057,10.0,757.0],["TTK",0.10406387679237104,-2.4075859746983572,19.0,748.0],["ZNF804B",0.10191663345700665,-2.3257418617934764,9.0,758.0]],"bottom":[["TET2",-0.1399223613671357,-3.9952520567206644,8.0,759.0]]},"para":{"top":[["ABR",0.1047969716395666,-2.7286859271910955,9.0,758.0],["ATAD5",0.1086931228134896,-2.88065993421601,15.0,752.0],["ATP10A",0.11607558280907575,-3.1810043073312144,13.0,754.0],["ATP2A1",0.111863188562936,-3.007272807624104,8.0,759.0],["CPED1",0.1392683791917756,-4.23563539697994,15.0,752.0],["DDX59",0.13736693135196404,-4.143020116858468,24.0,743.0],["ESRP1",0.1225068062816779,-3.4566722636183034,18.0,749.0],["GGNBP2",0.09609801380173466,-2.406701708117048,8.0,759.0],["HECTD2",0.12175400736482679,-3.423469568362568,10.0,757.0],["KIAA1875",0.09427079525521151,-2.3420824837552785,9.0,758.0],["KIF20B",0.12092717644228132,-3.387751244760696,16.0,751.0],["LY75",0.09484344156872283,-2.362333793909543,11.0,756.0],["MFRP",0.11357334207950945,-3.077102285579113,9.0,758.0],["MVK",0.11297184628611771,-3.0524617031429213,9.0,758.0],["NFRKB",0.13136931005798297,-3.8573258865077795,11.0,756.0],["OR4P4",0.10230896631235539,-2.6342399462270323,9.0,758.0],["PCDH19",0.1196810321414197,-3.333791808138206,11.0,756.0],["PEX1",0.10781868342277481,-2.8461349577511883,13.0,754.0],["PHIP",0.12219867651252868,-3.4430653455923608,14.0,753.0],["PIGB",0.10140137222324172,-2.6001998823575754,8.0,759.0],["PPP1R26",0.11142161540901194,-2.989689332515207,14.0,753.0],["SENP1",0.11102276564368077,-2.9733220108403087,8.0,759.0],["SHPRH",0.12102387655619289,-3.3920168159305875,19.0,748.0],["SOX9",0.12004098999410018,-3.3492251268389306,10.0,757.0],["SPATA21",0.11472025422138869,-3.1244550197615424,10.0,757.0],["TTK",0.12505863719267266,-3.5696029021411864,19.0,748.0],["ZSWIM6",0.11889957617471746,-3.3004326994691713,14.0,753.0]],"bottom":[["BAZ1B",-0.0973151780296215,-2.450350206152141,8.0,759.0],["GRAMD1B",-0.09648539340360833,-2.420603047720952,9.0,758.0],["TET2",-0.11325423339480667,-3.063948694949423,8.0,759.0]]}}}
{"ccle_metabolomics":{"corr":{"top":[["C16:0 LPC",0.14582835449375517,-3.1297829899050464,532]],"bottom":[]},"para":{"top":[],"bottom":[]}}}
{"prism_primary_logfold":{"corr":{"top":[["betaine_BRD-K12014493-001-02-2::2.5::HTS",0.18419006148083744,-3.425254486333135,369],["tacrolimus_BRD-K69608737-001-10-2::2.5::HTS",0.16438841189929376,-2.956719681243768,391]],"bottom":[["NTNCB_BRD-A40413915-003-01-2::2.5::HTS",-0.19770283989434204,-4.090354015198976,392],["acyclovir_BRD-K32318651-001-24-5::2.5::HTS",-0.15884864057196324,-2.6919587892112125,375],["SDZ-WAG-994_BRD-K39558284-001-01-2::2.5::HTS",-0.17848578081405275,-3.416107572144432,392],["IKK-2-inhibitor-V_BRD-K74305673-001-06-2::2.5::HTS",-0.17188578500425444,-3.178710386138162,389],["tryptanthrin_BRD-K76973696-001-12-6::2.01::HTS",-0.1782452442101294,-3.3930783178353194,390],["MK-2295_BRD-K43316319-001-01-8::2.356803189::MTS004",-0.1668338334201098,-2.959782408219629,380]]},"para":{"top":[["betaine_BRD-K12014493-001-02-2::2.5::HTS",0.17720597793257079,-3.2025893754728245,369],["tacrolimus_BRD-K69608737-001-10-2::2.5::HTS",0.20330626260894544,-4.289877751624999,391]],"bottom":[["fluoxetine_BRD-A31159102-003-30-4::2.5::HTS",-0.18840011334713574,-3.730634197719338,389],["LE-135_BRD-K06593056-001-04-8::2.5::HTS",-0.1619437704960131,-2.888125115859489,392],["GTP-14564_BRD-K16664969-001-03-3::2.5::HTS",-0.17522420753591322,-3.3082135070238277,392],["acyclovir_BRD-K32318651-001-24-5::2.5::HTS",-0.17203613019970543,-3.0851908187750334,375],["setiptiline_BRD-K36732695-001-01-9::2.5::HTS",-0.16084050958023938,-2.8484303216323976,391],["SDZ-WAG-994_BRD-K39558284-001-01-2::2.5::HTS",-0.164218371798851,-2.957900270313607,392],["BAY-87-2243_BRD-K70463136-001-01-5::2.5::HTS",-0.19705945249508225,-4.057599194769388,391],["tryptanthrin_BRD-K76973696-001-12-6::2.01::HTS",-0.18377963640950298,-3.5793274915118847,390]]}}}
{"prism_secondary_logfold":{"corr":{"top":[["midodrine_BRD-A79981887-003-16-4::0.0024414::HTS002",0.18703886814887064,-3.070459889946562,315],["enoximone_BRD-K21152241-001-07-3::0.009765623::MTS006",0.20183621098518537,-3.698501978067188,335],["tucatinib_BRD-K26026438-001-01-0::0.00061035::MTS006",0.17459908870943738,-2.896484417451304,338],["cytochalasin-b_BRD-K47000838-001-01-6::0.00407234::HTS002",0.17558617364917925,-2.9319734005867137,339],["NAN-190_BRD-K69195780-004-08-4::0.625::HTS002",0.17698738590990218,-2.9573249676625,337],["etoposide-phosphate_BRD-K72533376-001-01-2::0.039062501::MTS006",0.23481347222084917,-4.85136832826853,335],["naftifine_BRD-K74141488-003-11-2::2.5::HTS002",0.2176303945880997,-4.251162877754906,337],["brefeldin-a_BRD-K77841042-001-14-1::0.00976562::HTS002",0.17958244993460376,-3.0323204220912525,337],["elesclomol_BRD-K82135108-001-04-3::0.625::HTS002",0.22852467163766133,-3.8925005406212936,276],["GSK-J4_BRD-K98203492-003-04-1::0.15625::HTS002",0.1743326218084091,-2.881654211347813,337]],"bottom":[["echinomycin_BRD-A68969091-001-12-7::0.160802::HTS002",-0.19071352087575233,-3.253458683519267,324],["SKF-96365_BRD-A72703248-003-04-9::0.15625::HTS002",-0.18979236656620202,-2.8651717601705338,282],["estradiol-benzoate_BRD-A74765037-001-01-1::2.5::HTS002",-0.1886832940220446,-3.2527283596624685,331],["Y-27632_BRD-K44084986-300-08-4::0.0024414::HTS002",-0.20621913707220357,-3.358745673656688,287],["epothilone-a_BRD-K71823332-001-03-7::10::HTS002",-0.18491335238387852,-3.157077242450189,333],["hexaminolevulinate_BRD-K73753850-003-01-6::0.039062499::MTS006",-0.20743335179002553,-3.892100742147517,336]]},"para":{"top":[["mozavaptan_BRD-A31095847-001-02-3::0.00061034::HTS002",0.18279178723342604,-3.126477769831661,337],["talmapimod_BRD-K17555800-003-01-5::0.625::HTS002",0.1864324262127526,-3.23518596026912,337],["NSC-697923_BRD-K20605374-001-05-4::0.00976562::HTS002",0.18280628855833764,-3.1269067672002944,337],["enoximone_BRD-K21152241-001-07-3::0.009765623::MTS006",0.22435440337372883,-4.466784022156603,335],["etoposide-phosphate_BRD-K72533376-001-01-2::0.039062501::MTS006",0.23670599530916547,-4.922874642689817,335],["naftifine_BRD-K74141488-003-11-2::2.5::HTS002",0.2160842318736095,-4.197184955414878,337],["brefeldin-a_BRD-K77841042-001-14-1::0.00976562::HTS002",0.18148343270142114,-3.0879038331297726,337],["elesclomol_BRD-K82135108-001-04-3::0.625::HTS002",0.2167203642315307,-3.543012581347365,276],["GSK-J4_BRD-K98203492-003-04-1::0.15625::HTS002",0.18015597316424548,-3.0490321640302427,337]],"bottom":[["dehydrocholate-acid_BRD-A11551002-001-04-6::0.00976562::HTS002",-0.19863975190800207,-3.558623412934634,331],["dehydrocholate-acid_BRD-A11551002-001-04-6::0.15625::HTS002",-0.19503517966578543,-3.446138390568071,331],["isoetharine_BRD-A24587114-066-22-5::0.00061034::HTS002",-0.19087662241907405,-2.928245170129369,286],["emetine_BRD-A25687296-300-04-3::10::HTS002",-0.20547399348798612,-3.7574508833090636,329],["SKF-96365_BRD-A72703248-003-04-9::0.15625::HTS002",-0.19440411818391362,-2.986024218898026,282],["oxymetazoline_BRD-K16195444-003-26-0::0.00061034::HTS002",-0.1932395017495874,-3.4527295550077692,338],["SB-242235_BRD-K19412355-001-01-0::0.00976562::HTS002",-0.19446893597700343,-2.9334298085045045,276],["Y-27632_BRD-K44084986-300-08-4::0.0024414::HTS002",-0.20940938395203362,-3.4503730955304013,287],["AVN-944_BRD-K62196610-001-01-6::0.00976562::HTS002",-0.21208680061335586,-3.5176557152144996,286],["epothilone-a_BRD-K71823332-001-03-7::10::HTS002",-0.22417870184550215,-4.436893266191506,333],["hexaminolevulinate_BRD-K73753850-003-01-6::0.039062499::MTS006",-0.24639849303488826,-5.312622735178226,336],["pyritinol_BRD-K82181219-001-04-3::0.00976562::HTS002",-0.24450351835232112,-3.400834111058876,206],["bortezomib_BRD-K88510285-001-11-1::0.00976562::HTS002",-0.22172177596149492,-4.326618760382219,331]]}}}
{"ccle_proteomics":{"corr":{"top":[["FMN1_Q68DA7",0.307843188486405,-5.147823597536364,205],["GRAMD4_Q6IC98",0.24351364749763568,-3.7589245731619467,233],["TDG_Q13569",0.23090533595766516,-3.560392742884995,244],["VTI1B_Q9UEU0",0.26828741786544397,-4.988221262885956,263],["TM7SF3_Q9NS93",0.23531604356825886,-3.7082738518288982,246]],"bottom":[["NIPSNAP3A_Q9UFN0",-0.22582294322961036,-3.653701005419876,263]]},"para":{"top":[["FMN1_Q68DA7",0.25702152258209865,-3.700967175478795,205],["MREG_Q8N565-2",0.24133560242874091,-3.60201218913074,226],["GRAMD4_Q6IC98",0.31633692742704494,-6.084724796632209,233],["VTI1B_Q9UEU0",0.2909254265374714,-5.799007951091618,263]],"bottom":[["NIPSNAP3A_Q9UFN0",-0.2262584154240738,-3.6662012247578666,263]]}}}
{"depmap_gene_tpm":{"corr":{"top":[["CCS_9973",0.14486309136238493,-4.232797820140302,764]],"bottom":[]},"para":{"top":[["MPPE1_65258",0.14436117635787787,-4.206905302359382,764]],"bottom":[]}}}
{"avana":{"corr":{"top":[["KRTAP10-1_386677",0.17625957283828747,-6.059286811272474,769],["DDOST_1650",0.19193218806703055,-7.088728658523767,769],["DPYSL4_10570",0.21763320145579007,-8.970559766111714,769],["PNLIP_5406",0.1759541209569106,-6.040094841579859,769],["KNDC1_85442",0.19385058788114318,-7.220813356338837,769],["NECAP1_25977",0.18460537066229735,-6.596511261155803,769],["PLEKHG6_55200",0.21355595065804656,-8.65567016632811,769],["GRIN2C_2905",0.18655638524726803,-6.725691528368038,769]],"bottom":[["C12orf42_374470",-0.17923220146361246,-6.247790632673697,769],["POU6F1_5463",-0.1764084147443167,-6.068650741378873,769],["ZNF480_147657",-0.1836040249718195,-6.530740776968788,769],["CCNI_10983",-0.1788272889941089,-6.221929078947809,769],["HINT2_84681",-0.1923152949006875,-7.114999420214616,769],["MSRB3_253827",-0.1776266136183233,-6.145585364966866,769],["ERMN_57471",-0.1928024533636339,-7.148482190248714,769],["TMEM196_256130",-0.17101915642076912,-5.734596253545909,769],["PCDHAC1_56135",-0.1798530614824026,-6.287558015757685,769],["PSME2_5721",-0.18720493130363544,-6.7689359814625085,769],["ZNF727_442319",-0.18968322578424207,-6.93558255741809,769],["ZNF740_283337",-0.17984337978707812,-6.28693682907354,769],["NHLH2_4808",-0.17495500347414528,-5.977549751206562,769],["AHSP_51327",-0.20106110384685622,-7.729261500370936,769],["OR13C9_286362",-0.17145064869880103,-5.760964966662963,769],["SMAGP_57228",-0.1854354469999993,-6.651305044865441,769]]},"para":{"top":[["PNLIP_5406",0.16588745324748613,-5.426007733391423,769],["KNDC1_85442",0.1868749249844361,-6.746912550047615,769],["DPYSL4_10570",0.2035707233574451,-7.910696596195668,769],["GRK5_2869",0.16182099785231077,-5.188014575370994,769]],"bottom":[["ASCL3_56676",-0.15099180889421276,-4.582162181021297,769],["METTL11B_149281",-0.1502834677033386,-4.543938343640585,769],["CCNI_10983",-0.18156497350150796,-6.397921368251673,769],["ZNF441_126068",-0.20316345281578083,-7.8810950208467085,769],["IPO4_79711",-0.14889723524955065,-4.408100473015446,757],["ZNF740_283337",-0.17186089314329192,-5.7860960118063245,769],["PSME2_5721",-0.16620810223457372,-5.445019359931127,769],["ZNF727_442319",-0.1531275327344676,-4.6984513028623285,769],["SMAGP_57228",-0.1841522071099681,-6.566702006159825,769]]}}}
{"drive":{"corr":{"top":[["HMX2_3167",0.21685148061407908,-3.490950246975783,271],["LRIG3_121227",0.220215657565933,-3.529460547604645,266],["MTOR_2475",0.24224526849150713,-4.322104122192327,276],["LOC107984289_107984289",0.28873289820536396,-5.874647054085557,271]],"bottom":[["GPR85_54329",-0.20832768978685479,-3.202182458657466,266],["NAT8_9027",-0.23797596388590986,-4.118791647306257,271],["CHRFAM7A_89832",-0.22276225724719362,-3.6254434414108117,268],["CHEK1_1111",-0.21728857306481483,-3.559415389550889,276],["PLEKHA4_57664",-0.24042001935398077,-4.126897374739111,266],["LRRD1_401387",-0.21867561435578628,-3.486062899382466,266]]},"para":{"top":[["LOC107984289_107984289",0.2408476552460698,-4.208676752314538,271],["HMX2_3167",0.20951542567391787,-3.286407520804252,271],["NKIRAS2_28511",0.22891540530895088,-3.7802719912862868,266],["FOXF1_2294",0.23778220040166556,-4.112766351562444,271],["POLB_5423",0.24094057375735262,-4.252742363647424,274],["VNN1_8876",0.2359540942101042,-4.1219663374686375,276],["MTOR_2475",0.23742116601947122,-4.168157144912609,276],["NUDT11_55190",0.2241580948989596,-3.641925181798925,266]],"bottom":[["GJA5_2702",-0.23184671262223772,-3.8669625839477977,266],["GUCY2D_3000",-0.22313153532263313,-3.6124508057076414,266],["CHRFAM7A_89832",-0.2527544461090006,-4.547970459751751,268],["PRKAR2A_5576",-0.2314756426493421,-3.881313214832826,268],["NR1H4_9971",-0.22380370535850247,-3.6911574207081665,271],["ARHGEF19_128272",-0.219162209371424,-3.556802412648728,271],["PLEKHA4_57664",-0.23326372421086647,-3.909266672210046,266],["EHMT2_10919",-0.22023855642171358,-3.5877110906370504,271],["LRRD1_401387",-0.22520877562984348,-3.672231089897965,266],["NPR1_4881",-0.21287961843933859,-3.325409619471941,266],["ATR_545",-0.23457927789010105,-4.078944179727317,276],["ARHGAP26_23092",-0.2169163974123769,-3.4592367216020845,268],["SLC7A8_23428",-0.21370501805778022,-3.4566717283637884,276],["PARP3_10039",-0.24026223427319252,-4.190263518254054,271]]}}}
{"achilles":{"corr":{"top":[["OAS2_4939",0.21092541376895008,-4.187110206133135,353],["GALK2_2585",0.2353667810534577,-5.105465964449699,353]],"bottom":[["C8G_733",-0.19727715097885667,-3.7180084961748014,353],["ASMTL_8623",-0.20688218534566707,-4.044926788893802,353],["ZNF709_163051",-0.19718772816763872,-3.715036106766697,353],["MRM2_29960",-0.2029891674808761,-3.9105909025858425,353],["SOD2_6648",-0.19426397656563704,-3.6185702066150034,353],["LOC105369166_105369166",-0.25756164156863226,-3.7783044762652613,209]]},"para":{"top":[["SIM1_6492",0.21402632021187756,-4.298006662504482,353],["OAS2_4939",0.19313863894712469,-3.5818118973449793,353],["GALK2_2585",0.19688934493734514,-3.705127385691286,353]],"bottom":[["GCC2_9648",-0.23668541439715246,-3.251930177317776,209],["BACE1_23621",-0.1994701065161353,-3.7913112546497056,353],["ZNF709_163051",-0.20192409143707643,-3.874274752625141,353],["COL16A1_1307",-0.19257103853015595,-3.5633496859747233,353],["ASMTL_8623",-0.22005476534850812,-4.518230512142165,353],["MRM2_29960",-0.2264460647724571,-4.758447149288115,353],["LOC105369166_105369166",-0.2550636929698392,-3.712939924725086,209],["FBXL19_54620",-0.20409635885275734,-3.948541477999699,353],["FNBP1_23048",-0.24501656407718564,-3.4566053584794925,209],["MGAT5B_146664",-0.19339911794907788,-3.5903019468153614,353],["PRR15L_79170",-0.2059511453476386,-4.0125711607835,353]]}}}
{"ccle_rrbs_tss1kb":{"corr":{"top":[["NDUFB7_19_14682889_14683889",0.1672802197779629,-3.3975554867192765,444]],"bottom":[["BRF1_14_105714222_105715222",-0.19789734304914905,-4.81014471125362,470],["TTLL3_3_9850598_9851598",-0.17333087762870653,-3.777072718614755,467],["C16orf90_16_3545421_3546421",-0.15947301198647382,-3.2060411538162743,457],["BTBD6_14_105713878_105714878",-0.19250454518641458,-4.568166646434583,469],["KIAA1656_22_30773894_30774894",-0.17277482711123396,-3.6086584482740465,446],["PRR3_6_30523485_30524485",-0.15827343570440885,-3.241520580474078,470]]},"para":{"top":[["NDUFB7_19_14682889_14683889",0.1851265514971877,-4.059721563791358,444],["KLHDC10_7_129709348_129710348",0.17829109410803734,-3.96974755713321,467],["RRAGB_23_55743109_55744109",0.15503716611826351,-2.9627386295756915,441],["TAF1_23_70585088_70586088",0.15179205307278498,-2.989098554737994,465]],"bottom":[["YPEL3_16_30107537_30108537",-0.16232887971028498,-3.3681527350502725,467],["DNASE1_16_3701939_3702939",-0.16333865237574285,-3.3669110570218144,461],["BRF1_14_105714222_105715222",-0.16726914780136892,-3.568370486494166,470],["DDX11L2_2_114361294_114362294",-0.16815619444665322,-3.5350666647759184,460],["MIR330_19_46142345_46143345",-0.1610260673460156,-3.3030473797824027,464]]}}}
{"ccle_gene_tpm":{"corr":{"top":[["RP5-981O7.2_ENSG00000229591.1",0.15146628335570228,-3.557027803243756,572],["IGHV3OR15-7_ENSG00000259490.2",0.16335689057963357,-4.061428505800171,572],["RP11-511H9.3_ENSG00000258230.2",0.16457683904006143,-4.115217697502074,572],["RP11-508N12.2_ENSG00000230782.1",0.14956428351096837,-3.4796643350986565,572],["RP11-6B19.1_ENSG00000255565.1",0.1574151343976295,-3.8048886459793336,572],["RP11-46I1.1_ENSG00000257947.1",0.1628536316852779,-4.039350301448238,572],["CTD-2547H18.1_ENSG00000254988.1",0.16691157055147451,-4.219225169259873,572]],"bottom":[["RBPJP6_ENSG00000227924.2",-0.17411222295499018,-4.5488650042695635,572],["CNN2P7_ENSG00000215562.2",-0.14683300891048548,-3.370158581705355,572],["RP4-680D5.4_ENSG00000236500.1",-0.16178932514799724,-3.9928722456636514,572],["FAM179A_ENSG00000189350.8",-0.16410361063216755,-4.09430708620364,572],["HCRT_ENSG00000161610.1",-0.16095517057044714,-3.956647364100767,572],["C2orf27B_ENSG00000186825.3",-0.15548391977910359,-3.723442165120131,572],["RP11-826N14.2_ENSG00000248469.1",-0.15226863241333105,-3.5899362619931443,572],["RP11-146D12.5_ENSG00000224681.1",-0.16249529970686505,-4.023669644779706,572]]},"para":{"top":[["RP11-434I12.2_ENSG00000250295.2",0.15110811135342866,-3.5423896791925777,572],["CTD-2547H18.1_ENSG00000254988.1",0.17454930731898277,-4.569307523818437,572],["RP11-481A20.4_ENSG00000255174.1",0.1540017686221111,-3.6615753176755566,572],["MPPE1_ENSG00000154889.12",0.1567545473735719,-3.77692275579751,572],["C5orf28_ENSG00000151881.10",0.1553130719557198,-3.7162824083685315,572],["AC002551.1_ENSG00000261736.1",0.16201832100748131,-4.002847978964674,572],["AC098592.8_ENSG00000232841.1",0.1740527714524264,-4.5460882898430865,572],["ECT2L_ENSG00000203734.7",0.1718583359023738,-4.444239162863386,572],["RP11-70P17.1_ENSG00000225643.1",0.15027812601510895,-3.508593103941345,572]],"bottom":[["CNN2P7_ENSG00000215562.2",-0.14136627756192421,-3.156576186097066,572],["RPSAP56_ENSG00000225178.4",-0.16782701028399039,-4.260389118402142,572],["RP11-149F8.3_ENSG00000268951.1",-0.14341623359650502,-3.2357948858368477,572],["RP11-344A5.1_ENSG00000225299.1",-0.16377735970831409,-4.079924452649823,572],["IFNA21_ENSG00000137080.4",-0.14368084956210006,-3.2460968641655943,572]]}}}
{"ccle_rrbs_tss_clusters":{"corr":{"top":[["SAP30_2",0.21129859738157353,-3.0368683166473462,243],["PIGA_3",0.20497490665480617,-3.3932714852204553,294],["KRBOX4_3",0.2505303103872709,-3.9551074635743184,233],["TMSB4X_2",0.22177549846543315,-2.9386659943092015,212],["TECPR2_2",0.2379000859718583,-4.35687953763891,289]],"bottom":[["TOPAZ1_3",-0.402375534503804,-4.921285295950491,111],["BRF1_7",-0.1937627828990408,-4.674318253456226,475]]},"para":{"top":[["LOC101926913_3",0.2089708254960383,-3.365054090846222,280],["CDC42SE2_2",0.21597832017004048,-4.105779230445579,329],["MIR6069_2",0.2149333996640513,-3.0285858549418596,234],["ERCC6L_3",0.2047459066660314,-3.1670895681024698,272]],"bottom":[["TUBB8_2",-0.2156944278914948,-3.391830630047165,265],["TOPAZ1_3",-0.3824933357066727,-4.464730805328048,111],["RBMXL3_1",-0.21926722454360453,-3.101031809622341,231],["TYRO3_5",-0.195227849343389,-4.071254466764486,400],["BRF1_7",-0.19827714948840344,-4.872479171113388,475],["ZIM3",-0.25777151827606337,-3.337729775006762,181],["ZNF837_3",-0.20377368667492307,-3.190525289335348,277]]}}}
{"ccle_rrbs_cgi_clusters":{"corr":{"top":[["23_12991107_12993853-2",0.22177549846543315,-2.9386659943092015,212],["23_46304249_46308838-3",0.2505303103872709,-3.9551074635743184,233],["14_102827156_102831873-2",0.2379000859718583,-4.35687953763891,289],["4_174292576_174295273-2",0.21129859738157353,-3.0368683166473462,243]],"bottom":[["3_44281239_44285838-3",-0.402375534503804,-4.921285295950491,111],["19_19609938_19614307-2",-0.20974495937455176,-3.156257629469478,258]]},"para":{"top":[["23_71456560_71461202-3",0.2047459066660314,-3.1670895681024698,272],["2_171625225_171630062-3",0.2089708254960383,-3.365054090846222,280]],"bottom":[["14_105712491_105715408-3",-0.20113169837630024,-5.000122713090355,475],["3_44281239_44285838-3",-0.3824933357066727,-4.464730805328048,111],["10_92526_97301-2",-0.2156944278914948,-3.391830630047165,265],["20_863828_868064-1",-0.270120294846887,-3.7855669776471554,190],["12_63023588_63028213-2",-0.20784256916558438,-3.0963081935790946,257]]}}}
