{"depmap_hotspot":{"corr":{"top":[["BLOC1S3",0.08687861671104077,-1.7932572067609616,10.0,757.0],["C21orf67",0.09206669171139485,-1.968971009087768,9.0,758.0],["GJB6",0.09414706580701758,-2.041784523396849,11.0,756.0],["KRTAP19-3",0.1299344583181326,-3.5105521895241143,8.0,759.0],["LCAT",0.09860689477421258,-2.2024521482386654,19.0,748.0],["SPDYE4",0.11129973138370897,-2.6942287654141968,9.0,758.0],["UBOX5",0.10093378319791338,-2.2887681030249256,22.0,745.0],["UPP1",0.10691855775858697,-2.518669390505368,13.0,754.0]],"bottom":[["ALS2CR11",-0.10318817697561126,-2.3740308689925658,41.0,726.0],["BRF1",-0.10212307982369323,-2.3335470914315195,45.0,722.0],["C9orf156",-0.12136306448419919,-3.120967363005111,19.0,748.0],["CBX8",-0.12048968611259935,-3.08262551938388,40.0,727.0],["CECR1",-0.10898477295964752,-2.6006974476743308,16.0,751.0],["DCAF8L1",-0.11247591008561962,-2.7424110912333526,31.0,736.0],["DFFA",-0.10966839125472255,-2.628138394770911,17.0,750.0],["DNAJB8",-0.10697178403909903,-2.520765294941491,17.0,750.0],["FAM131A",-0.11949988157070979,-3.039473810883276,21.0,746.0],["FAM131B",-0.1064261755010057,-2.499323702439289,25.0,742.0],["FMN2",-0.10334824691759933,-2.3801462110186935,143.0,624.0],["FMO2",-0.10480290343276341,-2.436094045115285,26.0,741.0],["FZD1",-0.11034314709013064,-2.6553708832227083,34.0,733.0],["GLS",-0.10322352965579809,-2.3753807882318534,21.0,746.0],["GNB2",-0.12861277901198598,-3.448899641347689,21.0,746.0],["ICK",-0.10401806739979803,-2.405824597485185,25.0,742.0],["IL1RL1",-0.10918864925850152,-2.6088654865238405,33.0,734.0],["IQUB",-0.10026474736523763,-2.2637748045747847,45.0,722.0],["KIAA2022",-0.1260043387657825,-3.328917545727995,68.0,699.0],["KLHDC7B",-0.11502275459773528,-2.8482744750498385,11.0,756.0],["KPNA7",-0.10505707710965859,-2.4459390734960276,25.0,742.0],["LILRB4",-0.10903781529014168,-2.6028212352582965,22.0,745.0],["LYSMD4",-0.10213008487555496,-2.333812172533921,11.0,756.0],["MEDAG",-0.11335711809052945,-2.7788024839436725,22.0,745.0],["MMADHC",-0.13031809193787677,-3.528555938621814,14.0,753.0],["MORC1",-0.1059682396901428,-2.4814009842916906,56.0,711.0],["NFU1",-0.10154520353914236,-2.311733064389961,10.0,757.0],["NOX5",-0.1120409925738303,-2.7245426424472075,48.0,719.0],["NTN3",-0.10254831658229548,-2.349666890148902,26.0,741.0],["OR1L6",-0.10416003803251463,-2.4112855611709256,17.0,750.0],["OR4D6",-0.10450539178827477,-2.424596555012972,20.0,747.0],["OR4N2",-0.10551461093012524,-2.4637128905687926,35.0,732.0],["PALM2",-0.11487013494032328,-2.8418714816789072,10.0,757.0],["PPL",-0.11284926125332313,-2.757798812020718,71.0,696.0],["QDPR",-0.1075916608677346,-2.545241117844995,12.0,755.0],["RDM1",-0.12265626955626618,-3.1781983575527986,13.0,754.0],["RNGTT",-0.10709056579322625,-2.525445862671231,20.0,747.0],["SIL1",-0.11617955095085279,-2.8970522013466122,19.0,748.0],["SKIL",-0.10750191661124021,-2.541689950869953,22.0,745.0],["SKIV2L2",-0.10299213892256166,-2.3665524950066272,33.0,734.0],["SOAT2",-0.11173079884387176,-2.711835713700875,18.0,749.0],["SOD3",-0.10221229836524458,-2.3369244119766415,16.0,751.0],["TLX1",-0.10385329792198157,-2.399494713685495,14.0,753.0],["TMC6",-0.14521102250117982,-4.265451434493197,44.0,723.0],["TTC26",-0.124156163677171,-3.2452632163975506,26.0,741.0],["UBE2D4",-0.12282707609449439,-3.185798396518556,10.0,757.0],["USP24",-0.10308465416245424,-2.3700802032819577,68.0,699.0],["VCPKMT",-0.11250473873920948,-2.7435976647914146,10.0,757.0],["ZC3HC1",-0.10251701524479849,-2.3484783665293314,21.0,746.0],["ZNF254",-0.1046629321211881,-2.430681267074261,37.0,730.0]]},"para":{"top":[["GJB6",0.10564022661375692,-2.761228346110853,11.0,756.0],["KRTAP19-3",0.12913531138704834,-3.753754801264308,8.0,759.0],["LCAT",0.11123056951633106,-2.9821011877059274,19.0,748.0],["SPDYE4",0.10840593198476603,-2.86907498749405,9.0,758.0],["UPP1",0.1009075083636981,-2.5820461428475867,13.0,754.0]],"bottom":[["C9orf156",-0.12958588659080733,-3.7749404320997915,19.0,748.0],["CDC42EP3",-0.1067545749957586,-2.804438427708084,11.0,756.0],["CRLF1",-0.11653891371713455,-3.200487691348057,15.0,752.0],["FAM45A",-0.10342996551624226,-2.676495720216074,8.0,759.0],["GNB2",-0.14188293283084524,-4.365302841506459,21.0,746.0],["HP",-0.09703422075285001,-2.440423665238877,12.0,755.0],["IFIT5",-0.10120402681051732,-2.5930749600823586,13.0,754.0],["KLF9",-0.10519448726095626,-2.7440515568115593,11.0,756.0],["KLHDC7B",-0.10928043132829567,-2.903801141332755,11.0,756.0],["LYSMD4",-0.10435253515011056,-2.7117735795192477,11.0,756.0],["MAP1LC3B2",-0.09558701110347986,-2.3886982150208396,12.0,755.0],["MMADHC",-0.13279976793913637,-3.924474936635883,14.0,753.0],["NFU1",-0.0964221013033756,-2.418387779168793,10.0,757.0],["P2RY4",-0.09816171080565692,-2.481127606856283,11.0,756.0],["PALM2",-0.11308508623924832,-3.0571487452609705,10.0,757.0],["PCBD2",-0.10042244342498001,-2.563894958559966,9.0,758.0],["PRG2",-0.08393599273473691,-1.9953351977229916,9.0,758.0],["RAD23A",-0.11050311553364421,-2.952775164806026,16.0,751.0],["RDM1",-0.12567820322874693,-3.5971506553011685,13.0,754.0],["SOAT2",-0.11762518905675243,-3.2463534888230474,18.0,749.0],["SPINK7",-0.10687859703667733,-2.809106822561091,8.0,759.0],["TLX1",-0.10315185684573527,-2.666225493924182,14.0,753.0],["TNFSF14",-0.11095679221317112,-2.970787891956565,10.0,757.0],["TPP1",-0.10977748796233641,-2.923726430210768,15.0,752.0],["VCPKMT",-0.10628492727787969,-2.786134376365594,10.0,757.0],["YBEY",-0.10195198057891292,-2.6207833381266346,8.0,759.0],["ZMYND12",-0.09610635712329832,-2.4071498142580308,11.0,756.0],["ZNF286B",-0.10326295006548673,-2.670326132689514,11.0,756.0],["ZNHIT3",-0.08670844965665363,-2.0851329375130843,8.0,759.0],["ZNHIT6",-0.1016842714295147,-2.6109603838008453,12.0,755.0]]}}}
{"depmap_damaging":{"corr":{"top":[["NCOA2",0.10670655412210296,-2.5103302660536944,12.0,755.0],["OFD1",0.10762318881937255,-2.5464892865869215,23.0,744.0],["USH1C",0.12327227778006623,-3.2056526243232453,8.0,759.0]],"bottom":[["CILP",-0.10962926561523739,-2.6265638119379244,9.0,758.0],["COL5A2",-0.11355589331922485,-2.787046022576679,11.0,756.0],["ITSN1",-0.1413293923187126,-4.066216983179076,13.0,754.0],["PZP",-0.11558656418728627,-2.8719939679786135,10.0,757.0],["SYNJ1",-0.08737130513740438,-1.8095853803918356,8.0,759.0]]},"para":{"top":[["NCOA2",0.10234856438332393,-2.6358641249159,12.0,755.0],["OFD1",0.09463556052723159,-2.355267754131854,23.0,744.0],["USH1C",0.09748904567011452,-2.456622188757495,8.0,759.0]],"bottom":[["ASNS",-0.11466695554706405,-3.1221906799829537,9.0,758.0],["BRAF",-0.1150887542474512,-3.1398304658946508,12.0,755.0],["BRF1",-0.11192457619207476,-3.0101010440406966,16.0,751.0],["CALCR",-0.10017553088657868,-2.5550399556212793,17.0,750.0],["COL1A1",-0.11731888059238221,-3.2332239188529166,12.0,755.0],["COL5A2",-0.10564022661375691,-2.761228346110853,11.0,756.0],["EPG5",-0.10929991564997066,-2.904616554042115,12.0,755.0],["ITSN1",-0.10585708551444913,-2.769682837021647,13.0,754.0],["RNF111",-0.10400954749965267,-2.6987614908431796,13.0,754.0]]}}}
{"ccle_rrbs_enhancer_clusters":{"corr":{"top":[],"bottom":[]},"para":{"top":[],"bottom":[["3-193661647-193664478-0_enh",-0.1913526563892801,-4.297351012889896,443],["7-95234622-95238540-1_enh",-0.1698666559587775,-3.496365505145732,445]]}}}
{"ccle_mirna":{"corr":{"top":[["hsa-miR-1261_miR00078.1",0.14261070081910177,-3.0219105793445418,534]],"bottom":[]},"para":{"top":[],"bottom":[]}}}
{"prism_primary_logfold":{"corr":{"top":[["cyanopindolol_BRD-A47884604-051-01-2::2.5::HTS",0.16073777290807384,-2.85149217681865,392],["meloxicam_BRD-A84174393-236-07-1::2.5::HTS",0.18033397350441288,-3.3474864782940346,375],["chromanol-(+\/-)_BRD-M02075109-001-01-1::2.5::HTS",0.18270477604584098,-3.5584669461196605,392]],"bottom":[["CGP-55845_BRD-A89672324-001-03-0::2.5::HTS",-0.17306100368048036,-3.216406977130697,389],["thiazovivin_BRD-K03164761-001-02-1::2.5::HTS",-0.1870834365927381,-3.6930984118098675,390],["butamben_BRD-K27217864-001-22-3::2.5::HTS",-0.16845467582827203,-3.0700243089069876,389]]},"para":{"top":[["cyanopindolol_BRD-A47884604-051-01-2::2.5::HTS",0.1546177594347665,-2.669439592981733,392],["dobutamine_BRD-A78322124-003-14-0::2.5::HTS",0.17098972679050503,-3.1501294242686106,389],["meloxicam_BRD-A84174393-236-07-1::2.5::HTS",0.19212453908216642,-3.7402890320521385,375],["GR125487_BRD-K62594868-082-08-6::2.5::HTS",0.17442316554593876,-3.289199523573923,393],["telotristat-ethyl_BRD-K94559059-091-01-6::2.5::HTS",0.166009519920595,-3.0003671974883113,390],["IOX2_BRD-K98251413-001-04-0::2.5::HTS",0.17281066767072367,-3.2295787454762883,392],["felbamate_BRD-K99107520-001-24-1::2.5::HTS",0.16180440776396268,-2.877636277823441,391],["chromanol-(+\/-)_BRD-M02075109-001-01-1::2.5::HTS",0.17089395132432317,-3.167858727302793,392]],"bottom":[["thiazovivin_BRD-K03164761-001-02-1::2.5::HTS",-0.17602761604648637,-3.31996316110154,390],["modaline_BRD-K25317177-065-01-4::2.5::HTS",-0.15454679122956563,-2.650184424560094,389],["butamben_BRD-K27217864-001-22-3::2.5::HTS",-0.20377085065839465,-4.288006291186511,389],["trientine_BRD-K37111771-300-02-6::2.5::HTS",-0.16002764318510102,-2.8239245366829415,391]]}}}
{"prism_secondary_logfold":{"corr":{"top":[["emetine_BRD-A25687296-300-04-3::0.00061034::HTS002",0.21379699729107982,-4.032033336829664,329],["BAM7_BRD-K07442505-001-03-6::0.15625::HTS002",0.2034663468231819,-3.6830451999755986,328],["bendamustine_BRD-K17068645-003-04-2::0.00061034::HTS002",0.2077499449972252,-3.922978962610301,338],["chlorhexidine_BRD-K52256627-300-06-6::0.625::HTS002",0.20641667948664494,-3.4958615027234763,300],["GDC-0941_BRD-K52911425-001-09-8::0.00061034::HTS002",0.19761042184441874,-3.5447663754574985,333],["BMS-626529_BRD-K97883416-001-01-4::2.5::HTS002",0.19798184738753846,-3.528675252571182,330]],"bottom":[["midodrine_BRD-A79981887-003-16-4::0.0024414::HTS002",-0.23286878160539282,-4.524097767207547,315],["selinexor_BRD-K21361524-001-01-1::0.009765625::MTS006",-0.18342830504841195,-3.1373384949800984,336],["camptothecin_BRD-K37890730-001-15-1::10::HTS002",-0.18385623724720365,-3.198206858346844,342],["ganetespib_BRD-K38852836-001-02-1::0.625::MTS010::PROS005_PR500",-0.19307984159581848,-3.341764720369853,326],["ispinesib_BRD-K64881305-001-03-7::0.00977::MTS010::PROS001_PR500",-0.20693067746756916,-3.7744343661770308,326],["NMS-1286937_BRD-K83699324-001-01-1::0.15625::HTS002",-0.22727624493117818,-3.6832512055964544,262]]},"para":{"top":[["emetine_BRD-A25687296-300-04-3::0.00061034::HTS002",0.21880469268561073,-4.202442064541709,329],["ajmaline_BRD-A48300215-001-04-8::0.00976562::HTS002",0.21775071782676797,-3.595287924362567,278],["sulfanilamide_BRD-K02594908-001-16-4::0.00976562::HTS002",0.19784040214399318,-3.20850262298732,296],["bendamustine_BRD-K17068645-003-04-2::0.00061034::HTS002",0.2014826095675053,-3.7158103604934953,338],["chlorhexidine_BRD-K52256627-300-06-6::0.625::HTS002",0.2174753730268697,-3.8335827231328694,300],["BMS-626529_BRD-K97883416-001-01-4::2.5::HTS002",0.20196320524123584,-3.6544672733436165,330]],"bottom":[["midodrine_BRD-A79981887-003-16-4::0.0024414::HTS002",-0.21503368335829523,-3.9212818567142804,315],["clofarabine_BRD-K34022604-001-06-6::0.15625::HTS002",-0.1897686232575193,-3.3365840399932867,337],["camptothecin_BRD-K37890730-001-15-1::10::HTS002",-0.21576770736371512,-4.240852302479652,342],["acesulfame-potassium_BRD-K50850824-237-04-8::0.0390625::HTS002",-0.18747587777188301,-3.2833919250052928,339],["ispinesib_BRD-K64881305-001-03-7::0.00977::MTS010::PROS001_PR500",-0.2299517047092922,-4.558777341661381,326],["crizotinib_BRD-K78431006-001-15-1::0.00061::MTS010::PROS004_PR500",-0.22275936174291053,-4.363109532513737,331]]}}}
{"ccle_proteomics":{"corr":{"top":[["USP48_Q86UV5",0.25407883574373935,-4.51525124812639,263],["EMILIN2_Q9BXX0",0.3517284984202133,-3.569852216512296,103],["DAXX_Q9UER7",0.25362510743646133,-4.500593340876193,263],["CCDC61_Q9Y6R9",0.24651511462176603,-3.1877897737275136,188],["C1orf109_Q9NX04",0.2667048398696731,-3.870300951558057,200],["PHF13_Q86YI8",0.3388471504802399,-3.5324326618049535,110],["ADAL_Q6DHV7",0.2637949747519357,-3.794665997108773,200]],"bottom":[["ACAA1_P09110",-0.267599779220072,-4.964703120084977,263],["VTI1A_Q96AJ9",-0.24835924116264524,-4.332469685349495,263],["MAOA_P21397",-0.2691222693222636,-4.897160444666028,256],["JMJD7_P0C870",-0.27958330429875083,-3.3511733886384487,154],["SLC16A7_O60669",-0.23648088620452817,-3.1664095553873053,203]]},"para":{"top":[["FBXO42_Q6P3S6",0.2926851040660811,-3.201250907001491,133],["DAXX_Q9UER7",0.2509663620738021,-4.415249684935705,263]],"bottom":[["C2orf72_A6NCS6",-0.29167723830392495,-2.8270985597407283,116],["ACAA1_P09110",-0.2677978529032739,-4.97147088985839,263],["MAOA_P21397",-0.24590089476313756,-4.155085320879622,256],["JMJD7_P0C870",-0.2448559146816623,-2.6557486951572855,154],["F8_P00451",-0.2307221336274511,-3.694649718096032,255]]}}}
{"depmap_gene_tpm":{"corr":{"top":[["SOST_50964",0.12250687246707338,-3.1609613944361707,764]],"bottom":[["ABCB11_8647",-0.1598883859902305,-5.047501337043012,764],["SPATA6L_55064",-0.17905296029708456,-6.199631655595733,764]]},"para":{"top":[["ATXN3L_92552",0.11679156460266013,-2.913348658701697,764]],"bottom":[["SPATA6L_55064",-0.173679458857412,-5.8636389647390175,764],["B3GNT4_79369",-0.16331716183174586,-5.244248192931305,764]]}}}
{"avana":{"corr":{"top":[["KCNS2_3788",0.2097680435090271,-8.368701693913197,769],["TMEM74_157753",0.20753851033701146,-8.20229203003417,769],["DCSTAMP_81501",0.22849776231018448,-9.84030689585868,769],["ZFPM2_23414",0.19737267481243742,-7.360029030747131,757],["GDF6_392255",0.1925743364628101,-7.132792823662746,769],["PPM1K_152926",0.18850718643645634,-6.856226610203699,769],["AARD_441376",0.21358702008536415,-8.658046116072715,769],["RRM2B_50484",0.1933736217253607,-7.18784871965912,769],["NCALD_83988",0.20452296471806594,-7.980146886725145,769],["HOXD8_3234",0.1971964381642621,-7.454383365046611,769]],"bottom":[["MMAA_166785",-0.1843851391917004,-6.582015161401834,769],["METTL23_124512",-0.15597047428081223,-4.855678353920504,769],["IDE_3416",-0.15246002504859518,-4.661937832762312,769],["SLC6A13_6540",-0.16141695032123687,-5.164681642218095,769]]},"para":{"top":[["KCNS2_3788",0.20191744566527975,-7.7909110302537785,769],["TMEM74_157753",0.1961716314364153,-7.3824093058741305,769],["DCSTAMP_81501",0.2020208517198621,-7.798373653554739,769],["PPM1K_152926",0.1808270147918972,-6.350218524163572,769],["ANGPT1_284",0.16276523529140904,-5.242763615931045,769],["AARD_441376",0.19176693804291453,-7.077413403186552,769]],"bottom":[["SERPINB1_1992",-0.13519657877905716,-3.77028358616244,769],["DDIAS_220042",-0.13358076350065648,-3.691970998916561,769],["METTL23_124512",-0.13638743308890192,-3.8285592400930546,769],["ADGRD1_283383",-0.1455745794899206,-4.294188308619863,769],["SLC6A13_6540",-0.14721413181547385,-4.380289618084045,769]]}}}
{"drive":{"corr":{"top":[["CCDC144CP_348254",0.23242635614708448,-3.884236152473131,266]],"bottom":[["TBX21_30009",-0.24687105808688561,-4.400801528438462,271]]},"para":{"top":[["CCDC144CP_348254",0.24298429914402023,-4.206509119565377,266],["DIDO1_11083",0.21777665361489332,-3.517233909736636,271],["PYGB_5834",0.20455119967742527,-3.1518660835873598,271],["CCR6_1235",0.23135593233547394,-3.8777313766330908,268]],"bottom":[["TBX21_30009",-0.2335945503186879,-3.983763958645378,271]]}}}
{"achilles":{"corr":{"top":[["HBEGF_1839",0.18505809884560812,-3.323883407917314,353]],"bottom":[["POTEB_100996331",-0.24791316798401994,-3.529433695110961,209],["DHRS9_10170",-0.20212718000291946,-3.8811850855395336,353]]},"para":{"top":[["SLC22A14_9389",0.18003005825321283,-3.168679775627967,353],["SSTR1_6751",0.2064817034557284,-4.030991560578902,353]],"bottom":[["ZNF764_92595",-0.19547549357545257,-3.658373763881632,353],["SET_6418",-0.1879728231668536,-3.415706929546514,353]]}}}
{"ccle_rrbs_tss1kb":{"corr":{"top":[],"bottom":[["SLC16A1-AS1_1_113498036_113499036",-0.17354343877441702,-3.8063925380809103,470],["SLC16A1_1_113498685_113499685",-0.1699176094741388,-3.654277605175014,468],["SLC16A1_1_113498975_113499975",-0.1704603524686469,-3.6065360004847817,458]]},"para":{"top":[["ZC3H13_13_46626913_46627913",0.16225969878921126,-3.303565688109865,457],["OVCA2_17_1944276_1945276",0.15602073236496578,-3.0758569360483095,455],["CDC6_17_38443130_38444130",0.1635458940354297,-3.3995443417337965,465],["NBR1_17_41321986_41322986",0.208846117951492,-2.787170355902357,225]],"bottom":[["LINC02583_2_46655328_46656328",-0.16571699567564777,-3.3879195716653965,451]]}}}
{"ccle_gene_tpm":{"corr":{"top":[["DPYD-AS2_ENSG00000235777.1",0.18199840036100637,-4.925382128565738,572],["RP11-255N24.4_ENSG00000232060.3",0.16372668328296672,-4.077692853477116,572],["NAP1L2_ENSG00000186462.7",0.15176957071600294,-3.5694481077143805,572],["RP11-561N12.6_ENSG00000235349.1",0.15414913808854092,-3.6677018224279885,572],["RP3-514A23.2_ENSG00000258871.1",0.15331813173966305,-3.6332266646093294,572],["RP11-298E2.2_ENSG00000237734.1",0.14686323819947433,-3.3713603483515104,572],["TCEA1P2_ENSG00000230409.2",0.15132798582485033,-3.5513718964135177,572],["FTH1P15_ENSG00000218980.2",0.1701491844520275,-4.3657791609984695,572]],"bottom":[["RP11-285E9.5_ENSG00000265121.1",-0.18161462529033034,-4.906681514008791,572],["AC019117.2_ENSG00000236039.1",-0.17274504233865282,-4.485242693063333,572],["RP11-316K19.3_ENSG00000228728.1",-0.17166036261495424,-4.4351122538364525,572],["AC017060.1_ENSG00000226598.1",-0.1877344077120908,-5.20952235516459,572],["ABCB11_ENSG00000073734.8",-0.1796225318205183,-4.8102331952450665,572],["AC010336.1_ENSG00000214248.2",-0.16453461558104088,-4.113349627883185,572],["CTB-184G21.3_ENSG00000267234.1",-0.17408611825442058,-4.547645656856282,572]]},"para":{"top":[["WNT5B_ENSG00000111186.8",0.18422524478244795,-5.034658326053495,572],["RP11-255N24.4_ENSG00000232060.3",0.16376115615290793,-4.0792108373929485,572],["RP11-263C24.1_ENSG00000255081.1",0.15325807693787455,-3.630741988204469,572],["ATP1B3P1_ENSG00000271707.1",0.16416164104398026,-4.096868192628844,572],["RPSAP47_ENSG00000188856.6",0.15651373949555303,-3.7667557285021034,572],["RP11-403B2.6_ENSG00000259383.1",0.1584128342625586,-3.8473363750930774,572],["TCEA1P2_ENSG00000230409.2",0.15682787419318348,-3.780021573187372,572],["FTH1P15_ENSG00000218980.2",0.1886285765724625,-5.254601760851508,572]],"bottom":[["CTC-498J12.1_ENSG00000250237.1",-0.1563988563725021,-3.7619104905636784,572],["RP11-179A10.1_ENSG00000254401.1",-0.15741955838705785,-3.8050763087546544,572],["RP11-72M17.1_ENSG00000258561.1",-0.157174806180249,-3.794701549163632,572],["CTD-2545H1.2_ENSG00000262445.3",-0.16812044399275194,-4.273629491173214,572]]}}}
{"ccle_rrbs_tss_clusters":{"corr":{"top":[["IQCE_2",0.1938328800269226,-2.600371534972103,241]],"bottom":[["LOC100507002_2",-0.20150553188118595,-3.196833926671075,284],["KCTD1_7",-0.22733347819875088,-2.9558491503365985,203],["RDH8_3",-0.2781273739010996,-3.60048336752702,169]]},"para":{"top":[["SLC25A10_1",0.18990751177279544,-4.163798441645823,434],["CYCSP52_2",0.20143193477013427,-2.884196290310484,252],["MRPS31_2",0.22109376854807206,-3.134485175238777,230]],"bottom":[["NRIP3_3",-0.19613274415405973,-4.634671632692327,459],["LOC730668_1",-0.18915640096210562,-4.401769375501567,466],["LOC100507002_2",-0.21715827781596805,-3.6451246204601744,284],["NPC1L1_2",-0.220548230603173,-3.3536095873380485,250],["RDH8_3",-0.27568237080527375,-3.5439179251770043,169]]}}}
{"ccle_rrbs_cgi_clusters":{"corr":{"top":[["23_152913105_152915719-3",0.22668730118312566,-3.946285168072864,285]],"bottom":[["17_25783729_25786358-3",-0.2651921825185986,-4.0826552584112275,215],["18_24128959_24133138-3",-0.22733347819875088,-2.9558491503365985,203],["22_42546152_42548680-1",-0.20336783632842045,-5.005405219840462,465],["2_233741274_233743879-3",-0.25727748097568837,-3.4378670079223186,188]]},"para":{"top":[["13_41343062_41347570-2",0.22109376854807206,-3.134485175238777,230],["11_692761_695568-3",0.20273119316442695,-2.66878176938432,227],["11_33395607_33400494-1",0.206397520399382,-2.669538295551723,219]],"bottom":[["22_42548680_42551207-1",-0.2098166688588269,-3.063357343850728,249],["17_25783729_25786358-3",-0.2631737992429144,-4.026657049331356,215],["10_102971500_102975714-2",-0.2606362340432508,-4.649938586195533,258],["17_63094756_63099000-2",-0.21715827781596805,-3.6451246204601744,284]]}}}
