{"depmap_hotspot":{"corr":{"top":[["ACP1",0.10205896312439697,-2.331121548346851,13.0,754.0],["ACTG1",0.1005280534716781,-2.2735942677181407,24.0,743.0],["CACYBP",0.10645133255212444,-2.5003102429056856,9.0,758.0],["CALR",0.10177856528350727,-2.320529391410661,23.0,744.0],["COL19A1",0.098163192210855,-2.186187170885055,78.0,689.0],["CSE1L",0.10564538509030093,-2.4688053530283547,32.0,735.0],["ERO1LB",0.0989262780033141,-2.214198355044059,24.0,743.0],["IGF1",0.0918262756268675,-1.9606435140449419,12.0,755.0],["IMP3",0.12159270683607488,-3.13109023146832,10.0,757.0],["MT-ND3",0.09551968772274261,-2.0905682454066983,65.0,702.0],["NECAB1",0.10383242852752343,-2.3986935991871876,17.0,750.0],["NEK4",0.09174095064116505,-1.957692373684224,30.0,737.0],["NUBP1",0.10649434345656014,-2.5019973957164603,15.0,752.0],["PRCC",0.10071237601401113,-2.280481260899522,26.0,741.0],["RABL2A",0.11156461067509983,-2.705040664174562,27.0,740.0],["RBL1",0.09942840693456123,-2.2327306723741436,41.0,726.0],["REXO2",0.10460828041526386,-2.4285695470037774,9.0,758.0],["RNF8",0.10169772258927068,-2.317480154895035,14.0,753.0],["RRM2",0.10829315146180392,-2.5730879227926184,12.0,755.0],["S1PR4",0.09445100441019708,-2.0525357644580753,12.0,755.0],["SCN2B",0.0971135307629549,-2.147956376009995,10.0,757.0],["SLC6A14",0.12852249477430563,-3.4447092333594242,24.0,743.0],["TRPC6",0.10985506098144805,-2.6356575554780797,44.0,723.0],["ZP2",0.09770422859714162,-2.16942808065596,31.0,736.0]],"bottom":[["AC104057.1",-0.0967967225284301,-2.1364857365988206,8.0,759.0],["C5orf15",-0.12112586152350413,-3.1105293327820465,8.0,759.0],["CCDC51",-0.10170374225394424,-2.317707134038407,12.0,755.0],["DPPA2",-0.12505456306984283,-3.285787279987328,20.0,747.0],["DYNC2H1",-0.09852195267538234,-2.1993335859048524,133.0,634.0],["EVI2A",-0.11616686267584911,-2.8965148296391985,11.0,756.0],["FAM3B",-0.09484812923848107,-2.066626899496049,13.0,754.0],["FBP2",-0.09171165908176981,-1.9566797880882603,18.0,749.0],["FUS",-0.13054120964875157,-3.539049189957969,32.0,735.0],["HPS6",-0.10404643384504235,-2.4069152122732143,26.0,741.0],["INTU",-0.12267991318613496,-3.17924981072238,29.0,738.0],["KIF2C",-0.10640118462364583,-2.4983438788639005,24.0,743.0],["MIER3",-0.10866716181284679,-2.5879993552891167,17.0,750.0],["MRPL3",-0.1095410997293639,-2.623017443423673,23.0,744.0],["MYADM",-0.09574765500983794,-2.0987275490460715,21.0,746.0],["NACA2",-0.1132188435861058,-2.773075543750287,13.0,754.0],["QSOX1",-0.10476357038268591,-2.4345723804496227,29.0,738.0],["SLC15A2",-0.1200825105020598,-3.0648354777006035,34.0,733.0],["SOD3",-0.10519751083994759,-2.4513873976123515,16.0,751.0],["UBXN2A",-0.12693205055655496,-3.3713327952478354,11.0,756.0],["WASH4P",-0.11578457114056381,-2.880348589107353,18.0,749.0]]},"para":{"top":[["C6orf99",0.1175104023292755,-3.2411638048053537,9.0,758.0],["CACYBP",0.11018309013191722,-2.9396856117959604,9.0,758.0],["CDKN2C",0.09255025316004471,-2.282235452576254,12.0,755.0],["CIAO1",0.10140571354959312,-2.6005190995020584,11.0,756.0],["CTD-3148I10.1",0.10908109599820841,-2.8957206843608065,8.0,759.0],["ELOVL7",0.1057952914280892,-2.767402358658322,17.0,750.0],["FAM64A",0.11311039493844754,-3.05831287497108,13.0,754.0],["HLA-DQA1",0.09533708071712042,-2.379701888461926,9.0,758.0],["IMP3",0.12463498781004695,-3.5504047697645484,10.0,757.0],["NUBP1",0.12213092348135508,-3.4401339093251537,15.0,752.0],["NUFIP1",0.09525085889553478,-2.376807533770266,13.0,754.0],["OR2D2",0.10134089225882689,-2.5981746879400447,13.0,754.0],["PCYT1A",0.09240790465479985,-2.2773138442821206,12.0,755.0],["REXO2",0.10515239817552201,-2.7423336870183475,9.0,758.0],["RNF8",0.10020467159553394,-2.5560424330283427,14.0,753.0],["RRM2",0.1097506975438008,-2.9225598530273773,12.0,755.0],["S1PR4",0.10621570966355298,-2.7835357690700917,12.0,755.0],["SCN2B",0.11067130112912121,-2.959310219204048,10.0,757.0],["SLC6A14",0.15003316293771618,-4.782981801338053,24.0,743.0],["TIGD2",0.10617694221603075,-2.7821536339895916,16.0,751.0],["TRUB2",0.09470617117874651,-2.3575895217376064,14.0,753.0],["ZNF639",0.09380766495637445,-2.3259772454053897,12.0,755.0]],"bottom":[["AC104057.1",-0.10143034962638933,-2.6012808270002004,8.0,759.0],["ASMT",-0.10169780762731916,-2.611558563644609,15.0,752.0],["CCDC51",-0.11171985186635496,-3.001679661699657,12.0,755.0],["COX17",-0.10540062331176514,-2.751825027045265,8.0,759.0],["DPPA2",-0.10558608706353229,-2.75938142909004,20.0,747.0],["EVI2A",-0.10120760714949627,-2.593135518126276,11.0,756.0],["KRTAP19-3",-0.11693470306928025,-3.216803609353673,8.0,759.0],["MIER3",-0.10859516681560004,-2.8768373630437716,17.0,750.0],["MRM1",-0.12307360106018995,-3.481340513549189,11.0,756.0],["REEP4",-0.1215545900377932,-3.4150387489107454,17.0,750.0],["RP11-73M18.2",-0.10577736461037744,-2.7663623891342572,8.0,759.0],["UBXN2A",-0.11893812995816748,-3.3019615668696165,11.0,756.0],["WDR88",-0.10399453194919028,-2.6983367075333047,19.0,748.0]]}}}
{"depmap_damaging":{"corr":{"top":[["NUP98",0.08697464531200326,-1.796433802743991,9.0,758.0]],"bottom":[["C9orf84",-0.11192391621832613,-2.7197430229253032,8.0,759.0],["NEO1",-0.12697869905689838,-3.373473072660959,10.0,757.0],["ZSCAN29",-0.10828593545515805,-2.5728006687336604,9.0,758.0]]},"para":{"top":[["NPAS3",0.09820785601832424,-2.482709709023043,9.0,758.0],["NUP98",0.09536442143427476,-2.380671048108297,9.0,758.0],["RAPH1",0.10550396713732858,-2.75601106699694,12.0,755.0],["RGS12",0.10350777413295859,-2.6795621159095977,10.0,757.0]],"bottom":[["CFTR",-0.10197526944987169,-2.6218140278103994,11.0,756.0],["IQCE",-0.10225428215716392,-2.632185491528325,9.0,758.0],["NEO1",-0.11375992327601744,-3.0848254988652024,10.0,757.0],["RIOK3",-0.08957748877004838,-2.1805539015357,8.0,759.0],["ZSCAN29",-0.10384004375211459,-2.692134993553273,9.0,758.0]]}}}
{"ccle_mirna":{"corr":{"top":[],"bottom":[]},"para":{"top":[["hsa-miR-518e_miR00443.1",0.14886182482678778,-3.25320897955244,534],["hsa-miR-887_miR00654.1",0.15111496623243337,-3.338810089720339,534],["kshv-miR-K12-9_miR00798.1",0.14034166475795795,-2.9401939132872457,534]],"bottom":[]}}}
{"prism_primary_logfold":{"corr":{"top":[],"bottom":[["roscovitine_BRD-K07691486-001-15-5::2.5::HTS",-0.19051274039847407,-3.8217790718690914,391],["diclofenac_BRD-K08252256-236-33-8::2.5::HTS",-0.16904509536643478,-2.9934746326868336,375],["LY255283_BRD-K92492521-001-02-9::2.5::HTS",-0.16779787632709242,-3.069518075116977,392]]},"para":{"top":[],"bottom":[["roscovitine_BRD-K07691486-001-15-5::2.5::HTS",-0.16738529910597624,-3.0498828540339065,391],["WAY-200070_BRD-K08223200-001-01-1::2.5::HTS",-0.1573511797962125,-2.732186619241442,389],["diclofenac_BRD-K08252256-236-33-8::2.5::HTS",-0.18462587238379208,-3.487721359155878,375],["ganciclovir_BRD-K22662435-001-18-3::2.5::HTS",-0.1674890736562437,-3.0464711403565228,390],["AQ-RA741_BRD-K81729199-001-02-8::2.5::HTS",-0.16317814611255133,-2.919536344473077,391]]}}}
{"prism_secondary_logfold":{"corr":{"top":[["fosbretabulin_BRD-K06814349-304-02-7::0.00061::MTS010::PROS002_PR500",0.22389576826936236,-4.143975895422053,309],["CEP-33779_BRD-K37237504-001-02-7::0.15625::HTS002",0.21989611044589855,-4.115007035235244,318],["polydatin_BRD-K43236057-001-07-1::0.000634712::HTS002",0.18575728760619464,-3.1738855203329286,332],["monobenzone_BRD-K54262262-001-09-0::0.0024414::HTS002",0.19753479510128436,-2.7043769038267813,243],["PHA-848125_BRD-K60997853-001-02-3::0.0391::MTS010::PROS004_PR500",0.19866848595939174,-3.5595280744061735,331],["OSI-420_BRD-K73309154-003-02-8::0.0024414::HTS002",0.17672875556354523,-2.949906414782026,337],["benzocaine_BRD-K75466013-001-14-4::0.625::HTS002",0.21839369150973345,-2.976464937103326,222],["darifenacin_BRD-K95773607-004-03-8::0.00061034::HTS002",0.1773318146998306,-2.92969642971221,332]],"bottom":[["K-858_BRD-A67748489-001-10-0::10::HTS002",-0.2110285260006184,-3.834537166929058,319],["givinostat_BRD-K13810148-311-03-2::10::HTS002",-0.19967871116278002,-3.468787921459764,318],["zardaverine_BRD-K37561857-001-15-5::2.5::HTS002",-0.18548556376789274,-3.1821986260010564,334],["cyproterone-acetate_BRD-K41141507-001-16-2::2.5::HTS002",-0.23471014976768606,-3.809078545117374,255],["Y-27632_BRD-K44084986-300-08-4::10::HTS002",-0.19734131908569005,-3.1109025548782396,287],["entinostat_BRD-K77908580-001-09-6::10::HTS002",-0.18809546252867074,-3.2687305587478717,335],["GW-788388_BRD-K78086729-001-02-7::10::HTS002",-0.19146258144561198,-3.310522100093831,328],["sirolimus_BRD-K84937637-001-09-9::0.15625::HTS002",-0.18759113348502268,-3.2702094175189598,337],["desoxycortone_BRD-K98521173-001-19-4::0.0390625::HTS002",-0.19038381008999955,-3.2781082357744333,328]]},"para":{"top":[["practolol_BRD-A41304429-001-14-8::0.00061034::HTS002",0.20323175045380512,-2.630077579569849,222],["methotrexate_BRD-A55424491-001-19-9::0.0390625::HTS002",0.23273038966082313,-3.3260507334344718,222],["isometheptene-mucate_BRD-A64743628-001-01-5::0.00061034::HTS002",0.19445030171901515,-2.4401763920479027,222],["fosbretabulin_BRD-K06814349-304-02-7::0.00061::MTS010::PROS002_PR500",0.22906828357110545,-4.3175461441900085,309],["clebopride_BRD-K17294426-050-12-3::0.00061034::HTS002",0.23352883093864596,-3.346161501390564,222],["CEP-33779_BRD-K37237504-001-02-7::0.15625::HTS002",0.19862715100071351,-3.436839762427571,318],["palbociclib_BRD-K51313569-003-03-3::0.0024414::HTS002",0.18377429873799872,-2.8493886078899946,299],["PHA-848125_BRD-K60997853-001-02-3::0.0391::MTS010::PROS004_PR500",0.18855505025644473,-3.2488862713123425,331],["ulipristal_BRD-K64381438-001-03-8::0.15625::HTS002",0.24006789262787046,-3.5134452792253765,222],["benzocaine_BRD-K75466013-001-14-4::0.625::HTS002",0.229755312136891,-3.251715980239908,222],["sevelamer_BRD-U45393375-000-01-6::10::HTS002",0.18961476878362316,-3.29776904878418,333]],"bottom":[["K-858_BRD-A67748489-001-10-0::10::HTS002",-0.20444661810743944,-3.625572868798345,319],["eptifibatide_BRD-A90547603-001-02-5::0.00061034::HTS002",-0.1816679759182262,-3.0619033158682,333],["givinostat_BRD-K13810148-311-03-2::10::HTS002",-0.2176380423920215,-4.039782990206949,318],["simvastatin_BRD-K22134346-001-24-9::9.69894::HTS002",-0.1944616936414643,-3.4821226355738597,337],["cyproterone-acetate_BRD-K41141507-001-16-2::2.5::HTS002",-0.23020371682107812,-3.6799189988947796,255],["CUDC-101_BRD-K41278234-001-03-0::10::HTS002",-0.22810328223572904,-3.135965121402999,216],["Y-27632_BRD-K44084986-300-08-4::10::HTS002",-0.19399980811888223,-3.020313931405587,287],["4-hydroxy-phenazone_BRD-K49759007-001-11-9::0.625::HTS002",-0.1800976836142794,-2.9932209955997227,330],["tropisetron_BRD-K50866992-003-10-3::10::HTS002",-0.20301954770133623,-3.542110355125398,315],["fleroxacin_BRD-K61717546-001-05-0::2.47448::HTS002",-0.19101114523927817,-3.3747855124364317,337],["ACDPP_BRD-K68633617-003-02-9::0.00976562::HTS002",-0.23607756317172718,-3.410815566314876,222],["entinostat_BRD-K77908580-001-09-6::10::HTS002",-0.19107591806475266,-3.359483440951442,335],["A-674563_BRD-K78177893-001-02-4::10::HTS002",-0.1935193917818491,-3.292855176009618,319],["desoxycortone_BRD-K98521173-001-19-4::0.0390625::HTS002",-0.18837355728781072,-3.2181706836755852,328]]}}}
{"ccle_proteomics":{"corr":{"top":[["ATF6_P18850",0.23410672456169604,-3.229468756436366,212],["TTC14_Q96N46",0.2611675585041758,-4.166255744001872,227]],"bottom":[["GCHFR_P30047",-0.2344584140975555,-2.9734433957921653,192]]},"para":{"top":[["ATF6_P18850",0.27267995711551807,-4.24120329599068,212],["TTC14_Q96N46",0.23858242714829145,-3.5429985083299154,227],["CD58_P19256",0.2320172329800585,-3.8337679574967494,263]],"bottom":[["GSR_P00390",-0.2458184085017252,-4.252654032129631,263],["LPIN2_Q92539",-0.2202847048275529,-3.0213357533100162,222],["NPRL2_Q8WTW4",-0.3187329026630987,-3.931255664523959,141]]}}}
{"depmap_gene_tpm":{"corr":{"top":[["ZNF264_9422",0.14925605241350876,-4.463050149344096,764],["GYS1_2997",0.16382470861995346,-5.273716776193524,764],["NBPF14_25832",0.1592426678604333,-5.010902701295729,764]],"bottom":[]},"para":{"top":[["NBPF14_25832",0.1582560264247148,-4.955257765161703,764]],"bottom":[]}}}
{"avana":{"corr":{"top":[["CYP2A13_1553",0.30893612852916547,-17.742212214847736,769],["RASGRP4_115727",0.3522177697287276,-23.151891509283104,769]],"bottom":[["ZBTB34_403341",-0.16560541616127267,-5.409315145785923,769],["PLEKHA5_54477",-0.16092917228003903,-5.1365889679880565,769],["SRSF11_9295",-0.15085271394483812,-4.511543932787314,757],["FASLG_356",-0.15827795082715904,-4.985339320266623,769],["LGALS7_3963",-0.2767412551825742,-14.259644388367686,769]]},"para":{"top":[["RASGRP4_115727",0.3371846063365441,-21.174316852064052,769]],"bottom":[["PCDH20_64881",-0.15004776656116964,-4.531257379669167,769],["HIST1H1A_3024",-0.14630213577084955,-4.332283198684481,769],["SRSF11_9295",-0.15862448575469335,-4.935425771795995,757],["BABAM2_9577",-0.13781583197232908,-3.84605219960611,757],["LGALS7_3963",-0.24649294319091544,-11.38069813022532,769],["ZHX2_22882",-0.14348457220057298,-4.185754976205614,769],["ERVW-1_30816",-0.14817345141007982,-4.431092714441505,769],["DPPA3_359787",-0.15228416373471548,-4.588082573916772,757]]}}}
{"drive":{"corr":{"top":[["TRIM51EP_399940",0.2285986606143531,-3.79574612869603,268],["BAX_581",0.23790058372451275,-4.116447021927115,271],["RIPK4_54101",0.250517821100031,-4.4454222686652765,266],["CCNG1_900",0.22757580359662205,-3.8024045426026905,271],["FBXW4_6468",0.23693858642003549,-4.086591396135095,271]],"bottom":[["ULK4P3_89837",-0.23071016026386323,-3.858441423819565,268],["PDE6H_5149",-0.22091264493855825,-3.5491998517752568,266],["BAG3_9531",-0.2169953481939671,-3.495030237014275,271],["C1QTNF2_114898",-0.20662531380364346,-3.1771421935120756,268]]},"para":{"top":[["PRLR_5618",0.2330497269431332,-3.9028612616163523,266],["RIPK4_54101",0.22029021267833365,-3.5315690790824927,266],["CAMKV_79012",0.23551864193336228,-4.003379900489115,268],["COX4I2_84701",0.22733538844992338,-3.758512531412582,268],["OR2T1_26696",0.22770811101124486,-3.7694766901360626,268],["BAX_581",0.2513033098379819,-4.545304416581418,271],["OSMR_9180",0.23979412951980936,-4.175573175737941,271],["CCNG1_900",0.21757342736506158,-3.5114509483800203,271],["SHC2_25759",0.21444494335653308,-3.3902746526260357,268],["FCGR2A_2212",0.22092172578189473,-3.6652955225810113,276],["FBXW4_6468",0.21596024041339554,-3.4657343710900705,271]],"bottom":[["ULK4P3_89837",-0.23094021676449228,-3.865307263684704,268],["BAG3_9531",-0.2392201953792591,-4.15760154838307,271],["PPARG_5468",-0.24056985806457332,-4.199933491329562,271],["DRG1_4733",-0.19308597735288208,-2.8260584921953362,268]]}}}
{"achilles":{"corr":{"top":[["VDAC2_7417",0.2403380001699408,-3.340793566865412,209],["HSPB1_3315",0.2005130335872239,-3.8264492501157013,353]],"bottom":[["CHRNB3_1142",-0.2016280678033904,-3.8642143585386615,353],["G6PC3_92579",-0.2980138916089389,-3.5438455568850813,144],["PRPSAP2_5636",-0.20207275132837862,-3.879332417927627,353]]},"para":{"top":[["CADPS2_93664",0.23711540426967895,-3.262321045355584,209],["HIST1H2BO_8348",0.1988280745140861,-3.769768847401508,353],["DNAJA1_3301",0.2382948350611705,-3.290918633762991,209],["CD81_975",0.19234743345333358,-3.5560908854871793,353],["RPL13A&RPL13AP5_23521&728658",0.2550223839634253,-3.711864483511611,209]],"bottom":[["C2orf66_401027",-0.23321090057967783,-3.168652603542631,209],["CHRNB3_1142",-0.20441723977349846,-3.9595779866168113,353],["SP110_3431",-0.20209348061017765,-3.880037952967058,353],["G6PC3_92579",-0.3074785285695806,-3.750388604211444,144],["ANKRD37_353322",-0.1981334167587918,-3.7465367400537715,353],["CXXC1_30827",-0.21556993668540858,-2.764405871712423,209]]}}}
{"ccle_rrbs_tss1kb":{"corr":{"top":[],"bottom":[["FAM216A_12_110905231_110906231",-0.18625857733829349,-4.265912630998409,464],["LOC101926935_20_25834657_25835657",-0.18188943158072413,-4.058681444633787,460],["MYO19_17_34891305_34892305",-0.1779527677127777,-3.8303994657290183,450],["HPS3_3_148846370_148847370",-0.1727779580413897,-3.6508524710573607,452]]},"para":{"top":[["CCDC181_1_169429907_169430907",0.14896312646906626,-2.920899357108851,470]],"bottom":[["A1BG-AS1_19_58862335_58863335",-0.1713148134666866,-3.4933225061710336,437],["GATA3-AS1_10_8095412_8096412",-0.18481652913411487,-4.19930061107982,463],["GATA3-AS1_10_8095385_8096385",-0.1927702309184267,-4.492983065769842,459],["ARL8B_3_5162929_5163929",-0.2781761317150848,-2.6977406324994577,121],["UBE2E1_3_23846383_23847383",-0.18547971121808227,-3.4916338998699974,372]]}}}
{"ccle_gene_tpm":{"corr":{"top":[["OR2W6P_ENSG00000168126.3",0.1538408423186874,-3.65489149296424,572],["ZNF264_ENSG00000083844.6",0.1528192263578746,-3.6126128473670547,572]],"bottom":[["CTD-2530H12.7_ENSG00000254630.1",-0.16815892899192983,-4.27536766694894,572],["CYP2A7P1_ENSG00000213908.3",-0.20813742241822145,-6.291581094446155,572]]},"para":{"top":[["SCGB3A2_ENSG00000164265.4",0.15615243587373315,-3.7515289073887206,572],["ZNF845_ENSG00000213799.6",0.15147453599103083,-3.5573654607257708,572]],"bottom":[["RP11-580P21.1_ENSG00000249976.2",-0.17365226026799366,-4.527406176021792,572],["DDX50P2_ENSG00000240048.1",-0.15318237947321886,-3.627611417686406,572],["RPS3AP49_ENSG00000242060.1",-0.19282346509325177,-5.468930822813997,572],["HNRNPA1P39_ENSG00000237804.1",-0.15830199506022113,-3.8426081576482782,572],["RPL30P4_ENSG00000237676.1",-0.14479568773759124,-3.2896910238479458,572],["RP11-51O6.1_ENSG00000224631.3",-0.14879254504344255,-3.4485332579578523,572],["AC000110.1_ENSG00000236105.1",-0.14389876134807292,-3.2545936512987232,572],["HNRNPA1P35_ENSG00000225695.1",-0.14334230435802484,-3.2329198010424336,572],["CTC-260E6.2_ENSG00000224864.3",-0.15009729874367142,-3.501252892842599,572],["LINC00437_ENSG00000236354.1",-0.1581447866534949,-3.8359072661963,572]]}}}
{"ccle_rrbs_tss_clusters":{"corr":{"top":[["CCND3_5",0.22166011833083007,-3.6753782431642326,275],["BREA2_3",0.22046695055239782,-5.1688454750044865,409],["RIPK1_1",0.20429594349297944,-2.9752902152535277,254],["C6orf47_2",0.2815011582667378,-3.908021811014167,181]],"bottom":[["ZNF415_4",-0.25355383240080465,-3.458219695716056,195]]},"para":{"top":[["PKD1P6-NPIPP1_3",0.20020390663265156,-3.266016767998498,295],["PLEKHM3_2",0.2560425198638037,-2.741718821138275,146],["CCND3_5",0.20277656181668963,-3.143794043678331,275],["C6orf47_2",0.2586711493446087,-3.3584047212290344,181],["BREA2_3",0.22564743363940865,-5.393062961768683,409]],"bottom":[["EPO_1",-0.24145291109607495,-3.3262603469144785,206],["LOC653160_2",-0.22104121572537766,-3.2968309601486077,244],["ZNF415_4",-0.22907931734960724,-2.894109666989695,195],["SS18_2",-0.2516608155806036,-2.521161683237116,137]]}}}
{"ccle_rrbs_cgi_clusters":{"corr":{"top":[["6_3066530_3071354-1",0.20429594349297944,-2.9752902152535277,254],["9_138821236_138825526-2",0.2132395031959223,-4.589053922438054,383],["7_56891318_56895540-2",0.2791097401775181,-2.5404374141810364,112],["6_31626338_31630658-2",0.2815011582667378,-3.908021811014167,181]],"bottom":[["17_77091291_77095805-1",-0.22939127699098094,-2.6713434745896554,177]]},"para":{"top":[["2_208888181_208892394-2",0.2560425198638037,-2.741718821138275,146],["6_31626338_31630658-2",0.2586711493446087,-3.3584047212290344,181],["9_21966358_21970728-2",0.3065869910447601,-2.8565396487410566,106],["16_15227630_15230137-1",0.20020390663265156,-3.266016767998498,295]],"bottom":[["18_23670623_23673275-2",-0.2516608155806036,-2.521161683237116,137],["7_139165480_139168096-3",-0.3202939809196547,-3.3658420962160096,117],["7_100316106_100320684-1",-0.24145291109607495,-3.3262603469144785,206]]}}}
