{"depmap_hotspot":{"corr":{"top":[["ANKRD46",0.1303086547020031,-3.5281124681968086,12.0,755.0],["C10orf113",0.09566119678349261,-2.0956311542587276,9.0,758.0],["LGALS4",0.10648076206717222,-2.5014645860027587,20.0,747.0],["LTA4H",0.09366398026078156,-2.0247558192046777,16.0,751.0],["PGP",0.09430431225720598,-2.047343200757116,17.0,750.0],["PTAFR",0.10446726371744199,-2.423125115805969,15.0,752.0],["PTPN2",0.11290813187906797,-2.760229281867649,12.0,755.0],["REXO4",0.1013725298241624,-2.3052354275338525,17.0,750.0],["RPL10A",0.09083661168572553,-1.9265533787887008,11.0,756.0],["SYCE2",0.08694707658088684,-1.7955215462424277,13.0,754.0],["TADA2A",0.10698646411161503,-2.521343515291463,14.0,753.0]],"bottom":[["AP3S1",-0.11811206072610361,-2.9795083594110454,11.0,756.0],["AQP10",-0.11730228081526134,-2.944808923808927,14.0,753.0],["B3GAT2",-0.11934289265524406,-3.032659077417666,19.0,748.0],["C1QB",-0.11646842444904144,-2.9093006669510117,17.0,750.0],["C3orf27",-0.1405938166069564,-4.029034447280494,10.0,757.0],["CARD11",-0.10658134677535458,-2.50541201073113,59.0,708.0],["CCDC107",-0.1323280568653094,-3.623680825502001,8.0,759.0],["CCDC71",-0.13442260126919847,-3.7242379095126297,9.0,758.0],["CHCHD5",-0.12331763334647743,-3.2076789523834113,9.0,758.0],["CHST8",-0.11332804026743999,-2.777597649319774,38.0,729.0],["CISH",-0.13274383088444308,-3.6435255595837823,10.0,757.0],["DEFB116",-0.11472743112157247,-2.8358913242785007,10.0,757.0],["DHX29",-0.11356352702539681,-2.787362859766831,41.0,726.0],["FNDC5",-0.12422352059981664,-3.248292281605981,9.0,758.0],["FUT7",-0.12400137841270112,-3.238308115706865,19.0,748.0],["GALNT15",-0.13898203033599013,-3.948196608059446,26.0,741.0],["GCAT",-0.12440479598905302,-3.256451707313272,20.0,747.0],["GCGR",-0.1285338843885564,-3.445237716706751,16.0,751.0],["GLB1L3",-0.11951703020757853,-3.0402187034173567,27.0,740.0],["HABP2",-0.11181627907401429,-2.7153342705361934,29.0,738.0],["HAL",-0.10778697778137432,-2.552978697122971,32.0,735.0],["HEPHL1",-0.10617517524083694,-2.489491739731385,51.0,716.0],["IRS1",-0.10877027617039697,-2.592118317576414,63.0,704.0],["KAT6A",-0.10505508197474761,-2.445861714759146,61.0,706.0],["KCNH5",-0.10949193487043353,-2.6210409298913135,64.0,703.0],["LCAT",-0.10707847614530086,-2.524969266466705,19.0,748.0],["LRCH3",-0.11956024651176005,-3.042096333795268,30.0,737.0],["MYH11",-0.10887645795709214,-2.5963633761641796,78.0,689.0],["NAA40",-0.11577616235004907,-2.879993533555662,10.0,757.0],["NAT6",-0.10683858177698037,-2.5155218607791694,12.0,755.0],["NCL",-0.10949833408065048,-2.621298145396498,26.0,741.0],["NCOA1",-0.10886543243609959,-2.595922416732685,50.0,717.0],["NKPD1",-0.10552861624143331,-2.4642580088204786,24.0,743.0],["OR2J2",-0.11051057757070332,-2.662150891704015,15.0,752.0],["PCDH11X",-0.10589413351078725,-2.4785069118785144,47.0,720.0],["PCDHA9",-0.10968067795089806,-2.628632965406985,52.0,715.0],["PDP1",-0.10879168955167887,-2.5929741152708354,20.0,747.0],["PRSS38",-0.13565794787350777,-3.784231383584938,24.0,743.0],["PTPN13",-0.11177007732341933,-2.713443020821904,98.0,669.0],["RAD54L",-0.11059302171491764,-2.6654927382741556,34.0,733.0],["RB1",-0.1357993449749925,-3.7911307052420153,79.0,688.0],["RP11-1396O13.13",-0.13209554872879697,-3.612608362983833,8.0,759.0],["SOX11",-0.126853537087404,-3.3677321438730985,48.0,719.0],["SPATA18",-0.11304950290056842,-2.766070347474965,30.0,737.0],["STRAP",-0.10916414373996244,-2.607882999064416,14.0,753.0],["TM4SF20",-0.12624580893885298,-3.339930318009657,16.0,751.0],["TMEM175",-0.11639830811298657,-2.9063251880630814,27.0,740.0],["TRPC4",-0.11346959126952567,-2.783465364217162,59.0,708.0],["TSSK1B",-0.11965095749284214,-3.0460394604838474,21.0,746.0],["TUT1",-0.1102459051157592,-2.6514372614786375,15.0,752.0],["UTS2R",-0.11990785655528216,-3.0572212113566475,27.0,740.0],["XRRA1",-0.10953184957660721,-2.6226455117467724,23.0,744.0],["ZNF287",-0.11445099007997002,-2.824325530531071,22.0,745.0],["ZNF75D",-0.10630563669232079,-2.494599548233807,18.0,749.0]]},"para":{"top":[["ANKRD46",0.12393808950225386,-3.5195601512629406,12.0,755.0],["FRG2B",0.09131798861683935,-2.239710929299087,9.0,758.0],["HOXC8",0.11754327657044063,-3.2424846883475245,8.0,759.0],["LY96",0.09317101434269395,-2.303587070386427,8.0,759.0],["OARD1",0.10508183452771643,-2.739558065439103,8.0,759.0],["PTPN2",0.13221802695177273,-3.897060261612521,12.0,755.0],["TADA2A",0.11089374829548794,-2.96841048550187,14.0,753.0],["TGDS",0.11394997011472534,-3.0927371504845462,12.0,755.0]],"bottom":[["ANKRD20A1",-0.09643070235077611,-2.418645907444542,9.0,758.0],["AQP10",-0.0941783082509479,-2.3390234165727772,14.0,753.0],["B3GAT2",-0.11035921654374561,-2.94707322791104,19.0,748.0],["BAX",-0.11247731629970752,-3.032504886797397,14.0,753.0],["C3orf27",-0.13696351157276618,-4.123034354005917,10.0,757.0],["C8orf47",-0.10277778928494896,-2.6521453438728915,16.0,751.0],["CCDC107",-0.12331031602742232,-3.491584048873986,8.0,759.0],["CCDC71",-0.11614335797734529,-3.183650940333759,9.0,758.0],["CEACAM16",-0.11046191744756392,-2.9511230308590903,16.0,751.0],["CIRH1A",-0.11862290070599528,-3.288811079465941,22.0,745.0],["CISH",-0.11482406200453239,-3.1287559757995074,10.0,757.0],["CST11",-0.11652612798951169,-3.1996957725551356,9.0,758.0],["DEFB116",-0.12390824412514413,-3.5181395903827712,10.0,757.0],["DMKN",-0.10891958378416364,-2.8897158786196573,19.0,748.0],["FAR2",-0.10971510894652414,-2.921289487532516,17.0,750.0],["FNDC5",-0.11967031023230705,-3.333220473668213,9.0,758.0],["FUT7",-0.11232924032001569,-3.0266027113122926,19.0,748.0],["GALNT15",-0.13267647216481404,-3.9189421793988886,26.0,741.0],["GCGR",-0.11264561070557244,-3.039419078398042,16.0,751.0],["HEBP1",-0.10187150466656981,-2.617830471155669,9.0,758.0],["IQCB1",-0.10385537017121764,-2.69299756376893,17.0,750.0],["NAA40",-0.1092437787018709,-2.902297863581356,10.0,757.0],["NDEL1",-0.1004741385892231,-2.5659757585546967,13.0,754.0],["NEUROG2",-0.10330246848367568,-2.6718970477158313,13.0,754.0],["PRSS38",-0.1323951247445454,-3.9056898600103827,24.0,743.0],["PRTFDC1",-0.09861927272416408,-2.497618611038849,8.0,759.0],["RP11-1396O13.13",-0.09885111350635428,-2.5060764250534358,8.0,759.0],["SFXN4",-0.10239097825450992,-2.6373228142463625,9.0,758.0],["TM4SF20",-0.12350227435623756,-3.5004242049414356,16.0,751.0],["TXNDC15",-0.09823894093290124,-2.4838892183970747,10.0,757.0],["VPS4A",-0.09699783905344231,-2.4390781539764688,11.0,756.0]]}}}
{"depmap_damaging":{"corr":{"top":[["ANXA4",0.10909634041675904,-2.605165599378196,17.0,750.0],["FBXO4",0.09123936789933318,-1.9403899746500468,11.0,756.0],["KIF1B",0.08785505223233218,-1.8256902514831028,20.0,747.0],["MICAL1",0.10305105406875245,-2.3687986799038305,11.0,756.0],["SP100",0.10216560593901024,-2.3351565797565126,10.0,757.0],["TPTE",0.0904967404694144,-1.9149164589990477,30.0,737.0]],"bottom":[["CTNNA1",-0.11746877640267846,-2.9519259100883977,10.0,757.0],["FBN2",-0.10988513153208024,-2.636869861578823,14.0,753.0],["MEI1",-0.10955350539370845,-2.6235162955966973,9.0,758.0],["NTRK3",-0.08768294491238506,-1.8199521718587697,8.0,759.0],["NUP210",-0.09323312029937449,-2.0096296553405213,11.0,756.0],["SDK1",-0.10823131050100096,-2.570626705736778,11.0,756.0],["YTHDC2",-0.10688356597513304,-2.517292004249075,9.0,758.0]]},"para":{"top":[["CCDC146",0.10093520346740646,-2.5830024904660385,11.0,756.0]],"bottom":[["CDH7",-0.10467446149576223,-2.724089503166067,11.0,756.0],["CTNNA1",-0.0925029287938864,-2.280521441518154,10.0,757.0],["FBN2",-0.09677360025786333,-2.4311235852323296,14.0,753.0],["MEI1",-0.11595197297126211,-3.1756456285151113,9.0,758.0],["NTRK3",-0.08975136280538823,-2.1864167499167704,8.0,759.0],["YTHDC2",-0.10772241770968467,-2.842177480259763,9.0,758.0]]}}}
{"ccle_rrbs_enhancer_clusters":{"corr":{"top":[],"bottom":[["20-21486551-21489286-0_enh",-0.19001804921187937,-4.370390029944693,458]]},"para":{"top":[],"bottom":[]}}}
{"ccle_mirna":{"corr":{"top":[["hsa-miR-1269_miR00086.1",0.17591087319792015,-4.360310210845006,534],["hsa-miR-1272_miR00089.1",0.18273818617355866,-4.667582397183472,534],["hsa-miR-520a-5p_miR00452.1",0.14264297947465188,-3.0230816375353413,534],["hsa-miR-521_miR00461.1",0.1480856706457762,-3.223996098445223,534],["hsa-miR-562_miR00514.1",0.1380192417995397,-2.8577833818798895,534]],"bottom":[]},"para":{"top":[["hsa-miR-1269_miR00086.1",0.14966084754984474,-3.2834295193407517,534],["hsa-miR-1272_miR00089.1",0.1553752015438984,-3.5039181855478216,534],["hsa-miR-371-3p_miR00338.1",0.1509738202920448,-3.3334128110909695,534]],"bottom":[]}}}
{"prism_primary_logfold":{"corr":{"top":[["RU-28318_BRD-K37687387-237-01-7::2.5::HTS",0.14132318797815027,-2.2861741734455125,390],["cis-urocanic-acid_BRD-K52670952-003-01-4::2.5::HTS",0.1642619721679547,-2.952823221450602,391],["MMPX_BRD-K56077740-001-09-2::2.5::HTS",0.19747853014424938,-4.09123824387619,393]],"bottom":[["BRL-37344_BRD-K07507905-236-02-6::2.5::HTS",-0.19870019042768736,-4.108666794589282,390],["piperine_BRD-K59522102-001-15-3::2.46::HTS",-0.1963550231263175,-3.8417396731171465,370]]},"para":{"top":[["ki16198_BRD-A94323479-001-02-8::2.5::HTS",0.16713243582127707,-3.0485996935444795,392],["oxymetazoline_BRD-K16195444-003-26-0::2.5::HTS",0.1523913540660271,-2.59921944009135,391],["API-001_BRD-K26325692-003-01-3::2.5::HTS",0.188990535604356,-3.7596577903398587,390],["MMPX_BRD-K56077740-001-09-2::2.5::HTS",0.17727216000851173,-3.3831653714061356,393],["otamixaban_BRD-K80082640-001-01-0::2.5::HTS",0.17414876156939457,-3.2371492963015105,387]],"bottom":[["BRL-37344_BRD-K07507905-236-02-6::2.5::HTS",-0.18399715165058947,-3.5867582497060106,390],["piperine_BRD-K59522102-001-15-3::2.46::HTS",-0.17446467085899042,-3.1246347203642033,370],["dofetilide_BRD-K86887724-001-10-6::2.59::HTS",-0.16675963340708572,-2.9243976474343554,375]]}}}
{"prism_secondary_logfold":{"corr":{"top":[["estramustine_BRD-A70858459-001-01-7::0.00976562::HTS002",0.20291592765810557,-3.694648779844309,331],["dapivirine_BRD-K12885236-001-02-7::0.15625::HTS002",0.203026039803921,-3.7176435538528065,333],["CCMI_BRD-K16338837-001-02-6::0.0390625::HTS002",0.18658929933406265,-3.2316508126238768,336],["GDC-0980_BRD-K23228615-001-02-8::0.00977::MTS010::PROS004_PR500",0.1859171305709635,-3.1704051446129196,331],["5-hydroxymethyl-tolterodine_BRD-K24603946-001-02-1::0.15625::HTS002",0.18251319064020452,-2.7200121540162865,287],["demecarium_BRD-K51471001-303-04-7::0.00976562::HTS002",0.19684131158686957,-3.502252854974672,331],["hesperadin_BRD-K58122457-001-02-2::0.0024414::HTS002",0.19131307601988223,-2.9397782299782986,286]],"bottom":[["amfenac_BRD-K82122102-323-01-1::0.15625::HTS002",-0.1798325704944452,-3.001067894436254,332]]},"para":{"top":[["oxymatrine_BRD-A57833392-001-01-7::0.625::HTS002",0.18925084912028006,-3.2697616557371005,331],["sangivamycin_BRD-A64064900-001-02-3::10::HTS002",0.18971026926613951,-2.6900124633033786,262],["estramustine_BRD-A70858459-001-01-7::0.00976562::HTS002",0.2001068986173912,-3.6049767624745006,331],["disulfiram_BRD-K32744045-001-31-2::0.00976562::HTS002",0.18626495819898864,-3.180693562662008,331],["remoxipride_BRD-K54094468-003-11-1::0.0024414::HTS002",0.19073345152176804,-2.7498419217139216,266],["FPH1-(BRD-6125)_BRD-K61250484-001-02-3::0.0390625::HTS002",0.18655071186621605,-2.823619079726715,287],["KPT-276_BRD-K75352575-001-01-3::2.5::HTS002",0.20773900952917387,-3.871795434253278,333],["candesartan_BRD-K84091759-001-07-1::0.15625::HTS002",0.19358863825679135,-3.1166102508323785,299],["tyloxapol_BRD-U25960968-000-01-9::0.009765625::HTS002",0.1921182415200204,-2.784080184449826,266]],"bottom":[["LY2608204_BRD-K12068470-001-02-5::0.00923522::HTS002",-0.18959231092964957,-3.31413888436413,335],["AMG900_BRD-K21728777-001-02-3::0.00061034::HTS002",-0.16633026757657282,-2.6399903403244678,334],["R306465_BRD-K86687746-001-01-3::2.5::HTS002",-0.20198940865477905,-3.239359523171998,287]]}}}
{"ccle_proteomics":{"corr":{"top":[["EPB41L3_Q9Y2J2-2",0.2326836597894713,-3.8534316445968333,263],["ARL6IP4_Q66PJ3-2",0.2862931634394452,-2.77653770840699,118],["AMDHD2_Q9Y303-3",0.23642384549710155,-3.9648448812362354,263],["GSTO1_P78417",0.23336899230879266,-3.873712345757567,263],["PMEL_P40967-2",0.35787595797605154,-4.441979055349638,127]],"bottom":[["CDCA7L_Q96GN5",-0.23566766145403042,-3.770926387441335,250],["ZNF335_Q9H4Z2",-0.3783706610140931,-5.218536794471218,135],["PIAS4_Q8N2W9",-0.29807986139638926,-4.763129241472986,201],["TADA1_Q96BN2",-0.2445902985416219,-4.143604747633273,258],["JARID2_Q92833",-0.29289538332798287,-3.518304315717448,148],["DNLZ_Q5SXM8",-0.25207722710299857,-3.6204572375654083,208]]},"para":{"top":[["EPB41L3_Q9Y2J2-2",0.22355633175674336,-3.5890240748621816,263],["TRIM5_Q9C035",0.2309331072977568,-3.7259817181713104,257],["GSTO1_P78417",0.23757058783368995,-3.999364051662069,263]],"bottom":[["TTC39B_Q5VTQ0",-0.30308063431835414,-3.273292521810109,127],["ZNF335_Q9H4Z2",-0.33744921202425143,-4.202699114048538,135],["B4GALT5_O43286",-0.285124643692302,-3.2736999890577834,144],["TMEM238_C9JI98",-0.3241495990788152,-3.824971502108565,132],["DNLZ_Q5SXM8",-0.24034485000326383,-3.3271134704867356,208]]}}}
{"depmap_copy_number":{"corr":{"top":[["MIR1252_100302136",0.14794074113008626,-4.418740168689744,769],["PPP1R12A-AS1_105369865",0.15702176344642482,-4.914524124515724,769],["PPP1R12A_4659",0.15609693482044182,-4.862736800846356,769],["PAWR_5074",0.14601371453044149,-4.317159921083178,769],["SYT1_6857",0.14913897771690854,-4.48254131554431,769]],"bottom":[]},"para":{"top":[["MIR5700_100847031",0.18324433010688168,-6.507202968762981,769],["LINC01490_101928420",0.18686042872998934,-6.745946021015265,769],["MIR7844_102465834",0.18324433010688168,-6.507202968762981,769],["PPP1R12A-AS1_105369865",0.19117851411208045,-7.037202268301149,769],["CEP83-DT_144486",0.18854700153758994,-6.858905061801482,769],["KRT19P2_160313",0.1842545854418177,-6.5734300496714475,769],["MYF5_4617",0.18686042872998934,-6.745946021015265,769],["MYF6_4618",0.18686042872998934,-6.745946021015265,769],["PPP1R12A_4659",0.1892829833922407,-6.908519234201926,769],["CEP83_51134",0.19070863081738537,-7.0051818792385445,769],["MIR492_574449",0.1842545854418177,-6.5734300496714475,769],["TMCC3_57458",0.18324433010688168,-6.507202968762981,769],["SYT1_6857",0.18460588280915302,-6.596544992015728,769],["MIR617_693202",0.1828428176096614,-6.480983396092342,769],["NR2C1_7181",0.18374080674519377,-6.539703699951504,769],["LIN7A_8825",0.1828428176096614,-6.480983396092342,769]],"bottom":[]}}}
{"depmap_gene_tpm":{"corr":{"top":[["NKAIN4_128414",0.1743286529881423,-5.903692016665159,764],["HAVCR1_26762",0.17884489288687483,-6.18643220067407,764],["DCDC2_51473",0.19575242235167148,-7.309316658036901,764],["KAAG1_353219",0.17843492380318604,-6.160469204325854,764],["KCNJ16_3773",0.17242766245200342,-5.786824768548284,764],["CFAP221_200373",0.17295199722965596,-5.818932758990205,764]],"bottom":[["PLAC8_51316",-0.1695932140258851,-5.614920878533641,764]]},"para":{"top":[["KAAG1_353219",0.174401372596803,-5.9081877827705735,764],["S100A1_6271",0.19295301189797046,-7.11631632359807,764],["OGDHL_55753",0.18874661151734956,-6.831623097467366,764]],"bottom":[["STK17B_9262",-0.17587621330011094,-5.99976837429712,764],["PLAC8_51316",-0.19795841243359566,-7.463402950868976,764]]}}}
{"avana":{"corr":{"top":[["LRRFIP2_9209",0.18736304392303055,-6.7795017393165296,769],["TMOD3_29766",0.18455094313812867,-6.592927108455413,769],["MYL6B_140465",0.36184375816601844,-24.475465073373144,769],["PAWR_5074",0.22456944947251758,-9.382541623987182,757],["UBE2K_3093",0.21036282807316375,-8.41340795078366,769],["MYL12B_103910",0.22852492943710412,-9.842538053387756,769],["MYH9_4627",0.3948007121377222,-29.36153060069185,769],["ROCK2_9475",0.2710283990800317,-13.687408575568679,769],["GALNT4_8693",0.1967291244033038,-7.421515518773025,769]],"bottom":[["RBM4_5936",-0.15852512165121715,-4.999337317559255,769],["PAX8_7849",-0.21331877326257004,-8.637544573773011,769]]},"para":{"top":[["LRRFIP2_9209",0.19259781464313785,-7.13440672835523,769],["GALNT4_8693",0.20249240023127604,-7.832454306107027,769],["MYL6B_140465",0.4018351933830209,-30.478449575014004,769],["IKBIP_121457",0.19087283868993496,-7.016362808006467,769],["MYL12B_103910",0.1922870057951041,-7.113057733300655,769],["UBE2K_3093",0.20576417183266937,-8.071175078548656,769],["MYH9_4627",0.39550988796920106,-29.472917828009198,769],["ROCK2_9475",0.25367705589778683,-12.031103807550963,769]],"bottom":[["TNFRSF1B_7133",-0.15994282553592873,-5.0800343779664345,769],["PAX8_7849",-0.15358930364255652,-4.72380022364154,769],["ADPGK_83440",-0.13215298647593712,-3.6234977155726913,769]]}}}
{"drive":{"corr":{"top":[["HIF1A_3091",0.20714194407912692,-3.2216933568079833,271],["CELF6_60677",0.23523396546451777,-3.9685190926963805,266],["GJB6_10804",0.24283747987807888,-4.313382438103015,274],["MYL12B_103910",0.23503989142518844,-3.962660216294856,266],["LOC105374925_105374925",0.19381178250997588,-2.871354622953168,271],["GPR1_2825",0.22275078899035283,-3.6251131125629423,268],["ECM1_1893",0.21946799212116627,-3.5312472071443946,268]],"bottom":[["RASA4_10156",-0.2674023834151684,-5.042299014525885,268],["LOC102724229_102724229",-0.22566403131523805,-3.697488121209283,267]]},"para":{"top":[["HIF1A_3091",0.25974273417594473,-4.82787391273443,271],["FFAR3_2865",0.20116228072230083,-3.032764943161668,268],["ECM1_1893",0.21333677463116182,-3.359603428523475,268]],"bottom":[["CACNA1B_774",-0.19969692028365543,-2.9755674004284622,266],["RASA4_10156",-0.23308484187561643,-3.9296428909385672,268],["SLK_9748",-0.21821644654608632,-3.4958230576468163,268],["NME1-NME2_654364",-0.21313231942596123,-3.4188097078771147,274],["OCLN_100506658",-0.19629065834979634,-2.907123833898537,268],["LOC102724229_102724229",-0.21350516594837884,-3.3534011890163122,267]]}}}
{"achilles":{"corr":{"top":[["TNFAIP2_7127",0.23829723166319267,-3.2909768877110213,209],["OOSP2_219990",0.2628948196222722,-3.920061683561704,209],["MYL6_4637",0.26437824940298527,-6.331020802862823,353],["CXorf40A_91966",0.27472628088450407,-4.245390769750392,209],["PLLP_51090",0.2210752085340253,-2.88726039958726,209],["SNAP23_8773",0.2535169466877729,-3.6727936978165356,209],["ACSBG1_23205",0.2582317937719501,-3.795952169097572,209],["SART3_9733",0.26076164442592725,-3.863000076023226,209],["SNX19_399979",0.23169090450594437,-3.132603409318143,209],["MYH9_4627",0.3014610934383376,-8.12367188083135,353],["FBXL16_146330",0.24395662899213494,-3.430171582686912,209]],"bottom":[["GOLGA2_2801",-0.2527775704858788,-3.653691318748945,209],["ASIC4_55515",-0.26427504388281975,-3.957239905243374,209],["POM121L12_285877",-0.22239876996777333,-2.917240265725647,209],["SLC44A4_80736",-0.25664143818293833,-3.7541489905138206,209],["SNAI3_333929",-0.23381560162708903,-5.044134833145857,353],["TM4SF18_116441",-0.2636884820440334,-3.94141527098509,209],["AHSA1_10598",-0.2254011484028887,-2.9858879933940723,209]]},"para":{"top":[["USH1G_124590",0.2212501663636229,-2.891213457868688,209],["MYL6_4637",0.24716976190603085,-5.585947695290018,353],["TNFAIP2_7127",0.2561395079981092,-3.741010759901306,209],["OOSP2_219990",0.2841013278197835,-4.513979830611647,209],["SNAP23_8773",0.24430856410882948,-3.4389357167171593,209],["ACSBG1_23205",0.23788453026009768,-3.2809539930582163,209],["POLI_11201",0.22420278819099518,-4.673339406817414,353],["SART3_9733",0.28639621903169893,-4.581205201964366,209],["MYH9_4627",0.2628854216184646,-6.26425825795998,353]],"bottom":[["ASIC4_55515",-0.23526307279971534,-3.217692024243238,209],["C16orf71_146562",-0.228966373012625,-3.0685662437392027,209],["SNAI3_333929",-0.2626989446251438,-6.255947267147002,353],["RPL35A_6165",-0.28100593688579656,-4.424229853566718,209],["TM4SF18_116441",-0.25069034651896815,-3.6000736746756394,209],["AHSA1_10598",-0.21728563184929223,-2.802374893364037,209],["EIF3B_8662",-0.259037304680483,-3.8172270322178186,209],["MINOS1_440574",-0.2450866470767807,-3.4583572303828394,209]]}}}
{"ccle_rrbs_tss1kb":{"corr":{"top":[["IL17B_5_148783765_148784765",0.17758712741084812,-3.042200722223109,346],["MIR600_9_125873922_125874922",0.18004762253512177,-3.3689073734931707,379]],"bottom":[["SLITRK2_23_144898346_144899346",-0.22358698272414096,-5.245089643966419,404]]},"para":{"top":[["TRIM6-TRIM34_11_5616864_5617864",0.1563018259302122,-3.050639508115993,449]],"bottom":[["KCNB1_20_48099181_48100181",-0.19499304012406168,-4.639462908394014,465],["PAPOLB_7_4901625_4902625",-0.20236354463966452,-3.395830650677424,302],["MIR496_14_101525909_101526909",-0.18779977823346783,-3.9498777163400813,418]]}}}
{"ccle_gene_tpm":{"corr":{"top":[["KAAG1_ENSG00000146049.1",0.19048681078841573,-5.348965046361701,572],["RP1-60O19.1_ENSG00000235142.3",0.19180643509991,-5.416536312236695,572],["5S_rRNA_ENSG00000261122.2",0.18965680985684671,-5.306702954082039,572],["DCDC2_ENSG00000146038.7",0.21756402179008646,-6.829827729541246,572],["HAVCR1_ENSG00000113249.8",0.20442761391327477,-6.086452692320552,572],["OR6C7P_ENSG00000257757.1",0.1716755085487441,-4.435810148199033,572],["AC073218.2_ENSG00000228262.4",0.19530550949882908,-5.597962095457929,572],["KCNJ16_ENSG00000153822.9",0.18896241319702414,-5.271486605536969,572]],"bottom":[["CTD-2357A8.3_ENSG00000267123.1",-0.19859129049250673,-5.771323639106766,572],["NT5C3AP1_ENSG00000213492.2",-0.16201753804989194,-4.002813848179579,572],["RP5-1022P6.3_ENSG00000233578.1",-0.15979515655306328,-3.9065667005092823,572],["C1QBPP_ENSG00000215353.2",-0.1765593997104252,-4.663961226041987,572],["HTR3E-AS1_ENSG00000238020.1",-0.15609060881992665,-3.748926578434262,572],["RP11-534L20.4_ENSG00000234981.1",-0.16959559239206717,-4.340528280924023,572]]},"para":{"top":[["UNC119B_ENSG00000175970.7",0.18006361588358297,-4.831498628733425,572],["KAAG1_ENSG00000146049.1",0.18211883306850998,-4.931258577556476,572],["C12orf43_ENSG00000157895.7",0.17007974763411224,-4.362607603979124,572],["AHSG_ENSG00000145192.8",0.1688901272573806,-4.308464904434397,572],["LYRM9_ENSG00000232859.5",0.17141761323816032,-4.423934967478736,572],["PTPN11_ENSG00000179295.11",0.17151804138470628,-4.4285572828273745,572]],"bottom":[["PLAC8_ENSG00000145287.6",-0.179222585550469,-4.790995235045843,572],["HTR3E-AS1_ENSG00000238020.1",-0.1698022290138298,-4.349944279304871,572],["RP11-613H2.2_ENSG00000253899.1",-0.15381100254754923,-3.653652863633933,572],["RPL36AP39_ENSG00000230980.1",-0.1561424561869518,-3.7511087922085524,572]]}}}
{"ccle_rrbs_tss_clusters":{"corr":{"top":[["DGKH_2",0.20718124247189085,-3.437206782251023,292],["LOC101928306_2",0.22431178807808333,-3.956068881685243,292]],"bottom":[["FGD5P1_3",-0.2063996726220882,-4.616459004520038,412],["KCNB1_2",-0.2137719136286124,-4.78041601232129,399],["DDX11L2_2",-0.303667875950422,-3.4421965525924274,134]]},"para":{"top":[["SKAP1_2",0.2047040200963323,-4.792520263815359,437],["LOC101928306_2",0.22789926973609667,-4.069905734559755,292],["ITGAD_2",0.23931788459731884,-3.1507594448128327,197],["LINC01762_3",0.30468070509223877,-4.8278664708105,195],["APOA1_1",0.2383666847095386,-3.6321544003668347,234]],"bottom":[["CFAP97_2",-0.21593707300591347,-5.551195878597598,462],["ZNF883_2",-0.23464311591709888,-3.7417762476857575,250],["LOC105369921",-0.2341888555073289,-3.663704614560878,245],["KCNB1_3",-0.20753196347688588,-5.263003229600599,472],["TRABD2B_2",-0.20576724479708486,-5.004944610113024,454]]}}}
{"ccle_rrbs_cgi_clusters":{"corr":{"top":[["13_42612178_42614914-1",0.209632679788025,-3.508977406864767,292],["5_132083392_132085911-2",0.19879840741995863,-3.6383072254638464,339],["17_1490086_1494322-3",0.1980889608072699,-4.599498397056399,446]],"bottom":[["5_132110448_132113034-3",-0.22435610480054957,-2.9497641985047736,208],["4_187887592_187891945-2",-0.2738045879289466,-3.5911333524589173,174]]},"para":{"top":[["17_46505344_46509778-2",0.2047040200963323,-4.792520263815359,437],["5_132080873_132083392-3",0.2213475086862859,-3.2931441376903594,243]],"bottom":[["12_96250020_96254246-1",-0.2341888555073289,-3.663704614560878,245],["6_73865584_73869934-3",-0.27919390360428376,-3.361733967962468,155],["9_115772295_115776615-2",-0.23464311591709888,-3.7417762476857575,250],["18_76722859_76727572-2",-0.29102482449267175,-3.1896353282645205,134],["8_2127863_2132356-3",-0.2266847775342413,-3.3235847868502892,234],["12_126166440_126170658-3",-0.22575335757865594,-3.7484254653025046,271],["9_110916_113878-3",-0.2400936046345933,-3.0853944523377295,191]]}}}
