{"depmap_hotspot":{"corr":{"top":[["ADAM9",0.11092409389231077,-2.6789346761078083,25.0,742.0],["ALS2CR12",0.11466628008789444,-2.8333307434873403,13.0,754.0],["APOBEC3H",0.1142390435450155,-2.815474829851566,9.0,758.0],["ASMT",0.1316704248746732,-3.592409647877776,15.0,752.0],["ASPHD2",0.10169605796113378,-2.31741738999444,22.0,745.0],["ATAD2",0.10581947601910636,-2.475593082953767,70.0,697.0],["ATP13A2",0.11570756741788397,-2.8770980153535275,49.0,718.0],["C1QTNF2",0.114273994421767,-2.816933346336391,27.0,740.0],["CABS1",0.10318676977067921,-2.3739771440075548,26.0,741.0],["CTAGE6",0.11649602692641028,-2.9104724524042753,10.0,757.0],["DDC8",0.11929088457516032,-3.0304032312022953,14.0,753.0],["DNAJC1",0.11536218761683502,-2.862542089079307,30.0,737.0],["DSC2",0.10468364494965827,-2.43148185130703,46.0,721.0],["EDNRB",0.10988183991183825,-2.636737144442187,33.0,734.0],["EEF1A2",0.10304533778008702,-2.368580693694591,22.0,745.0],["ELMO1",0.1265202545864116,-3.3524703421709714,55.0,712.0],["ELP3",0.12382885070625695,-3.2305650537418384,16.0,751.0],["EZH2",0.12110722101850685,-3.109709844193401,34.0,733.0],["FGFRL1",0.10333957776894531,-2.3798148044996217,31.0,736.0],["GARS",0.1037816444757104,-2.396744728455776,24.0,743.0],["HABP4",0.12094267925705651,-3.102481058580367,14.0,753.0],["HAT1",0.11870843322709528,-3.0051997085892643,13.0,754.0],["IFT57",0.10852770949031064,-2.582434279053861,20.0,747.0],["JSRP1",0.10765552093082197,-2.5477696221396564,15.0,752.0],["LPIN3",0.10888347796387587,-2.596644157667665,38.0,729.0],["MAP4K1",0.10217026200191205,-2.3353328329080543,41.0,726.0],["NCOA2",0.12319321506309194,-3.202121992625883,53.0,714.0],["NGF",0.11956497198360354,-3.0423016796046154,15.0,752.0],["NYAP2",0.110516020619548,-2.662371456475109,51.0,716.0],["OR2T34",0.10602453273066718,-2.483600571858974,15.0,752.0],["PAFAH1B1",0.10631314874208235,-2.4948938246007675,9.0,758.0],["PPL",0.10359038207889125,-2.389412278681711,71.0,696.0],["PRPF4",0.11859341007883595,-3.0002355651096706,25.0,742.0],["PTDSS2",0.11211704377812673,-2.727662778861703,18.0,749.0],["SALL1",0.10920419469223518,-2.60948884177183,72.0,695.0],["SCN1A",0.10016407176236952,-2.2600261124978958,78.0,689.0],["SLC25A4",0.11760719111082782,-2.9578494213697,9.0,758.0],["SLC34A2",0.10757638821951687,-2.5446365992567723,44.0,723.0],["SPAG4",0.1159511413871694,-2.887386635227638,18.0,749.0],["SPRED1",0.10600678773258665,-2.4829070966416054,22.0,745.0],["STC1",0.11456318469941897,-2.829016566644225,13.0,754.0],["TBC1D26",0.13960778155302692,-3.979476991349171,8.0,759.0],["TEAD4",0.12761027357831273,-3.4025209952357787,16.0,751.0],["TFDP3",0.12725751820076942,-3.386280531458806,17.0,750.0],["TMEM199",0.10278737569709305,-2.3587543226113965,11.0,756.0],["TRPM1",0.10770728655849318,-2.549820212602391,73.0,694.0],["ZBTB14",0.11218859910221263,-2.7306001675878315,38.0,729.0],["ZNF292",0.10472899555819357,-2.433235203070254,106.0,661.0],["ZNF512",0.10761281798627623,-2.546078677682243,19.0,748.0],["ZNF653",0.10226633364265905,-2.3389711175714294,25.0,742.0],["ZNF672",0.11713561027537006,-2.9376934887077586,31.0,736.0]],"bottom":[["BMP6",-0.1043238299190914,-2.417593865566045,50.0,717.0],["C15orf27",-0.10520602444974156,-2.4517178973749396,23.0,744.0],["CTNNA1",-0.10665600752067475,-2.5083441473392876,40.0,727.0],["DEPDC4",-0.11675643549328452,-2.9215395472779133,14.0,753.0],["FRA10AC1",-0.08919680448463925,-1.8707389802406926,11.0,756.0],["GIMAP5",-0.09724657115474138,-2.1527827717638703,15.0,752.0],["HIPK3",-0.10149147842047587,-2.309710398272681,37.0,730.0],["INSR",-0.09553795878264007,-2.0912215936882355,60.0,707.0],["KLK9",-0.097565163547994,-2.164363214061849,12.0,755.0],["LACC1",-0.12190389428754976,-3.1448352368003722,12.0,755.0],["MMP15",-0.11581325179759436,-2.881559783234674,28.0,739.0],["MOB1B",-0.11999897035441949,-3.061192193335737,15.0,752.0],["NT5C3A",-0.09277561491078083,-1.993631573965495,18.0,749.0],["OLIG3",-0.10632884720715365,-2.495508853108055,21.0,746.0],["OR7A10",-0.10275782465210442,-2.357630005389711,13.0,754.0],["P2RY12",-0.10823874784269685,-2.5709226406667227,22.0,745.0],["R3HDM4",-0.11749520493628765,-2.953056448032809,15.0,752.0],["RNF130",-0.11651284623949679,-2.911186590325712,12.0,755.0],["RPTN",-0.11098792393865324,-2.6815303125941967,40.0,727.0],["SH3TC1",-0.1070674939507473,-2.524536368663398,62.0,705.0],["SLC26A5",-0.10888319668699323,-2.596632907040104,29.0,738.0],["SLC2A8",-0.13632164204075242,-3.8166735639926457,23.0,744.0],["TMEM74",-0.09928622448655591,-2.227474991966741,18.0,749.0],["USP5",-0.11243339366065944,-2.7406616251667324,29.0,738.0],["ZNF224",-0.11700003097597934,-2.9319120510351127,29.0,738.0]]},"para":{"top":[["APOBEC3H",0.09779778167374163,-2.4678414333426333,9.0,758.0],["ASMT",0.12910502149871042,-3.7527183218556814,15.0,752.0],["BCL2L11",0.09213825111560227,-2.267882981055371,9.0,758.0],["ELP3",0.12173065292050082,-3.422684633935875,16.0,751.0],["FAM19A1",0.0935767773964568,-2.3177258202127056,8.0,759.0],["HABP4",0.10726478606824029,-2.8244586317628344,14.0,753.0],["HAT1",0.1102136785314858,-2.9410908613373317,13.0,754.0],["HEMGN",0.11933554132877262,-3.319012057084269,12.0,755.0],["JSRP1",0.09914636285383513,-2.5171538135286147,15.0,752.0],["LCN2",0.09826923603709198,-2.4851339206757608,14.0,753.0],["NGF",0.11945191218375419,-3.324106767896272,15.0,752.0],["PAFAH1B1",0.11083930861206277,-2.9660058806913527,9.0,758.0],["PENK",0.09935620313178001,-2.524619773923949,9.0,758.0],["SLC25A11",0.10410477347696623,-2.7022712726437925,10.0,757.0],["SLC25A4",0.10211761659251466,-2.627055056476581,9.0,758.0],["SPANXD",0.10208029770254504,-2.6257070828082845,10.0,757.0],["STC1",0.12342016029260543,-3.49670184176387,13.0,754.0],["TARM1",0.10275193429322349,-2.6510522721553786,12.0,755.0],["TBC1D26",0.11571758195851718,-3.1657885745154024,8.0,759.0],["TEAD4",0.1140259204459252,-3.0959941637891464,16.0,751.0],["TFDP3",0.1100151445808497,-2.933264264355706,17.0,750.0],["TTC4",0.0942723000528566,-2.3420777569975826,8.0,759.0]],"bottom":[["AQP12A",-0.10569380449695463,-2.763337230259362,12.0,755.0],["CLPSL1",-0.12458549582761462,-3.5480676180524267,8.0,759.0],["DEPDC4",-0.11093778571421045,-2.9701823751284318,14.0,753.0],["FRA10AC1",-0.10393160884734863,-2.695718366410294,11.0,756.0],["GIMAP5",-0.10214435495385452,-2.628286475281328,15.0,752.0],["GLRX3",-0.090945230755008,-2.227158351458624,14.0,753.0],["MOB1B",-0.11464661988159527,-3.121600476487058,15.0,752.0],["P2RY12",-0.12384412741425763,-3.5156690361831733,22.0,745.0],["POU3F3",-0.11323216082319822,-3.063492650397736,21.0,746.0],["R3HDM4",-0.10373903160280105,-2.6885242644302125,15.0,752.0],["RNF130",-0.12149449446215595,-3.412260065244062,12.0,755.0],["SLC2A8",-0.13030090346655407,-3.808037133371364,23.0,744.0],["TMEM74",-0.09998534828366312,-2.5480432664554287,18.0,749.0],["TRAF3IP2",-0.1080662804677056,-2.8558333424186744,12.0,755.0],["UBE2Z",-0.10086195239444438,-2.5804361113806618,16.0,751.0],["ZNF414",-0.10178289491342665,-2.614741256576571,15.0,752.0]]}}}
{"depmap_damaging":{"corr":{"top":[["ADI1",0.10022700167276637,-2.2623689543933128,8.0,759.0],["BRWD3",0.10238898908060913,-2.3436204043993905,8.0,759.0],["PCSK1",0.10684801137128004,-2.515892864883439,11.0,756.0],["TPO",0.10317819816787836,-2.3736499066006442,13.0,754.0],["TRPM1",0.09758077353721588,-2.164931439511423,15.0,752.0]],"bottom":[["ACADVL",-0.11344847940531316,-2.782589802920735,17.0,750.0],["DUOX2",-0.0989028759117712,-2.213336584738055,9.0,758.0],["GRID2",-0.09384445982511723,-2.0311091551035543,8.0,759.0]]},"para":{"top":[["C17orf80",0.07992714526461066,-1.8694438755162832,8.0,759.0],["SLC16A13",0.10629904598643651,-2.7865648495765876,8.0,759.0]],"bottom":[["CDH11",-0.10522678189115346,-2.745131741921789,8.0,759.0],["DUOX2",-0.10121537259049243,-2.59332872584588,9.0,758.0],["GRID2",-0.09815563488442212,-2.4807539257103826,8.0,759.0],["PEG3",-0.1028000020674504,-2.6529308124267557,14.0,753.0],["TGS1",-0.09604008680453939,-2.4046356760171963,8.0,759.0]]}}}
{"ccle_rrbs_enhancer_clusters":{"corr":{"top":[["2-105045627-105048213-0_enh",0.18266326336964744,-4.019157289195708,451],["7-21017551-21020375-0_enh",0.20001263383572487,-4.372373463288048,413],["10-77019198-77022022-1_enh",0.1806541950892707,-4.009975298362153,460]],"bottom":[]},"para":{"top":[["7-21017551-21020375-0_enh",0.20490583266877035,-4.566272037727326,413],["10-77019198-77022022-1_enh",0.17247486942149706,-3.6955057511335974,460]],"bottom":[]}}}
{"prism_primary_logfold":{"corr":{"top":[["doxifluridine_BRD-K58262659-001-09-7::2.5::HTS",0.17671256283957046,-3.2315877752512003,375],["dicoumarol_BRD-K82236179-213-01-0::2.5::HTS",0.18516477832521863,-3.5944862690320223,386]],"bottom":[["NGB-2904_BRD-K05181084-003-03-7::2.5::HTS",-0.2022389224837219,-4.240111045008765,390],["beta-glycerophosphoric-acid_BRD-K39061174-001-01-0::2.62::HTS",-0.16638755348594816,-2.8802157247377296,370]]},"para":{"top":[["pramipexole_BRD-K06388322-312-02-6::2.5::HTS",0.16957025671925005,-3.125609605934418,392],["trap-101_BRD-K69837166-003-02-0::2.5::HTS",0.17211743290756712,-3.172076174590206,387]],"bottom":[["NGB-2904_BRD-K05181084-003-03-7::2.5::HTS",-0.1934936704585537,-3.9194072667298596,390],["beta-glycerophosphoric-acid_BRD-K39061174-001-01-0::2.62::HTS",-0.17966734661289885,-3.287779846428673,370]]}}}
{"prism_secondary_logfold":{"corr":{"top":[["KI-16425_BRD-A25569250-001-03-3::0.0390625::HTS002",0.19383482309535155,-3.4713743876769803,338],["ixabepilone_BRD-K03601870-001-01-2::0.00061034::HTS002",0.22246791705243274,-4.352842409443848,331],["irinotecan_BRD-K08547377-394-03-5::10::HTS002",0.20048038699918702,-3.197342184887947,287],["irinotecan_BRD-K08547377-394-03-5::2.5::HTS002",0.2354390643654651,-4.249758542215532,287],["riluzole_BRD-K21283037-001-21-5::10::HTS002",0.22709713569859535,-4.141607717433575,300],["torin-1_BRD-K40175214-001-11-6::0.0024414::HTS002",0.20150392776698323,-3.6590100070136637,332],["famciclovir_BRD-K45033733-001-12-2::0.0390625::HTS002",0.2012377485140569,-2.9085842382672698,255],["JZL-184_BRD-K45446451-001-05-0::2.5::HTS002",0.19330852324144693,-3.4106599669854685,333],["MK-5108_BRD-K53665955-001-03-0::2.5::HTS002",0.20824567830431737,-3.9192130789850324,336],["brigatinib_BRD-K56981171-001-01-0::0.000610352::MTS006",0.21695195002519244,-4.205316620386474,335],["aphidicolin_BRD-K85140930-001-12-7::0.15625::HTS002",0.19797498983327114,-3.128247017911196,287],["RS-504393_BRD-K87510569-001-02-8::0.0390625::HTS002",0.20694047354035486,-3.84543307406304,333],["hydrocortisone_BRD-K93568044-001-32-0::0.00976562::HTS002",0.22714178885347389,-3.1871927161361175,222],["nicorandil_BRD-K97752965-001-16-4::10::HTS002",0.1935686192094967,-3.4541649143555517,337]],"bottom":[["sclareol_BRD-A23127772-001-02-3::0.00061034::HTS002",-0.17004699229077413,-2.7617269884111773,337]]},"para":{"top":[["norethindrone-acetate_BRD-A09349126-001-10-7::0.15625::HTS002",0.20634895843543413,-3.6853033607277235,319],["ixabepilone_BRD-K03601870-001-01-2::0.00061034::HTS002",0.2030668849752806,-3.699502173607401,331],["PF-04691502_BRD-K07310275-001-02-5::2.5::HTS002",0.19503085647116444,-3.355875642423176,321],["irinotecan_BRD-K08547377-394-03-5::2.5::HTS002",0.2202970717955656,-3.7734245597884053,287],["forskolin_BRD-K09602097-001-13-6::0.625::HTS002",0.22073376153317173,-3.775189102744301,286],["riluzole_BRD-K21283037-001-21-5::10::HTS002",0.21572088501239972,-3.778846172019839,300],["sunitinib_BRD-K42828737-044-09-0::0.0390625::HTS002",0.1935569141236104,-3.25837638219287,315],["famciclovir_BRD-K45033733-001-12-2::0.0390625::HTS002",0.24655582936207995,-4.160668072085469,255],["JZL-184_BRD-K45446451-001-05-0::2.5::HTS002",0.2109533877254674,-3.9789235049041705,333],["brigatinib_BRD-K56981171-001-01-0::0.000610352::MTS006",0.19622597153824872,-3.519510624446058,335],["vinflunine_BRD-K64120610-001-01-4::0.002441406::MTS006",0.20016689787803973,-3.6731059750409223,338],["hydrocortisone_BRD-K93568044-001-32-0::0.00976562::HTS002",0.23532711879468252,-3.391706403410549,222]],"bottom":[["sclareol_BRD-A23127772-001-02-3::0.00061034::HTS002",-0.17072843997482018,-2.7806128675645794,337]]}}}
{"ccle_proteomics":{"corr":{"top":[["UBE2D2_P62837",0.26582075582310966,-4.184301116456591,220],["POLM_Q9NP87",0.2976541600103001,-3.879169198993944,160],["CNBP_P62633-3",0.27459349920957044,-4.474966157818333,222],["SPRYD3_Q8NCJ5",0.2937032493638934,-4.1184339613115375,176],["IRF4_Q15306",0.34003833099991504,-4.6842713099959905,150]],"bottom":[["PVRL2_Q92692",-0.2981660587810865,-6.073606869659627,263],["PVRL2_Q92692-2",-0.2615937117849116,-4.032042405457651,218],["POTEI_P0CG38",-0.30952848803118305,-3.1649419996751216,117],["ACTB_P60709",-0.2531883783937296,-4.486510408295839,263],["ZMYM1_Q5SVZ6",-0.2533821709720772,-3.715323104356518,212],["TOR1A_O14656",-0.2520108806734937,-4.448666330843386,263],["ITGA11_Q9UKX5-2",-0.3163063661912167,-3.3396396498239014,119],["FBLN1_P23142",-0.253026357517326,-4.269283235436901,249],["IGFBP4_P22692",-0.2574223546248843,-3.409452474863539,186],["MPZL1_O95297",-0.26461309213066686,-4.8633010190266415,263]]},"para":{"top":[["STIP1_P31948",0.2450338159316507,-4.228178323210437,263],["APIP_Q96GX9",0.24891382485579103,-4.3500036009938885,263],["PPP2R2B_Q00005-7",0.25388932490780985,-4.50912568700901,263],["POLM_Q9NP87",0.3058763899201467,-4.077047693422396,160],["PAK3_O75914-4",0.24430604366021808,-4.20554704215266,263],["S100B_P04271",0.3008890684815344,-3.781335683341542,152],["SPRYD3_Q8NCJ5",0.2670625888759707,-3.469010251813877,176],["SZRD1_Q7Z422",0.24920650888696178,-4.359273513685319,263]],"bottom":[["PVRL2_Q92692",-0.27055038618320676,-5.066073679014089,263],["NR2F6_P10588",-0.24797843477486298,-4.247741715682929,258],["YES1_J3QRU1",-0.2699119400650462,-5.04403842770511,263],["FBLN1_P23142",-0.2636021657290214,-4.599370672840867,249],["TEAD4_Q15561",-0.30745196591650054,-3.312391944045492,125],["APOH_P02749",-0.26205795019502315,-4.46900001812941,244],["THOC1_Q96FV9",-0.25568740188596634,-4.567437205539947,263],["IGFBP4_P22692",-0.25773412647974775,-3.416787443078986,186],["MPZL1_O95297",-0.26217423398391904,-4.781395092129049,263],["SNRPE_P62304",-0.2588644148778871,-4.671521280548977,263]]}}}
{"depmap_copy_number":{"corr":{"top":[],"bottom":[["NR2E3_10002",-0.1248262684216819,-3.282782925903105,769],["THSD4-AS2_101929173",-0.12409992821954827,-3.2499735294215037,769],["MYO9A_4649",-0.1253097083755641,-3.3047167450030037,769]]},"para":{"top":[],"bottom":[]}}}
{"depmap_gene_tpm":{"corr":{"top":[["ARMH3_79591",0.1547449353302647,-4.75994650784124,764],["ZFYVE27_118813",0.16119822800146505,-5.1221827856927735,764]],"bottom":[["EXD2_55218",-0.17305403475053996,-5.825192293616846,764],["SHC3_53358",-0.16737440838503154,-5.4823108980155,764],["CT47B1_643311",-0.16496144359147388,-5.340040067523712,764]]},"para":{"top":[["WDR11_55717",0.1752430603911578,-5.960358904273458,764],["ARMH3_79591",0.15172245767302922,-4.5951904220164685,764],["CD1A_909",0.16480466107123443,-5.330865912044015,764],["ABRAXAS2_23172",0.17513314819002174,-5.953531978731809,764]],"bottom":[]}}}
{"avana":{"corr":{"top":[["MSMB_4477",0.2318770080079904,-10.120007093871049,769],["LRRC18_474354",0.2481168464443172,-11.525928128157787,769],["NUTM2B_729262",0.2603615046473251,-12.654760167226836,769],["ZNF33B_7582",0.24747940557423165,-11.468795981365647,769],["PTPN20_26095",0.35255902921842236,-23.198040899576874,769],["SAMD8_142891",0.24709707721188645,-11.434605875572759,769],["ANXA7_310",0.24099706672738125,-10.896882814796292,769],["OR13A1_79290",0.25382371432466144,-12.044594978058266,769],["AGAP5_729092",0.26730050812601414,-13.321243245756246,769],["DNAJC12_56521",0.25121207431349185,-11.805631570402666,769],["PHYHIPL_84457",0.2937967253445102,-16.049252171481328,769],["COMTD1_118881",0.25558469774458004,-12.207259455963312,769],["WASHC2C_253725",0.25892973805036856,-12.51966656007589,769],["SYT15_83849",0.26142652410253747,-12.755785939936692,769],["SLC16A9_220963",0.2321657800359212,-10.144112297506574,769]],"bottom":[["GIMAP4_55303",-0.1761374742953336,-6.0516112213408215,769],["BRD4_23476",-0.1695297268642298,-5.564921240011197,757],["KRT81_3887",-0.17408350216255677,-5.923281931816168,769],["SLC26A1_10861",-0.17727638650474078,-6.123413033978165,769],["RTL1_388015",-0.19368742825728247,-7.209527577519707,769],["MTA1_9112",-0.172084872252988,-5.7183339869227865,757],["PASD1_139135",-0.15968371963401834,-4.7831511475653254,721]]},"para":{"top":[["LRRC18_474354",0.23904559481348137,-10.727934116301281,769],["MSMB_4477",0.2590216277459352,-12.52831196352843,769],["SHLD2_54537",0.23569146530003815,-10.441012508404377,769],["ZNF33B_7582",0.2352826513550865,-10.406339790700166,769],["NUTM2B_729262",0.30862179962669123,-17.706043639650577,769],["PTPN20_26095",0.36316242889252087,-24.66033598773721,769],["A1CF_29974",0.23981462826767086,-10.794335887678626,769],["OR13A1_79290",0.2563295284882575,-12.276433792699384,769],["AGAP5_729092",0.2617808603585867,-12.789499239630839,769],["PHYHIPL_84457",0.2991851695450691,-16.640396983794624,769],["WASHC2C_253725",0.25200454606785333,-11.877855311964998,769],["COMTD1_118881",0.2604964781994942,-12.66753816299878,769],["MTRNR2L5_100463289",0.2649697437992818,-13.09519443286413,769],["ZNF32_7580",0.24534690974057644,-11.27883111253757,769],["SYT15_83849",0.26025451320862586,-12.644636471823633,769],["ZNF239_8187",0.25453427199089035,-12.110081045060625,769]],"bottom":[["GIMAP4_55303",-0.17052123051980647,-5.7042491762096885,769],["DOK7_285489",-0.14531716439597914,-4.280753113612464,769],["SLC26A1_10861",-0.16116852559885836,-5.150363759093049,769],["PQLC2_54896",-0.1485870494061445,-4.453092572828938,769],["B4GALNT3_283358",-0.1788152993469165,-6.221164195635638,769],["PHRF1_57661",-0.1512311289514483,-4.531710387543294,757],["KIFC2_90990",-0.1475393183628072,-4.39747553416553,769],["ART5_116969",-0.1611570943612659,-5.149705438837637,769]]}}}
{"drive":{"corr":{"top":[["PARP15_165631",0.22290343555077055,-3.66487994491777,271],["ANXA4_307",0.25079773900220736,-4.528686597285724,271],["DECR1_1666",0.22429440801110495,-3.705524542941689,271],["YBX3_8531",0.23136345561299723,-3.9159805471338927,271],["ADH1C_126",0.2272168844117617,-3.755030325456927,268],["SULT1E1_6783",0.22886925384617943,-3.8037484033302777,268],["MSH5-SAPCD1&MSH5_100532732&4439",0.2272542607288502,-3.8540021586743736,276]],"bottom":[["STK26_51765",-0.26377427596882647,-4.917115637915251,268],["NFKBIE_4794",-0.2472784567626824,-4.486113887876573,276],["ELF5_2001",-0.2702158333052132,-5.106194864324733,266],["OGDH_4967",-0.2855687670112588,-5.812191301686307,274],["PDE1A_5136",-0.256682043940192,-4.677638839538869,268],["XAB2_56949",-0.24420160468410898,-4.244604979468765,266],["ZNF76_7629",-0.2632370185713775,-4.947748052271063,271],["MELTF_4241",-0.2955863775010501,-6.242842684921998,276],["WNT1_7471",-0.29229620146583024,-5.9512174161183236,268],["LAMP2_3920",-0.24709057709771498,-4.407895717995515,271],["LDLRAD4_753",-0.2586036458771184,-4.7102850932451386,266],["GRK4_2868",-0.2757756707278751,-5.481566959109983,276],["UHMK1_127933",-0.2837141483388699,-5.589922506380548,266]]},"para":{"top":[["SPTY2D1_144108",0.21122839814447972,-3.2804107557779925,266],["SULT1E1_6783",0.22401782245119084,-3.6617103462982366,268]],"bottom":[["STK26_51765",-0.2176707883876774,-3.4804408815888355,268],["MYO10_4651",-0.23663439820508167,-4.037443152747728,268],["ATG4A_115201",-0.2279952369301054,-3.87643048322788,276],["HNRNPUL2-BSCL2_100534595",-0.2137018437626941,-3.3696904921501596,268],["NFATC4_4776",-0.22935722978965362,-3.855587951527126,271],["TSSK1B_83942",-0.23019556043918366,-3.843108503596554,268],["PDE1A_5136",-0.22657155913446422,-3.7360994263964047,268],["SFPQ_6421",-0.23128757035859632,-3.9136865847459292,271],["KCNJ11_3767",-0.23051026982757117,-3.852481443655359,268],["MELTF_4241",-0.26245621665402635,-5.001975541520431,276],["WNT1_7471",-0.29207604219041955,-5.94278942968905,268],["UBE2I_7329",-0.21739188649824173,-3.4501167376839263,266],["UHMK1_127933",-0.31805547319970645,-6.939120484956346,266]]}}}
{"achilles":{"corr":{"top":[["TAP1_6890",0.22331702628312455,-4.639971482332069,353],["NNAT_4826",0.25890919764353665,-3.8138389373878745,209],["ZCCHC14_23174",0.235226544116861,-5.099904004629924,353],["VN1R3_317702",0.22038795943471756,-4.530581655688474,353],["PLAA_9373",0.22357263473939623,-4.649586867793916,353],["FNDC7_163479",0.23628184668435295,-3.2421948375889014,209],["CRY1_1407",0.21745182016102862,-4.422389875846659,353],["CNIH3_149111",0.24416348604471158,-3.4353213413452544,209],["ACCS_84680",0.20971755797050268,-4.144349571971772,353],["RHOBTB1_9886",0.234493640964092,-5.07089192020551,353]],"bottom":[["CYB5D1_124637",-0.27119941820953225,-4.146834681450624,209],["USE1_55850",-0.2590381398036297,-3.8172491247163984,209],["CEACAM8_1088",-0.2501635989999632,-5.711741193943836,353],["CYP2C19_1557",-0.23595431089162106,-5.12880533321655,353],["ATPIF1_93974",-0.2647385968128388,-3.969771882080771,209],["DNAJC14_85406",-0.28525989039943206,-4.547844989674034,209]]},"para":{"top":[["EFNA3_1944",0.2188354814111124,-4.473193528917925,353],["PDCD11_22984",0.23294191957311036,-3.1622563739655605,209],["VN1R3_317702",0.22086182842168056,-4.548179939578902,353],["RHOBTB1_9886",0.24183850956425884,-5.365883067644675,353],["FNDC7_163479",0.22484950038301843,-2.9732079775718794,209],["GOLGA2P7_388152",0.21265838675074053,-2.700627906863456,209],["ACCS_84680",0.2327918177527435,-5.003885143653154,353],["FASTKD3_79072",0.2230735661012262,-2.9325914820068113,209],["YBX3_8531",0.2387074447719716,-5.238975303637523,353],["CYP2C9_1559",0.22524029678813118,-4.712594377955866,353],["GALNT5_11227",0.21630465117992873,-4.380514798601508,353]],"bottom":[["USE1_55850",-0.227781445539016,-3.0409471976302966,209],["AZIN2_113451",-0.22313422065921068,-4.633101605919675,353],["C2orf71_388939",-0.2205772990303839,-2.87602693713893,209],["CYP2C19_1557",-0.2527290118962856,-5.820808011366458,353],["CEACAM8_1088",-0.23059311042286812,-4.918057760599886,353],["SMCR8_140775",-0.23887574046186402,-3.3050557051239164,209],["ATPIF1_93974",-0.25413699775360826,-3.6888572403968727,209],["DNAJC14_85406",-0.2643656252917074,-3.959686937022416,209],["GML_2765",-0.23058295418913918,-3.106472617122195,209],["IFI6_2537",-0.23750916848727058,-3.2718529369281604,209]]}}}
{"ccle_rrbs_tss1kb":{"corr":{"top":[["ANKRD26P1_16_46603009_46604009",0.18699812670271745,-4.27984690706278,462],["EFL1_15_82555104_82556104",0.19415673156560057,-4.5862137353557655,463],["AXL_19_41724103_41725103",0.22297003496628767,-4.498833127767884,342],["OBSL1_2_220436268_220437268",0.18961805353960087,-4.362346952506484,459],["DHDDS_1_26757772_26758772",0.19443080422339196,-4.615442640056448,465],["CELF2-AS1_10_11386673_11387673",0.20992947839012333,-4.9138698521777355,427],["KCNAB2_1_6093347_6094347",0.18664397098698401,-4.3060303928245025,467],["SYNPR_3_63262913_63263913",0.18745193348562295,-3.207592686607867,330]],"bottom":[["LOC100652758_5_151151069_151152069",-0.17889575927943463,-3.9711391461325225,464],["PIGO_9_35096598_35097598",-0.18596540151452504,-4.157080624553166,452],["CLP1_11_57424215_57425215",-0.16853641676812975,-3.602435176350888,468],["TMA16_4_164414672_164415672",-0.1694588471287065,-3.6032956608578837,463]]},"para":{"top":[["LOC100129620_1_99468831_99469831",0.18218126355358424,-4.0081563845035895,452],["COL9A1_6_70992911_70993911",0.18418028532444491,-4.094386532809808,453],["DHDDS_1_26757772_26758772",0.18195290096914943,-4.099870475631603,465],["CELF2-AS1_10_11386673_11387673",0.19358608824788134,-4.247426266473589,427]],"bottom":[["FYN_6_112194655_112195655",-0.15888383728278055,-3.215463093692209,462]]}}}
{"ccle_gene_tpm":{"corr":{"top":[["RP11-147L13.8_ENSG00000267731.1",0.18569306678606745,-5.107403985347733,572],["NFATC1_ENSG00000131196.13",0.17848815077732202,-4.755777186260812,572],["AL645730.2_ENSG00000227839.1",0.17772380735382545,-4.719275041474403,572],["CIR1P2_ENSG00000250215.1",0.17883410547152429,-4.772348990405691,572],["RP11-13N13.5_ENSG00000264188.1",0.17391156074114283,-4.539496655977125,572],["RP11-540B6.2_ENSG00000260382.1",0.2153598708181785,-6.701773536743608,572]],"bottom":[["KDELR1_ENSG00000105438.4",-0.1797320434878437,-4.815508177054603,572],["None_ENSG00000259024.2",-0.19722798946361975,-5.699041266503088,572],["SHC3_ENSG00000148082.5",-0.1991301899438331,-5.8000345034700285,572],["AIG1_ENSG00000146416.12",-0.18388256345022805,-5.017756978394555,572],["CT47B1_ENSG00000236446.2",-0.19668686879987837,-5.670489904935884,572],["RP11-82L18.4_ENSG00000231632.1",-0.1922515008091624,-5.439430792493616,572]]},"para":{"top":[["RCCD1_ENSG00000166965.8",0.1691497431342417,-4.320249480311994,572],["MAP4K2_ENSG00000168067.7",0.17493510295373077,-4.587392614276621,572],["CD1A_ENSG00000158477.6",0.18848745715205706,-5.2474731154964225,572],["NFATC1_ENSG00000131196.13",0.17032138806824657,-4.373650022417173,572],["CTC-436K13.1_ENSG00000253673.1",0.19069273327608102,-5.359478678641807,572]],"bottom":[["None_ENSG00000259024.2",-0.19665103871539996,-5.66860217207842,572],["TVP23C_ENSG00000175106.12",-0.17421519905721838,-4.553676736094811,572],["RP11-644K8.1_ENSG00000223734.2",-0.17748428492294963,-4.707867836143306,572],["None_ENSG00000268614.1",-0.17726267348121796,-4.697327008280957,572]]}}}
{"ccle_rrbs_tss_clusters":{"corr":{"top":[["RUNX3_2",0.23270726693842209,-6.510532971335656,473],["PLA2G7_3",0.23365769259525193,-3.972773371879582,270],["LOC101927157_2",0.23719948107405042,-4.849366336347093,328],["LINC00395_2",0.3120767930362587,-3.4027132029741005,125],["MRNIP_3",0.231047252577574,-3.271096677712981,221],["HLF_5",0.2287204885517801,-3.1759147302676314,218],["KTN1_1",0.25818959175544764,-3.0897783976230753,165],["RUNX3_3",0.2354508978095837,-6.564533539613322,466]],"bottom":[["PFKFB4_6",-0.20302244994097152,-4.047323218591515,367],["C6orf47_2",-0.24126286719112186,-2.971226684869514,181],["CYTH1_11",-0.20366529383759982,-2.508802163045991,209],["LNPEP_2",-0.20198529588913003,-3.5490901854994057,319],["FAM228B_2",-0.18727657779273246,-4.381147535312086,473]]},"para":{"top":[["RPS9_1",0.24573722144462193,-2.8047295207516227,163],["DDIT4L_2",0.30692246568898046,-3.554951429405706,136],["PLA2G7_3",0.23425292772893175,-3.9909089368387085,270],["LINC00395_2",0.30776614057253293,-3.3184813342304507,125],["MRNIP_3",0.25229049348360794,-3.8234436056564185,221],["KTN1_1",0.2703996728989879,-3.3528784050766856,165],["HLF_5",0.25457094365851074,-3.839332659843269,218],["LRMDA_4",0.2810744372844773,-3.1721950812849014,143],["RNF222_3",0.2421453176898154,-4.622791393416531,298],["ARHGAP21_1",0.24030151935577815,-3.629729112197998,230]],"bottom":[["MLLT11_1",-0.17926294663433098,-3.25971186337908,368],["RGL4_2",-0.21292160340970404,-3.5205665401963153,284]]}}}
{"ccle_rrbs_cgi_clusters":{"corr":{"top":[["22_39636219_39639593-3",0.26368927848403517,-3.324329921536535,172],["24_14532857_14535600-3",0.2884544396008297,-2.915691587388917,123],["23_117627624_117630200-2",0.2590902672074902,-3.6902642464495283,201],["14_56044634_56047310-1",0.25818959175544764,-3.0897783976230753,165],["6_73865584_73869934-2",0.2862447748814753,-3.4953846177559518,154]],"bottom":[["17_76775510_76780390-2",-0.20366529383759982,-2.508802163045991,209],["6_31626338_31630658-2",-0.24126286719112186,-2.971226684869514,181],["2_24296969_24301512-2",-0.18727657779273246,-4.381147535312086,473]]},"para":{"top":[["5_38258481_38261136-1",0.2476067019791666,-3.3306212229637935,196],["22_39636219_39639593-3",0.2816725417411737,-3.7407395960943224,172],["24_14532857_14535600-3",0.3269600676905357,-3.6511737247893605,123],["17_21932703_21937014-1",0.29810472689552653,-3.2646223791456084,131],["4_101109146_101113497-2",0.30692246568898046,-3.554951429405706,136],["5_179285833_179288416-2",0.25229049348360794,-3.8234436056564185,221],["9_85675015_85677668-2",0.25663129424831826,-3.4383710272805845,189],["14_56044634_56047310-1",0.2703996728989879,-3.3528784050766856,165]],"bottom":[["17_27940034_27942770-3",-0.2567204226742577,-3.582793329849032,198],["17_27491203_27495880-2",-0.19202740808541313,-4.307237435206114,441],["12_124948705_124952939-1",-0.19386210584361874,-4.538727254810056,459],["17_36712408_36716825-1",-0.21499492004535523,-4.959302719887462,411]]}}}
