{"depmap_hotspot":{"corr":{"top":[["AKAP13",0.09992341154804295,-2.2510780381863014,90.0,677.0],["CCZ1",0.1042229283858008,-2.413706718531363,24.0,743.0],["CLEC5A",0.09958760239314368,-2.2386228083787323,11.0,756.0],["CNTNAP1",0.1169477007547748,-2.9296821589307664,45.0,722.0],["FLVCR2",0.10644887062744962,-2.500213688941004,18.0,749.0],["GPAA1",0.1118984688157129,-2.718700375421591,30.0,737.0],["KCNJ10",0.1253270002531924,-3.298128550532378,9.0,758.0],["LGALS3BP",0.11550763131766038,-2.868667053610624,26.0,741.0],["LPPR4",0.10888631618375166,-2.5967576833652926,49.0,718.0],["MRPL35",0.12706160595507332,-3.377278691718913,12.0,755.0],["MT-ATP6",0.12656938049843353,-3.354717633227533,131.0,636.0],["NBPF10",0.10185853581189648,-2.323547771572675,54.0,713.0],["PHGDH",0.10569962118525603,-2.4709189569141614,28.0,739.0],["PLD4",0.11291019856186996,-2.760314625069326,19.0,748.0],["PROB1",0.11382260181559457,-2.7981269393949493,35.0,732.0],["PRR19",0.12443213551833904,-3.257683230054867,17.0,750.0],["PSMB7",0.13857602701711275,-3.9279714107239645,13.0,754.0],["PSPN",0.13269894004892,-3.6413801682568336,9.0,758.0],["QSOX2",0.1434152960178442,-4.172648749431632,33.0,734.0],["RFC2",0.10074522402717674,-2.281709717479429,11.0,756.0],["TARS",0.09726008566328723,-2.1532733584274597,25.0,742.0],["TRIM7",0.10070856204714489,-2.2803386475446086,29.0,738.0],["WIPF2",0.11433546135957895,-2.8194993497577436,15.0,752.0],["ZNF644",0.10020822689008432,-2.261669849610567,60.0,707.0]],"bottom":[["BTBD7",-0.11355587484234478,-2.78704525571616,64.0,703.0],["CNIH3",-0.17752958774669203,-6.125002156817228,8.0,759.0],["DCAF8L2",-0.11950568320545137,-3.039725808184811,35.0,732.0],["EIF1AX",-0.1189602480413707,-3.016082530786952,8.0,759.0],["FAM46C",-0.11077684801124515,-2.6729519549489686,16.0,751.0],["FURIN",-0.09785533056066054,-2.174938249051729,36.0,731.0],["KCNJ9",-0.1094405272185446,-2.618975082737282,17.0,750.0],["KIF4B",-0.11969376446099972,-3.0479011744900886,59.0,708.0],["LRRTM4",-0.11435250027132322,-2.8202108739785468,54.0,713.0],["MAGEE1",-0.11048126895814644,-2.6609634036699656,44.0,723.0],["OLFML1",-0.09757068013883659,-2.164564016917689,14.0,753.0],["OR5H2",-0.09649627106374684,-2.125636495121269,21.0,746.0],["OR6P1",-0.11009202090045908,-2.6452185694184935,35.0,732.0],["PGLYRP3",-0.11192815345272976,-2.7199166539287543,25.0,742.0],["PTX4",-0.1158625217811573,-2.8836410949054283,33.0,734.0],["RGL3",-0.09788887619115834,-2.1761625186954356,23.0,744.0],["SIAH2",-0.14102410723345016,-4.050763051982423,17.0,750.0],["SLC35D3",-0.10699267083588215,-2.521588007188815,19.0,748.0],["TBX18",-0.12507719008345608,-3.2868113425876384,40.0,727.0],["TMEM187",-0.10791638767935972,-2.558112068636001,15.0,752.0],["TMEM45A",-0.12455149369070752,-3.2630626564253222,12.0,755.0],["USP53",-0.11342352560266035,-2.7815550927419657,27.0,740.0],["XPA",-0.11029923961707644,-2.6535943662241244,19.0,748.0],["ZNF469",-0.11520535360878556,-2.8559451389681807,135.0,632.0]]},"para":{"top":[["BATF2",0.10763208098497173,-2.838569077986042,8.0,759.0],["CLEC5A",0.10965188224704556,-2.9185797640817017,11.0,756.0],["FLVCR2",0.11406609507131933,-3.0976971645931832,18.0,749.0],["GTF2IRD2",0.11013508802717302,-2.9380591483891787,17.0,750.0],["KCNJ10",0.12872008438106694,-3.7347888837250496,9.0,758.0],["MRPL35",0.1317909788385582,-3.877063170933969,12.0,755.0],["NPIPB15",0.10651942411823212,-2.7951880992824254,9.0,758.0],["PRR19",0.12983420945567586,-3.7863408221757404,17.0,750.0],["SLC25A39",0.10161546799819614,-2.6085279670143118,17.0,750.0],["SMIM20",0.10091228394416352,-2.5821066916850235,10.0,757.0],["WIPF2",0.10614162835465234,-2.780759032355926,15.0,752.0]],"bottom":[["ANKMY2",-0.1006132785839535,-2.571056702432577,11.0,756.0],["CLEC1B",-0.1107298941680801,-2.9616081091298936,9.0,758.0],["CNIH3",-0.13429377040505086,-3.9948281095172864,8.0,759.0],["EIF1AX",-0.11678979169882506,-3.210705529855244,8.0,759.0],["FAM46C",-0.10689796311126142,-2.8101885923408716,16.0,751.0],["FAM92B",-0.09693503278622992,-2.436946602832918,15.0,752.0],["FBXL4",-0.09911083070500648,-2.5158774052679145,16.0,751.0],["HERPUD2",-0.10460241686754332,-2.7213702822548917,12.0,755.0],["HIF1AN",-0.10101844025425326,-2.586199333737158,14.0,753.0],["HNMT",-0.09210319262902879,-2.266830870315427,13.0,754.0],["HTRA1",-0.11016794025454293,-2.939434195034669,20.0,747.0],["IFITM1",-0.09345056253493772,-2.313379678935473,9.0,758.0],["KCNJ9",-0.10229543767187033,-2.634007456657817,17.0,750.0],["NEUROG3",-0.10595123534761897,-2.773086322437368,8.0,759.0],["OR52E4",-0.10104731336687939,-2.5873248686078885,16.0,751.0],["OTOR",-0.09922785279820771,-2.5198554032264653,8.0,759.0],["SIAH2",-0.13157413185595998,-3.8671049610399493,17.0,750.0],["SLC35D3",-0.12767269218478164,-3.687380729351273,19.0,748.0],["TMEM187",-0.12432093369183736,-3.536649842361231,15.0,752.0],["TMEM45A",-0.11250275817325708,-3.0334704976739113,12.0,755.0],["WBP1L",-0.09008287068406942,-2.197798089038944,12.0,755.0]]}}}
{"depmap_damaging":{"corr":{"top":[["AKAP13",0.11878393411085046,-3.008460503028253,11.0,756.0],["COL21A1",0.10113635504249037,-2.2963635800883355,11.0,756.0],["MAGI2",0.1486129630820113,-4.444258804814254,10.0,757.0],["ZNF644",0.09957498747968103,-2.2381556134815925,23.0,744.0]],"bottom":[["HCFC1",-0.09748565224205376,-2.161470082422652,11.0,756.0],["NPHP3",-0.11037726227830873,-2.6567516279577226,9.0,758.0],["PTX4",-0.11864046334484607,-3.002265758383707,10.0,757.0],["TBC1D10B",-0.11582993492244564,-2.8822644401887034,8.0,759.0],["ZNF677",-0.1277959997883742,-3.4110881351707176,8.0,759.0]]},"para":{"top":[["AKAP13",0.09736928658432317,-2.452453165243232,11.0,756.0],["LSM1",0.10257652464980888,-2.6446847660024413,23.0,744.0],["MAGI2",0.11269576565986571,-3.041246059692733,10.0,757.0],["PNPLA6",0.10973691782816955,-2.92192150948309,10.0,757.0],["ZNF644",0.10419924314813976,-2.7062065343887256,23.0,744.0]],"bottom":[["HCFC1",-0.10140570411058075,-2.600518747501583,11.0,756.0],["KMT2E",-0.11018232953819679,-2.939589596054333,8.0,759.0],["NPHP3",-0.10723028269807658,-2.8229004824527735,9.0,758.0],["ZNF677",-0.09853233046550998,-2.494451101339033,8.0,759.0]]}}}
{"ccle_rrbs_enhancer_clusters":{"corr":{"top":[],"bottom":[]},"para":{"top":[],"bottom":[["2-172955645-172958345-1_enh",-0.15983855873233171,-3.2066661434705366,455]]}}}
{"prism_primary_logfold":{"corr":{"top":[["atropine_BRD-A27290375-330-01-1::2.5::HTS",0.17019216530663991,-3.1385510939680525,391],["niclosamide_BRD-K35960502-001-20-0::2.5::HTS",0.1768631355560905,-3.3548025870971863,391],["traxoprodil_BRD-K38158531-001-02-1::2.5::HTS",0.17138494390155964,-3.1487861258136185,387],["chlorobutanol_BRD-K39495750-001-01-2::2.5::HTS",0.1803614409843395,-3.30988590680626,370],["alfaxalone_BRD-K41445866-001-18-8::2.5::HTS",0.16450007661458685,-2.966604005098769,392],["preladenant_BRD-K46290096-001-01-1::2.5::HTS",0.1707455647454585,-3.142365705358855,389],["baicalin_BRD-K49962337-001-01-1::2.5::HTS",0.16827221519584387,-3.0844761256752324,392],["PRE-084_BRD-K57304726-003-06-9::2.5::HTS",0.18367572105509253,-3.599623599702075,393],["propentofylline_BRD-K59273480-001-10-6::2.5::HTS",0.16677671376691758,-3.0440586939050296,393],["HC-030031_BRD-K73815512-001-02-5::2.5::HTS",0.19252966135358973,-3.9023076107798267,392],["NPPB_BRD-K89272762-001-12-7::2.5::HTS",0.17194538861598785,-3.2086406904551352,393],["AM-251_BRD-K92000912-001-12-6::2.5::HTS",0.21360804437547987,-4.699267472279926,392],["phentermine_BRD-K96319534-003-03-9::2.5::HTS",0.17618591288651717,-3.339831984008046,392]],"bottom":[]},"para":{"top":[["atropine_BRD-A27290375-330-01-1::2.5::HTS",0.17258200216336378,-3.2151267358773623,391],["vanillin_BRD-K24258499-001-05-8::2.5::HTS",0.17382399433542223,-3.2266974692688315,387],["traxoprodil_BRD-K38158531-001-02-1::2.5::HTS",0.16794765932982494,-3.0407303595669046,387],["PRE-084_BRD-K57304726-003-06-9::2.5::HTS",0.19128341181372263,-3.8663237436961375,393],["tiracizine_BRD-K75250001-001-01-3::2.5::HTS",0.16958511885240166,-3.1192585598907776,391],["salicylamide_BRD-K81130846-001-17-4::2.5::HTS",0.16318705993216828,-2.919809283425336,391],["SCH-58261_BRD-K81225797-001-02-3::2.5::HTS",0.16413524147674383,-2.9489205631372086,391],["NPPB_BRD-K89272762-001-12-7::2.5::HTS",0.18141277977965545,-3.5222957157046864,393],["AM-251_BRD-K92000912-001-12-6::2.5::HTS",0.1747070251850319,-3.2912771708784363,392],["tempol_BRD-K95053546-001-01-9::2.5::HTS",0.17509197356244166,-3.30387872019567,392],["daprodustat_BRD-K06455935-001-01-3::2.499992329::MTS004",0.182525940064391,-3.458061619658563,380],["alclofenac_BRD-K47492008-001-02-7::2.5::MTS004",0.16540764517063966,-2.9165639954884632,380]],"bottom":[["benzbromarone_BRD-K11717138-001-30-3::2.5::HTS",-0.1868608838350435,-3.5619916864319245,375],["ASC-J9_BRD-K30331124-001-01-7::2.5::HTS",-0.17700467304354048,-3.35947534414487,391]]}}}
{"prism_secondary_logfold":{"corr":{"top":[["sparfloxacin_BRD-K07612980-001-05-3::0.0025258::HTS002",0.18970668814657643,-3.292016035423313,332],["FG-4592_BRD-K14385366-001-04-4::0.00253306::HTS002",0.19718106080579628,-3.448448614288968,324],["cefdinir_BRD-K15766189-001-09-8::0.00976562::HTS002",0.18724876744623856,-3.2598395472469797,337],["spermine_BRD-K18375018-376-02-3::0.0390625::HTS002",0.2143677222660363,-4.137709928425393,337],["clonazepam_BRD-K38183498-001-02-0::0.0024414::HTS002",0.1908965730762013,-3.3367089452576932,333],["Ro-90-7501_BRD-K58299615-001-03-5::0.0024414::HTS002",0.21239611464787259,-4.101794732128098,340],["fluvastatin_BRD-K66296774-236-11-3::0.00256801::HTS002",0.19016529277666366,-3.3487538557268324,337],["riboflavin_BRD-K70246307-001-04-1::10::HTS002",0.20385682544350353,-3.7837645608049275,337],["bekanamycin_BRD-K73425385-065-04-8::0.0024414::HTS002",0.19241148535143152,-3.418124395092235,337],["vandetanib_BRD-K77625799-001-07-7::0.00061034::HTS002",0.21802325293750918,-4.007769742807888,314],["almorexant_BRD-K84810405-003-01-1::0.0390625::HTS002",0.22098577646088843,-4.369628253267851,337],["melphalan_BRD-K87827419-001-16-8::0.0390625::HTS002",0.1881157837383069,-3.2861353342910524,337]],"bottom":[["dapivirine_BRD-K12885236-001-02-7::2.5::HTS002",-0.18542796949180057,-3.1723145229762966,333],["sonidegib_BRD-K19796430-001-05-6::0.0391::MTS010::PROS004_PR500",-0.20478332381944622,-3.7549345189223473,331],["gidazepam_BRD-K22588750-001-07-0::0.000610354::MTS006",-0.1678885534151564,-2.6888325272441325,335],["PU-H71_BRD-K36529613-001-02-6::0.15625::HTS002",-0.2035659942327902,-3.744904036551242,334],["lurasidone_BRD-K51143828-003-03-1::0.625::HTS002",-0.16679713221201528,-2.6726096970096056,337],["dacinostat_BRD-K56957086-001-06-3::10::HTS002",-0.18692360613624368,-3.2251234328261473,334],["oltipraz_BRD-K86972824-001-01-4::0.00977::MTS010::PROS005_PR500",-0.18537548169728127,-3.1298998692523434,328]]},"para":{"top":[["FG-4592_BRD-K14385366-001-04-4::0.00253306::HTS002",0.19798241025856395,-3.4730424219027576,324],["cefdinir_BRD-K15766189-001-09-8::0.00976562::HTS002",0.2080851549154105,-3.9240417371792864,337],["sufentanil_BRD-K21547160-001-01-4::0.0390625::HTS002",0.20982272991277504,-3.754197138913694,315],["clonazepam_BRD-K38183498-001-02-0::0.0024414::HTS002",0.19679700851996865,-3.5191914801890776,333],["Y-27632_BRD-K44084986-300-08-4::0.0390625::HTS002",0.18956413637056965,-2.8937122951500167,286],["tacedinaline_BRD-K52313696-001-12-3::0.0390625::HTS002",0.18420011849536097,-2.754893104108543,286],["Ro-90-7501_BRD-K58299615-001-03-5::0.0024414::HTS002",0.22161562836280427,-4.426633729698221,340],["MLN0128_BRD-K59317601-001-05-5::2.5::HTS002",0.2161755232002222,-3.3717494717562126,262],["bekanamycin_BRD-K73425385-065-04-8::0.0024414::HTS002",0.1888080046047496,-3.3072125324046606,337],["se-methylselenocysteine_BRD-K74227499-001-01-1::2.5::HTS002",0.18385844325081116,-3.158118401394393,337],["GS-39783_BRD-K75478907-001-02-3::0.0024414::HTS002",0.2008963201834692,-3.649117661166195,333],["vandetanib_BRD-K77625799-001-07-7::0.00061034::HTS002",0.2076750835619026,-3.676315047543546,314],["fluocinolone-acetonide_BRD-K94353609-001-21-6::0.0024414::HTS002",0.19996786191617755,-3.6572314058402746,337]],"bottom":[["sonidegib_BRD-K19796430-001-05-6::0.0391::MTS010::PROS004_PR500",-0.21434959645868942,-4.07226481931663,331],["PU-H71_BRD-K36529613-001-02-6::0.15625::HTS002",-0.179049971364309,-2.993923770131705,334],["canertinib_BRD-K50168500-001-07-9::0.15625::MTS010::PROS001_PR500",-0.20054926404575332,-3.571490437170297,326],["ispinesib_BRD-K64881305-001-03-7::10::HTS002",-0.20906631698866748,-3.9261279721392524,334],["oltipraz_BRD-K86972824-001-01-4::0.00977::MTS010::PROS005_PR500",-0.20923934205244585,-3.870025288922451,328],["darifenacin_BRD-K95773607-004-03-8::0.00976562::HTS002",-0.19726163148325845,-3.5245860815458756,332]]}}}
{"ccle_proteomics":{"corr":{"top":[["CEND1_Q8N111",0.2835909833342993,-3.0071300948743014,132],["CLK1_P49759-3",0.22398814210509682,-3.194495039132265,229]],"bottom":[["TLE1_Q04724",-0.2909289682213519,-5.659230951468519,256],["BTBD10_Q9BSF8",-0.3180194545562531,-2.973895693452918,103],["DCAF8_G3V3G9",-0.2512452753323891,-4.424158675035499,263],["IVNS1ABP_Q9Y6Y0",-0.2761319748494059,-5.261102080753716,263],["DESI2_Q9BSY9",-0.2861452101867296,-4.163180347755304,188]]},"para":{"top":[["HOXB9_P17482",0.29613173353932754,-4.349202438169436,184],["ZNF532_Q9HCE3",0.22644314814347363,-3.378600215646065,239],["CLK1_P49759-3",0.2192306808336996,-3.077076777061929,229],["ZNF597_Q96LX8",0.27983278357974134,-3.109249323991521,141]],"bottom":[["GLTP_Q9NZD2",-0.22972731291359386,-3.62878353541471,252],["BTBD10_Q9BSF8",-0.32357423113900674,-3.0675072603217255,103],["MGEA5_O60502",-0.2285547485701971,-3.7325140423186727,263],["TSG101_Q99816",-0.22831232312838903,-3.725481825612096,263],["IVNS1ABP_Q9Y6Y0",-0.2445375080232527,-4.2127373110522015,263],["HSPBAP1_Q96EW2",-0.23348818378432515,-3.266807700248272,216]]}}}
{"depmap_copy_number":{"corr":{"top":[],"bottom":[["MIR3124_100422879",-0.15343200409221527,-4.715157038969981,769],["OR2T1_26696",-0.1550575112470399,-4.804884414854383,769],["PGBD2_267002",-0.15343200409221527,-4.715157038969981,769],["OR2T3_343173",-0.1565427281838141,-4.887662915386648,769],["OR2G6_391211",-0.1593514572941665,-5.04628853724322,769],["OR2T2_401992",-0.15617251240303254,-4.866957826333781,769],["OR2T5_401993",-0.1580906601626922,-4.974746576585164,769],["ZNF692_55657",-0.15343200409221527,-4.715157038969981,769],["ZNF672_79894",-0.15343200409221527,-4.715157038969981,769]]},"para":{"top":[],"bottom":[]}}}
{"depmap_gene_tpm":{"corr":{"top":[],"bottom":[["RPL36_25873",-0.1667602979937834,-5.445910499271074,764],["LCE1B_353132",-0.14665094827529088,-4.325719179861409,764],["RPL39_6170",-0.14253163458361223,-4.113241845627971,764]]},"para":{"top":[["HOXA9_3205",0.15134259606792405,-4.574704245801324,764],["C12orf49_79794",0.14750409992648958,-4.370441073191461,764],["OTOF_9381",0.16853266128272346,-5.55132153388365,764],["GCG_2641",0.14922543600355725,-4.461422821378343,764],["ACOX1_51",0.1585381198565246,-4.971133218878561,764],["TAC3_6866",0.1842157809781351,-6.532065319973641,764],["SOSTDC1_25928",0.15755316417177026,-4.915821430948023,764],["OR56A4_120793",0.15015837386580932,-4.511153280348294,764]],"bottom":[["RPL36_25873",-0.1620806411851024,-5.172827574087039,764]]}}}
{"avana":{"corr":{"top":[["OR2M5_127059",0.2630739521369316,-12.912961477335294,769],["SH3BP5L_80851",0.2148766630977319,-8.75698693464864,769],["SMYD3_64754",0.25424161546364166,-11.90565788358683,757],["OR2T1_26696",0.29262238834492765,-15.922077283781045,769],["OR2L5_81466",0.353831681102694,-23.370643373945057,769],["CNST_163882",0.21635630003300485,-8.871272231882235,769],["HACL1_26061",0.22394922985216695,-9.470724275691262,769],["WDR27_253769",0.2136629437978483,-8.663853694915716,769]],"bottom":[["MRPS27_23107",-0.2157464448331055,-8.824068223548895,769],["PTCD1_26024",-0.22871991331870617,-9.858559809298859,769],["CLEC4M_10332",-0.18690920220135177,-6.74919826364826,769],["TXN2_25828",-0.22904116451398118,-9.884988668647976,769],["GPR152_390212",-0.20990977621792703,-8.379342910264253,769],["CA11_770",-0.19391237600201902,-7.2250897769805285,769],["CYP4F22_126410",-0.2142624228639223,-8.709785008032663,769],["CXCL13_10563",-0.19076672169074785,-7.009136176643274,769],["DCUN1D3_123879",-0.19020657488668835,-6.971057353359227,769],["NAP1L5_266812",-0.20348022443706196,-7.7906862110893815,757],["C19orf44_84167",-0.2142571364063026,-8.709379378320918,769],["MAPK8IP1_9479",-0.1877426213309174,-6.804903468571919,769],["ASTL_431705",-0.1886515704807914,-6.86594237347049,769],["PET100_100131801",-0.21695332065196016,-8.917618197548249,769],["HTRA3_94031",-0.1929791531509725,-7.1606481834718965,769]]},"para":{"top":[["OR2M5_127059",0.2563879005263256,-12.281864343968419,769],["OR2L3_391192",0.2524935068696196,-11.922542492599069,769],["SMYD3_64754",0.1959753214938665,-7.263387807692556,757],["FRG2B_441581",0.24337386516958612,-11.104663937948615,769],["CNST_163882",0.2126567066907144,-8.587059386664519,769],["OR2L5_81466",0.3427437060204501,-21.893071147440736,769]],"bottom":[["MRPS27_23107",-0.20724928351921545,-8.180839693567583,769],["PTCD1_26024",-0.19819682377310416,-7.525012261285905,769],["TXN2_25828",-0.18814181506371802,-6.831673949717594,769],["COA5_493753",-0.2068791091417656,-8.153428606701496,769],["PPP1R32_220004",-0.18483861974821666,-6.6118831784812935,769],["CYP4F22_126410",-0.20844327260330878,-8.26959980763704,769],["C19orf44_84167",-0.18774612647155445,-6.805138278218723,769],["ERAL1_26284",-0.18534717883269128,-6.645466663627467,769]]}}}
{"drive":{"corr":{"top":[["APPBP2_10513",0.2437378151907326,-4.230067540843096,266],["MAPKAP1_79109",0.23145825861742547,-3.8554108011629706,266]],"bottom":[["IL18R1_8809",-0.24590030161603624,-4.32666656526376,268],["CDK7_1022",-0.24980425725123329,-4.496132811881384,271],["KCTD1_284252",-0.23403651456003163,-4.03613275777626,274],["ECT2_1894",-0.23277796032040232,-3.958878836196453,271],["PPP2R2B_5521",-0.2292803290201298,-3.853283546591945,271],["OGFOD1_55239",-0.25970327955933475,-4.826530065121063,271],["DYRK1B_9149",-0.23492810248569138,-4.024592547116406,271],["TCL1A_8115",-0.2532037831848416,-4.532430132161629,266],["SPP1_6696",-0.23063051287599304,-3.8938558094108124,271],["WDR90_197335",-0.24401336509995342,-4.309043114665191,271],["PRPF31_26121",-0.24641099492684554,-4.385954814859671,271]]},"para":{"top":[["GABBR2_9568",0.21088739950916194,-3.3558994871038577,274],["BNIP3_664",0.22232435488726407,-3.648032985780721,271],["MAPKAP1_79109",0.2317876244997921,-3.8652041750773507,266],["APPBP2_10513",0.22499794376566826,-3.666138554022805,266],["ITGB5_3693",0.2633882751623701,-4.871177131241495,266],["PCDH10_57575",0.2220016153397273,-3.5801636275932553,266]],"bottom":[["SLC9C1_285335",-0.23196679268674353,-3.8960283647976794,268],["KCTD1_284252",-0.2397697832997221,-4.215557764449863,274],["PIK3CG_5294",-0.2226075846028733,-3.620989706436672,268],["FCHO2_115548",-0.2333554630870159,-3.9120144340047918,266],["OGFOD1_55239",-0.26218519721064304,-4.911485977165932,271],["SREK1IP1_285672",-0.26962874384800406,-5.085733504464781,266],["DUSP21_63904",-0.22713480183929002,-3.752619415747287,268],["WDR90_197335",-0.24260065953472076,-4.2640882851552995,271],["BAZ2B_29994",-0.23278794023197694,-4.023269965841028,276],["EREG_2069",-0.23871754864771091,-4.101477703508651,268],["FLOT2_2319",-0.23112633612874275,-3.946741248578744,274],["OR14C36_127066",-0.23564083628445623,-3.980817942664508,266],["ABCB8_11194",-0.2298876371540303,-3.8089022336165086,266]]}}}
{"achilles":{"corr":{"top":[["FUNDC1_139341",0.26303603399716874,-3.923856171426619,209],["NLRP8_126205",0.24888370768005602,-3.554029391469919,209]],"bottom":[["FAM182A_284800",-0.27034579810728504,-4.1231832303711755,209],["PXDC1_221749",-0.2652957448579043,-3.98486451964541,209],["C10orf113_387638",-0.2779079283663045,-4.335461446762428,209],["KLHL26_55295",-0.23803276886885158,-3.284552136754612,209],["MARCH6_10299",-0.2643293479171011,-3.958706808697705,209],["SLC38A10_124565",-0.24269744010295768,-3.3989183986875084,209],["DCUN1D4_23142",-0.2391028381797052,-3.3105917398976907,209],["ZRANB3_84083",-0.23855650785808696,-3.2972825310811107,209],["SPATS1_221409",-0.23617399845171913,-3.2395959845046916,209],["RBM12B_389677",-0.2800834508027559,-4.397687203442716,209],["DEDD_9191",-0.25271864920879633,-3.6521714946159447,209]]},"para":{"top":[["FUNDC1_139341",0.23977435692517524,-3.3269922580190685,209],["RGS8_85397",0.20913842522110454,-4.123933407007003,353],["KIF13B_23303",0.20326794314278987,-3.920127273564145,353],["LAT_27040",0.20140309208973373,-3.8565781834497956,353]],"bottom":[["FAM182A_284800",-0.27299644171156023,-4.196882836896787,209],["IGSF10_285313",-0.2397502754656242,-3.3264033226485203,209],["C10orf113_387638",-0.24114404167422218,-3.3605864803174232,209],["ZNF622_90441",-0.3171649356647127,-5.54034329711405,209],["RPLP2_6181",-0.25189828993002344,-3.63104862780594,209],["MRPS33_51650",-0.246231552105168,-3.4870480997018007,209],["ZRANB3_84083",-0.24079612518933854,-3.3520350190544232,209],["SPATS1_221409",-0.2407894494706018,-3.35187105689385,209],["FAM129B_64855",-0.2537053480180198,-3.6776703245836293,209],["RBM12B_389677",-0.3067949730364328,-5.2048724596147835,209],["DEDD_9191",-0.26039521057265547,-3.853246677440118,209]]}}}
{"ccle_rrbs_tss1kb":{"corr":{"top":[["WDR1_4_10118573_10119573",0.15391792804591417,-2.999429560071421,454],["LOC285074_2_87303536_87304536",0.17602260158486324,-3.1362445157247993,365]],"bottom":[["ADARB1_21_46571444_46572444",-0.25567696219258784,-4.952271421259029,288],["EIF4E2_2_233414296_233415296",-0.1858794485735073,-4.032500646108807,437],["SGIP1_1_66998638_66999638",-0.1969210898415478,-3.660463048237823,348]]},"para":{"top":[["HSPB11_1_54411496_54412496",0.15784421293769163,-3.2263462729824206,470],["DNAJA3_16_4474805_4475805",0.1673646797586191,-3.4797142416414575,456],["ZNF397_18_32819993_32820993",0.1804856431149062,-4.0490446815838075,466],["THADA_2_43823185_43824185",0.1670908184189172,-3.417192293251388,448]],"bottom":[["RIPOR2_6_24936294_24937294",-0.18044194845225547,-4.077737436750041,470],["CCNJ_10_97802158_97803158",-0.1710509150847795,-3.1867581789719885,394],["RERE_1_8483747_8484747",-0.1770852061601945,-3.929764156007902,468],["LMO2_11_33891509_33892509",-0.16883895879038438,-3.593669831557401,465],["SGIP1_1_66998638_66999638",-0.19621172501776213,-3.6372780496825157,348],["CDHR1_10_85953390_85954390",-0.18215636072137859,-4.077002692340908,461]]}}}
{"ccle_gene_tpm":{"corr":{"top":[["ACRBP_ENSG00000111644.3",0.19385892002180632,-5.5225590113049545,572],["PCTP_ENSG00000141179.9",0.16649677801618776,-4.2006445714863325,572],["RP11-82K18.2_ENSG00000235308.1",0.17343141199279377,-4.517122413836462,572],["B3GNT2_ENSG00000170340.10",0.16566679552867353,-4.163598548308029,572]],"bottom":[]},"para":{"top":[["RP11-461F16.3_ENSG00000257910.1",0.18209049277566947,-4.92987538446589,572],["TAC3_ENSG00000166863.7",0.19527769958200725,-5.596507213869019,572],["AC006116.17_ENSG00000267549.1",0.16493846370914195,-4.131235612433315,572],["CDC14A_ENSG00000079335.13",0.1797651916214656,-4.817105484301244,572],["OTOF_ENSG00000115155.12",0.18268010612760138,-4.958696009120681,572]],"bottom":[["RP11-165H4.3_ENSG00000213644.2",-0.1470783091173036,-3.3799170999808643,572],["MT1P1_ENSG00000213761.4",-0.1455909929591202,-3.320979668870778,572],["SUB1P3_ENSG00000261612.1",-0.1452071642401547,-3.30585949923546,572],["RN7SL374P_ENSG00000263633.1",-0.15501585097426593,-3.7038443205654175,572],["GRAMD4P5_ENSG00000259089.2",-0.16919112070283232,-4.322129314975565,572],["RPS24P16_ENSG00000242634.1",-0.14453067648375467,-3.279300077282482,572]]}}}
{"ccle_rrbs_tss_clusters":{"corr":{"top":[["RAP1GDS1_3",0.20330786397415834,-3.0297090168751604,262],["MIR6838_1",0.21490863195210166,-3.447093021089697,272]],"bottom":[["IFI44_2",-0.21310363847269895,-4.488226338546726,374],["IFI44_3",-0.22105784063133183,-4.578352953676284,355],["LOC101929595_3",-0.2342851674155018,-3.679435825635463,246],["ADARB1_5",-0.2590107089063823,-5.118856038961628,291]]},"para":{"top":[["SMARCB1_3",0.2092690860417303,-3.1647331305418285,260],["MIR6838_1",0.21662652954801742,-3.4957271831931815,272],["KLHDC9_3",0.20645736647723736,-3.476858991046461,298]],"bottom":[["SGIP1_2",-0.2049036465727224,-3.8676814119792886,342],["PCSK5_3",-0.20265170217794692,-3.306748443254321,292],["TUBB2B_2",-0.19875150005922826,-4.884391324026675,474],["LOC101929595_3",-0.2052365342812592,-2.9181746688192276,246]]}}}
{"ccle_rrbs_cgi_clusters":{"corr":{"top":[["4_99179509_99182354-3",0.20330786397415834,-3.0297090168751604,262],["14_35013567_35017911-2",0.21878932583107918,-3.28398466979228,248]],"bottom":[["4_108850495_108855387-3",-0.2342851674155018,-3.679435825635463,246],["11_66822118_66826621-3",-0.21380679152519846,-4.032362796996503,329],["23_1559933_1564774-3",-0.22418058749819403,-3.271455075260679,235]]},"para":{"top":[["11_65622495_65626545-1",0.2743942285575778,-4.09233662894493,201],["22_24127097_24131697-3",0.2092690860417303,-3.1647331305418285,260],["1_161066062_161070801-3",0.20645736647723736,-3.476858991046461,298],["22_18483845_18486500-2",0.20557364483031018,-3.730758653627149,326]],"bottom":[["5_1464074_1468457-2",-0.2584425309072249,-3.7376776026362184,205],["16_21529112_21531618-1",-0.25183149002451205,-3.019144166978808,169]]}}}
