{"depmap_hotspot":{"corr":{"top":[["ARFGEF2",0.10085579493718354,-2.2858473819232903,63.0,704.0],["ARMC12",0.126117563017625,-3.334078991457055,11.0,756.0],["AVL9",0.11082794440235672,-2.675027252368541,27.0,740.0],["BARX2",0.10424039057018429,-2.414379202457286,14.0,753.0],["C3orf58",0.12113895581300577,-3.1111050622317324,13.0,754.0],["CD1A",0.11130338395044358,-2.6943777029093505,27.0,740.0],["CRNN",0.09792110513107154,-2.177339068918285,31.0,736.0],["DDX24",0.102090176514369,-2.332302191944951,29.0,738.0],["HGF",0.0998647760288352,-2.248900665316498,60.0,707.0],["ILDR2",0.11681579084282674,-2.924065171710625,41.0,726.0],["KRT85",0.09850928002841115,-2.198868517787845,60.0,707.0],["KRTAP19-4",0.10893789941561724,-2.598821406903593,14.0,753.0],["LGI2",0.1009784982695857,-2.2904435864210164,19.0,748.0],["MAPK8",0.09532041534487865,-2.083449338291943,19.0,748.0],["MS4A3",0.09839789115352902,-2.194782884453654,14.0,753.0],["NPAS4",0.09479207726406011,-2.064635017830265,38.0,729.0],["PDGFD",0.10220424966158446,-2.3366196288613343,22.0,745.0],["PPIP5K2",0.10619481762297235,-2.4902604276684905,47.0,720.0],["SLC35A5",0.10735107185291833,-2.535726857540874,15.0,752.0],["SNX2",0.11275051323709899,-2.7537245204059158,11.0,756.0],["ST8SIA1",0.09511654576356147,-2.076179091900423,24.0,743.0],["THPO",0.10445676617855484,-2.4227200759337966,11.0,756.0],["USO1",0.10049531981457323,-2.2723723382864742,31.0,736.0],["USP53",0.1114551767473385,-2.700571025803759,27.0,740.0],["ZIC3",0.109699323917667,-2.629383605474572,25.0,742.0],["ZMIZ1",0.09655611777516225,-2.1277952836100473,45.0,722.0],["ZRSR1",0.09781992395236222,-2.173646446515433,17.0,750.0]],"bottom":[["FAM57A",-0.08888138140765486,-1.8600986240426391,10.0,757.0],["HMOX1",-0.10990215227528195,-2.637556188394174,9.0,758.0],["MCM5",-0.12397402961733027,-3.2370800467478835,41.0,726.0],["RTN4RL2",-0.10775418929200851,-2.5516789106986923,15.0,752.0],["SLC25A22",-0.0972413292125443,-2.1525925008588285,11.0,756.0],["UBAC2",-0.1490882772474061,-4.469554585746891,11.0,756.0]]},"para":{"top":[["ARMC12",0.14459292607508173,-4.501483049491731,11.0,756.0],["BARX2",0.11949342535817277,-3.3258562006223933,14.0,753.0],["C1orf50",0.1009531494072978,-2.5837419754463626,13.0,754.0],["C3orf58",0.1171932403196331,-3.2279598022068714,13.0,754.0],["C6orf52",0.10539261746455691,-2.751679040790116,11.0,756.0],["CD200",0.10813403888055144,-2.8586235885109677,16.0,751.0],["EPHX2",0.11805689887683167,-3.2646947393534336,20.0,747.0],["FAM204A",0.10125714586761592,-2.5949807352645826,11.0,756.0],["FRA10AC1",0.09538824306237623,-2.381607044071863,11.0,756.0],["GFI1B",0.10407538043113279,-2.701377674531003,17.0,750.0],["GOLGA7",0.1003001377341165,-2.5593115122234327,8.0,759.0],["KRTAP19-4",0.09760939108035539,-2.4612213207499174,14.0,753.0],["MAPK8",0.11607988489105149,-3.1813460813309473,19.0,748.0],["MRPL21",0.10641472535949122,-2.791173494290086,10.0,757.0],["MS4A3",0.09631174482669586,-2.414583219949029,14.0,753.0],["NTPCR",0.09897892199385197,-2.5109002109834315,11.0,756.0],["OTUD6B",0.10791520999354201,-2.8500381557865664,17.0,750.0],["PDGFD",0.11558899898975823,-3.1608987844619554,22.0,745.0],["PINX1",0.09670116756052671,-2.4285514936826362,15.0,752.0],["PTBP2",0.10341540972509371,-2.6762843166925703,17.0,750.0],["RPA3",0.08941859674595735,-2.1753810526527952,12.0,755.0],["RSPRY1",0.09312249377218956,-2.3019567301591977,9.0,758.0],["SNX2",0.09835983941945961,-2.488327049261277,11.0,756.0],["THPO",0.08847928153215741,-2.1438755862697447,11.0,756.0]],"bottom":[["C10orf11",-0.10974765142996223,-2.9222288460288928,8.0,759.0],["DNAJC19",-0.10646476534025426,-2.793063718707834,9.0,758.0],["FADD",-0.09078992909939033,-2.221729881776008,10.0,757.0],["GPR61",-0.09684750844631412,-2.4337472285698407,13.0,754.0],["HMOX1",-0.11237036095234848,-3.0279338720639033,9.0,758.0],["HRH1",-0.09342676566863556,-2.3127619061871454,15.0,752.0],["RTN4RL2",-0.09989052005262855,-2.544481794027072,15.0,752.0],["SBK2",-0.10630397116174162,-2.78718047802253,21.0,746.0],["SCP2D1",-0.10247054771342494,-2.640412826587249,11.0,756.0],["SLC16A8",-0.11391844107582845,-3.091655143559736,20.0,747.0],["SLC25A22",-0.10702699546095275,-2.815060126585332,11.0,756.0],["TOM1L2",-0.10465328644083391,-2.7234125173243946,15.0,752.0],["UBAC2",-0.1315179021039149,-3.864257617525549,11.0,756.0],["ZFAND2A",-0.10178896668104487,-2.614993208597609,16.0,751.0]]}}}
{"depmap_damaging":{"corr":{"top":[["ADAMTS20",0.08980861070133575,-1.8914654273982832,21.0,746.0],["CNTN5",0.10945791419913799,-2.619673693900689,16.0,751.0],["COL6A6",0.10307576871796845,-2.3697412733376417,23.0,744.0],["FRY",0.10023868956506679,-2.262804225426672,17.0,750.0],["THRAP3",0.11483556056558225,-2.840421999613707,8.0,759.0],["USP53",0.12350904448270937,-3.2162379692704772,8.0,759.0]],"bottom":[["MRE11A",-0.11980462297620313,-3.0527252924576893,9.0,758.0],["VPS13D",-0.11100644617868223,-2.6822837615234314,16.0,751.0]]},"para":{"top":[["ADAMTS20",0.10437346795157428,-2.7128302847318793,21.0,746.0],["CNTN5",0.10576493724761878,-2.76620595018558,16.0,751.0],["PARK2",0.09566332119627813,-2.3912228953647303,8.0,759.0],["SH3GL2",0.10217227223331547,-2.6291061445548074,9.0,758.0],["THRAP3",0.11058807442744542,-2.9558475751674638,8.0,759.0],["USP53",0.10096668011143078,-2.5840154920141196,8.0,759.0]],"bottom":[["HCFC1",-0.09169851091899771,-2.2528431296164624,11.0,756.0],["MICAL1",-0.0965025916962825,-2.4213109538700803,11.0,756.0],["MRE11A",-0.11947894826320267,-3.3250057403289817,9.0,758.0],["MYO1A",-0.10428167361656528,-2.709225865761967,16.0,751.0],["VPS13D",-0.12022675765039016,-3.357463153987173,16.0,751.0]]}}}
{"ccle_rrbs_enhancer_clusters":{"corr":{"top":[],"bottom":[]},"para":{"top":[["3-71251670-71254342-0_enh",0.19990814604446455,-3.8718798015000395,360],["5-141931165-141934276-0_enh",0.25778752804764327,-3.497864525916406,191],["6-98210329-98213515-1_enh",0.17480716163819252,-3.236685620836184,384]],"bottom":[["16-54321420-54326336-0_enh",-0.16595013599939398,-3.5064350218820897,468]]}}}
{"prism_primary_logfold":{"corr":{"top":[["IMREG-1_BRD-K00926464-001-01-8::2.5::HTS",0.18480067891006316,-3.606237418396601,389],["L-798,106_BRD-K43905307-001-01-2::2.5::HTS",0.17974370915175197,-3.2902079626336627,370],["mezlocillin_BRD-K45114938-236-01-8::2.35::HTS",0.18664324936999752,-3.505402134710959,369],["AS-77_BRD-K62427771-001-01-0::2.5::HTS",0.17630110140669436,-3.3436300248448587,392],["molidustat_BRD-K01291782-001-01-1::2.50002964::MTS004",0.20637920316855318,-4.297149724120784,380],["nolatrexed_BRD-K36636143-001-01-0::2.518926249::MTS004",0.18238868619198623,-3.4535208498372527,380],["piperacillin_BRD-K86873305-236-14-7::2.448463554::MTS004",0.17779793481369432,-3.3035109693724425,380]],"bottom":[["ajmaline_BRD-A48300215-001-04-8::2.5::HTS",-0.1613244153033942,-2.8382300783625434,387],["PF-04457845_BRD-K86816506-001-01-8::2.5::HTS",-0.17530125229261084,-3.1724413703900627,373],["LOXO-101_BRD-K36574127-001-01-3::2.5::MTS004",-0.15554357608410696,-2.6269484346080776,380],["avatrombopag_BRD-K68544925-001-01-1::2.500014712::MTS004",-0.17671620550542716,-3.268689684340039,380]]},"para":{"top":[["IMREG-1_BRD-K00926464-001-01-8::2.5::HTS",0.19732335552063812,-4.04901219545559,389],["L-798,106_BRD-K43905307-001-01-2::2.5::HTS",0.19147319020094264,-3.6748008627708995,370],["mezlocillin_BRD-K45114938-236-01-8::2.35::HTS",0.17791950373001533,-3.224965517215084,369],["fosfomycin_BRD-K81101512-234-01-9::2.5::HTS",0.1661013664905153,-2.9966558269357635,389],["molidustat_BRD-K01291782-001-01-1::2.50002964::MTS004",0.18499030781802075,-3.540143572786661,380],["nolatrexed_BRD-K36636143-001-01-0::2.518926249::MTS004",0.16316718456713636,-2.8493590915973668,380]],"bottom":[["CGK-733_BRD-A50737080-001-03-0::2.5::HTS",-0.16161086969419228,-2.865529491808341,390],["raclopride_BRD-K04111260-001-10-0::2.5::HTS",-0.15560945661958495,-2.6811007662616655,389],["CEP-33779_BRD-K37237504-001-02-7::2.5::HTS",-0.17545575304257616,-3.323090794778051,393],["PF-04457845_BRD-K86816506-001-01-8::2.5::HTS",-0.1713935306638498,-3.0513940289839243,373],["LOXO-101_BRD-K36574127-001-01-3::2.5::MTS004",-0.15622584471929374,-2.6464601268794254,380]]}}}
{"prism_secondary_logfold":{"corr":{"top":[["SID-7969543_BRD-A43885598-001-08-1::2.5::HTS002",0.19117090525777727,-3.223636485087921,319],["meclizine_BRD-A50311610-300-10-4::0.15625::HTS002",0.18942433726630406,-2.9501726035551585,293],["tremorine_BRD-K08619838-300-05-7::0.0390625::HTS002",0.18576679928212927,-3.0591777979989603,318],["barasertib_BRD-K31928526-001-02-1::0.00244::MTS010::PROS001_PR500",0.19320032983676383,-3.345403974249196,326],["azathioprine_BRD-K32821942-001-21-3::0.00061034::HTS002",0.18219666065311405,-3.061490465165359,331],["hyodeoxycholic-acid_BRD-K44009692-001-02-3::0.0390625::HTS002",0.18026504497750576,-2.9049058939665326,318],["cobicistat_BRD-K51040301-001-02-1::0.00976562::HTS002",0.20063966073757458,-3.6789199048074086,337],["dichlorisone-acetate_BRD-K54187111-001-09-2::0.00061034::HTS002",0.1969236699065352,-3.099499820295146,287],["tiagabine_BRD-K60160658-003-11-2::0.15625::HTS002",0.21432596580586494,-3.2446437051089414,255],["VTP-27999_BRD-K81694556-003-01-9::0.0390625::HTS002",0.23916098116577866,-3.5855368836144423,229],["Y-320_BRD-K96259238-001-01-4::2.5::HTS002",0.20885690718391806,-3.764874944810101,319],["hexylresorcinol_BRD-K99946902-001-07-5::0.0024414::HTS002",0.25227815986465196,-2.8895570752502477,160]],"bottom":[["bucladesine_BRD-A94624445-236-17-0::2.5::HTS002",-0.28562281007679846,-3.875313960435148,174],["dacarbazine_BRD-K35520305-001-16-9::0.15625::MTS010::PROS002_PR500",-0.21830655026115336,-3.9608962378292953,309],["cycloheximide_BRD-K36055864-001-19-2::0.00976562::HTS002",-0.19649026056005633,-3.482171658850635,330],["ARRY-334543_BRD-K46386702-001-02-1::0.15625::MTS010::PROS001_PR500",-0.2041758584059545,-3.6860649252543203,326],["AP26113_BRD-K56032964-001-02-1::2.5::HTS002",-0.207121620336443,-3.7603582167926293,324],["GS-9973_BRD-K76719364-001-02-5::0.625000001::MTS006",-0.20626062790290622,-3.853143451163561,336],["GS-9973_BRD-K76719364-001-02-5::2.5::MTS006",-0.2008141813122613,-3.675048867255038,336],["AVL-292_BRD-K87782578-001-01-4::0.625::MTS010::PROS001_PR500",-0.21702029804236522,-4.108036080974202,326]]},"para":{"top":[["NSC-663284_BRD-K03109492-001-02-2::0.0390625::HTS002",0.17901406234221356,-2.9852487644746653,333],["tremorine_BRD-K08619838-300-05-7::0.0390625::HTS002",0.1768930533662086,-2.8124886363432893,318],["selinexor_BRD-K21361524-001-01-1::0.002441406::MTS006",0.177060506697942,-2.9519442056513285,336],["hyodeoxycholic-acid_BRD-K44009692-001-02-3::0.0390625::HTS002",0.18635129295548047,-3.0758224338174984,318],["riociguat_BRD-K84783599-001-01-0::0.0390625::HTS002",0.1772339439704307,-2.6860659339944357,300],["cefpiramide_BRD-K92872987-001-02-9::2.5::HTS002",0.1839954676540667,-2.8552671626767423,299],["hexylresorcinol_BRD-K99946902-001-07-5::0.0024414::HTS002",0.25820292615103263,-3.0092442679016145,160]],"bottom":[["bucladesine_BRD-A94624445-236-17-0::2.5::HTS002",-0.2494125660193425,-3.0439198555839595,174],["dacarbazine_BRD-K35520305-001-16-9::0.15625::MTS010::PROS002_PR500",-0.2064076776863641,-3.5864166647114506,309],["daunorubicin_BRD-K43389675-003-20-9::0.00061034::HTS002",-0.1933225850538221,-3.118102686528503,300],["dasatinib_BRD-K49328571-001-15-0::0.0391::MTS010::PROS005_PR500",-0.2042169653928007,-3.7070674431741026,328],["AVL-292_BRD-K87782578-001-01-4::0.625::MTS010::PROS001_PR500",-0.20160196901121794,-3.6045429587467606,326]]}}}
{"ccle_proteomics":{"corr":{"top":[],"bottom":[["TBC1D12_O60347",-0.31794845692329976,-4.0851360565151085,148],["FBXO9_Q9UK97",-0.30726028830975954,-3.4009587607192726,129]]},"para":{"top":[["CP_P00450",0.21263279452218786,-2.9726140963476575,234],["AKR1C2_P52895",0.29988023650948326,-3.540355230451896,142],["CCDC168_Q8NDH2",0.3353992171029507,-4.23753605256854,138]],"bottom":[["HGS_O14964",-0.24904637778580252,-4.354200431649672,263],["LRCH1_Q9Y2L9-2",-0.2521304571680699,-4.452501072502647,263],["FBXO9_Q9UK97",-0.2973905581561414,-3.207442063259845,129]]}}}
{"depmap_gene_tpm":{"corr":{"top":[["IL12B_3593",0.1341455740951424,-3.6982642778216888,764]],"bottom":[["KCTD9_54793",-0.15173616555834182,-4.595930614771166,764],["AVL9_23080",-0.15772206625463522,-4.925282745431763,764],["BAZ2B_29994",-0.16294719709257383,-5.22282387755004,764],["G3BP2_9908",-0.14994221594870916,-4.499604642317361,764],["GTF2I_2969",-0.15570834331802666,-4.813117676326063,764]]},"para":{"top":[],"bottom":[["NRIP2_83714",-0.15114293866827586,-4.563956275529209,764],["AVL9_23080",-0.15982478359564598,-5.043890049470367,764],["XPO7_23039",-0.15920892835797504,-5.008994324029077,764],["GPR101_83550",-0.14641724671797404,-4.313511558831969,764],["LDHAL6A_160287",-0.15855586933153723,-4.972133025306488,764]]}}}
{"avana":{"corr":{"top":[["TARSL2_123283",0.1873548145857855,-6.778951597924474,769],["GPATCH2L_55668",0.19436158978458704,-7.256222062968388,769],["UCHL3_7347",0.20474876996787597,-7.9966647375251885,769]],"bottom":[["TMEM234_56063",-0.18651126845770824,-6.722688812539098,769],["PAQR8_85315",-0.1845767730504774,-6.594627923275976,769],["MYBPC3_4607",-0.17678007316954458,-6.0920667865460505,769],["TTC9C_283237",-0.1681095779010755,-5.55849898380219,769],["C19orf38_255809",-0.18373841968465682,-6.539547225158927,769],["SLC35E1_79939",-0.2125053421422548,-8.575540253539263,769],["POU2F2_5452",-0.20550396314685362,-8.052044609284497,769],["HOPX_84525",-0.178026730229174,-6.170969441148598,769],["TCAP_8557",-0.1745898459237397,-5.95477893369257,769],["JCAD_57608",-0.17357357230578555,-5.891653435615617,769],["ACBD4_79777",-0.19717065970129735,-7.4525681955608665,769],["OR5AP2_338675",-0.1833857879437664,-6.516454196883748,769]]},"para":{"top":[["ATP6V1C2_245973",0.1596541803891789,-5.063547995209095,769],["C2orf50_130813",0.18661973057462175,-6.729908667228239,769],["ROCK2_9475",0.2253217433781842,-9.581414135486137,769]],"bottom":[["ZSCAN29_146050",-0.15995346458257217,-5.080642594069953,769],["AP3M1_26985",-0.1542829654675866,-4.762016472636026,769],["SLC27A1_376497",-0.15957160535934692,-5.05883691344074,769],["ANKRD40_91369",-0.1472120806696476,-4.380181330528494,769],["PRKAG1_5571",-0.15010988679547743,-4.534597669006869,769],["POU2F2_5452",-0.1615448821489149,-5.172063313487116,769],["ACBD4_79777",-0.16479526879314682,-5.361520423155257,769],["PGAP3_93210",-0.1450126771041704,-4.26489014148454,769]]}}}
{"drive":{"corr":{"top":[["ETV6_2120",0.2184839626801651,-3.537402302458384,271]],"bottom":[["CDC14B_8555",-0.23578452915621975,-4.103509373287943,275],["FUBP1_8880",-0.22076747090174548,-3.602954273352462,271],["TIPARP_25976",-0.22356636458062398,-3.684219610699625,271],["ACAD8_27034",-0.26336567415580675,-4.903131313921383,268],["C17orf58_284018",-0.21723477282490183,-3.501826046649604,271],["PDXK_8566",-0.2648729856851704,-4.9548330389718815,268],["PDE7A_5150",-0.22713908393643722,-3.7527451669895946,268],["MBD3L2B_729458",-0.22056769967711884,-3.5971926748659353,271],["SCARF2_91179",-0.2317215551065438,-3.8632385435802177,266]]},"para":{"top":[["SOX6_55553",0.24345530166089144,-4.291252493601366,271],["NFKBIE_4794",0.24873093187235873,-4.534091901083584,276],["FANCE_2178",0.2336856612153134,-3.9219135424051674,266],["MCM2_4171",0.23620551860670952,-4.063923133526381,271],["CIRBP_1153",0.23419316408347338,-3.9371556549389553,266],["LASP1_3927",0.25078079935712844,-4.4835989229871025,268],["CHD3_1107",0.2376097214501247,-4.107407123740299,271]],"bottom":[["FUBP1_8880",-0.23832190368973694,-4.129561461109493,271],["PRKAB2_5565",-0.23898067431286124,-4.1501144078044625,271],["TLE6_79816",-0.2187717862013301,-3.545627784245003,271],["ACAD8_27034",-0.2264318914943356,-3.732009282877031,268],["PDXK_8566",-0.2633793331642848,-4.903598419215625,268],["CD38_952",-0.21618925641636938,-3.416629595022511,266],["C17orf58_284018",-0.22696882790273365,-3.7843783968208684,271],["SIK3_23387",-0.20855751684409907,-3.2602039895266604,271]]}}}
{"achilles":{"corr":{"top":[["SRCIN1_80725",0.25086383243233307,-3.6045129931904945,209],["TOP1_7150",0.2435484030746912,-5.435916720984677,353],["ZBTB25_7597",0.23284386587362807,-5.005927008019473,353],["C7orf57_136288",0.25173959840636057,-3.626970682677813,209],["FANCE_2178",0.2598546001988157,-3.8388831575318014,209],["ARHGEF10L_55160",0.26244340855837783,-3.90794630780417,209],["YPEL5_51646",0.23750973899633532,-3.2718667587020556,209],["MPDZ_8777",0.2638138022103298,-3.9447931571753356,209],["MYRFL_196446",0.32100321592884046,-5.6677397082330465,209],["GSTTP2_653399",0.23116069941602713,-3.120083278076199,209],["RRBP1_6238",0.239793290562502,-3.3274553398790117,209]],"bottom":[["TEX44_165100",-0.23602538099735598,-3.2360166298658974,209],["FNDC3A_22862",-0.2639203160110597,-3.9476654511420572,209],["TDRD7_23424",-0.2857407703489777,-4.561945070656873,209],["ZNF727_442319",-0.2529739709930466,-3.6587599182533657,209],["MSL2_55167",-0.22321615513635926,-4.636180016882794,353],["C1orf54_79630",-0.23856465203778718,-3.297480709584486,209],["NIT2_56954",-0.2593238642493393,-3.8248120535847376,209],["TCTN3_26123",-0.2708568161244007,-4.137332670504261,209]]},"para":{"top":[["ASB6_140459",0.24228112336839544,-3.3886210987177634,209],["FANCE_2178",0.2560234371662455,-3.7379763241995643,209],["C12orf4_57102",0.23075874021659257,-3.1106102884438074,209],["MAB21L3_126868",0.23575549928151304,-3.2295224137227105,209],["MPDZ_8777",0.2468850999088128,-3.5034862872141486,209],["CREG2_200407",0.26074511843952586,-3.8625598963709873,209],["CRAMP1_57585",0.26169277109644123,-3.887847958288638,209],["MYRFL_196446",0.295435605015062,-4.8517352261272935,209],["GSTTP2_653399",0.2538634973726461,-3.6817667653864543,209],["GINS4_84296",0.23821125654364234,-3.2888874644726407,209]],"bottom":[["MAST3_23031",-0.2163720629887082,-4.382969387749317,353],["BMP10_27302",-0.23691939133167156,-3.257581996258068,209],["FNDC3A_22862",-0.23435358836422907,-3.195906299227562,209],["OR8D2_283160",-0.23572820511135284,-3.2288660387060264,209],["P2RY6_5031",-0.24303783706954393,-5.414950976158566,353],["TDRD7_23424",-0.2951466137369661,-4.842943696943701,209],["MSL2_55167",-0.2360362909050621,-5.132066737954938,353],["TCTN3_26123",-0.2780698298110438,-4.340074376930421,209]]}}}
{"ccle_rrbs_tss1kb":{"corr":{"top":[["AMPD1_1_115238239_115239239",0.1660206634051428,-3.5219971684069176,470]],"bottom":[["DDIT4L_4_101111655_101112655",-0.18006070231610252,-3.956348278713137,456],["ZNF718_4_123357_124357",-0.20570308155063205,-3.9442796728556404,347],["PDZRN3_3_73618666_73619666",-0.16757438005255007,-3.5797577408203787,470],["KLHL34_23_21676505_21677505",-0.17683643672532398,-3.8468101825401435,458]]},"para":{"top":[["GNAT1_3_50228042_50229042",0.18528225550347846,-4.097885958203674,448],["C5AR1_19_47812103_47813103",0.21721106119262504,-5.567652455505826,458],["AMPD1_1_115238239_115239239",0.17848312868576927,-3.999656946778665,470]],"bottom":[["DDIT4L_4_101111655_101112655",-0.16896192198389695,-3.537859699890784,456],["MDH1B_2_207630273_207631273",-0.1591975010457626,-3.1365177042942216,447],["CHAT_10_50821082_50822082",-0.22417159457736519,-3.283239357056753,236],["KPNA2_17_66030717_66031717",-0.17385703798410992,-3.041201018010503,361]]}}}
{"ccle_gene_tpm":{"corr":{"top":[["RP4-633I8.3_ENSG00000226545.1",0.16696571432678828,-4.221653805256616,572]],"bottom":[["CADPS_ENSG00000163618.13",-0.20674190896248984,-6.213976896210576,572],["CDC16_ENSG00000130177.10",-0.17168658606142642,-4.436320615529034,572],["AC007875.2_ENSG00000231859.1",-0.18727986751870546,-5.1866882244488455,572],["ASCL5_ENSG00000232237.2",-0.20554324335347612,-6.1477445331752945,572],["C1QTNF8_ENSG00000184471.6",-0.18502971359716333,-5.0744574212210445,572]]},"para":{"top":[["RP11-358M14.2_ENSG00000228322.1",0.17873313671510974,-4.767509177316956,572],["RP11-255H23.3_ENSG00000269662.1",0.1683369077798459,-4.283411054665571,572],["PITX3_ENSG00000107859.5",0.20571161447754313,-6.15702420363353,572],["RP13-314C10.5_ENSG00000233785.1",0.170090559665616,-4.363101366212338,572]],"bottom":[["ABCB4_ENSG00000005471.11",-0.1916103891216536,-5.406468375112752,572],["ZKSCAN1_ENSG00000106261.12",-0.19208221097986075,-5.430716167652855,572],["RP11-375H19.2_ENSG00000203307.2",-0.18493336066298582,-5.069681576300608,572],["RP11-31E13.2_ENSG00000228683.1",-0.16665453086696133,-4.207705876050888,572],["XPO7_ENSG00000130227.12",-0.18610815760454863,-5.128079454252965,572],["DNASE2B_ENSG00000137976.7",-0.2002879980208958,-5.861984419541042,572],["AC007875.2_ENSG00000231859.1",-0.20532530717349792,-6.135744603984427,572],["ERCC5_ENSG00000134899.13",-0.18552646512581986,-5.099118474825125,572],["None_ENSG00000270181.1",-0.19840479504420938,-5.761406019141812,572]]}}}
{"ccle_rrbs_tss_clusters":{"corr":{"top":[["GUSBP10_3",0.2014008781268305,-3.164935747502467,281],["HSD17B10_2",0.24001292093471835,-3.7043152868859335,236],["SERPINF1_3",0.2570782706188705,-3.6708159755650245,203]],"bottom":[["HNRNPF_3",-0.27250549573683963,-3.093637244168559,148],["FAM20A_2",-0.22392973226831353,-6.016082062607944,469],["WNT6_2",-0.24676863838362365,-3.9216114460708713,238]]},"para":{"top":[["ZNF331_9",0.21125730240540658,-3.5675725805423357,293],["SERPINF1_3",0.22544530900141002,-2.913396178034758,203],["AADACL3_2",0.26709835027626544,-3.4010783681677594,172],["FAM9B_1",0.20830080745241136,-2.99387246411773,246],["CLDN20_2",0.20931471580983996,-4.642804048145183,403]],"bottom":[["MAPKAPK3_2",-0.2461154825456325,-3.222466105817977,191],["KCTD12_2",-0.25483285566957536,-2.893471559587732,157],["FAM20A_2",-0.22499256113591914,-6.068943191022331,469],["RPS4Y1_2",-0.2916221578662113,-3.2220513063546594,135],["WNT6_2",-0.2688779448005998,-4.581078318953213,238]]}}}
{"ccle_rrbs_cgi_clusters":{"corr":{"top":[["3_195601603_195604361-2",0.20984680680695028,-4.9718299080907205,433],["7_57245588_57249927-3",0.2014008781268305,-3.164935747502467,281],["23_53459178_53463463-2",0.24001292093471835,-3.7043152868859335,236],["16_2625134_2629399-1",0.27347927357844753,-3.7991240798440993,186],["5_1275467_1279713-2",0.24093509277947597,-2.8939258444402647,176]],"bottom":[["1_160051721_160054229-1",-0.21523245385444253,-3.7855842257136914,302],["10_43903686_43906792-3",-0.27250549573683963,-3.093637244168559,148],["6_18275417_18280062-3",-0.2535088600088655,-3.81065972109187,218],["1_160051721_160054229-2",-0.23188278761468628,-4.337776476725016,303],["2_219721702_219724356-3",-0.24676863838362365,-3.9216114460708713,238]]},"para":{"top":[["8_145515339_145517959-3",0.2221888802103646,-3.3858004056875934,249],["16_2625134_2629399-1",0.2709881074753366,-3.737062878989092,186],["11_1316291_1319115-1",0.2081264484606944,-3.505881592060914,296],["1_27930285_27932866-3",0.26025066852477047,-3.719910028404243,201]],"bottom":[["13_77460210_77463099-2",-0.25483285566957536,-2.893471559587732,157],["17_66594072_66596825-2",-0.2084095313248109,-5.3237613078001,474],["11_6651492_6654079-2",-0.2208756707395278,-5.865623028939848,469],["3_50652276_50657120-2",-0.2461154825456325,-3.222466105817977,191],["2_219721702_219724356-3",-0.2688779448005998,-4.581078318953213,238]]}}}
