{"depmap_hotspot":{"corr":{"top":[["ADAMTS8",0.1422697652901875,-4.114017201746995,34.0,733.0],["AKAP12",0.14963093622468993,-4.498528432587639,65.0,702.0],["ANO9",0.1282016460022528,-3.4298393250185923,32.0,735.0],["ANXA1",0.13247583486520728,-3.630727626632799,18.0,749.0],["APCDD1",0.1589944798772586,-5.014336430085053,26.0,741.0],["ARMCX4",0.14217546407211917,-4.109210318275652,53.0,714.0],["BCAP29",0.14207686494319105,-4.104187560835926,18.0,749.0],["C9orf96",0.14348760107329195,-4.176364393089445,27.0,740.0],["CAPS2",0.14601169584241142,-4.307181831462874,23.0,744.0],["CARD6",0.1307207263340044,-3.547503865603462,39.0,728.0],["CASC1",0.1433480237200503,-4.169193317068111,21.0,746.0],["CDIPT",0.1271759978682008,-3.3825332698286914,10.0,757.0],["CELA2A",0.13324182465916481,-3.667370311971295,18.0,749.0],["CETN3",0.13351839071136248,-3.6806484014422347,15.0,752.0],["CNPPD1",0.12734820646144554,-3.390451794546325,14.0,753.0],["CRYBG3",0.13039963279366168,-3.5323889003530784,85.0,682.0],["CSNK1G3",0.13397022959071675,-3.7023962514372317,20.0,747.0],["DHX40",0.13190640088959102,-3.6036140523935463,35.0,732.0],["DIP2B",0.157674766185535,-4.939814546874411,57.0,710.0],["DNASE1",0.12966131410305815,-3.497763381016499,8.0,759.0],["EOMES",0.13447382994116536,-3.7267156615524075,28.0,739.0],["EXOC8",0.1553876256197953,-4.812084244034639,23.0,744.0],["FAM174A",0.13377874148469612,-3.6931712656208724,9.0,758.0],["FAM227B",0.15535402137178872,-4.810220948170332,18.0,749.0],["FANCM",0.12952681721711393,-3.491475220785605,84.0,683.0],["FCHO2",0.13993822025620917,-3.9960482044850223,19.0,748.0],["FHAD1",0.12736679022203282,-3.3913069013718418,54.0,713.0],["GEN1",0.1478246287400949,-4.4024738165060455,39.0,728.0],["H6PD",0.12815448530105855,-3.4276565056794803,28.0,739.0],["HTR2A",0.1295967793791683,-3.4947454282852797,22.0,745.0],["KIAA0319L",0.12782757479986961,-3.4125457538977053,34.0,733.0],["KIF14",0.15503568776710774,-4.792589150273124,49.0,718.0],["MICU2",0.17622993379136428,-6.0431934291670215,11.0,756.0],["MMP14",0.13012817150588837,-3.5196369631453988,27.0,740.0],["NELFA",0.12929831771647374,-3.4808058707190264,33.0,734.0],["NOXA1",0.15560789943746486,-4.824307639883886,11.0,756.0],["NPAS3",0.151087579498042,-4.57679838910181,58.0,709.0],["NRK",0.13984284392994417,-3.9912613977728384,73.0,694.0],["NRXN3",0.13161552424243766,-3.589805557243429,75.0,692.0],["OPCML",0.1401553365438586,-4.006956375512497,28.0,739.0],["PRRC2C",0.13495610158989632,-3.75008437323255,105.0,662.0],["PTGIR",0.13065134545405893,-3.544234975382102,27.0,740.0],["RAG2",0.13633161461317472,-3.8171621584412976,32.0,735.0],["RBM20",0.15483205152276144,-4.781328431369845,57.0,710.0],["RGS13",0.13624789148366862,-3.8130612746255337,12.0,755.0],["RTKN2",0.1279288469439498,-3.4172230710366938,28.0,739.0],["SCFD2",0.1324757538999493,-3.630723763812136,22.0,745.0],["SH3RF3",0.13613288592906816,-3.8074319518697313,50.0,717.0],["SH3TC1",0.12982087254384636,-3.5052310197681593,62.0,705.0],["SLC1A3",0.13991504429903256,-3.9948847538519754,28.0,739.0],["SLC30A6",0.13746743682170587,-3.8730281491940706,16.0,751.0],["SLC44A5",0.14398106019904722,-4.201769648198023,47.0,720.0],["SMARCA1",0.12675170274318978,-3.363065019326046,32.0,735.0],["SPATA2L",0.13469809565089094,-3.7375729151897374,17.0,750.0],["STK33",0.13847117820946034,-3.9227573163074188,22.0,745.0],["TAPT1",0.1441808384517659,-4.212078438418194,19.0,748.0],["TCTN1",0.14640491851266071,-4.327755812314928,11.0,756.0],["TMC3",0.1302140546571772,-3.5236686960460926,49.0,718.0],["TTC37",0.13591599946070412,-3.7968277666532413,47.0,720.0],["WARS",0.13066523099088875,-3.544889066656556,25.0,742.0],["WFS1",0.12883152679190807,-3.4590636719442283,52.0,715.0],["ZBTB49",0.13304980267920186,-3.65816620965883,37.0,730.0],["ZNF461",0.1538979989959528,-4.72985928143537,29.0,738.0],["ZNF808",0.1449940952391756,-4.254182758465588,33.0,734.0]],"bottom":[["MARCH9",-0.09849447238942975,-2.1983251626948515,13.0,754.0],["RGS2",-0.1170180377874315,-2.9326795620122974,15.0,752.0]]},"para":{"top":[["ACY1",0.09711425315946158,-2.443172682241409,9.0,758.0],["ALG14",0.09916992820872772,-2.517734023243324,8.0,759.0],["APCDD1",0.1564948397911247,-5.129125182834644,26.0,741.0],["BACE1",0.10811371848607719,-2.8577005446636448,12.0,755.0],["C11orf65",0.11550538259745642,-3.157198630630765,13.0,754.0],["C15orf26",0.10192303843077014,-2.6196990713391384,8.0,759.0],["CASP16",0.10374878520959825,-2.6886016673887543,8.0,759.0],["CCNE2",0.10611076877180681,-2.7794274013593476,11.0,756.0],["CD8A",0.10241570025997775,-2.638190873445236,8.0,759.0],["CDIPT",0.11697835057282001,-3.218769060289657,10.0,757.0],["CDK7",0.11495387501376078,-3.1341390930915267,10.0,757.0],["CETN3",0.1246611759756319,-3.551779438761571,15.0,752.0],["CLDN19",0.11017818907956978,-2.939544981807497,10.0,757.0],["CNPPD1",0.12947872224907578,-3.7698650464410326,14.0,753.0],["CTAGE6",0.11869136835356245,-3.291376147437257,10.0,757.0],["DHDH",0.10576587055341502,-2.76603512272617,10.0,757.0],["DRD1",0.11850516213253362,-3.283534375967819,12.0,755.0],["ELF2",0.12431013048272066,-3.536137555377874,14.0,753.0],["FAM174A",0.11349134709035051,-3.0737367041727457,9.0,758.0],["FAM227B",0.1337675845824153,-3.9703053395851997,18.0,749.0],["FHL2",0.12151434772313426,-3.4132315122981165,15.0,752.0],["GNS",0.12149489752062083,-3.4123529476933183,14.0,753.0],["GSTZ1",0.10898331233715793,-2.8920106390546287,11.0,756.0],["GSX2",0.10680406314780438,-2.806319846986346,10.0,757.0],["HSD3B7",0.10483149721846463,-2.7300630976166596,10.0,757.0],["IGFBPL1",0.09766796831717811,-2.4631955501329985,10.0,757.0],["ISL2",0.10945381516251719,-2.9106941116038487,11.0,756.0],["LACRT",0.11193014582230262,-3.0101581053196327,11.0,756.0],["LZTFL1",0.11269986086375042,-3.041541400902755,13.0,754.0],["MICU2",0.15873279529224776,-5.251630928388513,11.0,756.0],["MTG1",0.10426049129155046,-2.708212638379775,10.0,757.0],["NKIRAS2",0.11980135894185764,-3.339082595676199,14.0,753.0],["NMU",0.09493883249906254,-2.3655529244970976,8.0,759.0],["NOXA1",0.13000735963873647,-3.794115382504168,11.0,756.0],["OARD1",0.09969157014553577,-2.536875235683185,8.0,759.0],["PDCL2",0.10264754112078131,-2.6469187095879887,8.0,759.0],["PHOSPHO2",0.10671084743282051,-2.80263527008052,9.0,758.0],["PLAC1",0.09395350884064736,-2.3308978214302605,8.0,759.0],["POLB",0.09372400333069657,-2.322925570265882,9.0,758.0],["PSME2",0.09945885054249974,-2.5284365230554724,10.0,757.0],["PXMP2",0.09913746676695036,-2.516605641991713,9.0,758.0],["RGS13",0.11710540145869586,-3.224216789592948,12.0,755.0],["RP11-10J21.3",0.1056718999046506,-2.762351699708154,9.0,758.0],["SNX10",0.09845394865631225,-2.491657117403897,9.0,758.0],["SPATA2L",0.1330141153914722,-3.9346671294817765,17.0,750.0],["SPIN1",0.12068195761426333,-3.3768381893301784,9.0,758.0],["TAPT1",0.14394438223101802,-4.468895301380545,19.0,748.0],["TCF19",0.0988367187982696,-2.50561066822961,9.0,758.0],["TCTN1",0.10744798732809094,-2.8315197112827915,11.0,756.0],["TMEM106B",0.10509104536706196,-2.7400283321478645,10.0,757.0],["TMEM239",0.0939700698505263,-2.33153527218869,9.0,758.0],["TMOD2",0.11826177841570931,-3.273250236739026,14.0,753.0],["TUFT1",0.12733859279636162,-3.6717528764276834,8.0,759.0],["UPF3B",0.1102462409736485,-2.942315895170867,11.0,756.0],["ZCCHC10",0.12333933794750004,-3.4928639003844064,8.0,759.0],["ZCCHC18",0.10184419848507724,-2.616808147474709,9.0,758.0],["ZFAND3",0.11589733083979666,-3.173362132187898,9.0,758.0]],"bottom":[["APOBEC3D",-0.09906764237595321,-2.5144441484918487,25.0,742.0],["GJB2",-0.09093231423786724,-2.2267653177702598,16.0,751.0],["MARCH9",-0.10524127869365404,-2.7459270103891615,13.0,754.0],["RGS2",-0.10380280762630645,-2.6909496276959293,15.0,752.0]]}}}
{"depmap_damaging":{"corr":{"top":[["ABCA12",0.11058837135101386,-2.6653041790690364,22.0,745.0],["ARID1A",0.13910037198179953,-3.9541022514483877,80.0,687.0],["ARMC3",0.10917484733074889,-2.6083121090385926,8.0,759.0],["ASNS",0.11650264914899788,-2.9107536170265003,9.0,758.0],["ASXL2",0.10843435814941542,-2.578712424991218,15.0,752.0],["ATAD2B",0.15784801367925147,-4.949563284972958,10.0,757.0],["AXIN1",0.13765656036447593,-3.8823722329575023,14.0,753.0],["BACH2",0.13450477424164886,-3.7282127533873624,14.0,753.0],["CAMSAP2",0.1108069217648976,-2.674173308971748,14.0,753.0],["CHD8",0.12383350512203094,-3.2307738161043544,33.0,734.0],["CLASRP",0.10712437784160211,-2.5267790443169424,8.0,759.0],["CXorf22",0.13955653533617252,-3.9769103243323927,11.0,756.0],["DDX26B",0.12043943713825175,-3.0804271452763166,8.0,759.0],["DDX59",0.14626154320116996,-4.320248134407931,24.0,743.0],["EPB41L5",0.11590706091225406,-2.8855232391257153,10.0,757.0],["EPHA5",0.11023207824192989,-2.650878185307293,8.0,759.0],["FANCM",0.1159018654445242,-2.885303654760729,29.0,738.0],["FRRS1",0.14239213561598754,-4.120259342571944,9.0,758.0],["GALNT13",0.13725158048703606,-3.8623779102691054,8.0,759.0],["HCFC2",0.11816069693231553,-2.9815992376471434,14.0,753.0],["HDAC9",0.10738033745660583,-2.536883195960949,12.0,755.0],["HECTD1",0.10934718770290962,-2.6152263488755767,15.0,752.0],["HR",0.11740232222062205,-2.949084192016549,8.0,759.0],["INSRR",0.10796124445284898,-2.5598926788036316,9.0,758.0],["IRS1",0.12533039055751216,-3.2982822835297463,8.0,759.0],["ITPR2",0.12108291349891129,-3.1086413885734863,23.0,744.0],["KAT6B",0.12165806387682605,-3.1339743915663503,10.0,757.0],["KIF21B",0.12229052547328949,-3.161956735695043,12.0,755.0],["MAP2",0.1527191115999786,-4.6653257924993845,15.0,752.0],["MAP7D3",0.11657945995731737,-2.914015871431374,13.0,754.0],["NPAS3",0.13105860192582255,-3.563445749810562,9.0,758.0],["NRXN1",0.10855784909703543,-2.583636521535633,18.0,749.0],["PCDHB2",0.11075533205679121,-2.672078328593853,13.0,754.0],["PHF3",0.1324422306828977,-3.629124571620398,15.0,752.0],["PLB1",0.11424059240169822,-2.8155394559941724,12.0,755.0],["PLOD3",0.11994773358767026,-3.058958825034095,10.0,757.0],["PRDM9",0.10869124647695064,-2.5889611256425535,13.0,754.0],["PTCH1",0.1361788353273128,-3.809680564904578,16.0,751.0],["PTPN12",0.1132338392205428,-2.77369632190453,11.0,756.0],["PTPRS",0.13191587746320893,-3.604064397117546,10.0,757.0],["RNF17",0.10721506814744622,-2.530356696625284,13.0,754.0],["RTKN2",0.13621727150618804,-3.811562047794164,13.0,754.0],["RTTN",0.10722732248245471,-2.530840321211986,18.0,749.0],["SCN1A",0.10780144584407103,-2.55355234303986,11.0,756.0],["SHROOM4",0.13800193744210495,-3.8994673090058725,11.0,756.0],["SLC12A6",0.11342663123181414,-2.7816838567802304,11.0,756.0],["SPAM1",0.1226547729735801,-3.1781318093624003,9.0,758.0],["SPEG",0.10842015487434903,-2.578146395145176,12.0,755.0],["SRRT",0.13435120509112192,-3.720786185477689,10.0,757.0],["TDRD1",0.1238245488436798,-3.2303721106119845,18.0,749.0],["TDRD12",0.12706012271593745,-3.3772105876747136,8.0,759.0],["USP26",0.11721342813758202,-2.9410145349878607,10.0,757.0],["WDR70",0.10986947796602581,-2.6362387456169487,24.0,743.0],["XYLT2",0.11000164779425518,-2.6415700063024046,15.0,752.0],["ZC3H3",0.12220692002001231,-3.1582502186092856,9.0,758.0],["ZMYM4",0.11352809012622074,-2.7858922095598055,10.0,757.0],["ZNF131",0.12079237792974022,-3.0958856329852362,9.0,758.0]],"bottom":[["RGS2",-0.12750622731587274,-3.3977265495036915,9.0,758.0],["ZADH2",-0.10788265737653689,-2.556773553591954,9.0,758.0]]},"para":{"top":[["ARMC3",0.10516881048202015,-2.7429017839883185,8.0,759.0],["ATAD2B",0.12009292835598806,-3.3514627279327804,10.0,757.0],["AXIN1",0.1129172345892229,-3.0504485153317624,14.0,753.0],["BACH2",0.12606965108403306,-3.614763350358847,14.0,753.0],["BPHL",0.0977458327617573,-2.4660117068095033,10.0,757.0],["CLASRP",0.10238672015237728,-2.637101055637863,8.0,759.0],["CLTC",0.10348796424119425,-2.6786956700414444,8.0,759.0],["COL17A1",0.10086041054492535,-2.5801800401468906,10.0,757.0],["COL27A1",0.09146476756570174,-2.244784560681991,10.0,757.0],["CXorf22",0.1197305874006268,-3.3359211713393946,11.0,756.0],["DDX26B",0.1184996599782255,-3.2830761764494185,8.0,759.0],["DLG5",0.09427229002425228,-2.3420774049181925,8.0,759.0],["EPB41L5",0.10994459574583217,-2.9302082305213553,10.0,757.0],["FRRS1",0.115186472004733,-3.143739990849644,9.0,758.0],["GALNT13",0.12403486052991075,-3.5236149798681637,8.0,759.0],["GIN1",0.1080958013496652,-2.856788368288972,8.0,759.0],["GRIN2B",0.10389475281699151,-2.6942170679099235,9.0,758.0],["HECTD1",0.11190376414118208,-3.0092303808962453,15.0,752.0],["INO80",0.10374878520959824,-2.6886016673887543,8.0,759.0],["KAT6B",0.11357826982619489,-3.0773615233788654,10.0,757.0],["KIF21B",0.12064039027906572,-3.375196125077975,12.0,755.0],["MAP2",0.15017599964453146,-4.790260139770831,15.0,752.0],["MXRA5",0.10435257400335912,-2.7117750636481444,11.0,756.0],["NPAS3",0.13205569897528138,-3.889282895767851,9.0,758.0],["PCDHB2",0.1117418778327289,-3.0026085282307986,13.0,754.0],["PCSK1",0.1096023950021043,-2.9166083882785405,11.0,756.0],["PHF3",0.12327912302689983,-3.49054899489252,15.0,752.0],["PRDM9",0.10435172302199115,-2.7118172144413646,13.0,754.0],["PTPRS",0.10371544017949609,-2.6874490463737835,10.0,757.0],["RTKN2",0.11199277815037736,-3.0127777132077997,13.0,754.0],["SHROOM4",0.11628848778352503,-3.189837079634373,11.0,756.0],["SPAM1",0.12538456221545347,-3.5837949136082674,9.0,758.0],["SRRT",0.11342254093703649,-3.0709709251350583,10.0,757.0],["TCHH",0.09366370776464286,-2.320761411304964,8.0,759.0],["TDRD12",0.11212403630612727,-3.017854887725372,8.0,759.0],["TDRD5",0.10994459574583215,-2.9302082305213553,10.0,757.0],["UGT3A2",0.09006034625767635,-2.196913411284063,9.0,758.0],["ZNF131",0.11420220592541414,-3.1029841855873945,9.0,758.0]],"bottom":[["HLA-B",-0.09145893894312654,-2.2446612555376064,12.0,755.0],["MX1",-0.10189887993392832,-2.6188556105860736,9.0,758.0],["PPFIBP1",-0.09107934282818747,-2.2316764312451225,12.0,755.0],["RGS2",-0.11912353632200848,-3.3097790421384112,9.0,758.0],["ZADH2",-0.10416816006124684,-2.7046359949504333,9.0,758.0]]}}}
{"ccle_chromatin":{"corr":{"top":[],"bottom":[]},"para":{"top":[],"bottom":[["H3K27me2K36me0",-0.17557671006157033,-4.245128709164257,520]]}}}
{"ccle_rppa":{"corr":{"top":[],"bottom":[["ACVRL1_ACVRL1_Caution",-0.20577995131669427,-5.66269623173105,521],["MET_c-Met_pY1235",-0.18397650604302368,-4.622433435437913,521]]},"para":{"top":[],"bottom":[["MET_c-Met_pY1235",-0.16449972477734723,-3.789729515653315,521]]}}}
{"ccle_metabolomics":{"corr":{"top":[],"bottom":[["C36:4 PC-A",-0.172780469070859,-4.209316762687373,532]]},"para":{"top":[],"bottom":[["C36:4 PC-A",-0.1673155970763719,-3.976501944525628,532],["C22:1 SM",-0.1718288289822096,-4.16825895699611,532]]}}}
{"ccle_rrbs_enhancer_clusters":{"corr":{"top":[["11-31817436-31820421-1_enh",0.1703282276002049,-3.6357167275331883,463],["17-2077772-2080504-1_enh",0.15553026940387704,-3.087928464283864,460]],"bottom":[]},"para":{"top":[["11-31817436-31820421-1_enh",0.17847976549019495,-3.94737509030841,463]],"bottom":[["15-70389576-70392094-0_enh",-0.14619548705669674,-2.8493757465857215,474]]}}}
{"prism_primary_logfold":{"corr":{"top":[["dalargin_BRD-A89196962-300-01-7::2.5::HTS",0.1583134502543573,-2.7845985971454827,393],["disulfiram_BRD-K32744045-001-31-2::2.5::HTS",0.18209450831545326,-3.5298624596542445,391],["PP-1_BRD-K47598052-001-15-8::2.5::HTS",0.19966039166065372,-4.12542757750104,388],["thiethylperazine_BRD-K69600043-328-05-5::2.5::HTS",0.15666229789972683,-2.7354189242634552,393],["GW-788388_BRD-K78086729-001-02-7::2.5::HTS",0.1820481933373879,-3.543916393685907,393],["L-693403_BRD-K83322645-050-01-9::2.5::HTS",0.1911038921307593,-3.8341760171334265,390]],"bottom":[["cyanopindolol_BRD-A47884604-051-01-2::2.5::HTS",-0.16125514891017106,-2.867177125313808,392],["Ro-08-2750_BRD-K00486786-001-02-2::2.5::HTS",-0.1720978544496995,-3.1995330488198266,391],["dalcetrapib_BRD-K18849474-001-04-4::2.61::HTS",-0.16863895442928256,-2.9472672470631807,370],["olopatadine_BRD-K67637637-003-12-6::2.5::HTS",-0.17351989222562222,-3.2525796083876317,392],["benperidol_BRD-K79425933-001-09-3::2.5::HTS",-0.15813606644214015,-2.7733152234279683,392],["asunaprevir_BRD-K87028197-001-01-3::2.5::HTS",-0.19800422754498934,-4.083083851472554,390]]},"para":{"top":[["MDL-72832_BRD-A17453586-003-02-3::2.5::HTS",0.163067099662849,-2.9288065242048376,393],["tipiracil_BRD-K11973162-003-01-8::2.5::HTS",0.17297704336944206,-3.107245978192917,374],["disulfiram_BRD-K32744045-001-31-2::2.5::HTS",0.18444747007290474,-3.610181850250641,391],["PP-1_BRD-K47598052-001-15-8::2.5::HTS",0.17208869511588154,-3.1781818300400957,388],["delanzomib_BRD-K59325863-001-02-8::2.5::HTS",0.16265091865116202,-2.9034171072043407,391],["pyrazinoylguanidine_BRD-K61693562-300-01-7::2.5::HTS",0.16328561506858566,-2.9291791607381756,392],["thiethylperazine_BRD-K69600043-328-05-5::2.5::HTS",0.1630189274583693,-2.927325586758518,393],["GW-788388_BRD-K78086729-001-02-7::2.5::HTS",0.1770641363423097,-3.3762557522918395,393],["L-693403_BRD-K83322645-050-01-9::2.5::HTS",0.1898468520687695,-3.7897555656749575,390],["menadione-bisulfite_BRD-A19777893-236-01-9::2.596350183::MTS004",0.1859392047769467,-3.5720289936662106,380]],"bottom":[["olopatadine_BRD-K67637637-003-12-6::2.5::HTS",-0.16816420581368038,-3.081066657902749,392]]}}}
{"prism_secondary_logfold":{"corr":{"top":[["AZ-628_BRD-K05804044-001-18-5::10::MTS010::PROS004_PR500",0.25516326075821744,-5.5907153792499,331],["GSK2126458_BRD-K07972848-001-02-0::0.0390625::HTS002",0.2080867125502798,-3.412218943317376,287],["BMS-754807_BRD-K13049116-001-04-0::0.625006::MTS010::PROS002_PR500",0.209996247744561,-3.697183168802105,309],["nilotinib_BRD-K81528515-001-13-8::2.5::HTS002",0.26911084326642765,-6.274711792389587,337]],"bottom":[["iododexetimide_BRD-A46813902-001-01-6::2.5::HTS002",-0.1796791776031745,-2.973561546811098,329],["PETCM_BRD-A93477898-001-04-2::0.00976562::HTS002",-0.2445685423321719,-5.198324055109653,333],["picolinic-acid_BRD-K01029106-001-01-4::0.00983622::HTS002",-0.19462504859867946,-3.1816779842506464,303],["NSC-3852_BRD-K13169950-001-14-4::0.00976562::HTS002",-0.2106293561248136,-3.8216792530506747,319],["PHA-767491_BRD-K50000283-001-04-4::0.625::HTS002",-0.18752320842461112,-3.2347652094079895,333],["SB-218795_BRD-K61097567-001-08-5::0.0390625::HTS002",-0.18595427356734429,-3.0727511599519817,319],["RGFP966_BRD-K61688984-001-02-9::0.00061034::HTS002",-0.19492039305175318,-3.415596765103832,328]]},"para":{"top":[["foretinib_BRD-K03449891-001-08-6::10::MTS010::PROS004_PR500",0.23946191117513801,-3.415493028217231,216],["AZ-628_BRD-K05804044-001-18-5::10::MTS010::PROS004_PR500",0.2460298984853511,-5.227197789482596,331],["BMS-754807_BRD-K13049116-001-04-0::0.625006::MTS010::PROS002_PR500",0.22780371444114533,-4.274742384463939,309],["5-hydroxymethyl-tolterodine_BRD-K24603946-001-02-1::0.0390625::HTS002",0.20603711463293276,-3.35355888218612,287],["GSK1070916_BRD-K36740062-001-06-6::2.5::HTS002",0.20631743253056323,-3.6641925947028198,317],["voxtalisib_BRD-K56291712-001-01-0::0.625::HTS002",0.20893804831210566,-4.0040350953614725,342],["nilotinib_BRD-K81528515-001-13-8::2.5::HTS002",0.23500837471046987,-4.884569930585117,337]],"bottom":[["iododexetimide_BRD-A46813902-001-01-6::2.5::HTS002",-0.1804624298006367,-2.9958974664470253,329],["PETCM_BRD-A93477898-001-04-2::0.00976562::HTS002",-0.2121919488641657,-4.0206353671657915,333],["picolinic-acid_BRD-K01029106-001-01-4::0.00983622::HTS002",-0.19883764945932042,-3.3025090549198293,303],["NSC-3852_BRD-K13169950-001-14-4::0.00976562::HTS002",-0.1877654060382062,-3.1246892957161925,319],["CHIR-99021_BRD-K16189898-003-03-3::0.00061034::HTS002",-0.16886557084485815,-2.6675431002910823,328],["BIX-01294_BRD-K26818574-305-04-3::0.0024414::HTS002",-0.1973874698807935,-3.5837859492599664,338],["SB-218795_BRD-K61097567-001-08-5::0.0390625::HTS002",-0.21467518202825084,-3.953113928315735,319],["RGFP966_BRD-K61688984-001-02-9::0.00061034::HTS002",-0.19195650137210962,-3.3254211473356685,328]]}}}
{"ccle_proteomics":{"corr":{"top":[["SORT1_Q99523",0.25935368141521437,-4.687670438081819,263],["EFHD1_Q9BUP0",0.2460417600282463,-4.173707992594478,257],["ZFYVE20_Q9H1K0",0.28959461046449353,-5.749353924783267,263],["STXBP6_Q8NFX7",0.24739750678587846,-3.764825377333858,226],["SAV1_Q9H4B6",0.24164917101557912,-3.8050015535153667,240],["RBP7_Q96R05",0.2429205704652236,-2.906955422134219,174]],"bottom":[]},"para":{"top":[["SORT1_Q99523",0.2890764636987922,-5.730089550722541,263],["ZFYVE20_Q9H1K0",0.3021863161140124,-6.22934354890587,263],["PARD3B_Q8TEW8",0.252978200347859,-3.8878815847246564,224],["MPP5_Q8N3R9",0.25429373954441364,-4.522203358331047,263],["UBE4A_Q14139-2",0.24243919976385414,-4.1478101875989974,263],["STXBP6_Q8NFX7",0.24392562713770696,-3.6710753422591793,226],["TMEM126B_Q8IUX1",0.26217624103158904,-3.7036108082641483,197],["CYBRD1_Q53TN4",0.25496768715240076,-3.958465779176634,225]],"bottom":[["PML_P29590-13",-0.2848883853476183,-3.603082510293206,161],["UGT1A10_Q9HAW8",-0.33002826759002835,-3.5540261843678533,117],["CARD8_Q9Y2G2-5",-0.3364629673350875,-5.084794879843139,168],["LSP1_P33241",-0.23912135726694028,-4.046314857346633,263]]}}}
{"depmap_copy_number":{"corr":{"top":[["LMCD1-AS1_100288428",0.19196051204223866,-7.09066909518947,769],["LOC101927394_101927394",0.18837495221370582,-6.847335018876393,769],["FANCD2_2177",0.1818015964501431,-6.4132582306147885,769],["LINC00312_29931",0.18898956382456722,-6.888715735165,769],["LMCD1_29995",0.19233965614638157,-7.1166717421431915,769],["OXTR_5021",0.18819370256598886,-6.8351578152832975,769],["SSUH2_51066",0.19238917999994185,-7.120072060512324,769],["RAD18_56852",0.18819370256598886,-6.8351578152832975,769],["CAV3_859",0.18819370256598886,-6.8351578152832975,769],["SRGAP3_9901",0.18958073126601893,-6.928646639686909,769]],"bottom":[["MIR4534_100616146",-0.15642822460126474,-4.8812540154299215,769],["APOBEC3B-AS1_100874530",-0.15281161195996154,-4.68115100145063,769],["MIR6820_102465492",-0.1587320126936775,-5.011070399891909,769],["ANKRD54_129138",-0.1513103553207479,-4.599407702466147,769],["SLC16A8_23539",-0.1584041455595575,-4.992483452601703,769],["EIF3L_51386",-0.15346956015960272,-4.717219870954336,769],["POLR2F_5435",-0.1612645397113396,-5.155894962857261,769],["SOX10_6663",-0.1587320126936775,-5.011070399891909,769],["MIR658_724028",-0.15250413565478907,-4.664346018614321,769],["MIR659_724029",-0.15250413565478907,-4.664346018614321,769],["BAIAP2L2_80115",-0.15711163394149816,-4.919572304233746,769],["PLA2G6_8398",-0.15398051851419056,-4.745333282678053,769],["C22orf23_84645",-0.16128584100335028,-5.157122526525013,769],["GALR3_8484",-0.1513103553207479,-4.599407702466147,769],["RPS19BP1_91582",-0.15345835054981166,-4.716604113025171,769]]},"para":{"top":[["PRRT3-AS1_100874032",0.1737184029052114,-5.900627240662441,769],["IL17RE_132014",0.17116117323556282,-5.743267737811453,769],["FANCD2_2177",0.17038520410633948,-5.695973943593734,769],["TTLL3_26140",0.17339918918101108,-5.880858365186894,769],["RPUSD3_285367",0.17363880369469012,-5.895694301011106,769],["PRRT3_285368",0.1737184029052114,-5.900627240662441,769],["CIDEC_63924",0.17372441935473865,-5.901000184362116,769],["CRELD1_78987",0.1737184029052114,-5.900627240662441,769],["JAGN1_84522",0.17372441935473865,-5.901000184362116,769],["IL17RC_84818",0.17116117323556282,-5.743267737811453,769]],"bottom":[["CRYM_1428",-0.15538473255110385,-4.823056810990984,769],["ANKS4B_257629",-0.15538473255110385,-4.823056810990984,769],["CRYM-AS1_400508",-0.1554759264004709,-4.828127875545287,769],["DNAH3_55567",-0.15614566865335855,-4.865458371213803,769],["TMEM159_57146",-0.15987133871007375,-5.075948615625988,769],["LYRM1_57149",-0.15614566865335855,-4.865458371213803,769],["ZP2_7783",-0.15664300782734353,-4.893279399254368,769]]}}}
{"depmap_gene_tpm":{"corr":{"top":[["MAGI3_260425",0.22051885675993613,-9.14172221183495,764],["C1orf198_84886",0.22431246226687623,-9.442539248011064,764],["RBSN_64145",0.24823493519481124,-11.466108060380423,764],["SORT1_6272",0.215919896396953,-8.78429086454505,764],["TMEM25_84866",0.2300860277938424,-9.910806109089693,764],["MAGI1_9223",0.21277480652695535,-8.544400564107084,764],["DDAH1_23576",0.25051188299389904,-11.67028830951756,764],["ZNF620_253639",0.23117063283194947,-10.000188051072723,764],["RTKN2_219790",0.20941031054176187,-8.291840368305152,764],["CCDC84_338657",0.21151826666158507,-8.449586237669527,764],["JPT1_51155",0.23266557915239522,-10.1241227344844,764]],"bottom":[["CLEC2B_9976",-0.20189566225444636,-7.742812328501834,764]]},"para":{"top":[["PARD3B_117583",0.2163190944851273,-8.81500305163778,764],["C1orf198_84886",0.22829089606845537,-9.763855134026725,764],["ZNF205_7755",0.22014833685550564,-9.112631854224084,764],["RBSN_64145",0.24628700543155918,-11.293048004569648,764],["SORT1_6272",0.21885420468180078,-9.011430831197393,764],["TMEM25_84866",0.24626655191251748,-11.29123873926462,764],["MAGI1_9223",0.2226783220705431,-9.312293892722375,764],["DDAH1_23576",0.24479461807637218,-11.161464859549527,764],["NOSTRIN_115677",0.22066331506643194,-9.153077932909438,764],["TTC36_143941",0.21245034181431757,-8.519861438585343,764],["ZNF620_253639",0.24463061244005724,-11.147057629936484,764],["LRRC75A_388341",0.22386983355522388,-9.40716101340425,764],["CCDC84_338657",0.21747306196196828,-8.904117828039704,764],["ASAH2_56624",0.24126489157441824,-10.853707438046209,764],["JPT1_51155",0.24093476448621967,-10.825171378175558,764]],"bottom":[["TREM2_54209",-0.15883446213170271,-4.987840003900411,764],["ASB2_51676",-0.18991540080367636,-6.910090003067028,764],["IL21R_50615",-0.22094456233105544,-9.175208991138827,764],["GPR84_53831",-0.16023222368995269,-5.067048249563813,764],["IRF2_3660",-0.18065003926286113,-6.301457647166416,764]]}}}
{"avana":{"corr":{"top":[["VPS8_23355",0.48215437201876593,-45.29217588762128,769],["RABGEF1_27342",0.2733848794412141,-13.921814725828693,769],["VPS45_11311",0.6610879243562773,-97.05263159344322,769],["XPO5_57510",0.22809195647961703,-9.807012868690025,769],["RAB5C_5878",0.3126226076931068,-18.169665706347104,769],["VPS33A_65082",0.32826550354576783,-20.051325087210422,769],["TGFBRAP1_9392",0.42180822051498656,-33.79917560682261,769],["ANKFY1_51479",0.22691971211803513,-9.711190769061696,769],["ASNA1_439",0.21470835782001146,-8.74403927679516,769],["DICER1_23405",0.20671536646931885,-8.141319801631967,769]],"bottom":[["TUBA3C_7278",-0.1686983715708426,-5.593894855348681,769],["ACP2_53",-0.17297162133439642,-5.854435497171215,769],["MEPCE_56257",-0.18550935547469616,-6.656195775469808,769],["YAP1_10413",-0.18167199843253765,-6.314202652991782,757]]},"para":{"top":[["VPS8_23355",0.47180936946342433,-43.15501085088065,769],["RABGEF1_27342",0.27614097900658746,-14.198881914008766,769],["VPS45_11311",0.6859362907781622,-107.27762238523852,769],["XPO5_57510",0.22548896710287805,-9.594949339470695,769],["RAB5C_5878",0.2899508084994901,-15.634954433280548,769],["VPS33A_65082",0.34514245303961083,-22.207730954176395,769],["TGFBRAP1_9392",0.41155504455834896,-32.06644934695347,769],["ASNA1_439",0.21707339428826097,-8.92695555299193,769],["VPS18_57617",0.27476298362340085,-14.05996076508342,769],["HGS_9146",0.23021869611450244,-9.98220077000908,769]],"bottom":[["ANKRD44_91526",-0.13812989163148526,-3.91468542138083,769],["MT1F_4494",-0.14628512462358442,-4.331390439606573,769],["C1orf43_25912",-0.14542920703011042,-4.2865981579135175,769],["TUBA3C_7278",-0.1420822172823114,-4.1138279746684185,769],["ACP2_53",-0.15858305616612542,-5.002621372919514,769],["CNN2_1265",-0.17295866914403912,-5.853636083701153,769],["HAPLN1_1404",-0.16482974619945245,-5.363549754102422,769],["IER5L_389792",-0.15192672671177765,-4.6328755993257404,769],["TSPAN8_7103",-0.15615355957211255,-4.865899121357889,769],["SPATS2L_26010",-0.14543002770199273,-4.2866409864830155,769],["CLOCK_9575",-0.13943045892040964,-3.9796349021723953,769]]}}}
{"drive":{"corr":{"top":[["ATP6AP1_537",0.2292646073641364,-3.7905412983144897,266],["RAB8A_4218",0.20119161390493948,-3.033530300283312,268],["ESPNP_284729",0.23404487470521665,-3.9586366489464018,268],["LRRC59_55379",0.2139254965503451,-3.354087830483139,266],["RAB5C_5878",0.2789633854006067,-5.563490817016313,274],["PVR_5817",0.30121474627354927,-6.298609374620895,268],["KCTD15_79047",0.218547241828835,-3.482458944320002,266],["TTC3_7267",0.21764104833036163,-3.4570773796435974,266],["CRYZ_1429",0.2262818437409523,-3.7033281178799484,266]],"bottom":[["APLNR_187",-0.21215449333024883,-3.327051493709099,268],["SEM1_7979",-0.20948119392876463,-3.233165807891206,266],["NCR3LG1_374383",-0.18968112740965587,-2.723977934207004,266],["ARHGEF2_9181",-0.23067475574320398,-3.9581470714737894,276]]},"para":{"top":[["ESPNP_284729",0.23661289839934177,-4.036785236424258,268],["OR2M1P_388762",0.21887195267835552,-3.5143518728097622,268],["RAB5C_5878",0.27650285401274405,-5.472473885883459,274],["PVR_5817",0.26461337718920586,-4.945905946405979,268],["ADCY3_109",0.21195446511803864,-3.3215614734653602,268],["ANKRD50_57182",0.214684850495929,-3.396935053865047,268],["KCTD15_79047",0.221695960581561,-3.5714574674350894,266],["PCNX4_64430",0.20027483672899962,-3.0096600395562905,268]],"bottom":[["TMEM71_137835",-0.22804968878522824,-3.853460751451927,274],["APLNR_187",-0.21752607237526927,-3.4763676587146897,268],["KCNK18_338567",-0.21342833902500133,-3.362131826200426,268]]}}}
{"achilles":{"corr":{"top":[["GAB1_2549",0.217176488884134,-4.41231920082133,353],["LINC00326_285735",0.23790292073778002,-3.2814002575194077,209],["VPS11_55823",0.21599449242801702,-4.369231216457514,353]],"bottom":[["TLL2_7093",-0.19439990028674806,-3.62302398812433,353],["PRKDC_5591",-0.22327713982544645,-4.6384720539476065,353],["IFI6_2537",-0.24972909663413026,-3.5755329621737104,209]]},"para":{"top":[["GAB1_2549",0.21524756683555213,-4.3421245785637765,353],["CYTH2_9266",0.23472680327876297,-3.204836167822763,209],["USP8_9101",0.22325732773735424,-4.637727370567193,353],["DMBX1_127343",0.22967041278765635,-4.882288896057672,353],["PXK_54899",0.21731320636224952,-4.417318257093567,353]],"bottom":[["PRKDC_5591",-0.2213820781062769,-4.5675446329144105,353]]}}}
{"ccle_rrbs_tss1kb":{"corr":{"top":[],"bottom":[["CDC42SE1_1_151032125_151033125",-0.1798218979204838,-3.8789371458541013,447],["PIGK_1_77685132_77686132",-0.18323553691857192,-4.088590200427833,457]]},"para":{"top":[["ZNF19_16_71523254_71524254",0.18210429384368845,-4.012914563198593,453]],"bottom":[["EFR3B_2_25263972_25264972",-0.1969434337418033,-4.768402738895049,470],["CDC42SE1_1_151032125_151033125",-0.206483414928163,-4.96724953130567,447],["ERBB2_17_37855230_37856230",-0.22299381004067456,-5.923706711082857,465],["RIC1_9_5628118_5629118",-0.18767436680607222,-4.3485491784912735,467],["DHX57_2_39103075_39104075",-0.2020717919892869,-4.947770966791945,465],["EFR3B_2_25264331_25265331",-0.19909149487672373,-4.862681937411953,470],["ERMAP_1_43281775_43282775",-0.19090301808009233,-4.109011198343672,423]]}}}
{"ccle_gene_tpm":{"corr":{"top":[["PARD3B_ENSG00000116117.13",0.25381446690299897,-9.13327872738462,572],["ZNF620_ENSG00000177842.7",0.25547624826347937,-9.247993685518063,572],["ZFYVE20_ENSG00000131381.8",0.2917107858020167,-11.95681705957696,572],["CCDC84_ENSG00000186166.4",0.24332133797197897,-8.427654841287124,572],["DDAH1_ENSG00000153904.14",0.2751101243695525,-10.665896453333497,572],["TMEM25_ENSG00000149582.11",0.22876996552457957,-7.501851268112939,572],["RP3-522D1.1_ENSG00000224167.1",0.2391604954582857,-8.156725548262449,572],["SORT1_ENSG00000134243.7",0.2641400627062213,-9.85936462926449,572],["MAGI3_ENSG00000081026.14",0.2330479580873628,-7.767745299800862,572],["SYDE2_ENSG00000097096.8",0.23031488150331622,-7.597274305824741,572],["C12orf49_ENSG00000111412.4",0.22717068601994173,-7.403782169261053,572],["YIPF6_ENSG00000181704.7",0.23305944915189516,-7.768466524034039,572]],"bottom":[["SPON2_ENSG00000159674.7",-0.2047701858880447,-6.105237233819261,572],["CLEC2B_ENSG00000110852.4",-0.23397637155855,-7.82613756800418,572]]},"para":{"top":[["PARD3B_ENSG00000116117.13",0.25819151836163595,-9.437192698847685,572],["ZNF620_ENSG00000177842.7",0.2711556059936886,-10.37094071261934,572],["ZFYVE20_ENSG00000131381.8",0.28273274743342963,-11.248005097143746,572],["CCDC84_ENSG00000186166.4",0.2297719913864375,-7.5636651333590965,572],["TMEM56_ENSG00000152078.5",0.23285219259428705,-7.755464073076975,572],["DDAH1_ENSG00000153904.14",0.2730680359358521,-10.51298662976784,572],["C1orf198_ENSG00000119280.12",0.25426444011584837,-9.1642603901559,572],["RP11-426L16.8_ENSG00000215866.3",0.23781482666550005,-8.070172160750483,572],["TMEM25_ENSG00000149582.11",0.2396783162093037,-8.190170637867851,572],["RP3-522D1.1_ENSG00000224167.1",0.24688654776661467,-8.663792364807081,572],["SORT1_ENSG00000134243.7",0.2706109800922846,-10.330692416701366,572],["MAGI3_ENSG00000081026.14",0.22934452670897046,-7.537260516519494,572],["C12orf49_ENSG00000111412.4",0.2270092367265784,-7.393922134383532,572],["ZNF205_ENSG00000122386.6",0.2270819812949757,-7.39836388139905,572]],"bottom":[["ASB2_ENSG00000100628.7",-0.1803441744328648,-4.8450514347883304,572],["SLC2A5_ENSG00000142583.13",-0.1852565665419055,-5.0857113517215105,572],["C16orf54_ENSG00000185905.3",-0.2145017321852888,-6.652282769222828,572],["TREM2_ENSG00000095970.12",-0.1838552638159878,-5.016411870440871,572],["SPON2_ENSG00000159674.7",-0.18931879880018412,-5.289544672877877,572],["CLEC2B_ENSG00000110852.4",-0.21126189705994758,-6.467269118488406,572]]}}}
{"ccle_rrbs_tss_clusters":{"corr":{"top":[["DCAKD_2",0.26934703244577984,-3.4522591285853155,172],["MAP1LC3B2_3",0.2498650408300547,-5.5970778715363645,346],["PKP1_1",0.23523874090506328,-6.643094224193017,473],["CALML3-AS1_3",0.229241362248973,-4.533332900096713,326]],"bottom":[["BCL2L1_1",-0.21903607956452997,-5.764913468778399,468],["PLEC_18",-0.2155896014685402,-5.620987267694186,470],["PLEC_16",-0.23253698083241905,-6.514172314813688,474],["LOC388282_2",-0.22561933231161196,-5.899877700475557,452],["ANXA11_3",-0.27630343669106433,-5.913971820582261,299],["SGPP1_1",-0.23086274574714524,-6.266934563357714,461],["S100A9_3",-0.22196394396876684,-3.2150279813514326,235]]},"para":{"top":[["DCAKD_2",0.2809155530662845,-3.722631084564811,172],["GPR87",0.2787922178861247,-4.1381098981209,197],["RFX6_3",0.2429408097159724,-2.692139177898554,159],["MAP1LC3B2_3",0.25851820013657334,-5.962069160597754,346],["CALML3-AS1_3",0.21963110550669954,-4.196926173637083,326],["BEND7_2",0.20845358228212726,-3.5155784143822433,296]],"bottom":[["PLEC_16",-0.23692917331808586,-6.7454311733402745,474],["MTAP_1",-0.20992095838925462,-2.5986506733186783,205],["ANXA11_3",-0.27178704875009635,-5.734741628869646,299],["S100A9_3",-0.22978010751836797,-3.4164503875463654,235],["NR2F6_1",-0.22717625941936878,-5.819755369467013,439],["DDR1_7",-0.21188697848264204,-5.487102111270797,474]]}}}
{"ccle_rrbs_cgi_clusters":{"corr":{"top":[["22_20777386_20779973-3",0.2288104801128648,-6.2973029670486484,472],["17_43126789_43131038-2",0.26934703244577984,-3.4522591285853155,172],["1_201253050_201255648-2",0.23615771967623006,-6.536803551641347,461],["10_5565122_5569828-3",0.229241362248973,-4.533332900096713,326]],"bottom":[["10_81964989_81969517-3",-0.27630343669106433,-5.913971820582261,299],["8_145025911_145030352-2",-0.21572042567755384,-5.616466561665355,469],["1_155099442_155102451-3",-0.21677576729938763,-5.427346066951186,447],["20_30308503_30312707-1",-0.21903607956452997,-5.764913468778399,468],["6_160390361_160392890-3",-0.2563575075298536,-2.9557061532432334,159],["14_64192241_64197049-1",-0.23086274574714524,-6.266934563357714,461],["1_27899660_27902174-3",-0.2300774026167405,-3.2597180927340292,222]]},"para":{"top":[["17_43126789_43131038-2",0.2809155530662845,-3.722631084564811,172],["9_87281178_87284441-2",0.2185419706555545,-2.8418912972655748,210],["21_44780248_44784601-3",0.22058564588709034,-5.750036241137663,460],["1_201253050_201255648-2",0.21513052325884655,-5.502548879188571,461],["10_5565122_5569828-3",0.21963110550669954,-4.196926173637083,326],["6_117196089_117200705-3",0.2429408097159724,-2.692139177898554,159]],"bottom":[["10_81964989_81969517-3",-0.27178704875009635,-5.734741628869646,299],["19_17353181_17355826-2",-0.22026401123723233,-5.813280996753403,467],["8_30667450_30669962-1",-0.22094972114930858,-3.619800421072117,272],["1_27899660_27902174-1",-0.22485984576326143,-6.027224733905145,466],["11_69452956_69456776-1",-0.2317280580890065,-6.447242906468254,472]]}}}
