{"depmap_hotspot":{"corr":{"top":[["BTBD6",0.10444515505288392,-2.4222721100336986,20.0,747.0],["C2CD4D",0.11649506307575802,-2.910431530668865,23.0,744.0],["CDK10",0.10699357530253045,-2.5216236364748608,25.0,742.0],["CLUH",0.1054754497645241,-2.4621889821641862,69.0,698.0],["DUSP12",0.09978527252163956,-2.24595011662813,19.0,748.0],["ERI1",0.11704483723463552,-2.933822039929417,12.0,755.0],["FAM69A",0.1101413738168205,-2.6472121651711067,10.0,757.0],["FAM71A",0.10711361094152548,-2.5263544744698443,24.0,743.0],["GPR63",0.11794053107348768,-2.9721404205786977,25.0,742.0],["GPR97",0.11006220842199096,-2.644014683111857,23.0,744.0],["HIST1H4B",0.11443184604050907,-2.823525494785188,13.0,754.0],["ICOSLG",0.09207865274429884,-1.969385784222529,19.0,748.0],["IER2",0.09019415987871227,-1.9045865713486267,12.0,755.0],["JMY",0.11233947708013124,-2.73679921320572,24.0,743.0],["L3MBTL3",0.09594845795209064,-2.105928115524067,42.0,725.0],["MC3R",0.09067981484156881,-1.9211803142755164,24.0,743.0],["MRPL43",0.09123131406371836,-1.940112792103373,11.0,756.0],["NEIL1",0.0992446536263828,-2.225939559289025,14.0,753.0],["PIP4K2B",0.10261388171216493,-2.3521574317547373,23.0,744.0],["PRRX2",0.09616463373105945,-2.113694091528328,14.0,753.0],["RAET1E",0.09097425468373531,-1.9312763917240015,11.0,756.0],["RP11-723O4.6",0.11421687009029517,-2.814549726190002,18.0,749.0],["SLC16A1",0.1116688017531267,-2.7092997548980473,24.0,743.0],["SRRM3",0.09794209121213204,-2.1781053631446787,25.0,742.0],["TMEM47",0.09039067099967385,-1.9112920816181018,8.0,759.0],["TTC30B",0.09261866230718659,-1.9881583072265818,25.0,742.0],["ZDHHC18",0.10292270824647075,-2.3639068140125077,16.0,751.0],["ZNF829",0.11084783472514882,-2.6758353319444033,20.0,747.0]],"bottom":[["ABCD1",-0.11690556026156822,-2.927887117894911,23.0,744.0],["ACR",-0.11443112392946946,-2.82349531984833,13.0,754.0],["ADRA2B",-0.10824956976836884,-2.5713532812866133,26.0,741.0],["AIFM2",-0.1197315406117188,-3.0495445904689507,18.0,749.0],["ASB18",-0.11113927841804921,-2.6876903580799736,17.0,750.0],["BMP8A",-0.13907148962213264,-3.952660491546027,21.0,746.0],["C12orf68",-0.13987386951146646,-3.9928181935540628,9.0,758.0],["C12orf79",-0.11607453512992323,-2.8926061626746824,10.0,757.0],["C1orf63",-0.10935817629639331,-2.6156675312125306,17.0,750.0],["CDH3",-0.11119364043229364,-2.6899046638366033,48.0,719.0],["CHIT1",-0.11624929017714311,-2.9000067186199163,25.0,742.0],["CNRIP1",-0.11832799839267572,-2.9887974366563412,12.0,755.0],["COL13A1",-0.1386898109485201,-3.9336340184868783,40.0,727.0],["CRTC2",-0.12434406789312567,-3.2537170588767177,30.0,737.0],["CST11",-0.11573688736016077,-2.8783354772155896,9.0,758.0],["CYP2D6",-0.1288567622684197,-3.460237246928334,31.0,736.0],["DCAF12L2",-0.1097472876072673,-2.6313150172907918,38.0,729.0],["DGUOK",-0.10827933309733134,-2.5725378573729136,8.0,759.0],["DLG3",-0.1393570615971053,-3.9669280810269036,25.0,742.0],["EIF3J",-0.13289296002625495,-3.650657448374089,15.0,752.0],["FBLL1",-0.12009396010315697,-3.0653349859016887,13.0,754.0],["GATA4",-0.11833457297394073,-2.98908049629063,23.0,744.0],["IFLTD1",-0.11318510609582819,-2.7716791698252545,16.0,751.0],["KIAA1549",-0.11437073493513353,-2.820972435470841,109.0,658.0],["KRT33B",-0.11517044916790743,-2.85447802916088,22.0,745.0],["KRTAP4-9",-0.1343879260614964,-3.722561287465595,17.0,750.0],["LDLRAD2",-0.13835319686710415,-3.916894554622796,11.0,756.0],["LGI4",-0.11826765785337687,-2.9862002145703794,27.0,740.0],["MFSD2A",-0.1117297315739776,-2.7117920470966044,18.0,749.0],["MST4",-0.10818546033935311,-2.5688027003768537,13.0,754.0],["NDUFAF1",-0.12924542016296545,-3.4783383840756255,10.0,757.0],["NRG1",-0.12843504878336323,-3.4406531280579036,48.0,719.0],["NRG2",-0.11164078431234999,-2.708154122589237,35.0,732.0],["ODF2",-0.11243779698972389,-2.7408427862862377,32.0,735.0],["OVOL1",-0.12993626123472218,-3.5106366854927162,10.0,757.0],["P2RY6",-0.13351128054003908,-3.680306719157731,21.0,746.0],["PCYOX1",-0.13244881117265525,-3.6294384579493157,19.0,748.0],["PDP1",-0.11325455955637087,-2.7745542065918327,20.0,747.0],["PLA2G15",-0.12726926377807193,-3.3868206235745193,13.0,754.0],["PTP4A3",-0.12008247409186756,-3.0648338893127347,12.0,755.0],["SLC1A1",-0.11918084937206849,-3.0256333713766095,20.0,747.0],["SLC1A7",-0.121786436306803,-3.139643447139857,25.0,742.0],["SSH3",-0.10817146580454469,-2.56824610581981,32.0,735.0],["SYNPO2",-0.12359653490602344,-3.2201541394092104,60.0,707.0],["TAF6",-0.13684341396219998,-3.8422818263778407,24.0,743.0],["TNNI3",-0.11383615850122084,-2.798690792406628,11.0,756.0],["TREX1",-0.10929792393557694,-2.613248928794821,10.0,757.0],["TUBB2B",-0.108600498284855,-2.585338258214741,10.0,757.0],["TUT1",-0.11342359981991913,-2.7815581698643665,15.0,752.0],["UBALD2",-0.1609816758670441,-5.127684316252621,9.0,758.0],["WBSCR16",-0.137087575709698,-3.8542964306343324,20.0,747.0],["ZNF544",-0.1344163994024113,-3.723938006258764,29.0,738.0],["ZNF785",-0.11102343214029788,-2.682974814742463,28.0,739.0]]},"para":{"top":[["APH1B",0.10087975455715406,-2.580786051375315,8.0,759.0],["ERI1",0.11565819127049075,-3.163530229889315,12.0,755.0],["FAM69A",0.09699314313082504,-2.4388664996351865,10.0,757.0],["FOXJ3",0.10142142408387585,-2.601235767426229,15.0,752.0],["GPR97",0.11428085442326602,-3.1066457493307578,23.0,744.0],["HMGN5",0.09481293868260739,-2.3612153372415383,10.0,757.0],["KRTAP5-2",0.09957325582997321,-2.532681399508457,11.0,756.0],["NEIL1",0.11122369601045971,-2.981700883673857,14.0,753.0],["NELFE",0.10932368110244538,-2.905560963198422,12.0,755.0],["PIP4K2B",0.11716377023726686,-3.226950624842982,23.0,744.0],["PLRG1",0.10571532310319083,-2.764312288258509,17.0,750.0],["RAET1E",0.09895417316502686,-2.509995560485972,11.0,756.0],["SLC16A1",0.12314492595484673,-3.484827053093209,24.0,743.0],["ST8SIA2",0.10237751748209276,-2.6371134197318913,18.0,749.0],["ZMPSTE24",0.11181505324819142,-3.0056862152005945,17.0,750.0],["ZNF829",0.12443088110135861,-3.5416588037969676,20.0,747.0]],"bottom":[["AIF1L",-0.1147490204139246,-3.1255891119017933,9.0,758.0],["AIMP2",-0.10955220233325105,-2.914687488186663,13.0,754.0],["BTG3",-0.10828993975241798,-2.8646019182970126,11.0,756.0],["C12orf79",-0.0982908838738117,-2.4857767268311948,10.0,757.0],["C1orf233",-0.09257569290482459,-2.282990539900079,9.0,758.0],["C1orf63",-0.118894740039438,-3.3003113262222503,17.0,750.0],["CDKN2D",-0.10172017767756703,-2.612106474627619,8.0,759.0],["CENPV",-0.09334492658103799,-2.309640881372829,8.0,759.0],["CNRIP1",-0.1125502480794273,-3.035404998998108,12.0,755.0],["COX4I2",-0.10602732932218244,-2.7760954446477397,9.0,758.0],["DGUOK",-0.10769007984325898,-2.84084418160036,8.0,759.0],["EIF3J",-0.11192502649423948,-3.010092481196682,15.0,752.0],["FAM183B",-0.09489299088297867,-2.364082941921394,11.0,756.0],["FAM72D",-0.1068468885146951,-2.808143112219575,14.0,753.0],["FEN1",-0.10571943252642862,-2.764124108825799,8.0,759.0],["KRTAP4-9",-0.11379496565591289,-3.08651149033749,17.0,750.0],["LDLRAD2",-0.12171165192845515,-3.421674714788012,11.0,756.0],["MAP1LC3B2",-0.10187410734676662,-2.618063324411995,12.0,755.0],["MFSD2A",-0.13230893834169394,-3.9015253695577865,18.0,749.0],["NDUFAF1",-0.13081226689305808,-3.831346658968012,10.0,757.0],["NEUROG2",-0.09723527764868813,-2.4476933321704113,13.0,754.0],["NIPA2",-0.1065185601843473,-2.7952083905697016,10.0,757.0],["OVOL1",-0.11500578464348024,-3.1362931611109013,10.0,757.0],["PLA2G15",-0.12287272828840795,-3.472589875397612,13.0,754.0],["PTP4A3",-0.11347551360959122,-3.073235400669505,12.0,755.0],["RAB1A",-0.10750372844116074,-2.8336021536481897,9.0,758.0],["RAET1L",-0.11282558019526262,-3.046543400614543,10.0,757.0],["RPS6KA3",-0.101788266785922,-2.61491488813916,14.0,753.0],["SSPN",-0.0965778660930693,-2.42396394241056,10.0,757.0],["TMEM165",-0.09447552608943084,-2.3493274345504944,10.0,757.0],["TREX1",-0.1102041438944295,-2.940583441697627,10.0,757.0],["UBALD2",-0.12489242917579405,-3.561812262093491,9.0,758.0],["WBSCR16",-0.12021852165204759,-3.3571995983257095,20.0,747.0],["YPEL4",-0.08978037334618308,-2.1873958454341214,8.0,759.0]]}}}
{"depmap_damaging":{"corr":{"top":[["GIN1",0.09562438587864952,-2.094313529393522,8.0,759.0],["ITGAM",0.11871125731196285,-3.005321644047919,10.0,757.0],["MYOF",0.09803796490996841,-2.181607899818889,14.0,753.0],["PCDHB3",0.10273251890882798,-2.356667428107351,8.0,759.0],["WASF3",0.09995155918468179,-2.252123659532779,11.0,756.0]],"bottom":[["ANO3",-0.1271107212512371,-3.379534267642801,10.0,757.0],["EPHA1",-0.10137464771628034,-2.305315065624645,8.0,759.0],["HNF1A",-0.1129070439598302,-2.7601843570416635,8.0,759.0],["MYO1D",-0.1211651331478045,-3.112256194885876,13.0,754.0],["SRPK2",-0.1345541637897194,-3.7306028919123784,9.0,758.0],["STAT2",-0.1379035874583028,-3.894595223980894,13.0,754.0],["TMEM168",-0.10324780436843346,-2.3763079326129692,11.0,756.0]]},"para":{"top":[["FXR1",0.09345059608644135,-2.3133808484895297,9.0,758.0],["ITGAM",0.13063058318903997,-3.8229125796002634,10.0,757.0],["KIF6",0.11343666564149946,-3.071493400235324,9.0,758.0],["MYOF",0.10662694843953105,-2.799577888138031,14.0,753.0],["PCDHB3",0.10960276694488844,-2.916455256121709,8.0,759.0],["SOS2",0.11284853899613845,-3.047357290511951,8.0,759.0],["SPAM1",0.11409284302771205,-3.0984743532151082,9.0,758.0],["TEX2",0.11502242765817985,-3.1369264369470584,9.0,758.0],["TMX4",0.10838560242566972,-2.8682082236692,8.0,759.0]],"bottom":[["EVC",-0.10427752295894892,-2.7088100102915806,9.0,758.0],["HNF1A",-0.11122565297051343,-2.9814980550732217,8.0,759.0],["MYO1D",-0.11226648758781212,-3.023893640788725,13.0,754.0],["PAN2",-0.09606905669547997,-2.4056687919678086,8.0,759.0],["SRPK2",-0.10233633152473667,-2.635268387527948,9.0,758.0]]}}}
{"ccle_rrbs_enhancer_clusters":{"corr":{"top":[],"bottom":[["18-76007648-76010476-1_enh",-0.18118806733055978,-3.746401190636413,423]]},"para":{"top":[["10-119314285-119316860-1_enh",0.18014192391380388,-3.5710529801312734,405]],"bottom":[]}}}
{"prism_primary_logfold":{"corr":{"top":[["trihexyphenidyl_BRD-A48180038-003-24-3::2.5::HTS",0.17259589788440624,-3.2155749014467756,391],["dexrazoxane_BRD-K07265709-003-05-6::2.61::HTS",0.20805857076141246,-4.258650575973712,370],["irinotecan_BRD-K08547377-394-03-5::2.5::HTS",0.19287672885827573,-3.7661578411977845,375],["VER-49009_BRD-K38548312-001-01-0::2.5::HTS",0.18634013374002995,-3.6755042791571007,391],["PHA-793887_BRD-K64800655-001-07-4::2.5::HTS",0.1754844651632921,-3.3240358638372745,393],["amsacrine_BRD-K68346641-001-02-2::2.5::HTS",0.17164758383594123,-3.185067243503141,391],["albendazole_BRD-K79131256-001-17-9::2.5::HTS",0.17591453354980338,-3.330893204842714,392]],"bottom":[["prochlorperazine_BRD-K19352500-070-12-4::2.5::HTS",-0.24224065714064383,-5.901993967842104,391],["cilostazol_BRD-K67017579-001-28-1::2.5::HTS",-0.1665720356515513,-3.031042992250226,392]]},"para":{"top":[["cabazitaxel_BRD-K06858286-001-01-3::2.5::HTS",0.1814956581850819,-3.517345127132606,392],["dexrazoxane_BRD-K07265709-003-05-6::2.61::HTS",0.21854354566897186,-4.652461392045661,370],["irinotecan_BRD-K08547377-394-03-5::2.5::HTS",0.18934017674970535,-3.6453801726425117,375],["digoxigenin_BRD-K18619710-001-14-4::2.5::HTS",0.1886140514070077,-3.7631954996111414,392],["AZD3463_BRD-K24593301-001-02-3::2.54::HTS",0.17966598901041983,-3.287736687252751,370],["VER-49009_BRD-K38548312-001-01-0::2.5::HTS",0.19810920959956674,-4.096135187835639,391],["amonafide_BRD-K56334280-001-05-1::2.5::HTS",0.1969693742091182,-4.07248956837206,393],["PHA-793887_BRD-K64800655-001-07-4::2.5::HTS",0.19965127640516586,-4.17177855317758,393],["xanomeline_BRD-K72815923-034-01-2::2.5::HTS",0.21334233828982588,-4.678085323171841,391],["AZD7762_BRD-K86525559-001-04-5::2.5::HTS",0.19317173129639578,-3.7763300602543914,375],["nikethamide_BRD-K91544578-001-03-8::2.5::HTS",0.1739808902557235,-3.26041323351647,391],["brivaracetam_BRD-K00634421-001-01-0::2.500042819::MTS004",0.19132396836501403,-3.755933655887017,380]],"bottom":[["prochlorperazine_BRD-K19352500-070-12-4::2.5::HTS",-0.18602965450922507,-3.6647447247328744,391],["oritavancin_BRD-A33352494-316-01-6::2.499995956::MTS004",-0.1820800712588365,-3.4433227982971695,380]]}}}
{"prism_secondary_logfold":{"corr":{"top":[["GSK429286A_BRD-A10523515-001-07-9::0.0024414::HTS002",0.20379853445495955,-3.8112167935491774,340],["ixazomib-citrate_BRD-A66419424-001-02-4::2.5::HTS002",0.20416273993807774,-3.606850159226773,318],["fosbretabulin_BRD-K06814349-304-02-7::0.15625::MTS010::PROS002_PR500",0.22418016067582164,-4.153415301050972,309],["gemcitabine_BRD-K15108141-001-06-6::10::HTS002",0.20189201791294564,-3.671445696232158,332],["LY2606368_BRD-K20463415-300-01-4::10::MTS006",0.23067453068100224,-4.709507526496783,336],["PRT062070_BRD-K25835157-001-01-4::10::HTS002",0.19971141610963508,-3.6489708762558477,337],["BIIB021_BRD-K51967704-001-03-6::0.625::HTS002",0.2090505448028976,-3.8741287334033263,329],["JNJ-26481585_BRD-K83837640-001-04-8::0.625::HTS002",0.2091952199761452,-2.92162491180884,237],["genz-644282_BRD-K99475619-001-01-2::0.625::HTS002",0.23652616732570408,-4.11350518726028,274]],"bottom":[["prednisolone-tebutate_BRD-A53151380-001-01-2::0.0024414::HTS002",-0.20410883938165608,-2.8605408943606676,243],["trovafloxacin_BRD-K00494077-066-01-9::0.00061034::HTS002",-0.22013516317433182,-4.134421532388611,319],["cobimetinib_BRD-K03390685-001-01-7::0.00061034::HTS002",-0.20577332473233562,-3.34604995597303,287],["josamycin_BRD-K25837718-001-03-8::2.5::HTS002",-0.20319564205506085,-3.7620844133010203,337],["ouabain_BRD-K33277808-331-01-3::0.00061034::HTS002",-0.22041359953589937,-3.7654726283024704,286],["semaxanib_BRD-K63504947-001-15-4::0.15625::HTS002",-0.2415545368792879,-4.3411754438159464,279],["ulipristal_BRD-K64381438-001-03-8::0.00976562::HTS002",-0.2675455844633519,-4.624448308944028,243],["PQ-401_BRD-K67537649-001-04-5::0.00976562::HTS002",-0.1961068335591087,-3.452064856874091,328],["bekanamycin_BRD-K73425385-065-04-8::2.5::HTS002",-0.2053540640541645,-3.833113389216497,337],["skepinone-l_BRD-K83607951-001-02-2::0.00061034::HTS002",-0.19454313513765403,-3.4488572577448817,333],["chloramphenicol-palmitate_BRD-K96424892-001-02-9::0.0390625::HTS002",-0.20189471276071128,-2.797592958043801,242]]},"para":{"top":[["LY2603618_BRD-K14109347-001-03-4::2.5::MTS010::PROS004_PR500",0.22906678709367262,-4.58864033739479,331],["gemcitabine_BRD-K15108141-001-06-6::10::HTS002",0.19979296550014905,-3.604462179289211,332],["LY2606368_BRD-K20463415-300-01-4::10::MTS006",0.20951048061740446,-3.9616350337296034,336],["PRT062070_BRD-K25835157-001-01-4::10::HTS002",0.24142767156179853,-5.131141578362704,337],["PF-03758309_BRD-K37764012-001-04-1::0.625::HTS002",0.21548884685837752,-4.1655907536892105,336],["metyrapone_BRD-K46862739-001-14-3::0.039062499::MTS006",0.20565547392838565,-3.8331253344756613,336],["BIIB021_BRD-K51967704-001-03-6::0.625::HTS002",0.2055489349113994,-3.7598754571551734,329],["pevonedistat_BRD-K67844266-003-01-9::2.5::HTS002",0.20905994055303323,-3.9464947156009997,336],["JNJ-26481585_BRD-K83837640-001-04-8::0.625::HTS002",0.22105716023037417,-3.2154896862265687,237],["talazoparib_BRD-K95142244-001-01-5::10::MTS010::PROS003_PR500",0.2416461691155492,-4.989274535185643,326]],"bottom":[["sclareol_BRD-A23127772-001-02-3::0.15625::HTS002",-0.19414084598014292,-3.472064268720252,337],["formestane_BRD-A26503646-001-16-6::0.0390625::HTS002",-0.1945891758967305,-3.4950790033849883,338],["ketoconazole_BRD-A38350138-001-04-9::0.0024414::HTS002",-0.24858373217762322,-3.487252534184444,205],["trovafloxacin_BRD-K00494077-066-01-9::0.00061034::HTS002",-0.2515486408336254,-5.267395672892128,319],["bisindolylmaleimide-ix_BRD-K06543683-066-02-1::0.0390625::HTS002",-0.1940806436790335,-3.4969057710044136,340],["cytochalasin-b_BRD-K47000838-001-01-6::0.00101808::HTS002",-0.2142744163453215,-4.156069453139135,339],["ulipristal_BRD-K64381438-001-03-8::0.00976562::HTS002",-0.2262254596029322,-3.42173053741262,243],["CX-4945_BRD-K81458380-001-04-9::0.00976562::HTS002",-0.22233508930637672,-3.8239973895883503,286],["cyt387_BRD-K87737963-001-06-0::0.00061034::HTS002",-0.21522412123597487,-3.433969437357924,270],["PP-2_BRD-K95785537-001-23-1::0.0024414::HTS002",-0.21581286105837708,-3.97954517164382,318]]}}}
{"ccle_proteomics":{"corr":{"top":[],"bottom":[["B2M_P61769",-0.2265299429465273,-3.6740075391611775,263],["RBAK_Q9NYW8",-0.3079202523848775,-3.2982749846445794,124]]},"para":{"top":[["CCND1_P24385",0.24474165313279522,-3.9352262604830495,243],["INO80D_Q53TQ3-2",0.28761659895502306,-2.6562168431222775,111],["CAB39L_Q9H9S4",0.32603848285309517,-4.047062133162884,139]],"bottom":[["FANCA_O15360",-0.2739050645050993,-2.5705441058234606,118],["ZNF174_Q15697",-0.31008782802378654,-2.9858739179224982,109],["B2M_P61769",-0.2510035935102531,-4.4164383295720855,263]]}}}
{"depmap_gene_tpm":{"corr":{"top":[],"bottom":[]},"para":{"top":[],"bottom":[["OR2T29_343563",-0.1367806546456767,-3.826130278069417,764]]}}}
{"avana":{"corr":{"top":[["ANKRD6_22881",0.19476260028343514,-7.2840756786095415,769],["TRAPPC10_7109",0.2036408298030995,-7.915798299010379,769],["MCHR2_84539",0.2114818819484838,-8.497877470952886,769],["MTFR2_113115",0.19297070069078087,-7.160065963304028,769],["HTR1E_3354",0.18362942061195403,-6.5324043748326,769],["RD3_343035",0.19488075849044928,-7.292293940294039,769],["MDGA1_266727",0.21844836681851312,-9.034265239153255,769],["PNPLA1_285848",0.22133992252909246,-9.26226380226646,769],["PRSS35_167681",0.18988279141665107,-6.949098275473194,769]],"bottom":[["SQSTM1_8878",-0.1806648983376306,-6.339765092289677,769],["TAS2R19_259294",-0.179638392712828,-6.273792503999576,769],["CPEB3_22849",-0.19470835644065054,-7.280304556665335,769],["KLHL7_55975",-0.17447889718343262,-5.947869636352568,769],["ZCWPW1_55063",-0.18619191238444188,-6.606308185174661,757],["CAPZA2_830",-0.1816242550886106,-6.4017618631944355,769],["PRDX4_10549",-0.17440472397313275,-5.608270116551228,721],["PRRC1_133619",-0.20000848965808316,-7.653850975550576,769],["ADRM1_11047",-0.17308183343371145,-5.7788058263730075,757],["TRIM50_135892",-0.20960531908417526,-8.356493647156073,769],["TMED7_51014",-0.17240653254329827,-5.819613065628213,769],["ZNF766_90321",-0.20560510720536293,-8.05947771738302,769],["MAPK8_5599",-0.20439363261004642,-7.856252814660856,757]]},"para":{"top":[["MCHR2_84539",0.21013292232014255,-8.396111751712844,769],["MTFR2_113115",0.18455510126233027,-6.593200891104692,769],["ACSBG1_23205",0.18621600680579392,-6.703055954906455,769],["MPV17_4358",0.1821021206750029,-6.432765731563509,769],["HTR1B_3351",0.1919415551205141,-7.089370350318657,769],["PRSS35_167681",0.2358577984358103,-10.455138235942231,769]],"bottom":[["SQSTM1_8878",-0.17617426238602482,-6.053923307757532,769],["ZNF654_55279",-0.17250267837875763,-5.825529903198588,769],["STK35_140901",-0.1630894978260434,-5.261636628487592,769],["PRDX4_10549",-0.16103391705657252,-4.855882740562644,721],["ZNF736_728927",-0.16653561271315312,-5.464474915287217,769],["HIF1A_3091",-0.16565633566947344,-5.412326801530318,769],["UNC13C_440279",-0.17845469644798953,-6.19818331734045,769],["MAPK8_5599",-0.17729552561121806,-6.038210233598549,757],["ZNF766_90321",-0.1727482885759525,-5.840659614577348,769]]}}}
{"drive":{"corr":{"top":[["EMILIN1_11117",0.24244914499791534,-4.217614575571626,268]],"bottom":[["SLC25A13_10165",-0.26329661462641385,-4.868065551575352,266]]},"para":{"top":[["TGFB1I1_7041",0.21607365159191605,-3.502218972643115,274],["EMILIN1_11117",0.2173438087629981,-3.471241389598292,268],["GJA9-MYCBP&GJA9_100527950&81025",0.2381384770914613,-4.083620196015212,268],["ADCY6_112",0.2235853268640651,-3.625463444594296,266],["GJB7_375519",0.25917289170321833,-4.760960356218014,268],["XRRA1_143570",0.21779834585801025,-3.4614757040850255,266],["AGFG1_3267",0.219145792184986,-3.522108514714137,268],["MUC1_4582",0.23361163037332552,-3.9455374324958337,268],["SEPT6_23157",0.2352626833302275,-4.100298116764342,276],["TWF2_11344",0.23708246560846016,-4.024568639089253,266],["IQCA1_79781",0.2278763803232548,-3.7744324464180186,268]],"bottom":[["SLC25A13_10165",-0.23400540998175842,-3.931512843433996,266],["ABCB6_10058",-0.2148888323564679,-3.3806237748543446,266]]}}}
{"achilles":{"corr":{"top":[["FNDC9_408263",0.22766612401523176,-3.038266681564812,209],["COL16A1_1307",0.20393643763538002,-3.9430474377222184,353],["SPON1_10418",0.25845666221821817,-3.8018844271940453,209],["LINC00474_58483",0.2821168549571919,-4.456318761403331,209],["YIPF7_285525",0.22368640744818735,-2.9465722231746447,209]],"bottom":[["TWF1_5756",-0.19802200254262106,-3.7428179596047997,353],["LMBRD2_92255",-0.21667335201726343,-2.788791930152765,209],["AOC3_8639",-0.18345147513366228,-3.2738518739408655,353],["NUP37_79023",-0.268308667523557,-4.0670574812245395,209],["FCGR1A_2209",-0.18237622038224666,-3.240598121644443,353]]},"para":{"top":[["TACO1_51204",0.24088673285495144,-3.354260881233063,209],["FNDC9_408263",0.2656579800483244,-3.994694934955223,209],["SPON1_10418",0.2522341989269409,-3.6396892374812087,209],["LINC00474_58483",0.25320633735519393,-3.66476190411317,209],["RMI1_80010",0.21441211526512335,-2.738944939028908,209],["RAB15_376267",0.2042071213523608,-3.9523491645520052,353],["HOOK2_29911",0.22606984544707015,-3.001298926529697,209]],"bottom":[["TWF1_5756",-0.20451571044405875,-3.962968240829441,353],["NUP37_79023",-0.2719900310151167,-4.168810632043148,209]]}}}
{"ccle_rrbs_tss1kb":{"corr":{"top":[["NUP98_11_3818776_3819776",0.1595646098350317,-3.239305555714761,462],["NUP98_11_3818784_3819784",0.16198083551167028,-3.3246920477544086,462],["PMS2P4_7_66767429_66768429",0.15359820278585964,-3.016761944075625,459],["DLGAP4-AS1_20_35201678_35202678",0.15906533407754056,-3.26364374295013,469]],"bottom":[["CCDC50_3_191045873_191046873",-0.20382288083565744,-5.073940243187826,470]]},"para":{"top":[["SNORD3J_10_43912888_43913888",0.19514143447091434,-4.690095171052758,470],["RBFA_18_77793345_77794345",0.16836477062485294,-3.4893802784527135,452],["PPIEL_1_40025370_40026370",0.15691301946763636,-3.193556959160026,470]],"bottom":[["CCDC50_3_191045873_191046873",-0.14628532443026543,-2.8319738179400398,470]]}}}
{"ccle_gene_tpm":{"corr":{"top":[["RP11-289F5.1_ENSG00000226798.1",0.1977520795564133,-5.726769260920497,572],["RP11-95P13.1_ENSG00000230024.1",0.1679583974965344,-4.266314850897973,572],["RN7SL591P_ENSG00000240940.2",0.14356720026451764,-3.2416701562991586,572],["RP11-1060J15.5_ENSG00000230519.2",0.15650010828340005,-3.7661806520417374,572]],"bottom":[["CTD-2339L15.3_ENSG00000259254.1",-0.17069125445532443,-4.390581358136131,572],["RP11-61O1.2_ENSG00000258511.1",-0.18358620308047272,-5.003165236342845,572]]},"para":{"top":[["RN7SL184P_ENSG00000239279.2",0.15784645466854894,-3.8232083678272653,572],["TAS2R1_ENSG00000169777.5",0.15523873588835713,-3.7131694988360526,572],["PIGCP2_ENSG00000229626.1",0.16058688300553786,-3.9407102777759175,572],["RP11-1060J15.5_ENSG00000230519.2",0.15757771919262495,-3.811788654729473,572]],"bottom":[["RBPJP6_ENSG00000227924.2",-0.1478820722129808,-3.4119978679388314,572],["RP11-415L24.1_ENSG00000234070.1",-0.14969571005379306,-3.484980836087473,572],["RP11-13P5.1_ENSG00000224478.1",-0.18555662885475935,-5.100618046337923,572],["RANP6_ENSG00000213370.3",-0.14359792066919658,-3.242866417310757,572],["RP11-589C21.2_ENSG00000253135.1",-0.15033289903270833,-3.5108180935594464,572],["AC068492.1_ENSG00000237262.1",-0.14637869670010065,-3.3521249032859632,572]]}}}
{"ccle_rrbs_tss_clusters":{"corr":{"top":[["LINC01882_1",0.21684199624236286,-4.356010704611506,349],["HIST1H4K_3",0.2271252571401101,-2.9262640008058036,201],["SMYD1_2",0.21687309984290512,-3.042378422737098,231],["GOLM1_2",0.22552306213697323,-3.500002887996793,251],["LINC00847_3",0.19918623266169957,-3.5289433479155083,326]],"bottom":[["CGNL1_3",-0.23108130401771496,-2.7830782775312124,183]]},"para":{"top":[["LINC01882_1",0.21626680133407475,-4.33527388163168,349],["HIST1H4K_3",0.2578634253498941,-3.6590694896375195,201],["LINC01012_2",0.2712144570958921,-3.049925741891885,147],["SAE1_1",0.23537288858688518,-2.6578163745028824,167]],"bottom":[]}}}
{"ccle_rrbs_cgi_clusters":{"corr":{"top":[["6_27796990_27801427-3",0.2271252571401101,-2.9262640008058036,201],["11_119596382_119599270-1",0.36481524783260716,-4.508218882903461,124],["5_180256186_180260784-3",0.19918623266169957,-3.5289433479155083,326],["17_80539548_80543754-2",0.3093828981657576,-3.8624137981474553,147],["11_856575_860932-3",0.23725141574228834,-4.547442726072853,305],["9_88714307_88716908-2",0.22552306213697323,-3.500002887996793,251]],"bottom":[["11_6589960_6594795-3",-0.24285394401617047,-3.951015822286704,248],["15_57666337_57671028-3",-0.23108130401771496,-2.7830782775312124,183]]},"para":{"top":[["6_27796990_27801427-3",0.2578634253498941,-3.6590694896375195,201],["11_119596382_119599270-1",0.40955149035811617,-5.63432823156061,124],["11_856575_860932-3",0.2858151288984338,-6.417118564545734,305],["12_132845640_132849955-3",0.2306999086817334,-2.981089038418195,199],["19_47631911_47636364-1",0.23537288858688518,-2.6578163745028824,167]],"bottom":[["11_6589960_6594795-3",-0.21676469957508984,-3.2310027131894627,248]]}}}
