{"depmap_hotspot":{"corr":{"top":[["AHDC1",0.1327968664830149,-3.646061063674369,80.0,687.0],["CDKN2A",0.10540095181018853,-2.4592913377289176,99.0,668.0],["DPH7",0.11985106881813917,-3.0547476217486578,12.0,755.0],["EIF2D",0.10764071082111197,-2.5471831075863745,23.0,744.0],["ENTHD1",0.10496144324575893,-2.4422324242528455,32.0,735.0],["ERCC6-PGBD3",0.12459895233405181,-3.2652029003778176,18.0,749.0],["GARNL3",0.11182930138846371,-2.715867457989853,37.0,730.0],["HNF1B",0.11068228579252802,-2.669113495270087,27.0,740.0],["HSD11B1L",0.11637820847193837,-2.9054725278408697,11.0,756.0],["KCNA7",0.12565142842251836,-3.312856855721426,21.0,746.0],["LMOD3",0.1060773640918778,-2.485665819198897,25.0,742.0],["LRRC4",0.11439786979018142,-2.822105908233053,20.0,747.0],["MTUS1",0.09993793948487607,-2.251617687048929,41.0,726.0],["MYT1",0.10702755131314158,-2.5229622292416165,64.0,703.0],["NFKBIB",0.1146864234118055,-2.8341740722747457,22.0,745.0],["NIPSNAP3B",0.11338555050764629,-2.779980840569094,10.0,757.0],["NPAS2",0.10380907200647645,-2.3977971756634795,34.0,733.0],["NPTX1",0.13442863816595652,-3.724529847642139,17.0,750.0],["NR5A1",0.09651711669397135,-2.126388310154749,26.0,741.0],["OR11A1",0.11094717648160213,-2.679873173686049,13.0,754.0],["OR5C1",0.09796807343647244,-2.179054280889809,12.0,755.0],["PANK2",0.09816940851684616,-2.1864146155494546,19.0,748.0],["PRPF4B",0.1011014439425377,-2.295053653100244,36.0,731.0],["QDPR",0.10539175949568905,-2.4589339196988824,12.0,755.0],["RAMP3",0.10416379388364842,-2.411430118824243,8.0,759.0],["SPTAN1",0.10796035915702663,-2.5598575303422697,79.0,688.0],["TARS2",0.09947044323099247,-2.2342857398530027,25.0,742.0],["TNRC18",0.11416405155905816,-2.812346713488848,153.0,614.0],["UNC80",0.10610859592840569,-2.486887132193734,109.0,658.0],["ZNF211",0.11145674816816224,-2.700635180437234,26.0,741.0],["ZNF709",0.10405588822374988,-2.4072787650654233,27.0,740.0]],"bottom":[["ART3",-0.10629558002322033,-2.4942056174148064,17.0,750.0],["DDRGK1",-0.10855159882236246,-2.5833871796088386,21.0,746.0],["FBP2",-0.09227349053327348,-1.976148498127458,18.0,749.0],["FXYD5",-0.1360951304203299,-3.805584849218253,11.0,756.0],["GRIA1",-0.11762232885923012,-2.958497625333952,66.0,701.0],["KIAA0753",-0.10729581951377082,-2.5335444825043933,40.0,727.0],["KIAA0930",-0.11525212772660794,-2.857911776458762,24.0,743.0],["KLHL42",-0.10296640634057228,-2.365571766939002,20.0,747.0],["LDOC1",-0.12383010925914983,-3.2306215023321054,11.0,756.0],["MARK3",-0.1018462700379268,-2.3230846846605764,32.0,735.0],["MED8",-0.13459027475532306,-3.732350946833068,9.0,758.0],["MEF2D",-0.11302463679220721,-2.7650424796190847,24.0,743.0],["MUM1L1",-0.09660223318691637,-2.129459525387919,32.0,735.0],["TESC",-0.09332860186123412,-2.0129767119201536,11.0,756.0],["TRIM7",-0.1188115261298874,-3.0096526334881366,29.0,738.0],["TSPAN1",-0.1371109515864219,-3.8554477472251687,8.0,759.0]]},"para":{"top":[["ATP5J",0.0987899368610594,-2.504034846253761,12.0,755.0],["ATP6V0B",0.09404049480645663,-2.333945329170336,8.0,759.0],["CDR1",0.08795515316636901,-2.1263457406024053,9.0,758.0],["EMC3",0.09792383110971248,-2.47234679632721,8.0,759.0],["ERCC6-PGBD3",0.1176836358197155,-3.248827611812961,18.0,749.0],["GIMAP7",0.11041516877266065,-2.949273062120584,17.0,750.0],["HSD11B1L",0.11794768657206013,-3.259793019180267,11.0,756.0],["LRRC4",0.10580786962718572,-2.767947482623182,20.0,747.0],["NIPSNAP3B",0.10041922743126647,-2.5638272475652704,10.0,757.0],["NPTX1",0.12759441709284094,-3.6837748431862525,17.0,750.0]],"bottom":[["ABHD3",-0.10702706306202892,-2.8150627645907966,11.0,756.0],["CABP1",-0.09623172308462527,-2.411694918072004,13.0,754.0],["CASP2",-0.10086456742533749,-2.580481487621116,14.0,753.0],["DDRGK1",-0.11487403460542626,-3.1311557306105744,21.0,746.0],["F2R",-0.10009477678864172,-2.551985482420799,14.0,753.0],["FBP2",-0.10348613885253781,-2.678988047831704,18.0,749.0],["FXYD5",-0.13201325154643134,-3.8874155823937824,11.0,756.0],["HOMER1",-0.11911960252412296,-3.3098394964695683,14.0,753.0],["KPNA4",-0.11060487167297287,-2.956732671411843,12.0,755.0],["MEF2D",-0.12884395031997914,-3.740941401719639,24.0,743.0],["NYX",-0.11432496896333603,-3.108417120765169,20.0,747.0],["OLFM2",-0.10583942259641248,-2.7691297691658723,18.0,749.0],["OR51J1",-0.10519491568336081,-2.74402220259533,10.0,757.0],["RRAGB",-0.10362139586588082,-2.68382306163157,9.0,758.0],["SFXN5",-0.11166254125537665,-2.999589929872005,21.0,746.0],["SYAP1",-0.10531376213456503,-2.7484795114823393,8.0,759.0],["TNFRSF10B",-0.11087009352763082,-2.967600491922636,20.0,747.0]]}}}
{"depmap_damaging":{"corr":{"top":[["CXorf22",0.10777377720296552,-2.5524553643556236,11.0,756.0],["PLXNB2",0.09495749421312202,-2.070516165490799,10.0,757.0],["PPRC1",0.10039642330266613,-2.268682646396899,10.0,757.0]],"bottom":[["DGKH",-0.1381012666054323,-3.904391191744526,9.0,758.0],["STARD9",-0.09127031097435023,-1.9414551061179768,17.0,750.0]]},"para":{"top":[["CXorf22",0.1041792814210911,-2.705158629162745,11.0,756.0],["FAM186B",0.11432657997271845,-3.10804985985694,8.0,759.0],["IGF2R",0.11117357397159636,-2.9798705177167175,23.0,744.0],["RALGAPA1",0.10275516190239957,-2.651089894737053,10.0,757.0],["STAT6",0.1045363646555893,-2.7190057928495275,18.0,749.0],["TIAM1",0.09696748709473155,-2.43783555244638,8.0,759.0]],"bottom":[["PTPRZ1",-0.09805733813267631,-2.4772966018587397,10.0,757.0],["SNRNP48",-0.0972125157114655,-2.446873430183016,13.0,754.0]]}}}
{"ccle_chromatin":{"corr":{"top":[["H3K18ac0K23ub1",0.1718343727092789,-2.8396665088446262,341]],"bottom":[]},"para":{"top":[],"bottom":[]}}}
{"ccle_metabolomics":{"corr":{"top":[["cis\/trans-hydroxyproline",0.1680545874270592,-4.007565687530185,532]],"bottom":[]},"para":{"top":[],"bottom":[]}}}
{"ccle_mirna":{"corr":{"top":[],"bottom":[["hsa-miR-670_miR00710.1",-0.13517123916301216,-2.7584132426968258,534]]},"para":{"top":[],"bottom":[["hsa-miR-371-3p_miR00338.1",-0.141842392150069,-2.994107716349816,534],["hsa-miR-670_miR00710.1",-0.1361243955087414,-2.7914630965515035,534]]}}}
{"prism_primary_logfold":{"corr":{"top":[["3-(4-methylbenzylidene)camphor_BRD-A55464252-001-01-2::2.5::HTS",0.1860887262340478,-3.6260251373870043,386],["flurbiprofen-(+\/-)_BRD-A86044036-001-26-5::2.5::HTS",0.17158697405461623,-3.1831227414654846,391],["hyodeoxycholic-acid_BRD-K44009692-001-02-3::2.5::HTS",0.15609844617664181,-2.7070636084502815,391],["cefixime_BRD-K71059170-001-11-6::2.5::HTS",0.18252633212423713,-3.5366755777590226,390]],"bottom":[["NKP-1339_BRD-K81645297-236-01-1::2.5::HTS",-0.16632458031780714,-3.0167309925379633,391]]},"para":{"top":[["3-(4-methylbenzylidene)camphor_BRD-A55464252-001-01-2::2.5::HTS",0.16076379501369498,-2.8152600263645198,386],["Ro-04-5595_BRD-A63546914-003-02-0::2.5::HTS",0.1632005574105473,-2.9265675763616774,392],["nepafenac_BRD-K04112579-001-07-0::2.5::HTS",0.167997513368985,-3.0758087622049395,392],["hyodeoxycholic-acid_BRD-K44009692-001-02-3::2.5::HTS",0.1751755368365698,-3.299359178980536,391]],"bottom":[["NKP-1339_BRD-K81645297-236-01-1::2.5::HTS",-0.18071388503975636,-3.4831919060455054,391]]}}}
{"prism_secondary_logfold":{"corr":{"top":[["GSK2830371_BRD-K17472821-001-01-2::0.009765624::MTS006",0.18042077183231567,-3.049013008578295,336],["dacomitinib_BRD-K57169635-001-04-5::10::MTS010::PROS002_PR500",0.22459374149686231,-4.131520972337185,306],["FK-866_BRD-K58550667-001-08-7::0.15625::MTS010::PROS005_PR500",0.22751069603445448,-4.4838252704257275,327],["delanzomib_BRD-K59325863-001-02-8::0.625::HTS002",0.18953192639175975,-3.3123004385878936,335]],"bottom":[["AZ-628_BRD-K05804044-001-06-0::0.625::HTS002",-0.22065784557714158,-4.312249550281023,333],["mechlorethamine_BRD-K12829205-003-02-8::2.5::HTS002",-0.22899614814509986,-4.610671789232651,333],["selumetinib_BRD-K57080016-001-15-9::0.15625::HTS002",-0.21910076066946024,-4.3591815847115365,342]]},"para":{"top":[["aminoglutethimide_BRD-A25234499-001-19-1::0.15625::MTS010::PROS003_PR500",0.20370220439440442,-3.670987478515145,326],["panobinostat_BRD-K02130563-001-11-4::0.00061034::HTS002",0.17228515574584732,-2.6674010293068533,315],["XL-647_BRD-K03765900-001-01-9::9.99995::MTS010::PROS002_PR500",0.20627347229114462,-3.4108380679517607,292],["cinnarazine_BRD-K07220430-001-18-4::0.00244141::HTS002",0.19345014139095298,-3.3884363749568664,330],["GSK2830371_BRD-K17472821-001-01-2::0.009765624::MTS006",0.20057582082458095,-3.667360768282398,336],["resminostat_BRD-K28822270-001-03-7::10.4626::MTS010::PROS002_PR500",0.19823145710496268,-3.2382461898737267,298],["dacomitinib_BRD-K57169635-001-04-5::10::MTS010::PROS002_PR500",0.2558706642486984,-5.236008289989932,306],["FK-866_BRD-K58550667-001-08-7::0.15625::MTS010::PROS005_PR500",0.21748472108337633,-4.134896288232211,327],["delanzomib_BRD-K59325863-001-02-8::0.625::HTS002",0.21735657125098792,-4.219381152139515,335]],"bottom":[["4-pyrimidinecarbonitrile_BRD-K04552268-001-02-4::0.000610352::HTS002",-0.18701261727679463,-3.2526972986274902,337],["AZ-628_BRD-K05804044-001-06-0::0.625::HTS002",-0.1960164035890275,-3.4947437472655887,333],["mechlorethamine_BRD-K12829205-003-02-8::2.5::HTS002",-0.2071696005143437,-3.8529871259440878,333],["NVP-AUY922_BRD-K41859756-001-06-8::0.00976562::HTS002",-0.18801615375295713,-3.232768410640206,331],["4-(4-fluorobenzoyl)-1-(4-phenylbutyl)-piperidine_BRD-K47337578-034-02-5::0.15625::HTS002",-0.17570049093611015,-2.927881252936858,338],["MEK162_BRD-K82244583-001-01-3::0.15625::HTS002",-0.2227404604292707,-4.210867281161502,318]]}}}
{"ccle_proteomics":{"corr":{"top":[["CEP170B_Q9Y4F5",0.2691399606655177,-5.017468923391808,263],["MNT_Q99583",0.23518974281255237,-3.638943515384653,241],["PCBP2_F8VZX2",0.3446944973548122,-4.603806395821123,143],["NHSL1_Q5SYE7-2",0.2576227570450108,-4.630681986250385,263],["LNX2_Q8N448",0.28844403028043153,-3.543782503099738,154]],"bottom":[["STIM1_Q13586",-0.2534391294203182,-4.494593129010537,263],["XYLT2_Q9H1B5",-0.2575430092349873,-3.5874088425195736,197],["AURKAIP1_Q9NWT8",-0.26096384790675087,-3.131982985629929,164],["COX15_Q7KZN9",-0.24375555970318435,-4.1884747388893935,263]]},"para":{"top":[["UNC119B_A6NIH7",0.23953531163454536,-3.9637699959003627,256],["CEP170B_Q9Y4F5",0.2596134547883161,-4.696257792763866,263],["WASF2_Q9Y6W5",0.23490273452891078,-3.919317399728101,263],["ZNF282_Q9UDV7",0.2342230629540399,-3.126874365796835,204],["PRRC2B_Q5JSZ5",0.2603331456049202,-4.720095999248431,263]],"bottom":[["STIM1_Q13586",-0.26632183961158407,-4.921166967903415,263],["PIGT_Q969N2",-0.23879671765542704,-4.036460435709836,263],["SNX25_Q9H3E2",-0.2899591872829327,-3.3735414136889,144],["AURKAIP1_Q9NWT8",-0.2698217720522083,-3.3225514784863077,164]]}}}
{"depmap_copy_number":{"corr":{"top":[],"bottom":[]},"para":{"top":[],"bottom":[["MIR3185_100422978",-0.15135084117430028,-4.601602020977944,769],["CALCOCO2_10241",-0.1529721157080099,-4.689936149700621,769],["HOXB13_10481",-0.15135084117430028,-4.601602020977944,769],["LOC105371814_105371814",-0.15251366699036495,-4.664866462497179,769],["TTLL6_284076",-0.15553908885362244,-4.831641862336625,769],["PRAC2_360205",-0.15135084117430028,-4.601602020977944,769],["MIR196A1_406972",-0.15155994936472947,-4.612944545872837,769],["NME2_4831",-0.1557996810946171,-4.84615421060035,769],["MBTD1_54799",-0.1557996810946171,-4.84615421060035,769],["MRPL45P2_653479",-0.15213455689375302,-4.644189764795487,769],["PRAC1_84366",-0.1512021183480601,-4.59354405395955,769],["NPEPPS_9520",-0.15212969289399922,-4.643924802012046,769]]}}}
{"depmap_gene_tpm":{"corr":{"top":[],"bottom":[["FBXL20_84961",-0.13432583342972018,-3.706937717554302,764]]},"para":{"top":[["PALB2_79728",0.14129357682638324,-4.0504976064514935,764]],"bottom":[["FBXL20_84961",-0.13831032289888187,-3.9014176751045104,764],["TSPY2_64591",-0.14679999426818294,-4.33351437597894,764]]}}}
{"avana":{"corr":{"top":[["EBI3_10148",0.2757186875810967,-14.156225406081528,769],["TLE2_7089",0.28129574345992353,-14.507429571521767,757],["TNFSF14_8740",0.3344992024750358,-20.83231134163592,769],["LRG1_116844",0.3438185295425528,-22.033724546282745,769],["TRIP10_9322",0.2842113684557722,-15.02837493275427,769],["SGTA_6449",0.2894373404494165,-15.580119030899365,769],["SLC39A3_29985",0.30213133661978764,-16.968921002961007,769],["ACSBG2_81616",0.31000614071451116,-17.865661592742264,769],["MOB3A_126308",0.3263377308974668,-19.81343278782835,769],["UBXN6_80700",0.2837189431957013,-14.976980696512676,769],["CATSPERD_257062",0.2964174649167971,-16.3351998393103,769],["ZNF554_115196",0.34709426730422827,-22.46578814178633,769],["PSPN_5623",0.32461350482899876,-19.60210046899217,769],["MYDGF_56005",0.2820433904089692,-14.802867557126492,769],["TJP3_27134",0.3159621260706295,-18.56210846542602,769]],"bottom":[["B3GNT7_93010",-0.19022337989889745,-6.972198108194765,769],["SLC2A8_29988",-0.17347612852125754,-5.885619919704604,769],["KTN1_3895",-0.16814654462419307,-5.56071769629928,769],["TSGA10_80705",-0.1956620708964592,-7.346764537693706,769],["ERP29_10961",-0.18975368702443188,-6.94035294920935,769],["C1orf131_128061",-0.17753521845550949,-6.1397950798319245,769],["PLCH1_23007",-0.18234692781777967,-6.44868040703797,769],["CTAGE15_441294",-0.18045422437711686,-6.32619463070616,769],["PYGB_5834",-0.1731240684315577,-5.8638490315471765,769],["OR52H1_390067",-0.17581745616101194,-6.0315187071611795,769]]},"para":{"top":[["LRG1_116844",0.336816152007052,-21.12719193223879,769],["TLE2_7089",0.3053303825324161,-17.07158043270742,757],["TNFSF14_8740",0.34646549117496556,-22.382456235216154,769],["TMIGD2_126259",0.2836582927555591,-14.970657692222575,769],["CSNK1G2_1455",0.30456657173670165,-17.24332629499967,769],["SLC39A3_29985",0.28329398963512287,-14.932710474931234,769],["SGTA_6449",0.3122628863813659,-18.12768984429186,769],["MOB3A_126308",0.29911740586452923,-16.63288505848781,769],["UBXN6_80700",0.30415460179471066,-17.19672284912335,769],["ACSBG2_81616",0.3620596541424763,-24.505673514975925,769],["DIRAS1_148252",0.2968755626997616,-16.385486193662175,769],["CATSPERD_257062",0.2896869875522353,-15.606765877969737,769],["ZNF554_115196",0.33726682778289174,-21.18484156992125,769],["ATCAY_85300",0.2906712675613704,-15.712084521302279,769],["TJP3_27134",0.31462056042124603,-18.40385606880172,769]],"bottom":[["TRIM25_7706",-0.14459890012405813,-4.243383907214695,769],["CXXC4_80319",-0.14804477532841528,-4.4242601493218485,769],["OR52H1_390067",-0.17711908265363493,-6.113468545839246,769],["UCK2_7371",-0.1470579816414647,-4.372049970421341,769],["CTAGE15_441294",-0.1595172921058363,-5.055739513977347,769],["SATB2_23314",-0.14925696220534587,-4.427033305174783,757],["TXNDC2_84203",-0.15859751721966667,-5.003441288128913,769]]}}}
{"drive":{"corr":{"top":[["MARK1_4139",0.22885369354957974,-3.8405130777799554,271],["SLC38A6_145389",0.23948509713417895,-4.098085999323569,266],["DHX35_60625",0.2603583393671013,-4.80091255267014,268],["ADGRF5_221395",0.21892902272284193,-3.60700824021242,276],["GMIP_51291",0.24171299359116194,-4.194557855119643,268]],"bottom":[["EAF1_85403",-0.20264215251545958,-3.0715100529344066,268],["LOC107986988_107986988",-0.23054368821656654,-3.853477493112143,268]]},"para":{"top":[["SLC38A6_145389",0.2571331110794496,-4.661460274030541,266],["DHX35_60625",0.22591094063921727,-3.7167754924847163,268],["RLBP1_6017",0.2019416567829417,-3.0531363806450478,268],["MRE11_4361",0.197843199964331,-2.9468481566139646,268],["RBPMS2_348093",0.20680894982132655,-3.1820596939964676,268],["RDH10_157506",0.21002775643001498,-3.268937771076268,268],["SYTL4_94121",0.2209275068858265,-3.572809664998375,268]],"bottom":[["PLEKHG1_57480",-0.228980038326877,-3.844292468466024,271],["LOC107986988_107986988",-0.27909409549939374,-5.458209316096366,268]]}}}
{"achilles":{"corr":{"top":[["GABRE_2564",0.19709019072028483,-3.7117954792343086,353],["C19orf68_374920",0.23215080537146165,-3.14348623008391,209]],"bottom":[["RIBC1_158787",-0.23396404472647234,-3.1866007096623967,209],["CRIPT_9419",-0.24869369091494567,-3.5492062582856305,209],["ZMYND12_84217",-0.254592955873431,-3.700695312595568,209],["PLEKHA1_59338",-0.2679126145964309,-4.056197524139799,209],["SOD2_6648",-0.26941774454544887,-6.5594246247826105,353],["EPM2AIP1_9852",-0.23633025903607,-3.2433618279871603,209],["FRA10AC1_118924",-0.2703796949545623,-4.124120918074235,209],["SLAMF9_89886",-0.24000175705241308,-3.332556459352605,209],["BRD9_65980",-0.2946829471018068,-4.828858087563294,209],["USMG5_84833",-0.24221955497729813,-3.387099753159853,209]]},"para":{"top":[["GABRE_2564",0.18850970069722636,-3.4327693513504136,353]],"bottom":[["SBSN_374897",-0.2577336696231954,-3.7828301256360533,209],["CRIPT_9419",-0.23789321481247433,-3.281164728663809,209],["ZMYND12_84217",-0.257853775207108,-3.78599166558801,209],["MARCH6_10299",-0.22728243652731311,-3.0293578382336475,209],["SOD2_6648",-0.28422355736064403,-7.257841671846907,353],["FRA10AC1_118924",-0.29599911404207635,-4.8689052522156935,209],["SLAMF9_89886",-0.2682975000222917,-4.066751032164196,209],["BRD9_65980",-0.27894118517118516,-4.364950570133088,209]]}}}
{"ccle_rrbs_tss1kb":{"corr":{"top":[["SMARCA4_19_11070597_11071597",0.17503653544431116,-3.8355652144727563,466],["MIR513A1_23_146295109_146296109",0.18025727788615573,-3.590360136680592,407],["RELB_19_45503706_45504706",0.1632375910975249,-3.38841605462751,465],["SMARCA4_19_11070807_11071807",0.17304238037646055,-3.7590071314075173,466]],"bottom":[]},"para":{"top":[["MIR513A1_23_146295109_146296109",0.19776443642936148,-4.229970596357152,407]],"bottom":[]}}}
{"ccle_gene_tpm":{"corr":{"top":[["RP11-15G8.1_ENSG00000205625.2",0.16652555782610934,-4.201932330245503,572]],"bottom":[["IGHV3-41_ENSG00000253705.1",-0.16309877917820056,-4.050096931998103,572],["CICP20_ENSG00000235955.1",-0.1514662933358426,-3.5570282115719225,572],["IGBP1P3_ENSG00000231552.1",-0.15074114038885159,-3.5274254397949067,572],["RP11-274M17.2_ENSG00000257113.1",-0.1546873641441731,-3.6901238374050433,572],["KLF3P1_ENSG00000253218.1",-0.14959996258061536,-3.481107205206462,572]]},"para":{"top":[["UQCRFS1_ENSG00000169021.4",0.16236120902345044,-4.017810269412251,572],["FAM86HP_ENSG00000253540.1",0.20602993092974556,-6.174589166445454,572],["RPUSD1_ENSG00000007376.3",0.17014916133280933,-4.365778104810505,572]],"bottom":[["RP11-720L8.1_ENSG00000259434.1",-0.1570146727756148,-3.7879219148994405,572],["RP11-846F4.11_ENSG00000264970.1",-0.1400895952760956,-3.107766933046409,572],["AC113331.9_ENSG00000236897.1",-0.13925975080226397,-3.0762573337018697,572],["RP11-274M17.2_ENSG00000257113.1",-0.15994148887230342,-3.9128653065305343,572],["IGHV3-47_ENSG00000229092.2",-0.15014294123280017,-3.503104855117324,572],["RP11-342H21.2_ENSG00000231080.1",-0.14200338964077722,-3.1810850092435103,572],["CTD-2345M20.2_ENSG00000254316.1",-0.1451202715288495,-3.302441636851874,572],["RP11-335E8.1_ENSG00000271356.1",-0.14770133605234295,-3.4047700104732233,572],["RP11-203M5.2_ENSG00000254846.1",-0.16391491567952876,-4.085985220381458,572],["AC013463.2_ENSG00000236283.1",-0.14450341103563405,-3.278232007199554,572],["RP11-744K17.1_ENSG00000261020.1",-0.16184175550908605,-3.995155082733562,572],["RP11-272P10.3_ENSG00000223672.2",-0.15910607178496813,-3.876979675211108,572],["TSPY2_ENSG00000168757.8",-0.1499492655080159,-3.495249987604313,572]]}}}
{"ccle_rrbs_tss_clusters":{"corr":{"top":[["TIGIT_3",0.2623679500899715,-5.241840246956682,291],["P2RX3_1",0.23027421665594044,-3.7574505149534216,261]],"bottom":[["WWP2_2",-0.20763295826684036,-3.7971475690464453,326],["HSF4_2",-0.19598130712623169,-4.771136328063694,475],["ZNF276_1",-0.19338293592827396,-4.562153601025542,464]]},"para":{"top":[["TIGIT_3",0.2448342529626845,-4.617914347892293,291],["LINC02210-CRHR1_1",0.22464076706825736,-4.216246109474238,313]],"bottom":[["HSPA13_2",-0.19969014803244314,-2.8030677265098753,248],["HSF4_2",-0.19843551396624626,-4.879512929857909,475],["BAG5_1",-0.21843768894721385,-4.480909424377052,355],["PM20D2_2",-0.22762716806395566,-4.024514659486444,289]]}}}
{"ccle_rrbs_cgi_clusters":{"corr":{"top":[["8_72469060_72471561-3",0.2422707536022907,-2.593295812284432,153]],"bottom":[["16_89787963_89791089-2",-0.19939625845717152,-4.802234695451644,462],["8_145515339_145517959-3",-0.21673848189915412,-3.2415416056000614,249],["19_3461231_3463795-2",-0.2166319466789177,-3.79612422907712,299]]},"para":{"top":[["17_43695922_43700336-1",0.22464076706825736,-4.216246109474238,313],["8_72469060_72471561-3",0.27647455021168865,-3.26656062076253,153]],"bottom":[["16_89787963_89791089-2",-0.20212368990907953,-4.9216045562378445,462],["8_145515339_145517959-3",-0.22160667599704262,-3.37022360883113,249],["21_15753371_15758086-2",-0.19969014803244314,-2.8030677265098753,248],["19_17837785_17840816-3",-0.20789988500366893,-3.273182118179044,274]]}}}
