{"depmap_hotspot":{"corr":{"top":[["ALAS2",0.11730487731426635,-2.944919844016013,33.0,734.0],["ARHGAP23",0.11601004404891448,-2.8898775880178125,64.0,703.0],["C3",0.1103598784860345,-2.6560480065740375,75.0,692.0],["CAMSAP1",0.10886840664005547,-2.5960413644825175,76.0,691.0],["CASQ2",0.1084757201598494,-2.5803611551353067,20.0,747.0],["CCDC66",0.11446865048563103,-2.8250636699630185,44.0,723.0],["CD96",0.11914527137625382,-3.024091963866799,28.0,739.0],["CDHR2",0.12239940641020837,-3.166787235564985,65.0,702.0],["CHD8",0.1207085791409839,-3.092211635705503,99.0,668.0],["CTTNBP2",0.12249439445680106,-3.171004550912125,76.0,691.0],["DAB2",0.11203436931970671,-2.7242709999488564,45.0,722.0],["DBX2",0.10848623659127958,-2.580780437868993,27.0,740.0],["DNAH10",0.16764442853195888,-5.517717138407861,155.0,612.0],["DNAH5",0.10712166181605193,-2.5266719401158344,185.0,582.0],["DPPA4",0.11713190805568571,-2.9375355375084555,22.0,745.0],["EPRS",0.10627661885090171,-2.493462975322768,62.0,705.0],["F8",0.1135234100978375,-2.7856980162410414,76.0,691.0],["GPR124",0.10595812383475249,-2.4810058258755676,58.0,709.0],["GPRIN2",0.11552763943933425,-2.869510177848557,37.0,730.0],["HNF4G",0.10706450362958862,-2.5244185024186847,28.0,739.0],["ITGA2B",0.10693109506392981,-2.519162993467049,48.0,719.0],["ITGA4",0.11727817528952919,-2.943779261123017,41.0,726.0],["KCNH8",0.1045656446596582,-2.426922779573436,59.0,708.0],["KLF5",0.12944015141165544,-3.4874264906038377,19.0,748.0],["KRAS",0.13630601152030822,-3.8159078319519377,138.0,629.0],["LPIN1",0.1095255128054639,-2.6223907376696767,41.0,726.0],["LYPD6B",0.11263802910309907,-2.749087320423601,13.0,754.0],["LYST",0.10989166800394559,-2.6371334204821606,110.0,657.0],["MED25",0.10863734176167979,-2.5868088122226056,33.0,734.0],["MRGPRX1",0.12448810516126835,-3.2602051769200058,39.0,728.0],["NAGS",0.12282166865711577,-3.185557645891442,28.0,739.0],["NEK1",0.10944802717772603,-2.619276420170375,47.0,720.0],["NLGN4X",0.12407576520179903,-3.2416496194634647,45.0,722.0],["NME8",0.10888983927934087,-2.5968986069410005,44.0,723.0],["NPAS3",0.12113438434452484,-3.1109040576279474,58.0,709.0],["NPAT",0.1052958763534011,-2.455207373517559,55.0,712.0],["PCLO",0.12602320307779133,-3.329777201831692,240.0,527.0],["PDZD8",0.14294993361211783,-4.148776751849857,36.0,731.0],["PTPRZ1",0.135693724694798,-3.7859764443769763,74.0,693.0],["PYGL",0.1117278563293218,-2.7117153236573843,35.0,732.0],["RIC3",0.1201397677009246,-3.067333848093156,23.0,744.0],["RUNX1T1",0.1051661580972485,-2.450170478282436,58.0,709.0],["RYR1",0.12464150474939743,-3.267122517675732,204.0,563.0],["SERINC1",0.10737850839456993,-2.5368109182843357,10.0,757.0],["SETBP1",0.11141490419687827,-2.6989271351632964,74.0,693.0],["SLC8A3",0.11349944781618061,-2.784703835153095,59.0,708.0],["SMG1",0.11819019525831535,-2.982867750649525,84.0,683.0],["TG",0.1252176221951621,-3.293170843637646,136.0,631.0],["THUMPD2",0.10967585942461551,-2.6284390017388657,23.0,744.0],["TIGD3",0.10944879540902862,-2.6193072876051864,25.0,742.0],["TMEM100",0.13774281644168745,-3.8866378918079514,12.0,755.0],["TTC22",0.1049850944105475,-2.4431488423658245,41.0,726.0],["UGT1A3",0.11955376035560826,-3.041814489154669,17.0,750.0],["ZHX1",0.1187823256358853,-3.0083910155150484,23.0,744.0]],"bottom":[["ANXA2R",-0.1375120694640477,-3.8752322474212915,9.0,758.0],["CCDC54",-0.11244813962090781,-2.7412683259186887,18.0,749.0],["CCT2",-0.12056978152116733,-3.0861313698650776,24.0,743.0],["CRYGB",-0.1281997367317326,-3.429750940709801,12.0,755.0],["CSRP1",-0.11522079726376586,-2.856594395517173,11.0,756.0],["CTD-2203A3.1",-0.11931378848831296,-3.0313965778322687,8.0,759.0],["DKFZP434O1614",-0.148041113820894,-4.413927377207315,10.0,757.0],["EHD4",-0.14196482030360777,-4.098483851388716,16.0,751.0],["FAM19A4",-0.136986167742373,-3.849303969115561,14.0,753.0],["FGFR1OP",-0.10661842654138023,-2.5068680141775603,21.0,746.0],["GTPBP8",-0.10574067027656779,-2.4725192821381428,8.0,759.0],["HBE1",-0.12434425653848566,-3.2537255518938664,15.0,752.0],["HIST3H2A",-0.09573528736473269,-2.0982844732317387,17.0,750.0],["HS6ST3",-0.11017753542197656,-2.648673399289858,23.0,744.0],["ITPK1",-0.12637840554252466,-3.345985847764981,24.0,743.0],["LEFTY1",-0.13136304346619132,-3.577842575444795,11.0,756.0],["MCTP2",-0.12962786855477262,-3.49619913481877,55.0,712.0],["MRPS10",-0.12367072307819109,-3.2234768547099026,9.0,758.0],["NUTF2",-0.1118125735559206,-2.715182561282683,9.0,758.0],["OMA1",-0.11139314285154295,-2.6980390734181428,15.0,752.0],["OTOP2",-0.12999744171424035,-3.513504624568908,39.0,728.0],["PLRG1",-0.12186973513203021,-3.1433248935240012,17.0,750.0],["POU1F1",-0.10872064655754021,-2.590135408254604,23.0,744.0],["PPDPF",-0.12189194047176327,-3.144306656697599,11.0,756.0],["PPP6C",-0.16658268932546452,-5.454528679715893,14.0,753.0],["RYBP",-0.12611855107581962,-3.3341240517136375,19.0,748.0],["SCT",-0.12020899815408094,-3.0703560915914427,8.0,759.0],["SCYL2",-0.1073401647609718,-2.5352959682075715,33.0,734.0],["SEC14L6",-0.10287950445217829,-2.36226129128089,16.0,751.0],["SEPT8",-0.11114760077922493,-2.6880292877068492,22.0,745.0],["SERPINB3",-0.09392577852661123,-2.0339751093120055,25.0,742.0],["TMSB4X",-0.1281481294427491,-3.4273623828369897,10.0,757.0],["TNIP2",-0.10080268396855385,-2.283859437643436,13.0,754.0],["TNP2",-0.10977653424910502,-2.6324930900525283,16.0,751.0],["VPS26B",-0.16051902535487403,-5.101173218939065,15.0,752.0],["WDR48",-0.11398057921404157,-2.804701264888367,16.0,751.0]]},"para":{"top":[["ANKRD16",0.09157468100937816,-2.248593515970397,11.0,756.0],["C10orf40",0.10498835108045565,-2.736029726844188,9.0,758.0],["CASQ2",0.12286044799633312,-3.472240560896522,20.0,747.0],["CHM",0.1107750668498396,-2.9637183900265183,17.0,750.0],["CMSS1",0.09946552636216084,-2.5286306868698007,9.0,758.0],["CRYBB2",0.10280067280295975,-2.6529253653675,13.0,754.0],["EIF4E1B",0.10375822429131816,-2.689120895758701,11.0,756.0],["GPATCH11",0.1014573416061128,-2.6024008337428692,10.0,757.0],["H2AFY",0.0983072775195821,-2.486486963653857,13.0,754.0],["KLF5",0.12903656335115993,-3.7496822701193726,19.0,748.0],["KRTAP21-1",0.1028329463912558,-2.654024503547798,10.0,757.0],["KRTAP9-1",0.11923528638727851,-3.3146728045612455,11.0,756.0],["LY6H",0.10811656497754056,-2.8577717208991307,11.0,756.0],["LYPD6B",0.111901508935283,-3.0090762417120867,13.0,754.0],["MAP1LC3B2",0.09644110973857616,-2.4191476514470143,12.0,755.0],["MCHR2",0.10580143786228424,-2.767591115043186,15.0,752.0],["NEURL2",0.10104206468984324,-2.586930548972646,10.0,757.0],["NPIPA5",0.10575389114041729,-2.7655186797952607,9.0,758.0],["OR13C5",0.10444292894713839,-2.7153032674633972,13.0,754.0],["OR14A2",0.09561109880400463,-2.389517016758568,11.0,756.0],["OR2T34",0.10692834224465989,-2.811347527240654,15.0,752.0],["PDZD8",0.1592647978734648,-5.281699678050923,36.0,731.0],["PRIM2",0.1182547337575558,-3.273035525971214,17.0,750.0],["RIBC2",0.1024197467998606,-2.638540732712121,12.0,755.0],["RNF121",0.1003408889805301,-2.560973870626283,11.0,756.0],["SERINC1",0.10895828090623218,-2.890971352362292,10.0,757.0],["TCP10",0.11333313191172902,-3.0673966777346577,12.0,755.0],["TMEM100",0.13625124064665262,-4.088755462557603,12.0,755.0],["UGT1A3",0.11731477561674652,-3.2332079012562462,17.0,750.0]],"bottom":[["ANXA2R",-0.10075054003423937,-2.5760506047066034,9.0,758.0],["CAMKK1",-0.11225419921391812,-3.0234838526480887,16.0,751.0],["CRYGB",-0.09957277677067754,-2.5327019549820946,12.0,755.0],["EHD4",-0.10673316317256555,-2.8037666430656563,16.0,751.0],["ELANE",-0.09980877691113436,-2.541444677701484,14.0,753.0],["GTPBP8",-0.10169116782097601,-2.611021737897638,8.0,759.0],["ITPK1",-0.1151460526684336,-3.1424937580019043,24.0,743.0],["LEFTY1",-0.1081413282768941,-2.8587467163230333,11.0,756.0],["NOX1",-0.10760005396352942,-2.8377726337230054,23.0,744.0],["PPP6C",-0.11520457766869145,-3.1447147656063152,14.0,753.0],["SEPT8",-0.10500552576478277,-2.7370619546577677,22.0,745.0],["VPS26B",-0.12665980010965183,-3.641385130203592,15.0,752.0],["ZDHHC9",-0.10293779734841554,-2.657930856120857,9.0,758.0],["ZMAT4",-0.0965906703754098,-2.424314264172171,8.0,759.0]]}}}
{"depmap_damaging":{"corr":{"top":[["C1orf94",0.09490904172492193,-2.0687926226981723,11.0,756.0],["DMXL1",0.10704676834450717,-2.5237195087494175,31.0,736.0],["DOCK4",0.0911668878735417,-1.9378962135567972,16.0,751.0],["FBXO4",0.08612933641082125,-1.7685690314873603,11.0,756.0],["NOTCH3",0.11136282474081162,-2.69680207187303,19.0,748.0]],"bottom":[["ARMCX1",-0.09766111277983723,-2.167857114509657,21.0,746.0],["BHLHB9",-0.14028144726922046,-4.013299599117049,8.0,759.0],["DIAPH3",-0.1104788377254931,-2.6608649105813384,12.0,755.0],["EFR3A",-0.12034317212248323,-3.076217890654845,10.0,757.0],["IKBKAP",-0.107952178281802,-2.5595327409925517,9.0,758.0],["ITIH1",-0.1326737529778849,-3.64017673902541,9.0,758.0],["L3MBTL3",-0.12016545475368116,-3.0684550292817527,10.0,757.0],["NARF",-0.09491701021385031,-2.069076025713784,10.0,757.0],["NFIC",-0.12850962138090316,-3.4441119536199176,8.0,759.0],["NLRP4",-0.10671268024206064,-2.5105710341316794,9.0,758.0],["PTPRN2",-0.12099460216963501,-3.1047612229827664,13.0,754.0],["RB1CC1",-0.11175615304077181,-2.7128731710064433,8.0,759.0],["SH3GL2",-0.15476930148218465,-4.777861335141004,9.0,758.0],["SMCHD1",-0.11301382387662451,-2.764595578220242,13.0,754.0],["ZNF668",-0.10899830282348644,-2.6012390906349134,11.0,756.0]]},"para":{"top":[["C1orf94",0.11180629658121753,-3.005138440389158,11.0,756.0],["CHD5",0.10198087227346342,-2.6219274097602163,9.0,758.0],["DOCK4",0.10704217638383533,-2.8158151966798655,16.0,751.0],["ENO4",0.10225427943773543,-2.6321853894110028,9.0,758.0],["FBXO4",0.10118284115855035,-2.592213317437012,11.0,756.0],["GEN1",0.09355993161388519,-2.317195052509921,9.0,758.0],["MAP7D3",0.11146813578612477,-2.9915358205374445,13.0,754.0],["NOTCH3",0.11339002763065816,-3.0699251650344683,19.0,748.0],["SAMD9",0.10130468353843056,-2.5967908331023177,12.0,755.0],["TECPR2",0.09522860571665068,-2.3758009183844973,8.0,759.0]],"bottom":[["ARMCX1",-0.10401261101599528,-2.6990598625761644,21.0,746.0],["SH3GL2",-0.11715496989056055,-3.226154420787823,9.0,758.0]]}}}
{"ccle_chromatin":{"corr":{"top":[],"bottom":[]},"para":{"top":[],"bottom":[["H3K9ac1K14ac0",-0.15955742992784167,-3.586616562974771,520]]}}}
{"ccle_rppa":{"corr":{"top":[],"bottom":[["CDKN1A_p21",-0.2761711512200669,-9.847721628682354,521]]},"para":{"top":[],"bottom":[]}}}
{"ccle_rrbs_enhancer_clusters":{"corr":{"top":[["2-66295527-66298371-1_enh",0.2340220958482936,-4.924209089216478,343],["3-147123146-147125741-0_enh",0.21512617478322027,-3.804138408055518,304],["3-147125741-147128336-0_enh",0.20430852596516808,-4.902025047398056,450],["3-147125741-147128336-1_enh",0.2295202711490136,-5.686578659452368,419],["3-147125741-147128336-2_enh",0.21369980891566678,-5.499287880633494,467],["5-44387166-44389816-2_enh",0.21729047019562261,-3.4023433963458207,262],["5-76933225-76935745-1_enh",0.20700924986012073,-5.219014883400061,470],["5-77145580-77148090-2_enh",0.21692893675610622,-5.576217193259379,460],["5-77148090-77150599-2_enh",0.24178653640468944,-5.2408312454358805,344],["10-130829457-130832316-2_enh",0.2189010011436381,-4.025327984352971,313],["13-28393961-28396749-2_enh",0.20906950581732656,-5.080728326759856,447],["17-2083144-2086289-0_enh",0.2917589376790684,-9.889723249539609,467],["17-2083144-2086289-1_enh",0.2287506388158665,-6.027783724216794,450],["17-2083144-2086289-2_enh",0.24775694952283514,-6.253877897618728,398]],"bottom":[]},"para":{"top":[["2-66295527-66298371-1_enh",0.22234825972105443,-4.487815436166475,343],["2-172948513-172951246-0_enh",0.18372422317018824,-4.021160344236526,446],["3-147123146-147125741-0_enh",0.21860591442991892,-3.914216123489757,304],["3-147123146-147125741-2_enh",0.21047278839221586,-5.214893006050491,454],["3-147125741-147128336-0_enh",0.17933903477600716,-3.883181008921088,450],["3-147125741-147128336-1_enh",0.18142910581157606,-3.7242545220269063,419],["3-147125741-147128336-2_enh",0.20241296969532688,-4.98193417642012,467],["5-77148090-77150599-2_enh",0.22783077616550979,-4.702084960315931,344],["7-1263154-1265736-0_enh",0.18671464149627298,-4.373939368959795,475],["13-28393961-28396749-2_enh",0.21047080238184016,-5.142812057418601,447]],"bottom":[]}}}
{"ccle_mirna":{"corr":{"top":[["hsa-miR-548k_miR00494.1",0.14906514777341956,-3.260884888402756,534]],"bottom":[["hsa-miR-143_miR00154.1",-0.26705706984933275,-9.445391611214404,534],["hsa-miR-145_miR00156.1",-0.24104337761083394,-7.770584302822508,534],["hsa-miR-199a-3p+hsa-miR-199b-3p_miR00221.1",-0.20203244512734142,-5.59822981145638,534],["hsa-miR-199a-5p_miR00222.1",-0.23559109162240363,-7.442926529370853,534],["hsa-miR-299-5p_miR00274.1",-0.15988652682746726,-3.6834230621357085,534]]},"para":{"top":[],"bottom":[["hsa-miR-199a-5p_miR00222.1",-0.1724534448935956,-4.20903373579526,534]]}}}
{"prism_primary_logfold":{"corr":{"top":[["S18986_BRD-K02501528-001-01-1::2.5::HTS",0.18222678497476708,-3.5421794849131207,392],["rimonabant_BRD-K13296708-001-05-8::2.5::HTS",0.22670245070934514,-5.2121160480379025,390],["R406_BRD-K20285085-001-07-1::2.5::HTS",0.22588989212496843,-4.999562570710023,375],["lucitanib_BRD-K31309378-001-01-5::2.5::HTS",0.20515025025805686,-4.340121302046065,389],["lenvatinib_BRD-K39974922-001-04-3::2.5::HTS",0.22979829109346137,-5.306246537865564,387],["QX-314_BRD-K56596464-004-10-7::2.5::HTS",0.17147814542323706,-3.179632876410244,391],["baicalein_BRD-K72327355-001-14-7::2.5::HTS",0.18093596418365485,-3.4829532908082768,390],["acetarsol_BRD-K99048103-001-18-4::2.5::HTS",0.19446858387290286,-3.9544728532937214,390],["oleuropein_BRD-A00842753-001-01-9::2.5::MTS004",0.17288018112075568,-3.1468152370247675,380],["oritavancin_BRD-A33352494-316-01-6::2.499995956::MTS004",0.1722414370964711,-3.126764698755883,380],["pexidartinib_BRD-K54519451-001-02-9::2.499971332::MTS004",0.1819619930463723,-3.4394252929702085,380],["erdafitinib_BRD-K84868168-001-01-0::2.500006364::MTS004",0.2619053070724907,-6.652329656886529,380]],"bottom":[["bicalutamide_BRD-A29485665-001-12-8::2.5::HTS",-0.17964828111882167,-3.4397830600704973,390],["docetaxel_BRD-K30577245-001-04-3::2.5::HTS",-0.16537661817695223,-2.8830174771702315,375],["STA-5326_BRD-K41783120-001-02-8::2.5::HTS",-0.18717736672964638,-3.6716262500567898,387],["capsaicin_BRD-K50590187-001-19-9::2.5::HTS",-0.2154139766238335,-4.738890570577744,389],["eslicarbazepine-acetate_BRD-K61237927-001-01-7::2.5::HTS",-0.16778382008142317,-3.0623886872837014,391],["afatinib_BRD-K66175015-001-09-0::2.5::HTS",-0.21798281583250703,-4.819580215826995,387],["triamcinolone_BRD-K77554836-001-14-0::2.5::HTS",-0.1956152359857256,-3.9690031374139165,387]]},"para":{"top":[["S18986_BRD-K02501528-001-01-1::2.5::HTS",0.1550887623916121,-2.6832231101146924,392],["rimonabant_BRD-K13296708-001-05-8::2.5::HTS",0.20574964126316667,-4.372776434092532,390],["MM-102_BRD-K68474068-001-01-8::2.5::HTS",0.15075748568150368,-2.5469606179791753,390],["CGP-13501_BRD-K95851186-001-07-8::2.5::HTS",0.15954508179032648,-2.809430156911388,391],["acetarsol_BRD-K99048103-001-18-4::2.5::HTS",0.18932203447262674,-3.771293723133078,390],["oritavancin_BRD-A33352494-316-01-6::2.499995956::MTS004",0.16997408165258188,-3.056149361838614,380],["erdafitinib_BRD-K84868168-001-01-0::2.500006364::MTS004",0.23428585799799292,-5.408501755214285,380]],"bottom":[["bicalutamide_BRD-A29485665-001-12-8::2.5::HTS",-0.18868568540917272,-3.748974608659488,390],["digoxigenin_BRD-K18619710-001-14-4::2.5::HTS",-0.1628685232852968,-2.9163848596398654,392],["STA-5326_BRD-K41783120-001-02-8::2.5::HTS",-0.1980758951491275,-4.058122290072696,387],["febuxostat_BRD-K48367671-001-05-9::2.5::HTS",-0.15981819404062303,-2.805427268938999,389],["triamcinolone_BRD-K77554836-001-14-0::2.5::HTS",-0.2069223405420048,-4.387557900564214,387]]}}}
{"prism_secondary_logfold":{"corr":{"top":[["leucovorin_BRD-A75919782-399-02-6::10::HTS002",0.23047663710157018,-4.077601386992128,286],["tazemetostat_BRD-K11215326-001-03-7::0.57771::HTS002",0.2389839252514868,-4.929483643636938,329],["LY2874455_BRD-K17203476-001-01-9::0.00061034::HTS002",0.24427874573500988,-4.977357040148809,318],["LY2874455_BRD-K17203476-001-01-9::0.0390625::HTS002",0.2325346941078479,-4.550458813000215,318],["riluzole_BRD-K21283037-001-21-5::0.15625::HTS002",0.22956453109629585,-4.222752252920628,300],["AZD4547_BRD-K28392481-001-05-1::0.15625::HTS002",0.21318691531171094,-3.8401564851549534,313],["CP-673451_BRD-K43621685-001-02-5::0.625::HTS002",0.23684812713810052,-4.954534264069728,337],["tacedinaline_BRD-K52313696-001-12-3::0.15625::HTS002",0.24229833860076516,-4.462262128641704,286],["tivozanib_BRD-K53414658-001-08-2::0.625::HTS002",0.222751426541668,-4.4326981756353625,337],["2,3-DCPE_BRD-K61734568-003-02-1::0.00061034::HTS002",0.215699318328604,-4.140069221748489,333],["nefiracetam_BRD-K65678996-001-05-5::0.00976562::HTS002",0.21267416076219645,-4.079492638343784,337],["SCH-58261_BRD-K81225797-001-02-3::0.15625::HTS002",0.22855891731757924,-4.423096692057013,319],["erdafitinib_BRD-K84868168-001-01-0::0.156250001::MTS006",0.24199645788332724,-5.125916443582127,335],["PD-173074_BRD-K97764662-001-17-3::0.625::HTS002",0.2631047637636472,-5.723807155727456,319]],"bottom":[["nadide_BRD-A11132253-001-08-2::0.00061034::HTS002",-0.19564102279860274,-3.174148183422544,299],["prednisolone_BRD-A27887842-001-04-0::0.625::HTS002",-0.19150385136046874,-3.0587529942352583,299],["ifosfamide_BRD-A67097164-001-18-7::0.15625::HTS002",-0.1871379128482624,-3.0732698376779486,315],["LB42708_BRD-K18834913-001-01-1::2.5::HTS002",-0.21140268750905628,-3.983508128718918,332],["AT13387_BRD-K58435339-001-03-0::0.15625::HTS002",-0.19103264431179823,-3.3408573235789696,333],["flumethasone_BRD-K61496577-001-20-2::0.0390625::HTS002",-0.1822657078313776,-3.1109362158230573,337]]},"para":{"top":[["tazemetostat_BRD-K11215326-001-03-7::0.57771::HTS002",0.24077538678861574,-4.997202381391095,329],["LY2874455_BRD-K17203476-001-01-9::0.00061034::HTS002",0.22126718990568303,-4.161061005585563,318],["LY2874455_BRD-K17203476-001-01-9::0.0390625::HTS002",0.21105882194893819,-3.825004673215332,318],["riluzole_BRD-K21283037-001-21-5::0.15625::HTS002",0.2194651511813754,-3.896191497438177,300],["KX2-391_BRD-K29968218-001-03-2::0.0390625::HTS002",0.20126561142891417,-3.5748102571282647,324],["PIK-75_BRD-K49371609-003-03-8::0.625::HTS002",0.20953359290401186,-3.578903476432452,299],["tacedinaline_BRD-K52313696-001-12-3::0.15625::HTS002",0.24190518986585055,-4.449153366145765,286],["chicago-sky-blue-6b_BRD-K56483981-342-06-4::0.0024414::HTS002",0.20232071492677392,-3.7335012916905916,337],["nefiracetam_BRD-K65678996-001-05-5::0.00976562::HTS002",0.20359815022523658,-3.775274430576736,337],["iodipamide_BRD-K67261995-001-11-7::0.00061034::HTS002",0.2036316916820697,-3.6001503358793565,319],["dorzolamide_BRD-K71075609-003-01-0::0.0390625::HTS002",0.20926050958921819,-3.143581034455928,258],["JTE-607_BRD-K81405859-300-01-4::0.00061035::MTS006",0.23531450360707953,-4.883207980753536,336],["PD-173074_BRD-K97764662-001-17-3::0.625::HTS002",0.24481011549219342,-5.011237524201442,319]],"bottom":[["ifosfamide_BRD-A67097164-001-18-7::0.15625::HTS002",-0.19280988695021958,-3.23652975190684,315],["desonide_BRD-K21528677-001-02-8::0.00951844::HTS002",-0.17291963355726708,-2.8418101960462154,337]]}}}
{"ccle_proteomics":{"corr":{"top":[["OFD1_O75665",0.23203941351607235,-3.834421507524297,263],["HLA-C_P10321",0.23907844296866956,-3.323699881948277,210],["RLIM_Q9NVW2",0.23910459495339645,-2.9250964698931283,181],["CNOT6L_Q96LI5",0.24718180693204528,-3.656976332087706,219]],"bottom":[["PDE5A_O76074",-0.23007667248805969,-3.0436337020203945,205],["PCOLCE_Q15113",-0.2766744337489317,-3.3449389391243503,157],["COL2A1_P02458",-0.26522863683665115,-3.6296181315587357,188],["RBP4_P02753",-0.27426316265504863,-3.2385498655600826,154]]},"para":{"top":[["OFD1_O75665",0.25523144208518167,-4.552609753412595,263],["FAM111B_Q6SJ93",0.241932013887567,-3.79904603943923,239],["APOBEC3A_P31941",0.224023908785734,-3.2434409960418282,233]],"bottom":[["PDE5A_O76074",-0.2665467812544222,-3.95104954035665,205],["BCAT1_P54687-5",-0.22620026726623205,-3.615923653803798,259]]}}}
{"depmap_gene_tpm":{"corr":{"top":[["RPP25_54913",0.19906982197726952,-7.541703059118223,764]],"bottom":[["COL1A1_1277",-0.27215763211754856,-13.714520497334798,764],["LOX_4015",-0.2662930487853353,-13.14203085360968,764],["PDGFRB_5159",-0.29218618293358517,-15.776716909727607,764],["PRRX1_5396",-0.25038624245269203,-11.658968569144438,764],["POSTN_10631",-0.2500061282985623,-11.624759591146036,764],["ITGA11_22801",-0.2788578648162187,-14.385821419333208,764],["SEC24D_9871",-0.2563514049912031,-12.203295101168894,764],["ADAMTS5_11096",-0.276492793987568,-14.146751263022692,764],["COL6A3_1293",-0.2444682127206177,-11.13280181990542,764],["COL1A2_1278",-0.27203652614910284,-13.702556526634446,764],["ADAMTSL1_92949",-0.2449754364882067,-11.177361196438127,764],["SSC5D_284297",-0.2486541286285917,-11.503545162605779,764]]},"para":{"top":[["SLC4A11_83959",0.18189772277384791,-6.381635703140784,764],["RPP25_54913",0.18289767492295436,-6.446292985388087,764],["OPLAH_26873",0.1764813267847005,-6.037564433514495,764]],"bottom":[["DCN_1634",-0.19786404896763818,-7.456775607080193,764],["BCAT1_586",-0.20092505158652463,-7.673407659890293,764],["RUNX1T1_862",-0.23522703720352658,-10.33846406773387,764],["LRCH2_57631",-0.20285582357233653,-7.811808413088356,764],["ENPP2_5168",-0.2002762663339877,-7.627207158978229,764],["LUM_4060",-0.21255657226721042,-8.527891299298267,764],["SEC24D_9871",-0.21685562515173565,-8.856374584703941,764],["GREM2_64388",-0.19706509609491846,-7.400793025809216,764]]}}}
{"avana":{"corr":{"top":[["SAR1A_56681",0.3434887579333893,-21.990511657173325,769],["TM9SF3_56889",0.34471014074881784,-22.15081931263298,769],["INPP5K_51763",0.21009120740445675,-8.392975577193596,769],["TMED2_10959",0.2158806419627428,-8.834443362138076,769],["RAB1A_5861",0.2415083047605599,-10.941388970065272,769],["MON2_23041",0.27090385523127297,-13.675083433917273,769],["SEC23IP_11196",0.32746104928539854,-19.95184595464772,769]],"bottom":[["COL1A1_1277",-0.2207602679605775,-9.216304891455344,769],["EIF2AK3_9451",-0.17278885712814673,-5.843160705351274,769]]},"para":{"top":[["ALG12_79087",0.23026877112142577,-9.986346547692694,769],["TMEM41B_440026",0.2001947513208592,-7.667165373488849,769],["SAR1A_56681",0.23458276962115127,-10.347130895433073,769],["TM9SF3_56889",0.28725655555744817,-15.348471993947953,769],["INPP5K_51763",0.19639563013966962,-7.398108417032094,769],["SYVN1_84447",0.23084780251363235,-10.034355295401367,769],["UBE2J1_51465",0.20961679679391507,-8.357354414519202,769],["TMED2_10959",0.21382175859398558,-8.676008779089512,769],["DERL2_51009",0.23558715396992083,-10.432159407327505,769],["MON2_23041",0.26993560603629724,-13.579480662609853,769],["SEC23IP_11196",0.2682181804911257,-13.410851841557069,769]],"bottom":[["COL1A1_1277",-0.15949341838156156,-5.0543783562628715,769],["GRIK2_2898",-0.1457029783879029,-4.300898210490066,769]]}}}
{"drive":{"corr":{"top":[["COPZ1_22818",0.24853589929121703,-4.381838640104323,266],["COPA_1314",0.3398621236553336,-8.025708522039276,271],["CHTF18_63922",0.26229075252614753,-4.833995207591208,266],["PHF20L1_51105",0.26379614085128744,-4.9670868281620635,271],["COPB2_9276",0.2960962006066978,-6.159849429712833,271],["ARID5B_84159",0.21636287001652774,-3.4771133773599487,271],["AIPL1_23746",0.21584523206857742,-3.4292526696790575,268],["SMYD5_10322",0.21273204304517362,-3.375248918820923,271],["ANKRD11_29123",0.26218955602862165,-4.830575150719182,266],["REL_5966",0.21826032210824944,-3.531018407945789,271],["UBA52_7311",0.21212277602285523,-3.326180637740861,268],["SURF4_6836",0.30464695929501545,-6.391600406242579,266]],"bottom":[["WDR83_84292",-0.20168867931259518,-3.07569332191358,271],["GBX1_2636",-0.22963175560470195,-3.8638207011250025,271],["FABP5_2171",-0.23332325189375266,-3.936831840163614,268],["WDR70_55100",-0.24890846376829784,-4.466895054655093,271],["HOXA4_3201",-0.2214408148448646,-3.6224121280092256,271]]},"para":{"top":[["SAR1A_56681",0.20014084412759595,-2.9870003546956485,266],["NASP_4678",0.2070506772101056,-3.1885391987599987,268],["MMS19_64210",0.21500357530081918,-3.383792218241134,266],["RUVBL1_8607",0.21985856868936968,-3.576782210891061,271],["KAT14_57325",0.22709504179261608,-3.7269922483813036,266],["COPA_1314",0.30284134640439114,-6.428179668223691,271],["UNG_7374",0.21075391040416627,-3.3521790741595288,274],["CHTF18_63922",0.2371789640263734,-4.027506843814688,266],["PHF20L1_51105",0.22233899320900338,-3.6484583176570924,271],["CELP_1057",0.20610008394411752,-3.1631004902210025,268],["ARID5B_84159",0.22105421035217718,-3.6112331247468137,271],["MBD5_55777",0.2088625273154485,-3.268534936857873,271],["COPB2_9276",0.25231487622732923,-4.578658648945206,271],["SURF4_6836",0.2235189796220602,-3.6235592784561255,266]],"bottom":[["GBX1_2636",-0.19741434628260685,-2.963855446799407,271],["FABP5_2171",-0.2334739364680431,-3.9413793644556634,268],["SDHC_6391",-0.20276834545931063,-3.0748264827263934,268],["WDR70_55100",-0.23165948728539082,-3.9249366340281506,271],["HOXA4_3201",-0.2084323550594763,-3.25678876790026,271]]}}}
{"achilles":{"corr":{"top":[["LYNX1_66004",0.2397936840054098,-3.3274649631542146,209],["RAB41_347517",0.24955309166387207,-3.5710499402528266,209],["EIF5B_9669",0.21702115875738565,-4.406643406500552,353],["TET1_80312",0.22244788679446634,-4.607359893798805,353],["KCNV2_169522",0.23013345373197436,-4.900220552041798,353],["ITGA2_3673",0.3007830046559067,-8.088518263472183,353],["RAB1B_81876",0.23705482503095843,-5.172684803903613,353],["NR0B1_190",0.22824461225510836,-4.827305713139666,353],["PNPLA8_50640",0.21795240715613065,-4.4407324545160725,353],["CDC14A_8556",0.23508647876602162,-5.094352268929575,353],["LOXL4_84171",0.2160492308987312,-4.371221424572878,353],["SURF4_6836",0.25686546699758206,-3.760021581680754,209]],"bottom":[["SLC25A30_253512",-0.26738574892237293,-4.041776730321349,209],["GCK_2645",-0.26781639086016845,-6.486339140865243,353],["TMEM87A_25963",-0.22980598876107244,-3.0882213543727546,209],["OLAH_55301",-0.22479813302318113,-4.695842241064806,353],["CSNK1D_1453",-0.21739593806355906,-4.4203448642065775,353],["CXorf38_159013",-0.25796406944686445,-3.7888962798120045,209],["RAB15_376267",-0.25172730399426696,-5.778080695319606,353],["GNG3_2785",-0.21939419672370655,-4.493799644547171,353]]},"para":{"top":[["ARL5C_390790",0.22953498200322933,-3.0818694844778225,209],["PABPN1_8106",0.21549045057037614,-4.350928748395462,353],["ITGA2_3673",0.2494523327623501,-5.681710760538371,353],["ZNHIT6_54680",0.24531782774553837,-3.464139658048995,209],["FSTL4_23105",0.20775859805342842,-4.075515510280715,353],["SULT4A1_25830",0.20660362379652725,-4.0352311006159685,353]],"bottom":[["PRR19_284338",-0.23611953198042046,-3.238283935723286,209],["GCK_2645",-0.23617082252663313,-5.137421339465552,353],["SLC25A30_253512",-0.25369014815802043,-3.6772767500955466,209],["OLAH_55301",-0.23422200015441955,-5.060162715115856,353],["SRP72_6731",-0.22554069392586476,-2.989100326016044,209],["GHITM_27069",-0.21682439302354162,-2.792139258379223,209],["RAB15_376267",-0.2125931972217532,-4.246554179580719,353],["HCP5_10866",-0.2632884603693494,-3.930644257079549,209],["DMTN_2039",-0.24869776391005718,-3.5493096025796342,209]]}}}
{"ccle_rrbs_tss1kb":{"corr":{"top":[["NEXN_1_78353199_78354199",0.2554611499668297,-7.711485326194583,470],["PRKCZ_1_2004424_2005424",0.24496586745624546,-7.097180279112515,468],["CRMP1_4_5891953_5892953",0.2308871393058486,-6.329839972853354,466],["GRIA3_23_122317095_122318095",0.25436899942830427,-7.5294717952098535,462],["GDA_9_74728510_74729510",0.29223854950671546,-5.242134426026615,233],["RXRG_1_165414592_165415592",0.26559666939315585,-3.350129580085363,171],["INSC_11_15135483_15136483",0.23139392545389526,-3.125587147802951,209],["ZNF677_19_53758103_53759103",0.24849190978926694,-7.06189907980792,452],["INMT-MINDY4_7_30790750_30791750",0.23110613660358115,-6.279199091067172,461],["ZNF677_19_53758156_53759156",0.24625227461534915,-6.774359567800329,440],["GPRASP1_23_101905328_101906328",0.2681380098542268,-8.205831313777265,455],["WFIKKN2_17_48911604_48912604",0.23360816089076883,-6.4691904247722425,466],["HIST2H2BA_1_120905033_120906033",0.32628274425287196,-4.336714093803952,150]],"bottom":[["SNHG16_17_74552845_74553845",-0.2335245892033823,-6.515337538244716,470],["CREM_10_35414768_35415768",-0.22119767245263794,-5.824746936678431,464],["SET_9_131446364_131447364",-0.2701144301795512,-7.847894402443893,427],["ADSSL1_14_105189533_105190533",-0.2281351153390172,-6.2026778228729755,467],["MST1R_3_49941070_49942070",-0.2274188522893905,-6.166657386516836,467],["HK1_10_71076936_71077936",-0.2780712327472645,-8.815472995282747,456],["ENOSF1_18_712664_713664",-0.21753362850288518,-5.626685388148556,462],["PHF19_9_123631189_123632189",-0.23195977147422858,-6.023208460480895,437],["MIR5696_2_101924911_101925911",-0.21840416155543035,-5.623875683250206,458],["LOC283335_12_53448222_53449222",-0.21562292181308879,-5.61181217850934,469],["DNTTIP1_20_44419575_44420575",-0.3782052574358259,-5.07395108049706,131],["LOC105370526_14_62217815_62218815",-0.24959944809867354,-7.020201568680909,445],["PTK6_20_62168723_62169723",-0.2336052912857829,-6.494287919106188,468]]},"para":{"top":[["ST6GAL2_2_107502469_107503469",0.22989705708618546,-6.3284647153072395,470],["PKIA_8_79427335_79428335",0.2257940087942567,-5.316465662274809,402],["GDA_9_74728510_74729510",0.3193834388911666,-6.196653795557903,233],["ZNF677_19_53758103_53759103",0.22453875614216423,-5.847876943428052,452],["ST8SIA4_5_100238989_100239989",0.2366206921047689,-4.91963884621141,335],["ZNF677_19_53758156_53759156",0.24352892653227448,-6.634887507317384,440],["DKK3_11_12030917_12031917",0.24740664574144253,-3.443350041716303,204],["ZNF652_17_47439835_47440835",0.2567784116179963,-2.755412759030521,146],["ST6GAL2_2_107502610_107503610",0.22937996791508247,-6.30207565798377,470]],"bottom":[["SET_9_131446364_131447364",-0.2342567216614595,-6.0068878383145075,427],["GCA_2_163174491_163175491",-0.18212098106437918,-4.106594057307729,465],["CDPF1_22_46646193_46647193",-0.18968192430160336,-4.448807194926239,469],["GCA_2_163174272_163175272",-0.193339394916418,-4.577709350135697,466],["MIF4GD_17_73267311_73268311",-0.20610304407819705,-5.177525213456103,470],["DNTTIP1_20_44419575_44420575",-0.2537644245987877,-2.4623932423353176,131],["LOC105370526_14_62217815_62218815",-0.20139574325544152,-4.7292563573586905,445]]}}}
{"ccle_gene_tpm":{"corr":{"top":[["RPP25_ENSG00000178718.5",0.20913641553542991,-6.347462559124192,572],["SIGIRR_ENSG00000185187.8",0.21126792534986447,-6.4676106809072405,572],["TTLL12_ENSG00000100304.12",0.2046536503799718,-6.09884355329229,572],["HSD17B8_ENSG00000204228.3",0.20984960622899404,-6.387524407898729,572],["DNAJA4_ENSG00000140403.8",0.20693662285677597,-6.22477290126398,572],["PTER_ENSG00000165983.10",0.2096096428753293,-6.374029425664099,572]],"bottom":[["COL1A1_ENSG00000108821.9",-0.3136770537933599,-13.799487045798193,572],["CXCL12_ENSG00000107562.12",-0.3079290081457473,-13.302184267000493,572],["POSTN_ENSG00000133110.10",-0.29774578983915,-12.447582404988925,572],["SSC5D_ENSG00000179954.10",-0.29782097203119623,-12.453769440175643,572],["COL6A3_ENSG00000163359.11",-0.2976791811957976,-12.442102431994059,572],["MIR143HG_ENSG00000249669.3",-0.32164754817424424,-14.50716589020703,572],["PTN_ENSG00000105894.7",-0.29307367730279865,-12.066635130850287,572],["None_ENSG00000263873.1",-0.3070225178544233,-13.22474601220486,572],["BGN_ENSG00000182492.11",-0.30560232017933125,-13.103962048367759,572],["ADAMTS5_ENSG00000154736.5",-0.3038257435719438,-12.95379200710008,572],["ITGA11_ENSG00000137809.12",-0.28807796992021467,-11.666961105069,572],["LOX_ENSG00000113083.8",-0.28816251817599636,-11.673659826840108,572],["MIR145_ENSG00000269936.2",-0.29850726045506526,-12.51033046625276,572],["THY1_ENSG00000154096.9",-0.2978389336621407,-12.455247840469605,572],["COL1A2_ENSG00000164692.13",-0.3104818883829693,-13.521711722180187,572],["PDGFRB_ENSG00000113721.9",-0.3316955196292779,-15.429762843527248,572]]},"para":{"top":[["RP3-395M20.12_ENSG00000272449.1",0.1874728390432992,-5.196375575414582,572],["RP11-89H19.1_ENSG00000205537.2",0.17455819647095847,-4.569723787481787,572],["RP11-454K7.3_ENSG00000260046.1",0.18211281455585282,-4.930964816771496,572]],"bottom":[["MIR143HG_ENSG00000249669.3",-0.22316152322425414,-7.161107537420868,572],["PTN_ENSG00000105894.7",-0.21965911700822535,-6.952798430758609,572],["None_ENSG00000263873.1",-0.21941719524131104,-6.93853647399967,572],["ZNF608_ENSG00000168916.11",-0.22036896938975867,-6.994740462514823,572],["ADAMTSL1_ENSG00000178031.11",-0.24057677947915468,-8.248384135176725,572],["THY1_ENSG00000154096.9",-0.2251196236686166,-7.27906618002625,572],["PHEX-AS1_ENSG00000224204.1",-0.21561050448962146,-6.716266631739025,572],["LRCH2_ENSG00000130224.10",-0.21958315598077532,-6.948318559940361,572],["RUNX1T1_ENSG00000079102.12",-0.24813115063520702,-8.74709920454354,572]]}}}
{"ccle_rrbs_tss_clusters":{"corr":{"top":[["MNX1_2",0.27381271786956063,-6.902434951312475,361],["LINC02213_2",0.28213540125601727,-9.286574454591468,468],["LINC01549_1",0.339424929504725,-3.4582907617115692,107],["GDA_4",0.31732249126510637,-6.168638906007368,235],["LOC100506083",0.2935612630964018,-5.490646955504067,243],["WASF3_2",0.27550266935208745,-3.9954021672468953,194],["GLIS1_2",0.27646667331673447,-5.561134094077618,279],["CCDC86_1",0.28693161608048173,-9.5367556789278,465],["LINC01111_2",0.2740538993812624,-3.993383202449246,196],["ZSCAN12P1_2",0.32012233319419164,-4.680962058941146,170],["LINC01111_1",0.2763765705171759,-4.164429615146287,202],["RARRES2_3",0.27867389875048504,-9.050275081496665,467],["KLHL1_2",0.273983924457878,-7.9763990020602735,422],["LOC100507156_2",0.3259307341603647,-12.094012010663445,459]],"bottom":[["SNORD1C_1",-0.26355738174530985,-7.054602725785706,400],["SRD5A3_3",-0.24493484179954564,-4.295999639705502,268],["PTER_1",-0.2478362516359008,-7.353728422690897,475],["DNAJB14_3",-0.2399158034538903,-6.612355957822522,452],["CCDC114_1",-0.2961479661623917,-10.181107976788072,467],["TSTD1_1",-0.23989820575978266,-6.864427155152263,471],["LOC105370526_1",-0.2522308107736914,-7.351518656123433,458],["EML2_7",-0.26686257282983644,-8.444857272935971,474],["FAM160A1_1",-0.3697770424871299,-4.893198993255516,132],["MIR6757_1",-0.2529433676859212,-7.627535771381298,474],["LOC283335_2",-0.2586839893090782,-7.9588428931401785,474]]},"para":{"top":[["ZNF845_2",0.2783945910823432,-3.7559079032904292,177],["GJA5_5",0.243683215478432,-4.003415995337378,250],["GDA_4",0.33210907213287205,-6.730216205662753,235],["PNOC_3",0.25355792181083014,-5.2547840076835275,313],["HRK_3",0.25042028919036585,-6.102675070707269,379],["LINC01111_2",0.25530874550212246,-3.5165057988794457,196],["SLITRK5_2",0.23957795893466297,-6.727821401082567,462],["NFASC_2",0.25637484124220417,-3.3690652328660216,185],["SPPL2C_1",0.33222465508889437,-3.325864313054483,107],["LGI3_2",0.2709701341481845,-3.2589356386499806,159]],"bottom":[["SRD5A3_3",-0.21670293150244152,-3.4532497920640406,268],["EHBP1L1_1",-0.20601107106619976,-5.222535179676337,475],["HSP90AA1_2",-0.24720444067612984,-5.986268012323454,381],["HDGF_4",-0.21022174600979776,-5.049606170167693,439],["USP3-AS1_2",-0.20611069865223566,-5.227132217239617,475],["LOC105370526_1",-0.2190956994999889,-5.6566077943113875,458],["FAM160A1_1",-0.32935278970417564,-3.9385828133161964,132],["LRRC59_1",-0.21338945223954128,-3.2742557053819428,260]]}}}
{"ccle_rrbs_cgi_clusters":{"corr":{"top":[["4_151504548_151507085-2",0.30316711597343543,-7.242224247105195,308],["8_31497435_31500346-3",0.3438722818619818,-4.43942080279184,138],["1_77331111_77333823-2",0.3293938678433328,-3.2211156323533916,105],["7_150038245_150041031-2",0.27867389875048504,-9.050275081496665,467],["1_146550328_146554577-1",0.27803238057256374,-5.292004800741514,261],["11_46314875_46319485-3",0.28878584455645756,-9.520917003050553,458],["13_27132122_27134677-1",0.27550266935208745,-3.9954021672468953,194],["13_70679732_70684219-2",0.273983924457878,-7.9763990020602735,422],["16_4419642_4424240-1",0.28903876182922694,-9.711623708143552,467],["13_114873198_114877418-1",0.29095915133217404,-7.806949798342976,364],["8_141105837_141109411-1",0.29939075684584804,-10.44128327822459,469],["4_183064883_183068370-3",0.3262593186510542,-3.3496685603360286,112],["11_60607392_60611786-1",0.28693161608048173,-9.5367556789278,465],["16_51187800_51192260-2",0.2757541028071018,-8.816003719925927,464]],"bottom":[["4_56210294_56215063-3",-0.24493484179954564,-4.295999639705502,268],["10_71075946_71078662-2",-0.28859233067645573,-9.431209842317461,454],["10_16476803_16481303-1",-0.2478362516359008,-7.353728422690897,475],["19_48822529_48827493-1",-0.2961479661623917,-10.181107976788072,467],["17_2612320_2614975-2",-0.2647212235586022,-6.477207727436254,361],["10_76991892_76994922-2",-0.26093993311153335,-7.917956014342298,463],["14_102974991_102978666-1",-0.31566013153086886,-4.560309420408052,170],["19_46142872_46147631-1",-0.2617363906917653,-8.12245065218774,473],["9_140482219_140484970-3",-0.24916606314638137,-3.3975941985523166,198],["14_62215725_62220077-1",-0.2522308107736914,-7.351518656123433,458],["17_74551220_74555912-1",-0.26355738174530985,-7.054602725785706,400],["12_53446008_53450406-2",-0.2586839893090782,-7.9588428931401785,474]]},"para":{"top":[["19_53834795_53839495-2",0.2783945910823432,-3.7559079032904292,177],["1_204795610_204799930-2",0.25637484124220417,-3.3690652328660216,185],["8_31497435_31500346-3",0.31676031525365766,-3.813636289699698,138],["9_4298999_4302182-2",0.32374204118978345,-3.5088743168122307,120],["11_46314875_46319485-3",0.25382011437836677,-7.439170026452099,458],["13_114873198_114877418-1",0.26893617780164897,-6.723005464673733,364],["4_183064883_183068370-3",0.3287622686658605,-3.3964369255616944,112],["8_22012152_22016559-2",0.2709701341481845,-3.2589356386499806,159],["2_98960873_98963530-3",0.2484979212762018,-4.249228510273643,257],["21_9645866_9650116-3",0.27753302197262714,-3.6979480130234443,175]],"bottom":[["4_56210294_56215063-3",-0.21670293150244152,-3.4532497920640406,268],["3_48691118_48693943-1",-0.2184511488509371,-3.479762571580901,266],["12_49690117_49693360-2",-0.21637651272495542,-3.743903167298828,295],["19_10611046_10613663-1",-0.21362062061394557,-3.389165914342245,270],["17_48472516_48477047-1",-0.21338945223954128,-3.2742557053819428,260],["14_62215725_62220077-1",-0.2190956994999889,-5.6566077943113875,458],["14_102553395_102556068-2",-0.24720444067612984,-5.986268012323454,381]]}}}
