{"depmap_hotspot":{"corr":{"top":[["B3GAT2",0.10755121420332486,-2.5436403299807906,19.0,748.0],["BTBD17",0.10544831992516727,-2.4611335450233436,21.0,746.0],["DARC",0.09422958902750633,-2.0447007618052893,24.0,743.0],["FOXO1",0.10800815744801634,-2.561755601569314,24.0,743.0],["FOXR1",0.09778297149875215,-2.1722986654560694,14.0,753.0],["GNPTG",0.10221528234056367,-2.337037412454459,16.0,751.0],["HINFP",0.10393084227751428,-2.4024726276377995,31.0,736.0],["IGSF22",0.12013671376064841,-3.0672005649091743,52.0,715.0],["KAT7",0.09478731051327573,-2.0644656704227575,17.0,750.0],["KRTAP13-3",0.1030283968496888,-2.367934725548062,15.0,752.0],["LGALS8",0.09687181361806342,-2.1392016955243762,10.0,757.0],["MMP9",0.10062545591432422,-2.27723225402567,28.0,739.0],["MRPL39",0.08823342005380594,-1.8383373154063083,13.0,754.0],["PDAP1",0.10551450270391402,-2.463708678404802,8.0,759.0],["PDCD1",0.09404734294890288,-2.038263322477622,14.0,753.0],["PDPR",0.10185954057564407,-2.323585707938624,69.0,698.0],["PRKD3",0.09235796193741148,-1.9790841355494535,31.0,736.0],["PRMT5",0.10567803822501462,-2.4700777471717235,17.0,750.0],["RAB3C",0.09977632051298893,-2.245618013246265,19.0,748.0],["RTN4R",0.10007632690421227,-2.2567615169290374,14.0,753.0],["TAGAP",0.10273492662722958,-2.3567590038943083,31.0,736.0],["TMEM11",0.09798717502646052,-2.1797520411728675,10.0,757.0],["USP6NL",0.12511683585770905,-3.288606053348927,39.0,728.0],["USP8",0.09789315965025906,-2.176318871861337,32.0,735.0],["VSX1",0.0883116667401306,-1.840958267100417,19.0,748.0],["ZDHHC14",0.10610907165711361,-2.4869057378534647,28.0,739.0],["ZNF821",0.09241940354321443,-1.9812208165857075,18.0,749.0]],"bottom":[["ASTN2",-0.1124195811076458,-2.7400933917419152,79.0,688.0],["ATP8B2",-0.11994096104528568,-3.0586636796535673,44.0,723.0],["AUH",-0.11856620138722843,-2.9990619290008955,12.0,755.0],["BATF2",-0.11728465663329073,-2.944056091844439,8.0,759.0],["C22orf34",-0.10958679645377763,-2.6248552283136775,11.0,756.0],["CA4",-0.11197477994948367,-2.721827670708444,19.0,748.0],["CD3EAP",-0.12630620643881493,-3.342687881583681,12.0,755.0],["CDR1",-0.10942454961349056,-2.618333186101132,9.0,758.0],["CRBN",-0.12176310537907287,-3.1386127287311134,18.0,749.0],["CT47B1",-0.11077658188251241,-2.6729411482398087,16.0,751.0],["EML3",-0.11371914502726757,-2.793825897113415,37.0,730.0],["ERI2",-0.13685267206768545,-3.8427370312379185,19.0,748.0],["FAF2",-0.12768771763795397,-3.4060919338283577,12.0,755.0],["FAM21C",-0.10881436806489823,-2.593880635127224,33.0,734.0],["FEZ1",-0.11294111762679712,-2.761591585634603,19.0,748.0],["FGGY",-0.12762227570704326,-3.4030742826074243,38.0,729.0],["FSTL4",-0.12819191085454407,-3.4293886763268238,51.0,716.0],["GORASP2",-0.10914559100634054,-2.607139301891777,10.0,757.0],["HCK",-0.11191642988731691,-2.7194362664260368,23.0,744.0],["IGSF10",-0.11399771453223728,-2.8054148469925004,107.0,660.0],["IST1",-0.14973460547360654,-4.504074991187236,18.0,749.0],["ITPRIPL1",-0.12055864349624405,-3.0856437226560116,28.0,739.0],["KCNQ2",-0.14005505565058796,-4.001916179200245,59.0,708.0],["KNSTRN",-0.11263838023464659,-2.7491017895943015,20.0,747.0],["LPO",-0.11311626250840656,-2.7688309172829477,32.0,735.0],["LRP3",-0.10992136003281824,-2.6383308139736434,40.0,727.0],["MAFB",-0.11207399159973833,-2.725896257226863,19.0,748.0],["MATK",-0.1239777088291272,-3.23724524358951,25.0,742.0],["MMRN1",-0.12302323196849668,-3.194538157215135,51.0,716.0],["MS4A10",-0.11097221414310533,-2.6808913550700835,18.0,749.0],["NCR3LG1",-0.11887778878945934,-3.0125165668144422,15.0,752.0],["NSF",-0.12958478339339524,-3.4941845905783118,14.0,753.0],["OR10J5",-0.11435710097608583,-2.820403009927169,29.0,738.0],["PEBP1",-0.11135304543442522,-2.6964031320558237,8.0,759.0],["PLBD2",-0.13102236164705536,-3.5617340217303486,23.0,744.0],["PLCB1",-0.12571173842531144,-3.3155986134379978,64.0,703.0],["POU4F3",-0.11019256721064995,-2.6492809342056,25.0,742.0],["PPP1R3E",-0.12030635279417175,-3.0746087404727307,8.0,759.0],["PRKAR2B",-0.11236451427933997,-2.737828614394539,17.0,750.0],["PRSS58",-0.11673094563804141,-2.920455282007111,18.0,749.0],["RGS20",-0.11362700733692109,-2.7899983417890803,16.0,751.0],["RIMS1",-0.12237867929731767,-3.1658673783675737,81.0,686.0],["RPA3",-0.11763043418610222,-2.9588447290667985,12.0,755.0],["RTCA",-0.12218937400242855,-3.157472634095933,13.0,754.0],["S1PR1",-0.1272408323932868,-3.3855133530366803,26.0,741.0],["SHISA6",-0.1200849612475408,-3.064942392013388,32.0,735.0],["SIK1",-0.14774923432770692,-4.398488669357181,39.0,728.0],["SLC12A5",-0.10950005541985326,-2.621367336669796,45.0,722.0],["SLC28A1",-0.13217565613150836,-3.616421194651463,28.0,739.0],["SLC45A2",-0.12509996715554977,-3.2878423667292154,35.0,732.0],["SPATA16",-0.13602143591709082,-3.8019808855598494,40.0,727.0],["TANGO6",-0.11492255712529818,-2.8440699469515853,41.0,726.0],["TAOK1",-0.14194262174001765,-4.097354320507909,29.0,738.0],["TBC1D31",-0.12450761433509296,-3.261084486555579,30.0,737.0],["TMEM200B",-0.12538247553559176,-3.300644546985252,9.0,758.0],["TOMM40L",-0.11044834711878337,-2.659629849282606,12.0,755.0],["TSHR",-0.12454145063985468,-3.262609839573231,30.0,737.0],["UCHL5",-0.11406874691100871,-2.80837392814378,17.0,750.0],["UPK3BL",-0.12344039741123228,-3.2131670080809394,29.0,738.0],["WDR76",-0.14697750581573277,-4.357808203671116,16.0,751.0],["ZNF19",-0.15612553304084098,-4.853097692975574,18.0,749.0],["ZNF414",-0.12963927762685556,-3.496732694768293,15.0,752.0]]},"para":{"top":[["CAMKMT",0.10399413838111582,-2.6982333318769,15.0,752.0],["CDC42EP5",0.10554552100427321,-2.757411032559232,8.0,759.0],["FOXR1",0.10469144515138819,-2.724846230638173,14.0,753.0],["GNPTG",0.1140258749585313,-3.0959922899737413,16.0,751.0],["KRTAP13-3",0.10250577410250651,-2.6418703023627366,15.0,752.0],["LDLRAD4",0.10747635627533103,-2.832529866666567,9.0,758.0],["LGALS8",0.10402686752553086,-2.6993015973363175,10.0,757.0],["MMP9",0.1245223243523823,-3.545848183335903,28.0,739.0],["PDAP1",0.09708333206049292,-2.4420011283321115,8.0,759.0],["RP11-458D21.5",0.08711417796234082,-2.0984760646303697,8.0,759.0],["RTN4R",0.10106243497282114,-2.5878354935380012,14.0,753.0],["TMEFF1",0.09880907800808111,-2.5047669710974443,13.0,754.0],["TMEM11",0.11230645104365568,-3.0253906629296954,10.0,757.0]],"bottom":[["ASGR1",-0.10003934186938257,-2.5499674012186753,15.0,752.0],["CD3EAP",-0.10911012636844081,-2.8970808348468213,12.0,755.0],["CDR1",-0.09987563710856891,-2.54370970069921,9.0,758.0],["CYBRD1",-0.11051015303535389,-2.9529688634986604,13.0,754.0],["ERI2",-0.11380676344887972,-3.087040216865694,19.0,748.0],["FAF2",-0.12189776674952137,-3.429839355665012,12.0,755.0],["FAM209B",-0.09151665042290962,-2.246562768464401,10.0,757.0],["FAM49B",-0.10009325598699474,-2.5518271819630503,11.0,756.0],["FBXO2",-0.09596591465947901,-2.4020501576000117,9.0,758.0],["ISCA2",-0.09508370522103797,-2.370673230630359,8.0,759.0],["KLF12",-0.09869496101167942,-2.5005696567713978,12.0,755.0],["NCR3LG1",-0.1072047527535445,-2.822140098377152,15.0,752.0],["NSF",-0.11212541751718005,-3.0181946827526605,14.0,753.0],["PEBP1",-0.08821542172899716,-2.1349429725964786,8.0,759.0],["PPP1R3E",-0.11055907815247176,-2.9546840181805765,8.0,759.0],["PRSS58",-0.12709667192700239,-3.6612207034871784,18.0,749.0],["RPA3",-0.10343991106031787,-2.6770722052680034,12.0,755.0],["RTCA",-0.099151214704785,-2.517274812685059,13.0,754.0],["TOMM40L",-0.10502946932661177,-2.7377479393484254,12.0,755.0],["WDR76",-0.12280185015859166,-3.469571889785813,16.0,751.0],["ZNF414",-0.11437016363770644,-3.1101686313994468,15.0,752.0]]}}}
{"depmap_damaging":{"corr":{"top":[["DCP1B",0.10765576517957949,-2.547779295543611,14.0,753.0],["GCC2",0.0990033476017163,-2.217037626897449,13.0,754.0],["NCOA3",0.09344894215450435,-2.017199238424472,9.0,758.0],["NIN",0.07999818913858416,-1.5730355870934996,9.0,758.0],["OXGR1",0.09126903618172415,-1.941411218948057,13.0,754.0],["SRPR",0.08592189540886146,-1.7617646379805372,9.0,758.0],["TBC1D19",0.12139620996798207,-3.122427383920885,15.0,752.0],["TNNT2",0.11437766399680852,-2.82126185244575,8.0,759.0]],"bottom":[["AHI1",-0.10598267552492777,-2.481964951856395,10.0,757.0],["ALPPL2",-0.11479092233318874,-2.838551177271684,10.0,757.0],["ANKRD30B",-0.12832868449361534,-3.4357229220868417,14.0,753.0],["ARHGAP22",-0.1195921705795363,-3.043483738747719,8.0,759.0],["ASTN1",-0.11219026409480014,-2.7306685361942167,9.0,758.0],["BACH2",-0.1175471689371711,-2.955279983685179,14.0,753.0],["C11orf63",-0.10379786849161342,-2.3973672462771827,9.0,758.0],["CACNA1S",-0.11132950330028549,-2.695442873906588,12.0,755.0],["CEP120",-0.11978724088249422,-3.051968628254315,10.0,757.0],["CLDN8",-0.13909715559082617,-3.9539416806428265,24.0,743.0],["FAM81B",-0.15253898045779415,-4.655507132992517,8.0,759.0],["FAT1",-0.1191971258110622,-3.0263386815407167,45.0,722.0],["FER1L6",-0.10650178777532013,-2.5022894678379735,20.0,747.0],["GRINA",-0.1004881065848457,-2.2721031179970193,11.0,756.0],["GRM1",-0.09735133296579622,-2.1565872078821817,8.0,759.0],["HLA-A",-0.09851624551469194,-2.1991241349545647,8.0,759.0],["IDH1",-0.1097592629724808,-2.6317973591422907,8.0,759.0],["IQUB",-0.10056178365131278,-2.2748537516769316,14.0,753.0],["KCNH5",-0.13246525429117756,-3.6302228500759965,8.0,759.0],["KIAA1731",-0.12643549162504722,-3.3485946862108453,22.0,745.0],["PRPF40B",-0.1273377460086324,-3.3899705209837734,8.0,759.0],["SCAF8",-0.10822029017144431,-2.57018823483623,9.0,758.0],["SETDB1",-0.13856490662074533,-3.927418222492808,9.0,758.0],["SLC4A11",-0.11513287544330301,-2.8528991649284032,9.0,758.0],["SMAD4",-0.16138233034306773,-5.1507027334667805,21.0,746.0],["SPATA16",-0.09568746193687429,-2.0965715601583605,8.0,759.0],["TBCK",-0.121025633615447,-3.1061243717412452,11.0,756.0],["TLR4",-0.11759475910326182,-2.9573171339856468,8.0,759.0],["TMC1",-0.10499872607082907,-2.4436771130669683,9.0,758.0],["ZNF44",-0.12548134217410725,-3.3051310034315615,9.0,758.0]]},"para":{"top":[["DDX17",0.09786579473680135,-2.4702444892444952,8.0,759.0],["NIN",0.090279045642621,-2.2043213025690984,9.0,758.0],["OXGR1",0.10040571592603253,-2.56344374946391,13.0,754.0],["SRPR",0.09695018045085828,-2.437272501711281,9.0,758.0],["SVIL",0.11979653944825724,-3.339093932806245,24.0,743.0],["TBC1D19",0.11152100916151145,-2.993735233355719,15.0,752.0],["TNNT2",0.10484999862533234,-2.730656714397838,8.0,759.0]],"bottom":[["CTNNA2",-0.10714826767820464,-2.8196952150933208,9.0,758.0],["FAM81B",-0.10803780952881123,-2.8545062694820666,8.0,759.0],["FER1L6",-0.10263004340144823,-2.646655215790177,20.0,747.0],["KCNH5",-0.0962429091859394,-2.4118740507670013,8.0,759.0],["PRPF40B",-0.10238669019991686,-2.6370999297063435,8.0,759.0],["SETDB1",-0.11193289305296497,-3.010164991500358,9.0,758.0],["SMAD4",-0.15485520214228746,-5.039945341659052,21.0,746.0],["TLR4",-0.10076380464905488,-2.5764819135615626,8.0,759.0]]}}}
{"ccle_chromatin":{"corr":{"top":[["H3K27me3K36me0",0.1566924575358622,-3.47512891452255,520],["H3K79me2",0.18914066437507518,-4.816895897422984,516]],"bottom":[]},"para":{"top":[["H3K79me1",0.1548720424801048,-3.3939844243767348,518],["H3K79me2",0.17977909214763424,-4.3977981244965365,516]],"bottom":[]}}}
{"ccle_metabolomics":{"corr":{"top":[],"bottom":[]},"para":{"top":[],"bottom":[["malate",-0.15734518922736696,-3.570097873075055,532]]}}}
{"ccle_rrbs_enhancer_clusters":{"corr":{"top":[],"bottom":[["4-54959998-54964796-2_enh",-0.2091520747075793,-4.707720457059537,410],["8-27750440-27755351-1_enh",-0.25720736689258,-7.244838539878621,433],["8-36955851-36960723-0_enh",-0.20385769311781168,-4.766469091661797,438],["9-13937547-13942363-1_enh",-0.2646001387178788,-7.546383015269923,427],["1-10963129-10965637-2_enh",-0.21137284223504438,-5.234858787100675,452],["1-39246757-39249443-0_enh",-0.22298360720672475,-5.681279751270581,444],["1-39246757-39249443-1_enh",-0.20774799059783275,-3.780512347213835,324],["6-44519780-44523377-1_enh",-0.23070964957194,-5.901586456181113,432],["9-81472431-81475114-0_enh",-0.22442611164501056,-4.575629899398112,344],["14-36582759-36585834-0_enh",-0.2599694974687917,-3.4696441445329556,186],["18-19340437-19343922-0_enh",-0.2652401024231623,-5.2987797018647695,288],["18-53090352-53093079-0_enh",-0.20487378471119894,-4.7508526253976155,432],["20-39572314-39575604-2_enh",-0.20215224427443157,-4.932355389661344,463]]},"para":{"top":[],"bottom":[["8-27750440-27755351-1_enh",-0.23359920683260624,-6.0516665516590376,433],["8-36955851-36960723-0_enh",-0.21557464560139591,-5.275389318702674,438],["9-13937547-13942363-1_enh",-0.254432692111634,-7.00818566727803,427],["22-38392345-38397199-0_enh",-0.19840515599953787,-4.7958595488684335,466],["1-38792666-38795333-1_enh",-0.20876063500154055,-3.9261939323812234,335],["1-39190609-39193371-0_enh",-0.20671448842328122,-3.2712199078469166,277],["1-39246757-39249443-1_enh",-0.23339486612748317,-4.657695941354987,324],["4-109060224-109063004-1_enh",-0.19874967150301429,-3.29996027056891,303],["6-44519780-44523377-1_enh",-0.20044541982334355,-4.567446955743737,432],["9-81472431-81475114-0_enh",-0.21274123919311919,-4.156240673282208,344],["18-19340437-19343922-0_enh",-0.2236763598100298,-3.8888062707641446,288],["18-53090352-53093079-0_enh",-0.21496765690054467,-5.1839045951588165,432]]}}}
{"ccle_mirna":{"corr":{"top":[["hsa-miR-1975_miR00691.1",0.1535160025028447,-3.431339106173207,534]],"bottom":[]},"para":{"top":[["hsa-miR-1975_miR00691.1",0.17121369509746326,-4.155494656889017,534]],"bottom":[]}}}
{"prism_primary_logfold":{"corr":{"top":[["omeprazole_BRD-A55962179-001-22-1::2.5::HTS",0.19155154710027184,-3.8586814795264868,391],["EPZ-5676_BRD-K26531771-001-02-2::2.35::HTS",0.20821436616751351,-4.264360793094799,370],["acetylsalicylsalicylic-acid_BRD-K46585355-001-14-3::2.5::HTS",0.17679574652225816,-3.3525790263226134,391],["fidaxomicin_BRD-K57371763-001-01-7::2.5::HTS",0.18822060388966874,-3.7410397057940625,391],["brimonidine_BRD-K68264559-045-04-0::2.58::HTS",0.2068773489885192,-4.2656362399137775,375],["3-deazaneplanocin-A_BRD-K77791657-003-01-7::2.67::HTS",0.21037192054675277,-4.343876086778228,370],["osthol_BRD-K78294846-001-12-4::2.5::HTS",0.17768244447884013,-3.3893585776150927,392],["halopemide_BRD-K50055394-001-03-6::2.701086832::MTS004",0.17393457606565071,-3.1800648583550895,380],["LTA_BRD-K52914072-001-01-5::2.5::MTS004",0.18211652709756648,-3.4445266115510678,380]],"bottom":[["PH-797804_BRD-K95880107-001-02-4::2.5::HTS",-0.1739616997346316,-3.2669524988937786,392]]},"para":{"top":[["linalool_BRD-A43082461-001-06-3::2.5::HTS",0.17964804001281195,-3.287166104403544,370],["EPZ-5676_BRD-K26531771-001-02-2::2.35::HTS",0.22528257350322592,-4.915870835107578,370],["brimonidine_BRD-K68264559-045-04-0::2.58::HTS",0.180568333531698,-3.3550632864819154,375],["3-deazaneplanocin-A_BRD-K77791657-003-01-7::2.67::HTS",0.1965738372483883,-3.849317638318834,370],["halopemide_BRD-K50055394-001-03-6::2.701086832::MTS004",0.16698264997671822,-2.964311753422869,380],["LTA_BRD-K52914072-001-01-5::2.5::MTS004",0.16127527688931298,-2.7932629432348812,380],["etilevodopa_BRD-K90982969-001-01-2::2.5::MTS004",0.1674634545695346,-2.9789708675285675,380]],"bottom":[["flutamide_BRD-K28307902-001-21-7::2.5::HTS",-0.16573177376072665,-2.9917545672033654,390],["S-14506_BRD-K46766488-003-02-0::2.5::HTS",-0.16048323650356341,-2.831497478282577,390],["PH-797804_BRD-K95880107-001-02-4::2.5::HTS",-0.1969915338735789,-4.064209292183136,392],["daucosterol_BRD-K14276241-001-01-2::2.49998187::MTS004",-0.16174081855072647,-2.8070111185293323,380]]}}}
{"prism_secondary_logfold":{"corr":{"top":[["erastin_BRD-A25004090-001-08-4::0.00976562::HTS002",0.2171762215211533,-3.6791787889101517,287],["SKF-96365_BRD-A72703248-003-04-9::0.0024414::HTS002",0.22767502376287677,-3.9402994270836995,282],["JNJ-7706621_BRD-K11636097-001-03-1::0.0390625::HTS002",0.20929089262666664,-3.768400388352248,318],["cyclosporine_BRD-K13533483-001-16-2::0.009765625::MTS005",0.2038087327115722,-3.6253050698632325,321],["EPZ-5676_BRD-K26531771-001-02-2::0.588009::HTS002",0.19833976744996526,-3.5491862687585947,331],["taselisib_BRD-K44844162-001-01-6::0.0390625::HTS002",0.20842669700943522,-3.935496042902226,337],["AM-404_BRD-K55462201-001-07-3::0.0024414::HTS002",0.25698756061594064,-3.208294365718241,174],["ZLN005_BRD-K73073971-001-01-7::10::HTS002",0.22902781437297023,-4.439487147756188,319],["OSI-420_BRD-K73309154-003-02-8::2.5::HTS002",0.232029797653356,-4.7724869823125555,337],["repsox_BRD-K80480517-001-02-4::0.625::HTS002",0.2032220782699639,-3.723986650278971,333]],"bottom":[["florfenicol_BRD-A30886737-001-02-9::0.00976562::HTS002",-0.19080299860640063,-3.1782366327201603,315],["triapine_BRD-K01669786-001-02-2::0.15625::HTS002",-0.18767219627209372,-3.272667345842883,337],["tiagabine_BRD-K60160658-003-11-2::0.15625::HTS002",-0.19772859566494508,-2.8219104660756016,255],["venetoclax_BRD-K62391742-001-09-7::0.625::MTS010::PROS001_PR500",-0.20625180230129256,-3.752549813253457,326]]},"para":{"top":[["erastin_BRD-A25004090-001-08-4::0.00976562::HTS002",0.1879517372013617,-2.8600628019918224,287],["sulconazole_BRD-A70649075-008-30-8::10::HTS002",0.18926848394662238,-3.321274271284125,337],["JNJ-7706621_BRD-K11636097-001-03-1::0.0390625::HTS002",0.22733550859337442,-4.368346983268987,318],["OSI-420_BRD-K73309154-003-02-8::2.5::HTS002",0.20946016492950906,-3.9702682319689084,337],["3-deazaneplanocin-A_BRD-K77791657-003-01-7::0.666759::HTS002",0.1885476567081411,-3.299276657017391,337],["3-deazaneplanocin-A_BRD-K77791657-003-01-7::2.66704::HTS002",0.19877793730990082,-3.6189888393966965,337],["repsox_BRD-K80480517-001-02-4::0.625::HTS002",0.21559648680097068,-4.136539872333447,333],["lorlatinib_BRD-K99879819-001-02-1::10::MTS006",0.20722869193080037,-3.8852864180896804,336]],"bottom":[["BW-180C_BRD-K57927309-001-01-7::0.00976562::HTS002",-0.1717851666410296,-2.781772113351138,333],["idelalisib_BRD-K60866521-001-07-1::0.0390625::HTS002",-0.1961330130460589,-2.7366568039795434,250],["venetoclax_BRD-K62391742-001-09-7::0.625::MTS010::PROS001_PR500",-0.1913580380541839,-3.2899957283162427,326]]}}}
{"ccle_proteomics":{"corr":{"top":[["PPFIBP2_Q8ND30",0.2750170684962284,-4.469622977232438,221],["RBBP9_O75884",0.29443392516322725,-5.705830366193672,252]],"bottom":[["NSD1_Q96L73",-0.29176126696119214,-5.830323073592706,263],["CENPU_Q71F23",-0.2511211384788721,-4.330740735422102,257],["KIF2C_Q99661",-0.24527195025356685,-4.235598522728099,263],["PCGF6_Q9BYE7",-0.27716971984016253,-4.6980766481368725,230],["OIP5_O43482",-0.2908277000090758,-3.6171419701589076,155],["HGFAC_Q04756",-0.2641810941864384,-4.037916863740258,214],["S100A2_P29034",-0.29042684890646153,-4.981608061605225,223]]},"para":{"top":[["PPFIBP2_Q8ND30",0.2763241423551433,-4.50857460197898,221],["FBXL17_Q9UF56",0.2775089701368174,-3.1761744755754986,147],["RBBP9_O75884",0.2809927704846175,-5.229363511921786,252],["TBC1D5_Q92609-2",0.25094978903197473,-4.414720635644424,263],["FIG4_Q92562",0.25134181733110317,-3.3289971417840576,190]],"bottom":[["DNTTIP1_Q9H147",-0.2591027912417734,-4.679385329179216,263],["NSD1_Q96L73",-0.2859763597186375,-5.615625241423205,263],["POC1B_Q8TC44",-0.285156157823123,-3.2545771484189845,143],["TRANK1_O15050",-0.33332087759568674,-3.9995185114302494,131],["PCGF6_Q9BYE7",-0.2611786079479197,-4.215201452981169,230],["HGFAC_Q04756",-0.29036913047546126,-4.799350605343373,214],["STRA13_A8MT69",-0.2841332007482283,-3.877603847158157,176]]}}}
{"depmap_gene_tpm":{"corr":{"top":[["CHI3L2_1117",0.148314854381005,-4.413168717971184,764],["PCK1_5105",0.15358802234450272,-4.69651478111166,764],["ADH6_130",0.14634712839589253,-4.309852460717888,764],["SAMD13_148418",0.14659891979292256,-4.32299982624316,764]],"bottom":[["LIFR_3977",-0.1764399180824344,-6.0349738902107,764],["LY6E_4061",-0.18918743639008584,-6.861160412188761,764],["EDARADD_128178",-0.17058233092790462,-5.67458998000164,764]]},"para":{"top":[["SI_6476",0.1567230192376471,-4.869461787722571,764]],"bottom":[["MMP9_4318",-0.15787221181754793,-4.933701603362715,764],["HOXD11_3237",-0.18979211736102883,-6.901790221166492,764],["AK4_205",-0.17877290395402254,-6.1818689037857775,764],["KRTAP4-8_728224",-0.16660252900251837,-5.436580161053981,764]]}}}
{"avana":{"corr":{"top":[["C1D_10438",0.3037235471292847,-17.14803997563157,769],["ZCCHC7_84186",0.5695347100621899,-66.60386224272128,769],["FTSJ3_117246",0.19741721338718993,-7.469939014087711,769]],"bottom":[["RPS3A_6189",-0.17359187409637233,-5.892787018380442,769],["GRTP1_79774",-0.16824953134953963,-5.566901401475748,769],["MAPKAPK2_9261",-0.2047698015407504,-7.883343186133526,757],["EZH2_2146",-0.18727055557694364,-6.677083336362016,757]]},"para":{"top":[["C1D_10438",0.3210070970198773,-19.1644551830598,769],["ZCCHC7_84186",0.5267485140220218,-55.391045657243794,769],["DDX21_9188",0.25193715046695997,-11.871703342956613,769],["FTSJ3_117246",0.19350950290353924,-7.197231477173338,769],["EXOSC1_51013",0.24953064627134972,-11.653216637784045,769]],"bottom":[["GRTP1_79774",-0.154955023480029,-4.799200286562789,769],["BPTF_2186",-0.17619049087816907,-5.969583299555515,757],["NDC80_10403",-0.17380664782974092,-5.906098590443161,769],["MAPKAPK2_9261",-0.1922099690288401,-7.006458391949646,757],["HAUS3_79441",-0.15322495358183755,-4.703793127541655,769],["TSTD1_100131187",-0.15676568143372868,-4.900154846574757,769],["CNOT2_4848",-0.17763908042520998,-6.146375421903455,769],["SUZ12_23512",-0.16948673192234395,-5.562359115471147,757],["ERCC5_2073",-0.15329349129180941,-4.642466084747064,757],["EZH2_2146",-0.17306763519138177,-5.777942193851937,757]]}}}
{"drive":{"corr":{"top":[["NCSTN_23385",0.23260276955799838,-3.8895019458644313,266],["SDF2_6388",0.2369414936596484,-4.0468472131300715,268],["PDE4B_5142",0.23986921239991146,-4.137124208157187,268],["GRIK4_2900",0.25486446774788396,-4.739920300928996,276],["GNL3_26354",0.3305107784064401,-7.47230381396248,266],["HBZ_3050",0.2372038827811439,-4.068201405234754,269],["S100A9_6280",0.2360033817087054,-4.018158617529723,268],["MYBBP1A_10514",0.3090930616763923,-6.570156667488003,266],["HTD2&RPP14_109703458&11102",0.296894645557753,-6.128872422519918,268],["DCAF1_9730",0.34587576372792544,-8.305876998486452,271],["NLE1_54475",0.2606863038902073,-4.8600767104808416,271],["WDR12_55759",0.2837148219939162,-5.684839424365796,271]],"bottom":[["LRWD1_222229",-0.21335933797064632,-3.3927277427028235,271],["EIF2S2_8894",-0.2288863053291295,-3.7794169283112544,266],["IGF1_3479",-0.2163930795154385,-3.4222922394282427,266],["CLSPN_63967",-0.21627191119459277,-3.4745409091481174,271],["ZADH2_284273",-0.2591334441308051,-4.759634191985341,268],["CD4_920",-0.21277552489037893,-3.322562829149956,266],["RTF1_23168",-0.22020447142571375,-3.529144247272762,266],["FCGR2A_2212",-0.20803794049354332,-3.297594360749665,276]]},"para":{"top":[["MARCKS_4082",0.2553696263603619,-4.634076989760165,268],["CYP4F3_4051",0.26005416284552907,-4.8384889245300995,271],["FRMPD4_9758",0.25118789584517015,-4.496833601717953,268],["PDE4B_5142",0.23968424840752958,-4.131387379776748,268],["GRIK4_2900",0.2817308865404722,-5.704306338517782,276],["GNL3_26354",0.3009480705140428,-6.245289582503631,266],["LMO4_8543",0.2453566951680772,-4.3520392839233395,271],["RXFP2_122042",0.25189332868981834,-4.60964138489706,274],["MYBBP1A_10514",0.2421776384643833,-4.181372015462595,266],["S100A9_6280",0.26986524692262376,-5.128317987654566,268],["HTD2&RPP14_109703458&11102",0.327940037804513,-7.411244879138919,268],["CDKAL1_54901",0.24436969933497846,-4.278106038697665,268],["CABP5_56344",0.24820282698793977,-4.371204418241492,266],["DCAF1_9730",0.3238678835598627,-7.309100634050145,271],["WDR12_55759",0.3015320957802548,-6.3755626201157325,271],["PAXIP1_22976",0.25085884462682895,-4.4861344402030605,268]],"bottom":[["LRWD1_222229",-0.23689017450826888,-4.085092180536116,271],["DDX28_55794",-0.2115953069909903,-3.311716553899493,268],["EIF2S2_8894",-0.25443308125778563,-4.572574080167095,266],["ZADH2_284273",-0.24456171740817748,-4.284180966812965,268],["CD4_920",-0.22706792253191954,-3.726201711921533,266],["TNFAIP1_7126",-0.21173761401929586,-3.3796491219062688,274],["EP400_57634",-0.21219781868022225,-3.3604028914207533,271],["RTF1_23168",-0.23927704356290075,-4.091690005880635,266],["PPM1D_8493",-0.23725061770418512,-4.13617549001884,274],["PABPC5_140886",-0.25034089603797205,-4.469322775811123,268],["GDPD1&ZYG11A_284161&440590",-0.227560529808223,-3.642245016897758,258]]}}}
{"achilles":{"corr":{"top":[["NOL7_51406",0.2989937516584334,-4.960757915243414,209],["RPF2_84154",0.3258848287576433,-5.832319621135442,209],["FAM107A_11170",0.29810226221708974,-4.933306884019534,209],["LINC01602_100505477",0.27884362049698597,-4.362161070062232,209],["ANKMY1_51281",0.27640471814545053,-4.292768635959101,209],["LAMA1_284217",0.2734400875561607,-4.209292503355307,209],["PES1_23481",0.29383615361709225,-4.803196439569747,209],["RIF1_55183",0.27422198748728593,-4.231215849938146,209],["MYBBP1A_10514",0.31387397386549976,-8.783329917901654,353],["URB2_9816",0.28073443375232343,-4.416408173180997,209],["C1orf198_84886",0.2990132711474625,-4.961359981933581,209],["NIP7_51388",0.27313275282242994,-4.2006934596338965,209],["DCAF1_9730",0.319096230622105,-5.6042250414975205,209],["UTP6_55813",0.2879288744360838,-4.626428711606917,209],["MPHOSPH6_10200",0.28238723176778313,-4.464149222588456,209],["KLB_152831",0.28043976562805795,-4.407928326590262,209]],"bottom":[["RPLP0_6175",-0.2383014223567586,-3.291078751850999,209],["KPNB1_3837",-0.24771155439821022,-3.5243365652622014,209],["HMGN3_9324",-0.2284459894639162,-4.835050192371487,353],["TIMELESS_8914",-0.2770088603071127,-4.309897230022283,209],["GPC1_2817",-0.25011449729315316,-3.5853607230515587,209],["WSCD1_23302",-0.25708792283582266,-3.765858160655973,209],["COMMD2_51122",-0.24555710808413903,-3.4701304692867123,209],["FSD1L_83856",-0.26567167592504426,-3.9950668917743415,209],["LY6G5B_58496",-0.2557367828677249,-3.7304883889641793,209],["MORC1_27136",-0.2555650262401507,-5.942755220853638,353],["ITIH3_3699",-0.23666598884606768,-3.251461193505121,209],["JMJD8_339123",-0.2967487207082053,-4.891801587178987,209]]},"para":{"top":[["NOL7_51406",0.28411761323149864,-4.51445482599086,209],["RPF2_84154",0.321262372113629,-5.676404865271819,209],["FAM107A_11170",0.31802690406125866,-5.568799848034935,209],["LINC01602_100505477",0.3072104001432946,-5.218069346341784,209],["NIP7_51388",0.2896232668177627,-4.676730177144232,209],["PES1_23481",0.2810566068504941,-4.425690494172493,209],["RIF1_55183",0.2861630859201704,-4.5743491843126245,209],["MYBBP1A_10514",0.2899674972947231,-7.539972088512085,353],["C1orf198_84886",0.3297350640167989,-5.9641636352484175,209],["LOC102723728_102723728",0.32301249345225846,-5.735133189021229,209],["SEPT11_55752",0.281383594186328,-4.435123220910117,209],["DCAF1_9730",0.3605330110290967,-7.0853960662852264,209],["UTP6_55813",0.3036719808053717,-5.106305459883856,209],["MPHOSPH6_10200",0.3071744023311239,-5.216925008135033,209],["LMOD3_56203",0.2887529863329507,-4.650853985853297,209],["KLB_152831",0.28278069938776423,-4.475558989212217,209]],"bottom":[["KPNB1_3837",-0.3031362194403077,-5.089509323820601,209],["FRY_10129",-0.27271176788202156,-4.188931184384649,209],["HMGN3_9324",-0.24279188560565113,-5.404867718961569,353],["GPC1_2817",-0.26651475697302796,-4.0180021870929705,209],["TIMELESS_8914",-0.24790578316526976,-3.529246920376619,209],["NAA35_60560",-0.23613685298089376,-3.238701150664566,209],["COMMD2_51122",-0.24724288144198364,-3.512503953335191,209],["HERC2P2_400322",-0.26090179853655265,-3.8667343286947884,209],["FSD1L_83856",-0.27426960255141497,-4.232553054182314,209],["LY6G5B_58496",-0.2453851947663256,-3.4658257161397508,209],["RPL13_6137",-0.24834266791563253,-3.5403061855947735,209],["MORC1_27136",-0.2673863546150163,-6.466793075225805,353],["RPL7A_6130",-0.2587896696942461,-3.8106792989597738,209],["HOXC6_3223",-0.2698702635473319,-6.580163508594835,353],["JMJD8_339123",-0.2793566677435797,-4.376841455506135,209]]}}}
{"ccle_rrbs_tss1kb":{"corr":{"top":[["CLIP4_2_29337291_29338291",0.18554205035337287,-4.244751768934986,465],["USB1_16_58032502_58033502",0.17575515031199476,-3.892282987393693,470],["TMEM173_5_138862375_138863375",0.1986023018150287,-4.6576868642395235,450],["RAB34_17_27045286_27046286",0.21128232236371833,-4.513437339345154,383]],"bottom":[["LCE1A_1_152798948_152799948",-0.23008595980496713,-6.338120607461177,470],["SCN4A_17_62050278_62051278",-0.2579881278627636,-7.656458271109437,457],["PRKAG3_2_219696512_219697512",-0.22489059762716443,-5.888215195789757,454],["CARD11_7_3083579_3084579",-0.24954711167781288,-7.348914468455871,468],["SLC6A2_16_55688541_55689541",-0.2595960739663833,-4.568314106938226,255],["KISS1_1_204165619_204166619",-0.24864581664217392,-7.241798202232642,464],["FEZ1_11_125366206_125367206",-0.2391870103385855,-6.627896554744002,456],["CAMK2A_5_149669403_149670403",-0.22897790936724538,-6.1360017178984325,458],["DRAIC_15_69853058_69854058",-0.22720759368065724,-4.0965355436940225,296],["IL17B_5_148758838_148759838",-0.22660017945051042,-5.040226914795177,376],["RNF112_17_19313490_19314490",-0.229391241435853,-6.0956079370787855,453],["ITGB2_21_46340965_46341965",-0.25908545237330255,-7.516173610450017,444]]},"para":{"top":[["CLIP4_2_29337291_29338291",0.22642926648070685,-6.093355416834103,465],["PDLIM4_5_131592350_131593350",0.18647617137862474,-4.282909785817396,465],["USB1_16_58032502_58033502",0.20459616833444805,-5.108940002767409,470],["WASF3_13_27130839_27131839",0.1837377517942589,-4.076944459617756,453],["CPNE2_16_57125454_57126454",0.1870619136964992,-4.323249057775047,467],["GPC1_2_241374114_241375114",0.22037268308767421,-5.852289258634524,470],["LIFR_5_38556748_38557748",0.18244078042166104,-4.0805249274721165,460],["RGS20_8_54792431_54793431",0.19382094094383961,-4.580722675410498,464],["MICALL1_22_38301154_38302154",0.22486424542172934,-6.050846740054073,468]],"bottom":[["RCSD1_1_167598429_167599429",-0.22657314214034804,-5.85082155593207,444],["SCN4A_17_62050278_62051278",-0.2590868842280762,-7.718352402629964,457],["KRT81_12_52685299_52686299",-0.2299601392336115,-5.436216535773196,397],["LOC105378292_10_48323886_48324886",-0.21919187325982684,-5.616628030868624,454],["CARD11_7_3083579_3084579",-0.24045254010644107,-6.85403759896389,468],["SLC6A2_16_55688541_55689541",-0.26459727821072493,-4.730489200049404,255],["FEZ1_11_125366206_125367206",-0.24898277130697416,-7.14553469776402,456],["KISS1_1_204165619_204166619",-0.2445694937144138,-7.020300199899372,464],["LINC01940_2_239847965_239848965",-0.2478530307167668,-4.7510210484814595,293],["CAMK2A_5_149669403_149670403",-0.23009423285775124,-6.191532629456947,458],["HOXA9_7_27205149_27206149",-0.22414174088301192,-5.968465175599451,464],["MIR4798_4_7311176_7312176",-0.22534992547606697,-5.980985547933472,460],["IL17B_5_148758838_148759838",-0.2217058509106555,-4.843938584903148,376],["ITGB2_21_46340965_46341965",-0.2695023163185494,-8.100512982247048,444],["RCSD1_1_167598473_167599473",-0.23368751555739553,-6.233099684563926,447]]}}}
{"ccle_gene_tpm":{"corr":{"top":[["ID2_ENSG00000115738.5",0.21646820217173657,-6.765995503776021,572],["None_ENSG00000270113.1",0.2125436297204858,-6.5401172519309645,572],["AC106876.2_ENSG00000222001.2",0.19785898352943893,-5.732434315932085,572],["GLYCTK_ENSG00000168237.13",0.19718455323983186,-5.696746511992922,572],["CASC15_ENSG00000272168.1",0.1987490366544826,-5.779719736188533,572],["HEATR5B_ENSG00000008869.7",0.20878164075390143,-6.327585902184943,572],["MPND_ENSG00000008382.11",0.21364397270203142,-6.603017528457681,572],["PCK1_ENSG00000124253.9",0.1923484159974307,-5.444423198737469,572],["RP11-91J19.4_ENSG00000272005.1",0.21020474505700273,-6.407525626423135,572],["SEMA4G_ENSG00000095539.11",0.20549035816918623,-6.144831395812871,572]],"bottom":[["WNT3A_ENSG00000154342.4",-0.19944579497024245,-5.816885384493396,572],["BNC1_ENSG00000169594.8",-0.25005518393643655,-8.876774829274469,572],["RPL12P8_ENSG00000219932.5",-0.2103618018236401,-6.416382030776401,572]]},"para":{"top":[["None_ENSG00000270113.1",0.2204966812408422,-7.002301323941695,572],["AC018755.16_ENSG00000269388.1",0.1932253379497652,-5.489710479180549,572],["PEBP1_ENSG00000089220.4",0.20946358408771804,-6.365823161241042,572],["MPND_ENSG00000008382.11",0.22686553005165,-7.3851518668469875,572],["RP11-91J19.4_ENSG00000272005.1",0.21050272174643792,-6.424334254228277,572],["None_ENSG00000242261.1",0.2139762733055164,-6.622079001941687,572],["OR7E7P_ENSG00000238228.1",0.1959822636922045,-5.633430715762295,572]],"bottom":[["RP11-676J12.7_ENSG00000262003.1",-0.191278192704847,-5.389431879514335,572],["LIFR-AS1_ENSG00000244968.2",-0.19325615817058125,-5.491305887396024,572],["IRX4_ENSG00000113430.5",-0.20154049385039838,-5.92940941434063,572],["KRTAP4-8_ENSG00000204880.6",-0.19204584708497097,-5.428845243574759,572],["C11orf45_ENSG00000174370.5",-0.19096563967217323,-5.373429695074847,572],["MMRN2_ENSG00000173269.9",-0.2225332192379974,-7.123485768872343,572]]}}}
{"ccle_rrbs_tss_clusters":{"corr":{"top":[],"bottom":[["CLIP4_4",-0.25816912467653774,-4.33331333163488,243],["LOC100129603_1",-0.3133756624873807,-6.930606392433569,274],["PSG4_2",-0.35398485196722396,-4.044493347051184,117],["AHCTF1P1",-0.26630244283053917,-3.194571851985572,161],["FLI1_6",-0.2722202535184029,-8.652144374852128,467],["KRT71_3",-0.2601343551442255,-5.493409852928365,312],["NOS3_3",-0.25641038236526853,-4.622051794580454,265],["LINC01942_2",-0.27807200416851463,-9.102295616235322,472],["LOC101929538_3",-0.26112188655597457,-8.023117416658017,469],["MIR711_3",-0.2520415557324586,-7.1793518833305905,447],["CGB8_3",-0.28071346062483055,-7.419584291552043,371],["SLC6A2_3",-0.25052613946710894,-4.327020373209296,258],["DHRS7C_3",-0.2662035101447948,-6.347036894207709,349],["LINC02230_2",-0.2582291216425454,-7.221937754114944,428],["TLR8_3",-0.2606957817313131,-4.071822090657746,222],["SRY_3",-0.3045053875825215,-3.504492923244564,136]]},"para":{"top":[["EPHB2_2",0.28130777042825217,-3.4838981936749236,159],["JHY_1",0.22802343208969236,-3.7664403978774743,267],["KDELC2_3",0.22032154732797596,-4.003478961329246,307]],"bottom":[["ACE_3",-0.2708865191680217,-3.0077014844366157,145],["LOC100129603_1",-0.3186835020802263,-7.157578737142078,274],["DHRS4_3",-0.26564747952479195,-3.3853079299696853,173],["AHCTF1P1",-0.27619314180161925,-3.4083918051034794,161],["FLI1_6",-0.2793506684130594,-9.092628988593201,467],["KRT71_3",-0.26391031808458254,-5.642203542605837,312],["NOS3_3",-0.2627920947436859,-4.834665239146182,265],["LINC02517",-0.2582228478882967,-4.587396171095389,259],["LOC101929538_3",-0.27000602089018505,-8.55169382685865,469],["CGB8_3",-0.2682635075358907,-6.808803683565874,371],["SLC6A2_3",-0.2585187847502223,-4.5811999573012345,258],["LOC110091776_1",-0.2859332957003872,-4.645475326068407,213],["SRY_3",-0.2682073485602349,-2.797489671279566,136]]}}}
{"ccle_rrbs_cgi_clusters":{"corr":{"top":[["15_74288344_74292760-1",0.26802680886625385,-5.16561494445758,274],["8_143779581_143782095-2",0.2057629218221806,-5.083405149369817,462],["9_22447188_22449695-3",0.2302074589892881,-3.7680848639757607,262],["17_27044856_27049273-2",0.20881629981811037,-4.449744482561892,386]],"bottom":[["12_54341622_54345848-3",-0.27363878301150296,-4.036142848501517,199],["6_160769361_160772308-3",-0.2750510028747877,-2.570524050900016,117],["7_27280086_27282611-3",-0.2754334716977176,-3.7572077368131813,181],["8_121821534_121824127-1",-0.263492306135831,-3.5205350487893625,184],["11_44322875_44327087-3",-0.2616810029260691,-8.150859820959221,475],["22_24181079_24183666-1",-0.2609100200922398,-4.530108319768576,250],["24_2655802_2660099-3",-0.3045053875825215,-3.504492923244564,136],["17_710977_715599-3",-0.25794940848170494,-6.975584707309741,413],["6_10382965_10387492-2",-0.25067326058036693,-4.316760946132295,257],["16_55687598_55690246-1",-0.25052613946710894,-4.327020373209296,258],["15_48007418_48010231-1",-0.2933858946655782,-7.449060572179425,340],["11_44323657_44328517-1",-0.2508060660224911,-7.520780067467854,475]]},"para":{"top":[["11_108366498_108371407-3",0.22032154732797596,-4.003478961329246,307],["7_150094432_150097229-2",0.21450320125034453,-5.035124333463465,420],["17_76352818_76355928-2",0.218814173096953,-5.776350681229703,470],["11_123299049_123301599-2",0.23069402500810476,-3.5926316396216014,247],["10_30022072_30025074-3",0.2605811611813574,-3.7770916488727124,204],["19_2523140_2527460-1",0.218729824265679,-5.739023490626438,467],["4_99847305_99849929-2",0.22366651536504795,-3.054458870066721,218]],"bottom":[["10_38381200_38385962-2",-0.2917346307399374,-3.245014700557853,136],["11_44322875_44327087-3",-0.2571013743003864,-7.881986124631543,475],["7_27280086_27282611-3",-0.2517851609909405,-3.202015452095731,181],["24_2655802_2660099-3",-0.2682073485602349,-2.797489671279566,136],["14_24420770_24425141-3",-0.26564747952479195,-3.3853079299696853,173],["18_12911864_12914704-3",-0.2699865537373725,-3.0433815760166154,148],["10_3158888_3163107-3",-0.2589686719549804,-4.07112885293512,225],["16_55687598_55690246-1",-0.2585187847502223,-4.5811999573012345,258],["18_59219451_59223986-3",-0.2808976444633668,-5.561286260534746,270],["15_48007418_48010231-1",-0.2830057428596082,-6.955457735488744,340],["3_50602905_50607359-3",-0.2585825125690506,-4.282512891085944,239]]}}}
