{"depmap_hotspot":{"corr":{"top":[["ADPGK",0.12307350069874656,-3.1967799212150583,18.0,749.0],["APPBP2",0.11722415326229668,-2.941472407374167,23.0,744.0],["APPL1",0.11863061262461633,-3.0018406725758138,17.0,750.0],["AUNIP",0.12562643984513228,-3.3117211990226956,11.0,756.0],["BTK",0.1303012687301581,-3.5277654104639855,30.0,737.0],["C14orf37",0.1101088770556009,-2.6458993804926023,36.0,731.0],["C16orf70",0.11749430239642601,-2.953017836182036,21.0,746.0],["C17orf78",0.1103600810678822,-2.6560562056587966,11.0,756.0],["CAPN7",0.11624738451133881,-2.8999259636935255,35.0,732.0],["CD1A",0.11453413138889705,-2.827801410239256,27.0,740.0],["CEACAM16",0.127300156837284,-3.388241383981753,16.0,751.0],["DAZL",0.13640411283820358,-3.8207151233903196,9.0,758.0],["DCAKD",0.1211956065136112,-3.1135965252985534,12.0,755.0],["EPSTI1",0.10904585854871958,-2.603143362059989,14.0,753.0],["FAM102B",0.124668787118463,-3.268353588486293,16.0,751.0],["FAM76B",0.1254527670516782,-3.3038339660221174,14.0,753.0],["FAM98B",0.12099848702961805,-3.104931859792669,17.0,750.0],["FBXO9",0.15686653528272293,-4.894471531738267,17.0,750.0],["FGF20",0.10669523388449165,-2.509885390933513,8.0,759.0],["GAB4",0.10961650662442878,-2.6260504420297606,34.0,733.0],["GHSR",0.11484205746067891,-2.8406943432571263,29.0,738.0],["GPR21",0.11849154747430775,-2.995843001023824,11.0,756.0],["HNRNPUL2",0.11772348331647337,-2.9628310103576228,31.0,736.0],["HRH3",0.15225791086217058,-4.640208651576828,25.0,742.0],["HTR2A",0.1201429958692957,-3.0674747384297287,22.0,745.0],["IRAK2",0.13121589901199696,-3.5708803762325,33.0,734.0],["KATNAL1",0.14062163178280937,-4.0304371608167795,18.0,749.0],["KATNB1",0.1254655949707579,-3.3044161976756232,14.0,753.0],["KIAA0195",0.10920151413811743,-2.6093813488844155,55.0,712.0],["KIAA1045",0.1075472951915559,-2.5434852521691664,19.0,748.0],["KLF14",0.12691637349724827,-3.370613678087724,15.0,752.0],["KLRG2",0.13199688245454202,-3.607915125558832,19.0,748.0],["LENG9",0.12078344681468633,-3.095493956064094,20.0,747.0],["LRRC8A",0.12248469495832628,-3.1705737733291928,35.0,732.0],["MAPRE3",0.10833931166130968,-2.5749258583898307,21.0,746.0],["MAT1A",0.10973067089547191,-2.630645808377751,17.0,750.0],["MON1B",0.11776126102738713,-2.964450234624829,28.0,739.0],["MS4A4E",0.12707648964381446,-3.3779621277108998,12.0,755.0],["OR51B5",0.1064556986250041,-2.5004814802241855,21.0,746.0],["OR5AU1",0.126506761275376,-3.3518532227575877,24.0,743.0],["PHF11",0.12040360232688362,-3.07885988949549,17.0,750.0],["PI4K2A",0.14124515917726882,-4.061949856339258,10.0,757.0],["PRMT8",0.12271111060406094,-3.1806374680091687,31.0,736.0],["RSRC2",0.11119118650623015,-2.689804688549116,12.0,755.0],["SCYL2",0.12321011527611993,-3.2028765176790324,33.0,734.0],["SLC22A6",0.10675976057284722,-2.5124217806405547,35.0,732.0],["SPATA22",0.12465875201346176,-3.2679007428716584,11.0,756.0],["STX17",0.10549018921295082,-2.462762492143861,12.0,755.0],["SYCP2",0.12421945356452481,-3.248109343264823,64.0,703.0],["SYT7",0.14762635156362255,-4.391997554532395,15.0,752.0],["TBC1D26",0.12971648614477316,-3.500344583683116,8.0,759.0],["TFB1M",0.11148348486007938,-2.701726851306265,13.0,754.0],["TRPC4",0.10601699936752518,-2.483306155443967,59.0,708.0],["TUBD1",0.11226566623772866,-2.7337656673729462,14.0,753.0],["UBP1",0.11956475219408792,-3.0422921284696103,14.0,753.0],["UPK1A",0.10738612530234211,-2.537111916991016,17.0,750.0],["WASL",0.11751526913365883,-2.9539148894019482,18.0,749.0],["XAF1",0.11745749741829438,-2.9514434962035745,26.0,741.0],["ZKSCAN7",0.12302686173206134,-3.1947000009192994,41.0,726.0],["ZMAT4",0.11949045265176998,-3.039064283861553,8.0,759.0],["ZNF829",0.12757208977808013,-3.400761072704245,20.0,747.0]],"bottom":[["CC2D2B",-0.09028349143311899,-1.9076333260234777,11.0,756.0],["LIMK2",-0.0976741310519944,-2.1683313860155886,17.0,750.0],["MED13L",-0.10310157394626097,-2.3707256676909494,65.0,702.0],["NPHS1",-0.09911227333165186,-2.221053689021537,65.0,702.0],["PDF",-0.09874107183469982,-2.207382960935899,9.0,758.0],["PRLH",-0.10939324756788169,-2.6170758712889715,9.0,758.0],["RPA3",-0.10844942037780735,-2.5793127565966754,12.0,755.0],["STOML1",-0.09736354637055605,-2.1570309638694,16.0,751.0]]},"para":{"top":[["ADPGK",0.11842283635460626,-3.280210788174772,18.0,749.0],["AL359195.1",0.10469753931101589,-2.725013405423449,12.0,755.0],["AUNIP",0.10729959796707636,-2.8257118606844185,11.0,756.0],["C17orf78",0.10081160012092497,-2.578412131750896,11.0,756.0],["CD99L2",0.11269800838868324,-3.0413861310594834,11.0,756.0],["CEACAM16",0.10957631129211215,-2.9157353718870804,16.0,751.0],["DAZL",0.11491326875486182,-3.1323971761459335,9.0,758.0],["DCAKD",0.10365364814181471,-2.6851855881235758,12.0,755.0],["FAM102B",0.11165700455033799,-2.99926232407723,16.0,751.0],["FBXO9",0.1373141689263471,-4.140310747485407,17.0,750.0],["GHRHR",0.10839566831102831,-2.8689098470293346,15.0,752.0],["HRH3",0.13178092374611008,-3.876927069105516,25.0,742.0],["MS4A4E",0.11516017580232746,-3.142797470791773,12.0,755.0],["PI4K2A",0.12466119707023725,-3.5515714688692226,10.0,757.0],["RASL10B",0.087390016767747,-2.107675827322477,10.0,757.0],["RSRC2",0.098481641894409,-2.492796781421161,12.0,755.0],["SAA2",0.10556272440221784,-2.7581379211558965,9.0,758.0],["SMAP2",0.08546248902698696,-2.0444674085332784,8.0,759.0],["STX17",0.09860026589090913,-2.497117456440067,12.0,755.0],["SYT7",0.13403811161881576,-3.983049193300569,15.0,752.0],["TBC1D26",0.11797822747672562,-3.260909820251037,8.0,759.0],["TFB1M",0.10576607620499733,-2.766164627634697,13.0,754.0],["ZMAT4",0.12096318385847524,-3.3889491057818577,8.0,759.0]],"bottom":[["ADH1B",-0.10088015309104004,-2.581154851042309,18.0,749.0],["ARPC2",-0.09969724934582265,-2.537239165400833,11.0,756.0],["BMF",-0.08902704858965879,-2.1620539836916546,8.0,759.0],["HLA-DPB1",-0.08550417667729464,-2.045991051741199,12.0,755.0],["LRRC55",-0.09847241360712464,-2.492574555261002,16.0,751.0],["METTL21B",-0.09589534628358755,-2.399477816571728,8.0,759.0],["NIPAL3",-0.0966858286790931,-2.4279752182532035,14.0,753.0],["NME4",-0.09093541086811102,-2.226641063947961,9.0,758.0],["PDF",-0.10895298024937536,-2.8907063772105674,9.0,758.0],["PRLH",-0.1110582197673683,-2.974815866290514,9.0,758.0],["PSMF1",-0.09202309080830881,-2.2640995690521177,14.0,753.0],["RPA3",-0.10725981763541872,-2.8241966559629774,12.0,755.0],["STOML1",-0.1170132446210184,-3.22046449749489,16.0,751.0],["XK",-0.09673364873525847,-2.429660992224764,13.0,754.0]]}}}
{"depmap_damaging":{"corr":{"top":[["ANO5",0.08853448819137469,-1.8484322868749832,10.0,757.0],["BRCA2",0.1285987455984232,-3.448248124486695,29.0,738.0],["CCDC18",0.08599763455588652,-1.7642474639545385,9.0,758.0],["CSRP2",0.0839782272487954,-1.6986530668658273,8.0,759.0],["DNAH9",0.11485268977292935,-2.841140069145837,25.0,742.0],["FAM135B",0.10205852093932634,-2.331104824958953,12.0,755.0],["IDE",0.12377772279358264,-3.228272305392778,11.0,756.0],["L3MBTL3",0.11622197160125416,-2.898849173161158,10.0,757.0],["PTPN13",0.11001702460815051,-2.642190617026383,30.0,737.0],["PTPRC",0.11766712707998703,-2.96041633848873,9.0,758.0],["RFX6",0.10255411288319287,-2.3498870120406914,8.0,759.0],["RGS22",0.0836297617699417,-1.6874610648715693,10.0,757.0],["SLC4A10",0.09941736443114363,-2.232322264728394,13.0,754.0],["SPATA6",0.09394544295852889,-2.034668463106694,16.0,751.0],["TLL1",0.13201095202580546,-3.608584172030134,10.0,757.0],["ZNF236",0.10396919451291636,-2.4039461653309866,9.0,758.0]],"bottom":[["GANAB",-0.11408148060015035,-2.8089045633188583,9.0,758.0],["MYO1D",-0.10671773595073059,-2.5107697420669757,13.0,754.0],["NPHS1",-0.11426111664765523,-2.8163959047733305,12.0,755.0],["PTH2R",-0.11908882462713825,-3.021647270030497,8.0,759.0]]},"para":{"top":[["BRCA2",0.14025301262897283,-4.284441279300157,29.0,738.0],["CSRP2",0.08957767161153497,-2.180560059956051,8.0,759.0],["FAM135B",0.09779362271470823,-2.4678217784913423,12.0,755.0],["IDE",0.11371330576155428,-3.0829580222382704,11.0,756.0],["L3MBTL3",0.10937378397959188,-2.9074638982883085,10.0,757.0],["PTPRC",0.10091479299885676,-2.582148413862458,9.0,758.0],["TLL1",0.13114991230395773,-3.8470483412788945,10.0,757.0]],"bottom":[["GANAB",-0.11797543532648798,-3.2608609095929704,9.0,758.0],["INSRR",-0.09602079463884726,-2.4040062715872086,9.0,758.0],["KRT16",-0.08821560413636763,-2.1349490412360956,8.0,759.0],["MYO1D",-0.10159199987428469,-2.6075461345717432,13.0,754.0],["NPHS1",-0.10782921281861937,-2.846512572728532,12.0,755.0],["PTH2R",-0.10482123526979033,-2.729553496538124,8.0,759.0],["TRANK1",-0.09548747975099159,-2.385127447748171,11.0,756.0]]}}}
{"ccle_rppa":{"corr":{"top":[],"bottom":[["SRC_Src_pY527",-0.17722279190033668,-4.323516182961384,521]]},"para":{"top":[],"bottom":[["SRC_Src_pY527",-0.15850844496453062,-3.551474042842742,521]]}}}
{"ccle_rrbs_enhancer_clusters":{"corr":{"top":[["4-145566248-145569102-0_enh",0.15281328051357096,-2.9848482320991643,458]],"bottom":[]},"para":{"top":[],"bottom":[]}}}
{"prism_primary_logfold":{"corr":{"top":[["SKF-81297_BRD-A09828896-004-11-0::2.5::HTS",0.1715366790489041,-3.18150964811204,391],["tosufloxacin_BRD-A41450521-075-10-8::2.5::HTS",0.17261133640008072,-3.201954980413952,389],["scriptaid_BRD-K22503835-001-11-0::2.5::HTS",0.17916125561769095,-3.431110063287088,391],["primidone_BRD-K32247306-001-29-4::2.5::HTS",0.1648139765163599,-2.9569227992152127,389],["eltrombopag_BRD-K40496271-396-01-1::2.34::HTS",0.19566590705954584,-3.8179278307048987,370],["penicillin-v-potassium_BRD-K43966364-237-04-8::2.5::HTS",0.17195675983962258,-3.166959515925808,387],["vilazodone_BRD-K58010567-003-02-2::2.5::HTS",0.18276519474870567,-3.5683996933750937,393],["navitoclax_BRD-K82746043-001-15-1::2.5::HTS",0.17036913486622388,-3.144187440478738,391],["AZD1981_BRD-K83186168-001-01-8::2.5::HTS",0.17354654024594918,-3.2106467937576646,386],["PTC-209_BRD-K83834509-001-01-1::2.5::HTS",0.1787807392208438,-3.418410923859154,391],["sirolimus_BRD-K84937637-001-09-9::2.5::HTS",0.17223038137310853,-3.0559492361219696,370],["chidamide_BRD-K28537285-001-01-8::2.499968715::MTS004",0.1623690914721248,-2.825622315006983,380]],"bottom":[["mephenytoin_BRD-A83937277-001-10-5::2.5::HTS",-0.16491822438805875,-2.8693720724805742,375],["felbinac_BRD-K91740057-001-19-8::2.5::HTS",-0.15828643858160632,-2.7718126959998557,391],["GSK163090_BRD-K69669039-001-01-8::2.499979212::MTS004",-0.17023446521342775,-3.0642146297347628,380]]},"para":{"top":[["eltrombopag_BRD-K40496271-396-01-1::2.34::HTS",0.1796189403235563,-3.2862411651080112,370],["AZD1981_BRD-K83186168-001-01-8::2.5::HTS",0.16999590466832737,-3.0980140127086644,386],["sirolimus_BRD-K84937637-001-09-9::2.5::HTS",0.16663912598657918,-2.8876669362351475,370],["chidamide_BRD-K28537285-001-01-8::2.499968715::MTS004",0.16800834096341435,-2.995630786922714,380]],"bottom":[["mephenytoin_BRD-A83937277-001-10-5::2.5::HTS",-0.17847664238668867,-3.287768182518498,375],["felbinac_BRD-K91740057-001-19-8::2.5::HTS",-0.1726892949171478,-3.218588023739154,391]]}}}
{"prism_secondary_logfold":{"corr":{"top":[["olaparib_BRD-K02113016-001-19-6::10::MTS010::PROS004_PR500",0.23215880929968263,-4.7015383766105785,331],["CHIR-124_BRD-K02241333-001-02-7::10::HTS002",0.2219418200458503,-4.195415481033202,319],["vinblastine_BRD-K06519765-065-01-6::10::MTS006",0.21488761499369982,-4.166524158197255,338],["gemcitabine_BRD-K15108141-001-06-6::0.0390625::HTS002",0.21307536363125396,-3.5788818055108105,289],["belinostat_BRD-K17743125-001-08-4::10::MTS010::PROS003_PR500",0.2138755769611681,-3.9808307739290063,324],["AZD3463_BRD-K24593301-001-02-3::10.179::HTS002",0.21261613440876054,-3.9711331885080723,327],["MPI-0479605_BRD-K45551181-001-02-1::0.622627::HTS002",0.21196025697221238,-3.8646430655588775,319],["niraparib_BRD-K54955827-001-02-2::9.99992::MTS010::PROS001_PR500",0.2126134284845949,-3.9603970634391628,326],["rigosertib_BRD-K55187425-236-05-2::2.5::MTS010::PROS004_PR500",0.2304411023097974,-4.638629499473225,331],["tozasertib_BRD-K59369769-001-22-9::2.5::MTS010::PROS003_PR500",0.2200381788687508,-4.2108815880372745,326],["volasertib_BRD-K69776681-001-03-8::0.15625::MTS010::PROS003_PR500",0.21241212135067503,-3.8792907114262496,319],["tepoxalin_BRD-K89714990-001-01-5::10::MTS006",0.22449672390134848,-4.507357126320068,338],["Y-320_BRD-K96259238-001-01-4::0.625::HTS002",0.26168209717441826,-5.666439373461512,319],["Y-320_BRD-K96259238-001-01-4::2.5::HTS002",0.2072125569548284,-3.712597200000766,319],["PD-173074_BRD-K97764662-001-17-3::2.5::HTS002",0.22613794205956755,-4.339012373118394,319]],"bottom":[["latrepirdine_BRD-K55703048-001-07-7::0.000610352::HTS002",-0.19769885962608663,-2.8681395916323944,260],["nizofenone_BRD-K84011460-051-01-7::0.00976562::HTS002",-0.21483333513257596,-4.077835085379929,330]]},"para":{"top":[["butylscopolamine-bromide_BRD-A53951045-004-01-6::10::HTS002",0.2180476726903156,-4.064567420092593,319],["XL-647_BRD-K03765900-001-01-9::10::MTS006",0.21750528270550984,-4.257890342398574,338],["vinblastine_BRD-K06519765-065-01-6::10::MTS006",0.22416899989505998,-4.495485603352885,338],["gemcitabine_BRD-K15108141-001-06-6::0.0390625::HTS002",0.21869164198668398,-3.747416331596471,289],["cyproheptadine_BRD-K28143534-001-02-2::10::HTS002",0.21790064532081807,-4.2606370813747425,337],["docetaxel_BRD-K30577245-001-05-0::0.0391::MTS010::PROS005_PR500",0.22437132035892865,-4.384685567365164,328],["verubulin_BRD-K42673188-001-01-1::10::MTS006",0.21755577545995192,-4.259663590760819,338],["rigosertib_BRD-K55187425-236-05-2::2.5::MTS010::PROS004_PR500",0.24637307332786432,-5.240604604010567,331],["volasertib_BRD-K69776681-001-03-8::0.15625::MTS010::PROS003_PR500",0.23176960446546213,-4.536011144467959,319],["dovitinib_BRD-K85402309-043-01-9::2.5::MTS010::PROS001_PR500",0.20833482342896323,-3.8199227403717266,326],["tepoxalin_BRD-K89714990-001-01-5::10::MTS006",0.22279677294946607,-4.445968296082782,338],["PD-173074_BRD-K97764662-001-17-3::2.5::HTS002",0.21653938120385632,-4.0145081900184625,319]],"bottom":[["latrepirdine_BRD-K55703048-001-07-7::0.000610352::HTS002",-0.20003181681391916,-2.926652920206019,260],["nizofenone_BRD-K84011460-051-01-7::0.00976562::HTS002",-0.19811729416293622,-3.5329149078649835,330],["OLDA_BRD-K95523387-001-09-6::0.625::HTS002",-0.19927670909463158,-3.1640430261642063,287]]}}}
{"ccle_proteomics":{"corr":{"top":[["MCCC2_Q9HCC0",0.2536965125999769,-4.5028983063070545,263],["RGS3_P49796",0.24360006250229013,-2.877960046479005,171],["JMJD8_Q96S16",0.28500445851886536,-3.2119724707059656,141]],"bottom":[["IGF2BP2_Q9Y6M1",-0.233520780709739,-3.8782122679703175,263],["ARL6IP6_Q8N6S5",-0.2367869913427302,-3.8295404816341474,252],["LOXL1_Q08397",-0.41327578185421654,-5.269268451220266,113],["BAP1_Q92560",-0.2552342544528635,-4.552701124543162,263]]},"para":{"top":[["GM2A_P17900",0.22431155895091348,-3.610502331588462,263]],"bottom":[["LOXL1_Q08397",-0.4054070913526585,-5.075123282745839,113],["GJA1_P17302",-0.27564340306585317,-4.578525136702447,226]]}}}
{"depmap_copy_number":{"corr":{"top":[],"bottom":[]},"para":{"top":[["MIR1294_100302181",0.2010082717545385,-7.725466851481938,769],["SAP30L-AS1_386627",0.2010082717545385,-7.725466851481938,769]],"bottom":[]}}}
{"depmap_gene_tpm":{"corr":{"top":[["CCL17_6361",0.16763521040606486,-5.497809188254992,764],["REEP5_7905",0.19452452667714148,-7.224312958272668,764],["BPIFA2_140683",0.1538604985716345,-4.711413086268501,764],["DPPA2_151871",0.15408178467069025,-4.723531092519366,764],["MUCL1_118430",0.18750577971027427,-6.748855400735993,764],["NAALADL2_254827",0.14267050099540793,-4.120311640353229,764],["HSFX4_101927685",0.15292758494245492,-4.660508840923101,764]],"bottom":[["KDM1A_23028",-0.17390691461782554,-5.877655369755743,764],["KLHL29_114818",-0.162003119863956,-5.168367587336776,764],["CAMSAP1_157922",-0.1733701267801723,-5.844606260517182,764],["TSTD2_158427",-0.16963451473347946,-5.617405538218589,764],["CFDP1_10428",-0.1791534763040889,-6.206013708443595,764],["ZSCAN2_54993",-0.17287558322212376,-5.814247499385324,764]]},"para":{"top":[["CHAC1_79094",0.139317222503377,-3.9514017841428433,764],["REEP5_7905",0.17901353845692503,-6.197129623756388,764],["CDSN_1041",0.15874261411879304,-4.982658693436993,764]],"bottom":[["CAMKK1_84254",-0.1652924470201173,-5.359436773938243,764],["SET_6418",-0.16350649690965094,-5.255230721573594,764],["TCP1_6950",-0.16233514083611006,-5.187484134412106,764],["CAMSAP1_157922",-0.15932605384644546,-5.015620867500519,764],["ACAP3_116983",-0.1603547733732172,-5.074024946147266,764],["BRD3_8019",-0.16175360159829585,-5.154026289274899,764],["ZSCAN2_54993",-0.17179597846096745,-5.748271054065974,764],["SULT1C4_27233",-0.1593686081584624,-5.018029607549663,764],["GTF2I_2969",-0.16561284040331736,-5.378247922260206,764]]}}}
{"avana":{"corr":{"top":[["NHP2_55651",0.274942060775239,-14.077969763022699,769],["OSGEP_55644",0.273107163126393,-13.894070457169235,769],["ZPR1_8882",0.2668605161506788,-13.278401070707588,769]],"bottom":[["NAXE_128240",-0.18308056598565903,-6.496501875034044,769],["RAP1B_5908",-0.19479923163974003,-7.2866229570458465,769],["UNC119_9094",-0.18784648804226803,-6.811863385769387,769],["RBM42_79171",-0.20099528678883594,-7.724534367232825,769],["SHCBP1_79801",-0.17537000140038225,-6.003485843459006,769],["CCDC174_51244",-0.21801181788371962,-9.000117644576463,769]]},"para":{"top":[["CIAO1_9391",0.29106692042740717,-15.754535979541732,769],["CDIPT_10423",0.2909543998238455,-15.742456321114725,769],["NHP2_55651",0.2598759981609335,-12.608857858566443,769],["OSGEP_55644",0.24123333463257193,-10.917438574779755,769],["ZPR1_8882",0.24534197638919364,-11.278393721376382,769]],"bottom":[["TICRR_90381",-0.20969998187209268,-8.243161984709404,757],["RAP1B_5908",-0.18420983467669572,-6.57048868097675,769],["UNC119_9094",-0.17105518477907583,-5.736795457288806,769],["NUP107_57122",-0.16860448612327425,-5.588242698592633,769],["FBXO5_26271",-0.16828177644717532,-5.5688382811061246,769],["RBM42_79171",-0.19139345769326957,-7.051876332060773,769],["AKIRIN2_55122",-0.17261453183066983,-5.750418158043079,757],["CDC40_51362",-0.16823745538024118,-5.488191850453617,757],["NUP98_4928",-0.18225408053910155,-6.44264197330805,769]]}}}
{"drive":{"corr":{"top":[["BPGM_669",0.22619282031819027,-3.700742664385424,266]],"bottom":[["CLK2P1_1197",-0.23612595055730617,-3.995510047266009,266],["CTR9_9646",-0.21505539065247528,-3.3852235573356046,266],["XPO1_7514",-0.21432867383193316,-3.365179570963298,266],["RECQL4_9401",-0.2541690246699044,-4.594431370214032,268],["WDHD1_11169",-0.2214584505712355,-3.622922540835074,271],["PPAN_56342",-0.24561308390076222,-4.360273191536393,271],["NUP98_4928",-0.23216968780582523,-3.876581997798179,266],["TMEM141_85014",-0.22424332221735138,-3.668245304084777,268],["DDX3X_1654",-0.25053146178800834,-4.475503993895599,268],["MAPK8IP1_9479",-0.22368459729716642,-3.68767480840686,271],["FOXA1_3169",-0.2717068203152978,-5.245395488076335,271]]},"para":{"top":[["ZIC2_7546",0.21590055539420822,-3.464049336028152,271],["BPGM_669",0.27115419622055276,-5.138998061824863,266],["NR3C2_4306",0.22760640575077357,-3.8033146484320364,271],["GNAI1_2770",0.2496274506671193,-4.534459458015842,274],["CEACAM7_1087",0.24498148335787628,-4.340005357400607,271]],"bottom":[["ADSL_158",-0.23198537047125992,-3.973010676545486,274],["CLK2P1_1197",-0.22941592313974535,-3.7949960463047585,266],["XPO1_7514",-0.24902921960946928,-4.397616326556158,266],["RECQL4_9401",-0.21810398907356418,-3.492649773659823,268],["WDHD1_11169",-0.2133973425288854,-3.393788304824199,271],["PPAN_56342",-0.23740674053479938,-4.101105212504216,271],["ARL1_400",-0.23132885173244297,-3.8769213594688128,268],["NUP98_4928",-0.2169044100897758,-3.436521078455997,266],["DDX3X_1654",-0.24089107600982784,-4.168899665863536,268],["MAPK8IP1_9479",-0.23090881382728543,-3.9022483372285093,271]]}}}
{"achilles":{"corr":{"top":[["SENP6_26054",0.22621878695537748,-4.749785200151696,353],["DBP_1628",0.2047687796850728,-3.971688538871909,353],["CNKSR2_22866",0.21007417764202918,-4.1569493154144315,353],["LINC00523_283601",0.2418821097855535,-3.3787684179116915,209]],"bottom":[["KANSL1L_151050",-0.2435493993196514,-3.4200463245297046,209],["DAPK1_1612",-0.22009454430612124,-4.519704084318554,353],["SPDYE18&SPDYE16_100505767&102723555",-0.25784245577194326,-3.7856936391854514,209],["C17orf64_124773",-0.26566113328279456,-3.9947805696863314,209],["IFIT2_3433",-0.22956038763775877,-3.082464631244559,209],["TTC39C_125488",-0.2882660003859502,-4.636411367836466,209],["FCHSD2_9873",-0.2567383729121639,-3.756689346687812,209],["BEND6_221336",-0.22489032077934917,-2.97414522972704,209]]},"para":{"top":[["SENP6_26054",0.21404559075398763,-4.298700869663999,353],["TMEM27_57393",0.2673216309165972,-4.040023795448924,209],["DBP_1628",0.2148182572966749,-4.326587043731502,353],["LINC00523_283601",0.2636654765168486,-3.9407953605823773,209]],"bottom":[["KANSL1L_151050",-0.25167621696595993,-3.6253426829786055,209],["F8A1_8263",-0.23302749580593082,-3.1642905435122044,209],["DAPK1_1612",-0.20829199381264002,-4.094194698868945,353],["SPDYE18&SPDYE16_100505767&102723555",-0.23127953083478914,-3.1228868834142074,209],["C17orf64_124773",-0.28491695566882075,-4.537805363835203,209],["TTC39C_125488",-0.280467510485806,-4.408726349720433,209],["RETSAT_54884",-0.21405872496560466,-4.299174055769569,353],["FCHSD2_9873",-0.25210555978919363,-3.636378855414772,209]]}}}
{"ccle_rrbs_tss1kb":{"corr":{"top":[["PSPN_19_6375927_6376927",0.20351634546393402,-5.040877477293673,468],["MIR1470_19_15559358_15560358",0.19095397967274855,-4.493894647571868,468],["ZNF396_18_32957301_32958301",0.18477936728674313,-4.213735127186064,465],["SAP130_2_128785694_128786694",0.19060319371173004,-4.479115376298212,468],["SEPT5-GP1BB_22_19704991_19705991",0.18252719860714792,-4.146206838114974,468],["SEPT5_22_19704957_19705957",0.1856626650248886,-4.257709313961533,466],["MIR202HG_10_135061389_135062389",0.18661703331749885,-4.296801395330327,466],["MIR202_10_135061124_135062124",0.19159938836007245,-4.486967970700138,464],["LOC285095_2_242844774_242845774",0.18475678177732233,-4.188917826125101,462]],"bottom":[["USP46_4_53522759_53523759",-0.2384137830119846,-5.465922669234336,371],["SCAMP5_15_75286875_75287875",-0.14337941700049495,-2.624018044790126,447],["LOC101929128_8_9045508_9046508",-0.23979277739159138,-3.9714087546301466,256]]},"para":{"top":[["PSPN_19_6375927_6376927",0.1796297128205755,-4.030180021190292,468],["CAMP_3_48263836_48264836",0.18662669040209878,-3.5788080910424696,378],["CTDSPL_3_37902668_37903668",0.17943115951688268,-4.007242447597736,466],["SERTAD3_19_40950282_40951282",0.19253156812880817,-4.526178581179361,464]],"bottom":[["CDAN1_15_43029326_43030326",-0.1563015686566819,-3.1432291784116932,465],["CRADD_12_94071544_94072544",-0.19293403335502593,-4.361005462415809,443],["CCDC174_3_14692252_14693252",-0.1640360431791466,-3.3030708602446652,447]]}}}
{"ccle_gene_tpm":{"corr":{"top":[["ZNF877P_ENSG00000226875.1",0.158252146052397,-3.840482700112969,572],["CTB-119C2.1_ENSG00000273237.1",0.16728915996467042,-4.236177795927089,572],["C5orf27_ENSG00000236882.3",0.167496514423977,-4.245503017493926,572],["NAALADL2_ENSG00000177694.10",0.166355941816877,-4.194345900649982,572],["XIAP-AS1_ENSG00000237331.1",0.18080137395752266,-4.867181472404983,572],["RP11-561I11.4_ENSG00000272865.1",0.1593208851933076,-3.8861900743249786,572],["RP11-231E19.1_ENSG00000260059.1",0.16622640350057963,-4.18855701722215,572],["MUCL1_ENSG00000172551.6",0.18576890673234212,-5.111178127438493,572]],"bottom":[["CFDP1_ENSG00000153774.4",-0.18891594687695218,-5.269134647505221,572],["TCEB1P2_ENSG00000259838.1",-0.15978303526136436,-3.9060452066115356,572],["ZSCAN2_ENSG00000176371.9",-0.19494104882811733,-5.578911741185669,572],["RN7SL758P_ENSG00000266164.1",-0.16772944999032394,-4.255991904639534,572],["SET_ENSG00000119335.12",-0.16265648988744486,-4.030719281345521,572]]},"para":{"top":[["RP11-39K24.7_ENSG00000236567.2",0.15902514145606914,-3.8735127321781597,572],["DUXAP7_ENSG00000232136.2",0.15676276891411814,-3.777270133085396,572],["RP11-799P8.1_ENSG00000258977.1",0.1684533202574881,-4.288676502439974,572]],"bottom":[["CFDP1_ENSG00000153774.4",-0.16905810547187594,-4.3160878420333475,572],["F11_ENSG00000088926.9",-0.16093504326521696,-3.9557754908373206,572],["ZSCAN2_ENSG00000176371.9",-0.18031816641688592,-4.843794208442813,572],["CREB3L3_ENSG00000060566.9",-0.17092741026931793,-4.401410375397495,572],["AC093642.6_ENSG00000232002.1",-0.14662783918672512,-3.3620080898912645,572]]}}}
{"ccle_rrbs_tss_clusters":{"corr":{"top":[["GMCL2_1",0.20161510505721764,-4.880333766539484,460],["UBASH3B_2",0.21627752157103705,-5.6972574835985625,474],["ALPG_1",0.20255681915151655,-5.007400187235004,469]],"bottom":[["LOC101929128_3",-0.23676866436559177,-3.8955046732363674,257],["LOC101929128_2",-0.20531455430363932,-3.041375766210075,258],["SRD5A3_3",-0.19769777823170873,-2.9431147654326244,268],["USP46_3",-0.23659848608093792,-5.454889526178996,376],["LRTOMT_3",-0.19904493455136857,-4.288277878891858,408],["HSD17B7P2_1",-0.2180098355796414,-2.749542307744726,203],["MTIF2_2",-0.21030151604529135,-4.444778015289948,380],["NEAT1_2",-0.2222876095792112,-5.062962566545211,393],["USP46-AS1",-0.19332528083521391,-3.922140856813639,391]]},"para":{"top":[["TWSG1_1",0.23970481904872865,-4.4438810853036355,291],["NCDN",0.20310118595024587,-4.465331615126213,410],["ASB9_1",0.23929202805539648,-2.762411341715904,169]],"bottom":[["LOC101929128_3",-0.20143641784284738,-2.9330062125143206,257],["PLEKHH2_1",-0.19195522035167775,-2.664646915969355,253],["TAOK1_1",-0.2539565793241169,-3.7303988744560437,212],["TINAGL1_1",-0.23334017915059133,-3.5883234895271845,241]]}}}
{"ccle_rrbs_cgi_clusters":{"corr":{"top":[["20_48327645_48330163-1",0.21055886809142338,-5.393574930188386,471],["23_282843_287050-3",0.2532861890325199,-3.034234682415286,168],["8_7077069_7081671-1",0.21777938187063745,-3.8879111247746163,304],["14_34266946_34269692-2",0.28550600656745095,-3.617153466755122,161],["9_139903818_139908459-3",0.21202885351773604,-3.7076261629188854,304],["19_28294843_28299103-2",0.28129979689229295,-2.5555193142998895,111],["12_132651023_132655236-1",0.21190387613359776,-2.8036378359959424,220]],"bottom":[["4_56210294_56215063-3",-0.19769777823170873,-2.9431147654326244,268],["17_73105948_73108667-3",-0.22152482282174105,-3.297770077975318,243],["2_55494073_55498565-2",-0.21030151604529135,-4.444778015289948,380],["11_71789385_71793960-3",-0.19904493455136857,-4.288277878891858,408],["11_65187463_65192295-2",-0.2222876095792112,-5.062962566545211,393],["10_38643112_38647513-1",-0.2180098355796414,-2.749542307744726,203]]},"para":{"top":[["1_1598981_1603231-3",0.22006123523614912,-3.1554322020745365,234],["18_9331896_9336244-1",0.23970481904872865,-4.4438810853036355,291],["10_47081341_47085633-2",0.24842980896532382,-2.723059055022749,154]],"bottom":[["2_96810949_96813454-2",-0.21546176269966885,-2.929980227941664,224],["17_73105948_73108667-3",-0.22795175636606266,-3.467898700353378,243],["17_27715135_27720037-1",-0.2539565793241169,-3.7303988744560437,212],["2_43862322_43866956-1",-0.19195522035167775,-2.664646915969355,253]]}}}
