{"depmap_hotspot":{"corr":{"top":[["AAK1",0.12247801893755011,-3.1702772934315493,35.0,732.0],["ADAP2",0.12160876877777885,-3.1317989040322742,11.0,756.0],["AMOTL1",0.12111206408118792,-3.1099227478076528,42.0,725.0],["ANO8",0.12926372646061382,-3.4791922042912518,50.0,717.0],["ANTXR1",0.13110502235815857,-3.5656389513261852,23.0,744.0],["AP000350.4",0.11871973396943016,-3.0056876561365713,13.0,754.0],["ARHGAP11A",0.13366261515708067,-3.687582803126642,40.0,727.0],["ARHGAP12",0.14614711231380867,-4.314261099018048,25.0,742.0],["ARIH2",0.13774858960552588,-3.8869234835699644,25.0,742.0],["ATL1",0.11808048814726853,-2.9781514615359823,13.0,754.0],["BIN3",0.1277584178428442,-3.4093536435395038,11.0,756.0],["C1orf170",0.1443349050174255,-4.2200376688080095,21.0,746.0],["CDC20B",0.12763423770631324,-3.4036257673814716,16.0,751.0],["CDH13",0.12633456589871975,-3.3439831018909327,47.0,720.0],["CELA2A",0.1266959550837333,-3.3605115219231543,18.0,749.0],["COG7",0.12472632218785636,-3.27095056363028,32.0,735.0],["COPS7A",0.13679316504870845,-3.8398116754760343,11.0,756.0],["CORO7",0.11968585284027664,-3.047557045848885,51.0,716.0],["DBT",0.1191776868215479,-3.025496337972076,23.0,744.0],["DDX52",0.13016856483976652,-3.5215328993802992,19.0,748.0],["EPHA1",0.13276121250737577,-3.6443564299714097,43.0,724.0],["ETNK2",0.13233450876621364,-3.6239883331081817,17.0,750.0],["FGFR2",0.14024610579103994,-4.011521424306773,42.0,725.0],["FOLR1",0.13804374554430374,-3.901539390842478,17.0,750.0],["GDPD2",0.11732780029678848,-2.945899189264764,16.0,751.0],["GREM1",0.1271139128247295,-3.379680865337819,10.0,757.0],["HAUS6",0.12235895194403884,-3.1649920206871807,33.0,734.0],["HGF",0.11930378823334031,-3.0309628440170187,60.0,707.0],["HMGCS2",0.1249283173951271,-3.2800766934682284,26.0,741.0],["HTR2A",0.15029766223457877,-4.534263880557044,22.0,745.0],["IL13RA1",0.13282496527279714,-3.647404778330361,12.0,755.0],["INTS2",0.1334727383934523,-3.678454853050656,53.0,714.0],["KCNJ11",0.12112067213000598,-3.1103011811542283,18.0,749.0],["KLHL29",0.13506110449596906,-3.7551826298031297,44.0,723.0],["KRT80",0.12514255746420225,-3.2897707124208826,19.0,748.0],["MARCH11",0.12297359767160944,-3.1923254994312376,28.0,739.0],["MEX3A",0.12909888990958868,-3.471508094567789,24.0,743.0],["MPV17L2",0.12119768963292349,-3.113688159620242,14.0,753.0],["NCL",0.13990794126954562,-3.994528212526889,26.0,741.0],["NPR1",0.1174736222959996,-2.9521331866918525,44.0,723.0],["NRIP3",0.12604895370541638,-3.330950860035883,16.0,751.0],["OR52N5",0.12021475118679631,-3.0706073096971562,23.0,744.0],["OTOF",0.1252739603756366,-3.295723955352371,89.0,678.0],["PAX2",0.12789218655054468,-3.415529496622754,17.0,750.0],["PEAR1",0.1226526410833828,-3.1780370123702197,49.0,718.0],["PLRG1",0.12855651884672611,-3.446288093326216,17.0,750.0],["RASGEF1C",0.1310929731012769,-3.5650695977550986,17.0,750.0],["RBM20",0.12021894917901596,-3.070790630557308,57.0,710.0],["RECK",0.13279591808754282,-3.6460157149555754,41.0,726.0],["SEMA4B",0.12070145323950959,-3.0918993201195355,35.0,732.0],["SERPING1",0.12997010214593138,-3.51222288249243,28.0,739.0],["SKAP1",0.13916244734541597,-3.9572018993225733,17.0,750.0],["SLC16A10",0.12146817095244282,-3.1255984211127434,18.0,749.0],["SLC17A6",0.12761730719619546,-3.4028452329423162,43.0,724.0],["SLX4IP",0.11885815524390599,-3.0116678376286283,19.0,748.0],["SNIP1",0.11926621172004877,-3.02933335671495,13.0,754.0],["SURF6",0.13468735277233146,-3.737052443454152,14.0,753.0],["TCHHL1",0.1223592358461802,-3.1650046173124684,46.0,721.0],["TMEM140",0.13711936196271524,-3.8558620226729956,13.0,754.0],["TNNI2",0.11861541777647634,-3.001185034884713,14.0,753.0],["TUBGCP4",0.11942560181406577,-3.036248397919042,22.0,745.0],["ZCCHC4",0.11846371332682581,-2.994643312769658,31.0,736.0],["ZNF414",0.12111742698364487,-3.110158512806923,15.0,752.0]],"bottom":[["DDO",-0.13150949096272344,-3.5847789360420697,18.0,749.0],["OR6M1",-0.10206046193839408,-2.3311782337794864,26.0,741.0],["PRR23B",-0.10079711340453554,-2.283650983129196,24.0,743.0],["SERTAD2",-0.11803614151953754,-2.9762461202036534,12.0,755.0],["TMTC2",-0.09367787598829676,-2.0252446217528646,54.0,713.0]]},"para":{"top":[["ADAP2",0.12985876425810738,-3.7872541132161235,11.0,756.0],["AP000350.4",0.11821965370390358,-3.271424731960169,13.0,754.0],["ARRDC3",0.11710538744393344,-3.2242161988667606,12.0,755.0],["ATL1",0.12148135744298481,-3.4117281094829623,13.0,754.0],["BIN3",0.10871090295444162,-2.8812246806867994,11.0,756.0],["C16orf90",0.09727828586409033,-2.4490796479595875,9.0,758.0],["CCDC85B",0.1157768012006473,-3.1684794284439444,12.0,755.0],["CELA2A",0.12843864827855941,-3.722274486622805,18.0,749.0],["COPS7A",0.1332761001596365,-3.9468043438342146,11.0,756.0],["CTSV",0.10612082618247858,-2.779857381742867,12.0,755.0],["FIS1",0.10405284031999326,-2.7002914393832396,10.0,757.0],["GDPD2",0.12265766519666926,-3.463239879911196,16.0,751.0],["GREM1",0.12728239683942308,-3.6693416209329874,10.0,757.0],["GZMM",0.11728447990458657,-3.2318101756907818,13.0,754.0],["HTR2A",0.14495809842217047,-4.520419383178327,22.0,745.0],["IL13RA1",0.11345177527489661,-3.0722615126994244,12.0,755.0],["KCNK12",0.10177717793684626,-2.6143963523341185,11.0,756.0],["LYN",0.11729402804764917,-3.2322476762572405,14.0,753.0],["LYSMD4",0.1034363192803423,-2.6768965950030195,11.0,756.0],["MPV17L2",0.1260696359964607,-3.6147626721138186,14.0,753.0],["MRPS10",0.09744233019101124,-2.454995256864051,9.0,758.0],["MRPS27",0.11241028970463729,-3.029615041648088,10.0,757.0],["NIPA2",0.10532462609591736,-2.7490143095709922,10.0,757.0],["NIPSNAP3B",0.10259937086179431,-2.6452178955655095,10.0,757.0],["NRIP3",0.1362130470742991,-4.087066515248303,16.0,751.0],["PAGR1",0.09433023895034069,-2.3441129848146462,8.0,759.0],["PDIK1L",0.1206715786097936,-3.376500596859394,11.0,756.0],["PPP2R2A",0.12403792444560727,-3.5241221810014607,16.0,751.0],["PRRG3",0.12024736173210587,-3.358351945125531,16.0,751.0],["RILPL2",0.1035459120643832,-2.680894723367167,8.0,759.0],["RNF5",0.1205341457834993,-3.370505173646956,10.0,757.0],["RP11-385D13.1",0.09867725457017205,-2.4997323110911647,8.0,759.0],["SF3B14",0.09044690499662465,-2.209961279642872,8.0,759.0],["SKAP1",0.13343408084236877,-3.9544943947366744,17.0,750.0],["SNIP1",0.12248495859347136,-3.455567072279424,13.0,754.0],["SURF6",0.13163411923217327,-3.869813274931486,14.0,753.0],["TBC1D13",0.10462616665878167,-2.7222796218434695,12.0,755.0],["TMEM140",0.1200900013025376,-3.3514721493192456,13.0,754.0],["TMEM88",0.12380300485279741,-3.5133471344044196,8.0,759.0],["TNNI2",0.13603292020902116,-4.078330768647887,14.0,753.0],["TRIM43",0.11577551600817541,-3.168206399287463,8.0,759.0],["UBE2M",0.10105130538327091,-2.587222671399927,9.0,758.0],["ZNF414",0.11885653936662308,-3.298625756262315,15.0,752.0],["ZNF717",0.1071260515218484,-2.818928012452455,11.0,756.0]],"bottom":[["ASF1B",-0.08717215322968509,-2.1003867439762436,8.0,759.0],["DDO",-0.11682782559196032,-3.212706428414632,18.0,749.0],["GDF9",-0.09395500071340092,-2.3313016169465897,19.0,748.0],["KIAA0087",-0.10505287747925811,-2.7384453526538524,8.0,759.0],["SERTAD2",-0.10652414700633325,-2.79551227990351,12.0,755.0],["SLC52A3",-0.10165087244052219,-2.609908078528999,20.0,747.0],["SUMF1",-0.13133753911764415,-3.8560078950440744,15.0,752.0]]}}}
{"depmap_damaging":{"corr":{"top":[["ACADVL",0.09937036640167925,-2.2305844708032287,17.0,750.0],["AMOTL1",0.10079800334163412,-2.2836842845561014,9.0,758.0],["AP3D1",0.12439992986965508,-3.256232536292878,10.0,757.0],["ARHGAP12",0.0999713336709708,-2.2528583870552703,8.0,759.0],["ATAD3C",0.12322834067440423,-3.2036903118347353,8.0,759.0],["ATR",0.11298236265117281,-2.7632954901522564,21.0,746.0],["CDH1",0.10962214602615761,-2.626277342172301,11.0,756.0],["COL12A1",0.09917408830481025,-2.2233344570172564,15.0,752.0],["CSMD1",0.11240639635359946,-2.7395510427327197,33.0,734.0],["DBN1",0.11680053161385058,-2.9234157682237885,27.0,740.0],["DIAPH3",0.10136221676459467,-2.304847650779684,12.0,755.0],["GOLGB1",0.11857745960824496,-2.9995475186367107,14.0,753.0],["INTS2",0.1109300164085587,-2.6791754588621144,21.0,746.0],["KDM4B",0.0976606104249022,-2.167838814177683,10.0,757.0],["LAIR1",0.09544672274858924,-2.087960161730505,19.0,748.0],["NAV3",0.11053529940128098,-2.663152753435144,29.0,738.0],["NFIC",0.10285161322269265,-2.3611993003783422,8.0,759.0],["NLRP1",0.1189837105099832,-3.017097574242992,13.0,754.0],["NSUN6",0.10700258627213302,-2.5219786162243563,11.0,756.0],["OR6C75",0.10635015106289565,-2.4963436134806063,12.0,755.0],["PCDHB11",0.13186583205454594,-3.601686481856403,9.0,758.0],["PLCB3",0.10216371418239953,-2.33508497013351,10.0,757.0],["PRKG2",0.11947540830997752,-3.0384109217807604,9.0,758.0],["RBM5",0.10200957049029094,-2.3292539083959407,10.0,757.0],["RBM6",0.09316478674998857,-2.0072360078211116,18.0,749.0],["RP1",0.1119932801246118,-2.7225861065304553,21.0,746.0],["SBF2",0.11899994985236675,-3.0178002327986713,12.0,755.0],["SCN5A",0.11880317502970644,-3.0092917927873093,11.0,756.0],["SH3GL2",0.0930763670387879,-2.004140930535271,9.0,758.0],["SLC4A8",0.10770117499356638,-2.5495780706450546,9.0,758.0],["SMCHD1",0.0986158363809956,-2.202780562640411,13.0,754.0],["SYNJ2",0.12138131043085612,-3.121771031753187,15.0,752.0],["UBR4",0.11139583127503494,-2.698148777401069,15.0,752.0],["USH1C",0.12019213179046456,-3.0696196491522447,8.0,759.0],["ZMYM4",0.11694833395028566,-2.929709135297914,10.0,757.0],["ZNF845",0.11318413802927815,-2.771639107576445,8.0,759.0]],"bottom":[["FAM178B",-0.10720330225607229,-2.529892393992985,11.0,756.0],["GPR75",-0.11382483519410184,-2.798219826534122,9.0,758.0]]},"para":{"top":[["AEBP1",0.09719926925942937,-2.4461741255091707,8.0,759.0],["AP5B1",0.11589143642470427,-3.1730473676239828,8.0,759.0],["ATAD3C",0.10186506602471505,-2.6175280117708914,8.0,759.0],["CDH1",0.11138533974694269,-2.988112433019267,11.0,756.0],["DIAPH3",0.10422284583492698,-2.7068607187898053,12.0,755.0],["GOLGB1",0.12061512278516934,-3.374177973039854,14.0,753.0],["HDAC4",0.10507693699132518,-2.7395718162598746,12.0,755.0],["IL3RA",0.1004771502390478,-2.5659194962353373,9.0,758.0],["KDM4B",0.09883592315752915,-2.5056322207144053,10.0,757.0],["NFRKB",0.1096766717961781,-2.9195675660894214,11.0,756.0],["NLRP1",0.11053298125585889,-2.9538845857707074,13.0,754.0],["NR1H2",0.10348183446141511,-2.6785778876105706,10.0,757.0],["PCDHB11",0.1206546024503178,-3.375654552159209,9.0,758.0],["PRKG2",0.1126984525946544,-3.0412991244282326,9.0,758.0],["RAD51AP2",0.09870614909876138,-2.500896372033568,10.0,757.0],["RASAL2",0.09868019428700783,-2.499949821014695,10.0,757.0],["RBM5",0.10145735914463799,-2.602401488055096,10.0,757.0],["SBF2",0.11003541064930375,-2.933925223199213,12.0,755.0],["SCN5A",0.10900806259805285,-2.892991755029773,11.0,756.0],["SIN3A",0.10066413268326774,-2.572980152599724,12.0,755.0],["SLC4A8",0.11056587634468279,-2.9550225725650554,9.0,758.0],["SORCS3",0.10236577755601234,-2.6364273917865466,10.0,757.0],["SYNJ2",0.11743196188226461,-3.2381048702061244,15.0,752.0],["TBX4",0.10026343780397454,-2.5580670496061386,10.0,757.0],["TRPM3",0.09612700540653762,-2.4077361108719098,8.0,759.0],["UBR4",0.12283259891251905,-3.470894019725666,15.0,752.0],["USH1C",0.09734416978009042,-2.451395392663584,8.0,759.0],["ZMYM4",0.1084392035063437,-2.87044266612539,10.0,757.0]],"bottom":[["GPR75",-0.10083257961404304,-2.5790952491275068,9.0,758.0],["MAGI2",-0.10075657922729205,-2.576326079187056,10.0,757.0],["NBR1",-0.11218667138362214,-3.020889383411773,24.0,743.0]]}}}
{"ccle_rppa":{"corr":{"top":[["MDM2_MDM2_pS166",0.1547957833610061,-3.407996178839598,521]],"bottom":[]},"para":{"top":[],"bottom":[["ACVRL1_ACVRL1_Caution",-0.1578191289843086,-3.5245949961127927,521]]}}}
{"ccle_rrbs_enhancer_clusters":{"corr":{"top":[["4-1611479-1616106-1_enh",0.1962182862854755,-4.70995234693281,467],["16-54351015-54353685-0_enh",0.22382813364203757,-5.651200141033171,438],["18-20047644-20051274-0_enh",0.20178748232316418,-4.308963724265732,399]],"bottom":[]},"para":{"top":[],"bottom":[]}}}
{"prism_primary_logfold":{"corr":{"top":[["estradiol_BRD-K18910433-001-36-6::2.58::HTS",0.161230927187111,-2.7297562405996563,370]],"bottom":[["lobendazole_BRD-K15834839-001-02-3::2.5::HTS",-0.16663681435630046,-3.026469359287662,391],["bisacodyl_BRD-K39987650-001-24-1::2.5::HTS",-0.20806329377672372,-4.471561950050662,391],["oxyquinoline_BRD-K66808046-065-03-7::2.5::HTS",-0.17995756521103035,-3.3353367540370518,375],["sivelestat_BRD-K02152879-414-02-1::2.500013375::MTS004",-0.17747125321163218,-3.292973877365314,380]]},"para":{"top":[["2-PMDQ_BRD-A04661934-001-02-9::2.5::HTS",0.16336062583961103,-2.9378389574374215,393],["sotalol_BRD-A33168282-003-18-0::2.5::HTS",0.1782821432093619,-3.3867934766958445,389],["bemesetron_BRD-A85587465-001-03-3::2.5::HTS",0.15662618327260883,-2.734348474095879,393]],"bottom":[["astragaloside-a_BRD-K08188887-001-02-4::2.5::HTS",-0.16903769306387179,-3.101915813110846,391],["SANT-2_BRD-K35781423-001-01-6::2.5::HTS",-0.17371461138724478,-3.251766534343023,391],["bisacodyl_BRD-K39987650-001-24-1::2.5::HTS",-0.19071951315848318,-3.8291089537977365,391],["sivelestat_BRD-K02152879-414-02-1::2.500013375::MTS004",-0.20732504411713842,-4.332496567073377,380]]}}}
{"prism_secondary_logfold":{"corr":{"top":[["famotidine_BRD-K00673382-001-18-9::0.625::HTS002",0.2056512628344464,-3.181412498635452,271],["7-nitroindazole_BRD-K04430056-236-02-1::0.0024414::HTS002",0.18142383637765583,-3.0391258023018595,331],["saracatinib_BRD-K19540840-001-09-4::0.00061034::HTS002",0.19950701322796602,-3.642394097231711,337],["AEE788_BRD-K40718343-001-02-6::0.15625::HTS002",0.21369337972572847,-4.114473978179613,337],["cytochlor_BRD-K48988407-001-01-2::0.0390625::HTS002",0.17997463008046657,-3.0437426722754055,337],["ruxolitinib_BRD-K53972329-001-07-0::0.00061::MTS010::PROS003_PR500",0.20131864840347688,-3.5956308399518515,326],["volasertib_BRD-K69776681-001-03-8::10::MTS010::PROS003_PR500",0.18555849918615894,-3.1106695674133746,325]],"bottom":[["repaglinide_BRD-K82846253-001-15-4::10::HTS002",-0.2048870891442064,-3.8176840214520293,337]]},"para":{"top":[["famotidine_BRD-K00673382-001-18-9::0.625::HTS002",0.20415516164908645,-3.1412661658851415,271],["7-nitroindazole_BRD-K04430056-236-02-1::0.0024414::HTS002",0.18654114376953318,-3.1888758105558437,331],["saracatinib_BRD-K19540840-001-09-4::0.00061034::HTS002",0.183430288476238,-3.1453970698363176,337],["AEE788_BRD-K40718343-001-02-6::0.15625::HTS002",0.21901275609091445,-4.299748382073594,337],["volasertib_BRD-K69776681-001-03-8::10::MTS010::PROS003_PR500",0.19381979585530817,-3.355242083325711,325],["bortezomib_BRD-K88510285-001-17-8::0.000153::MTS010::PROS005_PR500",0.17331742726756963,-2.788292571815814,328],["SRT1720_BRD-K95926480-003-03-6::0.15625::HTS002",0.17911105962022386,-2.9880318527673957,333]],"bottom":[["tanshinone-i_BRD-K34073885-001-09-3::0.0397555::HTS002",-0.1799019111043427,-2.941278972232132,324],["meglitinide_BRD-K51324732-001-01-0::2.5::HTS002",-0.18112504921379544,-3.0461358677789088,333],["entinostat_BRD-K77908580-001-09-6::0.00061034::HTS002",-0.19878250727597377,-3.6004695648845684,335]]}}}
{"ccle_proteomics":{"corr":{"top":[["BCL9L_Q86UU0",0.2380464476178866,-4.013738091682359,263],["PNPLA4_P41247",0.2354509985222169,-3.182268059145338,206],["MUC16_Q8WXI7",0.28591598798527224,-4.1179408194181715,186],["IMUP_Q9GZP8",0.29278769329120335,-4.38270118874183,190]],"bottom":[["LRIG1_Q96JA1",-0.2586926454316564,-2.986770425440992,158],["PAG1_Q9NWQ8",-0.25549413206678484,-4.3450430515616025,249]]},"para":{"top":[["C7orf50_Q9BRJ6",0.23629719050353218,-3.961042698171566,263],["PNPLA4_P41247",0.24908566457278722,-3.514618006041647,206]],"bottom":[["POSTN_Q15063",-0.2727329046864135,-4.4373895960415926,223],["LRIG1_Q96JA1",-0.2799665934951829,-3.435261908224253,158],["MOB3A_Q96BX8",-0.2606757214067002,-3.7308034414558544,201]]}}}
{"depmap_copy_number":{"corr":{"top":[],"bottom":[["LOC285766_285766",-0.17646209364258636,-6.072029711189198,769],["LINC00266-3_441123",-0.17758054642851034,-6.142666435268894,769],["DUSP22_56940",-0.16942009548395176,-5.637447852033738,769]]},"para":{"top":[],"bottom":[["TPTE_7179",-0.11830867573302152,-2.994579723701656,769]]}}}
{"depmap_gene_tpm":{"corr":{"top":[],"bottom":[["PAGE1_8712",-0.14763296732395825,-4.377217654539926,764],["AGPAT3_56894",-0.17434209528899022,-5.9045229241280435,764]]},"para":{"top":[["USP29_57663",0.14749785717730052,-4.3701129365900195,764]],"bottom":[["IGF1_3479",-0.16273304051581886,-5.210443889911931,764],["PHKA2_5256",-0.15125519690002812,-4.569997699687608,764],["JCHAIN_3512",-0.15384733798178457,-4.710692916426509,764],["PTDSS1_9791",-0.1552608329595828,-4.788379786547366,764],["AGPAT3_56894",-0.1763676816269863,-6.0304561973199595,764],["AKAP17A_8227",-0.1671379302323049,-5.468278515459416,764],["CRYGS_1427",-0.15027901160475082,-4.517605473733775,764]]}}}
{"avana":{"corr":{"top":[["KLF7_8609",0.2066270088043812,-8.017847009704289,757],["IQCG_84223",0.2885685604604849,-15.487593681946414,769],["ATP2C2_9914",0.18342977591996365,-6.519332435384611,769],["CEP19_84984",0.19065256691123053,-7.001366717160747,769],["EPHB3_2049",0.2013893830415573,-7.752863033110838,769],["FAM53A_152877",0.23520752316201357,-10.399974984086969,769],["PERP_64065",0.2001675016022907,-7.66521670832064,769],["CCDC50_152137",0.18626935999135064,-6.706601252238718,769],["DGKG_1608",0.21539672163932916,-8.797061954426058,769],["ESPNL_339768",0.2086059803637306,-8.281736325307682,769]],"bottom":[["STAM2_10254",-0.17399369425460698,-5.917704913672441,769],["EIF3J_8669",-0.18492759009222287,-6.6177517732355025,769],["MEP1B_4225",-0.19635817763752775,-7.395482257078947,769],["TNMD_64102",-0.1710965133542865,-5.416649791820546,721],["KRTAP20-3_337985",-0.16892556514194712,-5.607585315240318,769],["FUT11_170384",-0.1893933334008865,-6.915975030424357,769],["HELQ_113510",-0.19221140990904906,-7.1078704622166216,769],["HTN1_3346",-0.18852191546506986,-6.857217398518835,769]]},"para":{"top":[["KLF7_8609",0.19304689576389789,-7.063127995723204,757],["IQCG_84223",0.2890637724384075,-15.540294609544947,769],["FBXO2_26232",0.18762563645237004,-6.797069181561876,769],["EPHB3_2049",0.18561945049233186,-6.663484708866715,769],["N4BP3_23138",0.18968504696078028,-6.935705832772592,769],["ATP2C2_9914",0.19206366902934355,-7.0977386971077445,769],["CEP19_84984",0.22355781963202107,-9.439289309667059,769],["APOD_347",0.19639252179885286,-7.397890441490055,769],["CHRD_8646",0.1867630187412625,-6.73945322995366,769],["FAM53A_152877",0.18600115681513257,-6.688789618653136,769],["PLCH2_9651",0.18679048437372311,-6.741283585836689,769],["EIF1AD_84285",0.1988943329021079,-7.574474130036749,769]],"bottom":[["DNASE2_1777",-0.16590996424075458,-5.427341261899818,769],["HNRNPDL_9987",-0.17893579972648196,-6.228853881394485,769],["GUF1_60558",-0.17014727409465627,-5.681514997851865,769],["MCPH1_79648",-0.1625135425522259,-5.228139592034348,769],["AP3M2_10947",-0.16689155244293838,-5.485661832155,769],["THAP6_152815",-0.1757844214330167,-6.029446669933528,769],["FUT11_170384",-0.16155479148608948,-5.172635319805433,769],["HELQ_113510",-0.1899374775340932,-6.952804442272459,769],["B4GALT6_9331",-0.17929615123716466,-6.2518804082836725,769],["HTN1_3346",-0.17201467626921338,-5.795531846079647,769]]}}}
{"drive":{"corr":{"top":[["CA5A_763",0.21099840776223044,-3.2953907156955586,268],["LRRC59_55379",0.21161442965277238,-3.2909003984857175,266]],"bottom":[["MEPCE_56257",-0.24334069596407845,-4.287604135726783,271],["NMU_10874",-0.20499860401412442,-3.1337645004282857,268]]},"para":{"top":[],"bottom":[["TCERG1_10915",-0.20284962666929832,-3.106462912778604,271],["PPIL2_23759",-0.21968349995387726,-3.5373671218017577,268],["OR2L13_284521",-0.20231261047282478,-3.043280071985931,266]]}}}
{"achilles":{"corr":{"top":[["RBMS3_27303",0.24641482995125555,-3.491653504198994,209],["MTFR2_113115",0.22877569528722994,-3.0641123526339564,209],["GOLGA6L2_283685",0.23739988406089943,-3.2692059019287987,209],["TRMT6_51605",0.24399049241746282,-3.431014320651151,209],["MRI1_84245",0.24303125655866226,-3.407187928068392,209],["ORC3_23595",0.24345336674995693,-3.417661072369412,209],["CDR2L_30850",0.30135712101306034,-5.033971894663404,209]],"bottom":[["NUP50_10762",-0.2348958750678185,-3.2088861516178757,209]]},"para":{"top":[["RBMS3_27303",0.243142365903533,-3.4099429360802973,209],["LDHAL6A_160287",0.23359758900941668,-5.035548497468102,353],["MFAP5_8076",0.24987791773352774,-3.579326090733374,209],["C5orf52_100190949",0.22963043779020395,-3.0841059446604584,209],["TRMT6_51605",0.2290042671214881,-3.0694518146445895,209],["COQ10B_80219",0.2163148465083976,-2.7808557470188124,209],["ORC3_23595",0.2515761423397829,-3.6227730427776716,209],["CDR2L_30850",0.2572507381610932,-3.7701332488117685,209]],"bottom":[["CCDC174_51244",-0.2424545650522766,-3.392908900986261,209],["WDR36_134430",-0.23203833819350472,-3.1408229129539786,209],["UTP6_55813",-0.28109077274735816,-4.426675539091235,209],["NUP50_10762",-0.26409859370614985,-3.9524756646664096,209],["SPICE1_152185",-0.2831082399999474,-4.485070067156896,209]]}}}
{"ccle_rrbs_tss1kb":{"corr":{"top":[["KCNQ1_11_2481683_2482683",0.2411253040306469,-6.4862113296662915,438],["GRTP1-AS1_13_114004987_114005987",0.24060944794451308,-6.782068571030033,462],["PRKACG_9_71629039_71630039",0.28549453068421493,-3.3208787326110927,146],["THNSL2_2_88471657_88472657",0.19296758526805838,-4.501232410366822,459],["ITGB2_21_46340965_46341965",0.19148301012998298,-4.311135625104778,444],["LSP1_11_1873199_1874199",0.19800187038969166,-4.76917487068584,465]],"bottom":[["FARP2_2_242294663_242295663",-0.19123201137184864,-4.522653253362872,470],["PLCL2_3_16925451_16926451",-0.18393784526036297,-4.203344898011079,468],["MTFR1L_1_26145396_26146396",-0.18440554268078946,-4.127116434359615,456]]},"para":{"top":[["RBM44_2_238706387_238707387",0.181199520000272,-3.0013422745893017,327],["KCNQ1_11_2481683_2482683",0.22849004206511223,-5.86988719706327,438],["SEPT12_16_4838522_4839522",0.20253685132904395,-4.538822470772781,420],["LOC100506388_17_179995_180995",0.23748259521441178,-4.050104805740664,267],["TMCC2_1_205196037_205197037",0.280087256934448,-3.323938296223904,152],["PNMA5_23_152162671_152163671",0.2505572770050436,-2.8858354470679144,162],["LINC01301_8_61326377_61327377",0.186356073600252,-4.164513097175674,451]],"bottom":[["LINC01770_1_1369953_1370953",-0.20512050083211367,-5.093696967853588,466],["PIGB_15_55610132_55611132",-0.1915431942543633,-4.535859016555019,470],["ARL4A_7_12725451_12726451",-0.18825830678787123,-4.364487066034768,466],["PLCL2_3_16925451_16926451",-0.21990806010079864,-5.80720157511718,468],["MIR935_19_54484560_54485560",-0.1963815567368522,-4.72597931125675,468],["BLVRA_7_43797271_43798271",-0.187031329186039,-4.338296210612432,469],["DSP_6_7540807_7541807",-0.2195079101806354,-5.765460275892221,466],["ARL4C_2_235405697_235406697",-0.20641321604646373,-5.122510762392967,463],["PRICKLE3_23_49041346_49042346",-0.19009557007942243,-4.474604976994864,470],["AQP4_18_24442874_24443874",-0.18934699129581242,-4.418056206488255,467]]}}}
{"ccle_gene_tpm":{"corr":{"top":[],"bottom":[["RP11-231E4.3_ENSG00000264340.1",-0.19096741574400497,-5.373520553247603,572],["TMEM247_ENSG00000187600.8",-0.1777911383604248,-4.722484370341656,572],["RP11-887P2.5_ENSG00000258274.1",-0.17028685056913256,-4.372070811348187,572],["snoU109_ENSG00000238832.1",-0.18498895746137034,-5.072436996316858,572],["PAGE1_ENSG00000068985.4",-0.19802123351765563,-5.741038156988027,572]]},"para":{"top":[["AC110615.1_ENSG00000268788.1",0.1761577879952257,-4.644965338219883,572],["CYP2C18_ENSG00000108242.8",0.16955868920370687,-4.338847842237999,572]],"bottom":[["RP11-231E4.3_ENSG00000264340.1",-0.15763288436082049,-3.8141313601131364,572],["INSIG1_ENSG00000186480.8",-0.20357573013282781,-6.039879206038776,572],["AC008074.4_ENSG00000223863.1",-0.15313742659951,-3.6257530157648232,572],["None_ENSG00000176082.5",-0.15572702685846207,-3.7336428537319564,572]]}}}
{"ccle_rrbs_tss_clusters":{"corr":{"top":[["GSTM1_2",0.2621164509735489,-3.6691870373025686,195],["SALL2_4",0.23081879592756835,-3.150424726468304,212],["ACE_3",0.28487472853650764,-3.2883080678962546,145],["MIR493_1",0.23674533316402485,-5.016189129104271,342],["PRKACG_3",0.2835713510517702,-3.3201260345984576,148],["USP18_1",0.22884523612407404,-4.038418872982525,287],["GRTP1-AS1_3",0.24351660903065728,-6.977439217800577,465],["ADAM3A_2",0.3451554996864204,-3.975973654584185,121],["PADI4",0.23019982705106085,-4.131362089598905,291],["SSC4D_2",0.23410822950132915,-5.834451220572444,414]],"bottom":[["SELENOM_3",-0.20313376538860717,-4.937468579352531,459],["SREBF1_2",-0.2184879125755743,-5.395310496806074,437]]},"para":{"top":[["GSTM1_2",0.259883450734776,-3.6134766579861743,195],["KRT13_2",0.24350929993881748,-4.572596717829178,291],["GRTP1-AS1_3",0.23891459764484038,-6.7326765914718125,465],["KRT83_2",0.2646644788065506,-5.705031617087051,314],["MIR2392_1",0.22396756455864475,-5.750736438804516,446]],"bottom":[["RNF32_2",-0.2189101197683302,-3.2184656214110783,242],["DANCR_3",-0.22446068358128585,-3.542908459667821,257],["GCAT_1",-0.21464258307812661,-5.618486794998199,474],["RSPH6A_2",-0.21544963166808226,-3.2412047709998686,252],["IBTK_3",-0.2101184302260042,-5.188667923510601,453]]}}}
{"ccle_rrbs_cgi_clusters":{"corr":{"top":[["1_110228238_110232614-2",0.2621164509735489,-3.6691870373025686,195],["19_17916737_17921098-2",0.25327429921676864,-6.188095631710604,376],["2_47745991_47748526-3",0.24294835816175547,-2.9361334528619687,176],["8_39378225_39382533-2",0.3451554996864204,-3.975973654584185,121],["13_113646343_113648972-2",0.2450437268934521,-6.698349881989633,439],["19_34848071_34852587-3",0.2892459479323535,-3.6019994354022646,156],["17_41436204_41440674-1",0.24318019758561327,-4.769961440477598,306],["19_17916737_17921098-1",0.2811128828078203,-6.756674638259277,334],["12_94542863_94546000-3",0.24323693332271998,-4.284302477784347,271],["4_187217320_187221745-3",0.2426953670759323,-3.4411782981739836,212]],"bottom":[["17_17740018_17742525-2",-0.21581922717997223,-5.275501604571186,437],["17_17740018_17742525-3",-0.2117399199855038,-4.719484080991571,401]]},"para":{"top":[["1_110228238_110232614-2",0.259883450734776,-3.6134766579861743,195],["13_113646343_113648972-2",0.2382202049220094,-6.354578763225225,439],["17_41436204_41440674-1",0.2618896355788883,-5.465791883009188,306],["19_17916737_17921098-1",0.28078050847716096,-6.741576590342476,334],["1_6302275_6304856-2",0.23022730755031126,-4.605973290324376,329],["12_52712800_52717051-2",0.2646644788065506,-5.705031617087051,314],["13_20966851_20971220-3",0.2465404749917738,-4.8195702736052555,301],["6_167282309_167286543-2",0.23917031632386715,-3.531191702464682,225]],"bottom":[["6_82954999_82959507-3",-0.2101184302260042,-5.188667923510601,453],["4_53576358_53581238-3",-0.22446068358128585,-3.542908459667821,257],["19_46316490_46321266-2",-0.21544963166808226,-3.2412047709998686,252],["22_38201182_38203691-2",-0.22455200760376054,-6.023662229323074,467]]}}}
