{"depmap_hotspot":{"corr":{"top":[["AMIGO1",0.1286434950779014,-3.4503258962302286,9.0,758.0],["ANGPTL3",0.09393740199290289,-2.0343849297877536,18.0,749.0],["AP3B2",0.10064197155248039,-2.2778494118419603,41.0,726.0],["ARHGEF19",0.09999977254652914,-2.253915259651888,20.0,747.0],["ARHGEF26",0.10388688381907177,-2.4007842683561162,61.0,706.0],["ARSB",0.09162187656002618,-1.9535777448829637,26.0,741.0],["BCL6B",0.0982292784899651,-2.18860578565527,18.0,749.0],["C19orf54",0.10781016653999843,-2.5538981433357857,20.0,747.0],["COL12A1",0.10837321482214683,-2.5762761973962385,99.0,668.0],["CST11",0.11949365219905793,-3.039203246813643,9.0,758.0],["CTSS",0.09420300598329415,-2.0437611267905575,12.0,755.0],["DAPK3",0.1127098612053297,-2.752048153885347,17.0,750.0],["DBN1",0.1069041144997651,-2.518100811093908,51.0,716.0],["DECR2",0.10218259408725205,-2.335799691667337,17.0,750.0],["FBP2",0.10119860666492993,-2.298700330941224,18.0,749.0],["HTR3E",0.10681809265920396,-2.514715821634984,18.0,749.0],["IFITM3",0.09654726985788124,-2.127476050905764,11.0,756.0],["IL27",0.15187292468577251,-4.6192978812712235,8.0,759.0],["KRT10",0.11093340392116656,-2.679313184899005,26.0,741.0],["LOXL2",0.11905297846653876,-3.020095321695761,35.0,732.0],["MTHFD2",0.10216356693288643,-2.3350793962705887,12.0,755.0],["MYO7B",0.09606642180598558,-2.1101640713172594,86.0,681.0],["NEURL",0.09572622130496751,-2.097959708534821,25.0,742.0],["OSCAR",0.09691646524638348,-2.1408175349741674,12.0,755.0],["PHGDH",0.1060142404292202,-2.483198336062915,28.0,739.0],["SAMD7",0.10323306892117247,-2.375745107011088,20.0,747.0],["SLC25A1",0.1097192836416113,-2.630187257956558,11.0,756.0],["SMYD3",0.09822446446275658,-2.1884295561711533,20.0,747.0],["TULP1",0.09982802737873964,-2.2475365942730634,28.0,739.0],["UBXN1",0.10336584730649351,-2.3808191169032584,22.0,745.0]],"bottom":[["ADH7",-0.11649105517626698,-2.9102613724780926,20.0,747.0],["AL136531.1",-0.09725933715368469,-2.15324618547069,8.0,759.0],["APBB3",-0.1026650796675231,-2.3541031749070394,22.0,745.0],["C12orf49",-0.11528443289389848,-2.8592704749437345,8.0,759.0],["C5orf22",-0.09365135645182221,-2.0243118106168687,24.0,743.0],["CLDN10",-0.12166873239949039,-3.1344453186999193,23.0,744.0],["CNP",-0.11131248314169832,-2.694748751306921,13.0,754.0],["DAO",-0.10789196869291236,-2.5571430168657954,19.0,748.0],["DCAF17",-0.10283300187359225,-2.36049078922572,38.0,729.0],["DEF6",-0.09629996820716383,-2.118563369380687,20.0,747.0],["EBF3",-0.10874901990327235,-2.591268944577591,41.0,726.0],["EQTN",-0.10897567637273452,-2.600333315757272,13.0,754.0],["FLG2",-0.1182932713659424,-2.987302545448991,112.0,655.0],["GJB5",-0.10486880823153799,-2.4386447880278306,15.0,752.0],["GRTP1",-0.13435081075497765,-3.7207671255984014,20.0,747.0],["HYAL1",-0.12001170635203778,-3.0617474779697123,19.0,748.0],["KDM4C",-0.11267424602545967,-2.7505799304494185,45.0,722.0],["KLB",-0.09660938820174532,-2.1297177999596357,33.0,734.0],["MSC",-0.10206733584681162,-2.3314382154477404,17.0,750.0],["MT-ND2",-0.1336315716527363,-3.6860896267949355,131.0,636.0],["NAPSA",-0.11082232897830836,-2.674799138883482,24.0,743.0],["NPTX1",-0.10822157802559142,-2.5702394732696656,17.0,750.0],["NQO2",-0.11464837967968933,-2.832581427835091,16.0,751.0],["NTPCR",-0.09684982366550443,-2.138406160385526,11.0,756.0],["PCBP3",-0.1097837534205683,-2.632783925039247,18.0,749.0],["RAD21",-0.10096299332555295,-2.289862541070566,23.0,744.0],["RNF130",-0.10562675337684449,-2.4680794839249116,12.0,755.0],["RP11-1396O13.13",-0.10367039162881037,-2.3924781979647394,8.0,759.0],["RP11-156E8.1",-0.1018740802951557,-2.3241347127678766,8.0,759.0],["RPS7",-0.10390653751654613,-2.4015390527778737,8.0,759.0],["SCAF1",-0.11005938415853371,-2.643900648639939,84.0,683.0],["SET",-0.12256272138836197,-3.1740399846945473,12.0,755.0],["SLC17A9",-0.10742287647293895,-2.53856448064557,28.0,739.0],["SNAP29",-0.10027098768771062,-2.2640072707787193,13.0,754.0],["ZNF155",-0.1004617459222586,-2.2711193957299254,22.0,745.0],["ZNF207",-0.10320865429999525,-2.374812733949082,18.0,749.0],["ZNF280B",-0.11304115060084559,-2.765725073725186,26.0,741.0]]},"para":{"top":[["AMIGO1",0.12013515910059369,-3.35322299105319,9.0,758.0],["ANGPTL3",0.12470454585585021,-3.55379135237741,18.0,749.0],["CST11",0.10996440826185429,-2.9309441300045043,9.0,758.0],["GOT1",0.09864534684454758,-2.4986287645869725,9.0,758.0],["IFITM3",0.09972184892996364,-2.5381439612715133,11.0,756.0],["IGBP1",0.10651860356587707,-2.7953323668018606,13.0,754.0],["IP6K1",0.1058753301036826,-2.7704971219124532,17.0,750.0],["MTHFD2",0.10937114516032066,-2.9074476487845833,12.0,755.0],["OSCAR",0.10552773398548942,-2.756927663325441,12.0,755.0],["TAF7",0.09978423616715393,-2.5405683006376965,15.0,752.0],["TMEM8C",0.09752437699404135,-2.4579570357131404,9.0,758.0]],"bottom":[["AL136531.1",-0.09708337337105048,-2.4420026140726896,8.0,759.0],["CENPK",-0.1074727649257616,-2.8324901505348428,11.0,756.0],["CHMP5",-0.1005638014662484,-2.5692235548707574,11.0,756.0],["DAO",-0.11346584606099237,-3.073034960715115,19.0,748.0],["DNAJC5G",-0.09558318530170126,-2.3884338865730887,9.0,758.0],["EYA3",-0.11315500901523158,-3.0602536534352045,17.0,750.0],["GRTP1",-0.1166712871037061,-3.2061649977551676,20.0,747.0],["HSD11B1",-0.10160386048165898,-2.6079162450061886,11.0,756.0],["HYAL1",-0.1207966110736141,-3.382165432042906,19.0,748.0],["ICA1L",-0.09987567960729826,-2.543711265541613,9.0,758.0],["LAT2",-0.09514904258427744,-2.3732576789051314,15.0,752.0],["NAPSA",-0.12353389229881813,-3.501983516905537,24.0,743.0],["NPTX1",-0.11423496138123061,-3.1046386120799934,17.0,750.0],["NQO2",-0.10197440311078215,-2.6219375534700706,16.0,751.0],["ONECUT1",-0.1025908671439416,-2.645074336847582,15.0,752.0],["ORC4",-0.1028637465738602,-2.655432636784615,18.0,749.0],["PELI2",-0.10307545359924065,-2.6634108312764684,17.0,750.0],["RASL11B",-0.09397676103531462,-2.331859934465836,11.0,756.0],["RP11-156E8.1",-0.09969158340191454,-2.536875723032612,8.0,759.0],["SET",-0.12488713842167633,-3.5617375819938912,12.0,755.0],["SNAP29",-0.10236734321277433,-2.6366045218162015,13.0,754.0],["TFPI",-0.09974436676935436,-2.5389285126008625,10.0,757.0],["THEM4",-0.11051865204232125,-2.9532313829819143,11.0,756.0],["TMEM174",-0.09807129255657195,-2.4779465193459362,14.0,753.0],["TTC9",-0.09787561985095898,-2.4707098927823674,10.0,757.0],["ZNF655",-0.10102676219298498,-2.586560584473397,16.0,751.0]]}}}
{"depmap_damaging":{"corr":{"top":[["ARHGAP33",0.10989474879098479,-2.6372576465176554,10.0,757.0],["DCP1B",0.10112897134743394,-2.2960864984192755,14.0,753.0],["ERCC6",0.09480574919686224,-2.065120777379848,8.0,759.0],["MED12",0.09796526787866174,-2.178951806604877,14.0,753.0],["OBSL1",0.09423953018964097,-2.0450522104656508,15.0,752.0],["PRRG1",0.09796862797157038,-2.1790745358320724,18.0,749.0]],"bottom":[["CCDC141",-0.10389162827234756,-2.4009664640018076,10.0,757.0],["CMYA5",-0.10469139711209355,-2.431781520065288,12.0,755.0],["HERC1",-0.12070614772911972,-3.092105069382835,25.0,742.0],["SLFN11",-0.10911078390291612,-2.6057443370108113,11.0,756.0],["SPTBN5",-0.11052674523193926,-2.6628060701648035,23.0,744.0]]},"para":{"top":[["ARHGAP33",0.11708218540113392,-3.2231441119850945,10.0,757.0],["ERCC6",0.09664867169923984,-2.4263926971674605,8.0,759.0],["MED12",0.0963777537526123,-2.4169431987857664,14.0,753.0],["PASK",0.10939955918106395,-2.9084887538523874,10.0,757.0]],"bottom":[["CCDC141",-0.10449409852027601,-2.7171398548617147,10.0,757.0],["CMYA5",-0.10068788287644269,-2.5738607514640703,12.0,755.0],["HERC1",-0.1124480066838158,-3.0315319245509547,25.0,742.0],["SLFN11",-0.10323823893444706,-2.6693903661765885,11.0,756.0],["USP40",-0.09912204869410406,-2.5161736493106455,12.0,755.0]]}}}
{"ccle_rppa":{"corr":{"top":[],"bottom":[]},"para":{"top":[["MYC_c-Myc_Caution",0.188330720444465,-4.820943299789057,521]],"bottom":[]}}}
{"ccle_rrbs_enhancer_clusters":{"corr":{"top":[["8-65497075-65499586-2_enh",0.1637780088317206,-3.3383843385110614,454],["12-114368126-114371091-1_enh",0.17544889542701206,-3.7721580526799547,455]],"bottom":[["1-63465000-63467717-1_enh",-0.17765390648094662,-2.8105226588771757,315]]},"para":{"top":[["5-77148090-77150599-2_enh",0.2260485013087639,-4.635646876942974,344],["6-98210329-98213515-2_enh",0.2005503622320206,-4.12056589358591,384],["7-20829898-20832407-0_enh",0.19392821051993658,-4.585276647749857,464],["7-21020375-21023200-0_enh",0.19311921176448144,-4.15941699305451,419],["8-65497075-65499586-2_enh",0.18772427635012753,-4.243763600939029,454],["20-21486551-21489286-2_enh",0.19231754142461674,-4.508547625352021,463]],"bottom":[]}}}
{"ccle_mirna":{"corr":{"top":[],"bottom":[["hsa-miR-504_miR00413.1",-0.14585013362880325,-3.14063947885749,534]]},"para":{"top":[],"bottom":[]}}}
{"prism_primary_logfold":{"corr":{"top":[["GSK429286A_BRD-A10523515-001-07-9::2.5::HTS",0.17534334100085153,-3.312121479203218,392],["teriflunomide_BRD-A42699921-001-03-6::2.6::HTS",0.17643111573892103,-3.2152948938513726,374],["FLI-06_BRD-A44500574-001-01-8::2.5::HTS",0.17967972303386062,-3.440833681824336,390]],"bottom":[["cyclopiazonic-acid_BRD-A10420615-001-04-4::2.5::HTS",-0.16025198835724527,-2.8368068852658412,392],["furaltadone_BRD-A67514145-003-05-8::2.5::HTS",-0.1638509654925843,-2.9145937725444093,387],["risperidone_BRD-K53857191-001-22-7::2.5::HTS",-0.15767491816147322,-2.658348762120311,375]]},"para":{"top":[["GSK429286A_BRD-A10523515-001-07-9::2.5::HTS",0.17501748379394277,-3.3014382120705426,392],["FLI-06_BRD-A44500574-001-01-8::2.5::HTS",0.19488924097688837,-3.9696559743107027,390]],"bottom":[["cyclopiazonic-acid_BRD-A10420615-001-04-4::2.5::HTS",-0.15968164107101096,-2.8196170305131836,392],["furaltadone_BRD-A67514145-003-05-8::2.5::HTS",-0.1868007713028558,-3.6586488798580366,387],["LB-100_BRD-A73709786-001-01-3::2.5::HTS",-0.16321355168761942,-2.895225734828905,387],["2-BFI_BRD-K22745370-003-02-3::2.5::HTS",-0.1480928287189242,-2.487654692452254,393],["SB-269970_BRD-K24201553-003-11-5::2.5::HTS",-0.16126025710694142,-2.861128990272389,391],["tirofiban_BRD-K37872686-003-01-9::2.5::HTS",-0.17395054452006203,-3.230767998756795,387],["metirosine_BRD-K83766205-001-03-8::2.5::HTS",-0.16573272112076698,-2.998317614336112,391],["bretazenil_BRD-K96936751-001-01-4::2.5::HTS",-0.1467982050738055,-2.4461075941769304,392]]}}}
{"prism_secondary_logfold":{"corr":{"top":[["bendamustine_BRD-K17068645-003-04-2::0.15625::HTS002",0.18760889224976035,-3.279097610669873,338],["nintedanib_BRD-K49075727-001-08-5::0.00061034::HTS002",0.17564706755142315,-2.918988409948563,337],["cinacalcet_BRD-K73838513-003-05-5::0.15625::HTS002",0.21173976156409116,-3.5075307426047133,286],["kynurenic-acid_BRD-K85872723-001-15-9::0.625::HTS002",0.21072692311765434,-3.824819832279294,319]],"bottom":[["carfilzomib_BRD-K15179879-001-03-2::0.15625::MTS010::PROS003_PR500",-0.22073636416603712,-4.234877293199609,326],["carfilzomib_BRD-K15179879-001-03-2::0.625::MTS010::PROS003_PR500",-0.19239179221351738,-3.1715117021873716,309],["josamycin_BRD-K25837718-001-03-8::0.00061034::HTS002",-0.19262955542197058,-3.4249006545640834,337],["P276-00_BRD-K51791723-003-01-7::10::MTS010::PROS004_PR500",-0.18929281011830762,-3.2369946560096072,327],["paclitaxel_BRD-K62008436-001-23-9::0.00244::MTS010::PROS005_PR500",-0.22998581773434315,-4.584820014160337,328],["YM-155_BRD-K76703230-004-04-1::2.5::HTS002",-0.20055981777994172,-3.5432818319199555,323],["alvespimycin_BRD-K83988098-001-02-0::0.039::MTS010::PROS005_PR500",-0.20129835720494121,-3.5758334165946253,324]]},"para":{"top":[["anastrozole_BRD-K52172416-001-11-4::0.00976562::HTS002",0.19682152514221943,-3.087468806207535,286],["fluvastatin_BRD-K66296774-236-11-3::0.164353::HTS002",0.18127362983323347,-3.081742446868753,337],["cinacalcet_BRD-K73838513-003-05-5::0.15625::HTS002",0.22261070960726562,-3.8324336505576313,286],["kynurenic-acid_BRD-K85872723-001-15-9::0.625::HTS002",0.19505872402278834,-3.338662210346299,319]],"bottom":[["butylscopolamine-bromide_BRD-A53951045-004-01-6::2.5::HTS002",-0.2451373094465025,-5.023507456051977,319],["lapatinib_BRD-K19687926-001-04-1::0.00061::MTS010::PROS004_PR500",-0.20381161827507413,-3.7234974049062384,331],["deoxycorticosterone-acetate_BRD-K24556098-001-16-7::0.613373::HTS002",-0.2160205106885202,-4.194968639633618,337],["MK-0773_BRD-K38868394-001-01-3::0.00061034::HTS002",-0.18270155108280636,-2.7247989984632595,287],["P276-00_BRD-K51791723-003-01-7::10::MTS010::PROS004_PR500",-0.19751076805122394,-3.4862611502274827,327],["paclitaxel_BRD-K62008436-001-23-9::0.00244::MTS010::PROS005_PR500",-0.24213218662731378,-5.0351091448139975,328],["YM-155_BRD-K76703230-004-04-1::2.5::HTS002",-0.20937812873396106,-3.8229044451812157,323],["batimastat_BRD-K82818427-001-04-8::10::MTS010::PROS003_PR500",-0.18898140091984836,-3.219263349528139,326],["alvespimycin_BRD-K83988098-001-02-0::0.039::MTS010::PROS005_PR500",-0.2095315715335643,-3.8382280400892963,324]]}}}
{"ccle_proteomics":{"corr":{"top":[["CYHR1_Q6ZMK1-4",0.21523628886158547,-3.191323422611101,248]],"bottom":[["HLA-DRB1_P01911",-0.35149925895846706,-3.6571508616637014,106],["KIF26B_Q2KJY2",-0.3269266529233275,-3.283158403020133,109],["S100A3_P33764",-0.31913274705582856,-3.2437289091552466,113]]},"para":{"top":[["CYHR1_Q6ZMK1-4",0.21538220067792438,-3.195099696401371,248],["NSUN2_Q08J23",0.2316505277391106,-3.822972075787682,263],["MAFF_Q9ULX9",0.21918910943989842,-3.3403555148584942,252]],"bottom":[["CDH6_P55285",-0.2612020367706682,-3.433378659741318,182],["HMCN1_Q96RW7",-0.28908283434598875,-3.476969239421632,150],["WDR13_Q9H1Z4",-0.2253463076504736,-3.5435005826099695,255],["S100A3_P33764",-0.33924899205150205,-3.625059262988261,113]]}}}
{"depmap_gene_tpm":{"corr":{"top":[["OR51E1_143503",0.1357230817482658,-3.7745345610101437,764]],"bottom":[]},"para":{"top":[],"bottom":[["PCSK1N_27344",-0.16619505671736565,-5.412522563958853,764],["NUDT9_53343",-0.16244108406951702,-5.193591967864662,764],["CASKIN2_57513",-0.15688590811339767,-4.878539724513638,764],["DNM3_26052",-0.16291030345163915,-5.2206899956268105,764],["C5orf49_134121",-0.17388975813558674,-5.876597510405532,764]]}}}
{"avana":{"corr":{"top":[["CRYGN_155051",0.25880815761844994,-12.508232939718422,769],["ASB10_136371",0.29359891148417855,-16.027788526533524,769],["ZBED6CL_113763",0.20671717797055614,-8.14145370820207,769],["CHPF2_54480",0.2547093103201588,-12.126243798110954,769],["ASIC3_9311",0.25562719544962215,-12.211200350820915,769],["ZNF282_8427",0.2020816771424885,-7.802765148689879,769],["AOC1_26",0.22630000675693626,-9.660746685188151,769],["ZNF783_100289678",0.2462027507073024,-11.35485499708592,769],["TAS2R39_259285",0.21836735953522574,-9.027923285348002,769],["INF2_64423",0.21837956185504068,-9.028878430697896,769],["ZNF786_136051",0.2561877479071617,-12.26324914395358,769],["LRRC61_65999",0.22216045594178468,-9.32753875408096,769]],"bottom":[["TMEM161A_54929",-0.18075332570204322,-6.34546581529019,769],["CBS_875",-0.1755164673732664,-6.01265407214759,769],["FYB1_2533",-0.16292961328624317,-5.252326315432927,769],["C6orf141_135398",-0.1780938494706941,-6.17523317130135,769]]},"para":{"top":[["GIMAP4_55303",0.20081298951918325,-7.711449661618963,769],["ASB10_136371",0.2682600704878055,-13.414950521429638,769],["CHPF2_54480",0.22313155786961203,-9.40512155853052,769],["ASIC3_9311",0.24483988970635265,-11.233928756122655,769],["ESYT2_57488",0.22900034828613336,-9.881628585279051,769],["ZNF282_8427",0.24101755986041243,-10.898664892803465,769],["AOC1_26",0.2188370890705431,-9.06473221633953,769],["ZNF783_100289678",0.24132589117906728,-10.925497117745802,769],["NOS3_4846",0.19561913020914617,-7.343765075579426,769],["LRRC61_65999",0.22645331459799967,-9.673212312619151,769],["ZNF786_136051",0.24274983644176187,-11.049896864013935,769]],"bottom":[["HAX1_10456",-0.14813837952022058,-4.429229874253938,769],["JAK3_3718",-0.1662625118767466,-5.448248933068655,769],["C6orf141_135398",-0.17042130745315767,-5.698169673874293,769],["CTPS1_1503",-0.18228005639950692,-6.444331033912117,769]]}}}
{"drive":{"corr":{"top":[["IGSF9_57549",0.21251262417807484,-3.401378975955444,274],["NFAT5_10725",0.2261836382252429,-3.7611309092495304,271],["TRIP10_9322",0.25003543810269924,-4.429898335264826,266],["KIR2DS2&LOC105379650&KIR2DL1_100132285&105379650&3802",0.24930925904091186,-4.435945207635611,268],["SEPT5-GP1BB_100526833",0.2209423777279696,-3.550043278393988,266]],"bottom":[["CADM2_253559",-0.21251120209609606,-3.315340106414955,266],["MX1_4599",-0.24496488965404697,-4.41029284422389,276]]},"para":{"top":[["GTF2H3_2967",0.20606166285005015,-3.243093558428939,276],["ZZZ3_26009",0.2372315707823393,-4.095671151857321,271],["PWWP2B_170394",0.2187391893211341,-3.5446956886899827,271],["KIR2DS2&LOC105379650&KIR2DL1_100132285&105379650&3802",0.23343489963694317,-3.9402009838727103,268]],"bottom":[["TRIM17_51127",-0.22086009420519048,-3.605627368246547,271],["SETBP1_26040",-0.22187368434740912,-3.6349518452033536,271],["MX1_4599",-0.21846012031858147,-3.5933684299481703,276],["SACM1L_22908",-0.2252781943837438,-3.6742383665351674,266]]}}}
{"achilles":{"corr":{"top":[["GMCL1P1_64396",0.22011304167679235,-2.865574665509089,209],["CXCR6_10663",0.229216855974061,-4.8647603790051,353],["RPL36_25873",0.2531999584401139,-3.664597062519272,209],["IGFLR1_79713",0.24732575434546336,-3.5145945991776806,209],["CATSPERG_57828",0.28968845968375034,-4.678671985790959,209],["KLHL28_54813",0.22751294621932938,-3.034708287587501,209],["TXNDC11_51061",0.22152306971049937,-2.8973855464502485,209],["SCAMP3_10067",0.24159712157745303,-3.371741281958674,209]],"bottom":[["TSPEAR_54084",-0.2707884642688332,-4.135438460777698,209],["PMVK_10654",-0.21942338822371424,-4.494877717665229,353],["TMEM219_124446",-0.25858487333981656,-3.805269153604075,209],["RCBTB2_1102",-0.2340100890561835,-3.1876998400961205,209],["PIGS_94005",-0.23824747045320624,-3.2897674669678976,209]]},"para":{"top":[["RPL36_25873",0.2265153808284766,-3.011591469282729,209],["MROH8_140699",0.23699329647760287,-3.2593683606350248,209],["COPG2_26958",0.23230702040662585,-3.14718764001531,209],["SUMO2_6613",0.21499756584396312,-4.333072791538186,353]],"bottom":[["CXXC1_30827",-0.22265253248084801,-2.923007942372509,209]]}}}
{"ccle_rrbs_tss1kb":{"corr":{"top":[["ADCY2_5_7395342_7396342",0.21358393712070978,-5.49383236870005,467],["PDK4_7_95225925_95226925",0.21525486523038856,-5.497633079557768,460],["SDHAP3_5_1594646_1595646",0.22371345116629515,-5.947435822037463,464],["FAM135B_8_139509065_139510065",0.21533360107704688,-5.587273167586381,468],["ATP8A2_13_26041911_26042911",0.21440955841885348,-5.308892983408642,446],["KCNC1_11_17756494_17757494",0.22127279703582095,-5.862398819162654,467],["TMEM196_7_19813028_19814028",0.20518209202933693,-4.498753888608182,405],["PHYHIPL_10_60936226_60937226",0.2528783116716714,-7.490728896063799,465],["ANKRD34C_15_79574145_79575145",0.2466164251768673,-4.493029878310425,278],["RARRES2_7_150038763_150039763",0.24844470576450323,-5.480735775442276,342]],"bottom":[["VSIR_10_73533337_73534337",-0.19089722416287883,-4.440578247666243,462],["SLC17A9_20_61582998_61583998",-0.18442575952014104,-4.239076565538373,470],["TMEM190_19_55887193_55888193",-0.18635202898464193,-3.993808949344936,430],["MOGS_2_74692537_74693537",-0.16470063454484715,-3.415847327058587,461]]},"para":{"top":[["LOC401176_5_16179349_16180349",0.23030458946859084,-6.324768866273209,468],["PTF1A_10_23480459_23481459",0.24244125401174738,-6.987764133405212,470],["ADCY2_5_7395342_7396342",0.24488649838126947,-7.078994902039835,467],["CRMP1_4_5891953_5892953",0.23027145060026294,-6.298545711103736,466],["VSTM2A_7_54609017_54610017",0.24205532276012565,-6.831414043846681,460],["FAM135B_8_139509065_139510065",0.23723693023532164,-6.683727579357198,468],["LOC101928174_15_35046284_35047284",0.2270427251295082,-6.18356903925965,470],["ATP8A2_13_26041911_26042911",0.23134666046348332,-6.105431794424318,446],["MTMR7_8_17271040_17272040",0.2408520089853465,-6.472512010948425,438],["KCNC1_11_17756494_17757494",0.25453534522004684,-7.613723710310135,467],["KDR_4_55991762_55992762",0.22885793937842616,-6.081539430714875,454],["DLGAP3_1_35395186_35396186",0.23573688792482972,-6.592254708873394,467],["GRIK3_1_37499844_37500844",0.23416761974592948,-6.459997312811155,463],["PHYHIPL_10_60936226_60937226",0.2718420614061186,-8.594903271899092,465],["ANKRD34C_15_79574145_79575145",0.2621785001180266,-5.024624614914725,278]],"bottom":[["TUBA4B_2_220116964_220117964",-0.21801201995327701,-5.649415766543847,462],["VSIR_10_73533337_73534337",-0.23496110567587492,-6.488028465282163,462],["SLC17A9_20_61582998_61583998",-0.17839960184148942,-3.996345734121875,470],["LOC101927751_15_101459488_101460488",-0.19625496178571394,-4.711537887269191,467],["PIGF_2_46844251_46845251",-0.1683115982242808,-3.5607523507321344,463],["SECTM1_17_80291921_80292921",-0.18569668022179112,-4.283225922428153,469]]}}}
{"ccle_gene_tpm":{"corr":{"top":[["RP11-864N7.2_ENSG00000227615.1",0.1760778327061395,-4.64118855054789,572],["RPS27AP1_ENSG00000242692.1",0.18390390621990033,-5.018808716754781,572],["RP11-796G6.1_ENSG00000241494.1",0.18860425921678534,-5.253372992226463,572],["RP11-173E2.1_ENSG00000248795.1",0.173455704809251,-4.518252983611412,572],["RSL24D1P1_ENSG00000218069.2",0.18274042116320488,-4.961649408185317,572],["RP11-51O6.1_ENSG00000224631.3",0.18456336129240247,-5.0513649511983205,572],["RP11-153M3.1_ENSG00000257576.1",0.17246349465210306,-4.472201097891971,572],["FAUP1_ENSG00000235297.3",0.17410193129712623,-4.548384260986431,572],["RP11-395L14.17_ENSG00000144158.4",0.17275680336452517,-4.4857879247037316,572],["NPM1P6_ENSG00000213881.3",0.17542127960769674,-4.610238563810396,572],["HMGN2P3_ENSG00000230330.1",0.1825833678506682,-4.953961104824803,572],["AC000089.3_ENSG00000235776.2",0.18697697654841522,-5.1715027512376555,572],["RP11-69L16.5_ENSG00000220472.1",0.17801328742758332,-4.7330815119692975,572],["RPS20P14_ENSG00000223803.1",0.1765835217620731,-4.665103519812806,572]],"bottom":[["TMEM168_ENSG00000146802.8",-0.17563618648131743,-4.620356912550624,572],["NUDT9_ENSG00000170502.8",-0.18262086669985444,-4.955796212264296,572],["RN7SKP29_ENSG00000222889.1",-0.20803344572920207,-6.28578058856266,572],["XYLT2_ENSG00000015532.5",-0.18232281316875742,-4.941220394195761,572],["None_ENSG00000268230.1",-0.19091932793457567,-5.371060831479324,572]]},"para":{"top":[["LRRK1_ENSG00000154237.8",0.17435230764078527,-4.560087651715691,572],["RPS27AP1_ENSG00000242692.1",0.1742911341001752,-4.557226697770206,572],["RP11-173E2.1_ENSG00000248795.1",0.1698975475360935,-4.354291467957985,572],["RP11-51O6.1_ENSG00000224631.3",0.17640158981306023,-4.656491928469345,572],["RSL24D1P1_ENSG00000218069.2",0.17673749435291267,-4.6723984368039675,572],["RP11-796G6.1_ENSG00000241494.1",0.17925674570481434,-4.7926367456199,572],["SUB1P1_ENSG00000227203.2",0.18694686595632667,-5.169994483913784,572],["RPS20P14_ENSG00000223803.1",0.1705704926155719,-4.385049360099427,572]],"bottom":[["ZNF578_ENSG00000258405.5",-0.18635369025030082,-5.140330807268732,572],["TMEM168_ENSG00000146802.8",-0.17559612041968586,-4.618469589068686,572],["TSPAN31_ENSG00000135452.5",-0.18426215728784184,-5.036480734926541,572],["NUDT9_ENSG00000170502.8",-0.18194110843667521,-4.922587941168816,572],["XYLT2_ENSG00000015532.5",-0.1854958188464866,-5.097595160356662,572],["DNM3_ENSG00000197959.9",-0.1827358448182129,-4.961425288255285,572],["RP11-626E13.1_ENSG00000235902.1",-0.18620320706246618,-5.132820245398632,572],["None_ENSG00000268230.1",-0.18536133390961454,-5.090913346031681,572]]}}}
{"ccle_rrbs_tss_clusters":{"corr":{"top":[["KHDC4_2",0.25146987611034916,-3.331996861871624,190],["KLHDC7A_3",0.25469637741659923,-3.966329267414132,226],["ZSCAN5C",0.23996377828768975,-3.990132523960222,257],["FAM135B_2",0.23680183728206824,-6.686803948228428,470],["KCNC1_2",0.24684268914692617,-7.185615635209466,467],["PHYHIPL_2",0.25516595224439276,-7.709683183506591,471],["PHYHIPL_3",0.2402624610330287,-6.550002979491725,446],["ZNF560_3",0.24580220753898271,-4.89259376650569,308],["SMIM14_1",0.3234990021333961,-6.050963510893423,221]],"bottom":[["LUZP4_2",-0.22192181578290346,-3.495942475107679,259]]},"para":{"top":[["KHDC4_2",0.28262491725283495,-4.108625689646921,190],["SYT14_3",0.33285556381546383,-4.420178615451969,147],["PRLHR_1",0.2513863115131331,-7.524448589666318,473],["FAM135B_2",0.2595936945287192,-7.949735540448359,470],["CHGB_2",0.2809810519530706,-3.5910417572461086,165],["KCNC1_2",0.26716670997883835,-8.347604184724913,467],["PHYHIPL_2",0.2702003968162047,-8.59728309730467,471],["PHYHIPL_3",0.2736082744397762,-8.372523474861813,446],["TMEM132C_3",0.2602911830319989,-7.8962980198000015,464],["SMIM14_1",0.2975011860568811,-5.167582592134795,221],["DBX1_1",0.25308602426411597,-7.6208618388529175,473],["ZNF560_3",0.2806420236263472,-6.255556477792925,308],["ZYG11A_3",0.26216123345993486,-2.890289561179268,148]],"bottom":[["LINC02028_4",-0.252034024106204,-3.664901801519711,211],["TUBA4B_1",-0.21840640253270927,-5.7455288467809575,469],["BCL6_6",-0.2065733358805453,-5.228721372226355,473],["LOC101927751_3",-0.2049174747332762,-5.162483057617992,474],["WRAP53_2",-0.22386039749518755,-3.2752525633448903,236],["LUZP4_2",-0.247964426303269,-4.26185425514784,259]]}}}
{"ccle_rrbs_cgi_clusters":{"corr":{"top":[["1_155902072_155906307-2",0.25146987611034916,-3.331996861871624,190],["19_9606804_9611343-3",0.24580220753898271,-4.89259376650569,308],["10_60933827_60936438-2",0.25009052277463223,-6.944752087245405,438],["5_16177064_16179742-3",0.26639518521464656,-3.5730657232542944,183],["17_31147420_31151886-2",0.288808691192591,-3.146538944206561,134],["18_35142907_35146267-3",0.23951502945915137,-4.099006646418663,266],["23_1585004_1587573-2",0.29122898097394584,-6.907688429018977,318],["10_60936438_60939049-2",0.2519103816761994,-7.48072932167611,468],["11_17757171_17760286-1",0.24684268914692617,-7.185615635209466,467],["15_65195799_65200063-3",0.26716932192339976,-3.230268563663214,162]],"bottom":[["5_138711814_138716340-2",-0.20191462988325376,-3.4116804234595577,305],["24_7139521_7142373-1",-0.25451180732733375,-2.8713559409075784,156],["18_44541037_44543933-2",-0.2440891966771926,-3.2905886040911225,199]]},"para":{"top":[["5_16177064_16179742-3",0.2604653170761351,-3.432502605791539,183],["19_9606804_9611343-3",0.2806420236263472,-6.255556477792925,308],["1_155902072_155906307-2",0.28262491725283495,-4.108625689646921,190],["20_5889878_5894417-2",0.2809810519530706,-3.5910417572461086,165],["16_12992574_12996132-3",0.2878158459693032,-6.385495118730529,299],["17_31147420_31151886-2",0.2920830197426705,-3.2103361651151894,134],["7_63030595_63035030-3",0.26691201091093636,-5.528140497774921,298],["23_1585004_1587573-2",0.3055717739139746,-7.57209756414989,318],["10_60936438_60939049-2",0.2680405372619913,-8.416446225886489,468],["1_210109179_210114054-3",0.33285556381546383,-4.420178615451969,147],["6_105388868_105391545-2",0.2681740685475199,-3.2866092534206706,164],["11_17757171_17760286-1",0.26716670997883835,-8.347604184724913,467],["1_53306294_53311262-3",0.26216123345993486,-2.890289561179268,148]],"bottom":[["3_193786481_193791266-1",-0.252034024106204,-3.664901801519711,211],["17_7589494_7593839-2",-0.22386039749518755,-3.2752525633448903,236],["1_17732435_17736645-3",-0.20837576500284669,-2.723965900718094,220],["3_187454250_187458580-1",-0.20603502033125212,-5.13502551518021,466],["2_220115937_220118635-2",-0.22533337607911696,-6.062449672514588,467],["1_16530917_16533749-3",-0.2031290156213863,-5.090518337267734,475]]}}}
