{"depmap_hotspot":{"corr":{"top":[["CD38",0.11834664918280371,-3.1810819142549143,11.0,814.0],["GCFC2",0.1370905208094727,-4.107645438873111,38.0,787.0],["OR6N1",0.11717728106500501,-3.12740497762795,40.0,785.0]],"bottom":[["SRGAP2",-0.07211715254982146,-1.4160968336978794,48.0,777.0]]},"para":{"top":[["AP2S1",0.11790879465208992,-3.4468303323822687,8.0,817.0],["COX5A",0.10211444317489408,-2.771768667819509,14.0,811.0],["MSGN1",0.12512673691287626,-3.7836470755880343,14.0,811.0],["SLC25A30",0.09309383893346582,-2.4231222261732372,10.0,815.0],["SNCG",0.11537667301156886,-3.3329416221512886,8.0,817.0],["SRSF2",0.11064312218692918,-3.1261242866934165,15.0,810.0],["TMEM165",0.11372329663898768,-3.2601145853245774,17.0,808.0],["TMEM182",0.11609470156340239,-3.3653747206566034,16.0,809.0],["TMEM50A",0.10954178401384637,-3.0786921129022637,8.0,817.0]],"bottom":[["AANAT",-0.08711219354920795,-2.20674185046134,9.0,816.0],["C6orf52",-0.08583888900973265,-2.1624234163297773,16.0,809.0],["CASC10",-0.07473140578402653,-1.7959634286323578,10.0,815.0],["FNDC8",-0.08486926412855249,-2.1289114043736395,19.0,806.0],["NCR2",-0.09657301524215828,-2.5545229658862034,15.0,810.0],["NUDT9",-0.08380066676090993,-2.0921732303605007,14.0,811.0],["SLC39A9",-0.08821368852005905,-2.2459832442732264,19.0,806.0],["TNFAIP8",-0.08134503197406179,-2.0094786784171697,19.0,806.0]]}}}
{"depmap_damaging":{"corr":{"top":[],"bottom":[]},"para":{"top":[["CACNA1A",0.1020184830599584,-2.7654898396736334,16.0,808.0],["ERVW-1",0.10032635975784382,-2.697993037096437,10.0,814.0],["MMRN1",0.08876833618566925,-2.2636281168813324,11.0,813.0],["SLC6A9",0.0972825941970437,-2.5792201224698643,8.0,816.0]],"bottom":[["ATP2C1",-0.09482916521332675,-2.4857985079877913,8.0,816.0],["CRY1",-0.07762759570951401,-1.88602986133227,8.0,816.0]]}}}
{"ccle_mirna":{"corr":{"top":[],"bottom":[]},"para":{"top":[["hsa-miR-2116_miR00703.1",0.10578541087144845,-2.6161234306549055,820],["kshv-miR-K12-6-3p_miR00794.1",0.13678989248214452,-4.0700925997458866,820]],"bottom":[]}}}
{"prism_primary_logfold":{"corr":{"top":[["GR-103691_BRD-K50891186-001-04-4::2.5::HTS",0.15479367442977054,-3.1309404524662394,472]],"bottom":[]},"para":{"top":[],"bottom":[]}}}
{"prism_secondary_logfold":{"corr":{"top":[["vanoxerine_BRD-K32501161-300-06-2::0.625::HTS002",0.16204535121941643,-3.053622137466054,418]],"bottom":[["remoxipride_BRD-K54094468-003-11-1::0.625::HTS002",-0.18853685756113045,-3.2736515544486875,334]]},"para":{"top":[["prazosin_BRD-K49111258-003-29-7::0.00976562::HTS002",0.1919801269288899,-4.046830822296468,411],["gilteritinib_BRD-K72280606-001-01-2::2.5::MTS006",0.1658599683911885,-3.13290904661946,411]],"bottom":[["daclatasvir_BRD-K82861010-001-02-5::0.00061034::HTS002",-0.1792700277508153,-3.2675492698188187,369]]}}}
{"ccle_proteomics":{"corr":{"top":[["SART3_F8VV04",0.37574570606608254,-4.281486007932952,110]],"bottom":[]},"para":{"top":[["ABCB1_P08183",0.22327578058228836,-2.9852285804084557,213],["PRKAA2_P54646",0.28834916114676584,-2.461723258912582,101],["TMTC4_Q5T4D3-3",0.24920334218781492,-2.1869101508698634,118]],"bottom":[]}}}
{"avana":{"corr":{"top":[["TRMT10C_54931",0.17157920902692228,-3.6826442128300854,463]],"bottom":[]},"para":{"top":[["WNK3_65267",0.20196207344046627,-4.648816683694794,434]],"bottom":[["STEAP3_55240",-0.18430589851916213,-4.178684895217775,463]]}}}
{"drive":{"corr":{"top":[],"bottom":[]},"para":{"top":[["SIX5_147912",0.20995700483753962,-3.7584518834929854,315]],"bottom":[]}}}
{"achilles":{"corr":{"top":[],"bottom":[]},"para":{"top":[["HEPACAM_220296",0.2729678615473844,-4.338059424608839,217]],"bottom":[]}}}
{"ccle_rrbs_tss1kb":{"corr":{"top":[["MCM8_20_5930297_5931297",0.4984971939982501,-51.81183735838237,817]],"bottom":[]},"para":{"top":[],"bottom":[]}}}
{"ccle_gene_tpm":{"corr":{"top":[["AL158151.1_ENSG00000220992.1",0.379890872240362,-28.753140630596285,818],["RP1-161C16.1_ENSG00000216902.3",0.33361773456846183,-21.98947248297726,818],["CNOT4P1_ENSG00000236704.1",0.22445835302086922,-10.074612046382239,818],["RP11-386P4.1_ENSG00000263688.1",0.37989087224036205,-28.753140630596285,818]],"bottom":[]},"para":{"top":[],"bottom":[]}}}
{"ccle_rrbs_tss_clusters":{"corr":{"top":[["ACTR2",0.631738626584745,-92.37823535978076,825]],"bottom":[["CES1_3",-0.21922991017219942,-3.387271149719854,256],["MCPH1_5",-0.206426801177712,-8.343580068567103,792],["C1orf216_5",-0.1878230797916173,-6.898984334599676,780]]},"para":{"top":[["ACTR2",0.6357463760374189,-93.8981308053731,825]],"bottom":[["CES1_3",-0.21397963884078244,-3.2464189920629023,256]]}}}
{"ccle_rrbs_cgi_clusters":{"corr":{"top":[["2_65452553_65457444-1",0.631738626584745,-92.37823535978076,825]],"bottom":[["16_55864647_55868998-3",-0.21922991017219942,-3.387271149719854,256],["1_36182248_36186774-2",-0.1878230797916173,-6.898984334599676,780],["10_120799661_120804226-3",-0.30736163893409646,-10.618312547928298,452],["21_9435272_9438372-2",-0.30576559281878724,-4.254556259981068,168],["21_9435272_9438372-1",-0.3556505346858966,-5.620188290372126,167]]},"para":{"top":[["2_65452553_65457444-1",0.6357463760374189,-93.8981308053731,825]],"bottom":[["16_55864647_55868998-3",-0.21397963884078244,-3.2464189920629023,256]]}}}
