{"depmap_hotspot":{"corr":{"top":[],"bottom":[["ALG9",-0.10163996491935995,-2.437112700018725,17.0,799.0],["ANGPT2",-0.06943229378009691,-1.3242496601002256,14.0,802.0],["DEFB115",-0.08766478370680544,-1.9122730195982907,14.0,802.0],["KRTAP10-9",-0.08460505745702396,-1.8060314397121693,14.0,802.0],["LEPREL1",-0.10535007172967356,-2.587489937837403,34.0,782.0],["OLFML1",-0.1143221265169232,-2.9705774026409437,22.0,794.0],["OR10G7",-0.10362138212312835,-2.516841379174511,35.0,781.0],["OR10R2",-0.11596869506140213,-3.0438910245207524,31.0,785.0],["PAQR6",-0.09469362714932231,-2.16807433194544,17.0,799.0],["SGCD",-0.09525876995603859,-2.1893568895578848,28.0,788.0],["TGS1",-0.11862627346509222,-3.1642016353991913,49.0,767.0]]},"para":{"top":[["ATP6AP1",0.1443066296054158,-4.721034501489118,19.0,797.0],["CALHM2",0.135845539768782,-4.277928421085736,20.0,796.0],["CFL1",0.1231124450195971,-3.6562216367873375,12.0,804.0],["DCUN1D1",0.10122221093528833,-2.7138582175405657,8.0,808.0],["METTL21A",0.11596520646642869,-3.331096523498063,11.0,805.0],["MRPS10",0.11355157256981616,-3.224985813377433,8.0,808.0],["TMEM55B",0.11791212627214154,-3.418107298258709,15.0,801.0]],"bottom":[["OR4K17",-0.10963510231433338,-3.057710461240679,29.0,787.0]]}}}
{"depmap_damaging":{"corr":{"top":[],"bottom":[["CNTNAP5",-0.12426421929331824,-3.423963420944538,20.0,795.0],["ELAVL2",-0.10477799235690324,-2.5613736043001314,36.0,779.0],["FAM129A",-0.08145315647707674,-1.6981481071436455,8.0,807.0],["FERMT2",-0.13525555623247482,-3.968911695951407,21.0,794.0],["NDRG2",-0.09790267899437123,-2.288031634285416,9.0,806.0],["RBM10",-0.10750374596559431,-2.6741789182725784,8.0,807.0],["RSL1D1",-0.05419121203952744,-0.913116348430151,9.0,806.0],["SPAG5",-0.12136904177185986,-3.2874868609987904,8.0,807.0]]},"para":{"top":[["ADAMTSL3",0.124151909040112,-3.701519586412657,18.0,797.0],["DPP7",0.11106466492903996,-3.1151447471714433,12.0,803.0],["FBN3",0.12682792390508152,-3.8284480347608656,20.0,795.0],["FRMD4A",0.14372309035656808,-4.684944640975418,18.0,797.0],["MRC2",0.13406809309498025,-4.183419883321014,10.0,805.0],["NOTCH1",0.1294908889518593,-3.9570926381859857,20.0,795.0],["PRKD1",0.10312843222931407,-2.7870765654189023,8.0,807.0],["PROX1",0.11391306284015938,-3.237925633513851,13.0,802.0],["ZNF668",0.10220640521219575,-2.750387152805691,9.0,806.0]],"bottom":[["CNTNAP5",-0.11204678247454913,-3.1573694827681598,20.0,795.0],["FERMT2",-0.11114342922811696,-3.1187242469727727,21.0,794.0]]}}}
{"ccle_metabolomics":{"corr":{"top":[],"bottom":[]},"para":{"top":[],"bottom":[["C18:0 LPC",-0.15444615309479712,-4.9359315478961845,799]]}}}
{"prism_primary_logfold":{"corr":{"top":[],"bottom":[]},"para":{"top":[],"bottom":[["sodium-butyrate_BRD-K05878375-236-05-7::2.5::HTS",-0.16269160016433726,-3.2125309243481452,440],["taranabant_BRD-K35169477-001-01-9::2.5::HTS",-0.15748750296794517,-3.1668551388382897,462],["thioguanine_BRD-K49350383-001-13-7::2.5::HTS",-0.19116938918378173,-4.451918888580351,462]]}}}
{"prism_secondary_logfold":{"corr":{"top":[["SB-2343_BRD-K98795921-001-01-7::0.00061034::HTS002",0.1902295790617633,-3.9731078271966815,410]],"bottom":[]},"para":{"top":[["idelalisib_BRD-K60866521-001-07-1::0.625::HTS002",0.22594283312936114,-4.236221810446906,311]],"bottom":[["norfloxacin_BRD-K11196887-001-22-0::2.49495::HTS002",-0.20511285501935433,-4.486201843956354,404],["FK-866_BRD-K58550667-001-08-7::0.0390625::HTS002",-0.2596923311180827,-6.374448834459262,369],["deflazacort_BRD-K96006502-001-02-6::2.5::HTS002",-0.21465557330680354,-4.6442004585043914,383]]}}}
{"ccle_proteomics":{"corr":{"top":[["ZSCAN26_Q16670",0.28491137309373027,-4.7694192610975215,221],["C18orf21_Q32NC0",0.2533605693116965,-4.598140917498872,270]],"bottom":[]},"para":{"top":[],"bottom":[]}}}
{"depmap_copy_number":{"corr":{"top":[],"bottom":[["CDKAL1_54901",-0.1911629984162543,-7.419915258169699,815]]},"para":{"top":[],"bottom":[]}}}
{"depmap_gene_tpm":{"corr":{"top":[],"bottom":[["PRPH2_5961",-0.2855339539860328,-15.972539876852116,812],["LACC1_144811",-0.28471358178870854,-15.881760849523323,812]]},"para":{"top":[["FGF8_2253",0.2819520477271966,-15.57838114443409,812]],"bottom":[]}}}
{"avana":{"corr":{"top":[],"bottom":[["LSM3_27258",-0.18489797537793926,-4.162687794151344,458],["PLK4_10733",-0.18536169869552566,-4.181271779117699,458]]},"para":{"top":[["SLC6A19_340024",0.21820120511263488,-5.614289394333778,458],["WASHC5_9897",0.1729820695222283,-3.7005600948984125,458]],"bottom":[["ASTN1_460",-0.17914870681268152,-3.9360255574270133,458],["LSM3_27258",-0.17560919918774076,-3.799910161959591,458],["SYDE1_85360",-0.20013427648365453,-4.797134204433153,458],["TCIRG1_10312",-0.189712600638603,-4.357843807889074,458]]}}}
{"drive":{"corr":{"top":[["AURKAPS1_6791",0.26577528622478946,-5.931625609013433,325],["TFDP1_7027",0.22860705955866842,-4.363365508644206,314]],"bottom":[]},"para":{"top":[],"bottom":[["COL16A1_1307",-0.2531678117589772,-5.224876113376637,312],["GABPB1_2553",-0.23570268067852937,-4.611312410585696,314],["GPR63_81491",-0.27032956790773344,-5.900448214401845,312]]}}}
{"achilles":{"corr":{"top":[["MSH4_4438",0.22739520624444082,-3.0568535072615477,211]],"bottom":[["NUPL2_11097",-0.29093510308513804,-4.756215439153299,211],["EXOSC3_51010",-0.3065924004577674,-4.003794613320784,156]]},"para":{"top":[],"bottom":[]}}}
{"ccle_rrbs_tss1kb":{"corr":{"top":[["GPRC5B_16_19896956_19897956",0.539804474399465,-61.87073658780728,812],["LINC02609_1_91301718_91302718",0.4789284337224464,-47.176135901030435,814]],"bottom":[["TMEM87B_2_112811799_112812799",-0.15902812687235585,-3.1607044817577754,452]]},"para":{"top":[["GPRC5B_16_19896956_19897956",0.5173538011129496,-56.05779784997543,812]],"bottom":[]}}}
{"ccle_gene_tpm":{"corr":{"top":[],"bottom":[["ATP6V0CP3_ENSG00000213435.3",-0.423384190528499,-35.797586347364614,809],["PRPH2_ENSG00000112619.6",-0.2881957552357398,-16.211882676060167,809],["AC019171.1_ENSG00000269210.1",-0.29224445422061074,-16.6674667618738,809]]},"para":{"top":[["FGF8_ENSG00000107831.8",0.27749800436491806,-15.043193622063704,809],["None_ENSG00000272968.1",0.2429651842384514,-11.60790913555353,809]],"bottom":[["ATP6V0CP3_ENSG00000213435.3",-0.3646392690992266,-26.11850029075772,809]]}}}
{"ccle_rrbs_tss_clusters":{"corr":{"top":[["ATP6V0CP3_1",0.9554463977079117,-323.0051853474518,813],["CYP26C1_2",0.5336709390439998,-39.986741641628186,535],["GPR25_3",0.5049782049810244,-53.09886138024719,813],["GPRC5B_2",0.5343533490756898,-60.418936116486776,812],["DES_1",0.5530161669084823,-65.74052029708251,815],["GPRC5B_4",0.5463188784439594,-63.79545804458611,814],["ATP6V0CP3_2",0.5789168922477657,-72.57821122246511,806],["BEST1_4",0.5679449680356756,-70.1448799903303,816],["MEDAG_1",0.5297502349411723,-59.1416842504789,811],["C12orf56_2",0.5101239288369743,-54.07944788765807,809]],"bottom":[]},"para":{"top":[["ATP6V0CP3_1",0.8594559820373044,-237.81321929825518,813],["MEDAG_2",0.5243814790208765,-57.27002157800795,804],["ACVRL1_4",0.5225162974465125,-57.286639182817204,811],["LRPAP1_5",0.5252621862704951,-57.000339011365554,797],["ATP6V0CP3_3",0.5994131975209167,-68.4846229081354,697],["GPRC5B_4",0.5178900792932775,-56.32777830468998,814],["ATP6V0CP3_2",0.6553377863815317,-99.34331979536748,806],["BEST1_4",0.5314682530428241,-59.950586700472975,816],["SPEG_3",0.5655360597710183,-68.59246335338804,806],["MEDAG_1",0.5272371562348558,-58.49215308188348,811],["C12orf56_2",0.5201970132427519,-56.563735563073344,809]],"bottom":[]}}}
{"ccle_rrbs_cgi_clusters":{"corr":{"top":[["15_89950251_89953130-2",0.5129673613341177,-54.97202283303086,812],["6_42692963_42697631-1",0.9554463977079117,-323.0051853474518,813],["11_61720744_61725483-1",0.5436582056021257,-63.21864446102803,816],["13_31478272_31483105-1",0.5297502349411723,-59.1416842504789,811],["16_19896061_19899156-2",0.5343533490756898,-60.418936116486776,812],["6_42692963_42697631-2",0.5789168922477657,-72.57821122246511,806],["3_12915391_12920016-2",0.5173451418400012,-55.30865709963334,801],["2_220281200_220285750-1",0.548142916547987,-64.45508683011329,816]],"bottom":[]},"para":{"top":[["6_42692963_42697631-3",0.5994131975209167,-68.4846229081354,697],["6_42692963_42697631-1",0.8594559820373044,-237.81321929825518,813],["7_44347111_44351716-3",0.5408919411352359,-62.08813238316812,811],["13_31478272_31483105-2",0.5243814790208765,-57.27002157800795,804],["2_220297483_220302243-3",0.5655360597710183,-68.59246335338804,806],["13_31478272_31483105-1",0.5272371562348558,-58.49215308188348,811],["6_42692963_42697631-2",0.6553377863815317,-99.34331979536748,806]],"bottom":[]}}}
