{"depmap_hotspot":{"corr":{"top":[["ADM2",0.17203155494672265,-6.000014878154821,9.0,790.0],["ALG14",0.2001395500802982,-7.9374102728577345,8.0,791.0],["ARL11",0.12460019320872977,-3.381817023438905,11.0,788.0],["BLVRA",0.2853649454354757,-15.71061430814844,15.0,784.0],["BMPR1B",0.1409757812310787,-4.195830765555071,28.0,771.0],["C8orf58",0.13793100832272837,-4.037415100660401,25.0,774.0],["CDK6",0.1354578525292037,-3.9111268024211956,13.0,786.0],["CIB3",0.16411134485387016,-5.506899815476153,12.0,787.0],["CLDN7",0.22749713817592113,-10.112492988451288,9.0,790.0],["COX7B2",0.14397592002801093,-4.355108751902389,13.0,786.0],["DUS2",0.12588921339060896,-3.4425281010317477,24.0,775.0],["DUXA",0.13037972556003302,-3.6584929253088028,18.0,781.0],["EFCAB4B",0.1773339621134452,-6.342979964296398,49.0,750.0],["FAM105A",0.17126300014791668,-5.951160972604236,19.0,780.0],["FAM183B",0.16197970762182123,-5.3780782998664,11.0,788.0],["FGFBP2",0.14131441724277954,-4.213650509062501,12.0,787.0],["GIPC2",0.26183128245581094,-13.26500705218329,11.0,788.0],["HINT3",0.20189639744862445,-8.068386713179596,9.0,790.0],["IFI27",0.13867110779035752,-4.075622757312355,17.0,782.0],["LOR",0.19002858887125726,-7.206413039241583,16.0,783.0],["NOP16",0.14131441724277954,-4.213650509062501,12.0,787.0],["PLS1",0.146101446369701,-4.469873737528631,26.0,773.0],["RPS15",0.15769076197495555,-5.123856772986474,9.0,790.0],["SCARB2",0.1271490955151208,-3.5024187920386622,15.0,784.0],["SOD3",0.1421114214442711,-4.25574960463432,13.0,786.0],["THRSP",0.1359278595573155,-3.934962782290905,8.0,791.0],["TMEM182",0.19085662784684818,-7.264825720473001,16.0,783.0]],"bottom":[]},"para":{"top":[["CCDC104",0.15994100574554218,-5.504056368993992,15.0,784.0],["LYPD5",0.14851534647268885,-4.863374220357082,8.0,791.0],["OR8K3",0.1980031600709661,-7.951744117529985,35.0,764.0],["PIRT",0.14917439861093446,-4.899250510574954,9.0,790.0],["PLA2G12A",0.13735037950994433,-4.280135122461581,11.0,788.0]],"bottom":[]}}}
{"depmap_damaging":{"corr":{"top":[["A2M",0.2171278260959069,-9.242981926455546,11.0,787.0],["AHCTF1",0.17494390103318525,-6.180103785686008,10.0,788.0],["C8orf58",0.16659987420842054,-5.653009360165348,18.0,780.0],["CDH7",0.17057175362984053,-5.900741038327932,12.0,786.0],["COBLL1",0.1431418633277435,-4.305768227287885,9.0,789.0],["CPSF2",0.13279990890780788,-3.7736715887485413,16.0,782.0],["GRM5",0.18959750156294308,-7.167898471557418,8.0,790.0],["IFI27",0.20902852780882097,-8.60229533807913,9.0,789.0],["PROM1",0.17453319960689442,-6.153563238043393,9.0,789.0],["SLC35G2",0.18583961116524664,-6.906964457065694,9.0,789.0]],"bottom":[]},"para":{"top":[["SHANK1",0.14753094663182273,-4.805544136757829,10.0,788.0],["WDR64",0.14960409062833335,-4.917906342523756,13.0,785.0]],"bottom":[]}}}
{"ccle_rrbs_enhancer_clusters":{"corr":{"top":[],"bottom":[["16-72252566-72255196-1_enh",-0.11545166649072229,-2.8852579183079508,773]]},"para":{"top":[],"bottom":[]}}}
{"ccle_mirna":{"corr":{"top":[],"bottom":[["hsa-miR-921_miR00664.2",-0.1448688301186089,-4.378857708264777,794]]},"para":{"top":[],"bottom":[]}}}
{"prism_primary_logfold":{"corr":{"top":[["bromopride_BRD-K73642618-001-13-3::2.5::HTS",0.15913614986305535,-3.1883698154485405,456],["sulbactam-pivoxil_BRD-A63431791-001-01-9::2.5::MTS004",0.1790276008260666,-3.84876107195174,447]],"bottom":[["CGP-37849_BRD-A90272038-001-01-7::2.5::HTS",-0.18173048425263194,-4.013788394403014,455],["pravastatin_BRD-K60511616-236-08-9::2.5::HTS",-0.18157199740092103,-3.9998803928100024,454],["fleroxacin_BRD-K61717546-001-04-3::2.5::HTS",-0.15215779083328052,-2.9464637151343593,455],["CFM-1571_BRD-K64341947-003-02-4::2.5::HTS",-0.1774557407926264,-3.863220972623776,457]]},"para":{"top":[["PX-12_BRD-A56592690-001-04-3::2.5::HTS",0.16608172837698199,-3.465858836491141,461],["hypoxanthine_BRD-K03739921-001-06-8::2.5::HTS",0.1777739451837799,-3.860644099514111,455],["selexipag_BRD-K21191422-001-01-5::2.499985534::MTS004",0.16060348237486125,-3.172232343882741,445],["dyclonine_BRD-K72259270-003-25-6::2.444857586::MTS004",0.15500675332152192,-2.9959903660987606,447]],"bottom":[]}}}
{"prism_secondary_logfold":{"corr":{"top":[["regorafenib_BRD-K16730910-001-10-7::0.00244::MTS010::PROS004_PR500",0.20220865801475166,-4.286820321486272,395]],"bottom":[["rabeprazole_BRD-A39390670-236-10-7::0.625::HTS002",-0.24593241844696756,-4.57022729544933,285],["lanoconazole_BRD-A54275602-001-01-0::0.15625::HTS002",-0.20487752375777923,-3.300649994442385,285],["sulfasalazine_BRD-K10670311-001-15-5::0.00061034::HTS002",-0.26643382937151544,-3.0078617342370175,150],["stattic_BRD-K17061841-001-03-5::0.00976562::HTS002",-0.20997207968417056,-4.421958689214863,379],["sonidegib_BRD-K19796430-001-05-6::0.625::MTS010::PROS004_PR500",-0.2045406354822592,-4.375756998310026,395],["costunolide_BRD-K26833429-001-02-8::0.0024414::HTS002",-0.20433339473518783,-4.367812403630818,395],["tecastemizole_BRD-K48195801-001-01-6::0.00976562::HTS002",-0.22931542315181297,-5.542828159398817,408],["ONX-0914_BRD-K60446698-001-01-2::0.0024414::HTS002",-0.19514200866711656,-3.9966594812273026,392],["TMC-353121_BRD-K66097663-001-01-8::0.00061034::HTS002",-0.24523414262690507,-6.093933198849529,395]]},"para":{"top":[["venetoclax_BRD-K62391742-001-09-7::0.15625::MTS010::PROS001_PR500",0.16907267894072325,-3.0962369205434235,390],["erdafitinib_BRD-K84868168-001-01-0::0.009765625::MTS006",0.15892793429887794,-2.8331747253428077,398]],"bottom":[["leucovorin_BRD-A75919782-399-02-6::0.00976562::HTS002",-0.18914014466096774,-3.452864693842742,353],["WP1066_BRD-K05445342-001-05-3::0.641407::HTS002",-0.17030794306547548,-3.1628718847040864,394],["benzyldimethylhexadecylammonium_BRD-K23403298-003-01-9::0.00244141::HTS002",-0.18281422512704126,-3.609436034612913,398],["MK-8745_BRD-K25279140-001-01-5::0.15625::HTS002",-0.18312359677532453,-3.469955695525429,379],["flutamide_BRD-K28307902-001-21-7::0.0024414::HTS002",-0.17403701567696322,-3.305233121625564,397]]}}}
{"ccle_proteomics":{"corr":{"top":[],"bottom":[["LRIG2_O94898",-0.28028486468454444,-5.093488749402648,246],["ZNF770_Q6IQ21",-0.2857984965028085,-4.349317388885774,198]]},"para":{"top":[["HLA-B_P30484",0.23151067236350398,-3.3723852366328506,228],["PTPRB_P23467-3",0.29496437777354445,-4.046269151191101,171],["MCUR1_Q96AQ8",0.1961370188529544,-3.297916758256987,311],["STRA13_A8MT69",0.19742306410729826,-2.4277272413211652,214]],"bottom":[["IFRG15_Q9H496",-0.26769691866313794,-3.1374087686502348,156],["RBP4_P02753",-0.24215745728835228,-2.933713169722686,177]]}}}
{"depmap_gene_tpm":{"corr":{"top":[["KPRP_448834",0.2252573260009094,-9.888694260737507,796]],"bottom":[]},"para":{"top":[["CT47A1_728096",0.12229848715852944,-3.2642906151497924,796]],"bottom":[]}}}
{"avana":{"corr":{"top":[["MRPL52_122704",0.18790940592512625,-4.185271015083648,446]],"bottom":[]},"para":{"top":[["ACRV1_56",0.1607891972836373,-3.1846810206542293,446],["CHST6_4166",0.16267618299704079,-3.249540764461266,446],["LRRK1_79705",0.1675113957732318,-3.418952610942232,446],["PACRG_135138",0.1946755310845034,-4.458206036896407,446]],"bottom":[["CCDC112_153733",-0.1648732787267099,-3.3259460688287223,446],["CHCHD3_54927",-0.19154822797318563,-4.33088051612258,446],["RASGRP2_10235",-0.18015218530302315,-3.8839205500949556,446]]}}}
{"drive":{"corr":{"top":[["PTPRG_5793",0.2569311634774647,-5.2296078083520605,303],["RGR_5995",0.235179484308142,-4.44976380058978,303],["KALRN_8997",0.2736879888450788,-5.915267772861194,305]],"bottom":[["ARHGAP31_57514",-0.2710121434228573,-5.773269437947098,303]]},"para":{"top":[["PPP1R12B_4660",0.19772090358732405,-3.2702363370420082,303]],"bottom":[]}}}
{"achilles":{"corr":{"top":[["CRYGC_1420",0.24192073198406774,-3.421770947669494,212],["PCDHGA1_56114",0.23901942023834097,-5.41157059994124,365]],"bottom":[["TSGA13_114960",-0.31564857010600317,-5.561763238072788,212],["CLEC16A_23274",-0.24376764487830702,-3.4681455518524342,212],["GPI_2821",-0.2932151252754436,-7.943460838493086,365]]},"para":{"top":[["C11orf74_119710",0.29317471465521233,-4.844616645562403,212],["ANKS1A_23294",0.221231469001529,-2.9261890803747024,212],["ST6GALNAC5_81849",0.18505408081984556,-3.420996891243534,365]],"bottom":[["TBC1D3K&TBC1D3C_101060351&414060",-0.20853759832695154,-2.6433979005159682,212],["DNAJC11_55735",-0.23950057300579655,-3.36153808394887,212],["MORN1_79906",-0.24014551596514302,-3.3775301718375497,212]]}}}
{"ccle_rrbs_tss1kb":{"corr":{"top":[["FAM204A_10_120101839_120102839",0.3889183002531141,-28.376200600470682,767],["GATB_4_152682175_152683175",0.5139960415820556,-53.35235374685168,784],["WDFY2_13_52157483_52158483",0.3903732064510095,-29.648982228846183,796],["RAB4B-EGLN2_19_41283123_41284123",0.42032878659116785,-34.3102873902298,787],["TWF1_12_44200178_44201178",0.43200302993037737,-36.5300688423905,790],["CABIN1_22_24406764_24407764",0.4177958232231788,-23.58309965398282,542],["FANCI_15_89786193_89787193",0.4771484442813735,-29.291718269986514,504]],"bottom":[["EPHX3_19_15343858_15344858",-0.15659088403146276,-5.048446655141756,797],["IL3_5_131395346_131396346",-0.13691917139986126,-3.90706727214891,781]]},"para":{"top":[],"bottom":[["LINC01091_4_124694418_124695418",-0.10877617246734438,-2.682655211636581,799]]}}}
{"ccle_gene_tpm":{"corr":{"top":[["RN7SL479P_ENSG00000239560.2",0.3810709153787311,-28.082064969302238,793],["None_ENSG00000270033.1",0.260089956912425,-13.000578320963939,793],["AP000445.2_ENSG00000254926.1",0.45666896003915336,-41.38170232630344,793],["KPRP_ENSG00000203786.5",0.22402088360046943,-9.751215018015927,793],["RP11-449M6.2_ENSG00000253721.1",0.217510455919334,-9.219953403814714,793],["RP11-107C10.1_ENSG00000260795.1",0.286196691736862,-15.688494925977515,793]],"bottom":[]},"para":{"top":[["OR3A2_ENSG00000221882.2",0.1443902525984407,-4.34841727157769,793],["RP11-805L22.1_ENSG00000266448.1",0.1708252025548938,-5.883317976719786,793],["ZMYND10-AS1_ENSG00000235058.1",0.13177508806714103,-3.7027338191768706,793],["RP11-170L3.7_ENSG00000197476.2",0.14220803630064857,-4.232766288439833,793],["RP11-292I17.1_ENSG00000255704.1",0.17007221823554453,-5.836129544685121,793],["RP11-38G5.3_ENSG00000259229.2",0.17385833841560147,-6.075487493351917,793]],"bottom":[["CTB-152G17.4_ENSG00000271482.1",-0.11563677529824865,-2.956396696969156,793]]}}}
{"ccle_rrbs_tss_clusters":{"corr":{"top":[["OXSR1_3",0.34704125503050076,-22.82460364804972,782],["RAB4B-EGLN2_3",0.36074514367551747,-24.871996746244672,787],["GATB",0.39991183591834595,-31.008976105597572,791]],"bottom":[["RPL7A_2",-0.2780547076710746,-14.588325970376149,780],["CCDC107_2",-0.1704958609687708,-5.822682984578738,787],["MIR6079_2",-0.16610919062421758,-5.191745495825217,730],["LOC284009_2",-0.2336869996223686,-5.51032877879624,390]]},"para":{"top":[],"bottom":[["GTF2A1L_3",-0.1601521771412902,-2.809295818001073,388],["LOC101927419_2",-0.16130461396557375,-3.977867710092792,573],["CDYL_10",-0.16455851092076068,-3.2445774387794493,435]]}}}
{"ccle_rrbs_cgi_clusters":{"corr":{"top":[["22_20427818_20430590-1",0.651867469142075,-26.66945161762727,215],["1_115053662_115056264-1",0.46048619307456923,-42.40686126804927,798],["4_152680041_152684293-1",0.39991183591834595,-31.008976105597572,791],["19_41281880_41286276-2",0.36074514367551747,-24.871996746244672,787]],"bottom":[["13_25467077_25471388-1",-0.2816104413593782,-9.17971835740426,464],["7_75956865_75961074-2",-0.2702715283464143,-12.405980868152273,697],["16_2007496_2011919-1",-0.18259393163541723,-6.159368847202722,729],["1_228747005_228751901-1",-0.2090899556110372,-4.111961311564272,352]]},"para":{"top":[],"bottom":[["19_39279367_39282515-2",-0.1502972681678609,-4.429786442944205,747],["6_13362999_13367949-3",-0.20200576616386584,-3.944227961717242,360],["2_208544082_208548562-1",-0.1471525921080536,-4.477189424598999,789],["22_21535575_21538212-1",-0.2622837687717413,-4.703831102143801,258]]}}}
