{"depmap_hotspot":{"corr":{"top":[],"bottom":[["CCNB3",-0.08428547925021718,-1.7845427589780696,50.0,760.0],["COL19A1",-0.12031454648295639,-3.2214990221511237,88.0,722.0],["CYP4Z1",-0.10214874597191222,-2.4424366313807786,26.0,784.0],["NXPE1",-0.0822622809432826,-1.716646126178669,31.0,779.0],["PDGFA",-0.08875337251008338,-1.939210865832634,21.0,789.0],["SLC25A53",-0.07604441992589243,-1.5162671875470903,18.0,792.0]]},"para":{"top":[["BTC",0.07194911763761914,-1.6905032505024684,8.0,802.0],["C1orf174",0.0927462837376953,-2.3788781670833656,8.0,802.0],["ENSA",0.09416123855580065,-2.4307295414963592,8.0,802.0],["GSTM4",0.09286033594651778,-2.3831754329457304,11.0,799.0],["LYPD5",0.09376077964501611,-2.4159891386318058,8.0,802.0],["MTERF",0.11749947242732851,-3.3802951221509323,19.0,791.0],["RBMS1",0.12970395664223974,-3.9480298262895825,20.0,790.0]],"bottom":[["C17orf72",-0.08724473964112683,-2.1834420980358162,9.0,801.0],["C5orf49",-0.1040145251574849,-2.8099284531340087,11.0,799.0],["CYP4Z1",-0.11139147545933267,-3.114756488341661,26.0,784.0],["FAM126B",-0.11407964946056114,-3.230131734570989,24.0,786.0],["HRASLS5",-0.08903463771624703,-2.246125566273531,13.0,797.0],["NANOG",-0.11284778660696296,-3.1766844063764337,12.0,798.0],["OR51V1",-0.11754453473045544,-3.3822798296642387,18.0,792.0],["OR9K2",-0.13067859589114078,-3.9955369428170124,22.0,788.0],["RAD51D",-0.09159267874623635,-2.3373979775167615,18.0,792.0],["REM2",-0.08190528097948743,-2.002966247501044,9.0,801.0],["RHOG",-0.09159379191306524,-2.3372218743726747,10.0,800.0],["RP9",-0.08174345459430175,-1.9976801052842306,10.0,800.0],["SMR3A",-0.09745139541572795,-2.553902892462585,10.0,800.0],["TMED6",-0.07812736211511993,-1.8807407641916292,9.0,801.0],["UGT1A5",-0.11981882532261388,-3.484188249822197,12.0,798.0],["VHLL",-0.08292169179311505,-2.036571651519,8.0,802.0]]}}}
{"depmap_damaging":{"corr":{"top":[],"bottom":[["CKAP5",-0.1047903895704044,-2.546129060956393,37.0,772.0],["KDM6A",-0.09124328520451817,-2.02621242817012,20.0,789.0],["LRRC37A3",-0.08772201508058794,-1.9010331311009363,14.0,795.0],["SACS",-0.10474628601680107,-2.5443367607087186,47.0,762.0],["ZNF343",-0.07780394314342186,-1.5701802248826862,13.0,796.0]]},"para":{"top":[],"bottom":[["ADSSL1",-0.08818940154774768,-2.214412919659372,9.0,800.0],["BCL9",-0.09303391460051329,-2.3873674882519254,10.0,799.0],["CCDC160",-0.09368131080030384,-2.4112042557727587,15.0,794.0],["CHEK2",-0.09207528648003754,-2.3525080934116045,9.0,800.0],["DIP2C",-0.10065100647563262,-2.674522686478372,10.0,799.0],["DPP8",-0.07945886661179834,-1.921798408440051,11.0,798.0],["KIAA2022",-0.118468439607582,-3.42004312122835,11.0,798.0],["LAMB4",-0.09553608414506831,-2.479737448477171,13.0,796.0],["LRRC37A3",-0.09800429002793197,-2.57275722192775,14.0,795.0],["PLK1",-0.07227024995490501,-1.6987568788584262,8.0,801.0],["SYT10",-0.11412894512173465,-3.2287912608628844,9.0,800.0],["UBAP2L",-0.06654640336336189,-1.5327976387958844,8.0,801.0],["UGT2A1",-0.09455045654722032,-2.44294232093807,8.0,801.0],["ZNF343",-0.08640132747642772,-2.152636360414763,13.0,796.0],["ZNF668",-0.08422781755833525,-2.0785979803955406,9.0,800.0]]}}}
{"prism_primary_logfold":{"corr":{"top":[["isoconazole_BRD-A93353767-008-02-2::2.5::HTS",0.16318635103242748,-3.3928429082843787,466],["4-(4-fluorobenzoyl)-1-(4-phenylbutyl)-piperidine_BRD-K47337578-034-02-5::2.5::HTS",0.15867618612547255,-3.2082093986351805,462]],"bottom":[["pinitol_BRD-A69275535-001-01-5::2.5::HTS",-0.1857443253843277,-4.2610465841640375,466],["scriptaid_BRD-K22503835-001-11-0::2.5::HTS",-0.19617162403975336,-4.690037782531622,465],["quipazine_BRD-K77925998-050-14-3::2.5::HTS",-0.16358046624762437,-3.381878378311844,462]]},"para":{"top":[],"bottom":[["CID-5458317_BRD-A08840375-001-01-3::2.5::HTS",-0.19581018067140346,-4.594202449326248,456],["eptifibatide_BRD-A90547603-001-02-5::2.5::HTS",-0.1698645013271319,-3.631955472331252,465],["droloxifene_BRD-K38477637-001-01-0::2.652726792::MTS004",-0.2144302078575115,-5.373844397441397,452],["carboxyamidotriazole_BRD-K68408772-001-05-4::2.420640995::MTS004",-0.17317149998227566,-3.6654436424247527,452]]}}}
{"prism_secondary_logfold":{"corr":{"top":[["pyroxamide_BRD-K11663430-001-02-3::0.00976562::HTS002",0.18550256017115074,-3.581673507386169,383],["niclosamide_BRD-K35960502-001-20-0::0.0390625::HTS002",0.20019164267919604,-4.295091755789359,404],["XBD173_BRD-K45875383-001-01-2::0.625::HTS002",0.16400844488333965,-2.8937423780645704,383],["securinine_BRD-K49071277-001-04-7::0.00061034::HTS002",0.17132471190820672,-3.195585116856852,394]],"bottom":[["butylscopolamine-bromide_BRD-A53951045-004-01-6::10::HTS002",-0.19849613441591218,-4.054974887175094,385],["chlorindanol_BRD-K01653460-001-01-1::10::HTS002",-0.22807565892274875,-5.427417164627169,403],["tenovin-6_BRD-K13949769-001-01-7::0.00061034::HTS002",-0.22173704269231123,-5.131771163659748,401],["belinostat_BRD-K17743125-001-08-4::2.5::HTS002",-0.20145390726958176,-4.277242103132803,397],["AZD4547_BRD-K28392481-001-05-1::10::HTS002",-0.2170795344964417,-4.959256667244834,403],["crystal-violet_BRD-K60025295-003-06-6::10::HTS002",-0.20199061685306713,-4.326269967137663,400],["diphenyleneiodonium_BRD-K65814004-003-02-9::2.5::HTS002",-0.20753848479651338,-4.400959813591876,386],["oxyquinoline_BRD-K66808046-065-03-7::0.15625::HTS002",-0.1988645903883802,-3.854769046288158,362],["WZ-3146_BRD-K73293050-001-03-1::0.0024414::HTS002",-0.22239130644376312,-4.986563474480358,386],["vorinostat_BRD-K81418486-001-47-5::2.5::HTS002",-0.21453648004502524,-4.832878895310551,401],["cediranib_BRD-K86930074-001-05-0::10::HTS002",-0.2501853804370862,-6.543170806091274,410]]},"para":{"top":[["niclosamide_BRD-K35960502-001-20-0::0.0390625::HTS002",0.22489980664745923,-5.301544193234079,404]],"bottom":[["ixazomib-citrate_BRD-A66419424-001-02-4::2.5::HTS002",-0.20338605289743544,-4.215419823602661,383],["prednisolone-hemisuccinate_BRD-A78391468-001-02-8::10::HTS002",-0.19941782103186434,-4.256157347002421,403],["CHIR-124_BRD-K02241333-001-02-7::10::HTS002",-0.20515913035857522,-4.310913424349481,386],["IKK-16_BRD-K14618467-001-04-6::10::HTS002",-0.19754341226531782,-4.130198067502161,397],["AZD4547_BRD-K28392481-001-05-1::10::HTS002",-0.21595147584604055,-4.91256140194267,403],["crystal-violet_BRD-K60025295-003-06-6::10::HTS002",-0.18926112555610045,-3.8533063939976695,400],["diphenyleneiodonium_BRD-K65814004-003-02-9::2.5::HTS002",-0.21058639458779294,-4.517816655653417,386],["WZ-3146_BRD-K73293050-001-03-1::0.0024414::HTS002",-0.22399408887545186,-5.052203344073653,386],["cediranib_BRD-K86930074-001-05-0::10::HTS002",-0.23212631501456538,-5.693538904592044,410]]}}}
{"ccle_proteomics":{"corr":{"top":[["SLC43A1_O75387",0.3762073640171322,-4.640352658488305,120],["ZBED5_Q49AG3",0.2789873161690651,-2.519224147345986,111]],"bottom":[]},"para":{"top":[["PTOV1_Q86YD1",0.3088975372881307,-3.0125615958303302,111],["CENPP_Q6IPU0",0.30292785189090704,-4.556846862994991,185],["SLC43A1_O75387",0.3242491415061096,-3.5188790519463944,120],["DNAH3_Q8TD57",0.32209040842283615,-4.70981711456759,169]],"bottom":[]}}}
{"depmap_gene_tpm":{"corr":{"top":[],"bottom":[]},"para":{"top":[["SKP2_6502",0.2805816614872322,-15.320683859814672,806]],"bottom":[]}}}
{"avana":{"corr":{"top":[],"bottom":[["BTD_686",-0.1699644116538023,-3.5678293862331207,455],["C4orf3_401152",-0.17482580363411587,-3.748633711952815,455],["LSM8_51691",-0.17885652329993254,-3.902225072126456,455],["RCOR3_55758",-0.2088902178267696,-5.113354452944703,451],["SIX1_6495",-0.1720109450867723,-3.643354207685211,455],["TLNRD1_59274",-0.17888531195344842,-3.9033341278449636,455],["TMCC2_9911",-0.17114872073791149,-3.611430551318066,455]]},"para":{"top":[["CNTN4_152330",0.15711328643067135,-3.1129928560145155,455],["HMGCR_3156",0.1754097907970061,-3.7706793401285394,455],["TRPM5_29850",0.1917883090336749,-4.417777229093256,455],["YME1L1_10730",0.17423470778546518,-3.72639110049799,455]],"bottom":[["ACOT7_11332",-0.18055506162003626,-3.967953152097151,455],["DCP2_167227",-0.16778584791330728,-3.488370861534886,455],["IMPA2_3613",-0.18663390934366175,-4.20809737192371,455],["LSM8_51691",-0.1785087692925303,-3.8888417134242608,455],["MYO5C_55930",-0.18046789664992888,-3.9645655958242627,455],["SIX1_6495",-0.18221577384712737,-4.032795778328369,455],["SLC16A5_9121",-0.1678042488777761,-3.489037952965188,455],["SLC16A6_9120",-0.16701946890494065,-3.460648382879799,455],["ZSWIM5_57643",-0.17225896825631024,-3.6525653720304225,455]]}}}
{"drive":{"corr":{"top":[["TG_7038",0.2343980283835008,-4.500594211660287,309]],"bottom":[["PPIE_10450",-0.31919768926370634,-8.021363329947581,309],["DUSP7_1849",-0.2272564081971668,-4.256291192223288,309],["MPG_4350",-0.2344230629963087,-4.669228463441922,322]]},"para":{"top":[["TG_7038",0.239529180415682,-4.680887756466538,309]],"bottom":[["SMYD5_10322",-0.2160321427337675,-3.9207459783486565,312],["NUDT4P2&NUDT4P1_170688&440672",-0.2404879932059022,-4.715022899888662,309],["MEPCE_56257",-0.20801137617819274,-3.66638253115467,312],["UBE3B_89910",-0.19391508050896042,-3.2420730227933547,312]]}}}
{"achilles":{"corr":{"top":[["STT3B_201595",0.25437027074890256,-3.725826507355956,211],["ERBB4_2066",0.22436225798606851,-4.832383229795678,366],["PTRHD1_391356",0.32185203377899024,-5.745583033231505,211],["PLEKHG6_55200",0.22265463841116145,-2.946949783297295,211]],"bottom":[["KDF1_126695",-0.23531185548891917,-3.2454365270496215,211],["HIST1H4H_8365",-0.24924643171651104,-3.5929580652462416,211]]},"para":{"top":[["TXLNGY_246126",0.247054713792261,-3.5369643007165337,211],["GPR150_285601",0.24481051397047476,-5.6697215078166225,366],["SPOUT1_51490",0.21137758603341958,-2.694472677378804,211]],"bottom":[["PPIAP30_100192204",-0.2282165180610348,-4.984457333431329,366],["OSBPL9_114883",-0.2681801643282307,-4.09783017653889,211],["KDF1_126695",-0.2308852205163705,-3.1392074832140335,211],["ZNF385C_201181",-0.289539472006626,-4.714168920407197,211],["KRT8_3856",-0.22409472296554994,-4.821925390990011,366],["MRPL27_51264",-0.258073460258243,-3.823581193505788,211],["FAM45BP_55855",-0.2661610474202821,-4.04216152484882,211]]}}}
{"ccle_rrbs_tss1kb":{"corr":{"top":[["PGS1_17_76373698_76374698",0.45832220546145064,-42.586877764727134,810],["TMEM19_12_72078877_72079877",0.4210648133291257,-35.12168041767139,803],["GPSM2_1_109418602_109419602",0.466857235736134,-44.30386414579027,809],["SF3A3_1_38455782_38456782",0.41786454046156357,-34.80334442642521,809]],"bottom":[]},"para":{"top":[["PGS1_17_76373698_76374698",0.4346409533361495,-37.929004686727275,810],["TMEM19_12_72078877_72079877",0.4183324982826815,-34.634678656118346,803],["GPSM2_1_109418602_109419602",0.44396319068693274,-39.670963363751405,809]],"bottom":[]}}}
{"ccle_gene_tpm":{"corr":{"top":[],"bottom":[]},"para":{"top":[["SKP2_ENSG00000145604.11",0.27829119320287377,-15.021514716722452,803]],"bottom":[]}}}
{"ccle_rrbs_tss_clusters":{"corr":{"top":[["CDKN3_3",0.6290105895902403,-89.71206313775211,810],["GPSM2_2",0.45839503991850117,-42.34433638335129,805],["CDKN3_2",0.8902566034359558,-277.47429420901386,810],["PGS1_2",0.45025515380420916,-40.5630698835223,802],["GPSM2_1",0.4745659639326295,-43.43891357898778,764]],"bottom":[]},"para":{"top":[["CDKN3_3",0.584126382890812,-74.54395248249142,810],["TMEM19_1",0.4493416194918824,-39.743049011595595,789],["CDKN3_2",0.954224802022988,-323.0051853474518,810],["PGS1_2",0.4195442965040668,-34.80780477071218,802],["GPSM2_2",0.421999578830053,-35.37502978535718,805],["GPSM2_1",0.44999654423970004,-38.63456092588378,764]],"bottom":[]}}}
{"ccle_rrbs_cgi_clusters":{"corr":{"top":[["17_76372443_76377201-2",0.45025515380420916,-40.5630698835223,802],["14_54861423_54866254-1",0.8902566034359558,-277.47429420901386,810],["14_54861423_54866254-2",0.6756875431610329,-108.37898653832538,810],["1_109417544_109422038-1",0.47888245732584506,-46.65453208840995,805]],"bottom":[]},"para":{"top":[["12_72077789_72082261-1",0.4493416194918824,-39.743049011595595,789],["19_14637879_14640459-3",0.43217468366222556,-16.997367941820354,358],["17_76372443_76377201-2",0.4195442965040668,-34.80780477071218,802],["14_54861423_54866254-2",0.7325495844435485,-136.38190308205407,810],["14_54861423_54866254-1",0.954224802022988,-323.0051853474518,810],["19_48018249_48020782-2",0.4141582803614081,-18.483033586393862,429],["1_109417544_109422038-1",0.45533988100195416,-41.72628942294047,805]],"bottom":[]}}}
