{"depmap_hotspot":{"corr":{"top":[["C7orf63",0.14964282320327427,-4.804025289066184,52.0,774.0],["EPHA5",0.17220808921821823,-6.194507300486494,89.0,737.0],["FAM65B",0.15835075783140898,-5.318097390826602,51.0,775.0],["PDE11A",0.1369579529210062,-4.1050000435015646,53.0,773.0],["RPS6KA5",0.15307250687322285,-5.00314803683524,32.0,794.0],["TM9SF3",0.1529929334936703,-4.998478928506577,32.0,794.0],["TRAPPC11",0.16042567467168076,-5.444742032404204,42.0,784.0],["VEPH1",0.16139419388774928,-5.504406537230286,42.0,784.0]],"bottom":[["OR5H2",-0.08571532457474626,-1.862368282369445,23.0,803.0]]},"para":{"top":[["ARHGDIA",0.14223789228299702,-4.656563549600042,12.0,814.0],["CRTAP",0.12893946290806432,-3.9724462511358,15.0,811.0],["CSDC2",0.10794238299264906,-3.0139246383752956,10.0,816.0],["CTU2",0.09378449521840262,-2.4509345082637046,8.0,818.0],["CXCR6",0.14089198510615142,-4.5847190030160085,16.0,810.0],["ECSIT",0.13781238403889343,-4.422392430110098,19.0,807.0],["GEMIN8",0.15042293371878837,-5.107633366237755,10.0,816.0],["GHITM",0.11682008277299842,-3.4010745404058653,12.0,814.0],["IGSF6",0.11372329359683601,-3.263010886562813,11.0,815.0],["NABP2",0.11652829797418388,-3.3879690593919025,13.0,813.0],["NFKBIE",0.13011812050054516,-4.030715059078954,17.0,809.0],["PIK3IP1",0.1355556429570184,-4.305329561190921,15.0,811.0],["PSMB5",0.10975302941704188,-3.0907229477648426,10.0,816.0],["RFPL4AL1",0.12126688360292447,-3.604821529711654,10.0,816.0],["RP11-599B13.6",0.12193539676820504,-3.6359156880983354,8.0,818.0],["RPS7",0.10907826309536708,-3.06185960291479,8.0,818.0],["SLC25A20",0.1120887209026064,-3.19149852014973,12.0,814.0],["SPATS1",0.13141728890227977,-4.095260144246446,12.0,814.0],["TAF7",0.14734309017067218,-4.935403467619493,15.0,811.0],["ZDHHC19",0.12643255141438395,-3.850229039086378,16.0,810.0]],"bottom":[["ITGB1BP1",-0.090622055081132,-2.3342579481050816,8.0,818.0],["MYL5",-0.09172917440354583,-2.375076335783772,20.0,806.0]]}}}
{"depmap_damaging":{"corr":{"top":[],"bottom":[["ZNF785",-0.07462351376031494,-1.4934656743188677,8.0,817.0]]},"para":{"top":[["ADAM18",0.11578108636870846,-3.3511217203786354,9.0,816.0],["BBS10",0.09804399230799224,-2.6110412026732424,9.0,816.0],["CLPB",0.10811625124379455,-3.0184871441701264,10.0,815.0],["DLGAP5",0.13807494768811704,-4.431341398820287,9.0,816.0],["ECSIT",0.12784508935077032,-3.914697270768204,8.0,817.0],["EFTUD1",0.09787693312270022,-2.604510770175184,8.0,817.0],["EGR2",0.11265113379757814,-3.212945586157602,10.0,815.0],["FSCB",0.127124007018034,-3.879697270054501,9.0,816.0],["KIAA1683",0.09696802023883329,-2.5694525321257546,8.0,817.0],["MROH2A",0.10027337843993307,-2.6983126093913925,9.0,816.0],["MST1R",0.1340816516495856,-4.225460152510423,9.0,816.0],["NKTR",0.10720927473303782,-2.9804199346532396,10.0,815.0],["PAXBP1",0.13165860039102245,-4.103296211692463,11.0,814.0],["PDE11A",0.11169240895747776,-3.171143890648054,8.0,817.0],["PLEKHM1",0.12513960837311952,-3.784089855937747,9.0,816.0],["TM9SF3",0.13285670696687604,-4.16351035888111,11.0,814.0],["ZFP36L1",0.09764321266684875,-2.595469741871502,8.0,817.0],["ZNF43",0.1425081210501411,-4.666393592435972,11.0,814.0]],"bottom":[["INHBC",-0.09543585280602902,-2.5109713255121213,8.0,817.0]]}}}
{"ccle_rrbs_enhancer_clusters":{"corr":{"top":[["10-102445081-102448033-0_enh",0.4573663568828301,-42.28922640301193,808]],"bottom":[]},"para":{"top":[["5-134767599-134770871-0_enh",0.44938702272037573,-20.303340347300868,395],["10-102445081-102448033-0_enh",0.4712873454541808,-45.186876909094075,808],["12-54427214-54429789-2_enh",0.45270562983529317,-41.9493886439229,820]],"bottom":[]}}}
{"prism_primary_logfold":{"corr":{"top":[],"bottom":[["lomefloxacin_BRD-A75850590-213-01-0::2.5::HTS",-0.165504760986756,-3.373924528030003,450],["betamethasone-valerate_BRD-K34032314-001-04-1::2.5::HTS",-0.19759534073595666,-4.796907770981844,470]]},"para":{"top":[],"bottom":[["lomefloxacin_BRD-A75850590-213-01-0::2.5::HTS",-0.17512920643832033,-3.724105899588371,450]]}}}
{"prism_secondary_logfold":{"corr":{"top":[["sorafenib_BRD-K23984367-001-07-5::0.0391::MTS010::PROS001_PR500",0.1774591877647298,-3.4414270704517445,400],["vismodegib_BRD-K44827188-001-06-0::10::MTS010::PROS003_PR500",0.18231489271572926,-3.599992421272065,399]],"bottom":[["puromycin_BRD-A28970875-300-04-9::0.15625::HTS002",-0.22017672382246908,-5.088731679810412,403]]},"para":{"top":[],"bottom":[]}}}
{"ccle_proteomics":{"corr":{"top":[["PURA_Q00577",0.29038033012389197,-6.988115095965784,324]],"bottom":[]},"para":{"top":[["PURA_Q00577",0.2821638022247567,-6.618154968607586,324]],"bottom":[]}}}
{"avana":{"corr":{"top":[["BLOC1S1_2647",0.18336918923682702,-4.156713191276097,465]],"bottom":[["WDR62_284403",-0.21151085413928314,-5.375993864728801,465]]},"para":{"top":[["BLOC1S1_2647",0.19103330569268662,-4.471747331278065,465],["MARCH6_10299",0.20065298679055898,-4.8850998564284245,465],["XPO1_7514",0.20135924096454721,-4.91624123276479,465]],"bottom":[["TMEM47_83604",-0.18750009050008945,-4.086885875739009,436],["WDR62_284403",-0.20288001873578487,-4.983669017215603,465],["ZNF43_7594",-0.1713757965170743,-3.6887752924861044,465]]}}}
{"drive":{"corr":{"top":[["KIF26B_55083",0.23342338531070206,-4.54362140471666,315],["HSP90B1_7184",0.21502883018611724,-3.9429258833975775,317]],"bottom":[["TGIF1_7050",-0.24217953330099273,-4.885699849978382,317]]},"para":{"top":[["ATAT1_79969",0.20789799617995258,-3.7139243163979057,317]],"bottom":[["SREBF1_6720",-0.22730149032398744,-4.355025485757294,317],["TGIF1_7050",-0.24069775513980565,-4.831296764242874,317],["NANOG_79923",-0.2460165204748916,-5.028185571158121,317]]}}}
{"achilles":{"corr":{"top":[["PIGN_23556",0.2487245071944057,-3.6682544211273167,217]],"bottom":[["SHQ1_55164",-0.2509990898142525,-3.7283618894972603,217],["JPH2_57158",-0.2779353366294607,-4.483385308670358,217]]},"para":{"top":[["PIGN_23556",0.24494264650517264,-3.569547907215075,217],["PNRC2_55629",0.24380897974086996,-5.7516276718614066,375],["ATP10A_57194",0.24497723375539218,-5.802737116140171,375],["SYNGR3_9143",0.30334734792999396,-5.2714082165999985,217]],"bottom":[["HIST1H2AE_3012",-0.22202505394284827,-4.845097700780737,375],["JPH2_57158",-0.27071525064156804,-4.273077086857886,217],["FOXRED2_80020",-0.26565789224943187,-6.750580720619031,375]]}}}
{"ccle_rrbs_tss1kb":{"corr":{"top":[],"bottom":[]},"para":{"top":[["PEAR1_1_156862489_156863489",0.5356350719939621,-61.421134342176614,821],["PEAR1_1_156862522_156863522",0.534407162700969,-61.09276140541523,821]],"bottom":[]}}}
{"ccle_gene_tpm":{"corr":{"top":[["RP11-909N17.3_ENSG00000254338.1",0.2741764173836339,-14.862859362895676,819],["RP13-977J11.8_ENSG00000256312.1",0.2673619399709557,-14.145767267703736,819]],"bottom":[]},"para":{"top":[],"bottom":[]}}}
{"ccle_rrbs_tss_clusters":{"corr":{"top":[["NKAIN4_1",0.5688309486501972,-71.26005470801685,826],["SHANK1_2",0.8171637398398711,-198.38915725238215,825],["FLJ16779_2",0.5878714390761202,-77.19703114357783,826],["CLEC11A_2",0.9435314626897758,-323.0051853474518,826]],"bottom":[]},"para":{"top":[["NKAIN4_3",0.561794851490312,-68.99744002337053,824],["NKAIN4_5",0.5695402665185215,-71.21808023411388,823],["FLJ16779_2",0.5876246625695375,-77.11755205922888,826],["CLEC11A_2",0.9434078834752839,-323.0051853474518,826],["SHANK1_2",0.8201477408199482,-201.03826511556008,825]],"bottom":[]}}}
{"ccle_rrbs_cgi_clusters":{"corr":{"top":[["19_51222075_51224704-3",0.5761028730568145,-72.42745546010984,814],["19_51225661_51228272-2",0.9321465619769448,-323.0051853474518,817],["19_51225661_51228272-1",0.8776883509192352,-263.4511502124273,822]],"bottom":[["19_51228272_51230883-1",-0.22079110997213275,-9.818891930569377,823]]},"para":{"top":[["19_51222075_51224704-3",0.5799159801297501,-73.59750128247744,814],["20_61885516_61888387-3",0.5825756634341445,-75.41602752238984,825],["19_51225661_51228272-2",0.922181674443079,-323.0051853474518,817],["19_51225661_51228272-1",0.8827100603500998,-270.44294244869894,822],["19_18075752_18080259-1",0.5811121706321746,-74.05747532046013,815]],"bottom":[["19_51228272_51230883-1",-0.3035933303135156,-18.28163327716204,823]]}}}
