{"depmap_hotspot":{"corr":{"top":[["GPR32",0.14536726112309145,-4.561849452758185,26.0,800.0],["GSKIP",0.14659799354599407,-4.630873446323581,11.0,815.0],["HIST1H2BH",0.1365590612170795,-4.083967036005645,13.0,813.0],["HLA-DPA1",0.1368319637365113,-4.098350594904578,10.0,816.0],["MOAP1",0.1667924638106167,-5.843397996514424,9.0,817.0],["OR5H14",0.13250532179466382,-3.87347416524818,22.0,804.0],["SAE1",0.11839221166415655,-3.1864791516190207,27.0,799.0],["TMEM133",0.1543376429434299,-5.0776966940810055,36.0,790.0],["TP53TG3D",0.11447252100981953,-3.008180440093512,9.0,817.0],["UTP15",0.12821566273823082,-3.6571593139720786,21.0,805.0]],"bottom":[["COPA",-0.09261741142436127,-2.111690400855249,58.0,768.0],["FLT1",-0.08642692870974109,-1.88733545452036,77.0,749.0],["IPO13",-0.07654478110237974,-1.555637096175097,42.0,784.0],["MT-ND4",-0.10374933749649277,-2.5477847956381097,299.0,527.0],["TROVE2",-0.0748697044436965,-1.5025984571317836,21.0,805.0]]},"para":{"top":[["EDARADD",0.08692807433274827,-2.2022872169272154,14.0,812.0],["KATNB1",0.10857900061704649,-3.041107133315054,25.0,801.0],["NUDT16L1",0.10459396535493848,-2.874867558076796,14.0,812.0]],"bottom":[["ABCD3",-0.10061401093157962,-2.714308798249858,13.0,813.0],["ATP6V1G1",-0.088434085775725,-2.255380626933348,8.0,818.0],["BRK1",-0.07472120538645116,-1.7969545060073167,8.0,818.0],["CHP1",-0.108574982840383,-3.0406446923966017,12.0,814.0],["COPS6",-0.09172674184598754,-2.3748136514613045,14.0,812.0],["DCAF7",-0.08122471662193649,-2.0068761943743625,10.0,816.0],["EIF1B",-0.07500106008827305,-1.8057035303622206,8.0,818.0],["EIF2S1",-0.0938558992857432,-2.4535889351245217,9.0,817.0],["ELAC1",-0.108574982840383,-3.0406446923966017,12.0,814.0],["ELK4",-0.10076336368908474,-2.720322529763788,16.0,810.0],["ETF1",-0.08819415928670957,-2.2470469404131443,13.0,813.0],["FAM185A",-0.09744261118206522,-2.5901228595308345,12.0,814.0],["FKBP7",-0.10857498284038297,-3.0406446923966017,12.0,814.0],["HDGFRP3",-0.0814502712191588,-2.0143983695705074,10.0,816.0],["IL11RA",-0.12199182850847931,-3.6390078198352764,24.0,802.0],["ING2",-0.07833205434059072,-1.9118212993995107,9.0,817.0],["KLK10",-0.0998370552625469,-2.683643882588847,15.0,811.0],["LAYN",-0.1156564540344694,-3.348965028609247,19.0,807.0],["NDUFAB1",-0.10857498284038303,-3.0406446923966017,12.0,814.0],["NKAIN1",-0.07954650479548361,-1.951381166687604,9.0,817.0],["NUDT21",-0.08693666594103187,-2.20249523168379,11.0,815.0],["PSME2",-0.11217804116244857,-3.195443282268499,16.0,810.0],["PTP4A1",-0.08355544745990014,-2.0854004736223644,10.0,816.0],["RAB43",-0.09400669400357213,-2.459369106935485,12.0,814.0],["TAGLN3",-0.078768677674405,-1.926032789399522,10.0,816.0],["TRAPPC2",-0.07938809821441056,-1.9461941991187335,9.0,817.0],["TROVE2",-0.1444318772445322,-4.77545727497513,21.0,805.0],["TXNDC15",-0.09013200847952617,-2.316613007435399,13.0,813.0],["UBE2D3",-0.07851806145526909,-1.9178929564765785,10.0,816.0],["UBE2E1",-0.075744746849732,-1.8291251910849076,9.0,817.0],["VGLL3",-0.12432143206987259,-3.749019290157987,23.0,803.0],["ZFAND5",-0.08160579034943242,-2.019549691416717,9.0,817.0],["ZFPL1",-0.10925835632453477,-3.0697469787359455,15.0,811.0],["ZMAT5",-0.09899340655866995,-2.65033137142266,10.0,816.0]]}}}
{"depmap_damaging":{"corr":{"top":[["AVL9",0.13579897862260476,-4.039768972250565,8.0,817.0],["GPRC6A",0.11672836531508984,-3.1069261386424665,8.0,817.0],["PLCH2",0.13450160342572112,-3.972191321682589,8.0,817.0],["TMEM133",0.1634838559286401,-5.6282059815882475,27.0,798.0]],"bottom":[]},"para":{"top":[["FAM184A",0.11304019185025867,-3.2297402718922594,8.0,817.0],["TDRD1",0.1285696874663324,-3.95057207333544,23.0,802.0],["ZNF98",0.10255741680637155,-2.789288320630293,8.0,817.0]],"bottom":[["ANKRD20A4",-0.07625873689974311,-1.8439156824358436,9.0,816.0],["ASXL3",-0.10293165093173352,-2.8047100197855848,16.0,809.0],["FN1",-0.11608099025740155,-3.364836646840605,20.0,805.0],["NME8",-0.09286668548935391,-2.4147187347031642,11.0,814.0],["NRXN3",-0.10404996092089806,-2.8499308351193555,11.0,814.0],["PAPPA",-0.08857104047776286,-2.258349676054691,8.0,817.0],["RAP1GAP",-0.07897739266216844,-1.9313040513025819,11.0,814.0],["SULF1",-0.10874345605830243,-3.0449857530557183,12.0,813.0],["VCPIP1",-0.08857104047776286,-2.258349676054691,8.0,817.0]]}}}
{"ccle_mirna":{"corr":{"top":[["hsa-miR-193a-3p_miR00212.1",0.21767674885851107,-9.535675199559549,821]],"bottom":[]},"para":{"top":[],"bottom":[]}}}
{"prism_primary_logfold":{"corr":{"top":[],"bottom":[]},"para":{"top":[["sodium-danshensu_BRD-A93699261-236-03-4::2.5::HTS",0.18810189930099494,-4.176375302587061,444]],"bottom":[]}}}
{"prism_secondary_logfold":{"corr":{"top":[],"bottom":[]},"para":{"top":[],"bottom":[["D-Serine_BRD-K71822263-001-03-2::0.00061034::HTS002",-0.2433725472172531,-4.943642362985514,318]]}}}
{"ccle_proteomics":{"corr":{"top":[],"bottom":[["BBS9_Q3SYG4-3",-0.24800767846320945,-2.4436023511968257,136]]},"para":{"top":[],"bottom":[["CRADD_P78560",-0.22692722592904593,-3.0830457989754385,214]]}}}
{"avana":{"corr":{"top":[["NOX5_79400",0.18692161337463467,-4.293023548520152,464]],"bottom":[["TOB2_10766",-0.14792442413004286,-2.854985562584813,464]]},"para":{"top":[["CD55_1604",0.16785723158544347,-3.550602249169461,464],["ZNF582_147948",0.1646937045686296,-3.43476129300302,464]],"bottom":[["FCGR2A_2212",-0.1720274519300719,-3.7064808833318312,464],["OLFML1_283298",-0.1598306413682424,-3.260714352065378,464]]}}}
{"drive":{"corr":{"top":[],"bottom":[]},"para":{"top":[["NVL_4931",0.17734620603594578,-2.8549293331439007,322]],"bottom":[]}}}
{"achilles":{"corr":{"top":[["SIVA1_10572",0.264637870233339,-4.06723179488583,215]],"bottom":[["FAM210A_125228",-0.27635506508198227,-4.40050254969114,215]]},"para":{"top":[["NTNG2_84628",0.26558277130422664,-4.093543498946569,215]],"bottom":[["MRPL2_51069",-0.2318254121142942,-3.2131960025736914,215]]}}}
{"ccle_rrbs_tss1kb":{"corr":{"top":[],"bottom":[]},"para":{"top":[],"bottom":[]}}}
{"ccle_gene_tpm":{"corr":{"top":[["RNA5SP290_ENSG00000252942.1",0.2472785521687972,-12.149103775540288,819]],"bottom":[]},"para":{"top":[],"bottom":[]}}}
{"ccle_rrbs_tss_clusters":{"corr":{"top":[],"bottom":[["ZMYND19_3",-0.15859206958098165,-2.7087022715518096,379]]},"para":{"top":[],"bottom":[["PPP1R2P2_3",-0.15454374218371086,-4.057443707072338,639]]}}}
{"ccle_rrbs_cgi_clusters":{"corr":{"top":[],"bottom":[]},"para":{"top":[["12_58239943_58243046-1",0.605979486278744,-83.22087809301077,826]],"bottom":[["6_160424264_160426883-2",-0.16514408990878607,-4.520309135935629,632],["6_169537501_169542033-2",-0.15934325752345843,-5.2501950578690595,804]]}}}
