{"depmap_hotspot":{"corr":{"top":[["AIG1",0.21732198733230518,-9.237121471520117,15.0,781.0],["ALDH3A2",0.1826890868430117,-6.6770125657741355,25.0,771.0],["ARHGAP40",0.18462748235396853,-6.80834951854411,20.0,776.0],["BATF3",0.20745643071444894,-8.461255679373792,8.0,788.0],["C1orf52",0.18271853789762893,-6.678997608399407,9.0,787.0],["CA11",0.2118226920719376,-8.799991334619751,17.0,779.0],["CCDC91",0.1847833890733403,-6.818973679592979,21.0,775.0],["CD79B",0.19822136921369485,-7.768863234794439,19.0,777.0],["CDC25C",0.19898716187438675,-7.825043186920286,23.0,773.0],["CR2",0.20431484706641004,-8.222063388372764,57.0,739.0],["DDC",0.22648012142370658,-9.991300206012022,35.0,761.0],["DENND6A",0.22959664150182113,-10.255486364379784,25.0,771.0],["EFNB3",0.19585350637631924,-7.596557270528841,32.0,764.0],["ESM1",0.20054211887903178,-7.939802434255619,18.0,778.0],["FBXO44",0.20199266600551585,-8.04768476740946,20.0,776.0],["FKBP9",0.20244235087110185,-8.081292139837517,33.0,763.0],["GLYCTK",0.19176227297195172,-7.303829757545551,14.0,782.0],["HLA-C",0.1844605037721528,-6.796980891330445,16.0,780.0],["IKBKG",0.20920876529067084,-8.596319887797563,16.0,780.0],["KCNK7",0.19356849316772748,-7.43228777245299,13.0,783.0],["KTI12",0.20739134832369452,-8.456262076863613,9.0,787.0],["LEPROT",0.18691809158003037,-6.965351264255077,8.0,788.0],["MRAS",0.21480801035866595,-9.03583255980132,14.0,782.0],["MRI1",0.23349474560177522,-10.591361024040953,20.0,776.0],["MTA2",0.18763583841515455,-7.014948935608792,37.0,759.0],["MYOC",0.2473230516388608,-11.832113727123902,29.0,767.0],["NKX2-8",0.23360249101966019,-10.60073085107267,11.0,785.0],["NMNAT1",0.18559057866680376,-6.874123620444067,15.0,781.0],["NPPA",0.2586097016785718,-12.902681492038777,9.0,787.0],["OBFC1",0.21025510224694355,-8.677531770082702,11.0,785.0],["ODF3",0.19209544693664138,-7.327432800950246,16.0,780.0],["OR52W1",0.20890372249732975,-8.572723267093018,17.0,779.0],["OR7A10",0.19663750286187515,-7.653372739380132,17.0,779.0],["PDAP1",0.21112653971827766,-8.74549102280119,9.0,787.0],["PDLIM4",0.2125821350771278,-8.859660230674356,12.0,784.0],["PET112",0.24292866174614683,-11.42943441659784,22.0,774.0],["PHKG1",0.18217205652313584,-6.642216341837228,24.0,772.0],["PRKAB2",0.18379322089717545,-6.751652771848977,13.0,783.0],["PROSC",0.18902941352874694,-7.1117968810029275,14.0,782.0],["PSIP1",0.2315216374912785,-10.420594128936154,23.0,773.0],["RALGPS1",0.19042593249633516,-7.2095779906802875,24.0,772.0],["RIC3",0.18460252315504225,-6.806649529228253,26.0,770.0],["RP11-455G16.1",0.18727668021587976,-6.990106398861619,8.0,788.0],["RSPRY1",0.20690972193007331,-8.419358690031874,14.0,782.0],["SFTPA2",0.18140884306245023,-6.5910328737647035,17.0,779.0],["SH3BGRL3",0.18470899889930972,-6.813903283048173,8.0,788.0],["ST3GAL1",0.20710877973204161,-8.434600186234015,18.0,778.0],["STEAP2",0.19215718248071456,-7.331810910241636,27.0,769.0],["SYT5",0.18325978435509635,-6.715535641511868,18.0,778.0],["TDRD3",0.18844172324148858,-7.070866260425973,29.0,767.0],["TMEM229A",0.1809566527402265,-6.560809265557119,8.0,788.0],["TUBB1",0.24178175956711467,-11.325630200047707,31.0,765.0],["UBE2F",0.22221267038666426,-9.635775390652283,12.0,784.0],["ZNF232",0.18945746193848953,-7.141690282952542,21.0,775.0],["ZNF439",0.18074332477057578,-6.546577047306287,20.0,776.0]],"bottom":[]},"para":{"top":[["AL390778.1",0.13435869771891054,-4.118387190546573,8.0,788.0],["HSH2D",0.13505170190913304,-4.153284919157288,21.0,775.0],["HYAL2",0.15671347920145814,-5.302444708781193,14.0,782.0],["PDAP1",0.14545885567011613,-4.685591314797789,9.0,787.0],["RP11-455G16.1",0.11986086143955696,-3.438477054275998,8.0,788.0],["SFXN1",0.13336207486210908,-4.069772097253125,12.0,784.0],["U82695.9",0.15954654926111014,-5.463854199210149,9.0,787.0],["UCK1",0.1357594824966533,-4.18834452922868,19.0,777.0]],"bottom":[["NFATC2IP",-0.09509293094743222,-2.434792389941636,22.0,774.0]]}}}
{"depmap_damaging":{"corr":{"top":[["ALG10",0.2627164005790978,-13.289534369643818,9.0,786.0],["ARHGEF19",0.1717530818797412,-5.955264045160629,9.0,786.0],["ATXN1L",0.26634460058917925,-13.650704944079825,9.0,786.0],["C11orf63",0.20415867134597274,-8.20076666869645,15.0,780.0],["CARD11",0.19717131239353267,-7.683321280822122,11.0,784.0],["CASD1",0.21107142946336535,-8.73102784739515,17.0,778.0],["CCDC38",0.18018694894860648,-6.502114211186203,12.0,783.0],["CDC25C",0.22411943251195574,-9.782290048251472,8.0,787.0],["CEP97",0.23346177820966751,-10.576062075595647,8.0,787.0],["COG6",0.18378788049405723,-6.743572466959003,8.0,787.0],["COL6A6",0.2105667808698085,-8.691696139915452,16.0,779.0],["CREBBP",0.19952068368384543,-7.855234732557498,46.0,749.0],["CSMD1",0.18213337035126845,-6.632034829507019,34.0,761.0],["DENND6A",0.282892977186087,-15.368972750831938,8.0,787.0],["ERBB3",0.17844578564984098,-6.387078531053859,8.0,787.0],["ERC1",0.21061092786149957,-8.695132985158565,9.0,786.0],["FAT4",0.17406064802592175,-6.10229649773314,23.0,772.0],["FHOD3",0.18839209889556613,-7.059311618350055,25.0,770.0],["GRAMD2",0.18193289063532256,-6.61858845196651,13.0,782.0],["KCNQ3",0.18115232208608636,-6.566376468343899,17.0,778.0],["MLLT4",0.28835255924258246,-15.961787826000618,19.0,776.0],["MRI1",0.283614850359066,-15.446609671261701,8.0,787.0],["MTA2",0.24808048917682912,-11.88826052631795,10.0,785.0],["MYLK3",0.2244119156079042,-9.806617590579359,8.0,787.0],["NR2C2",0.182874648699793,-6.681882254728097,8.0,787.0],["OR51E2",0.20232688454510434,-8.063319760212016,14.0,781.0],["PCNXL2",0.16967972470982165,-5.824810635051427,18.0,777.0],["PHF3",0.17066694032302496,-5.886730022948129,27.0,768.0],["PIWIL1",0.22561654193608774,-9.907168531811733,12.0,783.0],["PKN3",0.18136867190788863,-6.580825485528591,8.0,787.0],["PLA2R1",0.21090013064950977,-8.717666015042159,25.0,770.0],["PRKACA",0.17694253143994693,-6.2886585037603275,8.0,787.0],["PRKCH",0.22879293900253464,-10.175050916873818,8.0,787.0],["PTCHD3",0.23663471557923912,-10.853551361385344,11.0,784.0],["RSL1D1",0.1708225483820099,-5.896522306625593,9.0,786.0],["SCFD1",0.24616054027358053,-11.710984205433801,10.0,785.0],["SCLT1",0.19368338527847365,-7.431939576992706,15.0,780.0],["SEC63",0.17984869326564645,-6.479678802528486,8.0,787.0],["SENP1",0.1712379127035523,-5.922704010425267,9.0,786.0],["SHANK3",0.2374409321361109,-10.924701831115518,11.0,784.0],["SIN3B",0.2019663222204747,-8.036415789132745,15.0,780.0],["SNX25",0.19882461116349492,-7.804082303075339,19.0,776.0],["SRRM4",0.1797907411628588,-6.47583925967295,8.0,787.0],["TBC1D4",0.2885290964726915,-15.981174340682262,12.0,783.0],["UTP20",0.20125589198115,-7.983550566214792,29.0,766.0],["VILL",0.2225154427676858,-9.6494747197384,8.0,787.0],["WDR17",0.1893661757476428,-7.127122030660071,14.0,781.0]],"bottom":[]},"para":{"top":[["POF1B",0.15934387937178177,-5.4465265021562335,10.0,785.0]],"bottom":[]}}}
{"ccle_rrbs_enhancer_clusters":{"corr":{"top":[],"bottom":[["17-47814239-47817521-1_enh",-0.17942498672990737,-6.2748634418304094,771]]},"para":{"top":[],"bottom":[]}}}
{"prism_primary_logfold":{"corr":{"top":[["bavisant_BRD-K79595931-312-01-3::2.5::HTS",0.16603431172871902,-3.4251871432616023,455]],"bottom":[["desmopressin-acetate_BRD-A49399758-015-01-8::2.5::HTS",-0.17025369391346376,-3.5784530878523375,455],["5-hydroxytryptophan_BRD-A73930134-001-03-0::2.5::HTS",-0.19464333981810558,-4.342001309194052,433]]},"para":{"top":[["SB-705498_BRD-K65991129-001-02-9::2.5::HTS",0.14812677216256384,-2.7884345818800083,450]],"bottom":[["WAY-161503_BRD-A62021152-003-03-4::2.5::HTS",-0.16342818826470656,-3.3323264106085957,455]]}}}
{"prism_secondary_logfold":{"corr":{"top":[["famotidine_BRD-K00673382-001-18-9::0.625::HTS002",0.18451372499406268,-3.088564788243934,326],["defactinib_BRD-K43578482-001-01-4::0.00061034::HTS002",0.19567626787600154,-3.3480536419491904,318],["norethindrone_BRD-K92073408-001-16-5::0.00976562::HTS002",0.2295441573744846,-3.460556458092165,239]],"bottom":[["ciprofibrate_BRD-A49358627-001-14-6::0.625::HTS002",-0.20466935694731314,-4.027324277307861,359],["benzyldimethylhexadecylammonium_BRD-K23403298-003-01-9::0.15625::HTS002",-0.21434850005391912,-4.793070075630996,398]]},"para":{"top":[["eptifibatide_BRD-A90547603-001-02-5::0.00061034::HTS002",0.17598004204165651,-3.362327556141132,396],["butamben_BRD-K27217864-001-22-3::0.00061034::HTS002",0.1846493882133397,-3.5287258427947807,380],["candesartan_BRD-K84091759-001-07-1::0.0024414::HTS002",0.17559722059566893,-2.983771193106261,346]],"bottom":[["warfarin_BRD-A24514565-001-09-7::0.0024414::HTS002",-0.17187037251215592,-3.1221608832357624,381],["aminoglutethimide_BRD-A25234499-001-19-1::0.00977::MTS010::PROS003_PR500",-0.18278938230195207,-3.5456045018511113,390],["KI-16425_BRD-A25569250-001-03-3::0.15625::HTS002",-0.23809211334781688,-5.887793672974979,404],["maprotiline_BRD-K25433859-003-25-4::2.5::HTS002",-0.17268157964712078,-3.133497014119222,379],["azomycin-(2-nitroimidazole)_BRD-K26824830-001-02-0::2.5::HTS002",-0.1753635340469543,-3.3200563601433974,393],["blebbistatin-(-)_BRD-K61295575-001-03-6::0.15625::HTS002",-0.18659629085055812,-3.7335315012674797,397],["CYC116_BRD-K64866502-001-03-9::0.00061034::HTS002",-0.18788528926618525,-3.496367806019835,363],["carboxyamidotriazole_BRD-K68408772-001-05-4::0.009765624::MTS006",-0.1860537082446274,-3.722580117651992,398],["dichloroacetate_BRD-M97302542-001-04-4::0.0391::MTS010::PROS001_PR500",-0.1874230173669284,-3.7049025322013116,390]]}}}
{"ccle_proteomics":{"corr":{"top":[],"bottom":[]},"para":{"top":[["ALKBH1_Q13686",0.2148074842456486,-3.499061565881703,277]],"bottom":[["MYO18B_Q8IUG5",-0.2738720170460592,-2.5514737308715922,117]]}}}
{"depmap_gene_tpm":{"corr":{"top":[],"bottom":[]},"para":{"top":[["RGS21_431704",0.12369045786150633,-3.3141915967280675,792]],"bottom":[]}}}
{"avana":{"corr":{"top":[["PPP1R26_9858",0.17206949479613406,-3.5550646216705064,442]],"bottom":[["ATP7A_538",-0.2063345710671461,-4.633694127665045,414],["COCH_1690",-0.1993716632213726,-4.616198668013789,442],["FAM120C_54954",-0.18289587614241418,-3.7381365977162613,414],["PHTF2_57157",-0.17833317039613836,-3.7851993586124864,442],["POU3F3_5455",-0.17332213174464,-3.600462404757963,442]]},"para":{"top":[["C12orf71_728858",0.17397924250888594,-3.624402046285529,442],["FAH_2184",0.17327561153353135,-3.5987708526872093,442],["MAN2A2_4122",0.16119656548721092,-3.1740341422926925,442]],"bottom":[["CNFN_84518",-0.21100132141175404,-5.114720393329178,442],["FOXO4_4303",-0.19388294040753024,-4.144799094137717,414],["RPL35_11224",-0.181685380759455,-3.9115897809631153,442],["TGFB1_7040",-0.1713638928598633,-3.529629565534694,442],["TMEM131_23505",-0.18064645957780848,-3.872177094730416,442]]}}}
{"drive":{"corr":{"top":[],"bottom":[]},"para":{"top":[["RND1_27289",0.2455891291369541,-4.79985558617421,302]],"bottom":[]}}}
{"achilles":{"corr":{"top":[],"bottom":[["SLITRK6_84189",-0.22349154609846422,-2.905994161332586,206]]},"para":{"top":[["FAM162A_26355",0.2621939110338619,-3.852017568931267,206],["RBMS3_27303",0.2607963432894668,-3.8151966055953985,206],["C5orf64_285668",0.25755265828660323,-3.7305215042635975,206]],"bottom":[["CHD3_1107",-0.32099822847171816,-5.593791502215476,206],["ETFRF1_144363",-0.21476440323423573,-4.389502075171945,359],["SRFBP1_153443",-0.28004598062615516,-4.340527957295335,206],["VMA21_203547",-0.26154131192026514,-3.8347984926598304,206],["CENPI_2491",-0.26342906159999463,-3.8847295104049615,206],["MBTD1_54799",-0.25256560012377827,-3.6024622225956104,206],["ZDHHC14_79683",-0.25214474363933925,-3.5917725611427906,206],["RPAP2_79871",-0.2576562875464707,-3.7332097970073863,206]]}}}
{"ccle_rrbs_tss1kb":{"corr":{"top":[["SESN3_11_94964246_94965246",0.5012079324801325,-51.128661929385856,796],["PIK3CD_1_9710788_9711788",0.6070696805400501,-41.51582164886458,406],["BSN-DT_3_49591799_49592799",0.4415091597412475,-38.43732453123174,793]],"bottom":[["POGZ_1_151414681_151415681",-0.17641067838468769,-6.261156756588394,796]]},"para":{"top":[],"bottom":[["FAM92A1P2_4_183957817_183958817",-0.14437623861768492,-2.3184469100401537,380]]}}}
{"ccle_gene_tpm":{"corr":{"top":[["RP11-699F16.2_ENSG00000255187.1",0.3267186713313149,-20.356024853071375,789]],"bottom":[]},"para":{"top":[["RP11-235G24.1_ENSG00000224371.1",0.13794278573498156,-3.993839420230388,789],["OR5BC1P_ENSG00000255218.1",0.13948557003479248,-4.07275626684718,789],["RP4-620E11.5_ENSG00000229398.1",0.13947160476094256,-4.072038221963167,789]],"bottom":[]}}}
{"ccle_rrbs_tss_clusters":{"corr":{"top":[["FAM117A_3",0.9431814636836857,-323.0051853474518,796],["SESN3_1",0.5299202211414801,-58.108082921099786,796],["SESN3_4",0.5306528790379743,-58.29506270589922,796],["RASGRP1_1",0.4602006562999287,-42.24503968986622,796],["ERO1B",0.5259982247023521,-57.04430471827796,795]],"bottom":[["GSDMD_2",-0.22544263510098805,-9.092188072969419,726],["SERPINF1_3",-0.28995067606470776,-7.892656425253408,371],["PEX26_2",-0.2280291320803361,-4.891968880911714,359],["LINC01484_3",-0.20162303602478523,-6.149139820171503,595]]},"para":{"top":[["FAM117A_3",0.5598724962001098,-66.14034205610977,796]],"bottom":[]}}}
{"ccle_rrbs_cgi_clusters":{"corr":{"top":[["11_94961753_94966573-1",0.5306528790379743,-58.29506270589922,796],["17_47838834_47843377-3",0.9431814636836857,-323.0051853474518,796],["15_38854262_38856960-1",0.4812605449947067,-46.541764312928855,794]],"bottom":[["22_18558558_18563410-2",-0.2280291320803361,-4.891968880911714,359],["10_52175724_52180182-1",-0.30121963104314947,-4.769944643740385,197],["16_88906433_88910698-2",-0.21498044066885888,-8.279555329213212,723],["1_33610976_33615321-1",-0.2517793701990556,-8.745878812544827,555]]},"para":{"top":[["17_47838834_47843377-3",0.5598724962001098,-66.14034205610977,796]],"bottom":[]}}}
