{"depmap_hotspot":{"corr":{"top":[["AGMAT",0.1672169160575117,-5.889724416851854,10.0,819.0],["APOOL",0.1804394447478283,-6.771809558043804,11.0,818.0],["ASB15",0.1703219891456945,-6.090880352703265,42.0,787.0],["CLIC2",0.2457821876864191,-12.145056751548747,16.0,813.0],["ENOSF1",0.18065012416458162,-6.786405964306746,29.0,800.0],["EPS8L3",0.1648099557416194,-5.736304196003361,33.0,796.0],["ERICH2",0.17553371878758128,-6.4367521076292755,8.0,821.0],["FAM178B",0.16758773286420503,-5.9135549872092295,37.0,792.0],["FBXO25",0.1916960996037471,-7.575776026983877,24.0,805.0],["FCAMR",0.1729773775455307,-6.265808925184716,15.0,814.0],["FGF12",0.16567847585035,-5.791411635313423,31.0,798.0],["FSD2",0.19038786931782678,-7.479808685649104,30.0,799.0],["GSG1",0.18019515503591338,-6.754905951168894,10.0,819.0],["HIST1H4K",0.16957407655444104,-6.042094095485197,10.0,819.0],["HOXC13",0.2016703726676433,-8.329566344240364,23.0,806.0],["JMJD6",0.23643920085138645,-11.269823732312416,18.0,811.0],["KRT32",0.17652904162584812,-6.503985347664847,24.0,805.0],["LHB",0.1767285178728019,-6.517505442381014,10.0,819.0],["LTB",0.2809663135882669,-15.778857325045557,19.0,810.0],["MYOZ3",0.2415414605077527,-11.74322988331991,10.0,819.0],["NKX2-5",0.22241668106460963,-10.024628018472063,18.0,811.0],["NR2C1",0.18221226122888176,-6.895168674608525,33.0,796.0],["NSF",0.22939656486326188,-10.634265136630253,21.0,808.0],["PAXBP1",0.19646228712065866,-7.931081854295231,43.0,786.0],["PGPEP1",0.1707458139311153,-6.118620702634156,9.0,820.0],["PLBD1",0.17686562515703755,-6.52680713775874,23.0,806.0],["POLI",0.19192315021170653,-7.592499864911951,35.0,794.0],["PRAMEF2",0.19056324292887974,-7.492634669178366,28.0,801.0],["PRSS1",0.1722759748750246,-6.219341890604473,46.0,783.0],["RACGAP1",0.19321004574314007,-7.687670112228714,33.0,796.0],["RDH16",0.19309386026818517,-7.679051150859804,15.0,814.0],["RHOXF2B",0.22277406448253664,-10.055356196159067,10.0,819.0],["S1PR5",0.22368793722654448,-10.134169934129556,23.0,806.0],["SEC61A1",0.21620174630020805,-9.49859992743861,22.0,807.0],["SLC25A13",0.1724024870745213,-6.2277093070168945,34.0,795.0],["SPAM1",0.19799712353616655,-8.047401951580628,39.0,790.0],["SPOPL",0.19223428719309485,-7.61545001982436,26.0,803.0],["STATH",0.18020374904452324,-6.755500222859677,8.0,821.0],["TDRP",0.20489754949158784,-8.581884669273258,14.0,815.0],["TMEM126A",0.21485433207812774,-9.3866273553311,10.0,819.0],["WFIKKN2",0.17153833705428384,-6.170676466863533,32.0,797.0],["WIBG",0.16742279146223277,-5.902948591795267,12.0,817.0],["ZNF416",0.20966332126186632,-8.962101574155282,26.0,803.0],["ZSCAN23",0.1688283065207236,-5.993658946297037,22.0,807.0]],"bottom":[]},"para":{"top":[["ACP1",0.10842229518603284,-3.04257128281004,12.0,817.0],["BAALC",0.1099307701215335,-3.10705881392618,16.0,813.0],["C2orf47",0.10565498635576126,-2.926477134826511,12.0,817.0],["CNIH1",0.09994741189332602,-2.695119207952918,12.0,817.0],["CXorf38",0.10870334998910733,-3.054505717609188,12.0,817.0],["GPR89B",0.0976786492425996,-2.605982594795163,8.0,821.0],["MRC1L1",0.10755493796805346,-3.005867840248045,11.0,818.0],["PPP1R3G",0.10401849547781093,-2.8591461220990446,16.0,813.0],["RABIF",0.09892627045698844,-2.654742553316442,9.0,820.0],["RIBC1",0.13032352506046602,-4.052321570529595,9.0,820.0],["SH3YL1",0.10649805496433085,-2.961608683352168,13.0,816.0],["XCL1",0.11252326819185343,-3.2191324834956707,8.0,821.0]],"bottom":[["ART5",-0.07997074965816031,-1.9703271082435343,15.0,814.0],["C1orf174",-0.07368387449403403,-1.7689738074839483,9.0,820.0],["CD164",-0.09985954689648263,-2.6916049862082816,11.0,818.0],["N6AMT1",-0.09555361971806837,-2.5245120056979666,16.0,813.0],["PHOSPHO1",-0.08509155851478722,-2.143637408619552,14.0,815.0],["PTPLAD1",-0.1100824564431734,-3.113410341848729,11.0,818.0],["TEX13B",-0.08948040715226684,-2.299010650970511,14.0,815.0],["TMEM154",-0.09313545625457166,-2.432998791513563,8.0,821.0]]}}}
{"depmap_damaging":{"corr":{"top":[["AKAP10",0.21771358797697837,-9.614317813262604,8.0,820.0],["ANKHD1",0.1583419437918975,-5.329075828637952,11.0,817.0],["ANXA10",0.20881088021075572,-8.88349414006443,8.0,820.0],["CCDC171",0.18711099136303522,-7.234373635576088,9.0,819.0],["DNAI1",0.12876984603614577,-3.6924653363276505,13.0,815.0],["DNMBP",0.14131548881275968,-4.34775766202635,11.0,817.0],["DPP9",0.17459936064083906,-6.367013691288756,8.0,820.0],["ELTD1",0.16656671318463495,-5.841710809001861,9.0,819.0],["ENPEP",0.14452098599201368,-4.5243542948046285,11.0,817.0],["ENPP2",0.17006548427659515,-6.067506958892883,8.0,820.0],["EPS8L3",0.1809881302458836,-6.802380935757688,9.0,819.0],["FAM178B",0.16251822979386712,-5.586203251611506,15.0,813.0],["GAB1",0.13777900978841823,-4.157272640846359,10.0,818.0],["HFM1",0.2557310628239348,-13.102905182336858,15.0,813.0],["IRAK3",0.16000654786825172,-5.43078064380806,10.0,818.0],["KLHL24",0.15661346141567528,-5.224562531813276,9.0,819.0],["LIFR",0.13261467931058282,-3.887252296996075,18.0,810.0],["LY75",0.13707224976960886,-4.119749260351135,19.0,809.0],["MAP3K2",0.1253661627394324,-3.5244483592191806,55.0,773.0],["PEX5L",0.14808955469346,-4.725380410221461,10.0,818.0],["PHF20",0.15198187501774701,-4.949988707540031,24.0,804.0],["PKDCC",0.14278367871386785,-4.428176893367495,12.0,816.0],["PRSS1",0.1519747030205638,-4.949569698325233,13.0,815.0],["REXO1",0.16996218943958938,-6.060774341372866,9.0,819.0],["SEMA3C",0.17803971494440202,-6.599514765564722,8.0,820.0],["ZNF217",0.15327476041297777,-5.025834004227175,10.0,818.0]],"bottom":[]},"para":{"top":[["ANXA10",0.09707113433512723,-2.5801895162770343,8.0,820.0],["DOCK7",0.13880433632627903,-4.483024320357168,14.0,814.0],["NALCN",0.11550791518013913,-3.3485285663556654,15.0,813.0],["NELL1",0.10068343447663933,-2.721883342854822,11.0,817.0]],"bottom":[["DHRS9",-0.08472510029994818,-2.1290550042735763,10.0,818.0],["ELF4",-0.09037566078365868,-2.3292598464281773,8.0,820.0],["PLD2",-0.07875782327735525,-1.928736843956734,8.0,820.0],["PZP",-0.08985057005042396,-2.3104826885964425,16.0,812.0]]}}}
{"ccle_rrbs_enhancer_clusters":{"corr":{"top":[],"bottom":[["3-193658817-193661647-1_enh",-0.20619161419146095,-8.412965436129884,801],["7-28112903-28116337-0_enh",-0.2083052159478427,-8.77375235512976,821],["17-41705554-41708087-1_enh",-0.24742007236096916,-8.389540242604564,550]]},"para":{"top":[],"bottom":[["3-71251670-71254342-1_enh",-0.20007338798966484,-7.868590132350417,792],["7-95872847-95876474-0_enh",-0.1495425520412655,-4.653901707427372,798]]}}}
{"ccle_mirna":{"corr":{"top":[],"bottom":[["hsa-miR-554_miR00506.1",-0.19355450507857513,-7.670552614762728,824],["hsa-miR-636_miR00592.1",-0.18492225632188347,-7.047070377966897,824]]},"para":{"top":[],"bottom":[]}}}
{"prism_primary_logfold":{"corr":{"top":[["isamoltane_BRD-A26845397-051-01-9::2.5::HTS",0.16859466034512208,-3.6379826501720705,473]],"bottom":[]},"para":{"top":[["BADGE_BRD-A16694057-001-06-8::2.5::HTS",0.17195794161213468,-3.7454595583591193,470]],"bottom":[]}}}
{"prism_secondary_logfold":{"corr":{"top":[],"bottom":[["prazosin_BRD-K49111258-003-29-7::10::HTS002",-0.18899111954763045,-3.93578324223656,411]]},"para":{"top":[["ER-27319_BRD-K11927976-050-02-9::0.00061034::HTS002",0.21604926111216402,-4.992706860570049,410]],"bottom":[["WYE-125132_BRD-A45498368-001-07-1::0.15625::HTS002",-0.24139790193913385,-5.99952671735424,401],["famciclovir_BRD-K45033733-001-12-2::10::HTS002",-0.2642956927858057,-5.772086936661474,319],["MLN0128_BRD-K59317601-001-05-5::0.0390625::HTS002",-0.197933048675618,-3.4715247146323893,324]]}}}
{"ccle_proteomics":{"corr":{"top":[["UCKL1_Q9NWZ5",0.23715220168807588,-4.596869473063517,309]],"bottom":[["PHLPP1_O60346",-0.3169558424864871,-4.450008570030821,164],["CACNA1F_O60840",-0.2898952236972096,-3.392618205158502,145]]},"para":{"top":[["DDX12P_Q92771",0.28012809210124445,-4.455047174185102,212],["UBE3D_Q7Z6J8",0.24607840684508805,-1.8667797006078075,100],["IFRD2_Q12894",0.31248811718635094,-5.154434112847076,199]],"bottom":[]}}}
{"depmap_copy_number":{"corr":{"top":[],"bottom":[["LINC02168_105371252",-0.13260671665362583,-3.88684340011546,828]]},"para":{"top":[],"bottom":[]}}}
{"depmap_gene_tpm":{"corr":{"top":[["SEPT14_346288",0.37844957389007144,-28.762119675249206,825],["GAGE12H_729442",0.3659116863131989,-26.81157897628733,825],["GAGE12C_729422",0.3543851347749648,-25.09294785838864,825]],"bottom":[]},"para":{"top":[],"bottom":[]}}}
{"avana":{"corr":{"top":[["ZMYM3_9203",0.19262781738060564,-4.314003870754393,439]],"bottom":[["FBXL18_80028",-0.23832527541305773,-6.741099011747074,468],["OR10G2_26534",-0.2353962301259379,-6.5873258962059,468],["PKP2_5318",-0.2800243863793083,-9.153083329136138,468],["PSORS1C2_170680",-0.209341330780972,-5.306311029423821,468],["TRAF5_7188",-0.38438314815897834,-17.200382721174883,468]]},"para":{"top":[["AMPD2_271",0.20480193342640338,-5.098811377314931,468],["FAM24B_196792",0.1814545971563811,-4.103046479867599,468],["N4BP2_55728",0.17985428963759556,-4.039108880736141,468],["NRG1_3084",0.1663594828667978,-3.5215364044534376,468],["NRK_203447",0.1698739118966467,-3.4558539330530524,439],["PAN3_255967",0.16548941073890783,-3.4894800619760193,468],["PSPN_5623",0.18538251990041207,-4.262303872222601,468],["UNC13A_23025",0.17723733117878956,-3.9357288894664695,468],["ZNF649_65251",0.16463515317915858,-3.458160038155393,468],["ZNF793_390927",0.17234161363434522,-3.746230693114549,468],["ZNF91_7644",0.17056921556217114,-3.678874396265344,468]],"bottom":[["SHTN1_57698",-0.15359404366331417,-3.0669666058153067,468],["TAS2R42_353164",-0.18120795918967844,-4.09315682068324,468],["UBE3B_89910",-0.16812002118918787,-3.586884443422061,468]]}}}
{"drive":{"corr":{"top":[],"bottom":[]},"para":{"top":[["CYP2E1_1571",0.18906874607088642,-3.153854055283929,318],["COL18A1_80781",0.20051150924754008,-3.4942051814047477,318]],"bottom":[["TARDBP_23435",-0.24714059914987727,-5.11331925526682,320]]}}}
{"achilles":{"corr":{"top":[["CAMK2A_815",0.22837703086450137,-5.124736808289853,377]],"bottom":[["PRNT_149830",-0.25873288579238607,-3.920976675510436,216],["GALNS_2588",-0.2544059710475913,-6.254840064937447,377],["IRF4_3662",-0.4020076233779434,-15.349254523875377,377],["SNX22_79856",-0.3502811031123089,-6.904528404269913,216]]},"para":{"top":[],"bottom":[]}}}
{"ccle_rrbs_tss1kb":{"corr":{"top":[["CBLB_3_105587887_105588887",0.620339291751166,-87.85790616734909,822],["FOXP1_3_71633140_71634140",0.9641267929478511,-323.0051853474518,823],["YPEL2_17_57408052_57409052",0.4999636189311615,-52.59729652323169,824],["IDH2-DT_15_90644363_90645363",0.6523872317789505,-99.6125764464914,818],["CBLB_3_105587225_105588225",0.6759558258491554,-110.88723857915197,828],["DPYSL2_8_26434920_26435920",0.6622928893919856,-103.93396397640862,820],["CBLB_3_105587163_105588163",0.6833655855731243,-114.24973182365908,828],["CRYM-AS1_16_21311169_21312169",0.5697174267784553,-71.78432641528123,829],["CBLB_3_105587403_105588403",0.6710114870342652,-108.56771731965537,827],["DPYSL2_8_26434339_26435339",0.6709605782915063,-108.5454229148932,827],["LOC100288203_15_30762371_30763371",0.9162235836920066,-84.63744319817647,212],["CD82_11_44586140_44587140",0.7199284534682904,-131.7910843459034,824]],"bottom":[["TGM2_20_36794980_36795980",-0.21472086873779336,-9.039409629006977,797],["TMEM170A_16_75498635_75499635",-0.3976438426427333,-12.11826833659761,301],["SNORA91_21_43368391_43369391",-0.2242273370818826,-9.99755753683372,813],["TRIM15_6_30129982_30130982",-0.25771243058261545,-7.779304661285837,466]]},"para":{"top":[["FOXP1_3_71633140_71634140",0.7796022481507918,-168.30346823855638,823]],"bottom":[["CPN2_3_194072057_194073057",-0.1525161895489437,-4.9544955961446835,823],["ACOT2_14_74033323_74034323",-0.15302368261126567,-4.584625577072503,749]]}}}
{"ccle_gene_tpm":{"corr":{"top":[["AC015922.5_ENSG00000227790.2",0.49388887168988355,-51.039037748965534,822],["PAICSP2_ENSG00000228595.1",0.5031185293589613,-53.2274424157306,822],["AP000567.27_ENSG00000218125.1",0.5239274363197768,-58.4144047311994,822],["HTATSF1P_ENSG00000223457.1",0.4963957542723058,-51.62682986516266,822],["ARL5AP4_ENSG00000224806.2",0.4712687101132677,-45.950124598816096,822],["RP11-313E4.1_ENSG00000225947.1",0.5180334226959883,-56.90860079178965,822],["RP11-56P9.4_ENSG00000255527.1",0.48269208485311427,-48.472453745660204,822],["RP11-424E7.3_ENSG00000229926.1",0.5138834450296182,-55.86595500196338,822],["CTC-513N18.4_ENSG00000269372.1",0.5239274363197768,-58.4144047311994,822],["STARP1_ENSG00000214266.2",0.5118725520610133,-55.365887925350705,822]],"bottom":[]},"para":{"top":[],"bottom":[]}}}
{"ccle_rrbs_tss_clusters":{"corr":{"top":[["TTC39C_1",0.5391998963867367,-62.98102263388701,829],["FOXP1_4",0.5247981601609573,-58.990461648848516,827],["WWOX_3",0.6194617684903396,-88.0695617594513,827],["LOC100288203",0.9162235836920066,-84.63744319817647,212],["FOXP1_5",0.989624355774087,-323.0051853474518,829],["CBLB_1",0.6731668807302725,-109.6470583843087,828],["CRYM-AS1",0.5056529715430826,-54.16210103755258,827],["FOXP1_3",0.8368617339327766,-217.89236181174738,829],["CD82_2",0.4908091896150255,-50.74435949249003,829]],"bottom":[["HLCS_3",-0.36031449138071764,-11.288368663221299,345],["TBC1D22A-AS1_2",-0.3107442159624103,-19.089360963798036,820],["NAXD_1",-0.30959691126180305,-18.438627124954596,797],["TMEM170A_2",-0.3768717602283771,-10.832903651717139,300],["SNHG28_3",-0.28412488548572473,-15.98363793921754,821],["LRRC27_4",-0.31074900072875455,-11.951214835609171,501],["LOC101928510_3",-0.3176610228460496,-17.266918037818705,705],["MIR4498_1",-0.3010922653006002,-17.79332330389351,814]]},"para":{"top":[["FOXP1_5",0.9343710249886313,-323.0051853474518,829],["FOXP1_3",0.6925457814559929,-118.69927472323968,829]],"bottom":[["ERVH48-1_2",-0.1900234858031424,-6.917371072764342,764],["LINC00208_3",-0.20215287475339946,-5.055709533017966,476],["LOC101928510_3",-0.19082443844432237,-6.479817329648453,705],["DOT1L_3",-0.19301705120829912,-7.358927064696457,792]]}}}
{"ccle_rrbs_cgi_clusters":{"corr":{"top":[["11_44584602_44589404-2",0.4908091896150255,-50.74435949249003,829],["15_30760927_30765795-1",0.9162235836920066,-84.63744319817647,212],["15_90642998_90645581-1",0.6657961346945884,-106.17922718188306,826],["16_78131174_78136066-3",0.6194617684903396,-88.0695617594513,827],["16_21310168_21312750-1",0.56011824097555,-68.58825350905565,825],["8_26432372_26435578-1",0.6723076085249122,-109.13682996738292,827],["3_71631895_71635217-2",0.989624355774087,-323.0051853474518,829],["18_21592013_21594739-1",0.5645843228054566,-69.90453912680647,825],["3_105585279_105590218-1",0.6731668807302725,-109.6470583843087,828]],"bottom":[["5_14459130_14463463-1",-0.3093077784976691,-19.06703504678073,827],["1_10712401_10716708-1",-0.3063701380950418,-18.466777832496636,816],["17_39017387_39022101-3",-0.3894844834288347,-14.16112463432313,371],["4_1386614_1391430-1",-0.31292449179190274,-9.946978828120088,406],["13_111265780_111270778-1",-0.30959691126180305,-18.438627124954596,797],["16_83996884_84001139-1",-0.29835121104982487,-17.635169253074235,822],["16_75495828_75500780-2",-0.3768717602283771,-10.832903651717139,300],["5_14485930_14490536-1",-0.3651509542112618,-26.664639403741624,824],["13_114163218_114167462-1",-0.31324958638900763,-19.581884494911158,828],["1_10711838_10716203-3",-0.2945963419305142,-17.09529977666792,817],["3_69060159_69062675-1",-0.33751861682413914,-22.119276811579425,803],["21_38350856_38355274-3",-0.36031449138071764,-11.288368663221299,345]]},"para":{"top":[["3_71631895_71635217-2",0.9343710249886313,-323.0051853474518,829]],"bottom":[["19_2164618_2167603-3",-0.19301705120829912,-7.358927064696457,792],["14_104191901_104196627-2",-0.19215236301303606,-3.3488488745942564,330]]}}}
