{"depmap_hotspot":{"corr":{"top":[["CAT",0.13216211507050696,-3.8843541201206833,18.0,815.0],["HOOK2",0.13001107142656643,-3.7744469802108545,44.0,789.0],["MAPKAPK5",0.11876234424759213,-3.2267967070123404,35.0,798.0]],"bottom":[["ATP11A",-0.08209509515901636,-1.7496951867602326,70.0,763.0],["AVIL",-0.09017580468680184,-2.035575912175191,34.0,799.0],["CEACAM5",-0.08756507429293511,-1.9408068921317054,46.0,787.0],["CYP2A7",-0.08351570948375685,-1.7983638725781932,33.0,800.0],["FAM133A",-0.09726575845267972,-2.304636822446423,32.0,801.0],["FLJ30594",-0.08264825451321343,-1.7685655702277934,16.0,817.0],["FSIP2",-0.131955939698316,-3.8737470828139156,199.0,634.0],["GPR20",-0.07873778001672208,-1.6373529454517106,21.0,812.0],["NT5C1B",-0.10939617037976164,-2.8051350331787246,36.0,797.0],["OR51S1",-0.07999677916840121,-1.6790418742508046,29.0,804.0],["PADI1",-0.0826320445074891,-1.7680111300766692,23.0,810.0],["PDZRN4",-0.08275966086079553,-1.7723784429673661,68.0,765.0],["SLCO2A1",-0.09824977926659835,-2.34333975544933,32.0,801.0],["TMEM80",-0.08694127501030947,-1.9185040996082428,21.0,812.0],["XKR3",-0.1042361625026093,-2.585991366640511,23.0,810.0],["ZNF280B",-0.10217147843209008,-2.5009009443334147,23.0,810.0]]},"para":{"top":[["CEMP1",0.11074222578019449,-3.153396971956107,13.0,820.0],["COX5A",0.09527079496968646,-2.5223861219593395,14.0,819.0],["HIBCH",0.13443432868460142,-4.2769144804724775,16.0,817.0],["HIST1H4F",0.10437688225296315,-2.883964538851664,11.0,822.0],["HLA-DPA1",0.10912558153831131,-3.083561654690702,10.0,823.0],["LCE3D",0.0959736211334401,-2.5492853059058516,13.0,820.0],["LXN",0.11484709474545551,-3.3343537020756995,13.0,820.0],["OSTM1",0.08749516037177232,-2.2351439386526923,8.0,825.0],["PEA15",0.1404005295401869,-4.58966699742287,8.0,825.0],["SAP18",0.12747228064808347,-3.9268414036329964,14.0,819.0],["STX5",0.12686913285348836,-3.897527649128984,23.0,810.0],["TMEM110",0.1267808206611881,-3.892730533612216,9.0,824.0],["TMEM165",0.11405335178818676,-3.29904032134361,17.0,816.0],["TPD52L2",0.07847572316876085,-1.9272515591348773,9.0,824.0],["ZNF550",0.11955664801852176,-3.5489642588634576,12.0,821.0]],"bottom":[["IDNK",-0.08414977419765479,-2.1180512034857717,14.0,819.0],["PLA2G2A",-0.08641958471651873,-2.1970766584316954,9.0,824.0],["SLCO2A1",-0.12040441118828278,-3.588815810083886,32.0,801.0],["UTP23",-0.07926412735637216,-1.9532555578842408,13.0,820.0],["XKR3",-0.11115815085207872,-3.171709340544619,23.0,810.0],["ZNF280B",-0.10957186480682364,-3.1030810613986097,23.0,810.0]]}}}
{"depmap_damaging":{"corr":{"top":[["JHDM1D",0.17008465896275787,-6.095232092604709,11.0,821.0]],"bottom":[["CNTNAP5",-0.09517426418373506,-2.221286463655269,21.0,811.0],["COL6A3",-0.08169072467103686,-1.7343041199408629,21.0,811.0],["DPP6",-0.08324827008138545,-1.7874315208883116,13.0,819.0],["KIF5C",-0.06941905501122342,-1.3437970945362716,17.0,815.0],["LONRF1",-0.0799335661696235,-1.675338620768411,12.0,820.0],["SCN2A",-0.07686771038757934,-1.5749103008882241,19.0,813.0],["SPATA31E1",-0.07625341460395965,-1.5551614975099355,13.0,819.0]]},"para":{"top":[["AGL",0.11542221939146775,-3.3570424649715958,13.0,819.0],["ARHGEF25",0.08237354860093493,-2.055331423074995,8.0,824.0],["GOPC",0.1025414378402471,-2.806222523194601,9.0,823.0],["JHDM1D",0.13308727357311909,-4.203607403582563,11.0,821.0]],"bottom":[["CCDC65",-0.08155009706373156,-2.0275239854536076,8.0,824.0],["DPP6",-0.10427322839720857,-2.8771868511252716,13.0,819.0],["LONRF1",-0.10012137181541568,-2.7091333368514814,12.0,820.0],["SPATA31E1",-0.08892381594619458,-2.2846607259621288,13.0,819.0]]}}}
{"ccle_chromatin":{"corr":{"top":[],"bottom":[["H3K27me1K36me0",-0.28840851239457804,-15.987055095780446,796]]},"para":{"top":[],"bottom":[]}}}
{"prism_primary_logfold":{"corr":{"top":[],"bottom":[]},"para":{"top":[["MRS1845_BRD-A78093359-001-06-3::2.5::HTS",0.1677983828829377,-3.60796557005585,473],["parachlorophenol_BRD-K40992116-001-09-7::2.5::HTS",0.18095320819828897,-4.006422946171388,458]],"bottom":[["clemizole_BRD-K04704168-003-14-3::2.5::HTS",-0.19352414848544133,-4.6726761517592434,476]]}}}
{"prism_secondary_logfold":{"corr":{"top":[["isoxsuprine_BRD-A16700644-003-04-4::10::HTS002",0.20621101345970708,-2.4380910335471997,197],["polydatin_BRD-K43236057-001-07-1::10.3991::HTS002",0.22480125687881106,-5.367827455533992,410],["paclitaxel_BRD-K62008436-001-23-9::0.00977::MTS010::PROS005_PR500",0.24881511252052546,-6.418833225991789,406],["paclitaxel_BRD-K62008436-001-23-9::0.0391::MTS010::PROS005_PR500",0.22227780658791696,-5.212127021825316,406],["cephalomannine_BRD-K68904758-001-03-5::0.0390625::HTS002",0.23529870937327396,-5.889401024504518,414],["cephalomannine_BRD-K68904758-001-03-5::0.15625::HTS002",0.24911916767417588,-6.173814617651518,388],["NMS-1286937_BRD-K83699324-001-01-1::0.625::HTS002",0.21259354406083883,-3.9810244133478756,328]],"bottom":[["YM-201636_BRD-K48488978-001-05-3::0.0390625::HTS002",-0.17626197079976352,-3.467030446166107,409],["AVN-944_BRD-K62196610-001-01-6::0.00976562::HTS002",-0.19417520307509337,-3.6601253775283284,358],["anagrelide_BRD-K62200014-003-10-5::2.5::HTS002",-0.22712662565644867,-5.2780184241264445,394],["vincamine_BRD-K89704198-001-12-3::0.0024414::HTS002",-0.19142778433905766,-4.060511844447174,415]]},"para":{"top":[["polydatin_BRD-K43236057-001-07-1::10.3991::HTS002",0.22794277753690198,-5.5061962546747205,410],["polydatin_BRD-K43236057-001-07-1::2.59978::HTS002",0.23018624620973593,-5.606222347509756,410],["ONX-0914_BRD-K60446698-001-01-2::0.625::HTS002",0.2115477960067038,-4.753496086580791,405],["paclitaxel_BRD-K62008436-001-23-9::0.00244::MTS010::PROS005_PR500",0.2298861942364306,-5.5436443465293594,406],["paclitaxel_BRD-K62008436-001-23-9::0.00977::MTS010::PROS005_PR500",0.26083921513324965,-7.012958747531358,406],["paclitaxel_BRD-K62008436-001-23-9::0.0391::MTS010::PROS005_PR500",0.2290827067763943,-5.508091734923934,406],["ispinesib_BRD-K64881305-001-03-7::0.0391::MTS010::PROS001_PR500",0.21205920452470853,-4.763815260063164,404],["ispinesib_BRD-K64881305-001-03-7::0.15625::MTS010::PROS001_PR500",0.22146874219477566,-5.040475499411138,394],["cephalomannine_BRD-K68904758-001-03-5::0.0390625::HTS002",0.24803828321569532,-6.495769313938694,414],["cephalomannine_BRD-K68904758-001-03-5::0.15625::HTS002",0.23474451103088242,-5.530641020065781,388],["10-deacetylbaccatin_BRD-K96631475-001-02-4::2.43028::HTS002",0.27645161397375706,-7.989802154353505,415]],"bottom":[["vincamine_BRD-K89704198-001-12-3::0.0024414::HTS002",-0.17033093820236053,-3.3078136565200795,415]]}}}
{"ccle_proteomics":{"corr":{"top":[["GFRA1_P56159",0.3366250094287866,-5.444040698377164,181],["ALKBH6_Q3KRA9-2",0.35847513131507963,-5.612882316586556,164],["KLHDC10_Q6PID8",0.302722224175337,-2.6796408526284625,101]],"bottom":[]},"para":{"top":[["RARA_A8MUP8",0.3542026315319322,-3.956628487382849,114],["GFRA1_P56159",0.41352556036330296,-8.142071310199377,181],["NRBP2_Q9NSY0",0.3003858731526439,-4.551314538809022,188],["ALKBH6_Q3KRA9-2",0.40356690649554394,-7.075711733655937,164],["RABL5_Q9H7X7",0.29940335438614796,-6.839581469405943,297],["CXCR4_P61073-2",0.310155725468221,-3.1528142895901436,116]],"bottom":[["WDR25_Q64LD2",-0.2943361453957889,-3.1912543142832295,131],["FCF1_Q9Y324",-0.27631019502782056,-6.433245528762977,328]]}}}
{"depmap_gene_tpm":{"corr":{"top":[["ATRNL1_26033",0.4144374592826632,-35.01895919304347,829],["GFRA1_2674",0.40710184906231656,-33.70936752905408,829]],"bottom":[]},"para":{"top":[["ATRNL1_26033",0.3856074198335613,-30.055410533853408,829],["GFRA1_2674",0.4086787825230894,-33.98814809332862,829],["LHFPL1_340596",0.2859102004787467,-16.333476600150128,829]],"bottom":[]}}}
{"avana":{"corr":{"top":[["PMP22_5376",0.21428699719742159,-5.55889488927402,470],["RAD51D_5892",0.2325462916184024,-6.4646389182109605,470]],"bottom":[["ADCK2_90956",-0.20057689493449551,-4.928471959222241,470],["CCDC172_374355",-0.20320562646923102,-5.046098108854484,470],["COL23A1_91522",-0.20568267016373698,-5.158341063414147,470],["NPTX1_4884",-0.2190112301800876,-5.785921740120421,470],["NTHL1_4913",-0.19553113393586355,-4.706969507723411,470],["PTPRN2_5799",-0.18689599635715204,-4.3408361350824505,470],["RPL30_6156",-0.19252771652197315,-4.57777863977927,470]]},"para":{"top":[["BCKDHA_593",0.18636210226438882,-4.318731012031684,470],["MEGF10_84466",0.18739662970247636,-4.36162021614641,470],["PPBP_5473",0.19578189787124817,-4.717845431587543,470],["RAD51D_5892",0.2144603119306859,-5.567134297932566,470],["TMEM199_147007",0.19394244501239416,-4.638386634521968,470]],"bottom":[["C6orf118_168090",-0.18184937906898954,-4.134346750309112,470],["CCDC172_374355",-0.22241465544291192,-5.952623881665063,470],["COL23A1_91522",-0.21039970749266826,-5.375872891583854,470],["GALNTL5_168391",-0.1839415048183226,-4.219282521668028,470],["MPPED1_758",-0.2062487267181395,-5.1841827723512655,470],["NPTX1_4884",-0.2008893728888107,-4.942374044905291,470],["NRIP3_56675",-0.1814494513852777,-4.118217714855481,470],["RAB40B_10966",-0.18704567667541241,-4.347044510355723,470],["RPS6_6194",-0.19254861993384423,-4.5786709728279025,470],["STK25_10494",-0.19010305621366927,-4.47492056764011,470],["TRIM24_8805",-0.19375384618735586,-4.5953476075004565,466]]}}}
{"drive":{"corr":{"top":[["ALYREF_10189",0.2740944226127938,-6.371741103931028,330],["EPS15_2060",0.25027766460801726,-5.233199440410879,320],["GCLM_2730",0.2607236597136135,-5.643899692137083,320],["MYH11_4629",0.2690442241645612,-5.983879235186601,320],["PARL_55486",0.2689295046581202,-5.979113450341869,320]],"bottom":[["CDK20_23552",-0.24665157931817586,-5.094774493504514,320],["DDR2_4921",-0.25290728692320574,-5.334913053235126,320],["CCR2_729230",-0.2770140154617407,-6.320384039499887,320],["KMT2D_8085",-0.24237586065310532,-4.96180346483636,322]]},"para":{"top":[["ALYREF_10189",0.2816799843096443,-6.708205174223784,330],["AGAP2_116986",0.23317915510986578,-4.598853132479533,320],["GCLM_2730",0.2749073209847563,-6.230391798835157,320],["PARL_55486",0.22659004285037138,-4.366711562413012,320]],"bottom":[["CCR2_729230",-0.23524318587507748,-4.672967593620942,320]]}}}
{"achilles":{"corr":{"top":[["PMS2P7_100101440",0.21562170508454806,-2.8777680144669215,219],["RPS6KB2_6199",0.22189499658327555,-4.897415428830373,380],["GNA14_9630",0.2640381727426851,-3.1467496968663116,161]],"bottom":[["C6orf58_352999",-0.24964616630882336,-3.7222845993360143,219]]},"para":{"top":[["GLYAT_10249",0.22157452986338433,-4.884573914672269,380],["LACC1_144811",0.25031536775839475,-3.7401332230422826,219],["AMZ1_155185",0.3025916738378815,-5.290437249332355,219],["TBK1_29110",0.2109152159411279,-4.468126940500775,380],["SNRK_54861",0.2124012312002233,-4.5249457545868275,380]],"bottom":[["SH3PXD2B_285590",-0.2498645984179128,-3.728105153301013,219],["TCEAL7_56849",-0.24149827474911123,-3.508861044171793,219],["ABRAXAS1_84142",-0.2552768916544112,-3.8739916564831534,219]]}}}
{"ccle_rrbs_tss1kb":{"corr":{"top":[["MAGI2-AS2_7_78637303_78638303",0.34592146149378455,-24.098807090173306,833]],"bottom":[]},"para":{"top":[],"bottom":[]}}}
{"ccle_gene_tpm":{"corr":{"top":[["ATRNL1_ENSG00000107518.12",0.4166475861570423,-35.2949481969231,826],["GFRA1_ENSG00000151892.10",0.40792587841501926,-33.73551296660293,826]],"bottom":[]},"para":{"top":[["LHFPL1_ENSG00000182508.9",0.29082863370555884,-16.837957611483294,826],["ATRNL1_ENSG00000107518.12",0.3872841880425732,-30.22421139907766,826],["GFRA1_ENSG00000151892.10",0.39980537780883035,-32.32450489351289,826]],"bottom":[]}}}
{"ccle_rrbs_tss_clusters":{"corr":{"top":[["SNORD158_1",0.5529811942082457,-65.96921332905764,818],["GFRA1_1",0.6119334633850801,-79.97586967552067,774],["GFRA1_2",0.5031196290595826,-48.199078953607575,743],["SV2B_5",0.39015241137614975,-28.52970123706926,766],["SNORD158_2",0.4757369829354169,-41.82948940123777,731],["GFRA1_3",1.0,-323.0051853474518,644]],"bottom":[["ELOVL2_3",-0.23904900337801788,-5.26608267612396,354]]},"para":{"top":[["SNORD158_1",0.5345391269622644,-60.90798719165262,818],["GFRA1_1",0.6083703454906105,-78.81213912392926,774],["GFRA1_2",0.5127831604585338,-50.33630356904755,743],["SV2B_5",0.3858934518230458,-27.87949420994199,766],["SNORD158_2",0.48185680489375815,-43.038607890669624,731],["GFRA1_3",1.0,-323.0051853474518,644]],"bottom":[["ELOVL2_3",-0.2475127627961804,-5.614579107059288,354]]}}}
{"ccle_rrbs_cgi_clusters":{"corr":{"top":[],"bottom":[["15_21083681_21086348-1",-0.28372994551626046,-3.284349386298239,146],["6_11044559_11047206-3",-0.23904900337801788,-5.26608267612396,354]]},"para":{"top":[],"bottom":[["18_42259889_42262795-2",-0.24482440567489108,-4.2783367526346705,267],["6_11044559_11047206-3",-0.2475127627961804,-5.614579107059288,354],["15_21083681_21086348-1",-0.2982873791481607,-3.592888781601747,146]]}}}
