{"depmap_hotspot":{"corr":{"top":[["ARHGEF2",0.14758944397048693,-4.269004287756189,51.0,692.0],["CMTR2",0.14968704157372348,-4.377147001696717,34.0,709.0],["RCOR2",0.1538357448647726,-4.5953113988461345,19.0,724.0]],"bottom":[["EMC8",-0.08998998648219247,-1.8496866242504757,17.0,726.0],["LRRC19",-0.07076171554427829,-1.2687674119385945,12.0,731.0],["MAP3K7CL",-0.07284328980232531,-1.3264243535666056,10.0,733.0],["TPM3",-0.08279621660696272,-1.6195723399955486,11.0,732.0],["TRIM69",-0.07628066489888173,-1.4243879591884725,11.0,732.0]]},"para":{"top":[["ADM2",0.12924204980866066,-3.6655575212473184,9.0,734.0],["AK4",0.11245561089624283,-2.9594926871348974,8.0,735.0],["ASB12",0.09374348485551298,-2.272101816984594,8.0,735.0],["AZGP1",0.1141274923209894,-3.0262167542684146,12.0,731.0],["B9D2",0.10574286063361539,-2.701030221339225,10.0,733.0],["BTBD8",0.11356344887514512,-3.0037242094201195,13.0,730.0],["C21orf54",0.09203684143811748,-2.214569090845926,8.0,735.0],["CBLN3",0.1100370806908092,-2.865026017873424,13.0,730.0],["CD3E",0.1368622038352482,-4.014552796816267,15.0,728.0],["CDC42EP3",0.11712165477803328,-3.147421821865025,12.0,731.0],["ISG15",0.13078810620309392,-3.7349961247721324,11.0,732.0],["KIAA1257",0.1320181339809474,-3.7908918645154555,17.0,726.0],["KIR2DL3",0.13282469648379314,-3.8275505667711878,14.0,729.0],["KRTAP4-1",0.0993205517373592,-2.4660971441251713,8.0,735.0],["L3HYPDH",0.10320437688582855,-2.6067495789226847,10.0,733.0],["MBNL2",0.15219805430036207,-4.770416761285671,23.0,720.0],["MRPL35",0.10404429691050758,-2.6376145074091486,8.0,735.0],["NDUFAF4",0.1361713788417835,-3.981911087551131,9.0,734.0],["NUDT21",0.10153934991147373,-2.5459508955987014,10.0,733.0],["NUDT3",0.1219871687707296,-3.3501444786259755,12.0,731.0],["ORAI1",0.13996149119978674,-4.161633713067186,22.0,721.0],["RCOR2",0.15144958058988806,-4.731768372208762,19.0,724.0],["SCNM1",0.1035731378673247,-2.6203726171397097,11.0,732.0],["SLC25A40",0.10951149186638007,-2.844635682744519,12.0,731.0],["SPSB4",0.13030981401110966,-3.7136394306327145,15.0,728.0],["STX12",0.10647014692802462,-2.728341017261567,9.0,734.0],["SYNPR",0.10017457370298619,-2.49672991622476,10.0,733.0],["UBE2D1",0.1003567280979208,-2.5031531799218967,8.0,735.0]],"bottom":[["ILDR1",-0.08943310140906179,-2.128888489853389,27.0,716.0],["TPM3",-0.07721758958426395,-1.7508703753857893,11.0,732.0]]}}}
{"depmap_damaging":{"corr":{"top":[["KIAA1107",0.10909377746480435,-2.533934386117879,31.0,711.0],["LMF2",0.11051532096477995,-2.589479129294417,9.0,733.0],["PTGIS",0.1311169107103786,-3.4656685661564466,10.0,732.0]],"bottom":[["CCDC146",-0.06611390000870752,-1.143370156872038,9.0,733.0],["COL28A1",-0.07208308660124878,-1.3038737173135855,15.0,727.0],["GALNT6",-0.06037492136831832,-0.9986265393691187,8.0,734.0],["ITGB5",-0.10513102748205094,-2.382399378556863,19.0,723.0],["PPP4R1L",-0.06794522474225313,-1.1915259308955548,9.0,733.0],["TDG",-0.06445986587562204,-1.1006974410271788,12.0,730.0],["UACA",-0.09793611507854007,-2.1196113888832513,14.0,728.0]]},"para":{"top":[["ANKRD30B",0.10405250332830764,-2.6355933192843515,14.0,728.0],["ANO3",0.1012132901907468,-2.531620022731151,9.0,733.0],["CCDC150",0.09704954521568733,-2.3837063019200775,8.0,734.0],["DNAH12",0.1177237246087082,-3.168629625922261,8.0,734.0],["GRID2",0.11063533548188556,-2.885348595741175,12.0,730.0],["IDH1",0.1274601752928733,-3.582783723727277,9.0,733.0],["LMF2",0.10907871240027539,-2.8249597176517423,9.0,733.0],["MAP3K5",0.11579983494584219,-3.090192789360447,8.0,734.0],["MYO1C",0.11790272172727662,-3.1761665731236186,11.0,731.0],["NPC1",0.10031710384944394,-2.499301553622585,8.0,734.0],["OR2D3",0.11302582904022196,-2.979123286912195,9.0,733.0],["PRDM15",0.09143056588287223,-2.1922848323682436,8.0,734.0],["PTGIS",0.12879701118786707,-3.6419431110633766,10.0,732.0]],"bottom":[["ITGB5",-0.11009141349981137,-2.864411365855169,19.0,723.0],["UACA",-0.09633375001836636,-2.359060123618148,14.0,728.0]]}}}
{"prism_primary_logfold":{"corr":{"top":[],"bottom":[["nortriptyline_BRD-K91263825-003-21-4::2.5::HTS",-0.20079435046628638,-4.525357127617032,426]]},"para":{"top":[],"bottom":[["nortriptyline_BRD-K91263825-003-21-4::2.5::HTS",-0.19706439187945005,-4.3757199845440224,426],["enasidenib_BRD-K70601687-001-01-3::2.500008826::MTS004",-0.19938816749776825,-4.329383664788971,411]]}}}
{"prism_secondary_logfold":{"corr":{"top":[["acetophenazine_BRD-K42938903-332-01-1::2.5::HTS002",0.20201369171360303,-3.646439905343256,329],["famciclovir_BRD-K45033733-001-12-2::2.5::HTS002",0.1980509268821836,-3.1209727216779504,286],["serdemetan_BRD-K65924316-001-03-1::0.00976562::HTS002",0.22643857372116383,-2.873796914348915,198],["norethindrone_BRD-K92073408-001-15-7::0.15625::MTS005",0.17355708458967012,-2.9604268039721005,351],["telotristat-ethyl_BRD-K94559059-091-01-6::0.625::HTS002",0.2368228248137988,-3.73732354201733,245]],"bottom":[["dienogest_BRD-K50853363-001-02-3::2.5::HTS002",-0.18841033359316448,-3.5470109125743,367],["AR-12_BRD-K90497590-001-04-2::10::HTS002",-0.18715305413561725,-3.364871743793455,350]]},"para":{"top":[["tremorine_BRD-K08619838-300-05-7::0.0024414::HTS002",0.17123777849920968,-2.8859212129734058,350],["acetophenazine_BRD-K42938903-332-01-1::2.5::HTS002",0.21137605583657396,-3.951055975734413,329],["famciclovir_BRD-K45033733-001-12-2::2.5::HTS002",0.18047973945330792,-2.6607816981419976,286],["telotristat-ethyl_BRD-K94559059-091-01-6::0.625::HTS002",0.23048972035655396,-3.5617072848280915,245]],"bottom":[["fluticasone-propionate_BRD-K62310379-001-10-5::10::HTS002",-0.21407732219770506,-3.576043047998809,286],["AR-12_BRD-K90497590-001-04-2::10::HTS002",-0.20201913974220634,-3.8486936866235957,350]]}}}
{"ccle_proteomics":{"corr":{"top":[],"bottom":[]},"para":{"top":[["GATA3_P23771-2",0.28529137099035545,-2.396468080039501,100]],"bottom":[["CXCR4_P61073-2",-0.3172787679150543,-2.9366265588377574,102]]}}}
{"avana":{"corr":{"top":[["CLCA1_1179",0.16823886758982454,-3.2377143321968194,415],["FAXDC2_10826",0.17402976986406204,-3.4337382349660066,415],["LONRF3_79836",0.18962922753008715,-3.7567310787299655,387],["S100Z_170591",0.18377973894217225,-3.7779347901096574,415],["STX12_23673",0.20056021518580464,-4.41262845457416,415]],"bottom":[["KYNU_8942",-0.20129622701003114,-4.4417096031059,415],["MMP7_4316",-0.16673351775529602,-3.187774872737696,415],["OR52E8_390079",-0.1888773826388858,-3.965041533183165,415],["SYT9_143425",-0.17015029595424935,-3.3017288793407085,415]]},"para":{"top":[["CDH26_60437",0.18378796524756777,-3.7782327588366376,415],["CLCA1_1179",0.1806002934590951,-3.663728552323576,415],["LONRF3_79836",0.20037454838559643,-4.142359060300394,387],["OPHN1_4983",0.20262026581203707,-4.22557832550296,387],["PAGR1_79447",0.1907210423978986,-4.008369690831802,412],["PAXIP1_22976",0.2028573775156673,-4.47492834903603,412],["RPS21_6227",0.2065547980478709,-4.652560570169622,415],["TANC1_85461",0.17512530287453407,-3.4498314286313465,412]],"bottom":[["ATP6V0D2_245972",-0.16976888696458609,-3.2889013135639544,415],["CCNB1_891",-0.23348168030884536,-5.818309213568956,415],["KYNU_8942",-0.18525773041706867,-3.8316755985701323,415],["MMP7_4316",-0.18818753299409963,-3.9394316100718556,415],["OR52E8_390079",-0.18320016238217318,-3.7569739276752796,415],["URB1_9875",-0.17650272116096824,-3.519350561521219,415]]}}}
{"drive":{"corr":{"top":[["NASP_4678",0.24928060908419927,-4.684107115966995,285],["NKX3-1_4824",0.20001237620347245,-3.184372128164135,287],["ASAP2_8853",0.23320681559825537,-4.151864432525713,285]],"bottom":[["CDKN2B_1030",-0.2758440484131977,-5.681051848185626,287],["FOXB1_27023",-0.23881885317169013,-4.360449787134756,287],["C5AR2_27202",-0.21958677041805025,-3.7290288179688322,285],["ARL6_84100",-0.24113811646497726,-4.409935495970348,285]]},"para":{"top":[["GTF3A_2971",0.2080886608327286,-3.412274971373998,287],["NASP_4678",0.2757027215393506,-5.639873196281057,285],["ASAP2_8853",0.23766159766426187,-4.295730995631275,285]],"bottom":[["CDKN2B_1030",-0.2600358827451136,-5.092633994780974,287],["C5AR2_27202",-0.2298728836920103,-4.04600183742099,285],["ARHGEF3_50650",-0.2594048513275639,-5.069915348582577,287],["HSDL1_83693",-0.2184464591612432,-3.8415224419134386,298],["ARL6_84100",-0.2211290446060961,-3.775633275794966,285],["ARFGAP2_84364",-0.23074570884815543,-4.073567905343178,285]]}}}
{"achilles":{"corr":{"top":[["SUB1_10923",0.2926740440640266,-7.494767927983379,344],["CAMTA1_23261",0.251884533981198,-3.356971025044069,191],["HILS1_373861",0.2757162145702939,-6.691693820250753,344]],"bottom":[["CHRDL2_25884",-0.2773875807056055,-3.9898575560913065,191],["ADPRHL2_54936",-0.23394266484049506,-4.933967646470587,344]]},"para":{"top":[["SUB1_10923",0.30417316022238056,-8.070089481059231,344],["TYW3_127253",0.24149011046698882,-3.11688133494918,191],["CAMTA1_23261",0.2503735823449105,-3.32143981270657,191],["SLC46A3_283537",0.2845263896496623,-4.178485720168526,191],["HILS1_373861",0.2519143893844993,-5.652679196037406,344],["CRAMP1_57585",0.24062240766679902,-3.097296031499552,191]],"bottom":[["CHRDL2_25884",-0.2505141535205906,-3.324736341245965,191],["ADPRHL2_54936",-0.22269045386610428,-4.511907864916271,344]]}}}
{"ccle_rrbs_tss1kb":{"corr":{"top":[],"bottom":[]},"para":{"top":[],"bottom":[["ZNF770_15_35280497_35281497",-0.1519185400642465,-4.429721306276518,731],["MBLAC2_5_89770585_89771585",-0.15201112685053242,-2.897646160719084,447]]}}}
{"ccle_gene_tpm":{"corr":{"top":[],"bottom":[]},"para":{"top":[],"bottom":[]}}}
{"ccle_rrbs_tss_clusters":{"corr":{"top":[["LGI1_2",0.9187840754310315,-277.5868609934185,686],["LGI1_1",0.6400696550275143,-63.42460254298497,545]],"bottom":[]},"para":{"top":[["LGI1_2",0.9115816615450136,-265.5218308715425,686],["LGI1_1",0.6290593235867651,-60.658530841230224,545]],"bottom":[]}}}
{"ccle_rrbs_cgi_clusters":{"corr":{"top":[],"bottom":[]},"para":{"top":[],"bottom":[]}}}
