{"depmap_hotspot":{"corr":{"top":[],"bottom":[["ABTB1",-0.11577491793925031,-3.0099070346196215,26.0,782.0],["ASGR2",-0.11107221792168287,-2.8052090973577806,15.0,793.0],["AXIN2",-0.11036798895826874,-2.775204625598954,46.0,762.0],["BRF1",-0.10901638249527987,-2.718089881581293,49.0,759.0],["C15orf40",-0.11509098395043448,-2.979667299659493,13.0,795.0],["C17orf53",-0.11041667743706594,-2.7772736280001036,41.0,767.0],["C1RL",-0.11265826172113033,-2.8734024554412696,25.0,783.0],["C22orf43",-0.11311281911598392,-2.8931046289144087,15.0,793.0],["CCDC102A",-0.11446914268443813,-2.9523119354876473,36.0,772.0],["CCZ1",-0.1085855043744938,-2.700012580381956,32.0,776.0],["CEACAM18",-0.1179843625046645,-3.1086924267069795,37.0,771.0],["CYP2F1",-0.11873034344596682,-3.1424243245423327,28.0,780.0],["DNTT",-0.11364796917101179,-2.9163903622378746,38.0,770.0],["EME2",-0.11879781617989363,-3.1454847607599183,20.0,788.0],["ENO3",-0.11262961223351993,-2.8721630433814234,29.0,779.0],["FARSA",-0.12414523667736205,-3.3930302306948583,25.0,783.0],["FUT11",-0.12058767181863617,-3.2272418824203033,17.0,791.0],["GIMAP4",-0.12180449842582781,-3.283455327476308,33.0,775.0],["GPR114",-0.12282998404458619,-3.331226922359772,14.0,794.0],["HLA-B",-0.1834610933566803,-6.821423758932611,43.0,765.0],["IL9R",-0.11863543767484605,-3.13812222939987,26.0,782.0],["KRT23",-0.11852641809099743,-3.133184178016313,22.0,786.0],["MAP2K7",-0.11225903635822608,-2.8561566968527146,37.0,771.0],["NAGLU",-0.10922748806653483,-2.726969699090593,40.0,768.0],["NPHS2",-0.11088585411979583,-2.7972524476538574,20.0,788.0],["NUDT6",-0.11033267164400058,-2.773704330966517,12.0,796.0],["PCDH10",-0.1199695643048034,-3.1988830987347088,106.0,702.0],["PCDHGA4",-0.12040097305788014,-3.2186622463900463,50.0,758.0],["PCDHGA5",-0.1326578907531802,-3.8076001943306057,59.0,749.0],["PLCZ1",-0.11355414888700162,-2.912300935351362,34.0,774.0],["PODNL1",-0.12701161730792165,-3.529801332847419,20.0,788.0],["PRTN3",-0.11983014260078641,-3.1925046418957237,12.0,796.0],["PSRC1",-0.11017791482978809,-2.7671351927261245,17.0,791.0],["RXFP4",-0.12135436988746512,-3.2626012351605986,15.0,793.0],["SBNO2",-0.11035725277321229,-2.774748503020074,73.0,735.0],["SFI1",-0.13074524622343534,-3.712247854488105,44.0,764.0],["SFTPA2",-0.1238248738245488,-3.377921235921231,18.0,790.0],["SLC23A2",-0.11030340576114953,-2.772461424867632,37.0,771.0],["SMPD3",-0.11953988760149871,-3.179247151006105,43.0,765.0],["SOBP",-0.12159164162283587,-3.2735851151477195,59.0,749.0],["SYT8",-0.10975216256954302,-2.749104779521752,30.0,778.0],["TCEB3B",-0.11501490776360689,-2.9763135351353602,51.0,757.0],["TCTEX1D4",-0.12655268791649735,-3.5077110914060015,14.0,794.0],["TGIF2",-0.1242705456497548,-3.3989497555487955,9.0,799.0],["TRPM3",-0.12099877668597475,-3.2461763888101047,89.0,719.0],["TTF2",-0.11512307825211164,-2.9810827482662776,49.0,759.0],["TTLL8",-0.10866481810668872,-2.703335427062229,40.0,768.0],["TXNRD1",-0.13266372608865262,-3.8078930712310735,44.0,764.0],["UBXN6",-0.119359429372659,-3.1710192996496778,23.0,785.0],["USP35",-0.12351208085626948,-3.3632035919404353,79.0,729.0],["ZBTB20",-0.12880766170837418,-3.6169585823464208,66.0,742.0],["ZIC1",-0.1197901081154709,-3.190674327385315,53.0,755.0],["ZNF333",-0.13241002966734966,-3.795171026972213,26.0,782.0],["ZSCAN18",-0.11160203610226943,-2.827893805667993,49.0,759.0]]},"para":{"top":[["HBB",0.09370676493533077,-2.4099260578226582,12.0,796.0],["TPRKB",0.08015523262916666,-1.94261526258722,10.0,798.0]],"bottom":[["AC022498.1",-0.09697509545390856,-2.5314157838690643,12.0,796.0],["AL033381.1",-0.07586417513123628,-1.8067187985938742,8.0,800.0],["ASGR2",-0.11046913416882097,-3.0697511847516132,15.0,793.0],["C15orf40",-0.1169319434166508,-3.348529645776059,13.0,795.0],["C21orf54",-0.09321045614721059,-2.3917028488287966,10.0,798.0],["C22orf43",-0.11371244504744296,-3.2079727289397075,15.0,793.0],["CDCA3",-0.09510489492785504,-2.4612954634585082,8.0,800.0],["CIRBP",-0.11061873023615941,-3.0759547809495076,12.0,796.0],["EIF4EBP1",-0.08752115718071979,-2.189219145544635,8.0,800.0],["FUT11",-0.12072225428947406,-3.5185688990052295,17.0,791.0],["GGT6",-0.1075200462947778,-2.9469233504198784,11.0,797.0],["GPR114",-0.12116745166447307,-3.5387542522615183,14.0,794.0],["GPSM3",-0.1066484763847327,-2.911246177175637,12.0,796.0],["HHLA3",-0.09644656301202466,-2.511410326322455,9.0,799.0],["HLA-B",-0.18706523065098168,-7.270095709769113,43.0,765.0],["KIR3DL2",-0.10289503578550496,-2.760220734924772,11.0,797.0],["MOAP1",-0.09169375728561299,-2.3366888467539293,9.0,799.0],["NDUFS7",-0.10026459207207865,-2.65723629767914,14.0,794.0],["NUDT6",-0.11195677158940266,-3.13262556335264,12.0,796.0],["OR7C1",-0.10807621870368259,-2.9700036120562516,16.0,792.0],["PODNL1",-0.13063819954270908,-3.985633941987158,20.0,788.0],["PRIMA1",-0.08304769580458744,-2.037394708796404,9.0,799.0],["PRKAB2",-0.10592410311665228,-2.881784447767023,13.0,795.0],["PRTN3",-0.11719926148161801,-3.360321015744563,12.0,796.0],["PSMA2",-0.08374268713709411,-2.060522033953186,8.0,800.0],["PSRC1",-0.11096094490741554,-3.0905386529562073,17.0,791.0],["PTMS",-0.09635426916350426,-2.507996269063018,10.0,798.0],["RSPH10B",-0.11638571946861016,-3.3244951895671915,15.0,793.0],["RXFP4",-0.1189017424532381,-3.4363099456427704,15.0,793.0],["SFTPA2",-0.12410090052801678,-3.67405664652493,18.0,790.0],["SLC35G6",-0.09601678802612575,-2.4953119355258893,9.0,799.0],["SMCO3",-0.08876117502889085,-2.23249976787295,9.0,799.0],["TCTEX1D4",-0.12972786400727274,-3.9412447431145283,14.0,794.0],["TGIF2",-0.12329485918994608,-3.6362868392360403,9.0,799.0],["TMEM115",-0.10662000106665216,-2.9101180395057193,13.0,795.0],["ZBTB8A",-0.107758743166652,-2.9568227400348723,13.0,795.0],["ZNF333",-0.13468147540338335,-4.185519754380754,26.0,782.0]]}}}
{"depmap_damaging":{"corr":{"top":[],"bottom":[["AP3B1",-0.10476165886855845,-2.539711493446075,21.0,786.0],["ASCC3",-0.1216398850284652,-3.2723469924335067,27.0,780.0],["CALCR",-0.10895478322492452,-2.7126774757567875,15.0,792.0],["CEP170",-0.10511686833137468,-2.5541340047957655,15.0,792.0],["CHD3",-0.09342450555468074,-2.101551122381483,18.0,789.0],["CLASP2",-0.11830874835366968,-3.1200407508447245,16.0,791.0],["CPEB2",-0.09361847756863861,-2.1086887864368125,11.0,796.0],["CR2",-0.10860030604002477,-2.6978254845297127,16.0,791.0],["DDX60L",-0.11001537120967476,-2.757368515883434,20.0,787.0],["FN1",-0.13631232963601636,-3.9890477801886735,20.0,787.0],["FRMPD2",-0.09444301771100183,-2.1391683669354182,12.0,795.0],["GATA2",-0.11528464592400348,-2.9850742743910343,8.0,799.0],["GPR19",-0.09855498455260284,-2.294530963690927,12.0,795.0],["GRIN2B",-0.09735677251468718,-2.2486794591736006,9.0,798.0],["GRINA",-0.09704713684518922,-2.2369083538979035,13.0,794.0],["HDAC7",-0.11593532204359364,-3.013849577709909,15.0,792.0],["HLA-B",-0.14286161883745593,-4.333365659748606,18.0,789.0],["IL2RG",-0.1379963689519893,-4.076133488751138,11.0,796.0],["KANSL1",-0.09491664818532493,-2.156777982024089,15.0,792.0],["KCNA4",-0.10366836172401302,-2.495586774548298,14.0,793.0],["KIF27",-0.10714140972734777,-2.6371476350594523,13.0,794.0],["MYO1E",-0.10507006966303634,-2.5522314177977137,8.0,799.0],["MYOM1",-0.10239039417621021,-2.444517606481367,18.0,789.0],["NCAPD2",-0.10456818883224926,-2.5318739166917528,27.0,780.0],["NLGN2",-0.10463142891466333,-2.5344344220257105,12.0,795.0],["NPR1",-0.09632241976046449,-2.209481952049278,8.0,799.0],["PIEZO2",-0.10781476199034448,-2.665064036486539,34.0,773.0],["PIGO",-0.13373284667594085,-3.8575943518217786,17.0,790.0],["PLEKHA6",-0.10424168157770677,-2.5186754730498566,21.0,786.0],["PLEKHG2",-0.10014057508058441,-2.355941058562669,8.0,799.0],["PPP1R12C",-0.10796588306407418,-2.6713503928700786,10.0,797.0],["PPP2R5D",-0.09579093972767017,-2.1894791948405508,8.0,799.0],["PRR14",-0.10418043482188609,-2.5162036792272917,10.0,797.0],["RIMBP2",-0.09428116322358795,-2.133167608937103,8.0,799.0],["SBF1",-0.10739750494916604,-2.6477469950513615,14.0,793.0],["SCRIB",-0.10108630993217145,-2.392968909583234,15.0,792.0],["SEMA6C",-0.12051132700073569,-3.2203189345459027,8.0,799.0],["SF3A2",-0.09382615692071468,-2.116344611785251,10.0,797.0],["SH2D4A",-0.09773371004260492,-2.263052104731419,8.0,799.0],["SLC6A15",-0.105074805768577,-2.5524239293437385,10.0,797.0],["SLX4",-0.09523249497290483,-2.168562432830172,17.0,790.0],["TBL3",-0.10328971522288266,-2.4803984718746896,8.0,799.0],["TEAD2",-0.1207076704051445,-3.229339070484114,28.0,779.0],["TNRC6C",-0.10112793207536949,-2.394605385898198,28.0,779.0],["ZBTB20",-0.11294349885524844,-2.8827366749215058,26.0,781.0]]},"para":{"top":[["LRIG2",0.08215360713030812,-2.0060732375897876,8.0,799.0]],"bottom":[["ABI3BP",-0.10990201474906228,-3.042899466912057,10.0,797.0],["ABTB1",-0.086368479120676,-2.1476920259732335,9.0,798.0],["ADAMTS14",-0.08807068038193286,-2.206510457551742,10.0,797.0],["CEP170",-0.10833206412086513,-2.977777405181635,15.0,792.0],["CLASP2",-0.11577663758717274,-3.294621871351242,16.0,791.0],["CPEB2",-0.09407202360436348,-2.4211534175533256,11.0,796.0],["CR2",-0.11255213993518988,-3.1551700632461457,16.0,791.0],["CUL4A",-0.09673184525833338,-2.5198162286398977,8.0,799.0],["FN1",-0.13820542102516598,-4.359588887013444,20.0,787.0],["GATA2",-0.11737763737702844,-3.3647845430719516,8.0,799.0],["GRIN2B",-0.09492934303351719,-2.4526649658089767,9.0,798.0],["HDAC7",-0.11683950853101124,-3.3413088838237184,15.0,792.0],["HDLBP",-0.0891545590923107,-2.2443713466163477,9.0,798.0],["HLA-B",-0.144379837227678,-4.682018214549599,18.0,789.0],["IL2RG",-0.13797688904663416,-4.347599141167565,11.0,796.0],["KCNA4",-0.10472987516336543,-2.8309487906302904,14.0,793.0],["KIAA1244",-0.11579810922392798,-3.2954722590868353,13.0,794.0],["KIF27",-0.10667116465455435,-2.9095066944242016,13.0,794.0],["MAN2A2",-0.09281209799002454,-2.375000361570414,8.0,799.0],["MYBBP1A",-0.0879795328647123,-2.2032423728550965,8.0,799.0],["NCEH1",-0.09275912774051243,-2.3731789655437368,10.0,797.0],["NLGN2",-0.11073725771655252,-3.0780563710231,12.0,795.0],["PIGO",-0.13380222163531783,-4.13731047654225,17.0,790.0],["PLAGL2",-0.08560863912841195,-2.121753939654687,9.0,798.0],["PLEKHG2",-0.10167180071976367,-2.709379583144986,8.0,799.0],["PLEKHG4",-0.09350447065392763,-2.400323561331588,10.0,797.0],["PPP1R12C",-0.10668020989752555,-2.9097567583800057,10.0,797.0],["PRR14",-0.10610317022262344,-2.886267520433946,10.0,797.0],["RIMBP2",-0.09772520586742532,-2.5573017700397513,8.0,799.0],["SBF1",-0.10601327958571363,-2.8827671658369987,14.0,793.0],["SEMA6C",-0.12161955565369142,-3.5556601870898894,8.0,799.0],["SF3A2",-0.09446620344543112,-2.435612450432184,10.0,797.0],["SGSM1",-0.08424771868461008,-2.075704700527033,8.0,799.0],["SH2D4A",-0.0991481278209895,-2.6115520614576657,8.0,799.0],["SLC6A15",-0.1037709682032275,-2.7924353746474444,10.0,797.0],["TBL3",-0.10679968926940053,-2.9145193650258863,8.0,799.0],["TUBGCP6",-0.09329535450255579,-2.3925875033222535,8.0,799.0],["WWC1",-0.08290533948313446,-2.0309093680766304,8.0,799.0],["ZNF217",-0.09311977753732625,-2.3862911830133626,10.0,797.0]]}}}
{"prism_primary_logfold":{"corr":{"top":[["resminostat_BRD-K28822270-001-01-1::2.5::HTS",0.1814922301622335,-4.027583165825766,458],["Y-27632_BRD-K44084986-300-08-4::2.5::HTS",0.1808347714302886,-4.009429023716275,459],["STF-62247_BRD-K85479953-001-11-3::2.5::HTS",0.17540979613598412,-3.7995308166220596,459]],"bottom":[["mercaptosuccinic-acid_BRD-A43435802-001-02-0::2.5::HTS",-0.15611398878645558,-3.136735263145822,465],["asiatic-acid_BRD-K35079116-001-03-3::2.5::HTS",-0.1712067909270681,-3.668639827545123,463],["cabaletta_BRD-K54028654-001-02-6::2.5::HTS",-0.16618772311778726,-3.3590860561272944,444],["RHC-80267_BRD-K56047318-001-06-3::2.5::HTS",-0.16563916233764278,-3.4304082585406728,458],["phenolsulfonphthalein_BRD-K79892937-001-02-5::2.5::HTS",-0.1959158225051501,-4.643320607450208,461],["PP-121_BRD-K81801188-001-02-8::2.5::HTS",-0.1758804066913102,-3.8319916080441607,461]]},"para":{"top":[["resminostat_BRD-K28822270-001-01-1::2.5::HTS",0.19384413205096745,-4.529222617818273,458]],"bottom":[["aminopentamide_BRD-A69917777-065-02-2::2.5::HTS",-0.18691183076045237,-4.260026153296794,460],["asiatic-acid_BRD-K35079116-001-03-3::2.5::HTS",-0.16400633878628562,-3.403528853017062,463],["ripasudil_BRD-K53814070-310-01-3::2.5::HTS",-0.16797262682462638,-3.4752230896172986,452],["RHC-80267_BRD-K56047318-001-06-3::2.5::HTS",-0.17474925457986984,-3.7672325343688686,458],["dimpylate_BRD-K60567437-001-10-2::2.5::HTS",-0.15574979812830256,-3.055182433680723,453],["phenolsulfonphthalein_BRD-K79892937-001-02-5::2.5::HTS",-0.19459180211856403,-4.587067986928692,461],["dinoprost_BRD-K81672972-001-03-1::2.5::HTS",-0.16106428232744896,-3.181818684220095,444],["PP-121_BRD-K81801188-001-02-8::2.5::HTS",-0.1678419383187395,-3.5301671297776855,461]]}}}
{"prism_secondary_logfold":{"corr":{"top":[],"bottom":[["lapatinib_BRD-K19687926-379-07-4::0.00976562::HTS002",-0.18347337970035665,-3.6481486832314216,400],["sunitinib_BRD-K42828737-044-09-0::0.0390625::HTS002",-0.20843306737101772,-4.363941761673442,379]]},"para":{"top":[["odanacatib_BRD-K22822991-001-02-3::0.00976562::HTS002",0.25542031481120825,-3.6442450535119084,204],["MEK162_BRD-K82244583-001-01-3::2.5::HTS002",0.30781789794436815,-9.034446150446012,379]],"bottom":[["bucladesine_BRD-A94624445-236-17-0::0.0024414::HTS002",-0.2290159785863016,-3.0823378124770855,210],["zolantidine_BRD-K08996725-332-01-7::2.5::HTS002",-0.22435735737885687,-2.9740456657679446,210],["sunitinib_BRD-K42828737-044-09-0::0.0390625::HTS002",-0.2092098949132732,-4.393173100372868,379],["LY3023414_BRD-K82967180-001-01-6::0.156250002::MTS006",-0.2016072594448274,-4.321089679089741,401]]}}}
{"ccle_proteomics":{"corr":{"top":[["NCOR2_Q9Y618-5",0.25724088239777393,-3.7698743839439537,209]],"bottom":[["ADCK3_Q8NI60",-0.2860043656159011,-6.65541357530675,317]]},"para":{"top":[["NCOR2_Q9Y618-5",0.2757319188715554,-4.273740393455685,209]],"bottom":[["ADCK3_Q8NI60",-0.2705510605433118,-5.995245199520021,317]]}}}
{"depmap_gene_tpm":{"corr":{"top":[],"bottom":[]},"para":{"top":[["OGFRL1_79627",0.23451921993069652,-10.781002212571106,804],["PACS1_55690",0.2430506493439524,-11.54838073194534,804]],"bottom":[]}}}
{"avana":{"corr":{"top":[["ESRRA_2101",0.20485743223970845,-4.955151120697816,453],["MRPL36_64979",0.18713635441129006,-4.211941269175441,453],["MRPS9_64965",0.18944413136707133,-4.30498110870695,453],["NDUFA2_4695",0.18989856206200156,-4.32343303093139,453],["SUPV3L1_6832",0.18344127031938154,-4.065281622884742,453],["UQCRB_7381",0.18158181085375014,-3.992550340197252,453]],"bottom":[["ACTR10_55860",-0.22927662562787987,-6.089972054138757,453],["GIMAP6_474344",-0.21274173289810674,-5.3073390504965055,453],["HPCA_3208",-0.17446475670921466,-3.7207574372294605,453]]},"para":{"top":[["EEPD1_80820",0.17856633252814055,-3.8761207020492936,453],["ESRRA_2101",0.18887021129363754,-4.281739122163259,453],["FABP1_2168",0.19317067661385684,-4.457573965094938,453],["MRPL36_64979",0.19090817031260593,-4.364582436847604,453],["MRPS9_64965",0.19937360416755484,-4.718057928680358,453],["NDUFA2_4695",0.211128823256779,-5.234198909799732,453],["UQCRB_7381",0.1776113693241083,-3.8396394030558896,453],["UQCRC2_7385",0.19901066531860098,-4.702592346243277,453]],"bottom":[["ALPI_248",-0.16079096744462323,-3.227534767995933,453],["HPCA_3208",-0.18236046358010283,-4.022919627729888,453],["RIMS1_22999",-0.16490748973723054,-3.372046137577236,453],["SLC2A11_66035",-0.16034939147898766,-3.2122350080021516,453],["ZNF232_7775",-0.18749051821292245,-4.2261474361387865,453]]}}}
{"drive":{"corr":{"top":[["VSTM1_284415",0.20915851473181785,-3.6608133054293353,308],["GNG13_51764",0.20790858032240023,-3.622291416239784,308],["GTF2H2B_653238",0.20770380524854215,-3.6160019332689175,308],["SLC6A13_6540",0.2013567773300447,-3.424047831615482,308]],"bottom":[["LOC105369239_105369239",-0.18678493959095535,-3.0050058730899094,308]]},"para":{"top":[["GATA5_140628",0.22964379843602356,-4.349510850071331,310],["ERCC2_2068",0.2341659721030979,-4.4796446630831195,308],["TMEM189-UBE2V1_387522",0.20077072704835114,-3.463949792761719,314],["LY6E_4061",0.20648017412529754,-3.578545197502248,308],["GNG13_51764",0.22361167121828762,-4.122780304725245,308],["DMAP1_55929",0.2190348073675046,-3.995800274776975,310],["GTF2H2B_653238",0.23248337963175555,-4.421633810204694,308],["SOX11_6664",0.22343392703625015,-4.1404301851867285,310]],"bottom":[["ZDHHC19_131540",-0.1887491728177831,-3.0597502865882733,308],["ELF4_2000",-0.21958327816702009,-3.990941099732885,308],["ALG5_29880",-0.23564489560850108,-4.700498156963833,321]]}}}
{"achilles":{"corr":{"top":[["CDC42EP1_11135",0.2554337763391403,-6.15011229202831,367],["PSAT1_29968",0.21546277022706384,-4.502152093431865,367],["HK2_3099",0.21558662975886383,-4.506816026442386,367],["CLEC4G_339390",0.21838783627754696,-4.613015116277668,367],["SH3GL3_6457",0.22509630690196705,-2.9910784136302175,210],["GNA14_9630",0.25037892818577273,-2.806005828559356,157]],"bottom":[["SIRPA_140885",-0.2487899815102093,-5.855956193390067,367],["TMEM186_25880",-0.22778065573307243,-3.0534107105917188,210],["RPTOR_57521",-0.20789462081844906,-4.222256408784798,367],["USP1_7398",-0.2468426773852072,-5.771295947044346,367],["PAX8_7849",-0.282766494254555,-7.448629660544292,367]]},"para":{"top":[["CDC42EP1_11135",0.2512079760015233,-5.962060057947194,367],["DHODH_1723",0.22184745068487255,-4.746084733219655,367],["PCBD1_5092",0.21652906807406735,-4.542391724363276,367],["GNA14_9630",0.278341228294194,-3.3809587615837398,157]],"bottom":[["FAM13A_10144",-0.21587455478386863,-4.517668246913239,367],["BAZ2A_11176",-0.21753620006245813,-4.58058197659335,367],["LYG1_129530",-0.2395217157818438,-3.3345689288305755,210],["SIRPA_140885",-0.2553080655963447,-6.144469751554171,367],["USP1_7398",-0.23259962825280198,-5.173250140157903,367],["PAX8_7849",-0.25483484591838645,-6.123255846102623,367],["EFCAB7_84455",-0.23621270551600826,-5.321456443373762,367]]}}}
{"ccle_rrbs_tss1kb":{"corr":{"top":[["MLST8_16_2254725_2255725",0.6518736535026138,-98.20162129554488,808]],"bottom":[]},"para":{"top":[["MLST8_16_2254725_2255725",0.7211109893976099,-129.87002650901505,808]],"bottom":[]}}}
{"ccle_gene_tpm":{"corr":{"top":[],"bottom":[]},"para":{"top":[["OGFRL1_ENSG00000119900.7",0.2323889124506355,-10.557048642871758,801],["PACS1_ENSG00000175115.7",0.24113286293842318,-11.333487672501645,801]],"bottom":[["RP11-401P9.6_ENSG00000205414.1",-0.2133551778345562,-8.972509073318728,801]]}}}
{"ccle_rrbs_tss_clusters":{"corr":{"top":[["MLST8_2",0.6977593824784593,-117.88304995723328,806],["ALKBH5_2",0.35171513383931047,-20.56370464348198,682]],"bottom":[]},"para":{"top":[["MLST8_2",0.6993827007339608,-118.65742382886259,806]],"bottom":[]}}}
{"ccle_rrbs_cgi_clusters":{"corr":{"top":[["16_2253168_2257828-2",0.6977593824784593,-117.88304995723328,806],["20_16551836_16556260-2",0.3685403882348279,-19.05132227888437,570]],"bottom":[]},"para":{"top":[["16_2253168_2257828-2",0.6993827007339608,-118.65742382886259,806]],"bottom":[]}}}
