{"depmap_hotspot":{"corr":{"top":[["CACNA1F",0.19065578977868242,-7.524270953732747,85.0,747.0],["CAD",0.1461583810777712,-4.635724370331044,92.0,740.0],["CFH",0.14548578000558984,-4.597779772891033,69.0,763.0],["CPS1",0.15420520912552868,-5.102668612992506,92.0,740.0],["GAS2L3",0.13758984605849653,-4.164758932731186,42.0,790.0],["GPR89A",0.15702000564948485,-5.271694429630681,20.0,812.0],["LAMC1",0.14813526053737477,-4.748216085519562,81.0,751.0],["NLRP9",0.13692244508268384,-4.1292032236764165,60.0,772.0],["ZNF208",0.13628780894586554,-4.095543538724123,107.0,725.0]],"bottom":[["ABHD16A",-0.0856664682984272,-1.8715238100548415,26.0,806.0],["GSTM3",-0.06613043417558355,-1.2475078414055638,13.0,819.0],["HTR3E",-0.07120751980551515,-1.3976342413551868,24.0,808.0],["IL2RA",-0.07572657937414749,-1.5383235183372654,16.0,816.0],["LIN7C",-0.07900936870661907,-1.6447368412805434,17.0,815.0],["PALM3",-0.06715600887586862,-1.2771612161425705,17.0,815.0],["SEPT1",-0.1104741216479604,-2.8491985368459223,19.0,813.0]]},"para":{"top":[["ABHD10",0.09859410530142754,-2.6487411425619927,9.0,823.0],["ALOX5AP",0.11259946908660431,-3.2316798789585564,13.0,819.0],["ATP1B3",0.12091177535137423,-3.6088639007386507,13.0,819.0],["ATP6V1F",0.09944071808002175,-2.682101383408145,9.0,823.0],["C19orf53",0.11521190469840514,-3.347519165846272,9.0,823.0],["CCDC70",0.11570934177023313,-3.3699744963242084,11.0,821.0],["CD83",0.1091593430596501,-3.0823466976594225,11.0,821.0],["CHPT1",0.15034191837121205,-5.1343852415353775,23.0,809.0],["CRYGD",0.10867740335519246,-3.0617555292105574,11.0,821.0],["CTSL",0.1380538378005186,-4.46126207991989,19.0,813.0],["ENTPD1",0.12512990834359,-3.8093702916959367,17.0,815.0],["FAIM",0.10477375461146146,-2.8978067708872506,10.0,822.0],["FAM209B",0.09558841307191276,-2.532177700657806,8.0,824.0],["FKBP1C",0.09430637963478948,-2.48339788348249,8.0,824.0],["GPR89A",0.1431847795790516,-4.735980901344651,20.0,812.0],["GPSM3",0.12218351059768204,-3.6686023285234026,12.0,820.0],["HAND1",0.12204668460588965,-3.6622474524199338,15.0,817.0],["HDHD3",0.12535038549275626,-3.8198910298717115,13.0,819.0],["LHB",0.09873485532090386,-2.6543189804756375,10.0,822.0],["MAGEF1",0.11709860572991426,-3.432925770222275,13.0,819.0],["MRPL9",0.10610552707858062,-2.9531485445384598,10.0,822.0],["MRPS15",0.10662483222980684,-2.974838259173166,9.0,823.0],["NME5",0.1011823215102727,-2.751480833506746,9.0,823.0],["PCSK1N",0.08861415117396206,-2.273392643812085,8.0,824.0],["POU6F1",0.11851127987462502,-3.497592996502202,15.0,817.0],["PPIAL4G",0.09012695062976755,-2.3281596716394555,8.0,824.0],["PPP3R2",0.11015641696337124,-3.1250973522255854,9.0,823.0],["ROPN1B",0.106331853275006,-2.962500630604976,8.0,824.0],["RP11-385D13.1",0.10773752331024491,-3.0217270241369594,9.0,823.0],["SERTAD1",0.11409465358579933,-3.297831069053074,14.0,818.0],["SLC51B",0.0972193900996993,-2.5951281601807206,10.0,822.0],["TM6SF1",0.13432657444373955,-4.267288170394033,15.0,817.0],["TMEM42",0.11844763554556048,-3.4945253270570986,11.0,821.0],["UCP3",0.13335683785361818,-4.217713416457858,18.0,814.0],["WIBG",0.10675841951398288,-2.9805801207619154,12.0,820.0],["ZNF140",0.1185310662755421,-3.4984396882813638,13.0,819.0],["ZNF24",0.11794378949090024,-3.4714169667517214,11.0,821.0]],"bottom":[["ABHD16A",-0.08231583301856532,-2.0538500853226993,26.0,806.0],["GNA13",-0.12375999271712951,-3.743874540506888,35.0,797.0],["LIN7C",-0.07889816552943535,-1.939823402391926,17.0,815.0],["LRRC37A",-0.0902324037178533,-2.332372045749494,22.0,810.0],["NUDT14",-0.08532219221774763,-2.15701091668858,13.0,819.0],["SEPT1",-0.10395075435452786,-2.8641597083983514,19.0,813.0],["TMEM9B",-0.05314309355918458,-1.201678995364514,9.0,823.0]]}}}
{"depmap_damaging":{"corr":{"top":[["SF3B1",0.11398157850561937,-3.001567045675435,52.0,779.0]],"bottom":[["ERMAP",-0.08465900646954443,-1.8344796212268768,39.0,792.0],["FAM168A",-0.08571306527300976,-1.871351644601823,9.0,822.0],["INVS",-0.11012543600091869,-2.8311070540107286,60.0,771.0],["NEO1",-0.08241530662540014,-1.757230714541508,15.0,816.0],["ZNF597",-0.09064971439796232,-2.0490145672989737,21.0,810.0]]},"para":{"top":[["CAMSAP2",0.14105988219683915,-4.616515238370465,18.0,813.0],["CCDC37",0.10536854831061125,-2.91970417241425,8.0,823.0],["CLUH",0.12555889267391313,-3.826274512339212,12.0,819.0],["FAM193A",0.1551244166221381,-5.404955288959858,22.0,809.0],["GON4L",0.16183503503628008,-5.804981845667649,14.0,817.0],["HECA",0.10429784879670713,-2.8755394048725176,9.0,822.0],["IFI16",0.11995894761089178,-3.5610828415741707,13.0,818.0],["INPP5F",0.11345189154859704,-3.266136832405214,10.0,821.0],["KIAA1683",0.11438472589642902,-3.3074013514164435,8.0,823.0],["LNPEP",0.10325583961960252,-2.8328681878129234,9.0,822.0],["MARK2",0.10849011827668632,-3.0508966897416077,9.0,822.0],["MATK",0.10118154846306623,-2.748947302279128,8.0,823.0],["NES",0.13187655175207466,-4.138442185379829,15.0,816.0],["POTEJ",0.10703615198305191,-2.9894106312374626,9.0,822.0],["RTL1",0.0989210822877045,-2.6591952468986566,8.0,823.0],["SGIP1",0.11810935766265006,-3.4755712370506573,8.0,823.0],["SHMT2",0.1114202545753338,-3.1770688966418557,11.0,820.0],["SLC9C1",0.14496134326290067,-4.828195304959373,13.0,818.0],["SMC6",0.12686241768157933,-3.8895455160580643,12.0,819.0],["SMG1",0.11622397165127123,-3.390068069968787,12.0,819.0],["SYNPO2L",0.126737395261798,-3.8832957072572216,9.0,822.0],["TBC1D10B",0.11608007552795034,-3.383365222124295,8.0,823.0],["TDRD5",0.11851565271313601,-3.494414178672588,12.0,819.0],["USH1C",0.10742351756094007,-3.0056609659704,8.0,823.0],["ZBED4",0.10942316118034556,-3.090826203581205,11.0,820.0],["ZNF540",0.11193367888797104,-3.199411742741794,10.0,821.0]],"bottom":[["ERMAP",-0.08455803602138282,-2.1289854487591584,39.0,792.0],["FAM168A",-0.08580824409598978,-2.172049007611156,9.0,822.0],["GNA13",-0.11337345580779487,-3.2627172366552393,11.0,820.0],["INVS",-0.10463103923831035,-2.8898603092802317,60.0,771.0],["MS4A1",-0.20944472065283695,-9.095828832878183,18.0,813.0],["ZNF597",-0.0893026800043536,-2.2966309839303936,21.0,810.0]]}}}
{"ccle_metabolomics":{"corr":{"top":[],"bottom":[]},"para":{"top":[["C16:1 SM",0.20377900188855183,-8.36150206959617,815]],"bottom":[]}}}
{"ccle_rrbs_enhancer_clusters":{"corr":{"top":[["6-108435918-108438506-2_enh",0.5079960202862135,-54.41125302062898,822],["6-108435243-108437847-0_enh",0.39941540313243984,-22.74553448183877,576],["6-108437847-108440452-0_enh",0.5075959948610337,-54.313440392466056,822]],"bottom":[]},"para":{"top":[["6-108435918-108438506-2_enh",0.47010878887131163,-45.69930244600097,822],["6-108437847-108440452-0_enh",0.46899613653115724,-45.4596053140719,822]],"bottom":[]}}}
{"prism_primary_logfold":{"corr":{"top":[["L-Arginine_BRD-K76811153-003-01-3::2.5::HTS",0.16381718778047838,-3.4219938766517237,467]],"bottom":[]},"para":{"top":[["clemizole_BRD-K04704168-003-14-3::2.5::HTS",0.13578561309053808,-2.5194732665283617,475]],"bottom":[]}}}
{"prism_secondary_logfold":{"corr":{"top":[["idronoxil_BRD-K74671368-001-01-8::2.5::MTS006",0.2215406299031685,-5.2719619554373685,414],["gamma-aminobutyric-acid_BRD-K77245796-003-01-6::0.00976562::HTS002",0.1787326144558989,-3.4394315187641737,394]],"bottom":[]},"para":{"top":[["8-hydroxy-PIPAT_BRD-A60594020-034-01-1::0.00976562::HTS002",0.1730696163889428,-3.3583798094453208,409],["PI-828_BRD-K97365803-001-02-1::2.5::HTS002",0.22167105986272043,-5.1861820683567,406]],"bottom":[]}}}
{"ccle_proteomics":{"corr":{"top":[["KIAA1468_Q9P260",0.3618867390546512,-3.698093225398011,101],["ZNF324_O75467",0.28732625950975915,-3.0977478134967114,133]],"bottom":[["PLIN2_Q99541",-0.3465255341863386,-9.93129055458514,327]]},"para":{"top":[["KIAA1468_Q9P260",0.35416836538573543,-3.5535621639979666,101]],"bottom":[["PLIN2_Q99541",-0.3452961118220443,-9.861634696238632,327]]}}}
{"avana":{"corr":{"top":[["TSR1_55720",0.1989084825425485,-4.854609828520666,470],["ZNF559_84527",0.2630337382978161,-8.151238021803211,470]],"bottom":[["AFG3L2_10939",-0.17428506942800523,-3.835077483280257,470],["NAF1_92345",-0.1913616434762972,-4.528151924958677,470],["SLC25A16_8034",-0.2402291280864656,-6.868815437008584,470]]},"para":{"top":[["ACOT9_23597",0.18605534100537274,-4.071659900608578,441],["SLC38A5_92745",0.17882291690759197,-3.796024663320355,441],["TSR1_55720",0.22436533215502602,-6.0493643595457085,470],["ZNF559_84527",0.22576187034655323,-6.119160088187803,470]],"bottom":[["EIF2B3_8891",-0.17455173026105425,-3.8454199924886407,470],["SLC25A16_8034",-0.25370517732132697,-7.611503559704597,470]]}}}
{"drive":{"corr":{"top":[["ORC3_23595",0.33735581600879266,-9.20395787072578,319],["BBOX1_8424",0.2877545550952385,-6.81038360452973,321],["FCRLA_84824",0.30184327980701015,-7.417280620223679,319]],"bottom":[["ADNP_23394",-0.2743157647650945,-6.222881449048512,321],["FAM126B&ZYG11B_285172&79699",-0.23402154268599915,-4.513266836456547,311],["KIF4B_285643",-0.24953026080473223,-5.277417260454281,325],["NIFK_84365",-0.27420423202130767,-6.182913336264531,319]]},"para":{"top":[["CXADR_1525",0.24231818063798996,-4.918348319860839,319],["ORC3_23595",0.31428791646515175,-8.016980227587583,319],["ANXA6_309",0.24979917659659273,-5.200190574207724,319],["MAP3K9_4293",0.2657653355495224,-5.8650704177921975,321],["NME1_4830",0.2507930303306341,-5.3855963523651,329],["ANO1_55107",0.2597344480043437,-5.746364280992667,329],["CCDC6_8030",0.23714728024817142,-4.728739399463157,319],["FCRLA_84824",0.31721028685243563,-8.161878849872092,319],["AIFM2_84883",0.279114242365082,-6.5750342042824155,329]],"bottom":[["SH2B3_10019",-0.2725154180252792,-6.111731722907134,319],["SATB2_23314",-0.2505124824781015,-5.2569390626899715,321],["ADNP_23394",-0.27292416781760714,-6.163808003862023,321],["NIFK_84365",-0.28389056509185934,-6.600506262053908,319],["COPS2_9318",-0.23582169224572974,-4.680811236947569,319]]}}}
{"achilles":{"corr":{"top":[["SDR42E2&LOC105371187_100288072&105371187",0.24426518022620725,-5.841035342875285,380],["GSTK1_373156",0.2938832401244714,-5.010163148307761,219],["SPATA41_388182",0.2428637591870425,-5.779153685531309,380],["PRAMEF2_65122",0.2754827628357603,-4.4473891299241695,219]],"bottom":[["RABAC1_10567",-0.2594225452202096,-3.9879149167902,219],["MT1L_4500",-0.24885586352976521,-3.7012688120237343,219]]},"para":{"top":[["CTAGE8_100142659",0.2724645215123841,-4.358814325146493,219],["SDR42E2&LOC105371187_100288072&105371187",0.21721020766324955,-4.711563105122799,380],["IKZF3_22806",0.22670388235569633,-5.092385521345768,380],["SPATA41_388182",0.23179613236295468,-5.303514672133631,380],["FRG2_448831",0.29423831639680614,-5.021413747707302,219],["PRAMEF2_65122",0.21990622853533606,-2.977441275545754,219]],"bottom":[["ZNF470_388566",-0.28132819051804675,-4.621902191486978,219]]}}}
{"ccle_rrbs_tss1kb":{"corr":{"top":[["VWCE_11_61062788_61063788",0.5113677598617573,-55.70347990691796,829],["AKAP2_9_112809877_112810877",0.45820358432850045,-42.15109796867701,802]],"bottom":[]},"para":{"top":[["VWCE_11_61062788_61063788",0.5249359371864782,-59.16685469562538,829],["AKAP2_9_112809877_112810877",0.4574365302116983,-41.99601413883884,802],["PAX5_9_37034476_37035476",0.47144735089829387,-46.48244054703196,831],["BACH2_6_91006627_91007627",0.4515394137605245,-42.210579466802436,830]],"bottom":[]}}}
{"ccle_gene_tpm":{"corr":{"top":[],"bottom":[]},"para":{"top":[],"bottom":[["RPS2P32_ENSG00000232818.2",-0.35718199318448435,-25.503510105036845,825]]}}}
{"ccle_rrbs_tss_clusters":{"corr":{"top":[["VWCE_1",0.5190440783182981,-57.57525221328955,828],["NFATC1_5",0.9572546483083445,-323.0051853474518,830],["NFATC1_4",0.4933961773611971,-51.53248137799306,832],["SLC15A3_2",0.4853447837501316,-49.36489933246116,827]],"bottom":[]},"para":{"top":[["NFATC1_5",0.9534359287281138,-323.0051853474518,830],["PIK3CD_3",0.531536539199887,-59.461972282309844,809],["NFATC1_4",0.5025696098413517,-53.730187316046916,832]],"bottom":[]}}}
{"ccle_rrbs_cgi_clusters":{"corr":{"top":[["11_61062407_61065063-2",0.5007943755668779,-52.79597528056119,824],["11_60716428_60720888-2",0.4853447837501316,-49.36489933246116,827],["18_77158937_77162759-2",0.9601887288000077,-323.0051853474518,830],["6_108434109_108438522-3",0.5079960202862135,-54.41125302062898,822],["18_77158937_77162759-1",0.5057096382738158,-54.433539345195,831]],"bottom":[]},"para":{"top":[["1_9712390_9715001-2",0.531536539199887,-59.461972282309844,809],["11_61062407_61065063-2",0.5109625952016293,-55.27262591483992,824],["11_60716428_60720888-2",0.481304334479175,-48.44833660931439,827],["18_77158937_77162759-2",0.9574182122775081,-323.0051853474518,830],["18_77158937_77162759-1",0.5379747889242578,-62.79513180433064,831]],"bottom":[]}}}
