{"depmap_hotspot":{"corr":{"top":[],"bottom":[["CCR5",-0.07286536149896264,-1.432195087197724,24.0,796.0],["CTAG1B",-0.13354990070171052,-3.902278364248496,11.0,809.0],["G6PC2",-0.07071882395317604,-1.3673790748355925,18.0,802.0],["GOLGA8I",-0.09134827330037108,-2.0524271279625728,19.0,801.0],["IL34",-0.07962212683482796,-1.6459416349245048,11.0,809.0],["KAZALD1",-0.07790186863884585,-1.5901146862998552,9.0,811.0],["KPTN",-0.07977009009284584,-1.650788562751662,27.0,793.0],["NABP1",-0.0920386504211554,-2.077782186015522,9.0,811.0],["OAZ2",-0.07808831459587326,-1.5961187222949602,14.0,806.0],["OPA3",-0.08966842915295013,-1.99139773268878,13.0,807.0],["PMP2",-0.06899434513549157,-1.3163775954777037,10.0,810.0],["PTN",-0.08453441012002762,-1.8106944576127963,13.0,807.0],["RALB",-0.08772363487902854,-1.9219172132504272,8.0,812.0],["RP11-1212A22.4",-0.11915276662689547,-3.201679869712037,12.0,808.0],["RP11-467N20.5",-0.1560145244279249,-5.143856054168279,11.0,809.0],["SLC30A7",-0.09712255071927342,-2.269421887476715,11.0,809.0],["TBC1D28",-0.09994974712252003,-2.3797664987290648,10.0,810.0],["UGT2B7",-0.11006952814631572,-2.7970605907103967,30.0,790.0],["UNC5C",-0.08620088528313537,-1.8683918807207311,72.0,748.0],["VAMP1",-0.08404441768301771,-1.7939042577108322,8.0,812.0]]},"para":{"top":[["AC020907.1",0.08150757583762712,-2.0063724043627253,8.0,812.0],["C2orf62",0.12731296876452042,-3.870566360493356,25.0,795.0],["DCAKD",0.10268199042084511,-2.782046247768115,13.0,807.0],["FBXL15",0.09577328048090072,-2.5129365915045527,13.0,807.0],["METTL21A",0.11845289093264302,-3.4554341579469696,11.0,809.0],["MRPL48",0.08114066070523906,-1.9942172399397315,8.0,812.0],["MTFMT",0.1304490931714323,-4.023583172115865,18.0,802.0],["SNRPB2",0.07941534933074501,-1.9376886054286167,9.0,811.0],["TMEM221",0.09602693179069638,-2.522328089494015,8.0,812.0],["UCP3",0.10243190970222521,-2.772111042733858,16.0,804.0]],"bottom":[["BLVRB",-0.10622694037513394,-2.926162083751717,11.0,809.0],["DUXA",-0.08365229532139279,-2.078564309893617,17.0,803.0],["MRS2",-0.11251273839160451,-3.1924215746027436,28.0,792.0],["RASGEF1A",-0.09293374628749838,-2.407066049344391,24.0,796.0],["S100Z",-0.09286369021340285,-2.4043126736755758,14.0,806.0],["SLC30A7",-0.07658012986571627,-1.8468572078618963,11.0,809.0],["SPEM1",-0.10878268810376321,-3.0328526395397617,16.0,804.0],["WDR18",-0.09887013497296597,-2.6317937650003147,21.0,799.0]]}}}
{"depmap_damaging":{"corr":{"top":[["TP53",0.10903596252880665,-2.750005557465392,213.0,606.0]],"bottom":[["FGL1",-0.09301140469515516,-2.1116734421927528,8.0,811.0],["INVS",-0.10917063094375623,-2.755741108449285,59.0,760.0],["MT-ND4",-0.09917566180678505,-2.346916084042894,25.0,794.0],["POLRMT",-0.06440040753167303,-1.1840397599919452,9.0,810.0],["RP11-1212A22.4",-0.12847708460087093,-3.6432053315006936,11.0,808.0],["SPATA31E1",-0.07337399272497346,-1.4463964389862192,13.0,806.0],["UNC5C",-0.1513671569346712,-4.866667084152137,25.0,794.0]]},"para":{"top":[["CLIC1",0.08771073634033585,-2.2166041464524096,9.0,810.0],["MROH2A",0.10130949212989934,-2.7247193710485464,9.0,810.0],["NSUN6",0.10404701100517239,-2.834384316133672,10.0,809.0]],"bottom":[["DAAM2",-0.0792111446149235,-1.929560719476128,11.0,808.0],["GRM5",-0.08128981323975035,-1.9975084659530833,8.0,811.0],["HGF",-0.09363055318024775,-2.430424987226427,10.0,809.0],["KLC1",-0.08908796392844731,-2.2652692017559026,8.0,811.0],["SV2B",-0.08458971042141962,-2.1084720537971613,9.0,810.0],["UNC13D",-0.06613987065598549,-1.5328487589965056,8.0,811.0]]}}}
{"ccle_rrbs_enhancer_clusters":{"corr":{"top":[["2-175205310-175210242-2_enh",0.5286074183661172,-59.202767029239716,816],["2-45028569-45031654-0_enh",0.5445377507905342,-63.38302535853851,815],["2-172953879-172956465-0_enh",0.5271862059752846,-59.11780708598777,820],["6-108435918-108438506-2_enh",0.516522165597332,-55.91837756180728,813],["6-108437847-108440452-0_enh",0.5181371854320113,-56.321530825742194,813],["7-27250458-27253057-0_enh",0.6112300560384224,-83.9207111742036,815],["7-27250458-27253057-1_enh",0.5294342375869888,-59.13140208349784,812],["7-27250458-27253057-2_enh",0.5283112645433147,-48.77886289393018,671],["7-27286268-27288880-0_enh",0.5121413270674332,-53.44279648348111,792],["7-27288880-27291491-2_enh",0.5950452325951248,-78.3956046261192,814]],"bottom":[]},"para":{"top":[["2-175205310-175210242-2_enh",0.5029799161038002,-52.81247770935713,816],["2-175194043-175196579-2_enh",0.47740713062884904,-46.78576596289608,813],["2-175196579-175199114-0_enh",0.46759665113844057,-44.244063876454426,805],["7-27250458-27253057-0_enh",0.5241284689974579,-57.97622909196969,815],["7-27250458-27253057-1_enh",0.4785668736513514,-46.9831273639318,812]],"bottom":[]}}}
{"prism_primary_logfold":{"corr":{"top":[],"bottom":[]},"para":{"top":[["3-(4-methylbenzylidene)camphor_BRD-A55464252-001-01-2::2.5::HTS",0.16236748114905872,-3.3135903320495017,458],["adiporon_BRD-K68810443-001-01-9::2.5::HTS",0.15264293516238905,-3.0344425865884865,468],["sclareolide_BRD-K72925150-001-11-1::2.5::HTS",0.15628556690228818,-3.1484543419695377,466],["CI-976_BRD-K88544581-001-06-1::2.5::HTS",0.18759473045249156,-4.386258416585463,472],["PCI-34051_BRD-K88742110-001-07-9::2.5::HTS",0.15768781982714764,-3.197321726381228,466]],"bottom":[]}}}
{"prism_secondary_logfold":{"corr":{"top":[["enoximone_BRD-K21152241-001-07-3::2.5::MTS006",0.16383087454172787,-3.022562882314327,404],["clindamycin-phosphate_BRD-K27771035-001-02-5::0.00061034::HTS002",0.18055285953404387,-3.6390392518347636,412],["cimetidine_BRD-K34157611-001-16-0::10::HTS002",0.18768553475737268,-3.813396914892546,402],["zardaverine_BRD-K37561857-001-15-5::0.625::HTS002",0.18784334416974857,-3.6281716617256237,379],["capecitabine_BRD-K61192372-001-08-9::0.00061034::HTS002",0.17195006816853164,-3.2717849148782614,402]],"bottom":[["LY2801653_BRD-K18961567-001-01-1::0.00061::MTS010::PROS002_PR500",-0.2076608406279614,-4.30470288251985,376]]},"para":{"top":[["fenoprofen_BRD-A81129465-001-03-8::0.0024414::HTS002",0.17570560881927408,-2.9869380135248855,346],["abemaciclib_BRD-K33622447-066-01-9::2.5::HTS002",0.16856366051171026,-3.188013670836933,406],["erythritol_BRD-K79315489-001-07-8::0.15625::HTS002",0.19266530132827941,-4.011653733133095,404]],"bottom":[["tofogliflozin_BRD-K96344439-002-02-7::0.156250002::MTS006",-0.16193969207798495,-2.9816623582860697,407]]}}}
{"ccle_proteomics":{"corr":{"top":[["SETD5_Q9C0A6",0.3741430137434018,-5.790152808672063,155],["KLHL12_Q53G59-2",0.3266875590474022,-4.475806885423103,155]],"bottom":[["VAT1L_Q9HCJ6",-0.2791746213264447,-5.387618090264543,264],["PHLPP1_O60346",-0.37195117620555823,-5.85923681238875,159],["SRGN_P10124",-0.34113368477889733,-3.833564305645252,119]]},"para":{"top":[["SNRNP35_Q16560-2",0.30801799171767136,-4.106668399107975,159]],"bottom":[["FAM49A_Q9H0Q0",-0.2943083937985528,-4.486764424967947,193]]}}}
{"depmap_gene_tpm":{"corr":{"top":[["OTX1_5013",0.3290451673814133,-21.330197765774493,816]],"bottom":[]},"para":{"top":[],"bottom":[]}}}
{"avana":{"corr":{"top":[["AP1G1_164",0.19610116801505406,-4.6601717664522,462],["DRGX_644168",0.19153381240784972,-4.467128605157893,462],["ISCU_23479",0.22726410328411373,-6.099124697978595,462],["LEPROT_54741",0.19666915996271275,-4.684492452279472,462],["PHOX2B_8929",0.2350279716149815,-6.491466352518207,462],["PRKAA2_5563",0.18980817865026822,-4.361767526423323,458]],"bottom":[["APLNR_187",-0.17873244198985533,-3.9497847814675797,462],["CELF3_11189",-0.17474895960687511,-3.795853919858868,462],["COG3_83548",-0.17442355177611818,-3.783426058551645,462],["PTPN1_5770",-0.23324147734213793,-6.399966951565327,462],["SAMM50_25813",-0.19811537576611238,-4.746732237898711,462],["TARM1_441864",-0.19289835070251168,-4.524332383483868,462]]},"para":{"top":[["ASIC3_9311",0.17220991923374643,-3.6994696386779347,462],["IL22RA2_116379",0.1793992805469495,-3.9758780861151974,462],["TAS2R38_5726",0.1698079662467842,-3.609523478209326,462]],"bottom":[["KRTAP10-1_386677",-0.22986261446097928,-6.228907849729212,462],["SAMM50_25813",-0.18510047769495983,-4.202791990390173,462],["STX1B_112755",-0.16978503736700346,-3.6086706254864294,462]]}}}
{"drive":{"corr":{"top":[["DHRS9_10170",0.23098036716900436,-4.407814971621921,311],["WDR90_197335",0.21788484143534764,-3.9920426735314716,313],["WNT10A_80326",0.23011692397652375,-4.378131258036908,311],["TRAF7_84231",0.21732061632205746,-3.9736274814364436,313]],"bottom":[["WNT6_7475",-0.20581819124395623,-3.5884507777691357,311]]},"para":{"top":[["CDK6_1021",0.2088382481677305,-3.815734905184089,324],["WDR90_197335",0.20537786046944573,-3.5949038500225288,313],["HNRNPA2B1_3181",0.18987946159254812,-3.117268122883802,311],["RFWD2_64326",0.21400497238321742,-3.866368959859575,313],["ARHGEF1_9138",0.19600742342922892,-3.3123663118689946,313]],"bottom":[["POU4F1_5457",-0.1913439855767605,-3.1764745373961634,313],["UBE2V1_7335",-0.21423845951504109,-3.852207870322088,311]]}}}
{"achilles":{"corr":{"top":[["CT45A8_102723737",0.22069776720932952,-2.925715185477382,213],["ANGPT2_285",0.2203024878039463,-4.7204312508353485,370]],"bottom":[]},"para":{"top":[],"bottom":[]}}}
{"ccle_rrbs_tss1kb":{"corr":{"top":[["NKX2-5_5_172662315_172663315",0.5144079934068589,-52.57922818218479,771],["LINC01475_10_101290934_101291934",0.5858604000319115,-75.72730381165994,817],["SOX9-AS1_17_70112157_70113157",0.4743660935162262,-46.290929602821315,816],["TBX15_1_119532179_119533179",0.5103974379487547,-54.80378918515514,819],["AKAP12_6_151560133_151561133",0.48899718985422924,-44.719185187634395,735],["PAX6_11_31839509_31840509",0.5900328230991969,-77.15059058192433,818],["LINC02609_1_91301718_91302718",0.4889226497431869,-49.53140394537916,816]],"bottom":[]},"para":{"top":[],"bottom":[]}}}
{"ccle_gene_tpm":{"corr":{"top":[["OTX1_ENSG00000115507.5",0.33111115489419424,-21.52697719675443,813]],"bottom":[]},"para":{"top":[],"bottom":[]}}}
{"ccle_rrbs_tss_clusters":{"corr":{"top":[["EVX1-AS_1",0.5976185192812918,-79.81451363816495,820],["TLX1NB_2",0.5697028778586888,-70.66879491173837,816],["PAX6_2",0.6144474879111101,-85.55397152017218,820],["NR2E1_1",0.9774668764348748,-323.0051853474518,820],["NR2E1_6",0.7900137871987235,-175.25823517637755,820],["LINC01391_1",0.5957460989094789,-79.10136612901772,819],["FOXD3",0.5840771999761393,-75.16471632653894,817],["PAX6_4",0.57944421856433,-73.54100690394593,815],["PAX6-AS1_3",0.6214159956330721,-87.71488450813692,817],["PAX6_7",0.5796616444188609,-73.51897804134063,814],["TLX1NB_1",0.5717140359521498,-71.01343647001558,813]],"bottom":[["VRK2_2",-0.23308202514006135,-5.762076835355954,412]]},"para":{"top":[["LINC00554_2",0.5203195995453382,-57.21388466584334,818],["NR2E1_1",0.9301118504820867,-323.0051853474518,820],["LINC01391_1",0.539403883862272,-62.28764170724488,819],["NR2E1_6",0.6607371785831307,-103.28287323113697,820]],"bottom":[]}}}
{"ccle_rrbs_cgi_clusters":{"corr":{"top":[["5_54517054_54521628-1",0.6573474868781182,-100.89259592272143,812],["6_108489033_108493410-1",0.6642603021548902,-104.38302150383672,817],["7_27282611_27285136-2",0.6027531646110398,-81.33285067756688,818],["7_27250681_27253258-1",0.6112300560384224,-83.9207111742036,815],["11_31837363_31841813-3",0.6321517994287327,-91.75654638923717,818],["6_108488105_108492539-3",0.649741484172586,-98.78995113600998,820],["6_108488105_108492539-1",0.9376803717052629,-323.0051853474518,820],["11_31839315_31844003-2",0.6377363178753013,-93.97941976258485,819],["3_138657867_138661107-3",0.6360363275262224,-92.99341796688134,816],["6_108439603_108443208-2",0.5981065050449177,-79.59053912201831,816],["7_27281408_27285614-3",0.5985261337449495,-80.01881868901003,819],["10_101288025_101292338-1",0.6114483252163055,-84.30189367511304,818],["6_108489033_108493410-2",0.6863420610220489,-114.52030227562594,820],["6_108439603_108443208-3",0.6493410231323602,-93.1478153073055,774]],"bottom":[["8_1300767_1305403-1",-0.26049407267460917,-6.316444685125849,363],["2_58271642_58276422-2",-0.23308202514006135,-5.762076835355954,412]]},"para":{"top":[["6_108489033_108493410-1",0.5615649973325663,-68.35221501413106,817],["6_108488105_108492539-1",0.8259781721574841,-205.11316740746295,820],["11_31837363_31841813-3",0.5558596489723383,-66.78799780904386,818],["11_31839315_31844003-2",0.5591577109783334,-67.81770495465481,819],["3_138657867_138661107-2",0.5936684198293171,-78.32690622493702,818],["3_138657867_138661107-3",0.5961889564751639,-78.96001436234813,816],["6_108489033_108493410-2",0.5900876723103443,-77.35464321439565,820]],"bottom":[]}}}
