{"depmap_hotspot":{"corr":{"top":[["C12orf56",0.12671501502614643,-3.6092759723242853,24.0,809.0],["CCER1",0.1785573364782996,-6.671296228668914,34.0,799.0],["FAM166B",0.13533387135716318,-4.049473707046477,10.0,823.0],["FAM47E-STBD1",0.15785950156140935,-5.32840003180417,17.0,816.0],["MAVS",0.15613628595792473,-5.223909066076372,24.0,809.0],["MRPL35",0.1813252536370266,-6.863317724402559,10.0,823.0],["OR4D11",0.16528780523308856,-5.7916208394494095,27.0,806.0],["RGPD3",0.12807327028224325,-3.676866348685657,56.0,777.0],["TRAF1",0.14544492399574593,-4.600361267216039,21.0,812.0],["ZNF383",0.14398731042461843,-4.518630341280904,20.0,813.0]],"bottom":[["CAPN7",-0.06977020846029292,-1.35554100930897,28.0,805.0],["CCT6A",-0.06900396767474778,-1.332681889164775,26.0,807.0],["WNT2",-0.06904899219206172,-1.3340198227483797,30.0,803.0]]},"para":{"top":[["C12orf56",0.14144620336343164,-4.646366287942382,24.0,809.0],["CCER1",0.15890674365041882,-5.64009609234644,34.0,799.0],["GDPGP1",0.1176283695840217,-3.460318770822402,20.0,813.0],["LEUTX",0.10370223793803403,-2.856116300250717,11.0,822.0],["MRPL35",0.11369949899507757,-3.2829391155283996,10.0,823.0],["THYN1",0.15057925396061544,-5.152529482058683,13.0,820.0]],"bottom":[["GEMIN2",-0.07937606901853622,-1.9568370773455181,12.0,821.0]]}}}
{"depmap_damaging":{"corr":{"top":[["C7",0.1225453531624983,-3.40240328161379,16.0,816.0],["UBE4B",0.13585026525429303,-4.072422560998089,13.0,819.0]],"bottom":[]},"para":{"top":[["MTUS2",0.13242838109137967,-4.17014205356526,14.0,818.0],["PABPC3",0.10974700372786406,-3.1072351688899222,9.0,823.0]],"bottom":[]}}}
{"ccle_rrbs_enhancer_clusters":{"corr":{"top":[],"bottom":[]},"para":{"top":[],"bottom":[["3-157987611-157992466-1_enh",-0.20639270607061025,-4.854332498069446,436]]}}}
{"ccle_mirna":{"corr":{"top":[["hsa-miR-509-5p_miR00421.1",0.19916792706093495,-8.127720203898017,828]],"bottom":[]},"para":{"top":[],"bottom":[]}}}
{"prism_primary_logfold":{"corr":{"top":[["mestranol_BRD-K31920458-001-23-6::2.5::HTS",0.15548589838304408,-3.0692270160608706,457]],"bottom":[["norgestrel_BRD-A14886633-001-01-6::2.5::HTS",-0.19880708257244906,-4.877681575373779,473],["testosterone-enanthate_BRD-K89657519-001-01-8::2.5::HTS",-0.1803368838840272,-4.096316583931074,473]]},"para":{"top":[],"bottom":[["PHA-665752_BRD-K95435023-001-08-5::2.5::HTS",-0.14853140229959172,-2.796129503324214,449]]}}}
{"prism_secondary_logfold":{"corr":{"top":[["enoximone_BRD-K21152241-001-07-3::0.156250003::MTS006",0.18127110569083943,-3.664489377345378,412],["crizotinib-(S)_BRD-K40308497-001-01-2::0.000619363::HTS002",0.13989284073280223,-2.2526873606023616,391]],"bottom":[["rabeprazole_BRD-A39390670-236-10-7::0.00061034::HTS002",-0.21743093489402882,-3.259675193884047,249],["danazol_BRD-A92537424-001-04-7::0.625::HTS002",-0.20789517239391272,-4.676943889083033,412],["ONC201_BRD-K58529924-001-01-5::10.5943::MTS010::PROS001_PR500",-0.21640769585080452,-4.942328004414622,404],["dovitinib_BRD-K85402309-043-01-9::0.625::MTS010::PROS001_PR500",-0.2106679285212224,-4.707471410339311,404],["norethindrone_BRD-K92073408-001-15-7::10::MTS005",-0.28255386562740564,-7.940449043799927,394],["OLDA_BRD-K95523387-001-09-6::10::HTS002",-0.2741904995109365,-6.815176507606326,355],["tanaproget_BRD-K99604664-001-01-1::0.625::HTS002",-0.21842345250915893,-5.115174618631417,412],["tanaproget_BRD-K99604664-001-01-1::2.5::HTS002",-0.26966750139603707,-7.569902790936898,412]]},"para":{"top":[["rociletinib_BRD-K33610132-001-02-9::0.0390625::HTS002",0.20330848074158733,-4.309302863777785,393]],"bottom":[["sunitinib_BRD-K42828737-001-03-3::2.5::MTS010::PROS001_PR500",-0.21001576250213316,-4.681188121503272,404],["OTX015_BRD-K43471985-001-03-0::0.0105082::HTS002",-0.2105519651574505,-3.9967570629432654,336],["deforolimus_BRD-K62304154-001-04-2::0.00061034::HTS002",-0.19077261996247982,-4.027344029672451,414],["ZSTK-474_BRD-K63068307-001-08-9::0.625::HTS002",-0.2055993647347675,-4.61384873149853,415],["golvatinib_BRD-K69001009-001-02-8::0.0024414::HTS002",-0.21274825151012214,-2.790125608525507,217],["dovitinib_BRD-K85402309-043-01-9::2.5::MTS010::PROS001_PR500",-0.22279387589474348,-5.211148149220178,404],["norethindrone_BRD-K92073408-001-15-7::10::MTS005",-0.21001680247777077,-4.578288032833686,394]]}}}
{"ccle_proteomics":{"corr":{"top":[["MAP3K11_Q16584",0.29334617771701404,-4.706351059320318,205],["GPRASP2_Q96D09",0.2815496341535215,-4.080235753208929,190]],"bottom":[["PPP3CA_Q08209",-0.304111117518024,-7.719896393400997,328]]},"para":{"top":[["TSPYL2_Q9H2G4",0.2843177325491733,-2.782872788400351,120],["ROGDI_Q9GZN7",0.3071345444580046,-5.193173075873814,208],["RTTN_Q86VV8",0.3911220778406171,-5.827081666899286,142]],"bottom":[]}}}
{"depmap_gene_tpm":{"corr":{"top":[["ELFN1_392617",0.2529897573441379,-12.845566187580932,829]],"bottom":[]},"para":{"top":[],"bottom":[]}}}
{"avana":{"corr":{"top":[["AGPAT5_55326",0.15651201923149466,-3.1794921422992504,470],["GLTPD2_388323",0.18636325760720776,-4.318778780752009,470]],"bottom":[["MYRIP_25924",-0.17909813697096913,-4.024083338467189,470],["OR10Z1_128368",-0.1832287097895337,-4.190238777721218,470],["ZNF500_26048",-0.1863275955633357,-4.317304433595605,470],["ZNF541_84215",-0.19485540471574192,-4.677731020747857,470]]},"para":{"top":[["GLTPD2_388323",0.18100425630077324,-4.100303444813787,470],["MPDU1_9526",0.1971107241410457,-4.7757086953867045,470],["RAD51_5888",0.19075205608166934,-4.502326625622561,470]],"bottom":[["AGBL3_340351",-0.20494411883473349,-5.124731994797132,470],["ASL_435",-0.18819151505639606,-4.394731931850772,470],["GDPD2_54857",-0.16949732998462344,-3.4560537769863044,441],["SLC9A4_389015",-0.1836321409484306,-4.206663651552742,470],["TEP1_7011",-0.17210695330809636,-3.7511636255276564,470],["TMEM31_203562",-0.17314744102771248,-3.587063883022969,441],["TTC34_100287898",-0.1777899886543664,-3.9722242884036487,470]]}}}
{"drive":{"corr":{"top":[["TFAP2E_339488",0.191265353258117,-3.2524790561339567,322]],"bottom":[["RASL10A_10633",-0.2410864100139806,-4.886426988178649,320],["RPL35_11224",-0.23957586335439968,-4.857644964093078,322],["COL2A1_1280",-0.27380439631793557,-6.183577476559758,320],["LRRD1_401387",-0.23954672233504443,-4.829656108257379,320],["ITLN1_55600",-0.2519408690554221,-5.490562449029438,333],["TAF5_6877",-0.25766006953181864,-5.552697073753881,322],["RPL14_9045",-0.24453900827222783,-5.0151016950838105,320]]},"para":{"top":[],"bottom":[["STEAP1B_256227",-0.2070560586508772,-3.717768153564908,320]]}}}
{"achilles":{"corr":{"top":[["BORCS5_118426",0.2730220487120589,-4.375097576133104,219],["SLC5A10_125206",0.24952128571416426,-6.076473452387682,380],["ADRB1_153",0.24677475336514415,-5.952786410576069,380],["UBR5_51366",0.26448556252089167,-6.776092482823592,380]],"bottom":[["SPTY2D1_144108",-0.2762872739621814,-4.471174432360729,219],["IAPP_3375",-0.2632796441377919,-4.09562028514423,219],["ZMYND10_51364",-0.27370646344323707,-4.395135135320917,219],["FUNDC2_65991",-0.2921965263016936,-4.956923917390041,219],["UQCC2_84300",-0.2631972387994816,-4.09330186830167,219]]},"para":{"top":[["BORCS5_118426",0.2654292701041263,-4.1563669528250555,219],["SPOPL_339745",0.33348543194422325,-6.359914181841355,219],["UBR5_51366",0.23550862157217115,-5.460488984294068,380],["TBC1D15_64786",0.24547565896105872,-3.6121473080581286,219],["KATNAL2_83473",0.2371181270251416,-3.397078235438248,219],["SNAP23_8773",0.29036557419929726,-4.89951308991796,219]],"bottom":[["PARD6G-AS1_100130522",-0.2549439767323947,-3.8649253379609334,219],["TMEM147_10430",-0.2747972148856712,-4.427179418596244,219],["NAIF1_203245",-0.2568080240838972,-3.9158463657164435,219],["BSPRY_54836",-0.2929820239434338,-4.981675305025291,219],["MYCBPAP_84073",-0.31511642564759634,-5.709663571342635,219],["SNX3_8724",-0.28677420691723654,-4.788049929250848,219],["KRIT1_889",-0.2681832978643053,-6.955754785101867,380]]}}}
{"ccle_rrbs_tss1kb":{"corr":{"top":[],"bottom":[["CROCCP2_1_16957401_16958401",-0.15896628460103873,-3.9122731654138114,579]]},"para":{"top":[],"bottom":[]}}}
{"ccle_gene_tpm":{"corr":{"top":[["RP11-67M1.1_ENSG00000247775.2",0.284049675481814,-16.067884210647705,826],["RP11-133F8.2_ENSG00000249776.1",0.29509240728102915,-17.333087441339025,826],["AC104801.1_ENSG00000236651.1",0.30733379378520764,-18.801547408410283,826]],"bottom":[]},"para":{"top":[],"bottom":[]}}}
{"ccle_rrbs_tss_clusters":{"corr":{"top":[["OR7E91P_3",0.9999999999999996,-323.0051853474518,717]],"bottom":[]},"para":{"top":[["OR7E91P_3",0.9999999999999999,-323.0051853474518,717]],"bottom":[]}}}
{"ccle_rrbs_cgi_clusters":{"corr":{"top":[],"bottom":[["17_77765360_77769356-3",-0.2132927823528039,-9.288861348313192,832],["17_40462293_40466947-1",-0.2020274993520148,-8.18987081735211,811]]},"para":{"top":[],"bottom":[]}}}
