{"depmap_hotspot":{"corr":{"top":[["AP000322.54",0.15177263568668428,-4.932470591599491,8.0,819.0],["CBR3",0.14224291628200716,-4.393788230247148,10.0,817.0],["CCDC102A",0.1433296140809108,-4.453534674479605,37.0,790.0],["CCL5",0.16924399803394666,-6.007519941640287,8.0,819.0],["CEACAM8",0.17438010959299408,-6.3453985989279955,28.0,799.0],["CNBD2",0.1407122656903976,-4.310363570875793,27.0,800.0],["DEFB113",0.142670110294995,-4.41722387927967,11.0,816.0],["DZANK1",0.1603493731425803,-5.445956058771233,49.0,778.0],["EBI3",0.13708681238846712,-4.1161638855208675,8.0,819.0],["ETV3L",0.19861378813122427,-8.076421516305972,23.0,804.0],["FLYWCH2",0.16127029939288498,-5.50272043527882,9.0,818.0],["GTF2A1L",0.20073248358092763,-8.238652863763459,16.0,811.0],["MGST3",0.15049356927248764,-4.858229684481112,10.0,817.0],["MSMB",0.1462547918637364,-4.6165049055889,9.0,818.0],["NR0B2",0.16173729295886324,-5.531626405405046,10.0,817.0],["PRLH",0.1371919673487438,-4.121729454605822,12.0,815.0],["RCAN1",0.154541970168336,-5.0952834319526445,20.0,807.0],["SPACA3",0.1990558532667396,-8.110124742701396,15.0,812.0],["TPD52",0.1445236793392269,-4.519681428115682,8.0,819.0],["U2AF1L4",0.14162734349354988,-4.36013523027901,11.0,816.0]],"bottom":[["CHCHD6",-0.06250179723827765,-1.1401142262738548,9.0,818.0],["ZNF229",-0.07797672361637221,-1.603234683018841,63.0,764.0]]},"para":{"top":[["ATP6AP2",0.09774545328111504,-2.60411283400005,10.0,817.0],["B4GALT4",0.12021725230077052,-3.559412813783777,9.0,818.0],["C16orf86",0.11429781008751748,-3.2915995485319223,16.0,811.0],["CA11",0.11075502455317063,-3.1368317138532333,18.0,809.0],["CNTD2",0.1087846109783389,-3.0523023373081166,10.0,817.0],["DCTN6",0.09557383723463993,-2.520606368954588,8.0,819.0],["GLT8D1",0.09834867467956213,-2.6276672212680494,13.0,814.0],["KHDC1L",0.10229691034439914,-2.784029662972527,11.0,816.0],["MSGN1",0.11211418461703272,-3.195626710097902,14.0,813.0],["ODAM",0.10827338226398792,-3.030852107579676,16.0,811.0],["PEMT",0.10274129310002207,-2.801960648071385,11.0,816.0],["PTMS",0.09811808307680193,-2.6185809126444726,10.0,817.0],["RAB3B",0.10482989205144982,-2.887117256890745,11.0,816.0],["RNF187",0.09458686953434126,-2.4833597329374646,11.0,816.0],["RP11-180C1.1",0.11256260276651739,-3.2149831748229873,9.0,818.0],["SIVA1",0.0953405067274407,-2.5119484915269776,13.0,814.0],["SOSTDC1",0.11530563240285936,-3.336195450062051,10.0,817.0],["TMEM252",0.11268941738713857,-3.2206707775580066,12.0,815.0],["YWHAE",0.0949153970776825,-2.4958054069004043,12.0,815.0]],"bottom":[["AC104057.1",-0.10246555611006299,-2.7906740846405502,8.0,819.0],["ALOX5AP",-0.09025370791867547,-2.3230321234426854,12.0,815.0],["BRI3BP",-0.09800190359848626,-2.6141429057091368,12.0,815.0],["BTBD8",-0.08155014519926025,-2.0195637977869003,14.0,813.0],["BTNL8",-0.09713021170816773,-2.5805684270460483,19.0,808.0],["C12orf71",-0.08054717706704433,-1.9861194747685647,12.0,815.0],["C1QB",-0.10145711494743113,-2.7505140142312086,18.0,809.0],["C20orf195",-0.08007456596361359,-1.9705246566249026,13.0,814.0],["C3orf52",-0.09320402764618123,-2.4314721748515162,10.0,817.0],["CHCHD6",-0.1119492494384522,-3.188237944957068,9.0,818.0],["GNB1L",-0.11705289784524343,-3.4149332320228027,17.0,810.0],["GPX8",-0.11739582699167078,-3.4301617160723756,9.0,818.0],["HPGDS",-0.09303152988966093,-2.425088710153495,11.0,816.0],["LEUTX",-0.09523122452999444,-2.507734327591233,11.0,816.0],["PATE1",-0.10665186134950382,-2.9625909723270056,11.0,816.0]]}}}
{"depmap_damaging":{"corr":{"top":[["ABCF1",0.15437856914357648,-5.080118176875942,11.0,815.0],["ARMC9",0.13505439161247862,-4.005145054182251,8.0,818.0],["ASTN1",0.1194209578366576,-3.234169457829253,9.0,817.0],["C8B",0.13350848273985697,-3.9250128942773412,8.0,818.0],["CAB39",0.1323230789354106,-3.8641500163909357,10.0,816.0],["CIITA",0.14388935142733547,-4.479694801730889,8.0,818.0],["FAM129A",0.13061251729091958,-3.777213043932126,8.0,818.0],["GABBR1",0.19142042202267742,-7.530434186042542,15.0,811.0],["MCPH1",0.15337841211098338,-5.021119360422184,32.0,794.0],["NUTM2D",0.1344020152802993,-3.9712241610701833,8.0,818.0],["PIBF1",0.13868556981331517,-4.196759348390856,12.0,814.0],["THSD7A",0.12384940586387759,-3.443729409696996,14.0,812.0],["ZFP36L1",0.1595790544899944,-5.392873855198191,8.0,818.0]],"bottom":[]},"para":{"top":[["ANGPTL5",0.1026941478922152,-2.797642636269895,14.0,812.0],["C7orf31",0.12139726973671121,-3.6108352835319204,9.0,817.0],["DDX11",0.10306109576959507,-2.8122817991715454,9.0,817.0],["GABBR1",0.11704482392750648,-3.411311900959105,15.0,811.0],["HDX",0.09986638977487007,-2.684582298455872,8.0,818.0],["IL20RA",0.11839859249275922,-3.4725163343390775,9.0,817.0],["KIFC2",0.09898054128743318,-2.64978907541957,8.0,818.0],["RB1CC1",0.11524854418070067,-3.3307226489274133,15.0,811.0],["SLC6A9",0.08811587013269255,-2.2441188833465637,8.0,818.0],["SRGAP1",0.09871999761465763,-2.639605239733733,8.0,818.0],["ZNF326",0.10267850594876334,-2.7970619085121644,16.0,810.0]],"bottom":[["ARHGAP27",-0.07105025956589371,-1.6845667319653614,8.0,818.0],["C6orf222",-0.08694793424329145,-2.2029495941688313,11.0,815.0],["DTX4",-0.07098744554579019,-1.6827939453118044,11.0,815.0],["GRAMD1B",-0.09429075517747322,-2.469913107994438,8.0,818.0],["KIF6",-0.09073921964461071,-2.338616379504243,10.0,816.0],["NPSR1",-0.08944464286384789,-2.291651694726096,8.0,818.0],["OR2D3",-0.08474282482623455,-2.1261418474609584,10.0,816.0],["PLEKHM1",-0.09642467891822591,-2.550915240525274,9.0,817.0]]}}}
{"ccle_mirna":{"corr":{"top":[],"bottom":[]},"para":{"top":[],"bottom":[["hcmv-miR-US5-2_miR00766.1",-0.13083237860921826,-3.7723881172005176,822]]}}}
{"prism_primary_logfold":{"corr":{"top":[],"bottom":[]},"para":{"top":[["monostearin_BRD-A31454688-001-01-6::2.5::HTS",0.1562231804478226,-3.1289620900579522,463]],"bottom":[]}}}
{"prism_secondary_logfold":{"corr":{"top":[["sorafenib_BRD-K23984367-001-07-5::2.5::MTS010::PROS001_PR500",0.15904850895952413,-2.848911747104973,400],["CR8-(R)_BRD-K40331046-305-01-5::0.625::HTS002",0.19372560050352425,-4.147594273722778,415],["AZD7762_BRD-K86525559-001-07-8::0.0024626::HTS002",0.16487623255764888,-3.081601721090674,408]],"bottom":[["PCI-24781_BRD-K12867552-001-04-7::10::HTS002",-0.16631885272191832,-3.1478769077816127,411]]},"para":{"top":[["LY303511_BRD-K22385716-001-02-5::0.00061034::HTS002",0.18035620364733332,-3.57849699968584,405],["hesperadin_BRD-K58122457-001-02-2::0.00061034::HTS002",0.3043676289390037,-3.139497160960477,120],["imatinib_BRD-K92723993-001-17-4::2.5::MTS010::PROS001_PR500",0.16716391761440577,-3.1026676537302977,400]],"bottom":[["beta-naphthol_BRD-K21164796-001-02-8::0.0024414::HTS002",-0.1643619909550492,-3.084315088131724,411]]}}}
{"ccle_proteomics":{"corr":{"top":[["TTC3_P53804",0.2731211192074574,-3.142247851684101,150],["PLEKHA8_Q96JA3",0.2686945945218091,-2.947451659849216,144]],"bottom":[["ANGPTL4_Q9BY76",-0.3963009433971952,-4.661817023692525,108],["TMEM246_Q9BRR3",-0.32612531810283024,-4.461483260110303,155]]},"para":{"top":[["PPP1R12C_Q9BZL4-3",0.27298383620468714,-3.428155237098887,166]],"bottom":[["NLRP2_Q9NX02",-0.2245095784309981,-3.878920161101122,285],["LARP1B_Q659C4-2",-0.2779502336555427,-4.355075781614541,210]]}}}
{"depmap_copy_number":{"corr":{"top":[["LOC100130298_100130298",0.17109995000268324,-6.121760868400182,826],["MIR4470_100616484",0.17402541606262528,-6.314818969167045,826],["LINC02449_101927905",0.17737043572830197,-6.539554282599514,826],["LRRC23_10233",0.1637917642654258,-5.653615574729529,826],["LINC02155_111082988",0.173844834492427,-6.302807847967125,826],["CLVS1_157807",0.1690093605142127,-5.985785285443579,826],["ENO2_2026",0.1643141237377647,-5.686409586995746,826],["CD163L1_283316",0.16363866527628335,-5.6440233330509475,826],["APOBEC1_339",0.163930417053196,-5.662310292229323,826],["ACSM4_341392",0.16363866527628335,-5.6440233330509475,826],["LINC00937_389634",0.17073849556631,-6.098132986261114,826],["ASPH_444",0.16628500728622594,-5.81106550817211,826],["CLEC4A_50856",0.16338225032737222,-5.627977635118814,826],["FAM90A1_55138",0.16413192038597482,-5.674959133981675,826],["FAM86FP_653113",0.16342700244351954,-5.630776316110299,826],["CLEC6A_93978",0.17664534975411728,-6.4904770573158235,826]],"bottom":[["ALPI_248",-0.13920651336487014,-4.22464045982934,826]]},"para":{"top":[],"bottom":[]}}}
{"depmap_gene_tpm":{"corr":{"top":[["MYH8_4626",0.2875033391900628,-16.40062157082797,823],["SPATA31E1_286234",0.3301195494390014,-21.64923161267931,823],["OR13C8_138802",0.2196525120971834,-9.722786412832374,823],["MGAT4D_152586",0.3470407129003061,-23.977984470617777,823],["FAM240B_110806297",0.32158956014993434,-20.529291632591836,823]],"bottom":[]},"para":{"top":[],"bottom":[]}}}
{"avana":{"corr":{"top":[["ACSS1_84532",0.15592236577671845,-3.1358627666847614,466],["CRNKL1_51340",0.17284794592358868,-3.751587297482781,466],["GBP2_2634",0.1649904688771942,-3.4583559868989173,466]],"bottom":[["GOLIM4_27333",-0.1623078265618202,-3.361184978649757,466],["HID1_283987",-0.15197762968473386,-3.0008412434731153,466],["KLF7_8609",-0.1579825678856225,-3.1840434964905837,462],["KRTAP5-3_387266",-0.19998673272892997,-4.865114440391442,466],["MRGPRX3_117195",-0.18866717819379641,-4.381438895312667,466],["RSL1D1_26156",-0.19540382288902455,-4.665937132964205,466],["ZNF600_162966",-0.16704763026298097,-3.5338822312803897,466]]},"para":{"top":[["CRNKL1_51340",0.17550001146401234,-3.8534785672129024,466],["KLHL1_57626",0.17363625806353927,-3.7817193536082727,466],["ZMYM5_9205",0.18232251384096354,-4.122427165484451,466]],"bottom":[["FUT7_2529",-0.15991206444980224,-3.2756629187834814,466],["KRTAP5-3_387266",-0.16320134356661178,-3.393384555038819,466],["PCDHB8_56128",-0.1587210460807516,-3.233586999189071,466],["PRKAG3_53632",-0.1537529206791648,-3.0612134948588863,466],["RFT1_91869",-0.19867056413584724,-4.8074431789834815,466],["SERPINH1_871",-0.16325257899036216,-3.395235927553573,466]]}}}
{"drive":{"corr":{"top":[],"bottom":[["ATP5B_506",-0.2636430760796511,-5.7130381365723695,317]]},"para":{"top":[["ZNF219_51222",0.17926977118255327,-2.8851464811004854,319]],"bottom":[]}}}
{"achilles":{"corr":{"top":[["TXLNA_200081",0.24767946148742123,-3.6554702945822872,218],["NSMF_26012",0.226488101635604,-3.121939589599813,218],["LRIT1_26103",0.2166092585205772,-2.8892710632634735,218]],"bottom":[["NDUFS5_4725",-0.19148689371391237,-3.7356960967739354,377],["CCDC51_79714",-0.3440829020115456,-6.726502153033005,218]]},"para":{"top":[["PRAMEF18_391003",0.21173752278523925,-2.7782078972641657,218],["TMEM120A_83862",0.2494980730144241,-3.703489453973807,218],["C2orf16_84226",0.23582033137282787,-3.3510408811333687,218]],"bottom":[["PLCH1_23007",-0.19473217500908513,-3.848216301280947,377],["ZSWIM8_23053",-0.2307631418394104,-3.2257576697976535,218],["SOHLH1_402381",-0.19006809552551476,-3.687077968268014,377],["BTG1_694",-0.19435855171286007,-3.8351687178480223,377],["VTCN1_79679",-0.25344981761797825,-3.8090693762529737,218],["SETD3_84193",-0.23643410146218227,-3.3664293158421823,218]]}}}
{"ccle_rrbs_tss1kb":{"corr":{"top":[["PUS7L_12_44152576_44153576",0.9909429860312908,-323.0051853474518,827],["IRAK4_12_44151746_44152746",0.5397392413794634,-62.45352131558898,820],["PUS7L_12_44152561_44153561",0.9692144297414991,-323.0051853474518,827],["ZNF862_7_149534455_149535455",0.2977631581150427,-17.34120344767284,811]],"bottom":[["POLD1_19_50901108_50902108",-0.1479473435376679,-4.611258283763756,807],["MIR647_20_62574079_62575079",-0.15065921052563855,-4.825988580382313,819],["RPL6_12_112847123_112848123",-0.13339413353784535,-3.906713586345303,823]]},"para":{"top":[["AGL_1_100315044_100316044",0.3455922802832428,-23.661456972065267,819],["PUS7L_12_44152576_44153576",0.9919671564124921,-323.0051853474518,827],["AGL_1_100314639_100315639",0.3167064661369798,-19.625557997585634,811],["RPS26_12_56434701_56435701",0.33432922741184745,-22.085158695096677,818],["PUS7L_12_44152561_44153561",0.9728056016926533,-323.0051853474518,827]],"bottom":[]}}}
{"ccle_gene_tpm":{"corr":{"top":[["RP11-787D18.1_ENSG00000253711.1",0.33459174989257484,-22.17261261788615,820],["KRT126P_ENSG00000257402.1",0.3989260172906373,-31.946641445885625,820],["RP11-467N20.6_ENSG00000259233.1",0.40182562411558775,-32.44089941034643,820],["TTTY6_ENSG00000131538.6",0.3561430299536459,-25.201953281953813,820],["AC112198.1_ENSG00000232517.2",0.39404490172033013,-31.125612845721317,820],["RP11-567N4.2_ENSG00000248646.1",0.3337382532477533,-22.057468883041587,820],["RP11-45H22.2_ENSG00000249843.1",0.39420509168161627,-31.15234020096209,820],["RP11-542P2.1_ENSG00000205301.7",0.34880300122614166,-24.143578818361277,820],["SPATA31E1_ENSG00000177992.9",0.32891986416839564,-21.414191512856142,820],["OR4A50P_ENSG00000255294.1",0.3276274355434636,-21.24359099979865,820],["C21orf54_ENSG00000229086.3",0.3700564799555585,-27.285719222160562,820],["RP11-542G1.2_ENSG00000251454.1",0.35367669180010375,-24.843213956829707,820],["RNU2-35P_ENSG00000252255.1",0.3431187222525066,-23.342969828227826,820],["KRT125P_ENSG00000258036.1",0.37669170739760427,-28.31600446466538,820]],"bottom":[]},"para":{"top":[],"bottom":[]}}}
{"ccle_rrbs_tss_clusters":{"corr":{"top":[["CARNMT1_1",0.36348569367276584,-11.896553311140389,358],["IRAK4_3",0.5219235903337557,-34.444250999034864,484],["IRAK4_1",0.6425305032767853,-96.75467758407143,827],["IRAK4_2",0.6399567561503803,-57.195116365119446,491]],"bottom":[["IFI6_3",-0.185606177481466,-6.465555156847606,744],["SUPT6H_1",-0.1641100298762856,-4.688145543270381,667]]},"para":{"top":[["QTRT1_3",0.34678174104638354,-23.96933287395415,824],["IRAK4_3",0.7134889781459371,-75.75759871195073,484],["IRAK4_2",0.839965731151673,-131.19151020220283,491],["IRAK4_1",0.5189155516054044,-57.474013271175785,827]],"bottom":[]}}}
{"ccle_rrbs_cgi_clusters":{"corr":{"top":[["12_44150506_44154922-3",0.5219235903337557,-34.444250999034864,484],["12_44150506_44154922-1",0.6425305032767853,-96.75467758407143,827],["2_228337314_228339875-1",0.3568266125732176,-25.033417967355618,811],["9_77640704_77645595-1",0.36348569367276584,-11.896553311140389,358],["5_154315459_154319930-1",0.39319534715126236,-29.955505406426806,792],["12_44150506_44154922-2",0.6399567561503803,-57.195116365119446,491]],"bottom":[["16_29704198_29708458-3",-0.17316711655705821,-3.134497781849031,377],["19_33094468_33098704-1",-0.20536064020556435,-8.541573411637872,821],["17_80212394_80215142-1",-0.21092779782269122,-7.876789757158406,712],["17_79653162_79657515-1",-0.17288258143697527,-6.245848895877614,827],["8_42292064_42297059-1",-0.2407077543385445,-11.400791269821061,809]]},"para":{"top":[["12_44150506_44154922-3",0.7134889781459371,-75.75759871195073,484],["12_44150506_44154922-1",0.5189155516054044,-57.474013271175785,827],["12_44150506_44154922-2",0.839965731151673,-131.19151020220283,491],["19_10810017_10814455-3",0.34678174104638354,-23.96933287395415,824]],"bottom":[["7_98607669_98612059-1",-0.16295479231730042,-5.576928689718464,822],["7_98606993_98611222-1",-0.17525067001125788,-6.368560211566949,822]]}}}
