{"depmap_hotspot":{"corr":{"top":[],"bottom":[["MATN4",-0.07491728255145258,-1.5069409536347504,46.0,782.0],["PLB1",-0.07844621504928065,-1.620047708845536,66.0,762.0],["RANBP2",-0.08735359988411373,-1.9238542332025967,122.0,706.0],["SDHA",-0.08070953105741535,-1.6947473571657523,66.0,762.0],["SMARCA5",-0.07467966975266165,-1.4994718234087772,44.0,784.0]]},"para":{"top":[["CBLN4",0.1204769841461728,-3.5750428913865417,15.0,813.0],["CRYZ",0.11998264998645847,-3.552233389280823,19.0,809.0],["LHPP",0.10355834693322828,-2.8377938846370547,17.0,811.0],["METTL7B",0.11364371477577628,-3.2655664148960573,12.0,816.0],["NAP1L5",0.11509663063210328,-3.330205893857477,18.0,810.0],["PBX3",0.12937551473080633,-4.001932057901785,33.0,795.0],["PSMB4",0.11377222500254751,-3.271491221024011,22.0,806.0]],"bottom":[["C1QB",-0.08587445863328222,-2.169125944248137,17.0,811.0],["C20orf195",-0.0897841406275601,-2.3079864301358834,13.0,815.0],["CDKN1B",-0.10117585238173823,-2.7416904008783844,18.0,810.0],["CLPP",-0.09754238116458978,-2.5986872247024704,16.0,812.0],["HP",-0.08456014614729718,-2.1232462242015497,8.0,820.0],["ING5",-0.07891867995722529,-1.9341497207803393,13.0,815.0],["JMJD7-PLA2G4B",-0.08909311343496548,-2.2831570978654305,17.0,811.0],["MZT2A",-0.09809736556580892,-2.6199340398412105,8.0,820.0],["PAQR6",-0.1068351491606448,-2.9731150429547615,18.0,810.0],["RP2",-0.0845601461472971,-2.1232462242015497,8.0,820.0],["TDRP",-0.09536014927470857,-2.514881499484207,14.0,814.0],["TMEM177",-0.10332729122058773,-2.8284788490579467,22.0,806.0]]}}}
{"depmap_damaging":{"corr":{"top":[],"bottom":[]},"para":{"top":[["ADI1",0.10195557883018454,-2.7702165445555904,10.0,817.0],["HGF",0.10830651106757795,-3.0320052228592393,10.0,817.0],["MCM4",0.10049724672297898,-2.712044693663619,11.0,816.0],["PSMD2",0.08757524501218653,-2.2267823650101546,8.0,819.0]],"bottom":[["FIGN",-0.0667942873243095,-1.5607739239118696,10.0,817.0],["SH3D21",-0.09641441926107583,-2.5529823820740893,17.0,810.0],["TTC21B",-0.07051811320603397,-1.669911518283802,9.0,818.0],["UBA1",-0.09151205530554028,-2.3688053812935554,9.0,818.0],["ZNF862",-0.08062702840395888,-1.988762929192839,13.0,814.0]]}}}
{"prism_primary_logfold":{"corr":{"top":[],"bottom":[["volinanserin_BRD-K23647661-001-02-2::2.5::HTS",-0.1637530237929367,-3.438604342150991,470]]},"para":{"top":[],"bottom":[]}}}
{"prism_secondary_logfold":{"corr":{"top":[["TH-302_BRD-K20958582-001-01-4::0.00976562::HTS002",0.2186495820360318,-4.466349053625043,353],["tivantinib_BRD-K33379087-001-07-5::0.00244::MTS010::PROS004_PR500",0.17806755639140182,-3.5068990130801336,406]],"bottom":[]},"para":{"top":[["raclopride_BRD-K04111260-001-10-0::10::HTS002",0.19733745767845645,-4.222795368403215,408],["domiphen_BRD-K30431096-004-01-3::0.625::HTS002",0.17710517796090489,-3.3850280650810594,394],["tivantinib_BRD-K33379087-001-07-5::0.00244::MTS010::PROS004_PR500",0.16592871034636314,-3.102503136515907,406],["oltipraz_BRD-K86972824-001-01-4::0.0024414::HTS002",0.17438771719750842,-3.4747362760397182,419],["imatinib_BRD-K92723993-001-17-4::0.00061::MTS010::PROS004_PR500",0.16980902354729902,-3.2288650133319177,406]],"bottom":[["bumetanide_BRD-K38197229-001-29-9::0.0024414::HTS002",-0.21619924492230605,-4.179222417897569,335],["mebendazole_BRD-K77987382-001-13-2::0.00976562::HTS002",-0.2319298387511369,-4.174600526455476,290]]}}}
{"depmap_gene_tpm":{"corr":{"top":[],"bottom":[]},"para":{"top":[["MYF5_4617",0.12064212136590918,-3.284432947957993,824],["OR5B3_441608",0.12074469989501134,-3.289241912072557,824]],"bottom":[]}}}
{"avana":{"corr":{"top":[["AEBP1_165",0.17884717964616995,-3.9916730158374634,467],["KRTAP21-3_100288323",0.1819487883236746,-4.115170597251198,467],["MSMB_4477",0.21695441379667843,-5.653754646675579,467]],"bottom":[]},"para":{"top":[["RMDN3_55177",0.1737572664755358,-3.793431191524827,467],["SMIM20_389203",0.17571142198940382,-3.8688933820526037,467]],"bottom":[["DGKD_8527",-0.16611122762483882,-3.5058843908864294,467]]}}}
{"drive":{"corr":{"top":[],"bottom":[["DLSTP1_1744",-0.24163425336888938,-4.893026940054185,319],["EPHA2_1969",-0.25382752617602067,-5.325487710038584,317]]},"para":{"top":[["RAB14_51552",0.22041407462594223,-4.120936143262899,317]],"bottom":[]}}}
{"ccle_rrbs_tss1kb":{"corr":{"top":[["SLC12A6_15_34629961_34630961",0.9981769224914051,-323.0051853474518,828],["RNPS1_16_2317338_2318338",0.583714964622381,-75.95815403781423,827]],"bottom":[]},"para":{"top":[["SLC12A6_15_34630265_34631265",0.60555981917215,-78.40195657506574,779],["SLC12A6_15_34629961_34630961",0.9951504553827004,-323.0051853474518,828]],"bottom":[["MIR769_19_46521189_46522189",-0.1275208201073659,-3.466944102222639,785],["SCUBE2_11_9113154_9114154",-0.12316265154147243,-3.2043253802773233,768],["SCUBE2_11_9113150_9114150",-0.12239984907124841,-3.170332935963199,768]]}}}
{"ccle_gene_tpm":{"corr":{"top":[],"bottom":[]},"para":{"top":[],"bottom":[]}}}
{"ccle_rrbs_tss_clusters":{"corr":{"top":[["SLC12A6_3",0.5931290902816807,-79.09554971811144,828],["LIPT2_3",0.6341667422796833,-93.29638858402801,825]],"bottom":[["LOC400743_3",-0.18384120352153419,-6.955589840030622,822]]},"para":{"top":[["SLC12A6_3",0.5624653339933167,-69.52606271058733,828]],"bottom":[["AMN_1",-0.21366988350553393,-3.030644601236819,237]]}}}
{"ccle_rrbs_cgi_clusters":{"corr":{"top":[["11_74202135_74206856-3",0.6341667422796833,-93.29638858402801,825],["15_34627575_34632396-3",0.5931290902816807,-79.09554971811144,828]],"bottom":[]},"para":{"top":[["15_34627575_34632396-3",0.5624653339933167,-69.52606271058733,828]],"bottom":[["14_103387016_103389632-1",-0.21366988350553393,-3.030644601236819,237]]}}}
