{"depmap_hotspot":{"corr":{"top":[["ABCB6",0.19279260766576428,-7.1053432468158855,44.0,720.0],["ADAMTSL4",0.17867309402738363,-6.175545095327762,46.0,718.0],["ANKMY1",0.1777606436280502,-6.117896707947025,55.0,709.0],["ATP13A4",0.1731135665893021,-5.828845985186387,51.0,713.0],["BIRC7",0.2139666718217598,-8.634876452955261,20.0,744.0],["C11orf48",0.17261812228387213,-5.798476563731249,16.0,748.0],["C12orf45",0.16158240894987166,-5.144199257528019,11.0,753.0],["CBX3",0.19621158258682828,-7.341243179196454,15.0,749.0],["CCDC127",0.18140654125862898,-6.350005735184646,12.0,752.0],["CD79B",0.1693339744945619,-5.599338560215287,18.0,746.0],["CDC37L1",0.1815321376458865,-6.3580854545421515,11.0,753.0],["CEP104",0.16716082973641286,-5.469636499341129,30.0,734.0],["CETN1",0.1685421667497514,-5.5518898177770915,17.0,747.0],["CHRM4",0.16853112917512417,-5.551229939849092,29.0,735.0],["CRISP3",0.1699038064614033,-5.633620780045641,27.0,737.0],["CSDC2",0.1618566366295742,-5.159945720441385,10.0,754.0],["CTSW",0.18714715679757202,-6.7250366884264,23.0,741.0],["CYB5R2",0.16544011134200792,-5.368102115804057,14.0,750.0],["CYSTM1",0.18273883757610848,-6.435998772042964,9.0,755.0],["DAXX",0.15964494068626078,-5.033686262204604,47.0,717.0],["DCLK3",0.16965642856628627,-5.618724120887459,29.0,735.0],["FEM1A",0.2206404153348127,-9.151277285274265,23.0,741.0],["G6PD",0.1599696644878201,-5.0521182846543775,24.0,740.0],["GRK5",0.16999800602767862,-5.6392989259549555,27.0,737.0],["HDDC2",0.1912214699647018,-6.998353485316707,9.0,755.0],["IKZF4",0.15939328638724926,-5.019426776891764,23.0,741.0],["KCNE2",0.17520918104935354,-5.958254119575813,8.0,756.0],["LBR",0.1720029606096418,-5.760888456277025,25.0,739.0],["MBD4",0.1711669952687409,-5.710020919271376,18.0,746.0],["MRPL20",0.18361811994290772,-6.4930974799657015,9.0,755.0],["MSRB2",0.21170417328258556,-8.463577229252074,13.0,751.0],["NMS",0.22195566022756713,-9.255016940197681,12.0,752.0],["PAPD4",0.16101157245557324,-5.111504384201082,41.0,723.0],["PAQR5",0.1633828115936387,-5.248054854250363,17.0,747.0],["PPP1R3D",0.17831090410373715,-6.15262683866793,21.0,743.0],["PRSS37",0.16763866143308936,-5.498014425879979,12.0,752.0],["PRTG",0.18758519195106005,-6.754135957463916,51.0,713.0],["RNF5",0.17729694781932476,-6.088713134568202,12.0,752.0],["RTKN",0.18906256095227778,-6.852786104605344,26.0,738.0],["SAMD3",0.1657787939449655,-5.388005496378469,33.0,731.0],["SKA3",0.199400926080157,-7.565116577946806,17.0,747.0],["SLC19A2",0.17475030867026312,-5.929786002820939,24.0,740.0],["SLIT1",0.1624055834675305,-5.191544857243541,67.0,697.0],["SPARCL1",0.16187121045222613,-5.160783292029753,25.0,739.0],["STRADB",0.21703073875310921,-8.869900753918818,18.0,746.0],["STX18",0.1611952998358474,-5.122015175137799,19.0,745.0],["TFB1M",0.22283989767496412,-9.325127019191887,19.0,745.0],["XRCC1",0.216298282519728,-8.813400419816062,23.0,741.0]],"bottom":[]},"para":{"top":[["C4orf6",0.12250681987462864,-3.4451727914561707,8.0,756.0],["CSNK1G3",0.17769847247831735,-6.336818277169431,27.0,737.0],["EPSTI1",0.13730721798962053,-4.126459834261826,16.0,748.0],["HDDC2",0.14425370577643376,-4.469200494093183,9.0,755.0],["HSD17B1",0.13008451813515814,-3.785467240259468,12.0,752.0],["LYAR",0.15426604480896344,-4.991185898513472,15.0,749.0],["MAP2K4",0.1927224068059586,-7.291720926925488,27.0,737.0],["MEIOB",0.1529780204032717,-4.922123279424242,12.0,752.0],["MRPL20",0.11783158472936561,-3.2444662604601495,9.0,755.0],["NMS",0.1667415802376249,-5.685357434159898,12.0,752.0],["NODAL",0.13375708896377606,-3.956696372659221,12.0,752.0],["PDLIM1",0.15081566561632845,-4.807683880452289,12.0,752.0],["PPM1E",0.17506429589976913,-6.176796863187353,25.0,739.0],["RAB38",0.12280029959369854,-3.45800498878577,8.0,756.0],["TAAR2",0.12246479174307251,-3.4436693167617327,12.0,752.0],["UBE2J1",0.13879524364395568,-4.1982293965124855,9.0,755.0]],"bottom":[]}}}
{"depmap_damaging":{"corr":{"top":[["ACACA",0.15301702015344054,-4.659971135929419,15.0,748.0],["ADAMTS19",0.19469285133916098,-7.22727365120104,10.0,753.0],["ANKRD12",0.14399944909443693,-4.183489834840085,32.0,731.0],["CACNA2D1",0.14688607815173432,-4.333025382830189,8.0,755.0],["CASP4",0.1847073472588277,-6.556406382680231,8.0,755.0],["CDH7",0.15395353250999175,-4.71103670699045,12.0,751.0],["COL9A1",0.18619382014555855,-6.654013440153523,13.0,750.0],["CRB1",0.13560747981356053,-3.764632272490038,13.0,750.0],["CYFIP2",0.18478518472916255,-6.561497941281069,12.0,751.0],["EXD3",0.14145624745878244,-4.054066564560583,9.0,754.0],["GGPS1",0.19732397692928963,-7.410014409455996,9.0,754.0],["LRRK2",0.15814158083207436,-4.943063828742212,33.0,730.0],["NFXL1",0.13329926147544943,-3.65353999821743,38.0,725.0],["NSUN6",0.1391158328804287,-3.9368778313133563,11.0,752.0],["PAPD4",0.13942293774274708,-3.952150736858708,23.0,740.0],["RADIL",0.16329048402950985,-5.2365705155477,8.0,755.0],["SCN10A",0.18327134025641786,-6.462859867676596,14.0,749.0],["SCN5A",0.14980381162404824,-4.48703075237993,11.0,752.0],["SLC9C1",0.20609766778869273,-8.03756260678022,11.0,752.0],["STK31",0.1471496274073148,-4.34681793886164,12.0,751.0],["TLR10",0.15387241162553808,-4.706601574899069,10.0,753.0],["TMC5",0.15853612954442858,-4.9652321436952835,14.0,749.0],["TPTE2",0.18638507058723647,-6.666628799390062,8.0,755.0],["TRPA1",0.16596193998007538,-5.392456891329925,17.0,746.0],["ZMYM6",0.14478415981219026,-4.223862320724669,23.0,740.0]],"bottom":[]},"para":{"top":[["CD93",0.15577923421001466,-5.067048405327028,12.0,751.0],["KALRN",0.14677060893681235,-4.593035862085512,20.0,743.0],["SCN5A",0.14709870478667605,-4.609396419726862,11.0,752.0]],"bottom":[]}}}
{"ccle_mirna":{"corr":{"top":[["hsa-miR-1281_miR00102.1",0.16015690917899053,-5.033237710771578,759],["hsa-miR-371-3p_miR00338.1",0.1912022548807154,-6.9552704736631465,759],["hsa-miR-372_miR00340.1",0.2208177499668803,-9.109587847640306,759],["hsa-miR-373_miR00341.1",0.22528310607408097,-9.462462515596474,759]],"bottom":[]},"para":{"top":[],"bottom":[]}}}
{"prism_primary_logfold":{"corr":{"top":[["diflunisal_BRD-K22031190-001-23-6::2.5::HTS",0.16101328459447356,-3.143259654339511,438],["NXY-059_BRD-K46133855-304-03-8::2.5::HTS",0.16042235708736396,-3.0807089458260406,431],["CTS21166_BRD-K89071957-001-01-1::0.25::HTS",0.15354937252290585,-2.858148668640939,431],["xibenolol_BRD-A21446384-001-01-1::2.5::MTS004",0.18187152242379637,-3.8023661912731437,427]],"bottom":[["ticagrelor_BRD-K44974079-001-01-3::2.5::HTS",-0.18723617763649866,-4.068476636005552,435]]},"para":{"top":[["dehydrocholate_BRD-A64125466-236-04-6::2.5::HTS",0.14433753491911946,-2.6087496718357355,438],["clopidogrel_BRD-K27721098-065-08-6::2.5::HTS",0.14453354262155094,-2.6197338361300067,439],["midafotel_BRD-K45163704-001-01-5::2.5::HTS",0.1628202801369428,-3.053613670298951,414],["lacosamide_BRD-K68232650-001-02-2::2.5::HTS",0.1735539175190041,-3.6018164789285887,441],["CTS21166_BRD-K89071957-001-01-1::0.25::HTS",0.17241759284439842,-3.4906880278495986,431],["xibenolol_BRD-A21446384-001-01-1::2.5::MTS004",0.16559795124358612,-3.228283615352576,427]],"bottom":[]}}}
{"prism_secondary_logfold":{"corr":{"top":[["SB-218078_BRD-A06352508-001-03-7::0.00976562::HTS002",0.16983143940237166,-3.1065447183922057,388],["estradiol-cypionate_BRD-A91452556-001-04-0::0.15625::HTS002",0.17247567163078667,-3.1411687845925242,381]],"bottom":[["propranolol_BRD-A10070317-003-28-3::0.00976562::HTS002",-0.26451198872883974,-2.81630303159689,141],["lanatoside-c_BRD-A64242993-001-05-6::0.15625::HTS002",-0.21365920290640775,-4.573357312826559,380],["bucladesine_BRD-A94624445-236-17-0::0.00976562::HTS002",-0.24477641731443153,-3.3788269375816764,204],["aspirin_BRD-K11433652-001-17-0::0.625::HTS002",-0.2451454212231367,-2.469669078104731,141],["naproxen_BRD-K59197931-001-04-5::10::HTS002",-0.19287992779282206,-3.2031933911818617,311],["etoposide-phosphate_BRD-K72533376-001-01-2::0.039062501::MTS006",-0.19273070836934367,-3.813543865892369,381],["SCH-900776_BRD-K75009076-001-02-1::0.00977::MTS010::PROS004_PR500",-0.23177509309370714,-5.277589674314337,378]]},"para":{"top":[["isoetharine_BRD-A24587114-066-22-5::2.5::HTS002",0.19153134977751726,-3.3212957039759643,329],["PF-05212384_BRD-K07955840-001-02-3::0.00976562::HTS002",0.20448413982944513,-4.30512756943064,388],["bumetanide_BRD-K38197229-001-29-9::2.5::HTS002",0.1988825165966963,-3.38832240761396,312],["ABT-737_BRD-K56301217-001-07-4::0.15625::HTS002",0.19468566813652827,-3.953410474541269,389],["AZD6482_BRD-K58772419-001-07-0::0.0390625::HTS002",0.20459214332262143,-4.083589968657345,365],["serdemetan_BRD-K65924316-001-03-1::0.00061034::HTS002",0.2387982300038525,-3.2621271765237436,206],["nizofenone_BRD-K84011460-051-01-7::0.00244141::HTS002",0.19074024589866606,-3.7357537301032417,380]],"bottom":[["ramifenazone_BRD-K85333151-003-13-4::0.0024414::HTS002",-0.19509373802625216,-3.56495244284758,344]]}}}
{"ccle_proteomics":{"corr":{"top":[["PDHA1_P08559",0.24670078314574465,-4.782384220142887,298],["CCDC51_Q96ER9",0.2501812556588877,-4.9064011135487,298],["RPP14_P86397",0.3112978995173218,-3.9766133755305755,150],["SRSF12_Q8WXF0",0.3086362476080081,-2.77251901097388,101],["TERF1_P54274",0.2489777271136223,-3.244060683990111,188],["SCO1_O75880",0.2621856701394009,-5.348168821243279,298]],"bottom":[["EIF4G3_B1AN89",-0.47546297860883185,-6.642766015712402,107],["EPN1_Q9Y6I3-1",-0.3153565393915828,-7.578021968495995,298],["PXDC1_Q5TGL8",-0.3631033650883532,-4.403653249205477,122],["SPATA2_Q9UM82",-0.3084428792189902,-3.145096936111765,117],["TICAM1_Q8IUC6",-0.3170575237140516,-4.670414945646907,173]]},"para":{"top":[["PHF23_Q9BUL5-2",0.28375788649618217,-5.781308726372678,276],["SETDB2_Q96T68",0.3297634390175628,-4.370415887282708,148],["HAVCR1_Q96D42",0.331280279139254,-3.118845902853824,100],["APC2_O95996",0.2179127269502518,-2.365694335124011,170],["SLIRP_Q9GZT3",0.2176797558748864,-3.8175959427685995,298],["SRSF12_Q8WXF0",0.315278385207399,-2.8791104732049493,101]],"bottom":[["HLA-C_Q95604",-0.2968660254353795,-6.750478974960723,298],["TIAM1_Q13009",-0.3274269613123934,-3.5819732881194177,120]]}}}
{"depmap_gene_tpm":{"corr":{"top":[["SPAM1_6677",0.27003307652703,-13.438636556718585,760],["LIN28A_79727",0.23896540910871408,-10.603648624844022,760],["DPPA3_359787",0.2745997930097613,-13.887857533184988,760],["C19orf84_147646",0.2827177465203908,-14.707506418343502,760]],"bottom":[]},"para":{"top":[],"bottom":[]}}}
{"avana":{"corr":{"top":[["CTRB2_440387",0.15807753160470903,-2.9919033716300256,429],["KLHL38_340359",0.1549422499866298,-2.8911012497507964,429],["LCN6_158062",0.19410961339298652,-4.285549396739119,429],["LINS1_55180",0.18830029146483718,-4.059868927010214,429],["ZBTB4_57659",0.16712522491662368,-3.2932056730792767,429]],"bottom":[["ACE_1636",-0.1766722769307441,-3.628094491016121,429],["ANTXR1_84168",-0.20068228691730652,-4.548993089341263,429],["CDC14A_8556",-0.19355956298038,-4.26389389137792,429],["ELANE_1991",-0.182785820258153,-3.820461078798534,425],["ELK1_2002",-0.19401503036170192,-4.044063467429928,402],["OXSR1_9943",-0.21994698068179347,-5.371585865090942,429],["PLA2G12A_81579",-0.1725159612258594,-3.4801442131244564,429],["SALL4_57167",-0.18346252232645732,-3.8770173075748295,429],["TEX12_56158",-0.21538106635564483,-5.1697460894758,429],["TMEM129_92305",-0.17478276208337265,-3.5604205589489335,429]]},"para":{"top":[["ABCC11_85320",0.17327612194197406,-3.5069540384504903,429],["GSDME_1687",0.14795148061555,-2.6729611036880767,429],["KCTD16_57528",0.16032949399131524,-3.0654477732253804,429],["KRT10_3858",0.16276579103306502,-3.1460915210388913,429],["OR4F21_441308",0.18220710342622803,-3.830317290848531,429],["SMOX_54498",0.1668564191791319,-3.2840297599110584,429]],"bottom":[["ANO5_203859",-0.18509360031024238,-3.9381526129277744,429],["ARIH2_10425",-0.18805941674430687,-4.050655672955983,429],["CDC14A_8556",-0.16751343714845296,-3.306481987088568,429],["CDKN2C_1031",-0.1692823273320241,-3.367340403745992,429],["DLGAP5_9787",-0.18688006854118758,-4.005711760127521,429],["DLL3_10683",-0.16756514488697696,-3.308252492391712,429],["ELK1_2002",-0.2062268024280213,-4.510239672180083,402],["LARP1B_55132",-0.18193772360890348,-3.8203368718690367,429],["PHOX2A_401",-0.18558770003621966,-3.956775279961631,429],["PHOX2B_8929",-0.16790546420180394,-3.3199179893624198,429],["TBK1_29110",-0.17627185958598826,-3.6136956202210584,429],["TEX12_56158",-0.2473191384715255,-6.67350080476403,429]]}}}
{"drive":{"corr":{"top":[["MAGEA1_4100",0.22591883729737208,-4.042978478441186,295]],"bottom":[["MSH5-SAPCD1&MSH5_100532732&4439",-0.22159378255483883,-3.9869695737723183,302],["FNTB_2342",-0.18781320004166427,-2.873356211618458,289],["CIAO1_9391",-0.19747278646282365,-3.22598861284741,299]]},"para":{"top":[["CAPN10_11132",0.2102046532245608,-3.525841286978434,292],["PEX14_5195",0.21626299018878525,-3.707223967368389,292],["PHOX2B_8929",0.21184197474259298,-3.5743635267753677,292]],"bottom":[["UBE2C_11065",-0.19966896078596988,-3.19387325696359,289],["FNTB_2342",-0.19700985278539462,-3.120369947134405,289],["SLC25A45_283130",-0.18762601277232416,-2.8937433289693555,292],["RAD54L_8438",-0.26465506490272317,-5.34305018436873,292]]}}}
{"achilles":{"corr":{"top":[["CRYBB2_1415",0.20663586396452832,-3.9660894003966813,346],["GABRA4_2557",0.20245611098069713,-3.824856102665798,346],["TCEAL5_340543",0.25953718381910806,-3.6371614219986865,197]],"bottom":[["LOC101929894_101929894",-0.22816218983604467,-2.8992242528234207,197]]},"para":{"top":[["TCEAL5_340543",0.29669285101508963,-4.638116464137712,197],["PDE4B_5142",0.2587846599350731,-5.9735186908329405,346],["VAMP4_8674",0.2411985091238977,-3.194328545504736,197]],"bottom":[["XAGE3_170626",-0.20908657132900055,-4.050217923806642,346],["GALNT11_63917",-0.21061751092589218,-4.1032696145836,346],["RPAP2_79871",-0.25903163009530966,-3.624511058282967,197]]}}}
{"ccle_rrbs_tss1kb":{"corr":{"top":[["UBE2L6_11_57335180_57336180",0.3413487595515123,-21.575443504966913,764],["EPN1_19_56185560_56186560",0.3534814733271991,-23.11822993351789,762],["PSMB8-AS1_6_32810862_32811862",0.4003108098552629,-29.92848594259575,761],["PSMB8_6_32811816_32812816",0.38690779069787035,-27.927004529631716,763]],"bottom":[["CIRBP_19_1268266_1269266",-0.13995366654495175,-3.937640896089712,754],["RPL6_12_112847123_112848123",-0.1347286100004287,-3.7221247615196464,763]]},"para":{"top":[],"bottom":[["DYNLL2_17_56159779_56160779",-0.12964252207165505,-3.4654188977400855,759],["FOXJ1_17_74137380_74138380",-0.10832274044738488,-2.5602407922785537,762],["RPL6_12_112847123_112848123",-0.12069353389442598,-3.0778138825963013,763]]}}}
{"ccle_gene_tpm":{"corr":{"top":[["SPAM1_ENSG00000106304.11",0.2665576482352341,-13.053588498774758,757],["RP11-266L9.2_ENSG00000260034.1",0.27980949749389716,-14.356798610231538,757],["CTD-2616J11.4_ENSG00000262874.1",0.2847864021571889,-14.864793106660635,757],["RP11-543F8.3_ENSG00000271251.1",0.27649788623229743,-14.024429490962609,757],["DPPA3_ENSG00000187569.2",0.27434340611144264,-13.810603550042297,757],["RP1-288M22.1_ENSG00000219575.1",0.3489206160994638,-22.367271626731945,757],["CTD-2530H12.5_ENSG00000255280.1",0.29840671260857765,-16.307862256475907,757]],"bottom":[]},"para":{"top":[["AC007394.3_ENSG00000223604.1",0.15196843205756858,-4.571141246572747,757],["RN7SL154P_ENSG00000264317.1",0.16547260796505783,-5.325960607168735,757],["RP11-568A7.3_ENSG00000231720.1",0.18376138648853743,-6.448336900426451,757],["RP11-518I13.1_ENSG00000227360.1",0.1571932810420283,-4.855828479524824,757],["LDHAL6DP_ENSG00000250257.1",0.1516947526839008,-4.556483532157564,757],["RP11-167H9.5_ENSG00000241048.1",0.15318226388001585,-4.636456183557211,757],["KRT8P2_ENSG00000258828.2",0.16086518863149962,-5.061444397770442,757]],"bottom":[]}}}
{"ccle_rrbs_tss_clusters":{"corr":{"top":[["TAP1_2",0.3486654745164729,-22.532726481187048,764],["TAP1_3",0.9382191661056425,-177.87625200165866,385],["UBE2L6_1",0.3520823907824837,-22.988512588838088,764],["EPN1_3",0.37142284926667585,-25.64309650124969,763],["PSMB8_1",0.40186643885534096,-30.252303255536532,763]],"bottom":[["KHDC4_2",-0.28514435818048756,-6.255084959766035,298],["CPSF4_1",-0.1860333150569527,-6.461287920379841,740],["PELI1_2",-0.19558605180430477,-3.327204577156448,316],["LCMT1-AS2_3",-0.2503161191153438,-11.53803738962457,756]]},"para":{"top":[["TAP1_3",0.9354489728888531,-174.3459687503338,385]],"bottom":[]}}}
{"ccle_rrbs_cgi_clusters":{"corr":{"top":[["19_56184108_56188884-3",0.37142284926667585,-25.64309650124969,763],["11_57332971_57337486-1",0.3520823907824837,-22.988512588838088,764],["6_32821609_32824370-2",0.8819166499729416,-125.11689361827639,381],["6_32821609_32824370-3",0.8556416030629517,-109.72647329699552,381],["11_63751414_63753934-3",0.33428826737366546,-12.273749107979258,442],["6_32821609_32824370-1",0.716347722128039,-120.49865955692236,764],["6_32809494_32813839-1",0.40186643885534096,-30.252303255536532,763]],"bottom":[["1_155902072_155906307-2",-0.28514435818048756,-6.255084959766035,298],["2_64368888_64373811-2",-0.19558605180430477,-3.327204577156448,316],["7_99034099_99038892-1",-0.1860333150569527,-6.461287920379841,740],["19_34848071_34852587-3",-0.23806633806788458,-3.6915012800960896,239],["3_138551159_138556078-2",-0.2548585995823549,-9.578745797354923,597],["9_132176205_132178890-3",-0.19772597849972043,-7.438155501128866,763]]},"para":{"top":[["6_32821609_32824370-2",0.7770250203094033,-77.46738236432326,381],["6_32821609_32824370-3",0.8514542944725063,-107.55705698293377,381],["6_32821609_32824370-1",0.5816088932411587,-69.62524807554777,764]],"bottom":[["16_838358_841341-2",-0.15853066800992816,-3.0841489201993753,442],["1_234611936_234614454-1",-0.15788236323764362,-1.7872675237302962,231],["8_145652517_145656810-2",-0.21952238470364732,-4.023047078432076,311]]}}}
