{"depmap_hotspot":{"corr":{"top":[["CCND3",0.24247153751938583,-11.803885555370101,20.0,807.0],["IGLL5",0.3470841199467256,-24.096677845160922,39.0,788.0]],"bottom":[]},"para":{"top":[["AKIRIN2",0.09970253777137746,-2.680715741777416,13.0,814.0],["CCND3",0.1742090781857287,-6.556899631552933,20.0,807.0],["FAM219A",0.11009663728860138,-3.1082085604252545,9.0,818.0],["HRH1",0.1392050366033137,-4.499864353588435,19.0,808.0],["IGLL5",0.1936519413058883,-7.883096820270798,39.0,788.0],["MMP7",0.11584147062129392,-3.3602366742783323,12.0,815.0],["NKAIN1",0.09817019838770404,-2.620489909794785,8.0,819.0],["TEF",0.12474416661537296,-3.772787122695098,20.0,807.0],["UBE2V2",0.11909643788443704,-3.507839680132923,11.0,816.0],["VAPA",0.11391542822245813,-3.2747013586467597,17.0,810.0],["ZFAND6",0.14556981038490588,-4.842226356251371,11.0,816.0]],"bottom":[["IGF2",-0.09683314157194423,-2.5691352272094745,20.0,807.0],["LYZL6",-0.09017676282060216,-2.3201572665996366,10.0,817.0],["ZFYVE21",-0.09441707484217336,-2.4770441315156138,14.0,813.0]]}}}
{"depmap_damaging":{"corr":{"top":[["PRKAA2",0.22497617081804022,-10.211258763467809,30.0,796.0]],"bottom":[]},"para":{"top":[["GSPT1",0.08343125523026154,-2.0811779739916405,9.0,817.0],["SHROOM2",0.09387151993312282,-2.4541747232189626,8.0,818.0]],"bottom":[["GIN1",-0.09416951701155755,-2.465526926481917,12.0,814.0],["NT5DC2",-0.10479110668566932,-2.882744851685596,8.0,818.0],["PCNXL4",-0.08559121962184724,-2.1555803981735697,13.0,813.0],["TMEM132C",-0.06810359247397128,-1.5974424294837604,9.0,817.0]]}}}
{"ccle_rrbs_enhancer_clusters":{"corr":{"top":[["1-10849570-10854173-0_enh",0.7933945844761615,-178.23970139102818,822]],"bottom":[]},"para":{"top":[],"bottom":[]}}}
{"prism_primary_logfold":{"corr":{"top":[["iproniazid_BRD-K88568253-011-19-9::2.5::HTS",0.1721519052553103,-3.718140015931571,465]],"bottom":[]},"para":{"top":[["iproniazid_BRD-K88568253-011-19-9::2.5::HTS",0.17015684570113476,-3.6429094710487,465]],"bottom":[["rosoxacin_BRD-K49841478-001-01-6::2.690488579::MTS004",-0.15977173962428945,-3.2345177889346353,460]]}}}
{"prism_secondary_logfold":{"corr":{"top":[["alectinib_BRD-K11267252-001-04-4::10::HTS002",0.20860282044992254,-4.248025437173142,367]],"bottom":[]},"para":{"top":[["carboxypyridine-disulfide_BRD-K26530649-001-01-6::0.000610352::MTS006",0.21400861680924174,-4.896749671008646,409],["FR-122047_BRD-K30990140-003-02-4::0.15625::HTS002",0.15915496853790542,-2.888400740590669,406],["LY3023414_BRD-K82967180-001-01-6::0.009765623::MTS006",0.17228809239089868,-3.35310108124844,412]],"bottom":[]}}}
{"depmap_gene_tpm":{"corr":{"top":[],"bottom":[["TEAD4_7004",-0.6369210296686735,-94.1213870971199,823]]},"para":{"top":[],"bottom":[]}}}
{"avana":{"corr":{"top":[],"bottom":[["AK2_204",-0.3532142502461162,-14.441825903272441,467]]},"para":{"top":[["CD2_914",0.16753096387865435,-3.5583516379643005,467],["HSPB9_94086",0.19919029202500335,-4.839390251972426,467],["OR5H2_79310",0.18855474710212738,-4.385058768566431,467],["TENT5C_54855",0.1999690160052387,-4.873625337130139,467]],"bottom":[["LOXL2_4017",-0.18775960628969846,-4.319202965899413,463],["OR8A1_390275",-0.193338176064655,-4.5863558522276895,467],["PRAG1_157285",-0.18066082169473116,-4.063638523311892,467]]}}}
{"drive":{"corr":{"top":[["PTPN21_11099",0.3654284858654097,-10.69149946867253,316],["RBM34_23029",0.37225105500284233,-11.096396668205443,316],["EPB41L3_23136",0.32024960975347255,-8.241787281969613,316],["AMT_275",0.3378098553263214,-9.147423066298662,316],["MYO7A_4647",0.317942591925539,-8.127050018858483,316]],"bottom":[["POU2AF1_5450",-0.5022365213428633,-20.998821777948745,318]]},"para":{"top":[["USP49_25862",0.19197613788912746,-3.2210037789368298,316],["GRM4_2914",0.19860891715061543,-3.417590164430548,316],["C1QA_712",0.1861416177204438,-3.053329126189039,316]],"bottom":[["ZNF24_7572",-0.2116239563941799,-3.843197550983291,318]]}}}
{"achilles":{"corr":{"top":[],"bottom":[["CCND3_896",-0.3656370134420393,-12.61015211320313,376]]},"para":{"top":[["ERI2_112479",0.3067418624362556,-5.382450182618037,217]],"bottom":[["DIAPH1_1729",-0.28969680417593674,-4.838730122841291,217],["TAPT1_202018",-0.25807998157504813,-3.919071771665344,217],["KAT6B_23522",-0.21910454376451252,-4.741386055914394,376],["SAMD7_344658",-0.23631347732283525,-3.350034356867406,217],["NDNF_79625",-0.22634496193504616,-3.1061953409071954,217]]}}}
{"ccle_rrbs_tss1kb":{"corr":{"top":[["LOC100506125_12_49182358_49183358",0.8185406401871961,-200.08748307331803,827],["RASAL2_1_178061863_178062863",0.801136801922922,-184.05442743398496,821],["EMP2_16_10674573_10675573",0.7952604992245347,-179.01817731810274,819],["CYFIP1_15_22891613_22892613",0.8347846675723511,-213.7469216081966,821],["TEAD4_12_3067747_3068747",0.9850520334533153,-323.0051853474518,827],["CTBP2_10_126849110_126850110",0.8004243273428576,-184.8235122159098,827],["LOC100506125_12_49181929_49182929",0.807012583975823,-189.95736739001953,826],["ADCY6_12_49182879_49183879",0.7951416524626762,-180.66680742005622,827],["CTBP2_10_126848604_126849604",0.798520098817773,-182.8694756216581,825],["MYO10_5_16936385_16937385",0.7925583063489958,-178.6784071553086,827],["CYFIP1_15_22891218_22892218",0.793629048573334,-172.1524615244272,793],["RBPMS_8_30241016_30242016",0.7931570186226412,-176.54908357856158,815]],"bottom":[]},"para":{"top":[["CTBP2_10_126847687_126848687",0.5308569050960698,-60.43947109948107,825],["TEAD4_12_3067747_3068747",0.8710887537887504,-256.26275464267366,827],["PTK2_8_142011144_142012144",0.48497599896947596,-49.28073253273065,827]],"bottom":[]}}}
{"ccle_gene_tpm":{"corr":{"top":[],"bottom":[["TEAD4_ENSG00000197905.4",-0.6376024144787037,-94.04183893411685,820]]},"para":{"top":[],"bottom":[]}}}
{"ccle_rrbs_tss_clusters":{"corr":{"top":[["EPHB4_1",0.8225462665600667,-203.69430208766218,827],["TEAD4_1",0.9592755659755398,-323.0051853474518,827],["GNG12-AS1",0.8199610021281253,-201.3561413080677,827],["LOC100506125_2",0.8172136809746645,-198.91226995998653,827],["CTBP2_8",0.7995027323083532,-184.08938467403624,827],["CYFIP1_1",0.803810229796671,-183.71499625279557,810],["CTBP2_1",0.8090832518027118,-191.91487344109615,827],["MPP3_1",0.8292855305595735,-209.97273011031248,827],["RBPMS_3",0.7972940760104751,-182.3455341952144,827],["CTBP2_6",0.8042856326029946,-187.94181532817782,827]],"bottom":[]},"para":{"top":[["DZIP1L_1",0.5210838527862568,-58.02951141434467,827],["TEAD4_1",0.7108611493320105,-127.50121480110771,827],["ITGA9-AS1_2",0.5084474458864481,-54.717426805115494,825],["ATN1_3",0.5285416391921427,-59.97108803225963,827]],"bottom":[["SYNRG_2",-0.31565491412507224,-19.47130295917589,810]]}}}
{"ccle_rrbs_cgi_clusters":{"corr":{"top":[["12_3065960_3068702-2",0.8454524986669609,-70.14946083880784,255],["12_49180421_49184658-3",0.8172136809746645,-198.91226995998653,827],["1_10851894_10855429-1",0.8283912252145577,-208.87187984132007,826],["2_236399799_236402873-3",0.8129998289700617,-194.06715589106682,822],["17_41908030_41912818-1",0.8292855305595735,-209.97273011031248,827],["12_3068702_3071444-1",0.9165639825452045,-323.0051853474518,825],["12_3065960_3068702-1",0.9878983963696077,-323.0051853474518,827],["1_68296371_68301315-1",0.8199610021281253,-201.3561413080677,827],["1_8083554_8086204-2",0.8531458716961547,-232.93718905018727,821],["1_178060712_178063279-1",0.8166101372809238,-197.90301945554802,825],["15_22889937_22892967-2",0.8132690806214479,-195.4745434067117,827],["7_100422424_100425025-1",0.8145208930758524,-196.55658689748626,827]],"bottom":[]},"para":{"top":[["12_3065960_3068702-2",0.6755134474015282,-34.61059497468561,255],["12_7034955_7039924-3",0.5285416391921427,-59.97108803225963,827],["12_3065960_3068702-1",0.8992759802971242,-297.8004715194842,827],["21_27542709_27545524-1",0.5041839989491375,-53.74021438757732,826],["3_137831848_137836592-2",0.5210838527862568,-58.02951141434467,827]],"bottom":[["17_35966980_35971757-2",-0.31565491412507224,-19.47130295917589,810]]}}}
