{"depmap_hotspot":{"corr":{"top":[["ACADVL",0.14468039255163734,-4.523568260623226,37.0,789.0],["ACP6",0.15190954755336739,-4.935142059153049,22.0,804.0],["AREG",0.1313711509249743,-3.8156400410666356,29.0,797.0],["C17orf53",0.1356079495990045,-4.0340481354118385,41.0,785.0],["C1orf63",0.15928718976461273,-5.375054737125645,22.0,804.0],["C22orf24",0.19146526143292528,-7.533718852878686,8.0,818.0],["CMTM6",0.21779467133990177,-9.599512803447901,8.0,818.0],["CSNK1A1",0.23087588331694833,-10.72961242245314,20.0,806.0],["CXCL6",0.14963558366571028,-4.803609555319493,10.0,816.0],["EIF4G2",0.14034898101005228,-4.28613046908584,40.0,786.0],["ELP6",0.2516459958683526,-12.669898705335259,19.0,807.0],["EXOSC3",0.15779913062847115,-5.284698151846269,11.0,815.0],["FASTKD3",0.17092827051660414,-6.110532197790809,36.0,790.0],["FOXN2",0.1358425154977728,-4.0463289390846,29.0,797.0],["IRF1",0.13092631939268268,-3.7930830117142142,23.0,803.0],["KRTAP4-7",0.18779671630963288,-7.267569402172776,13.0,813.0],["LRRC2",0.14711463947689704,-4.660014159097698,17.0,809.0],["NPIPB7",0.22179593650556115,-9.937762776287343,8.0,818.0],["OR13H1",0.16939840172262507,-6.010964029785305,11.0,815.0],["OXER1",0.16015332649012295,-5.428027442956584,19.0,807.0],["PHF15",0.1449314237591101,-4.5375389663730985,35.0,791.0],["PIR",0.16848558215179957,-5.951976652977625,26.0,800.0],["RHCE",0.17966439327746325,-6.696144327228108,17.0,809.0],["S100A7",0.21682552109793482,-9.518562175989768,8.0,818.0],["SFXN1",0.19478768336764182,-7.77928326884649,12.0,814.0],["SLC35B1",0.16618557976047438,-5.804741860412446,20.0,806.0],["TBC1D17",0.1382903770249919,-4.175674071832289,37.0,789.0],["TEX30",0.1759455476718604,-6.443301497847917,16.0,810.0],["TSPYL5",0.1391575545930201,-4.222015977624466,26.0,800.0],["VNN1",0.17025080640291185,-6.066331676884836,32.0,794.0],["WDR41",0.18254372521370973,-6.895549133072757,19.0,807.0]],"bottom":[]},"para":{"top":[["BDH2",0.10311343819627294,-2.8145294808198917,13.0,813.0],["C20orf144",0.12091052929016793,-3.588238934416461,11.0,815.0],["FGF11",0.12318922772679035,-3.6950044240527404,11.0,815.0],["FRS2",0.1240538507117919,-3.7362930448899947,22.0,804.0],["SHBG",0.12146809439002641,-3.6143833791723194,16.0,810.0]],"bottom":[]}}}
{"depmap_damaging":{"corr":{"top":[["ACADVL",0.21668099729494028,-9.495828794226137,17.0,808.0],["COL21A1",0.1985835621733729,-8.05614695426527,17.0,808.0],["FOXN2",0.1516909888459796,-4.917120638821593,14.0,811.0],["MPHOSPH9",0.11498700298385316,-3.028156283334297,29.0,796.0],["OXNAD1",0.10430014790658255,-2.5678644200922864,21.0,804.0],["RASA1",0.11317840100377928,-2.947467756357473,21.0,804.0],["TEX10",0.2243540973107998,-10.145968581442448,15.0,810.0]],"bottom":[]},"para":{"top":[["ACADVL",0.10268489793572429,-2.7947967292735965,17.0,808.0],["CCDC41",0.12065802427909145,-3.573010633976628,9.0,816.0],["CPXM2",0.12558180785679499,-3.805146961547106,8.0,817.0],["STON1",0.1437291591833082,-4.732399060893723,15.0,810.0]],"bottom":[["NCKAP1",-0.08232274057746934,-2.042092169189149,13.0,812.0],["SPTBN5",-0.10196955946453812,-2.7661309161572123,22.0,803.0],["WWC1",-0.08720125967742291,-2.2098316540246747,8.0,817.0]]}}}
{"prism_primary_logfold":{"corr":{"top":[["dibutyl-phthalate_BRD-K73477617-001-08-5::2.5::HTS",0.15767400454639716,-3.2320853645522587,472]],"bottom":[["sobetirome_BRD-K85406984-001-01-0::2.5::HTS",-0.17555480747038366,-3.7617109089379697,453]]},"para":{"top":[],"bottom":[]}}}
{"prism_secondary_logfold":{"corr":{"top":[["S26948_BRD-K48826825-001-01-8::2.5::HTS002",0.17024749275237794,-3.2707416539019487,410]],"bottom":[["CS-110266_BRD-K15519488-050-01-3::0.15625::HTS002",-0.1823937969203777,-3.6497040496907327,405],["BVD-523_BRD-K28965160-001-01-1::0.625::HTS002",-0.1804940986893279,-3.606299454930604,408],["tivantinib_BRD-K33379087-001-07-5::0.00061034::HTS002",-0.19983958085785508,-4.262915662569961,402],["metyrapone_BRD-K46862739-001-14-3::0.000610352::MTS006",-0.2158936950902563,-4.997028814632526,411],["raloxifene_BRD-K63828191-003-32-1::2.5::HTS002",-0.21600810605384194,-3.7105337928106854,293],["golvatinib_BRD-K69001009-001-02-8::0.0391::MTS010::PROS001_PR500",-0.1953542688913462,-4.075943469367685,400],["finafloxacin_BRD-K98384930-003-01-5::0.15625::HTS002",-0.20333155333650688,-4.426154563092099,405]]},"para":{"top":[["ethinyl-estradiol_BRD-K48195008-001-19-9::0.625::HTS002",0.2266097189557383,-2.3394525042747367,155]],"bottom":[["GDC-0980_BRD-K23228615-001-02-8::0.625::HTS002",-0.21889562984197766,-4.14923942131964,324],["TG-101209_BRD-K39841531-001-02-1::0.15625::HTS002",-0.20413401693292424,-4.4575561932635726,405],["MLN0128_BRD-K59317601-001-05-5::0.0390625::HTS002",-0.21134425136245547,-3.8973825688071564,324],["AZD8055_BRD-K69932463-001-10-6::0.0390625::HTS002",-0.19723477397777742,-4.100487091680994,395]]}}}
{"depmap_copy_number":{"corr":{"top":[["LINC00507_100862680",0.19555769097601058,-7.828095014870311,825],["LINC02359_101927464",0.18489947283748276,-7.053264875256621,825],["LINC02375_101927616",0.1955195179908564,-7.825240950039437,825],["LINC02411_101927637",0.1957549981603277,-7.842856102097947,825],["LINC00508_104472718",0.19555769097601058,-7.828095014870311,825],["LOC105370068_105370068",0.1957549981603277,-7.842856102097947,825],["TMEM132B_114795",0.18288572226810448,-6.911810615013867,825],["LINC00939_400084",0.1844933877302344,-7.024614001926744,825],["LINC02393_400087",0.19555769097601058,-7.828095014870311,825],["AACS_65985",0.18338456700408662,-6.9467060605353455,825]],"bottom":[["SLC15A4_121260",-0.15868552289820936,-5.332640316043674,825]]},"para":{"top":[],"bottom":[]}}}
{"depmap_gene_tpm":{"corr":{"top":[["MUCL3_135656",0.2606119827982943,-13.501990756607684,822]],"bottom":[]},"para":{"top":[],"bottom":[]}}}
{"avana":{"corr":{"top":[["INSIG2_51141",0.18833364322913224,-4.367607815972109,466],["NCEH1_57552",0.19571122401827498,-4.679153787985124,466]],"bottom":[["SCN4A_6329",-0.18005581047913177,-4.031976587031957,466]]},"para":{"top":[["CNTNAP4_85445",0.1722669531192104,-3.7294632744633223,466],["HMHB1_57824",0.17974290570201407,-4.019576225749723,466],["HS3ST2_9956",0.17806317305077948,-3.9533637192293702,466],["OR6S1_341799",0.18327864730502239,-4.160908868899989,466]],"bottom":[["EXOC6_54536",-0.1686280046619435,-3.5925020757254162,466]]}}}
{"drive":{"corr":{"top":[],"bottom":[]},"para":{"top":[],"bottom":[["NPTXR_23467",-0.22327197676523344,-4.193732758076023,315]]}}}
{"achilles":{"corr":{"top":[],"bottom":[["SAP30BP_29115",-0.2539266742418149,-3.791169682591086,216]]},"para":{"top":[],"bottom":[["SLC38A4_55089",-0.199397367673674,-3.9851885193949066,374]]}}}
{"ccle_rrbs_tss1kb":{"corr":{"top":[["ADAT2_6_143771841_143772841",0.5321555377823644,-60.34899816468868,819],["CCDC59_12_82752199_82753199",0.542832909263433,-63.677738084234385,825],["DIS3_13_73356266_73357266",0.5845523062221141,-76.13373767508988,826],["SCYL3_1_169863100_169864100",0.5091339915713301,-52.989252674252754,796],["PCM1_8_17779365_17780365",0.5663024004749585,-70.07934846979857,821],["EIF1B-AS1_3_40351189_40352189",0.5218324070030915,-58.083641367771115,825],["RPS17_15_82824865_82825865",0.5144439266309858,-51.246901670275626,751]],"bottom":[["MIR590_7_73604527_73605527",-0.21095584281107063,-8.742301392968816,797],["TLR8_23_12923738_12924738",-0.1546541995123628,-4.212625709514996,666],["MRGPRF-AS1_11_68778821_68779821",-0.140265717991939,-4.236087120803598,816],["SCARNA22_4_1975362_1976362",-0.15211077684971505,-4.8189967043276,802]]},"para":{"top":[],"bottom":[["FAM71F1_7_128354395_128355395",-0.21769421556716295,-3.2892106123931772,251]]}}}
{"ccle_gene_tpm":{"corr":{"top":[["DIS3L2P1_ENSG00000223788.4",0.26381740027648487,-13.780782815574605,819],["RP11-63K6.5_ENSG00000219240.2",0.5068511757396807,-53.937448482832515,819],["RP11-10C8.2_ENSG00000253932.1",0.2243223908182685,-10.074441630719955,819],["DPCR1_ENSG00000168631.7",0.2600784140882271,-13.401668041875666,819],["RPLP2P1_ENSG00000214374.2",0.24450956328556434,-11.887258116973346,819]],"bottom":[]},"para":{"top":[["TEKT1_ENSG00000167858.8",0.15075030319196883,-4.831212489314435,819],["RP11-99A14.1_ENSG00000253273.2",0.14317702692681308,-4.407217419221708,819]],"bottom":[]}}}
{"ccle_rrbs_tss_clusters":{"corr":{"top":[["RPS17",0.5144439266309858,-51.246901670275626,751],["TRIM11_1",0.5210304273672106,-57.946737433998265,826]],"bottom":[["SNORA30",-0.20090261326722827,-8.09538263369271,810],["LPAR2_3",-0.25492157498110113,-12.561918887951201,797],["LINC01214_2",-0.1865817881800975,-6.113451801762172,692],["INE1_1",-0.18698329342788045,-6.913946459277363,789],["OGA_2",-0.21684868517964925,-4.872963264037618,396]]},"para":{"top":[],"bottom":[["PPP2R5E_1",-0.16144357816842309,-5.274082021065257,787],["PTPMT1_1",-0.1560151545299122,-5.076732826286947,808],["CBFB_1",-0.15554826674212444,-4.860036416118466,774]]}}}
{"ccle_rrbs_cgi_clusters":{"corr":{"top":[["17_7143479_7146094-1",0.49234323489901427,-50.679054467163155,822],["7_102982857_102987337-2",0.5720493227075442,-72.23639011371488,826],["8_17778032_17780652-1",0.5247780143846872,-58.70437558466528,823],["1_228591811_228596713-1",0.5210304273672106,-57.946737433998265,826],["15_82824806_82827321-1",0.5144439266309858,-51.246901670275626,751],["11_118886878_118889496-1",0.8966513532536461,-293.084479595811,826]],"bottom":[["19_36126102_36130416-2",-0.27544671231756573,-14.703081162251866,802],["19_56174635_56178918-2",-0.3086579896383542,-9.21613454839177,385],["19_19739196_19741821-3",-0.25492157498110113,-12.561918887951201,797],["19_15533459_15537853-2",-0.24496573109913444,-10.586552940714345,721]]},"para":{"top":[["11_118886878_118889496-1",0.7983174694005183,-182.93035584297024,826]],"bottom":[["11_47584848_47589608-1",-0.1560151545299122,-5.076732826286947,808]]}}}
