{"depmap_hotspot":{"corr":{"top":[],"bottom":[["ACAD11",-0.09225259356973246,-2.112613609899487,43.0,790.0],["ACMSD",-0.10011140193586843,-2.4174718255366336,18.0,815.0],["BEND4",-0.09045687490538981,-2.0459163745989675,30.0,803.0],["BST1",-0.10169673369260748,-2.4815445535400626,16.0,817.0],["C5orf42",-0.09879689110902799,-2.3650025187052366,141.0,692.0],["C8orf34",-0.11165610629725124,-2.9040465804687186,43.0,790.0],["CDKN1A",-0.09025073414475455,-2.0383299169175477,26.0,807.0],["COPS5",-0.12578379357839434,-3.5633192001917546,18.0,815.0],["CSPP1",-0.09193254109249538,-2.1006457974966883,55.0,778.0],["DFFA",-0.11473386195107373,-3.041640940410477,13.0,820.0],["EPHA6",-0.09693205719100007,-2.29158742918487,97.0,736.0],["FRK",-0.09542922680570803,-2.233292661754583,29.0,804.0],["GH1",-0.10395117792331099,-2.574158481554401,17.0,816.0],["HNRNPL",-0.09490921501369844,-2.2133016075846688,26.0,807.0],["IFI27",-0.10520237915568031,-2.626319906763093,17.0,816.0],["KALRN",-0.09782705326592361,-2.3266725555703576,150.0,683.0],["KIAA1462",-0.09943904282884933,-2.390559873473763,78.0,755.0],["KRTAP10-2",-0.10169035558137317,-2.48128503496645,13.0,820.0],["KRTAP25-1",-0.09025025360608924,-2.038312248826509,17.0,816.0],["OR10A2",-0.09638105669410613,-2.2701242103090946,19.0,814.0],["PAICS",-0.10176081385461903,-2.484152688529882,21.0,812.0],["PDAP1",-0.11260506495405906,-2.9461149601015766,9.0,824.0],["PLIN1",-0.12707703222360758,-3.6272260312214244,22.0,811.0],["POLR2E",-0.0945107077767996,-2.19804422519191,20.0,813.0],["PPIAL4G",-0.09776649906838866,-2.324290062527442,8.0,825.0],["PPP1R3A",-0.13975965498540704,-4.285998175954442,99.0,734.0],["RAB14",-0.09691046276345783,-2.2907442959554,17.0,816.0],["RGS4",-0.09427779459082385,-2.1891519734206484,14.0,819.0],["SLC22A5",-0.09810231809292251,-2.3375186897013758,27.0,806.0],["SLC24A5",-0.12197935997147781,-3.378795745069311,35.0,798.0],["SPATA16",-0.11362174584085255,-2.9915373502362357,42.0,791.0],["STK4",-0.09262794705136519,-2.126693749641376,29.0,804.0],["SYT9",-0.1084259669121899,-2.763221065402287,27.0,806.0],["TOR1AIP2",-0.09227154228134661,-2.113323257852875,30.0,803.0],["WDR37",-0.10677869489987937,-2.692810780553268,21.0,812.0],["XPO6",-0.10390779531039876,-2.5723596601823226,48.0,785.0],["ZNF253",-0.0994879516015069,-2.392512245371372,40.0,793.0]]},"para":{"top":[["C20orf195",0.12150524496153507,-3.640119719814867,13.0,820.0],["LY6D",0.13085553309804768,-4.094709532297267,9.0,824.0],["MEPE",0.09706463721473911,-2.5916577623737878,21.0,812.0]],"bottom":[["COPS5",-0.12366466927024057,-3.7426430299811764,18.0,815.0],["DFFA",-0.11561875631488534,-3.369099162147116,13.0,820.0],["GAPT",-0.0817094067611735,-2.0347205022177937,10.0,823.0],["IFI27",-0.10621086699883645,-2.9604391583791236,17.0,816.0],["KRTAP10-2",-0.09765481682424741,-2.6144484546153524,13.0,820.0],["METRN",-0.07711673009201689,-1.8833057678356864,11.0,822.0],["MRPS18A",-0.07184394089588769,-1.717749140556523,8.0,825.0],["MYOT",-0.1040780708230131,-2.871991785413593,21.0,812.0],["NDUFS4",-0.08279516930507375,-2.071530588350919,10.0,823.0],["PDAP1",-0.1131388085127065,-3.258263983689861,9.0,824.0],["PGP",-0.10977034585845895,-3.111603113393621,18.0,815.0],["RAB14",-0.09270541415043354,-2.4256222590419467,17.0,816.0],["RGS4",-0.09257465179423244,-2.4206749856343137,14.0,819.0],["SFT2D1",-0.08428790242777615,-2.1228368577147685,12.0,821.0],["TCEANC2",-0.0721535018620459,-1.7272138879880468,8.0,825.0],["WDR37",-0.10669406550985212,-2.980779648445589,21.0,812.0]]}}}
{"depmap_damaging":{"corr":{"top":[],"bottom":[["ASTN1",-0.10005505474905055,-2.4128055982422367,9.0,823.0],["ATF6",-0.07374746018104981,-1.4758851976138585,10.0,822.0],["COL4A3",-0.09010824056971636,-2.031110268849216,15.0,817.0],["MKKS",-0.06935489888247381,-1.341885152872913,8.0,824.0],["MYH14",-0.10467665945657226,-2.6017217335933727,18.0,814.0],["NFKBIZ",-0.09466426247552241,-2.201745396781377,8.0,824.0],["PITPNM1",-0.10761782513631352,-2.7258059873593474,9.0,823.0],["RGL2",-0.08088271326491109,-1.7070618325854723,8.0,824.0],["RLF",-0.12356741698920418,-3.451617728627955,21.0,811.0],["SIDT1",-0.1104366169887476,-2.847559830051304,9.0,823.0],["SULT1B1",-0.10477680890659354,-2.605897431220448,9.0,823.0],["TRIM33",-0.09666278342942586,-2.2788288348173347,8.0,824.0],["VCPIP1",-0.07183047346289842,-1.4166312398788354,8.0,824.0]]},"para":{"top":[["ANO4",0.114292713065939,-3.3068671704900994,26.0,806.0],["LRRC27",0.0876117062067345,-2.2375100677290907,8.0,824.0],["NT5C1A",0.08900729090737278,-2.2875453146733373,8.0,824.0],["SPHKAP",0.0830469687872413,-2.0784842002873587,12.0,820.0],["VAV3",0.11768223141692427,-3.4595266349154814,13.0,819.0],["VWA8",0.1175616530242876,-3.454260318463009,24.0,808.0]],"bottom":[["ASTN1",-0.09737734459520328,-2.6012066442888715,9.0,823.0],["ATF6",-0.06885287838339586,-1.6267380463621166,10.0,822.0],["CENPT",-0.10048209844595382,-2.7233984995224625,8.0,824.0],["MYH14",-0.10123610589119597,-2.7539147210211814,18.0,814.0],["NFKBIZ",-0.09461547387104859,-2.4951008813821165,8.0,824.0],["RGL2",-0.07877300310269221,-1.9354567531563416,8.0,824.0],["RLF",-0.11698863000721779,-3.428111010691698,21.0,811.0],["SIDT1",-0.1086413238648537,-3.0601116644946837,9.0,823.0],["SULT1B1",-0.1049354259233237,-2.9044345161425764,9.0,823.0],["TRIM33",-0.09552001951035122,-2.529553837657178,8.0,824.0]]}}}
{"ccle_rrbs_enhancer_clusters":{"corr":{"top":[],"bottom":[]},"para":{"top":[["14-30739750-30742688-0_enh",0.3380484971906715,-22.988591070355614,833]],"bottom":[]}}}
{"prism_primary_logfold":{"corr":{"top":[],"bottom":[["ceftibuten_BRD-K11124378-001-04-6::2.5::HTS",-0.18781229243937742,-4.428215768699635,476],["balsalazide_BRD-K41410256-304-02-2::2.5::HTS",-0.18556601213198765,-4.269824525626955,468],["GKT137831_BRD-K79710622-001-02-9::2.5::MTS004",-0.19088748700877672,-4.4486613194538345,463]]},"para":{"top":[],"bottom":[["triptorelin_BRD-K62685538-001-01-7::2.5::HTS",-0.183857773571331,-4.239521363185923,473],["GKT137831_BRD-K79710622-001-02-9::2.5::MTS004",-0.20519400676106764,-5.067694472775156,463]]}}}
{"prism_secondary_logfold":{"corr":{"top":[["GDC-0980_BRD-K23228615-001-02-8::0.00977::MTS010::PROS004_PR500",0.2036843705662653,-4.478699033283033,409]],"bottom":[["CD-437_BRD-K28907958-001-04-3::0.0390625::HTS002",-0.17115127801039315,-3.307837769136945,411],["naproxen_BRD-K59197931-001-04-5::2.5::HTS002",-0.17803098415265606,-2.9798040090387405,336]]},"para":{"top":[["GDC-0980_BRD-K23228615-001-02-8::0.00977::MTS010::PROS004_PR500",0.21798186031862035,-5.063174532226564,409],["2-methoxyestradiol_BRD-K44408410-001-17-6::2.5::HTS002",0.19110179538307032,-4.0225790385565245,412]],"bottom":[["TAK-901_BRD-K01683783-001-02-6::0.00976562::HTS002",-0.17432248514990348,-3.4796301220647092,420],["eplerenone_BRD-K19761926-001-03-6::0.00956474::HTS002",-0.1940598360570216,-4.116281513344356,410],["CD-437_BRD-K28907958-001-04-3::0.0390625::HTS002",-0.1809285769679301,-3.6446408866969775,411]]}}}
{"ccle_proteomics":{"corr":{"top":[],"bottom":[["FARP2_H7C3M7",-0.3350601666739564,-3.266746399407738,103],["ALG13_Q9NP73-2",-0.23689594212638154,-4.32373445831208,289]]},"para":{"top":[],"bottom":[]}}}
{"avana":{"corr":{"top":[["CHN2_1124",0.16113589935362985,-3.3436948648800042,470],["FAM13A_10144",0.1894666521458598,-4.448135411331213,470]],"bottom":[["DNAH10_196385",-0.17163860752965784,-3.7332514898314573,470],["GSN_2934",-0.15805446145221624,-3.2337744168871767,470],["OR13C4_138804",-0.16996849729298902,-3.6697547375730792,470]]},"para":{"top":[["CHN2_1124",0.16308398377002511,-3.4142057702236177,470],["FAM13A_10144",0.1897617677396583,-4.460545367832368,470]],"bottom":[["EBLN2_55096",-0.17634752504704237,-3.915464141321187,470],["FBXO45_200933",-0.16950138569803253,-3.6521007741845373,470],["GPR137B_7107",-0.17667632103111455,-3.8991464192611844,466],["HTR2B_3357",-0.16545531269558642,-3.5011055269017386,470],["LY6G6C_80740",-0.16989501669887244,-3.666974569620648,470],["ZNF280C_55609",-0.18895299876483465,-4.185056784877042,441]]}}}
{"drive":{"corr":{"top":[["BCS1L_617",0.18806267833669188,-3.141676828289148,320]],"bottom":[]},"para":{"top":[["ZBTB8A_653121",0.23969885938040297,-4.8352489072777045,320]],"bottom":[]}}}
{"achilles":{"corr":{"top":[["GPANK1_7918",0.29019173284465577,-4.894082739703782,219]],"bottom":[]},"para":{"top":[["UBN2_254048",0.2709040351713806,-4.313426322546343,219]],"bottom":[["OVGP1_5016",-0.20723700381197221,-4.329199659680692,380]]}}}
{"ccle_rrbs_tss1kb":{"corr":{"top":[["CFHR5_1_196945666_196946666",0.4078846528719215,-34.00665818933362,833],["LINC00445_13_36270660_36271660",0.3861463088213799,-30.285045042305516,833]],"bottom":[]},"para":{"top":[["CFHR5_1_196945666_196946666",0.39448325221023445,-31.67965744366766,833],["LINC00445_13_36270660_36271660",0.36937851395314997,-27.59926283902689,833]],"bottom":[]}}}
{"ccle_gene_tpm":{"corr":{"top":[],"bottom":[]},"para":{"top":[],"bottom":[]}}}
{"ccle_rrbs_tss_clusters":{"corr":{"top":[["TRPC3_6",0.7339323119457897,-134.46006966119336,794],["TRPC3_5",0.45413044640995015,-39.31490585735816,762],["CFHR5",0.4078846528719215,-34.00665818933362,833]],"bottom":[]},"para":{"top":[["TRPC3_6",0.7165878355840616,-125.31787683658536,794],["TRPC3_5",0.4845057113851269,-45.37956938069329,762],["CFHR5",0.39448325221023445,-31.67965744366766,833]],"bottom":[["UGT8_5",-0.16609684362097546,-3.1013772997358626,405]]}}}
{"ccle_rrbs_cgi_clusters":{"corr":{"top":[["4_122851554_122856169-2",0.45413044640995015,-39.31490585735816,762],["4_122851554_122856169-3",0.7339323119457897,-134.46006966119336,794]],"bottom":[]},"para":{"top":[["4_122851554_122856169-2",0.4845057113851269,-45.37956938069329,762],["4_122851554_122856169-3",0.7165878355840616,-125.31787683658536,794]],"bottom":[["4_115517422_115520177-3",-0.16609684362097546,-3.1013772997358626,405],["5_180608053_180612263-2",-0.14527644012654017,-2.275990320791552,367]]}}}
