{"depmap_hotspot":{"corr":{"top":[["B4GALT6",0.16729319087371491,-5.663750621447474,20.0,773.0],["CASQ2",0.17140812826625001,-5.91999046632961,17.0,776.0],["CCNH",0.1408110219447422,-4.159601700848427,13.0,780.0],["COMMD7",0.15510407182888644,-4.940501230568314,12.0,781.0],["DNAJC4",0.17540936581909986,-6.175051033263763,9.0,784.0],["FAHD2A",0.14615007581307055,-4.4428969043816995,20.0,773.0],["FANCG",0.13592507857082006,-3.9090532787103554,28.0,765.0],["FDXR",0.13879592348230807,-4.055264109951642,28.0,765.0],["GPR1",0.14722809521127692,-4.501309236460572,14.0,779.0],["HEBP1",0.19782049249535907,-7.71276054413631,12.0,781.0],["KISS1R",0.14822640460187297,-4.5557667841468295,19.0,774.0],["LCNL1",0.17446194054958228,-6.114129541511317,8.0,785.0],["OR51H1P",0.15209923573127965,-4.770353418771166,12.0,781.0],["PLEKHB1",0.15667208509284766,-5.030562576047911,16.0,777.0],["REG3A",0.1637806797712901,-5.449866402879483,22.0,771.0],["SEPHS2",0.17602443787316613,-6.214777079372025,23.0,770.0],["SPP2",0.260048520691844,-12.996541014205967,10.0,783.0],["TMEM215",0.1461976505201326,-4.445466125713202,13.0,780.0],["TSNARE1",0.14686854622642517,-4.481781752990425,38.0,755.0]],"bottom":[["ZFC3H1",-0.07633081740411654,-1.5001025616129806,72.0,721.0]]},"para":{"top":[],"bottom":[]}}}
{"depmap_damaging":{"corr":{"top":[["DDR2",0.18612811261114373,-6.87932953598246,8.0,784.0],["DNMT3A",0.22203342198576792,-9.576038602453407,12.0,780.0],["MMRN1",0.1602105316024322,-5.2311197588682505,10.0,782.0],["NCOA2",0.16408723229193908,-5.462175396940972,10.0,782.0]],"bottom":[]},"para":{"top":[["ATP2B2",0.11612250292176003,-3.2613675217783036,8.0,784.0]],"bottom":[]}}}
{"ccle_rrbs_enhancer_clusters":{"corr":{"top":[],"bottom":[]},"para":{"top":[],"bottom":[["2-85995467-85999236-1_enh",-0.11011546997044666,-2.62591903809951,760]]}}}
{"prism_primary_logfold":{"corr":{"top":[["saxagliptin_BRD-A81513827-001-03-6::2.5::HTS",0.16895735983801466,-3.477238669013958,447]],"bottom":[]},"para":{"top":[["oxazepam_BRD-A50049929-001-01-9::2.5::HTS",0.1509004397219711,-2.8833140018936168,451]],"bottom":[["telotristat_BRD-K63178091-001-01-1::2.5::HTS",-0.1753268773401195,-3.781959299764708,457]]}}}
{"prism_secondary_logfold":{"corr":{"top":[["cinacalcet_BRD-K73838513-003-05-5::0.0390625::HTS002",0.1546888430418939,-2.4411836182295947,352]],"bottom":[["cyclophosphamide_BRD-A09722536-002-18-0::0.00976562::HTS002",-0.21512425996382645,-3.5520927102067175,281],["PSI-7976_BRD-K05674516-001-01-7::10::HTS002",-0.2300427841850084,-5.402853578051491,394],["merimepodib_BRD-K09372874-001-01-0::0.00976562::HTS002",-0.19292503536440378,-3.7503066126391,373],["BAN-ORL-24_BRD-K47049295-300-01-5::0.00976562::HTS002",-0.19059411413265132,-3.8161276534595703,390]]},"para":{"top":[["tamibarotene_BRD-K36627727-001-05-4::0.0390625::HTS002",0.19082999763818256,-3.833028668099385,391],["temoporfin_BRD-K63712959-001-01-8::0.0390625::HTS002",0.15333442926990212,-2.643356824853429,394],["fludarabine-phosphate_BRD-K71106091-001-06-1::2.5::HTS002",0.21532477379047335,-4.756981536912715,391],["chloropyramine_BRD-K83257731-003-23-5::0.00061034::HTS002",0.18335409325479382,-2.725252967598985,285],["skepinone-l_BRD-K83607951-001-02-2::0.625::HTS002",0.16547063475467375,-2.983669044084598,390]],"bottom":[["NSC-23766_BRD-A80213327-305-08-3::0.00061034::HTS002",-0.1602327394301735,-2.8790976633402248,399],["merimepodib_BRD-K09372874-001-01-0::0.00976562::HTS002",-0.20623091945134858,-4.2218863168281935,373],["trichostatin-a_BRD-K68202742-001-16-5::0.0411705::HTS002",-0.1706115226164632,-3.0482419955414146,376]]}}}
{"ccle_proteomics":{"corr":{"top":[],"bottom":[]},"para":{"top":[["GEN1_Q17RS7",0.30148393865607465,-3.6187579222476356,144]],"bottom":[["TECPR2_O15040",-0.2234185184700425,-3.2877945180957338,238]]}}}
{"depmap_gene_tpm":{"corr":{"top":[["TMC2_117532",0.22210716444214681,-9.548340091992879,789],["OR51S1_119692",0.248717845997936,-11.862654778422636,789]],"bottom":[]},"para":{"top":[["C16orf78_123970",0.141961757802508,-4.201140778995159,789],["OR1A2_26189",0.14303942387816757,-4.257679509607676,789],["OR4A15_81328",0.11795346158562184,-3.0449787959442878,789]],"bottom":[]}}}
{"avana":{"corr":{"top":[["DNAL1_83544",0.17751225266669998,-3.7841575749046092,446],["FGF20_26281",0.17457144030849076,-3.674682616484174,446],["MEIG1_644890",0.1972631883420515,-4.5650946735644915,446]],"bottom":[["DIRC2_84925",-0.16698145655787702,-3.400158667489004,446],["FGF7_2252",-0.15295516905327833,-2.922885604272012,446],["GREM1_26585",-0.18265350276117626,-3.9797500334933518,446],["MGAT3_4248",-0.16387097196123496,-3.2909717699428938,446],["RORB_6096",-0.16193629566991455,-3.224025536136928,446]]},"para":{"top":[["GNL3L_54552",0.1670120724117986,-3.2299908229548726,420],["ME1_4199",0.15102186954450916,-2.860121951028311,446],["MYLIP_29116",0.19918455668673396,-4.6453633011718845,446],["RIOX2_84864",0.18306422900447594,-3.964233961576345,442],["ZNF521_25925",0.16000921546051491,-3.158076351660578,446]],"bottom":[["C14orf39_317761",-0.18445015452422525,-4.049368922127956,446],["CYP46A1_10858",-0.1661490021570958,-3.3707489700467117,446],["IL16_3603",-0.1744521933662185,-3.670280280225812,446],["METTL23_124512",-0.1637842763190881,-3.2879559755779995,446],["WNT10A_80326",-0.1778874112364128,-3.798248811450229,446]]}}}
{"drive":{"corr":{"top":[],"bottom":[["LOC107987587&PGM5P2_107987587&595135",-0.19135084273524264,-3.1069206763200654,305]]},"para":{"top":[["L3MBTL1_26013",0.21211643692734786,-3.7209737803905822,305],["WDR33_55339",0.2084020538038312,-3.6066431614389334,305],["TSSK1B_83942",0.18281618198019056,-2.856031825070545,303]],"bottom":[]}}}
{"achilles":{"corr":{"top":[["TRHDE_29953",0.2814930451068983,-3.29610582155465,149],["ZRSR2_8233",0.2060711370487294,-4.066611804757775,358]],"bottom":[["HBP1_26959",-0.2036674135544024,-3.9825713574078043,358],["FZR1_51343",-0.2020677852670931,-3.9271810683848942,358]]},"para":{"top":[["MSTO2P_100129405",0.20894607164302162,-2.6205000958456077,209]],"bottom":[["CTSL3P_392360",-0.21235659833181053,-2.6940642497432377,209],["MRPS12_6183",-0.23674648578767515,-3.2534048498819685,209]]}}}
{"ccle_rrbs_tss1kb":{"corr":{"top":[],"bottom":[]},"para":{"top":[["SBDSP1_7_72298951_72299951",0.3262556923601922,-8.118131666638924,299]],"bottom":[]}}}
{"ccle_gene_tpm":{"corr":{"top":[["RP13-653N12.2_ENSG00000256659.1",0.2626404824856986,-13.139952658263354,786],["RP11-10O22.1_ENSG00000241168.1",0.29502237767279277,-16.52340485461485,786],["RP11-524L6.4_ENSG00000251419.1",0.26034686895488046,-12.917072876542743,786],["RP11-749H17.1_ENSG00000266988.1",0.2495888232083012,-11.90049579792227,786],["RP11-448N11.1_ENSG00000216859.1",0.26860078226168727,-13.729350050284067,786],["RP11-404L6.2_ENSG00000253787.1",0.24719908655687808,-11.681072985214454,786]],"bottom":[["AC005546.2_ENSG00000266897.1",-0.09861913130577148,-2.247648372734447,786]]},"para":{"top":[["ENOX1-AS2_ENSG00000238189.1",0.1481409781582315,-4.515607607189384,786],["CTD-2503O16.3_ENSG00000196390.6",0.16619652184331624,-5.5521320455897225,786],["OR4C50P_ENSG00000237610.1",0.14554968226058282,-4.376243511063018,786],["DEFB109P1B_ENSG00000206034.1",0.1361183255246079,-3.8886479102537717,786],["OR1A2_ENSG00000172150.4",0.14288939612463125,-4.235596213599145,786],["RN7SL139P_ENSG00000264065.1",0.146204775953589,-4.411254809232223,786],["DEFB109_ENSG00000205989.1",0.1361183255246079,-3.8886479102537717,786],["C16orf78_ENSG00000166152.3",0.14184695651629706,-4.181151868132914,786],["RP11-498M14.1_ENSG00000270818.1",0.16064850600589967,-5.221362812023189,786],["CTA-797E19.2_ENSG00000255539.1",0.14713368743602062,-4.461156129569965,786]],"bottom":[]}}}
{"ccle_rrbs_tss_clusters":{"corr":{"top":[["TYW1B",0.7484814248890322,-142.5240004412354,793]],"bottom":[["HMGB3_1",-0.18964966841710598,-4.035940168680342,420],["RPS6KB2_1",-0.20299449482550455,-3.842889363661943,346]]},"para":{"top":[["TYW1B",0.629057247521738,-87.8651079053567,793]],"bottom":[["PYCR2_3",-0.16535880367691344,-3.2525552538684526,432],["PEBP4_1",-0.17609988520679823,-4.50555497269089,553],["TRMT112_3",-0.17360632088235597,-4.651030312944942,590],["POP5_2",-0.23727453813071356,-4.984007652125667,338]]}}}
{"ccle_rrbs_cgi_clusters":{"corr":{"top":[["7_72296512_72300988-1",0.7484814248890322,-142.5240004412354,793]],"bottom":[["23_150149106_150151782-1",-0.18923535328661353,-2.3398041733715513,223],["19_49937610_49942045-3",-0.19377813952944253,-3.1934386933750774,307],["23_319270_321872-2",-0.19823329591130956,-5.6616768511775035,562],["8_144890920_144895468-2",-0.2245501375933028,-5.392025666566412,413]]},"para":{"top":[["7_72296512_72300988-1",0.629057247521738,-87.8651079053567,793]],"bottom":[["12_121020419_121024704-1",-0.23727453813071356,-4.984007652125667,338],["14_36984362_36988469-1",-0.20151547565832004,-3.0322728738962117,267],["10_38737405_38741704-2",-0.17152089911670065,-4.319335256210009,556],["7_6701503_6706075-3",-0.16912098072644746,-4.90846767265769,661],["8_144338060_144340585-1",-0.20061551901017446,-3.9718644360408297,368],["11_64085352_64088057-3",-0.17360632088235597,-4.651030312944942,590]]}}}
