{"depmap_hotspot":{"corr":{"top":[["ASB6",0.21108847163659533,-9.097866203365799,17.0,814.0],["BCL7B",0.1934578833319957,-7.723134815750042,12.0,819.0],["C11orf48",0.19187493491416865,-7.605732975605335,16.0,815.0],["C9orf114",0.19131730283723053,-7.564609641031282,24.0,807.0],["CCL3",0.25635314774701756,-13.210115310947389,8.0,823.0],["CHCHD10",0.1808467365302858,-6.814976703863659,10.0,821.0],["CLPP",0.17795238896996832,-6.615257444805341,16.0,815.0],["COQ4",0.24858060459975465,-12.442608492394228,12.0,819.0],["CXCR4",0.2080223622563012,-8.849869541222622,17.0,814.0],["CYB5RL",0.17061615843886435,-6.123445834867898,20.0,811.0],["DBT",0.16884043398859158,-6.0074933309892025,23.0,808.0],["DDI1",0.1676899958801455,-5.9330110414156225,31.0,800.0],["DERL2",0.20151872641536506,-8.336314318148512,13.0,818.0],["EFNB1",0.19297690238081286,-7.687357985055774,15.0,816.0],["EIF4A1",0.19684366151175844,-7.977557442195279,27.0,804.0],["EVA1B",0.21428911643654244,-9.360791703435678,12.0,819.0],["FAM13B",0.18874497896771142,-7.376487093144359,36.0,795.0],["FAM184B",0.1688394436190211,-6.0074289957545455,44.0,787.0],["FKBP14",0.22783163583782362,-10.519487504291968,8.0,823.0],["FLRT1",0.21232165462357178,-9.198678701314803,15.0,816.0],["GAL3ST2",0.21149467803579688,-9.131005674820154,22.0,809.0],["GALM",0.19297239857519602,-7.687023408037131,16.0,815.0],["HERPUD1",0.17522236094262383,-6.429831423425404,19.0,812.0],["HIST1H3J",0.1981602521060227,-8.077714181545888,11.0,820.0],["HIST1H4D",0.2497489796386427,-12.556321349294079,12.0,819.0],["HSF2BP",0.17920657046480926,-6.701403422764873,20.0,811.0],["IL15",0.19592619521367005,-7.908168312953698,9.0,822.0],["KCNE4",0.2223316609521602,-10.039844479768002,21.0,810.0],["MGST3",0.21175370258832776,-9.152172417836162,10.0,821.0],["MORN1",0.22910785102983067,-10.632569918248606,24.0,807.0],["MTERFD2",0.19145176850997847,-7.574514835313185,20.0,811.0],["MTMR12",0.1672301156267038,-5.903377759151412,32.0,799.0],["NPM2",0.19444291233606947,-7.796688322499895,15.0,816.0],["PEX26",0.200053136966812,-8.222914343671617,12.0,819.0],["PYGO1",0.18781341409966604,-7.308996776597104,22.0,809.0],["RBAK",0.1986496379516891,-8.115118045373265,44.0,787.0],["RECQL",0.24245375759706306,-11.855847683491874,24.0,807.0],["SIVA1",0.20695224756379837,-8.764205146100583,13.0,818.0],["SLC10A4",0.18387146697955625,-7.027151778397069,20.0,811.0],["STRADA",0.1685818528612388,-5.990708339642401,31.0,800.0],["TMEM211",0.22067083616255825,-9.897452358745644,8.0,823.0],["TMEM56",0.24230467992161908,-11.841769542690248,11.0,820.0],["USP14",0.16994819580684953,-6.079687958922223,24.0,807.0],["YY1",0.18537772056263116,-7.134133719095825,28.0,803.0],["ZNF830",0.20919910305790285,-8.944600592250247,19.0,812.0]],"bottom":[]},"para":{"top":[["AP001631.10",0.10737799199475295,-3.003791191088539,9.0,822.0],["BDH2",0.11625491641536974,-3.3914916728767515,13.0,818.0],["BLACE",0.10561367994006966,-2.9299324270594744,9.0,822.0],["C20orf201",0.08922404306425391,-2.2934288345072016,8.0,823.0],["C6orf52",0.11819867170797395,-3.479992765558072,16.0,815.0],["C6orf99",0.11450747645564126,-3.3130660868541497,12.0,819.0],["CALML5",0.12702711213026763,-3.8975237708935357,11.0,820.0],["CELA1",0.10213403581375802,-2.7874556558721784,12.0,819.0],["CMTM1",0.10681439231061804,-2.980083793468404,9.0,822.0],["DNAL1",0.10100686513061885,-2.7419980202831753,9.0,822.0],["DUSP21",0.11014698174724204,-3.1218182421155793,9.0,822.0],["GPAT2",0.14099484979993393,-4.6131561533667735,25.0,806.0],["H2BFWT",0.11958294721985681,-3.5437374860019917,16.0,815.0],["HBEGF",0.10736498401227032,-3.0033402924192676,11.0,820.0],["KCNE4",0.14831871871498253,-5.014920308026236,21.0,810.0],["KRTAP5-3",0.12100375227495425,-3.609616168340343,10.0,821.0],["MAP1LC3C",0.11772649763581745,-3.4583077404853406,13.0,818.0],["PRR25",0.07774310360736886,-1.9003996975795823,8.0,823.0],["RNASE12",0.10132494135134576,-2.754795621433701,10.0,821.0],["TGIF2",0.10193802982614616,-2.779412160746546,9.0,822.0],["TMEM190",0.10096682262516289,-2.7405582866975697,13.0,818.0],["ZC4H2",0.0957141744615382,-2.534918720204523,11.0,820.0]],"bottom":[["AP000783.1",-0.0823345625518872,-2.052463137438967,9.0,822.0],["ARL6IP5",-0.08399907899670227,-2.109380700001109,12.0,819.0],["C9orf78",-0.08355486989725133,-2.0942278919338824,16.0,815.0],["CDKN2C",-0.09297090876183063,-2.431362225332616,17.0,814.0],["COQ10A",-0.09434111336517326,-2.482551742429414,8.0,823.0],["EBAG9",-0.069028709139484,-1.6306673228425976,9.0,822.0],["GGT7",-0.10692189549479293,-2.9850647513530144,31.0,800.0],["PDK3",-0.09576556096039723,-2.5368444164468253,10.0,821.0],["PPAP2A",-0.06910844829082832,-1.6330622451253651,10.0,821.0],["PTP4A1",-0.08425136307956249,-2.118000865032045,10.0,821.0],["RP1-170O19.20",-0.07878210265324079,-1.934199064127397,8.0,823.0],["TSSK4",-0.09202053902339845,-2.395813134613693,10.0,821.0],["UBE2D3",-0.09136923086044214,-2.3717598719104394,10.0,821.0],["VDAC1",-0.08097156125896109,-2.0066620836520723,10.0,821.0]]}}}
{"depmap_damaging":{"corr":{"top":[["ACSL4",0.23902492414888446,-11.521396557689657,9.0,821.0],["BRCA2",0.1639992028248184,-5.691282258793185,43.0,787.0],["C1orf94",0.11959363599134352,-3.2556467118275427,10.0,820.0],["C9orf114",0.25467828535315284,-13.027711656959143,15.0,815.0],["C9orf84",0.18659542977194343,-7.213324333036677,10.0,820.0],["CNKSR1",0.23876828125410623,-11.497566337907479,8.0,822.0],["DDX17",0.23378332860392467,-11.040177308276332,9.0,821.0],["DENND4C",0.1797004336759372,-6.728118080127527,15.0,815.0],["ELP2",0.2642069563261313,-13.996288495588322,9.0,821.0],["GIN1",0.19459119376024223,-7.799163680283614,13.0,817.0],["GKAP1",0.21117467085381433,-9.094736911901249,8.0,822.0],["GUCY1A2",0.14662101144821985,-4.652004544172507,9.0,821.0],["HSPH1",0.16773729621954842,-5.929622584855251,12.0,818.0],["HTR3A",0.2097714925677177,-8.980859241750164,9.0,821.0],["KIAA1377",0.17371862459526116,-6.322018521631671,10.0,820.0],["KIAA2022",0.19291596495152616,-7.674348343504866,11.0,819.0],["MED1",0.16361233743366757,-5.666917076517292,12.0,818.0],["MICAL3",0.17101562379616267,-6.143006025685377,10.0,820.0],["MMEL1",0.14328733733552812,-4.465432214090609,12.0,818.0],["NRP2",0.11825667896474565,-3.1933772965512284,8.0,822.0],["PRR14",0.17261339139180448,-6.248485098883418,10.0,820.0],["RECQL",0.21304877773504524,-9.248071864064489,9.0,821.0],["SETD1A",0.2348036013543527,-11.132944613229377,8.0,822.0],["SETDB2",0.15763120852406526,-5.297377696611941,8.0,822.0],["TTC32",0.24135757141295747,-11.739263588599329,8.0,822.0],["VWA8",0.169057257842446,-6.015046867616026,24.0,806.0],["WDR70",0.12095750594998096,-3.319822418664702,35.0,795.0],["ZDHHC11",0.17983687982868193,-6.737541670474538,10.0,820.0],["ZNF175",0.12255443138720276,-3.3958040435245644,10.0,820.0]],"bottom":[]},"para":{"top":[["ABCA10",0.14724668563179752,-4.949837797574164,15.0,815.0],["AGRN",0.10433768903230603,-2.874519446975233,8.0,822.0],["C1orf94",0.10392156432027021,-2.857560218483331,10.0,820.0],["CCDC60",0.10511827024701154,-2.9066973325363508,8.0,822.0],["DDX17",0.16266790757249802,-5.849453036781821,9.0,821.0],["DPY19L2",0.09576683709460695,-2.534724725525955,11.0,819.0],["FMN1",0.11272295421052285,-3.231093394434469,12.0,818.0],["GUCY1A2",0.09607396864927681,-2.546395602702021,9.0,821.0],["HEATR5A",0.09020916904613586,-2.327184721874879,8.0,822.0],["KIF16B",0.11719125970112373,-3.430457505409516,8.0,822.0],["KRT75",0.08862198724290131,-2.269826993997043,8.0,822.0],["KSR2",0.10699298675402583,-2.984971712344629,11.0,819.0],["MAN2B1",0.10315263794749692,-2.8261684716997455,10.0,820.0],["MARVELD3",0.10594155561836452,-2.940918059088886,9.0,821.0],["MASP2",0.1071217620314224,-2.9902216623812636,8.0,822.0],["MED1",0.11023125089621506,-3.122726035032918,12.0,818.0],["MICAL3",0.14010770543896514,-4.560787354562872,10.0,820.0],["MMEL1",0.10247928502947967,-2.7989219891683144,12.0,818.0],["MYH6",0.11538942866314367,-3.3494177585903473,13.0,817.0],["NRP2",0.1067835101717167,-2.976025718289803,8.0,822.0],["PIGB",0.11465546948410119,-3.316437452548872,9.0,821.0],["PNPLA6",0.10859218055878532,-3.052615170343195,13.0,817.0],["SGSM1",0.09624566377319199,-2.5529265357103537,8.0,822.0],["SLC26A8",0.10137186133423179,-2.754306505671716,12.0,818.0],["TMEM198",0.0985040460371865,-2.6405426211722656,9.0,821.0],["UFL1",0.11186135660632825,-3.193344119118555,11.0,819.0],["VAV3",0.13500317469921394,-4.2936566680338295,13.0,817.0]],"bottom":[["ACE",-0.0943149914826809,-2.4797203768938827,17.0,813.0],["INTS6",-0.07783253200879736,-1.902067261274535,19.0,811.0],["THBS1",-0.08063403947908135,-1.9936943590504208,8.0,822.0],["UGGT1",-0.06653932632278513,-1.5570299945914243,13.0,817.0]]}}}
{"prism_primary_logfold":{"corr":{"top":[],"bottom":[["AZ20_BRD-K42436189-001-01-2::2.5::HTS",-0.15855231416661597,-3.2988640976351284,478],["JQ1-(+)_BRD-K54606188-001-13-1::2.5::HTS",-0.16656552267017374,-3.594340590081687,478]]},"para":{"top":[],"bottom":[]}}}
{"prism_secondary_logfold":{"corr":{"top":[["triciribine_BRD-K80431395-001-07-3::0.00971627::HTS002",0.16132468226864727,-2.980849002013739,410]],"bottom":[["josamycin_BRD-K25837718-001-03-8::2.5::HTS002",-0.25086369300803985,-6.5617820737084,409],["vatalanib_BRD-K70163715-300-05-7::9.67193::HTS002",-0.22676582742041487,-5.466080868161088,411],["bekanamycin_BRD-K73425385-065-04-8::10::HTS002",-0.21228537384313403,-4.8570302964673795,412],["dolastatin-10_BRD-K78567475-001-01-4::0.00061034::HTS002",-0.21639112986327969,-5.094259157299518,418],["TAK-285_BRD-K80343549-001-02-6::0.625::HTS002",-0.20316875825535727,-4.439082515900748,407]]},"para":{"top":[],"bottom":[["temazepam_BRD-A93093700-001-02-9::0.00061034::HTS002",-0.18740054452478738,-3.869139548562705,410],["josamycin_BRD-K25837718-001-03-8::2.5::HTS002",-0.22303932996368525,-5.279514789687793,409],["PQ-401_BRD-K67537649-001-04-5::0.00976562::HTS002",-0.1726651177216462,-3.302472310830919,403]]}}}
{"ccle_proteomics":{"corr":{"top":[["SART3_F8VV04",0.4008665102909725,-4.885596798213349,111]],"bottom":[["ZBTB44_H0YEM9",-0.3131479081645621,-3.423841264447311,125],["C1orf112_Q9NSG2",-0.2876286321331175,-2.778927096201498,117]]},"para":{"top":[["SLC25A36_Q96CQ1",0.29702915583217215,-3.2220381588845766,130],["TMEM143_Q96AN5",0.29827673163812585,-3.246273029244454,130]],"bottom":[["CCND3_P30281",-0.3389921757295725,-4.545790306541146,146],["TPCN2_Q8NHX9",-0.3562707301911389,-3.623990574870528,102]]}}}
{"avana":{"corr":{"top":[["CATSPERE_257044",0.16703142618670255,-3.5529587209221254,469],["FREM1_158326",0.18060101185355543,-4.076494813113149,469],["METTL5_29081",0.15985337812335426,-3.2916759494452585,469],["TNFSF13B_10673",0.16893894849033456,-3.6242043118702947,469]],"bottom":[["LARGE2_120071",-0.17970275732694713,-4.040629921681337,469],["MAPK8IP1_9479",-0.17259147727760915,-3.7627618199873534,469],["PLA2G16_11145",-0.16674479312038487,-3.5423189914128552,469],["RAB3IL1_5866",-0.1784434173422536,-3.990638105709862,469],["SATB2_23314",-0.2152785626443257,-5.552444411465132,465],["SCGB1D1_10648",-0.19078952995241785,-4.495437730020673,469],["SLC22A9_114571",-0.17898965950831117,-4.012280617572691,469],["ZFPL1_7542",-0.19103542108150492,-4.505825974490602,469]]},"para":{"top":[],"bottom":[["PRDM9_56979",-0.16629462198274375,-3.499629677922149,465],["SLC6A2_6530",-0.16256114717464254,-3.388978468093298,469],["ZFPL1_7542",-0.1726306763364869,-3.7642640896734907,469]]}}}
{"drive":{"corr":{"top":[["HIST1H1B_3009",0.21117861201111576,-3.849897041380937,320],["PAK5_57144",0.20136201829574032,-3.6161589337451123,328],["SRD5A3_79644",0.20046775031243466,-3.4928671020003597,318]],"bottom":[["CASP14_23581",-0.26087559424859713,-5.65000500933118,320],["MCL1_4170",-0.2519755218131963,-5.462251884247086,331],["XRCC5_7520",-0.28275306019367386,-6.531901338942328,318],["CCND2_894",-0.331948668968802,-8.942756939015046,320]]},"para":{"top":[["HIST1H1C_3006",0.18103970289786006,-2.942026250931456,320]],"bottom":[]}}}
{"achilles":{"corr":{"top":[["MPP3_4356",0.1992588151436071,-4.017549922932836,378]],"bottom":[]},"para":{"top":[["CHODL_140578",0.21562885200712295,-2.8555164106672954,217]],"bottom":[]}}}
{"ccle_rrbs_tss1kb":{"corr":{"top":[["MFAP3_5_153417518_153418518",0.4941360343418792,-49.93675105624668,803],["MAPK7_17_19280033_19281033",0.3961373860220204,-25.83514106413514,669],["HIP1_7_75368290_75369290",0.39124101422035096,-31.02352766295923,830],["NDUFA12_12_95397489_95398489",0.590151175989029,-53.96081535519562,569],["ANAPC5_12_121790265_121791265",0.45325294049929044,-40.353763285450015,786]],"bottom":[]},"para":{"top":[],"bottom":[["SLC35G5_8_11187494_11188494",-0.17433359135269716,-5.366521366537757,687]]}}}
{"ccle_gene_tpm":{"corr":{"top":[["snoU109_ENSG00000239197.1",0.4922411355899441,-50.77636824800103,824],["RN7SL643P_ENSG00000243124.2",0.6328609343927932,-92.69022496963836,824],["RPS4XP15_ENSG00000240721.2",0.36565200431277634,-26.740655208988674,824],["TBL1YP1_ENSG00000225624.1",0.3285879230596711,-21.470576546780208,824],["RNA5SP183_ENSG00000199322.1",0.6328609343927932,-92.69022496963836,824],["RP11-313I2.6_ENSG00000255170.2",0.3783474222622614,-28.712072700764192,824],["RNU1-135P_ENSG00000252842.1",0.4073147819024257,-33.548661883729665,824],["RP11-396N11.1_ENSG00000267401.1",0.3407245449392519,-23.118897659444595,824],["RNVU1-2_ENSG00000252135.1",0.4073147819024257,-33.548661883729665,824]],"bottom":[]},"para":{"top":[],"bottom":[["RP11-203E8.1_ENSG00000253891.1",-0.14231957258353767,-4.383940917297822,824]]}}}
{"ccle_rrbs_tss_clusters":{"corr":{"top":[["MFAP3",0.4918824712549573,-49.484605937358076,804],["OPN3_1",0.5616449197590115,-68.62316326926893,820]],"bottom":[["MICU2_1",-0.28217196259038185,-5.289003752995948,253],["EIF4EBP3_3",-0.1976320458880976,-7.583179158541226,780],["EEF1AKMT1_3",-0.16251263845696282,-3.9690133309145903,563],["HIST1H2BE_1",-0.23341742889443748,-7.52777306889066,551]]},"para":{"top":[["USP49_3",0.6943219910498276,-119.83875924178993,831]],"bottom":[["SLC35G5_2",-0.1521531297610273,-4.682604064569538,776],["GEMIN2_3",-0.14648230807741475,-4.5253032996013856,806],["MIR6885_1",-0.18497812335137745,-7.082245113463108,828],["PINK1-AS_2",-0.14305037940419008,-4.310369795762595,800],["ZNF410_1",-0.15321511274440322,-2.8643332517041165,434]]}}}
{"ccle_rrbs_cgi_clusters":{"corr":{"top":[["5_153416183_153420669-1",0.4918824712549573,-49.484605937358076,804],["1_241800960_241805649-2",0.5616449197590115,-68.62316326926893,820]],"bottom":[["5_139925157_139929491-3",-0.1976320458880976,-7.583179158541226,780],["9_137001233_137003998-2",-0.20984082293272832,-6.082715626242428,542],["6_26182036_26186336-1",-0.23341742889443748,-7.52777306889066,551],["19_3728415_3732769-1",-0.2131528552529618,-5.09393495019639,431]]},"para":{"top":[["6_41860841_41865335-3",0.6943219910498276,-119.83875924178993,831]],"bottom":[["19_46054783_46059149-1",-0.1672337125103441,-5.634433840669452,789],["1_6337948_6342268-3",-0.1676264038105287,-5.400463224152967,749],["7_39831494_39835725-3",-0.18086529846191096,-6.4649522231894405,784],["7_2097668_2102358-1",-0.17283144254058086,-6.215139058992425,823]]}}}
