{"depmap_hotspot":{"corr":{"top":[["C4orf22",0.15414623464161864,-5.017192888295278,17.0,800.0],["CPPED1",0.1394019332455848,-4.19461847355678,25.0,792.0],["CXorf48",0.14826962577215191,-4.679894222129603,9.0,808.0],["GMNN",0.13791726848509106,-4.116137133849741,9.0,808.0],["LILRA3",0.15392515938484946,-5.00427571081269,18.0,799.0],["MPHOSPH9",0.1219872670689256,-3.3233645019719478,68.0,749.0],["OR6C3",0.14795397785231154,-4.662132743265829,16.0,801.0],["RPS15",0.12240449082949209,-3.34298689297421,9.0,808.0]],"bottom":[["KCNQ1",-0.06703147045868599,-1.25596094331887,44.0,773.0],["KLC2",-0.06794999094115273,-1.28234860236201,43.0,774.0],["METRNL",-0.06676593625103802,-1.2483823379952719,25.0,792.0],["NFKB1",-0.07546137165986275,-1.508233411046634,45.0,772.0]]},"para":{"top":[["FADS1",0.11491103469895945,-3.2878565055757054,22.0,795.0],["FAM150B",0.12015207764397165,-3.522462248183975,8.0,809.0],["KBTBD3",0.13165841246865906,-4.0715709026674824,28.0,789.0],["OSTM1",0.08269650650087636,-2.0408242468450375,8.0,809.0],["RBM8A",0.11499875221284729,-3.2912648555251027,9.0,808.0]],"bottom":[["C15orf38",-0.08881353799056971,-2.251699619520623,12.0,805.0],["MED22",-0.08584097814557232,-2.147924348491387,16.0,801.0],["MRM1",-0.1028087837724185,-2.7795296094082227,16.0,801.0],["NUDT9",-0.08379284648213989,-2.077948055235443,14.0,803.0]]}}}
{"depmap_damaging":{"corr":{"top":[["ALS2CR11",0.15185143180267485,-4.878670075175302,10.0,806.0],["DGCR8",0.138661824210877,-4.1509403718123234,12.0,804.0],["IL22RA2",0.182826446589833,-6.838987453252275,8.0,808.0],["IL27RA",0.19526845590916875,-7.728250035322314,9.0,807.0],["KLK6",0.13153299121559012,-3.783597266688499,12.0,804.0],["MAP4K1",0.11656521750524224,-3.0706828147967165,10.0,806.0]],"bottom":[]},"para":{"top":[["KIAA0368",0.11053833202716687,-3.0953894507773905,10.0,806.0],["SLC6A9",0.097283420667204,-2.560933775531513,8.0,808.0]],"bottom":[["MYO3A",-0.09596276662515113,-2.511130140442921,14.0,802.0]]}}}
{"prism_primary_logfold":{"corr":{"top":[],"bottom":[]},"para":{"top":[["rimonabant_BRD-K13296708-001-05-8::2.5::HTS",0.19068449745326693,-4.440196313318408,463]],"bottom":[]}}}
{"prism_secondary_logfold":{"corr":{"top":[["eprinomectin_BRD-A91366704-001-01-9::0.0024414::HTS002",0.18522210916459364,-3.060065923503731,320],["KPT-185_BRD-K71467466-001-02-3::0.0024414::HTS002",0.16871744439889794,-3.199784425503327,407],["radezolid_BRD-K84683831-001-01-0::0.625::HTS002",0.18250374866785837,-3.1733829044011803,344],["caffeic-acid-phenethyl-ester_BRD-K96188950-001-16-9::0.0390625::HTS002",0.1758911109374405,-3.439717672178513,407]],"bottom":[["trovafloxacin_BRD-K00494077-066-01-9::0.15625::HTS002",-0.2358472375502998,-5.552664835342957,386],["bexarotene_BRD-K92441787-001-04-1::0.0391::MTS010::PROS003_PR500",-0.21641157415019757,-4.844241752569073,395]]},"para":{"top":[],"bottom":[["trovafloxacin_BRD-K00494077-066-01-9::0.15625::HTS002",-0.19501954901418844,-3.938665363586038,386],["taurine_BRD-K51474575-001-10-4::0.0390625::HTS002",-0.19674432786214538,-3.6729379885939863,350]]}}}
{"ccle_proteomics":{"corr":{"top":[["SMOC1_Q9H4F8-2",0.29012291487375474,-3.4994739975599534,150],["MPND_M0R189",0.3002919375700501,-3.4395174705292577,137]],"bottom":[["RPP21_Q9H633-4",-0.3105198993001658,-5.8057309251454186,230],["PUM1_E7EWT3",-0.3293328023240973,-3.885255677901162,130]]},"para":{"top":[],"bottom":[]}}}
{"depmap_copy_number":{"corr":{"top":[],"bottom":[]},"para":{"top":[["ARRB1_408",0.1401362956866656,-4.229182222065302,816]],"bottom":[]}}}
{"depmap_gene_tpm":{"corr":{"top":[["REM1_28954",0.19970685228379484,-8.032644249636125,813],["MEPE_56955",0.16400269095880474,-5.586679778071352,813]],"bottom":[]},"para":{"top":[],"bottom":[]}}}
{"avana":{"corr":{"top":[["SPTBN1_6711",0.14913006908698906,-2.878888775094761,461],["URAD_646625",0.1805508362219577,-4.013536833734434,461]],"bottom":[["CACNA2D1_781",-0.15392452649932004,-3.0390000815139246,461],["CSAG1_158511",-0.16112396209655874,-3.1100845996544315,432],["FAM122B_159090",-0.170841357106398,-3.442116053517635,432],["FYTTD1_84248",-0.14592149981390984,-2.7743115756309136,461]]},"para":{"top":[["ABLIM1_3983",0.17489607439606514,-3.794311257781477,461],["ADPRH_141",0.16782818250719023,-3.529662095256142,461],["ARFGAP1_55738",0.1875719260722099,-4.295091549772047,461],["BCL7B_9275",0.2163775813701305,-5.561117671302973,461],["GCG_2641",0.1787322369095509,-3.942302493391833,461],["GUCA2A_2980",0.1815549482651453,-4.053165511232987,461],["PTPRF_5792",0.1770096636240365,-3.875468729330395,461],["TUBGCP4_27229",0.19128857257707946,-4.44836598294785,461],["UGT1A1_54658",0.17166957446020728,-3.672214223294181,461]],"bottom":[["N4BP3_23138",-0.1633377019222637,-3.366877039727501,461]]}}}
{"drive":{"corr":{"top":[],"bottom":[["CCNYL1_151195",-0.21350318892949732,-3.818000895954418,310]]},"para":{"top":[["KLHL1_57626",0.20975470816981737,-3.700069286320208,310]],"bottom":[["DNAJC10_54431",-0.21362911916045077,-3.8435436310660234,312]]}}}
{"achilles":{"corr":{"top":[["ACAP3_116983",0.2372191729306429,-3.305312625087268,212],["CNOT10_25904",0.2780701904359156,-4.395347163396101,212],["SNX5_27131",0.2120656997207289,-2.7204017204561097,212],["GML_2765",0.27368570522673713,-4.269720929235533,212],["RPAIN_84268",0.22211568304834609,-2.9464829146593594,212]],"bottom":[["TXNRD2_10587",-0.2296198863054945,-5.0897163603933615,370]]},"para":{"top":[],"bottom":[]}}}
{"ccle_rrbs_tss1kb":{"corr":{"top":[["STAT2_12_56754037_56755037",0.3594504091892728,-25.02126668917273,798],["SH3GL1_19_4400565_4401565",0.36047072298769217,-25.747656681147696,817]],"bottom":[["CLDN19_1_43205925_43206925",-0.15648432413182656,-4.833595536483184,760]]},"para":{"top":[],"bottom":[]}}}
{"ccle_gene_tpm":{"corr":{"top":[["RP11-162N7.1_ENSG00000258254.1",0.21015329189851212,-8.8105407824235,810],["RP13-221M14.3_ENSG00000229978.1",0.21191353095423626,-8.950412991984997,810],["RP11-434J24.2_ENSG00000227505.1",0.21015329189851212,-8.8105407824235,810]],"bottom":[]},"para":{"top":[["RP11-158D2.1_ENSG00000270166.1",0.12926039969088843,-3.6469027921873023,810],["RP5-1044H5.1_ENSG00000229294.1",0.12930627161183497,-3.6491561057422452,810]],"bottom":[]}}}
{"ccle_rrbs_tss_clusters":{"corr":{"top":[],"bottom":[["SEPT4_1",-0.1713113461668774,-3.9474519861613095,503]]},"para":{"top":[["XRRA1_1",0.54197737891644,-62.83581288103051,817]],"bottom":[["FBXO24_3",-0.15262340056194443,-4.595561844193555,755],["NCOA1_1",-0.1421153128475465,-3.1043328027700112,555],["RIMKLA_1",-0.19875082646730607,-2.8090172648004543,251]]}}}
{"ccle_rrbs_cgi_clusters":{"corr":{"top":[],"bottom":[["10_124897704_124902077-2",-0.18700107085968098,-2.3022380618980227,224]]},"para":{"top":[["11_74657931_74662373-1",0.54197737891644,-62.83581288103051,817]],"bottom":[["2_24711710_24714439-1",-0.1421153128475465,-3.1043328027700112,555],["10_54168771_54172978-2",-0.1645389391471351,-3.2567083129277994,437],["1_42843978_42846483-1",-0.19875082646730607,-2.8090172648004543,251]]}}}
